 	R	G	B
1	0	0	0
2	0	0	0
3	0	0	0
4	0	0	0
5	0	0	0
6	0	0	0
7	0	0	0
8	0	0	0
9	0	0	0
10	0	0	0
11	0	0	0
12	0	0	0
13	0	0	0
14	0	0	0
15	0	0	0
16	0	0	0
17	0	0	0
18	0	0	0
19	0	0	0
20	0	0	0
21	0	0	0
22	0	0	0
23	0	0	0
24	0	0	0
25	255	235	230
26	0	0	0
27	0	0	0
28	0	0	0
29	0	0	0
30	0	0	0
31	0	0	0
32	0	0	0
33	0	0	0
34	0	0	0
35	0	0	0
36	0	0	0
37	0	0	0
38	0	0	0
39	0	0	0
40	0	0	0
41	0	0	0
42	0	0	0
43	0	0	0
44	0	0	0
45	0	0	0
46	0	0	0
47	0	0	0
48	0	0	0
49	250	201	216
50	247	199	211
51	249	203	213
52	252	208	218
53	254	212	221
54	254	213	219
55	255	222	223
56	255	233	231
57	255	230	228
58	255	228	227
59	255	225	225
60	255	222	224
61	253	216	219
62	247	208	212
63	252	216	218
64	255	226	228
65	253	219	225
66	0	0	0
67	0	0	0
68	0	0	0
69	0	0	0
70	0	0	0
71	0	0	0
72	0	0	0
73	0	0	0
74	0	0	0
75	0	0	0
76	0	0	0
77	0	0	0
78	0	0	0
79	0	0	0
80	0	0	0
81	0	0	0
82	0	0	0
83	0	0	0
84	254	198	222
85	254	198	220
86	248	190	212
87	252	196	215
88	254	199	218
89	255	201	220
90	250	195	213
91	255	204	217
92	255	211	221
93	255	207	217
94	253	205	215
95	251	202	214
96	253	206	218
97	247	199	212
98	248	202	213
99	253	210	219
100	255	214	224
101	251	207	221
102	245	202	219
103	0	0	0
104	0	0	0
105	0	0	0
106	0	0	0
107	0	0	0
108	0	0	0
109	0	0	0
110	0	0	0
111	0	0	0
112	0	0	0
113	0	0	0
114	0	0	0
115	0	0	0
116	0	0	0
117	251	185	221
118	255	195	226
119	255	194	225
120	255	191	223
121	251	185	219
122	247	179	215
123	251	184	217
124	252	185	216
125	249	182	213
126	245	177	211
127	249	184	214
128	251	190	214
129	246	185	209
130	245	183	209
131	246	186	211
132	248	189	214
133	248	192	216
134	249	196	216
135	250	198	218
136	251	199	220
137	246	195	218
138	0	0	0
139	0	0	0
140	0	0	0
141	0	0	0
142	0	0	0
143	0	0	0
144	0	0	0
145	0	0	0
146	0	0	0
147	0	0	0
148	0	0	0
149	0	0	0
150	0	0	0
151	248	186	221
152	250	185	222
153	255	202	235
154	255	187	224
155	255	187	225
156	252	178	220
157	249	173	217
158	255	181	223
159	255	185	225
160	251	174	215
161	248	171	212
162	254	179	220
163	255	186	223
164	253	184	217
165	248	178	211
166	254	189	219
167	255	191	221
168	251	188	219
169	253	191	221
170	255	197	224
171	255	198	224
172	250	192	220
173	0	0	0
174	0	0	0
175	0	0	0
176	0	0	0
177	0	0	0
178	0	0	0
179	0	0	0
180	0	0	0
181	0	0	0
182	0	0	0
183	0	0	0
184	0	0	0
185	0	0	0
186	252	194	222
187	255	199	229
188	255	199	232
189	255	190	229
190	252	176	219
191	252	172	219
192	247	163	214
193	254	172	220
194	255	178	222
195	250	167	213
196	242	156	206
197	249	166	214
198	255	174	220
199	253	174	219
200	249	172	214
201	253	179	216
202	255	188	221
203	252	183	216
204	249	180	216
205	253	186	221
206	255	192	225
207	251	187	220
208	245	180	216
209	252	195	226
210	255	208	232
211	254	210	231
212	0	0	0
213	0	0	0
214	0	0	0
215	0	0	0
216	0	0	0
217	0	0	0
218	0	0	0
219	0	0	0
220	0	0	0
221	255	206	227
222	255	195	224
223	255	201	232
224	252	178	221
225	250	170	219
226	254	171	221
227	254	168	221
228	247	155	215
229	253	163	220
230	255	167	220
231	244	155	210
232	249	161	214
233	255	172	223
234	255	170	222
235	253	168	220
236	252	169	217
237	255	176	220
238	253	178	218
239	246	172	212
240	255	186	223
241	255	192	228
242	254	186	223
243	249	181	218
244	251	186	222
245	255	201	232
246	254	201	229
247	253	204	229
248	253	208	232
249	0	0	0
250	252	214	231
251	0	0	0
252	0	0	0
253	0	0	0
254	0	0	0
255	255	228	240
256	255	215	232
257	255	208	231
258	255	198	228
259	251	179	221
260	240	158	212
261	250	164	221
262	254	164	223
263	251	157	219
264	244	145	213
265	252	154	221
266	254	158	222
267	255	163	224
268	255	168	226
269	254	165	223
270	251	161	221
271	249	161	219
272	248	161	218
273	248	164	218
274	246	166	217
275	249	175	221
276	255	188	226
277	251	181	220
278	246	176	215
279	253	185	222
280	255	191	225
281	253	193	226
282	251	194	226
283	251	198	228
284	250	201	229
285	251	208	231
286	253	216	234
287	254	221	235
288	0	0	0
289	0	0	0
290	255	233	241
291	255	222	236
292	253	203	226
293	254	196	226
294	254	187	225
295	247	170	218
296	253	170	225
297	255	176	235
298	250	154	222
299	248	147	219
300	252	150	224
301	255	160	231
302	253	149	223
303	255	155	226
304	251	152	221
305	240	144	214
306	245	155	221
307	243	156	220
308	251	169	226
309	254	173	227
310	249	169	223
311	249	177	225
312	253	187	228
313	247	180	220
314	248	179	219
315	255	190	227
316	252	185	223
317	250	187	224
318	252	194	229
319	252	198	231
320	251	202	230
321	253	209	233
322	251	212	233
323	251	216	234
324	252	223	234
325	0	0	0
326	255	227	237
327	253	209	229
328	247	192	223
329	250	186	225
330	250	178	223
331	255	179	229
332	255	179	233
333	255	162	227
334	244	141	219
335	254	150	229
336	255	153	232
337	254	146	227
338	245	135	218
339	247	137	218
340	241	134	214
341	241	142	218
342	245	153	227
343	249	164	231
344	255	175	232
345	253	172	227
346	247	168	223
347	249	177	227
348	253	188	230
349	248	183	225
350	249	183	225
351	250	182	225
352	246	178	221
353	248	185	225
354	251	193	230
355	252	197	231
356	251	200	229
357	249	203	229
358	248	206	230
359	247	211	231
360	0	0	0
361	255	236	241
362	255	221	234
363	251	205	227
364	253	196	229
365	255	191	232
366	251	175	225
367	255	176	230
368	255	167	228
369	248	150	221
370	249	144	225
371	255	154	237
372	254	144	231
373	247	136	225
374	239	125	216
375	240	127	216
376	248	142	223
377	251	152	229
378	250	156	232
379	253	165	234
380	253	170	230
381	247	165	222
382	248	170	225
383	254	182	232
384	250	180	229
385	243	174	222
386	251	187	230
387	251	186	229
388	244	178	223
389	248	186	228
390	253	196	234
391	255	201	235
392	248	196	228
393	247	199	228
394	248	207	232
395	0	0	0
396	0	0	0
397	0	0	0
398	249	211	225
399	250	203	225
400	252	195	229
401	252	184	229
402	247	169	223
403	249	162	224
404	248	154	224
405	251	151	226
406	251	144	226
407	252	140	229
408	247	131	228
409	239	124	223
410	229	112	212
411	241	130	221
412	249	145	226
413	250	149	227
414	248	152	228
415	246	157	228
416	246	162	226
417	244	164	223
418	246	169	226
419	247	171	227
420	244	170	226
421	247	180	230
422	254	192	235
423	248	184	228
424	241	177	224
425	248	188	232
426	252	197	236
427	247	193	231
428	242	189	227
429	248	201	234
430	249	208	236
431	0	0	0
432	0	0	0
433	0	0	0
434	255	223	233
435	255	215	235
436	252	194	229
437	252	184	230
438	252	173	229
439	253	167	230
440	255	161	232
441	255	158	235
442	248	139	225
443	249	135	227
444	250	135	233
445	242	127	228
446	234	121	220
447	242	136	227
448	251	151	232
449	255	157	233
450	246	151	227
451	240	153	225
452	242	164	227
453	243	167	227
454	251	179	234
455	251	181	234
456	243	171	229
457	248	182	234
458	250	188	234
459	242	179	226
460	240	178	227
461	246	189	234
462	250	198	236
463	241	192	229
464	244	198	234
465	255	212	244
466	248	205	236
467	0	0	0
468	0	0	0
469	0	0	0
470	255	233	242
471	255	213	235
472	250	191	228
473	253	184	231
474	252	174	230
475	255	169	233
476	255	162	234
477	251	148	230
478	241	129	222
479	246	132	227
480	244	130	228
481	238	126	225
482	231	121	221
483	242	139	231
484	251	154	236
485	247	151	231
486	238	145	223
487	236	153	225
488	240	165	229
489	246	175	233
490	253	186	238
491	243	175	230
492	236	166	225
493	241	175	231
494	244	181	231
495	241	180	229
496	239	179	229
497	248	191	236
498	250	199	236
499	243	199	231
500	246	204	235
501	246	202	234
502	0	0	0
503	0	0	0
504	0	0	0
505	0	0	0
506	255	231	241
507	255	210	233
508	248	189	226
509	251	182	229
510	255	180	235
511	255	175	238
512	251	156	231
513	245	141	226
514	244	136	228
515	245	137	232
516	243	137	230
517	237	133	227
518	243	143	234
519	255	165	249
520	252	158	240
521	241	151	231
522	235	149	227
523	239	161	232
524	247	177	239
525	252	186	242
526	244	178	233
527	232	166	224
528	239	177	233
529	246	187	239
530	243	183	234
531	240	182	231
532	243	186	234
533	255	201	243
534	248	195	234
535	240	193	229
536	243	203	234
537	0	0	0
538	0	0	0
539	0	0	0
540	0	0	0
541	0	0	0
542	255	230	240
543	253	208	230
544	246	187	223
545	253	186	231
546	255	183	236
547	249	165	229
548	240	145	221
549	242	143	226
550	241	138	228
551	245	143	234
552	243	142	233
553	246	152	238
554	252	161	243
555	255	162	244
556	248	156	238
557	239	154	234
558	233	154	233
559	242	170	240
560	249	183	242
561	241	175	233
562	234	168	229
563	238	178	235
564	244	188	240
565	242	186	236
566	239	182	232
567	241	186	233
568	244	190	233
569	246	191	234
570	0	0	0
571	0	0	0
572	0	0	0
573	0	0	0
574	0	0	0
575	0	0	0
576	0	0	0
577	0	0	0
578	255	224	236
579	249	202	226
580	251	194	229
581	255	193	235
582	253	181	234
583	242	160	225
584	243	158	230
585	247	157	235
586	248	154	237
587	252	159	242
588	250	157	240
589	255	167	246
590	254	166	244
591	255	166	244
592	245	155	236
593	236	154	234
594	240	167	242
595	248	183	248
596	245	183	241
597	235	174	231
598	236	176	235
599	244	189	244
600	243	188	240
601	239	184	234
602	242	189	236
603	245	193	237
604	241	190	232
605	0	0	0
606	0	0	0
607	0	0	0
608	0	0	0
609	0	0	0
610	0	0	0
611	0	0	0
612	0	0	0
613	0	0	0
614	255	224	240
615	255	213	238
616	255	203	237
617	255	192	234
618	250	180	231
619	250	176	235
620	252	174	241
621	255	174	246
622	254	169	244
623	255	171	246
624	254	169	243
625	253	169	243
626	252	169	243
627	248	163	239
628	236	151	231
629	236	162	236
630	239	175	243
631	240	178	242
632	237	179	237
633	233	178	234
634	234	181	237
635	237	183	239
636	236	183	236
637	239	188	237
638	241	192	236
639	239	191	234
640	236	188	232
641	0	0	0
642	0	0	0
643	0	0	0
644	0	0	0
645	0	0	0
646	0	0	0
647	0	0	0
648	0	0	0
649	0	0	0
650	255	224	242
651	255	211	238
652	254	201	235
653	250	188	231
654	252	185	234
655	253	182	238
656	253	177	241
657	253	175	243
658	255	176	244
659	255	177	245
660	253	173	242
661	251	173	243
662	248	171	242
663	242	164	237
664	237	164	236
665	0	0	0
666	243	191	248
667	246	195	249
668	238	186	240
669	0	0	0
670	0	0	0
671	0	0	0
672	239	194	241
673	242	199	242
674	240	198	237
675	236	196	234
676	232	191	233
677	0	0	0
678	0	0	0
679	0	0	0
680	0	0	0
681	0	0	0
682	0	0	0
683	0	0	0
684	0	0	0
685	0	0	0
686	255	224	244
687	254	210	237
688	250	198	232
689	249	192	232
690	250	188	235
691	250	183	236
692	246	175	235
693	248	178	239
694	250	179	241
695	251	179	242
696	247	174	238
697	240	170	235
698	236	168	234
699	237	172	238
700	0	0	0
701	0	0	0
702	0	0	0
703	243	197	245
704	0	0	0
705	0	0	0
706	0	0	0
707	0	0	0
708	0	0	0
709	238	201	239
710	235	199	233
711	231	197	232
712	0	0	0
713	0	0	0
714	0	0	0
715	0	0	0
716	0	0	0
717	0	0	0
718	0	0	0
719	0	0	0
720	0	0	0
721	0	0	0
722	255	222	242
723	250	205	234
724	247	199	232
725	0	0	0
726	254	204	243
727	254	199	243
728	245	185	236
729	243	186	238
730	247	191	243
731	250	192	246
732	240	180	238
733	229	173	232
734	232	183	237
735	0	0	0
736	0	0	0
737	0	0	0
738	0	0	0
739	0	0	0
740	0	0	0
741	0	0	0
742	0	0	0
743	0	0	0
744	0	0	0
745	0	0	0
746	0	0	0
747	0	0	0
748	0	0	0
749	0	0	0
750	0	0	0
751	0	0	0
752	0	0	0
753	0	0	0
754	0	0	0
755	0	0	0
756	0	0	0
757	0	0	0
758	0	0	0
759	250	210	238
760	0	0	0
761	0	0	0
762	0	0	0
763	251	207	243
764	241	193	236
765	240	196	240
766	243	201	244
767	241	195	243
768	231	184	236
769	231	193	240
770	0	0	0
771	0	0	0
772	0	0	0
773	0	0	0
774	0	0	0
775	0	0	0
776	0	0	0
777	0	0	0
778	0	0	0
779	0	0	0
780	0	0	0
781	0	0	0
782	0	0	0
783	0	0	0
784	0	0	0
785	0	0	0
786	0	0	0
787	0	0	0
788	0	0	0
789	0	0	0
790	0	0	0
791	0	0	0
792	0	0	0
