 	R	G	B
1	0	0	0
2	0	0	0
3	0	0	0
4	0	0	0
5	0	0	0
6	0	0	0
7	241	137	222
8	0	0	0
9	0	0	0
10	0	0	0
11	0	0	0
12	0	0	0
13	0	0	0
14	0	0	0
15	0	0	0
16	0	0	0
17	229	139	222
18	237	133	225
19	219	99	206
20	233	117	219
21	0	0	0
22	0	0	0
23	0	0	0
24	0	0	0
25	0	0	0
26	0	0	0
27	0	0	0
28	218	130	219
29	211	107	210
30	193	73	192
31	0	0	0
32	0	0	0
33	220	113	213
34	0	0	0
35	0	0	0
36	0	0	0
37	0	0	0
38	214	135	222
39	205	121	217
40	189	93	203
41	181	79	197
42	0	0	0
43	210	113	220
44	217	122	223
45	0	0	0
46	0	0	0
47	0	0	0
48	216	142	225
49	202	125	217
50	191	110	212
51	184	99	209
52	175	84	201
53	194	106	218
54	204	119	225
55	202	114	219
56	231	171	227
57	211	142	217
58	206	136	220
59	200	130	219
60	188	113	211
61	192	119	220
62	186	109	217
63	178	96	210
64	194	116	225
65	195	114	223
66	0	0	0
67	0	0	0
68	0	0	0
69	194	126	217
70	189	120	217
71	193	126	224
72	197	130	229
73	188	118	222
74	178	104	214
75	182	107	217
76	0	0	0
77	0	0	0
78	0	0	0
79	200	134	217
80	194	132	224
81	183	118	219
82	190	124	227
83	190	125	226
84	178	110	216
85	0	0	0
86	0	0	0
87	0	0	0
88	0	0	0
89	0	0	0
90	198	137	221
91	185	126	221
92	174	112	217
93	183	119	226
94	183	119	224
95	181	119	222
96	0	0	0
97	0	0	0
98	0	0	0
99	0	0	0
100	0	0	0
101	0	0	0
102	182	128	222
103	0	0	0
104	0	0	0
105	0	0	0
106	0	0	0
107	0	0	0
108	0	0	0
109	0	0	0
110	0	0	0
