 	R	G	B
1	0	0	0
2	0	0	0
3	0	0	0
4	0	0	0
5	0	0	0
6	0	0	0
7	0	0	0
8	0	0	0
9	0	0	0
10	0	0	0
11	255	220	229
12	255	201	222
13	0	0	0
14	0	0	0
15	0	0	0
16	0	0	0
17	0	0	0
18	0	0	0
19	0	0	0
20	0	0	0
21	0	0	0
22	0	0	0
23	0	0	0
24	0	0	0
25	0	0	0
26	0	0	0
27	255	247	243
28	255	247	245
29	255	244	245
30	255	237	238
31	255	219	230
32	255	203	226
33	252	182	221
34	232	153	209
35	239	168	223
36	0	0	0
37	0	0	0
38	0	0	0
39	0	0	0
40	0	0	0
41	0	0	0
42	0	0	0
43	0	0	0
44	0	0	0
45	0	0	0
46	0	0	0
47	255	239	239
48	255	242	243
49	255	216	230
50	255	215	232
51	255	198	221
52	249	180	214
53	242	164	214
54	230	143	208
55	221	133	207
56	225	146	218
57	219	140	211
58	0	0	0
59	0	0	0
60	0	0	0
61	0	0	0
62	0	0	0
63	0	0	0
64	0	0	0
65	0	0	0
66	0	0	0
67	255	240	242
68	255	233	236
69	255	210	224
70	248	185	213
71	247	175	213
72	242	160	210
73	234	145	209
74	227	131	210
75	228	130	217
76	217	118	212
77	212	121	212
78	203	113	202
79	237	154	225
80	0	0	0
81	0	0	0
82	0	0	0
83	0	0	0
84	0	0	0
85	0	0	0
86	0	0	0
87	255	231	239
88	255	223	235
89	255	211	228
90	254	189	219
91	245	167	212
92	241	155	213
93	237	145	215
94	230	131	215
95	225	118	216
96	228	118	223
97	217	108	216
98	210	109	214
99	194	98	201
100	213	130	217
101	217	139	213
102	0	0	0
103	0	0	0
104	0	0	0
105	0	0	0
106	0	0	0
107	0	0	0
108	0	0	0
109	253	197	223
110	254	187	221
111	248	166	216
112	240	145	213
113	237	137	218
114	233	126	218
115	230	116	220
116	222	102	216
117	223	100	217
118	211	88	208
119	203	88	206
120	186	77	195
121	188	94	202
122	190	103	200
123	229	149	225
124	253	183	237
125	255	195	234
126	0	0	0
127	0	0	0
128	0	0	0
129	255	204	229
130	255	190	225
131	255	177	224
132	249	156	220
133	250	146	226
134	251	139	232
135	242	119	226
136	239	110	226
137	225	89	215
138	220	84	213
139	224	94	218
140	222	98	219
141	207	90	212
142	203	106	218
143	191	101	208
144	217	140	228
145	225	153	227
146	237	169	228
147	240	186	227
148	0	0	0
149	0	0	0
150	253	188	224
151	249	172	219
152	249	159	221
153	249	147	222
154	248	135	224
155	243	118	221
156	234	98	215
157	230	88	214
158	216	67	203
159	226	83	216
160	231	94	223
161	226	94	221
162	212	86	212
163	201	91	211
164	184	86	202
165	187	103	207
166	191	114	207
167	207	135	213
168	0	0	0
169	0	0	0
170	0	0	0
171	255	192	232
172	255	175	227
173	250	153	224
174	250	141	225
175	255	139	231
176	249	121	227
177	235	95	216
178	229	82	214
179	221	70	208
180	237	89	224
181	236	93	225
182	228	90	221
183	224	96	221
184	220	105	225
185	195	89	209
186	186	100	210
187	190	123	217
188	0	0	0
189	0	0	0
190	0	0	0
191	255	195	234
192	255	188	231
193	251	162	221
194	245	142	221
195	253	140	230
196	255	136	234
197	241	109	221
198	226	83	210
199	227	79	214
200	219	66	208
201	233	83	222
202	232	85	221
203	231	94	224
204	229	100	227
205	222	100	226
206	197	84	209
207	194	111	220
208	195	132	226
209	0	0	0
210	0	0	0
211	255	205	240
212	255	195	237
213	254	175	227
214	244	150	217
215	255	152	232
216	255	151	241
217	250	125	228
218	228	95	213
219	231	94	219
220	235	93	225
221	220	69	211
222	230	83	222
223	223	78	217
224	224	88	222
225	221	90	223
226	218	92	223
227	198	81	210
228	197	108	221
229	193	124	221
230	0	0	0
231	0	0	0
232	255	200	237
233	250	178	228
234	244	160	222
235	250	157	228
236	255	157	236
237	252	135	229
238	239	110	218
239	237	107	222
240	238	105	227
241	231	90	222
242	215	66	208
243	218	72	214
244	212	68	211
245	213	75	215
246	211	78	216
247	212	85	220
248	192	74	208
249	190	100	217
250	187	115	216
251	0	0	0
252	0	0	0
253	255	202	239
254	251	181	231
255	252	172	233
256	255	169	239
257	255	158	237
258	251	135	228
259	253	127	231
260	255	127	238
261	238	101	225
262	225	83	216
263	219	77	214
264	222	83	221
265	218	81	220
266	222	89	227
267	214	85	222
268	211	90	225
269	182	69	204
270	178	93	212
271	185	119	219
272	0	0	0
273	0	0	0
274	0	0	0
275	253	186	233
276	254	177	237
277	252	164	235
278	250	151	232
279	250	142	232
280	250	134	232
281	239	113	224
282	223	87	211
283	223	88	217
284	218	82	215
285	219	86	220
286	216	84	220
287	213	85	221
288	205	80	217
289	195	78	214
290	166	57	193
291	172	92	209
292	0	0	0
293	0	0	0
294	0	0	0
295	0	0	0
296	0	0	0
297	255	188	240
298	255	174	238
299	251	162	237
300	244	149	233
301	238	135	229
302	228	114	220
303	224	104	220
304	229	107	228
305	218	90	219
306	221	95	224
307	222	101	229
308	215	100	228
309	201	88	220
310	192	86	217
311	177	80	206
312	191	120	227
313	204	146	239
314	0	0	0
315	0	0	0
316	0	0	0
317	255	202	241
318	255	199	242
319	255	185	238
320	255	174	240
321	243	156	236
322	237	143	234
323	235	134	234
324	230	122	230
325	225	112	227
326	214	96	220
327	224	109	233
328	224	114	234
329	214	108	230
330	200	96	223
331	199	106	228
332	185	100	217
333	198	133	233
334	210	158	242
335	0	0	0
336	0	0	0
337	255	209	243
338	255	203	241
339	255	190	233
340	248	175	228
341	251	173	237
342	245	158	236
343	242	150	238
344	239	140	237
345	232	129	232
346	223	117	227
347	220	115	230
348	228	127	241
349	212	108	228
350	206	103	226
351	194	94	220
352	191	102	224
353	188	110	222
354	205	145	238
355	212	165	242
356	0	0	0
357	0	0	0
358	254	207	235
359	252	195	231
360	249	184	230
361	250	179	234
362	252	176	240
363	249	166	239
364	246	157	240
365	243	150	240
366	235	139	235
367	233	139	238
368	229	136	240
369	218	122	233
370	203	104	223
371	200	103	226
372	188	93	219
373	193	112	229
374	190	119	227
375	201	145	236
376	0	0	0
377	0	0	0
378	0	0	0
379	255	215	239
380	255	203	235
381	251	189	234
382	254	185	238
383	255	182	242
384	251	170	239
385	246	161	239
386	241	152	238
387	228	135	230
388	227	136	234
389	219	128	232
390	207	114	226
391	196	103	222
392	191	101	223
393	187	102	223
394	195	122	234
395	196	135	234
396	0	0	0
397	0	0	0
398	0	0	0
399	0	0	0
400	255	220	243
401	252	204	235
402	248	189	230
403	254	189	236
404	255	186	240
405	255	178	240
406	251	167	239
407	241	153	235
408	229	137	230
409	221	131	231
410	213	122	229
411	205	115	227
412	193	103	222
413	195	112	229
414	188	111	226
415	196	133	236
416	0	0	0
417	0	0	0
418	0	0	0
419	0	0	0
420	0	0	0
421	255	232	249
422	255	215	242
423	251	198	235
424	255	198	240
425	255	190	240
426	255	182	242
427	247	160	233
428	238	146	230
429	240	151	239
430	229	142	237
431	214	126	231
432	206	118	230
433	206	123	235
434	209	132	241
435	201	133	236
436	0	0	0
437	0	0	0
438	0	0	0
439	0	0	0
440	0	0	0
441	0	0	0
442	0	0	0
443	255	222	244
444	253	206	239
445	255	200	241
446	255	191	240
447	253	174	236
448	242	153	230
449	247	159	240
450	247	162	244
451	229	144	235
452	214	128	231
453	216	138	242
454	215	141	244
455	219	153	250
456	211	153	243
457	0	0	0
458	0	0	0
459	0	0	0
460	0	0	0
461	0	0	0
462	0	0	0
463	0	0	0
464	0	0	0
465	255	218	246
466	255	212	248
467	254	191	238
468	248	173	234
469	239	155	231
470	246	162	242
471	247	165	244
472	232	148	235
473	219	138	234
474	216	143	241
475	210	145	241
476	212	155	243
477	0	0	0
478	0	0	0
479	0	0	0
480	0	0	0
481	0	0	0
482	0	0	0
483	0	0	0
484	0	0	0
485	0	0	0
486	0	0	0
487	0	0	0
488	247	186	231
489	0	0	0
490	235	155	230
491	248	168	246
492	249	170	248
493	240	162	244
494	225	149	239
495	218	154	242
496	0	0	0
497	0	0	0
498	0	0	0
499	0	0	0
500	0	0	0
501	0	0	0
502	0	0	0
503	0	0	0
504	0	0	0
505	0	0	0
506	0	0	0
507	0	0	0
508	0	0	0
509	0	0	0
510	0	0	0
511	0	0	0
512	253	181	251
513	238	161	240
514	229	151	236
515	226	157	241
516	0	0	0
517	0	0	0
518	0	0	0
519	0	0	0
520	0	0	0
521	0	0	0
522	0	0	0
523	0	0	0
524	0	0	0
525	0	0	0
