 	R	G	B
1	0	0	0
2	0	0	0
3	0	0	0
4	0	0	0
5	0	0	0
6	0	0	0
7	0	0	0
8	0	0	0
9	0	0	0
10	0	0	0
11	0	0	0
12	0	0	0
13	0	0	0
14	255	235	229
15	255	237	230
16	0	0	0
17	0	0	0
18	0	0	0
19	0	0	0
20	0	0	0
21	0	0	0
22	0	0	0
23	0	0	0
24	0	0	0
25	0	0	0
26	0	0	0
27	0	0	0
28	0	0	0
29	0	0	0
30	0	0	0
31	0	0	0
32	0	0	0
33	0	0	0
34	0	0	0
35	255	247	232
36	255	253	240
37	255	244	236
38	255	232	229
39	255	227	226
40	249	216	217
41	255	226	224
42	0	0	0
43	0	0	0
44	0	0	0
45	0	0	0
46	0	0	0
47	0	0	0
48	0	0	0
49	0	0	0
50	0	0	0
51	0	0	0
52	0	0	0
53	0	0	0
54	0	0	0
55	0	0	0
56	0	0	0
57	0	0	0
58	255	240	227
59	255	246	233
60	255	232	225
61	254	222	221
62	253	216	221
63	251	211	219
64	250	209	217
65	255	219	223
66	252	215	219
67	0	0	0
68	0	0	0
69	0	0	0
70	0	0	0
71	0	0	0
72	0	0	0
73	0	0	0
74	0	0	0
75	0	0	0
76	0	0	0
77	0	0	0
78	0	0	0
79	0	0	0
80	0	0	0
81	255	241	233
82	255	242	231
83	255	227	220
84	250	212	213
85	251	208	214
86	250	203	217
87	254	206	221
88	253	204	219
89	254	206	219
90	247	200	213
91	0	0	0
92	0	0	0
93	0	0	0
94	0	0	0
95	0	0	0
96	0	0	0
97	0	0	0
98	0	0	0
99	0	0	0
100	0	0	0
101	0	0	0
102	0	0	0
103	0	0	0
104	0	0	0
105	0	0	0
106	255	224	223
107	252	209	213
108	250	201	211
109	251	198	213
110	254	199	219
111	255	201	222
112	251	192	215
113	250	193	215
114	240	185	206
115	0	0	0
116	0	0	0
117	0	0	0
118	0	0	0
119	0	0	0
120	0	0	0
121	0	0	0
122	0	0	0
123	0	0	0
124	0	0	0
125	0	0	0
126	0	0	0
127	251	211	217
128	250	207	213
129	253	207	215
130	255	208	219
131	253	199	216
132	251	192	215
133	255	194	219
134	255	193	220
135	254	189	218
136	248	180	211
137	248	181	212
138	237	173	204
139	0	0	0
140	0	0	0
141	0	0	0
142	0	0	0
143	0	0	0
144	0	0	0
145	0	0	0
146	0	0	0
147	0	0	0
148	0	0	0
149	0	0	0
150	253	212	220
151	255	211	219
152	250	199	212
153	254	200	215
154	254	196	217
155	251	188	214
156	255	189	219
157	255	191	222
158	253	180	216
159	250	175	214
160	247	172	211
161	246	172	211
162	238	169	205
163	0	0	0
164	0	0	0
165	0	0	0
166	0	0	0
167	0	0	0
168	0	0	0
169	0	0	0
170	0	0	0
171	0	0	0
172	0	0	0
173	0	0	0
174	253	206	220
175	251	197	214
176	246	186	208
177	249	185	211
178	249	181	210
179	252	182	214
180	255	183	215
181	253	175	214
182	248	166	212
183	249	166	215
184	246	162	211
185	248	169	214
186	239	164	206
187	0	0	0
188	0	0	0
189	0	0	0
190	0	0	0
191	0	0	0
192	0	0	0
193	0	0	0
194	0	0	0
195	0	0	0
196	0	0	0
197	0	0	0
198	255	210	227
199	255	202	223
200	248	182	214
201	252	182	216
202	252	178	215
203	255	180	218
204	255	175	215
205	252	167	213
206	246	155	211
207	247	156	214
208	254	167	219
209	255	173	221
210	238	158	205
211	0	0	0
212	0	0	0
213	0	0	0
214	0	0	0
215	0	0	0
216	0	0	0
217	0	0	0
218	0	0	0
219	255	220	231
220	0	0	0
221	255	213	233
222	255	212	232
223	255	194	223
224	248	175	218
225	253	177	223
226	253	173	220
227	253	169	218
228	253	165	217
229	249	156	214
230	241	143	208
231	254	160	221
232	255	171	225
233	253	165	217
234	236	150	202
235	0	0	0
236	0	0	0
237	0	0	0
238	0	0	0
239	0	0	0
240	0	0	0
241	0	0	0
242	253	225	233
243	255	219	233
244	250	202	225
245	255	203	229
246	255	200	227
247	251	182	219
248	250	174	222
249	255	176	227
250	254	169	222
251	254	166	221
252	255	162	222
253	252	153	219
254	245	142	213
255	255	158	224
256	255	160	222
257	249	155	214
258	241	151	205
259	0	0	0
260	0	0	0
261	0	0	0
262	0	0	0
263	0	0	0
264	0	0	0
265	0	0	0
266	250	219	229
267	247	205	225
268	242	188	219
269	248	189	223
270	251	186	222
271	250	178	219
272	248	168	218
273	250	166	219
274	249	160	216
275	251	157	218
276	253	155	221
277	252	150	222
278	245	138	214
279	253	148	221
280	252	150	219
281	253	156	219
282	245	152	210
283	0	0	0
284	0	0	0
285	0	0	0
286	0	0	0
287	0	0	0
288	0	0	0
289	0	0	0
290	0	0	0
291	250	208	228
292	251	199	228
293	255	200	233
294	255	188	228
295	253	179	224
296	248	166	219
297	250	164	219
298	255	169	224
299	255	166	226
300	251	149	220
301	251	144	222
302	249	139	219
303	255	148	225
304	248	139	216
305	249	145	217
306	242	142	208
307	250	163	214
308	0	0	0
309	254	196	217
310	255	223	225
311	0	0	0
312	0	0	0
313	0	0	0
314	0	0	0
315	255	215	232
316	255	206	232
317	255	196	231
318	253	185	229
319	252	175	227
320	247	163	220
321	255	170	227
322	255	175	230
323	253	156	220
324	244	138	214
325	248	139	219
326	246	133	216
327	244	130	214
328	237	122	209
329	240	129	211
330	233	127	201
331	243	151	209
332	244	166	207
333	254	194	216
334	255	220	224
335	255	231	226
336	0	0	0
337	0	0	0
338	249	220	231
339	255	215	233
340	255	204	232
341	252	192	230
342	255	188	234
343	255	179	232
344	250	165	226
345	255	173	232
346	255	165	226
347	246	146	215
348	250	145	221
349	254	146	226
350	249	137	221
351	247	134	219
352	248	137	221
353	252	145	225
354	244	141	215
355	255	166	223
356	249	169	214
357	255	198	222
358	255	206	217
359	255	217	219
360	255	238	235
361	0	0	0
362	0	0	0
363	243	206	228
364	244	195	229
365	247	190	232
366	251	186	232
367	252	177	231
368	249	164	227
369	252	162	229
370	250	155	223
371	252	153	224
372	255	152	229
373	253	146	228
374	248	137	223
375	253	144	228
376	253	145	226
377	253	149	225
378	247	147	219
379	252	161	222
380	247	166	214
381	249	180	214
382	246	189	208
383	249	204	213
384	255	225	228
385	0	0	0
386	0	0	0
387	0	0	0
388	243	210	237
389	251	208	242
390	250	193	235
391	255	186	236
392	254	172	233
393	255	169	236
394	249	153	225
395	251	151	226
396	255	152	230
397	252	145	227
398	249	140	225
399	253	146	229
400	251	147	224
401	251	151	223
402	252	156	224
403	255	172	229
404	250	169	218
405	253	184	220
406	253	195	217
407	255	210	221
408	255	222	226
409	0	0	0
410	0	0	0
411	0	0	0
412	254	232	248
413	250	213	241
414	249	198	235
415	253	187	235
416	253	174	233
417	252	163	232
418	244	147	222
419	251	151	228
420	253	151	230
421	251	147	228
422	248	142	225
423	251	147	226
424	248	146	221
425	253	156	224
426	253	162	223
427	252	166	221
428	245	164	213
429	252	183	219
430	254	195	219
431	254	206	219
432	254	216	220
433	0	0	0
434	0	0	0
435	244	219	233
436	248	220	239
437	237	198	228
438	248	201	235
439	251	190	235
440	250	176	234
441	251	166	233
442	246	153	228
443	252	156	233
444	250	150	229
445	247	146	226
446	253	154	231
447	255	158	232
448	251	154	224
449	255	164	227
450	253	164	222
451	253	169	222
452	250	172	220
453	255	192	228
454	251	190	219
455	252	202	219
456	255	216	220
457	0	0	0
458	0	0	0
459	0	0	0
460	243	211	235
461	243	206	235
462	250	207	241
463	245	190	234
464	242	175	231
465	243	165	231
466	240	153	228
467	247	154	232
468	244	147	226
469	252	158	233
470	255	165	235
471	255	163	231
472	251	160	225
473	252	164	225
474	250	164	220
475	253	173	224
476	252	177	225
477	252	183	224
478	245	182	216
479	251	200	220
480	254	214	219
481	0	0	0
482	0	0	0
483	0	0	0
484	247	217	239
485	247	212	239
486	242	201	236
487	229	179	225
488	235	180	231
489	236	171	231
490	244	170	237
491	255	173	244
492	246	155	231
493	254	165	236
494	254	166	233
495	252	164	229
496	255	173	232
497	255	177	232
498	252	170	223
499	255	180	227
500	253	181	227
501	253	187	227
502	252	193	225
503	255	211	229
504	254	213	221
505	0	0	0
506	0	0	0
507	240	213	232
508	245	218	237
509	240	206	232
510	235	196	231
511	234	193	234
512	240	194	239
513	245	191	242
514	251	189	245
515	254	179	243
516	247	161	232
517	253	168	236
518	254	169	235
519	255	180	240
520	255	188	241
521	255	184	234
522	255	177	227
523	255	182	227
524	253	182	225
525	255	194	229
526	255	201	228
527	255	207	226
528	0	0	0
529	0	0	0
530	236	216	232
531	239	221	236
532	231	208	228
533	227	197	224
534	235	200	233
535	239	200	239
536	240	194	239
537	243	190	241
538	242	179	237
539	243	167	232
540	249	169	234
541	255	176	239
542	255	176	237
543	255	186	242
544	253	173	229
545	249	169	224
546	255	180	229
547	255	184	228
548	252	184	224
549	255	196	229
550	251	194	223
551	0	0	0
552	0	0	0
553	0	0	0
554	237	223	236
555	228	211	229
556	222	200	224
557	231	204	231
558	238	207	237
559	237	200	237
560	237	193	237
561	232	180	233
562	231	169	232
563	246	177	240
564	251	178	238
565	255	181	237
566	255	181	235
567	251	171	227
568	242	160	220
569	252	175	230
570	255	186	234
571	255	187	230
572	253	187	225
573	251	188	223
574	245	187	218
575	0	0	0
576	0	0	0
577	241	233	238
578	240	231	239
579	235	220	235
580	235	215	235
581	244	220	243
582	237	205	236
583	232	195	233
584	234	196	237
585	225	181	231
586	233	183	238
587	250	193	248
588	246	178	235
589	254	182	235
590	255	181	232
591	250	172	226
592	251	173	229
593	255	188	240
594	250	176	228
595	248	177	224
596	255	195	231
597	255	197	228
598	247	193	222
599	0	0	0
600	0	0	0
601	0	0	0
602	243	237	242
603	240	229	239
604	239	223	237
605	237	213	235
606	231	199	232
607	233	200	237
608	235	201	240
609	236	198	240
610	242	199	244
611	243	190	240
612	240	176	231
613	249	181	234
614	251	179	231
615	253	181	231
616	254	182	232
617	250	176	229
618	241	165	221
619	254	187	232
620	255	204	237
621	255	202	231
622	250	198	225
623	0	0	0
624	0	0	0
625	0	0	0
626	246	242	244
627	241	234	240
628	236	222	233
629	231	210	230
630	231	206	235
631	235	208	241
632	239	207	242
633	248	209	246
634	246	200	241
635	237	186	232
636	240	184	234
637	249	189	239
638	244	178	230
639	248	180	230
640	254	187	234
641	251	182	230
642	247	177	228
643	255	198	241
644	255	196	232
645	250	194	225
646	251	200	227
647	0	0	0
648	0	0	0
649	0	0	0
650	0	0	0
651	241	235	240
652	235	223	234
653	233	217	233
654	233	212	235
655	237	213	239
656	243	213	242
657	246	207	241
658	243	198	235
659	240	193	234
660	242	192	238
661	244	187	237
662	239	176	229
663	248	185	235
664	255	192	238
665	253	189	234
666	249	183	229
667	249	186	229
668	245	185	225
669	250	196	229
670	252	203	231
671	0	0	0
672	0	0	0
673	0	0	0
674	0	0	0
675	0	0	0
676	241	233	240
677	238	227	238
678	236	219	236
679	245	222	242
680	243	213	239
681	240	203	234
682	244	204	236
683	245	203	237
684	245	197	238
685	245	191	237
686	245	187	236
687	254	196	242
688	255	195	239
689	251	191	233
690	252	193	231
691	252	196	232
692	253	199	233
693	255	211	239
694	0	0	0
695	0	0	0
696	0	0	0
697	0	0	0
698	0	0	0
699	0	0	0
700	0	0	0
701	240	232	240
702	238	224	237
703	240	218	236
704	239	209	232
705	245	212	237
706	249	214	240
707	249	209	240
708	248	203	238
709	249	200	239
710	248	195	237
711	249	195	236
712	249	194	234
713	251	198	234
714	250	199	230
715	251	203	230
716	0	0	0
717	0	0	0
718	0	0	0
719	0	0	0
720	0	0	0
721	0	0	0
722	0	0	0
723	0	0	0
724	0	0	0
725	0	0	0
726	0	0	0
727	0	0	0
728	245	224	239
729	255	231	248
730	249	212	238
731	248	206	237
732	250	204	237
733	250	202	237
734	250	201	236
735	0	0	0
736	0	0	0
737	0	0	0
738	0	0	0
739	0	0	0
740	0	0	0
741	0	0	0
742	0	0	0
743	0	0	0
744	0	0	0
745	0	0	0
746	0	0	0
747	0	0	0
748	0	0	0
749	0	0	0
750	0	0	0
751	0	0	0
752	0	0	0
753	249	223	240
754	0	0	0
755	247	207	238
756	250	207	239
757	0	0	0
758	0	0	0
759	0	0	0
760	0	0	0
761	0	0	0
762	0	0	0
763	0	0	0
764	0	0	0
765	0	0	0
766	0	0	0
767	0	0	0
768	0	0	0
