 	R	G	B
1	0	0	0
2	252	201	226
3	252	203	225
4	255	213	230
5	255	224	237
6	255	221	234
7	255	218	229
8	255	221	229
9	255	225	231
10	255	224	229
11	255	223	227
12	255	229	230
13	255	232	231
14	255	238	234
15	0	0	0
16	0	0	0
17	0	0	0
18	0	0	0
19	0	0	0
20	0	0	0
21	0	0	0
22	0	0	0
23	0	0	0
24	0	0	0
25	0	0	0
26	0	0	0
27	0	0	0
28	0	0	0
29	0	0	0
30	0	0	0
31	0	0	0
32	0	0	0
33	0	0	0
34	0	0	0
35	0	0	0
36	0	0	0
37	0	0	0
38	0	0	0
39	0	0	0
40	0	0	0
41	0	0	0
42	0	0	0
43	0	0	0
44	0	0	0
45	0	0	0
46	0	0	0
47	0	0	0
48	251	192	229
49	255	200	234
50	247	185	223
51	253	196	229
52	255	201	231
53	254	198	226
54	252	196	222
55	254	200	223
56	255	209	228
57	255	208	226
58	254	199	219
59	255	205	222
60	255	201	218
61	255	206	220
62	250	197	213
63	0	0	0
64	0	0	0
65	0	0	0
66	0	0	0
67	0	0	0
68	0	0	0
69	0	0	0
70	0	0	0
71	0	0	0
72	0	0	0
73	0	0	0
74	0	0	0
75	0	0	0
76	0	0	0
77	0	0	0
78	0	0	0
79	0	0	0
80	0	0	0
81	0	0	0
82	0	0	0
83	0	0	0
84	0	0	0
85	0	0	0
86	0	0	0
87	0	0	0
88	0	0	0
89	0	0	0
90	0	0	0
91	0	0	0
92	0	0	0
93	0	0	0
94	0	0	0
95	0	0	0
96	231	164	216
97	225	152	212
98	237	166	223
99	242	173	223
100	244	174	221
101	243	172	216
102	249	182	220
103	255	190	223
104	248	181	216
105	243	173	211
106	245	174	212
107	243	171	209
108	242	168	207
109	235	160	199
110	0	0	0
111	0	0	0
112	0	0	0
113	0	0	0
114	0	0	0
115	0	0	0
116	0	0	0
117	0	0	0
118	0	0	0
119	0	0	0
120	0	0	0
121	0	0	0
122	0	0	0
123	0	0	0
124	0	0	0
125	0	0	0
126	0	0	0
127	0	0	0
128	0	0	0
129	0	0	0
130	0	0	0
131	0	0	0
132	0	0	0
133	0	0	0
134	0	0	0
135	0	0	0
136	0	0	0
137	0	0	0
138	0	0	0
139	0	0	0
140	0	0	0
141	0	0	0
142	0	0	0
143	241	190	237
144	235	172	233
145	253	189	247
146	250	179	238
147	255	183	237
148	246	168	225
149	251	177	228
150	248	175	224
151	242	167	217
152	246	169	220
153	250	171	223
154	248	165	219
155	250	164	219
156	247	159	214
157	255	185	227
158	0	0	0
159	0	0	0
160	0	0	0
161	0	0	0
162	0	0	0
163	0	0	0
164	0	0	0
165	0	0	0
166	0	0	0
167	0	0	0
168	0	0	0
169	0	0	0
170	0	0	0
171	0	0	0
172	0	0	0
173	0	0	0
174	0	0	0
175	0	0	0
176	0	0	0
177	0	0	0
178	0	0	0
179	0	0	0
180	0	0	0
181	0	0	0
182	0	0	0
183	0	0	0
184	0	0	0
185	0	0	0
186	0	0	0
187	0	0	0
188	0	0	0
189	231	200	234
190	231	188	233
191	226	171	230
192	233	171	235
193	232	164	229
194	234	158	226
195	227	146	216
196	228	148	217
197	229	148	216
198	235	152	220
199	239	155	223
200	235	148	219
201	234	143	215
202	241	146	218
203	238	141	212
204	235	137	207
205	227	128	197
206	234	137	202
207	235	141	203
208	241	152	206
209	241	156	202
210	247	171	206
211	254	185	211
212	254	192	211
213	255	199	213
214	0	0	0
215	0	0	0
216	0	0	0
217	0	0	0
218	0	0	0
219	0	0	0
220	0	0	0
221	0	0	0
222	0	0	0
223	0	0	0
224	0	0	0
225	0	0	0
226	0	0	0
227	0	0	0
228	0	0	0
229	0	0	0
230	0	0	0
231	0	0	0
232	0	0	0
233	0	0	0
234	0	0	0
235	0	0	0
236	233	214	240
237	233	202	240
238	229	187	238
239	232	186	242
240	234	181	240
241	237	177	239
242	231	164	233
243	237	169	237
244	240	167	236
245	252	174	242
246	241	156	230
247	231	147	223
248	242	159	233
249	251	164	237
250	237	141	220
251	233	136	216
252	237	141	219
253	248	154	227
254	241	141	217
255	251	154	221
256	251	157	217
257	255	171	221
258	252	167	213
259	251	173	211
260	255	183	213
261	254	189	212
262	0	0	0
263	0	0	0
264	0	0	0
265	0	0	0
266	0	0	0
267	0	0	0
268	0	0	0
269	0	0	0
270	0	0	0
271	0	0	0
272	0	0	0
273	0	0	0
274	0	0	0
275	0	0	0
276	0	0	0
277	0	0	0
278	0	0	0
279	0	0	0
280	0	0	0
281	0	0	0
282	0	0	0
283	0	0	0
284	231	211	240
285	225	196	238
286	224	192	240
287	224	186	236
288	226	179	235
289	224	169	234
290	230	171	238
291	233	168	234
292	234	158	228
293	224	141	217
294	228	150	224
295	240	163	235
296	235	147	227
297	223	126	214
298	227	132	218
299	232	137	219
300	233	132	217
301	229	122	211
302	244	137	221
303	246	141	218
304	245	143	215
305	241	141	209
306	247	155	213
307	250	164	211
308	248	168	208
309	248	173	208
310	251	184	212
311	0	0	0
312	0	0	0
313	0	0	0
314	0	0	0
315	0	0	0
316	0	0	0
317	0	0	0
318	0	0	0
319	0	0	0
320	0	0	0
321	0	0	0
322	0	0	0
323	0	0	0
324	0	0	0
325	0	0	0
326	0	0	0
327	0	0	0
328	0	0	0
329	0	0	0
330	0	0	0
331	0	0	0
332	228	215	244
333	225	211	245
334	221	199	239
335	223	193	239
336	224	184	240
337	232	187	247
338	225	171	235
339	223	160	228
340	229	162	231
341	241	175	241
342	237	164	236
343	231	147	227
344	235	147	230
345	242	155	236
346	241	150	230
347	241	145	227
348	242	140	227
349	255	157	240
350	249	140	225
351	250	144	224
352	248	143	221
353	255	158	227
354	252	156	216
355	250	160	213
356	252	169	216
357	255	179	219
358	250	180	214
359	0	0	0
360	0	0	0
361	0	0	0
362	0	0	0
363	0	0	0
364	0	0	0
365	0	0	0
366	0	0	0
367	0	0	0
368	0	0	0
369	0	0	0
370	0	0	0
371	0	0	0
372	0	0	0
373	0	0	0
374	0	0	0
375	0	0	0
376	0	0	0
377	0	0	0
378	0	0	0
379	0	0	0
380	226	223	245
381	222	212	243
382	221	203	242
383	220	193	240
384	216	181	236
385	211	167	231
386	223	174	239
387	230	177	242
388	230	168	237
389	228	158	231
390	236	161	236
391	241	162	238
392	243	159	236
393	243	155	232
394	245	152	231
395	247	147	231
396	248	142	229
397	239	127	217
398	246	134	221
399	245	134	219
400	246	138	219
401	243	138	213
402	249	150	218
403	251	158	220
404	250	163	219
405	246	165	213
406	254	184	220
407	0	0	0
408	0	0	0
409	0	0	0
410	0	0	0
411	0	0	0
412	0	0	0
413	0	0	0
414	0	0	0
415	0	0	0
416	0	0	0
417	0	0	0
418	0	0	0
419	0	0	0
420	0	0	0
421	0	0	0
422	0	0	0
423	0	0	0
424	0	0	0
425	0	0	0
426	0	0	0
427	0	0	0
428	0	0	0
429	0	0	0
430	222	210	244
431	215	196	239
432	212	183	237
433	226	193	249
434	225	183	243
435	228	175	240
436	231	170	240
437	240	174	245
438	231	154	233
439	237	154	233
440	246	160	236
441	250	158	236
442	248	147	231
443	247	140	229
444	240	127	221
445	249	137	228
446	246	133	223
447	246	137	222
448	251	146	225
449	255	159	232
450	252	152	223
451	251	157	222
452	251	164	221
453	255	184	228
454	251	181	217
455	0	0	0
456	0	0	0
457	0	0	0
458	0	0	0
459	0	0	0
460	0	0	0
461	0	0	0
462	0	0	0
463	0	0	0
464	0	0	0
465	0	0	0
466	0	0	0
467	0	0	0
468	0	0	0
469	0	0	0
470	0	0	0
471	0	0	0
472	0	0	0
473	0	0	0
474	0	0	0
475	0	0	0
476	0	0	0
477	0	0	0
478	217	210	240
479	211	196	238
480	213	190	239
481	214	181	235
482	223	180	240
483	229	177	243
484	229	165	240
485	222	146	231
486	235	155	238
487	245	161	240
488	243	151	232
489	241	140	226
490	239	132	224
491	234	121	220
492	242	128	226
493	240	125	221
494	248	138	227
495	253	147	228
496	250	144	222
497	243	137	215
498	247	148	220
499	249	157	221
500	248	161	220
501	241	159	212
502	252	182	221
503	255	203	226
504	255	204	221
505	255	210	223
506	255	216	224
507	0	0	0
508	0	0	0
509	0	0	0
510	0	0	0
511	0	0	0
512	0	0	0
513	0	0	0
514	0	0	0
515	0	0	0
516	0	0	0
517	0	0	0
518	0	0	0
519	0	0	0
520	0	0	0
521	0	0	0
522	0	0	0
523	0	0	0
524	0	0	0
525	0	0	0
526	0	0	0
527	0	0	0
528	219	200	241
529	228	200	248
530	226	183	243
531	231	174	245
532	231	163	243
533	242	171	249
534	242	165	242
535	240	154	234
536	241	148	232
537	242	142	231
538	237	130	228
539	244	137	234
540	240	128	226
541	251	143	233
542	249	139	225
543	246	136	219
544	250	145	223
545	255	157	229
546	254	160	228
547	255	166	229
548	248	161	222
549	255	185	231
550	255	190	226
551	253	192	220
552	255	200	222
553	254	205	221
554	253	210	220
555	0	0	0
556	0	0	0
557	0	0	0
558	0	0	0
559	0	0	0
560	0	0	0
561	0	0	0
562	0	0	0
563	0	0	0
564	0	0	0
565	0	0	0
566	0	0	0
567	0	0	0
568	0	0	0
569	0	0	0
570	0	0	0
571	0	0	0
572	0	0	0
573	0	0	0
574	0	0	0
575	225	217	244
576	219	198	238
577	216	181	235
578	226	178	242
579	226	167	240
580	231	167	241
581	232	161	236
582	234	155	233
583	237	151	234
584	236	142	231
585	231	129	226
586	233	128	227
587	230	121	220
588	238	127	223
589	238	125	218
590	248	139	225
591	253	149	229
592	254	155	230
593	254	159	228
594	253	160	226
595	248	157	221
596	251	167	224
597	250	173	220
598	250	180	219
599	251	188	221
600	251	194	220
601	251	200	220
602	255	215	226
603	0	0	0
604	0	0	0
605	0	0	0
606	0	0	0
607	0	0	0
608	0	0	0
609	0	0	0
610	0	0	0
611	0	0	0
612	0	0	0
613	0	0	0
614	0	0	0
615	0	0	0
616	0	0	0
617	0	0	0
618	0	0	0
619	0	0	0
620	0	0	0
621	0	0	0
622	227	225	241
623	215	203	233
624	219	200	239
625	226	195	244
626	225	183	242
627	234	184	248
628	232	172	241
629	236	167	240
630	239	164	241
631	239	155	238
632	237	146	235
633	240	146	236
634	240	139	231
635	250	147	236
636	245	137	228
637	255	152	236
638	250	145	229
639	254	153	232
640	251	152	227
641	250	152	224
642	249	155	224
643	253	166	227
644	255	177	228
645	255	183	227
646	253	184	224
647	254	191	225
648	254	197	225
649	255	212	229
650	254	209	220
651	0	0	0
652	0	0	0
653	0	0	0
654	0	0	0
655	0	0	0
656	0	0	0
657	0	0	0
658	0	0	0
659	0	0	0
660	0	0	0
661	0	0	0
662	0	0	0
663	0	0	0
664	0	0	0
665	0	0	0
666	0	0	0
667	0	0	0
668	0	0	0
669	0	0	0
670	226	224	238
671	227	220	243
672	226	208	242
673	224	196	241
674	227	189	243
675	228	179	242
676	235	177	245
677	239	173	243
678	239	166	240
679	238	157	237
680	241	155	237
681	241	149	232
682	247	149	233
683	244	141	228
684	246	142	229
685	242	137	226
686	246	141	229
687	244	141	225
688	245	145	224
689	244	147	220
690	249	160	224
691	252	171	227
692	248	171	222
693	245	172	218
694	250	182	222
695	251	189	223
696	248	189	220
697	243	188	213
698	250	204	221
699	0	0	0
700	255	220	227
701	255	223	229
702	255	223	229
703	0	0	0
704	0	0	0
705	0	0	0
706	0	0	0
707	0	0	0
708	0	0	0
709	0	0	0
710	0	0	0
711	0	0	0
712	0	0	0
713	0	0	0
714	0	0	0
715	0	0	0
716	0	0	0
717	0	0	0
718	230	229	241
719	226	216	238
720	226	208	240
721	224	199	241
722	227	191	244
723	239	192	250
724	238	181	243
725	236	173	239
726	236	165	237
727	241	165	239
728	238	153	231
729	244	153	233
730	247	150	233
731	252	153	237
732	247	142	232
733	250	147	235
734	246	144	231
735	248	150	230
736	249	156	227
737	254	169	231
738	254	175	230
739	247	174	225
740	249	180	227
741	255	192	233
742	253	188	227
743	251	189	224
744	251	194	223
745	255	210	230
746	255	216	230
747	255	214	226
748	255	216	227
749	255	214	226
750	250	210	221
751	0	0	0
752	0	0	0
753	0	0	0
754	0	0	0
755	0	0	0
756	0	0	0
757	0	0	0
758	0	0	0
759	0	0	0
760	0	0	0
761	0	0	0
762	0	0	0
763	0	0	0
764	0	0	0
765	0	0	0
766	233	231	242
767	230	222	240
768	224	210	237
769	225	201	240
770	231	195	242
771	231	185	237
772	233	180	238
773	235	173	238
774	238	167	238
775	236	157	233
776	241	157	235
777	243	153	234
778	245	149	233
779	241	139	228
780	245	143	232
781	243	142	229
782	251	155	235
783	252	161	231
784	254	170	231
785	254	176	231
786	250	178	230
787	252	185	233
788	251	184	230
789	247	180	223
790	250	187	224
791	250	192	223
792	251	198	223
793	253	204	225
794	250	203	222
795	250	204	223
796	247	201	221
797	244	198	219
798	0	0	0
799	0	0	0
800	0	0	0
801	0	0	0
802	0	0	0
803	0	0	0
804	0	0	0
805	0	0	0
806	0	0	0
807	0	0	0
808	0	0	0
809	0	0	0
810	0	0	0
811	0	0	0
812	0	0	0
813	0	0	0
814	232	232	240
815	226	220	236
816	227	214	239
817	227	205	238
818	230	199	238
819	237	196	242
820	235	181	238
821	242	178	242
822	242	170	239
823	242	167	239
824	241	160	237
825	243	156	236
826	245	152	234
827	252	158	240
828	251	156	238
829	255	170	244
830	249	158	230
831	252	166	230
832	254	175	231
833	252	179	231
834	254	187	235
835	250	183	230
836	251	187	229
837	255	196	230
838	254	198	227
839	255	204	228
840	255	209	230
841	255	209	229
842	253	207	227
843	250	204	225
844	254	210	231
845	255	220	237
846	0	0	0
847	0	0	0
848	0	0	0
849	0	0	0
850	0	0	0
851	0	0	0
852	0	0	0
853	0	0	0
854	0	0	0
855	0	0	0
856	0	0	0
857	0	0	0
858	0	0	0
859	0	0	0
860	0	0	0
861	0	0	0
862	0	0	0
863	235	232	244
864	230	221	239
865	232	214	238
866	230	199	234
867	229	185	233
868	238	184	239
869	239	176	237
870	240	172	238
871	241	167	240
872	247	168	243
873	247	163	239
874	251	164	239
875	251	162	236
876	249	159	233
877	240	149	224
878	246	162	229
879	249	171	228
880	249	177	228
881	252	184	232
882	252	188	232
883	252	192	230
884	253	197	229
885	254	201	229
886	255	205	229
887	255	210	231
888	255	208	229
889	252	206	226
890	255	211	230
891	255	217	234
892	255	214	232
893	246	205	223
894	0	0	0
895	0	0	0
896	0	0	0
897	0	0	0
898	0	0	0
899	0	0	0
900	0	0	0
901	0	0	0
902	0	0	0
903	0	0	0
904	0	0	0
905	0	0	0
906	0	0	0
907	0	0	0
908	0	0	0
909	0	0	0
910	0	0	0
911	0	0	0
912	0	0	0
913	227	207	231
914	229	199	235
915	235	197	241
916	233	182	236
917	243	184	243
918	247	179	245
919	251	178	247
920	246	168	240
921	248	168	238
922	250	170	238
923	251	168	237
924	244	160	230
925	249	173	236
926	250	179	233
927	253	186	234
928	251	186	233
929	250	190	232
930	249	193	229
931	249	197	227
932	251	201	229
933	255	207	232
934	255	209	232
935	254	206	229
936	251	204	226
937	252	208	229
938	253	211	231
939	253	210	230
940	246	205	224
941	0	0	0
942	0	0	0
943	0	0	0
944	0	0	0
945	0	0	0
946	0	0	0
947	0	0	0
948	0	0	0
949	0	0	0
950	0	0	0
951	0	0	0
952	0	0	0
953	0	0	0
954	0	0	0
955	0	0	0
956	0	0	0
957	0	0	0
958	0	0	0
959	0	0	0
960	0	0	0
961	233	216	239
962	230	201	237
963	230	189	237
964	244	191	246
965	245	184	243
966	245	179	241
967	240	170	237
968	243	173	239
969	246	175	238
970	247	173	236
971	242	165	230
972	248	177	236
973	250	185	237
974	251	187	235
975	249	187	234
976	251	192	235
977	249	195	231
978	247	197	229
979	249	201	229
980	248	201	228
981	251	204	230
982	252	204	230
983	250	202	227
984	250	205	229
985	251	208	232
986	252	209	232
987	0	0	0
988	0	0	0
989	0	0	0
990	0	0	0
991	0	0	0
992	0	0	0
993	0	0	0
994	0	0	0
995	0	0	0
996	0	0	0
997	0	0	0
998	0	0	0
999	0	0	0
1000	0	0	0
1001	0	0	0
1002	0	0	0
1003	0	0	0
1004	0	0	0
1005	0	0	0
1006	0	0	0
1007	0	0	0
1008	0	0	0
1009	0	0	0
1010	239	210	245
1011	251	212	254
1012	240	189	239
1013	237	182	236
1014	237	181	239
1015	242	186	243
1016	240	180	237
1017	242	179	236
1018	243	177	235
1019	253	192	243
1020	248	185	236
1021	248	187	235
1022	247	187	234
1023	251	194	236
1024	250	196	233
1025	248	198	230
1026	245	200	229
1027	241	198	225
1028	251	211	235
1029	255	215	238
1030	251	203	229
1031	252	205	231
1032	254	211	235
1033	252	211	234
1034	247	208	228
1035	0	0	0
1036	0	0	0
1037	0	0	0
1038	0	0	0
1039	0	0	0
1040	0	0	0
1041	0	0	0
1042	0	0	0
1043	0	0	0
1044	0	0	0
1045	0	0	0
1046	0	0	0
1047	0	0	0
1048	0	0	0
1049	0	0	0
1050	0	0	0
1051	0	0	0
1052	0	0	0
1053	0	0	0
1054	0	0	0
1055	0	0	0
1056	0	0	0
1057	247	230	249
1058	244	213	243
1059	232	191	232
1060	233	192	236
1061	234	192	240
1062	236	190	240
1063	236	185	235
1064	244	190	239
1065	245	189	239
1066	244	187	237
1067	239	181	230
1068	239	182	230
1069	240	183	232
1070	247	192	236
1071	248	195	231
1072	247	198	230
1073	247	201	231
1074	248	209	234
1075	255	221	240
1076	254	211	233
1077	248	199	227
1078	252	206	232
1079	254	211	233
1080	251	211	231
1081	0	0	0
1082	0	0	0
1083	0	0	0
1084	0	0	0
1085	0	0	0
1086	0	0	0
1087	0	0	0
1088	0	0	0
1089	0	0	0
1090	0	0	0
1091	0	0	0
1092	0	0	0
1093	0	0	0
1094	0	0	0
1095	0	0	0
1096	0	0	0
1097	0	0	0
1098	0	0	0
1099	0	0	0
1100	0	0	0
1101	0	0	0
1102	0	0	0
1103	0	0	0
1104	242	230	242
1105	232	211	233
1106	225	197	229
1107	0	0	0
1108	235	205	242
1109	240	206	244
1110	236	193	237
1111	244	198	242
1112	238	186	235
1113	236	184	232
1114	239	190	234
1115	239	191	235
1116	241	192	236
1117	250	201	241
1118	246	195	231
1119	250	200	232
1120	255	208	237
1121	255	218	241
1122	254	213	234
1123	244	199	223
1124	249	204	230
1125	254	212	236
1126	254	214	234
1127	0	0	0
1128	0	0	0
1129	0	0	0
1130	0	0	0
1131	0	0	0
1132	0	0	0
1133	0	0	0
1134	0	0	0
1135	0	0	0
1136	0	0	0
1137	0	0	0
1138	0	0	0
1139	0	0	0
1140	0	0	0
1141	0	0	0
1142	0	0	0
1143	0	0	0
1144	0	0	0
1145	0	0	0
1146	0	0	0
1147	0	0	0
1148	0	0	0
1149	0	0	0
1150	0	0	0
1151	0	0	0
1152	235	223	238
1153	0	0	0
1154	0	0	0
1155	238	220	245
1156	238	211	242
1157	235	199	237
1158	236	194	237
1159	231	184	233
1160	239	194	240
1161	242	200	241
1162	240	199	239
1163	242	200	239
1164	245	199	237
1165	243	193	229
1166	250	203	233
1167	255	211	236
1168	253	207	232
1169	249	203	227
1170	250	207	230
1171	254	212	236
1172	255	217	240
1173	255	219	240
1174	255	220	238
1175	0	0	0
1176	0	0	0
1177	0	0	0
1178	0	0	0
1179	0	0	0
1180	0	0	0
1181	0	0	0
1182	0	0	0
1183	0	0	0
1184	0	0	0
1185	0	0	0
1186	0	0	0
1187	0	0	0
1188	0	0	0
1189	0	0	0
1190	0	0	0
1191	0	0	0
1192	0	0	0
1193	0	0	0
1194	0	0	0
1195	0	0	0
1196	0	0	0
1197	0	0	0
1198	0	0	0
1199	0	0	0
1200	0	0	0
1201	0	0	0
1202	0	0	0
1203	235	212	237
1204	0	0	0
1205	0	0	0
1206	236	196	240
1207	247	208	250
1208	241	200	241
1209	237	198	236
1210	241	202	238
1211	246	202	237
1212	245	198	232
1213	249	206	234
1214	253	210	234
1215	253	208	232
1216	249	203	229
1217	251	208	232
1218	253	211	236
1219	255	216	239
1220	255	214	237
1221	255	216	236
1222	251	212	231
1223	0	0	0
1224	0	0	0
1225	0	0	0
1226	0	0	0
1227	0	0	0
1228	0	0	0
1229	0	0	0
1230	0	0	0
1231	0	0	0
1232	0	0	0
1233	0	0	0
1234	0	0	0
1235	0	0	0
1236	0	0	0
1237	0	0	0
1238	0	0	0
1239	0	0	0
1240	0	0	0
1241	0	0	0
1242	0	0	0
1243	0	0	0
1244	0	0	0
1245	0	0	0
1246	0	0	0
1247	0	0	0
1248	0	0	0
1249	0	0	0
1250	0	0	0
1251	0	0	0
1252	0	0	0
1253	240	206	244
1254	240	204	244
1255	234	196	235
1256	235	198	235
1257	240	203	236
1258	246	204	236
1259	246	202	232
1260	248	206	232
1261	252	210	234
1262	253	208	233
1263	250	204	231
1264	250	206	232
1265	252	209	234
1266	252	208	233
1267	251	207	231
1268	249	206	229
1269	244	202	225
1270	0	0	0
1271	0	0	0
1272	0	0	0
1273	0	0	0
1274	0	0	0
1275	0	0	0
1276	0	0	0
1277	0	0	0
1278	0	0	0
1279	0	0	0
1280	0	0	0
1281	0	0	0
1282	0	0	0
1283	0	0	0
1284	0	0	0
1285	0	0	0
1286	0	0	0
1287	0	0	0
1288	0	0	0
1289	0	0	0
1290	0	0	0
1291	0	0	0
1292	0	0	0
1293	0	0	0
1294	0	0	0
1295	0	0	0
1296	0	0	0
1297	0	0	0
1298	0	0	0
1299	0	0	0
1300	0	0	0
1301	235	205	240
1302	234	203	236
1303	240	209	239
1304	242	208	237
1305	246	209	236
1306	249	209	234
1307	255	215	238
1308	253	209	234
1309	252	206	232
1310	254	207	234
1311	255	210	235
1312	255	214	236
1313	254	212	234
1314	251	209	231
1315	248	208	230
1316	0	0	0
1317	0	0	0
1318	0	0	0
1319	0	0	0
1320	0	0	0
1321	0	0	0
1322	0	0	0
1323	0	0	0
1324	0	0	0
1325	0	0	0
1326	0	0	0
1327	0	0	0
1328	0	0	0
1329	0	0	0
1330	0	0	0
1331	0	0	0
1332	0	0	0
1333	0	0	0
1334	0	0	0
1335	0	0	0
1336	0	0	0
1337	0	0	0
1338	0	0	0
1339	0	0	0
1340	0	0	0
1341	0	0	0
1342	0	0	0
1343	0	0	0
1344	0	0	0
1345	0	0	0
1346	0	0	0
1347	0	0	0
1348	0	0	0
1349	235	210	235
1350	242	213	237
1351	245	213	237
1352	251	216	239
1353	255	216	238
1354	254	212	234
1355	252	206	231
1356	255	209	234
1357	255	210	234
1358	255	215	237
1359	255	219	238
1360	255	216	235
1361	254	214	233
1362	0	0	0
1363	0	0	0
1364	0	0	0
1365	0	0	0
1366	0	0	0
1367	0	0	0
1368	0	0	0
1369	0	0	0
1370	0	0	0
1371	0	0	0
1372	0	0	0
1373	0	0	0
1374	0	0	0
1375	0	0	0
1376	0	0	0
1377	0	0	0
1378	0	0	0
1379	0	0	0
1380	0	0	0
1381	0	0	0
1382	0	0	0
1383	0	0	0
1384	0	0	0
1385	0	0	0
1386	0	0	0
1387	0	0	0
1388	0	0	0
1389	0	0	0
1390	0	0	0
1391	0	0	0
1392	0	0	0
1393	0	0	0
1394	0	0	0
1395	0	0	0
1396	238	217	236
1397	247	221	240
1398	247	214	237
1399	255	217	240
1400	253	210	235
1401	251	205	231
1402	255	209	234
1403	255	212	237
1404	251	203	231
1405	254	208	233
1406	255	213	234
1407	255	211	232
1408	251	209	230
1409	0	0	0
1410	0	0	0
1411	0	0	0
1412	0	0	0
1413	0	0	0
1414	0	0	0
1415	0	0	0
1416	0	0	0
1417	0	0	0
1418	0	0	0
1419	0	0	0
1420	0	0	0
1421	0	0	0
1422	0	0	0
1423	0	0	0
1424	0	0	0
1425	0	0	0
1426	0	0	0
1427	0	0	0
1428	0	0	0
1429	0	0	0
1430	0	0	0
1431	0	0	0
1432	0	0	0
1433	0	0	0
1434	0	0	0
1435	0	0	0
1436	0	0	0
1437	0	0	0
1438	0	0	0
1439	0	0	0
1440	0	0	0
1441	0	0	0
1442	0	0	0
1443	0	0	0
1444	243	217	237
1445	244	211	236
1446	248	209	236
1447	246	202	232
1448	253	208	236
1449	255	212	237
1450	253	205	233
1451	247	197	231
1452	253	205	236
1453	255	210	235
1454	253	208	232
1455	0	0	0
1456	0	0	0
1457	0	0	0
1458	0	0	0
1459	0	0	0
1460	0	0	0
1461	0	0	0
1462	0	0	0
1463	0	0	0
1464	0	0	0
1465	0	0	0
1466	0	0	0
1467	0	0	0
1468	0	0	0
1469	0	0	0
1470	0	0	0
1471	0	0	0
1472	0	0	0
1473	0	0	0
1474	0	0	0
1475	0	0	0
1476	0	0	0
1477	0	0	0
1478	0	0	0
1479	0	0	0
1480	0	0	0
1481	0	0	0
1482	0	0	0
1483	0	0	0
1484	0	0	0
1485	0	0	0
1486	0	0	0
1487	0	0	0
1488	0	0	0
1489	0	0	0
1490	0	0	0
1491	0	0	0
1492	248	222	242
1493	253	221	244
1494	248	208	236
1495	255	215	242
1496	255	212	238
1497	253	206	235
1498	252	203	237
1499	255	212	243
1500	255	211	238
1501	255	209	234
1502	251	205	231
1503	0	0	0
1504	0	0	0
1505	0	0	0
1506	0	0	0
1507	0	0	0
1508	0	0	0
1509	0	0	0
1510	0	0	0
1511	0	0	0
1512	0	0	0
1513	0	0	0
1514	0	0	0
1515	0	0	0
1516	0	0	0
1517	0	0	0
1518	0	0	0
1519	0	0	0
1520	0	0	0
1521	0	0	0
1522	0	0	0
1523	0	0	0
1524	0	0	0
1525	0	0	0
1526	0	0	0
1527	0	0	0
1528	0	0	0
1529	0	0	0
1530	0	0	0
1531	0	0	0
1532	0	0	0
1533	0	0	0
1534	0	0	0
1535	0	0	0
1536	0	0	0
1537	0	0	0
1538	0	0	0
1539	252	232	245
1540	252	223	242
1541	247	210	236
1542	252	212	239
1543	253	211	237
1544	254	209	237
1545	253	206	237
1546	254	208	238
1547	252	207	235
1548	248	203	231
1549	0	0	0
1550	0	0	0
1551	0	0	0
1552	0	0	0
1553	0	0	0
1554	0	0	0
1555	0	0	0
1556	0	0	0
1557	0	0	0
1558	0	0	0
1559	0	0	0
1560	0	0	0
1561	0	0	0
1562	0	0	0
1563	0	0	0
1564	0	0	0
1565	0	0	0
1566	0	0	0
1567	0	0	0
1568	0	0	0
1569	0	0	0
1570	0	0	0
1571	0	0	0
1572	0	0	0
1573	0	0	0
1574	0	0	0
1575	0	0	0
1576	0	0	0
1577	0	0	0
1578	0	0	0
1579	0	0	0
1580	0	0	0
1581	0	0	0
1582	0	0	0
1583	0	0	0
1584	0	0	0
1585	0	0	0
1586	247	230	240
1587	247	221	238
1588	245	212	235
1589	250	214	238
1590	252	213	239
1591	255	213	240
1592	249	203	234
1593	248	204	234
1594	249	209	235
1595	0	0	0
1596	0	0	0
1597	0	0	0
1598	0	0	0
1599	0	0	0
1600	0	0	0
1601	0	0	0
1602	0	0	0
1603	0	0	0
1604	0	0	0
1605	0	0	0
1606	0	0	0
1607	0	0	0
1608	0	0	0
1609	0	0	0
1610	0	0	0
1611	0	0	0
1612	0	0	0
1613	0	0	0
1614	0	0	0
1615	0	0	0
1616	0	0	0
1617	0	0	0
1618	0	0	0
1619	0	0	0
1620	0	0	0
1621	0	0	0
1622	0	0	0
1623	0	0	0
1624	0	0	0
1625	0	0	0
1626	0	0	0
1627	0	0	0
1628	0	0	0
1629	0	0	0
1630	0	0	0
1631	0	0	0
1632	0	0	0
1633	247	230	240
1634	247	223	238
1635	246	215	235
1636	249	215	238
1637	251	215	240
1638	250	209	238
1639	243	198	231
1640	246	206	235
1641	0	0	0
1642	0	0	0
1643	0	0	0
1644	0	0	0
1645	0	0	0
1646	0	0	0
1647	0	0	0
1648	0	0	0
1649	0	0	0
1650	0	0	0
1651	0	0	0
1652	0	0	0
1653	0	0	0
1654	0	0	0
1655	0	0	0
1656	0	0	0
1657	0	0	0
1658	0	0	0
1659	0	0	0
1660	0	0	0
1661	0	0	0
1662	0	0	0
1663	0	0	0
1664	0	0	0
1665	0	0	0
1666	0	0	0
1667	0	0	0
1668	0	0	0
1669	0	0	0
1670	0	0	0
1671	0	0	0
1672	0	0	0
1673	0	0	0
1674	0	0	0
1675	0	0	0
1676	0	0	0
1677	0	0	0
1678	0	0	0
1679	0	0	0
1680	248	230	240
1681	247	222	237
1682	246	217	236
1683	0	0	0
1684	254	221	243
1685	251	214	240
1686	0	0	0
1687	0	0	0
1688	0	0	0
1689	0	0	0
1690	0	0	0
1691	0	0	0
1692	0	0	0
1693	0	0	0
1694	0	0	0
1695	0	0	0
1696	0	0	0
1697	0	0	0
1698	0	0	0
1699	0	0	0
1700	0	0	0
1701	0	0	0
1702	0	0	0
1703	0	0	0
1704	0	0	0
1705	0	0	0
1706	0	0	0
1707	0	0	0
1708	0	0	0
1709	0	0	0
1710	0	0	0
1711	0	0	0
1712	0	0	0
1713	0	0	0
1714	0	0	0
1715	0	0	0
1716	0	0	0
1717	0	0	0
1718	0	0	0
1719	0	0	0
1720	0	0	0
1721	0	0	0
1722	0	0	0
1723	0	0	0
1724	0	0	0
1725	0	0	0
1726	0	0	0
1727	0	0	0
1728	246	223	237
1729	0	0	0
1730	0	0	0
1731	0	0	0
1732	0	0	0
1733	0	0	0
1734	0	0	0
1735	0	0	0
1736	0	0	0
1737	0	0	0
1738	0	0	0
1739	0	0	0
