 	R	G	B
1	0	0	0
2	0	0	0
3	0	0	0
4	0	0	0
5	0	0	0
6	0	0	0
7	0	0	0
8	0	0	0
9	0	0	0
10	250	231	242
11	0	0	0
12	0	0	0
13	0	0	0
14	0	0	0
15	0	0	0
16	0	0	0
17	0	0	0
18	0	0	0
19	0	0	0
20	0	0	0
21	0	0	0
22	0	0	0
23	0	0	0
24	0	0	0
25	0	0	0
26	0	0	0
27	0	0	0
28	0	0	0
29	0	0	0
30	0	0	0
31	0	0	0
32	0	0	0
33	0	0	0
34	0	0	0
35	0	0	0
36	0	0	0
37	0	0	0
38	0	0	0
39	0	0	0
40	0	0	0
41	0	0	0
42	0	0	0
43	0	0	0
44	0	0	0
45	0	0	0
46	0	0	0
47	0	0	0
48	0	0	0
49	0	0	0
50	0	0	0
51	0	0	0
52	0	0	0
53	0	0	0
54	0	0	0
55	0	0	0
56	0	0	0
57	0	0	0
58	0	0	0
59	0	0	0
60	0	0	0
61	0	0	0
62	0	0	0
63	0	0	0
64	0	0	0
65	0	0	0
66	0	0	0
67	0	0	0
68	0	0	0
69	0	0	0
70	0	0	0
71	0	0	0
72	0	0	0
73	0	0	0
74	0	0	0
75	0	0	0
76	0	0	0
77	0	0	0
78	0	0	0
79	0	0	0
80	0	0	0
81	0	0	0
82	0	0	0
83	0	0	0
84	0	0	0
85	0	0	0
86	0	0	0
87	0	0	0
88	0	0	0
89	0	0	0
90	0	0	0
91	0	0	0
92	0	0	0
93	0	0	0
94	0	0	0
95	0	0	0
96	0	0	0
97	0	0	0
98	0	0	0
99	0	0	0
100	249	224	239
101	252	231	244
102	252	233	245
103	248	228	240
104	0	0	0
105	0	0	0
106	0	0	0
107	0	0	0
108	0	0	0
109	0	0	0
110	0	0	0
111	0	0	0
112	0	0	0
113	0	0	0
114	0	0	0
115	0	0	0
116	0	0	0
117	0	0	0
118	0	0	0
119	0	0	0
120	0	0	0
121	0	0	0
122	0	0	0
123	0	0	0
124	0	0	0
125	0	0	0
126	0	0	0
127	0	0	0
128	0	0	0
129	0	0	0
130	0	0	0
131	0	0	0
132	0	0	0
133	0	0	0
134	0	0	0
135	0	0	0
136	0	0	0
137	0	0	0
138	0	0	0
139	0	0	0
140	0	0	0
141	0	0	0
142	0	0	0
143	0	0	0
144	0	0	0
145	0	0	0
146	0	0	0
147	0	0	0
148	0	0	0
149	0	0	0
150	0	0	0
151	0	0	0
152	0	0	0
153	0	0	0
154	0	0	0
155	0	0	0
156	0	0	0
157	0	0	0
158	0	0	0
159	0	0	0
160	0	0	0
161	0	0	0
162	0	0	0
163	0	0	0
164	0	0	0
165	0	0	0
166	0	0	0
167	0	0	0
168	0	0	0
169	0	0	0
170	0	0	0
171	0	0	0
172	0	0	0
173	0	0	0
174	0	0	0
175	0	0	0
176	0	0	0
177	0	0	0
178	0	0	0
179	0	0	0
180	0	0	0
181	0	0	0
182	0	0	0
183	0	0	0
184	0	0	0
185	0	0	0
186	0	0	0
187	0	0	0
188	0	0	0
189	255	233	246
190	253	227	240
191	247	220	236
192	248	224	240
193	249	226	241
194	253	230	245
195	255	234	247
196	0	0	0
197	0	0	0
198	0	0	0
199	0	0	0
200	0	0	0
201	0	0	0
202	0	0	0
203	0	0	0
204	0	0	0
205	0	0	0
206	0	0	0
207	0	0	0
208	0	0	0
209	0	0	0
210	0	0	0
211	0	0	0
212	0	0	0
213	0	0	0
214	0	0	0
215	0	0	0
216	0	0	0
217	0	0	0
218	0	0	0
219	0	0	0
220	0	0	0
221	0	0	0
222	0	0	0
223	0	0	0
224	0	0	0
225	0	0	0
226	0	0	0
227	0	0	0
228	0	0	0
229	0	0	0
230	0	0	0
231	0	0	0
232	0	0	0
233	0	0	0
234	0	0	0
235	0	0	0
236	0	0	0
237	0	0	0
238	0	0	0
239	0	0	0
240	0	0	0
241	0	0	0
242	0	0	0
243	0	0	0
244	0	0	0
245	0	0	0
246	0	0	0
247	0	0	0
248	0	0	0
249	0	0	0
250	0	0	0
251	0	0	0
252	0	0	0
253	0	0	0
254	0	0	0
255	0	0	0
256	0	0	0
257	0	0	0
258	0	0	0
259	0	0	0
260	0	0	0
261	0	0	0
262	0	0	0
263	0	0	0
264	0	0	0
265	0	0	0
266	0	0	0
267	0	0	0
268	0	0	0
269	0	0	0
270	0	0	0
271	0	0	0
272	0	0	0
273	0	0	0
274	0	0	0
275	0	0	0
276	0	0	0
277	0	0	0
278	0	0	0
279	255	237	251
280	255	229	242
281	251	223	237
282	249	221	238
283	249	224	240
284	251	227	243
285	255	234	250
286	251	222	242
287	0	0	0
288	0	0	0
289	0	0	0
290	0	0	0
291	0	0	0
292	249	218	239
293	255	230	247
294	251	226	243
295	0	0	0
296	0	0	0
297	0	0	0
298	0	0	0
299	0	0	0
300	0	0	0
301	0	0	0
302	0	0	0
303	0	0	0
304	0	0	0
305	0	0	0
306	0	0	0
307	0	0	0
308	0	0	0
309	0	0	0
310	0	0	0
311	0	0	0
312	0	0	0
313	0	0	0
314	0	0	0
315	0	0	0
316	0	0	0
317	0	0	0
318	0	0	0
319	0	0	0
320	0	0	0
321	0	0	0
322	0	0	0
323	0	0	0
324	0	0	0
325	0	0	0
326	0	0	0
327	0	0	0
328	0	0	0
329	0	0	0
330	0	0	0
331	0	0	0
332	0	0	0
333	0	0	0
334	0	0	0
335	0	0	0
336	0	0	0
337	0	0	0
338	0	0	0
339	0	0	0
340	0	0	0
341	0	0	0
342	0	0	0
343	0	0	0
344	0	0	0
345	0	0	0
346	0	0	0
347	0	0	0
348	0	0	0
349	0	0	0
350	0	0	0
351	0	0	0
352	0	0	0
353	0	0	0
354	0	0	0
355	0	0	0
356	0	0	0
357	0	0	0
358	0	0	0
359	0	0	0
360	0	0	0
361	0	0	0
362	0	0	0
363	0	0	0
364	0	0	0
365	0	0	0
366	0	0	0
367	0	0	0
368	0	0	0
369	0	0	0
370	255	232	247
371	254	225	242
372	253	224	241
373	251	222	239
374	250	223	240
375	252	226	242
376	250	219	239
377	243	208	234
378	249	218	241
379	0	0	0
380	0	0	0
381	0	0	0
382	252	221	241
383	247	212	237
384	249	214	240
385	245	210	237
386	246	216	239
387	0	0	0
388	0	0	0
389	249	216	237
390	0	0	0
391	0	0	0
392	0	0	0
393	0	0	0
394	0	0	0
395	0	0	0
396	0	0	0
397	0	0	0
398	0	0	0
399	0	0	0
400	0	0	0
401	253	228	245
402	0	0	0
403	0	0	0
404	0	0	0
405	0	0	0
406	0	0	0
407	0	0	0
408	0	0	0
409	0	0	0
410	0	0	0
411	0	0	0
412	0	0	0
413	0	0	0
414	0	0	0
415	0	0	0
416	0	0	0
417	0	0	0
418	0	0	0
419	0	0	0
420	0	0	0
421	0	0	0
422	0	0	0
423	0	0	0
424	0	0	0
425	0	0	0
426	0	0	0
427	0	0	0
428	0	0	0
429	0	0	0
430	0	0	0
431	0	0	0
432	0	0	0
433	0	0	0
434	0	0	0
435	0	0	0
436	0	0	0
437	0	0	0
438	0	0	0
439	0	0	0
440	0	0	0
441	0	0	0
442	0	0	0
443	0	0	0
444	0	0	0
445	0	0	0
446	0	0	0
447	0	0	0
448	0	0	0
449	0	0	0
450	0	0	0
451	0	0	0
452	0	0	0
453	0	0	0
454	0	0	0
455	0	0	0
456	0	0	0
457	0	0	0
458	0	0	0
459	0	0	0
460	255	227	241
461	253	221	239
462	253	222	242
463	253	221	242
464	252	221	239
465	253	223	240
466	254	225	242
467	247	215	237
468	245	210	237
469	255	223	246
470	254	222	242
471	252	221	239
472	250	217	237
473	245	209	233
474	249	213	239
475	253	215	243
476	249	210	239
477	253	217	244
478	251	214	241
479	249	210	237
480	251	213	239
481	255	220	243
482	252	217	240
483	250	217	238
484	249	219	238
485	244	216	235
486	246	221	239
487	0	0	0
488	0	0	0
489	0	0	0
490	0	0	0
491	255	229	248
492	251	222	242
493	245	221	239
494	0	0	0
495	0	0	0
496	0	0	0
497	0	0	0
498	0	0	0
499	0	0	0
500	0	0	0
501	0	0	0
502	0	0	0
503	0	0	0
504	0	0	0
505	0	0	0
506	0	0	0
507	0	0	0
508	0	0	0
509	0	0	0
510	0	0	0
511	0	0	0
512	0	0	0
513	0	0	0
514	0	0	0
515	0	0	0
516	0	0	0
517	0	0	0
518	0	0	0
519	0	0	0
520	0	0	0
521	0	0	0
522	0	0	0
523	0	0	0
524	0	0	0
525	0	0	0
526	0	0	0
527	0	0	0
528	0	0	0
529	0	0	0
530	0	0	0
531	0	0	0
532	0	0	0
533	0	0	0
534	0	0	0
535	0	0	0
536	0	0	0
537	0	0	0
538	0	0	0
539	0	0	0
540	0	0	0
541	0	0	0
542	0	0	0
543	0	0	0
544	0	0	0
545	0	0	0
546	0	0	0
547	0	0	0
548	0	0	0
549	0	0	0
550	254	227	240
551	249	216	235
552	251	218	238
553	252	219	241
554	252	219	241
555	251	219	238
556	253	221	239
557	254	223	242
558	249	216	239
559	246	211	239
560	252	215	242
561	250	213	237
562	246	209	232
563	245	206	232
564	247	209	235
565	251	212	239
566	252	210	238
567	249	204	235
568	248	204	236
569	246	202	236
570	248	205	238
571	250	207	238
572	249	205	236
573	246	203	234
574	247	207	237
575	247	210	237
576	247	214	238
577	248	218	240
578	250	221	241
579	0	0	0
580	0	0	0
581	0	0	0
582	255	224	245
583	249	218	239
584	252	226	242
585	0	0	0
586	0	0	0
587	0	0	0
588	0	0	0
589	0	0	0
590	0	0	0
591	0	0	0
592	0	0	0
593	0	0	0
594	0	0	0
595	0	0	0
596	0	0	0
597	0	0	0
598	0	0	0
599	0	0	0
600	0	0	0
601	0	0	0
602	0	0	0
603	0	0	0
604	0	0	0
605	0	0	0
606	0	0	0
607	0	0	0
608	0	0	0
609	0	0	0
610	0	0	0
611	0	0	0
612	0	0	0
613	0	0	0
614	0	0	0
615	0	0	0
616	0	0	0
617	0	0	0
618	0	0	0
619	0	0	0
620	0	0	0
621	0	0	0
622	0	0	0
623	0	0	0
624	0	0	0
625	0	0	0
626	0	0	0
627	0	0	0
628	0	0	0
629	0	0	0
630	0	0	0
631	0	0	0
632	0	0	0
633	0	0	0
634	0	0	0
635	0	0	0
636	0	0	0
637	0	0	0
638	0	0	0
639	0	0	0
640	0	0	0
641	252	222	239
642	250	217	238
643	252	218	240
644	255	222	244
645	255	223	244
646	252	219	238
647	253	221	239
648	253	219	239
649	249	214	237
650	252	216	242
651	255	220	245
652	250	211	236
653	245	206	231
654	249	211	237
655	254	215	241
656	252	209	237
657	252	206	236
658	255	208	238
659	254	207	239
660	248	200	237
661	249	203	239
662	249	205	239
663	247	203	236
664	248	206	238
665	251	212	241
666	250	210	241
667	255	217	245
668	252	212	241
669	251	214	240
670	253	218	242
671	253	217	242
672	254	219	243
673	249	214	239
674	249	215	238
675	255	226	243
676	250	221	237
677	246	221	235
678	250	228	240
679	0	0	0
680	0	0	0
681	254	225	245
682	252	222	242
683	252	224	244
684	251	225	244
685	253	230	247
686	255	235	249
687	0	0	0
688	252	229	243
689	251	228	243
690	252	234	247
691	0	0	0
692	0	0	0
693	0	0	0
694	0	0	0
695	0	0	0
696	0	0	0
697	0	0	0
698	0	0	0
699	0	0	0
700	0	0	0
701	0	0	0
702	0	0	0
703	0	0	0
704	0	0	0
705	0	0	0
706	0	0	0
707	0	0	0
708	0	0	0
709	0	0	0
710	0	0	0
711	0	0	0
712	0	0	0
713	0	0	0
714	0	0	0
715	0	0	0
716	0	0	0
717	0	0	0
718	0	0	0
719	0	0	0
720	0	0	0
721	0	0	0
722	0	0	0
723	0	0	0
724	0	0	0
725	0	0	0
726	0	0	0
727	0	0	0
728	0	0	0
729	0	0	0
730	0	0	0
731	0	0	0
732	250	221	240
733	247	215	238
734	251	219	242
735	254	223	244
736	252	220	240
737	250	217	236
738	250	216	235
739	249	214	233
740	249	214	235
741	252	216	240
742	251	212	239
743	247	205	235
744	251	211	238
745	254	215	241
746	249	207	235
747	247	201	232
748	253	206	236
749	255	207	237
750	251	202	234
751	245	195	232
752	247	199	236
753	247	202	238
754	247	204	238
755	249	207	238
756	250	207	238
757	251	207	240
758	251	205	240
759	247	201	236
760	246	203	237
761	249	208	240
762	252	210	241
763	252	211	240
764	249	211	238
765	250	213	238
766	250	213	236
767	246	209	232
768	247	213	234
769	250	220	240
770	250	218	239
771	251	217	239
772	252	216	239
773	249	213	238
774	247	213	238
775	246	214	239
776	250	220	243
777	254	226	247
778	250	221	242
779	245	215	238
780	249	222	242
781	250	227	246
782	252	236	249
783	0	0	0
784	0	0	0
785	0	0	0
786	0	0	0
787	0	0	0
788	0	0	0
789	0	0	0
790	0	0	0
791	0	0	0
792	0	0	0
793	0	0	0
794	0	0	0
795	0	0	0
796	0	0	0
797	0	0	0
798	0	0	0
799	0	0	0
800	0	0	0
801	0	0	0
802	0	0	0
803	0	0	0
804	0	0	0
805	0	0	0
806	0	0	0
807	0	0	0
808	0	0	0
809	0	0	0
810	0	0	0
811	0	0	0
812	0	0	0
813	0	0	0
814	0	0	0
815	0	0	0
816	0	0	0
817	0	0	0
818	0	0	0
819	0	0	0
820	0	0	0
821	0	0	0
822	253	231	245
823	250	225	243
824	248	221	241
825	252	225	245
826	255	229	246
827	255	228	244
828	253	220	238
829	253	219	237
830	252	218	235
831	250	217	235
832	251	217	239
833	249	212	239
834	250	209	239
835	255	218	247
836	250	205	235
837	238	193	226
838	248	207	236
839	255	213	242
840	251	202	233
841	245	195	230
842	245	195	232
843	251	201	239
844	250	201	239
845	247	202	237
846	253	210	240
847	255	212	242
848	248	197	235
849	242	193	233
850	250	207	242
851	252	210	244
852	252	209	243
853	255	212	245
854	253	208	240
855	250	208	237
856	254	215	240
857	255	215	240
858	254	211	237
859	255	217	242
860	253	212	239
861	251	209	238
862	252	211	239
863	251	209	237
864	252	212	240
865	248	212	239
866	251	219	244
867	255	225	248
868	252	221	245
869	244	214	239
870	242	214	238
871	248	222	243
872	250	225	245
873	255	236	251
874	254	234	245
875	0	0	0
876	0	0	0
877	0	0	0
878	0	0	0
879	0	0	0
880	0	0	0
881	0	0	0
882	0	0	0
883	0	0	0
884	0	0	0
885	0	0	0
886	0	0	0
887	0	0	0
888	0	0	0
889	0	0	0
890	0	0	0
891	0	0	0
892	0	0	0
893	0	0	0
894	0	0	0
895	0	0	0
896	0	0	0
897	0	0	0
898	0	0	0
899	0	0	0
900	0	0	0
901	0	0	0
902	0	0	0
903	0	0	0
904	0	0	0
905	0	0	0
906	0	0	0
907	0	0	0
908	0	0	0
909	0	0	0
910	0	0	0
911	0	0	0
912	248	225	242
913	255	237	248
914	253	231	244
915	251	227	243
916	254	231	246
917	255	234	247
918	255	227	242
919	251	220	238
920	252	220	239
921	251	219	237
922	250	218	236
923	251	218	240
924	251	214	241
925	253	212	242
926	251	204	239
927	241	191	227
928	244	201	232
929	253	214	241
930	251	205	236
931	245	195	230
932	244	194	231
933	244	194	232
934	251	199	238
935	250	199	237
936	251	204	238
937	255	212	241
938	250	199	233
939	240	185	227
940	249	201	240
941	255	214	249
942	254	211	246
943	254	209	243
944	255	208	242
945	252	205	237
946	253	209	238
947	255	215	242
948	255	211	238
949	253	207	235
950	250	203	233
951	247	197	233
952	249	201	237
953	250	203	238
954	254	208	240
955	253	210	239
956	253	215	242
957	255	222	247
958	254	219	245
959	250	215	241
960	245	214	239
961	243	213	238
962	247	219	241
963	250	222	243
964	252	223	243
965	249	222	239
966	249	227	242
967	0	0	0
968	0	0	0
969	0	0	0
970	0	0	0
971	0	0	0
972	0	0	0
973	0	0	0
974	0	0	0
975	0	0	0
976	0	0	0
977	0	0	0
978	0	0	0
979	0	0	0
980	0	0	0
981	0	0	0
982	0	0	0
983	0	0	0
984	0	0	0
985	0	0	0
986	0	0	0
987	0	0	0
988	0	0	0
989	0	0	0
990	0	0	0
991	0	0	0
992	0	0	0
993	0	0	0
994	0	0	0
995	0	0	0
996	0	0	0
997	0	0	0
998	0	0	0
999	0	0	0
1000	0	0	0
1001	0	0	0
1002	246	223	241
1003	255	235	249
1004	255	236	247
1005	251	229	242
1006	251	228	242
1007	253	231	245
1008	253	230	243
1009	248	221	237
1010	249	221	239
1011	249	222	240
1012	250	222	238
1013	253	222	239
1014	254	220	242
1015	255	218	244
1016	254	212	242
1017	249	203	236
1018	250	205	236
1019	255	218	244
1020	250	206	236
1021	244	195	229
1022	248	200	234
1023	247	200	235
1024	248	198	236
1025	255	204	242
1026	249	195	236
1027	252	201	238
1028	253	205	238
1029	242	189	227
1030	250	199	236
1031	255	217	251
1032	255	205	243
1033	251	201	239
1034	255	208	244
1035	255	207	242
1036	252	201	235
1037	255	206	238
1038	255	210	240
1039	250	203	234
1040	255	210	238
1041	254	206	237
1042	252	201	237
1043	255	205	242
1044	255	208	243
1045	255	212	245
1046	253	207	238
1047	254	213	240
1048	255	216	244
1049	253	213	241
1050	253	216	241
1051	249	215	239
1052	243	208	236
1053	248	214	240
1054	252	221	243
1055	252	221	242
1056	250	220	240
1057	252	226	243
1058	0	0	0
1059	0	0	0
1060	0	0	0
1061	0	0	0
1062	0	0	0
1063	0	0	0
1064	0	0	0
1065	0	0	0
1066	0	0	0
1067	0	0	0
1068	0	0	0
1069	0	0	0
1070	0	0	0
1071	0	0	0
1072	0	0	0
1073	0	0	0
1074	0	0	0
1075	0	0	0
1076	0	0	0
1077	0	0	0
1078	0	0	0
1079	0	0	0
1080	0	0	0
1081	0	0	0
1082	0	0	0
1083	0	0	0
1084	0	0	0
1085	0	0	0
1086	0	0	0
1087	0	0	0
1088	0	0	0
1089	0	0	0
1090	0	0	0
1091	0	0	0
1092	0	0	0
1093	0	0	0
1094	253	233	247
1095	254	234	246
1096	251	230	242
1097	251	229	242
1098	254	230	245
1099	254	229	245
1100	252	228	245
1101	252	228	245
1102	252	227	243
1103	252	226	240
1104	251	222	238
1105	253	220	242
1106	253	216	241
1107	251	210	238
1108	255	214	241
1109	255	216	241
1110	251	206	234
1111	245	196	229
1112	250	202	235
1113	254	206	238
1114	252	204	238
1115	253	203	240
1116	252	198	239
1117	247	190	234
1118	251	196	239
1119	253	200	238
1120	255	206	240
1121	255	213	244
1122	255	205	239
1123	249	193	233
1124	254	201	239
1125	255	209	246
1126	255	204	242
1127	252	197	236
1128	252	200	236
1129	253	203	237
1130	254	207	238
1131	255	214	243
1132	255	208	240
1133	254	203	238
1134	255	208	242
1135	255	209	243
1136	255	208	241
1137	252	203	236
1138	254	207	238
1139	255	212	242
1140	255	214	243
1141	255	216	240
1142	249	209	235
1143	244	204	234
1144	250	212	241
1145	253	218	242
1146	252	217	240
1147	250	217	239
1148	253	224	242
1149	0	0	0
1150	0	0	0
1151	0	0	0
1152	0	0	0
1153	0	0	0
1154	0	0	0
1155	0	0	0
1156	0	0	0
1157	0	0	0
1158	0	0	0
1159	0	0	0
1160	0	0	0
1161	0	0	0
1162	0	0	0
1163	0	0	0
1164	0	0	0
1165	0	0	0
1166	0	0	0
1167	0	0	0
1168	0	0	0
1169	0	0	0
1170	0	0	0
1171	0	0	0
1172	0	0	0
1173	0	0	0
1174	0	0	0
1175	0	0	0
1176	0	0	0
1177	0	0	0
1178	0	0	0
1179	0	0	0
1180	0	0	0
1181	0	0	0
1182	0	0	0
1183	0	0	0
1184	0	0	0
1185	0	0	0
1186	252	231	243
1187	248	227	240
1188	255	236	247
1189	255	240	252
1190	249	220	240
1191	247	218	239
1192	255	231	247
1193	255	230	245
1194	249	221	237
1195	243	215	232
1196	248	219	239
1197	249	214	238
1198	251	214	238
1199	255	218	241
1200	253	210	236
1201	249	201	231
1202	252	202	234
1203	255	209	241
1204	253	201	236
1205	252	199	236
1206	253	200	239
1207	249	194	236
1208	251	195	238
1209	255	203	244
1210	254	197	238
1211	255	202	240
1212	255	202	237
1213	250	192	230
1214	249	190	231
1215	255	199	239
1216	255	200	241
1217	252	194	236
1218	252	195	235
1219	251	198	235
1220	255	205	238
1221	255	210	240
1222	255	207	239
1223	252	201	235
1224	254	202	237
1225	255	207	241
1226	255	204	240
1227	255	203	239
1228	254	202	237
1229	255	206	240
1230	254	204	239
1231	255	206	238
1232	255	210	237
1233	251	204	233
1234	251	205	237
1235	255	213	243
1236	253	213	240
1237	251	213	239
1238	251	214	239
1239	254	221	242
1240	254	223	241
1241	0	0	0
1242	253	225	243
1243	255	230	246
1244	251	224	241
1245	0	0	0
1246	0	0	0
1247	0	0	0
1248	0	0	0
1249	0	0	0
1250	0	0	0
1251	0	0	0
1252	0	0	0
1253	0	0	0
1254	0	0	0
1255	0	0	0
1256	0	0	0
1257	0	0	0
1258	0	0	0
1259	0	0	0
1260	0	0	0
1261	0	0	0
1262	0	0	0
1263	0	0	0
1264	0	0	0
1265	0	0	0
1266	0	0	0
1267	0	0	0
1268	0	0	0
1269	0	0	0
1270	0	0	0
1271	0	0	0
1272	0	0	0
1273	0	0	0
1274	0	0	0
1275	0	0	0
1276	0	0	0
1277	0	0	0
1278	255	237	247
1279	255	246	253
1280	255	229	243
1281	242	208	231
1282	248	220	240
1283	255	233	247
1284	254	226	240
1285	249	219	235
1286	248	220	237
1287	251	223	242
1288	252	222	242
1289	254	221	241
1290	253	214	238
1291	251	207	236
1292	254	207	238
1293	255	206	238
1294	251	199	234
1295	246	192	231
1296	249	195	235
1297	250	196	237
1298	249	195	236
1299	251	196	236
1300	253	194	235
1301	249	188	230
1302	248	188	230
1303	248	188	230
1304	247	186	230
1305	247	185	230
1306	249	188	233
1307	249	188	232
1308	251	191	232
1309	250	193	232
1310	253	199	234
1311	255	207	237
1312	255	204	236
1313	255	202	236
1314	255	203	238
1315	255	205	239
1316	255	203	239
1317	255	201	239
1318	255	202	241
1319	255	202	241
1320	255	200	239
1321	252	196	235
1322	254	200	236
1323	255	205	237
1324	255	206	237
1325	255	206	239
1326	255	208	240
1327	254	209	241
1328	254	211	242
1329	253	212	242
1330	255	216	243
1331	255	218	241
1332	252	215	238
1333	251	215	239
1334	249	214	238
1335	244	209	234
1336	247	218	239
1337	0	0	0
1338	0	0	0
1339	0	0	0
1340	0	0	0
1341	0	0	0
1342	0	0	0
1343	0	0	0
1344	0	0	0
1345	0	0	0
1346	0	0	0
1347	0	0	0
1348	0	0	0
1349	0	0	0
1350	0	0	0
1351	0	0	0
1352	0	0	0
1353	0	0	0
1354	0	0	0
1355	0	0	0
1356	0	0	0
1357	0	0	0
1358	0	0	0
1359	0	0	0
1360	0	0	0
1361	0	0	0
1362	0	0	0
1363	0	0	0
1364	0	0	0
1365	0	0	0
1366	0	0	0
1367	0	0	0
1368	0	0	0
1369	0	0	0
1370	255	232	244
1371	245	213	232
1372	245	215	236
1373	250	226	243
1374	253	230	243
1375	253	224	239
1376	252	219	237
1377	255	223	241
1378	250	215	237
1379	245	211	234
1380	251	216	238
1381	253	211	237
1382	252	204	235
1383	251	203	235
1384	255	208	239
1385	249	200	234
1386	245	194	232
1387	248	197	236
1388	249	198	236
1389	249	198	236
1390	251	198	235
1391	252	196	234
1392	248	189	230
1393	247	189	231
1394	253	197	237
1395	253	196	238
1396	253	193	237
1397	255	196	239
1398	252	191	233
1399	253	194	234
1400	254	197	234
1401	255	204	237
1402	255	203	236
1403	255	200	235
1404	253	196	234
1405	255	198	237
1406	255	199	238
1407	255	198	237
1408	254	194	236
1409	255	195	239
1410	253	192	237
1411	251	189	234
1412	255	197	236
1413	255	201	237
1414	255	202	238
1415	255	202	237
1416	252	199	234
1417	253	201	236
1418	255	210	243
1419	255	212	245
1420	253	205	240
1421	255	209	241
1422	255	213	241
1423	250	210	236
1424	253	214	240
1425	251	213	240
1426	248	210	238
1427	255	222	246
1428	0	0	0
1429	0	0	0
1430	0	0	0
1431	0	0	0
1432	0	0	0
1433	0	0	0
1434	0	0	0
1435	0	0	0
1436	0	0	0
1437	0	0	0
1438	0	0	0
1439	0	0	0
1440	0	0	0
1441	0	0	0
1442	0	0	0
1443	0	0	0
1444	0	0	0
1445	0	0	0
1446	0	0	0
1447	0	0	0
1448	0	0	0
1449	0	0	0
1450	0	0	0
1451	0	0	0
1452	0	0	0
1453	0	0	0
1454	0	0	0
1455	0	0	0
1456	0	0	0
1457	0	0	0
1458	0	0	0
1459	0	0	0
1460	248	222	238
1461	246	217	235
1462	250	221	239
1463	251	222	243
1464	249	224	243
1465	252	229	244
1466	253	223	240
1467	253	219	238
1468	251	213	235
1469	244	205	230
1470	243	206	231
1471	249	212	237
1472	250	207	235
1473	247	198	230
1474	250	203	233
1475	253	208	238
1476	245	200	232
1477	241	193	228
1478	245	197	231
1479	247	198	234
1480	250	200	235
1481	253	202	234
1482	253	198	233
1483	250	192	232
1484	255	200	239
1485	255	207	244
1486	255	203	242
1487	255	200	241
1488	255	197	240
1489	254	193	236
1490	255	198	237
1491	255	200	237
1492	255	198	234
1493	255	198	235
1494	254	194	233
1495	251	189	231
1496	253	192	235
1497	255	195	239
1498	255	191	237
1499	252	187	234
1500	251	185	234
1501	249	182	232
1502	255	191	236
1503	255	197	237
1504	255	197	234
1505	255	198	236
1506	253	195	234
1507	249	191	230
1508	255	200	236
1509	255	209	243
1510	255	203	238
1511	249	196	233
1512	253	203	237
1513	255	207	239
1514	254	209	239
1515	255	214	242
1516	253	212	241
1517	251	210	241
1518	254	214	243
1519	248	212	236
1520	246	220	238
1521	0	0	0
1522	251	230	244
1523	0	0	0
1524	0	0	0
1525	0	0	0
1526	0	0	0
1527	0	0	0
1528	0	0	0
1529	0	0	0
1530	0	0	0
1531	0	0	0
1532	0	0	0
1533	0	0	0
1534	0	0	0
1535	0	0	0
1536	0	0	0
1537	0	0	0
1538	0	0	0
1539	0	0	0
1540	0	0	0
1541	0	0	0
1542	0	0	0
1543	0	0	0
1544	0	0	0
1545	0	0	0
1546	0	0	0
1547	0	0	0
1548	0	0	0
1549	0	0	0
1550	0	0	0
1551	0	0	0
1552	247	221	239
1553	254	227	245
1554	251	221	242
1555	250	223	243
1556	254	228	246
1557	252	222	240
1558	254	221	240
1559	251	215	236
1560	246	207	232
1561	246	210	235
1562	253	218	241
1563	252	210	237
1564	251	207	233
1565	253	211	236
1566	251	209	237
1567	243	200	231
1568	244	202	231
1569	249	206	235
1570	248	199	234
1571	254	204	239
1572	249	193	231
1573	247	188	228
1574	249	189	232
1575	255	198	239
1576	255	198	238
1577	253	192	234
1578	253	193	237
1579	251	189	235
1580	253	191	235
1581	255	197	238
1582	254	193	233
1583	251	191	231
1584	255	198	238
1585	255	195	237
1586	250	184	230
1587	253	188	234
1588	255	196	241
1589	255	192	239
1590	251	181	232
1591	251	180	232
1592	255	188	237
1593	255	196	242
1594	252	185	231
1595	250	185	229
1596	255	198	237
1597	255	194	234
1598	254	195	233
1599	255	204	240
1600	255	201	238
1601	252	195	234
1602	254	198	235
1603	255	205	239
1604	254	202	235
1605	254	205	237
1606	255	207	239
1607	253	206	239
1608	255	209	243
1609	255	212	243
1610	247	205	234
1611	251	217	239
1612	253	224	242
1613	247	219	237
1614	248	224	239
1615	0	0	0
1616	0	0	0
1617	0	0	0
1618	0	0	0
1619	0	0	0
1620	0	0	0
1621	0	0	0
1622	0	0	0
1623	0	0	0
1624	0	0	0
1625	0	0	0
1626	0	0	0
1627	0	0	0
1628	0	0	0
1629	0	0	0
1630	0	0	0
1631	0	0	0
1632	0	0	0
1633	0	0	0
1634	0	0	0
1635	0	0	0
1636	0	0	0
1637	0	0	0
1638	0	0	0
1639	0	0	0
1640	0	0	0
1641	0	0	0
1642	0	0	0
1643	0	0	0
1644	255	229	248
1645	251	222	243
1646	250	223	242
1647	253	227	245
1648	252	223	241
1649	253	222	239
1650	251	216	237
1651	248	210	235
1652	253	217	242
1653	255	223	244
1654	254	217	238
1655	253	214	235
1656	251	212	235
1657	249	210	235
1658	247	209	235
1659	249	212	236
1660	249	206	234
1661	250	200	236
1662	251	195	236
1663	246	186	231
1664	248	187	233
1665	249	187	234
1666	252	188	234
1667	251	187	230
1668	249	185	229
1669	250	186	234
1670	251	188	236
1671	251	189	234
1672	252	188	233
1673	250	185	229
1674	252	190	232
1675	255	198	239
1676	252	187	233
1677	246	177	227
1678	252	184	233
1679	255	191	236
1680	252	182	230
1681	247	173	226
1682	255	185	235
1683	255	192	239
1684	255	185	235
1685	249	176	230
1686	255	188	237
1687	255	199	241
1688	255	198	237
1689	255	198	236
1690	255	196	234
1691	254	194	235
1692	255	198	238
1693	255	201	239
1694	254	198	233
1695	250	194	228
1696	250	196	228
1697	252	199	233
1698	255	204	239
1699	255	207	242
1700	254	206	241
1701	248	200	236
1702	251	209	240
1703	253	216	241
1704	250	217	238
1705	250	221	238
1706	253	227	240
1707	0	0	0
1708	0	0	0
1709	0	0	0
1710	0	0	0
1711	0	0	0
1712	0	0	0
1713	0	0	0
1714	0	0	0
1715	0	0	0
1716	0	0	0
1717	0	0	0
1718	0	0	0
1719	0	0	0
1720	0	0	0
1721	0	0	0
1722	0	0	0
1723	0	0	0
1724	0	0	0
1725	0	0	0
1726	0	0	0
1727	0	0	0
1728	0	0	0
1729	0	0	0
1730	0	0	0
1731	0	0	0
1732	0	0	0
1733	0	0	0
1734	246	214	237
1735	246	212	238
1736	242	209	235
1737	239	210	233
1738	250	227	244
1739	247	221	238
1740	250	221	237
1741	251	217	237
1742	247	208	235
1743	255	216	243
1744	250	212	237
1745	240	203	228
1746	248	214	233
1747	249	213	234
1748	243	204	230
1749	241	204	231
1750	251	214	237
1751	254	210	238
1752	253	200	237
1753	252	194	237
1754	250	189	236
1755	253	191	239
1756	253	191	238
1757	253	191	236
1758	249	186	230
1759	249	185	230
1760	254	193	238
1761	254	194	239
1762	253	192	236
1763	255	192	235
1764	252	187	231
1765	255	193	235
1766	255	195	238
1767	251	184	231
1768	255	188	236
1769	255	196	241
1770	255	189	235
1771	252	181	229
1772	253	179	231
1773	255	191	241
1774	249	172	227
1775	244	165	224
1776	251	176	233
1777	255	188	241
1778	255	189	237
1779	255	188	232
1780	255	191	233
1781	252	188	231
1782	253	190	235
1783	255	194	238
1784	255	197	238
1785	253	193	232
1786	254	197	230
1787	255	198	230
1788	255	201	234
1789	255	205	240
1790	254	198	237
1791	252	198	238
1792	250	197	237
1793	253	206	241
1794	255	215	243
1795	254	216	241
1796	252	217	238
1797	254	223	240
1798	249	222	238
1799	0	0	0
1800	0	0	0
1801	0	0	0
1802	0	0	0
1803	0	0	0
1804	0	0	0
1805	0	0	0
1806	0	0	0
1807	0	0	0
1808	0	0	0
1809	0	0	0
1810	0	0	0
1811	0	0	0
1812	0	0	0
1813	0	0	0
1814	0	0	0
1815	0	0	0
1816	0	0	0
1817	0	0	0
1818	0	0	0
1819	0	0	0
1820	0	0	0
1821	0	0	0
1822	0	0	0
1823	0	0	0
1824	251	218	238
1825	240	200	231
1826	242	204	236
1827	236	201	232
1828	242	214	238
1829	252	230	246
1830	250	224	240
1831	253	224	241
1832	249	214	236
1833	245	205	233
1834	249	207	238
1835	246	205	236
1836	248	212	238
1837	254	222	241
1838	246	210	233
1839	240	201	230
1840	245	208	235
1841	254	217	240
1842	252	206	234
1843	250	196	233
1844	250	193	235
1845	248	187	233
1846	252	190	236
1847	252	190	235
1848	249	187	232
1849	246	183	230
1850	250	189	234
1851	254	195	237
1852	252	193	235
1853	254	193	235
1854	254	191	234
1855	252	186	230
1856	254	189	232
1857	255	190	234
1858	255	193	237
1859	255	198	240
1860	255	193	238
1861	255	188	235
1862	255	185	235
1863	255	183	236
1864	247	167	227
1865	234	149	215
1866	243	161	225
1867	249	171	231
1868	251	175	233
1869	251	177	233
1870	254	182	235
1871	255	186	234
1872	255	187	234
1873	255	188	236
1874	255	191	238
1875	255	193	238
1876	255	196	237
1877	255	199	235
1878	255	198	232
1879	255	199	232
1880	253	194	230
1881	249	188	231
1882	252	193	236
1883	249	192	234
1884	253	202	238
1885	255	212	243
1886	255	213	241
1887	253	214	240
1888	251	215	240
1889	246	214	238
1890	244	220	240
1891	0	0	0
1892	0	0	0
1893	0	0	0
1894	0	0	0
1895	0	0	0
1896	0	0	0
1897	0	0	0
1898	0	0	0
1899	0	0	0
1900	0	0	0
1901	0	0	0
1902	0	0	0
1903	0	0	0
1904	0	0	0
1905	0	0	0
1906	0	0	0
1907	0	0	0
1908	0	0	0
1909	0	0	0
1910	0	0	0
1911	0	0	0
1912	0	0	0
1913	0	0	0
1914	0	0	0
1915	252	212	237
1916	240	194	231
1917	236	196	234
1918	229	193	230
1919	236	206	236
1920	250	225	245
1921	250	220	240
1922	252	220	240
1923	245	208	233
1924	245	206	234
1925	246	207	238
1926	244	204	237
1927	255	215	244
1928	254	216	240
1929	241	201	228
1930	246	207	235
1931	253	216	242
1932	254	215	238
1933	246	200	229
1934	248	199	233
1935	251	197	235
1936	251	193	235
1937	254	196	238
1938	252	192	235
1939	251	190	234
1940	250	190	234
1941	251	195	237
1942	251	194	234
1943	253	194	233
1944	255	198	238
1945	255	196	237
1946	250	184	228
1947	253	186	230
1948	255	190	234
1949	255	193	236
1950	255	195	236
1951	255	190	234
1952	252	179	230
1953	253	177	232
1954	255	180	236
1955	246	164	227
1956	247	165	229
1957	255	179	239
1958	255	180	238
1959	255	184	239
1960	255	182	238
1961	255	188	241
1962	254	178	232
1963	254	180	232
1964	252	180	232
1965	250	181	233
1966	250	185	235
1967	251	188	234
1968	255	198	237
1969	255	197	233
1970	255	197	232
1971	253	191	229
1972	250	185	231
1973	253	191	236
1974	250	190	234
1975	254	200	238
1976	255	209	242
1977	255	210	241
1978	251	207	238
1979	246	206	236
1980	246	213	241
1981	247	220	244
1982	0	0	0
1983	0	0	0
1984	246	222	240
1985	0	0	0
1986	0	0	0
1987	0	0	0
1988	0	0	0
1989	0	0	0
1990	0	0	0
1991	0	0	0
1992	0	0	0
1993	0	0	0
1994	0	0	0
1995	0	0	0
1996	0	0	0
1997	0	0	0
1998	0	0	0
1999	0	0	0
2000	0	0	0
2001	0	0	0
2002	0	0	0
2003	0	0	0
2004	0	0	0
2005	0	0	0
2006	247	201	233
2007	234	183	226
2008	230	186	230
2009	222	182	227
2010	230	199	234
2011	244	217	242
2012	246	213	237
2013	250	214	238
2014	248	210	236
2015	246	207	235
2016	242	203	232
2017	240	199	232
2018	246	204	235
2019	246	205	232
2020	245	207	233
2021	250	213	240
2022	252	213	240
2023	252	212	235
2024	248	205	230
2025	250	203	234
2026	252	201	237
2027	252	197	235
2028	253	196	236
2029	252	193	237
2030	254	196	239
2031	252	195	236
2032	249	194	233
2033	250	194	234
2034	255	197	236
2035	255	201	237
2036	252	189	229
2037	245	178	223
2038	251	184	229
2039	254	189	234
2040	255	190	234
2041	255	191	233
2042	253	181	227
2043	248	171	225
2044	252	174	230
2045	255	177	235
2046	255	177	236
2047	255	179	238
2048	255	184	242
2049	255	185	239
2050	255	185	238
2051	255	184	237
2052	254	176	231
2053	247	167	223
2054	248	169	225
2055	246	169	225
2056	245	173	228
2057	246	177	232
2058	253	187	237
2059	255	197	239
2060	255	194	234
2061	255	195	234
2062	254	188	231
2063	249	182	229
2064	252	187	235
2065	251	188	235
2066	255	198	240
2067	255	206	242
2068	254	202	237
2069	249	199	233
2070	248	205	237
2071	250	212	242
2072	251	218	245
2073	0	0	0
2074	246	215	237
2075	238	208	233
2076	245	221	241
2077	0	0	0
2078	0	0	0
2079	0	0	0
2080	0	0	0
2081	0	0	0
2082	0	0	0
2083	0	0	0
2084	0	0	0
2085	0	0	0
2086	0	0	0
2087	0	0	0
2088	0	0	0
2089	0	0	0
2090	0	0	0
2091	0	0	0
2092	0	0	0
2093	0	0	0
2094	0	0	0
2095	0	0	0
2096	0	0	0
2097	253	210	240
2098	238	189	231
2099	235	193	235
2100	230	195	235
2101	236	209	241
2102	247	224	247
2103	251	221	243
2104	255	220	243
2105	255	218	242
2106	249	209	236
2107	244	204	232
2108	247	210	237
2109	248	212	238
2110	248	213	236
2111	251	217	239
2112	250	214	239
2113	251	213	237
2114	252	211	234
2115	249	205	230
2116	252	206	234
2117	252	203	235
2118	253	202	236
2119	254	200	237
2120	251	195	236
2121	254	199	239
2122	251	194	234
2123	251	194	233
2124	254	199	236
2125	255	200	235
2126	255	199	233
2127	250	189	226
2128	251	188	228
2129	255	194	235
2130	255	196	238
2131	255	198	240
2132	255	186	230
2133	251	176	225
2134	245	166	222
2135	248	169	226
2136	254	177	234
2137	253	176	234
2138	255	187	241
2139	255	193	245
2140	254	174	231
2141	255	175	231
2142	255	176	232
2143	251	169	227
2144	249	167	226
2145	250	169	227
2146	251	174	230
2147	250	178	232
2148	250	181	236
2149	255	192	243
2150	255	192	238
2151	255	188	232
2152	255	189	233
2153	251	183	230
2154	252	183	232
2155	255	189	238
2156	254	188	238
2157	255	198	244
2158	253	194	236
2159	248	190	231
2160	255	203	238
2161	255	212	243
2162	252	206	240
2163	255	212	244
2164	252	214	241
2165	238	202	231
2166	241	210	238
2167	253	226	248
2168	255	231	245
2169	252	231	242
2170	248	229	240
2171	0	0	0
2172	0	0	0
2173	0	0	0
2174	0	0	0
2175	0	0	0
2176	0	0	0
2177	0	0	0
2178	0	0	0
2179	0	0	0
2180	0	0	0
2181	0	0	0
2182	0	0	0
2183	0	0	0
2184	0	0	0
2185	0	0	0
2186	0	0	0
2187	0	0	0
2188	246	207	235
2189	232	186	225
2190	234	195	232
2191	230	197	232
2192	237	211	238
2193	247	226	244
2194	249	221	240
2195	252	221	240
2196	250	214	236
2197	245	206	233
2198	249	213	237
2199	251	219	238
2200	251	220	237
2201	252	221	239
2202	250	217	238
2203	249	213	235
2204	251	212	234
2205	253	212	234
2206	253	210	233
2207	255	209	234
2208	255	208	235
2209	255	207	238
2210	255	203	237
2211	250	197	233
2212	248	194	232
2213	247	192	231
2214	253	198	235
2215	255	202	234
2216	255	200	232
2217	255	200	231
2218	253	196	230
2219	254	195	231
2220	255	197	234
2221	255	199	236
2222	254	186	230
2223	249	176	226
2224	245	168	223
2225	239	157	215
2226	246	168	223
2227	251	175	230
2228	255	184	236
2229	255	194	241
2230	255	181	233
2231	248	165	224
2232	253	170	230
2233	255	171	233
2234	254	170	232
2235	252	168	231
2236	253	173	233
2237	253	176	232
2238	250	176	231
2239	251	180	235
2240	253	182	236
2241	252	182	230
2242	250	180	227
2243	252	182	230
2244	252	183	232
2245	253	184	235
2246	255	186	237
2247	253	185	236
2248	252	185	235
2249	247	181	229
2250	253	194	235
2251	255	207	242
2252	254	201	237
2253	248	195	234
2254	248	199	236
2255	245	200	235
2256	243	205	237
2257	245	213	242
2258	252	221	245
2259	253	225	242
2260	247	221	236
2261	245	220	237
2262	249	228	243
2263	0	0	0
2264	0	0	0
2265	0	0	0
2266	0	0	0
2267	0	0	0
2268	0	0	0
2269	0	0	0
2270	0	0	0
2271	0	0	0
2272	0	0	0
2273	0	0	0
2274	0	0	0
2275	0	0	0
2276	0	0	0
2277	0	0	0
2278	0	0	0
2279	0	0	0
2280	238	204	233
2281	244	216	242
2282	244	217	242
2283	0	0	0
2284	254	232	245
2285	248	224	238
2286	251	226	240
2287	248	219	237
2288	245	212	235
2289	249	220	240
2290	249	220	237
2291	254	223	239
2292	253	219	238
2293	250	215	235
2294	248	211	233
2295	250	210	232
2296	255	216	236
2297	255	214	235
2298	253	207	232
2299	253	205	232
2300	255	207	237
2301	255	204	236
2302	246	193	228
2303	239	188	225
2304	250	203	237
2305	255	212	243
2306	252	197	231
2307	252	196	229
2308	249	193	227
2309	245	188	223
2310	255	205	236
2311	255	207	238
2312	255	193	230
2313	249	182	226
2314	254	185	233
2315	251	177	229
2316	249	175	226
2317	255	185	234
2318	255	184	234
2319	255	193	240
2320	255	187	235
2321	254	173	227
2322	244	157	220
2323	250	162	228
2324	253	166	232
2325	251	164	230
2326	251	166	231
2327	252	170	232
2328	255	179	234
2329	254	180	233
2330	255	184	237
2331	255	185	237
2332	254	183	231
2333	252	182	229
2334	255	189	235
2335	255	190	236
2336	255	185	235
2337	255	187	238
2338	255	186	236
2339	255	186	236
2340	250	182	232
2341	255	195	239
2342	255	200	239
2343	251	193	233
2344	248	195	234
2345	244	196	235
2346	247	205	239
2347	251	213	245
2348	247	210	241
2349	248	215	242
2350	246	217	237
2351	243	214	233
2352	248	223	241
2353	252	230	247
2354	247	226	242
2355	0	0	0
2356	0	0	0
2357	0	0	0
2358	0	0	0
2359	0	0	0
2360	0	0	0
2361	0	0	0
2362	0	0	0
2363	0	0	0
2364	0	0	0
2365	0	0	0
2366	0	0	0
2367	0	0	0
2368	0	0	0
2369	0	0	0
2370	0	0	0
2371	0	0	0
2372	0	0	0
2373	0	0	0
2374	0	0	0
2375	0	0	0
2376	252	231	239
2377	0	0	0
2378	251	227	239
2379	247	220	236
2380	247	221	238
2381	249	222	238
2382	252	220	239
2383	251	217	237
2384	250	214	236
2385	249	211	235
2386	253	214	237
2387	255	218	238
2388	253	210	232
2389	250	204	231
2390	254	206	234
2391	255	207	235
2392	249	199	231
2393	240	189	226
2394	244	200	233
2395	255	214	242
2396	252	203	235
2397	246	190	228
2398	247	190	229
2399	244	187	225
2400	252	200	233
2401	255	217	242
2402	255	201	232
2403	251	188	226
2404	254	190	231
2405	255	193	237
2406	255	192	237
2407	255	190	234
2408	255	190	235
2409	255	189	236
2410	255	182	232
2411	254	177	230
2412	245	161	221
2413	235	143	213
2414	243	152	222
2415	246	156	225
2416	247	159	227
2417	246	160	226
2418	251	170	230
2419	255	180	235
2420	254	180	233
2421	255	183	234
2422	252	181	231
2423	251	180	229
2424	255	187	233
2425	255	193	236
2426	255	191	235
2427	255	186	233
2428	255	187	234
2429	255	186	234
2430	254	184	233
2431	250	180	231
2432	254	188	236
2433	255	193	237
2434	255	195	237
2435	252	196	237
2436	251	202	239
2437	253	211	243
2438	252	209	242
2439	247	205	239
2440	244	207	238
2441	243	210	236
2442	245	216	238
2443	250	223	242
2444	248	222	240
2445	244	218	236
2446	250	228	242
2447	0	0	0
2448	245	232	240
2449	0	0	0
2450	0	0	0
2451	0	0	0
2452	0	0	0
2453	0	0	0
2454	0	0	0
2455	0	0	0
2456	0	0	0
2457	0	0	0
2458	0	0	0
2459	0	0	0
2460	0	0	0
2461	0	0	0
2462	0	0	0
2463	0	0	0
2464	0	0	0
2465	0	0	0
2466	0	0	0
2467	0	0	0
2468	0	0	0
2469	247	223	235
2470	249	226	239
2471	250	227	241
2472	249	224	240
2473	252	222	240
2474	253	219	239
2475	255	218	239
2476	251	213	236
2477	252	215	237
2478	255	221	238
2479	252	213	233
2480	254	212	237
2481	255	215	241
2482	252	205	233
2483	241	194	226
2484	242	198	231
2485	249	211	240
2486	250	210	238
2487	247	199	231
2488	249	198	234
2489	250	198	235
2490	247	195	230
2491	255	208	237
2492	255	208	236
2493	250	193	226
2494	254	194	230
2495	255	196	235
2496	253	189	232
2497	254	188	232
2498	255	191	233
2499	255	191	234
2500	254	184	231
2501	251	177	228
2502	255	186	236
2503	251	170	227
2504	243	156	222
2505	250	165	231
2506	250	165	232
2507	253	169	234
2508	249	166	230
2509	254	176	234
2510	255	186	239
2511	255	187	236
2512	255	187	235
2513	254	186	232
2514	255	193	237
2515	255	201	241
2516	255	186	231
2517	255	184	231
2518	248	173	226
2519	250	175	227
2520	255	182	232
2521	253	181	231
2522	253	182	234
2523	255	190	240
2524	254	186	235
2525	254	189	236
2526	253	192	237
2527	255	200	239
2528	255	203	239
2529	251	200	236
2530	245	198	235
2531	241	199	234
2532	247	214	241
2533	251	220	242
2534	249	220	240
2535	248	218	238
2536	246	218	237
2537	251	227	243
2538	251	231	244
2539	244	226	239
2540	246	232	240
2541	0	0	0
2542	0	0	0
2543	0	0	0
2544	0	0	0
2545	0	0	0
2546	0	0	0
2547	0	0	0
2548	0	0	0
2549	0	0	0
2550	0	0	0
2551	0	0	0
2552	0	0	0
2553	0	0	0
2554	0	0	0
2555	0	0	0
2556	0	0	0
2557	0	0	0
2558	0	0	0
2559	0	0	0
2560	0	0	0
2561	252	233	242
2562	249	229	240
2563	249	226	239
2564	251	223	239
2565	252	220	238
2566	253	217	237
2567	249	212	233
2568	253	218	236
2569	255	224	238
2570	253	218	235
2571	255	218	241
2572	255	212	240
2573	247	202	231
2574	247	206	234
2575	248	210	238
2576	247	208	237
2577	248	207	236
2578	250	206	236
2579	252	204	237
2580	251	203	235
2581	247	200	230
2582	247	199	229
2583	250	201	231
2584	254	200	232
2585	255	200	233
2586	253	193	230
2587	249	185	228
2588	253	189	232
2589	255	192	233
2590	251	184	227
2591	248	177	226
2592	253	183	230
2593	255	190	235
2594	252	175	226
2595	245	162	222
2596	250	168	231
2597	250	168	234
2598	253	171	236
2599	249	170	232
2600	255	181	237
2601	255	191	241
2602	255	190	238
2603	255	192	238
2604	255	198	240
2605	255	205	242
2606	255	190	232
2607	250	178	226
2608	246	170	225
2609	241	161	223
2610	250	172	232
2611	254	179	232
2612	254	181	232
2613	255	182	236
2614	253	181	235
2615	249	177	232
2616	251	182	234
2617	251	186	235
2618	252	190	235
2619	251	193	233
2620	247	192	231
2621	244	191	232
2622	250	206	241
2623	255	219	244
2624	252	217	239
2625	251	217	240
2626	249	216	239
2627	246	215	237
2628	246	219	239
2629	246	223	240
2630	244	226	240
2631	247	233	243
2632	0	0	0
2633	0	0	0
2634	0	0	0
2635	0	0	0
2636	0	0	0
2637	0	0	0
2638	0	0	0
2639	0	0	0
2640	0	0	0
2641	0	0	0
2642	0	0	0
2643	0	0	0
2644	0	0	0
2645	0	0	0
2646	0	0	0
2647	0	0	0
2648	0	0	0
2649	0	0	0
2650	0	0	0
2651	0	0	0
2652	0	0	0
2653	252	233	242
2654	250	227	239
2655	251	224	239
2656	252	222	239
2657	251	218	237
2658	251	218	236
2659	255	225	241
2660	253	220	235
2661	246	213	231
2662	252	220	240
2663	253	214	239
2664	254	212	237
2665	255	218	242
2666	252	212	239
2667	250	209	237
2668	253	213	238
2669	253	210	237
2670	251	207	236
2671	250	206	235
2672	248	204	231
2673	249	204	232
2674	252	204	234
2675	255	203	235
2676	255	201	233
2677	251	193	229
2678	252	193	232
2679	255	198	236
2680	255	198	235
2681	252	189	230
2682	252	187	230
2683	255	193	234
2684	255	193	233
2685	251	178	225
2686	250	174	228
2687	255	181	237
2688	251	173	233
2689	253	176	236
2690	255	181	238
2691	255	193	243
2692	255	189	238
2693	255	188	235
2694	255	192	237
2695	255	199	239
2696	255	192	232
2697	249	178	222
2698	253	181	230
2699	250	174	229
2700	253	177	235
2701	255	188	243
2702	254	178	232
2703	254	180	233
2704	254	180	235
2705	253	179	235
2706	252	179	234
2707	254	185	237
2708	255	189	239
2709	255	193	239
2710	251	190	233
2711	248	189	231
2712	251	197	237
2713	255	214	247
2714	253	206	236
2715	248	203	231
2716	252	213	238
2717	247	211	236
2718	244	214	236
2719	243	217	237
2720	246	225	241
2721	247	230	242
2722	251	237	245
2723	0	0	0
2724	247	233	241
2725	0	0	0
2726	0	0	0
2727	0	0	0
2728	0	0	0
2729	0	0	0
2730	0	0	0
2731	0	0	0
2732	0	0	0
2733	0	0	0
2734	0	0	0
2735	0	0	0
2736	0	0	0
2737	0	0	0
2738	0	0	0
2739	0	0	0
2740	0	0	0
2741	0	0	0
2742	0	0	0
2743	0	0	0
2744	250	233	241
2745	249	228	239
2746	251	227	240
2747	251	224	240
2748	251	224	240
2749	252	223	240
2750	253	222	239
2751	248	216	234
2752	245	216	234
2753	249	221	239
2754	252	220	240
2755	253	219	238
2756	251	214	235
2757	247	208	232
2758	251	212	235
2759	253	215	236
2760	252	212	234
2761	250	209	235
2762	248	208	235
2763	248	207	233
2764	249	206	233
2765	252	206	236
2766	254	205	236
2767	255	203	235
2768	255	202	234
2769	255	201	234
2770	255	201	234
2771	255	202	236
2772	255	198	234
2773	255	195	232
2774	255	194	231
2775	255	196	234
2776	255	190	232
2777	255	186	233
2778	255	183	234
2779	249	174	229
2780	255	184	236
2781	255	191	238
2782	255	187	234
2783	251	184	231
2784	253	187	233
2785	255	191	233
2786	252	185	228
2787	249	179	224
2788	251	181	226
2789	255	184	233
2790	255	185	235
2791	255	186	236
2792	255	180	232
2793	248	172	226
2794	250	174	229
2795	251	175	232
2796	252	177	234
2797	251	178	233
2798	254	184	237
2799	255	188	238
2800	253	188	237
2801	250	187	235
2802	254	195	238
2803	255	200	237
2804	251	196	231
2805	245	190	227
2806	250	201	233
2807	253	210	238
2808	249	212	236
2809	247	214	236
2810	249	222	240
2811	252	230	244
2812	254	236	245
2813	255	242	247
2814	250	233	240
2815	242	225	236
2816	249	241	247
2817	0	0	0
2818	0	0	0
2819	0	0	0
2820	0	0	0
2821	0	0	0
2822	0	0	0
2823	0	0	0
2824	0	0	0
2825	0	0	0
2826	0	0	0
2827	0	0	0
2828	0	0	0
2829	0	0	0
2830	0	0	0
2831	0	0	0
2832	0	0	0
2833	0	0	0
2834	0	0	0
2835	0	0	0
2836	251	235	243
2837	255	235	246
2838	250	225	240
2839	249	224	239
2840	254	230	243
2841	255	229	243
2842	0	0	0
2843	0	0	0
2844	247	226	239
2845	245	222	237
2846	244	217	233
2847	244	214	232
2848	246	213	233
2849	251	218	237
2850	251	215	234
2851	249	212	233
2852	250	213	236
2853	247	212	235
2854	246	209	233
2855	248	209	234
2856	251	208	236
2857	254	208	237
2858	254	205	234
2859	254	203	233
2860	255	205	234
2861	255	204	234
2862	255	203	235
2863	254	199	232
2864	255	202	233
2865	255	201	232
2866	255	200	234
2867	255	195	233
2868	255	191	233
2869	254	187	233
2870	248	178	228
2871	255	189	235
2872	255	193	236
2873	255	190	233
2874	254	190	233
2875	255	195	235
2876	255	198	236
2877	255	191	231
2878	251	183	227
2879	253	185	230
2880	255	190	235
2881	255	191	236
2882	255	183	231
2883	252	178	228
2884	251	176	229
2885	253	179	232
2886	253	179	233
2887	254	181	235
2888	255	183	235
2889	255	190	238
2890	255	190	238
2891	255	191	238
2892	253	187	236
2893	255	195	239
2894	255	196	235
2895	249	191	228
2896	252	197	233
2897	255	209	241
2898	253	206	236
2899	249	207	235
2900	250	213	237
2901	253	221	241
2902	251	222	240
2903	254	228	242
2904	251	228	239
2905	238	216	229
2906	246	231	241
2907	255	249	254
2908	254	246	248
2909	0	0	0
2910	0	0	0
2911	0	0	0
2912	0	0	0
2913	0	0	0
2914	0	0	0
2915	0	0	0
2916	0	0	0
2917	0	0	0
2918	0	0	0
2919	0	0	0
2920	0	0	0
2921	0	0	0
2922	0	0	0
2923	0	0	0
2924	0	0	0
2925	0	0	0
2926	0	0	0
2927	0	0	0
2928	251	234	243
2929	246	224	238
2930	250	230	241
2931	0	0	0
2932	0	0	0
2933	0	0	0
2934	0	0	0
2935	0	0	0
2936	245	226	237
2937	244	222	235
2938	249	223	238
2939	250	221	238
2940	251	220	238
2941	251	218	237
2942	251	218	238
2943	251	218	239
2944	249	215	236
2945	247	212	233
2946	249	211	233
2947	251	210	235
2948	254	210	236
2949	253	206	233
2950	255	208	234
2951	255	210	237
2952	255	208	235
2953	255	206	235
2954	255	209	237
2955	255	212	238
2956	255	208	236
2957	255	207	234
2958	255	200	232
2959	255	197	234
2960	253	191	232
2961	247	182	227
2962	252	189	232
2963	255	194	234
2964	255	195	234
2965	255	195	234
2966	255	198	235
2967	255	202	236
2968	254	192	229
2969	250	184	226
2970	255	190	232
2971	255	195	235
2972	255	188	231
2973	252	181	228
2974	252	180	230
2975	252	179	231
2976	253	180	232
2977	252	179	229
2978	255	184	232
2979	255	186	233
2980	255	188	234
2981	255	189	234
2982	253	186	231
2983	250	183	229
2984	253	188	232
2985	253	191	233
2986	254	196	234
2987	255	202	237
2988	255	203	237
2989	252	200	234
2990	253	207	238
2991	253	212	240
2992	249	211	237
2993	247	212	236
2994	248	214	237
2995	246	215	236
2996	246	224	240
2997	251	237	246
2998	248	234	242
2999	245	232	240
3000	246	238	243
3001	0	0	0
3002	0	0	0
3003	0	0	0
3004	0	0	0
3005	0	0	0
3006	0	0	0
3007	0	0	0
3008	0	0	0
3009	0	0	0
3010	0	0	0
3011	0	0	0
3012	0	0	0
3013	0	0	0
3014	0	0	0
3015	0	0	0
3016	0	0	0
3017	0	0	0
3018	0	0	0
3019	0	0	0
3020	248	233	241
3021	0	0	0
3022	0	0	0
3023	0	0	0
3024	0	0	0
3025	0	0	0
3026	0	0	0
3027	0	0	0
3028	252	230	241
3029	255	231	244
3030	252	221	237
3031	250	218	236
3032	254	223	241
3033	253	223	241
3034	250	217	237
3035	250	216	235
3036	253	219	236
3037	253	217	236
3038	249	208	232
3039	249	206	232
3040	252	207	232
3041	255	211	234
3042	255	209	236
3043	255	207	235
3044	255	208	235
3045	255	210	236
3046	255	208	236
3047	254	205	233
3048	255	206	233
3049	253	200	229
3050	255	201	233
3051	252	195	231
3052	251	194	231
3053	255	201	237
3054	255	200	236
3055	255	202	237
3056	253	195	231
3057	255	198	232
3058	255	201	233
3059	252	192	227
3060	255	193	230
3061	255	199	236
3062	255	191	231
3063	252	184	227
3064	252	183	229
3065	252	182	231
3066	254	184	234
3067	255	186	235
3068	255	186	232
3069	255	191	234
3070	252	182	228
3071	254	185	229
3072	255	188	231
3073	253	185	229
3074	253	187	230
3075	255	193	235
3076	253	189	233
3077	255	195	236
3078	255	203	239
3079	255	203	238
3080	247	188	228
3081	250	196	234
3082	251	205	239
3083	243	202	234
3084	248	214	240
3085	251	217	242
3086	249	218	242
3087	250	228	246
3088	248	231	243
3089	241	226	237
3090	247	239	244
3091	0	0	0
3092	0	0	0
3093	0	0	0
3094	0	0	0
3095	0	0	0
3096	0	0	0
3097	0	0	0
3098	0	0	0
3099	0	0	0
3100	0	0	0
3101	0	0	0
3102	0	0	0
3103	0	0	0
3104	0	0	0
3105	0	0	0
3106	0	0	0
3107	0	0	0
3108	0	0	0
3109	0	0	0
3110	0	0	0
3111	0	0	0
3112	0	0	0
3113	0	0	0
3114	0	0	0
3115	0	0	0
3116	0	0	0
3117	0	0	0
3118	0	0	0
3119	0	0	0
3120	254	228	241
3121	249	218	236
3122	251	222	240
3123	255	227	244
3124	251	222	240
3125	248	216	236
3126	253	221	238
3127	255	224	239
3128	249	212	231
3129	244	203	227
3130	247	207	231
3131	251	209	232
3132	254	210	233
3133	254	209	235
3134	254	209	236
3135	253	209	234
3136	250	205	231
3137	250	205	234
3138	254	207	236
3139	255	209	236
3140	255	208	234
3141	255	208	235
3142	255	207	236
3143	255	206	237
3144	255	207	238
3145	255	206	237
3146	255	201	234
3147	251	194	230
3148	254	198	232
3149	255	201	231
3150	255	200	230
3151	255	200	233
3152	253	192	229
3153	249	185	225
3154	250	184	227
3155	250	183	227
3156	252	185	231
3157	253	187	233
3158	255	189	234
3159	255	190	231
3160	251	183	226
3161	246	176	221
3162	251	182	227
3163	254	186	230
3164	255	190	233
3165	255	191	233
3166	253	188	232
3167	250	185	233
3168	255	194	239
3169	255	201	240
3170	248	187	228
3171	237	173	219
3172	245	186	230
3173	247	195	237
3174	249	206	242
3175	254	218	247
3176	255	221	247
3177	253	221	245
3178	252	226	246
3179	250	230	245
3180	252	239	248
3181	0	0	0
3182	0	0	0
3183	0	0	0
3184	0	0	0
3185	0	0	0
3186	0	0	0
3187	0	0	0
3188	0	0	0
3189	0	0	0
3190	0	0	0
3191	0	0	0
3192	0	0	0
3193	0	0	0
3194	0	0	0
3195	0	0	0
3196	0	0	0
3197	0	0	0
3198	0	0	0
3199	0	0	0
3200	0	0	0
3201	0	0	0
3202	0	0	0
3203	0	0	0
3204	0	0	0
3205	0	0	0
3206	0	0	0
3207	0	0	0
3208	0	0	0
3209	0	0	0
3210	0	0	0
3211	0	0	0
3212	247	222	237
3213	250	226	242
3214	0	0	0
3215	251	225	242
3216	246	216	236
3217	250	220	238
3218	252	222	237
3219	245	211	229
3220	249	215	234
3221	254	219	238
3222	252	214	235
3223	255	215	237
3224	251	208	234
3225	249	207	233
3226	249	211	233
3227	244	206	230
3228	253	216	240
3229	255	221	245
3230	254	209	235
3231	253	207	233
3232	255	209	234
3233	255	209	235
3234	255	207	236
3235	255	207	236
3236	255	207	236
3237	254	202	233
3238	252	197	230
3239	254	201	232
3240	255	204	232
3241	255	203	231
3242	253	198	229
3243	247	189	224
3244	254	197	232
3245	255	197	234
3246	250	188	229
3247	251	190	231
3248	255	199	238
3249	255	201	238
3250	255	195	231
3251	253	189	226
3252	254	188	228
3253	255	195	234
3254	252	184	229
3255	255	188	233
3256	253	187	231
3257	250	184	230
3258	253	189	236
3259	255	198	242
3260	255	195	236
3261	243	180	223
3262	249	190	231
3263	255	204	243
3264	254	202	242
3265	255	215	251
3266	255	211	244
3267	252	212	242
3268	250	213	241
3269	250	218	242
3270	252	226	244
3271	255	237	248
3272	255	239	246
3273	0	0	0
3274	0	0	0
3275	0	0	0
3276	0	0	0
3277	0	0	0
3278	0	0	0
3279	0	0	0
3280	0	0	0
3281	0	0	0
3282	0	0	0
3283	0	0	0
3284	0	0	0
3285	0	0	0
3286	0	0	0
3287	0	0	0
3288	0	0	0
3289	0	0	0
3290	0	0	0
3291	0	0	0
3292	0	0	0
3293	0	0	0
3294	0	0	0
3295	0	0	0
3296	0	0	0
3297	0	0	0
3298	0	0	0
3299	0	0	0
3300	0	0	0
3301	0	0	0
3302	0	0	0
3303	0	0	0
3304	0	0	0
3305	0	0	0
3306	250	225	241
3307	246	216	237
3308	250	220	240
3309	252	222	239
3310	253	224	239
3311	255	227	242
3312	251	221	237
3313	249	216	235
3314	249	211	234
3315	244	204	230
3316	247	210	234
3317	248	214	235
3318	249	218	236
3319	255	227	244
3320	255	218	239
3321	249	207	231
3322	253	211	235
3323	255	213	236
3324	253	210	235
3325	252	208	235
3326	252	207	236
3327	254	208	235
3328	253	204	232
3329	251	199	228
3330	254	204	231
3331	255	208	234
3332	254	203	231
3333	251	197	228
3334	253	202	232
3335	255	210	239
3336	255	202	235
3337	251	193	230
3338	255	202	236
3339	255	210	241
3340	255	204	235
3341	255	198	228
3342	255	198	228
3343	255	198	230
3344	252	188	227
3345	245	178	224
3346	247	180	228
3347	246	180	229
3348	248	184	232
3349	251	188	234
3350	250	187	232
3351	246	184	227
3352	251	193	231
3353	255	203	238
3354	255	203	238
3355	252	200	236
3356	251	200	236
3357	246	197	233
3358	246	201	235
3359	244	202	234
3360	249	213	239
3361	252	221	241
3362	255	227	244
3363	254	231	244
3364	0	0	0
3365	0	0	0
3366	0	0	0
3367	0	0	0
3368	0	0	0
3369	0	0	0
3370	0	0	0
3371	0	0	0
3372	0	0	0
3373	0	0	0
3374	0	0	0
3375	0	0	0
3376	0	0	0
3377	0	0	0
3378	0	0	0
3379	0	0	0
3380	0	0	0
3381	0	0	0
3382	0	0	0
3383	0	0	0
3384	0	0	0
3385	0	0	0
3386	0	0	0
3387	0	0	0
3388	0	0	0
3389	0	0	0
3390	0	0	0
3391	0	0	0
3392	0	0	0
3393	0	0	0
3394	0	0	0
3395	0	0	0
3396	0	0	0
3397	254	230	244
3398	249	220	240
3399	252	224	243
3400	255	228	242
3401	255	229	242
3402	249	221	236
3403	241	213	230
3404	251	226	241
3405	251	221	239
3406	245	212	233
3407	250	219	238
3408	251	221	238
3409	254	226	240
3410	255	229	241
3411	249	217	233
3412	249	213	233
3413	255	219	238
3414	253	214	235
3415	247	209	232
3416	251	214	238
3417	253	215	239
3418	255	215	239
3419	255	212	237
3420	251	202	230
3421	254	206	232
3422	255	211	235
3423	255	206	232
3424	249	197	227
3425	252	202	232
3426	255	213	240
3427	255	205	234
3428	253	200	232
3429	255	210	239
3430	255	204	234
3431	252	197	228
3432	253	198	227
3433	254	198	228
3434	254	196	228
3435	249	187	224
3436	250	188	229
3437	252	191	234
3438	255	196	238
3439	255	201	242
3440	253	195	236
3441	252	193	233
3442	252	195	232
3443	255	205	237
3444	255	204	236
3445	254	203	235
3446	253	203	234
3447	251	203	235
3448	252	206	238
3449	253	211	241
3450	249	208	239
3451	255	220	245
3452	254	219	243
3453	255	227	247
3454	247	216	238
3455	240	217	235
3456	0	0	0
3457	0	0	0
3458	0	0	0
3459	0	0	0
3460	0	0	0
3461	0	0	0
3462	0	0	0
3463	0	0	0
3464	0	0	0
3465	0	0	0
3466	0	0	0
3467	0	0	0
3468	0	0	0
3469	0	0	0
3470	0	0	0
3471	0	0	0
3472	0	0	0
3473	0	0	0
3474	0	0	0
3475	0	0	0
3476	0	0	0
3477	0	0	0
3478	0	0	0
3479	0	0	0
3480	0	0	0
3481	0	0	0
3482	0	0	0
3483	0	0	0
3484	0	0	0
3485	0	0	0
3486	0	0	0
3487	0	0	0
3488	252	231	242
3489	247	220	236
3490	252	227	240
3491	0	0	0
3492	249	223	236
3493	243	215	232
3494	250	227	240
3495	0	0	0
3496	252	229	242
3497	246	219	236
3498	253	226	241
3499	255	228	241
3500	255	230	242
3501	255	233	243
3502	253	225	237
3503	252	221	236
3504	253	219	236
3505	250	215	232
3506	250	218	235
3507	254	223	241
3508	255	223	242
3509	255	223	243
3510	255	214	238
3511	249	204	233
3512	252	207	234
3513	254	210	232
3514	249	202	227
3515	245	195	226
3516	254	208	237
3517	255	218	241
3518	255	210	235
3519	252	205	233
3520	251	201	230
3521	247	196	226
3522	250	197	229
3523	252	199	232
3524	251	196	230
3525	250	194	229
3526	252	195	230
3527	253	196	230
3528	255	203	236
3529	255	208	242
3530	255	205	240
3531	254	198	234
3532	255	202	236
3533	255	205	237
3534	255	205	235
3535	254	204	233
3536	254	205	234
3537	253	205	234
3538	255	209	237
3539	255	212	241
3540	253	212	241
3541	251	211	240
3542	252	213	242
3543	252	214	242
3544	248	209	238
3545	237	199	228
3546	245	217	238
3547	0	0	0
3548	0	0	0
3549	0	0	0
3550	0	0	0
3551	0	0	0
3552	0	0	0
3553	0	0	0
3554	0	0	0
3555	0	0	0
3556	0	0	0
3557	0	0	0
3558	0	0	0
3559	0	0	0
3560	0	0	0
3561	0	0	0
3562	0	0	0
3563	0	0	0
3564	0	0	0
3565	0	0	0
3566	0	0	0
3567	0	0	0
3568	0	0	0
3569	0	0	0
3570	0	0	0
3571	0	0	0
3572	0	0	0
3573	0	0	0
3574	0	0	0
3575	0	0	0
3576	0	0	0
3577	0	0	0
3578	0	0	0
3579	0	0	0
3580	250	232	241
3581	0	0	0
3582	0	0	0
3583	0	0	0
3584	246	225	238
3585	0	0	0
3586	0	0	0
3587	0	0	0
3588	247	225	238
3589	0	0	0
3590	254	227	241
3591	255	230	242
3592	255	226	239
3593	249	218	233
3594	254	226	238
3595	251	222	235
3596	250	219	234
3597	253	225	238
3598	253	222	239
3599	254	221	240
3600	254	219	240
3601	248	209	234
3602	251	212	237
3603	253	215	238
3604	255	220	238
3605	251	212	232
3606	248	206	233
3607	255	220	245
3608	254	214	237
3609	244	204	228
3610	253	215	235
3611	252	212	234
3612	250	206	231
3613	255	209	236
3614	255	207	237
3615	252	203	234
3616	255	207	236
3617	255	209	237
3618	254	203	232
3619	255	209	237
3620	255	204	236
3621	254	201	235
3622	250	196	231
3623	251	200	233
3624	255	208	238
3625	255	209	238
3626	253	203	233
3627	253	204	233
3628	255	207	235
3629	255	212	238
3630	253	209	237
3631	251	209	238
3632	250	209	240
3633	253	213	243
3634	254	215	243
3635	248	209	238
3636	248	211	239
3637	255	233	253
3638	254	225	244
3639	0	0	0
3640	0	0	0
3641	0	0	0
3642	0	0	0
3643	0	0	0
3644	0	0	0
3645	0	0	0
3646	0	0	0
3647	0	0	0
3648	0	0	0
3649	0	0	0
3650	0	0	0
3651	0	0	0
3652	0	0	0
3653	0	0	0
3654	0	0	0
3655	0	0	0
3656	0	0	0
3657	0	0	0
3658	0	0	0
3659	0	0	0
3660	0	0	0
3661	0	0	0
3662	0	0	0
3663	0	0	0
3664	0	0	0
3665	0	0	0
3666	0	0	0
3667	0	0	0
3668	0	0	0
3669	0	0	0
3670	0	0	0
3671	0	0	0
3672	0	0	0
3673	0	0	0
3674	0	0	0
3675	0	0	0
3676	0	0	0
3677	0	0	0
3678	0	0	0
3679	0	0	0
3680	0	0	0
3681	0	0	0
3682	248	221	238
3683	247	219	237
3684	251	224	240
3685	254	230	240
3686	250	226	236
3687	249	224	235
3688	247	220	235
3689	246	218	236
3690	246	215	236
3691	246	213	234
3692	250	217	237
3693	251	219	239
3694	253	223	240
3695	255	229	243
3696	0	0	0
3697	0	0	0
3698	254	216	241
3699	248	210	234
3700	247	215	233
3701	0	0	0
3702	0	0	0
3703	0	0	0
3704	0	0	0
3705	0	0	0
3706	0	0	0
3707	0	0	0
3708	255	214	236
3709	254	208	233
3710	252	204	232
3711	248	198	232
3712	244	195	230
3713	240	191	226
3714	247	200	233
3715	253	209	238
3716	252	205	236
3717	249	200	232
3718	252	204	235
3719	253	208	235
3720	250	205	233
3721	247	203	233
3722	247	204	235
3723	247	206	239
3724	251	210	241
3725	250	211	237
3726	251	214	238
3727	252	217	242
3728	250	214	241
3729	242	206	233
3730	246	219	239
3731	0	0	0
3732	0	0	0
3733	0	0	0
3734	0	0	0
3735	0	0	0
3736	0	0	0
3737	0	0	0
3738	0	0	0
3739	0	0	0
3740	0	0	0
3741	0	0	0
3742	0	0	0
3743	0	0	0
3744	0	0	0
3745	0	0	0
3746	0	0	0
3747	0	0	0
3748	0	0	0
3749	0	0	0
3750	0	0	0
3751	0	0	0
3752	0	0	0
3753	0	0	0
3754	0	0	0
3755	0	0	0
3756	0	0	0
3757	0	0	0
3758	0	0	0
3759	0	0	0
3760	0	0	0
3761	0	0	0
3762	0	0	0
3763	0	0	0
3764	0	0	0
3765	0	0	0
3766	0	0	0
3767	0	0	0
3768	0	0	0
3769	0	0	0
3770	0	0	0
3771	0	0	0
3772	0	0	0
3773	0	0	0
3774	246	228	243
3775	253	235	247
3776	0	0	0
3777	245	226	234
3778	246	226	236
3779	242	222	234
3780	246	226	239
3781	245	223	239
3782	250	227	242
3783	255	232	246
3784	246	218	235
3785	246	221	236
3786	0	0	0
3787	0	0	0
3788	0	0	0
3789	0	0	0
3790	249	216	237
3791	0	0	0
3792	0	0	0
3793	0	0	0
3794	0	0	0
3795	0	0	0
3796	0	0	0
3797	0	0	0
3798	255	221	238
3799	253	215	235
3800	251	211	233
3801	250	208	234
3802	248	207	236
3803	239	201	231
3804	247	212	238
3805	255	225	247
3806	251	210	237
3807	249	206	235
3808	250	207	236
3809	254	212	239
3810	254	213	238
3811	252	212	236
3812	251	211	237
3813	251	213	240
3814	252	213	243
3815	254	217	244
3816	251	213	237
3817	254	217	239
3818	252	216	241
3819	246	212	238
3820	246	215	240
3821	0	0	0
3822	0	0	0
3823	0	0	0
3824	0	0	0
3825	0	0	0
3826	0	0	0
3827	0	0	0
3828	0	0	0
3829	0	0	0
3830	0	0	0
3831	0	0	0
3832	0	0	0
3833	0	0	0
3834	0	0	0
3835	0	0	0
3836	0	0	0
3837	0	0	0
3838	0	0	0
3839	0	0	0
3840	0	0	0
3841	0	0	0
3842	0	0	0
3843	0	0	0
3844	0	0	0
3845	0	0	0
3846	0	0	0
3847	0	0	0
3848	0	0	0
3849	0	0	0
3850	0	0	0
3851	0	0	0
3852	0	0	0
3853	0	0	0
3854	0	0	0
3855	0	0	0
3856	0	0	0
3857	0	0	0
3858	0	0	0
3859	0	0	0
3860	0	0	0
3861	0	0	0
3862	0	0	0
3863	0	0	0
3864	0	0	0
3865	0	0	0
3866	0	0	0
3867	0	0	0
3868	0	0	0
3869	0	0	0
3870	0	0	0
3871	0	0	0
3872	0	0	0
3873	0	0	0
3874	251	231	243
3875	242	218	233
3876	248	228	239
3877	0	0	0
3878	0	0	0
3879	0	0	0
3880	0	0	0
3881	0	0	0
3882	0	0	0
3883	0	0	0
3884	0	0	0
3885	0	0	0
3886	0	0	0
3887	0	0	0
3888	0	0	0
3889	252	224	239
3890	250	218	235
3891	248	214	234
3892	251	216	237
3893	248	216	238
3894	248	223	241
3895	0	0	0
3896	249	220	238
3897	242	206	231
3898	249	212	236
3899	251	213	236
3900	254	216	238
3901	254	217	238
3902	251	215	237
3903	251	215	237
3904	250	215	238
3905	250	215	239
3906	248	213	238
3907	246	210	236
3908	250	213	238
3909	248	212	238
3910	247	216	240
3911	246	220	241
3912	246	222	241
3913	0	0	0
3914	0	0	0
3915	0	0	0
3916	0	0	0
3917	0	0	0
3918	0	0	0
3919	0	0	0
3920	0	0	0
3921	0	0	0
3922	0	0	0
3923	0	0	0
3924	0	0	0
3925	0	0	0
3926	0	0	0
3927	0	0	0
3928	0	0	0
3929	0	0	0
3930	0	0	0
3931	0	0	0
3932	0	0	0
3933	0	0	0
3934	0	0	0
3935	0	0	0
3936	0	0	0
3937	0	0	0
3938	0	0	0
3939	0	0	0
3940	0	0	0
3941	0	0	0
3942	0	0	0
3943	0	0	0
3944	0	0	0
3945	0	0	0
3946	0	0	0
3947	0	0	0
3948	0	0	0
3949	0	0	0
3950	0	0	0
3951	0	0	0
3952	0	0	0
3953	0	0	0
3954	0	0	0
3955	0	0	0
3956	0	0	0
3957	0	0	0
3958	0	0	0
3959	0	0	0
3960	0	0	0
3961	0	0	0
3962	0	0	0
3963	0	0	0
3964	0	0	0
3965	0	0	0
3966	245	228	237
3967	0	0	0
3968	0	0	0
3969	0	0	0
3970	0	0	0
3971	0	0	0
3972	0	0	0
3973	0	0	0
3974	0	0	0
3975	0	0	0
3976	0	0	0
3977	0	0	0
3978	0	0	0
3979	0	0	0
3980	0	0	0
3981	249	224	237
3982	251	225	239
3983	252	226	241
3984	251	226	241
3985	0	0	0
3986	0	0	0
3987	0	0	0
3988	247	221	238
3989	255	229	246
3990	251	215	236
3991	252	218	238
3992	252	219	238
3993	248	216	236
3994	250	219	239
3995	251	220	240
3996	253	223	242
3997	249	220	240
3998	250	220	242
3999	255	224	246
4000	249	217	240
4001	249	222	242
4002	245	221	240
4003	241	221	238
4004	248	231	244
4005	0	0	0
4006	0	0	0
4007	0	0	0
4008	0	0	0
4009	0	0	0
4010	0	0	0
4011	0	0	0
4012	0	0	0
4013	0	0	0
4014	0	0	0
4015	0	0	0
4016	0	0	0
4017	0	0	0
4018	0	0	0
4019	0	0	0
4020	0	0	0
4021	0	0	0
4022	0	0	0
4023	0	0	0
4024	0	0	0
4025	0	0	0
4026	0	0	0
4027	0	0	0
4028	0	0	0
4029	0	0	0
4030	0	0	0
4031	0	0	0
4032	0	0	0
4033	0	0	0
4034	0	0	0
4035	0	0	0
4036	0	0	0
4037	0	0	0
4038	0	0	0
4039	0	0	0
4040	0	0	0
4041	0	0	0
4042	0	0	0
4043	0	0	0
4044	0	0	0
4045	0	0	0
4046	0	0	0
4047	0	0	0
4048	0	0	0
4049	0	0	0
4050	0	0	0
4051	0	0	0
4052	0	0	0
4053	0	0	0
4054	0	0	0
4055	0	0	0
4056	0	0	0
4057	0	0	0
4058	0	0	0
4059	0	0	0
4060	0	0	0
4061	0	0	0
4062	0	0	0
4063	0	0	0
4064	0	0	0
4065	0	0	0
4066	0	0	0
4067	0	0	0
4068	0	0	0
4069	0	0	0
4070	0	0	0
4071	0	0	0
4072	0	0	0
4073	0	0	0
4074	0	0	0
4075	0	0	0
4076	0	0	0
4077	0	0	0
4078	0	0	0
4079	0	0	0
4080	251	226	241
4081	243	212	233
4082	246	215	236
4083	246	217	236
4084	246	219	237
4085	248	222	240
4086	253	228	244
4087	254	231	244
4088	250	227	241
4089	251	228	244
4090	251	225	244
4091	246	218	238
4092	245	221	238
4093	242	220	236
4094	244	228	240
4095	0	0	0
4096	0	0	0
4097	0	0	0
4098	0	0	0
4099	0	0	0
4100	0	0	0
4101	0	0	0
4102	0	0	0
4103	0	0	0
4104	0	0	0
4105	0	0	0
4106	0	0	0
4107	0	0	0
4108	0	0	0
4109	0	0	0
4110	0	0	0
4111	0	0	0
4112	0	0	0
4113	0	0	0
4114	0	0	0
4115	0	0	0
4116	0	0	0
4117	0	0	0
4118	0	0	0
4119	0	0	0
4120	0	0	0
4121	0	0	0
4122	0	0	0
4123	0	0	0
4124	0	0	0
4125	0	0	0
4126	0	0	0
4127	0	0	0
4128	0	0	0
4129	0	0	0
4130	0	0	0
4131	0	0	0
4132	0	0	0
4133	0	0	0
4134	0	0	0
4135	0	0	0
4136	0	0	0
4137	0	0	0
4138	0	0	0
4139	0	0	0
4140	0	0	0
4141	0	0	0
4142	0	0	0
4143	0	0	0
4144	0	0	0
4145	0	0	0
4146	0	0	0
4147	0	0	0
4148	0	0	0
4149	0	0	0
4150	0	0	0
4151	0	0	0
4152	0	0	0
4153	0	0	0
4154	0	0	0
4155	0	0	0
4156	0	0	0
4157	0	0	0
4158	0	0	0
4159	0	0	0
4160	0	0	0
4161	0	0	0
4162	0	0	0
4163	0	0	0
4164	0	0	0
4165	0	0	0
4166	0	0	0
4167	0	0	0
4168	0	0	0
4169	0	0	0
4170	0	0	0
4171	0	0	0
4172	243	223	238
4173	247	227	241
4174	249	231	243
4175	251	234	244
4176	249	230	243
4177	0	0	0
4178	0	0	0
4179	0	0	0
4180	0	0	0
4181	250	229	243
4182	248	227	241
4183	0	0	0
4184	248	230	241
4185	0	0	0
4186	0	0	0
