 	R	G	B
1	0	0	0
2	0	0	0
3	0	0	0
4	0	0	0
5	0	0	0
6	0	0	0
7	0	0	0
8	0	0	0
9	0	0	0
10	0	0	0
11	0	0	0
12	0	0	0
13	0	0	0
14	0	0	0
15	0	0	0
16	0	0	0
17	0	0	0
18	0	0	0
19	0	0	0
20	0	0	0
21	0	0	0
22	0	0	0
23	0	0	0
24	0	0	0
25	0	0	0
26	0	0	0
27	0	0	0
28	0	0	0
29	0	0	0
30	0	0	0
31	0	0	0
32	0	0	0
33	0	0	0
34	0	0	0
35	0	0	0
36	0	0	0
37	0	0	0
38	0	0	0
39	0	0	0
40	0	0	0
41	0	0	0
42	0	0	0
43	0	0	0
44	0	0	0
45	0	0	0
46	0	0	0
47	0	0	0
48	0	0	0
49	0	0	0
50	0	0	0
51	0	0	0
52	0	0	0
53	0	0	0
54	0	0	0
55	0	0	0
56	0	0	0
57	0	0	0
58	0	0	0
59	0	0	0
60	0	0	0
61	0	0	0
62	0	0	0
63	0	0	0
64	0	0	0
65	0	0	0
66	0	0	0
67	0	0	0
68	0	0	0
69	0	0	0
70	0	0	0
71	0	0	0
72	0	0	0
73	253	234	246
74	244	224	237
75	0	0	0
76	0	0	0
77	246	223	243
78	0	0	0
79	0	0	0
80	0	0	0
81	0	0	0
82	0	0	0
83	0	0	0
84	0	0	0
85	0	0	0
86	0	0	0
87	0	0	0
88	0	0	0
89	0	0	0
90	0	0	0
91	0	0	0
92	0	0	0
93	0	0	0
94	0	0	0
95	0	0	0
96	0	0	0
97	0	0	0
98	0	0	0
99	0	0	0
100	0	0	0
101	0	0	0
102	0	0	0
103	0	0	0
104	0	0	0
105	0	0	0
106	0	0	0
107	0	0	0
108	0	0	0
109	0	0	0
110	0	0	0
111	0	0	0
112	0	0	0
113	0	0	0
114	0	0	0
115	0	0	0
116	0	0	0
117	0	0	0
118	0	0	0
119	0	0	0
120	0	0	0
121	0	0	0
122	0	0	0
123	0	0	0
124	0	0	0
125	0	0	0
126	0	0	0
127	0	0	0
128	0	0	0
129	0	0	0
130	0	0	0
131	0	0	0
132	0	0	0
133	0	0	0
134	0	0	0
135	0	0	0
136	0	0	0
137	0	0	0
138	0	0	0
139	0	0	0
140	0	0	0
141	0	0	0
142	0	0	0
143	0	0	0
144	0	0	0
145	0	0	0
146	0	0	0
147	0	0	0
148	0	0	0
149	0	0	0
150	0	0	0
151	0	0	0
152	0	0	0
153	0	0	0
154	0	0	0
155	0	0	0
156	0	0	0
157	0	0	0
158	0	0	0
159	0	0	0
160	0	0	0
161	0	0	0
162	0	0	0
163	0	0	0
164	0	0	0
165	0	0	0
166	0	0	0
167	0	0	0
168	0	0	0
169	0	0	0
170	0	0	0
171	255	237	251
172	255	233	249
173	250	226	243
174	254	234	247
175	255	245	253
176	255	239	249
177	253	231	247
178	255	239	253
179	0	0	0
180	255	238	249
181	252	231	246
182	0	0	0
183	0	0	0
184	0	0	0
185	0	0	0
186	0	0	0
187	0	0	0
188	0	0	0
189	0	0	0
190	0	0	0
191	0	0	0
192	0	0	0
193	0	0	0
194	0	0	0
195	0	0	0
196	0	0	0
197	0	0	0
198	0	0	0
199	0	0	0
200	0	0	0
201	0	0	0
202	0	0	0
203	0	0	0
204	0	0	0
205	0	0	0
206	0	0	0
207	0	0	0
208	0	0	0
209	0	0	0
210	0	0	0
211	0	0	0
212	0	0	0
213	0	0	0
214	0	0	0
215	0	0	0
216	0	0	0
217	0	0	0
218	0	0	0
219	0	0	0
220	0	0	0
221	0	0	0
222	0	0	0
223	0	0	0
224	0	0	0
225	0	0	0
226	0	0	0
227	0	0	0
228	0	0	0
229	0	0	0
230	0	0	0
231	0	0	0
232	0	0	0
233	0	0	0
234	0	0	0
235	0	0	0
236	0	0	0
237	0	0	0
238	0	0	0
239	0	0	0
240	0	0	0
241	0	0	0
242	0	0	0
243	0	0	0
244	0	0	0
245	0	0	0
246	0	0	0
247	0	0	0
248	0	0	0
249	0	0	0
250	0	0	0
251	0	0	0
252	0	0	0
253	0	0	0
254	0	0	0
255	0	0	0
256	0	0	0
257	0	0	0
258	0	0	0
259	0	0	0
260	0	0	0
261	0	0	0
262	0	0	0
263	0	0	0
264	0	0	0
265	0	0	0
266	0	0	0
267	0	0	0
268	0	0	0
269	0	0	0
270	255	238	252
271	255	233	248
272	255	229	246
273	252	224	244
274	255	235	250
275	255	234	248
276	253	226	242
277	252	225	244
278	255	234	250
279	255	233	248
280	252	225	241
281	253	226	244
282	255	233	248
283	0	0	0
284	0	0	0
285	0	0	0
286	0	0	0
287	0	0	0
288	0	0	0
289	0	0	0
290	0	0	0
291	0	0	0
292	0	0	0
293	0	0	0
294	0	0	0
295	0	0	0
296	0	0	0
297	0	0	0
298	0	0	0
299	0	0	0
300	0	0	0
301	0	0	0
302	0	0	0
303	0	0	0
304	0	0	0
305	0	0	0
306	0	0	0
307	0	0	0
308	0	0	0
309	0	0	0
310	0	0	0
311	0	0	0
312	0	0	0
313	0	0	0
314	0	0	0
315	0	0	0
316	0	0	0
317	0	0	0
318	0	0	0
319	0	0	0
320	0	0	0
321	0	0	0
322	0	0	0
323	0	0	0
324	0	0	0
325	0	0	0
326	0	0	0
327	0	0	0
328	0	0	0
329	0	0	0
330	0	0	0
331	0	0	0
332	0	0	0
333	0	0	0
334	0	0	0
335	0	0	0
336	0	0	0
337	0	0	0
338	0	0	0
339	0	0	0
340	0	0	0
341	0	0	0
342	0	0	0
343	0	0	0
344	0	0	0
345	0	0	0
346	0	0	0
347	0	0	0
348	0	0	0
349	0	0	0
350	0	0	0
351	0	0	0
352	0	0	0
353	0	0	0
354	0	0	0
355	0	0	0
356	0	0	0
357	0	0	0
358	0	0	0
359	0	0	0
360	0	0	0
361	0	0	0
362	0	0	0
363	0	0	0
364	0	0	0
365	0	0	0
366	0	0	0
367	0	0	0
368	0	0	0
369	255	238	252
370	255	234	251
371	255	229	247
372	255	226	246
373	252	221	243
374	254	223	244
375	255	223	245
376	255	223	245
377	253	220	244
378	252	220	242
379	251	220	241
380	252	221	241
381	253	222	241
382	255	225	244
383	0	0	0
384	0	0	0
385	0	0	0
386	0	0	0
387	0	0	0
388	0	0	0
389	0	0	0
390	0	0	0
391	0	0	0
392	0	0	0
393	0	0	0
394	0	0	0
395	0	0	0
396	0	0	0
397	0	0	0
398	0	0	0
399	0	0	0
400	0	0	0
401	0	0	0
402	0	0	0
403	0	0	0
404	0	0	0
405	0	0	0
406	0	0	0
407	0	0	0
408	0	0	0
409	0	0	0
410	0	0	0
411	0	0	0
412	0	0	0
413	0	0	0
414	0	0	0
415	0	0	0
416	0	0	0
417	0	0	0
418	0	0	0
419	0	0	0
420	0	0	0
421	0	0	0
422	0	0	0
423	0	0	0
424	0	0	0
425	0	0	0
426	0	0	0
427	0	0	0
428	0	0	0
429	0	0	0
430	0	0	0
431	0	0	0
432	0	0	0
433	0	0	0
434	0	0	0
435	0	0	0
436	0	0	0
437	0	0	0
438	0	0	0
439	0	0	0
440	0	0	0
441	0	0	0
442	0	0	0
443	0	0	0
444	0	0	0
445	0	0	0
446	0	0	0
447	0	0	0
448	0	0	0
449	0	0	0
450	0	0	0
451	0	0	0
452	0	0	0
453	0	0	0
454	0	0	0
455	0	0	0
456	0	0	0
457	0	0	0
458	0	0	0
459	0	0	0
460	0	0	0
461	0	0	0
462	0	0	0
463	0	0	0
464	0	0	0
465	0	0	0
466	0	0	0
467	0	0	0
468	255	231	245
469	255	229	246
470	253	224	244
471	255	228	247
472	255	225	246
473	252	218	241
474	253	220	244
475	255	222	247
476	255	222	248
477	249	212	240
478	247	211	237
479	255	224	245
480	255	226	246
481	252	216	239
482	253	219	241
483	255	225	247
484	0	0	0
485	0	0	0
486	0	0	0
487	0	0	0
488	0	0	0
489	0	0	0
490	0	0	0
491	0	0	0
492	0	0	0
493	0	0	0
494	0	0	0
495	0	0	0
496	0	0	0
497	0	0	0
498	0	0	0
499	0	0	0
500	0	0	0
501	0	0	0
502	0	0	0
503	0	0	0
504	0	0	0
505	0	0	0
506	0	0	0
507	0	0	0
508	0	0	0
509	0	0	0
510	0	0	0
511	0	0	0
512	0	0	0
513	0	0	0
514	0	0	0
515	0	0	0
516	0	0	0
517	0	0	0
518	0	0	0
519	0	0	0
520	0	0	0
521	0	0	0
522	0	0	0
523	0	0	0
524	0	0	0
525	0	0	0
526	0	0	0
527	0	0	0
528	0	0	0
529	0	0	0
530	0	0	0
531	0	0	0
532	0	0	0
533	0	0	0
534	0	0	0
535	0	0	0
536	0	0	0
537	0	0	0
538	0	0	0
539	0	0	0
540	0	0	0
541	0	0	0
542	0	0	0
543	0	0	0
544	0	0	0
545	0	0	0
546	0	0	0
547	0	0	0
548	0	0	0
549	0	0	0
550	0	0	0
551	0	0	0
552	0	0	0
553	0	0	0
554	0	0	0
555	0	0	0
556	0	0	0
557	0	0	0
558	0	0	0
559	0	0	0
560	0	0	0
561	0	0	0
562	0	0	0
563	0	0	0
564	0	0	0
565	0	0	0
566	0	0	0
567	254	226	243
568	253	223	241
569	251	219	240
570	254	223	243
571	255	228	247
572	255	221	243
573	251	214	239
574	253	217	243
575	255	219	246
576	253	213	242
577	245	203	233
578	253	216	241
579	255	228	248
580	255	220	242
581	251	211	237
582	254	217	242
583	255	223	246
584	255	221	246
585	0	0	0
586	0	0	0
587	0	0	0
588	0	0	0
589	252	222	240
590	0	0	0
591	0	0	0
592	0	0	0
593	0	0	0
594	0	0	0
595	0	0	0
596	0	0	0
597	0	0	0
598	0	0	0
599	0	0	0
600	0	0	0
601	0	0	0
602	0	0	0
603	0	0	0
604	0	0	0
605	0	0	0
606	0	0	0
607	0	0	0
608	0	0	0
609	0	0	0
610	0	0	0
611	0	0	0
612	0	0	0
613	0	0	0
614	0	0	0
615	0	0	0
616	0	0	0
617	0	0	0
618	0	0	0
619	0	0	0
620	0	0	0
621	0	0	0
622	0	0	0
623	0	0	0
624	0	0	0
625	0	0	0
626	0	0	0
627	0	0	0
628	0	0	0
629	0	0	0
630	0	0	0
631	0	0	0
632	0	0	0
633	0	0	0
634	0	0	0
635	0	0	0
636	0	0	0
637	0	0	0
638	0	0	0
639	0	0	0
640	0	0	0
641	0	0	0
642	0	0	0
643	0	0	0
644	0	0	0
645	0	0	0
646	0	0	0
647	0	0	0
648	0	0	0
649	0	0	0
650	0	0	0
651	0	0	0
652	0	0	0
653	0	0	0
654	0	0	0
655	0	0	0
656	0	0	0
657	0	0	0
658	0	0	0
659	0	0	0
660	0	0	0
661	0	0	0
662	0	0	0
663	0	0	0
664	0	0	0
665	253	224	243
666	250	219	240
667	255	230	248
668	255	227	247
669	252	217	240
670	255	221	243
671	255	221	242
672	251	214	238
673	253	215	242
674	255	218	246
675	255	216	245
676	253	210	241
677	251	207	238
678	255	221	246
679	255	215	240
680	250	206	234
681	252	210	239
682	255	216	244
683	255	223	248
684	255	221	247
685	247	205	237
686	0	0	0
687	0	0	0
688	255	224	241
689	251	216	239
690	255	223	245
691	251	222	243
692	0	0	0
693	0	0	0
694	0	0	0
695	0	0	0
696	0	0	0
697	0	0	0
698	0	0	0
699	0	0	0
700	0	0	0
701	0	0	0
702	0	0	0
703	0	0	0
704	0	0	0
705	0	0	0
706	0	0	0
707	0	0	0
708	0	0	0
709	0	0	0
710	0	0	0
711	0	0	0
712	0	0	0
713	0	0	0
714	0	0	0
715	0	0	0
716	0	0	0
717	0	0	0
718	0	0	0
719	0	0	0
720	0	0	0
721	0	0	0
722	0	0	0
723	0	0	0
724	0	0	0
725	0	0	0
726	0	0	0
727	0	0	0
728	0	0	0
729	0	0	0
730	0	0	0
731	0	0	0
732	0	0	0
733	0	0	0
734	0	0	0
735	0	0	0
736	0	0	0
737	0	0	0
738	255	225	251
739	0	0	0
740	0	0	0
741	0	0	0
742	0	0	0
743	0	0	0
744	0	0	0
745	247	217	239
746	0	0	0
747	0	0	0
748	0	0	0
749	0	0	0
750	0	0	0
751	0	0	0
752	0	0	0
753	0	0	0
754	0	0	0
755	0	0	0
756	0	0	0
757	0	0	0
758	0	0	0
759	0	0	0
760	0	0	0
761	0	0	0
762	0	0	0
763	0	0	0
764	253	224	243
765	247	214	238
766	255	225	247
767	255	235	253
768	255	224	246
769	252	215	240
770	254	216	242
771	254	216	240
772	255	217	242
773	255	219	248
774	255	217	249
775	255	214	246
776	255	212	243
777	255	210	241
778	254	206	239
779	249	201	234
780	252	205	238
781	255	209	241
782	255	216	245
783	255	222	249
784	254	210	240
785	242	195	232
786	254	214	243
787	0	0	0
788	255	219	240
789	250	212	240
790	251	216	244
791	246	214	239
792	248	227	244
793	0	0	0
794	0	0	0
795	0	0	0
796	0	0	0
797	0	0	0
798	0	0	0
799	0	0	0
800	0	0	0
801	0	0	0
802	0	0	0
803	0	0	0
804	0	0	0
805	0	0	0
806	0	0	0
807	0	0	0
808	0	0	0
809	0	0	0
810	0	0	0
811	0	0	0
812	0	0	0
813	0	0	0
814	0	0	0
815	0	0	0
816	0	0	0
817	0	0	0
818	0	0	0
819	0	0	0
820	0	0	0
821	0	0	0
822	0	0	0
823	0	0	0
824	0	0	0
825	0	0	0
826	0	0	0
827	0	0	0
828	0	0	0
829	0	0	0
830	0	0	0
831	0	0	0
832	0	0	0
833	0	0	0
834	0	0	0
835	0	0	0
836	0	0	0
837	255	223	247
838	253	216	245
839	249	209	241
840	0	0	0
841	0	0	0
842	0	0	0
843	0	0	0
844	251	217	242
845	249	219	241
846	254	233	248
847	0	0	0
848	0	0	0
849	0	0	0
850	0	0	0
851	0	0	0
852	0	0	0
853	0	0	0
854	0	0	0
855	0	0	0
856	0	0	0
857	0	0	0
858	0	0	0
859	0	0	0
860	0	0	0
861	254	228	245
862	254	227	244
863	255	230	247
864	249	218	240
865	252	219	244
866	255	231	254
867	255	220	244
868	248	210	237
869	255	217	243
870	255	219	245
871	255	215	241
872	255	216	244
873	255	208	243
874	254	206	243
875	255	210	244
876	255	207	241
877	255	208	242
878	255	206	240
879	253	201	238
880	255	207	242
881	255	208	242
882	255	214	246
883	255	212	244
884	250	199	235
885	248	197	236
886	255	217	249
887	255	215	242
888	247	203	232
889	248	208	240
890	247	211	242
891	248	219	242
892	0	0	0
893	0	0	0
894	0	0	0
895	0	0	0
896	0	0	0
897	0	0	0
898	0	0	0
899	0	0	0
900	0	0	0
901	0	0	0
902	0	0	0
903	0	0	0
904	0	0	0
905	0	0	0
906	0	0	0
907	0	0	0
908	0	0	0
909	0	0	0
910	0	0	0
911	0	0	0
912	0	0	0
913	0	0	0
914	0	0	0
915	0	0	0
916	0	0	0
917	0	0	0
918	0	0	0
919	0	0	0
920	0	0	0
921	0	0	0
922	0	0	0
923	0	0	0
924	0	0	0
925	0	0	0
926	0	0	0
927	0	0	0
928	0	0	0
929	0	0	0
930	0	0	0
931	0	0	0
932	0	0	0
933	0	0	0
934	0	0	0
935	0	0	0
936	254	223	242
937	250	214	239
938	250	211	240
939	247	205	240
940	255	215	247
941	0	0	0
942	0	0	0
943	0	0	0
944	255	222	246
945	253	224	245
946	255	234	248
947	0	0	0
948	0	0	0
949	0	0	0
950	0	0	0
951	0	0	0
952	0	0	0
953	0	0	0
954	0	0	0
955	0	0	0
956	0	0	0
957	0	0	0
958	0	0	0
959	0	0	0
960	253	226	242
961	250	219	241
962	254	223	244
963	255	226	246
964	255	225	246
965	255	226	249
966	255	218	245
967	249	207	238
968	255	215	245
969	255	222	249
970	255	218	246
971	255	215	244
972	255	208	241
973	253	199	239
974	255	207	246
975	255	211	247
976	255	210	245
977	255	212	246
978	255	209	245
979	255	205	245
980	255	209	247
981	255	210	245
982	255	205	241
983	255	204	244
984	255	202	243
985	254	200	240
986	255	202	241
987	252	202	239
988	253	206	241
989	253	210	244
990	255	221	250
991	0	0	0
992	0	0	0
993	0	0	0
994	0	0	0
995	0	0	0
996	0	0	0
997	0	0	0
998	0	0	0
999	0	0	0
1000	0	0	0
1001	0	0	0
1002	0	0	0
1003	0	0	0
1004	0	0	0
1005	0	0	0
1006	0	0	0
1007	0	0	0
1008	0	0	0
1009	0	0	0
1010	0	0	0
1011	0	0	0
1012	0	0	0
1013	0	0	0
1014	0	0	0
1015	0	0	0
1016	0	0	0
1017	0	0	0
1018	0	0	0
1019	0	0	0
1020	0	0	0
1021	0	0	0
1022	0	0	0
1023	0	0	0
1024	0	0	0
1025	0	0	0
1026	0	0	0
1027	0	0	0
1028	0	0	0
1029	0	0	0
1030	0	0	0
1031	249	217	243
1032	250	218	244
1033	253	224	246
1034	254	225	245
1035	255	227	246
1036	250	215	238
1037	253	217	241
1038	253	213	242
1039	253	212	244
1040	255	222	253
1041	253	212	245
1042	251	211	242
1043	0	0	0
1044	252	218	244
1045	255	227	247
1046	255	236	251
1047	255	237	249
1048	255	239	248
1049	255	238	246
1050	0	0	0
1051	0	0	0
1052	0	0	0
1053	0	0	0
1054	0	0	0
1055	0	0	0
1056	0	0	0
1057	255	230	246
1058	254	228	243
1059	253	226	242
1060	248	218	237
1061	254	224	245
1062	255	229	250
1063	255	220	243
1064	255	220	244
1065	255	221	247
1066	255	213	243
1067	251	205	239
1068	255	213	247
1069	254	205	241
1070	253	201	239
1071	255	207	244
1072	255	200	241
1073	250	189	236
1074	255	197	242
1075	255	195	240
1076	255	195	239
1077	255	197	240
1078	255	195	240
1079	254	191	239
1080	255	194	242
1081	253	191	236
1082	249	186	232
1083	255	200	244
1084	255	198	244
1085	254	195	241
1086	255	197	241
1087	255	199	241
1088	255	204	244
1089	253	202	242
1090	255	213	247
1091	252	213	242
1092	0	0	0
1093	0	0	0
1094	0	0	0
1095	0	0	0
1096	0	0	0
1097	0	0	0
1098	0	0	0
1099	0	0	0
1100	0	0	0
1101	0	0	0
1102	0	0	0
1103	0	0	0
1104	0	0	0
1105	0	0	0
1106	0	0	0
1107	0	0	0
1108	0	0	0
1109	0	0	0
1110	0	0	0
1111	0	0	0
1112	0	0	0
1113	0	0	0
1114	0	0	0
1115	0	0	0
1116	0	0	0
1117	0	0	0
1118	0	0	0
1119	0	0	0
1120	0	0	0
1121	0	0	0
1122	0	0	0
1123	0	0	0
1124	0	0	0
1125	0	0	0
1126	0	0	0
1127	0	0	0
1128	0	0	0
1129	0	0	0
1130	255	222	249
1131	244	206	239
1132	249	214	245
1133	253	220	249
1134	254	221	249
1135	255	224	249
1136	255	221	246
1137	255	222	247
1138	255	219	245
1139	255	216	244
1140	253	210	243
1141	247	202	239
1142	250	208	242
1143	248	209	239
1144	251	217	241
1145	255	227	246
1146	254	228	245
1147	252	228	243
1148	250	227	241
1149	249	227	242
1150	251	232	244
1151	0	0	0
1152	0	0	0
1153	0	0	0
1154	0	0	0
1155	0	0	0
1156	252	224	241
1157	250	220	239
1158	251	221	241
1159	251	220	239
1160	253	224	242
1161	255	229	248
1162	255	222	244
1163	252	213	239
1164	255	215	243
1165	255	216	247
1166	255	208	243
1167	251	200	237
1168	250	195	236
1169	247	188	236
1170	254	196	244
1171	255	202	249
1172	255	192	243
1173	249	180	235
1174	253	183	238
1175	253	182	237
1176	255	185	239
1177	255	188	240
1178	254	183	238
1179	252	179	237
1180	252	179	237
1181	249	176	233
1182	255	187	239
1183	255	199	246
1184	255	196	245
1185	255	194	245
1186	255	196	246
1187	255	196	243
1188	254	195	240
1189	251	194	238
1190	253	200	242
1191	249	201	239
1192	252	213	244
1193	0	0	0
1194	0	0	0
1195	0	0	0
1196	0	0	0
1197	0	0	0
1198	0	0	0
1199	0	0	0
1200	0	0	0
1201	0	0	0
1202	0	0	0
1203	0	0	0
1204	0	0	0
1205	0	0	0
1206	0	0	0
1207	0	0	0
1208	0	0	0
1209	0	0	0
1210	0	0	0
1211	0	0	0
1212	0	0	0
1213	0	0	0
1214	0	0	0
1215	0	0	0
1216	0	0	0
1217	0	0	0
1218	0	0	0
1219	0	0	0
1220	0	0	0
1221	0	0	0
1222	0	0	0
1223	0	0	0
1224	0	0	0
1225	0	0	0
1226	0	0	0
1227	0	0	0
1228	0	0	0
1229	255	223	250
1230	248	209	242
1231	249	209	244
1232	255	218	251
1233	255	219	252
1234	255	220	251
1235	255	218	247
1236	253	215	243
1237	255	218	245
1238	254	214	243
1239	253	212	241
1240	250	206	239
1241	251	207	242
1242	253	213	245
1243	251	215	241
1244	252	222	243
1245	255	234	251
1246	255	236	251
1247	251	226	242
1248	247	224	240
1249	254	234	248
1250	255	242	252
1251	253	233	243
1252	248	226	237
1253	0	0	0
1254	0	0	0
1255	0	0	0
1256	0	0	0
1257	255	228	245
1258	255	229	248
1259	251	216	239
1260	254	220	243
1261	255	224	247
1262	255	217	243
1263	255	212	241
1264	255	214	244
1265	255	207	242
1266	252	199	238
1267	255	202	241
1268	255	197	241
1269	254	192	244
1270	255	200	253
1271	255	190	247
1272	252	180	241
1273	251	176	238
1274	255	179	241
1275	255	177	239
1276	255	180	241
1277	255	177	239
1278	252	172	236
1279	252	172	237
1280	251	171	237
1281	253	174	238
1282	255	185	243
1283	255	185	241
1284	255	182	239
1285	251	178	238
1286	251	180	239
1287	255	192	243
1288	254	190	240
1289	255	194	241
1290	255	199	245
1291	249	193	239
1292	255	207	245
1293	0	0	0
1294	0	0	0
1295	0	0	0
1296	0	0	0
1297	0	0	0
1298	0	0	0
1299	0	0	0
1300	0	0	0
1301	0	0	0
1302	0	0	0
1303	0	0	0
1304	0	0	0
1305	0	0	0
1306	0	0	0
1307	0	0	0
1308	0	0	0
1309	0	0	0
1310	0	0	0
1311	0	0	0
1312	0	0	0
1313	0	0	0
1314	0	0	0
1315	0	0	0
1316	0	0	0
1317	0	0	0
1318	0	0	0
1319	0	0	0
1320	0	0	0
1321	0	0	0
1322	0	0	0
1323	0	0	0
1324	0	0	0
1325	0	0	0
1326	0	0	0
1327	0	0	0
1328	252	218	245
1329	248	208	242
1330	252	211	247
1331	253	211	247
1332	253	212	247
1333	254	214	248
1334	253	212	245
1335	251	210	241
1336	252	211	241
1337	255	215	245
1338	254	212	244
1339	252	209	241
1340	253	211	242
1341	253	211	242
1342	255	218	245
1343	255	220	242
1344	255	229	245
1345	255	241	254
1346	255	232	248
1347	250	222	241
1348	254	232	246
1349	255	242	252
1350	255	235	246
1351	250	227	241
1352	254	232	245
1353	255	238	250
1354	0	0	0
1355	254	227	244
1356	255	230	247
1357	255	234	251
1358	254	222	244
1359	247	210	238
1360	253	217	245
1361	255	222	251
1362	255	219	250
1363	255	214	245
1364	255	207	241
1365	255	200	239
1366	255	203	243
1367	255	206	248
1368	255	198	245
1369	255	192	246
1370	255	184	245
1371	251	175	241
1372	254	175	243
1373	254	172	242
1374	255	173	243
1375	255	170	239
1376	254	167	237
1377	252	164	235
1378	251	162	234
1379	250	162	235
1380	253	166	238
1381	254	169	237
1382	255	172	238
1383	254	172	236
1384	251	168	234
1385	247	164	232
1386	255	178	241
1387	255	190	247
1388	255	190	244
1389	255	192	243
1390	252	188	238
1391	245	183	235
1392	253	197	243
1393	255	207	243
1394	249	202	236
1395	0	0	0
1396	0	0	0
1397	0	0	0
1398	0	0	0
1399	0	0	0
1400	0	0	0
1401	0	0	0
1402	0	0	0
1403	0	0	0
1404	0	0	0
1405	0	0	0
1406	0	0	0
1407	0	0	0
1408	0	0	0
1409	0	0	0
1410	0	0	0
1411	0	0	0
1412	0	0	0
1413	0	0	0
1414	0	0	0
1415	0	0	0
1416	0	0	0
1417	0	0	0
1418	0	0	0
1419	0	0	0
1420	0	0	0
1421	0	0	0
1422	0	0	0
1423	0	0	0
1424	0	0	0
1425	0	0	0
1426	0	0	0
1427	0	0	0
1428	253	218	244
1429	252	212	245
1430	255	215	251
1431	250	206	244
1432	251	208	244
1433	255	217	251
1434	255	216	248
1435	253	211	242
1436	253	212	242
1437	255	217	246
1438	255	214	245
1439	253	210	241
1440	253	211	241
1441	255	214	242
1442	255	221	245
1443	253	217	240
1444	255	227	244
1445	255	235	250
1446	254	225	242
1447	253	225	243
1448	255	236	250
1449	255	235	248
1450	252	227	241
1451	251	224	241
1452	255	230	246
1453	255	228	245
1454	254	223	243
1455	252	219	243
1456	253	222	244
1457	255	225	246
1458	243	211	236
1459	247	214	241
1460	255	223	251
1461	255	213	248
1462	255	211	248
1463	253	198	237
1464	251	191	234
1465	252	191	237
1466	255	193	241
1467	255	193	242
1468	253	185	239
1469	255	190	246
1470	255	183	245
1471	253	170	241
1472	255	171	245
1473	251	160	238
1474	253	160	239
1475	252	157	236
1476	251	154	234
1477	252	156	235
1478	250	154	233
1479	255	169	242
1480	255	173	244
1481	255	165	237
1482	255	167	238
1483	251	160	233
1484	248	157	230
1485	254	167	237
1486	255	180	245
1487	253	172	238
1488	250	172	234
1489	255	188	241
1490	252	183	236
1491	253	188	241
1492	255	202	249
1493	253	196	239
1494	246	192	232
1495	255	213	246
1496	0	0	0
1497	0	0	0
1498	0	0	0
1499	0	0	0
1500	0	0	0
1501	0	0	0
1502	0	0	0
1503	0	0	0
1504	0	0	0
1505	0	0	0
1506	0	0	0
1507	0	0	0
1508	0	0	0
1509	0	0	0
1510	0	0	0
1511	0	0	0
1512	0	0	0
1513	0	0	0
1514	0	0	0
1515	0	0	0
1516	0	0	0
1517	0	0	0
1518	0	0	0
1519	0	0	0
1520	0	0	0
1521	0	0	0
1522	0	0	0
1523	0	0	0
1524	0	0	0
1525	0	0	0
1526	0	0	0
1527	0	0	0
1528	255	221	247
1529	255	214	246
1530	253	209	245
1531	247	201	239
1532	254	211	247
1533	255	221	254
1534	255	216	249
1535	254	211	243
1536	255	215	244
1537	255	219	246
1538	255	216	244
1539	255	212	242
1540	255	216	244
1541	255	219	244
1542	255	218	242
1543	252	215	240
1544	255	223	244
1545	255	231	246
1546	255	228	242
1547	255	228	242
1548	255	227	242
1549	255	227	242
1550	251	222	239
1551	250	219	238
1552	251	219	239
1553	252	217	239
1554	252	216	241
1555	251	213	243
1556	253	218	246
1557	253	220	244
1558	248	217	240
1559	252	219	244
1560	254	212	243
1561	253	204	242
1562	251	194	239
1563	246	182	232
1564	248	182	234
1565	249	181	235
1566	251	181	237
1567	252	180	237
1568	255	183	240
1569	255	189	247
1570	255	175	242
1571	253	164	238
1572	251	156	237
1573	245	145	230
1574	249	147	234
1575	249	145	235
1576	255	151	240
1577	255	152	237
1578	255	163	241
1579	255	176	248
1580	255	166	240
1581	255	159	235
1582	251	153	231
1583	246	146	227
1584	254	158	235
1585	255	168	240
1586	252	162	234
1587	244	154	228
1588	252	169	235
1589	255	185	240
1590	255	186	237
1591	255	190	240
1592	253	188	237
1593	247	184	231
1594	255	203	242
1595	255	222	253
1596	255	217	246
1597	0	0	0
1598	0	0	0
1599	0	0	0
1600	0	0	0
1601	0	0	0
1602	0	0	0
1603	0	0	0
1604	0	0	0
1605	0	0	0
1606	0	0	0
1607	0	0	0
1608	0	0	0
1609	0	0	0
1610	0	0	0
1611	0	0	0
1612	0	0	0
1613	0	0	0
1614	0	0	0
1615	0	0	0
1616	0	0	0
1617	0	0	0
1618	0	0	0
1619	0	0	0
1620	0	0	0
1621	0	0	0
1622	252	223	244
1623	0	0	0
1624	0	0	0
1625	0	0	0
1626	255	218	247
1627	255	220	248
1628	250	208	240
1629	255	213	245
1630	252	208	242
1631	252	207	242
1632	255	218	251
1633	255	213	247
1634	253	208	243
1635	255	213	245
1636	255	217	246
1637	255	212	242
1638	254	208	239
1639	249	202	236
1640	251	206	239
1641	255	219	244
1642	255	217	241
1643	253	215	241
1644	255	223	245
1645	255	227	244
1646	254	224	240
1647	254	225	240
1648	253	224	239
1649	255	228	243
1650	253	224	241
1651	253	222	241
1652	255	222	242
1653	255	219	243
1654	255	219	245
1655	251	209	243
1656	253	214	245
1657	253	216	243
1658	249	213	240
1659	248	208	238
1660	249	200	237
1661	251	196	240
1662	250	187	238
1663	248	180	236
1664	248	178	236
1665	254	185	243
1666	255	186	244
1667	255	179	239
1668	255	181	243
1669	255	177	243
1670	253	164	236
1671	252	156	236
1672	250	149	234
1673	253	149	235
1674	255	151	241
1675	245	131	231
1676	251	137	236
1677	251	140	234
1678	255	150	237
1679	255	150	234
1680	247	141	225
1681	255	151	233
1682	250	145	229
1683	250	146	231
1684	255	158	239
1685	253	154	234
1686	247	148	229
1687	248	154	231
1688	255	169	238
1689	255	180	239
1690	255	180	235
1691	254	181	234
1692	249	178	231
1693	253	188	236
1694	255	207	247
1695	255	201	239
1696	249	195	232
1697	252	205	238
1698	0	0	0
1699	0	0	0
1700	0	0	0
1701	0	0	0
1702	0	0	0
1703	0	0	0
1704	0	0	0
1705	0	0	0
1706	0	0	0
1707	0	0	0
1708	0	0	0
1709	0	0	0
1710	0	0	0
1711	0	0	0
1712	0	0	0
1713	0	0	0
1714	0	0	0
1715	0	0	0
1716	254	239	248
1717	255	239	250
1718	0	0	0
1719	249	225	245
1720	250	223	245
1721	251	220	244
1722	251	217	243
1723	252	214	243
1724	249	208	240
1725	245	200	237
1726	249	205	241
1727	252	208	244
1728	253	210	245
1729	255	214	247
1730	255	213	245
1731	255	213	244
1732	254	209	241
1733	251	204	240
1734	255	210	245
1735	255	215	245
1736	255	211	242
1737	254	207	240
1738	249	201	237
1739	243	194	234
1740	252	208	243
1741	255	220	246
1742	255	216	241
1743	252	214	240
1744	254	219	242
1745	255	222	242
1746	253	221	240
1747	253	223	240
1748	255	226	243
1749	255	230	246
1750	255	227	244
1751	255	225	243
1752	255	222	243
1753	255	219	244
1754	254	212	241
1755	248	202	237
1756	252	207	242
1757	254	212	244
1758	248	203	238
1759	246	198	236
1760	246	191	236
1761	249	187	239
1762	250	182	240
1763	248	175	237
1764	252	181	242
1765	255	187	246
1766	255	180	242
1767	253	173	238
1768	252	167	236
1769	252	163	237
1770	249	154	234
1771	247	146	231
1772	251	146	233
1773	254	145	233
1774	245	128	224
1775	233	108	216
1776	242	120	226
1777	243	123	226
1778	242	125	225
1779	241	125	223
1780	245	132	226
1781	251	141	231
1782	249	141	230
1783	249	141	230
1784	247	140	230
1785	243	136	228
1786	247	145	233
1787	248	150	232
1788	253	162	235
1789	255	173	237
1790	252	171	232
1791	250	171	232
1792	255	182	238
1793	255	191	240
1794	252	186	233
1795	244	180	227
1796	248	190	232
1797	252	201	239
1798	251	205	240
1799	0	0	0
1800	0	0	0
1801	0	0	0
1802	0	0	0
1803	0	0	0
1804	0	0	0
1805	0	0	0
1806	0	0	0
1807	0	0	0
1808	0	0	0
1809	0	0	0
1810	0	0	0
1811	0	0	0
1812	0	0	0
1813	0	0	0
1814	0	0	0
1815	252	233	245
1816	252	231	245
1817	254	233	247
1818	250	225	243
1819	255	230	249
1820	255	228	250
1821	253	220	246
1822	253	216	245
1823	255	217	245
1824	252	211	242
1825	253	210	244
1826	255	215	248
1827	255	211	247
1828	255	213	248
1829	255	211	246
1830	255	211	244
1831	255	209	241
1832	252	205	239
1833	255	208	243
1834	255	215	248
1835	253	203	239
1836	250	199	236
1837	253	203	240
1838	246	197	236
1839	251	205	243
1840	255	220	252
1841	255	216	244
1842	253	213	239
1843	255	216	241
1844	255	221	244
1845	255	222	241
1846	254	221	240
1847	255	225	244
1848	255	229	248
1849	253	218	240
1850	252	215	238
1851	255	221	242
1852	255	217	240
1853	255	216	242
1854	254	208	240
1855	251	203	239
1856	255	209	246
1857	255	210	247
1858	254	202	243
1859	247	191	236
1860	245	183	234
1861	251	187	242
1862	253	183	243
1863	252	177	241
1864	255	184	247
1865	255	179	243
1866	252	171	237
1867	255	174	240
1868	255	168	238
1869	254	162	238
1870	251	154	235
1871	253	151	235
1872	255	151	236
1873	254	143	232
1874	245	126	223
1875	243	120	224
1876	253	132	235
1877	252	132	233
1878	252	134	233
1879	247	128	229
1880	250	135	231
1881	255	151	239
1882	255	149	235
1883	252	144	231
1884	250	143	232
1885	252	146	236
1886	255	155	241
1887	251	152	233
1888	255	164	237
1889	255	169	236
1890	251	167	232
1891	252	172	236
1892	255	183	242
1893	253	181	235
1894	246	176	228
1895	248	183	232
1896	252	193	237
1897	255	204	243
1898	254	207	243
1899	253	213	244
1900	0	0	0
1901	0	0	0
1902	0	0	0
1903	0	0	0
1904	0	0	0
1905	0	0	0
1906	0	0	0
1907	0	0	0
1908	0	0	0
1909	0	0	0
1910	0	0	0
1911	0	0	0
1912	0	0	0
1913	0	0	0
1914	253	233	246
1915	249	224	242
1916	253	227	246
1917	255	229	247
1918	255	232	249
1919	255	236	254
1920	255	226	249
1921	254	218	246
1922	255	219	248
1923	255	219	246
1924	255	218	246
1925	255	217	247
1926	255	215	246
1927	255	211	244
1928	255	211	245
1929	255	210	245
1930	255	210	246
1931	255	209	244
1932	255	211	245
1933	255	213	247
1934	254	203	241
1935	246	192	234
1936	251	198	239
1937	252	201	240
1938	255	208	244
1939	255	217	249
1940	255	215	245
1941	254	211	239
1942	254	213	239
1943	255	217	241
1944	255	218	240
1945	254	219	237
1946	255	222	239
1947	255	227	247
1948	254	218	243
1949	248	207	236
1950	252	212	239
1951	255	217	242
1952	253	212	238
1953	253	210	238
1954	249	203	236
1955	248	198	239
1956	252	200	243
1957	253	200	243
1958	247	189	236
1959	242	178	230
1960	247	183	236
1961	253	186	242
1962	254	183	243
1963	253	177	240
1964	253	173	239
1965	251	169	236
1966	253	169	236
1967	255	171	236
1968	250	160	230
1969	249	155	230
1970	249	151	230
1971	250	148	229
1972	248	140	225
1973	246	134	224
1974	246	129	224
1975	243	122	222
1976	248	127	226
1977	247	125	223
1978	246	125	223
1979	242	121	222
1980	252	137	231
1981	255	152	235
1982	252	144	226
1983	248	140	224
1984	251	144	228
1985	251	146	232
1986	251	149	232
1987	246	146	225
1988	248	152	226
1989	249	159	229
1990	248	162	231
1991	249	167	233
1992	246	166	231
1993	243	165	227
1994	246	174	230
1995	248	181	232
1996	251	192	236
1997	254	201	239
1998	255	208	241
1999	254	214	241
2000	255	222	243
2001	0	0	0
2002	0	0	0
2003	0	0	0
2004	0	0	0
2005	0	0	0
2006	0	0	0
2007	0	0	0
2008	0	0	0
2009	0	0	0
2010	0	0	0
2011	253	239	246
2012	253	236	245
2013	253	233	246
2014	250	225	243
2015	253	225	246
2016	255	229	250
2017	255	225	247
2018	255	227	249
2019	254	220	244
2020	247	210	238
2021	255	221	249
2022	255	222	251
2023	253	210	241
2024	253	209	240
2025	255	211	242
2026	254	209	241
2027	255	209	242
2028	255	210	244
2029	255	207	244
2030	255	207	245
2031	253	201	240
2032	255	203	241
2033	255	207	244
2034	250	196	238
2035	250	195	239
2036	255	201	244
2037	253	201	242
2038	255	208	245
2039	255	212	245
2040	254	209	240
2041	254	210	239
2042	255	213	240
2043	255	218	242
2044	255	219	241
2045	255	219	239
2046	255	223	242
2047	255	220	244
2048	251	210	239
2049	253	212	241
2050	255	217	244
2051	255	217	242
2052	252	211	237
2053	253	211	238
2054	247	203	235
2055	254	209	244
2056	255	211	249
2057	254	201	244
2058	248	190	237
2059	250	189	237
2060	255	194	244
2061	251	179	238
2062	251	175	238
2063	254	176	240
2064	253	172	239
2065	251	168	236
2066	253	168	236
2067	255	170	235
2068	249	159	227
2069	255	167	234
2070	255	162	233
2071	254	156	231
2072	251	148	228
2073	251	144	229
2074	250	138	228
2075	251	136	228
2076	254	140	231
2077	249	132	225
2078	249	132	225
2079	248	131	226
2080	255	148	235
2081	254	146	227
2082	247	138	219
2083	254	150	229
2084	255	154	233
2085	249	145	228
2086	249	148	228
2087	251	155	228
2088	253	161	230
2089	252	165	232
2090	253	169	234
2091	255	176	237
2092	252	175	235
2093	251	178	235
2094	255	187	239
2095	252	188	235
2096	255	199	238
2097	254	202	238
2098	255	209	240
2099	254	213	240
2100	0	0	0
2101	0	0	0
2102	0	0	0
2103	0	0	0
2104	0	0	0
2105	0	0	0
2106	0	0	0
2107	0	0	0
2108	0	0	0
2109	0	0	0
2110	253	238	246
2111	248	230	244
2112	249	228	245
2113	250	225	245
2114	253	225	247
2115	255	225	249
2116	255	223	249
2117	254	220	247
2118	251	214	243
2119	247	207	238
2120	254	216	245
2121	255	226	254
2122	255	216	248
2123	251	205	241
2124	254	207	244
2125	255	209	244
2126	255	208	243
2127	255	209	244
2128	255	206	242
2129	255	203	242
2130	252	199	240
2131	249	193	237
2132	253	197	240
2133	255	201	242
2134	254	199	241
2135	254	199	244
2136	255	201	245
2137	254	201	243
2138	255	205	243
2139	255	208	242
2140	254	208	240
2141	254	210	241
2142	255	215	244
2143	255	219	245
2144	255	220	245
2145	255	221	245
2146	255	216	242
2147	253	212	240
2148	253	212	239
2149	254	213	238
2150	255	214	239
2151	255	215	241
2152	255	214	241
2153	255	214	240
2154	255	214	241
2155	255	219	246
2156	255	208	241
2157	252	199	239
2158	252	196	239
2159	255	194	238
2160	250	181	233
2161	244	167	229
2162	249	171	236
2163	251	171	237
2164	249	167	235
2165	247	162	232
2166	249	164	232
2167	252	167	233
2168	255	170	234
2169	255	175	236
2170	255	166	230
2171	255	160	231
2172	253	154	229
2173	251	148	229
2174	251	146	228
2175	251	143	227
2176	249	139	225
2177	244	132	221
2178	247	134	223
2179	244	132	220
2180	244	134	218
2181	241	133	213
2182	247	143	220
2183	255	155	230
2184	248	147	225
2185	240	139	219
2186	245	149	224
2187	248	156	225
2188	247	159	225
2189	247	162	226
2190	250	170	229
2191	252	176	231
2192	252	180	231
2193	252	183	233
2194	251	186	232
2195	248	187	228
2196	248	192	229
2197	248	196	231
2198	249	203	235
2199	249	208	235
2200	246	209	234
2201	0	0	0
2202	0	0	0
2203	0	0	0
2204	0	0	0
2205	0	0	0
2206	0	0	0
2207	0	0	0
2208	0	0	0
2209	0	0	0
2210	253	235	246
2211	250	228	245
2212	250	226	246
2213	255	232	252
2214	255	233	254
2215	254	221	247
2216	254	220	248
2217	255	218	248
2218	252	213	245
2219	253	212	245
2220	255	222	252
2221	255	214	247
2222	251	203	240
2223	253	204	243
2224	255	207	246
2225	255	207	245
2226	255	206	244
2227	255	210	246
2228	255	207	244
2229	251	196	238
2230	249	192	236
2231	255	202	244
2232	255	206	247
2233	252	194	239
2234	251	193	238
2235	255	199	243
2236	255	200	244
2237	253	198	241
2238	254	203	241
2239	255	207	241
2240	254	207	240
2241	255	214	244
2242	255	219	247
2243	255	214	242
2244	255	215	243
2245	254	212	242
2246	249	206	237
2247	255	218	245
2248	255	218	243
2249	253	212	237
2250	254	212	237
2251	255	213	240
2252	255	213	240
2253	254	211	239
2254	255	211	239
2255	255	214	241
2256	252	202	234
2257	254	201	239
2258	255	199	240
2259	255	196	237
2260	250	182	231
2261	249	176	234
2262	254	179	240
2263	252	174	237
2264	250	170	235
2265	253	174	237
2266	255	175	238
2267	255	178	239
2268	255	180	239
2269	255	172	230
2270	251	163	224
2271	254	165	230
2272	251	157	229
2273	252	157	229
2274	251	153	228
2275	255	162	234
2276	255	157	232
2277	250	148	226
2278	252	151	228
2279	251	150	225
2280	251	152	224
2281	254	157	225
2282	255	168	233
2283	253	160	229
2284	246	152	224
2285	251	161	230
2286	255	171	235
2287	253	170	231
2288	253	173	231
2289	253	177	232
2290	255	184	235
2291	252	183	230
2292	253	186	230
2293	251	188	232
2294	251	191	233
2295	253	199	233
2296	254	205	234
2297	254	209	236
2298	255	216	240
2299	253	217	239
2300	0	0	0
2301	0	0	0
2302	0	0	0
2303	0	0	0
2304	0	0	0
2305	0	0	0
2306	0	0	0
2307	0	0	0
2308	0	0	0
2309	0	0	0
2310	254	233	245
2311	250	226	244
2312	255	232	251
2313	255	238	255
2314	255	227	249
2315	251	216	243
2316	254	217	246
2317	255	216	247
2318	255	216	248
2319	255	217	250
2320	255	209	244
2321	250	201	237
2322	252	202	239
2323	254	203	243
2324	255	206	247
2325	255	206	247
2326	255	209	248
2327	255	213	250
2328	255	200	242
2329	248	189	236
2330	255	200	244
2331	255	209	249
2332	255	198	241
2333	248	187	235
2334	252	193	239
2335	254	197	241
2336	252	196	238
2337	250	194	235
2338	252	200	237
2339	254	205	239
2340	255	210	240
2341	255	216	243
2342	255	211	239
2343	251	206	238
2344	250	204	237
2345	247	201	234
2346	253	211	240
2347	255	222	247
2348	255	214	241
2349	251	209	237
2350	252	209	237
2351	253	209	237
2352	252	208	237
2353	252	207	237
2354	254	208	238
2355	255	210	238
2356	252	203	235
2357	254	202	239
2358	255	199	238
2359	255	196	236
2360	252	187	232
2361	250	180	232
2362	251	178	234
2363	249	173	232
2364	254	179	236
2365	255	182	238
2366	255	184	239
2367	255	186	240
2368	255	177	233
2369	251	170	226
2370	251	168	226
2371	254	169	232
2372	253	167	232
2373	252	165	231
2374	255	171	234
2375	255	179	239
2376	255	168	231
2377	250	158	224
2378	253	161	226
2379	253	162	226
2380	255	169	229
2381	255	173	229
2382	251	165	223
2383	244	158	221
2384	250	168	228
2385	255	177	233
2386	251	176	229
2387	248	175	227
2388	250	179	229
2389	251	184	232
2390	250	185	231
2391	246	182	224
2392	247	186	226
2393	246	188	230
2394	251	199	237
2395	0	0	0
2396	0	0	0
2397	0	0	0
2398	0	0	0
2399	0	0	0
2400	0	0	0
2401	0	0	0
2402	0	0	0
2403	0	0	0
2404	0	0	0
2405	0	0	0
2406	0	0	0
2407	254	240	249
2408	255	237	249
2409	255	233	246
2410	251	226	242
2411	253	226	246
2412	255	232	251
2413	255	230	250
2414	252	218	242
2415	253	216	243
2416	255	218	247
2417	254	212	245
2418	255	213	247
2419	255	214	248
2420	255	207	243
2421	254	203	239
2422	255	204	242
2423	254	199	241
2424	255	201	244
2425	254	199	242
2426	255	201	244
2427	255	204	246
2428	251	192	237
2429	253	194	240
2430	255	204	248
2431	255	198	242
2432	249	187	235
2433	250	188	237
2434	253	193	241
2435	255	200	242
2436	254	198	239
2437	252	198	237
2438	254	203	239
2439	255	209	241
2440	255	214	242
2441	255	216	241
2442	255	210	237
2443	253	208	239
2444	252	207	239
2445	252	208	238
2446	255	218	243
2447	255	220	244
2448	251	211	237
2449	255	216	242
2450	255	218	243
2451	255	215	240
2452	255	213	239
2453	254	209	239
2454	255	210	240
2455	255	210	238
2456	251	203	234
2457	255	210	242
2458	255	206	241
2459	254	196	234
2460	251	188	231
2461	254	188	235
2462	254	186	236
2463	252	181	233
2464	255	186	237
2465	254	182	235
2466	255	183	235
2467	255	184	235
2468	251	175	228
2469	252	175	228
2470	251	173	228
2471	255	179	234
2472	254	175	233
2473	255	177	232
2474	255	182	235
2475	255	185	237
2476	254	174	228
2477	250	169	223
2478	253	173	226
2479	255	175	228
2480	255	182	231
2481	255	179	227
2482	245	170	220
2483	247	174	225
2484	254	185	233
2485	255	191	233
2486	251	189	229
2487	254	196	234
2488	255	201	237
2489	255	204	238
2490	255	205	237
2491	252	200	231
2492	254	205	235
2493	253	205	237
2494	0	0	0
2495	0	0	0
2496	0	0	0
2497	0	0	0
2498	0	0	0
2499	0	0	0
2500	0	0	0
2501	0	0	0
2502	0	0	0
2503	0	0	0
2504	0	0	0
2505	0	0	0
2506	252	237	247
2507	251	232	246
2508	252	230	246
2509	251	226	243
2510	253	226	245
2511	255	225	247
2512	254	223	245
2513	254	221	243
2514	254	219	242
2515	255	217	243
2516	255	215	244
2517	254	209	242
2518	255	212	246
2519	255	213	247
2520	255	210	245
2521	255	206	243
2522	255	200	240
2523	252	194	239
2524	252	193	239
2525	250	190	236
2526	253	193	238
2527	255	197	242
2528	255	197	242
2529	255	197	241
2530	253	191	237
2531	250	186	235
2532	252	189	239
2533	252	189	241
2534	255	198	246
2535	255	205	247
2536	255	203	243
2537	255	202	242
2538	255	208	243
2539	255	212	244
2540	255	212	240
2541	255	214	238
2542	254	210	235
2543	254	209	239
2544	255	212	242
2545	255	213	239
2546	255	215	238
2547	255	217	238
2548	255	219	240
2549	255	225	246
2550	255	221	243
2551	255	218	239
2552	255	214	237
2553	254	210	236
2554	255	211	239
2555	255	211	239
2556	255	214	242
2557	255	220	247
2558	255	209	240
2559	254	199	236
2560	255	198	238
2561	255	198	239
2562	255	192	237
2563	254	187	235
2564	254	186	235
2565	251	181	232
2566	252	182	232
2567	253	182	231
2568	252	180	229
2569	252	180	229
2570	255	185	232
2571	255	189	236
2572	255	190	235
2573	255	190	233
2574	255	190	232
2575	255	194	235
2576	255	187	231
2577	253	182	227
2578	255	186	230
2579	255	187	230
2580	255	187	229
2581	252	185	227
2582	250	188	228
2583	251	191	231
2584	254	199	234
2585	255	204	233
2586	255	208	234
2587	0	0	0
2588	0	0	0
2589	0	0	0
2590	0	0	0
2591	0	0	0
2592	0	0	0
2593	0	0	0
2594	0	0	0
2595	0	0	0
2596	0	0	0
2597	0	0	0
2598	0	0	0
2599	0	0	0
2600	0	0	0
2601	0	0	0
2602	0	0	0
2603	0	0	0
2604	0	0	0
2605	0	0	0
2606	252	235	247
2607	254	235	249
2608	254	232	248
2609	250	223	244
2610	253	223	246
2611	255	227	249
2612	254	224	246
2613	255	225	246
2614	255	223	246
2615	253	210	240
2616	253	207	240
2617	255	206	241
2618	255	209	244
2619	254	199	239
2620	253	196	238
2621	253	195	238
2622	249	188	234
2623	255	198	241
2624	255	197	242
2625	252	189	235
2626	254	192	238
2627	255	195	242
2628	255	195	241
2629	255	193	238
2630	251	187	233
2631	255	194	241
2632	255	197	245
2633	252	188	240
2634	255	196	245
2635	255	197	242
2636	253	195	238
2637	254	200	240
2638	255	206	241
2639	255	211	242
2640	255	211	238
2641	255	213	236
2642	253	209	234
2643	255	211	240
2644	255	214	242
2645	255	213	237
2646	255	214	236
2647	255	215	237
2648	255	218	240
2649	255	217	241
2650	252	213	237
2651	255	218	239
2652	255	214	237
2653	252	208	235
2654	253	208	237
2655	255	213	241
2656	255	216	244
2657	255	211	240
2658	250	198	233
2659	252	198	235
2660	253	197	236
2661	255	197	236
2662	252	191	233
2663	255	195	237
2664	255	193	236
2665	252	187	232
2666	253	188	232
2667	254	189	233
2668	253	187	231
2669	255	191	234
2670	255	195	236
2671	254	190	232
2672	253	190	231
2673	254	193	229
2674	253	193	227
2675	255	202	234
2676	255	195	230
2677	253	192	230
2678	255	196	232
2679	255	196	229
2680	253	195	228
2681	253	198	230
2682	252	200	231
2683	0	0	0
2684	255	212	235
2685	255	217	234
2686	0	0	0
2687	0	0	0
2688	0	0	0
2689	0	0	0
2690	0	0	0
2691	0	0	0
2692	0	0	0
2693	0	0	0
2694	0	0	0
2695	0	0	0
2696	0	0	0
2697	0	0	0
2698	0	0	0
2699	0	0	0
2700	0	0	0
2701	0	0	0
2702	0	0	0
2703	0	0	0
2704	0	0	0
2705	0	0	0
2706	253	236	248
2707	255	235	249
2708	253	228	246
2709	249	219	244
2710	255	225	249
2711	255	228	250
2712	255	227	248
2713	255	229	250
2714	255	216	244
2715	251	204	238
2716	254	205	241
2717	255	203	240
2718	252	195	237
2719	248	186	235
2720	250	187	238
2721	250	186	236
2722	255	193	239
2723	255	202	244
2724	255	195	239
2725	252	187	235
2726	255	190	238
2727	255	193	240
2728	254	190	238
2729	253	189	235
2730	255	195	239
2731	255	201	244
2732	255	194	241
2733	251	185	235
2734	253	189	238
2735	252	190	236
2736	252	194	235
2737	253	199	237
2738	255	205	239
2739	255	210	240
2740	255	211	237
2741	255	213	236
2742	255	212	236
2743	255	214	242
2744	255	215	242
2745	255	213	235
2746	255	213	235
2747	255	215	240
2748	255	214	242
2749	253	212	241
2750	255	216	242
2751	255	221	244
2752	254	213	239
2753	251	207	238
2754	255	212	242
2755	255	215	242
2756	253	207	237
2757	250	201	236
2758	249	198	235
2759	249	196	235
2760	251	197	235
2761	252	197	235
2762	255	199	236
2763	255	202	237
2764	254	196	233
2765	250	190	227
2766	252	192	229
2767	254	194	232
2768	255	198	235
2769	255	202	237
2770	255	197	233
2771	251	192	230
2772	253	197	232
2773	254	200	232
2774	255	206	233
2775	255	213	236
2776	255	210	234
2777	255	208	238
2778	255	209	239
2779	255	207	232
2780	0	0	0
2781	0	0	0
2782	0	0	0
2783	0	0	0
2784	0	0	0
2785	0	0	0
2786	0	0	0
2787	0	0	0
2788	0	0	0
2789	0	0	0
2790	0	0	0
2791	0	0	0
2792	0	0	0
2793	0	0	0
2794	0	0	0
2795	0	0	0
2796	0	0	0
2797	0	0	0
2798	0	0	0
2799	0	0	0
2800	0	0	0
2801	0	0	0
2802	0	0	0
2803	0	0	0
2804	0	0	0
2805	0	0	0
2806	0	0	0
2807	255	237	250
2808	255	230	247
2809	249	216	243
2810	254	222	248
2811	255	229	251
2812	255	228	250
2813	255	219	244
2814	251	207	238
2815	255	206	243
2816	255	208	246
2817	254	197	239
2818	251	190	236
2819	250	185	238
2820	252	186	240
2821	255	192	242
2822	255	198	244
2823	255	193	238
2824	253	186	233
2825	251	182	231
2826	253	185	235
2827	255	193	240
2828	255	190	237
2829	255	190	237
2830	255	195	240
2831	255	190	236
2832	251	183	232
2833	249	181	233
2834	251	186	236
2835	252	190	236
2836	252	194	235
2837	255	209	244
2838	255	215	245
2839	251	200	233
2840	251	202	232
2841	255	213	237
2842	255	212	236
2843	255	212	239
2844	255	212	239
2845	255	213	235
2846	255	214	236
2847	255	213	239
2848	254	212	240
2849	254	213	242
2850	255	216	244
2851	255	218	243
2852	252	210	237
2853	255	214	242
2854	255	218	245
2855	255	213	239
2856	249	204	233
2857	255	212	241
2858	255	209	240
2859	255	210	240
2860	255	209	240
2861	255	207	238
2862	255	208	239
2863	255	203	235
2864	252	198	230
2865	253	199	229
2866	254	200	231
2867	254	201	234
2868	255	205	237
2869	255	207	236
2870	254	202	232
2871	252	201	233
2872	255	206	236
2873	255	209	235
2874	0	0	0
2875	0	0	0
2876	0	0	0
2877	0	0	0
2878	0	0	0
2879	0	0	0
2880	0	0	0
2881	0	0	0
2882	0	0	0
2883	0	0	0
2884	0	0	0
2885	0	0	0
2886	0	0	0
2887	0	0	0
2888	0	0	0
2889	0	0	0
2890	0	0	0
2891	0	0	0
2892	0	0	0
2893	0	0	0
2894	0	0	0
2895	0	0	0
2896	0	0	0
2897	0	0	0
2898	0	0	0
2899	0	0	0
2900	0	0	0
2901	0	0	0
2902	0	0	0
2903	0	0	0
2904	0	0	0
2905	0	0	0
2906	0	0	0
2907	0	0	0
2908	254	226	244
2909	247	212	238
2910	254	221	246
2911	255	229	251
2912	255	217	244
2913	251	208	238
2914	254	207	240
2915	255	208	244
2916	255	200	243
2917	252	190	237
2918	253	188	240
2919	251	183	239
2920	255	190	243
2921	255	196	244
2922	255	189	238
2923	254	184	234
2924	254	183	234
2925	251	179	230
2926	255	186	234
2927	255	193	240
2928	255	190	238
2929	255	190	238
2930	252	184	234
2931	249	179	230
2932	249	179	232
2933	248	178	233
2934	252	186	238
2935	253	191	238
2936	255	205	244
2937	255	220	251
2938	255	205	238
2939	246	191	229
2940	253	203	236
2941	255	215	242
2942	255	211	238
2943	253	209	237
2944	254	211	237
2945	255	213	236
2946	251	209	231
2947	249	206	230
2948	250	208	232
2949	251	209	236
2950	253	212	238
2951	254	214	239
2952	255	216	240
2953	255	219	242
2954	255	214	238
2955	251	209	234
2956	253	213	236
2957	255	221	241
2958	255	220	240
2959	255	221	240
2960	255	218	239
2961	255	216	239
2962	255	211	237
2963	254	206	235
2964	255	209	237
2965	255	210	238
2966	255	210	237
2967	255	210	239
2968	255	212	239
2969	255	213	234
2970	253	209	230
2971	0	0	0
2972	0	0	0
2973	0	0	0
2974	0	0	0
2975	0	0	0
2976	0	0	0
2977	0	0	0
2978	0	0	0
2979	0	0	0
2980	0	0	0
2981	0	0	0
2982	0	0	0
2983	0	0	0
2984	0	0	0
2985	0	0	0
2986	0	0	0
2987	0	0	0
2988	0	0	0
2989	0	0	0
2990	0	0	0
2991	0	0	0
2992	0	0	0
2993	0	0	0
2994	0	0	0
2995	0	0	0
2996	0	0	0
2997	0	0	0
2998	0	0	0
2999	0	0	0
3000	0	0	0
3001	0	0	0
3002	0	0	0
3003	0	0	0
3004	0	0	0
3005	0	0	0
3006	0	0	0
3007	255	230	246
3008	249	217	238
3009	251	217	242
3010	255	226	250
3011	255	226	250
3012	254	214	242
3013	255	211	241
3014	255	210	243
3015	255	205	242
3016	255	197	241
3017	250	184	236
3018	251	182	238
3019	249	177	235
3020	253	184	239
3021	255	196	245
3022	255	190	239
3023	251	178	231
3024	252	176	231
3025	249	173	228
3026	253	180	232
3027	255	190	238
3028	255	187	237
3029	255	187	238
3030	251	181	233
3031	255	188	237
3032	255	188	237
3033	248	178	232
3034	252	186	237
3035	255	198	242
3036	255	211	248
3037	255	200	237
3038	244	186	226
3039	253	200	237
3040	255	212	244
3041	255	213	242
3042	254	209	237
3043	254	210	237
3044	255	212	237
3045	255	217	238
3046	251	212	233
3047	251	213	233
3048	253	214	234
3049	255	218	238
3050	255	220	241
3051	253	214	237
3052	255	216	239
3053	255	216	237
3054	251	210	233
3055	249	209	233
3056	250	213	235
3057	0	0	0
3058	0	0	0
3059	252	212	230
3060	250	209	229
3061	255	218	237
3062	255	214	237
3063	249	203	231
3064	250	205	233
3065	255	214	238
3066	0	0	0
3067	0	0	0
3068	0	0	0
3069	252	213	230
3070	0	0	0
3071	0	0	0
3072	0	0	0
3073	0	0	0
3074	0	0	0
3075	0	0	0
3076	0	0	0
3077	0	0	0
3078	0	0	0
3079	0	0	0
3080	0	0	0
3081	0	0	0
3082	0	0	0
3083	0	0	0
3084	0	0	0
3085	0	0	0
3086	0	0	0
3087	0	0	0
3088	0	0	0
3089	0	0	0
3090	0	0	0
3091	0	0	0
3092	0	0	0
3093	0	0	0
3094	0	0	0
3095	0	0	0
3096	0	0	0
3097	0	0	0
3098	0	0	0
3099	0	0	0
3100	0	0	0
3101	0	0	0
3102	0	0	0
3103	0	0	0
3104	0	0	0
3105	0	0	0
3106	252	226	243
3107	250	220	242
3108	253	221	245
3109	255	221	246
3110	255	221	247
3111	255	221	246
3112	255	215	243
3113	255	212	242
3114	255	206	240
3115	255	200	239
3116	252	189	235
3117	247	176	232
3118	249	176	235
3119	245	170	231
3120	254	182	238
3121	255	195	245
3122	254	180	234
3123	246	168	226
3124	249	170	228
3125	247	167	227
3126	255	179	235
3127	255	188	239
3128	255	186	237
3129	255	186	239
3130	255	190	240
3131	255	195	240
3132	253	185	231
3133	245	174	226
3134	254	190	237
3135	255	202	241
3136	250	190	231
3137	242	180	224
3138	251	195	235
3139	255	209	245
3140	255	210	243
3141	255	210	238
3142	254	209	235
3143	255	211	237
3144	255	216	240
3145	255	220	240
3146	255	219	237
3147	255	221	239
3148	255	222	239
3149	255	224	238
3150	252	216	234
3151	249	210	234
3152	248	210	234
3153	248	209	233
3154	247	209	232
3155	245	208	233
3156	252	219	239
3157	0	0	0
3158	248	215	230
3159	240	203	222
3160	249	212	230
3161	255	220	238
3162	250	210	233
3163	243	200	228
3164	251	211	236
3165	0	0	0
3166	0	0	0
3167	0	0	0
3168	0	0	0
3169	0	0	0
3170	0	0	0
3171	0	0	0
3172	0	0	0
3173	0	0	0
3174	0	0	0
3175	0	0	0
3176	0	0	0
3177	0	0	0
3178	0	0	0
3179	0	0	0
3180	0	0	0
3181	0	0	0
3182	0	0	0
3183	0	0	0
3184	0	0	0
3185	0	0	0
3186	0	0	0
3187	0	0	0
3188	0	0	0
3189	0	0	0
3190	0	0	0
3191	0	0	0
3192	0	0	0
3193	0	0	0
3194	0	0	0
3195	0	0	0
3196	0	0	0
3197	0	0	0
3198	0	0	0
3199	0	0	0
3200	0	0	0
3201	0	0	0
3202	0	0	0
3203	0	0	0
3204	0	0	0
3205	0	0	0
3206	0	0	0
3207	252	225	245
3208	255	227	249
3209	255	222	247
3210	255	222	248
3211	255	218	245
3212	255	213	242
3213	255	209	241
3214	255	202	239
3215	253	192	235
3216	248	181	231
3217	251	180	235
3218	253	179	238
3219	249	174	234
3220	255	186	241
3221	255	191	242
3222	252	176	232
3223	250	172	230
3224	253	174	233
3225	253	173	234
3226	255	185	241
3227	254	177	234
3228	251	174	232
3229	255	181	236
3230	255	184	236
3231	255	192	237
3232	250	181	227
3233	248	181	228
3234	255	196	239
3235	255	202	241
3236	251	191	231
3237	252	194	233
3238	255	209	244
3239	255	205	241
3240	254	205	238
3241	255	210	236
3242	254	210	234
3243	255	213	238
3244	255	218	241
3245	255	217	237
3246	252	216	235
3247	255	222	239
3248	255	223	238
3249	255	224	237
3250	251	216	232
3251	251	217	236
3252	250	217	236
3253	255	226	242
3254	253	225	241
3255	251	221	240
3256	0	0	0
3257	0	0	0
3258	0	0	0
3259	250	225	236
3260	255	235	246
3261	255	223	239
3262	248	212	232
3263	254	220	240
3264	0	0	0
3265	0	0	0
3266	0	0	0
3267	0	0	0
3268	0	0	0
3269	0	0	0
3270	0	0	0
3271	0	0	0
3272	0	0	0
3273	0	0	0
3274	0	0	0
3275	0	0	0
3276	0	0	0
3277	0	0	0
3278	0	0	0
3279	0	0	0
3280	0	0	0
3281	0	0	0
3282	0	0	0
3283	0	0	0
3284	0	0	0
3285	0	0	0
3286	0	0	0
3287	0	0	0
3288	0	0	0
3289	0	0	0
3290	0	0	0
3291	0	0	0
3292	0	0	0
3293	0	0	0
3294	0	0	0
3295	0	0	0
3296	0	0	0
3297	0	0	0
3298	0	0	0
3299	0	0	0
3300	0	0	0
3301	0	0	0
3302	0	0	0
3303	0	0	0
3304	0	0	0
3305	0	0	0
3306	0	0	0
3307	0	0	0
3308	255	227	247
3309	255	223	246
3310	255	220	247
3311	255	216	246
3312	255	208	242
3313	254	203	240
3314	249	191	234
3315	247	182	232
3316	251	183	235
3317	252	180	234
3318	253	179	236
3319	251	175	235
3320	254	179	237
3321	255	183	237
3322	253	177	232
3323	252	173	232
3324	255	175	235
3325	254	175	235
3326	251	171	232
3327	246	164	228
3328	252	173	233
3329	254	179	235
3330	255	184	236
3331	255	192	239
3332	255	190	236
3333	254	189	233
3334	255	197	237
3335	255	204	242
3336	255	205	241
3337	255	206	238
3338	255	203	234
3339	251	199	232
3340	252	203	233
3341	254	209	234
3342	254	211	234
3343	255	214	238
3344	255	216	239
3345	254	216	238
3346	254	219	238
3347	255	225	239
3348	254	223	237
3349	255	225	239
3350	253	224	238
3351	251	223	235
3352	255	232	241
3353	0	0	0
3354	0	0	0
3355	0	0	0
3356	0	0	0
3357	0	0	0
3358	0	0	0
3359	0	0	0
3360	255	237	245
3361	251	223	237
3362	255	229	242
3363	0	0	0
3364	0	0	0
3365	0	0	0
3366	0	0	0
3367	0	0	0
3368	0	0	0
3369	0	0	0
3370	0	0	0
3371	0	0	0
3372	0	0	0
3373	0	0	0
3374	0	0	0
3375	0	0	0
3376	0	0	0
3377	0	0	0
3378	0	0	0
3379	0	0	0
3380	0	0	0
3381	0	0	0
3382	0	0	0
3383	0	0	0
3384	0	0	0
3385	0	0	0
3386	0	0	0
3387	0	0	0
3388	0	0	0
3389	0	0	0
3390	0	0	0
3391	0	0	0
3392	0	0	0
3393	0	0	0
3394	0	0	0
3395	0	0	0
3396	0	0	0
3397	0	0	0
3398	0	0	0
3399	0	0	0
3400	0	0	0
3401	0	0	0
3402	0	0	0
3403	0	0	0
3404	0	0	0
3405	0	0	0
3406	0	0	0
3407	0	0	0
3408	0	0	0
3409	254	216	242
3410	255	213	243
3411	253	208	242
3412	250	200	238
3413	255	210	245
3414	254	198	239
3415	255	194	241
3416	255	195	244
3417	247	173	229
3418	248	172	230
3419	254	180	238
3420	255	184	240
3421	255	184	238
3422	255	179	234
3423	250	170	231
3424	253	172	233
3425	255	180	238
3426	255	176	236
3427	247	163	229
3428	252	172	235
3429	252	174	232
3430	253	179	233
3431	255	189	239
3432	255	187	235
3433	254	189	233
3434	255	197	237
3435	255	195	238
3436	255	196	236
3437	254	198	232
3438	249	194	227
3439	251	199	231
3440	252	204	233
3441	255	219	240
3442	255	221	240
3443	253	211	236
3444	254	213	238
3445	252	213	236
3446	251	216	235
3447	255	227	239
3448	254	225	237
3449	255	229	241
3450	252	227	239
3451	249	226	235
3452	0	0	0
3453	0	0	0
3454	0	0	0
3455	0	0	0
3456	0	0	0
3457	0	0	0
3458	0	0	0
3459	0	0	0
3460	0	0	0
3461	251	231	240
3462	0	0	0
3463	0	0	0
3464	0	0	0
3465	0	0	0
3466	0	0	0
3467	0	0	0
3468	0	0	0
3469	0	0	0
3470	0	0	0
3471	0	0	0
3472	0	0	0
3473	0	0	0
3474	0	0	0
3475	0	0	0
3476	0	0	0
3477	0	0	0
3478	0	0	0
3479	0	0	0
3480	0	0	0
3481	0	0	0
3482	0	0	0
3483	0	0	0
3484	0	0	0
3485	0	0	0
3486	0	0	0
3487	0	0	0
3488	0	0	0
3489	0	0	0
3490	0	0	0
3491	0	0	0
3492	0	0	0
3493	0	0	0
3494	0	0	0
3495	0	0	0
3496	0	0	0
3497	0	0	0
3498	0	0	0
3499	0	0	0
3500	0	0	0
3501	0	0	0
3502	0	0	0
3503	0	0	0
3504	0	0	0
3505	0	0	0
3506	0	0	0
3507	0	0	0
3508	255	221	242
3509	251	210	237
3510	251	206	238
3511	249	200	237
3512	255	208	244
3513	255	217	250
3514	255	209	245
3515	255	204	245
3516	253	186	236
3517	241	165	224
3518	250	176	233
3519	255	182	237
3520	255	182	236
3521	255	184	238
3522	253	175	233
3523	247	166	228
3524	254	174	234
3525	255	181	239
3526	250	168	230
3527	241	155	223
3528	245	163	227
3529	245	165	225
3530	249	175	229
3531	255	185	237
3532	254	187	237
3533	254	189	234
3534	252	187	233
3535	249	185	233
3536	250	189	235
3537	249	191	230
3538	249	195	230
3539	252	201	236
3540	255	215	243
3541	255	229	247
3542	255	215	237
3543	249	205	234
3544	251	210	238
3545	248	209	234
3546	252	218	237
3547	255	230	241
3548	255	231	241
3549	0	0	0
3550	0	0	0
3551	0	0	0
3552	0	0	0
3553	0	0	0
3554	0	0	0
3555	0	0	0
3556	0	0	0
3557	0	0	0
3558	0	0	0
3559	0	0	0
3560	0	0	0
3561	0	0	0
3562	0	0	0
3563	0	0	0
3564	0	0	0
3565	0	0	0
3566	0	0	0
3567	0	0	0
3568	0	0	0
3569	0	0	0
3570	0	0	0
3571	0	0	0
3572	0	0	0
3573	0	0	0
3574	0	0	0
3575	0	0	0
3576	0	0	0
3577	0	0	0
3578	0	0	0
3579	0	0	0
3580	0	0	0
3581	0	0	0
3582	0	0	0
3583	0	0	0
3584	0	0	0
3585	0	0	0
3586	0	0	0
3587	0	0	0
3588	0	0	0
3589	0	0	0
3590	0	0	0
3591	0	0	0
3592	0	0	0
3593	0	0	0
3594	0	0	0
3595	0	0	0
3596	0	0	0
3597	0	0	0
3598	0	0	0
3599	0	0	0
3600	0	0	0
3601	0	0	0
3602	0	0	0
3603	0	0	0
3604	0	0	0
3605	0	0	0
3606	0	0	0
3607	255	226	246
3608	251	212	238
3609	252	210	239
3610	252	206	239
3611	253	204	240
3612	255	212	247
3613	255	208	244
3614	255	199	239
3615	253	191	236
3616	243	172	226
3617	251	182	235
3618	255	192	244
3619	254	183	236
3620	255	183	236
3621	255	186	238
3622	254	178	234
3623	249	170	229
3624	255	179	236
3625	255	179	236
3626	248	167	227
3627	249	170	230
3628	254	178	235
3629	254	180	234
3630	255	190	239
3631	254	186	236
3632	254	188	236
3633	255	196	239
3634	255	194	238
3635	249	185	234
3636	250	190	236
3637	255	200	237
3638	255	204	237
3639	255	208	240
3640	255	221	248
3641	255	221	242
3642	250	208	232
3643	252	211	239
3644	254	215	242
3645	249	212	236
3646	252	221	238
3647	255	237	246
3648	255	238	245
3649	0	0	0
3650	0	0	0
3651	0	0	0
3652	0	0	0
3653	0	0	0
3654	0	0	0
3655	0	0	0
3656	0	0	0
3657	0	0	0
3658	0	0	0
3659	0	0	0
3660	0	0	0
3661	0	0	0
3662	0	0	0
3663	0	0	0
3664	0	0	0
3665	0	0	0
3666	0	0	0
3667	0	0	0
3668	0	0	0
3669	0	0	0
3670	0	0	0
3671	0	0	0
3672	0	0	0
3673	0	0	0
3674	0	0	0
3675	0	0	0
3676	0	0	0
3677	0	0	0
3678	0	0	0
3679	0	0	0
3680	0	0	0
3681	0	0	0
3682	0	0	0
3683	0	0	0
3684	0	0	0
3685	0	0	0
3686	0	0	0
3687	0	0	0
3688	0	0	0
3689	0	0	0
3690	0	0	0
3691	0	0	0
3692	0	0	0
3693	0	0	0
3694	0	0	0
3695	0	0	0
3696	0	0	0
3697	0	0	0
3698	0	0	0
3699	0	0	0
3700	0	0	0
3701	0	0	0
3702	0	0	0
3703	0	0	0
3704	0	0	0
3705	0	0	0
3706	255	224	245
3707	253	217	241
3708	253	212	240
3709	254	210	241
3710	255	209	242
3711	255	206	240
3712	255	203	240
3713	254	199	240
3714	249	189	235
3715	246	181	232
3716	254	189	239
3717	255	197	245
3718	255	191	242
3719	253	183	237
3720	255	184	237
3721	255	186	235
3722	253	178	229
3723	249	172	227
3724	252	175	231
3725	253	176	231
3726	254	179	232
3727	255	181	234
3728	255	187	237
3729	255	190	239
3730	254	186	235
3731	248	181	229
3732	252	188	232
3733	255	198	237
3734	251	189	232
3735	244	181	230
3736	253	196	240
3737	255	208	241
3738	255	209	238
3739	255	212	239
3740	255	213	239
3741	255	214	237
3742	251	212	235
3743	251	213	238
3744	249	213	237
3745	245	211	233
3746	253	226	240
3747	255	241	246
3748	253	230	237
3749	0	0	0
3750	0	0	0
3751	0	0	0
3752	0	0	0
3753	0	0	0
3754	0	0	0
3755	0	0	0
3756	0	0	0
3757	0	0	0
3758	0	0	0
3759	0	0	0
3760	0	0	0
3761	0	0	0
3762	0	0	0
3763	0	0	0
3764	0	0	0
3765	0	0	0
3766	0	0	0
3767	0	0	0
3768	0	0	0
3769	0	0	0
3770	0	0	0
3771	0	0	0
3772	0	0	0
3773	0	0	0
3774	0	0	0
3775	0	0	0
3776	0	0	0
3777	0	0	0
3778	0	0	0
3779	0	0	0
3780	0	0	0
3781	0	0	0
3782	0	0	0
3783	0	0	0
3784	0	0	0
3785	0	0	0
3786	0	0	0
3787	0	0	0
3788	0	0	0
3789	0	0	0
3790	0	0	0
3791	0	0	0
3792	0	0	0
3793	0	0	0
3794	0	0	0
3795	0	0	0
3796	0	0	0
3797	0	0	0
3798	0	0	0
3799	0	0	0
3800	0	0	0
3801	0	0	0
3802	0	0	0
3803	0	0	0
3804	0	0	0
3805	255	225	246
3806	252	215	240
3807	255	219	243
3808	255	215	242
3809	255	212	243
3810	255	210	244
3811	254	204	240
3812	254	201	240
3813	252	195	239
3814	246	185	233
3815	255	197	242
3816	255	204	248
3817	255	192	239
3818	253	186	235
3819	252	183	236
3820	254	185	236
3821	255	189	235
3822	253	182	229
3823	250	175	228
3824	253	178	231
3825	254	180	232
3826	255	184	233
3827	253	181	231
3828	255	186	234
3829	255	191	238
3830	253	187	235
3831	252	189	233
3832	255	197	236
3833	255	205	239
3834	254	196	234
3835	247	187	232
3836	255	203	242
3837	255	211	242
3838	255	213	239
3839	255	210	236
3840	254	211	236
3841	251	212	234
3842	247	209	232
3843	254	223	241
3844	250	222	239
3845	252	228	241
3846	255	245	250
3847	255	235	241
3848	246	223	232
3849	0	0	0
3850	0	0	0
3851	0	0	0
3852	0	0	0
3853	0	0	0
3854	0	0	0
3855	0	0	0
3856	0	0	0
3857	0	0	0
3858	0	0	0
3859	0	0	0
3860	0	0	0
3861	0	0	0
3862	0	0	0
3863	0	0	0
3864	0	0	0
3865	0	0	0
3866	0	0	0
3867	0	0	0
3868	0	0	0
3869	0	0	0
3870	0	0	0
3871	0	0	0
3872	0	0	0
3873	0	0	0
3874	0	0	0
3875	0	0	0
3876	0	0	0
3877	0	0	0
3878	0	0	0
3879	0	0	0
3880	0	0	0
3881	0	0	0
3882	0	0	0
3883	0	0	0
3884	0	0	0
3885	0	0	0
3886	0	0	0
3887	0	0	0
3888	0	0	0
3889	0	0	0
3890	0	0	0
3891	0	0	0
3892	0	0	0
3893	0	0	0
3894	0	0	0
3895	0	0	0
3896	0	0	0
3897	0	0	0
3898	0	0	0
3899	0	0	0
3900	0	0	0
3901	0	0	0
3902	0	0	0
3903	0	0	0
3904	255	225	244
3905	252	216	241
3906	254	218	242
3907	255	221	241
3908	255	215	238
3909	255	211	241
3910	254	206	242
3911	253	201	242
3912	252	197	241
3913	248	190	236
3914	255	201	243
3915	255	211	248
3916	255	198	238
3917	250	187	231
3918	251	185	232
3919	250	182	233
3920	254	187	235
3921	255	192	235
3922	252	183	228
3923	249	177	228
3924	253	183	233
3925	254	184	233
3926	253	184	232
3927	251	182	232
3928	253	187	235
3929	255	192	238
3930	255	195	239
3931	255	198	238
3932	255	204	239
3933	255	211	242
3934	255	202	235
3935	248	192	232
3936	255	205	240
3937	255	214	242
3938	254	210	236
3939	251	207	232
3940	250	209	232
3941	248	209	230
3942	253	221	238
3943	0	0	0
3944	0	0	0
3945	0	0	0
3946	0	0	0
3947	247	227	235
3948	0	0	0
3949	0	0	0
3950	0	0	0
3951	0	0	0
3952	0	0	0
3953	0	0	0
3954	0	0	0
3955	0	0	0
3956	0	0	0
3957	0	0	0
3958	0	0	0
3959	0	0	0
3960	0	0	0
3961	0	0	0
3962	0	0	0
3963	0	0	0
3964	0	0	0
3965	0	0	0
3966	0	0	0
3967	0	0	0
3968	0	0	0
3969	0	0	0
3970	0	0	0
3971	0	0	0
3972	0	0	0
3973	0	0	0
3974	0	0	0
3975	0	0	0
3976	0	0	0
3977	0	0	0
3978	0	0	0
3979	0	0	0
3980	0	0	0
3981	0	0	0
3982	0	0	0
3983	0	0	0
3984	0	0	0
3985	0	0	0
3986	0	0	0
3987	0	0	0
3988	0	0	0
3989	0	0	0
3990	0	0	0
3991	0	0	0
3992	0	0	0
3993	0	0	0
3994	0	0	0
3995	0	0	0
3996	0	0	0
3997	0	0	0
3998	0	0	0
3999	0	0	0
4000	0	0	0
4001	0	0	0
4002	0	0	0
4003	255	230	247
4004	254	221	241
4005	250	213	239
4006	253	215	241
4007	255	220	240
4008	254	213	236
4009	255	210	240
4010	254	206	242
4011	254	203	244
4012	252	198	241
4013	252	197	238
4014	255	207	243
4015	255	204	240
4016	250	191	230
4017	253	192	233
4018	253	191	235
4019	251	187	233
4020	254	191	235
4021	255	200	238
4022	254	191	231
4023	253	186	232
4024	255	192	237
4025	254	188	233
4026	253	188	232
4027	251	186	232
4028	253	191	235
4029	255	202	241
4030	255	205	242
4031	253	197	234
4032	255	203	237
4033	255	211	240
4034	253	202	234
4035	248	197	231
4036	255	210	240
4037	255	215	241
4038	254	211	236
4039	251	210	233
4040	250	211	232
4041	254	221	237
4042	0	0	0
4043	0	0	0
4044	0	0	0
4045	0	0	0
4046	0	0	0
4047	0	0	0
4048	0	0	0
4049	0	0	0
4050	0	0	0
4051	0	0	0
4052	0	0	0
4053	0	0	0
4054	0	0	0
4055	0	0	0
4056	0	0	0
4057	0	0	0
4058	0	0	0
4059	0	0	0
4060	0	0	0
4061	0	0	0
4062	0	0	0
4063	0	0	0
4064	0	0	0
4065	0	0	0
4066	0	0	0
4067	0	0	0
4068	0	0	0
4069	0	0	0
4070	0	0	0
4071	0	0	0
4072	0	0	0
4073	0	0	0
4074	0	0	0
4075	0	0	0
4076	0	0	0
4077	0	0	0
4078	0	0	0
4079	0	0	0
4080	0	0	0
4081	0	0	0
4082	0	0	0
4083	0	0	0
4084	0	0	0
4085	0	0	0
4086	0	0	0
4087	0	0	0
4088	0	0	0
4089	0	0	0
4090	0	0	0
4091	0	0	0
4092	0	0	0
4093	0	0	0
4094	0	0	0
4095	0	0	0
4096	0	0	0
4097	0	0	0
4098	0	0	0
4099	0	0	0
4100	0	0	0
4101	0	0	0
4102	255	230	246
4103	255	225	243
4104	251	217	238
4105	248	209	236
4106	252	214	241
4107	255	219	243
4108	253	212	239
4109	254	209	241
4110	253	205	240
4111	252	201	239
4112	255	203	240
4113	254	202	234
4114	253	200	232
4115	254	198	234
4116	254	198	236
4117	255	199	237
4118	255	196	236
4119	252	191	234
4120	255	200	238
4121	255	208	240
4122	255	200	234
4123	255	194	234
4124	255	193	235
4125	252	190	230
4126	250	189	228
4127	248	187	227
4128	254	198	233
4129	255	208	237
4130	253	201	232
4131	248	195	228
4132	253	203	234
4133	255	211	239
4134	253	205	234
4135	247	200	230
4136	251	207	235
4137	254	213	239
4138	252	212	237
4139	248	210	233
4140	253	221	237
4141	0	0	0
4142	0	0	0
4143	0	0	0
4144	0	0	0
4145	0	0	0
4146	0	0	0
4147	0	0	0
4148	0	0	0
4149	0	0	0
4150	0	0	0
4151	0	0	0
4152	0	0	0
4153	0	0	0
4154	0	0	0
4155	0	0	0
4156	0	0	0
4157	0	0	0
4158	0	0	0
4159	0	0	0
4160	0	0	0
4161	0	0	0
4162	0	0	0
4163	0	0	0
4164	0	0	0
4165	0	0	0
4166	0	0	0
4167	0	0	0
4168	0	0	0
4169	0	0	0
4170	0	0	0
4171	0	0	0
4172	0	0	0
4173	0	0	0
4174	0	0	0
4175	0	0	0
4176	0	0	0
4177	0	0	0
4178	0	0	0
4179	0	0	0
4180	0	0	0
4181	0	0	0
4182	0	0	0
4183	0	0	0
4184	0	0	0
4185	0	0	0
4186	0	0	0
4187	0	0	0
4188	0	0	0
4189	0	0	0
4190	0	0	0
4191	0	0	0
4192	0	0	0
4193	0	0	0
4194	0	0	0
4195	0	0	0
4196	0	0	0
4197	0	0	0
4198	0	0	0
4199	0	0	0
4200	0	0	0
4201	0	0	0
4202	252	223	240
4203	254	223	240
4204	250	215	236
4205	253	216	240
4206	255	222	246
4207	255	218	243
4208	252	211	239
4209	255	215	244
4210	255	210	242
4211	255	208	241
4212	255	209	241
4213	251	200	230
4214	250	197	229
4215	255	201	236
4216	255	201	238
4217	255	202	238
4218	255	198	236
4219	251	192	233
4220	255	201	237
4221	255	203	235
4222	252	195	229
4223	254	197	233
4224	253	196	233
4225	252	195	231
4226	250	194	229
4227	255	203	233
4228	255	213	239
4229	254	205	231
4230	248	198	226
4231	254	208	234
4232	255	217	241
4233	254	210	236
4234	249	205	232
4235	253	212	236
4236	255	219	241
4237	255	219	241
4238	253	219	240
4239	251	220	238
4240	0	0	0
4241	0	0	0
4242	0	0	0
4243	0	0	0
4244	0	0	0
4245	0	0	0
4246	0	0	0
4247	0	0	0
4248	0	0	0
4249	0	0	0
4250	0	0	0
4251	0	0	0
4252	0	0	0
4253	0	0	0
4254	0	0	0
4255	0	0	0
4256	0	0	0
4257	0	0	0
4258	0	0	0
4259	0	0	0
4260	0	0	0
4261	0	0	0
4262	0	0	0
4263	0	0	0
4264	0	0	0
4265	0	0	0
4266	0	0	0
4267	0	0	0
4268	0	0	0
4269	0	0	0
4270	0	0	0
4271	0	0	0
4272	0	0	0
4273	0	0	0
4274	0	0	0
4275	0	0	0
4276	0	0	0
4277	0	0	0
4278	0	0	0
4279	0	0	0
4280	0	0	0
4281	0	0	0
4282	0	0	0
4283	0	0	0
4284	0	0	0
4285	0	0	0
4286	0	0	0
4287	0	0	0
4288	0	0	0
4289	0	0	0
4290	0	0	0
4291	0	0	0
4292	0	0	0
4293	0	0	0
4294	0	0	0
4295	0	0	0
4296	0	0	0
4297	0	0	0
4298	0	0	0
4299	0	0	0
4300	0	0	0
4301	249	219	239
4302	250	219	239
4303	252	219	238
4304	254	221	239
4305	255	222	241
4306	254	218	239
4307	252	214	238
4308	255	216	240
4309	255	220	244
4310	255	216	243
4311	255	213	241
4312	253	206	237
4313	248	197	230
4314	252	201	234
4315	254	203	237
4316	255	204	238
4317	255	205	239
4318	254	200	236
4319	250	194	233
4320	253	198	235
4321	254	201	234
4322	252	198	231
4323	253	200	233
4324	254	201	235
4325	254	201	235
4326	255	211	239
4327	0	0	0
4328	254	209	232
4329	247	201	228
4330	252	210	234
4331	0	0	0
4332	0	0	0
4333	244	204	228
4334	248	212	234
4335	252	220	237
4336	252	221	238
4337	251	221	239
4338	254	226	242
4339	252	227	241
4340	253	234	242
4341	0	0	0
4342	0	0	0
4343	0	0	0
4344	0	0	0
4345	0	0	0
4346	0	0	0
4347	0	0	0
4348	0	0	0
4349	0	0	0
4350	0	0	0
4351	0	0	0
4352	0	0	0
4353	0	0	0
4354	0	0	0
4355	0	0	0
4356	0	0	0
4357	0	0	0
4358	0	0	0
4359	0	0	0
4360	0	0	0
4361	0	0	0
4362	0	0	0
4363	0	0	0
4364	0	0	0
4365	0	0	0
4366	0	0	0
4367	0	0	0
4368	0	0	0
4369	0	0	0
4370	0	0	0
4371	0	0	0
4372	0	0	0
4373	0	0	0
4374	0	0	0
4375	0	0	0
4376	0	0	0
4377	0	0	0
4378	0	0	0
4379	0	0	0
4380	0	0	0
4381	0	0	0
4382	0	0	0
4383	0	0	0
4384	0	0	0
4385	0	0	0
4386	0	0	0
4387	0	0	0
4388	0	0	0
4389	0	0	0
4390	0	0	0
4391	0	0	0
4392	0	0	0
4393	0	0	0
4394	0	0	0
4395	0	0	0
4396	0	0	0
4397	0	0	0
4398	0	0	0
4399	0	0	0
4400	0	0	0
4401	0	0	0
4402	255	231	246
4403	251	219	238
4404	253	220	238
4405	255	224	241
4406	254	219	239
4407	253	217	238
4408	255	219	240
4409	255	221	243
4410	255	217	241
4411	253	209	237
4412	249	203	234
4413	255	209	240
4414	255	213	243
4415	254	205	238
4416	255	206	238
4417	255	206	239
4418	253	201	237
4419	251	198	235
4420	253	202	237
4421	255	208	238
4422	255	206	235
4423	255	209	237
4424	255	210	238
4425	249	200	232
4426	254	209	236
4427	0	0	0
4428	0	0	0
4429	253	215	235
4430	0	0	0
4431	0	0	0
4432	0	0	0
4433	0	0	0
4434	254	230	242
4435	252	230	240
4436	254	231	241
4437	254	231	242
4438	255	237	246
4439	255	237	245
4440	0	0	0
4441	0	0	0
4442	0	0	0
4443	0	0	0
4444	0	0	0
4445	0	0	0
4446	0	0	0
4447	0	0	0
4448	0	0	0
4449	0	0	0
4450	0	0	0
4451	0	0	0
4452	0	0	0
4453	0	0	0
4454	0	0	0
4455	0	0	0
4456	0	0	0
4457	0	0	0
4458	0	0	0
4459	0	0	0
4460	0	0	0
4461	0	0	0
4462	0	0	0
4463	0	0	0
4464	0	0	0
4465	0	0	0
4466	0	0	0
4467	0	0	0
4468	0	0	0
4469	0	0	0
4470	0	0	0
4471	0	0	0
4472	0	0	0
4473	0	0	0
4474	0	0	0
4475	0	0	0
4476	0	0	0
4477	0	0	0
4478	0	0	0
4479	0	0	0
4480	0	0	0
4481	0	0	0
4482	0	0	0
4483	0	0	0
4484	0	0	0
4485	0	0	0
4486	0	0	0
4487	0	0	0
4488	0	0	0
4489	0	0	0
4490	0	0	0
4491	0	0	0
4492	0	0	0
4493	0	0	0
4494	0	0	0
4495	0	0	0
4496	0	0	0
4497	0	0	0
4498	0	0	0
4499	0	0	0
4500	0	0	0
4501	0	0	0
4502	254	228	242
4503	248	216	235
4504	253	222	241
4505	255	226	246
4506	255	223	244
4507	254	220	241
4508	255	220	241
4509	255	221	241
4510	252	213	236
4511	249	207	235
4512	255	215	243
4513	255	221	247
4514	255	214	243
4515	253	207	239
4516	254	207	240
4517	254	207	241
4518	253	205	239
4519	250	202	237
4520	254	208	239
4521	255	213	238
4522	255	213	236
4523	255	216	240
4524	251	208	235
4525	242	197	226
4526	249	209	232
4527	0	0	0
4528	0	0	0
4529	0	0	0
4530	0	0	0
4531	0	0	0
4532	0	0	0
4533	0	0	0
4534	0	0	0
4535	0	0	0
4536	0	0	0
4537	0	0	0
4538	0	0	0
4539	0	0	0
4540	0	0	0
4541	0	0	0
4542	0	0	0
4543	0	0	0
4544	0	0	0
4545	0	0	0
4546	0	0	0
4547	0	0	0
4548	0	0	0
4549	0	0	0
4550	0	0	0
4551	0	0	0
4552	0	0	0
4553	0	0	0
4554	0	0	0
4555	0	0	0
4556	0	0	0
4557	0	0	0
4558	0	0	0
4559	0	0	0
4560	0	0	0
4561	0	0	0
4562	0	0	0
4563	0	0	0
4564	0	0	0
4565	0	0	0
4566	0	0	0
4567	0	0	0
4568	0	0	0
4569	0	0	0
4570	0	0	0
4571	0	0	0
4572	0	0	0
4573	0	0	0
4574	0	0	0
4575	0	0	0
4576	0	0	0
4577	0	0	0
4578	0	0	0
4579	0	0	0
4580	0	0	0
4581	0	0	0
4582	0	0	0
4583	0	0	0
4584	0	0	0
4585	0	0	0
4586	0	0	0
4587	0	0	0
4588	0	0	0
4589	0	0	0
4590	0	0	0
4591	0	0	0
4592	0	0	0
4593	0	0	0
4594	0	0	0
4595	0	0	0
4596	0	0	0
4597	0	0	0
4598	0	0	0
4599	0	0	0
4600	0	0	0
4601	0	0	0
4602	0	0	0
4603	250	223	240
4604	255	230	247
4605	255	225	244
4606	254	222	243
4607	254	221	242
4608	253	220	241
4609	255	224	242
4610	251	215	236
4611	254	217	241
4612	255	225	248
4613	255	215	242
4614	251	208	238
4615	254	211	241
4616	255	211	241
4617	255	211	242
4618	252	208	239
4619	255	214	241
4620	255	220	242
4621	255	216	236
4622	254	216	235
4623	255	220	239
4624	249	211	233
4625	250	214	235
4626	0	0	0
4627	0	0	0
4628	0	0	0
4629	0	0	0
4630	0	0	0
4631	0	0	0
4632	0	0	0
4633	0	0	0
4634	0	0	0
4635	0	0	0
4636	0	0	0
4637	0	0	0
4638	0	0	0
4639	0	0	0
4640	0	0	0
4641	0	0	0
4642	0	0	0
4643	0	0	0
4644	0	0	0
4645	0	0	0
4646	0	0	0
4647	0	0	0
4648	0	0	0
4649	0	0	0
4650	0	0	0
4651	0	0	0
4652	0	0	0
4653	0	0	0
4654	0	0	0
4655	0	0	0
4656	0	0	0
4657	0	0	0
4658	0	0	0
4659	0	0	0
4660	0	0	0
4661	0	0	0
4662	0	0	0
4663	0	0	0
4664	0	0	0
4665	0	0	0
4666	0	0	0
4667	0	0	0
4668	0	0	0
4669	0	0	0
4670	0	0	0
4671	0	0	0
4672	0	0	0
4673	0	0	0
4674	0	0	0
4675	0	0	0
4676	0	0	0
4677	0	0	0
4678	0	0	0
4679	0	0	0
4680	0	0	0
4681	0	0	0
4682	0	0	0
4683	0	0	0
4684	0	0	0
4685	0	0	0
4686	0	0	0
4687	0	0	0
4688	0	0	0
4689	0	0	0
4690	0	0	0
4691	0	0	0
4692	0	0	0
4693	0	0	0
4694	0	0	0
4695	0	0	0
4696	0	0	0
4697	0	0	0
4698	0	0	0
4699	0	0	0
4700	0	0	0
4701	0	0	0
4702	0	0	0
4703	0	0	0
4704	255	228	245
4705	253	222	241
4706	254	223	242
4707	254	223	243
4708	255	226	244
4709	255	229	246
4710	255	228	245
4711	255	228	245
4712	254	218	239
4713	249	209	237
4714	253	213	241
4715	255	215	242
4716	255	216	241
4717	255	216	241
4718	255	221	242
4719	255	226	241
4720	255	223	237
4721	254	220	234
4722	253	221	235
4723	254	224	238
4724	254	227	240
4725	255	230	242
4726	0	0	0
4727	0	0	0
4728	0	0	0
4729	0	0	0
4730	0	0	0
4731	0	0	0
4732	0	0	0
4733	0	0	0
4734	0	0	0
4735	0	0	0
4736	0	0	0
4737	0	0	0
4738	0	0	0
4739	0	0	0
4740	0	0	0
4741	0	0	0
4742	0	0	0
4743	0	0	0
4744	0	0	0
4745	0	0	0
4746	0	0	0
4747	0	0	0
4748	0	0	0
4749	0	0	0
4750	0	0	0
4751	0	0	0
4752	0	0	0
4753	0	0	0
4754	0	0	0
4755	0	0	0
4756	0	0	0
4757	0	0	0
4758	0	0	0
4759	0	0	0
4760	0	0	0
4761	0	0	0
4762	0	0	0
4763	0	0	0
4764	0	0	0
4765	0	0	0
4766	0	0	0
4767	0	0	0
4768	0	0	0
4769	0	0	0
4770	0	0	0
4771	0	0	0
4772	0	0	0
4773	0	0	0
4774	0	0	0
4775	0	0	0
4776	0	0	0
4777	0	0	0
4778	0	0	0
4779	0	0	0
4780	0	0	0
4781	0	0	0
4782	0	0	0
4783	0	0	0
4784	0	0	0
4785	0	0	0
4786	0	0	0
4787	0	0	0
4788	0	0	0
4789	0	0	0
4790	0	0	0
4791	0	0	0
4792	0	0	0
4793	0	0	0
4794	0	0	0
4795	0	0	0
4796	0	0	0
4797	0	0	0
4798	0	0	0
4799	0	0	0
4800	0	0	0
4801	0	0	0
4802	0	0	0
4803	0	0	0
4804	255	229	244
4805	253	223	240
4806	254	224	241
4807	255	228	245
4808	255	230	247
4809	255	223	242
4810	254	222	241
4811	255	223	240
4812	248	213	233
4813	254	220	243
4814	255	223	247
4815	253	216	240
4816	253	216	239
4817	252	215	238
4818	254	220	238
4819	255	225	237
4820	253	222	233
4821	253	223	234
4822	251	224	234
4823	252	230	239
4824	253	232	241
4825	0	0	0
4826	0	0	0
4827	0	0	0
4828	0	0	0
4829	0	0	0
4830	0	0	0
4831	0	0	0
4832	0	0	0
4833	0	0	0
4834	0	0	0
4835	0	0	0
4836	0	0	0
4837	0	0	0
4838	0	0	0
4839	0	0	0
4840	0	0	0
4841	0	0	0
4842	0	0	0
4843	0	0	0
4844	0	0	0
4845	0	0	0
4846	0	0	0
4847	0	0	0
4848	0	0	0
4849	0	0	0
4850	0	0	0
4851	0	0	0
4852	0	0	0
4853	0	0	0
4854	0	0	0
4855	0	0	0
4856	0	0	0
4857	0	0	0
4858	0	0	0
4859	0	0	0
4860	0	0	0
4861	0	0	0
4862	0	0	0
4863	0	0	0
4864	0	0	0
4865	0	0	0
4866	0	0	0
4867	0	0	0
4868	0	0	0
4869	0	0	0
4870	0	0	0
4871	0	0	0
4872	0	0	0
4873	0	0	0
4874	0	0	0
4875	0	0	0
4876	0	0	0
4877	0	0	0
4878	0	0	0
4879	0	0	0
4880	0	0	0
4881	0	0	0
4882	0	0	0
4883	0	0	0
4884	0	0	0
4885	0	0	0
4886	0	0	0
4887	0	0	0
4888	0	0	0
4889	0	0	0
4890	0	0	0
4891	0	0	0
4892	0	0	0
4893	0	0	0
4894	0	0	0
4895	0	0	0
4896	0	0	0
4897	0	0	0
4898	0	0	0
4899	0	0	0
4900	0	0	0
4901	0	0	0
4902	0	0	0
4903	0	0	0
4904	255	230	243
4905	252	224	239
4906	255	228	243
4907	255	231	246
4908	254	224	241
4909	249	217	238
4910	253	221	241
4911	254	222	240
4912	253	224	241
4913	255	230	247
4914	252	222	242
4915	247	214	235
4916	248	215	236
4917	246	213	234
4918	249	219	236
4919	252	225	237
4920	252	226	236
4921	250	226	233
4922	251	232	237
4923	0	0	0
4924	0	0	0
4925	0	0	0
4926	0	0	0
4927	0	0	0
4928	0	0	0
4929	0	0	0
4930	0	0	0
4931	0	0	0
4932	0	0	0
4933	0	0	0
4934	0	0	0
4935	0	0	0
4936	0	0	0
4937	0	0	0
4938	0	0	0
4939	0	0	0
4940	0	0	0
4941	0	0	0
4942	0	0	0
4943	0	0	0
4944	0	0	0
4945	0	0	0
4946	0	0	0
4947	0	0	0
4948	0	0	0
4949	0	0	0
4950	0	0	0
4951	0	0	0
4952	0	0	0
4953	0	0	0
4954	0	0	0
4955	0	0	0
4956	0	0	0
4957	0	0	0
4958	0	0	0
4959	0	0	0
4960	0	0	0
4961	0	0	0
4962	0	0	0
4963	0	0	0
4964	0	0	0
4965	0	0	0
4966	0	0	0
4967	0	0	0
4968	0	0	0
4969	0	0	0
4970	0	0	0
4971	0	0	0
4972	0	0	0
4973	0	0	0
4974	0	0	0
4975	0	0	0
4976	0	0	0
4977	0	0	0
4978	0	0	0
4979	0	0	0
4980	0	0	0
4981	0	0	0
4982	0	0	0
4983	0	0	0
4984	0	0	0
4985	0	0	0
4986	0	0	0
4987	0	0	0
4988	0	0	0
4989	0	0	0
4990	0	0	0
4991	0	0	0
4992	0	0	0
4993	0	0	0
4994	0	0	0
4995	0	0	0
4996	0	0	0
4997	0	0	0
4998	0	0	0
4999	0	0	0
5000	0	0	0
5001	0	0	0
5002	0	0	0
5003	0	0	0
5004	252	227	241
5005	251	225	240
5006	255	230	244
5007	255	229	243
5008	250	222	239
5009	253	224	244
5010	255	228	247
5011	249	218	237
5012	246	218	235
5013	0	0	0
5014	248	223	238
5015	250	225	240
5016	252	227	241
5017	250	226	240
5018	250	231	242
5019	252	235	242
5020	253	236	241
5021	249	232	236
5022	0	0	0
5023	0	0	0
5024	0	0	0
5025	0	0	0
5026	0	0	0
5027	0	0	0
5028	0	0	0
5029	0	0	0
5030	0	0	0
5031	0	0	0
5032	0	0	0
5033	0	0	0
5034	0	0	0
5035	0	0	0
5036	0	0	0
5037	0	0	0
5038	0	0	0
5039	0	0	0
5040	0	0	0
5041	0	0	0
5042	0	0	0
5043	0	0	0
5044	0	0	0
5045	0	0	0
5046	0	0	0
5047	0	0	0
5048	0	0	0
5049	0	0	0
5050	0	0	0
5051	0	0	0
5052	0	0	0
5053	0	0	0
5054	0	0	0
5055	0	0	0
5056	0	0	0
5057	0	0	0
5058	0	0	0
5059	0	0	0
5060	0	0	0
5061	0	0	0
5062	0	0	0
5063	0	0	0
5064	0	0	0
5065	0	0	0
5066	0	0	0
5067	0	0	0
5068	0	0	0
5069	0	0	0
5070	0	0	0
5071	0	0	0
5072	0	0	0
5073	0	0	0
5074	0	0	0
5075	0	0	0
5076	0	0	0
5077	0	0	0
5078	0	0	0
5079	0	0	0
5080	0	0	0
5081	0	0	0
5082	0	0	0
5083	0	0	0
5084	0	0	0
5085	0	0	0
5086	0	0	0
5087	0	0	0
5088	0	0	0
5089	0	0	0
5090	0	0	0
5091	0	0	0
5092	0	0	0
5093	0	0	0
5094	0	0	0
5095	0	0	0
5096	0	0	0
5097	0	0	0
5098	0	0	0
5099	0	0	0
5100	0	0	0
5101	0	0	0
5102	0	0	0
5103	0	0	0
5104	251	228	241
5105	250	226	241
5106	251	226	241
5107	251	226	241
5108	253	227	243
5109	255	229	247
5110	250	222	242
5111	241	211	232
5112	248	224	239
5113	0	0	0
5114	0	0	0
5115	0	0	0
5116	0	0	0
5117	0	0	0
5118	0	0	0
5119	0	0	0
5120	0	0	0
5121	0	0	0
5122	0	0	0
5123	0	0	0
5124	0	0	0
5125	0	0	0
5126	0	0	0
5127	0	0	0
5128	0	0	0
5129	0	0	0
5130	0	0	0
5131	0	0	0
5132	0	0	0
5133	0	0	0
5134	0	0	0
5135	0	0	0
5136	0	0	0
5137	0	0	0
5138	0	0	0
5139	0	0	0
5140	0	0	0
5141	0	0	0
5142	0	0	0
5143	0	0	0
5144	0	0	0
5145	0	0	0
5146	0	0	0
5147	0	0	0
5148	0	0	0
5149	0	0	0
5150	0	0	0
5151	0	0	0
5152	0	0	0
5153	0	0	0
5154	0	0	0
5155	0	0	0
5156	0	0	0
5157	0	0	0
5158	0	0	0
5159	0	0	0
5160	0	0	0
5161	0	0	0
5162	0	0	0
5163	0	0	0
5164	0	0	0
5165	0	0	0
5166	0	0	0
5167	0	0	0
5168	0	0	0
5169	0	0	0
5170	0	0	0
5171	0	0	0
5172	0	0	0
5173	0	0	0
5174	0	0	0
5175	0	0	0
5176	0	0	0
5177	0	0	0
5178	0	0	0
5179	0	0	0
5180	0	0	0
5181	0	0	0
5182	0	0	0
5183	0	0	0
5184	0	0	0
5185	0	0	0
5186	0	0	0
5187	0	0	0
5188	0	0	0
5189	0	0	0
5190	0	0	0
5191	0	0	0
5192	0	0	0
5193	0	0	0
5194	0	0	0
5195	0	0	0
5196	0	0	0
5197	0	0	0
5198	0	0	0
5199	0	0	0
5200	0	0	0
5201	0	0	0
5202	0	0	0
5203	0	0	0
5204	0	0	0
5205	251	232	244
5206	251	231	243
5207	252	231	244
5208	255	234	247
5209	251	227	243
5210	241	216	235
5211	250	229	242
5212	0	0	0
5213	0	0	0
5214	0	0	0
5215	0	0	0
5216	0	0	0
5217	0	0	0
5218	0	0	0
5219	0	0	0
5220	0	0	0
5221	0	0	0
5222	0	0	0
5223	0	0	0
5224	0	0	0
5225	0	0	0
5226	0	0	0
5227	0	0	0
5228	0	0	0
5229	0	0	0
5230	0	0	0
5231	0	0	0
5232	0	0	0
5233	0	0	0
5234	0	0	0
5235	0	0	0
5236	0	0	0
5237	0	0	0
5238	0	0	0
5239	0	0	0
5240	0	0	0
5241	0	0	0
5242	0	0	0
5243	0	0	0
5244	0	0	0
5245	0	0	0
5246	0	0	0
5247	0	0	0
5248	0	0	0
5249	0	0	0
5250	0	0	0
5251	0	0	0
5252	0	0	0
5253	0	0	0
5254	0	0	0
5255	0	0	0
5256	0	0	0
5257	0	0	0
5258	0	0	0
5259	0	0	0
5260	0	0	0
5261	0	0	0
5262	0	0	0
5263	0	0	0
5264	0	0	0
5265	0	0	0
5266	0	0	0
5267	0	0	0
5268	0	0	0
5269	0	0	0
5270	0	0	0
5271	0	0	0
5272	0	0	0
5273	0	0	0
5274	0	0	0
5275	0	0	0
5276	0	0	0
5277	0	0	0
5278	0	0	0
5279	0	0	0
5280	0	0	0
5281	0	0	0
5282	0	0	0
5283	0	0	0
5284	0	0	0
5285	0	0	0
5286	0	0	0
5287	0	0	0
5288	0	0	0
5289	0	0	0
5290	0	0	0
5291	0	0	0
5292	0	0	0
5293	0	0	0
5294	0	0	0
5295	0	0	0
5296	0	0	0
5297	0	0	0
5298	0	0	0
5299	0	0	0
5300	0	0	0
