 	R	G	B
1	0	0	0
2	0	0	0
3	0	0	0
4	0	0	0
5	0	0	0
6	0	0	0
7	0	0	0
8	0	0	0
9	0	0	0
10	0	0	0
11	0	0	0
12	0	0	0
13	0	0	0
14	0	0	0
15	0	0	0
16	0	0	0
17	0	0	0
18	0	0	0
19	0	0	0
20	0	0	0
21	0	0	0
22	0	0	0
23	0	0	0
24	0	0	0
25	0	0	0
26	255	211	215
27	0	0	0
28	0	0	0
29	0	0	0
30	0	0	0
31	0	0	0
32	0	0	0
33	0	0	0
34	0	0	0
35	0	0	0
36	0	0	0
37	0	0	0
38	0	0	0
39	0	0	0
40	0	0	0
41	0	0	0
42	0	0	0
43	0	0	0
44	0	0	0
45	0	0	0
46	0	0	0
47	0	0	0
48	0	0	0
49	0	0	0
50	0	0	0
51	0	0	0
52	0	0	0
53	0	0	0
54	0	0	0
55	0	0	0
56	0	0	0
57	0	0	0
58	0	0	0
59	0	0	0
60	0	0	0
61	0	0	0
62	0	0	0
63	0	0	0
64	0	0	0
65	0	0	0
66	0	0	0
67	0	0	0
68	0	0	0
69	0	0	0
70	0	0	0
71	0	0	0
72	0	0	0
73	0	0	0
74	0	0	0
75	0	0	0
76	0	0	0
77	0	0	0
78	0	0	0
79	0	0	0
80	0	0	0
81	255	209	217
82	255	214	219
83	255	210	215
84	254	205	211
85	255	210	215
86	255	214	219
87	255	219	222
88	255	219	217
89	0	0	0
90	0	0	0
91	0	0	0
92	0	0	0
93	0	0	0
94	0	0	0
95	0	0	0
96	0	0	0
97	0	0	0
98	0	0	0
99	0	0	0
100	0	0	0
101	0	0	0
102	0	0	0
103	0	0	0
104	0	0	0
105	0	0	0
106	0	0	0
107	0	0	0
108	0	0	0
109	0	0	0
110	0	0	0
111	0	0	0
112	0	0	0
113	0	0	0
114	0	0	0
115	0	0	0
116	0	0	0
117	0	0	0
118	0	0	0
119	0	0	0
120	0	0	0
121	0	0	0
122	0	0	0
123	0	0	0
124	0	0	0
125	0	0	0
126	0	0	0
127	0	0	0
128	0	0	0
129	0	0	0
130	0	0	0
131	0	0	0
132	0	0	0
133	0	0	0
134	0	0	0
135	0	0	0
136	0	0	0
137	255	207	215
138	255	214	219
139	255	206	214
140	254	203	211
141	253	200	209
142	255	205	213
143	255	205	214
144	255	209	215
145	254	205	207
146	252	204	205
147	0	0	0
148	0	0	0
149	0	0	0
150	0	0	0
151	0	0	0
152	0	0	0
153	0	0	0
154	0	0	0
155	0	0	0
156	0	0	0
157	0	0	0
158	0	0	0
159	0	0	0
160	0	0	0
161	0	0	0
162	0	0	0
163	0	0	0
164	0	0	0
165	0	0	0
166	0	0	0
167	0	0	0
168	0	0	0
169	0	0	0
170	0	0	0
171	0	0	0
172	0	0	0
173	0	0	0
174	0	0	0
175	0	0	0
176	0	0	0
177	0	0	0
178	0	0	0
179	0	0	0
180	0	0	0
181	0	0	0
182	0	0	0
183	0	0	0
184	0	0	0
185	0	0	0
186	0	0	0
187	0	0	0
188	0	0	0
189	0	0	0
190	0	0	0
191	0	0	0
192	0	0	0
193	0	0	0
194	255	210	215
195	253	203	210
196	250	197	208
197	253	198	210
198	252	195	208
199	254	198	210
200	254	197	211
201	253	197	209
202	249	193	203
203	252	199	205
204	0	0	0
205	0	0	0
206	0	0	0
207	0	0	0
208	0	0	0
209	0	0	0
210	0	0	0
211	0	0	0
212	0	0	0
213	0	0	0
214	0	0	0
215	0	0	0
216	0	0	0
217	0	0	0
218	0	0	0
219	0	0	0
220	0	0	0
221	0	0	0
222	0	0	0
223	0	0	0
224	0	0	0
225	0	0	0
226	0	0	0
227	0	0	0
228	0	0	0
229	0	0	0
230	0	0	0
231	0	0	0
232	0	0	0
233	0	0	0
234	0	0	0
235	0	0	0
236	0	0	0
237	0	0	0
238	0	0	0
239	0	0	0
240	0	0	0
241	0	0	0
242	0	0	0
243	0	0	0
244	0	0	0
245	0	0	0
246	0	0	0
247	0	0	0
248	0	0	0
249	249	200	212
250	250	200	210
251	255	215	218
252	255	208	213
253	253	199	209
254	255	201	213
255	253	194	209
256	255	197	211
257	255	196	211
258	255	196	209
259	253	194	206
260	0	0	0
261	0	0	0
262	0	0	0
263	0	0	0
264	0	0	0
265	0	0	0
266	0	0	0
267	0	0	0
268	0	0	0
269	0	0	0
270	0	0	0
271	0	0	0
272	0	0	0
273	0	0	0
274	0	0	0
275	0	0	0
276	0	0	0
277	0	0	0
278	0	0	0
279	0	0	0
280	0	0	0
281	0	0	0
282	0	0	0
283	0	0	0
284	0	0	0
285	0	0	0
286	0	0	0
287	0	0	0
288	0	0	0
289	0	0	0
290	0	0	0
291	0	0	0
292	0	0	0
293	0	0	0
294	0	0	0
295	0	0	0
296	0	0	0
297	0	0	0
298	0	0	0
299	0	0	0
300	0	0	0
301	0	0	0
302	0	0	0
303	0	0	0
304	0	0	0
305	247	201	211
306	239	187	203
307	253	204	215
308	255	219	221
309	255	206	210
310	252	197	206
311	254	196	208
312	252	191	206
313	255	197	211
314	255	196	209
315	255	197	209
316	255	196	209
317	255	203	213
318	0	0	0
319	0	0	0
320	0	0	0
321	0	0	0
322	0	0	0
323	0	0	0
324	0	0	0
325	0	0	0
326	0	0	0
327	0	0	0
328	0	0	0
329	0	0	0
330	0	0	0
331	0	0	0
332	0	0	0
333	0	0	0
334	0	0	0
335	0	0	0
336	0	0	0
337	0	0	0
338	0	0	0
339	0	0	0
340	0	0	0
341	0	0	0
342	0	0	0
343	0	0	0
344	0	0	0
345	0	0	0
346	0	0	0
347	0	0	0
348	0	0	0
349	0	0	0
350	0	0	0
351	0	0	0
352	0	0	0
353	0	0	0
354	0	0	0
355	0	0	0
356	0	0	0
357	0	0	0
358	0	0	0
359	0	0	0
360	0	0	0
361	0	0	0
362	0	0	0
363	247	201	212
364	255	220	225
365	255	212	216
366	250	198	204
367	255	205	211
368	255	205	214
369	253	187	204
370	255	193	211
371	246	174	196
372	248	176	197
373	255	191	207
374	255	197	210
375	250	184	199
376	0	0	0
377	255	204	211
378	0	0	0
379	0	0	0
380	0	0	0
381	0	0	0
382	0	0	0
383	0	0	0
384	0	0	0
385	0	0	0
386	0	0	0
387	0	0	0
388	0	0	0
389	0	0	0
390	0	0	0
391	0	0	0
392	0	0	0
393	0	0	0
394	0	0	0
395	0	0	0
396	0	0	0
397	0	0	0
398	0	0	0
399	0	0	0
400	0	0	0
401	0	0	0
402	0	0	0
403	0	0	0
404	0	0	0
405	0	0	0
406	0	0	0
407	0	0	0
408	0	0	0
409	0	0	0
410	0	0	0
411	0	0	0
412	0	0	0
413	0	0	0
414	0	0	0
415	0	0	0
416	0	0	0
417	0	0	0
418	0	0	0
419	255	219	221
420	255	216	220
421	255	213	219
422	255	206	213
423	255	209	214
424	255	216	219
425	255	199	209
426	250	181	201
427	247	171	198
428	235	153	187
429	249	172	200
430	255	186	206
431	248	174	196
432	238	162	188
433	252	186	202
434	255	210	216
435	255	201	208
436	250	192	202
437	0	0	0
438	255	216	216
439	0	0	0
440	0	0	0
441	0	0	0
442	0	0	0
443	0	0	0
444	0	0	0
445	0	0	0
446	0	0	0
447	0	0	0
448	0	0	0
449	0	0	0
450	0	0	0
451	0	0	0
452	0	0	0
453	0	0	0
454	0	0	0
455	0	0	0
456	0	0	0
457	0	0	0
458	0	0	0
459	0	0	0
460	0	0	0
461	0	0	0
462	0	0	0
463	0	0	0
464	0	0	0
465	0	0	0
466	0	0	0
467	0	0	0
468	0	0	0
469	0	0	0
470	0	0	0
471	0	0	0
472	0	0	0
473	0	0	0
474	0	0	0
475	254	221	220
476	255	219	220
477	255	207	214
478	254	203	213
479	255	201	211
480	255	206	214
481	255	205	212
482	253	187	201
483	251	177	200
484	248	168	199
485	246	162	198
486	255	181	211
487	252	173	201
488	242	161	191
489	247	171	198
490	255	195	213
491	255	197	209
492	250	186	198
493	251	191	201
494	255	203	209
495	255	210	213
496	255	204	208
497	253	201	205
498	0	0	0
499	0	0	0
500	0	0	0
501	0	0	0
502	0	0	0
503	0	0	0
504	0	0	0
505	0	0	0
506	0	0	0
507	0	0	0
508	0	0	0
509	0	0	0
510	0	0	0
511	0	0	0
512	0	0	0
513	0	0	0
514	0	0	0
515	0	0	0
516	0	0	0
517	0	0	0
518	0	0	0
519	0	0	0
520	0	0	0
521	0	0	0
522	0	0	0
523	0	0	0
524	0	0	0
525	0	0	0
526	0	0	0
527	0	0	0
528	0	0	0
529	0	0	0
530	0	0	0
531	248	216	213
532	253	219	216
533	251	208	211
534	248	197	207
535	249	196	209
536	251	195	208
537	254	194	207
538	255	194	205
539	253	182	200
540	251	173	200
541	253	172	204
542	250	166	202
543	248	162	200
544	241	155	194
545	248	166	200
546	252	175	206
547	253	180	205
548	251	182	200
549	250	185	198
550	252	190	200
551	253	195	202
552	255	202	207
553	254	198	205
554	251	195	203
555	248	193	202
556	0	0	0
557	0	0	0
558	0	0	0
559	0	0	0
560	0	0	0
561	0	0	0
562	0	0	0
563	0	0	0
564	0	0	0
565	0	0	0
566	0	0	0
567	0	0	0
568	0	0	0
569	0	0	0
570	0	0	0
571	0	0	0
572	0	0	0
573	0	0	0
574	0	0	0
575	0	0	0
576	0	0	0
577	0	0	0
578	0	0	0
579	0	0	0
580	0	0	0
581	0	0	0
582	0	0	0
583	0	0	0
584	0	0	0
585	0	0	0
586	0	0	0
587	246	212	211
588	246	212	210
589	250	215	212
590	247	204	206
591	253	206	211
592	255	206	213
593	255	202	212
594	255	202	212
595	255	190	203
596	253	179	198
597	249	169	197
598	252	167	201
599	250	165	201
600	247	161	199
601	253	171	206
602	255	182	213
603	255	178	207
604	255	182	205
605	254	185	202
606	254	188	201
607	255	196	203
608	255	201	205
609	255	202	207
610	255	199	206
611	251	192	201
612	248	189	200
613	254	200	208
614	0	0	0
615	0	0	0
616	0	0	0
617	0	0	0
618	255	217	217
619	252	211	214
620	0	0	0
621	0	0	0
622	0	0	0
623	0	0	0
624	0	0	0
625	0	0	0
626	0	0	0
627	0	0	0
628	0	0	0
629	0	0	0
630	0	0	0
631	0	0	0
632	0	0	0
633	0	0	0
634	0	0	0
635	0	0	0
636	0	0	0
637	0	0	0
638	0	0	0
639	0	0	0
640	0	0	0
641	0	0	0
642	0	0	0
643	249	215	215
644	248	212	213
645	250	214	214
646	255	217	215
647	255	217	215
648	255	218	216
649	255	209	211
650	255	206	212
651	254	193	205
652	251	182	197
653	250	173	194
654	246	162	191
655	251	165	197
656	249	163	198
657	255	173	206
658	255	183	212
659	255	178	206
660	250	173	197
661	253	180	199
662	254	184	199
663	255	193	203
664	255	201	207
665	255	200	205
666	255	201	206
667	255	196	203
668	250	188	199
669	255	201	208
670	255	212	215
671	255	210	212
672	0	0	0
673	255	212	210
674	255	221	217
675	255	216	214
676	252	210	210
677	253	213	214
678	0	0	0
679	0	0	0
680	0	0	0
681	0	0	0
682	0	0	0
683	0	0	0
684	0	0	0
685	0	0	0
686	0	0	0
687	0	0	0
688	0	0	0
689	0	0	0
690	0	0	0
691	0	0	0
692	0	0	0
693	0	0	0
694	0	0	0
695	0	0	0
696	0	0	0
697	0	0	0
698	0	0	0
699	0	0	0
700	0	0	0
701	250	210	213
702	255	214	216
703	255	212	213
704	255	210	211
705	253	202	203
706	245	192	197
707	255	203	207
708	250	190	200
709	251	184	198
710	254	177	198
711	247	162	190
712	251	165	195
713	249	163	196
714	255	173	203
715	255	186	210
716	255	182	204
717	253	178	198
718	255	185	201
719	255	184	198
720	255	193	203
721	255	192	200
722	255	191	199
723	255	194	202
724	252	188	199
725	247	182	197
726	255	195	206
727	255	206	212
728	255	203	208
729	250	196	202
730	252	203	205
731	255	215	213
732	255	209	209
733	249	203	205
734	248	206	209
735	255	219	220
736	0	0	0
737	0	0	0
738	0	0	0
739	0	0	0
740	0	0	0
741	0	0	0
742	0	0	0
743	0	0	0
744	0	0	0
745	0	0	0
746	0	0	0
747	0	0	0
748	0	0	0
749	0	0	0
750	0	0	0
751	0	0	0
752	0	0	0
753	0	0	0
754	0	0	0
755	0	0	0
756	0	0	0
757	0	0	0
758	247	204	207
759	251	204	208
760	251	202	205
761	247	194	198
762	242	186	193
763	248	194	198
764	255	203	205
765	251	191	198
766	253	186	201
767	252	176	199
768	246	161	189
769	254	168	196
770	253	166	196
771	255	181	205
772	255	193	211
773	255	188	205
774	255	186	204
775	255	186	204
776	255	184	199
777	254	184	196
778	251	182	192
779	250	182	192
780	253	186	198
781	248	181	196
782	243	175	195
783	251	188	204
784	255	199	208
785	249	191	200
786	242	184	194
787	248	196	202
788	255	208	210
789	251	203	207
790	246	198	204
791	251	209	212
792	255	220	220
793	249	213	216
794	246	209	214
795	0	0	0
796	0	0	0
797	0	0	0
798	0	0	0
799	0	0	0
800	0	0	0
801	0	0	0
802	0	0	0
803	0	0	0
804	0	0	0
805	0	0	0
806	0	0	0
807	0	0	0
808	0	0	0
809	0	0	0
810	0	0	0
811	0	0	0
812	0	0	0
813	0	0	0
814	245	205	202
815	245	204	203
816	246	203	203
817	247	202	200
818	244	195	195
819	249	198	198
820	255	208	207
821	255	199	200
822	248	185	191
823	255	191	202
824	253	179	198
825	246	163	189
826	255	172	198
827	248	158	189
828	255	172	197
829	255	180	198
830	253	174	192
831	255	185	202
832	255	186	202
833	255	181	196
834	253	180	194
835	253	182	193
836	252	183	193
837	255	192	201
838	253	187	200
839	251	186	202
840	255	199	211
841	255	200	208
842	251	193	201
843	250	195	201
844	255	207	209
845	255	207	211
846	252	202	207
847	253	207	210
848	255	218	216
849	253	216	215
850	245	209	211
851	251	217	219
852	255	224	226
853	0	0	0
854	0	0	0
855	0	0	0
856	0	0	0
857	0	0	0
858	0	0	0
859	0	0	0
860	0	0	0
861	0	0	0
862	0	0	0
863	0	0	0
864	0	0	0
865	0	0	0
866	0	0	0
867	0	0	0
868	0	0	0
869	0	0	0
870	0	0	0
871	0	0	0
872	252	211	203
873	255	215	208
874	255	215	206
875	255	215	206
876	255	217	208
877	255	208	203
878	255	199	199
879	255	198	200
880	255	203	206
881	255	186	198
882	254	171	193
883	254	165	194
884	244	151	184
885	253	164	191
886	255	172	191
887	255	178	191
888	255	188	198
889	255	181	193
890	253	176	190
891	253	179	192
892	254	182	195
893	255	191	200
894	255	198	203
895	255	196	201
896	255	195	203
897	255	197	205
898	255	199	204
899	255	202	205
900	255	204	205
901	254	204	205
902	254	204	209
903	255	210	212
904	255	214	210
905	253	212	207
906	250	212	209
907	251	216	214
908	255	223	222
909	255	218	220
910	0	0	0
911	0	0	0
912	0	0	0
913	0	0	0
914	0	0	0
915	0	0	0
916	0	0	0
917	0	0	0
918	0	0	0
919	0	0	0
920	0	0	0
921	0	0	0
922	0	0	0
923	0	0	0
924	0	0	0
925	0	0	0
926	251	209	200
927	253	209	200
928	255	210	201
929	255	206	201
930	255	213	208
931	255	195	196
932	255	195	195
933	255	194	194
934	249	181	185
935	255	192	195
936	255	193	197
937	255	189	196
938	255	171	187
939	255	168	191
940	254	160	189
941	252	158	188
942	255	171	195
943	255	166	187
944	255	172	187
945	255	177	188
946	250	168	182
947	255	179	190
948	255	182	193
949	255	185	196
950	255	193	201
951	253	184	192
952	249	181	189
953	255	193	198
954	255	195	200
955	255	198	202
956	255	200	203
957	252	198	200
958	252	198	200
959	255	205	208
960	255	210	210
961	255	212	206
962	252	210	204
963	249	209	206
964	252	215	212
965	255	219	217
966	251	212	213
967	249	210	214
968	0	0	0
969	0	0	0
970	0	0	0
971	0	0	0
972	0	0	0
973	0	0	0
974	0	0	0
975	0	0	0
976	0	0	0
977	0	0	0
978	0	0	0
979	0	0	0
980	0	0	0
981	255	215	207
982	255	211	205
983	255	216	210
984	255	218	209
985	255	212	206
986	255	208	206
987	255	197	201
988	251	179	189
989	253	182	191
990	253	182	192
991	255	189	196
992	255	197	203
993	255	191	200
994	255	187	199
995	255	179	195
996	255	173	194
997	255	172	195
998	255	169	194
999	255	169	193
1000	255	164	188
1001	255	166	185
1002	255	169	185
1003	255	175	187
1004	255	185	194
1005	255	186	194
1006	255	188	195
1007	255	181	190
1008	247	173	185
1009	252	184	191
1010	255	195	198
1011	255	195	198
1012	255	198	202
1013	254	197	202
1014	251	194	198
1015	255	201	202
1016	255	207	206
1017	255	210	208
1018	255	213	208
1019	255	212	207
1020	252	209	208
1021	250	210	209
1022	251	213	211
1023	250	211	210
1024	0	0	0
1025	0	0	0
1026	0	0	0
1027	0	0	0
1028	0	0	0
1029	0	0	0
1030	0	0	0
1031	0	0	0
1032	0	0	0
1033	0	0	0
1034	0	0	0
1035	0	0	0
1036	0	0	0
1037	255	210	206
1038	255	211	209
1039	248	190	197
1040	252	196	202
1041	239	177	189
1042	231	169	183
1043	229	165	182
1044	220	150	174
1045	218	145	172
1046	223	150	177
1047	223	148	176
1048	232	156	182
1049	229	149	176
1050	225	140	170
1051	238	153	180
1052	237	145	176
1053	243	148	179
1054	246	148	180
1055	248	148	180
1056	249	148	179
1057	251	154	181
1058	247	154	177
1059	255	176	189
1060	255	182	191
1061	255	180	189
1062	255	181	189
1063	255	183	190
1064	252	175	184
1065	251	178	187
1066	255	189	195
1067	255	196	197
1068	255	195	195
1069	255	199	201
1070	255	198	201
1071	252	195	199
1072	255	201	203
1073	255	203	202
1074	255	207	204
1075	255	207	205
1076	255	206	206
1077	248	201	203
1078	0	0	0
1079	0	0	0
1080	0	0	0
1081	0	0	0
1082	0	0	0
1083	0	0	0
1084	0	0	0
1085	0	0	0
1086	0	0	0
1087	0	0	0
1088	0	0	0
1089	0	0	0
1090	0	0	0
1091	253	222	211
1092	253	216	209
1093	255	213	211
1094	254	206	207
1095	247	190	199
1096	235	171	190
1097	229	159	185
1098	215	141	174
1099	207	134	170
1100	203	129	168
1101	202	125	168
1102	199	120	167
1103	200	120	168
1104	199	117	164
1105	197	110	159
1106	194	103	154
1107	204	114	161
1108	215	126	169
1109	218	126	168
1110	223	128	170
1111	228	130	172
1112	229	129	172
1113	238	140	176
1114	242	146	175
1115	254	167	184
1116	255	189	196
1117	255	186	193
1118	255	185	193
1119	255	185	193
1120	255	186	191
1121	255	186	190
1122	255	189	195
1123	255	196	199
1124	255	201	199
1125	255	198	195
1126	255	203	200
1127	255	199	200
1128	255	197	200
1129	255	199	201
1130	255	200	200
1131	253	199	198
1132	252	198	199
1133	250	197	199
1134	244	192	197
1135	0	0	0
1136	0	0	0
1137	0	0	0
1138	0	0	0
1139	0	0	0
1140	0	0	0
1141	0	0	0
1142	0	0	0
1143	0	0	0
1144	0	0	0
1145	0	0	0
1146	0	0	0
1147	249	213	206
1148	251	211	207
1149	237	187	196
1150	233	182	196
1151	223	167	188
1152	210	149	179
1153	201	132	173
1154	200	123	172
1155	203	127	176
1156	197	121	172
1157	205	131	179
1158	208	129	181
1159	196	111	171
1160	194	109	171
1161	202	121	176
1162	196	113	169
1163	194	108	166
1164	203	119	173
1165	203	117	170
1166	200	114	165
1167	202	115	165
1168	203	115	165
1169	199	108	160
1170	209	119	164
1171	220	132	167
1172	242	157	179
1173	248	160	179
1174	252	159	178
1175	255	164	182
1176	255	162	180
1177	255	167	180
1178	249	165	178
1179	251	172	185
1180	255	178	188
1181	255	184	188
1182	250	181	183
1183	255	199	196
1184	255	196	197
1185	251	186	193
1186	249	187	194
1187	255	200	200
1188	253	197	198
1189	252	198	198
1190	249	195	198
1191	247	197	200
1192	0	0	0
1193	255	223	220
1194	0	0	0
1195	0	0	0
1196	0	0	0
1197	0	0	0
1198	0	0	0
1199	0	0	0
1200	0	0	0
1201	0	0	0
1202	0	0	0
1203	253	221	212
1204	243	201	200
1205	236	183	196
1206	223	161	189
1207	213	148	187
1208	202	133	181
1209	187	114	172
1210	178	98	166
1211	191	109	177
1212	194	111	177
1213	195	115	176
1214	201	124	181
1215	192	107	170
1216	178	88	159
1217	185	101	168
1218	192	113	174
1219	187	106	168
1220	186	102	166
1221	190	105	168
1222	189	103	163
1223	189	103	162
1224	190	104	161
1225	186	98	157
1226	183	92	154
1227	198	111	165
1228	209	124	167
1229	218	128	166
1230	224	131	166
1231	233	137	169
1232	240	142	173
1233	245	149	176
1234	247	153	177
1235	246	157	178
1236	248	163	185
1237	253	171	189
1238	255	177	188
1239	255	186	191
1240	255	203	201
1241	255	191	195
1242	251	181	191
1243	254	191	198
1244	255	202	204
1245	254	198	199
1246	253	198	199
1247	254	202	203
1248	253	204	205
1249	255	213	213
1250	255	222	220
1251	255	211	213
1252	0	0	0
1253	0	0	0
1254	0	0	0
1255	0	0	0
1256	0	0	0
1257	0	0	0
1258	0	0	0
1259	245	218	210
1260	240	201	203
1261	229	177	193
1262	222	161	191
1263	213	144	190
1264	206	133	189
1265	207	133	193
1266	196	117	186
1267	195	111	186
1268	203	119	193
1269	193	105	180
1270	196	110	180
1271	204	123	186
1272	186	101	170
1273	176	90	163
1274	181	102	171
1275	185	109	174
1276	182	104	169
1277	187	107	172
1278	192	110	174
1279	189	102	166
1280	194	105	168
1281	200	110	170
1282	197	105	167
1283	200	109	171
1284	214	128	182
1285	208	120	171
1286	207	120	167
1287	206	117	162
1288	208	120	162
1289	217	127	167
1290	230	137	173
1291	236	142	174
1292	239	147	177
1293	243	152	182
1294	251	161	187
1295	255	178	193
1296	255	187	195
1297	255	188	195
1298	254	175	187
1299	252	176	189
1300	254	185	195
1301	255	197	202
1302	250	191	196
1303	255	201	203
1304	255	206	207
1305	253	196	202
1306	255	205	210
1307	255	209	213
1308	247	196	204
1309	0	0	0
1310	0	0	0
1311	0	0	0
1312	0	0	0
1313	0	0	0
1314	0	0	0
1315	237	213	213
1316	233	199	206
1317	226	178	199
1318	215	154	192
1319	211	141	192
1320	202	124	187
1321	204	125	192
1322	204	124	194
1323	198	116	188
1324	194	109	185
1325	189	99	178
1326	178	86	167
1327	189	101	177
1328	196	114	184
1329	183	101	173
1330	172	89	164
1331	175	97	169
1332	178	104	171
1333	180	105	170
1334	185	109	173
1335	185	103	170
1336	183	95	164
1337	192	102	168
1338	197	108	170
1339	199	111	170
1340	201	114	171
1341	203	114	171
1342	199	108	166
1343	197	107	163
1344	194	104	159
1345	195	108	160
1346	203	115	164
1347	216	123	169
1348	221	128	169
1349	224	133	171
1350	229	139	175
1351	248	161	190
1352	255	179	197
1353	255	175	191
1354	255	178	194
1355	255	178	194
1356	255	177	192
1357	255	186	197
1358	255	198	205
1359	255	200	205
1360	255	210	213
1361	255	200	208
1362	252	190	202
1363	254	195	206
1364	254	198	206
1365	254	203	208
1366	255	212	215
1367	255	209	216
1368	0	0	0
1369	0	0	0
1370	0	0	0
1371	237	221	219
1372	234	210	217
1373	221	182	204
1374	215	161	198
1375	209	144	196
1376	207	131	196
1377	211	131	200
1378	213	131	203
1379	199	112	189
1380	188	101	181
1381	194	111	187
1382	187	102	180
1383	182	96	176
1384	191	111	186
1385	180	98	175
1386	169	86	165
1387	171	91	168
1388	177	101	173
1389	177	102	171
1390	177	101	169
1391	174	95	165
1392	174	89	161
1393	177	90	162
1394	184	96	165
1395	187	101	166
1396	186	103	165
1397	186	102	163
1398	191	104	164
1399	191	99	162
1400	196	101	165
1401	203	111	170
1402	204	114	170
1403	202	111	167
1404	208	116	169
1405	214	126	172
1406	211	128	171
1407	200	114	161
1408	222	138	177
1409	229	145	178
1410	230	144	175
1411	240	154	184
1412	242	155	185
1413	246	160	186
1414	251	170	191
1415	255	189	203
1416	255	191	203
1417	255	196	208
1418	254	185	202
1419	253	185	203
1420	254	189	206
1421	252	191	205
1422	254	197	209
1423	255	200	212
1424	255	196	213
1425	248	185	210
1426	0	0	0
1427	234	224	220
1428	230	214	218
1429	216	186	206
1430	204	159	195
1431	202	145	195
1432	198	128	193
1433	205	130	200
1434	209	129	199
1435	203	116	192
1436	190	97	181
1437	195	108	189
1438	201	118	196
1439	194	112	191
1440	187	105	186
1441	177	95	178
1442	164	81	165
1443	167	87	168
1444	170	92	171
1445	171	94	170
1446	171	95	168
1447	163	85	159
1448	160	78	155
1449	166	82	158
1450	169	83	157
1451	176	91	163
1452	179	96	164
1453	174	93	160
1454	174	92	159
1455	174	88	156
1456	174	82	153
1457	188	96	162
1458	198	106	167
1459	198	104	164
1460	197	101	163
1461	207	114	170
1462	211	123	173
1463	195	107	161
1464	185	94	155
1465	200	108	167
1466	207	115	167
1467	214	123	171
1468	223	133	178
1469	230	140	183
1470	235	146	186
1471	248	165	196
1472	255	182	203
1473	255	180	199
1474	255	185	204
1475	255	181	204
1476	253	181	205
1477	251	181	206
1478	250	183	207
1479	245	181	206
1480	246	183	210
1481	238	171	204
1482	0	0	0
1483	241	240	231
1484	234	227	225
1485	218	197	212
1486	203	170	202
1487	194	148	195
1488	194	135	195
1489	198	131	200
1490	204	133	205
1491	202	123	197
1492	197	110	189
1493	189	94	180
1494	200	109	192
1495	202	113	195
1496	192	104	188
1497	181	96	182
1498	166	83	171
1499	158	77	164
1500	163	84	168
1501	169	94	173
1502	169	94	171
1503	166	91	167
1504	158	82	158
1505	161	84	159
1506	166	88	161
1507	169	89	162
1508	176	97	167
1509	173	92	163
1510	171	91	161
1511	170	90	160
1512	163	82	154
1513	161	78	151
1514	175	92	160
1515	187	100	164
1516	197	103	166
1517	206	109	171
1518	215	121	178
1519	214	118	174
1520	204	106	166
1521	211	114	176
1522	219	126	186
1523	212	118	178
1524	215	123	180
1525	220	131	184
1526	223	136	187
1527	223	136	186
1528	236	154	196
1529	245	166	199
1530	245	165	195
1531	250	172	202
1532	246	167	201
1533	249	172	206
1534	248	174	207
1535	252	185	215
1536	245	181	212
1537	245	184	216
1538	233	171	208
1539	234	178	213
1540	235	236	226
1541	219	206	213
1542	207	180	206
1543	200	161	204
1544	191	139	198
1545	200	141	206
1546	203	136	206
1547	202	128	203
1548	198	117	196
1549	192	105	188
1550	183	88	176
1551	189	96	182
1552	190	99	183
1553	180	90	177
1554	169	82	172
1555	157	75	165
1556	149	70	158
1557	159	83	166
1558	164	92	171
1559	161	89	167
1560	158	86	163
1561	158	86	161
1562	161	89	161
1563	165	90	161
1564	168	92	163
1565	170	90	163
1566	167	85	158
1567	168	87	159
1568	167	87	159
1569	158	80	153
1570	155	75	151
1571	166	85	158
1572	179	94	163
1573	197	105	171
1574	206	110	174
1575	204	107	170
1576	205	106	168
1577	213	114	174
1578	218	121	180
1579	213	116	177
1580	206	109	175
1581	213	119	184
1582	218	126	188
1583	218	128	188
1584	217	127	186
1585	229	141	195
1586	239	153	201
1587	239	153	200
1588	244	159	204
1589	241	158	203
1590	242	162	207
1591	243	169	210
1592	245	178	215
1593	236	173	210
1594	234	176	212
1595	236	183	217
1596	0	0	0
1597	228	231	224
1598	220	205	216
1599	207	173	209
1600	204	156	210
1601	201	142	207
1602	208	142	213
1603	203	128	205
1604	199	118	200
1605	189	102	190
1606	179	88	179
1607	178	89	178
1608	179	93	179
1609	175	91	177
1610	169	85	172
1611	165	83	172
1612	155	77	167
1613	156	85	169
1614	165	97	176
1615	153	81	163
1616	147	77	159
1617	151	81	160
1618	156	85	161
1619	165	94	165
1620	168	95	165
1621	170	94	166
1622	170	92	165
1623	158	73	152
1624	160	75	154
1625	165	84	159
1626	158	78	154
1627	163	85	160
1628	173	95	167
1629	178	94	166
1630	192	103	173
1631	190	95	166
1632	187	92	162
1633	195	100	167
1634	206	109	174
1635	205	106	170
1636	200	100	167
1637	209	111	180
1638	221	124	193
1639	218	119	189
1640	219	121	190
1641	227	129	195
1642	239	144	205
1643	237	142	202
1644	233	139	198
1645	251	167	216
1646	247	165	213
1647	249	174	219
1648	245	177	219
1649	246	188	221
1650	0	0	0
1651	0	0	0
1652	0	0	0
1653	0	0	0
1654	222	224	222
1655	211	191	212
1656	200	158	206
1657	202	150	212
1658	199	135	206
1659	201	128	206
1660	196	114	199
1661	193	103	194
1662	183	88	186
1663	185	92	188
1664	182	93	185
1665	174	89	179
1666	169	87	176
1667	169	87	175
1668	164	85	174
1669	161	90	175
1670	163	97	178
1671	155	85	169
1672	141	69	156
1673	142	73	158
1674	146	79	161
1675	157	89	167
1676	165	97	170
1677	163	93	165
1678	164	91	164
1679	155	75	154
1680	145	57	144
1681	155	71	154
1682	160	79	156
1683	161	83	157
1684	167	90	163
1685	171	91	165
1686	174	90	165
1687	175	86	163
1688	172	78	157
1689	178	85	161
1690	187	93	167
1691	192	94	168
1692	192	91	164
1693	199	100	171
1694	209	110	182
1695	211	108	182
1696	208	102	179
1697	215	112	186
1698	222	121	191
1699	226	123	193
1700	223	121	191
1701	238	146	207
1702	253	172	221
1703	251	174	219
1704	251	181	222
1705	245	185	220
1706	0	0	0
1707	0	0	0
1708	0	0	0
1709	0	0	0
1710	0	0	0
1711	219	219	223
1712	210	187	213
1713	201	159	210
1714	200	149	214
1715	201	140	212
1716	206	135	212
1717	200	115	203
1718	199	106	200
1719	192	93	193
1720	195	99	197
1721	190	96	192
1722	181	92	185
1723	176	91	182
1724	172	90	179
1725	162	83	173
1726	158	87	173
1727	161	96	177
1728	152	84	167
1729	144	74	160
1730	146	80	164
1731	147	83	166
1732	155	92	171
1733	149	83	161
1734	145	77	154
1735	153	86	160
1736	147	71	151
1737	152	73	157
1738	163	86	166
1739	161	82	160
1740	165	88	162
1741	174	97	169
1742	178	98	171
1743	167	82	160
1744	161	74	155
1745	169	84	163
1746	180	94	170
1747	186	96	173
1748	192	96	173
1749	196	97	174
1750	204	106	181
1751	208	108	183
1752	210	106	183
1753	214	110	186
1754	218	118	192
1755	218	120	192
1756	220	121	194
1757	224	128	199
1758	242	154	216
1759	244	162	216
1760	238	161	211
1761	246	182	222
1762	0	0	0
1763	0	0	0
1764	0	0	0
1765	0	0	0
1766	0	0	0
1767	0	0	0
1768	216	213	220
1769	213	188	216
1770	203	160	212
1771	202	152	216
1772	201	143	214
1773	200	128	208
1774	194	109	198
1775	197	104	198
1776	191	91	190
1777	193	95	193
1778	189	93	190
1779	185	93	187
1780	178	91	184
1781	169	87	178
1782	158	80	171
1783	157	87	172
1784	161	96	175
1785	155	88	168
1786	146	78	162
1787	146	82	165
1788	147	85	169
1789	144	79	164
1790	137	70	153
1791	140	75	155
1792	148	84	161
1793	152	85	162
1794	156	86	165
1795	158	87	165
1796	158	84	163
1797	168	94	169
1798	177	102	172
1799	170	88	163
1800	160	72	153
1801	163	81	161
1802	172	91	170
1803	180	95	174
1804	187	97	176
1805	195	101	180
1806	199	101	181
1807	199	101	181
1808	202	102	182
1809	210	108	187
1810	214	113	190
1811	214	115	191
1812	214	116	192
1813	220	126	200
1814	224	132	204
1815	232	144	211
1816	233	151	211
1817	0	0	0
1818	0	0	0
1819	0	0	0
1820	0	0	0
1821	0	0	0
1822	0	0	0
1823	0	0	0
1824	0	0	0
1825	215	207	220
1826	216	184	218
1827	210	163	217
1828	205	153	218
1829	201	143	214
1830	193	124	205
1831	188	107	196
1832	194	104	198
1833	192	96	193
1834	195	100	196
1835	188	93	189
1836	186	94	189
1837	176	89	183
1838	160	80	174
1839	152	76	169
1840	158	87	174
1841	160	92	174
1842	151	83	166
1843	141	71	159
1844	141	75	162
1845	150	89	173
1846	148	84	168
1847	142	77	160
1848	144	82	162
1849	144	81	161
1850	147	81	161
1851	150	84	162
1852	150	83	162
1853	152	82	163
1854	164	93	170
1855	163	85	162
1856	157	72	153
1857	162	75	158
1858	169	86	167
1859	172	86	170
1860	182	91	175
1861	191	95	179
1862	196	97	181
1863	192	91	177
1864	187	88	174
1865	196	101	182
1866	206	107	187
1867	215	118	193
1868	219	122	196
1869	217	121	198
1870	222	130	205
1871	220	131	206
1872	225	141	211
1873	229	154	214
1874	0	0	0
1875	0	0	0
1876	0	0	0
1877	0	0	0
1878	0	0	0
1879	0	0	0
1880	0	0	0
1881	0	0	0
1882	211	200	219
1883	219	185	223
1884	212	163	219
1885	205	152	219
1886	199	140	213
1887	189	122	204
1888	184	106	196
1889	192	107	200
1890	189	99	195
1891	188	96	191
1892	181	88	183
1893	180	88	184
1894	172	84	181
1895	158	78	176
1896	150	75	171
1897	154	81	174
1898	155	85	173
1899	146	76	165
1900	136	65	159
1901	144	79	168
1902	153	92	175
1903	149	86	169
1904	144	80	163
1905	143	80	163
1906	142	80	163
1907	146	83	165
1908	148	85	165
1909	147	82	162
1910	148	80	161
1911	146	73	157
1912	145	66	151
1913	152	70	155
1914	158	74	160
1915	160	75	161
1916	165	76	164
1917	179	84	172
1918	186	88	176
1919	185	83	173
1920	181	78	170
1921	187	90	178
1922	196	102	185
1923	209	114	192
1924	219	125	196
1925	219	125	197
1926	218	124	201
1927	219	129	207
1928	215	128	206
1929	221	143	212
1930	0	0	0
1931	0	0	0
1932	0	0	0
1933	0	0	0
1934	0	0	0
1935	0	0	0
1936	0	0	0
1937	0	0	0
1938	0	0	0
1939	212	200	222
1940	218	185	225
1941	211	163	220
1942	203	151	218
1943	194	137	211
1944	187	120	203
1945	193	122	208
1946	196	120	209
1947	179	92	190
1948	177	90	188
1949	180	93	188
1950	182	94	189
1951	172	84	184
1952	164	82	181
1953	163	87	182
1954	162	91	182
1955	156	88	177
1956	146	78	169
1957	136	66	162
1958	147	82	173
1959	152	91	176
1960	148	84	169
1961	147	82	167
1962	146	83	168
1963	138	74	161
1964	141	76	163
1965	150	89	170
1966	148	86	167
1967	142	76	160
1968	137	67	154
1969	147	78	160
1970	154	82	164
1971	162	87	170
1972	170	90	174
1973	176	90	176
1974	188	97	183
1975	188	92	179
1976	183	86	175
1977	189	93	182
1978	202	109	193
1979	198	100	186
1980	210	112	192
1981	219	124	198
1982	216	122	197
1983	210	115	197
1984	209	119	202
1985	207	125	205
1986	0	0	0
1987	0	0	0
1988	0	0	0
1989	0	0	0
1990	0	0	0
1991	0	0	0
1992	0	0	0
1993	0	0	0
1994	0	0	0
1995	0	0	0
1996	208	196	222
1997	213	181	223
1998	205	159	217
1999	198	147	215
2000	192	134	210
2001	200	137	217
2002	204	137	218
2003	189	113	203
2004	172	86	187
2005	181	96	196
2006	183	99	198
2007	178	93	193
2008	169	82	185
2009	170	90	187
2010	169	96	186
2011	163	92	180
2012	158	89	177
2013	148	79	171
2014	139	68	166
2015	149	82	177
2016	153	90	179
2017	149	86	174
2018	147	85	172
2019	139	75	164
2020	131	65	156
2021	140	77	164
2022	149	90	171
2023	143	79	163
2024	138	71	159
2025	147	82	167
2026	155	92	170
2027	161	96	173
2028	170	101	179
2029	176	101	182
2030	183	101	185
2031	188	99	185
2032	185	92	179
2033	185	96	181
2034	192	104	187
2035	194	100	186
2036	192	92	182
2037	206	108	193
2038	214	120	201
2039	206	113	196
2040	197	104	192
2041	200	115	200
2042	0	0	0
2043	0	0	0
2044	0	0	0
2045	0	0	0
2046	0	0	0
2047	0	0	0
2048	0	0	0
2049	0	0	0
2050	0	0	0
2051	0	0	0
2052	0	0	0
2053	208	201	225
2054	209	184	225
2055	205	166	222
2056	205	157	223
2057	200	142	217
2058	209	146	224
2059	206	135	217
2060	190	110	202
2061	191	108	204
2062	200	118	215
2063	181	95	198
2064	170	85	189
2065	169	87	188
2066	173	96	191
2067	167	93	185
2068	162	89	180
2069	158	86	178
2070	152	78	174
2071	149	75	174
2072	155	87	182
2073	142	74	172
2074	133	68	164
2075	141	81	171
2076	138	74	165
2077	140	77	167
2078	148	89	173
2079	148	89	172
2080	142	79	164
2081	143	77	165
2082	154	89	174
2083	153	86	168
2084	158	89	170
2085	163	90	173
2086	168	89	175
2087	178	96	182
2088	181	93	182
2089	178	89	178
2090	178	93	179
2091	186	102	185
2092	191	100	186
2093	198	103	191
2094	209	118	203
2095	210	122	205
2096	198	111	198
2097	183	98	188
2098	0	0	0
2099	0	0	0
2100	0	0	0
2101	0	0	0
2102	0	0	0
2103	0	0	0
2104	0	0	0
2105	0	0	0
2106	0	0	0
2107	0	0	0
2108	0	0	0
2109	0	0	0
2110	211	207	229
2111	207	189	227
2112	203	171	226
2113	205	161	227
2114	200	145	218
2115	202	139	217
2116	200	129	213
2117	202	128	215
2118	202	125	215
2119	189	106	203
2120	169	82	186
2121	168	87	188
2122	167	89	188
2123	165	89	186
2124	162	87	182
2125	159	83	179
2126	156	80	179
2127	155	79	179
2128	150	74	175
2129	143	68	170
2130	130	56	160
2131	130	66	164
2132	138	79	171
2133	145	85	174
2134	149	88	177
2135	147	88	175
2136	147	88	173
2137	148	85	171
2138	149	83	170
2139	152	82	170
2140	152	79	167
2141	153	78	167
2142	157	79	169
2143	165	86	176
2144	172	91	180
2145	174	90	180
2146	172	87	178
2147	173	92	181
2148	183	102	188
2149	197	110	196
2150	202	113	199
2151	202	116	202
2152	199	117	202
2153	183	104	191
2154	0	0	0
2155	0	0	0
2156	0	0	0
2157	0	0	0
2158	0	0	0
2159	0	0	0
2160	0	0	0
2161	0	0	0
2162	0	0	0
2163	0	0	0
2164	0	0	0
2165	0	0	0
2166	0	0	0
2167	219	218	234
2168	209	196	229
2169	205	179	230
2170	207	170	233
2171	200	151	222
2172	199	143	219
2173	198	134	216
2174	204	135	219
2175	191	114	206
2176	175	94	192
2177	175	98	194
2178	177	105	198
2179	170	98	192
2180	168	97	191
2181	166	94	188
2182	166	92	189
2183	164	89	188
2184	158	85	185
2185	148	74	176
2186	144	70	173
2187	143	74	175
2188	144	84	180
2189	143	84	177
2190	150	89	180
2191	146	83	175
2192	142	81	172
2193	142	80	171
2194	147	80	171
2195	156	86	176
2196	161	87	176
2197	167	92	180
2198	165	90	178
2199	168	94	181
2200	174	99	186
2201	168	89	179
2202	165	85	177
2203	170	92	183
2204	175	100	189
2205	184	107	194
2206	201	116	203
2207	199	112	201
2208	190	110	198
2209	181	107	194
2210	0	0	0
2211	0	0	0
2212	0	0	0
2213	0	0	0
2214	0	0	0
2215	0	0	0
2216	0	0	0
2217	0	0	0
2218	0	0	0
2219	0	0	0
2220	0	0	0
2221	0	0	0
2222	0	0	0
2223	0	0	0
2224	231	232	241
2225	213	205	230
2226	207	187	232
2227	209	176	235
2228	202	158	227
2229	200	149	224
2230	197	138	220
2231	189	122	210
2232	177	102	199
2233	180	109	203
2234	180	112	203
2235	175	108	198
2236	169	102	193
2237	167	99	191
2238	166	97	190
2239	168	95	190
2240	165	91	188
2241	154	82	182
2242	145	73	178
2243	154	84	187
2244	153	88	187
2245	148	86	183
2246	147	86	182
2247	150	84	180
2248	145	78	174
2249	140	75	170
2250	141	75	170
2251	152	82	176
2252	161	88	182
2253	170	96	187
2254	174	101	187
2255	172	100	184
2256	174	101	185
2257	169	93	180
2258	162	83	175
2259	165	90	180
2260	170	97	186
2261	175	101	190
2262	185	108	196
2263	196	111	202
2264	192	106	199
2265	177	101	193
2266	0	0	0
2267	0	0	0
2268	0	0	0
2269	0	0	0
2270	0	0	0
2271	0	0	0
2272	0	0	0
2273	0	0	0
2274	0	0	0
2275	0	0	0
2276	0	0	0
2277	0	0	0
2278	0	0	0
2279	0	0	0
2280	0	0	0
2281	227	226	235
2282	204	196	221
2283	203	186	230
2284	208	176	236
2285	205	162	231
2286	204	154	229
2287	195	139	220
2288	180	119	208
2289	183	123	212
2290	191	132	218
2291	177	115	204
2292	169	109	198
2293	167	107	196
2294	170	106	196
2295	171	104	196
2296	171	102	195
2297	171	102	195
2298	163	94	191
2299	153	82	186
2300	160	93	194
2301	153	87	187
2302	151	87	186
2303	154	90	188
2304	156	87	186
2305	152	80	179
2306	150	79	177
2307	158	89	184
2308	164	94	188
2309	162	89	185
2310	168	95	189
2311	168	94	185
2312	166	93	181
2313	174	103	187
2314	171	95	183
2315	171	95	185
2316	174	102	191
2317	182	112	197
2318	189	117	202
2319	194	118	206
2320	199	118	208
2321	192	114	204
2322	176	107	196
2323	184	126	208
2324	0	0	0
2325	0	0	0
2326	0	0	0
2327	0	0	0
2328	0	0	0
2329	0	0	0
2330	0	0	0
2331	0	0	0
2332	0	0	0
2333	0	0	0
2334	0	0	0
2335	0	0	0
2336	0	0	0
2337	0	0	0
2338	237	231	240
2339	208	201	225
2340	204	190	233
2341	205	178	237
2342	202	164	233
2343	201	154	230
2344	191	138	220
2345	188	140	220
2346	190	142	221
2347	186	132	216
2348	175	117	207
2349	172	115	206
2350	170	112	203
2351	170	110	201
2352	169	107	198
2353	172	108	198
2354	172	108	200
2355	163	98	194
2356	152	85	186
2357	148	83	184
2358	143	78	180
2359	145	81	182
2360	150	85	185
2361	153	82	184
2362	150	76	178
2363	158	86	185
2364	166	96	191
2365	162	91	187
2366	159	85	184
2367	160	87	185
2368	160	87	184
2369	167	95	188
2370	175	105	193
2371	176	104	193
2372	177	103	194
2373	182	112	200
2374	190	122	205
2375	192	121	205
2376	193	120	208
2377	191	118	206
2378	183	112	198
2379	188	131	208
2380	0	0	0
2381	0	0	0
2382	0	0	0
2383	0	0	0
2384	0	0	0
2385	0	0	0
2386	0	0	0
2387	0	0	0
2388	0	0	0
2389	0	0	0
2390	0	0	0
2391	0	0	0
2392	0	0	0
2393	0	0	0
2394	0	0	0
2395	0	0	0
2396	203	188	217
2397	207	196	237
2398	203	182	238
2399	206	178	242
2400	208	170	241
2401	194	149	228
2402	188	148	226
2403	183	142	219
2404	183	133	215
2405	181	126	215
2406	182	127	217
2407	177	122	212
2408	170	116	206
2409	171	117	204
2410	173	117	204
2411	167	109	200
2412	158	99	194
2413	148	89	187
2414	142	86	184
2415	143	90	188
2416	148	94	191
2417	149	91	190
2418	156	90	191
2419	160	91	191
2420	170	103	198
2421	168	101	195
2422	164	95	190
2423	166	98	194
2424	165	99	195
2425	167	101	197
2426	177	110	203
2427	176	107	198
2428	175	105	195
2429	184	116	205
2430	194	128	212
2431	197	131	213
2432	194	127	210
2433	190	125	210
2434	0	0	0
2435	0	0	0
2436	0	0	0
2437	0	0	0
2438	0	0	0
2439	0	0	0
2440	0	0	0
2441	0	0	0
2442	0	0	0
2443	0	0	0
2444	0	0	0
2445	0	0	0
2446	0	0	0
2447	0	0	0
2448	0	0	0
2449	0	0	0
2450	0	0	0
2451	0	0	0
2452	0	0	0
2453	0	0	0
2454	216	208	244
2455	204	193	241
2456	202	186	242
2457	193	168	234
2458	181	147	224
2459	175	142	221
2460	174	137	217
2461	181	136	219
2462	181	130	218
2463	182	130	219
2464	177	125	214
2465	175	125	212
2466	175	126	211
2467	169	117	205
2468	163	109	201
2469	158	103	198
2470	149	94	192
2471	150	99	195
2472	153	104	199
2473	150	99	195
2474	152	96	195
2475	162	101	199
2476	166	102	199
2477	168	103	199
2478	164	99	193
2479	163	101	193
2480	164	104	195
2481	163	104	196
2482	168	107	200
2483	176	109	203
2484	175	106	198
2485	182	116	203
2486	190	127	212
2487	192	130	213
2488	192	131	214
2489	186	127	209
2490	0	0	0
2491	0	0	0
2492	0	0	0
2493	0	0	0
2494	0	0	0
2495	0	0	0
2496	0	0	0
2497	0	0	0
2498	0	0	0
2499	0	0	0
2500	0	0	0
2501	0	0	0
2502	0	0	0
2503	0	0	0
2504	0	0	0
2505	0	0	0
2506	0	0	0
2507	0	0	0
2508	0	0	0
2509	0	0	0
2510	0	0	0
2511	0	0	0
2512	195	188	231
2513	193	194	239
2514	173	170	227
2515	178	172	235
2516	189	176	243
2517	190	167	238
2518	199	166	240
2519	191	149	230
2520	188	146	229
2521	182	136	221
2522	186	140	224
2523	188	142	225
2524	180	132	217
2525	174	125	213
2526	168	119	210
2527	162	110	204
2528	170	118	210
2529	176	125	215
2530	172	119	210
2531	172	117	211
2532	177	120	213
2533	175	116	210
2534	174	115	208
2535	158	99	193
2536	150	97	190
2537	157	110	198
2538	164	114	202
2539	180	127	214
2540	193	132	220
2541	195	130	216
2542	199	138	220
2543	196	138	218
2544	190	136	216
2545	191	145	221
2546	0	0	0
2547	0	0	0
2548	0	0	0
2549	0	0	0
2550	0	0	0
2551	0	0	0
2552	0	0	0
2553	0	0	0
2554	0	0	0
2555	0	0	0
2556	0	0	0
2557	0	0	0
2558	0	0	0
2559	0	0	0
2560	0	0	0
2561	0	0	0
2562	0	0	0
2563	0	0	0
2564	0	0	0
2565	0	0	0
2566	0	0	0
2567	0	0	0
2568	0	0	0
2569	0	0	0
2570	203	213	246
2571	185	200	242
2572	186	201	250
2573	188	192	250
2574	191	183	247
2575	194	173	243
2576	188	156	232
2577	185	151	229
2578	181	142	223
2579	190	150	231
2580	193	152	233
2581	185	144	226
2582	178	136	220
2583	172	128	215
2584	168	120	211
2585	184	135	221
2586	190	141	223
2587	186	136	219
2588	186	134	221
2589	183	130	219
2590	179	125	216
2591	171	114	207
2592	157	99	195
2593	159	111	202
2594	168	125	213
2595	182	137	222
2596	195	147	229
2597	200	147	228
2598	199	142	224
2599	192	139	218
2600	186	137	214
2601	187	146	218
2602	0	0	0
2603	0	0	0
2604	0	0	0
2605	0	0	0
2606	0	0	0
2607	0	0	0
2608	0	0	0
2609	0	0	0
2610	0	0	0
2611	0	0	0
2612	0	0	0
2613	0	0	0
2614	0	0	0
2615	0	0	0
2616	0	0	0
2617	0	0	0
2618	0	0	0
2619	0	0	0
2620	0	0	0
2621	0	0	0
2622	0	0	0
2623	0	0	0
2624	0	0	0
2625	0	0	0
2626	0	0	0
2627	0	0	0
2628	0	0	0
2629	191	215	249
2630	178	198	242
2631	186	200	250
2632	194	194	251
2633	195	183	244
2634	199	181	246
2635	190	161	236
2636	199	168	243
2637	193	159	238
2638	182	149	229
2639	175	140	222
2640	169	133	217
2641	175	136	221
2642	192	150	232
2643	181	131	216
2644	178	126	212
2645	190	143	226
2646	186	138	224
2647	180	129	218
2648	175	121	213
2649	186	135	223
2650	199	153	236
2651	195	145	232
2652	203	154	238
2653	197	147	230
2654	186	137	220
2655	189	149	225
2656	0	0	0
2657	0	0	0
2658	0	0	0
2659	0	0	0
2660	0	0	0
2661	0	0	0
2662	0	0	0
2663	0	0	0
2664	0	0	0
2665	0	0	0
2666	0	0	0
2667	0	0	0
2668	0	0	0
2669	0	0	0
2670	0	0	0
2671	0	0	0
2672	0	0	0
2673	0	0	0
2674	0	0	0
2675	0	0	0
2676	0	0	0
2677	0	0	0
2678	0	0	0
2679	0	0	0
2680	0	0	0
2681	0	0	0
2682	0	0	0
2683	0	0	0
2684	0	0	0
2685	0	0	0
2686	0	0	0
2687	0	0	0
2688	198	228	255
2689	196	215	255
2690	194	203	249
2691	188	186	241
2692	182	168	236
2693	189	168	241
2694	185	159	236
2695	176	151	229
2696	170	143	222
2697	172	145	224
2698	179	147	227
2699	179	137	223
2700	170	119	211
2701	182	136	223
2702	194	152	232
2703	186	142	225
2704	181	134	221
2705	193	149	232
2706	202	162	240
2707	196	153	233
2708	188	144	227
2709	184	139	224
2710	175	131	217
2711	175	142	221
2712	0	0	0
2713	0	0	0
2714	0	0	0
2715	0	0	0
2716	0	0	0
2717	0	0	0
2718	0	0	0
2719	0	0	0
2720	0	0	0
2721	0	0	0
2722	0	0	0
2723	0	0	0
2724	0	0	0
2725	0	0	0
2726	0	0	0
2727	0	0	0
2728	0	0	0
2729	0	0	0
2730	0	0	0
2731	0	0	0
2732	0	0	0
2733	0	0	0
2734	0	0	0
2735	0	0	0
2736	0	0	0
2737	0	0	0
2738	0	0	0
2739	0	0	0
2740	0	0	0
2741	0	0	0
2742	0	0	0
2743	0	0	0
2744	209	229	243
2745	198	227	248
2746	174	203	235
2747	175	207	239
2748	166	189	232
2749	174	187	240
2750	192	193	252
2751	189	181	246
2752	185	174	242
2753	182	169	239
2754	187	172	242
2755	190	169	242
2756	189	158	237
2757	190	154	236
2758	203	171	248
2759	202	168	244
2760	197	159	237
2761	197	159	239
2762	204	171	247
2763	194	163	238
2764	175	147	223
2765	177	159	230
2766	168	151	223
2767	0	0	0
2768	0	0	0
2769	0	0	0
2770	0	0	0
2771	0	0	0
2772	0	0	0
2773	0	0	0
2774	0	0	0
2775	0	0	0
2776	0	0	0
2777	0	0	0
2778	0	0	0
2779	0	0	0
2780	0	0	0
2781	0	0	0
2782	0	0	0
2783	0	0	0
2784	0	0	0
2785	0	0	0
2786	0	0	0
2787	0	0	0
2788	0	0	0
2789	0	0	0
2790	0	0	0
2791	0	0	0
2792	0	0	0
2793	0	0	0
2794	0	0	0
2795	0	0	0
2796	0	0	0
2797	0	0	0
2798	0	0	0
2799	0	0	0
2800	0	0	0
2801	0	0	0
2802	217	240	251
2803	200	233	248
2804	197	236	253
2805	184	221	247
2806	186	216	252
2807	189	206	252
2808	184	193	246
2809	180	187	244
2810	178	182	242
2811	180	180	243
2812	184	177	244
2813	190	177	246
2814	190	173	243
2815	190	171	242
2816	187	168	240
2817	188	168	240
2818	187	167	239
2819	184	163	235
2820	175	156	228
2821	179	169	234
2822	0	0	0
2823	0	0	0
2824	0	0	0
2825	0	0	0
2826	0	0	0
2827	0	0	0
2828	0	0	0
2829	0	0	0
2830	0	0	0
2831	0	0	0
2832	0	0	0
2833	0	0	0
2834	0	0	0
2835	0	0	0
2836	0	0	0
2837	0	0	0
2838	0	0	0
2839	0	0	0
2840	0	0	0
2841	0	0	0
2842	0	0	0
2843	0	0	0
2844	0	0	0
2845	0	0	0
2846	0	0	0
2847	0	0	0
2848	0	0	0
2849	0	0	0
2850	0	0	0
2851	0	0	0
2852	0	0	0
2853	0	0	0
2854	0	0	0
2855	0	0	0
2856	0	0	0
2857	0	0	0
2858	0	0	0
2859	0	0	0
2860	0	0	0
2861	0	0	0
2862	200	223	241
2863	198	229	250
2864	180	208	239
2865	179	210	243
2866	172	203	241
2867	173	202	244
2868	175	200	246
2869	176	195	245
2870	182	195	246
2871	180	190	242
2872	178	187	240
2873	175	186	239
2874	169	182	235
2875	174	190	240
2876	0	0	0
2877	0	0	0
2878	0	0	0
2879	0	0	0
2880	0	0	0
2881	0	0	0
2882	0	0	0
2883	0	0	0
2884	0	0	0
2885	0	0	0
2886	0	0	0
2887	0	0	0
2888	0	0	0
2889	0	0	0
2890	0	0	0
2891	0	0	0
2892	0	0	0
2893	0	0	0
2894	0	0	0
2895	0	0	0
2896	0	0	0
2897	0	0	0
2898	0	0	0
2899	0	0	0
2900	0	0	0
2901	0	0	0
2902	0	0	0
2903	0	0	0
2904	0	0	0
2905	0	0	0
2906	0	0	0
2907	0	0	0
