 	R	G	B
1	0	0	0
2	0	0	0
3	0	0	0
4	0	0	0
5	0	0	0
6	0	0	0
7	0	0	0
8	0	0	0
9	255	236	234
10	255	244	240
11	255	245	236
12	255	247	236
13	255	252	240
14	255	251	240
15	255	251	239
16	255	249	238
17	255	246	236
18	255	248	238
19	255	249	239
20	255	246	237
21	255	247	239
22	255	243	238
23	255	237	232
24	255	241	235
25	255	247	241
26	255	248	243
27	255	248	242
28	255	243	238
29	255	240	237
30	255	242	240
31	255	244	245
32	255	240	243
33	0	0	0
34	0	0	0
35	0	0	0
36	0	0	0
37	0	0	0
38	0	0	0
39	0	0	0
40	0	0	0
41	0	0	0
42	0	0	0
43	255	234	231
44	255	222	226
45	255	230	232
46	255	217	219
47	255	223	221
48	255	221	222
49	255	221	222
50	255	213	216
51	251	210	213
52	255	216	220
53	255	217	221
54	255	219	220
55	255	216	218
56	255	219	222
57	254	214	221
58	255	215	222
59	255	220	226
60	255	218	226
61	255	219	226
62	254	215	223
63	251	212	221
64	254	214	224
65	255	216	228
66	255	216	231
67	254	211	229
68	254	210	227
69	248	201	220
70	0	0	0
71	0	0	0
72	255	249	240
73	255	254	240
74	255	252	240
75	255	248	238
76	255	244	237
77	255	236	233
78	255	227	228
79	255	215	223
80	255	208	220
81	252	197	211
82	254	198	212
83	253	194	210
84	249	188	206
85	244	181	200
86	247	186	204
87	251	192	209
88	250	193	209
89	250	194	208
90	248	193	207
91	249	194	208
92	247	193	210
93	249	195	215
94	247	193	215
95	244	190	211
96	241	186	208
97	240	184	209
98	243	186	212
99	244	188	214
100	244	188	216
101	244	187	218
102	242	184	217
103	241	183	215
104	241	183	216
105	243	186	221
106	255	233	233
107	255	244	240
108	255	230	230
109	255	225	227
110	255	217	222
111	255	213	221
112	249	194	210
113	247	185	207
114	252	189	213
115	251	183	212
116	250	178	211
117	253	179	213
118	245	167	204
119	241	161	200
120	247	172	206
121	250	176	209
122	249	177	210
123	249	177	210
124	250	182	212
125	248	180	209
126	249	184	212
127	248	183	212
128	255	193	223
129	253	191	223
130	249	188	219
131	245	183	215
132	252	192	224
133	255	195	228
134	248	184	221
135	248	183	222
136	251	189	227
137	248	185	225
138	250	190	227
139	250	190	229
140	250	192	232
141	255	231	236
142	255	220	229
143	253	206	219
144	249	197	214
145	248	189	212
146	237	170	201
147	229	152	193
148	235	157	199
149	240	159	204
150	239	154	203
151	238	150	205
152	231	139	201
153	222	127	193
154	232	140	201
155	238	149	207
156	236	149	205
157	235	150	206
158	239	156	210
159	242	161	213
160	243	164	214
161	244	168	216
162	247	174	220
163	252	183	226
164	247	178	222
165	244	175	219
166	247	181	223
167	253	189	230
168	247	179	225
169	239	168	218
170	243	175	223
171	245	179	225
172	244	180	225
173	246	185	229
174	245	185	230
175	0	0	0
176	0	0	0
177	251	195	221
178	0	0	0
179	244	176	213
180	252	183	220
181	241	163	209
182	246	166	216
183	253	170	222
184	248	161	216
185	245	155	215
186	249	160	223
187	239	147	217
188	241	151	220
189	251	164	230
190	248	162	225
191	245	160	223
192	250	168	229
193	255	175	234
194	248	166	227
195	249	169	228
196	253	177	231
197	255	182	233
198	255	184	234
199	248	178	228
200	251	184	232
201	255	191	236
202	252	187	235
203	245	176	228
204	249	182	233
205	252	188	237
206	248	186	233
207	0	0	0
208	0	0	0
209	0	0	0
210	0	0	0
211	0	0	0
212	0	0	0
213	0	0	0
214	0	0	0
215	245	166	223
216	247	165	224
217	251	167	228
218	248	160	224
219	242	150	218
220	247	155	223
221	250	158	229
222	248	161	232
223	250	165	234
224	253	166	235
225	250	163	231
226	250	167	232
227	255	174	237
228	248	166	231
229	242	158	227
230	248	167	232
231	250	174	232
232	250	175	231
233	250	178	233
234	251	183	235
235	254	189	239
236	250	184	235
237	247	180	234
238	247	183	235
239	250	188	238
240	248	187	237
241	0	0	0
242	0	0	0
243	0	0	0
244	0	0	0
245	0	0	0
246	0	0	0
247	0	0	0
248	0	0	0
249	254	177	238
250	255	178	239
251	255	176	239
252	254	169	235
253	250	161	230
254	251	161	232
255	255	166	237
256	252	161	235
257	250	163	237
258	246	159	234
259	250	160	235
260	253	166	237
261	252	170	237
262	254	175	241
263	247	166	234
264	253	175	240
265	255	185	246
266	251	177	236
267	250	179	234
268	255	188	241
269	255	194	245
270	254	187	240
271	249	181	236
272	252	189	241
273	248	190	240
274	0	0	0
275	0	0	0
276	0	0	0
277	0	0	0
278	0	0	0
279	0	0	0
280	0	0	0
281	0	0	0
282	0	0	0
283	0	0	0
284	254	179	241
285	255	179	240
286	250	169	234
287	247	163	231
288	248	163	233
289	249	162	234
290	246	158	232
291	241	153	230
292	236	150	229
293	233	146	227
294	242	156	234
295	245	161	234
296	246	165	235
297	0	0	0
298	252	178	242
299	255	185	244
300	251	179	238
301	244	172	231
302	247	181	235
303	250	189	239
304	244	181	233
305	239	175	231
306	246	186	238
307	248	192	239
308	0	0	0
309	0	0	0
310	0	0	0
311	0	0	0
312	0	0	0
313	0	0	0
314	0	0	0
315	0	0	0
316	0	0	0
317	0	0	0
318	0	0	0
319	0	0	0
320	255	182	242
321	250	173	236
322	253	176	241
323	253	176	242
324	248	170	239
325	0	0	0
326	0	0	0
327	0	0	0
328	0	0	0
329	0	0	0
330	246	176	243
331	0	0	0
332	0	0	0
333	0	0	0
334	255	196	248
335	252	189	241
336	245	184	238
337	247	192	242
338	242	191	237
339	232	181	229
340	241	196	241
341	250	207	249
342	243	198	239
343	246	205	243
344	0	0	0
345	0	0	0
346	0	0	0
347	0	0	0
348	0	0	0
349	0	0	0
350	0	0	0
351	0	0	0
352	0	0	0
353	0	0	0
354	0	0	0
355	0	0	0
356	251	182	242
357	255	186	247
358	251	181	244
359	0	0	0
360	0	0	0
361	0	0	0
362	0	0	0
363	0	0	0
364	0	0	0
365	0	0	0
366	0	0	0
367	0	0	0
368	0	0	0
369	0	0	0
370	243	192	238
371	237	187	236
372	233	188	237
373	0	0	0
374	234	199	240
375	243	213	249
376	241	208	245
377	236	200	237
378	239	205	240
379	0	0	0
380	0	0	0
381	0	0	0
382	0	0	0
383	0	0	0
384	0	0	0
385	0	0	0
386	0	0	0
387	0	0	0
388	0	0	0
389	0	0	0
390	0	0	0
391	0	0	0
392	0	0	0
393	0	0	0
394	0	0	0
395	0	0	0
396	0	0	0
397	0	0	0
398	0	0	0
399	0	0	0
400	0	0	0
401	0	0	0
402	0	0	0
403	0	0	0
404	0	0	0
405	0	0	0
406	0	0	0
407	0	0	0
408	0	0	0
409	0	0	0
410	0	0	0
411	0	0	0
412	235	211	240
413	0	0	0
414	0	0	0
415	0	0	0
416	0	0	0
417	0	0	0
418	0	0	0
419	0	0	0
420	0	0	0
