 	R	G	B
1	0	0	0
2	0	0	0
3	0	0	0
4	0	0	0
5	255	240	240
6	0	0	0
7	0	0	0
8	0	0	0
9	0	0	0
10	0	0	0
11	0	0	0
12	0	0	0
13	0	0	0
14	0	0	0
15	0	0	0
16	0	0	0
17	0	0	0
18	0	0	0
19	0	0	0
20	0	0	0
21	0	0	0
22	0	0	0
23	0	0	0
24	0	0	0
25	0	0	0
26	0	0	0
27	0	0	0
28	0	0	0
29	0	0	0
30	255	238	237
31	254	228	232
32	251	220	226
33	0	0	0
34	255	224	228
35	255	228	232
36	0	0	0
37	0	0	0
38	0	0	0
39	0	0	0
40	0	0	0
41	0	0	0
42	0	0	0
43	0	0	0
44	0	0	0
45	0	0	0
46	0	0	0
47	0	0	0
48	0	0	0
49	0	0	0
50	0	0	0
51	0	0	0
52	0	0	0
53	0	0	0
54	0	0	0
55	0	0	0
56	254	230	231
57	253	224	229
58	250	216	224
59	255	225	230
60	255	232	233
61	255	223	228
62	255	214	227
63	0	0	0
64	0	0	0
65	0	0	0
66	0	0	0
67	255	214	224
68	255	218	227
69	255	219	229
70	0	0	0
71	0	0	0
72	0	0	0
73	0	0	0
74	0	0	0
75	0	0	0
76	0	0	0
77	0	0	0
78	0	0	0
79	0	0	0
80	0	0	0
81	0	0	0
82	255	231	231
83	255	224	228
84	252	216	224
85	255	225	231
86	255	220	226
87	253	210	220
88	251	207	223
89	245	203	220
90	247	207	221
91	252	210	223
92	252	209	223
93	255	215	227
94	252	207	221
95	253	208	223
96	251	208	222
97	0	0	0
98	0	0	0
99	0	0	0
100	0	0	0
101	0	0	0
102	0	0	0
103	0	0	0
104	0	0	0
105	0	0	0
106	0	0	0
107	0	0	0
108	255	230	229
109	255	222	225
110	252	214	222
111	252	212	223
112	251	208	221
113	252	206	222
114	249	203	220
115	251	208	223
116	254	213	225
117	255	213	226
118	255	212	226
119	253	206	223
120	248	198	219
121	252	203	223
122	0	0	0
123	0	0	0
124	0	0	0
125	0	0	0
126	0	0	0
127	0	0	0
128	0	0	0
129	0	0	0
130	0	0	0
131	0	0	0
132	0	0	0
133	0	0	0
134	255	231	230
135	255	223	225
136	248	207	218
137	247	205	219
138	255	216	228
139	255	215	229
140	251	201	220
141	255	208	225
142	253	202	222
143	254	202	222
144	254	202	222
145	249	195	219
146	251	198	223
147	255	203	226
148	248	198	219
149	0	0	0
150	0	0	0
151	0	0	0
152	0	0	0
153	0	0	0
154	0	0	0
155	0	0	0
156	0	0	0
157	0	0	0
158	0	0	0
159	0	0	0
160	255	233	234
161	254	216	223
162	244	200	214
163	253	211	223
164	255	222	231
165	255	209	223
166	249	195	216
167	251	194	218
168	248	189	218
169	251	192	220
170	251	192	220
171	252	195	222
172	254	198	224
173	253	198	224
174	247	193	218
175	0	0	0
176	0	0	0
177	0	0	0
178	0	0	0
179	0	0	0
180	0	0	0
181	0	0	0
182	0	0	0
183	0	0	0
184	254	222	227
185	255	223	227
186	255	229	233
187	252	212	223
188	247	202	216
189	255	213	225
190	255	215	227
191	252	201	219
192	254	200	220
193	255	199	224
194	252	190	222
195	255	193	226
196	255	195	225
197	255	198	227
198	250	188	221
199	247	187	219
200	244	190	218
201	0	0	0
202	0	0	0
203	0	0	0
204	0	0	0
205	0	0	0
206	0	0	0
207	0	0	0
208	0	0	0
209	248	217	227
210	245	211	220
211	250	215	222
212	255	222	231
213	253	212	225
214	247	202	217
215	251	205	220
216	255	207	225
217	255	205	225
218	255	203	225
219	255	196	223
220	250	187	221
221	254	192	226
222	255	193	224
223	251	186	221
224	244	177	217
225	249	186	223
226	247	189	222
227	0	0	0
228	0	0	0
229	0	0	0
230	0	0	0
231	0	0	0
232	0	0	0
233	0	0	0
234	0	0	0
235	241	212	224
236	248	222	228
237	255	228	232
238	255	222	232
239	254	213	227
240	250	205	221
241	253	208	224
242	255	210	228
243	255	208	228
244	253	196	220
245	249	188	217
246	251	189	222
247	255	193	227
248	251	187	222
249	247	181	219
250	247	180	221
251	255	192	230
252	248	184	221
253	0	0	0
254	0	0	0
255	0	0	0
256	0	0	0
257	0	0	0
258	0	0	0
259	0	0	0
260	0	0	0
261	245	222	231
262	252	231	234
263	249	222	227
264	249	216	226
265	251	211	226
266	249	205	223
267	253	207	225
268	255	208	225
269	253	198	219
270	247	187	213
271	250	189	218
272	253	191	224
273	253	189	226
274	250	183	222
275	252	185	225
276	252	184	226
277	254	185	226
278	247	178	217
279	255	194	224
280	0	0	0
281	0	0	0
282	0	0	0
283	0	0	0
284	0	0	0
285	0	0	0
286	0	0	0
287	0	0	0
288	251	230	234
289	0	0	0
290	0	0	0
291	0	0	0
292	254	213	229
293	255	215	231
294	254	207	224
295	253	198	219
296	251	190	216
297	254	193	222
298	255	191	226
299	255	190	229
300	251	179	222
301	253	181	225
302	250	176	223
303	250	176	223
304	249	178	219
305	255	194	226
306	245	185	214
307	0	0	0
308	0	0	0
309	0	0	0
310	0	0	0
311	0	0	0
312	0	0	0
313	0	0	0
314	0	0	0
315	0	0	0
316	0	0	0
317	255	229	236
318	255	221	232
319	255	214	229
320	255	206	223
321	255	201	222
322	255	194	221
323	255	193	224
324	255	191	227
325	253	182	224
326	246	171	216
327	246	169	217
328	244	165	219
329	248	172	224
330	247	174	220
331	247	176	219
332	236	169	209
333	253	202	225
334	0	0	0
335	0	0	0
336	0	0	0
337	0	0	0
338	0	0	0
339	0	0	0
340	0	0	0
341	0	0	0
342	254	234	238
343	255	229	237
344	254	213	227
345	254	208	225
346	253	200	221
347	254	195	220
348	255	192	222
349	255	191	226
350	252	182	224
351	246	173	220
352	244	170	216
353	245	168	218
354	249	174	226
355	252	180	231
356	246	175	224
357	249	180	225
358	241	173	216
359	255	206	233
360	255	217	232
361	0	0	0
362	0	0	0
363	0	0	0
364	0	0	0
365	0	0	0
366	0	0	0
367	0	0	0
368	254	234	236
369	253	220	230
370	249	206	223
371	251	201	223
372	250	194	220
373	254	193	222
374	255	190	224
375	253	184	224
376	249	175	222
377	249	175	224
378	248	172	223
379	253	178	228
380	255	183	232
381	251	179	229
382	246	174	225
383	248	177	227
384	239	171	218
385	249	190	225
386	249	202	223
387	0	0	0
388	0	0	0
389	0	0	0
390	0	0	0
391	0	0	0
392	0	0	0
393	0	0	0
394	253	232	236
395	252	219	231
396	255	213	230
397	255	209	231
398	251	194	223
399	255	193	225
400	254	186	224
401	252	180	224
402	250	174	224
403	253	174	227
404	250	171	224
405	254	176	227
406	255	183	231
407	255	181	229
408	247	172	225
409	244	173	224
410	243	177	223
411	252	197	230
412	247	200	222
413	0	0	0
414	0	0	0
415	0	0	0
416	0	0	0
417	0	0	0
418	0	0	0
419	0	0	0
420	254	232	240
421	250	220	234
422	250	213	231
423	243	197	222
424	239	183	215
425	247	183	220
426	247	177	218
427	251	176	222
428	250	171	224
429	253	173	227
430	250	168	221
431	255	177	227
432	255	184	230
433	255	179	226
434	248	170	222
435	249	179	226
436	247	183	224
437	249	193	225
438	246	196	220
439	0	0	0
440	0	0	0
441	0	0	0
442	0	0	0
443	0	0	0
444	0	0	0
445	0	0	0
446	0	0	0
447	233	207	223
448	0	0	0
449	0	0	0
450	245	203	228
451	255	208	238
452	247	176	220
453	251	175	223
454	252	173	225
455	255	175	229
456	253	170	224
457	255	179	229
458	254	172	222
459	249	166	217
460	250	170	221
461	253	180	226
462	254	187	226
463	255	197	228
464	247	192	220
465	0	0	0
466	0	0	0
467	0	0	0
468	0	0	0
469	0	0	0
470	0	0	0
471	0	0	0
472	0	0	0
473	0	0	0
474	0	0	0
475	0	0	0
476	255	224	241
477	254	200	232
478	241	170	216
479	250	175	224
480	253	173	225
481	255	177	231
482	255	173	229
483	255	171	227
484	252	164	220
485	255	170	222
486	255	173	223
487	255	185	229
488	255	193	231
489	255	193	228
490	248	189	222
491	0	0	0
492	0	0	0
493	0	0	0
494	0	0	0
495	0	0	0
496	0	0	0
497	0	0	0
498	0	0	0
499	0	0	0
500	0	0	0
501	0	0	0
502	255	222	239
503	250	197	227
504	249	182	223
505	255	189	233
506	254	173	226
507	255	178	233
508	245	152	217
509	245	150	217
510	254	164	223
511	255	170	225
512	249	162	217
513	255	174	223
514	255	179	223
515	250	179	220
516	248	184	221
517	0	0	0
518	0	0	0
519	0	0	0
520	0	0	0
521	0	0	0
522	0	0	0
523	0	0	0
524	0	0	0
525	0	0	0
526	0	0	0
527	0	0	0
528	0	0	0
529	255	206	231
530	254	192	226
531	255	183	226
532	250	168	221
533	243	151	214
534	228	127	202
535	245	148	219
536	254	162	225
537	249	157	220
538	242	150	214
539	248	160	218
540	247	165	217
541	249	174	219
542	246	178	217
543	0	0	0
544	0	0	0
545	0	0	0
546	0	0	0
547	0	0	0
548	0	0	0
549	0	0	0
550	0	0	0
551	0	0	0
552	0	0	0
553	0	0	0
554	0	0	0
555	0	0	0
556	250	188	222
557	252	180	224
558	249	168	222
559	243	151	216
560	242	146	217
561	255	168	234
562	254	160	226
563	249	155	221
564	252	162	225
565	255	172	230
566	249	165	221
567	251	174	222
568	243	174	216
569	0	0	0
570	0	0	0
571	0	0	0
572	0	0	0
573	0	0	0
574	0	0	0
575	0	0	0
576	0	0	0
577	0	0	0
578	0	0	0
579	0	0	0
580	0	0	0
581	0	0	0
582	0	0	0
583	244	174	222
584	242	161	220
585	248	162	225
586	247	156	223
587	253	160	227
588	248	152	220
589	254	162	226
590	255	169	230
591	254	166	226
592	246	160	219
593	251	171	224
594	243	171	218
595	0	0	0
596	0	0	0
597	0	0	0
598	0	0	0
599	0	0	0
600	0	0	0
601	0	0	0
602	0	0	0
603	0	0	0
604	0	0	0
605	0	0	0
606	0	0	0
607	0	0	0
608	0	0	0
609	0	0	0
610	249	178	231
611	255	180	236
612	253	167	230
613	255	171	234
614	242	145	216
615	249	155	222
616	255	171	230
617	255	169	227
618	251	164	223
619	255	177	231
620	241	164	218
621	0	0	0
622	0	0	0
623	0	0	0
624	0	0	0
625	0	0	0
626	0	0	0
627	0	0	0
628	0	0	0
629	0	0	0
630	0	0	0
631	0	0	0
632	0	0	0
633	0	0	0
634	0	0	0
635	0	0	0
636	0	0	0
637	255	187	238
638	255	174	232
639	250	159	225
640	233	134	210
641	249	156	224
642	255	172	229
643	254	167	222
644	250	163	220
645	248	164	221
646	235	152	212
647	0	0	0
648	0	0	0
649	0	0	0
650	0	0	0
651	0	0	0
652	0	0	0
653	0	0	0
654	0	0	0
655	0	0	0
656	0	0	0
657	0	0	0
658	0	0	0
659	0	0	0
660	0	0	0
661	0	0	0
662	255	202	241
663	255	193	239
664	250	170	227
665	245	156	223
666	240	145	219
667	255	168	234
668	255	175	231
669	255	171	224
670	252	167	223
671	251	167	224
672	242	161	219
673	0	0	0
674	0	0	0
675	0	0	0
676	0	0	0
677	0	0	0
678	0	0	0
679	0	0	0
680	0	0	0
681	0	0	0
682	0	0	0
683	0	0	0
684	0	0	0
685	0	0	0
686	0	0	0
687	0	0	0
688	0	0	0
689	252	185	230
690	242	163	221
691	246	162	227
692	242	152	225
693	255	170	237
694	255	177	234
695	255	175	229
696	255	171	228
697	255	173	230
698	247	167	223
699	255	186	231
700	0	0	0
701	0	0	0
702	0	0	0
703	0	0	0
704	0	0	0
705	0	0	0
706	0	0	0
707	0	0	0
708	0	0	0
709	0	0	0
710	0	0	0
711	0	0	0
712	0	0	0
713	0	0	0
714	0	0	0
715	0	0	0
716	0	0	0
717	254	177	235
718	250	167	233
719	255	185	246
720	255	172	233
721	255	170	229
722	251	165	225
723	252	167	226
724	249	167	223
725	255	185	232
726	242	178	217
727	0	0	0
728	0	0	0
729	0	0	0
730	0	0	0
731	0	0	0
732	0	0	0
733	0	0	0
734	0	0	0
735	0	0	0
736	0	0	0
737	0	0	0
738	0	0	0
739	0	0	0
740	0	0	0
741	0	0	0
742	0	0	0
743	0	0	0
744	252	176	234
745	255	176	237
746	250	165	228
747	251	165	227
748	247	159	221
749	251	165	223
750	247	165	222
751	248	172	224
752	235	166	213
753	250	200	229
754	0	0	0
755	0	0	0
756	0	0	0
757	0	0	0
758	0	0	0
759	0	0	0
760	0	0	0
761	0	0	0
762	0	0	0
763	0	0	0
764	0	0	0
765	0	0	0
766	0	0	0
767	0	0	0
768	0	0	0
769	0	0	0
770	255	185	236
771	255	185	241
772	243	155	223
773	246	156	224
774	251	163	227
775	254	170	229
776	247	164	223
777	245	170	224
778	242	174	222
779	255	210	242
780	255	214	234
781	0	0	0
782	0	0	0
783	0	0	0
784	0	0	0
785	0	0	0
786	0	0	0
787	0	0	0
788	0	0	0
789	0	0	0
790	0	0	0
791	0	0	0
792	0	0	0
793	0	0	0
794	0	0	0
795	0	0	0
796	0	0	0
797	238	162	221
798	222	134	207
799	241	154	225
800	249	163	230
801	249	164	229
802	242	159	221
803	245	171	226
804	242	174	224
805	248	189	229
806	241	193	223
807	0	0	0
808	0	0	0
809	0	0	0
810	0	0	0
811	0	0	0
812	0	0	0
813	0	0	0
814	0	0	0
815	0	0	0
816	0	0	0
817	0	0	0
818	0	0	0
819	0	0	0
820	0	0	0
821	0	0	0
822	0	0	0
823	0	0	0
824	236	166	226
825	255	190	248
826	251	169	235
827	253	172	235
828	249	170	231
829	254	183	237
830	241	173	225
831	245	187	229
832	246	200	229
833	0	0	0
834	0	0	0
835	0	0	0
836	0	0	0
837	0	0	0
838	0	0	0
839	0	0	0
840	0	0	0
841	0	0	0
842	0	0	0
843	0	0	0
844	0	0	0
845	0	0	0
846	0	0	0
847	0	0	0
848	0	0	0
849	0	0	0
850	250	195	238
851	254	187	238
852	245	168	229
853	253	177	237
854	251	176	235
855	247	176	233
856	235	167	224
857	246	190	234
858	246	203	231
859	0	0	0
860	0	0	0
861	0	0	0
862	0	0	0
863	0	0	0
864	0	0	0
865	0	0	0
866	0	0	0
867	0	0	0
868	0	0	0
869	0	0	0
870	0	0	0
871	0	0	0
872	0	0	0
873	0	0	0
874	0	0	0
875	0	0	0
876	253	203	239
877	255	194	237
878	249	177	232
879	255	188	243
880	251	180	236
881	246	179	235
882	234	170	227
883	247	194	238
884	245	203	232
885	0	0	0
886	0	0	0
887	0	0	0
888	0	0	0
889	0	0	0
890	0	0	0
891	0	0	0
892	0	0	0
893	0	0	0
894	0	0	0
895	0	0	0
896	0	0	0
897	0	0	0
898	0	0	0
899	0	0	0
900	0	0	0
901	251	216	243
902	254	211	241
903	251	198	235
904	243	181	230
905	245	181	233
906	240	174	227
907	238	175	229
908	230	168	225
909	247	195	241
910	0	0	0
911	0	0	0
912	0	0	0
913	0	0	0
914	0	0	0
915	0	0	0
916	0	0	0
917	0	0	0
918	0	0	0
919	0	0	0
920	0	0	0
921	0	0	0
922	0	0	0
923	0	0	0
924	0	0	0
925	0	0	0
926	248	227	242
927	253	225	245
928	248	212	238
929	241	197	231
930	238	190	232
931	238	190	234
932	242	193	236
933	249	199	242
934	236	177	231
935	255	206	249
936	247	197	235
937	0	0	0
938	0	0	0
939	0	0	0
940	0	0	0
941	0	0	0
942	0	0	0
943	0	0	0
944	0	0	0
945	0	0	0
946	0	0	0
947	0	0	0
948	0	0	0
949	0	0	0
950	0	0	0
951	0	0	0
952	0	0	0
953	248	227	240
954	243	214	236
955	240	208	236
956	236	201	238
957	234	202	239
958	240	206	240
959	240	195	235
960	230	175	225
961	241	187	234
962	233	181	222
963	0	0	0
964	0	0	0
965	0	0	0
966	0	0	0
967	0	0	0
968	0	0	0
969	0	0	0
970	0	0	0
971	0	0	0
972	0	0	0
973	0	0	0
974	0	0	0
975	0	0	0
976	0	0	0
977	0	0	0
978	0	0	0
979	0	0	0
980	0	0	0
981	0	0	0
982	0	0	0
983	0	0	0
984	241	222	245
985	247	215	244
986	235	188	231
987	244	199	240
988	234	187	227
989	0	0	0
990	0	0	0
991	0	0	0
992	0	0	0
993	0	0	0
994	0	0	0
995	0	0	0
996	0	0	0
997	0	0	0
998	0	0	0
999	0	0	0
1000	0	0	0
1001	0	0	0
1002	0	0	0
1003	0	0	0
1004	0	0	0
1005	0	0	0
1006	0	0	0
1007	0	0	0
1008	0	0	0
1009	0	0	0
1010	0	0	0
1011	241	217	239
1012	0	0	0
1013	237	198	237
1014	0	0	0
