 	R	G	B
1	0	0	0
2	0	0	0
3	0	0	0
4	0	0	0
5	0	0	0
6	0	0	0
7	0	0	0
8	0	0	0
9	0	0	0
10	0	0	0
11	0	0	0
12	0	0	0
13	0	0	0
14	0	0	0
15	0	0	0
16	0	0	0
17	0	0	0
18	0	0	0
19	254	221	218
20	252	215	218
21	255	217	222
22	255	216	222
23	255	222	225
24	0	0	0
25	0	0	0
26	0	0	0
27	0	0	0
28	0	0	0
29	0	0	0
30	0	0	0
31	0	0	0
32	0	0	0
33	0	0	0
34	0	0	0
35	0	0	0
36	0	0	0
37	0	0	0
38	0	0	0
39	0	0	0
40	0	0	0
41	0	0	0
42	0	0	0
43	0	0	0
44	0	0	0
45	0	0	0
46	0	0	0
47	0	0	0
48	0	0	0
49	0	0	0
50	255	222	220
51	253	215	218
52	251	209	216
53	254	211	219
54	252	207	217
55	255	213	220
56	254	212	218
57	0	0	0
58	0	0	0
59	0	0	0
60	0	0	0
61	0	0	0
62	0	0	0
63	0	0	0
64	0	0	0
65	0	0	0
66	0	0	0
67	0	0	0
68	0	0	0
69	0	0	0
70	0	0	0
71	0	0	0
72	0	0	0
73	0	0	0
74	0	0	0
75	0	0	0
76	0	0	0
77	0	0	0
78	0	0	0
79	0	0	0
80	0	0	0
81	0	0	0
82	253	214	217
83	251	208	215
84	248	201	211
85	249	201	212
86	247	197	210
87	248	199	212
88	247	199	212
89	252	207	218
90	0	0	0
91	0	0	0
92	0	0	0
93	0	0	0
94	0	0	0
95	0	0	0
96	0	0	0
97	0	0	0
98	0	0	0
99	0	0	0
100	0	0	0
101	0	0	0
102	0	0	0
103	0	0	0
104	0	0	0
105	0	0	0
106	0	0	0
107	0	0	0
108	0	0	0
109	0	0	0
110	0	0	0
111	0	0	0
112	0	0	0
113	0	0	0
114	255	215	220
115	254	210	218
116	250	201	213
117	251	201	214
118	253	203	215
119	254	205	218
120	255	206	220
121	255	215	227
122	255	209	223
123	0	0	0
124	248	201	219
125	0	0	0
126	0	0	0
127	0	0	0
128	0	0	0
129	0	0	0
130	0	0	0
131	0	0	0
132	0	0	0
133	0	0	0
134	0	0	0
135	0	0	0
136	0	0	0
137	0	0	0
138	0	0	0
139	0	0	0
140	0	0	0
141	0	0	0
142	0	0	0
143	0	0	0
144	0	0	0
145	0	0	0
146	0	0	0
147	255	210	219
148	252	202	215
149	255	206	220
150	255	208	221
151	255	209	222
152	255	209	222
153	252	202	218
154	248	197	215
155	248	196	216
156	245	193	215
157	254	208	223
158	0	0	0
159	0	0	0
160	0	0	0
161	0	0	0
162	0	0	0
163	0	0	0
164	0	0	0
165	0	0	0
166	0	0	0
167	0	0	0
168	0	0	0
169	0	0	0
170	0	0	0
171	0	0	0
172	0	0	0
173	0	0	0
174	0	0	0
175	0	0	0
176	255	213	220
177	255	216	223
178	255	214	221
179	255	206	218
180	246	190	210
181	249	194	213
182	255	208	222
183	255	208	223
184	251	198	216
185	245	192	211
186	255	210	224
187	255	210	225
188	251	198	219
189	255	213	228
190	255	209	221
191	0	0	0
192	0	0	0
193	0	0	0
194	0	0	0
195	0	0	0
196	0	0	0
197	0	0	0
198	0	0	0
199	0	0	0
200	0	0	0
201	0	0	0
202	0	0	0
203	0	0	0
204	0	0	0
205	0	0	0
206	0	0	0
207	255	220	221
208	255	214	219
209	255	212	219
210	255	210	220
211	251	196	213
212	240	180	205
213	251	195	217
214	255	208	225
215	254	199	219
216	247	190	213
217	255	208	225
218	255	225	235
219	255	214	226
220	255	202	220
221	255	203	221
222	252	200	220
223	255	207	223
224	0	0	0
225	0	0	0
226	0	0	0
227	0	0	0
228	0	0	0
229	0	0	0
230	0	0	0
231	0	0	0
232	0	0	0
233	0	0	0
234	0	0	0
235	0	0	0
236	0	0	0
237	0	0	0
238	255	219	220
239	255	216	220
240	251	203	213
241	249	200	213
242	253	202	217
243	247	189	212
244	247	187	213
245	255	203	225
246	255	204	224
247	253	195	217
248	252	194	219
249	255	212	231
250	255	204	222
251	249	191	212
252	253	197	217
253	254	198	220
254	255	199	224
255	255	206	228
256	0	0	0
257	0	0	0
258	0	0	0
259	0	0	0
260	0	0	0
261	0	0	0
262	0	0	0
263	0	0	0
264	0	0	0
265	0	0	0
266	0	0	0
267	0	0	0
268	0	0	0
269	253	214	216
270	255	218	222
271	255	208	218
272	248	195	212
273	248	195	215
274	251	197	221
275	254	196	223
276	253	193	221
277	255	197	223
278	255	199	220
279	255	197	219
280	255	197	222
281	254	192	220
282	248	184	214
283	251	189	216
284	254	195	219
285	255	197	222
286	255	198	226
287	0	0	0
288	0	0	0
289	0	0	0
290	0	0	0
291	0	0	0
292	0	0	0
293	0	0	0
294	0	0	0
295	0	0	0
296	0	0	0
297	0	0	0
298	0	0	0
299	0	0	0
300	253	216	217
301	255	221	222
302	255	209	218
303	252	199	215
304	250	193	214
305	250	193	217
306	255	199	223
307	255	197	224
308	253	193	222
309	255	197	223
310	254	193	218
311	254	193	218
312	254	191	220
313	251	186	218
314	249	184	217
315	252	189	219
316	255	197	223
317	255	199	226
318	0	0	0
319	0	0	0
320	0	0	0
321	0	0	0
322	0	0	0
323	0	0	0
324	0	0	0
325	0	0	0
326	0	0	0
327	0	0	0
328	0	0	0
329	0	0	0
330	0	0	0
331	255	220	224
332	255	223	224
333	255	212	218
334	253	200	214
335	254	197	215
336	251	191	214
337	255	196	219
338	255	200	221
339	255	196	219
340	254	193	220
341	255	192	222
342	253	189	219
343	251	186	218
344	250	184	219
345	250	183	218
346	248	180	215
347	253	188	219
348	255	197	224
349	251	184	217
350	240	169	210
351	0	0	0
352	0	0	0
353	0	0	0
354	0	0	0
355	0	0	0
356	0	0	0
357	0	0	0
358	0	0	0
359	0	0	0
360	0	0	0
361	0	0	0
362	251	215	222
363	255	221	227
364	255	211	218
365	251	198	210
366	253	195	214
367	253	192	215
368	251	187	214
369	255	191	217
370	254	190	215
371	251	185	212
372	255	193	220
373	255	193	223
374	251	182	217
375	248	179	217
376	250	182	220
377	249	181	219
378	252	186	220
379	255	195	226
380	255	190	223
381	248	177	216
382	244	174	216
383	0	0	0
384	0	0	0
385	0	0	0
386	0	0	0
387	0	0	0
388	0	0	0
389	0	0	0
390	0	0	0
391	0	0	0
392	0	0	0
393	255	229	229
394	253	215	222
395	255	209	219
396	252	198	211
397	252	194	211
398	253	191	215
399	254	189	218
400	251	184	216
401	250	182	215
402	250	181	213
403	253	185	215
404	255	191	219
405	253	182	215
406	246	173	214
407	248	177	219
408	249	180	221
409	253	186	224
410	255	191	225
411	253	187	222
412	251	183	221
413	251	182	223
414	247	179	224
415	255	198	234
416	0	0	0
417	0	0	0
418	0	0	0
419	0	0	0
420	0	0	0
421	0	0	0
422	0	0	0
423	0	0	0
424	255	231	227
425	255	222	225
426	247	198	212
427	247	191	210
428	255	201	217
429	255	196	217
430	248	180	212
431	249	178	215
432	252	181	217
433	249	179	214
434	255	191	222
435	255	196	224
436	254	184	216
437	248	175	212
438	246	173	216
439	248	178	221
440	255	188	227
441	255	194	230
442	250	182	221
443	245	176	218
444	245	177	221
445	245	177	223
446	249	183	229
447	255	203	240
448	247	190	224
449	0	0	0
450	0	0	0
451	0	0	0
452	0	0	0
453	0	0	0
454	0	0	0
455	255	234	227
456	255	223	223
457	251	205	215
458	240	182	204
459	254	195	217
460	255	204	225
461	252	185	215
462	243	168	210
463	250	176	217
464	251	178	216
465	255	189	221
466	255	201	227
467	255	188	218
468	251	178	215
469	249	176	217
470	248	175	220
471	255	187	229
472	255	195	230
473	251	183	221
474	242	172	217
475	242	172	221
476	240	172	222
477	240	176	225
478	240	179	226
479	233	173	219
480	0	0	0
481	0	0	0
482	0	0	0
483	0	0	0
484	0	0	0
485	0	0	0
486	255	245	232
487	255	234	228
488	253	214	218
489	247	195	210
490	246	184	210
491	255	198	224
492	255	190	219
493	245	171	209
494	250	175	218
495	255	182	224
496	254	180	218
497	255	191	223
498	255	186	218
499	248	172	209
500	253	179	217
501	251	177	219
502	254	181	224
503	255	194	234
504	254	181	220
505	238	165	210
506	243	174	221
507	244	176	227
508	245	183	232
509	239	183	230
510	230	180	224
511	0	0	0
512	0	0	0
513	0	0	0
514	0	0	0
515	0	0	0
516	0	0	0
517	0	0	0
518	255	243	233
519	255	224	224
520	250	203	213
521	252	197	214
522	251	187	215
523	254	185	218
524	251	177	214
525	255	181	220
526	255	185	226
527	255	185	227
528	255	183	224
529	255	179	219
530	253	173	214
531	255	179	217
532	255	185	223
533	255	185	224
534	255	187	225
535	255	178	220
536	245	166	211
537	245	172	218
538	249	180	229
539	255	190	239
540	252	194	239
541	234	185	229
542	0	0	0
543	0	0	0
544	0	0	0
545	0	0	0
546	0	0	0
547	0	0	0
548	0	0	0
549	0	0	0
550	255	232	227
551	254	214	220
552	249	196	211
553	249	188	211
554	252	184	216
555	255	182	220
556	250	170	215
557	255	175	221
558	253	170	218
559	253	171	218
560	255	178	223
561	255	174	220
562	252	167	214
563	255	173	218
564	255	176	220
565	255	175	219
566	255	176	220
567	246	165	213
568	247	168	217
569	252	177	227
570	248	174	228
571	249	180	233
572	235	174	225
573	0	0	0
574	0	0	0
575	0	0	0
576	0	0	0
577	0	0	0
578	0	0	0
579	0	0	0
580	0	0	0
581	255	235	225
582	255	223	222
583	255	210	220
584	253	193	214
585	255	189	217
586	255	183	218
587	253	174	218
588	249	164	215
589	250	163	218
590	248	158	214
591	255	168	221
592	255	175	224
593	255	169	220
594	254	163	217
595	255	167	220
596	255	169	221
597	255	169	221
598	254	170	222
599	250	169	222
600	248	171	226
601	242	166	223
602	233	158	219
603	225	157	216
604	0	0	0
605	0	0	0
606	0	0	0
607	0	0	0
608	0	0	0
609	0	0	0
610	0	0	0
611	0	0	0
612	255	239	226
613	255	225	221
614	253	207	214
615	251	192	212
616	250	181	212
617	252	177	216
618	251	171	214
619	248	161	212
620	255	168	222
621	255	167	224
622	254	162	219
623	255	172	227
624	253	157	216
625	249	151	213
626	254	158	218
627	255	161	221
628	255	162	221
629	254	162	222
630	252	163	224
631	244	160	223
632	240	164	226
633	226	154	218
634	223	163	220
635	0	0	0
636	0	0	0
637	0	0	0
638	0	0	0
639	0	0	0
640	0	0	0
641	0	0	0
642	0	0	0
643	0	0	0
644	255	228	223
645	255	209	216
646	249	191	209
647	250	182	211
648	248	171	212
649	251	168	216
650	249	161	214
651	255	166	220
652	255	172	226
653	255	168	224
654	255	162	219
655	253	152	214
656	245	139	209
657	251	147	216
658	254	153	220
659	254	153	219
660	252	153	218
661	250	154	220
662	247	155	224
663	242	157	226
664	234	158	226
665	225	163	225
666	0	0	0
667	0	0	0
668	0	0	0
669	0	0	0
670	0	0	0
671	0	0	0
672	0	0	0
673	0	0	0
674	0	0	0
675	0	0	0
676	255	217	221
677	253	199	215
678	249	183	210
679	249	174	211
680	249	166	214
681	251	162	217
682	250	158	216
683	255	163	222
684	255	165	225
685	255	160	222
686	251	148	213
687	247	138	209
688	243	132	210
689	250	141	218
690	255	150	223
691	254	149	222
692	246	143	217
693	241	141	216
694	249	160	230
695	245	162	232
696	233	160	227
697	221	162	224
698	0	0	0
699	0	0	0
700	0	0	0
701	0	0	0
702	0	0	0
703	0	0	0
704	0	0	0
705	0	0	0
706	0	0	0
707	248	209	214
708	253	204	218
709	249	188	213
710	244	171	208
711	247	166	211
712	246	157	211
713	249	156	215
714	247	151	214
715	251	153	218
716	255	155	222
717	248	142	215
718	242	131	208
719	240	126	208
720	236	119	206
721	244	131	215
722	249	139	219
723	245	135	217
724	237	128	214
725	242	145	224
726	245	159	230
727	234	157	224
728	222	155	220
729	0	0	0
730	0	0	0
731	0	0	0
732	0	0	0
733	0	0	0
734	0	0	0
735	0	0	0
736	0	0	0
737	0	0	0
738	0	0	0
739	255	214	222
740	255	201	220
741	249	183	215
742	248	174	215
743	251	168	219
744	249	159	217
745	252	158	220
746	250	153	219
747	254	155	222
748	255	154	224
749	249	142	218
750	252	144	222
751	250	139	220
752	247	135	219
753	253	146	227
754	253	147	228
755	250	143	226
756	246	142	227
757	249	158	236
758	238	158	228
759	218	150	215
760	0	0	0
761	0	0	0
762	0	0	0
763	0	0	0
764	0	0	0
765	0	0	0
766	0	0	0
767	0	0	0
768	0	0	0
769	0	0	0
770	255	223	226
771	255	209	223
772	255	196	220
773	254	186	221
774	254	177	224
775	254	169	225
776	250	158	222
777	250	155	222
778	249	151	221
779	250	150	222
780	251	148	221
781	251	148	222
782	254	149	225
783	253	147	225
784	249	142	222
785	248	145	224
786	248	147	228
787	252	151	233
788	246	149	231
789	240	155	232
790	227	154	226
791	0	0	0
792	0	0	0
793	0	0	0
794	0	0	0
795	0	0	0
796	0	0	0
797	0	0	0
798	0	0	0
799	0	0	0
800	0	0	0
801	0	0	0
802	255	216	226
803	255	201	221
804	248	180	214
805	248	171	216
806	251	169	223
807	248	159	221
808	254	164	226
809	254	161	227
810	254	158	228
811	254	156	228
812	254	156	225
813	253	154	224
814	252	152	226
815	250	150	226
816	247	148	225
817	245	150	227
818	245	151	231
819	250	156	237
820	240	151	231
821	228	153	227
822	223	167	230
823	0	0	0
824	0	0	0
825	0	0	0
826	0	0	0
827	0	0	0
828	0	0	0
829	0	0	0
830	0	0	0
831	0	0	0
832	0	0	0
833	0	0	0
834	251	203	220
835	239	179	209
836	232	160	206
837	242	162	216
838	244	158	219
839	253	166	226
840	255	170	228
841	255	166	228
842	255	164	231
843	255	165	234
844	255	163	229
845	251	157	224
846	249	154	226
847	245	152	227
848	241	151	226
849	237	150	227
850	234	149	228
851	232	150	229
852	220	143	220
853	221	162	227
854	0	0	0
855	0	0	0
856	0	0	0
857	0	0	0
858	0	0	0
859	0	0	0
860	0	0	0
861	0	0	0
862	0	0	0
863	0	0	0
864	0	0	0
865	255	215	228
866	250	204	222
867	230	176	208
868	241	181	222
869	255	187	236
870	250	167	227
871	255	174	234
872	255	166	226
873	253	162	224
874	255	163	231
875	255	164	233
876	249	153	224
877	241	147	218
878	251	167	233
879	243	162	230
880	239	163	232
881	234	161	232
882	229	162	232
883	217	158	225
884	0	0	0
885	0	0	0
886	0	0	0
887	0	0	0
888	0	0	0
889	0	0	0
890	0	0	0
891	0	0	0
892	0	0	0
893	0	0	0
894	0	0	0
895	0	0	0
896	0	0	0
897	254	214	228
898	248	202	222
899	241	196	221
900	250	200	232
901	254	188	232
902	247	168	225
903	249	166	228
904	245	158	222
905	247	159	224
906	249	159	227
907	245	153	225
908	236	143	220
909	242	159	229
910	247	174	235
911	232	166	226
912	228	166	229
913	228	171	232
914	221	171	229
915	0	0	0
916	0	0	0
917	0	0	0
918	0	0	0
919	0	0	0
920	0	0	0
921	0	0	0
922	0	0	0
923	0	0	0
924	0	0	0
925	0	0	0
926	0	0	0
927	0	0	0
928	0	0	0
929	0	0	0
930	245	197	219
931	236	190	217
932	246	198	229
933	247	184	227
934	244	171	226
935	244	169	229
936	241	163	227
937	242	163	229
938	238	158	227
939	234	151	224
940	236	159	230
941	238	171	236
942	236	180	234
943	0	0	0
944	0	0	0
945	0	0	0
946	0	0	0
947	0	0	0
948	0	0	0
949	0	0	0
950	0	0	0
951	0	0	0
952	0	0	0
953	0	0	0
954	0	0	0
955	0	0	0
956	0	0	0
957	0	0	0
958	0	0	0
959	0	0	0
960	0	0	0
961	0	0	0
962	0	0	0
963	0	0	0
964	243	196	229
965	245	187	230
966	240	173	227
967	239	171	231
968	233	165	228
969	231	161	228
970	225	154	225
971	227	160	228
972	227	166	230
973	226	175	231
974	0	0	0
975	0	0	0
976	0	0	0
977	0	0	0
978	0	0	0
979	0	0	0
980	0	0	0
981	0	0	0
982	0	0	0
983	0	0	0
984	0	0	0
985	0	0	0
986	0	0	0
987	0	0	0
988	0	0	0
989	0	0	0
990	0	0	0
991	0	0	0
992	0	0	0
993	0	0	0
994	0	0	0
995	0	0	0
996	252	209	238
997	249	197	235
998	236	176	227
999	231	173	230
1000	225	166	229
1001	221	161	228
1002	218	163	228
1003	0	0	0
1004	0	0	0
1005	0	0	0
1006	0	0	0
1007	0	0	0
1008	0	0	0
1009	0	0	0
1010	0	0	0
1011	0	0	0
1012	0	0	0
1013	0	0	0
1014	0	0	0
1015	0	0	0
1016	0	0	0
1017	0	0	0
1018	0	0	0
1019	0	0	0
1020	0	0	0
1021	0	0	0
1022	0	0	0
1023	0	0	0
1024	0	0	0
1025	0	0	0
1026	0	0	0
1027	0	0	0
1028	0	0	0
1029	240	195	228
1030	227	174	220
1031	225	172	225
1032	218	165	226
1033	221	173	233
1034	0	0	0
1035	0	0	0
1036	0	0	0
1037	0	0	0
1038	0	0	0
1039	0	0	0
1040	0	0	0
1041	0	0	0
1042	0	0	0
1043	0	0	0
1044	0	0	0
1045	0	0	0
1046	0	0	0
1047	0	0	0
1048	0	0	0
1049	0	0	0
1050	0	0	0
1051	0	0	0
1052	0	0	0
1053	0	0	0
1054	0	0	0
1055	0	0	0
1056	0	0	0
1057	0	0	0
1058	0	0	0
1059	0	0	0
1060	0	0	0
1061	0	0	0
1062	0	0	0
1063	242	202	241
1064	227	183	232
1065	0	0	0
1066	0	0	0
1067	0	0	0
1068	0	0	0
1069	0	0	0
1070	0	0	0
1071	0	0	0
1072	0	0	0
1073	0	0	0
1074	0	0	0
1075	0	0	0
1076	0	0	0
1077	0	0	0
1078	0	0	0
1079	0	0	0
1080	0	0	0
1081	0	0	0
1082	0	0	0
1083	0	0	0
1084	0	0	0
1085	0	0	0
1086	0	0	0
1087	0	0	0
1088	0	0	0
