 	R	G	B
1	0	0	0
2	0	0	0
3	0	0	0
4	0	0	0
5	0	0	0
6	250	227	227
7	0	0	0
8	0	0	0
9	0	0	0
10	0	0	0
11	0	0	0
12	0	0	0
13	0	0	0
14	0	0	0
15	0	0	0
16	0	0	0
17	0	0	0
18	0	0	0
19	0	0	0
20	0	0	0
21	0	0	0
22	0	0	0
23	0	0	0
24	0	0	0
25	0	0	0
26	0	0	0
27	0	0	0
28	0	0	0
29	0	0	0
30	0	0	0
31	0	0	0
32	0	0	0
33	0	0	0
34	0	0	0
35	0	0	0
36	0	0	0
37	0	0	0
38	0	0	0
39	255	228	226
40	255	225	226
41	240	204	212
42	0	0	0
43	0	0	0
44	0	0	0
45	0	0	0
46	0	0	0
47	0	0	0
48	0	0	0
49	0	0	0
50	0	0	0
51	0	0	0
52	0	0	0
53	0	0	0
54	0	0	0
55	0	0	0
56	0	0	0
57	0	0	0
58	0	0	0
59	0	0	0
60	0	0	0
61	0	0	0
62	0	0	0
63	0	0	0
64	0	0	0
65	0	0	0
66	0	0	0
67	0	0	0
68	0	0	0
69	0	0	0
70	0	0	0
71	0	0	0
72	255	237	229
73	255	225	221
74	254	215	217
75	241	195	205
76	253	212	219
77	0	0	0
78	0	0	0
79	0	0	0
80	0	0	0
81	0	0	0
82	0	0	0
83	0	0	0
84	0	0	0
85	0	0	0
86	0	0	0
87	0	0	0
88	0	0	0
89	0	0	0
90	0	0	0
91	0	0	0
92	0	0	0
93	0	0	0
94	0	0	0
95	0	0	0
96	0	0	0
97	0	0	0
98	0	0	0
99	0	0	0
100	0	0	0
101	0	0	0
102	0	0	0
103	0	0	0
104	0	0	0
105	255	240	227
106	255	232	225
107	254	214	215
108	253	206	212
109	242	186	203
110	255	204	218
111	244	191	210
112	0	0	0
113	0	0	0
114	0	0	0
115	0	0	0
116	0	0	0
117	0	0	0
118	0	0	0
119	0	0	0
120	0	0	0
121	0	0	0
122	0	0	0
123	0	0	0
124	0	0	0
125	0	0	0
126	0	0	0
127	0	0	0
128	0	0	0
129	0	0	0
130	0	0	0
131	0	0	0
132	0	0	0
133	0	0	0
134	0	0	0
135	0	0	0
136	0	0	0
137	0	0	0
138	255	236	228
139	255	238	229
140	255	222	221
141	253	205	212
142	251	194	210
143	241	176	203
144	243	176	207
145	231	164	197
146	244	190	213
147	0	0	0
148	0	0	0
149	0	0	0
150	0	0	0
151	0	0	0
152	0	0	0
153	0	0	0
154	0	0	0
155	0	0	0
156	0	0	0
157	0	0	0
158	0	0	0
159	0	0	0
160	0	0	0
161	0	0	0
162	0	0	0
163	0	0	0
164	0	0	0
165	0	0	0
166	0	0	0
167	0	0	0
168	0	0	0
169	0	0	0
170	0	0	0
171	255	243	235
172	255	244	237
173	255	222	221
174	253	206	212
175	251	194	209
176	249	183	207
177	247	176	207
178	249	177	211
179	244	173	208
180	255	200	225
181	249	196	216
182	0	0	0
183	0	0	0
184	0	0	0
185	0	0	0
186	0	0	0
187	0	0	0
188	0	0	0
189	0	0	0
190	0	0	0
191	0	0	0
192	0	0	0
193	0	0	0
194	0	0	0
195	0	0	0
196	0	0	0
197	0	0	0
198	0	0	0
199	0	0	0
200	0	0	0
201	0	0	0
202	0	0	0
203	0	0	0
204	0	0	0
205	255	246	233
206	255	226	222
207	251	205	209
208	251	195	208
209	249	184	208
210	251	181	210
211	248	172	207
212	253	177	213
213	249	174	210
214	251	181	213
215	241	177	205
216	248	196	213
217	251	211	217
218	252	221	220
219	0	0	0
220	0	0	0
221	0	0	0
222	0	0	0
223	0	0	0
224	0	0	0
225	0	0	0
226	0	0	0
227	0	0	0
228	0	0	0
229	0	0	0
230	0	0	0
231	0	0	0
232	0	0	0
233	0	0	0
234	0	0	0
235	0	0	0
236	0	0	0
237	0	0	0
238	0	0	0
239	255	232	224
240	255	213	215
241	246	190	204
242	246	181	204
243	250	179	210
244	252	175	212
245	249	169	208
246	253	173	213
247	247	168	209
248	249	175	213
249	239	168	205
250	250	190	214
251	247	194	210
252	250	204	213
253	251	214	220
254	0	0	0
255	0	0	0
256	0	0	0
257	0	0	0
258	0	0	0
259	0	0	0
260	0	0	0
261	0	0	0
262	0	0	0
263	0	0	0
264	0	0	0
265	0	0	0
266	0	0	0
267	0	0	0
268	0	0	0
269	0	0	0
270	0	0	0
271	0	0	0
272	0	0	0
273	0	0	0
274	247	196	209
275	238	173	200
276	245	175	208
277	248	172	213
278	252	171	216
279	248	164	212
280	249	165	212
281	244	160	209
282	243	162	210
283	235	156	203
284	241	169	209
285	240	174	205
286	245	186	208
287	246	195	210
288	251	211	218
289	0	0	0
290	0	0	0
291	0	0	0
292	0	0	0
293	0	0	0
294	0	0	0
295	0	0	0
296	0	0	0
297	0	0	0
298	0	0	0
299	0	0	0
300	0	0	0
301	0	0	0
302	0	0	0
303	0	0	0
304	0	0	0
305	0	0	0
306	0	0	0
307	0	0	0
308	0	0	0
309	250	187	215
310	255	188	223
311	249	170	217
312	251	169	219
313	250	164	216
314	252	165	217
315	250	162	216
316	251	166	219
317	241	155	210
318	244	167	215
319	239	166	208
320	247	180	212
321	245	184	208
322	251	201	215
323	249	208	217
324	0	0	0
325	0	0	0
326	0	0	0
327	0	0	0
328	0	0	0
329	0	0	0
330	0	0	0
331	0	0	0
332	0	0	0
333	0	0	0
334	0	0	0
335	0	0	0
336	0	0	0
337	0	0	0
338	0	0	0
339	0	0	0
340	0	0	0
341	0	0	0
342	0	0	0
343	252	192	221
344	250	179	219
345	242	161	213
346	248	164	219
347	246	160	216
348	247	161	217
349	246	159	217
350	245	156	216
351	235	146	209
352	236	152	211
353	233	153	208
354	240	164	211
355	238	168	204
356	243	181	208
357	241	189	210
358	243	206	217
359	0	0	0
360	0	0	0
361	0	0	0
362	0	0	0
363	0	0	0
364	0	0	0
365	0	0	0
366	0	0	0
367	0	0	0
368	0	0	0
369	0	0	0
370	0	0	0
371	0	0	0
372	0	0	0
373	0	0	0
374	0	0	0
375	0	0	0
376	0	0	0
377	250	195	224
378	251	183	223
379	240	159	215
380	243	162	221
381	238	154	216
382	237	154	216
383	233	148	212
384	234	146	212
385	234	146	212
386	239	154	218
387	237	154	214
388	241	165	216
389	233	159	205
390	240	174	210
391	237	177	209
392	246	197	218
393	250	211	221
394	0	0	0
395	0	0	0
396	0	0	0
397	0	0	0
398	0	0	0
399	0	0	0
400	0	0	0
401	0	0	0
402	0	0	0
403	0	0	0
404	0	0	0
405	0	0	0
406	0	0	0
407	0	0	0
408	0	0	0
409	0	0	0
410	0	0	0
411	240	189	220
412	240	173	218
413	229	150	210
414	228	148	214
415	222	141	211
416	219	137	209
417	215	131	204
418	223	137	209
419	225	138	209
420	233	147	213
421	233	148	210
422	235	152	210
423	230	149	205
424	235	160	209
425	233	163	207
426	240	179	211
427	243	191	210
428	250	207	215
429	0	0	0
430	0	0	0
431	0	0	0
432	0	0	0
433	0	0	0
434	0	0	0
435	0	0	0
436	0	0	0
437	0	0	0
438	0	0	0
439	0	0	0
440	0	0	0
441	0	0	0
442	0	0	0
443	0	0	0
444	0	0	0
445	240	198	227
446	243	184	226
447	232	162	219
448	228	159	221
449	230	162	226
450	229	159	225
451	224	149	218
452	233	157	223
453	227	144	214
454	237	154	220
455	237	150	216
456	246	158	220
457	234	143	208
458	237	153	212
459	238	160	211
460	243	175	214
461	243	182	209
462	254	199	216
463	247	201	212
464	0	0	0
465	0	0	0
466	0	0	0
467	0	0	0
468	0	0	0
469	0	0	0
470	0	0	0
471	0	0	0
472	0	0	0
473	0	0	0
474	0	0	0
475	0	0	0
476	0	0	0
477	0	0	0
478	0	0	0
479	0	0	0
480	233	186	225
481	223	164	217
482	230	171	226
483	233	175	229
484	231	169	226
485	227	161	222
486	228	155	220
487	222	143	212
488	229	146	216
489	231	144	215
490	231	138	211
491	222	124	198
492	234	142	208
493	236	150	208
494	240	162	210
495	242	170	209
496	248	180	211
497	241	183	206
498	243	202	214
499	0	0	0
500	0	0	0
501	0	0	0
502	0	0	0
503	0	0	0
504	0	0	0
505	0	0	0
506	0	0	0
507	0	0	0
508	0	0	0
509	0	0	0
510	0	0	0
511	0	0	0
512	0	0	0
513	0	0	0
514	0	0	0
515	222	183	223
516	242	198	239
517	237	183	230
518	234	177	228
519	224	158	218
520	223	152	217
521	222	146	213
522	227	149	217
523	220	135	209
524	218	129	204
525	231	140	211
526	254	164	226
527	242	147	210
528	246	160	213
529	245	164	211
530	249	173	213
531	245	176	210
532	254	200	221
533	253	208	222
534	0	0	0
535	0	0	0
536	0	0	0
537	0	0	0
538	0	0	0
539	0	0	0
540	0	0	0
541	0	0	0
542	0	0	0
543	0	0	0
544	0	0	0
545	0	0	0
546	0	0	0
547	0	0	0
548	0	0	0
549	231	206	231
550	240	201	234
551	236	187	226
552	229	172	221
553	221	155	215
554	226	155	219
555	225	148	214
556	222	140	209
557	215	127	201
558	232	145	215
559	246	158	223
560	249	153	219
561	239	137	205
562	242	146	208
563	241	151	208
564	246	161	211
565	244	166	209
566	245	176	211
567	242	182	207
568	0	0	0
569	0	0	0
570	0	0	0
571	0	0	0
572	0	0	0
573	0	0	0
574	0	0	0
575	0	0	0
576	0	0	0
577	0	0	0
578	0	0	0
579	0	0	0
580	0	0	0
581	0	0	0
582	0	0	0
583	236	213	232
584	239	205	232
585	231	184	222
586	225	170	218
587	226	162	219
588	238	166	227
589	240	160	224
590	238	153	220
591	232	137	211
592	252	158	227
593	250	149	220
594	246	140	212
595	244	139	209
596	248	150	215
597	246	150	212
598	253	161	217
599	247	160	212
600	244	169	211
601	238	173	205
602	0	0	0
603	0	0	0
604	252	220	220
605	0	0	0
606	0	0	0
607	0	0	0
608	0	0	0
609	0	0	0
610	0	0	0
611	0	0	0
612	0	0	0
613	0	0	0
614	0	0	0
615	0	0	0
616	0	0	0
617	0	0	0
618	228	197	224
619	220	177	217
620	0	0	0
621	225	163	218
622	242	169	228
623	246	165	228
624	244	156	224
625	238	142	216
626	248	144	220
627	244	135	213
628	247	139	214
629	245	138	211
630	243	140	210
631	241	141	209
632	247	149	213
633	241	148	208
634	239	158	208
635	235	163	205
636	242	183	211
637	250	202	216
638	251	209	215
639	249	217	217
640	0	0	0
641	0	0	0
642	0	0	0
643	0	0	0
644	0	0	0
645	0	0	0
646	0	0	0
647	0	0	0
648	0	0	0
649	0	0	0
650	0	0	0
651	0	0	0
652	0	0	0
653	0	0	0
654	0	0	0
655	240	185	229
656	255	192	240
657	243	158	222
658	239	148	219
659	236	137	215
660	242	139	219
661	234	123	207
662	238	128	209
663	238	132	208
664	236	134	207
665	240	140	211
666	247	149	216
667	237	141	207
668	239	153	210
669	239	163	211
670	248	184	218
671	248	191	213
672	248	197	211
673	244	202	211
674	0	0	0
675	0	0	0
676	0	0	0
677	0	0	0
678	0	0	0
679	0	0	0
680	0	0	0
681	0	0	0
682	0	0	0
683	0	0	0
684	0	0	0
685	0	0	0
686	0	0	0
687	0	0	0
688	0	0	0
689	245	198	231
690	242	174	222
691	227	140	205
692	227	135	208
693	226	126	208
694	229	121	210
695	221	106	198
696	231	119	206
697	232	123	205
698	234	130	207
699	238	137	209
700	239	137	209
701	231	130	204
702	239	148	213
703	240	158	212
704	243	169	212
705	242	176	208
706	242	183	208
707	0	0	0
708	0	0	0
709	0	0	0
710	250	232	225
711	0	0	0
712	0	0	0
713	0	0	0
714	0	0	0
715	0	0	0
716	0	0	0
717	0	0	0
718	0	0	0
719	0	0	0
720	0	0	0
721	0	0	0
722	0	0	0
723	247	206	233
724	240	181	223
725	229	153	212
726	234	151	218
727	238	148	223
728	244	145	225
729	233	123	211
730	243	136	219
731	240	133	214
732	246	142	217
733	246	142	214
734	245	141	214
735	240	138	212
736	250	157	223
737	246	159	218
738	248	170	217
739	241	168	209
740	239	174	208
741	244	189	214
742	254	210	223
743	254	215	221
744	255	221	223
745	249	220	223
746	0	0	0
747	0	0	0
748	0	0	0
749	0	0	0
750	0	0	0
751	0	0	0
752	0	0	0
753	0	0	0
754	0	0	0
755	0	0	0
756	0	0	0
757	0	0	0
758	231	184	222
759	223	159	216
760	237	163	227
761	242	159	227
762	240	147	220
763	229	126	206
764	237	132	212
765	239	132	212
766	246	139	217
767	245	139	212
768	246	142	214
769	242	139	212
770	246	149	217
771	244	152	214
772	241	156	212
773	236	157	207
774	245	176	216
775	251	190	219
776	251	195	217
777	251	201	218
778	245	198	213
779	236	195	207
780	0	0	0
781	0	0	0
782	0	0	0
783	0	0	0
784	0	0	0
785	0	0	0
786	0	0	0
787	0	0	0
788	0	0	0
789	0	0	0
790	0	0	0
791	0	0	0
792	0	0	0
793	229	183	227
794	252	193	244
795	242	166	228
796	233	149	217
797	229	137	209
798	244	147	219
799	255	157	228
800	255	165	234
801	241	131	209
802	242	135	210
803	242	138	213
804	247	149	218
805	247	155	218
806	245	160	218
807	240	156	214
808	255	179	226
809	249	175	215
810	248	180	213
811	250	193	219
812	236	185	209
813	234	196	211
814	0	0	0
815	0	0	0
816	0	0	0
817	0	0	0
818	0	0	0
819	0	0	0
820	0	0	0
821	0	0	0
822	0	0	0
823	0	0	0
824	0	0	0
825	0	0	0
826	0	0	0
827	0	0	0
828	239	189	232
829	230	163	221
830	231	158	221
831	229	147	215
832	252	164	230
833	255	173	235
834	249	147	217
835	229	117	199
836	239	131	211
837	239	135	211
838	246	147	218
839	246	154	218
840	241	152	216
841	236	150	215
842	242	157	219
843	235	153	207
844	240	167	210
845	243	179	214
846	242	190	217
847	243	202	222
848	241	211	223
849	244	223	227
850	0	0	0
851	0	0	0
852	0	0	0
853	0	0	0
854	0	0	0
855	0	0	0
856	0	0	0
857	0	0	0
858	0	0	0
859	0	0	0
860	0	0	0
861	0	0	0
862	0	0	0
863	231	185	228
864	242	185	235
865	237	165	225
866	255	183	240
867	255	169	229
868	240	142	211
869	242	140	214
870	255	157	229
871	241	136	214
872	247	149	220
873	249	156	222
874	243	156	220
875	234	146	217
876	236	152	219
877	227	148	208
878	231	161	210
879	241	180	218
880	252	197	226
881	251	202	226
882	250	210	226
883	255	224	231
884	254	225	229
885	0	0	0
886	0	0	0
887	0	0	0
888	0	0	0
889	0	0	0
890	0	0	0
891	0	0	0
892	0	0	0
893	0	0	0
894	0	0	0
895	0	0	0
896	234	217	233
897	236	208	235
898	238	194	232
899	236	175	224
900	250	174	229
901	248	163	222
902	249	161	222
903	251	159	223
904	250	152	221
905	236	132	210
906	245	147	220
907	248	156	222
908	238	147	215
909	229	138	211
910	229	144	215
911	223	142	209
912	233	163	218
913	243	182	223
914	251	191	223
915	251	195	221
916	250	204	221
917	255	218	226
918	250	214	220
919	0	0	0
920	0	0	0
921	0	0	0
922	0	0	0
923	0	0	0
924	0	0	0
925	0	0	0
926	0	0	0
927	0	0	0
928	0	0	0
929	0	0	0
930	0	0	0
931	238	222	236
932	236	205	232
933	235	187	226
934	252	189	235
935	249	171	225
936	252	172	227
937	251	163	223
938	252	157	222
939	242	140	215
940	251	156	227
941	247	155	224
942	239	148	218
943	232	141	215
944	235	148	220
945	237	156	223
946	250	179	234
947	240	169	220
948	240	174	216
949	244	186	218
950	244	195	218
951	250	211	223
952	0	0	0
953	0	0	0
954	0	0	0
955	0	0	0
956	0	0	0
957	0	0	0
958	0	0	0
959	0	0	0
960	0	0	0
961	0	0	0
962	0	0	0
963	0	0	0
964	0	0	0
965	0	0	0
966	237	216	233
967	236	199	231
968	245	192	233
969	241	174	221
970	243	169	220
971	243	162	220
972	243	154	219
973	233	138	211
974	237	145	218
975	235	146	218
976	232	143	216
977	226	137	213
978	233	151	222
979	235	158	222
980	231	155	217
981	222	147	207
982	232	164	216
983	237	177	220
984	240	190	221
985	245	205	224
986	0	0	0
987	0	0	0
988	0	0	0
989	0	0	0
990	0	0	0
991	0	0	0
992	0	0	0
993	0	0	0
994	0	0	0
995	0	0	0
996	0	0	0
997	0	0	0
998	0	0	0
999	0	0	0
1000	0	0	0
1001	242	218	239
1002	244	207	237
1003	232	179	219
1004	240	178	223
1005	243	175	226
1006	238	165	223
1007	228	149	216
1008	232	157	224
1009	222	143	216
1010	223	143	217
1011	225	148	220
1012	231	160	227
1013	220	150	216
1014	216	147	212
1015	220	154	216
1016	237	176	229
1017	236	180	226
1018	237	191	226
1019	241	204	226
1020	0	0	0
1021	0	0	0
1022	0	0	0
1023	0	0	0
1024	0	0	0
1025	0	0	0
1026	0	0	0
1027	0	0	0
1028	0	0	0
1029	0	0	0
1030	0	0	0
1031	0	0	0
1032	0	0	0
1033	0	0	0
1034	0	0	0
1035	0	0	0
1036	235	209	229
1037	224	183	217
1038	237	187	226
1039	239	183	228
1040	232	171	224
1041	223	157	219
1042	219	150	219
1043	211	138	213
1044	223	152	225
1045	227	157	226
1046	221	152	222
1047	213	143	216
1048	219	154	223
1049	222	161	224
1050	230	171	228
1051	229	175	223
1052	232	188	224
1053	238	202	227
1054	0	0	0
1055	0	0	0
1056	0	0	0
1057	0	0	0
1058	0	0	0
1059	0	0	0
1060	0	0	0
1061	0	0	0
1062	0	0	0
1063	0	0	0
1064	0	0	0
1065	0	0	0
1066	0	0	0
1067	0	0	0
1068	0	0	0
1069	0	0	0
1070	0	0	0
1071	232	207	228
1072	245	211	239
1073	232	186	226
1074	225	175	223
1075	223	169	226
1076	225	165	229
1077	223	158	228
1078	236	172	239
1079	229	161	230
1080	227	158	228
1081	227	158	230
1082	236	170	237
1083	229	166	230
1084	229	173	228
1085	235	187	231
1086	241	202	234
1087	241	203	230
1088	0	0	0
1089	0	0	0
1090	0	0	0
1091	0	0	0
1092	0	0	0
1093	0	0	0
1094	0	0	0
1095	0	0	0
1096	0	0	0
1097	0	0	0
1098	0	0	0
1099	0	0	0
1100	0	0	0
1101	0	0	0
1102	0	0	0
1103	0	0	0
1104	0	0	0
1105	247	235	244
1106	240	215	236
1107	228	190	225
1108	225	184	228
1109	224	179	232
1110	229	178	237
1111	227	171	233
1112	229	169	234
1113	223	158	227
1114	228	163	231
1115	229	163	231
1116	234	168	234
1117	227	164	226
1118	232	180	231
1119	238	195	234
1120	238	198	231
1121	239	200	227
1122	245	207	227
1123	0	0	0
1124	0	0	0
1125	0	0	0
1126	0	0	0
1127	0	0	0
1128	0	0	0
1129	0	0	0
1130	0	0	0
1131	0	0	0
1132	0	0	0
1133	0	0	0
1134	0	0	0
1135	0	0	0
1136	0	0	0
1137	0	0	0
1138	0	0	0
1139	247	238	242
1140	237	215	231
1141	232	202	229
1142	230	197	233
1143	232	195	239
1144	234	193	242
1145	228	180	234
1146	230	178	236
1147	220	161	227
1148	223	165	230
1149	228	170	233
1150	236	177	236
1151	230	172	229
1152	236	189	234
1153	240	198	235
1154	243	203	233
1155	242	203	229
1156	0	0	0
1157	0	0	0
1158	0	0	0
1159	0	0	0
1160	0	0	0
1161	0	0	0
1162	0	0	0
1163	0	0	0
1164	0	0	0
1165	0	0	0
1166	0	0	0
1167	0	0	0
1168	0	0	0
1169	0	0	0
1170	0	0	0
1171	0	0	0
1172	0	0	0
1173	0	0	0
1174	243	228	236
1175	236	214	232
1176	234	210	235
1177	235	208	238
1178	230	196	234
1179	224	183	228
1180	221	174	227
1181	212	159	221
1182	219	169	230
1183	224	174	232
1184	230	178	233
1185	228	175	226
1186	237	190	232
1187	243	201	234
1188	241	201	230
1189	0	0	0
1190	0	0	0
1191	0	0	0
1192	0	0	0
1193	0	0	0
1194	0	0	0
1195	0	0	0
1196	0	0	0
1197	0	0	0
1198	0	0	0
1199	0	0	0
1200	0	0	0
1201	0	0	0
1202	0	0	0
1203	0	0	0
1204	0	0	0
1205	0	0	0
1206	0	0	0
1207	0	0	0
1208	0	0	0
1209	0	0	0
1210	0	0	0
1211	237	220	238
1212	0	0	0
1213	0	0	0
1214	0	0	0
1215	0	0	0
1216	229	192	239
1217	224	183	232
1218	0	0	0
1219	232	189	230
1220	254	211	244
1221	247	202	233
1222	238	199	225
1223	0	0	0
1224	0	0	0
1225	0	0	0
1226	0	0	0
1227	0	0	0
1228	0	0	0
1229	0	0	0
1230	0	0	0
1231	0	0	0
1232	0	0	0
1233	0	0	0
1234	0	0	0
1235	0	0	0
1236	0	0	0
1237	0	0	0
1238	0	0	0
1239	0	0	0
1240	0	0	0
1241	0	0	0
1242	0	0	0
1243	0	0	0
1244	0	0	0
1245	0	0	0
1246	0	0	0
1247	0	0	0
1248	0	0	0
1249	0	0	0
1250	0	0	0
1251	0	0	0
1252	0	0	0
1253	0	0	0
1254	249	205	236
1255	242	196	225
1256	238	201	224
1257	0	0	0
1258	0	0	0
1259	0	0	0
1260	0	0	0
1261	0	0	0
1262	0	0	0
1263	0	0	0
1264	0	0	0
1265	0	0	0
1266	0	0	0
1267	0	0	0
1268	0	0	0
1269	0	0	0
1270	0	0	0
1271	0	0	0
1272	0	0	0
1273	0	0	0
1274	0	0	0
1275	0	0	0
1276	0	0	0
1277	0	0	0
1278	0	0	0
1279	0	0	0
1280	0	0	0
1281	0	0	0
1282	0	0	0
1283	0	0	0
1284	0	0	0
1285	0	0	0
1286	0	0	0
1287	0	0	0
1288	0	0	0
1289	238	195	222
1290	0	0	0
1291	0	0	0
1292	0	0	0
