 	R	G	B
1	0	0	0
2	0	0	0
3	0	0	0
4	0	0	0
5	0	0	0
6	0	0	0
7	0	0	0
8	0	0	0
9	0	0	0
10	0	0	0
11	0	0	0
12	0	0	0
13	0	0	0
14	0	0	0
15	0	0	0
16	0	0	0
17	0	0	0
18	0	0	0
19	0	0	0
20	0	0	0
21	0	0	0
22	0	0	0
23	0	0	0
24	0	0	0
25	0	0	0
26	0	0	0
27	0	0	0
28	0	0	0
29	0	0	0
30	0	0	0
31	0	0	0
32	0	0	0
33	0	0	0
34	0	0	0
35	0	0	0
36	0	0	0
37	0	0	0
38	0	0	0
39	0	0	0
40	0	0	0
41	0	0	0
42	0	0	0
43	0	0	0
44	0	0	0
45	251	216	211
46	0	0	0
47	0	0	0
48	0	0	0
49	0	0	0
50	0	0	0
51	0	0	0
52	0	0	0
53	0	0	0
54	0	0	0
55	254	217	218
56	0	0	0
57	0	0	0
58	0	0	0
59	0	0	0
60	0	0	0
61	0	0	0
62	0	0	0
63	0	0	0
64	0	0	0
65	0	0	0
66	0	0	0
67	0	0	0
68	0	0	0
69	0	0	0
70	0	0	0
71	0	0	0
72	0	0	0
73	0	0	0
74	0	0	0
75	0	0	0
76	0	0	0
77	0	0	0
78	0	0	0
79	0	0	0
80	0	0	0
81	0	0	0
82	0	0	0
83	0	0	0
84	0	0	0
85	0	0	0
86	0	0	0
87	0	0	0
88	0	0	0
89	0	0	0
90	0	0	0
91	0	0	0
92	0	0	0
93	0	0	0
94	0	0	0
95	0	0	0
96	0	0	0
97	0	0	0
98	0	0	0
99	0	0	0
100	0	0	0
101	0	0	0
102	0	0	0
103	0	0	0
104	0	0	0
105	255	232	223
106	0	0	0
107	0	0	0
108	0	0	0
109	0	0	0
110	253	218	211
111	255	218	212
112	252	210	210
113	249	208	209
114	0	0	0
115	0	0	0
116	252	209	207
117	255	214	211
118	254	210	210
119	248	206	208
120	246	204	211
121	252	212	216
122	253	214	215
123	253	213	213
124	0	0	0
125	0	0	0
126	0	0	0
127	0	0	0
128	0	0	0
129	0	0	0
130	0	0	0
131	0	0	0
132	0	0	0
133	0	0	0
134	0	0	0
135	0	0	0
136	0	0	0
137	0	0	0
138	0	0	0
139	0	0	0
140	0	0	0
141	0	0	0
142	0	0	0
143	0	0	0
144	0	0	0
145	0	0	0
146	0	0	0
147	0	0	0
148	0	0	0
149	0	0	0
150	0	0	0
151	0	0	0
152	0	0	0
153	0	0	0
154	0	0	0
155	0	0	0
156	0	0	0
157	0	0	0
158	0	0	0
159	0	0	0
160	0	0	0
161	0	0	0
162	0	0	0
163	0	0	0
164	0	0	0
165	0	0	0
166	0	0	0
167	0	0	0
168	0	0	0
169	0	0	0
170	252	227	217
171	254	221	215
172	248	209	205
173	252	215	208
174	255	219	210
175	255	219	209
176	255	220	210
177	255	215	209
178	253	207	207
179	254	210	209
180	255	214	209
181	255	213	207
182	255	212	208
183	255	211	208
184	255	206	205
185	252	205	206
186	250	204	211
187	251	207	214
188	252	208	211
189	250	205	206
190	248	202	205
191	0	0	0
192	0	0	0
193	0	0	0
194	0	0	0
195	0	0	0
196	0	0	0
197	0	0	0
198	0	0	0
199	0	0	0
200	0	0	0
201	0	0	0
202	0	0	0
203	0	0	0
204	0	0	0
205	0	0	0
206	0	0	0
207	0	0	0
208	0	0	0
209	0	0	0
210	0	0	0
211	0	0	0
212	0	0	0
213	0	0	0
214	0	0	0
215	0	0	0
216	0	0	0
217	0	0	0
218	0	0	0
219	0	0	0
220	0	0	0
221	0	0	0
222	0	0	0
223	0	0	0
224	0	0	0
225	0	0	0
226	0	0	0
227	0	0	0
228	0	0	0
229	0	0	0
230	0	0	0
231	0	0	0
232	0	0	0
233	0	0	0
234	0	0	0
235	0	0	0
236	253	223	215
237	252	216	211
238	246	203	202
239	252	210	206
240	251	207	203
241	254	209	203
242	253	204	200
243	250	197	198
244	252	199	202
245	253	203	205
246	254	205	203
247	254	203	201
248	251	196	199
249	252	195	200
250	250	192	198
251	248	192	200
252	249	195	206
253	249	196	207
254	252	203	208
255	248	199	202
256	254	207	208
257	255	218	216
258	0	0	0
259	0	0	0
260	0	0	0
261	0	0	0
262	0	0	0
263	0	0	0
264	0	0	0
265	0	0	0
266	0	0	0
267	0	0	0
268	0	0	0
269	0	0	0
270	0	0	0
271	0	0	0
272	0	0	0
273	0	0	0
274	0	0	0
275	0	0	0
276	0	0	0
277	0	0	0
278	0	0	0
279	0	0	0
280	0	0	0
281	0	0	0
282	0	0	0
283	0	0	0
284	0	0	0
285	0	0	0
286	0	0	0
287	0	0	0
288	0	0	0
289	0	0	0
290	0	0	0
291	0	0	0
292	0	0	0
293	0	0	0
294	0	0	0
295	0	0	0
296	0	0	0
297	0	0	0
298	0	0	0
299	0	0	0
300	0	0	0
301	0	0	0
302	253	219	211
303	251	210	207
304	246	199	203
305	246	198	204
306	247	196	201
307	251	195	200
308	249	190	196
309	252	194	199
310	253	196	203
311	255	199	205
312	255	201	206
313	252	192	199
314	249	185	197
315	252	186	201
316	250	183	199
317	250	186	202
318	250	188	203
319	254	196	207
320	255	203	209
321	255	208	209
322	255	216	215
323	255	208	209
324	249	197	202
325	0	0	0
326	0	0	0
327	0	0	0
328	0	0	0
329	0	0	0
330	0	0	0
331	0	0	0
332	0	0	0
333	0	0	0
334	0	0	0
335	0	0	0
336	0	0	0
337	0	0	0
338	0	0	0
339	0	0	0
340	0	0	0
341	0	0	0
342	0	0	0
343	0	0	0
344	0	0	0
345	0	0	0
346	0	0	0
347	0	0	0
348	0	0	0
349	0	0	0
350	0	0	0
351	0	0	0
352	0	0	0
353	0	0	0
354	0	0	0
355	0	0	0
356	0	0	0
357	0	0	0
358	0	0	0
359	0	0	0
360	0	0	0
361	0	0	0
362	0	0	0
363	0	0	0
364	0	0	0
365	0	0	0
366	0	0	0
367	0	0	0
368	253	213	207
369	252	205	204
370	248	196	202
371	246	194	203
372	251	197	206
373	255	198	208
374	247	181	196
375	248	184	198
376	250	187	201
377	254	190	204
378	253	187	201
379	247	178	194
380	255	189	205
381	255	190	208
382	249	172	196
383	247	174	197
384	253	185	203
385	255	194	208
386	254	189	202
387	254	193	202
388	255	206	209
389	254	196	201
390	247	190	197
391	0	0	0
392	0	0	0
393	0	0	0
394	0	0	0
395	0	0	0
396	0	0	0
397	0	0	0
398	0	0	0
399	0	0	0
400	0	0	0
401	0	0	0
402	0	0	0
403	0	0	0
404	0	0	0
405	0	0	0
406	0	0	0
407	0	0	0
408	0	0	0
409	0	0	0
410	0	0	0
411	0	0	0
412	0	0	0
413	0	0	0
414	0	0	0
415	0	0	0
416	0	0	0
417	0	0	0
418	0	0	0
419	0	0	0
420	0	0	0
421	0	0	0
422	0	0	0
423	0	0	0
424	0	0	0
425	0	0	0
426	0	0	0
427	0	0	0
428	0	0	0
429	0	0	0
430	0	0	0
431	254	223	215
432	0	0	0
433	255	213	208
434	255	210	206
435	254	202	202
436	249	192	198
437	253	196	204
438	255	200	212
439	255	190	208
440	244	172	197
441	242	174	198
442	243	176	198
443	245	176	197
444	245	173	195
445	252	181	200
446	255	191	208
447	255	177	199
448	244	159	188
449	249	172	197
450	255	183	203
451	253	180	201
452	249	176	197
453	255	187	202
454	255	199	206
455	255	192	200
456	248	185	196
457	0	0	0
458	0	0	0
459	0	0	0
460	0	0	0
461	0	0	0
462	0	0	0
463	0	0	0
464	0	0	0
465	0	0	0
466	0	0	0
467	0	0	0
468	0	0	0
469	0	0	0
470	242	221	226
471	0	0	0
472	237	210	219
473	0	0	0
474	0	0	0
475	0	0	0
476	0	0	0
477	0	0	0
478	0	0	0
479	0	0	0
480	0	0	0
481	0	0	0
482	0	0	0
483	0	0	0
484	0	0	0
485	0	0	0
486	0	0	0
487	0	0	0
488	0	0	0
489	0	0	0
490	0	0	0
491	0	0	0
492	0	0	0
493	0	0	0
494	0	0	0
495	0	0	0
496	252	227	214
497	255	224	215
498	254	207	204
499	255	209	207
500	252	193	198
501	243	182	191
502	251	189	198
503	255	197	209
504	255	182	205
505	245	169	199
506	238	163	196
507	231	163	195
508	235	170	198
509	240	171	198
510	238	164	193
511	246	171	198
512	249	172	198
513	244	158	189
514	243	156	189
515	250	169	198
516	250	172	199
517	246	168	195
518	248	172	198
519	255	184	204
520	255	187	202
521	252	180	194
522	251	183	196
523	254	194	203
524	255	203	209
525	0	0	0
526	249	202	211
527	0	0	0
528	0	0	0
529	0	0	0
530	0	0	0
531	0	0	0
532	0	0	0
533	0	0	0
534	0	0	0
535	244	225	228
536	246	225	230
537	242	215	225
538	233	202	215
539	239	212	221
540	245	222	228
541	0	0	0
542	0	0	0
543	0	0	0
544	0	0	0
545	0	0	0
546	0	0	0
547	0	0	0
548	0	0	0
549	0	0	0
550	0	0	0
551	0	0	0
552	0	0	0
553	0	0	0
554	0	0	0
555	0	0	0
556	0	0	0
557	0	0	0
558	0	0	0
559	0	0	0
560	0	0	0
561	254	233	206
562	255	227	209
563	255	215	206
564	251	199	198
565	251	190	195
566	243	175	188
567	245	180	195
568	253	189	205
569	252	178	203
570	243	163	196
571	243	163	200
572	235	158	199
573	230	162	200
574	233	168	202
575	234	163	198
576	231	156	193
577	232	155	193
578	236	156	195
579	242	158	196
580	241	155	194
581	241	158	194
582	242	161	195
583	244	164	196
584	246	168	197
585	252	173	199
586	254	177	200
587	254	180	199
588	254	182	198
589	255	190	201
590	255	198	205
591	255	201	206
592	253	203	209
593	254	215	217
594	0	0	0
595	0	0	0
596	0	0	0
597	0	0	0
598	0	0	0
599	0	0	0
600	247	226	228
601	250	226	230
602	247	218	227
603	239	207	219
604	239	205	219
605	251	219	228
606	247	215	222
607	242	212	217
608	0	0	0
609	0	0	0
610	0	0	0
611	0	0	0
612	0	0	0
613	0	0	0
614	0	0	0
615	0	0	0
616	0	0	0
617	0	0	0
618	0	0	0
619	0	0	0
620	0	0	0
621	0	0	0
622	0	0	0
623	0	0	0
624	0	0	0
625	0	0	0
626	254	231	203
627	250	223	199
628	239	201	192
629	236	187	189
630	241	187	192
631	241	178	191
632	240	172	191
633	247	180	201
634	247	179	204
635	240	165	198
636	226	144	187
637	228	147	193
638	222	143	192
639	220	148	195
640	220	150	195
641	218	143	190
642	217	141	189
643	215	139	187
644	220	142	190
645	228	144	193
646	224	138	187
647	223	140	185
648	233	155	194
649	239	160	197
650	235	151	190
651	241	157	193
652	247	165	196
653	246	167	195
654	250	174	196
655	255	184	200
656	255	189	200
657	252	189	199
658	253	199	204
659	255	211	212
660	253	218	217
661	0	0	0
662	0	0	0
663	0	0	0
664	0	0	0
665	250	223	227
666	254	229	232
667	250	220	227
668	246	211	222
669	245	210	222
670	246	209	222
671	253	213	225
672	248	208	218
673	247	212	219
674	250	219	223
675	0	0	0
676	242	205	211
677	250	216	215
678	254	225	216
679	251	224	213
680	253	227	214
681	255	229	217
682	255	229	216
683	0	0	0
684	0	0	0
685	0	0	0
686	0	0	0
687	0	0	0
688	0	0	0
689	0	0	0
690	0	0	0
691	255	237	210
692	255	227	204
693	245	206	196
694	234	184	189
695	238	184	196
696	242	184	199
697	240	176	196
698	238	170	196
699	239	169	199
700	238	167	200
701	227	150	192
702	213	129	182
703	213	130	186
704	208	127	185
705	208	130	187
706	209	133	189
707	211	133	190
708	209	130	187
709	206	129	185
710	209	131	187
711	215	131	188
712	212	125	185
713	219	138	191
714	229	151	195
715	225	142	187
716	223	135	184
717	234	146	193
718	239	153	194
719	241	160	195
720	246	167	196
721	253	176	199
722	254	181	199
723	253	187	199
724	254	196	203
725	252	203	206
726	249	210	210
727	0	0	0
728	0	0	0
729	0	0	0
730	0	0	0
731	255	230	234
732	252	215	224
733	242	204	216
734	246	209	221
735	248	209	222
736	253	212	225
737	255	215	227
738	249	202	215
739	249	208	217
740	249	212	219
741	240	202	210
742	249	215	217
743	255	229	225
744	254	217	212
745	250	217	208
746	252	218	210
747	255	221	213
748	252	214	208
749	249	213	205
750	252	220	208
751	253	226	210
752	0	0	0
753	0	0	0
754	0	0	0
755	0	0	0
756	255	239	209
757	255	231	208
758	252	207	198
759	239	186	190
760	226	164	184
761	231	164	191
762	242	178	201
763	236	169	196
764	237	169	200
765	234	167	202
766	215	139	186
767	206	124	181
768	201	117	180
769	200	117	182
770	208	131	191
771	211	135	195
772	206	127	190
773	208	127	192
774	202	118	185
775	199	117	183
776	208	128	190
777	210	126	190
778	206	119	186
779	217	133	194
780	224	143	195
781	219	133	185
782	226	139	192
783	237	151	200
784	237	152	198
785	237	157	198
786	234	154	192
787	244	163	196
788	248	172	197
789	246	177	196
790	251	191	202
791	251	198	204
792	246	202	205
793	0	0	0
794	0	0	0
795	0	0	0
796	0	0	0
797	0	0	0
798	244	199	215
799	247	205	220
800	250	209	222
801	252	211	222
802	255	213	225
803	254	206	220
804	246	194	209
805	248	201	212
806	248	205	215
807	250	214	219
808	255	227	225
809	255	219	217
810	250	208	206
811	250	209	205
812	251	210	205
813	250	206	202
814	246	199	200
815	251	209	204
816	253	215	204
817	252	216	202
818	248	214	200
819	254	227	206
820	255	243	213
821	255	236	208
822	255	235	209
823	252	208	196
824	239	184	188
825	223	162	180
826	212	140	175
827	232	160	194
828	243	173	201
829	239	169	198
830	237	168	200
831	214	140	186
832	196	114	177
833	199	115	184
834	192	108	181
835	198	120	189
836	206	133	196
837	202	125	190
838	198	116	186
839	198	112	185
840	192	103	180
841	194	111	183
842	200	121	187
843	197	114	182
844	195	107	180
845	209	123	191
846	218	134	194
847	220	136	192
848	226	141	195
849	230	145	196
850	230	146	194
851	224	142	190
852	222	140	189
853	238	156	199
854	243	165	199
855	248	177	202
856	253	190	207
857	249	194	206
858	244	197	205
859	0	0	0
860	0	0	0
861	0	0	0
862	0	0	0
863	0	0	0
864	249	205	221
865	255	213	228
866	249	203	218
867	246	201	216
868	249	203	220
869	248	197	216
870	249	197	212
871	254	205	216
872	250	203	215
873	253	212	219
874	255	219	220
875	251	209	210
876	249	203	206
877	255	209	210
878	249	199	201
879	243	192	195
880	250	202	203
881	255	213	210
882	252	206	199
883	251	206	197
884	249	205	196
885	255	220	204
886	255	222	203
887	255	215	199
888	250	201	192
889	225	169	176
890	219	162	179
891	205	140	172
892	218	151	188
893	247	175	211
894	243	165	202
895	237	161	199
896	225	146	192
897	199	117	177
898	189	105	177
899	191	106	184
900	182	98	179
901	186	109	185
902	189	115	185
903	187	107	180
904	185	99	178
905	186	96	178
906	189	102	183
907	188	108	184
908	188	111	182
909	183	103	176
910	188	105	180
911	206	123	194
912	205	118	187
913	206	120	185
914	217	134	192
915	220	136	192
916	217	134	189
917	212	131	186
918	216	135	190
919	233	152	201
920	244	164	205
921	254	179	210
922	253	184	208
923	243	183	202
924	242	194	207
925	0	0	0
926	0	0	0
927	0	0	0
928	0	0	0
929	253	211	223
930	254	210	226
931	253	204	224
932	245	194	213
933	244	195	214
934	247	197	220
935	252	201	222
936	253	201	218
937	253	200	215
938	249	198	214
939	249	203	214
940	252	209	213
941	246	201	206
942	247	197	207
943	251	196	207
944	244	185	197
945	246	193	200
946	253	203	206
947	254	202	204
948	249	196	195
949	251	198	195
950	250	197	193
951	251	198	193
952	254	202	195
953	246	186	188
954	237	173	184
955	222	158	179
956	216	150	182
957	222	157	192
958	234	167	205
959	240	163	207
960	236	153	202
961	223	137	193
962	209	123	188
963	192	108	181
964	180	94	175
965	181	95	179
966	174	88	175
967	174	94	177
968	177	99	178
969	174	90	172
970	171	81	169
971	180	91	177
972	183	97	181
973	179	97	178
974	179	101	177
975	180	100	176
976	184	101	179
977	193	105	184
978	193	102	180
979	203	116	189
980	213	130	195
981	214	128	192
982	211	126	189
983	210	128	190
984	214	132	192
985	231	151	204
986	242	163	209
987	252	173	211
988	251	178	207
989	246	185	206
990	245	195	211
991	0	0	0
992	0	0	0
993	0	0	0
994	0	0	0
995	252	206	222
996	255	209	228
997	254	203	225
998	250	198	219
999	250	200	221
1000	244	191	219
1001	249	195	221
1002	251	197	218
1003	250	197	214
1004	251	200	216
1005	251	205	216
1006	252	208	213
1007	248	201	207
1008	247	194	207
1009	250	192	207
1010	244	184	199
1011	248	193	202
1012	255	202	207
1013	255	201	205
1014	246	184	192
1015	248	187	194
1016	247	185	191
1017	247	186	192
1018	247	183	192
1019	239	167	185
1020	232	155	183
1021	222	144	180
1022	233	158	195
1023	240	165	205
1024	232	151	199
1025	226	141	196
1026	227	143	201
1027	213	128	194
1028	193	105	182
1029	178	91	176
1030	173	88	176
1031	175	89	178
1032	174	87	178
1033	179	95	182
1034	172	87	175
1035	164	75	166
1036	167	81	171
1037	174	89	176
1038	181	100	182
1039	182	102	182
1040	185	105	183
1041	187	105	183
1042	187	101	182
1043	195	105	186
1044	195	102	185
1045	203	116	193
1046	202	114	188
1047	205	114	187
1048	214	125	193
1049	213	127	193
1050	216	133	196
1051	229	148	205
1052	229	146	200
1053	240	157	204
1054	244	167	203
1055	243	176	203
1056	241	188	208
1057	0	0	0
1058	0	0	0
1059	0	0	0
1060	252	205	222
1061	253	205	223
1062	255	208	229
1063	253	203	225
1064	249	197	220
1065	242	189	214
1066	235	179	211
1067	238	184	213
1068	240	188	211
1069	246	193	212
1070	248	198	213
1071	251	202	214
1072	254	207	214
1073	249	198	208
1074	247	191	206
1075	251	191	208
1076	247	184	202
1077	253	194	206
1078	255	202	207
1079	252	188	198
1080	244	173	192
1081	245	174	195
1082	245	173	195
1083	241	167	192
1084	241	163	190
1085	233	150	184
1086	226	137	180
1087	230	146	188
1088	239	158	198
1089	232	144	190
1090	221	130	185
1091	218	129	189
1092	216	131	195
1093	194	107	183
1094	174	84	170
1095	170	83	173
1096	167	80	175
1097	168	80	176
1098	165	77	173
1099	164	74	170
1100	158	67	164
1101	161	73	167
1102	164	78	170
1103	172	89	176
1104	179	100	181
1105	179	99	179
1106	183	102	181
1107	182	98	178
1108	183	95	178
1109	191	99	183
1110	190	96	181
1111	185	94	178
1112	184	92	175
1113	199	107	185
1114	209	118	190
1115	213	125	193
1116	217	131	196
1117	218	133	197
1118	218	131	191
1119	233	148	200
1120	239	158	201
1121	242	172	205
1122	241	183	208
1123	0	0	0
1124	0	0	0
1125	255	210	226
1126	248	197	219
1127	248	197	221
1128	254	207	229
1129	248	200	224
1130	243	195	218
1131	237	187	213
1132	233	185	214
1133	233	188	214
1134	243	201	220
1135	253	209	224
1136	250	200	216
1137	255	208	220
1138	253	198	212
1139	248	189	205
1140	244	180	203
1141	247	180	205
1142	245	175	201
1143	254	187	207
1144	247	175	196
1145	238	160	187
1146	239	159	192
1147	241	161	196
1148	242	160	197
1149	240	154	195
1150	237	148	191
1151	230	134	183
1152	229	134	186
1153	230	141	190
1154	234	147	193
1155	225	133	185
1156	221	129	187
1157	217	129	192
1158	203	116	188
1159	176	90	174
1160	163	76	167
1161	167	78	174
1162	174	88	184
1163	170	86	182
1164	166	81	177
1165	164	78	175
1166	160	72	170
1167	165	80	175
1168	166	82	174
1169	175	93	179
1170	180	100	182
1171	176	97	178
1172	181	102	181
1173	182	99	180
1174	189	102	184
1175	195	106	188
1176	185	92	178
1177	181	90	176
1178	189	101	183
1179	202	116	193
1180	204	115	190
1181	213	124	195
1182	214	124	195
1183	214	126	195
1184	208	118	186
1185	223	135	195
1186	235	154	203
1187	241	168	207
1188	243	182	211
1189	0	0	0
1190	248	207	223
1191	242	195	216
1192	235	183	212
1193	245	196	223
1194	252	205	229
1195	244	198	223
1196	240	193	219
1197	242	194	220
1198	239	192	219
1199	242	202	224
1200	250	215	230
1201	246	204	221
1202	247	198	217
1203	251	194	215
1204	248	185	207
1205	245	178	204
1206	243	171	203
1207	249	173	208
1208	248	168	204
1209	244	161	199
1210	238	150	194
1211	237	148	194
1212	236	146	195
1213	235	144	194
1214	235	142	194
1215	229	132	188
1216	227	126	186
1217	231	128	189
1218	229	128	187
1219	226	130	186
1220	228	136	189
1221	225	131	188
1222	221	127	191
1223	204	112	185
1224	189	99	181
1225	168	81	171
1226	156	68	166
1227	171	84	181
1228	177	93	187
1229	171	89	184
1230	168	85	181
1231	168	85	182
1232	163	78	178
1233	165	82	180
1234	166	84	178
1235	175	93	182
1236	180	100	184
1237	177	98	180
1238	181	103	183
1239	186	105	185
1240	192	108	188
1241	190	100	184
1242	182	88	175
1243	191	102	186
1244	199	113	193
1245	202	115	194
1246	205	115	194
1247	209	116	195
1248	209	115	193
1249	203	110	188
1250	197	103	181
1251	221	132	199
1252	232	150	206
1253	238	166	210
1254	240	179	212
1255	245	217	231
1256	243	211	226
1257	237	200	219
1258	244	204	226
1259	255	219	239
1260	253	207	230
1261	246	200	224
1262	247	201	224
1263	251	203	227
1264	246	197	222
1265	250	208	227
1266	254	216	229
1267	244	203	217
1268	251	206	223
1269	255	206	226
1270	249	181	209
1271	246	174	208
1272	247	168	210
1273	255	173	217
1274	250	158	205
1275	244	149	199
1276	240	143	198
1277	238	141	199
1278	238	140	199
1279	238	138	198
1280	238	139	199
1281	229	127	192
1282	232	129	195
1283	239	133	199
1284	238	134	197
1285	233	135	195
1286	225	129	190
1287	219	122	188
1288	210	114	186
1289	194	99	180
1290	185	94	182
1291	166	78	174
1292	163	77	176
1293	176	91	189
1294	175	89	186
1295	171	86	184
1296	162	74	176
1297	160	72	177
1298	148	58	168
1299	147	61	168
1300	164	85	181
1301	174	94	185
1302	169	87	177
1303	168	86	174
1304	181	104	186
1305	183	104	186
1306	180	93	179
1307	179	86	175
1308	184	89	178
1309	200	106	192
1310	191	92	182
1311	190	92	181
1312	200	104	191
1313	203	105	190
1314	208	113	194
1315	200	107	188
1316	198	105	186
1317	222	135	206
1318	222	139	202
1319	224	153	203
1320	230	175	210
1321	246	224	236
1322	244	217	230
1323	247	219	231
1324	254	223	235
1325	255	216	233
1326	250	204	225
1327	251	206	226
1328	253	207	227
1329	254	206	226
1330	249	200	220
1331	253	209	224
1332	255	218	226
1333	253	212	220
1334	255	216	227
1335	255	195	218
1336	245	172	207
1337	243	166	208
1338	244	160	210
1339	242	149	205
1340	234	133	192
1341	231	128	188
1342	227	122	185
1343	226	122	187
1344	226	122	188
1345	230	125	192
1346	230	126	195
1347	225	123	193
1348	227	124	194
1349	235	130	199
1350	234	130	198
1351	220	119	187
1352	212	113	184
1353	201	102	178
1354	192	93	175
1355	183	89	177
1356	176	86	180
1357	173	88	185
1358	170	86	185
1359	172	87	187
1360	170	85	186
1361	160	73	178
1362	150	60	170
1363	142	51	165
1364	131	37	156
1365	147	63	172
1366	164	87	184
1367	162	80	176
1368	159	73	169
1369	171	89	178
1370	184	106	191
1371	173	90	179
1372	168	79	172
1373	176	84	177
1374	184	87	181
1375	186	81	178
1376	177	66	167
1377	186	80	176
1378	196	93	185
1379	203	101	190
1380	207	109	192
1381	202	107	189
1382	201	106	189
1383	216	125	202
1384	214	128	197
1385	222	153	205
1386	0	0	0
1387	0	0	0
1388	251	224	234
1389	254	226	235
1390	254	221	232
1391	252	213	227
1392	252	208	225
1393	255	211	228
1394	252	204	223
1395	251	202	221
1396	252	205	222
1397	255	216	226
1398	255	209	220
1399	255	208	219
1400	255	205	220
1401	248	180	209
1402	247	172	211
1403	247	168	215
1404	242	157	212
1405	233	142	204
1406	234	141	201
1407	236	138	200
1408	239	141	202
1409	238	141	202
1410	227	126	194
1411	231	129	198
1412	234	134	202
1413	226	130	199
1414	221	122	195
1415	228	127	199
1416	225	126	196
1417	211	115	186
1418	211	119	190
1419	202	110	186
1420	200	112	191
1421	191	108	192
1422	167	78	177
1423	168	82	185
1424	160	73	179
1425	158	72	178
1426	162	79	183
1427	150	65	175
1428	137	50	165
1429	130	41	160
1430	141	58	173
1431	163	86	190
1432	159	80	181
1433	155	72	172
1434	164	81	178
1435	182	100	191
1436	182	99	189
1437	165	79	174
1438	166	79	175
1439	176	85	180
1440	186	90	185
1441	188	83	183
1442	180	66	172
1443	192	82	182
1444	204	98	192
1445	210	106	195
1446	209	106	192
1447	206	105	190
1448	213	116	197
1449	225	133	208
1450	210	121	194
1451	217	146	203
1452	0	0	0
1453	0	0	0
1454	255	230	236
1455	252	225	233
1456	252	219	230
1457	254	217	228
1458	255	212	225
1459	255	209	224
1460	252	203	221
1461	255	210	225
1462	255	213	225
1463	255	207	220
1464	255	203	219
1465	255	197	217
1466	255	193	216
1467	248	178	210
1468	245	170	213
1469	239	159	211
1470	233	148	208
1471	233	147	210
1472	235	147	209
1473	245	153	215
1474	248	155	215
1475	234	139	204
1476	224	125	195
1477	230	132	201
1478	231	135	203
1479	217	122	192
1480	211	115	190
1481	217	118	193
1482	214	116	189
1483	204	114	185
1484	203	119	189
1485	203	121	193
1486	201	123	198
1487	175	94	183
1488	152	65	169
1489	153	66	175
1490	146	57	170
1491	148	62	174
1492	151	69	178
1493	139	55	168
1494	126	39	159
1495	139	60	174
1496	150	76	184
1497	152	74	181
1498	149	68	174
1499	160	79	181
1500	169	88	187
1501	173	88	186
1502	172	86	182
1503	163	78	173
1504	165	78	175
1505	175	82	180
1506	184	87	184
1507	182	75	179
1508	176	59	171
1509	195	82	187
1510	208	98	194
1511	209	99	193
1512	208	99	190
1513	215	111	195
1514	219	121	198
1515	217	121	197
1516	202	110	187
1517	217	148	206
1518	230	181	215
1519	0	0	0
1520	254	232	235
1521	252	227	233
1522	251	221	229
1523	255	219	229
1524	255	215	226
1525	255	212	225
1526	252	203	220
1527	255	210	225
1528	255	207	221
1529	255	202	219
1530	255	197	219
1531	254	190	216
1532	255	193	218
1533	246	177	210
1534	241	168	212
1535	234	157	210
1536	239	162	218
1537	243	163	222
1538	236	149	213
1539	246	155	219
1540	238	143	209
1541	222	125	195
1542	225	131	200
1543	229	137	205
1544	226	136	201
1545	215	124	192
1546	223	134	202
1547	229	138	206
1548	219	128	197
1549	207	125	192
1550	207	133	199
1551	205	134	203
1552	183	107	188
1553	157	79	173
1554	144	62	168
1555	147	64	176
1556	145	62	177
1557	146	68	180
1558	151	75	184
1559	143	62	176
1560	131	46	166
1561	143	66	180
1562	147	74	183
1563	146	70	178
1564	156	78	184
1565	170	91	193
1566	152	65	174
1567	148	60	168
1568	169	89	186
1569	168	85	181
1570	174	87	183
1571	185	91	187
1572	188	88	187
1573	182	74	179
1574	190	78	184
1575	216	105	204
1576	219	105	201
1577	216	104	198
1578	210	97	191
1579	217	110	197
1580	220	119	199
1581	214	118	195
1582	203	114	191
1583	218	153	210
1584	223	174	212
1585	0	0	0
1586	0	0	0
1587	250	227	231
1588	249	221	229
1589	252	219	228
1590	254	215	225
1591	252	208	221
1592	248	199	217
1593	250	200	218
1594	251	198	216
1595	252	193	215
1596	251	188	214
1597	255	190	217
1598	255	192	218
1599	244	176	209
1600	238	168	212
1601	243	172	220
1602	246	175	225
1603	236	158	216
1604	229	144	209
1605	231	138	207
1606	224	126	198
1607	225	132	201
1608	228	138	205
1609	228	138	204
1610	227	137	203
1611	230	144	206
1612	236	153	212
1613	232	145	206
1614	221	136	200
1615	213	137	200
1616	213	146	208
1617	189	116	192
1618	166	90	180
1619	150	74	174
1620	136	56	167
1621	139	61	174
1622	136	59	175
1623	140	66	180
1624	145	73	184
1625	139	62	177
1626	128	46	167
1627	136	59	177
1628	140	67	179
1629	146	72	181
1630	155	81	186
1631	143	58	170
1632	125	32	153
1633	145	61	172
1634	169	92	190
1635	173	91	187
1636	181	93	188
1637	187	91	188
1638	190	88	188
1639	193	90	189
1640	201	93	193
1641	214	101	199
1642	216	101	197
1643	210	96	192
1644	204	90	188
1645	211	104	196
1646	214	114	199
1647	213	120	200
1648	201	116	193
1649	209	144	204
1650	0	0	0
1651	0	0	0
1652	0	0	0
1653	0	0	0
1654	252	228	232
1655	252	224	229
1656	254	222	228
1657	254	216	226
1658	249	203	219
1659	253	205	222
1660	253	201	222
1661	255	197	221
1662	249	185	215
1663	251	186	216
1664	251	186	215
1665	238	170	206
1666	245	178	218
1667	253	183	227
1668	241	166	218
1669	223	146	204
1670	231	156	214
1671	233	150	213
1672	226	136	205
1673	234	146	211
1674	241	153	215
1675	241	153	213
1676	238	147	209
1677	244	155	214
1678	236	147	205
1679	224	135	195
1680	231	152	208
1681	227	156	213
1682	214	145	208
1683	187	114	191
1684	171	97	186
1685	158	83	183
1686	150	77	181
1687	146	77	184
1688	143	76	185
1689	149	84	192
1690	146	79	188
1691	137	66	180
1692	134	61	177
1693	144	75	188
1694	137	66	179
1695	143	72	182
1696	157	89	192
1697	141	64	174
1698	142	63	175
1699	169	97	197
1700	179	104	200
1701	184	103	197
1702	180	88	186
1703	186	86	185
1704	196	94	192
1705	201	96	194
1706	205	98	195
1707	211	102	197
1708	209	98	193
1709	205	95	191
1710	209	104	197
1711	215	117	206
1712	210	116	203
1713	212	123	205
1714	202	122	199
1715	211	151	211
1716	0	0	0
1717	0	0	0
1718	0	0	0
1719	0	0	0
1720	0	0	0
1721	249	227	228
1722	252	225	228
1723	251	215	224
1724	246	203	220
1725	246	200	221
1726	248	197	223
1727	250	191	222
1728	246	180	215
1729	251	184	219
1730	251	184	218
1731	251	185	219
1732	255	192	229
1733	252	179	224
1734	239	161	214
1735	237	165	217
1736	244	174	225
1737	238	161	218
1738	231	147	210
1739	243	159	219
1740	249	166	222
1741	245	159	215
1742	242	153	209
1743	241	150	207
1744	232	141	198
1745	233	152	205
1746	241	170	219
1747	225	154	209
1748	212	142	203
1749	190	120	193
1750	175	103	190
1751	173	103	196
1752	163	95	192
1753	152	90	189
1754	147	88	189
1755	143	82	186
1756	139	76	182
1757	137	72	181
1758	133	66	178
1759	132	64	178
1760	126	55	171
1761	138	72	180
1762	150	88	189
1763	146	83	183
1764	148	83	184
1765	159	91	189
1766	170	99	191
1767	170	87	183
1768	168	73	175
1769	183	85	185
1770	194	93	191
1771	199	96	193
1772	202	97	192
1773	199	93	189
1774	197	90	187
1775	206	102	196
1776	210	111	201
1777	209	115	204
1778	204	114	202
1779	207	124	207
1780	200	123	201
1781	212	151	213
1782	0	0	0
1783	0	0	0
1784	0	0	0
1785	0	0	0
1786	0	0	0
1787	0	0	0
1788	251	232	232
1789	0	0	0
1790	250	211	225
1791	0	0	0
1792	253	208	231
1793	255	204	233
1794	248	181	220
1795	254	186	224
1796	251	180	219
1797	253	182	221
1798	255	183	225
1799	246	167	216
1800	240	158	212
1801	244	165	219
1802	246	169	221
1803	235	153	210
1804	235	153	211
1805	243	163	218
1806	240	157	212
1807	235	150	205
1808	239	154	207
1809	239	151	205
1810	231	144	199
1811	233	157	207
1812	238	170	217
1813	223	153	208
1814	203	131	196
1815	180	108	185
1816	175	105	190
1817	175	104	196
1818	162	93	188
1819	149	86	183
1820	160	109	199
1821	154	101	195
1822	148	93	191
1823	145	89	189
1824	146	89	190
1825	146	87	189
1826	143	84	187
1827	152	98	194
1828	155	104	195
1829	151	100	190
1830	157	106	195
1831	166	114	200
1832	173	114	199
1833	177	105	194
1834	179	95	190
1835	193	107	200
1836	195	104	198
1837	201	107	199
1838	201	105	196
1839	198	101	193
1840	208	115	203
1841	218	128	213
1842	212	121	208
1843	212	125	211
1844	200	113	203
1845	201	121	206
1846	213	145	217
1847	233	179	233
1848	0	0	0
1849	0	0	0
1850	0	0	0
1851	0	0	0
1852	0	0	0
1853	0	0	0
1854	0	0	0
1855	0	0	0
1856	0	0	0
1857	0	0	0
1858	255	216	235
1859	252	199	229
1860	242	177	217
1861	246	177	219
1862	245	172	216
1863	248	172	217
1864	250	172	219
1865	242	162	214
1866	236	153	210
1867	241	159	216
1868	243	163	218
1869	240	161	215
1870	239	159	211
1871	241	159	211
1872	238	155	209
1873	240	158	211
1874	243	163	213
1875	245	163	213
1876	239	157	209
1877	241	166	216
1878	246	179	226
1879	222	150	210
1880	202	128	200
1881	186	117	197
1882	178	111	197
1883	175	107	197
1884	164	95	189
1885	169	112	200
1886	180	134	215
1887	167	119	204
1888	159	110	200
1889	158	110	199
1890	157	109	197
1891	159	110	197
1892	157	106	195
1893	160	113	199
1894	163	119	201
1895	166	124	203
1896	172	130	208
1897	171	126	205
1898	177	126	206
1899	180	119	202
1900	180	109	197
1901	186	110	200
1902	190	108	200
1903	199	112	203
1904	200	111	199
1905	209	124	207
1906	218	137	215
1907	214	131	212
1908	207	123	209
1909	194	113	202
1910	180	99	191
1911	198	129	209
1912	213	155	221
1913	0	0	0
1914	0	0	0
1915	0	0	0
1916	0	0	0
1917	0	0	0
1918	0	0	0
1919	0	0	0
1920	0	0	0
1921	0	0	0
1922	0	0	0
1923	0	0	0
1924	255	216	235
1925	247	196	226
1926	238	177	217
1927	243	178	221
1928	249	180	223
1929	254	182	226
1930	251	175	221
1931	241	163	214
1932	240	162	216
1933	244	168	220
1934	242	166	218
1935	239	164	215
1936	234	153	206
1937	240	156	209
1938	236	148	206
1939	234	150	207
1940	230	146	203
1941	233	147	204
1942	226	138	199
1943	232	149	209
1944	227	148	209
1945	202	118	193
1946	193	116	198
1947	173	102	191
1948	166	102	191
1949	162	95	188
1950	163	98	190
1951	177	119	204
1952	183	132	212
1953	165	114	198
1954	167	121	204
1955	167	121	204
1956	159	111	195
1957	160	111	194
1958	170	124	203
1959	175	132	208
1960	181	140	212
1961	186	145	216
1962	184	141	213
1963	181	137	210
1964	183	138	213
1965	176	125	205
1966	176	121	203
1967	186	124	207
1968	195	127	211
1969	207	133	216
1970	208	128	211
1971	221	143	221
1972	219	141	219
1973	210	132	213
1974	206	134	215
1975	186	119	204
1976	191	136	214
1977	0	0	0
1978	0	0	0
1979	0	0	0
1980	0	0	0
1981	0	0	0
1982	0	0	0
1983	0	0	0
1984	0	0	0
1985	0	0	0
1986	0	0	0
1987	0	0	0
1988	0	0	0
1989	0	0	0
1990	0	0	0
1991	236	189	220
1992	229	171	214
1993	241	180	223
1994	247	182	223
1995	249	179	221
1996	247	172	218
1997	248	173	220
1998	247	173	222
1999	249	174	224
2000	247	171	219
2001	238	160	212
2002	235	151	209
2003	239	150	212
2004	234	142	206
2005	227	137	201
2006	224	134	199
2007	225	131	199
2008	217	122	194
2009	213	121	195
2010	208	119	195
2011	201	115	196
2012	192	112	201
2013	173	102	195
2014	164	98	191
2015	159	97	188
2016	160	99	189
2017	170	112	197
2018	176	124	204
2019	172	126	204
2020	175	133	210
2021	171	128	207
2022	164	118	200
2023	177	135	211
2024	186	148	219
2025	189	152	220
2026	195	159	222
2027	191	153	217
2028	190	149	216
2029	189	149	217
2030	188	149	219
2031	180	141	214
2032	179	136	213
2033	189	140	217
2034	195	141	216
2035	199	137	213
2036	198	132	212
2037	198	131	211
2038	195	129	208
2039	194	131	209
2040	0	0	0
2041	0	0	0
2042	0	0	0
2043	0	0	0
2044	0	0	0
2045	0	0	0
2046	0	0	0
2047	0	0	0
2048	0	0	0
2049	0	0	0
2050	0	0	0
2051	0	0	0
2052	0	0	0
2053	0	0	0
2054	0	0	0
2055	0	0	0
2056	0	0	0
2057	0	0	0
2058	240	195	227
2059	255	206	238
2060	250	190	227
2061	251	186	224
2062	255	184	225
2063	255	189	230
2064	253	173	222
2065	254	174	224
2066	250	167	218
2067	244	157	212
2068	245	156	216
2069	244	152	216
2070	237	142	210
2071	235	140	209
2072	238	143	211
2073	237	140	211
2074	211	109	192
2075	198	103	189
2076	196	107	194
2077	192	104	196
2078	180	95	194
2079	164	85	187
2080	171	109	199
2081	161	103	192
2082	181	136	212
2083	186	146	216
2084	179	139	210
2085	180	143	213
2086	175	137	210
2087	172	132	207
2088	164	121	201
2089	178	138	213
2090	184	147	217
2091	185	150	217
2092	189	157	220
2093	184	149	214
2094	190	158	220
2095	190	158	222
2096	183	148	218
2097	175	141	215
2098	179	144	219
2099	188	147	221
2100	192	151	220
2101	186	143	213
2102	186	145	216
2103	176	140	211
2104	183	153	218
2105	0	0	0
2106	0	0	0
2107	0	0	0
2108	0	0	0
2109	0	0	0
2110	0	0	0
2111	0	0	0
2112	0	0	0
2113	0	0	0
2114	0	0	0
2115	0	0	0
2116	0	0	0
2117	0	0	0
2118	0	0	0
2119	0	0	0
2120	0	0	0
2121	0	0	0
2122	0	0	0
2123	0	0	0
2124	246	213	232
2125	252	208	233
2126	248	193	225
2127	252	193	226
2128	255	192	227
2129	253	180	222
2130	246	165	216
2131	247	163	217
2132	246	158	213
2133	248	158	214
2134	247	155	214
2135	240	145	209
2136	235	136	208
2137	237	138	211
2138	240	140	212
2139	224	116	198
2140	199	86	183
2141	189	89	187
2142	185	92	191
2143	180	87	190
2144	167	75	183
2145	173	97	196
2146	181	119	208
2147	188	141	216
2148	205	172	233
2149	189	157	218
2150	181	149	211
2151	176	144	209
2152	172	138	206
2153	169	132	203
2154	162	121	198
2155	173	135	209
2156	178	144	214
2157	180	148	216
2158	183	154	220
2159	184	157	219
2160	188	163	222
2161	176	149	212
2162	169	140	212
2163	167	141	214
2164	171	144	217
2165	182	152	222
2166	185	155	222
2167	183	157	221
2168	182	159	221
2169	186	172	228
2170	0	0	0
2171	0	0	0
2172	0	0	0
2173	0	0	0
2174	0	0	0
2175	0	0	0
2176	0	0	0
2177	0	0	0
2178	0	0	0
2179	0	0	0
2180	0	0	0
2181	0	0	0
2182	0	0	0
2183	0	0	0
2184	0	0	0
2185	0	0	0
2186	0	0	0
2187	0	0	0
2188	0	0	0
2189	0	0	0
2190	247	223	234
2191	255	219	238
2192	245	194	224
2193	245	193	224
2194	249	193	224
2195	248	182	220
2196	246	172	218
2197	248	171	221
2198	243	159	215
2199	248	160	217
2200	242	148	209
2201	237	139	205
2202	250	154	221
2203	251	155	224
2204	241	138	213
2205	227	115	201
2206	218	108	202
2207	210	111	207
2208	195	101	202
2209	186	92	197
2210	181	93	195
2211	190	115	207
2212	202	144	223
2213	211	166	231
2214	221	190	241
2215	200	172	223
2216	191	163	218
2217	184	157	216
2218	177	148	211
2219	174	142	210
2220	176	146	214
2221	185	159	223
2222	189	166	227
2223	0	0	0
2224	0	0	0
2225	0	0	0
2226	0	0	0
2227	0	0	0
2228	0	0	0
2229	0	0	0
2230	0	0	0
2231	0	0	0
2232	0	0	0
2233	0	0	0
2234	0	0	0
2235	0	0	0
2236	0	0	0
2237	0	0	0
2238	0	0	0
2239	0	0	0
2240	0	0	0
2241	0	0	0
2242	0	0	0
2243	0	0	0
2244	0	0	0
2245	0	0	0
2246	0	0	0
2247	0	0	0
2248	0	0	0
2249	0	0	0
2250	0	0	0
2251	0	0	0
2252	0	0	0
2253	0	0	0
2254	0	0	0
2255	0	0	0
2256	0	0	0
2257	245	214	231
2258	234	190	219
2259	239	192	222
2260	243	192	222
2261	244	185	220
2262	243	176	218
2263	244	169	219
2264	241	159	216
2265	242	153	215
2266	237	142	207
2267	250	156	219
2268	255	170	231
2269	251	151	220
2270	242	135	214
2271	243	133	217
2272	232	123	214
2273	211	110	205
2274	196	99	199
2275	196	106	204
2276	191	106	201
2277	213	143	223
2278	225	171	237
2279	228	186	240
2280	237	209	249
2281	213	187	230
2282	202	178	227
2283	189	167	222
2284	180	156	218
2285	184	162	223
2286	186	166	226
2287	193	176	231
2288	0	0	0
2289	0	0	0
2290	0	0	0
2291	0	0	0
2292	0	0	0
2293	0	0	0
2294	0	0	0
2295	0	0	0
2296	0	0	0
2297	0	0	0
2298	0	0	0
2299	0	0	0
2300	0	0	0
2301	0	0	0
2302	0	0	0
2303	0	0	0
2304	0	0	0
2305	0	0	0
2306	0	0	0
2307	0	0	0
2308	0	0	0
2309	0	0	0
2310	0	0	0
2311	0	0	0
2312	0	0	0
2313	0	0	0
2314	0	0	0
2315	0	0	0
2316	0	0	0
2317	0	0	0
2318	0	0	0
2319	0	0	0
2320	0	0	0
2321	0	0	0
2322	0	0	0
2323	0	0	0
2324	241	215	232
2325	254	222	241
2326	246	201	228
2327	244	192	224
2328	246	184	224
2329	252	180	227
2330	246	163	221
2331	244	156	219
2332	246	153	217
2333	255	169	229
2334	255	162	225
2335	249	143	215
2336	245	133	214
2337	245	129	216
2338	228	114	207
2339	206	100	196
2340	218	127	215
2341	218	134	219
2342	210	128	212
2343	234	165	235
2344	229	168	231
2345	227	180	230
2346	239	209	243
2347	215	187	225
2348	211	189	229
2349	194	175	223
2350	0	0	0
2351	0	0	0
2352	0	0	0
2353	0	0	0
2354	0	0	0
2355	0	0	0
2356	0	0	0
2357	0	0	0
2358	0	0	0
2359	0	0	0
2360	0	0	0
2361	0	0	0
2362	0	0	0
2363	0	0	0
2364	0	0	0
2365	0	0	0
2366	0	0	0
2367	0	0	0
2368	0	0	0
2369	0	0	0
2370	0	0	0
2371	0	0	0
2372	0	0	0
2373	0	0	0
2374	0	0	0
2375	0	0	0
2376	0	0	0
2377	0	0	0
2378	0	0	0
2379	0	0	0
2380	0	0	0
2381	0	0	0
2382	0	0	0
2383	0	0	0
2384	0	0	0
2385	0	0	0
2386	0	0	0
2387	0	0	0
2388	0	0	0
2389	0	0	0
2390	0	0	0
2391	246	222	236
2392	239	203	227
2393	240	195	226
2394	243	188	226
2395	248	178	226
2396	244	162	220
2397	251	165	226
2398	254	163	225
2399	255	159	223
2400	254	152	220
2401	248	140	214
2402	243	129	209
2403	241	124	211
2404	228	111	206
2405	238	139	225
2406	249	164	238
2407	242	162	233
2408	234	156	226
2409	239	167	231
2410	231	169	226
2411	233	187	230
2412	244	215	241
2413	228	204	229
2414	224	205	233
2415	0	0	0
2416	0	0	0
2417	0	0	0
2418	0	0	0
2419	0	0	0
2420	0	0	0
2421	0	0	0
2422	0	0	0
2423	0	0	0
2424	0	0	0
2425	0	0	0
2426	0	0	0
2427	0	0	0
2428	0	0	0
2429	0	0	0
2430	0	0	0
2431	0	0	0
2432	0	0	0
2433	0	0	0
2434	0	0	0
2435	0	0	0
2436	0	0	0
2437	0	0	0
2438	0	0	0
2439	0	0	0
2440	0	0	0
2441	0	0	0
2442	0	0	0
2443	0	0	0
2444	0	0	0
2445	0	0	0
2446	0	0	0
2447	0	0	0
2448	0	0	0
2449	0	0	0
2450	0	0	0
2451	0	0	0
2452	0	0	0
2453	0	0	0
2454	0	0	0
2455	0	0	0
2456	0	0	0
2457	0	0	0
2458	240	218	233
2459	246	214	237
2460	242	194	229
2461	246	184	228
2462	243	167	223
2463	255	174	232
2464	255	163	226
2465	254	158	224
2466	246	143	216
2467	235	129	207
2468	234	125	205
2469	237	122	208
2470	233	117	210
2471	249	148	230
2472	238	140	219
2473	230	136	213
2474	227	140	213
2475	225	148	214
2476	233	173	224
2477	233	190	227
2478	241	214	235
2479	228	204	223
2480	0	0	0
2481	0	0	0
2482	0	0	0
2483	0	0	0
2484	0	0	0
2485	0	0	0
2486	0	0	0
2487	0	0	0
2488	0	0	0
2489	0	0	0
2490	0	0	0
2491	0	0	0
2492	0	0	0
2493	0	0	0
2494	0	0	0
2495	0	0	0
2496	0	0	0
2497	0	0	0
2498	0	0	0
2499	0	0	0
2500	0	0	0
2501	0	0	0
2502	0	0	0
2503	0	0	0
2504	0	0	0
2505	0	0	0
2506	0	0	0
2507	0	0	0
2508	0	0	0
2509	0	0	0
2510	0	0	0
2511	0	0	0
2512	0	0	0
2513	0	0	0
2514	0	0	0
2515	0	0	0
2516	0	0	0
2517	0	0	0
2518	0	0	0
2519	0	0	0
2520	0	0	0
2521	0	0	0
2522	0	0	0
2523	0	0	0
2524	0	0	0
2525	239	214	232
2526	236	195	225
2527	240	184	226
2528	239	168	221
2529	246	165	224
2530	246	155	219
2531	244	147	217
2532	237	133	210
2533	235	131	210
2534	235	128	208
2535	242	131	213
2536	238	125	212
2537	238	128	215
2538	228	122	208
2539	232	132	213
2540	229	136	213
2541	240	164	226
2542	246	188	233
2543	243	201	232
2544	250	224	238
2545	0	0	0
2546	0	0	0
2547	0	0	0
2548	0	0	0
2549	0	0	0
2550	0	0	0
2551	0	0	0
2552	0	0	0
2553	0	0	0
2554	0	0	0
2555	0	0	0
2556	0	0	0
2557	0	0	0
2558	0	0	0
2559	0	0	0
2560	0	0	0
2561	0	0	0
2562	0	0	0
2563	0	0	0
2564	0	0	0
2565	0	0	0
2566	0	0	0
2567	0	0	0
2568	0	0	0
2569	0	0	0
2570	0	0	0
2571	0	0	0
2572	0	0	0
2573	0	0	0
2574	0	0	0
2575	0	0	0
2576	0	0	0
2577	0	0	0
2578	0	0	0
2579	0	0	0
2580	0	0	0
2581	0	0	0
2582	0	0	0
2583	0	0	0
2584	0	0	0
2585	0	0	0
2586	0	0	0
2587	0	0	0
2588	0	0	0
2589	0	0	0
2590	0	0	0
2591	0	0	0
2592	239	210	231
2593	247	201	234
2594	245	184	229
2595	250	180	231
2596	249	167	227
2597	249	160	227
2598	235	133	212
2599	239	134	216
2600	240	132	215
2601	242	133	216
2602	233	119	208
2603	233	122	211
2604	225	116	205
2605	229	127	211
2606	231	137	214
2607	244	166	227
2608	246	182	229
2609	244	195	227
2610	248	216	230
2611	0	0	0
2612	0	0	0
2613	0	0	0
2614	0	0	0
2615	0	0	0
2616	0	0	0
2617	0	0	0
2618	0	0	0
2619	0	0	0
2620	0	0	0
2621	0	0	0
2622	0	0	0
2623	0	0	0
2624	0	0	0
2625	0	0	0
2626	0	0	0
2627	0	0	0
2628	0	0	0
2629	0	0	0
2630	0	0	0
2631	0	0	0
2632	0	0	0
2633	0	0	0
2634	0	0	0
2635	0	0	0
2636	0	0	0
2637	0	0	0
2638	0	0	0
2639	0	0	0
2640	0	0	0
2641	0	0	0
2642	0	0	0
2643	0	0	0
2644	0	0	0
2645	0	0	0
2646	0	0	0
2647	0	0	0
2648	0	0	0
2649	0	0	0
2650	0	0	0
2651	0	0	0
2652	0	0	0
2653	0	0	0
2654	0	0	0
2655	0	0	0
2656	0	0	0
2657	0	0	0
2658	0	0	0
2659	243	209	232
2660	241	191	226
2661	244	182	227
2662	243	171	227
2663	235	150	219
2664	221	123	205
2665	232	130	214
2666	234	129	214
2667	230	121	210
2668	221	108	201
2669	224	113	205
2670	218	107	200
2671	230	128	212
2672	232	138	213
2673	244	162	224
2674	246	178	227
2675	246	195	228
2676	249	214	228
2677	0	0	0
2678	0	0	0
2679	0	0	0
2680	0	0	0
2681	0	0	0
2682	0	0	0
2683	0	0	0
2684	0	0	0
2685	0	0	0
2686	0	0	0
2687	0	0	0
2688	0	0	0
2689	0	0	0
2690	0	0	0
2691	0	0	0
2692	0	0	0
2693	0	0	0
2694	0	0	0
2695	0	0	0
2696	0	0	0
2697	0	0	0
2698	0	0	0
2699	0	0	0
2700	0	0	0
2701	0	0	0
2702	0	0	0
2703	0	0	0
2704	0	0	0
2705	0	0	0
2706	0	0	0
2707	0	0	0
2708	0	0	0
2709	0	0	0
2710	0	0	0
2711	0	0	0
2712	0	0	0
2713	0	0	0
2714	0	0	0
2715	0	0	0
2716	0	0	0
2717	0	0	0
2718	0	0	0
2719	0	0	0
2720	0	0	0
2721	0	0	0
2722	0	0	0
2723	0	0	0
2724	0	0	0
2725	0	0	0
2726	241	208	232
2727	248	201	235
2728	241	179	230
2729	231	158	222
2730	222	137	213
2731	235	145	224
2732	234	139	222
2733	229	131	217
2734	219	114	206
2735	225	120	211
2736	217	109	202
2737	231	131	215
2738	232	138	214
2739	245	163	225
2740	239	167	220
2741	237	182	219
2742	249	216	229
2743	0	0	0
2744	0	0	0
2745	0	0	0
2746	0	0	0
2747	0	0	0
2748	0	0	0
2749	0	0	0
2750	0	0	0
2751	0	0	0
2752	0	0	0
2753	0	0	0
2754	0	0	0
2755	0	0	0
2756	0	0	0
2757	0	0	0
2758	0	0	0
2759	0	0	0
2760	0	0	0
2761	0	0	0
2762	0	0	0
2763	0	0	0
2764	0	0	0
2765	0	0	0
2766	0	0	0
2767	0	0	0
2768	0	0	0
2769	0	0	0
2770	0	0	0
2771	0	0	0
2772	0	0	0
2773	0	0	0
2774	0	0	0
2775	0	0	0
2776	0	0	0
2777	0	0	0
2778	0	0	0
2779	0	0	0
2780	0	0	0
2781	0	0	0
2782	0	0	0
2783	0	0	0
2784	0	0	0
2785	0	0	0
2786	0	0	0
2787	0	0	0
2788	0	0	0
2789	0	0	0
2790	0	0	0
2791	0	0	0
2792	0	0	0
2793	240	204	232
2794	235	183	227
2795	234	170	227
2796	228	151	222
2797	236	153	229
2798	235	147	226
2799	227	133	218
2800	218	116	208
2801	221	117	210
2802	214	107	201
2803	229	127	214
2804	231	135	215
2805	239	153	221
2806	232	156	214
2807	245	190	226
2808	255	224	238
2809	0	0	0
2810	0	0	0
2811	0	0	0
2812	0	0	0
2813	0	0	0
2814	0	0	0
2815	0	0	0
2816	0	0	0
2817	0	0	0
2818	0	0	0
2819	0	0	0
2820	0	0	0
2821	0	0	0
2822	0	0	0
2823	0	0	0
2824	0	0	0
2825	0	0	0
2826	0	0	0
2827	0	0	0
2828	0	0	0
2829	0	0	0
2830	0	0	0
2831	0	0	0
2832	0	0	0
2833	0	0	0
2834	0	0	0
2835	0	0	0
2836	0	0	0
2837	0	0	0
2838	0	0	0
2839	0	0	0
2840	0	0	0
2841	0	0	0
2842	0	0	0
2843	0	0	0
2844	0	0	0
2845	0	0	0
2846	0	0	0
2847	0	0	0
2848	0	0	0
2849	0	0	0
2850	0	0	0
2851	0	0	0
2852	0	0	0
2853	0	0	0
2854	0	0	0
2855	0	0	0
2856	0	0	0
2857	0	0	0
2858	0	0	0
2859	0	0	0
2860	238	200	233
2861	250	194	240
2862	239	163	229
2863	244	163	235
2864	243	156	232
2865	238	144	225
2866	232	132	218
2867	235	133	220
2868	237	135	220
2869	253	157	234
2870	242	145	223
2871	246	161	228
2872	230	150	212
2873	248	187	227
2874	255	215	233
2875	0	0	0
2876	0	0	0
2877	0	0	0
2878	0	0	0
2879	0	0	0
2880	0	0	0
2881	0	0	0
2882	0	0	0
2883	0	0	0
2884	0	0	0
2885	0	0	0
2886	0	0	0
2887	0	0	0
2888	0	0	0
2889	0	0	0
2890	0	0	0
2891	0	0	0
2892	0	0	0
2893	0	0	0
2894	0	0	0
2895	0	0	0
2896	0	0	0
2897	0	0	0
2898	0	0	0
2899	0	0	0
2900	0	0	0
2901	0	0	0
2902	0	0	0
2903	0	0	0
2904	0	0	0
2905	0	0	0
2906	0	0	0
2907	0	0	0
2908	0	0	0
2909	0	0	0
2910	0	0	0
2911	0	0	0
2912	0	0	0
2913	0	0	0
2914	0	0	0
2915	0	0	0
2916	0	0	0
2917	0	0	0
2918	0	0	0
2919	0	0	0
2920	0	0	0
2921	0	0	0
2922	0	0	0
2923	0	0	0
2924	0	0	0
2925	0	0	0
2926	244	219	239
2927	246	196	235
2928	237	167	226
2929	246	169	235
2930	247	163	232
2931	248	158	231
2932	243	147	224
2933	253	158	233
2934	255	161	233
2935	255	162	234
2936	247	150	223
2937	240	152	221
2938	226	143	210
2939	248	182	228
2940	253	207	229
2941	0	0	0
2942	0	0	0
2943	0	0	0
2944	0	0	0
2945	0	0	0
2946	0	0	0
2947	0	0	0
2948	0	0	0
2949	0	0	0
2950	0	0	0
2951	0	0	0
2952	0	0	0
2953	0	0	0
2954	0	0	0
2955	0	0	0
2956	0	0	0
2957	0	0	0
2958	0	0	0
2959	0	0	0
2960	0	0	0
2961	0	0	0
2962	0	0	0
2963	0	0	0
2964	0	0	0
2965	0	0	0
2966	0	0	0
2967	0	0	0
2968	0	0	0
2969	0	0	0
2970	0	0	0
2971	0	0	0
2972	0	0	0
2973	0	0	0
2974	0	0	0
2975	0	0	0
2976	0	0	0
2977	0	0	0
2978	0	0	0
2979	0	0	0
2980	0	0	0
2981	0	0	0
2982	0	0	0
2983	0	0	0
2984	0	0	0
2985	0	0	0
2986	0	0	0
2987	0	0	0
2988	0	0	0
2989	0	0	0
2990	0	0	0
2991	0	0	0
2992	244	228	239
2993	241	202	232
2994	238	179	229
2995	253	185	242
2996	248	165	231
2997	252	162	231
2998	247	149	223
2999	255	159	231
3000	249	148	222
3001	253	151	225
3002	243	142	216
3003	235	143	215
3004	229	145	213
3005	253	185	233
3006	249	198	224
3007	0	0	0
3008	0	0	0
3009	0	0	0
3010	0	0	0
3011	0	0	0
3012	0	0	0
3013	0	0	0
3014	0	0	0
3015	0	0	0
3016	0	0	0
3017	0	0	0
3018	0	0	0
3019	0	0	0
3020	0	0	0
3021	0	0	0
3022	0	0	0
3023	0	0	0
3024	0	0	0
3025	0	0	0
3026	0	0	0
3027	0	0	0
3028	0	0	0
3029	0	0	0
3030	0	0	0
3031	0	0	0
3032	0	0	0
3033	0	0	0
3034	0	0	0
3035	0	0	0
3036	0	0	0
3037	0	0	0
3038	0	0	0
3039	0	0	0
3040	0	0	0
3041	0	0	0
3042	0	0	0
3043	0	0	0
3044	0	0	0
3045	0	0	0
3046	0	0	0
3047	0	0	0
3048	0	0	0
3049	0	0	0
3050	0	0	0
3051	0	0	0
3052	0	0	0
3053	0	0	0
3054	0	0	0
3055	0	0	0
3056	0	0	0
3057	0	0	0
3058	0	0	0
3059	239	213	234
3060	235	189	230
3061	242	180	234
3062	239	162	224
3063	247	161	227
3064	243	148	220
3065	243	144	219
3066	238	134	213
3067	244	139	217
3068	235	131	209
3069	235	142	214
3070	230	145	213
3071	249	176	228
3072	247	190	223
3073	0	0	0
3074	0	0	0
3075	0	0	0
3076	0	0	0
3077	0	0	0
3078	0	0	0
3079	0	0	0
3080	0	0	0
3081	0	0	0
3082	0	0	0
3083	0	0	0
3084	0	0	0
3085	0	0	0
3086	0	0	0
3087	0	0	0
3088	0	0	0
3089	0	0	0
3090	0	0	0
3091	0	0	0
3092	0	0	0
3093	0	0	0
3094	0	0	0
3095	0	0	0
3096	0	0	0
3097	0	0	0
3098	0	0	0
3099	0	0	0
3100	0	0	0
3101	0	0	0
3102	0	0	0
3103	0	0	0
3104	0	0	0
3105	0	0	0
3106	0	0	0
3107	0	0	0
3108	0	0	0
3109	0	0	0
3110	0	0	0
3111	0	0	0
3112	0	0	0
3113	0	0	0
3114	0	0	0
3115	0	0	0
3116	0	0	0
3117	0	0	0
3118	0	0	0
3119	0	0	0
3120	0	0	0
3121	0	0	0
3122	0	0	0
3123	0	0	0
3124	0	0	0
3125	0	0	0
3126	238	210	237
3127	243	200	240
3128	232	169	224
3129	245	170	232
3130	241	155	225
3131	244	153	225
3132	242	146	222
3133	246	150	225
3134	235	137	213
3135	242	152	222
3136	233	146	215
3137	249	175	230
3138	245	183	223
3139	0	0	0
3140	0	0	0
3141	0	0	0
3142	0	0	0
3143	0	0	0
3144	0	0	0
3145	0	0	0
3146	0	0	0
3147	0	0	0
3148	0	0	0
3149	0	0	0
3150	0	0	0
3151	0	0	0
3152	0	0	0
3153	0	0	0
3154	0	0	0
3155	0	0	0
3156	0	0	0
3157	0	0	0
3158	0	0	0
3159	0	0	0
3160	0	0	0
3161	0	0	0
3162	0	0	0
3163	0	0	0
3164	0	0	0
3165	0	0	0
3166	0	0	0
3167	0	0	0
3168	0	0	0
3169	0	0	0
3170	0	0	0
3171	0	0	0
3172	0	0	0
3173	0	0	0
3174	0	0	0
3175	0	0	0
3176	0	0	0
3177	0	0	0
3178	0	0	0
3179	0	0	0
3180	0	0	0
3181	0	0	0
3182	0	0	0
3183	0	0	0
3184	0	0	0
3185	0	0	0
3186	0	0	0
3187	0	0	0
3188	0	0	0
3189	0	0	0
3190	0	0	0
3191	0	0	0
3192	0	0	0
3193	232	202	232
3194	221	171	221
3195	233	169	229
3196	232	155	225
3197	239	157	229
3198	238	151	225
3199	236	148	221
3200	227	136	210
3201	233	145	215
3202	227	140	210
3203	242	164	224
3204	241	173	223
3205	0	0	0
3206	0	0	0
3207	0	0	0
3208	0	0	0
3209	0	0	0
3210	0	0	0
3211	0	0	0
3212	0	0	0
3213	0	0	0
3214	0	0	0
3215	0	0	0
3216	0	0	0
3217	0	0	0
3218	0	0	0
3219	0	0	0
3220	0	0	0
3221	0	0	0
3222	0	0	0
3223	0	0	0
3224	0	0	0
3225	0	0	0
3226	0	0	0
3227	0	0	0
3228	0	0	0
3229	0	0	0
3230	0	0	0
3231	0	0	0
3232	0	0	0
3233	0	0	0
3234	0	0	0
3235	0	0	0
3236	0	0	0
3237	0	0	0
3238	0	0	0
3239	0	0	0
3240	0	0	0
3241	0	0	0
3242	0	0	0
3243	0	0	0
3244	0	0	0
3245	0	0	0
3246	0	0	0
3247	0	0	0
3248	0	0	0
3249	0	0	0
3250	0	0	0
3251	0	0	0
3252	0	0	0
3253	0	0	0
3254	0	0	0
3255	0	0	0
3256	0	0	0
3257	0	0	0
3258	0	0	0
3259	0	0	0
3260	221	190	227
3261	233	189	237
3262	228	166	229
3263	238	170	236
3264	231	155	226
3265	227	150	221
3266	222	142	213
3267	231	153	220
3268	221	138	209
3269	241	166	227
3270	236	166	222
3271	0	0	0
3272	0	0	0
3273	0	0	0
3274	0	0	0
3275	0	0	0
3276	0	0	0
3277	0	0	0
3278	0	0	0
3279	0	0	0
3280	0	0	0
3281	0	0	0
3282	0	0	0
3283	0	0	0
3284	0	0	0
3285	0	0	0
3286	0	0	0
3287	0	0	0
3288	0	0	0
3289	0	0	0
3290	0	0	0
3291	0	0	0
3292	0	0	0
3293	0	0	0
3294	0	0	0
3295	0	0	0
3296	0	0	0
3297	0	0	0
3298	0	0	0
3299	0	0	0
3300	0	0	0
3301	0	0	0
3302	0	0	0
3303	0	0	0
3304	0	0	0
3305	0	0	0
3306	0	0	0
3307	0	0	0
3308	0	0	0
3309	0	0	0
3310	0	0	0
3311	0	0	0
3312	0	0	0
3313	0	0	0
3314	0	0	0
3315	0	0	0
3316	0	0	0
3317	0	0	0
3318	0	0	0
3319	0	0	0
3320	0	0	0
3321	0	0	0
3322	0	0	0
3323	0	0	0
3324	0	0	0
3325	0	0	0
3326	230	213	235
3327	229	196	233
3328	223	174	228
3329	230	171	233
3330	223	156	224
3331	225	156	224
3332	222	149	218
3333	224	148	218
3334	216	134	208
3335	235	155	222
3336	230	156	217
3337	0	0	0
3338	0	0	0
3339	0	0	0
3340	0	0	0
3341	0	0	0
3342	0	0	0
3343	0	0	0
3344	0	0	0
3345	0	0	0
3346	0	0	0
3347	0	0	0
3348	0	0	0
3349	0	0	0
3350	0	0	0
3351	0	0	0
3352	0	0	0
3353	0	0	0
3354	0	0	0
3355	0	0	0
3356	0	0	0
3357	0	0	0
3358	0	0	0
3359	0	0	0
3360	0	0	0
3361	0	0	0
3362	0	0	0
3363	0	0	0
3364	0	0	0
3365	0	0	0
3366	0	0	0
3367	0	0	0
3368	0	0	0
3369	0	0	0
3370	0	0	0
3371	0	0	0
3372	0	0	0
3373	0	0	0
3374	0	0	0
3375	0	0	0
3376	0	0	0
3377	0	0	0
3378	0	0	0
3379	0	0	0
3380	0	0	0
3381	0	0	0
3382	0	0	0
3383	0	0	0
3384	0	0	0
3385	0	0	0
3386	0	0	0
3387	0	0	0
3388	0	0	0
3389	0	0	0
3390	0	0	0
3391	0	0	0
3392	234	221	236
3393	228	201	230
3394	225	186	230
3395	230	182	235
3396	222	163	226
3397	231	168	232
3398	228	156	225
3399	231	155	225
3400	224	141	216
3401	242	163	230
3402	231	154	218
3403	0	0	0
3404	0	0	0
3405	0	0	0
3406	0	0	0
3407	0	0	0
3408	0	0	0
3409	0	0	0
3410	0	0	0
3411	0	0	0
3412	0	0	0
3413	0	0	0
3414	0	0	0
3415	0	0	0
3416	0	0	0
3417	0	0	0
3418	0	0	0
3419	0	0	0
3420	0	0	0
3421	0	0	0
3422	0	0	0
3423	0	0	0
3424	0	0	0
3425	0	0	0
3426	0	0	0
3427	0	0	0
3428	0	0	0
3429	0	0	0
3430	0	0	0
3431	0	0	0
3432	0	0	0
3433	0	0	0
3434	0	0	0
3435	0	0	0
3436	0	0	0
3437	0	0	0
3438	0	0	0
3439	0	0	0
3440	0	0	0
3441	0	0	0
3442	0	0	0
3443	0	0	0
3444	0	0	0
3445	0	0	0
3446	0	0	0
3447	0	0	0
3448	0	0	0
3449	0	0	0
3450	0	0	0
3451	0	0	0
3452	0	0	0
3453	0	0	0
3454	0	0	0
3455	0	0	0
3456	0	0	0
3457	0	0	0
3458	0	0	0
3459	230	212	232
3460	224	195	228
3461	223	183	228
3462	220	167	223
3463	231	168	231
3464	230	159	227
3465	232	156	228
3466	226	144	220
3467	241	158	229
3468	229	150	215
3469	0	0	0
3470	0	0	0
3471	0	0	0
3472	0	0	0
3473	0	0	0
3474	0	0	0
3475	0	0	0
3476	0	0	0
3477	0	0	0
3478	0	0	0
3479	0	0	0
3480	0	0	0
3481	0	0	0
3482	0	0	0
3483	0	0	0
3484	0	0	0
3485	0	0	0
3486	0	0	0
3487	0	0	0
3488	0	0	0
3489	0	0	0
3490	0	0	0
3491	0	0	0
3492	0	0	0
3493	0	0	0
3494	0	0	0
3495	0	0	0
3496	0	0	0
3497	0	0	0
3498	0	0	0
3499	0	0	0
3500	0	0	0
3501	0	0	0
3502	0	0	0
3503	0	0	0
3504	0	0	0
3505	0	0	0
3506	0	0	0
3507	0	0	0
3508	0	0	0
3509	0	0	0
3510	0	0	0
3511	0	0	0
3512	0	0	0
3513	0	0	0
3514	0	0	0
3515	0	0	0
3516	0	0	0
3517	0	0	0
3518	0	0	0
3519	0	0	0
3520	0	0	0
3521	0	0	0
3522	0	0	0
3523	0	0	0
3524	0	0	0
3525	0	0	0
3526	227	208	230
3527	229	198	231
3528	226	179	228
3529	240	182	239
3530	229	158	226
3531	230	155	227
3532	228	146	223
3533	244	162	233
3534	229	147	215
3535	0	0	0
3536	0	0	0
3537	0	0	0
3538	0	0	0
3539	0	0	0
3540	0	0	0
3541	0	0	0
3542	0	0	0
3543	0	0	0
3544	0	0	0
3545	0	0	0
3546	0	0	0
3547	0	0	0
3548	0	0	0
3549	0	0	0
3550	0	0	0
3551	0	0	0
3552	0	0	0
3553	0	0	0
3554	0	0	0
3555	0	0	0
3556	0	0	0
3557	0	0	0
3558	0	0	0
3559	0	0	0
3560	0	0	0
3561	0	0	0
3562	0	0	0
3563	0	0	0
3564	0	0	0
3565	0	0	0
3566	0	0	0
3567	0	0	0
3568	0	0	0
3569	0	0	0
3570	0	0	0
3571	0	0	0
3572	0	0	0
3573	0	0	0
3574	0	0	0
3575	0	0	0
3576	0	0	0
3577	0	0	0
3578	0	0	0
3579	0	0	0
3580	0	0	0
3581	0	0	0
3582	0	0	0
3583	0	0	0
3584	0	0	0
3585	0	0	0
3586	0	0	0
3587	0	0	0
3588	0	0	0
3589	0	0	0
3590	0	0	0
3591	0	0	0
3592	237	226	238
3593	227	203	229
3594	225	185	228
3595	230	174	230
3596	222	151	219
3597	229	153	225
3598	227	145	221
3599	238	154	228
3600	226	142	213
3601	243	176	228
3602	0	0	0
3603	0	0	0
3604	0	0	0
3605	0	0	0
3606	0	0	0
3607	0	0	0
3608	0	0	0
3609	0	0	0
3610	0	0	0
3611	0	0	0
3612	0	0	0
3613	0	0	0
3614	0	0	0
3615	0	0	0
3616	0	0	0
3617	0	0	0
3618	0	0	0
3619	0	0	0
3620	0	0	0
3621	0	0	0
3622	0	0	0
3623	0	0	0
3624	0	0	0
3625	0	0	0
3626	0	0	0
3627	0	0	0
3628	0	0	0
3629	0	0	0
3630	0	0	0
3631	0	0	0
3632	0	0	0
3633	0	0	0
3634	0	0	0
3635	0	0	0
3636	0	0	0
3637	0	0	0
3638	0	0	0
3639	0	0	0
3640	0	0	0
3641	0	0	0
3642	0	0	0
3643	0	0	0
3644	0	0	0
3645	0	0	0
3646	0	0	0
3647	0	0	0
3648	0	0	0
3649	0	0	0
3650	0	0	0
3651	0	0	0
3652	0	0	0
3653	0	0	0
3654	0	0	0
3655	0	0	0
3656	0	0	0
3657	0	0	0
3658	239	230	238
3659	223	204	226
3660	226	195	232
3661	233	186	236
3662	228	163	227
3663	241	169	236
3664	234	153	227
3665	242	161	232
3666	232	148	219
3667	255	186	238
3668	242	182	221
3669	0	0	0
3670	0	0	0
3671	0	0	0
3672	0	0	0
3673	0	0	0
3674	0	0	0
3675	0	0	0
3676	0	0	0
3677	0	0	0
3678	0	0	0
3679	0	0	0
3680	0	0	0
3681	0	0	0
3682	0	0	0
3683	0	0	0
3684	0	0	0
3685	0	0	0
3686	0	0	0
3687	0	0	0
3688	0	0	0
3689	0	0	0
3690	0	0	0
3691	0	0	0
3692	0	0	0
3693	0	0	0
3694	0	0	0
3695	0	0	0
3696	0	0	0
3697	0	0	0
3698	0	0	0
3699	0	0	0
3700	0	0	0
3701	0	0	0
3702	0	0	0
3703	0	0	0
3704	0	0	0
3705	0	0	0
3706	0	0	0
3707	0	0	0
3708	0	0	0
3709	0	0	0
3710	0	0	0
3711	0	0	0
3712	0	0	0
3713	0	0	0
3714	0	0	0
3715	0	0	0
3716	0	0	0
3717	0	0	0
3718	0	0	0
3719	0	0	0
3720	0	0	0
3721	0	0	0
3722	0	0	0
3723	0	0	0
3724	0	0	0
3725	231	217	235
3726	231	207	238
3727	230	190	235
3728	225	168	227
3729	235	167	233
3730	232	152	226
3731	242	159	231
3732	232	147	217
3733	242	164	223
3734	231	163	213
3735	0	0	0
3736	0	0	0
3737	0	0	0
3738	0	0	0
3739	0	0	0
3740	0	0	0
3741	0	0	0
3742	0	0	0
3743	0	0	0
3744	0	0	0
3745	0	0	0
3746	0	0	0
3747	0	0	0
3748	0	0	0
3749	0	0	0
3750	0	0	0
3751	0	0	0
3752	0	0	0
3753	0	0	0
3754	0	0	0
3755	0	0	0
3756	0	0	0
3757	0	0	0
3758	0	0	0
3759	0	0	0
3760	0	0	0
3761	0	0	0
3762	0	0	0
3763	0	0	0
3764	0	0	0
3765	0	0	0
3766	0	0	0
3767	0	0	0
3768	0	0	0
3769	0	0	0
3770	0	0	0
3771	0	0	0
3772	0	0	0
3773	0	0	0
3774	0	0	0
3775	0	0	0
3776	0	0	0
3777	0	0	0
3778	0	0	0
3779	0	0	0
3780	0	0	0
3781	0	0	0
3782	0	0	0
3783	0	0	0
3784	0	0	0
3785	0	0	0
3786	0	0	0
3787	0	0	0
3788	0	0	0
3789	0	0	0
3790	0	0	0
3791	0	0	0
3792	241	225	245
3793	233	203	238
3794	229	184	233
3795	240	184	241
3796	235	162	231
3797	253	174	242
3798	235	148	218
3799	240	163	223
3800	234	167	219
3801	0	0	0
3802	0	0	0
3803	0	0	0
3804	0	0	0
3805	0	0	0
3806	0	0	0
3807	0	0	0
3808	0	0	0
3809	0	0	0
3810	0	0	0
3811	0	0	0
3812	0	0	0
3813	0	0	0
3814	0	0	0
3815	0	0	0
3816	0	0	0
3817	0	0	0
3818	0	0	0
3819	0	0	0
3820	0	0	0
3821	0	0	0
3822	0	0	0
3823	0	0	0
3824	0	0	0
3825	0	0	0
3826	0	0	0
3827	0	0	0
3828	0	0	0
3829	0	0	0
3830	0	0	0
3831	0	0	0
3832	0	0	0
3833	0	0	0
3834	0	0	0
3835	0	0	0
3836	0	0	0
3837	0	0	0
3838	0	0	0
3839	0	0	0
3840	0	0	0
3841	0	0	0
3842	0	0	0
3843	0	0	0
3844	0	0	0
3845	0	0	0
3846	0	0	0
3847	0	0	0
3848	0	0	0
3849	0	0	0
3850	0	0	0
3851	0	0	0
3852	0	0	0
3853	0	0	0
3854	0	0	0
3855	0	0	0
3856	0	0	0
3857	0	0	0
3858	0	0	0
3859	235	216	238
3860	229	197	234
3861	231	183	234
3862	227	162	226
3863	239	162	230
3864	225	138	211
3865	239	162	224
3866	235	166	219
3867	0	0	0
3868	0	0	0
3869	0	0	0
3870	0	0	0
3871	0	0	0
3872	0	0	0
3873	0	0	0
3874	0	0	0
3875	0	0	0
3876	0	0	0
3877	0	0	0
3878	0	0	0
3879	0	0	0
3880	0	0	0
3881	0	0	0
3882	0	0	0
3883	0	0	0
3884	0	0	0
3885	0	0	0
3886	0	0	0
3887	0	0	0
3888	0	0	0
3889	0	0	0
3890	0	0	0
3891	0	0	0
3892	0	0	0
3893	0	0	0
3894	0	0	0
3895	0	0	0
3896	0	0	0
3897	0	0	0
3898	0	0	0
3899	0	0	0
3900	0	0	0
3901	0	0	0
3902	0	0	0
3903	0	0	0
3904	0	0	0
3905	0	0	0
3906	0	0	0
3907	0	0	0
3908	0	0	0
3909	0	0	0
3910	0	0	0
3911	0	0	0
3912	0	0	0
3913	0	0	0
3914	0	0	0
3915	0	0	0
3916	0	0	0
3917	0	0	0
3918	0	0	0
3919	0	0	0
3920	0	0	0
3921	0	0	0
3922	0	0	0
3923	0	0	0
3924	0	0	0
3925	0	0	0
3926	233	214	237
3927	234	200	237
3928	228	176	229
3929	241	177	235
3930	232	155	222
3931	255	184	241
3932	234	161	219
3933	0	0	0
3934	0	0	0
3935	0	0	0
3936	0	0	0
3937	0	0	0
3938	0	0	0
3939	0	0	0
3940	0	0	0
3941	0	0	0
3942	0	0	0
3943	0	0	0
3944	0	0	0
3945	0	0	0
3946	0	0	0
3947	0	0	0
3948	0	0	0
3949	0	0	0
3950	0	0	0
3951	0	0	0
3952	0	0	0
3953	0	0	0
3954	0	0	0
3955	0	0	0
3956	0	0	0
3957	0	0	0
3958	0	0	0
3959	0	0	0
3960	0	0	0
3961	0	0	0
3962	0	0	0
3963	0	0	0
3964	0	0	0
3965	0	0	0
3966	0	0	0
3967	0	0	0
3968	0	0	0
3969	0	0	0
3970	0	0	0
3971	0	0	0
3972	0	0	0
3973	0	0	0
3974	0	0	0
3975	0	0	0
3976	0	0	0
3977	0	0	0
3978	0	0	0
3979	0	0	0
3980	0	0	0
3981	0	0	0
3982	0	0	0
3983	0	0	0
3984	0	0	0
3985	0	0	0
3986	0	0	0
3987	0	0	0
3988	0	0	0
3989	0	0	0
3990	0	0	0
3991	0	0	0
3992	0	0	0
3993	233	210	233
3994	228	188	228
3995	240	185	236
3996	0	0	0
3997	242	169	231
3998	0	0	0
3999	0	0	0
4000	0	0	0
4001	0	0	0
4002	0	0	0
4003	0	0	0
4004	0	0	0
4005	0	0	0
4006	0	0	0
4007	0	0	0
4008	0	0	0
4009	0	0	0
4010	0	0	0
4011	0	0	0
4012	0	0	0
4013	0	0	0
4014	0	0	0
4015	0	0	0
4016	0	0	0
4017	0	0	0
4018	0	0	0
4019	0	0	0
4020	0	0	0
4021	0	0	0
4022	0	0	0
4023	0	0	0
4024	0	0	0
4025	0	0	0
4026	0	0	0
4027	0	0	0
4028	0	0	0
4029	0	0	0
4030	0	0	0
4031	0	0	0
4032	0	0	0
4033	0	0	0
4034	0	0	0
4035	0	0	0
4036	0	0	0
4037	0	0	0
4038	0	0	0
4039	0	0	0
4040	0	0	0
4041	0	0	0
4042	0	0	0
4043	0	0	0
4044	0	0	0
4045	0	0	0
4046	0	0	0
4047	0	0	0
4048	0	0	0
4049	0	0	0
4050	0	0	0
4051	0	0	0
4052	0	0	0
4053	0	0	0
4054	0	0	0
4055	0	0	0
4056	0	0	0
4057	0	0	0
4058	0	0	0
4059	0	0	0
4060	235	205	234
4061	0	0	0
4062	0	0	0
4063	0	0	0
4064	0	0	0
4065	0	0	0
4066	0	0	0
4067	0	0	0
4068	0	0	0
4069	0	0	0
4070	0	0	0
4071	0	0	0
4072	0	0	0
4073	0	0	0
4074	0	0	0
4075	0	0	0
4076	0	0	0
4077	0	0	0
4078	0	0	0
4079	0	0	0
4080	0	0	0
4081	0	0	0
4082	0	0	0
4083	0	0	0
4084	0	0	0
4085	0	0	0
4086	0	0	0
4087	0	0	0
4088	0	0	0
4089	0	0	0
4090	0	0	0
4091	0	0	0
4092	0	0	0
