 	R	G	B
1	0	0	0
2	0	0	0
3	0	0	0
4	0	0	0
5	0	0	0
6	0	0	0
7	0	0	0
8	0	0	0
9	0	0	0
10	0	0	0
11	0	0	0
12	0	0	0
13	0	0	0
14	0	0	0
15	0	0	0
16	0	0	0
17	0	0	0
18	0	0	0
19	0	0	0
20	0	0	0
21	255	232	220
22	255	234	221
23	255	232	220
24	255	229	220
25	0	0	0
26	0	0	0
27	0	0	0
28	0	0	0
29	0	0	0
30	0	0	0
31	0	0	0
32	0	0	0
33	0	0	0
34	0	0	0
35	0	0	0
36	0	0	0
37	0	0	0
38	0	0	0
39	0	0	0
40	0	0	0
41	0	0	0
42	0	0	0
43	0	0	0
44	0	0	0
45	0	0	0
46	0	0	0
47	0	0	0
48	0	0	0
49	0	0	0
50	0	0	0
51	0	0	0
52	0	0	0
53	0	0	0
54	0	0	0
55	252	225	215
56	255	228	218
57	255	225	217
58	255	223	217
59	253	219	216
60	251	214	214
61	0	0	0
62	0	0	0
63	0	0	0
64	0	0	0
65	0	0	0
66	0	0	0
67	0	0	0
68	0	0	0
69	0	0	0
70	0	0	0
71	0	0	0
72	0	0	0
73	0	0	0
74	0	0	0
75	0	0	0
76	0	0	0
77	0	0	0
78	0	0	0
79	0	0	0
80	0	0	0
81	0	0	0
82	0	0	0
83	0	0	0
84	0	0	0
85	0	0	0
86	0	0	0
87	0	0	0
88	0	0	0
89	0	0	0
90	253	221	214
91	254	219	214
92	253	216	212
93	250	211	210
94	248	207	211
95	249	208	213
96	248	208	213
97	0	0	0
98	0	0	0
99	0	0	0
100	0	0	0
101	0	0	0
102	0	0	0
103	0	0	0
104	0	0	0
105	0	0	0
106	0	0	0
107	0	0	0
108	0	0	0
109	0	0	0
110	0	0	0
111	0	0	0
112	0	0	0
113	0	0	0
114	0	0	0
115	0	0	0
116	0	0	0
117	0	0	0
118	0	0	0
119	0	0	0
120	0	0	0
121	0	0	0
122	0	0	0
123	0	0	0
124	0	0	0
125	255	219	214
126	255	216	213
127	252	211	210
128	247	206	208
129	252	212	216
130	254	214	219
131	254	217	218
132	0	0	0
133	0	0	0
134	0	0	0
135	0	0	0
136	0	0	0
137	0	0	0
138	0	0	0
139	0	0	0
140	0	0	0
141	0	0	0
142	0	0	0
143	0	0	0
144	0	0	0
145	0	0	0
146	0	0	0
147	0	0	0
148	0	0	0
149	0	0	0
150	0	0	0
151	0	0	0
152	0	0	0
153	0	0	0
154	0	0	0
155	255	228	215
156	255	233	223
157	255	228	220
158	255	220	214
159	255	219	213
160	255	217	214
161	255	212	212
162	252	207	209
163	254	213	214
164	255	219	222
165	255	223	225
166	255	225	223
167	254	220	218
168	0	0	0
169	0	0	0
170	0	0	0
171	0	0	0
172	0	0	0
173	0	0	0
174	0	0	0
175	0	0	0
176	0	0	0
177	0	0	0
178	0	0	0
179	0	0	0
180	0	0	0
181	0	0	0
182	0	0	0
183	0	0	0
184	0	0	0
185	0	0	0
186	0	0	0
187	0	0	0
188	0	0	0
189	252	217	207
190	255	222	212
191	255	220	215
192	255	214	213
193	251	204	206
194	251	203	206
195	255	209	210
196	252	204	208
197	252	205	210
198	255	210	215
199	255	211	217
200	255	214	218
201	255	215	215
202	249	210	211
203	0	0	0
204	0	0	0
205	0	0	0
206	0	0	0
207	0	0	0
208	0	0	0
209	0	0	0
210	0	0	0
211	0	0	0
212	0	0	0
213	0	0	0
214	0	0	0
215	0	0	0
216	0	0	0
217	0	0	0
218	0	0	0
219	0	0	0
220	0	0	0
221	255	228	219
222	255	228	219
223	255	222	215
224	254	214	209
225	255	212	210
226	255	209	212
227	252	201	209
228	247	192	205
229	251	198	209
230	255	203	211
231	254	203	211
232	254	203	213
233	254	204	214
234	253	204	213
235	255	208	214
236	253	209	212
237	253	214	214
238	0	0	0
239	0	0	0
240	0	0	0
241	0	0	0
242	0	0	0
243	0	0	0
244	0	0	0
245	0	0	0
246	0	0	0
247	0	0	0
248	0	0	0
249	0	0	0
250	0	0	0
251	0	0	0
252	0	0	0
253	0	0	0
254	0	0	0
255	255	226	219
256	255	226	221
257	255	218	216
258	255	212	213
259	251	203	207
260	252	201	207
261	254	201	209
262	250	193	207
263	249	191	208
264	254	196	212
265	255	200	212
266	254	199	210
267	255	201	213
268	254	201	214
269	254	203	214
270	255	206	215
271	249	202	209
272	248	207	210
273	0	0	0
274	0	0	0
275	0	0	0
276	0	0	0
277	0	0	0
278	0	0	0
279	0	0	0
280	0	0	0
281	0	0	0
282	0	0	0
283	0	0	0
284	0	0	0
285	0	0	0
286	0	0	0
287	0	0	0
288	0	0	0
289	0	0	0
290	255	220	217
291	254	214	215
292	252	207	211
293	250	200	209
294	247	191	204
295	248	190	204
296	248	188	203
297	249	187	204
298	249	186	206
299	253	192	211
300	255	195	209
301	255	197	210
302	255	199	213
303	255	201	216
304	255	202	216
305	254	201	214
306	248	197	210
307	251	207	215
308	255	221	222
309	0	0	0
310	0	0	0
311	0	0	0
312	0	0	0
313	0	0	0
314	0	0	0
315	0	0	0
316	0	0	0
317	0	0	0
318	0	0	0
319	0	0	0
320	0	0	0
321	0	0	0
322	0	0	0
323	0	0	0
324	0	0	0
325	255	219	216
326	255	212	215
327	253	202	210
328	252	196	208
329	254	196	210
330	255	195	209
331	255	194	208
332	255	192	208
333	254	189	210
334	255	196	215
335	254	191	209
336	254	191	209
337	254	192	211
338	255	195	214
339	251	191	211
340	248	189	209
341	254	201	216
342	255	213	221
343	252	214	219
344	0	0	0
345	0	0	0
346	0	0	0
347	0	0	0
348	0	0	0
349	0	0	0
350	0	0	0
351	0	0	0
352	0	0	0
353	0	0	0
354	0	0	0
355	0	0	0
356	0	0	0
357	0	0	0
358	0	0	0
359	0	0	0
360	255	218	217
361	255	207	211
362	252	197	205
363	255	199	210
364	255	200	213
365	255	202	216
366	255	200	214
367	255	198	214
368	255	195	214
369	255	192	214
370	255	187	211
371	254	186	211
372	253	186	212
373	251	184	211
374	247	180	209
375	255	195	216
376	255	206	219
377	255	208	217
378	0	0	0
379	0	0	0
380	0	0	0
381	0	0	0
382	0	0	0
383	0	0	0
384	0	0	0
385	0	0	0
386	0	0	0
387	0	0	0
388	0	0	0
389	0	0	0
390	0	0	0
391	0	0	0
392	0	0	0
393	0	0	0
394	0	0	0
395	255	212	216
396	255	201	209
397	253	193	205
398	255	195	210
399	254	186	206
400	255	188	209
401	255	184	207
402	255	181	207
403	252	178	206
404	250	174	205
405	255	184	213
406	255	183	214
407	254	184	214
408	251	181	212
409	252	185	213
410	255	198	220
411	254	196	215
412	252	198	213
413	255	208	218
414	0	0	0
415	0	0	0
416	0	0	0
417	0	0	0
418	0	0	0
419	0	0	0
420	0	0	0
421	0	0	0
422	0	0	0
423	0	0	0
424	0	0	0
425	255	232	220
426	255	217	213
427	255	211	213
428	251	199	210
429	255	204	215
430	255	210	220
431	255	199	214
432	255	191	211
433	255	185	209
434	251	176	203
435	254	176	206
436	253	173	207
437	253	171	208
438	249	166	205
439	252	173	209
440	255	181	215
441	252	178	212
442	250	177	212
443	249	180	212
444	248	182	209
445	247	182	207
446	244	182	208
447	249	193	214
448	252	202	216
449	253	209	218
450	0	0	0
451	0	0	0
452	0	0	0
453	0	0	0
454	0	0	0
455	0	0	0
456	0	0	0
457	0	0	0
458	0	0	0
459	255	235	219
460	255	224	217
461	246	197	203
462	247	191	204
463	247	187	206
464	252	191	212
465	255	201	220
466	255	190	213
467	254	183	209
468	254	177	207
469	252	170	204
470	255	171	209
471	248	157	203
472	247	155	205
473	249	160	207
474	251	165	210
475	255	182	219
476	252	177	214
477	246	175	212
478	243	176	209
479	250	190	214
480	250	192	214
481	249	191	216
482	254	202	222
483	255	207	223
484	255	213	223
485	247	206	214
486	0	0	0
487	0	0	0
488	0	0	0
489	0	0	0
490	0	0	0
491	0	0	0
492	0	0	0
493	255	231	216
494	255	227	219
495	249	202	208
496	236	176	197
497	241	177	203
498	240	172	202
499	246	179	208
500	255	189	216
501	249	177	207
502	246	169	200
503	249	165	200
504	249	160	200
505	248	153	202
506	240	139	198
507	248	150	208
508	249	154	209
509	254	167	215
510	255	183	224
511	252	177	217
512	245	174	213
513	248	186	218
514	255	201	224
515	255	200	222
516	253	198	220
517	254	204	224
518	255	211	228
519	252	206	222
520	0	0	0
521	0	0	0
522	0	0	0
523	0	0	0
524	0	0	0
525	0	0	0
526	0	0	0
527	0	0	0
528	255	228	220
529	255	215	215
530	245	190	204
531	244	182	207
532	249	183	213
533	251	184	214
534	255	190	218
535	255	197	223
536	255	186	216
537	255	180	212
538	255	178	213
539	249	154	202
540	249	148	205
541	242	135	203
542	249	146	213
543	249	151	211
544	252	162	216
545	255	177	224
546	249	171	216
547	250	179	218
548	253	191	223
549	255	199	226
550	255	199	223
551	252	195	219
552	252	200	221
553	254	208	226
554	0	0	0
555	0	0	0
556	0	0	0
557	0	0	0
558	0	0	0
559	0	0	0
560	0	0	0
561	0	0	0
562	0	0	0
563	250	213	213
564	248	199	207
565	248	192	208
566	247	183	210
567	253	189	217
568	254	190	215
569	255	193	216
570	255	200	223
571	255	191	219
572	255	188	221
573	252	165	211
574	239	140	200
575	237	134	202
576	230	121	199
577	239	135	210
578	239	139	207
579	246	155	214
580	252	169	222
581	251	175	221
582	251	182	221
583	250	187	220
584	254	195	224
585	254	194	222
586	249	191	218
587	246	195	217
588	247	202	218
589	0	0	0
590	0	0	0
591	0	0	0
592	0	0	0
593	0	0	0
594	0	0	0
595	0	0	0
596	0	0	0
597	0	0	0
598	249	207	214
599	253	203	213
600	254	196	214
601	244	179	208
602	246	183	212
603	254	194	215
604	255	198	217
605	255	197	219
606	255	189	217
607	255	184	219
608	249	161	210
609	237	142	204
610	231	133	205
611	235	140	213
612	246	154	224
613	243	152	217
614	254	169	225
615	253	172	224
616	251	177	222
617	255	189	224
618	255	195	224
619	254	197	224
620	250	194	221
621	246	192	218
622	243	197	217
623	0	0	0
624	0	0	0
625	0	0	0
626	0	0	0
627	0	0	0
628	0	0	0
629	0	0	0
630	0	0	0
631	0	0	0
632	0	0	0
633	254	211	220
634	255	207	220
635	254	195	217
636	244	178	209
637	254	193	220
638	255	204	223
639	255	198	218
640	255	197	219
641	255	187	215
642	255	181	216
643	253	165	212
644	241	147	210
645	245	156	221
646	245	159	225
647	243	160	223
648	240	158	219
649	247	166	222
650	248	170	221
651	254	183	225
652	255	196	227
653	254	194	221
654	252	196	220
655	247	194	217
656	243	193	216
657	246	202	221
658	250	212	224
659	0	0	0
660	0	0	0
661	0	0	0
662	0	0	0
663	0	0	0
664	0	0	0
665	0	0	0
666	0	0	0
667	253	217	221
668	255	215	224
669	255	202	219
670	252	190	216
671	246	177	212
672	255	194	224
673	255	191	218
674	255	185	211
675	255	190	216
676	255	180	212
677	255	169	209
678	248	153	205
679	242	145	209
680	246	153	220
681	241	154	219
682	231	150	213
683	237	164	220
684	245	173	223
685	251	180	225
686	255	196	232
687	253	187	220
688	246	184	213
689	250	196	218
690	245	194	215
691	246	199	218
692	253	211	226
693	252	212	224
694	248	209	221
695	0	0	0
696	0	0	0
697	0	0	0
698	0	0	0
699	0	0	0
700	0	0	0
701	253	226	223
702	255	222	222
703	255	210	218
704	252	196	215
705	252	189	216
706	246	176	213
707	252	180	217
708	251	178	213
709	254	180	213
710	255	185	218
711	255	174	213
712	255	162	211
713	255	158	215
714	249	148	214
715	253	157	223
716	248	158	223
717	244	167	225
718	249	180	230
719	254	186	230
720	255	192	229
721	254	185	222
722	246	178	214
723	246	187	217
724	250	198	220
725	248	201	219
726	251	207	223
727	255	211	225
728	253	211	222
729	252	215	223
730	255	223	229
731	0	0	0
732	0	0	0
733	0	0	0
734	0	0	0
735	0	0	0
736	0	0	0
737	255	216	218
738	252	202	213
739	250	192	213
740	250	185	215
741	251	181	217
742	255	185	222
743	255	183	221
744	255	186	223
745	255	179	219
746	255	168	215
747	247	146	206
748	247	141	209
749	250	144	214
750	254	152	222
751	245	147	218
752	245	157	221
753	255	180	231
754	255	184	228
755	253	181	221
756	244	172	212
757	251	187	221
758	251	197	224
759	247	196	220
760	249	201	220
761	255	211	226
762	255	214	227
763	250	204	218
764	248	208	219
765	253	218	226
766	252	214	224
767	0	0	0
768	0	0	0
769	0	0	0
770	0	0	0
771	0	0	0
772	249	206	212
773	249	197	210
774	248	187	212
775	252	188	218
776	252	183	217
777	254	183	219
778	255	183	221
779	254	173	216
780	252	165	212
781	240	144	201
782	228	122	193
783	237	131	206
784	240	134	211
785	241	136	214
786	234	130	209
787	245	154	220
788	255	177	227
789	251	172	218
790	246	170	214
791	252	183	221
792	255	197	225
793	245	192	218
794	243	193	218
795	251	203	223
796	255	212	226
797	252	205	220
798	243	196	214
799	243	202	218
800	248	211	223
801	247	209	220
802	239	203	212
803	0	0	0
804	0	0	0
805	0	0	0
806	0	0	0
807	253	212	217
808	253	203	216
809	250	190	215
810	254	190	220
811	252	184	218
812	254	183	219
813	255	187	225
814	255	179	222
815	251	166	215
816	233	142	203
817	228	134	204
818	236	143	216
819	236	142	217
820	241	145	220
821	245	153	223
822	255	177	234
823	253	175	225
824	248	171	217
825	252	179	221
826	255	193	227
827	254	195	223
828	242	190	215
829	249	204	225
830	255	215	231
831	253	208	222
832	245	200	215
833	246	204	219
834	247	211	224
835	248	215	226
836	244	211	221
837	0	0	0
838	0	0	0
839	0	0	0
840	0	0	0
841	0	0	0
842	255	216	222
843	253	204	218
844	248	189	213
845	249	186	217
846	249	181	218
847	254	184	223
848	255	188	226
849	255	175	220
850	247	162	215
851	238	153	214
852	232	146	215
853	237	152	224
854	238	151	223
855	253	167	234
856	255	174	235
857	254	174	230
858	252	174	225
859	255	182	226
860	255	189	226
861	255	192	223
862	252	195	222
863	250	202	223
864	255	215	230
865	250	208	223
866	245	202	216
867	250	208	219
868	251	212	223
869	248	214	224
870	249	219	227
871	253	224	230
872	0	0	0
873	0	0	0
874	0	0	0
875	0	0	0
876	0	0	0
877	254	218	224
878	253	206	220
879	248	192	214
880	248	188	217
881	255	195	227
882	255	198	232
883	255	186	224
884	252	172	217
885	248	166	218
886	239	158	218
887	235	154	221
888	242	160	230
889	231	141	218
890	246	157	228
891	254	168	230
892	252	169	226
893	255	177	227
894	255	185	229
895	252	181	219
896	247	183	215
897	252	198	222
898	253	207	225
899	251	210	225
900	240	200	215
901	244	205	218
902	255	215	225
903	249	209	220
904	244	209	219
905	251	221	228
906	0	0	0
907	0	0	0
908	0	0	0
909	0	0	0
910	0	0	0
911	0	0	0
912	255	221	227
913	255	210	223
914	249	195	217
915	254	200	223
916	255	205	230
917	255	192	223
918	251	181	218
919	253	177	220
920	249	171	220
921	243	165	221
922	240	160	225
923	234	150	223
924	223	131	213
925	240	151	226
926	248	162	228
927	254	170	228
928	255	177	227
929	252	176	221
930	244	173	213
931	250	188	218
932	255	203	223
933	250	203	220
934	249	207	222
935	243	206	220
936	247	211	224
937	249	210	223
938	243	202	215
939	244	212	220
940	251	224	228
941	248	218	223
942	241	210	216
943	0	0	0
944	0	0	0
945	0	0	0
946	0	0	0
947	255	221	227
948	252	206	220
949	247	196	218
950	252	201	224
951	255	207	228
952	253	193	221
953	252	185	220
954	254	181	223
955	250	173	221
956	248	169	223
957	248	168	229
958	240	157	227
959	233	146	222
960	245	164	234
961	251	172	234
962	255	182	236
963	252	174	223
964	244	171	216
965	246	179	218
966	255	197	226
967	253	199	221
968	248	199	217
969	249	206	221
970	246	206	220
971	251	217	227
972	246	211	222
973	241	206	217
974	246	218	224
975	245	220	225
976	237	210	217
977	240	217	220
978	247	226	226
979	0	0	0
980	0	0	0
981	0	0	0
982	0	0	0
983	246	205	218
984	242	195	218
985	248	201	224
986	254	206	226
987	249	194	220
988	249	187	222
989	252	183	224
990	249	174	219
991	252	175	225
992	252	174	230
993	244	166	229
994	235	155	224
995	245	169	233
996	252	178	235
997	253	176	230
998	246	169	219
999	246	178	221
1000	249	187	226
1001	251	192	225
1002	250	195	220
1003	251	200	219
1004	252	207	221
1005	254	215	225
1006	255	223	229
1007	248	216	222
1008	243	212	221
1009	244	216	224
1010	244	218	225
1011	246	224	228
1012	250	231	232
1013	251	231	231
1014	248	227	227
1015	0	0	0
1016	0	0	0
1017	0	0	0
1018	0	0	0
1019	0	0	0
1020	0	0	0
1021	249	208	226
1022	243	195	219
1023	247	193	225
1024	252	190	228
1025	251	181	223
1026	255	183	230
1027	246	167	223
1028	232	157	217
1029	233	161	223
1030	248	178	236
1031	247	175	230
1032	248	173	226
1033	246	173	222
1034	249	184	226
1035	251	190	228
1036	252	195	227
1037	251	196	222
1038	255	203	224
1039	255	207	223
1040	255	214	226
1041	248	207	219
1042	238	199	212
1043	249	218	226
1044	250	222	228
1045	246	217	225
1046	253	226	231
1047	253	226	230
1048	252	225	228
1049	247	222	223
1050	0	0	0
1051	0	0	0
1052	0	0	0
1053	0	0	0
1054	0	0	0
1055	245	214	228
1056	243	208	225
1057	243	202	224
1058	247	200	228
1059	251	194	229
1060	251	186	227
1061	252	179	227
1062	240	162	218
1063	236	166	222
1064	239	171	229
1065	245	175	232
1066	244	173	227
1067	248	177	228
1068	246	177	225
1069	246	184	225
1070	248	190	225
1071	248	192	223
1072	248	194	221
1073	250	198	221
1074	251	202	221
1075	244	196	216
1076	237	191	213
1077	245	207	223
1078	255	225	231
1079	250	219	224
1080	245	214	219
1081	245	215	219
1082	246	216	221
1083	248	218	222
1084	244	215	219
1085	0	0	0
1086	0	0	0
1087	0	0	0
1088	0	0	0
1089	0	0	0
1090	0	0	0
1091	247	221	231
1092	252	218	233
1093	251	207	230
1094	252	200	230
1095	252	191	229
1096	251	183	228
1097	242	168	221
1098	244	176	228
1099	249	182	234
1100	252	184	236
1101	244	173	226
1102	245	176	226
1103	244	179	225
1104	243	185	225
1105	245	192	224
1106	249	196	225
1107	246	193	221
1108	243	195	219
1109	247	205	223
1110	242	200	219
1111	246	207	225
1112	255	226	237
1113	255	222	229
1114	251	217	222
1115	250	218	221
1116	243	215	218
1117	248	224	224
1118	254	228	228
1119	252	222	225
1120	255	235	234
1121	0	0	0
1122	0	0	0
1123	0	0	0
1124	0	0	0
1125	0	0	0
1126	252	235	238
1127	252	223	232
1128	250	212	226
1129	251	203	225
1130	250	194	225
1131	248	186	226
1132	241	173	221
1133	248	183	230
1134	252	188	233
1135	248	180	228
1136	240	170	223
1137	246	180	229
1138	246	183	228
1139	246	190	228
1140	248	197	228
1141	247	195	225
1142	243	192	221
1143	244	201	224
1144	247	210	227
1145	246	212	226
1146	250	219	230
1147	251	217	227
1148	249	214	221
1149	252	218	222
1150	251	221	223
1151	246	223	222
1152	250	230	227
1153	250	226	225
1154	252	222	223
1155	254	216	223
1156	0	0	0
1157	0	0	0
1158	0	0	0
1159	0	0	0
1160	0	0	0
1161	250	236	236
1162	248	224	229
1163	245	211	221
1164	247	203	221
1165	247	196	223
1166	243	187	222
1167	239	179	222
1168	250	190	233
1169	248	187	229
1170	242	178	224
1171	243	177	226
1172	253	190	236
1173	247	184	228
1174	249	191	230
1175	245	191	226
1176	241	188	221
1177	245	198	226
1178	249	207	230
1179	243	205	225
1180	239	206	221
1181	248	220	228
1182	249	219	226
1183	246	214	221
1184	247	217	222
1185	246	220	222
1186	244	224	223
1187	248	230	227
1188	246	225	223
1189	255	227	229
1190	0	0	0
1191	0	0	0
1192	0	0	0
1193	0	0	0
1194	0	0	0
1195	245	237	231
1196	252	242	238
1197	245	225	228
1198	243	213	222
1199	248	209	224
1200	248	201	225
1201	245	195	226
1202	242	188	226
1203	249	191	233
1204	248	188	231
1205	246	186	230
1206	245	185	229
1207	246	184	229
1208	241	178	223
1209	238	180	222
1210	235	180	219
1211	240	191	224
1212	245	201	230
1213	244	202	228
1214	240	201	224
1215	245	213	228
1216	252	225	232
1217	249	220	226
1218	246	216	225
1219	248	221	228
1220	247	223	227
1221	246	226	226
1222	250	232	231
1223	249	227	228
1224	255	231	233
1225	0	0	0
1226	0	0	0
1227	0	0	0
1228	0	0	0
1229	0	0	0
1230	0	0	0
1231	254	245	239
1232	244	227	228
1233	244	219	225
1234	250	215	227
1235	246	202	223
1236	244	196	224
1237	244	193	227
1238	252	197	235
1239	247	188	229
1240	245	186	228
1241	246	188	229
1242	243	185	227
1243	242	188	227
1244	236	188	225
1245	236	192	226
1246	246	205	234
1247	246	205	232
1248	244	206	230
1249	247	211	231
1250	255	225	238
1251	255	223	231
1252	247	215	224
1253	251	222	230
1254	254	227	234
1255	250	224	229
1256	0	0	0
1257	255	235	235
1258	255	231	233
1259	255	229	236
1260	0	0	0
1261	0	0	0
1262	0	0	0
1263	0	0	0
1264	0	0	0
1265	0	0	0
1266	0	0	0
1267	246	233	230
1268	245	225	227
1269	249	216	226
1270	244	203	220
1271	243	199	222
1272	243	195	225
1273	245	192	227
1274	240	183	223
1275	241	186	226
1276	241	188	226
1277	244	193	229
1278	243	196	230
1279	240	199	230
1280	241	204	232
1281	245	208	233
1282	243	207	229
1283	243	210	229
1284	246	214	230
1285	246	214	228
1286	244	212	223
1287	244	215	223
1288	247	221	227
1289	246	220	227
1290	0	0	0
1291	0	0	0
1292	0	0	0
1293	243	218	225
1294	0	0	0
1295	0	0	0
1296	0	0	0
1297	0	0	0
1298	0	0	0
1299	0	0	0
1300	0	0	0
1301	0	0	0
1302	0	0	0
1303	246	230	229
1304	251	222	228
1305	242	203	218
1306	239	198	219
1307	241	199	224
1308	241	195	225
1309	237	188	222
1310	238	191	225
1311	241	196	228
1312	244	202	231
1313	243	202	230
1314	245	208	233
1315	243	207	231
1316	244	209	232
1317	239	205	226
1318	238	208	226
1319	241	216	228
1320	0	0	0
1321	0	0	0
1322	0	0	0
1323	0	0	0
1324	0	0	0
1325	0	0	0
1326	0	0	0
1327	0	0	0
1328	0	0	0
1329	0	0	0
1330	0	0	0
1331	0	0	0
1332	0	0	0
1333	0	0	0
1334	0	0	0
1335	0	0	0
1336	0	0	0
1337	0	0	0
1338	0	0	0
1339	249	223	229
1340	241	203	219
1341	246	207	226
1342	248	208	230
1343	246	204	230
1344	240	196	225
1345	243	203	230
1346	246	208	233
1347	244	208	231
1348	243	208	229
1349	243	208	228
1350	241	207	226
1351	239	206	225
1352	234	203	224
1353	236	211	227
1354	0	0	0
1355	0	0	0
1356	0	0	0
1357	0	0	0
1358	0	0	0
1359	0	0	0
1360	0	0	0
1361	0	0	0
1362	0	0	0
1363	0	0	0
1364	0	0	0
1365	0	0	0
1366	0	0	0
1367	0	0	0
1368	0	0	0
1369	0	0	0
1370	0	0	0
1371	0	0	0
1372	0	0	0
1373	0	0	0
1374	0	0	0
1375	249	217	227
1376	255	224	238
1377	249	205	228
1378	242	198	225
1379	242	199	225
1380	248	207	231
1381	249	211	232
1382	242	209	227
1383	244	213	229
1384	246	215	229
1385	243	213	226
1386	0	0	0
1387	0	0	0
1388	0	0	0
1389	0	0	0
1390	0	0	0
1391	0	0	0
1392	0	0	0
1393	0	0	0
1394	0	0	0
1395	0	0	0
1396	0	0	0
1397	0	0	0
1398	0	0	0
1399	0	0	0
1400	0	0	0
1401	0	0	0
1402	0	0	0
1403	0	0	0
1404	0	0	0
1405	0	0	0
1406	0	0	0
1407	0	0	0
1408	0	0	0
1409	0	0	0
1410	0	0	0
1411	255	218	230
1412	244	199	221
1413	244	202	225
1414	243	203	226
1415	247	209	229
1416	246	212	227
1417	244	214	226
1418	246	219	230
1419	245	218	229
1420	0	0	0
1421	0	0	0
1422	0	0	0
1423	0	0	0
1424	0	0	0
1425	0	0	0
1426	0	0	0
1427	0	0	0
1428	0	0	0
1429	0	0	0
1430	0	0	0
1431	0	0	0
1432	0	0	0
1433	0	0	0
1434	0	0	0
1435	0	0	0
1436	0	0	0
1437	0	0	0
1438	0	0	0
1439	0	0	0
1440	0	0	0
1441	0	0	0
1442	0	0	0
1443	0	0	0
1444	0	0	0
1445	0	0	0
1446	0	0	0
1447	244	205	221
1448	246	209	227
1449	244	209	226
1450	244	213	227
1451	247	221	229
1452	250	226	231
1453	245	221	228
1454	0	0	0
1455	0	0	0
1456	0	0	0
1457	0	0	0
1458	0	0	0
1459	0	0	0
1460	0	0	0
1461	0	0	0
1462	0	0	0
1463	0	0	0
1464	0	0	0
1465	0	0	0
1466	0	0	0
1467	0	0	0
1468	0	0	0
1469	0	0	0
1470	0	0	0
1471	0	0	0
1472	0	0	0
1473	0	0	0
1474	0	0	0
1475	0	0	0
1476	0	0	0
1477	0	0	0
1478	0	0	0
1479	0	0	0
1480	0	0	0
1481	0	0	0
1482	0	0	0
1483	0	0	0
1484	0	0	0
1485	246	222	229
1486	250	231	233
1487	246	226	228
1488	0	0	0
1489	0	0	0
1490	0	0	0
1491	0	0	0
1492	0	0	0
1493	0	0	0
1494	0	0	0
1495	0	0	0
1496	0	0	0
1497	0	0	0
1498	0	0	0
1499	0	0	0
1500	0	0	0
1501	0	0	0
1502	0	0	0
1503	0	0	0
1504	0	0	0
1505	0	0	0
