 	R	G	B
1	0	0	0
2	0	0	0
3	0	0	0
4	0	0	0
5	0	0	0
6	0	0	0
7	0	0	0
8	0	0	0
9	0	0	0
10	0	0	0
11	0	0	0
12	0	0	0
13	0	0	0
14	0	0	0
15	0	0	0
16	0	0	0
17	0	0	0
18	0	0	0
19	0	0	0
20	0	0	0
21	0	0	0
22	0	0	0
23	0	0	0
24	255	248	238
25	0	0	0
26	0	0	0
27	0	0	0
28	0	0	0
29	0	0	0
30	0	0	0
31	0	0	0
32	0	0	0
33	0	0	0
34	0	0	0
35	0	0	0
36	0	0	0
37	0	0	0
38	0	0	0
39	0	0	0
40	0	0	0
41	0	0	0
42	0	0	0
43	0	0	0
44	0	0	0
45	0	0	0
46	0	0	0
47	0	0	0
48	0	0	0
49	0	0	0
50	0	0	0
51	0	0	0
52	0	0	0
53	0	0	0
54	0	0	0
55	0	0	0
56	0	0	0
57	0	0	0
58	0	0	0
59	0	0	0
60	0	0	0
61	0	0	0
62	0	0	0
63	0	0	0
64	0	0	0
65	0	0	0
66	0	0	0
67	0	0	0
68	0	0	0
69	255	254	238
70	255	253	235
71	255	250	237
72	255	233	228
73	255	216	220
74	243	192	208
75	255	212	223
76	255	222	228
77	255	237	236
78	0	0	0
79	0	0	0
80	0	0	0
81	0	0	0
82	0	0	0
83	0	0	0
84	0	0	0
85	0	0	0
86	0	0	0
87	0	0	0
88	0	0	0
89	0	0	0
90	0	0	0
91	0	0	0
92	0	0	0
93	0	0	0
94	0	0	0
95	0	0	0
96	0	0	0
97	0	0	0
98	0	0	0
99	0	0	0
100	0	0	0
101	0	0	0
102	0	0	0
103	0	0	0
104	0	0	0
105	0	0	0
106	0	0	0
107	0	0	0
108	0	0	0
109	0	0	0
110	0	0	0
111	0	0	0
112	0	0	0
113	0	0	0
114	0	0	0
115	0	0	0
116	255	234	230
117	255	236	232
118	253	206	210
119	247	191	202
120	251	191	208
121	243	174	202
122	241	169	202
123	255	188	216
124	251	187	212
125	255	201	218
126	255	206	217
127	0	0	0
128	0	0	0
129	0	0	0
130	0	0	0
131	0	0	0
132	0	0	0
133	0	0	0
134	0	0	0
135	0	0	0
136	0	0	0
137	0	0	0
138	0	0	0
139	0	0	0
140	0	0	0
141	0	0	0
142	0	0	0
143	0	0	0
144	0	0	0
145	0	0	0
146	0	0	0
147	0	0	0
148	0	0	0
149	0	0	0
150	0	0	0
151	0	0	0
152	0	0	0
153	0	0	0
154	0	0	0
155	0	0	0
156	0	0	0
157	0	0	0
158	0	0	0
159	0	0	0
160	255	255	238
161	255	252	238
162	255	250	236
163	255	229	225
164	255	205	214
165	246	182	203
166	233	155	189
167	236	153	193
168	240	153	200
169	243	152	204
170	240	146	201
171	245	155	207
172	241	153	202
173	244	163	205
174	243	168	203
175	250	185	209
176	255	203	214
177	255	213	217
178	255	227	227
179	255	238	233
180	255	249	239
181	255	251	239
182	0	0	0
183	0	0	0
184	0	0	0
185	0	0	0
186	0	0	0
187	0	0	0
188	0	0	0
189	0	0	0
190	0	0	0
191	0	0	0
192	0	0	0
193	0	0	0
194	0	0	0
195	0	0	0
196	0	0	0
197	0	0	0
198	0	0	0
199	0	0	0
200	0	0	0
201	0	0	0
202	0	0	0
203	0	0	0
204	0	0	0
205	0	0	0
206	0	0	0
207	255	251	239
208	255	226	226
209	255	222	226
210	255	199	212
211	248	179	204
212	244	163	201
213	234	140	193
214	245	149	205
215	248	147	210
216	254	152	218
217	255	151	220
218	244	134	209
219	247	142	214
220	243	140	211
221	249	151	216
222	250	158	215
223	255	176	220
224	255	179	214
225	255	189	215
226	255	191	213
227	255	201	217
228	255	204	216
229	255	208	219
230	255	211	223
231	0	0	0
232	0	0	0
233	0	0	0
234	0	0	0
235	0	0	0
236	255	250	251
237	0	0	0
238	0	0	0
239	0	0	0
240	0	0	0
241	0	0	0
242	0	0	0
243	0	0	0
244	0	0	0
245	0	0	0
246	0	0	0
247	0	0	0
248	0	0	0
249	0	0	0
250	0	0	0
251	255	253	247
252	255	252	243
253	255	250	242
254	255	245	239
255	255	218	225
256	251	193	214
257	243	171	206
258	234	149	199
259	226	130	194
260	222	115	192
261	235	126	207
262	244	132	217
263	248	135	221
264	251	137	224
265	240	122	213
266	228	105	204
267	229	111	208
268	226	110	207
269	236	126	217
270	238	133	216
271	241	141	216
272	240	145	211
273	241	149	209
274	238	151	203
275	236	154	201
276	236	157	201
277	236	160	201
278	235	161	202
279	244	179	214
280	254	199	228
281	255	209	233
282	255	222	241
283	255	225	241
284	255	233	244
285	253	216	234
286	241	199	226
287	251	215	241
288	0	0	0
289	0	0	0
290	0	0	0
291	0	0	0
292	0	0	0
293	0	0	0
294	0	0	0
295	0	0	0
296	0	0	0
297	255	252	251
298	255	241	246
299	255	240	244
300	255	219	228
301	255	213	225
302	255	200	220
303	246	175	210
304	245	163	211
305	236	141	206
306	241	143	215
307	228	122	208
308	241	134	224
309	255	145	238
310	241	122	226
311	241	122	226
312	245	129	228
313	233	113	216
314	238	122	226
315	239	128	231
316	223	110	219
317	232	126	229
318	229	125	224
319	232	134	225
320	237	140	225
321	243	148	226
322	236	139	215
323	234	142	212
324	242	154	219
325	247	159	221
326	245	157	218
327	253	174	228
328	250	178	228
329	252	186	232
330	255	198	238
331	255	202	237
332	255	206	238
333	245	188	227
334	238	179	225
335	246	194	238
336	239	195	236
337	0	0	0
338	0	0	0
339	0	0	0
340	0	0	0
341	255	255	250
342	255	255	249
343	255	252	251
344	255	249	252
345	255	235	243
346	255	218	232
347	248	197	220
348	241	179	213
349	237	164	209
350	234	150	203
351	226	133	198
352	225	122	202
353	232	123	212
354	236	124	220
355	241	132	230
356	250	141	239
357	240	122	230
358	224	98	217
359	230	108	224
360	235	115	225
361	241	124	231
362	247	134	240
363	231	118	230
364	214	101	218
365	218	108	223
366	215	108	221
367	218	114	223
368	224	121	225
369	223	118	220
370	217	110	212
371	223	122	218
372	233	135	226
373	238	137	226
374	236	135	223
375	236	140	224
376	234	144	223
377	238	154	227
378	243	167	232
379	240	166	228
380	242	171	230
381	234	161	224
382	225	151	220
383	228	163	228
384	218	160	219
385	0	0	0
386	0	0	0
387	0	0	0
388	255	250	254
389	255	251	254
390	255	232	245
391	255	223	241
392	253	211	234
393	248	195	225
394	251	193	226
395	244	174	218
396	254	179	231
397	250	165	228
398	238	145	218
399	224	124	209
400	241	141	229
401	250	143	238
402	250	136	240
403	255	144	249
404	245	128	238
405	224	103	222
406	220	99	223
407	230	111	232
408	235	117	233
409	246	128	241
410	239	119	236
411	220	102	224
412	221	108	229
413	225	115	235
414	217	107	228
415	222	115	232
416	236	134	244
417	229	128	237
418	224	122	231
419	236	137	241
420	235	136	239
421	237	136	238
422	244	147	243
423	247	153	245
424	250	160	247
425	255	172	252
426	255	176	250
427	253	175	247
428	252	176	246
429	241	166	239
430	234	163	237
431	232	171	239
432	224	173	231
433	0	0	0
434	0	0	0
435	255	249	255
436	255	236	247
437	250	213	234
438	240	191	222
439	239	181	221
440	237	172	220
441	239	168	222
442	243	167	225
443	246	164	227
444	252	167	238
445	236	143	227
446	224	122	219
447	234	134	231
448	248	148	243
449	251	141	242
450	249	133	241
451	242	121	236
452	229	105	226
453	220	99	223
454	216	95	224
455	224	104	232
456	230	110	234
457	228	103	230
458	219	94	224
459	214	97	225
460	213	102	228
461	210	99	226
462	205	92	222
463	224	116	239
464	235	135	248
465	224	124	237
466	219	119	232
467	225	123	235
468	225	122	235
469	235	136	243
470	242	146	247
471	248	155	250
472	252	162	253
473	249	162	249
474	250	166	249
475	248	165	246
476	246	166	246
477	240	165	243
478	228	160	236
479	222	168	234
480	0	0	0
481	0	0	0
482	0	0	0
483	251	215	241
484	252	208	238
485	242	187	227
486	246	184	231
487	245	175	232
488	247	172	235
489	249	168	238
490	252	168	240
491	252	164	242
492	253	166	248
493	226	135	230
494	230	138	238
495	252	156	255
496	255	158	255
497	255	148	251
498	249	133	245
499	237	118	237
500	231	113	235
501	229	110	235
502	235	119	244
503	244	128	251
504	238	119	244
505	229	109	237
506	223	108	237
507	216	111	238
508	209	108	234
509	208	106	233
510	217	114	241
511	240	140	255
512	233	132	249
513	217	120	236
514	224	130	242
515	231	136	247
516	229	130	244
517	238	142	251
518	247	154	255
519	255	163	255
520	255	165	255
521	249	164	252
522	255	180	255
523	255	180	255
524	249	172	251
525	238	168	245
526	227	169	239
527	217	175	234
528	0	0	0
529	0	0	0
530	235	187	231
531	232	177	227
532	234	173	228
533	234	167	229
534	237	164	233
535	238	159	234
536	236	153	234
537	236	152	236
538	236	150	236
539	240	153	241
540	240	154	245
541	228	147	241
542	233	149	247
543	250	156	255
544	255	158	255
545	251	141	250
546	243	127	243
547	237	122	242
548	232	116	240
549	237	124	246
550	243	132	251
551	240	125	247
552	234	116	241
553	233	119	244
554	227	118	244
555	215	114	241
556	207	111	239
557	212	119	245
558	217	126	248
559	220	124	247
560	213	117	238
561	214	124	241
562	221	135	248
563	223	133	245
564	219	126	239
565	228	139	246
566	238	151	250
567	245	156	252
568	245	158	249
569	245	167	250
570	252	182	255
571	241	170	246
572	229	160	236
573	223	165	234
574	213	166	228
575	0	0	0
576	0	0	0
577	247	201	246
578	253	205	251
579	249	195	247
580	249	190	248
581	248	184	249
582	249	180	250
583	248	174	250
584	246	172	251
585	237	165	248
586	232	161	246
587	235	163	249
588	233	160	249
589	230	157	249
590	239	162	255
591	253	166	255
592	255	160	255
593	248	144	251
594	249	140	252
595	249	139	254
596	242	130	249
597	242	135	252
598	245	141	255
599	242	134	250
600	246	136	253
601	251	142	255
602	239	131	254
603	227	127	251
604	217	124	249
605	215	129	251
606	218	139	255
607	211	134	249
608	207	128	244
609	216	141	252
610	220	145	253
611	219	141	248
612	221	143	248
613	229	156	253
614	236	163	255
615	244	169	255
616	238	164	248
617	237	171	247
618	244	190	255
619	225	174	239
620	226	184	242
621	0	0	0
622	0	0	0
623	0	0	0
624	0	0	0
625	0	0	0
626	245	199	246
627	242	191	243
628	242	185	243
629	240	180	242
630	238	175	243
631	240	175	246
632	237	173	247
633	229	168	245
634	223	163	243
635	220	161	243
636	218	156	241
637	222	158	244
638	232	164	251
639	239	159	251
640	241	153	249
641	239	146	247
642	240	143	248
643	239	139	248
644	232	130	243
645	233	137	247
646	238	144	252
647	243	146	255
648	247	149	255
649	241	140	254
650	229	129	247
651	220	128	246
652	210	125	243
653	211	137	249
654	213	147	255
655	206	142	249
656	201	137	245
657	207	144	249
658	212	148	250
659	217	152	250
660	219	155	249
661	221	160	248
662	225	166	249
663	224	163	243
664	219	157	234
665	227	175	241
666	235	194	249
667	230	199	246
668	0	0	0
669	0	0	0
670	0	0	0
671	0	0	0
672	0	0	0
673	0	0	0
674	0	0	0
675	249	211	252
676	249	207	252
677	244	200	250
678	240	195	249
679	239	193	251
680	235	189	250
681	234	188	252
682	223	176	246
683	215	169	242
684	217	173	246
685	223	176	249
686	233	182	255
687	236	175	254
688	234	165	250
689	231	158	248
690	236	163	253
691	234	158	251
692	231	154	250
693	235	162	255
694	232	154	252
695	240	158	255
696	242	160	255
697	229	148	251
698	221	144	248
699	214	144	248
700	209	145	248
701	216	159	255
702	211	158	255
703	204	153	251
704	196	145	244
705	199	150	245
706	206	159	249
707	215	165	251
708	220	171	252
709	219	175	250
710	218	177	247
711	210	170	237
712	0	0	0
713	0	0	0
714	0	0	0
715	0	0	0
716	0	0	0
717	0	0	0
718	0	0	0
719	0	0	0
720	0	0	0
721	0	0	0
722	0	0	0
723	0	0	0
724	251	222	255
725	245	215	251
726	240	209	250
727	235	202	248
728	232	198	247
729	229	191	246
730	219	180	240
731	217	184	244
732	219	188	247
733	225	191	252
734	234	197	255
735	234	187	254
736	229	176	249
737	229	178	251
738	232	181	255
739	228	176	253
740	225	172	252
741	221	165	248
742	218	157	243
743	226	162	249
744	227	164	251
745	218	158	247
746	210	155	244
747	207	157	245
748	205	159	246
749	205	161	248
750	202	160	247
751	194	154	241
752	186	145	234
753	192	156	240
754	199	164	243
755	211	175	248
756	215	181	248
757	211	181	243
758	0	0	0
759	0	0	0
760	0	0	0
761	0	0	0
762	0	0	0
763	0	0	0
764	0	0	0
765	0	0	0
766	0	0	0
767	0	0	0
768	0	0	0
769	0	0	0
770	0	0	0
771	0	0	0
772	0	0	0
773	0	0	0
774	0	0	0
775	0	0	0
776	0	0	0
777	0	0	0
778	231	204	248
779	233	210	254
780	231	207	253
781	234	209	255
782	239	211	255
783	235	200	254
784	229	190	249
785	225	190	250
786	225	194	253
787	216	187	249
788	217	188	250
789	217	183	249
790	219	183	250
791	222	185	252
792	219	182	251
793	212	178	247
794	211	181	249
795	214	186	253
796	211	184	252
797	212	186	254
798	208	181	251
799	199	175	245
800	196	174	244
801	203	185	249
802	200	180	243
803	0	0	0
804	0	0	0
805	0	0	0
806	0	0	0
807	0	0	0
808	0	0	0
809	0	0	0
810	0	0	0
811	0	0	0
812	0	0	0
813	0	0	0
814	0	0	0
815	0	0	0
816	0	0	0
817	0	0	0
818	0	0	0
819	0	0	0
820	0	0	0
821	0	0	0
822	0	0	0
823	0	0	0
824	0	0	0
825	0	0	0
826	0	0	0
827	0	0	0
828	239	222	254
829	239	221	255
830	239	221	255
831	231	209	249
832	222	199	244
833	222	203	247
834	220	206	249
835	210	201	245
836	210	201	246
837	214	202	249
838	216	202	250
839	212	199	247
840	209	196	245
841	209	198	247
842	211	202	250
843	213	203	251
844	213	202	251
845	210	198	249
846	206	194	246
847	207	198	248
848	207	199	248
849	210	201	249
850	0	0	0
851	0	0	0
852	0	0	0
853	0	0	0
854	0	0	0
855	0	0	0
856	0	0	0
857	0	0	0
858	0	0	0
859	0	0	0
860	0	0	0
861	0	0	0
862	0	0	0
863	0	0	0
864	0	0	0
