 	R	G	B
1	0	0	0
2	0	0	0
3	0	0	0
4	243	210	235
5	0	0	0
6	254	229	245
7	255	244	252
8	255	247	252
9	0	0	0
10	0	0	0
11	0	0	0
12	0	0	0
13	0	0	0
14	0	0	0
15	0	0	0
16	0	0	0
17	0	0	0
18	255	231	254
19	255	235	255
20	246	210	237
21	255	230	249
22	255	227	243
23	254	230	243
24	252	230	244
25	0	0	0
26	0	0	0
27	0	0	0
28	0	0	0
29	0	0	0
30	0	0	0
31	0	0	0
32	0	0	0
33	255	246	255
34	255	228	250
35	245	204	235
36	250	211	240
37	247	209	236
38	246	211	235
39	244	212	235
40	254	228	246
41	255	244	255
42	0	0	0
43	0	0	0
44	0	0	0
45	0	0	0
46	0	0	0
47	0	0	0
48	255	234	254
49	254	213	241
50	243	197	233
51	250	205	240
52	254	212	242
53	254	215	242
54	251	213	241
55	255	230	252
56	252	224	245
57	252	230	246
58	0	0	0
59	0	0	0
60	0	0	0
61	0	0	0
62	255	218	247
63	255	219	245
64	251	205	237
65	242	190	231
66	253	204	242
67	255	211	244
68	255	212	243
69	253	211	242
70	251	211	241
71	243	205	234
72	252	223	243
73	255	239	251
74	0	0	0
75	0	0	0
76	248	210	241
77	255	219	249
78	252	206	240
79	246	193	232
80	247	192	235
81	255	207	246
82	254	202	239
83	253	203	239
84	255	209	244
85	254	209	243
86	243	199	233
87	252	217	243
88	253	226	244
89	0	0	0
90	0	0	0
91	0	0	0
92	246	199	238
93	241	188	230
94	246	191	233
95	247	190	234
96	252	194	237
97	247	189	232
98	252	197	237
99	255	204	244
100	250	198	240
101	240	189	231
102	248	205	240
103	248	215	240
104	0	0	0
105	0	0	0
106	244	206	238
107	249	204	241
108	252	202	242
109	255	206	246
110	253	196	240
111	255	199	243
112	245	182	230
113	251	190	236
114	255	202	245
115	252	196	241
116	247	194	237
117	255	211	247
118	251	213	243
119	0	0	0
120	0	0	0
121	242	205	233
122	255	213	245
123	255	212	248
124	255	208	248
125	255	198	243
126	252	188	238
127	240	171	226
128	251	187	238
129	255	198	245
130	255	198	244
131	251	196	239
132	255	206	244
133	251	209	244
134	255	223	251
135	0	0	0
136	0	0	0
137	255	221	249
138	252	202	241
139	254	198	242
140	253	191	240
141	249	182	236
142	246	176	234
143	255	192	245
144	255	194	245
145	255	195	243
146	252	194	240
147	255	205	246
148	251	203	244
149	255	218	251
150	253	225	249
151	249	218	239
152	250	207	238
153	243	190	233
154	251	192	240
155	249	185	236
156	252	185	239
157	250	180	239
158	255	188	245
159	255	190	243
160	255	195	245
161	255	195	244
162	255	198	245
163	248	196	240
164	249	205	243
165	246	211	243
166	255	230	247
167	255	220	246
168	247	193	237
169	255	196	245
170	248	180	235
171	250	180	237
172	252	181	242
173	255	189	248
174	254	185	243
175	255	190	245
176	247	179	236
177	246	182	237
178	250	195	243
179	250	204	245
180	247	212	245
181	255	242	255
182	255	219	247
183	246	192	236
184	251	190	240
185	245	174	232
186	252	180	240
187	254	181	244
188	253	180	244
189	250	176	240
190	246	171	235
191	235	159	225
192	247	180	239
193	250	193	246
194	247	202	247
195	0	0	0
196	255	248	255
197	255	225	250
198	244	190	233
199	251	188	239
200	245	174	233
201	253	180	241
202	255	184	247
203	255	183	247
204	252	177	242
205	248	172	238
206	245	170	235
207	255	190	248
208	242	184	241
209	0	0	0
210	0	0	0
211	255	249	255
212	255	220	245
213	242	186	230
214	251	187	239
215	246	173	233
216	255	183	243
217	255	186	247
218	255	181	244
219	252	175	242
220	253	178	244
221	250	176	241
222	250	182	244
223	234	174	235
224	0	0	0
225	0	0	0
226	255	250	255
227	255	225	248
228	238	181	227
229	248	182	236
230	247	173	234
231	255	182	243
232	251	174	240
233	248	170	237
234	254	178	243
235	255	181	246
236	248	173	240
237	248	179	243
238	238	181	239
239	0	0	0
240	0	0	0
241	255	251	255
242	254	218	244
243	234	174	224
244	247	180	237
245	245	170	232
246	248	170	235
247	244	163	235
248	252	173	243
249	255	181	246
250	253	178	244
251	245	171	239
252	251	187	249
253	241	188	243
254	0	0	0
255	0	0	0
256	255	251	255
257	252	215	243
258	238	180	229
259	252	187	242
260	246	172	234
261	249	172	237
262	251	172	242
263	255	183	251
264	255	180	246
265	253	178	243
266	245	173	240
267	246	185	247
268	231	181	236
269	0	0	0
270	0	0	0
271	255	250	255
272	254	219	246
273	240	184	231
274	250	185	240
275	245	171	234
276	255	180	244
277	255	181	248
278	255	184	251
279	255	182	247
280	255	183	248
281	249	178	244
282	241	183	244
283	226	177	232
284	0	0	0
285	0	0	0
286	255	252	255
287	255	223	248
288	243	190	234
289	253	191	243
290	247	175	237
291	255	185	248
292	251	171	242
293	255	175	246
294	250	169	240
295	251	171	242
296	242	168	239
297	234	173	238
298	0	0	0
299	0	0	0
300	0	0	0
301	255	253	255
302	255	227	248
303	244	195	233
304	252	192	241
305	247	176	237
306	250	173	241
307	244	160	237
308	247	162	241
309	244	157	238
310	247	165	243
311	236	160	236
312	237	183	244
313	0	0	0
314	0	0	0
315	0	0	0
316	255	253	255
317	255	229	248
318	247	201	236
319	255	198	245
320	245	173	236
321	249	171	242
322	248	164	242
323	251	167	247
324	245	159	242
325	248	166	246
326	233	161	236
327	226	179	239
328	0	0	0
329	0	0	0
330	0	0	0
331	255	254	254
332	255	235	252
333	249	206	239
334	248	191	239
335	239	167	233
336	248	170	244
337	246	163	242
338	245	161	243
339	239	153	237
340	244	164	243
341	227	158	232
342	0	0	0
343	0	0	0
344	0	0	0
345	0	0	0
346	0	0	0
347	255	234	251
348	253	215	244
349	252	199	244
350	244	176	239
351	253	179	250
352	247	167	244
353	246	165	243
354	251	174	249
355	254	185	254
356	236	175	240
357	0	0	0
358	0	0	0
359	0	0	0
360	0	0	0
361	0	0	0
362	0	0	0
363	255	224	251
364	255	206	248
365	245	182	239
366	252	182	247
367	247	171	243
368	255	189	255
369	255	197	255
370	255	200	255
371	243	191	247
372	0	0	0
373	0	0	0
374	0	0	0
375	0	0	0
376	0	0	0
377	255	240	254
378	254	222	249
379	251	203	245
380	245	184	240
381	252	185	247
382	243	169	240
383	255	187	253
384	249	181	245
385	246	184	243
386	243	195	246
387	0	0	0
388	0	0	0
389	0	0	0
390	0	0	0
391	0	0	0
392	0	0	0
393	252	221	248
394	250	206	247
395	245	187	242
396	249	184	247
397	240	167	238
398	244	173	243
399	0	0	0
400	246	188	246
401	0	0	0
402	0	0	0
403	0	0	0
404	0	0	0
405	0	0	0
406	0	0	0
407	0	0	0
408	0	0	0
409	255	224	255
410	0	0	0
411	0	0	0
412	245	178	244
413	0	0	0
414	0	0	0
415	0	0	0
416	0	0	0
417	0	0	0
418	0	0	0
419	0	0	0
420	0	0	0
