 	R	G	B
1	0	0	0
2	0	0	0
3	0	0	0
4	0	0	0
5	0	0	0
6	0	0	0
7	0	0	0
8	0	0	0
9	0	0	0
10	0	0	0
11	0	0	0
12	0	0	0
13	0	0	0
14	255	235	250
15	255	231	248
16	254	226	246
17	0	0	0
18	0	0	0
19	0	0	0
20	0	0	0
21	0	0	0
22	0	0	0
23	0	0	0
24	0	0	0
25	0	0	0
26	0	0	0
27	0	0	0
28	0	0	0
29	0	0	0
30	0	0	0
31	0	0	0
32	0	0	0
33	0	0	0
34	0	0	0
35	0	0	0
36	0	0	0
37	0	0	0
38	255	238	252
39	255	238	255
40	248	214	240
41	247	210	239
42	245	208	240
43	0	0	0
44	0	0	0
45	0	0	0
46	0	0	0
47	0	0	0
48	0	0	0
49	0	0	0
50	0	0	0
51	0	0	0
52	0	0	0
53	0	0	0
54	0	0	0
55	0	0	0
56	0	0	0
57	0	0	0
58	0	0	0
59	0	0	0
60	0	0	0
61	0	0	0
62	0	0	0
63	255	237	252
64	251	217	243
65	238	194	230
66	244	201	239
67	243	199	239
68	252	215	247
69	255	226	249
70	255	236	252
71	0	0	0
72	0	0	0
73	0	0	0
74	0	0	0
75	0	0	0
76	0	0	0
77	0	0	0
78	0	0	0
79	0	0	0
80	0	0	0
81	0	0	0
82	0	0	0
83	0	0	0
84	0	0	0
85	0	0	0
86	0	0	0
87	0	0	0
88	255	230	250
89	250	211	242
90	244	198	237
91	250	205	245
92	248	203	243
93	255	217	250
94	254	219	245
95	255	229	248
96	255	238	254
97	0	0	0
98	0	0	0
99	0	0	0
100	0	0	0
101	0	0	0
102	0	0	0
103	0	0	0
104	0	0	0
105	0	0	0
106	0	0	0
107	0	0	0
108	0	0	0
109	0	0	0
110	0	0	0
111	0	0	0
112	255	230	248
113	255	223	250
114	255	214	248
115	248	200	242
116	252	204	246
117	249	201	241
118	252	208	244
119	251	211	242
120	254	218	245
121	255	226	248
122	253	220	244
123	0	0	0
124	0	0	0
125	0	0	0
126	0	0	0
127	0	0	0
128	0	0	0
129	0	0	0
130	0	0	0
131	0	0	0
132	0	0	0
133	0	0	0
134	0	0	0
135	0	0	0
136	0	0	0
137	255	225	247
138	248	206	241
139	245	197	240
140	250	201	244
141	253	204	247
142	252	204	244
143	255	212	248
144	255	213	246
145	255	220	250
146	255	219	247
147	251	213	243
148	250	213	244
149	0	0	0
150	0	0	0
151	0	0	0
152	0	0	0
153	0	0	0
154	0	0	0
155	0	0	0
156	0	0	0
157	0	0	0
158	0	0	0
159	0	0	0
160	0	0	0
161	0	0	0
162	0	0	0
163	238	188	232
164	248	199	244
165	253	203	247
166	255	207	250
167	255	208	249
168	255	211	250
169	255	211	246
170	255	210	244
171	253	210	245
172	250	207	242
173	0	0	0
174	0	0	0
175	0	0	0
176	0	0	0
177	0	0	0
178	0	0	0
179	0	0	0
180	0	0	0
181	0	0	0
182	0	0	0
183	0	0	0
184	0	0	0
185	0	0	0
186	0	0	0
187	0	0	0
188	248	200	241
189	255	210	252
190	251	199	245
191	254	203	248
192	255	207	250
193	255	211	251
194	250	198	239
195	248	198	238
196	255	210	248
197	0	0	0
198	0	0	0
199	0	0	0
200	0	0	0
201	0	0	0
202	0	0	0
203	0	0	0
204	0	0	0
205	0	0	0
206	0	0	0
207	0	0	0
208	0	0	0
209	0	0	0
210	0	0	0
211	0	0	0
212	0	0	0
213	0	0	0
214	254	203	245
215	248	193	241
216	255	202	249
217	255	206	249
218	251	196	241
219	242	184	232
220	250	198	241
221	255	210	249
222	255	215	251
223	0	0	0
224	0	0	0
225	0	0	0
226	0	0	0
227	0	0	0
228	0	0	0
229	0	0	0
230	0	0	0
231	0	0	0
232	0	0	0
233	0	0	0
234	255	246	255
235	0	0	0
236	0	0	0
237	0	0	0
238	255	209	244
239	255	205	245
240	249	193	242
241	255	203	251
242	254	198	245
243	247	188	237
244	249	192	240
245	255	206	250
246	255	207	248
247	0	0	0
248	0	0	0
249	0	0	0
250	0	0	0
251	0	0	0
252	0	0	0
253	0	0	0
254	0	0	0
255	0	0	0
256	0	0	0
257	0	0	0
258	255	251	255
259	255	248	255
260	255	233	250
261	0	0	0
262	255	216	247
263	255	213	248
264	255	204	245
265	250	193	242
266	253	194	246
267	250	190	241
268	255	197	246
269	255	201	249
270	255	205	251
271	255	205	249
272	255	211	252
273	0	0	0
274	0	0	0
275	0	0	0
276	0	0	0
277	0	0	0
278	0	0	0
279	0	0	0
280	0	0	0
281	0	0	0
282	0	0	0
283	255	252	255
284	255	239	250
285	253	224	244
286	251	214	241
287	255	214	246
288	255	210	247
289	254	201	244
290	252	194	243
291	255	195	246
292	250	186	240
293	255	194	245
294	255	195	246
295	255	199	248
296	252	195	245
297	253	201	248
298	255	208	252
299	0	0	0
300	0	0	0
301	0	0	0
302	0	0	0
303	0	0	0
304	0	0	0
305	0	0	0
306	0	0	0
307	255	255	252
308	255	250	255
309	255	234	247
310	255	226	246
311	254	215	242
312	255	213	244
313	255	209	247
314	255	201	245
315	252	193	241
316	252	189	241
317	247	181	235
318	252	187	241
319	252	188	242
320	252	189	243
321	248	186	241
322	251	195	246
323	252	201	248
324	0	0	0
325	0	0	0
326	0	0	0
327	0	0	0
328	0	0	0
329	0	0	0
330	0	0	0
331	255	255	253
332	255	252	255
333	254	235	245
334	255	227	244
335	255	219	243
336	248	203	235
337	250	201	237
338	255	209	247
339	255	201	244
340	254	194	242
341	255	191	242
342	252	185	239
343	255	192	245
344	252	184	240
345	251	185	242
346	248	184	241
347	251	192	246
348	253	201	249
349	0	0	0
350	0	0	0
351	0	0	0
352	0	0	0
353	0	0	0
354	0	0	0
355	0	0	0
356	255	247	251
357	254	238	246
358	254	229	244
359	255	222	243
360	252	210	239
361	245	195	233
362	255	205	244
363	255	212	251
364	255	206	248
365	255	200	246
366	255	196	246
367	255	190	243
368	253	185	241
369	248	177	236
370	249	180	239
371	246	178	237
372	253	193	245
373	255	202	250
374	255	218	255
375	0	0	0
376	0	0	0
377	0	0	0
378	0	0	0
379	0	0	0
380	255	255	254
381	255	252	255
382	252	230	244
383	253	223	242
384	255	218	242
385	252	206	238
386	248	195	236
387	255	205	247
388	255	201	246
389	255	195	243
390	251	184	237
391	250	180	237
392	252	182	239
393	248	175	236
394	255	187	244
395	255	190	247
396	247	179	237
397	255	193	246
398	255	199	248
399	255	215	254
400	255	217	250
401	0	0	0
402	0	0	0
403	0	0	0
404	0	0	0
405	255	255	253
406	255	244	253
407	247	220	239
408	253	219	243
409	255	215	243
410	255	207	240
411	251	195	236
412	255	195	241
413	255	192	243
414	252	182	239
415	246	171	234
416	249	175	238
417	251	176	239
418	255	186	246
419	255	197	254
420	255	190	248
421	248	179	238
422	254	190	244
423	253	196	245
424	252	199	244
425	0	0	0
426	0	0	0
427	0	0	0
428	0	0	0
429	0	0	0
430	255	255	253
431	255	246	255
432	246	215	238
433	253	215	243
434	255	210	243
435	255	202	240
436	248	186	232
437	252	186	237
438	255	186	242
439	251	177	240
440	249	172	238
441	253	176	242
442	255	179	243
443	255	189	249
444	255	185	246
445	251	178	239
446	251	181	239
447	255	193	245
448	252	192	242
449	0	0	0
450	0	0	0
451	0	0	0
452	0	0	0
453	0	0	0
454	0	0	0
455	255	255	253
456	255	238	250
457	243	207	233
458	252	208	240
459	254	204	242
460	251	192	238
461	244	176	230
462	249	178	236
463	253	179	240
464	255	178	243
465	253	173	241
466	255	181	247
467	255	185	249
468	255	180	244
469	252	176	239
470	255	181	241
471	255	185	240
472	254	187	239
473	250	186	237
474	0	0	0
475	0	0	0
476	0	0	0
477	0	0	0
478	0	0	0
479	0	0	0
480	255	253	255
481	254	230	246
482	246	208	237
483	255	209	244
484	255	201	243
485	251	188	239
486	250	181	238
487	255	184	243
488	255	179	244
489	255	178	245
490	246	159	233
491	252	167	240
492	255	172	243
493	250	167	238
494	253	173	240
495	255	178	241
496	251	177	235
497	249	179	234
498	248	183	236
499	0	0	0
500	0	0	0
501	0	0	0
502	0	0	0
503	0	0	0
504	0	0	0
505	255	251	255
506	255	231	251
507	252	211	245
508	255	207	248
509	255	197	244
510	255	192	245
511	255	185	244
512	255	182	245
513	255	177	245
514	249	162	236
515	236	143	224
516	245	154	233
517	248	159	239
518	251	165	241
519	253	170	241
520	250	170	238
521	246	168	234
522	247	174	236
523	245	177	235
524	0	0	0
525	0	0	0
526	0	0	0
527	0	0	0
528	0	0	0
529	0	0	0
530	255	245	255
531	255	224	248
532	250	204	243
533	253	198	246
534	253	191	244
535	254	186	244
536	252	176	241
537	253	173	242
538	255	173	244
539	247	158	236
540	246	154	235
541	254	164	244
542	251	162	243
543	254	168	245
544	255	172	243
545	252	171	240
546	252	176	241
547	253	182	244
548	251	186	243
549	0	0	0
550	0	0	0
551	0	0	0
552	0	0	0
553	0	0	0
554	255	251	255
555	255	238	252
556	255	218	245
557	248	197	240
558	251	193	245
559	252	185	245
560	250	178	244
561	247	167	238
562	251	168	241
563	252	166	242
564	253	164	243
565	252	161	243
566	253	162	245
567	249	159	240
568	253	166	243
569	254	171	242
570	255	178	245
571	255	183	246
572	255	190	250
573	255	193	250
574	0	0	0
575	0	0	0
576	0	0	0
577	0	0	0
578	255	254	255
579	255	250	255
580	251	218	241
581	245	199	235
582	244	188	237
583	246	183	241
584	255	191	252
585	255	183	250
586	251	170	243
587	254	170	245
588	250	163	242
589	250	161	243
590	255	166	249
591	255	166	248
592	252	164	243
593	255	172	246
594	253	169	242
595	255	176	245
596	249	172	240
597	250	178	243
598	253	190	248
599	0	0	0
600	0	0	0
601	0	0	0
602	255	254	255
603	255	252	255
604	255	231	250
605	242	200	235
606	241	190	235
607	239	179	235
608	251	188	247
609	255	194	255
610	255	184	252
611	252	171	245
612	252	167	245
613	249	160	244
614	255	167	250
615	255	170	253
616	255	170	250
617	255	168	245
618	255	169	245
619	252	167	243
620	251	168	243
621	244	163	239
622	250	178	246
623	251	188	247
624	0	0	0
625	0	0	0
626	255	255	254
627	255	254	254
628	255	241	253
629	244	208	236
630	245	201	239
631	241	190	238
632	247	192	247
633	255	201	255
634	255	189	254
635	253	177	248
636	244	161	239
637	245	157	240
638	255	171	252
639	255	176	255
640	251	163	247
641	251	163	245
642	255	174	251
643	255	175	251
644	243	155	237
645	242	156	238
646	249	172	247
647	254	186	252
648	249	188	246
649	0	0	0
650	0	0	0
651	255	255	253
652	255	240	249
653	243	214	235
654	247	208	238
655	248	202	242
656	252	203	250
657	255	204	255
658	255	196	255
659	254	182	249
660	243	166	240
661	235	150	234
662	250	166	247
663	255	178	255
664	253	167	247
665	243	154	237
666	251	165	245
667	255	177	255
668	245	157	241
669	228	136	226
670	241	158	240
671	248	173	247
672	247	180	247
673	0	0	0
674	0	0	0
675	0	0	0
676	255	254	254
677	255	237	249
678	247	215	238
679	251	210	241
680	255	208	248
681	255	210	255
682	255	198	255
683	255	187	252
684	248	176	246
685	234	157	235
686	240	163	244
687	255	180	255
688	255	179	255
689	251	167	245
690	242	155	237
691	250	166	246
692	255	185	255
693	247	165	246
694	241	159	240
695	254	180	253
696	254	187	254
697	253	194	253
698	249	198	249
699	0	0	0
700	0	0	0
701	255	253	255
702	255	239	253
703	252	217	244
704	255	219	251
705	255	216	254
706	255	206	252
707	255	192	251
708	254	184	250
709	247	172	246
710	244	173	248
711	248	177	252
712	252	176	253
713	252	174	251
714	244	163	242
715	236	152	234
716	248	170	247
717	255	188	255
718	254	182	253
719	247	175	247
720	254	188	254
721	254	195	253
722	253	202	253
723	0	0	0
724	0	0	0
725	0	0	0
726	255	251	255
727	255	230	251
728	244	202	238
729	252	204	245
730	255	208	252
731	255	196	249
732	243	172	238
733	239	162	237
734	255	185	255
735	255	186	255
736	254	184	255
737	249	178	251
738	254	184	254
739	247	174	247
740	250	177	249
741	255	195	255
742	255	191	255
743	250	185	250
744	249	186	249
745	254	199	254
746	253	204	253
747	0	0	0
748	0	0	0
749	0	0	0
750	0	0	0
751	255	239	255
752	248	214	246
753	236	187	234
754	253	200	250
755	255	204	255
756	248	181	245
757	232	155	232
758	251	179	251
759	255	199	255
760	255	192	255
761	254	188	255
762	252	188	253
763	255	193	255
764	255	196	255
765	255	198	255
766	255	197	255
767	251	192	250
768	250	194	249
769	248	196	248
770	252	206	252
771	0	0	0
772	0	0	0
773	0	0	0
774	0	0	0
775	0	0	0
776	255	249	255
777	255	227	255
778	243	191	242
779	255	204	255
780	251	186	251
781	233	160	235
782	230	155	234
783	249	178	251
784	255	192	255
785	245	181	247
786	248	189	250
787	248	190	249
788	255	208	255
789	255	209	255
790	252	199	252
791	0	0	0
792	0	0	0
793	0	0	0
794	0	0	0
795	0	0	0
796	0	0	0
797	0	0	0
798	0	0	0
799	0	0	0
800	0	0	0
801	255	250	255
802	255	222	253
803	241	187	239
804	244	181	244
805	234	162	236
806	231	159	235
807	227	152	232
808	242	171	244
809	248	183	250
810	242	184	245
811	244	192	248
812	254	206	255
813	255	223	255
814	254	211	255
815	0	0	0
816	0	0	0
817	0	0	0
818	0	0	0
819	0	0	0
820	0	0	0
821	0	0	0
822	0	0	0
823	0	0	0
824	0	0	0
825	0	0	0
826	255	249	255
827	255	221	252
828	238	182	236
829	238	174	240
830	236	168	239
831	237	166	241
832	243	176	246
833	255	192	255
834	249	191	251
835	0	0	0
836	252	212	255
837	255	225	255
838	255	224	255
839	0	0	0
840	0	0	0
841	0	0	0
842	0	0	0
843	0	0	0
844	0	0	0
845	0	0	0
846	0	0	0
847	0	0	0
848	0	0	0
849	0	0	0
850	0	0	0
851	255	249	255
852	251	214	250
853	231	173	231
854	236	175	239
855	233	168	237
856	242	180	245
857	247	188	249
858	250	193	250
859	243	191	244
860	0	0	0
861	0	0	0
862	254	225	255
863	0	0	0
864	0	0	0
865	0	0	0
866	0	0	0
867	0	0	0
868	0	0	0
869	0	0	0
870	0	0	0
871	0	0	0
872	0	0	0
873	0	0	0
874	0	0	0
875	0	0	0
876	255	248	255
877	246	208	246
878	230	177	231
879	235	178	237
880	244	191	246
881	250	200	252
882	254	208	255
883	255	213	255
884	244	202	245
885	0	0	0
886	0	0	0
887	0	0	0
888	0	0	0
889	0	0	0
890	0	0	0
891	0	0	0
892	0	0	0
893	0	0	0
894	0	0	0
895	0	0	0
896	0	0	0
897	0	0	0
898	0	0	0
899	0	0	0
900	0	0	0
901	0	0	0
902	241	208	242
903	223	175	224
904	239	195	241
905	0	0	0
906	0	0	0
907	254	222	255
908	251	219	251
909	0	0	0
910	0	0	0
911	0	0	0
912	0	0	0
913	0	0	0
914	0	0	0
915	0	0	0
916	0	0	0
917	0	0	0
918	0	0	0
919	0	0	0
920	0	0	0
921	0	0	0
922	0	0	0
923	0	0	0
924	0	0	0
925	0	0	0
