 	R	G	B
1	0	0	0
2	0	0	0
3	0	0	0
4	0	0	0
5	0	0	0
6	0	0	0
7	0	0	0
8	0	0	0
9	0	0	0
10	0	0	0
11	0	0	0
12	0	0	0
13	0	0	0
14	0	0	0
15	0	0	0
16	0	0	0
17	0	0	0
18	255	252	255
19	255	245	253
20	255	244	253
21	255	242	252
22	255	234	248
23	0	0	0
24	0	0	0
25	0	0	0
26	0	0	0
27	0	0	0
28	0	0	0
29	0	0	0
30	0	0	0
31	0	0	0
32	0	0	0
33	0	0	0
34	0	0	0
35	0	0	0
36	0	0	0
37	0	0	0
38	0	0	0
39	0	0	0
40	0	0	0
41	0	0	0
42	0	0	0
43	0	0	0
44	0	0	0
45	0	0	0
46	0	0	0
47	0	0	0
48	0	0	0
49	0	0	0
50	0	0	0
51	0	0	0
52	0	0	0
53	255	247	253
54	255	241	251
55	253	229	244
56	255	229	245
57	255	228	244
58	255	220	240
59	255	215	242
60	0	0	0
61	0	0	0
62	0	0	0
63	0	0	0
64	0	0	0
65	0	0	0
66	0	0	0
67	0	0	0
68	0	0	0
69	0	0	0
70	0	0	0
71	0	0	0
72	0	0	0
73	0	0	0
74	0	0	0
75	0	0	0
76	0	0	0
77	0	0	0
78	0	0	0
79	0	0	0
80	0	0	0
81	0	0	0
82	0	0	0
83	0	0	0
84	0	0	0
85	0	0	0
86	0	0	0
87	0	0	0
88	0	0	0
89	255	236	248
90	253	226	243
91	247	214	235
92	251	215	237
93	255	215	239
94	252	207	236
95	251	200	236
96	242	184	228
97	0	0	0
98	0	0	0
99	0	0	0
100	0	0	0
101	0	0	0
102	0	0	0
103	0	0	0
104	0	0	0
105	0	0	0
106	0	0	0
107	0	0	0
108	0	0	0
109	0	0	0
110	0	0	0
111	0	0	0
112	0	0	0
113	0	0	0
114	0	0	0
115	0	0	0
116	0	0	0
117	0	0	0
118	0	0	0
119	0	0	0
120	0	0	0
121	0	0	0
122	0	0	0
123	0	0	0
124	0	0	0
125	255	230	247
126	254	221	243
127	249	209	235
128	253	210	238
129	255	211	242
130	253	202	239
131	247	189	233
132	237	172	225
133	240	179	230
134	0	0	0
135	0	0	0
136	0	0	0
137	0	0	0
138	0	0	0
139	0	0	0
140	0	0	0
141	0	0	0
142	0	0	0
143	0	0	0
144	0	0	0
145	0	0	0
146	0	0	0
147	0	0	0
148	0	0	0
149	0	0	0
150	0	0	0
151	0	0	0
152	0	0	0
153	0	0	0
154	0	0	0
155	0	0	0
156	0	0	0
157	255	255	250
158	255	252	254
159	255	240	249
160	255	233	248
161	255	225	246
162	254	214	240
163	250	203	235
164	253	203	238
165	255	203	242
166	248	189	236
167	240	176	230
168	247	185	238
169	248	190	239
170	254	202	244
171	0	0	0
172	255	217	245
173	0	0	0
174	0	0	0
175	0	0	0
176	0	0	0
177	0	0	0
178	0	0	0
179	0	0	0
180	0	0	0
181	0	0	0
182	0	0	0
183	0	0	0
184	0	0	0
185	0	0	0
186	0	0	0
187	0	0	0
188	0	0	0
189	0	0	0
190	0	0	0
191	0	0	0
192	255	255	252
193	255	244	249
194	254	231	242
195	251	219	238
196	251	212	238
197	252	210	238
198	248	199	233
199	253	202	237
200	255	201	240
201	253	196	240
202	244	181	232
203	248	187	239
204	253	195	245
205	254	199	245
206	255	212	249
207	255	220	250
208	255	225	249
209	250	207	234
210	0	0	0
211	0	0	0
212	0	0	0
213	0	0	0
214	0	0	0
215	0	0	0
216	0	0	0
217	0	0	0
218	0	0	0
219	0	0	0
220	0	0	0
221	0	0	0
222	0	0	0
223	0	0	0
224	0	0	0
225	0	0	0
226	0	0	0
227	255	255	252
228	255	246	253
229	248	221	237
230	246	211	234
231	242	199	229
232	245	197	231
233	247	195	233
234	252	198	237
235	254	199	237
236	251	193	234
237	248	187	233
238	253	192	239
239	255	197	243
240	255	205	248
241	255	209	250
242	255	219	253
243	255	227	253
244	255	212	240
245	244	196	231
246	255	214	243
247	0	0	0
248	0	0	0
249	0	0	0
250	0	0	0
251	0	0	0
252	0	0	0
253	0	0	0
254	0	0	0
255	0	0	0
256	0	0	0
257	0	0	0
258	0	0	0
259	0	0	0
260	0	0	0
261	0	0	0
262	0	0	0
263	255	251	255
264	254	230	244
265	248	213	235
266	247	203	232
267	249	202	234
268	251	199	235
269	255	205	241
270	255	206	244
271	250	188	233
272	246	181	229
273	254	193	238
274	255	197	241
275	254	195	238
276	255	203	243
277	255	208	246
278	255	218	250
279	255	215	243
280	249	200	232
281	252	203	238
282	255	221	250
283	254	210	238
284	0	0	0
285	0	0	0
286	0	0	0
287	0	0	0
288	0	0	0
289	0	0	0
290	0	0	0
291	0	0	0
292	0	0	0
293	0	0	0
294	0	0	0
295	0	0	0
296	0	0	0
297	0	0	0
298	255	252	254
299	255	236	245
300	252	220	238
301	246	203	230
302	250	203	233
303	253	202	236
304	255	206	240
305	255	210	242
306	255	195	235
307	245	178	229
308	255	193	241
309	255	203	247
310	255	202	243
311	255	198	237
312	255	204	240
313	255	210	244
314	255	207	242
315	255	205	237
316	255	207	238
317	255	210	241
318	254	205	238
319	246	196	231
320	252	207	238
321	0	0	0
322	252	216	240
323	0	0	0
324	0	0	0
325	0	0	0
326	0	0	0
327	0	0	0
328	0	0	0
329	0	0	0
330	0	0	0
331	0	0	0
332	0	0	0
333	255	253	252
334	255	241	249
335	248	215	235
336	244	200	228
337	250	202	232
338	253	202	234
339	255	202	238
340	255	206	242
341	255	199	236
342	249	183	229
343	247	177	231
344	255	191	244
345	255	192	241
346	255	190	236
347	252	189	231
348	255	195	233
349	255	203	240
350	255	201	238
351	253	196	233
352	253	198	234
353	255	202	236
354	251	196	233
355	250	196	235
356	255	208	243
357	252	207	240
358	249	207	238
359	251	215	241
360	0	0	0
361	0	0	0
362	0	0	0
363	0	0	0
364	0	0	0
365	0	0	0
366	0	0	0
367	0	0	0
368	255	253	254
369	255	247	252
370	252	221	238
371	242	197	229
372	252	204	238
373	255	204	239
374	255	205	241
375	255	205	243
376	255	198	240
377	255	191	237
378	254	184	236
379	251	178	237
380	255	184	243
381	255	185	238
382	255	186	236
383	253	185	233
384	255	190	234
385	255	198	239
386	253	191	234
387	249	187	232
388	251	191	234
389	251	193	231
390	250	192	231
391	249	193	235
392	249	196	238
393	245	195	235
394	250	206	240
395	251	213	241
396	250	219	242
397	0	0	0
398	0	0	0
399	0	0	0
400	0	0	0
401	0	0	0
402	0	0	0
403	255	254	253
404	255	251	255
405	254	225	240
406	244	201	229
407	249	199	236
408	255	205	245
409	251	191	235
410	254	191	236
411	255	191	239
412	253	183	236
413	251	179	235
414	249	172	233
415	255	179	241
416	255	185	246
417	248	170	232
418	249	171	231
419	253	180	235
420	254	185	235
421	255	193	238
422	252	187	233
423	255	191	239
424	255	194	240
425	252	191	233
426	250	190	232
427	254	198	240
428	253	201	243
429	253	205	244
430	255	216	250
431	250	211	242
432	0	0	0
433	0	0	0
434	0	0	0
435	0	0	0
436	0	0	0
437	0	0	0
438	255	253	253
439	255	252	253
440	255	231	244
441	246	205	230
442	250	203	235
443	255	200	240
444	254	192	240
445	246	177	232
446	249	177	234
447	250	177	236
448	247	170	233
449	246	166	234
450	252	173	240
451	255	177	242
452	249	167	234
453	239	153	226
454	248	165	234
455	251	174	236
456	252	179	235
457	255	187	237
458	255	189	237
459	255	193	241
460	255	193	241
461	253	190	238
462	255	196	241
463	255	203	245
464	255	207	246
465	255	211	247
466	252	209	244
467	0	0	0
468	0	0	0
469	0	0	0
470	0	0	0
471	0	0	0
472	0	0	0
473	255	254	253
474	255	252	253
475	255	228	242
476	242	201	228
477	251	204	234
478	255	201	239
479	254	192	241
480	252	183	241
481	244	168	233
482	246	168	235
483	255	182	245
484	253	175	242
485	252	171	241
486	255	177	246
487	255	175	242
488	250	164	235
489	243	155	231
490	252	168	240
491	255	180	243
492	255	185	242
493	255	187	241
494	255	189	241
495	252	182	235
496	250	181	235
497	253	188	240
498	254	194	243
499	255	204	246
500	255	207	246
501	255	209	245
502	0	0	0
503	0	0	0
504	0	0	0
505	0	0	0
506	0	0	0
507	0	0	0
508	255	254	254
509	255	253	251
510	255	230	242
511	240	198	228
512	249	202	237
513	255	204	241
514	253	192	239
515	251	182	242
516	245	170	239
517	237	155	231
518	248	169	241
519	255	182	249
520	255	176	244
521	252	170	240
522	252	169	239
523	252	168	238
524	248	161	234
525	241	152	230
526	254	170	242
527	255	181	244
528	255	182	242
529	255	185	244
530	254	180	239
531	247	172	232
532	252	181	238
533	255	189	244
534	255	199	248
535	255	208	250
536	255	208	246
537	255	210	244
538	0	0	0
539	0	0	0
540	0	0	0
541	0	0	0
542	0	0	0
543	255	253	255
544	255	251	255
545	255	238	249
546	245	206	232
547	245	197	235
548	254	200	243
549	255	195	241
550	249	181	237
551	249	176	243
552	243	164	239
553	250	172	246
554	255	185	255
555	255	182	251
556	255	176	245
557	251	168	238
558	251	167	237
559	255	177	244
560	255	170	241
561	249	162	237
562	255	180	249
563	255	179	245
564	255	181	244
565	255	179	244
566	252	174	239
567	250	172	237
568	254	181	242
569	254	185	243
570	255	194	246
571	255	198	245
572	251	198	240
573	254	209	243
574	255	217	245
575	0	0	0
576	0	0	0
577	0	0	0
578	0	0	0
579	255	249	255
580	255	231	249
581	250	214	240
582	250	204	240
583	249	194	240
584	251	191	243
585	250	184	240
586	246	174	237
587	244	168	240
588	252	177	249
589	255	184	253
590	255	181	251
591	255	178	249
592	254	174	246
593	250	167	238
594	255	177	245
595	255	187	253
596	255	183	251
597	255	174	246
598	255	179	249
599	255	180	248
600	255	175	244
601	255	173	243
602	255	174	244
603	254	173	243
604	255	179	245
605	253	181	241
606	252	186	240
607	251	190	242
608	253	200	244
609	255	210	245
610	255	218	246
611	255	226	248
612	0	0	0
613	0	0	0
614	0	0	0
615	255	241	254
616	255	223	247
617	252	209	244
618	252	199	245
619	247	185	240
620	247	180	241
621	251	182	244
622	245	171	239
623	254	182	250
624	255	190	255
625	255	189	254
626	255	186	252
627	254	177	248
628	254	173	247
629	252	169	242
630	255	179	248
631	255	176	246
632	255	172	245
633	246	152	233
634	250	158	237
635	255	171	246
636	254	167	242
637	253	166	241
638	253	168	243
639	250	165	241
640	251	170	242
641	254	181	242
642	252	185	241
643	250	188	242
644	252	199	245
645	255	215	249
646	255	221	248
647	250	217	242
648	0	0	0
649	0	0	0
650	255	236	250
651	255	231	249
652	253	214	243
653	250	200	243
654	247	188	243
655	241	173	238
656	247	177	244
657	250	178	246
658	255	189	253
659	255	197	255
660	255	193	253
661	255	193	253
662	255	182	247
663	251	173	245
664	254	173	247
665	253	170	244
666	255	169	243
667	254	165	238
668	247	151	232
669	235	133	224
670	246	149	237
671	255	162	245
672	250	158	240
673	249	157	238
674	249	158	238
675	244	155	236
676	251	169	243
677	254	180	244
678	250	181	241
679	247	184	241
680	253	200	247
681	255	216	248
682	249	209	238
683	240	205	233
684	0	0	0
685	255	237	252
686	255	230	250
687	253	217	244
688	247	200	238
689	250	196	244
690	246	183	243
691	249	181	247
692	254	185	252
693	253	183	251
694	255	192	255
695	253	182	245
696	250	179	241
697	255	195	253
698	255	184	248
699	255	179	248
700	255	179	251
701	255	178	251
702	255	177	251
703	251	157	237
704	244	144	231
705	240	136	231
706	251	153	245
707	255	168	253
708	255	164	248
709	250	158	242
710	250	158	242
711	245	155	238
712	251	168	244
713	255	181	247
714	250	182	242
715	255	198	250
716	255	214	255
717	255	216	248
718	247	209	238
719	0	0	0
720	0	0	0
721	254	228	249
722	248	213	243
723	245	201	239
724	247	195	240
725	248	189	242
726	252	189	247
727	253	186	250
728	255	187	253
729	254	184	251
730	250	178	246
731	244	170	239
732	254	184	248
733	255	201	255
734	255	191	252
735	255	185	249
736	255	183	250
737	255	182	253
738	252	163	243
739	243	145	232
740	242	141	233
741	237	133	232
742	251	153	247
743	255	167	255
744	252	159	247
745	247	153	242
746	246	153	241
747	239	149	235
748	249	167	244
749	253	180	247
750	255	195	252
751	255	210	255
752	255	213	253
753	255	215	248
754	255	223	249
755	0	0	0
756	0	0	0
757	0	0	0
758	255	218	251
759	249	203	245
760	250	197	245
761	253	195	249
762	255	194	253
763	250	183	248
764	252	183	250
765	255	190	255
766	254	184	250
767	250	179	247
768	255	194	255
769	255	195	255
770	255	184	248
771	255	183	248
772	255	181	249
773	255	173	248
774	246	155	238
775	249	155	240
776	249	152	242
777	248	150	245
778	255	169	255
779	255	165	254
780	249	157	246
781	253	164	251
782	251	164	250
783	247	162	245
784	255	180	253
785	254	185	251
786	255	200	255
787	255	203	250
788	253	205	247
789	249	209	244
790	0	0	0
791	0	0	0
792	0	0	0
793	0	0	0
794	0	0	0
795	0	0	0
796	254	202	251
797	255	200	254
798	255	192	253
799	248	180	247
800	255	188	254
801	255	195	255
802	255	190	255
803	255	186	252
804	255	187	252
805	255	188	251
806	255	183	248
807	255	183	250
808	253	173	246
809	250	165	245
810	253	165	247
811	254	164	247
812	255	164	248
813	254	162	251
814	253	162	253
815	249	158	247
816	250	163	249
817	254	170	253
818	253	171	252
819	249	169	247
820	253	180	251
821	251	185	249
822	251	191	248
823	248	194	245
824	247	200	244
825	243	203	242
826	0	0	0
827	0	0	0
828	0	0	0
829	0	0	0
830	0	0	0
831	253	208	251
832	255	208	255
833	252	193	251
834	249	185	249
835	249	183	249
836	255	191	255
837	255	189	253
838	253	184	250
839	255	190	253
840	255	191	254
841	255	186	251
842	255	183	250
843	255	182	252
844	252	172	248
845	250	165	247
846	252	165	248
847	254	168	249
848	254	166	249
849	251	162	249
850	251	163	250
851	252	167	251
852	253	172	252
853	255	181	255
854	255	182	255
855	252	179	251
856	255	190	255
857	254	192	252
858	254	198	252
859	250	200	249
860	249	206	248
861	250	216	249
862	0	0	0
863	0	0	0
864	0	0	0
865	0	0	0
866	0	0	0
867	0	0	0
868	251	199	250
869	244	183	243
870	248	185	248
871	249	183	248
872	251	184	250
873	250	182	248
874	253	187	250
875	255	192	253
876	254	186	250
877	253	182	249
878	253	180	250
879	255	180	253
880	252	173	250
881	248	164	245
882	252	169	249
883	255	172	252
884	251	167	249
885	247	162	246
886	251	168	250
887	252	173	252
888	255	182	255
889	255	191	255
890	255	191	255
891	254	188	253
892	255	193	254
893	252	195	252
894	250	198	249
895	246	200	246
896	250	213	250
897	0	0	0
898	0	0	0
899	0	0	0
900	0	0	0
901	0	0	0
902	0	0	0
903	0	0	0
904	0	0	0
905	251	196	251
906	255	198	255
907	253	191	252
908	255	192	254
909	251	186	250
910	255	192	253
911	255	192	253
912	253	186	250
913	255	187	253
914	255	185	254
915	255	181	254
916	251	173	250
917	249	169	248
918	252	173	251
919	255	177	254
920	251	171	250
921	252	175	252
922	255	181	255
923	255	184	255
924	255	193	255
925	255	190	254
926	254	189	252
927	246	183	246
928	247	188	247
929	255	208	255
930	255	211	255
931	248	209	248
932	0	0	0
933	0	0	0
934	0	0	0
935	0	0	0
936	0	0	0
937	0	0	0
938	0	0	0
939	0	0	0
940	255	212	255
941	255	209	255
942	255	203	255
943	253	194	252
944	252	191	252
945	249	186	249
946	252	189	252
947	253	189	252
948	254	189	253
949	255	190	255
950	252	183	251
951	250	178	250
952	249	175	249
953	248	171	247
954	252	177	251
955	254	180	253
956	255	184	255
957	255	187	255
958	255	191	255
959	255	194	255
960	254	190	253
961	249	187	248
962	243	182	242
963	236	175	236
964	250	199	250
965	255	218	255
966	255	219	255
967	0	0	0
968	0	0	0
969	0	0	0
970	0	0	0
971	0	0	0
972	0	0	0
973	0	0	0
974	0	0	0
975	255	218	255
976	255	214	255
977	252	203	252
978	250	197	250
979	255	201	254
980	255	199	254
981	253	194	252
982	255	197	255
983	254	193	254
984	255	192	254
985	254	191	254
986	250	183	249
987	255	190	255
988	254	187	254
989	252	183	252
990	255	188	255
991	251	183	250
992	253	187	252
993	255	192	255
994	255	196	255
995	255	196	254
996	251	193	250
997	254	200	253
998	248	196	248
999	253	206	253
1000	255	229	255
1001	253	216	253
1002	0	0	0
1003	0	0	0
1004	0	0	0
1005	0	0	0
1006	0	0	0
1007	0	0	0
1008	0	0	0
1009	0	0	0
1010	0	0	0
1011	255	220	255
1012	251	209	251
1013	246	199	246
1014	251	203	251
1015	255	207	255
1016	254	203	254
1017	253	199	253
1018	253	197	252
1019	250	192	250
1020	250	191	250
1021	250	189	250
1022	253	194	253
1023	255	200	255
1024	255	195	255
1025	253	191	253
1026	252	189	252
1027	247	184	247
1028	251	191	250
1029	253	197	253
1030	252	198	252
1031	251	198	251
1032	254	206	254
1033	0	0	0
1034	0	0	0
1035	0	0	0
1036	255	227	255
1037	0	0	0
1038	0	0	0
1039	0	0	0
1040	0	0	0
1041	0	0	0
1042	0	0	0
1043	0	0	0
1044	0	0	0
1045	0	0	0
1046	255	231	255
1047	253	218	253
1048	247	207	247
1049	253	212	253
1050	255	217	255
1051	255	213	255
1052	255	209	255
1053	255	207	255
1054	254	204	254
1055	253	200	253
1056	253	199	253
1057	252	198	252
1058	255	202	254
1059	255	207	255
1060	255	202	254
1061	255	202	255
1062	254	200	254
1063	249	195	249
1064	0	0	0
1065	0	0	0
1066	0	0	0
1067	0	0	0
1068	0	0	0
1069	0	0	0
1070	0	0	0
1071	0	0	0
1072	0	0	0
1073	0	0	0
1074	0	0	0
1075	0	0	0
1076	0	0	0
1077	0	0	0
1078	0	0	0
1079	0	0	0
1080	0	0	0
1081	0	0	0
1082	251	225	251
1083	244	211	244
1084	251	218	251
1085	255	224	255
1086	255	221	255
1087	255	218	255
1088	255	216	255
1089	255	214	255
1090	255	211	255
1091	254	207	253
1092	254	207	254
1093	253	205	252
1094	255	209	255
1095	255	214	255
1096	255	212	255
1097	255	212	255
1098	255	210	255
1099	0	0	0
1100	0	0	0
1101	0	0	0
1102	0	0	0
1103	0	0	0
1104	0	0	0
1105	0	0	0
1106	0	0	0
1107	0	0	0
1108	0	0	0
1109	0	0	0
1110	0	0	0
1111	0	0	0
1112	0	0	0
1113	0	0	0
1114	0	0	0
1115	0	0	0
1116	0	0	0
1117	0	0	0
1118	0	0	0
1119	253	230	252
1120	255	237	255
1121	255	230	255
1122	255	227	255
1123	254	221	254
1124	254	219	254
1125	254	217	254
1126	253	214	253
1127	254	214	253
1128	254	213	253
1129	254	214	254
1130	255	218	255
1131	255	219	255
1132	255	217	255
1133	254	215	254
1134	0	0	0
1135	0	0	0
1136	0	0	0
1137	0	0	0
1138	0	0	0
1139	0	0	0
1140	0	0	0
1141	0	0	0
1142	0	0	0
1143	0	0	0
1144	0	0	0
1145	0	0	0
1146	0	0	0
1147	0	0	0
1148	0	0	0
1149	0	0	0
1150	0	0	0
1151	0	0	0
1152	0	0	0
1153	0	0	0
1154	0	0	0
1155	0	0	0
1156	255	241	255
1157	255	234	254
1158	253	228	253
1159	250	222	250
1160	251	221	251
1161	250	218	250
1162	252	220	252
1163	253	219	253
1164	255	222	255
1165	255	222	255
1166	255	222	255
1167	255	223	255
1168	254	221	253
1169	0	0	0
1170	0	0	0
1171	0	0	0
1172	0	0	0
1173	0	0	0
1174	0	0	0
1175	0	0	0
1176	0	0	0
1177	0	0	0
1178	0	0	0
1179	0	0	0
1180	0	0	0
1181	0	0	0
1182	0	0	0
1183	0	0	0
1184	0	0	0
1185	0	0	0
1186	0	0	0
1187	0	0	0
1188	0	0	0
1189	0	0	0
1190	0	0	0
1191	0	0	0
1192	0	0	0
1193	0	0	0
1194	0	0	0
1195	0	0	0
1196	0	0	0
1197	0	0	0
1198	0	0	0
1199	253	227	253
1200	255	229	255
1201	255	228	255
1202	0	0	0
1203	0	0	0
1204	0	0	0
1205	0	0	0
1206	0	0	0
1207	0	0	0
1208	0	0	0
1209	0	0	0
1210	0	0	0
1211	0	0	0
1212	0	0	0
1213	0	0	0
1214	0	0	0
1215	0	0	0
1216	0	0	0
1217	0	0	0
1218	0	0	0
1219	0	0	0
1220	0	0	0
1221	0	0	0
1222	0	0	0
1223	0	0	0
1224	0	0	0
