 	R	G	B
1	0	0	0
2	0	0	0
3	0	0	0
4	0	0	0
5	0	0	0
6	253	214	250
7	0	0	0
8	0	0	0
9	0	0	0
10	255	209	253
11	0	0	0
12	0	0	0
13	0	0	0
14	0	0	0
15	0	0	0
16	0	0	0
17	0	0	0
18	0	0	0
19	0	0	0
20	253	220	249
21	255	224	255
22	251	205	247
23	0	0	0
24	251	201	249
25	255	218	255
26	245	196	244
27	0	0	0
28	0	0	0
29	0	0	0
30	0	0	0
31	0	0	0
32	0	0	0
33	0	0	0
34	255	232	255
35	255	230	255
36	255	216	251
37	247	198	243
38	255	207	253
39	255	210	255
40	251	198	249
41	233	176	232
42	252	209	250
43	0	0	0
44	0	0	0
45	0	0	0
46	0	0	0
47	0	0	0
48	255	235	254
49	255	233	255
50	255	221	252
51	251	207	247
52	246	195	243
53	255	204	254
54	254	198	252
55	245	187	243
56	243	187	242
57	255	220	255
58	252	216	249
59	0	0	0
60	0	0	0
61	0	0	0
62	0	0	0
63	255	234	254
64	253	222	250
65	250	211	247
66	249	203	246
67	245	191	244
68	250	193	249
69	247	187	246
70	255	198	253
71	254	198	251
72	255	206	252
73	245	202	242
74	0	0	0
75	0	0	0
76	0	0	0
77	0	0	0
78	255	238	255
79	255	226	252
80	255	217	251
81	254	208	252
82	252	199	251
83	255	201	255
84	246	183	245
85	255	194	253
86	246	184	243
87	247	192	245
88	244	197	242
89	0	0	0
90	0	0	0
91	0	0	0
92	0	0	0
93	255	242	255
94	255	230	255
95	255	221	254
96	255	213	253
97	255	203	252
98	249	190	248
99	239	173	237
100	242	175	240
101	234	166	233
102	245	186	244
103	242	190	241
104	0	0	0
105	0	0	0
106	0	0	0
107	0	0	0
108	255	236	255
109	255	224	250
110	254	215	249
111	252	206	247
112	255	204	250
113	249	192	246
114	249	188	247
115	253	191	252
116	246	181	245
117	255	201	255
118	240	185	240
119	0	0	0
120	0	0	0
121	0	0	0
122	255	238	255
123	255	232	254
124	255	222	250
125	254	212	248
126	255	209	249
127	255	207	251
128	255	205	252
129	255	202	255
130	255	202	255
131	255	193	253
132	255	195	254
133	238	180	237
134	0	0	0
135	0	0	0
136	255	241	255
137	255	237	255
138	252	219	247
139	249	209	243
140	253	209	247
141	254	205	247
142	255	205	248
143	255	203	250
144	253	192	248
145	255	193	252
146	249	182	247
147	249	184	248
148	234	172	234
149	0	0	0
150	0	0	0
151	0	0	0
152	252	223	249
153	244	206	241
154	248	206	244
155	251	205	246
156	254	205	248
157	255	205	249
158	254	196	246
159	250	185	245
160	252	183	248
161	245	172	243
162	245	176	245
163	230	163	230
164	248	199	247
165	0	0	0
166	0	0	0
167	0	0	0
168	0	0	0
169	0	0	0
170	255	215	253
171	255	214	254
172	255	202	248
173	253	193	245
174	252	186	248
175	255	185	252
176	242	166	241
177	244	170	243
178	241	175	240
179	255	211	255
180	255	228	255
181	0	0	0
182	254	222	252
183	255	219	254
184	255	221	255
185	255	223	255
186	255	209	250
187	253	198	245
188	253	191	246
189	252	185	248
190	251	177	249
191	238	159	237
192	252	181	252
193	250	186	249
194	255	210	255
195	255	226	255
196	252	223	250
197	254	220	252
198	252	214	251
199	255	215	253
200	255	216	252
201	253	203	244
202	255	200	247
203	255	195	249
204	255	187	252
205	253	179	252
206	240	159	239
207	254	181	253
208	245	177	243
209	253	200	250
210	255	218	251
211	0	0	0
212	250	215	248
213	248	207	247
214	251	208	248
215	254	208	247
216	255	205	246
217	255	203	251
218	255	198	254
219	255	190	255
220	255	180	255
221	243	161	242
222	248	171	247
223	239	167	239
224	251	194	249
225	253	212	250
226	0	0	0
227	0	0	0
228	255	219	255
229	255	219	255
230	255	212	250
231	255	208	250
232	255	199	250
233	255	193	253
234	249	171	245
235	246	162	243
236	242	157	241
237	248	168	247
238	247	175	247
239	255	202	255
240	251	206	249
241	0	0	0
242	0	0	0
243	255	229	255
244	255	219	254
245	255	212	250
246	253	200	246
247	253	191	246
248	248	175	242
249	237	152	232
250	246	160	242
251	243	156	241
252	254	174	252
253	253	181	252
254	254	194	253
255	248	198	246
256	0	0	0
257	0	0	0
258	0	0	0
259	252	210	248
260	255	221	255
261	255	210	254
262	255	194	250
263	252	178	245
264	241	156	236
265	250	164	246
266	243	155	242
267	253	173	252
268	248	174	248
269	250	186	250
270	248	196	247
271	0	0	0
272	0	0	0
273	0	0	0
274	0	0	0
275	255	231	255
276	255	209	254
277	255	193	248
278	251	177	245
279	241	156	237
280	247	159	244
281	240	150	239
282	245	161	245
283	241	163	240
284	247	181	247
285	245	191	244
286	0	0	0
287	0	0	0
288	0	0	0
289	0	0	0
290	255	222	255
291	254	201	249
292	254	191	248
293	250	175	245
294	241	156	238
295	246	160	245
296	247	161	247
297	254	174	253
298	247	171	247
299	253	189	253
300	247	194	247
301	0	0	0
302	0	0	0
303	0	0	0
304	0	0	0
305	255	213	254
306	251	197	248
307	251	188	248
308	248	174	245
309	238	154	237
310	250	167	249
311	251	169	251
312	255	179	255
313	250	176	250
314	255	192	255
315	248	196	248
316	0	0	0
317	0	0	0
318	0	0	0
319	0	0	0
320	255	224	255
321	255	208	255
322	253	193	251
323	250	179	248
324	247	169	246
325	255	182	255
326	254	174	253
327	255	183	255
328	243	167	242
329	247	182	247
330	246	195	246
331	0	0	0
332	0	0	0
333	0	0	0
334	255	226	255
335	255	234	255
336	255	213	255
337	255	197	250
338	255	194	255
339	255	185	254
340	255	188	255
341	255	180	254
342	253	175	251
343	237	158	236
344	247	183	247
345	246	195	246
346	0	0	0
347	0	0	0
348	0	0	0
349	255	222	255
350	255	228	255
351	254	206	249
352	255	203	252
353	255	200	255
354	250	176	246
355	255	179	253
356	245	163	242
357	241	158	239
358	238	161	237
359	248	185	248
360	250	203	250
361	0	0	0
362	0	0	0
363	0	0	0
364	0	0	0
365	255	227	255
366	255	217	255
367	255	213	255
368	255	192	250
369	243	167	239
370	243	161	240
371	232	145	231
372	242	160	241
373	238	161	238
374	250	189	250
375	251	207	251
376	0	0	0
377	0	0	0
378	0	0	0
379	0	0	0
380	255	221	255
381	255	211	254
382	255	202	252
383	247	180	242
384	248	174	244
385	247	168	245
386	239	156	238
387	248	170	248
388	243	172	243
389	254	199	254
390	253	213	254
391	0	0	0
392	0	0	0
393	0	0	0
394	0	0	0
395	254	212	253
396	249	199	246
397	247	189	244
398	248	184	245
399	249	178	247
400	249	174	248
401	240	161	240
402	250	178	250
403	245	179	245
404	255	204	255
405	0	0	0
406	0	0	0
407	0	0	0
408	255	225	255
409	255	221	254
410	255	227	255
411	255	213	255
412	250	195	247
413	250	189	248
414	253	187	252
415	251	182	251
416	246	175	246
417	255	192	255
418	243	180	243
419	0	0	0
420	0	0	0
421	0	0	0
422	255	232	255
423	255	235	255
424	255	234	255
425	255	239	255
426	255	216	254
427	250	199	247
428	254	199	252
429	255	196	255
430	255	196	255
431	253	189	252
432	255	192	254
433	241	180	241
434	0	0	0
435	0	0	0
436	0	0	0
437	255	230	255
438	254	222	250
439	255	221	250
440	255	228	255
441	248	205	243
442	255	209	252
443	255	208	255
444	255	199	253
445	255	199	255
446	252	190	250
447	253	193	252
448	237	177	236
449	0	0	0
450	0	0	0
451	254	225	253
452	252	220	250
453	248	213	246
454	253	217	250
455	255	223	255
456	255	220	255
457	255	224	255
458	255	214	255
459	255	203	252
460	255	200	253
461	252	192	250
462	250	190	249
463	233	174	233
464	0	0	0
465	0	0	0
466	255	230	255
467	255	225	254
468	251	216	250
469	255	221	254
470	255	221	254
471	255	218	253
472	255	220	255
473	255	209	252
474	253	202	249
475	254	199	250
476	247	188	245
477	244	185	244
478	0	0	0
479	0	0	0
480	0	0	0
481	0	0	0
482	255	225	253
483	252	217	249
484	255	219	252
485	255	218	252
486	255	218	253
487	255	220	255
488	255	210	253
489	254	203	251
490	252	197	250
491	0	0	0
492	0	0	0
493	0	0	0
494	0	0	0
495	0	0	0
496	0	0	0
497	0	0	0
498	255	224	253
499	255	225	255
500	253	215	250
501	255	214	251
502	255	219	255
503	255	209	251
504	255	206	253
505	252	199	251
506	0	0	0
507	0	0	0
508	0	0	0
509	0	0	0
510	0	0	0
511	0	0	0
512	0	0	0
513	255	230	255
514	255	221	253
515	252	212	249
516	255	217	255
517	255	221	255
518	255	214	253
519	255	210	255
520	253	201	251
521	0	0	0
522	0	0	0
523	0	0	0
524	0	0	0
525	0	0	0
526	0	0	0
527	0	0	0
528	255	229	255
529	255	221	253
530	249	207	247
531	255	212	253
532	255	213	252
533	252	205	248
534	253	204	250
535	0	0	0
536	0	0	0
537	0	0	0
538	0	0	0
539	0	0	0
540	0	0	0
541	0	0	0
542	0	0	0
543	0	0	0
544	252	214	249
545	244	200	243
546	251	205	249
547	253	206	250
548	252	204	250
549	252	201	250
550	0	0	0
551	0	0	0
552	0	0	0
553	0	0	0
554	0	0	0
555	0	0	0
556	0	0	0
557	0	0	0
558	0	0	0
559	0	0	0
560	251	210	251
561	255	215	255
562	252	204	251
563	251	202	250
564	251	201	250
565	0	0	0
566	0	0	0
567	0	0	0
568	0	0	0
569	0	0	0
570	0	0	0
571	0	0	0
572	0	0	0
573	0	0	0
574	0	0	0
575	0	0	0
576	253	209	253
577	247	198	246
578	249	200	249
579	0	0	0
580	0	0	0
581	0	0	0
582	0	0	0
583	0	0	0
584	0	0	0
585	0	0	0
