 	R	G	B
1	0	0	0
2	0	0	0
3	0	0	0
4	0	0	0
5	0	0	0
6	246	217	242
7	0	0	0
8	0	0	0
9	0	0	0
10	0	0	0
11	0	0	0
12	0	0	0
13	0	0	0
14	0	0	0
15	0	0	0
16	0	0	0
17	0	0	0
18	0	0	0
19	0	0	0
20	0	0	0
21	0	0	0
22	0	0	0
23	0	0	0
24	0	0	0
25	0	0	0
26	0	0	0
27	0	0	0
28	0	0	0
29	0	0	0
30	0	0	0
31	0	0	0
32	0	0	0
33	0	0	0
34	0	0	0
35	0	0	0
36	0	0	0
37	0	0	0
38	0	0	0
39	0	0	0
40	246	213	241
41	251	223	247
42	238	208	235
43	0	0	0
44	0	0	0
45	0	0	0
46	0	0	0
47	0	0	0
48	0	0	0
49	0	0	0
50	0	0	0
51	0	0	0
52	0	0	0
53	0	0	0
54	0	0	0
55	0	0	0
56	0	0	0
57	0	0	0
58	0	0	0
59	0	0	0
60	0	0	0
61	0	0	0
62	0	0	0
63	0	0	0
64	0	0	0
65	0	0	0
66	0	0	0
67	0	0	0
68	0	0	0
69	0	0	0
70	0	0	0
71	0	0	0
72	0	0	0
73	248	212	245
74	253	218	250
75	252	217	246
76	239	204	235
77	229	191	228
78	0	0	0
79	251	220	244
80	252	219	243
81	0	0	0
82	0	0	0
83	0	0	0
84	0	0	0
85	0	0	0
86	0	0	0
87	0	0	0
88	0	0	0
89	0	0	0
90	0	0	0
91	0	0	0
92	0	0	0
93	0	0	0
94	0	0	0
95	0	0	0
96	0	0	0
97	0	0	0
98	0	0	0
99	0	0	0
100	0	0	0
101	0	0	0
102	0	0	0
103	0	0	0
104	0	0	0
105	0	0	0
106	0	0	0
107	255	221	251
108	247	203	244
109	249	206	246
110	246	206	240
111	233	193	230
112	236	198	238
113	249	215	249
114	251	215	244
115	252	213	241
116	248	210	240
117	0	0	0
118	0	0	0
119	0	0	0
120	0	0	0
121	0	0	0
122	0	0	0
123	0	0	0
124	0	0	0
125	0	0	0
126	0	0	0
127	0	0	0
128	0	0	0
129	0	0	0
130	0	0	0
131	0	0	0
132	0	0	0
133	0	0	0
134	0	0	0
135	0	0	0
136	0	0	0
137	0	0	0
138	0	0	0
139	0	0	0
140	0	0	0
141	244	213	240
142	246	204	240
143	238	187	234
144	241	194	239
145	239	194	234
146	237	197	235
147	240	202	243
148	243	205	243
149	243	205	237
150	246	205	236
151	244	203	237
152	243	209	241
153	0	0	0
154	0	0	0
155	0	0	0
156	0	0	0
157	0	0	0
158	0	0	0
159	0	0	0
160	0	0	0
161	0	0	0
162	0	0	0
163	0	0	0
164	0	0	0
165	0	0	0
166	0	0	0
167	0	0	0
168	0	0	0
169	0	0	0
170	0	0	0
171	0	0	0
172	0	0	0
173	0	0	0
174	0	0	0
175	0	0	0
176	251	220	245
177	249	208	243
178	245	198	242
179	250	206	249
180	242	196	238
181	242	201	240
182	242	204	243
183	240	203	241
184	242	206	238
185	245	207	238
186	245	204	239
187	251	214	247
188	0	0	0
189	0	0	0
190	0	0	0
191	0	0	0
192	0	0	0
193	0	0	0
194	0	0	0
195	0	0	0
196	0	0	0
197	0	0	0
198	0	0	0
199	0	0	0
200	0	0	0
201	0	0	0
202	0	0	0
203	0	0	0
204	0	0	0
205	0	0	0
206	0	0	0
207	0	0	0
208	0	0	0
209	0	0	0
210	0	0	0
211	255	223	246
212	255	216	247
213	250	206	246
214	249	204	246
215	241	195	236
216	242	200	238
217	242	202	240
218	244	206	242
219	247	211	244
220	248	208	242
221	248	205	240
222	242	196	236
223	237	187	234
224	0	0	0
225	0	0	0
226	0	0	0
227	0	0	0
228	0	0	0
229	0	0	0
230	0	0	0
231	0	0	0
232	0	0	0
233	0	0	0
234	0	0	0
235	0	0	0
236	0	0	0
237	0	0	0
238	0	0	0
239	0	0	0
240	0	0	0
241	0	0	0
242	0	0	0
243	0	0	0
244	0	0	0
245	0	0	0
246	252	221	243
247	253	215	246
248	247	202	242
249	246	200	242
250	244	200	239
251	247	205	241
252	248	205	242
253	254	212	248
254	246	198	239
255	246	196	238
256	255	207	243
257	247	197	237
258	250	200	244
259	255	215	255
260	255	208	244
261	0	0	0
262	0	0	0
263	0	0	0
264	0	0	0
265	0	0	0
266	0	0	0
267	0	0	0
268	0	0	0
269	0	0	0
270	0	0	0
271	0	0	0
272	0	0	0
273	0	0	0
274	0	0	0
275	0	0	0
276	0	0	0
277	0	0	0
278	0	0	0
279	0	0	0
280	0	0	0
281	248	218	241
282	250	210	242
283	244	197	238
284	247	203	244
285	248	204	241
286	251	207	243
287	253	208	246
288	248	198	241
289	240	184	235
290	252	198	244
291	255	208	247
292	255	206	242
293	254	206	243
294	252	204	241
295	247	198	236
296	250	202	238
297	0	0	0
298	254	211	242
299	253	214	241
300	0	0	0
301	0	0	0
302	0	0	0
303	0	0	0
304	0	0	0
305	0	0	0
306	0	0	0
307	0	0	0
308	0	0	0
309	0	0	0
310	0	0	0
311	0	0	0
312	0	0	0
313	0	0	0
314	0	0	0
315	0	0	0
316	252	225	245
317	253	217	246
318	244	201	239
319	247	206	244
320	250	208	243
321	255	214	248
322	250	197	240
323	241	185	233
324	243	187	238
325	255	202	248
326	255	203	244
327	248	199	237
328	245	199	236
329	241	195	233
330	243	198	236
331	250	204	241
332	255	215	247
333	255	221	250
334	249	204	236
335	251	211	239
336	0	0	0
337	0	0	0
338	0	0	0
339	0	0	0
340	0	0	0
341	0	0	0
342	0	0	0
343	0	0	0
344	0	0	0
345	0	0	0
346	0	0	0
347	0	0	0
348	0	0	0
349	0	0	0
350	0	0	0
351	0	0	0
352	248	216	242
353	240	200	236
354	246	205	242
355	250	208	242
356	248	197	236
357	239	181	227
358	239	184	230
359	242	186	234
360	252	195	242
361	253	197	242
362	248	197	240
363	246	197	239
364	246	200	240
365	248	203	243
366	255	215	249
367	255	224	251
368	255	209	239
369	243	192	231
370	0	0	0
371	0	0	0
372	0	0	0
373	0	0	0
374	0	0	0
375	0	0	0
376	0	0	0
377	0	0	0
378	0	0	0
379	0	0	0
380	0	0	0
381	0	0	0
382	0	0	0
383	0	0	0
384	0	0	0
385	0	0	0
386	0	0	0
387	0	0	0
388	245	213	241
389	255	222	251
390	252	209	243
391	248	197	237
392	243	188	232
393	243	192	236
394	245	193	238
395	255	202	246
396	253	197	242
397	252	198	242
398	253	201	244
399	255	205	245
400	255	204	244
401	255	213	248
402	255	206	239
403	245	191	227
404	248	197	236
405	0	0	0
406	0	0	0
407	0	0	0
408	0	0	0
409	0	0	0
410	0	0	0
411	0	0	0
412	0	0	0
413	0	0	0
414	0	0	0
415	0	0	0
416	0	0	0
417	0	0	0
418	0	0	0
419	0	0	0
420	0	0	0
421	0	0	0
422	0	0	0
423	253	228	246
424	252	218	243
425	249	207	240
426	254	205	243
427	249	197	241
428	250	200	245
429	251	201	246
430	254	199	245
431	251	194	239
432	253	198	240
433	254	200	240
434	253	199	239
435	253	198	239
436	250	194	235
437	245	188	229
438	250	196	234
439	252	202	240
440	0	0	0
441	0	0	0
442	0	0	0
443	0	0	0
444	0	0	0
445	0	0	0
446	0	0	0
447	0	0	0
448	0	0	0
449	0	0	0
450	0	0	0
451	0	0	0
452	0	0	0
453	0	0	0
454	0	0	0
455	0	0	0
456	0	0	0
457	0	0	0
458	254	229	243
459	250	217	239
460	252	211	240
461	255	210	246
462	249	193	238
463	252	198	244
464	251	196	243
465	250	193	241
466	254	197	242
467	255	202	243
468	248	192	234
469	246	191	232
470	254	202	240
471	253	199	238
472	251	195	235
473	255	203	241
474	251	201	237
475	0	0	0
476	0	0	0
477	0	0	0
478	0	0	0
479	0	0	0
480	0	0	0
481	0	0	0
482	0	0	0
483	0	0	0
484	0	0	0
485	0	0	0
486	0	0	0
487	0	0	0
488	0	0	0
489	0	0	0
490	0	0	0
491	0	0	0
492	0	0	0
493	0	0	0
494	250	219	237
495	251	212	238
496	250	202	237
497	242	185	229
498	250	192	238
499	250	191	240
500	255	199	247
501	255	204	248
502	254	196	241
503	247	187	235
504	253	198	242
505	255	208	248
506	255	207	245
507	255	203	243
508	255	205	242
509	253	202	235
510	0	0	0
511	0	0	0
512	0	0	0
513	0	0	0
514	0	0	0
515	0	0	0
516	0	0	0
517	0	0	0
518	0	0	0
519	0	0	0
520	0	0	0
521	0	0	0
522	0	0	0
523	0	0	0
524	0	0	0
525	0	0	0
526	0	0	0
527	0	0	0
528	0	0	0
529	0	0	0
530	255	220	240
531	0	0	0
532	247	192	233
533	255	201	245
534	248	185	237
535	255	193	244
536	255	194	243
537	248	186	236
538	251	190	240
539	255	201	247
540	255	197	242
541	254	194	239
542	253	193	237
543	252	194	235
544	254	200	233
545	0	0	0
546	0	0	0
547	0	0	0
548	0	0	0
549	0	0	0
550	0	0	0
551	0	0	0
552	0	0	0
553	0	0	0
554	0	0	0
555	0	0	0
556	0	0	0
557	0	0	0
558	0	0	0
559	0	0	0
560	0	0	0
561	0	0	0
562	0	0	0
563	0	0	0
564	0	0	0
565	0	0	0
566	0	0	0
567	250	197	238
568	249	190	240
569	240	174	231
570	248	181	238
571	249	183	236
572	253	188	239
573	255	192	241
574	253	189	239
575	251	186	237
576	250	185	236
577	249	184	234
578	254	194	236
579	255	199	232
580	254	199	230
581	0	0	0
582	0	0	0
583	0	0	0
584	0	0	0
585	0	0	0
586	0	0	0
587	0	0	0
588	0	0	0
589	0	0	0
590	0	0	0
591	0	0	0
592	0	0	0
593	0	0	0
594	0	0	0
595	0	0	0
596	0	0	0
597	0	0	0
598	0	0	0
599	0	0	0
600	0	0	0
601	0	0	0
602	255	206	242
603	253	198	244
604	246	184	237
605	255	193	245
606	255	188	240
607	255	194	244
608	250	180	235
609	248	178	233
610	253	186	238
611	252	185	237
612	255	190	239
613	255	200	242
614	252	190	229
615	250	190	227
616	255	201	238
617	255	203	240
618	250	197	235
619	0	0	0
620	0	0	0
621	0	0	0
622	0	0	0
623	0	0	0
624	0	0	0
625	0	0	0
626	0	0	0
627	0	0	0
628	0	0	0
629	0	0	0
630	0	0	0
631	0	0	0
632	0	0	0
633	0	0	0
634	0	0	0
635	0	0	0
636	255	216	234
637	255	214	241
638	255	203	240
639	249	190	235
640	253	191	239
641	252	186	235
642	247	176	230
643	239	164	226
644	249	176	235
645	252	182	236
646	255	188	237
647	255	193	238
648	253	187	233
649	247	181	229
650	254	192	236
651	255	200	239
652	253	195	234
653	247	189	230
654	255	204	239
655	0	0	0
656	0	0	0
657	0	0	0
658	0	0	0
659	0	0	0
660	0	0	0
661	0	0	0
662	0	0	0
663	0	0	0
664	0	0	0
665	0	0	0
666	0	0	0
667	0	0	0
668	0	0	0
669	0	0	0
670	255	226	237
671	255	222	238
672	254	207	234
673	249	196	232
674	251	193	235
675	255	194	238
676	254	190	235
677	249	181	232
678	251	181	238
679	255	194	248
680	251	179	233
681	255	186	235
682	254	187	234
683	249	181	230
684	255	189	238
685	255	200	246
686	251	187	233
687	245	181	226
688	254	197	236
689	255	212	246
690	255	208	242
691	0	0	0
692	0	0	0
693	0	0	0
694	0	0	0
695	0	0	0
696	0	0	0
697	0	0	0
698	0	0	0
699	0	0	0
700	0	0	0
701	0	0	0
702	0	0	0
703	0	0	0
704	0	0	0
705	255	231	241
706	252	216	235
707	246	200	231
708	251	200	237
709	252	197	238
710	255	197	239
711	253	192	234
712	254	192	235
713	255	192	241
714	254	185	239
715	245	172	228
716	250	178	233
717	251	180	234
718	254	187	237
719	255	193	240
720	251	183	233
721	241	172	226
722	252	189	237
723	255	204	244
724	255	201	240
725	250	198	239
726	253	206	244
727	0	0	0
728	0	0	0
729	0	0	0
730	0	0	0
731	0	0	0
732	0	0	0
733	0	0	0
734	0	0	0
735	0	0	0
736	0	0	0
737	0	0	0
738	0	0	0
739	0	0	0
740	254	233	242
741	249	217	236
742	246	206	235
743	251	206	241
744	251	200	240
745	255	200	241
746	249	189	232
747	249	188	231
748	255	196	240
749	255	191	239
750	249	178	232
751	255	185	239
752	253	182	238
753	255	189	241
754	255	187	237
755	246	176	228
756	248	181	233
757	255	199	245
758	255	202	243
759	255	199	239
760	254	201	241
761	255	211	247
762	254	206	240
763	0	0	0
764	0	0	0
765	0	0	0
766	0	0	0
767	0	0	0
768	0	0	0
769	0	0	0
770	0	0	0
771	0	0	0
772	0	0	0
773	0	0	0
774	0	0	0
775	253	235	243
776	251	223	240
777	249	212	239
778	252	209	243
779	253	204	243
780	254	200	243
781	249	190	235
782	255	197	240
783	255	204	245
784	255	194	239
785	252	182	234
786	255	184	238
787	254	182	238
788	254	183	238
789	252	181	236
790	253	185	237
791	254	189	238
792	255	194	239
793	255	197	237
794	254	198	234
795	253	199	233
796	250	196	230
797	246	193	229
798	0	0	0
799	251	211	235
800	250	223	239
801	255	238	247
802	255	238	245
803	0	0	0
804	0	0	0
805	0	0	0
806	0	0	0
807	0	0	0
808	0	0	0
809	0	0	0
810	254	239	245
811	255	229	243
812	252	215	241
813	255	213	244
814	255	206	243
815	255	201	243
816	251	191	237
817	255	199	243
818	255	195	239
819	252	184	232
820	251	180	233
821	255	183	239
822	248	173	233
823	249	174	233
824	255	185	240
825	255	188	240
826	255	189	238
827	255	194	238
828	255	195	236
829	253	196	233
830	253	198	230
831	249	195	227
832	254	204	235
833	255	216	244
834	250	207	234
835	254	221	240
836	255	229	242
837	250	227	237
838	250	231	238
839	0	0	0
840	0	0	0
841	0	0	0
842	0	0	0
843	0	0	0
844	0	0	0
845	0	0	0
846	254	229	242
847	251	216	240
848	253	211	241
849	252	203	237
850	251	197	235
851	247	188	230
852	249	186	232
853	249	184	232
854	250	181	233
855	250	177	235
856	248	173	234
857	241	163	227
858	251	177	236
859	255	187	242
860	255	189	241
861	254	189	238
862	254	191	237
863	253	193	237
864	253	195	235
865	252	198	231
866	255	204	234
867	255	211	238
868	253	206	234
869	244	199	230
870	250	211	237
871	252	219	237
872	250	223	236
873	248	227	235
874	0	0	0
875	0	0	0
876	0	0	0
877	0	0	0
878	0	0	0
879	0	0	0
880	0	0	0
881	0	0	0
882	250	221	240
883	253	217	241
884	250	205	235
885	251	200	235
886	249	194	234
887	252	193	237
888	253	191	238
889	254	188	240
890	254	184	240
891	252	179	239
892	246	170	233
893	255	184	241
894	255	187	241
895	255	189	239
896	254	188	236
897	253	190	235
898	255	196	239
899	254	198	237
900	255	206	237
901	255	213	239
902	252	204	232
903	244	197	227
904	248	206	235
905	255	221	244
906	254	219	239
907	252	223	238
908	248	224	234
909	0	0	0
910	0	0	0
911	0	0	0
912	0	0	0
913	0	0	0
914	0	0	0
915	0	0	0
916	0	0	0
917	253	229	240
918	251	219	236
919	250	209	236
920	255	208	242
921	254	202	242
922	254	198	241
923	253	194	239
924	253	189	238
925	252	184	237
926	251	180	236
927	246	173	232
928	253	182	238
929	253	184	236
930	252	185	233
931	250	185	229
932	253	191	232
933	255	198	238
934	255	207	242
935	255	214	243
936	255	207	236
937	249	199	232
938	250	206	236
939	253	214	238
940	255	217	240
941	253	216	239
942	249	218	237
943	0	0	0
944	0	0	0
945	0	0	0
946	0	0	0
947	0	0	0
948	0	0	0
949	0	0	0
950	0	0	0
951	0	0	0
952	255	234	243
953	252	222	237
954	248	208	236
955	254	208	242
956	252	200	240
957	250	195	237
958	255	202	241
959	254	196	238
960	252	189	237
961	253	187	238
962	252	183	236
963	255	191	241
964	253	185	235
965	252	187	232
966	254	192	233
967	255	200	237
968	255	197	236
969	255	206	241
970	255	202	235
971	249	195	228
972	254	204	237
973	255	213	242
974	255	213	238
975	255	215	239
976	249	209	235
977	0	0	0
978	0	0	0
979	0	0	0
980	0	0	0
981	0	0	0
982	0	0	0
983	0	0	0
984	0	0	0
985	0	0	0
986	0	0	0
987	0	0	0
988	249	220	238
989	245	206	235
990	250	204	239
991	248	196	234
992	254	203	239
993	255	210	242
994	255	202	238
995	254	196	239
996	255	195	242
997	254	191	236
998	254	189	235
999	250	185	232
1000	254	193	237
1001	255	199	239
1002	255	197	237
1003	253	194	235
1004	252	194	234
1005	249	192	230
1006	254	201	235
1007	255	210	239
1008	255	210	238
1009	254	210	239
1010	252	208	237
1011	246	203	233
1012	250	217	241
1013	0	0	0
1014	0	0	0
1015	0	0	0
1016	0	0	0
1017	0	0	0
1018	0	0	0
1019	0	0	0
1020	0	0	0
1021	0	0	0
1022	0	0	0
1023	0	0	0
1024	246	213	238
1025	252	211	242
1026	249	202	236
1027	255	210	241
1028	255	208	237
1029	251	199	232
1030	248	192	234
1031	250	192	235
1032	254	196	235
1033	255	195	235
1034	251	189	233
1035	255	198	240
1036	255	203	241
1037	255	201	240
1038	252	193	234
1039	251	193	233
1040	255	199	236
1041	255	209	241
1042	254	204	235
1043	251	203	234
1044	252	207	238
1045	249	204	236
1046	251	210	238
1047	255	227	249
1048	252	218	239
1049	0	0	0
1050	0	0	0
1051	0	0	0
1052	0	0	0
1053	0	0	0
1054	0	0	0
1055	0	0	0
1056	0	0	0
1057	0	0	0
1058	0	0	0
1059	0	0	0
1060	252	216	243
1061	250	207	238
1062	255	209	239
1063	255	207	234
1064	249	198	229
1065	246	191	230
1066	255	200	239
1067	255	205	239
1068	255	202	237
1069	255	196	236
1070	255	202	241
1071	255	206	242
1072	255	198	237
1073	250	190	232
1074	255	199	237
1075	255	205	239
1076	255	202	235
1077	250	197	231
1078	250	200	234
1079	250	204	237
1080	253	209	240
1081	255	214	240
1082	252	211	235
1083	242	202	225
1084	0	0	0
1085	0	0	0
1086	0	0	0
1087	0	0	0
1088	0	0	0
1089	0	0	0
1090	0	0	0
1091	0	0	0
1092	0	0	0
1093	0	0	0
1094	0	0	0
1095	0	0	0
1096	254	216	242
1097	255	219	244
1098	251	203	231
1099	0	0	0
1100	255	205	237
1101	255	214	246
1102	249	190	229
1103	247	187	227
1104	255	198	236
1105	255	204	241
1106	255	198	236
1107	250	191	231
1108	251	192	233
1109	255	202	240
1110	253	196	234
1111	248	192	229
1112	253	201	236
1113	255	205	239
1114	252	204	239
1115	253	208	240
1116	250	207	236
1117	246	203	231
1118	247	208	231
1119	255	226	241
1120	0	0	0
1121	0	0	0
1122	0	0	0
1123	0	0	0
1124	0	0	0
1125	0	0	0
1126	0	0	0
1127	0	0	0
1128	0	0	0
1129	0	0	0
1130	0	0	0
1131	0	0	0
1132	253	213	236
1133	0	0	0
1134	0	0	0
1135	0	0	0
1136	250	196	230
1137	237	174	219
1138	250	190	233
1139	255	200	237
1140	254	196	233
1141	250	191	231
1142	250	191	233
1143	251	193	236
1144	250	191	235
1145	245	185	230
1146	252	196	236
1147	255	203	239
1148	253	202	236
1149	250	201	236
1150	249	201	237
1151	247	201	235
1152	249	208	239
1153	251	213	241
1154	250	215	239
1155	0	0	0
1156	0	0	0
1157	0	0	0
1158	0	0	0
1159	0	0	0
1160	0	0	0
1161	0	0	0
1162	0	0	0
1163	0	0	0
1164	0	0	0
1165	0	0	0
1166	0	0	0
1167	0	0	0
1168	0	0	0
1169	0	0	0
1170	0	0	0
1171	0	0	0
1172	249	193	232
1173	255	209	246
1174	253	195	233
1175	249	190	229
1176	252	194	234
1177	252	195	236
1178	253	198	238
1179	251	195	237
1180	253	197	239
1181	255	208	247
1182	250	195	235
1183	244	192	230
1184	255	208	241
1185	255	211	244
1186	247	199	235
1187	248	205	239
1188	253	217	245
1189	251	218	241
1190	0	0	0
1191	0	0	0
1192	0	0	0
1193	0	0	0
1194	0	0	0
1195	0	0	0
1196	0	0	0
1197	0	0	0
1198	0	0	0
1199	0	0	0
1200	0	0	0
1201	0	0	0
1202	0	0	0
1203	0	0	0
1204	0	0	0
1205	0	0	0
1206	0	0	0
1207	0	0	0
1208	252	198	233
1209	244	186	225
1210	251	193	233
1211	254	197	238
1212	253	198	238
1213	253	200	237
1214	255	201	238
1215	255	203	240
1216	252	196	237
1217	242	185	229
1218	249	199	236
1219	255	214	244
1220	255	206	238
1221	245	194	232
1222	251	209	241
1223	254	220	243
1224	0	0	0
1225	0	0	0
1226	0	0	0
1227	0	0	0
1228	0	0	0
1229	0	0	0
1230	0	0	0
1231	0	0	0
1232	0	0	0
1233	0	0	0
1234	0	0	0
1235	0	0	0
1236	0	0	0
1237	0	0	0
1238	0	0	0
1239	0	0	0
1240	0	0	0
1241	0	0	0
1242	0	0	0
1243	0	0	0
1244	0	0	0
1245	255	204	241
1246	249	192	234
1247	249	194	233
1248	255	211	240
1249	255	211	239
1250	255	203	236
1251	251	197	233
1252	250	196	235
1253	255	211	244
1254	255	215	244
1255	255	206	237
1256	245	194	232
1257	251	210	242
1258	247	211	236
1259	0	0	0
1260	0	0	0
1261	0	0	0
1262	0	0	0
1263	0	0	0
1264	0	0	0
1265	0	0	0
1266	0	0	0
1267	0	0	0
1268	0	0	0
1269	0	0	0
1270	0	0	0
1271	0	0	0
1272	0	0	0
1273	0	0	0
1274	0	0	0
1275	0	0	0
1276	0	0	0
1277	0	0	0
1278	0	0	0
1279	255	206	239
1280	252	199	237
1281	244	188	231
1282	255	207	242
1283	255	222	243
1284	255	211	232
1285	255	204	231
1286	255	205	234
1287	255	204	235
1288	255	209	239
1289	255	215	242
1290	254	205	236
1291	244	193	230
1292	246	202	236
1293	243	204	235
1294	251	219	242
1295	0	0	0
1296	0	0	0
1297	0	0	0
1298	0	0	0
1299	0	0	0
1300	0	0	0
1301	0	0	0
1302	0	0	0
1303	0	0	0
1304	0	0	0
1305	0	0	0
1306	0	0	0
1307	0	0	0
1308	0	0	0
1309	0	0	0
1310	0	0	0
1311	0	0	0
1312	0	0	0
1313	255	210	239
1314	253	203	236
1315	249	196	233
1316	251	199	238
1317	255	218	249
1318	255	208	233
1319	249	197	222
1320	251	199	226
1321	251	200	228
1322	254	205	233
1323	255	210	237
1324	255	212	240
1325	251	202	234
1326	250	201	235
1327	253	211	242
1328	248	206	238
1329	255	223	247
1330	255	225	243
1331	0	0	0
1332	0	0	0
1333	0	0	0
1334	0	0	0
1335	0	0	0
1336	0	0	0
1337	0	0	0
1338	0	0	0
1339	0	0	0
1340	0	0	0
1341	0	0	0
1342	0	0	0
1343	0	0	0
1344	0	0	0
1345	0	0	0
1346	0	0	0
1347	0	0	0
1348	252	208	235
1349	249	201	232
1350	253	205	237
1351	255	207	240
1352	254	203	237
1353	248	195	229
1354	249	196	229
1355	250	198	230
1356	254	203	233
1357	255	207	234
1358	253	206	233
1359	254	208	235
1360	254	207	236
1361	252	206	237
1362	251	207	238
1363	244	202	234
1364	246	208	235
1365	0	0	0
1366	0	0	0
1367	0	0	0
1368	0	0	0
1369	0	0	0
1370	0	0	0
1371	0	0	0
1372	0	0	0
1373	0	0	0
1374	0	0	0
1375	0	0	0
1376	0	0	0
1377	0	0	0
1378	0	0	0
1379	0	0	0
1380	0	0	0
1381	0	0	0
1382	251	210	235
1383	245	202	230
1384	252	208	236
1385	255	214	242
1386	255	208	238
1387	254	204	236
1388	249	196	233
1389	251	198	234
1390	255	209	239
1391	255	213	240
1392	250	201	230
1393	0	0	0
1394	255	220	242
1395	255	219	242
1396	252	206	235
1397	251	207	237
1398	247	207	236
1399	0	0	0
1400	0	0	0
1401	0	0	0
1402	0	0	0
1403	0	0	0
1404	0	0	0
1405	0	0	0
1406	0	0	0
1407	0	0	0
1408	0	0	0
1409	0	0	0
1410	0	0	0
1411	0	0	0
1412	0	0	0
1413	0	0	0
1414	0	0	0
1415	0	0	0
1416	0	0	0
1417	244	203	227
1418	251	211	234
1419	255	218	242
1420	255	213	240
1421	253	206	234
1422	249	199	231
1423	245	193	230
1424	254	205	239
1425	255	215	241
1426	253	206	233
1427	245	196	227
1428	0	0	0
1429	255	233	248
1430	255	217	237
1431	249	205	233
1432	255	214	242
1433	253	215	242
1434	0	0	0
1435	0	0	0
1436	0	0	0
1437	0	0	0
1438	0	0	0
1439	0	0	0
1440	0	0	0
1441	0	0	0
1442	0	0	0
1443	0	0	0
1444	0	0	0
1445	0	0	0
1446	0	0	0
1447	0	0	0
1448	0	0	0
1449	0	0	0
1450	0	0	0
1451	0	0	0
1452	250	214	233
1453	255	223	243
1454	253	212	239
1455	249	205	235
1456	252	209	235
1457	249	202	232
1458	252	205	237
1459	255	218	246
1460	255	212	238
1461	250	203	231
1462	248	202	231
1463	0	0	0
1464	0	0	0
1465	249	209	229
1466	0	0	0
1467	255	220	245
1468	0	0	0
1469	0	0	0
1470	0	0	0
1471	0	0	0
1472	0	0	0
1473	0	0	0
1474	0	0	0
1475	0	0	0
1476	0	0	0
1477	0	0	0
1478	0	0	0
1479	0	0	0
1480	0	0	0
1481	0	0	0
1482	0	0	0
1483	0	0	0
1484	0	0	0
1485	0	0	0
1486	0	0	0
1487	0	0	0
1488	252	216	238
1489	247	205	234
1490	251	210	239
1491	254	214	241
1492	255	215	241
1493	255	216	242
1494	255	213	240
1495	253	208	235
1496	252	209	236
1497	250	207	235
1498	0	0	0
1499	0	0	0
1500	0	0	0
1501	0	0	0
1502	0	0	0
1503	0	0	0
1504	0	0	0
1505	0	0	0
1506	0	0	0
1507	0	0	0
1508	0	0	0
1509	0	0	0
1510	0	0	0
1511	0	0	0
1512	0	0	0
1513	0	0	0
1514	0	0	0
1515	0	0	0
1516	0	0	0
1517	0	0	0
1518	0	0	0
1519	0	0	0
1520	0	0	0
1521	0	0	0
1522	0	0	0
1523	0	0	0
1524	248	210	237
1525	254	216	244
1526	254	215	242
1527	255	216	241
1528	255	216	241
1529	254	213	238
1530	254	213	238
1531	254	213	239
1532	250	209	236
1533	0	0	0
1534	0	0	0
1535	0	0	0
1536	0	0	0
1537	0	0	0
1538	0	0	0
1539	0	0	0
1540	0	0	0
1541	0	0	0
1542	0	0	0
1543	0	0	0
1544	0	0	0
1545	0	0	0
1546	0	0	0
1547	0	0	0
1548	0	0	0
1549	0	0	0
1550	0	0	0
1551	0	0	0
1552	0	0	0
1553	0	0	0
1554	0	0	0
1555	0	0	0
1556	0	0	0
1557	0	0	0
1558	0	0	0
1559	0	0	0
1560	252	215	240
1561	251	214	240
1562	253	216	241
1563	253	216	241
1564	251	214	238
1565	251	214	237
1566	250	212	236
1567	0	0	0
1568	0	0	0
1569	0	0	0
1570	0	0	0
1571	0	0	0
1572	0	0	0
1573	0	0	0
1574	0	0	0
1575	0	0	0
1576	0	0	0
1577	0	0	0
1578	0	0	0
1579	0	0	0
1580	0	0	0
1581	0	0	0
1582	0	0	0
1583	0	0	0
1584	0	0	0
1585	0	0	0
1586	0	0	0
1587	0	0	0
1588	0	0	0
1589	0	0	0
1590	0	0	0
1591	0	0	0
1592	0	0	0
1593	0	0	0
1594	0	0	0
1595	255	228	244
1596	252	219	240
1597	254	221	242
1598	249	217	239
1599	0	0	0
1600	0	0	0
1601	0	0	0
1602	0	0	0
1603	0	0	0
1604	0	0	0
1605	0	0	0
1606	0	0	0
1607	0	0	0
1608	0	0	0
1609	0	0	0
1610	0	0	0
1611	0	0	0
1612	0	0	0
1613	0	0	0
1614	0	0	0
1615	0	0	0
1616	0	0	0
1617	0	0	0
1618	0	0	0
1619	0	0	0
1620	0	0	0
1621	0	0	0
1622	0	0	0
1623	0	0	0
1624	0	0	0
1625	0	0	0
1626	0	0	0
1627	0	0	0
1628	0	0	0
1629	0	0	0
1630	0	0	0
1631	253	224	240
1632	253	223	240
1633	0	0	0
1634	0	0	0
1635	0	0	0
1636	0	0	0
1637	0	0	0
1638	0	0	0
1639	0	0	0
1640	0	0	0
1641	0	0	0
1642	0	0	0
1643	0	0	0
1644	0	0	0
1645	0	0	0
