 	R	G	B
1	0	0	0
2	0	0	0
3	0	0	0
4	0	0	0
5	0	0	0
6	0	0	0
7	245	229	244
8	0	0	0
9	0	0	0
10	0	0	0
11	0	0	0
12	0	0	0
13	0	0	0
14	0	0	0
15	0	0	0
16	0	0	0
17	0	0	0
18	0	0	0
19	0	0	0
20	0	0	0
21	0	0	0
22	0	0	0
23	243	226	240
24	242	221	239
25	242	213	238
26	0	0	0
27	0	0	0
28	0	0	0
29	0	0	0
30	0	0	0
31	0	0	0
32	0	0	0
33	0	0	0
34	0	0	0
35	0	0	0
36	0	0	0
37	0	0	0
38	0	0	0
39	243	221	235
40	239	217	234
41	239	213	233
42	243	212	238
43	0	0	0
44	0	0	0
45	0	0	0
46	0	0	0
47	0	0	0
48	0	0	0
49	0	0	0
50	0	0	0
51	0	0	0
52	0	0	0
53	0	0	0
54	0	0	0
55	0	0	0
56	246	230	239
57	252	231	244
58	244	215	236
59	245	212	240
60	0	0	0
61	0	0	0
62	0	0	0
63	0	0	0
64	0	0	0
65	0	0	0
66	0	0	0
67	0	0	0
68	0	0	0
69	0	0	0
70	0	0	0
71	0	0	0
72	0	0	0
73	255	243	247
74	255	232	244
75	249	216	238
76	245	208	239
77	0	0	0
78	0	0	0
79	0	0	0
80	0	0	0
81	0	0	0
82	0	0	0
83	0	0	0
84	0	0	0
85	0	0	0
86	0	0	0
87	0	0	0
88	0	0	0
89	0	0	0
90	255	238	245
91	255	225	242
92	249	209	237
93	244	201	238
94	0	0	0
95	0	0	0
96	0	0	0
97	0	0	0
98	0	0	0
99	0	0	0
100	0	0	0
101	0	0	0
102	0	0	0
103	0	0	0
104	0	0	0
105	0	0	0
106	0	0	0
107	251	228	239
108	249	214	237
109	244	200	234
110	244	196	239
111	0	0	0
112	0	0	0
113	0	0	0
114	0	0	0
115	0	0	0
116	0	0	0
117	0	0	0
118	0	0	0
119	0	0	0
120	0	0	0
121	0	0	0
122	0	0	0
123	0	0	0
124	248	230	240
125	246	216	238
126	248	207	240
127	254	207	248
128	0	0	0
129	0	0	0
130	0	0	0
131	0	0	0
132	0	0	0
133	0	0	0
134	0	0	0
135	0	0	0
136	0	0	0
137	0	0	0
138	0	0	0
139	0	0	0
140	0	0	0
141	250	234	243
142	250	222	241
143	251	212	242
144	247	197	240
145	228	171	226
146	0	0	0
147	0	0	0
148	0	0	0
149	0	0	0
150	0	0	0
151	0	0	0
152	0	0	0
153	0	0	0
154	0	0	0
155	0	0	0
156	0	0	0
157	0	0	0
158	255	236	245
159	255	225	243
160	249	208	238
161	239	190	232
162	236	183	234
163	251	206	253
164	0	0	0
165	0	0	0
166	0	0	0
167	0	0	0
168	0	0	0
169	0	0	0
170	0	0	0
171	0	0	0
172	0	0	0
173	0	0	0
174	0	0	0
175	255	237	245
176	252	220	240
177	245	203	234
178	249	203	242
179	246	197	244
180	241	189	243
181	226	169	230
182	0	0	0
183	0	0	0
184	0	0	0
185	0	0	0
186	0	0	0
187	0	0	0
188	0	0	0
189	0	0	0
190	0	0	0
191	0	0	0
192	252	233	242
193	246	215	236
194	241	199	232
195	251	203	244
196	241	185	239
197	231	174	234
198	232	180	238
199	0	0	0
200	0	0	0
201	0	0	0
202	0	0	0
203	0	0	0
204	0	0	0
205	0	0	0
206	0	0	0
207	0	0	0
208	0	0	0
209	250	230	240
210	245	213	236
211	242	198	235
212	245	192	240
213	235	174	234
214	239	185	243
215	240	190	245
216	0	0	0
217	0	0	0
218	0	0	0
219	0	0	0
220	0	0	0
221	0	0	0
222	0	0	0
223	0	0	0
224	0	0	0
225	0	0	0
226	250	229	240
227	250	215	239
228	245	198	238
229	244	189	241
230	233	172	234
231	241	184	245
232	240	186	243
233	0	0	0
234	238	190	238
235	0	0	0
236	0	0	0
237	0	0	0
238	0	0	0
239	0	0	0
240	0	0	0
241	0	0	0
242	0	0	0
243	250	227	240
244	248	211	237
245	244	194	237
246	244	188	242
247	233	170	235
248	238	179	244
249	238	182	243
250	241	186	243
251	233	183	235
252	238	203	239
253	0	0	0
254	0	0	0
255	0	0	0
256	0	0	0
257	0	0	0
258	0	0	0
259	0	0	0
260	254	230	243
261	249	213	239
262	243	192	236
263	246	188	243
264	231	165	235
265	233	174	243
266	234	179	243
267	237	184	242
268	238	193	241
269	244	212	245
270	238	213	235
271	0	0	0
272	0	0	0
273	0	0	0
274	0	0	0
275	0	0	0
276	0	0	0
277	255	234	245
278	251	213	239
279	244	192	236
280	243	182	241
281	228	161	234
282	234	174	245
283	234	178	245
284	242	193	249
285	243	201	246
286	237	202	237
287	0	0	0
288	0	0	0
289	0	0	0
290	0	0	0
291	0	0	0
292	0	0	0
293	0	0	0
294	255	226	242
295	249	204	237
296	242	185	235
297	238	174	238
298	230	162	237
299	238	176	249
300	234	177	244
301	241	190	248
302	238	193	241
303	0	0	0
304	0	0	0
305	0	0	0
306	0	0	0
307	0	0	0
308	0	0	0
309	0	0	0
310	255	228	238
311	255	217	241
312	249	199	239
313	241	180	237
314	240	176	243
315	231	163	238
316	239	175	247
317	235	174	242
318	237	183	243
319	235	187	240
320	0	0	0
321	0	0	0
322	0	0	0
323	0	0	0
324	0	0	0
325	0	0	0
326	255	236	240
327	253	222	237
328	253	210	239
329	248	192	238
330	245	183	241
331	242	177	245
332	232	163	238
333	241	175	247
334	240	176	243
335	240	184	243
336	237	188	241
337	0	0	0
338	0	0	0
339	0	0	0
340	0	0	0
341	0	0	0
342	249	233	237
343	253	230	239
344	247	213	233
345	246	200	234
346	250	195	240
347	247	184	242
348	238	174	240
349	228	159	234
350	241	173	245
351	241	175	241
352	242	184	241
353	239	189	237
354	0	0	0
355	0	0	0
356	0	0	0
357	0	0	0
358	251	243	243
359	255	239	244
360	251	224	237
361	238	203	228
362	243	201	236
363	252	197	244
364	245	181	238
365	232	168	234
366	233	168	238
367	249	184	250
368	243	177	241
369	246	186	241
370	242	188	236
371	0	0	0
372	0	0	0
373	0	0	0
374	0	0	0
375	254	245	243
376	255	233	241
377	250	218	235
378	244	209	235
379	248	205	242
380	251	196	244
381	242	178	236
382	239	179	239
383	240	178	242
384	249	184	247
385	245	177	239
386	247	185	240
387	244	187	236
388	0	0	0
389	0	0	0
390	0	0	0
391	0	0	0
392	255	247	246
393	255	235	244
394	252	215	234
395	250	208	236
396	251	204	242
397	245	189	239
398	238	176	233
399	240	179	239
400	240	175	239
401	248	180	243
402	244	173	236
403	247	181	239
404	242	183	234
405	0	0	0
406	0	0	0
407	0	0	0
408	0	0	0
409	0	0	0
410	250	225	235
411	243	205	224
412	245	201	227
413	247	197	234
414	247	190	238
415	243	179	237
416	247	181	243
417	246	177	242
418	248	176	243
419	242	169	237
420	243	176	238
421	238	177	233
422	0	0	0
423	0	0	0
424	0	0	0
425	0	0	0
426	0	0	0
427	0	0	0
428	244	217	230
429	250	215	235
430	249	199	235
431	255	197	243
432	248	176	237
433	253	179	245
434	248	170	240
435	244	167	238
436	242	170	239
437	238	174	237
438	237	181	236
439	0	0	0
440	0	0	0
441	0	0	0
442	0	0	0
443	0	0	0
444	0	0	0
445	255	236	245
446	253	218	239
447	252	203	240
448	252	189	240
449	244	168	233
450	248	168	238
451	240	158	232
452	243	167	238
453	240	170	239
454	241	180	242
455	241	187	240
456	0	0	0
457	0	0	0
458	0	0	0
459	0	0	0
460	0	0	0
461	0	0	0
462	255	228	241
463	251	208	234
464	250	195	236
465	245	179	234
466	244	171	234
467	246	171	239
468	237	160	232
469	239	168	237
470	242	176	241
471	251	190	248
472	242	183	237
473	0	0	0
474	0	0	0
475	0	0	0
476	0	0	0
477	0	0	0
478	0	0	0
479	253	216	236
480	249	201	231
481	247	188	231
482	249	184	237
483	246	175	236
484	245	174	239
485	236	163	233
486	243	176	242
487	247	183	244
488	248	184	241
489	0	0	0
490	0	0	0
491	0	0	0
492	0	0	0
493	0	0	0
494	0	0	0
495	0	0	0
496	255	220	238
497	253	204	234
498	251	191	233
499	254	188	238
500	244	173	234
501	239	169	235
502	233	161	232
503	246	177	244
504	241	172	237
505	0	0	0
506	0	0	0
507	0	0	0
508	0	0	0
509	0	0	0
510	0	0	0
511	0	0	0
512	0	0	0
513	255	219	236
514	255	206	233
515	252	192	230
516	253	186	233
517	244	171	231
518	239	169	236
519	234	162	236
520	239	165	240
521	236	161	233
522	0	0	0
523	0	0	0
524	0	0	0
525	0	0	0
526	0	0	0
527	0	0	0
528	0	0	0
529	0	0	0
530	255	220	236
531	255	207	233
532	251	190	229
533	253	184	233
534	242	166	229
535	238	164	234
536	235	160	236
537	239	164	240
538	246	172	244
539	255	189	252
540	244	173	234
541	0	0	0
542	0	0	0
543	0	0	0
544	0	0	0
545	0	0	0
546	0	0	0
547	255	223	239
548	254	205	233
549	251	189	232
550	250	179	234
551	239	160	229
552	240	163	236
553	236	158	235
554	250	174	248
555	255	183	252
556	247	172	241
557	231	155	225
558	238	172	230
559	0	0	0
560	0	0	0
561	0	0	0
562	0	0	0
563	0	0	0
564	255	220	238
565	251	200	231
566	253	193	235
567	252	182	236
568	245	167	234
569	248	172	244
570	238	155	236
571	251	171	248
572	245	165	242
573	231	151	228
574	238	166	233
575	248	186	241
576	250	194	239
577	255	211	244
578	0	0	0
579	0	0	0
580	0	0	0
581	252	213	235
582	251	202	233
583	252	193	232
584	250	182	233
585	244	168	232
586	243	162	236
587	234	147	233
588	242	154	241
589	235	147	232
590	240	163	237
591	246	179	240
592	249	188	239
593	252	196	240
594	254	200	238
595	248	200	232
596	0	0	0
597	0	0	0
598	254	221	239
599	255	211	237
600	252	197	231
601	250	186	230
602	246	174	233
603	247	169	239
604	237	151	237
605	245	158	246
606	238	150	236
607	245	168	241
608	247	178	239
609	249	186	238
610	249	192	238
611	246	194	234
612	242	197	230
613	0	0	0
614	0	0	0
615	255	230	243
616	255	216	237
617	255	202	231
618	254	192	232
619	251	181	235
620	245	167	236
621	235	149	233
622	241	154	242
623	235	148	235
624	242	163	241
625	244	173	238
626	246	180	235
627	245	186	235
628	241	190	232
629	236	193	228
630	0	0	0
631	0	0	0
632	255	227	239
633	255	213	234
634	251	196	227
635	252	186	229
636	249	176	231
637	241	161	230
638	240	157	235
639	244	162	243
640	243	163	243
641	252	180	250
642	248	179	242
643	251	187	240
644	249	192	238
645	242	195	234
646	239	201	232
647	0	0	0
648	0	0	0
649	0	0	0
650	249	205	229
651	246	189	227
652	248	182	230
653	244	170	230
654	250	173	238
655	247	168	240
656	252	177	247
657	250	177	245
658	251	183	246
659	248	183	241
660	252	192	242
661	250	197	239
662	248	204	238
663	0	0	0
664	0	0	0
665	0	0	0
666	0	0	0
667	0	0	0
668	253	202	238
669	253	194	240
670	244	173	233
671	254	178	243
672	244	163	234
673	245	169	238
674	242	169	237
675	243	175	239
676	239	174	234
677	241	183	235
678	247	196	237
679	251	206	239
680	0	0	0
681	0	0	0
682	0	0	0
683	0	0	0
684	0	0	0
685	255	213	243
686	250	194	239
687	243	175	234
688	250	174	241
689	240	158	230
690	240	164	235
691	237	165	236
692	235	167	235
693	230	167	231
694	237	181	235
695	242	194	236
696	244	200	234
697	0	0	0
698	0	0	0
699	0	0	0
700	0	0	0
701	0	0	0
702	254	212	239
703	245	192	234
704	245	182	238
705	253	181	245
706	239	159	231
707	242	167	237
708	242	173	241
709	237	174	239
710	238	183	240
711	245	198	245
712	241	197	236
713	0	0	0
714	0	0	0
715	0	0	0
716	0	0	0
717	0	0	0
718	0	0	0
719	253	212	236
720	249	199	235
721	248	189	238
722	248	178	239
723	235	158	229
724	246	174	242
725	245	180	243
726	245	190	246
727	247	199	247
728	246	202	243
729	241	200	235
730	0	0	0
731	0	0	0
732	0	0	0
733	0	0	0
734	0	0	0
735	0	0	0
736	254	212	235
737	251	200	235
738	248	189	236
739	243	176	235
740	241	171	236
741	254	189	250
742	235	169	234
743	236	180	237
744	242	194	242
745	244	198	239
746	237	193	230
747	0	0	0
748	0	0	0
749	0	0	0
750	0	0	0
751	0	0	0
752	0	0	0
753	0	0	0
754	247	199	233
755	244	188	233
756	250	189	241
757	248	184	241
758	241	176	238
759	224	157	225
760	231	175	236
761	238	190	241
762	238	189	235
763	231	185	226
764	236	198	229
765	0	0	0
766	0	0	0
767	0	0	0
768	0	0	0
769	0	0	0
770	0	0	0
771	0	0	0
772	245	198	236
773	255	204	247
774	244	180	236
775	234	170	232
776	229	170	233
777	239	189	245
778	237	191	241
779	235	190	235
780	238	196	234
781	246	212	240
782	240	207	231
783	0	0	0
784	0	0	0
785	0	0	0
786	0	0	0
787	0	0	0
788	0	0	0
789	251	211	240
790	254	200	241
791	242	178	232
792	243	184	240
793	239	184	240
794	241	191	243
795	238	192	238
796	242	200	240
797	245	208	240
798	240	204	233
799	235	199	228
800	0	0	0
801	0	0	0
802	0	0	0
803	0	0	0
804	0	0	0
805	0	0	0
806	249	208	237
807	250	196	237
808	242	178	233
809	247	187	243
810	241	182	239
811	244	190	242
812	238	186	235
813	238	193	236
814	237	197	234
815	230	192	227
816	233	199	231
817	0	0	0
818	0	0	0
819	0	0	0
820	0	0	0
821	0	0	0
822	0	0	0
823	250	207	238
824	252	197	240
825	243	179	236
826	245	183	242
827	239	178	238
828	241	183	240
829	235	179	234
830	231	183	233
831	230	187	233
832	231	193	234
833	234	199	236
834	0	0	0
835	0	0	0
836	0	0	0
837	0	0	0
838	0	0	0
839	0	0	0
840	255	214	243
841	255	203	244
842	244	180	236
843	244	184	242
844	240	181	241
845	242	186	243
846	232	178	234
847	229	182	233
848	238	200	242
849	243	208	245
850	239	204	238
851	0	0	0
852	0	0	0
853	0	0	0
854	0	0	0
855	0	0	0
856	0	0	0
857	0	0	0
858	251	199	237
859	238	177	229
860	239	182	237
861	237	181	240
862	239	183	243
863	230	175	234
864	237	193	241
865	245	210	246
866	245	209	240
867	240	205	233
868	0	0	0
869	0	0	0
870	0	0	0
871	0	0	0
872	0	0	0
873	0	0	0
874	0	0	0
875	0	0	0
876	239	187	231
877	241	192	241
878	235	183	239
879	240	187	245
880	233	180	237
881	241	198	244
882	243	206	241
883	242	204	234
884	0	0	0
885	0	0	0
886	0	0	0
887	0	0	0
888	0	0	0
889	0	0	0
890	0	0	0
891	0	0	0
892	0	0	0
893	244	199	236
894	240	193	238
895	235	184	238
896	241	189	244
897	235	183	237
898	239	194	241
899	242	202	239
900	0	0	0
901	0	0	0
902	0	0	0
903	0	0	0
904	0	0	0
905	0	0	0
906	0	0	0
907	0	0	0
908	0	0	0
909	0	0	0
910	0	0	0
911	246	200	241
912	238	186	237
913	242	190	242
914	239	188	240
915	243	200	245
916	237	195	236
917	0	0	0
918	0	0	0
919	0	0	0
920	0	0	0
921	0	0	0
922	0	0	0
923	0	0	0
924	0	0	0
925	0	0	0
926	0	0	0
927	0	0	0
928	245	200	240
929	237	186	233
930	245	194	243
931	242	193	243
932	235	189	238
933	0	0	0
934	0	0	0
935	0	0	0
936	0	0	0
937	0	0	0
938	0	0	0
939	0	0	0
940	0	0	0
941	0	0	0
942	0	0	0
943	0	0	0
944	250	215	242
945	245	205	240
946	236	188	232
947	248	198	244
948	240	190	239
949	0	0	0
950	0	0	0
951	0	0	0
952	0	0	0
953	0	0	0
954	0	0	0
955	0	0	0
956	0	0	0
957	0	0	0
958	0	0	0
959	0	0	0
960	0	0	0
961	251	220	241
962	241	204	234
963	233	188	230
964	241	192	237
965	0	0	0
966	0	0	0
967	0	0	0
968	0	0	0
969	0	0	0
970	0	0	0
971	0	0	0
972	0	0	0
973	0	0	0
974	0	0	0
975	0	0	0
976	0	0	0
977	0	0	0
978	0	0	0
979	235	201	228
980	0	0	0
981	0	0	0
982	0	0	0
983	0	0	0
984	0	0	0
985	0	0	0
986	0	0	0
