247.47
217.47
232.64
245.27
211.76
228.08
251.13
196.55
231.33
244.91
187.44
228.23
249.23
177.34
231.24
249.74
194.79
228.63
225.61
183.80
230.95
251.67
198.84
233.25
190.11
163.64
219.06
250.53
192.86
230.19
249.81
193.84
228.15
189.42
166.93
217.98
249.84
198.33
228.52
227.60
193.08
225.62
233.08
199.09
227.95
248.93
187.68
230.76
248.00
186.12
227.83
249.57
192.26
232.83
218.53
175.05
219.41
231.70
194.01
229.66
244.71
199.31
232.90
248.72
186.45
224.30
246.20
189.65
231.47
247.74
195.93
224.81
246.56
196.20
230.08
207.93
184.93
221.35
203.06
191.12
230.93
248.94
187.29
230.02
245.52
200.67
227.81
214.88
187.35
227.25
226.70
183.84
225.22
226.84
189.64
226.34
234.50
199.02
229.22
246.06
195.56
228.98
249.30
196.38
228.93
245.10
189.66
224.96
237.51
201.73
228.87
224.52
198.69
234.15
242.86
224.20
227.58
231.55
226.18
227.22
182.30
166.52
217.59
245.26
196.67
230.84
203.66
181.82
221.92
250.34
195.91
229.85
243.07
185.21
231.60
