246.02
204.87
226.12
249.73
198.72
229.35
249.99
193.43
229.66
168.93
161.61
218.46
249.88
198.75
230.62
247.26
186.90
229.49
248.95
185.55
226.15
245.63
195.79
226.25
247.96
187.44
232.40
247.97
195.40
228.07
243.31
192.12
229.76
240.03
176.00
223.25
249.72
183.11
227.13
231.25
197.13
233.38
235.13
191.78
228.93
243.36
215.28
228.56
247.90
195.21
228.22
235.06
179.87
224.36
176.63
161.73
209.78
232.95
197.33
231.31
180.16
173.30
220.00
225.03
181.92
224.69
234.20
189.58
226.00
240.91
221.46
220.48
251.33
199.17
231.60
246.46
188.43
227.40
227.23
173.87
221.50
251.91
186.37
227.24
247.95
185.17
229.63
247.51
187.49
226.79
249.46
176.83
228.72
235.76
193.24
228.47
247.87
171.24
225.57
251.24
183.51
226.75
220.17
182.08
223.72
212.40
184.94
218.93
240.01
182.06
230.71
248.61
192.97
230.62
249.14
192.72
227.24
240.58
201.19
232.36
245.65
190.40
228.63
250.03
200.40
232.96
239.99
180.76
228.82
196.14
177.27
223.86
238.48
193.43
226.51
240.46
186.81
221.02
245.30
197.40
230.79
246.47
194.67
225.35
251.55
199.00
227.48
246.52
192.02
230.76
249.65
191.07
232.37
245.24
191.14
227.11
