 	R	G	B
1	0	0	0
2	0	0	0
3	0	0	0
4	0	0	0
5	0	0	0
6	0	0	0
7	255	238	239
8	255	240	239
9	255	237	237
10	255	233	236
11	255	230	233
12	254	227	231
13	255	232	233
14	255	236	234
15	255	235	233
16	255	235	234
17	255	238	236
18	255	240	237
19	255	239	237
20	255	238	238
21	255	243	241
22	0	0	0
23	0	0	0
24	0	0	0
25	0	0	0
26	0	0	0
27	0	0	0
28	0	0	0
29	0	0	0
30	0	0	0
31	0	0	0
32	0	0	0
33	0	0	0
34	0	0	0
35	0	0	0
36	255	224	235
37	255	227	237
38	251	213	225
39	249	210	223
40	255	221	232
41	255	217	230
42	253	216	228
43	255	220	230
44	254	218	227
45	253	217	226
46	254	219	228
47	255	222	229
48	255	223	229
49	252	222	227
50	255	229	233
51	255	233	235
52	255	234	235
53	0	0	0
54	0	0	0
55	0	0	0
56	0	0	0
57	0	0	0
58	0	0	0
59	0	0	0
60	0	0	0
61	0	0	0
62	0	0	0
63	0	0	0
64	252	212	230
65	255	213	232
66	255	211	231
67	247	199	223
68	237	185	213
69	246	197	221
70	253	207	228
71	252	205	227
72	251	204	224
73	251	203	224
74	249	201	222
75	251	204	225
76	252	206	227
77	254	210	228
78	253	212	227
79	255	218	229
80	255	224	232
81	255	224	230
82	255	225	229
83	255	237	235
84	0	0	0
85	0	0	0
86	0	0	0
87	0	0	0
88	0	0	0
89	0	0	0
90	0	0	0
91	0	0	0
92	0	0	0
93	254	212	232
94	255	211	234
95	255	211	237
96	251	199	229
97	244	188	222
98	251	197	228
99	255	208	235
100	255	201	230
101	254	200	228
102	254	199	226
103	254	199	226
104	253	197	225
105	255	200	228
106	254	200	228
107	255	204	230
108	253	202	227
109	255	207	228
110	255	210	227
111	254	211	225
112	253	213	225
113	255	225	231
114	255	223	226
115	0	0	0
116	0	0	0
117	0	0	0
118	0	0	0
119	0	0	0
120	0	0	0
121	0	0	0
122	0	0	0
123	254	206	231
124	255	205	233
125	250	194	229
126	244	183	226
127	253	194	235
128	255	203	237
129	255	197	232
130	252	190	226
131	254	192	228
132	255	192	228
133	254	191	227
134	252	189	224
135	252	189	224
136	251	189	223
137	252	191	225
138	250	189	224
139	252	194	226
140	252	197	225
141	252	200	224
142	252	203	224
143	251	203	223
144	247	202	220
145	252	212	226
146	0	0	0
147	0	0	0
148	0	0	0
149	0	0	0
150	0	0	0
151	0	0	0
152	255	207	235
153	255	203	232
154	255	199	232
155	249	188	229
156	250	186	231
157	255	197	240
158	255	198	237
159	255	193	232
160	250	182	225
161	254	185	228
162	252	181	227
163	251	180	225
164	253	183	226
165	253	184	225
166	252	182	225
167	253	184	226
168	249	180	223
169	251	185	225
170	255	193	228
171	255	196	228
172	254	196	226
173	253	197	226
174	251	197	226
175	255	207	231
176	253	208	230
177	0	0	0
178	0	0	0
179	0	0	0
180	0	0	0
181	250	196	233
182	252	198	229
183	248	191	224
184	248	187	226
185	249	186	228
186	248	183	226
187	251	185	228
188	254	187	230
189	250	179	226
190	245	169	222
191	249	171	226
192	247	168	225
193	249	171	226
194	250	174	226
195	246	170	222
196	245	169	222
197	244	167	221
198	240	162	214
199	247	174	221
200	252	183	226
201	253	185	226
202	251	184	225
203	251	186	226
204	248	186	224
205	242	186	222
206	241	187	221
207	0	0	0
208	0	0	0
209	0	0	0
210	0	0	0
211	251	199	235
212	255	205	235
213	254	199	231
214	253	193	231
215	254	192	232
216	252	187	228
217	255	190	231
218	255	190	234
219	255	183	232
220	248	168	226
221	251	170	231
222	245	162	225
223	246	165	226
224	255	182	234
225	254	179	230
226	254	179	232
227	254	178	232
228	251	174	227
229	255	187	234
230	255	181	229
231	255	182	230
232	246	172	222
233	247	175	223
234	251	189	231
235	241	186	225
236	250	201	234
237	255	216	243
238	247	196	224
239	0	0	0
240	0	0	0
241	0	0	0
242	255	208	239
243	254	200	234
244	252	193	232
245	253	191	232
246	251	187	228
247	253	186	229
248	255	186	233
249	248	172	227
250	241	158	222
251	239	154	222
252	233	146	215
253	245	164	225
254	255	182	234
255	254	180	231
256	255	181	232
257	255	182	234
258	255	180	233
259	254	177	230
260	249	171	226
261	243	163	220
262	235	153	211
263	247	173	224
264	252	188	232
265	248	195	232
266	255	209	239
267	249	196	229
268	234	176	214
269	240	193	223
270	0	0	0
271	0	0	0
272	255	212	244
273	255	204	239
274	251	194	234
275	252	192	234
276	255	194	234
277	255	193	235
278	253	184	233
279	246	170	227
280	248	171	232
281	247	168	231
282	249	173	230
283	255	191	241
284	255	192	239
285	255	190	237
286	254	180	232
287	255	182	234
288	251	174	230
289	250	171	228
290	252	174	229
291	246	166	224
292	248	171	225
293	255	191	238
294	254	188	233
295	252	197	236
296	251	201	235
297	236	183	221
298	241	189	226
299	255	211	240
300	250	203	231
301	0	0	0
302	0	0	0
303	249	201	239
304	246	191	234
305	250	194	236
306	253	195	235
307	249	185	230
308	246	177	228
309	248	179	233
310	251	180	237
311	255	189	243
312	255	193	238
313	255	194	236
314	255	196	240
315	255	186	234
316	250	176	228
317	245	169	224
318	241	161	221
319	245	166	225
320	247	169	225
321	251	175	228
322	252	180	229
323	253	183	230
324	247	180	227
325	243	183	227
326	240	187	228
327	237	189	227
328	241	196	231
329	243	194	230
330	0	0	0
331	0	0	0
332	255	220	252
333	249	206	241
334	255	212	246
335	255	215	249
336	253	199	237
337	248	189	232
338	252	193	237
339	255	194	240
340	255	191	241
341	255	201	245
342	254	190	232
343	255	192	232
344	254	188	233
345	248	179	229
346	255	188	235
347	252	181	232
348	250	177	231
349	254	182	235
350	253	181	232
351	255	188	235
352	254	186	233
353	254	189	234
354	250	189	233
355	247	192	234
356	243	195	234
357	237	196	232
358	241	202	235
359	0	0	0
360	0	0	0
361	249	217	246
362	250	218	244
363	252	220	243
364	255	227	249
365	253	212	241
366	246	198	235
367	251	201	238
368	253	203	238
369	251	199	235
370	250	196	234
371	248	191	232
372	243	183	226
373	243	180	226
374	242	177	225
375	249	186	233
376	255	196	239
377	255	192	237
378	253	188	235
379	255	190	237
380	254	189	235
381	255	190	235
382	251	188	233
383	249	189	233
384	246	190	233
385	245	195	234
386	242	198	233
387	237	199	231
388	0	0	0
389	0	0	0
390	0	0	0
391	0	0	0
392	245	227	242
393	249	230	243
394	247	223	239
395	242	209	232
396	251	216	242
397	255	220	246
398	254	214	239
399	250	209	235
400	251	210	236
401	249	205	235
402	250	202	235
403	253	202	238
404	253	198	237
405	255	207	244
406	255	201	240
407	255	197	237
408	252	192	233
409	254	194	235
410	255	198	238
411	255	200	239
412	251	194	234
413	0	0	0
414	0	0	0
415	0	0	0
416	0	0	0
417	0	0	0
418	0	0	0
419	0	0	0
420	0	0	0
421	0	0	0
422	0	0	0
423	244	231	238
424	243	225	235
425	251	230	242
426	255	235	248
427	255	231	246
428	254	225	240
429	253	224	239
430	255	226	242
431	254	221	240
432	255	218	239
433	255	216	240
434	255	212	239
435	255	208	238
436	252	203	236
437	250	199	234
438	246	194	229
439	251	199	233
440	254	204	237
441	254	203	237
442	0	0	0
443	0	0	0
444	0	0	0
445	0	0	0
446	0	0	0
447	0	0	0
448	0	0	0
449	0	0	0
450	0	0	0
