 	R	G	B
1	0	0	0
2	0	0	0
3	0	0	0
4	0	0	0
5	0	0	0
6	0	0	0
7	0	0	0
8	0	0	0
9	242	205	227
10	250	215	233
11	253	222	235
12	250	220	231
13	0	0	0
14	0	0	0
15	0	0	0
16	0	0	0
17	0	0	0
18	0	0	0
19	0	0	0
20	0	0	0
21	0	0	0
22	0	0	0
23	0	0	0
24	0	0	0
25	0	0	0
26	0	0	0
27	0	0	0
28	0	0	0
29	0	0	0
30	0	0	0
31	0	0	0
32	0	0	0
33	0	0	0
34	0	0	0
35	0	0	0
36	0	0	0
37	0	0	0
38	0	0	0
39	0	0	0
40	0	0	0
41	0	0	0
42	0	0	0
43	0	0	0
44	0	0	0
45	0	0	0
46	0	0	0
47	0	0	0
48	0	0	0
49	0	0	0
50	0	0	0
51	0	0	0
52	0	0	0
53	248	216	236
54	247	210	231
55	255	220	238
56	255	216	232
57	255	217	230
58	249	210	226
59	0	0	0
60	0	0	0
61	0	0	0
62	0	0	0
63	0	0	0
64	0	0	0
65	0	0	0
66	0	0	0
67	0	0	0
68	0	0	0
69	0	0	0
70	0	0	0
71	0	0	0
72	0	0	0
73	0	0	0
74	0	0	0
75	0	0	0
76	0	0	0
77	0	0	0
78	0	0	0
79	0	0	0
80	0	0	0
81	0	0	0
82	0	0	0
83	0	0	0
84	0	0	0
85	0	0	0
86	0	0	0
87	0	0	0
88	0	0	0
89	0	0	0
90	0	0	0
91	0	0	0
92	0	0	0
93	0	0	0
94	0	0	0
95	0	0	0
96	0	0	0
97	247	221	238
98	250	218	236
99	251	213	234
100	253	212	233
101	252	208	227
102	250	205	224
103	244	199	221
104	0	0	0
105	0	0	0
106	0	0	0
107	0	0	0
108	0	0	0
109	0	0	0
110	0	0	0
111	0	0	0
112	0	0	0
113	0	0	0
114	0	0	0
115	0	0	0
116	0	0	0
117	0	0	0
118	0	0	0
119	0	0	0
120	0	0	0
121	0	0	0
122	0	0	0
123	0	0	0
124	0	0	0
125	0	0	0
126	0	0	0
127	0	0	0
128	0	0	0
129	0	0	0
130	0	0	0
131	0	0	0
132	0	0	0
133	0	0	0
134	0	0	0
135	0	0	0
136	0	0	0
137	0	0	0
138	0	0	0
139	0	0	0
140	235	206	233
141	246	219	240
142	247	216	236
143	248	211	232
144	245	204	228
145	246	202	227
146	248	205	226
147	248	202	224
148	244	197	222
149	0	0	0
150	0	0	0
151	0	0	0
152	0	0	0
153	0	0	0
154	0	0	0
155	0	0	0
156	0	0	0
157	0	0	0
158	0	0	0
159	0	0	0
160	0	0	0
161	0	0	0
162	0	0	0
163	0	0	0
164	0	0	0
165	0	0	0
166	0	0	0
167	0	0	0
168	0	0	0
169	0	0	0
170	0	0	0
171	0	0	0
172	0	0	0
173	0	0	0
174	0	0	0
175	0	0	0
176	0	0	0
177	0	0	0
178	0	0	0
179	0	0	0
180	0	0	0
181	0	0	0
182	238	223	237
183	228	206	231
184	231	208	234
185	231	205	230
186	239	208	232
187	242	207	231
188	242	202	228
189	239	194	222
190	245	200	226
191	249	203	228
192	249	202	226
193	245	197	223
194	248	206	229
195	251	214	232
196	0	0	0
197	0	0	0
198	0	0	0
199	0	0	0
200	0	0	0
201	0	0	0
202	0	0	0
203	0	0	0
204	0	0	0
205	0	0	0
206	0	0	0
207	0	0	0
208	0	0	0
209	0	0	0
210	0	0	0
211	0	0	0
212	0	0	0
213	0	0	0
214	0	0	0
215	0	0	0
216	0	0	0
217	0	0	0
218	0	0	0
219	0	0	0
220	0	0	0
221	0	0	0
222	0	0	0
223	0	0	0
224	0	0	0
225	0	0	0
226	243	237	242
227	234	221	234
228	230	214	233
229	231	215	236
230	233	213	234
231	243	217	238
232	241	207	232
233	241	202	230
234	238	193	224
235	249	201	230
236	250	201	229
237	249	198	226
238	247	196	225
239	252	206	232
240	249	206	230
241	249	208	230
242	0	0	0
243	0	0	0
244	0	0	0
245	0	0	0
246	0	0	0
247	0	0	0
248	0	0	0
249	0	0	0
250	0	0	0
251	0	0	0
252	0	0	0
253	0	0	0
254	0	0	0
255	0	0	0
256	0	0	0
257	0	0	0
258	0	0	0
259	0	0	0
260	0	0	0
261	0	0	0
262	0	0	0
263	0	0	0
264	0	0	0
265	0	0	0
266	0	0	0
267	0	0	0
268	0	0	0
269	0	0	0
270	0	0	0
271	243	238	242
272	238	230	237
273	235	223	235
274	239	225	239
275	242	223	239
276	243	216	236
277	241	206	230
278	240	199	228
279	238	191	227
280	246	196	231
281	246	194	226
282	245	193	223
283	243	192	224
284	246	196	228
285	243	196	227
286	243	202	228
287	0	0	0
288	0	0	0
289	0	0	0
290	0	0	0
291	0	0	0
292	0	0	0
293	0	0	0
294	0	0	0
295	0	0	0
296	0	0	0
297	0	0	0
298	0	0	0
299	0	0	0
300	0	0	0
301	0	0	0
302	0	0	0
303	0	0	0
304	0	0	0
305	0	0	0
306	0	0	0
307	0	0	0
308	0	0	0
309	0	0	0
310	0	0	0
311	0	0	0
312	0	0	0
313	0	0	0
314	0	0	0
315	0	0	0
316	243	237	241
317	236	228	235
318	237	224	234
319	249	230	242
320	243	214	234
321	239	204	229
322	245	208	232
323	246	202	232
324	242	193	231
325	246	196	234
326	245	196	227
327	243	194	224
328	241	192	225
329	244	197	230
330	239	195	226
331	0	0	0
332	0	0	0
333	0	0	0
334	0	0	0
335	0	0	0
336	0	0	0
337	0	0	0
338	0	0	0
339	0	0	0
340	0	0	0
341	0	0	0
342	0	0	0
343	0	0	0
344	0	0	0
345	0	0	0
346	0	0	0
347	0	0	0
348	0	0	0
349	0	0	0
350	0	0	0
351	0	0	0
352	0	0	0
353	0	0	0
354	0	0	0
355	0	0	0
356	0	0	0
357	0	0	0
358	0	0	0
359	0	0	0
360	0	0	0
361	242	236	240
362	235	228	235
363	236	224	234
364	237	214	231
365	232	199	224
366	237	203	229
367	243	206	232
368	243	199	230
369	239	190	228
370	245	196	233
371	244	197	228
372	242	195	225
373	241	193	227
374	245	198	231
375	240	195	225
376	241	205	227
377	0	0	0
378	250	218	230
379	0	0	0
380	0	0	0
381	0	0	0
382	0	0	0
383	0	0	0
384	0	0	0
385	0	0	0
386	0	0	0
387	0	0	0
388	0	0	0
389	0	0	0
390	0	0	0
391	0	0	0
392	0	0	0
393	0	0	0
394	0	0	0
395	0	0	0
396	0	0	0
397	0	0	0
398	0	0	0
399	0	0	0
400	0	0	0
401	0	0	0
402	0	0	0
403	0	0	0
404	0	0	0
405	0	0	0
406	243	239	242
407	238	232	239
408	237	227	237
409	233	214	230
410	234	209	230
411	241	215	237
412	239	206	232
413	237	198	230
414	235	190	229
415	243	198	235
416	241	194	228
417	241	193	226
418	242	192	228
419	248	198	232
420	243	193	225
421	245	204	228
422	252	215	233
423	254	214	230
424	248	206	224
425	0	0	0
426	0	0	0
427	244	216	224
428	0	0	0
429	0	0	0
430	0	0	0
431	0	0	0
432	0	0	0
433	0	0	0
434	0	0	0
435	0	0	0
436	0	0	0
437	0	0	0
438	0	0	0
439	0	0	0
440	0	0	0
441	0	0	0
442	0	0	0
443	0	0	0
444	0	0	0
445	0	0	0
446	0	0	0
447	0	0	0
448	0	0	0
449	0	0	0
450	0	0	0
451	247	243	246
452	241	235	241
453	239	230	239
454	238	225	237
455	238	220	235
456	240	215	235
457	238	207	233
458	235	199	231
459	232	191	230
460	239	194	234
461	239	191	230
462	238	190	228
463	238	187	226
464	242	190	227
465	239	187	222
466	245	198	227
467	252	209	232
468	249	203	226
469	243	195	219
470	249	206	226
471	249	213	228
472	242	212	224
473	242	216	225
474	250	224	230
475	252	229	232
476	0	0	0
477	0	0	0
478	0	0	0
479	0	0	0
480	0	0	0
481	0	0	0
482	0	0	0
483	0	0	0
484	0	0	0
485	0	0	0
486	0	0	0
487	0	0	0
488	0	0	0
489	0	0	0
490	0	0	0
491	0	0	0
492	0	0	0
493	0	0	0
494	0	0	0
495	0	0	0
496	252	249	249
497	247	241	245
498	241	232	240
499	239	226	238
500	237	218	233
501	240	214	234
502	236	204	232
503	230	194	228
504	238	201	236
505	248	206	243
506	238	189	231
507	234	186	228
508	235	188	227
509	238	190	227
510	242	194	229
511	254	208	237
512	253	206	233
513	244	197	224
514	245	198	224
515	253	210	232
516	248	209	227
517	241	208	223
518	247	219	229
519	255	229	236
520	253	222	230
521	246	221	226
522	0	0	0
523	0	0	0
524	0	0	0
525	0	0	0
526	0	0	0
527	0	0	0
528	0	0	0
529	0	0	0
530	0	0	0
531	0	0	0
532	0	0	0
533	0	0	0
534	0	0	0
535	0	0	0
536	0	0	0
537	0	0	0
538	0	0	0
539	0	0	0
540	0	0	0
541	0	0	0
542	246	241	242
543	241	232	239
544	239	224	237
545	236	216	232
546	237	209	231
547	234	200	230
548	239	206	236
549	245	211	239
550	241	199	232
551	232	182	225
552	235	188	230
553	237	191	231
554	240	195	232
555	244	199	235
556	249	200	234
557	247	198	229
558	244	198	226
559	244	200	227
560	245	203	227
561	241	201	222
562	241	207	223
563	248	218	229
564	253	218	230
565	247	211	223
566	243	216	224
567	0	0	0
568	0	0	0
569	0	0	0
570	0	0	0
571	0	0	0
572	0	0	0
573	0	0	0
574	0	0	0
575	0	0	0
576	0	0	0
577	0	0	0
578	0	0	0
579	0	0	0
580	0	0	0
581	0	0	0
582	0	0	0
583	0	0	0
584	0	0	0
585	0	0	0
586	0	0	0
587	0	0	0
588	246	239	244
589	247	233	244
590	237	214	232
591	232	205	229
592	237	207	235
593	249	216	244
594	241	201	232
595	230	185	222
596	232	185	227
597	241	194	236
598	238	191	232
599	239	193	232
600	244	199	236
601	246	199	235
602	244	197	229
603	243	198	228
604	240	197	226
605	239	199	224
606	244	208	227
607	248	217	231
608	249	217	230
609	250	215	228
610	246	213	225
611	242	217	225
612	244	225	228
613	0	0	0
614	0	0	0
615	0	0	0
616	0	0	0
617	0	0	0
618	0	0	0
619	0	0	0
620	0	0	0
621	0	0	0
622	0	0	0
623	0	0	0
624	0	0	0
625	0	0	0
626	0	0	0
627	0	0	0
628	0	0	0
629	0	0	0
630	0	0	0
631	0	0	0
632	0	0	0
633	250	245	247
634	244	229	241
635	234	210	231
636	237	212	236
637	241	213	240
638	243	206	239
639	237	193	231
640	238	193	233
641	239	193	235
642	244	195	237
643	241	191	232
644	243	195	234
645	246	200	237
646	244	198	234
647	242	196	230
648	241	197	228
649	238	195	226
650	245	206	231
651	250	216	234
652	247	214	230
653	247	213	229
654	250	216	230
655	246	214	227
656	243	219	228
657	245	227	230
658	248	231	232
659	0	0	0
660	0	0	0
661	0	0	0
662	0	0	0
663	0	0	0
664	0	0	0
665	0	0	0
666	0	0	0
667	0	0	0
668	0	0	0
669	0	0	0
670	0	0	0
671	0	0	0
672	0	0	0
673	0	0	0
674	0	0	0
675	0	0	0
676	0	0	0
677	0	0	0
678	252	248	248
679	242	229	239
680	237	218	236
681	243	222	243
682	240	210	238
683	241	203	236
684	240	194	235
685	246	198	240
686	241	188	234
687	243	188	234
688	247	192	234
689	249	197	236
690	248	198	235
691	242	194	230
692	247	203	232
693	249	205	232
694	244	200	228
695	251	211	235
696	247	209	230
697	242	205	225
698	244	210	227
699	247	213	229
700	246	213	227
701	246	221	229
702	243	222	227
703	241	224	226
704	0	0	0
705	0	0	0
706	0	0	0
707	0	0	0
708	0	0	0
709	0	0	0
710	0	0	0
711	0	0	0
712	0	0	0
713	0	0	0
714	0	0	0
715	0	0	0
716	0	0	0
717	0	0	0
718	0	0	0
719	0	0	0
720	0	0	0
721	0	0	0
722	0	0	0
723	253	251	249
724	244	236	242
725	240	225	239
726	239	216	237
727	237	205	233
728	241	202	236
729	241	194	235
730	241	189	235
731	235	179	228
732	242	186	233
733	246	191	233
734	250	194	233
735	248	195	230
736	248	201	230
737	253	210	233
738	252	207	230
739	249	203	227
740	249	204	229
741	246	203	227
742	244	206	227
743	246	210	228
744	250	214	229
745	249	215	228
746	250	219	229
747	247	221	227
748	244	225	227
749	249	234	232
750	0	0	0
751	0	0	0
752	0	0	0
753	0	0	0
754	0	0	0
755	0	0	0
756	0	0	0
757	0	0	0
758	0	0	0
759	0	0	0
760	0	0	0
761	0	0	0
762	0	0	0
763	0	0	0
764	0	0	0
765	0	0	0
766	0	0	0
767	0	0	0
768	251	250	247
769	242	235	240
770	238	224	237
771	239	216	236
772	241	209	236
773	248	207	240
774	243	195	237
775	238	187	233
776	235	183	230
777	242	191	234
778	249	197	236
779	255	203	237
780	252	197	230
781	252	203	230
782	251	203	227
783	250	200	224
784	250	199	224
785	252	202	227
786	250	203	228
787	247	205	228
788	249	209	229
789	255	214	231
790	254	214	228
791	255	219	230
792	249	216	226
793	245	219	225
794	248	228	229
795	242	220	222
796	0	0	0
797	0	0	0
798	0	0	0
799	0	0	0
800	0	0	0
801	0	0	0
802	0	0	0
803	0	0	0
804	0	0	0
805	0	0	0
806	0	0	0
807	0	0	0
808	0	0	0
809	0	0	0
810	0	0	0
811	0	0	0
812	0	0	0
813	252	252	250
814	242	235	240
815	238	225	236
816	239	218	236
817	240	210	235
818	244	204	237
819	239	192	235
820	238	191	236
821	235	187	231
822	244	197	236
823	252	204	237
824	254	202	234
825	251	197	228
826	249	196	225
827	247	195	223
828	246	193	221
829	246	193	221
830	252	198	225
831	251	200	227
832	250	204	228
833	252	209	229
834	254	210	228
835	253	210	226
836	250	209	224
837	244	206	219
838	244	213	222
839	248	223	228
840	250	227	229
841	255	235	234
842	0	0	0
843	0	0	0
844	0	0	0
845	0	0	0
846	0	0	0
847	0	0	0
848	0	0	0
849	0	0	0
850	0	0	0
851	0	0	0
852	0	0	0
853	0	0	0
854	0	0	0
855	0	0	0
856	0	0	0
857	0	0	0
858	0	0	0
859	242	235	240
860	241	229	239
861	241	221	238
862	237	209	234
863	237	201	234
864	237	195	236
865	240	197	239
866	240	194	235
867	250	205	240
868	246	195	231
869	245	192	226
870	249	195	227
871	250	197	227
872	248	197	225
873	244	193	221
874	250	201	225
875	255	208	231
876	251	198	224
877	252	203	227
878	251	205	226
879	250	205	224
880	247	204	221
881	241	202	218
882	243	207	221
883	249	218	227
884	251	224	230
885	254	229	232
886	251	227	228
887	0	0	0
888	0	0	0
889	0	0	0
890	0	0	0
891	0	0	0
892	0	0	0
893	0	0	0
894	0	0	0
895	0	0	0
896	0	0	0
897	0	0	0
898	0	0	0
899	0	0	0
900	0	0	0
901	0	0	0
902	0	0	0
903	0	0	0
904	0	0	0
905	243	232	241
906	238	220	237
907	234	208	234
908	237	206	237
909	237	200	236
910	243	203	241
911	245	202	239
912	247	198	236
913	242	189	228
914	247	194	230
915	251	198	233
916	255	201	233
917	253	201	229
918	254	205	229
919	255	213	232
920	255	207	229
921	253	197	222
922	254	201	225
923	253	203	225
924	248	201	221
925	244	200	219
926	242	204	220
927	245	210	224
928	251	219	229
929	254	224	231
930	251	222	228
931	248	220	226
932	250	225	228
933	0	0	0
934	0	0	0
935	0	0	0
936	0	0	0
937	0	0	0
938	0	0	0
939	0	0	0
940	0	0	0
941	0	0	0
942	0	0	0
943	0	0	0
944	0	0	0
945	0	0	0
946	0	0	0
947	0	0	0
948	0	0	0
949	0	0	0
950	247	240	245
951	239	226	240
952	232	210	233
953	237	209	237
954	239	204	237
955	246	208	243
956	244	198	237
957	247	196	236
958	247	192	232
959	253	198	235
960	253	196	234
961	255	198	233
962	252	193	226
963	255	200	228
964	255	203	229
965	255	195	222
966	247	184	215
967	250	189	218
968	253	197	222
969	246	193	218
970	248	203	223
971	247	208	224
972	248	212	226
973	255	220	230
974	252	217	226
975	247	214	223
976	248	217	225
977	255	225	230
978	251	223	226
979	0	0	0
980	0	0	0
981	0	0	0
982	0	0	0
983	0	0	0
984	0	0	0
985	0	0	0
986	0	0	0
987	0	0	0
988	0	0	0
989	0	0	0
990	0	0	0
991	0	0	0
992	0	0	0
993	0	0	0
994	0	0	0
995	0	0	0
996	240	229	239
997	233	213	232
998	238	213	236
999	239	208	236
1000	241	202	236
1001	240	193	233
1002	247	196	237
1003	248	193	232
1004	250	193	230
1005	250	191	230
1006	251	190	228
1007	249	185	223
1008	253	189	224
1009	255	192	225
1010	248	181	217
1011	240	170	209
1012	249	183	218
1013	251	190	220
1014	252	199	223
1015	254	208	227
1016	250	210	226
1017	251	214	226
1018	251	212	224
1019	248	208	219
1020	247	211	221
1021	250	215	225
1022	253	217	227
1023	249	215	223
1024	245	218	223
1025	0	0	0
1026	0	0	0
1027	0	0	0
1028	0	0	0
1029	0	0	0
1030	0	0	0
1031	0	0	0
1032	0	0	0
1033	0	0	0
1034	0	0	0
1035	0	0	0
1036	0	0	0
1037	0	0	0
1038	0	0	0
1039	0	0	0
1040	0	0	0
1041	0	0	0
1042	239	221	236
1043	243	220	239
1044	238	207	234
1045	238	200	233
1046	241	198	236
1047	249	201	240
1048	246	192	231
1049	248	192	230
1050	249	190	229
1051	251	190	229
1052	249	184	224
1053	254	188	226
1054	255	190	227
1055	245	178	218
1056	244	176	217
1057	254	190	226
1058	251	188	222
1059	253	197	225
1060	254	204	226
1061	248	204	222
1062	249	208	223
1063	250	207	221
1064	252	210	222
1065	254	214	225
1066	252	212	225
1067	250	212	225
1068	251	216	226
1069	0	0	0
1070	0	0	0
1071	0	0	0
1072	0	0	0
1073	0	0	0
1074	0	0	0
1075	0	0	0
1076	0	0	0
1077	0	0	0
1078	0	0	0
1079	0	0	0
1080	0	0	0
1081	0	0	0
1082	0	0	0
1083	0	0	0
1084	0	0	0
1085	0	0	0
1086	245	235	243
1087	245	229	242
1088	240	218	238
1089	236	205	234
1090	238	203	236
1091	239	200	234
1092	241	195	232
1093	239	187	228
1094	242	187	228
1095	244	185	226
1096	246	184	226
1097	245	179	222
1098	249	182	224
1099	252	185	227
1100	250	184	226
1101	248	181	224
1102	252	186	226
1103	249	184	222
1104	250	191	224
1105	250	197	223
1106	246	197	219
1107	248	203	222
1108	252	208	224
1109	254	210	224
1110	251	208	222
1111	247	205	221
1112	248	209	223
1113	251	214	226
1114	0	0	0
1115	0	0	0
1116	0	0	0
1117	0	0	0
1118	0	0	0
1119	0	0	0
1120	0	0	0
1121	0	0	0
1122	0	0	0
1123	0	0	0
1124	0	0	0
1125	0	0	0
1126	0	0	0
1127	0	0	0
1128	0	0	0
1129	0	0	0
1130	248	246	247
1131	246	237	244
1132	241	226	239
1133	235	214	234
1134	236	210	236
1135	239	209	238
1136	238	202	233
1137	238	197	231
1138	241	196	232
1139	245	197	234
1140	242	187	227
1141	246	186	227
1142	245	181	224
1143	249	184	227
1144	252	186	229
1145	253	187	231
1146	243	172	221
1147	245	175	222
1148	252	189	228
1149	252	194	227
1150	252	199	226
1151	250	201	224
1152	254	209	228
1153	255	212	230
1154	246	198	219
1155	239	194	215
1156	247	209	224
1157	252	215	228
1158	253	216	228
1159	0	0	0
1160	0	0	0
1161	0	0	0
1162	0	0	0
1163	0	0	0
1164	0	0	0
1165	0	0	0
1166	0	0	0
1167	0	0	0
1168	0	0	0
1169	0	0	0
1170	0	0	0
1171	0	0	0
1172	0	0	0
1173	0	0	0
1174	0	0	0
1175	251	248	248
1176	244	235	241
1177	238	224	236
1178	237	220	237
1179	238	216	238
1180	240	213	238
1181	240	207	235
1182	243	206	235
1183	245	205	235
1184	242	195	230
1185	239	186	226
1186	243	185	227
1187	243	180	224
1188	248	184	228
1189	252	186	230
1190	249	177	228
1191	239	163	221
1192	249	180	231
1193	254	192	232
1194	251	194	226
1195	251	199	226
1196	251	202	225
1197	254	209	228
1198	243	196	220
1199	233	184	214
1200	242	201	225
1201	251	215	230
1202	253	216	228
1203	0	0	0
1204	0	0	0
1205	0	0	0
1206	0	0	0
1207	0	0	0
1208	0	0	0
1209	0	0	0
1210	0	0	0
1211	0	0	0
1212	0	0	0
1213	0	0	0
1214	0	0	0
1215	0	0	0
1216	0	0	0
1217	0	0	0
1218	0	0	0
1219	0	0	0
1220	251	249	247
1221	244	236	241
1222	237	224	235
1223	234	219	234
1224	237	218	236
1225	243	216	238
1226	240	206	233
1227	244	205	234
1228	244	202	232
1229	240	192	227
1230	247	197	232
1231	252	196	234
1232	249	187	229
1233	255	191	234
1234	252	183	230
1235	250	175	228
1236	239	161	222
1237	245	176	229
1238	254	195	233
1239	253	198	227
1240	254	203	228
1241	253	206	227
1242	249	205	224
1243	233	191	214
1244	234	193	220
1245	251	214	235
1246	247	208	226
1247	0	0	0
1248	0	0	0
1249	0	0	0
1250	0	0	0
1251	0	0	0
1252	0	0	0
1253	0	0	0
1254	0	0	0
1255	0	0	0
1256	0	0	0
1257	0	0	0
1258	0	0	0
1259	0	0	0
1260	0	0	0
1261	0	0	0
1262	0	0	0
1263	0	0	0
1264	0	0	0
1265	0	0	0
1266	243	236	239
1267	236	224	233
1268	235	221	233
1269	238	220	236
1270	241	214	236
1271	239	205	231
1272	243	204	233
1273	245	201	232
1274	250	204	236
1275	255	208	240
1276	253	199	234
1277	249	190	228
1278	245	181	224
1279	243	173	222
1280	241	167	221
1281	229	152	214
1282	239	175	225
1283	249	195	229
1284	255	202	228
1285	255	208	228
1286	252	205	224
1287	247	205	222
1288	241	203	221
1289	243	206	226
1290	247	207	227
1291	244	201	221
1292	247	203	221
1293	0	0	0
1294	0	0	0
1295	0	0	0
1296	0	0	0
1297	0	0	0
1298	0	0	0
1299	0	0	0
1300	0	0	0
1301	0	0	0
1302	0	0	0
1303	0	0	0
1304	0	0	0
1305	0	0	0
1306	0	0	0
1307	0	0	0
1308	0	0	0
1309	0	0	0
1310	0	0	0
1311	0	0	0
1312	242	235	240
1313	245	234	242
1314	240	221	236
1315	238	213	233
1316	238	206	231
1317	245	207	235
1318	246	202	234
1319	252	206	238
1320	249	198	232
1321	243	187	224
1322	245	189	226
1323	240	179	221
1324	242	180	225
1325	238	173	223
1326	231	167	220
1327	242	191	232
1328	246	197	229
1329	255	208	232
1330	253	198	222
1331	244	194	216
1332	248	204	222
1333	249	206	224
1334	245	201	223
1335	247	200	224
1336	244	195	220
1337	244	196	220
1338	0	0	0
1339	0	0	0
1340	0	0	0
1341	0	0	0
1342	0	0	0
1343	0	0	0
1344	0	0	0
1345	0	0	0
1346	0	0	0
1347	0	0	0
1348	0	0	0
1349	0	0	0
1350	0	0	0
1351	0	0	0
1352	0	0	0
1353	0	0	0
1354	0	0	0
1355	0	0	0
1356	0	0	0
1357	0	0	0
1358	244	233	240
1359	238	219	234
1360	0	0	0
1361	238	207	231
1362	244	206	235
1363	246	202	234
1364	247	197	233
1365	242	190	226
1366	243	190	227
1367	246	192	230
1368	246	192	230
1369	247	191	230
1370	246	190	230
1371	240	185	227
1372	241	193	231
1373	248	201	233
1374	255	200	231
1375	249	191	220
1376	249	198	221
1377	252	207	226
1378	244	198	220
1379	241	192	220
1380	243	192	223
1381	240	188	221
1382	246	199	226
1383	247	206	224
1384	0	0	0
1385	0	0	0
1386	0	0	0
1387	0	0	0
1388	0	0	0
1389	0	0	0
1390	0	0	0
1391	0	0	0
1392	0	0	0
1393	0	0	0
1394	0	0	0
1395	0	0	0
1396	0	0	0
1397	0	0	0
1398	0	0	0
1399	0	0	0
1400	0	0	0
1401	0	0	0
1402	0	0	0
1403	0	0	0
1404	0	0	0
1405	0	0	0
1406	240	211	234
1407	248	212	238
1408	246	203	236
1409	246	198	234
1410	240	187	227
1411	241	188	228
1412	243	190	230
1413	245	190	230
1414	243	187	227
1415	242	185	226
1416	245	190	229
1417	250	200	235
1418	250	197	232
1419	254	194	229
1420	251	189	222
1421	253	198	225
1422	243	192	219
1423	228	179	210
1424	237	192	222
1425	241	193	226
1426	240	191	225
1427	246	202	230
1428	244	202	224
1429	246	207	224
1430	0	0	0
1431	0	0	0
1432	0	0	0
1433	0	0	0
1434	0	0	0
1435	0	0	0
1436	0	0	0
1437	0	0	0
1438	0	0	0
1439	0	0	0
1440	0	0	0
1441	0	0	0
1442	0	0	0
1443	0	0	0
1444	0	0	0
1445	0	0	0
1446	0	0	0
1447	0	0	0
1448	0	0	0
1449	0	0	0
1450	0	0	0
1451	240	214	234
1452	241	207	234
1453	241	199	232
1454	242	194	233
1455	237	185	228
1456	239	187	231
1457	240	188	231
1458	242	187	231
1459	242	185	229
1460	246	191	233
1461	249	195	232
1462	244	190	226
1463	243	186	223
1464	249	188	225
1465	246	183	219
1466	240	181	217
1467	231	176	213
1468	230	184	218
1469	238	196	228
1470	241	196	229
1471	239	193	226
1472	240	196	226
1473	237	196	222
1474	0	0	0
1475	0	0	0
1476	0	0	0
1477	240	204	215
1478	0	0	0
1479	0	0	0
1480	0	0	0
1481	0	0	0
1482	0	0	0
1483	0	0	0
1484	0	0	0
1485	0	0	0
1486	0	0	0
1487	0	0	0
1488	0	0	0
1489	0	0	0
1490	0	0	0
1491	0	0	0
1492	0	0	0
1493	0	0	0
1494	0	0	0
1495	0	0	0
1496	0	0	0
1497	237	209	234
1498	240	205	235
1499	245	202	238
1500	240	190	233
1501	241	193	235
1502	239	188	232
1503	241	188	232
1504	244	190	234
1505	249	196	237
1506	246	194	231
1507	240	188	224
1508	242	189	225
1509	248	191	228
1510	241	182	220
1511	234	179	218
1512	229	178	219
1513	233	189	226
1514	238	197	231
1515	239	195	229
1516	234	187	224
1517	234	190	224
1518	231	194	222
1519	221	191	213
1520	231	209	222
1521	239	214	224
1522	242	210	221
1523	255	230	234
1524	0	0	0
1525	0	0	0
1526	0	0	0
1527	0	0	0
1528	0	0	0
1529	0	0	0
1530	0	0	0
1531	0	0	0
1532	0	0	0
1533	0	0	0
1534	0	0	0
1535	0	0	0
1536	0	0	0
1537	0	0	0
1538	0	0	0
1539	0	0	0
1540	0	0	0
1541	0	0	0
1542	0	0	0
1543	236	208	235
1544	237	201	233
1545	233	189	229
1546	238	191	232
1547	237	187	231
1548	243	193	236
1549	246	195	236
1550	248	196	235
1551	246	195	230
1552	242	192	226
1553	243	193	229
1554	243	189	228
1555	235	180	222
1556	229	179	221
1557	225	179	222
1558	229	186	227
1559	234	193	229
1560	230	187	225
1561	226	181	223
1562	234	192	229
1563	231	196	224
1564	230	207	224
1565	241	225	233
1566	241	219	228
1567	246	217	227
1568	247	208	222
1569	234	189	206
1570	0	0	0
1571	0	0	0
1572	0	0	0
1573	0	0	0
1574	0	0	0
1575	0	0	0
1576	0	0	0
1577	0	0	0
1578	0	0	0
1579	0	0	0
1580	0	0	0
1581	0	0	0
1582	0	0	0
1583	0	0	0
1584	0	0	0
1585	0	0	0
1586	0	0	0
1587	0	0	0
1588	0	0	0
1589	0	0	0
1590	232	199	232
1591	244	205	240
1592	238	189	232
1593	243	194	236
1594	241	190	233
1595	245	192	233
1596	237	183	224
1597	232	180	221
1598	236	186	226
1599	233	180	224
1600	224	172	219
1601	218	172	219
1602	223	183	227
1603	229	191	232
1604	225	188	225
1605	219	180	219
1606	225	187	227
1607	236	200	235
1608	231	195	225
1609	239	210	231
1610	241	214	230
1611	235	205	221
1612	243	211	227
1613	241	201	220
1614	232	189	209
1615	0	0	0
1616	0	0	0
1617	0	0	0
1618	0	0	0
1619	0	0	0
1620	0	0	0
1621	0	0	0
1622	0	0	0
1623	0	0	0
1624	0	0	0
1625	0	0	0
1626	0	0	0
1627	0	0	0
1628	0	0	0
1629	0	0	0
1630	0	0	0
1631	0	0	0
1632	0	0	0
1633	0	0	0
1634	231	211	237
1635	238	212	240
1636	239	202	236
1637	232	186	228
1638	235	187	231
1639	235	184	229
1640	233	179	227
1641	227	171	222
1642	230	177	225
1643	232	181	226
1644	225	175	223
1645	218	168	221
1646	220	179	229
1647	224	189	233
1648	219	185	227
1649	215	181	221
1650	218	186	223
1651	222	191	226
1652	224	191	225
1653	223	188	221
1654	230	195	224
1655	232	198	223
1656	230	198	220
1657	236	203	223
1658	235	197	219
1659	0	0	0
1660	0	0	0
1661	0	0	0
1662	0	0	0
1663	0	0	0
1664	0	0	0
1665	0	0	0
1666	0	0	0
1667	0	0	0
1668	0	0	0
1669	0	0	0
1670	0	0	0
1671	0	0	0
1672	0	0	0
1673	0	0	0
1674	0	0	0
1675	0	0	0
1676	0	0	0
1677	0	0	0
1678	231	214	236
1679	237	216	241
1680	232	204	234
1681	227	191	228
1682	227	186	229
1683	233	189	234
1684	232	184	231
1685	229	180	229
1686	231	179	231
1687	237	187	237
1688	226	175	226
1689	217	166	220
1690	221	177	230
1691	229	190	239
1692	218	181	229
1693	207	173	220
1694	212	184	224
1695	217	191	226
1696	215	188	222
1697	212	185	218
1698	219	193	223
1699	229	201	229
1700	230	201	226
1701	229	201	224
1702	232	204	223
1703	229	197	218
1704	0	0	0
1705	0	0	0
1706	0	0	0
1707	0	0	0
1708	0	0	0
1709	0	0	0
1710	0	0	0
1711	0	0	0
1712	0	0	0
1713	0	0	0
1714	0	0	0
1715	0	0	0
1716	0	0	0
1717	0	0	0
1718	0	0	0
1719	0	0	0
1720	0	0	0
1721	0	0	0
1722	0	0	0
1723	0	0	0
1724	227	205	231
1725	222	193	228
1726	221	190	230
1727	221	186	231
1728	224	185	234
1729	223	181	230
1730	226	182	231
1731	227	182	233
1732	224	175	230
1733	216	164	223
1734	221	176	231
1735	225	185	235
1736	220	181	232
1737	210	172	225
1738	210	181	227
1739	215	192	231
1740	216	191	228
1741	213	188	224
1742	213	193	223
1743	219	200	225
1744	223	200	224
1745	225	200	224
1746	226	203	223
1747	232	207	225
1748	239	211	228
1749	243	212	228
1750	0	0	0
1751	0	0	0
1752	0	0	0
1753	0	0	0
1754	0	0	0
1755	0	0	0
1756	0	0	0
1757	0	0	0
1758	0	0	0
1759	0	0	0
1760	0	0	0
1761	0	0	0
1762	0	0	0
1763	0	0	0
1764	0	0	0
1765	0	0	0
1766	0	0	0
1767	0	0	0
1768	0	0	0
1769	0	0	0
1770	227	208	235
1771	228	206	239
1772	219	191	234
1773	220	190	236
1774	218	185	233
1775	223	188	237
1776	219	178	232
1777	213	170	227
1778	215	171	230
1779	228	187	242
1780	218	177	232
1781	208	170	225
1782	204	169	224
1783	210	182	231
1784	212	187	230
1785	212	185	226
1786	208	182	222
1787	207	186	220
1788	214	197	222
1789	214	195	218
1790	219	199	221
1791	223	203	223
1792	233	209	227
1793	248	217	233
1794	239	199	220
1795	0	0	0
1796	0	0	0
1797	0	0	0
1798	0	0	0
1799	0	0	0
1800	0	0	0
1801	0	0	0
1802	0	0	0
1803	0	0	0
1804	0	0	0
1805	0	0	0
1806	0	0	0
1807	0	0	0
1808	0	0	0
1809	0	0	0
1810	0	0	0
1811	0	0	0
1812	0	0	0
1813	0	0	0
1814	0	0	0
1815	234	223	240
1816	227	210	236
1817	217	195	231
1818	214	191	233
1819	213	187	234
1820	213	182	234
1821	208	173	230
1822	212	176	234
1823	214	177	235
1824	214	175	234
1825	206	166	227
1826	201	166	226
1827	198	166	224
1828	206	176	230
1829	210	182	231
1830	210	181	228
1831	206	177	222
1832	209	187	224
1833	215	198	225
1834	217	200	222
1835	222	204	225
1836	226	206	226
1837	236	212	230
1838	239	202	224
1839	230	185	212
1840	0	0	0
1841	0	0	0
1842	0	0	0
1843	0	0	0
1844	0	0	0
1845	0	0	0
1846	0	0	0
1847	0	0	0
1848	0	0	0
1849	0	0	0
1850	0	0	0
1851	0	0	0
1852	0	0	0
1853	0	0	0
1854	0	0	0
1855	0	0	0
1856	0	0	0
1857	0	0	0
1858	0	0	0
1859	0	0	0
1860	229	218	234
1861	223	205	230
1862	215	194	227
1863	209	189	229
1864	213	195	239
1865	212	189	239
1866	208	181	236
1867	214	186	241
1868	207	174	233
1869	203	169	230
1870	201	170	231
1871	198	172	231
1872	194	166	227
1873	207	179	235
1874	210	179	233
1875	207	177	229
1876	202	173	222
1877	208	184	225
1878	216	197	227
1879	220	199	225
1880	222	199	225
1881	224	201	224
1882	226	198	221
1883	224	185	212
1884	230	189	214
1885	0	0	0
1886	0	0	0
1887	0	0	0
1888	0	0	0
1889	0	0	0
1890	0	0	0
1891	0	0	0
1892	0	0	0
1893	0	0	0
1894	0	0	0
1895	0	0	0
1896	0	0	0
1897	0	0	0
1898	0	0	0
1899	0	0	0
1900	0	0	0
1901	0	0	0
1902	0	0	0
1903	0	0	0
1904	0	0	0
1905	0	0	0
1906	218	203	228
1907	210	192	225
1908	212	197	234
1909	215	202	243
1910	211	195	242
1911	207	186	238
1912	204	179	235
1913	197	168	229
1914	200	172	232
1915	198	173	231
1916	192	168	228
1917	191	165	229
1918	203	174	236
1919	205	173	231
1920	202	172	227
1921	199	169	223
1922	210	184	229
1923	220	197	231
1924	221	196	227
1925	223	195	224
1926	218	189	218
1927	219	186	215
1928	229	193	219
1929	235	196	218
1930	245	208	224
1931	0	0	0
1932	0	0	0
1933	0	0	0
1934	0	0	0
1935	0	0	0
1936	0	0	0
1937	0	0	0
1938	0	0	0
1939	0	0	0
1940	0	0	0
1941	0	0	0
1942	0	0	0
1943	0	0	0
1944	0	0	0
1945	0	0	0
1946	0	0	0
1947	0	0	0
1948	0	0	0
1949	0	0	0
1950	0	0	0
1951	0	0	0
1952	216	207	233
1953	223	215	245
1954	211	198	239
1955	204	189	237
1956	201	184	235
1957	198	177	233
1958	200	179	236
1959	205	185	241
1960	195	171	231
1961	193	169	230
1962	197	172	235
1963	205	178	240
1964	197	166	228
1965	196	165	224
1966	205	176	229
1967	220	193	238
1968	220	191	231
1969	219	188	225
1970	218	186	221
1971	213	179	213
1972	222	188	219
1973	234	196	224
1974	236	194	219
1975	246	205	224
1976	244	205	221
1977	0	0	0
1978	0	0	0
1979	0	0	0
1980	0	0	0
1981	0	0	0
1982	0	0	0
1983	0	0	0
1984	0	0	0
1985	0	0	0
1986	0	0	0
1987	0	0	0
1988	0	0	0
1989	0	0	0
1990	0	0	0
1991	0	0	0
1992	0	0	0
1993	0	0	0
1994	0	0	0
1995	0	0	0
1996	226	222	240
1997	226	224	242
1998	219	210	238
1999	208	194	234
2000	204	190	238
2001	200	186	237
2002	202	188	240
2003	203	189	241
2004	197	179	235
2005	190	167	229
2006	195	172	233
2007	197	173	233
2008	193	166	228
2009	187	156	221
2010	197	169	229
2011	206	180	231
2012	210	180	228
2013	211	178	224
2014	211	176	220
2015	211	175	215
2016	216	182	217
2017	227	191	224
2018	237	194	226
2019	240	193	224
2020	244	197	224
2021	241	196	220
2022	0	0	0
2023	0	0	0
2024	0	0	0
2025	0	0	0
2026	0	0	0
2027	0	0	0
2028	0	0	0
2029	0	0	0
2030	0	0	0
2031	0	0	0
2032	0	0	0
2033	0	0	0
2034	0	0	0
2035	0	0	0
2036	0	0	0
2037	0	0	0
2038	0	0	0
2039	0	0	0
2040	234	229	241
2041	233	230	244
2042	225	217	238
2043	217	203	232
2044	214	199	237
2045	208	196	239
2046	199	187	237
2047	200	189	241
2048	197	186	237
2049	191	176	232
2050	191	173	233
2051	197	178	238
2052	193	172	231
2053	187	164	225
2054	187	162	225
2055	200	177	234
2056	203	178	229
2057	205	177	226
2058	208	177	226
2059	207	175	223
2060	209	175	219
2061	221	185	225
2062	229	188	226
2063	240	191	228
2064	246	194	229
2065	247	196	228
2066	243	196	223
2067	0	0	0
2068	0	0	0
2069	0	0	0
2070	0	0	0
2071	0	0	0
2072	0	0	0
2073	0	0	0
2074	0	0	0
2075	0	0	0
2076	0	0	0
2077	0	0	0
2078	0	0	0
2079	0	0	0
2080	0	0	0
2081	0	0	0
2082	0	0	0
2083	0	0	0
2084	0	0	0
2085	239	235	242
2086	228	221	236
2087	221	210	235
2088	220	208	238
2089	215	202	235
2090	206	195	234
2091	198	187	235
2092	198	188	239
2093	196	185	238
2094	195	182	238
2095	193	179	237
2096	192	175	236
2097	189	170	232
2098	190	170	232
2099	189	168	229
2100	196	174	231
2101	199	174	226
2102	204	176	226
2103	207	178	230
2104	210	178	230
2105	213	178	229
2106	218	179	227
2107	224	180	226
2108	235	184	227
2109	240	187	226
2110	246	194	227
2111	243	194	220
2112	245	205	223
2113	0	0	0
2114	0	0	0
2115	0	0	0
2116	0	0	0
2117	0	0	0
2118	0	0	0
2119	0	0	0
2120	0	0	0
2121	0	0	0
2122	0	0	0
2123	0	0	0
2124	0	0	0
2125	0	0	0
2126	0	0	0
2127	0	0	0
2128	0	0	0
2129	0	0	0
2130	239	235	241
2131	230	222	236
2132	225	216	239
2133	219	211	239
2134	211	202	233
2135	204	196	233
2136	201	192	237
2137	203	194	244
2138	194	180	237
2139	191	176	236
2140	189	175	235
2141	186	170	232
2142	190	175	235
2143	193	176	237
2144	189	167	229
2145	195	173	231
2146	197	172	227
2147	203	174	229
2148	205	171	229
2149	210	174	232
2150	212	173	230
2151	210	170	224
2152	224	186	231
2153	232	189	230
2154	240	193	229
2155	251	203	233
2156	246	195	222
2157	253	208	228
2158	249	208	226
2159	0	0	0
2160	0	0	0
2161	0	0	0
2162	0	0	0
2163	0	0	0
2164	0	0	0
2165	0	0	0
2166	0	0	0
2167	0	0	0
2168	0	0	0
2169	0	0	0
2170	0	0	0
2171	0	0	0
2172	0	0	0
2173	0	0	0
2174	0	0	0
2175	0	0	0
2176	233	226	238
2177	225	219	237
2178	215	210	234
2179	207	202	232
2180	203	198	235
2181	201	194	239
2182	196	185	239
2183	187	171	233
2184	188	173	237
2185	187	172	235
2186	189	176	237
2187	193	179	237
2188	192	174	233
2189	189	167	227
2190	193	169	230
2191	196	170	232
2192	198	167	230
2193	199	163	227
2194	208	167	230
2195	209	166	226
2196	216	178	229
2197	228	193	235
2198	233	195	232
2199	240	198	231
2200	245	197	228
2201	242	189	219
2202	245	194	220
2203	0	0	0
2204	0	0	0
2205	0	0	0
2206	0	0	0
2207	0	0	0
2208	0	0	0
2209	0	0	0
2210	0	0	0
2211	0	0	0
2212	0	0	0
2213	0	0	0
2214	0	0	0
2215	0	0	0
2216	0	0	0
2217	0	0	0
2218	0	0	0
2219	0	0	0
2220	0	0	0
2221	0	0	0
2222	229	227	238
2223	217	217	235
2224	209	209	235
2225	205	205	239
2226	196	192	237
2227	193	183	238
2228	193	182	242
2229	195	185	245
2230	192	179	241
2231	197	185	244
2232	197	181	238
2233	196	176	234
2234	195	170	231
2235	199	173	234
2236	198	169	234
2237	197	165	232
2238	201	166	231
2239	211	171	233
2240	216	175	231
2241	224	187	234
2242	232	196	235
2243	236	198	232
2244	238	196	228
2245	238	192	224
2246	237	187	219
2247	0	0	0
2248	0	0	0
2249	0	0	0
2250	0	0	0
2251	0	0	0
2252	0	0	0
2253	0	0	0
2254	0	0	0
2255	0	0	0
2256	0	0	0
2257	0	0	0
2258	0	0	0
2259	0	0	0
2260	0	0	0
2261	0	0	0
2262	0	0	0
2263	0	0	0
2264	0	0	0
2265	0	0	0
2266	0	0	0
2267	0	0	0
2268	0	0	0
2269	211	214	235
2270	200	201	233
2271	191	188	233
2272	197	192	243
2273	198	191	246
2274	200	190	247
2275	197	185	244
2276	197	183	242
2277	196	179	237
2278	196	175	233
2279	195	170	231
2280	196	169	231
2281	195	165	228
2282	197	166	229
2283	203	168	232
2284	217	179	237
2285	222	182	233
2286	227	190	232
2287	235	199	233
2288	235	196	228
2289	238	195	227
2290	239	192	225
2291	238	188	222
2292	246	199	228
2293	0	0	0
2294	0	0	0
2295	0	0	0
2296	0	0	0
2297	0	0	0
2298	0	0	0
2299	0	0	0
2300	0	0	0
2301	0	0	0
2302	0	0	0
2303	0	0	0
2304	0	0	0
2305	0	0	0
2306	0	0	0
2307	0	0	0
2308	0	0	0
2309	0	0	0
2310	0	0	0
2311	0	0	0
2312	0	0	0
2313	0	0	0
2314	0	0	0
2315	0	0	0
2316	202	203	241
2317	206	206	250
2318	199	192	244
2319	205	194	249
2320	200	185	244
2321	196	181	240
2322	190	173	233
2323	190	169	230
2324	196	173	234
2325	198	173	234
2326	195	165	228
2327	198	167	229
2328	204	169	231
2329	218	180	237
2330	219	178	229
2331	226	186	229
2332	231	191	228
2333	231	188	222
2334	237	190	225
2335	241	190	225
2336	244	191	226
2337	251	201	232
2338	245	197	226
2339	0	0	0
2340	0	0	0
2341	0	0	0
2342	0	0	0
2343	0	0	0
2344	0	0	0
2345	0	0	0
2346	0	0	0
2347	0	0	0
2348	0	0	0
2349	0	0	0
2350	0	0	0
2351	0	0	0
2352	0	0	0
2353	0	0	0
2354	0	0	0
2355	0	0	0
2356	0	0	0
2357	0	0	0
2358	0	0	0
2359	0	0	0
2360	216	221	241
2361	213	217	245
2362	204	204	242
2363	197	191	240
2364	202	190	245
2365	198	181	240
2366	193	176	236
2367	188	169	233
2368	194	174	238
2369	199	178	240
2370	199	174	236
2371	197	167	230
2372	204	172	233
2373	208	173	232
2374	215	176	232
2375	217	174	228
2376	223	180	228
2377	229	186	227
2378	232	185	225
2379	238	188	226
2380	244	191	228
2381	246	192	227
2382	243	190	224
2383	238	187	221
2384	0	0	0
2385	0	0	0
2386	0	0	0
2387	0	0	0
2388	0	0	0
2389	0	0	0
2390	0	0	0
2391	0	0	0
2392	0	0	0
2393	0	0	0
2394	0	0	0
2395	0	0	0
2396	0	0	0
2397	0	0	0
2398	0	0	0
2399	0	0	0
2400	0	0	0
2401	0	0	0
2402	0	0	0
2403	0	0	0
2404	227	232	241
2405	223	227	242
2406	215	217	240
2407	203	202	237
2408	199	195	240
2409	201	193	245
2410	197	183	240
2411	199	182	241
2412	197	177	240
2413	201	181	244
2414	199	177	239
2415	198	172	236
2416	200	169	234
2417	212	177	239
2418	209	168	230
2419	211	168	227
2420	216	174	229
2421	225	181	231
2422	232	187	232
2423	236	187	230
2424	239	186	228
2425	243	188	228
2426	241	186	224
2427	235	184	220
2428	238	191	223
2429	0	0	0
2430	0	0	0
2431	0	0	0
2432	0	0	0
2433	0	0	0
2434	0	0	0
2435	0	0	0
2436	0	0	0
2437	0	0	0
2438	0	0	0
2439	0	0	0
2440	0	0	0
2441	0	0	0
2442	0	0	0
2443	0	0	0
2444	0	0	0
2445	0	0	0
2446	0	0	0
2447	0	0	0
2448	0	0	0
2449	0	0	0
2450	223	226	237
2451	214	215	235
2452	205	205	235
2453	200	198	238
2454	199	192	242
2455	196	183	240
2456	199	184	243
2457	198	178	239
2458	199	178	239
2459	198	174	236
2460	198	170	234
2461	201	168	234
2462	209	169	236
2463	206	161	229
2464	211	168	230
2465	216	173	230
2466	224	179	232
2467	232	185	234
2468	233	182	229
2469	235	181	225
2470	237	181	224
2471	236	180	222
2472	241	191	227
2473	242	197	226
2474	0	0	0
2475	0	0	0
2476	0	0	0
2477	0	0	0
2478	0	0	0
2479	0	0	0
2480	0	0	0
2481	0	0	0
2482	0	0	0
2483	0	0	0
2484	0	0	0
2485	0	0	0
2486	0	0	0
2487	0	0	0
2488	0	0	0
2489	0	0	0
2490	0	0	0
2491	0	0	0
2492	0	0	0
2493	0	0	0
2494	0	0	0
2495	0	0	0
2496	217	220	235
2497	0	0	0
2498	211	212	243
2499	211	208	247
2500	200	190	242
2501	200	188	245
2502	197	180	238
2503	204	183	240
2504	203	178	238
2505	202	174	236
2506	205	174	237
2507	213	174	240
2508	207	162	231
2509	212	170	234
2510	217	174	233
2511	226	180	234
2512	231	184	234
2513	229	179	228
2514	237	187	229
2515	242	190	230
2516	244	190	230
2517	252	202	236
2518	241	190	223
2519	0	0	0
2520	0	0	0
2521	0	0	0
2522	0	0	0
2523	0	0	0
2524	0	0	0
2525	0	0	0
2526	0	0	0
2527	0	0	0
2528	0	0	0
2529	0	0	0
2530	0	0	0
2531	0	0	0
2532	0	0	0
2533	0	0	0
2534	0	0	0
2535	0	0	0
2536	0	0	0
2537	0	0	0
2538	0	0	0
2539	0	0	0
2540	0	0	0
2541	0	0	0
2542	0	0	0
2543	0	0	0
2544	211	209	239
2545	201	192	239
2546	198	188	242
2547	196	180	237
2548	205	183	240
2549	205	179	237
2550	205	177	236
2551	208	177	238
2552	209	171	236
2553	204	160	229
2554	213	169	235
2555	219	175	235
2556	228	180	236
2557	231	183	235
2558	233	187	232
2559	240	195	234
2560	247	197	234
2561	249	197	233
2562	244	190	228
2563	0	0	0
2564	0	0	0
2565	0	0	0
2566	0	0	0
2567	0	0	0
2568	0	0	0
2569	0	0	0
2570	0	0	0
2571	0	0	0
2572	0	0	0
2573	0	0	0
2574	0	0	0
2575	0	0	0
2576	0	0	0
2577	0	0	0
2578	0	0	0
2579	0	0	0
2580	0	0	0
2581	0	0	0
2582	0	0	0
2583	0	0	0
2584	0	0	0
2585	0	0	0
2586	0	0	0
2587	0	0	0
2588	0	0	0
2589	0	0	0
2590	209	205	242
2591	209	202	247
2592	202	188	240
2593	209	190	244
2594	207	183	239
2595	209	182	239
2596	210	179	238
2597	208	172	234
2598	207	165	232
2599	220	178	241
2600	221	173	236
2601	230	179	237
2602	234	184	235
2603	233	187	231
2604	239	192	232
2605	245	194	232
2606	243	188	227
2607	237	181	222
2608	0	0	0
2609	0	0	0
2610	0	0	0
2611	0	0	0
2612	0	0	0
2613	0	0	0
2614	0	0	0
2615	0	0	0
2616	0	0	0
2617	0	0	0
2618	0	0	0
2619	0	0	0
2620	0	0	0
2621	0	0	0
2622	0	0	0
2623	0	0	0
2624	0	0	0
2625	0	0	0
2626	0	0	0
2627	0	0	0
2628	0	0	0
2629	0	0	0
2630	0	0	0
2631	0	0	0
2632	0	0	0
2633	0	0	0
2634	220	218	238
2635	221	220	245
2636	213	207	242
2637	207	194	240
2638	210	192	244
2639	209	186	241
2640	211	184	240
2641	211	181	237
2642	210	175	235
2643	210	170	234
2644	219	173	239
2645	221	169	234
2646	232	179	237
2647	235	184	234
2648	233	184	229
2649	238	190	232
2650	238	185	228
2651	235	179	224
2652	242	190	230
2653	247	199	234
2654	0	0	0
2655	0	0	0
2656	0	0	0
2657	0	0	0
2658	0	0	0
2659	0	0	0
2660	0	0	0
2661	0	0	0
2662	0	0	0
2663	0	0	0
2664	0	0	0
2665	0	0	0
2666	0	0	0
2667	0	0	0
2668	0	0	0
2669	0	0	0
2670	0	0	0
2671	0	0	0
2672	0	0	0
2673	0	0	0
2674	0	0	0
2675	0	0	0
2676	0	0	0
2677	0	0	0
2678	0	0	0
2679	229	226	242
2680	223	217	239
2681	212	203	235
2682	209	195	237
2683	211	193	242
2684	211	189	241
2685	213	187	241
2686	213	183	238
2687	214	179	237
2688	214	172	236
2689	224	176	241
2690	223	169	235
2691	232	178	237
2692	235	183	233
2693	235	185	229
2694	242	194	234
2695	238	187	229
2696	235	182	227
2697	243	194	234
2698	244	198	232
2699	246	205	232
2700	0	0	0
2701	0	0	0
2702	0	0	0
2703	0	0	0
2704	0	0	0
2705	0	0	0
2706	0	0	0
2707	0	0	0
2708	0	0	0
2709	0	0	0
2710	0	0	0
2711	0	0	0
2712	0	0	0
2713	0	0	0
2714	0	0	0
2715	0	0	0
2716	0	0	0
2717	0	0	0
2718	0	0	0
2719	0	0	0
2720	0	0	0
2721	0	0	0
2722	0	0	0
2723	0	0	0
2724	231	224	238
2725	225	216	238
2726	217	206	237
2727	213	198	237
2728	217	198	241
2729	215	193	240
2730	215	189	240
2731	215	186	240
2732	214	178	237
2733	214	171	235
2734	224	173	239
2735	222	166	234
2736	230	175	237
2737	233	180	232
2738	238	187	231
2739	243	195	234
2740	238	189	229
2741	235	185	229
2742	241	193	234
2743	241	196	230
2744	242	200	228
2745	0	0	0
2746	0	0	0
2747	0	0	0
2748	0	0	0
2749	0	0	0
2750	0	0	0
2751	0	0	0
2752	0	0	0
2753	0	0	0
2754	0	0	0
2755	0	0	0
2756	0	0	0
2757	0	0	0
2758	0	0	0
2759	0	0	0
2760	0	0	0
2761	0	0	0
2762	0	0	0
2763	0	0	0
2764	0	0	0
2765	0	0	0
2766	0	0	0
2767	0	0	0
2768	240	236	240
2769	234	226	237
2770	229	219	238
2771	219	208	236
2772	218	204	238
2773	226	206	245
2774	218	191	237
2775	213	185	235
2776	218	189	241
2777	217	182	239
2778	224	183	242
2779	235	186	247
2780	228	171	237
2781	233	180	239
2782	235	184	235
2783	240	191	234
2784	237	188	228
2785	231	182	224
2786	235	187	231
2787	242	197	236
2788	243	199	232
2789	244	204	231
2790	245	206	230
2791	0	0	0
2792	0	0	0
2793	0	0	0
2794	0	0	0
2795	0	0	0
2796	0	0	0
2797	0	0	0
2798	0	0	0
2799	0	0	0
2800	0	0	0
2801	0	0	0
2802	0	0	0
2803	0	0	0
2804	0	0	0
2805	0	0	0
2806	0	0	0
2807	0	0	0
2808	0	0	0
2809	0	0	0
2810	0	0	0
2811	0	0	0
2812	0	0	0
2813	0	0	0
2814	236	228	236
2815	230	220	235
2816	221	211	233
2817	221	207	237
2818	221	199	237
2819	213	184	230
2820	219	189	237
2821	223	193	243
2822	224	191	243
2823	228	191	242
2824	229	182	238
2825	224	169	232
2826	234	181	238
2827	237	186	234
2828	237	185	229
2829	234	183	226
2830	235	186	229
2831	237	191	233
2832	241	197	236
2833	242	200	233
2834	240	201	229
2835	0	0	0
2836	0	0	0
2837	0	0	0
2838	0	0	0
2839	0	0	0
2840	0	0	0
2841	0	0	0
2842	0	0	0
2843	0	0	0
2844	0	0	0
2845	0	0	0
2846	0	0	0
2847	0	0	0
2848	0	0	0
2849	0	0	0
2850	0	0	0
2851	0	0	0
2852	0	0	0
2853	0	0	0
2854	0	0	0
2855	0	0	0
2856	0	0	0
2857	0	0	0
2858	0	0	0
2859	0	0	0
2860	0	0	0
2861	0	0	0
2862	227	216	239
2863	220	203	236
2864	218	194	234
2865	233	205	247
2866	227	195	242
2867	222	190	237
2868	227	195	239
2869	225	184	234
2870	230	184	237
2871	246	200	249
2872	238	184	233
2873	239	184	231
2874	239	186	231
2875	238	189	232
2876	240	194	234
2877	241	198	235
2878	240	200	232
2879	0	0	0
2880	0	0	0
2881	0	0	0
2882	0	0	0
2883	0	0	0
2884	0	0	0
2885	0	0	0
2886	0	0	0
2887	0	0	0
2888	0	0	0
2889	0	0	0
2890	0	0	0
2891	0	0	0
2892	0	0	0
2893	0	0	0
2894	0	0	0
2895	0	0	0
2896	0	0	0
2897	0	0	0
2898	0	0	0
2899	0	0	0
2900	0	0	0
2901	0	0	0
2902	0	0	0
2903	0	0	0
2904	0	0	0
2905	0	0	0
2906	0	0	0
2907	0	0	0
2908	225	213	237
2909	224	204	237
2910	230	202	241
2911	224	191	233
2912	225	195	236
2913	230	201	240
2914	235	201	242
2915	239	199	242
2916	239	191	239
2917	233	178	230
2918	239	184	234
2919	238	185	232
2920	239	190	233
2921	239	194	232
2922	242	200	233
2923	242	203	234
2924	0	0	0
2925	0	0	0
2926	0	0	0
2927	0	0	0
2928	0	0	0
2929	0	0	0
2930	0	0	0
2931	0	0	0
2932	0	0	0
2933	0	0	0
2934	0	0	0
2935	0	0	0
2936	0	0	0
2937	0	0	0
2938	0	0	0
2939	0	0	0
2940	0	0	0
2941	0	0	0
2942	0	0	0
2943	0	0	0
2944	0	0	0
2945	0	0	0
2946	0	0	0
2947	0	0	0
2948	0	0	0
2949	0	0	0
2950	0	0	0
2951	0	0	0
2952	0	0	0
2953	0	0	0
2954	232	214	240
2955	231	208	239
2956	227	200	234
2957	231	207	239
2958	232	203	239
2959	239	205	241
2960	235	192	234
2961	231	183	229
2962	236	186	235
2963	241	192	239
2964	235	186	232
2965	236	192	233
2966	240	198	233
2967	246	205	236
2968	244	203	233
2969	248	212	236
2970	0	0	0
2971	0	0	0
2972	0	0	0
2973	0	0	0
2974	0	0	0
2975	0	0	0
2976	0	0	0
2977	0	0	0
2978	0	0	0
2979	0	0	0
2980	0	0	0
2981	0	0	0
2982	0	0	0
2983	0	0	0
2984	0	0	0
2985	0	0	0
2986	0	0	0
2987	0	0	0
2988	0	0	0
2989	0	0	0
2990	0	0	0
2991	0	0	0
2992	0	0	0
2993	0	0	0
2994	0	0	0
2995	0	0	0
2996	0	0	0
2997	0	0	0
2998	0	0	0
2999	0	0	0
3000	235	217	239
3001	233	211	237
3002	237	212	240
3003	239	209	239
3004	238	201	236
3005	233	188	230
3006	236	191	233
3007	239	194	237
3008	238	192	236
3009	233	187	232
3010	238	195	235
3011	242	201	236
3012	242	201	233
3013	240	198	228
3014	241	203	227
3015	242	206	226
3016	0	0	0
3017	0	0	0
3018	0	0	0
3019	0	0	0
3020	0	0	0
3021	0	0	0
3022	0	0	0
3023	0	0	0
3024	0	0	0
3025	0	0	0
3026	0	0	0
3027	0	0	0
3028	0	0	0
3029	0	0	0
3030	0	0	0
3031	0	0	0
3032	0	0	0
3033	0	0	0
3034	0	0	0
3035	0	0	0
3036	0	0	0
3037	0	0	0
3038	0	0	0
3039	0	0	0
3040	0	0	0
3041	0	0	0
3042	0	0	0
3043	0	0	0
3044	0	0	0
3045	0	0	0
3046	241	222	241
3047	252	227	250
3048	236	196	232
3049	230	185	227
3050	232	187	229
3051	234	190	232
3052	239	197	237
3053	239	195	236
3054	235	189	233
3055	241	199	237
3056	241	201	235
3057	237	198	229
3058	238	203	228
3059	240	207	228
3060	0	0	0
3061	0	0	0
3062	0	0	0
3063	0	0	0
3064	0	0	0
3065	0	0	0
3066	0	0	0
3067	0	0	0
3068	0	0	0
3069	0	0	0
3070	0	0	0
3071	0	0	0
3072	0	0	0
3073	0	0	0
3074	0	0	0
3075	0	0	0
3076	0	0	0
3077	0	0	0
3078	0	0	0
3079	0	0	0
3080	0	0	0
3081	0	0	0
3082	0	0	0
3083	0	0	0
3084	0	0	0
3085	0	0	0
3086	0	0	0
3087	0	0	0
3088	0	0	0
3089	0	0	0
3090	0	0	0
3091	248	233	246
3092	241	209	236
3093	225	180	223
3094	230	186	231
3095	231	187	231
3096	234	193	234
3097	239	199	237
3098	238	196	235
3099	235	191	232
3100	240	198	235
3101	240	200	231
3102	242	206	232
3103	243	210	232
3104	0	0	0
3105	0	0	0
3106	0	0	0
3107	0	0	0
3108	0	0	0
3109	0	0	0
3110	0	0	0
3111	0	0	0
3112	0	0	0
3113	0	0	0
3114	0	0	0
3115	0	0	0
3116	0	0	0
3117	0	0	0
3118	0	0	0
3119	0	0	0
3120	0	0	0
3121	0	0	0
3122	0	0	0
3123	0	0	0
3124	0	0	0
3125	0	0	0
3126	0	0	0
3127	0	0	0
3128	0	0	0
3129	0	0	0
3130	0	0	0
3131	0	0	0
3132	0	0	0
3133	0	0	0
3134	0	0	0
3135	0	0	0
3136	240	224	239
3137	229	198	228
3138	225	186	227
3139	233	194	237
3140	236	198	238
3141	239	204	241
3142	241	204	240
3143	241	201	238
3144	241	199	236
3145	246	206	239
3146	245	204	234
3147	251	212	237
3148	244	204	230
3149	0	0	0
3150	0	0	0
3151	0	0	0
3152	0	0	0
3153	0	0	0
3154	0	0	0
3155	0	0	0
3156	0	0	0
3157	0	0	0
3158	0	0	0
3159	0	0	0
3160	0	0	0
3161	0	0	0
3162	0	0	0
3163	0	0	0
3164	0	0	0
3165	0	0	0
3166	0	0	0
3167	0	0	0
3168	0	0	0
3169	0	0	0
3170	0	0	0
3171	0	0	0
3172	0	0	0
3173	0	0	0
3174	0	0	0
3175	0	0	0
3176	0	0	0
3177	0	0	0
3178	0	0	0
3179	0	0	0
3180	0	0	0
3181	0	0	0
3182	228	203	230
3183	224	191	229
3184	235	203	241
3185	238	206	242
3186	239	207	241
3187	241	208	241
3188	244	208	240
3189	243	204	237
3190	243	205	235
3191	244	205	234
3192	244	202	232
3193	0	0	0
3194	0	0	0
3195	0	0	0
3196	0	0	0
3197	0	0	0
3198	0	0	0
3199	0	0	0
3200	0	0	0
3201	0	0	0
3202	0	0	0
3203	0	0	0
3204	0	0	0
3205	0	0	0
3206	0	0	0
3207	0	0	0
3208	0	0	0
3209	0	0	0
3210	0	0	0
3211	0	0	0
3212	0	0	0
3213	0	0	0
3214	0	0	0
3215	0	0	0
3216	0	0	0
3217	0	0	0
3218	0	0	0
3219	0	0	0
3220	0	0	0
3221	0	0	0
3222	0	0	0
3223	0	0	0
3224	0	0	0
3225	0	0	0
3226	0	0	0
3227	0	0	0
3228	230	207	236
3229	245	220	249
3230	239	210	241
3231	238	210	240
3232	240	210	240
3233	243	210	240
3234	239	203	233
3235	237	202	231
3236	241	207	234
3237	242	205	234
3238	0	0	0
3239	0	0	0
3240	0	0	0
3241	0	0	0
3242	0	0	0
3243	0	0	0
3244	0	0	0
3245	0	0	0
3246	0	0	0
3247	0	0	0
3248	0	0	0
3249	0	0	0
3250	0	0	0
3251	0	0	0
3252	0	0	0
3253	0	0	0
3254	0	0	0
3255	0	0	0
3256	0	0	0
3257	0	0	0
3258	0	0	0
3259	0	0	0
3260	0	0	0
3261	0	0	0
3262	0	0	0
3263	0	0	0
3264	0	0	0
3265	0	0	0
3266	0	0	0
3267	0	0	0
3268	0	0	0
3269	0	0	0
3270	0	0	0
3271	0	0	0
3272	239	224	242
3273	243	227	246
3274	247	224	246
3275	241	213	239
3276	237	211	237
3277	238	211	238
3278	239	207	236
3279	235	201	232
3280	236	205	233
3281	240	209	233
3282	241	207	232
3283	0	0	0
3284	0	0	0
3285	0	0	0
3286	0	0	0
3287	0	0	0
3288	0	0	0
3289	0	0	0
3290	0	0	0
3291	0	0	0
3292	0	0	0
3293	0	0	0
3294	0	0	0
3295	0	0	0
3296	0	0	0
3297	0	0	0
3298	0	0	0
3299	0	0	0
3300	0	0	0
3301	0	0	0
3302	0	0	0
3303	0	0	0
3304	0	0	0
3305	0	0	0
3306	0	0	0
3307	0	0	0
3308	0	0	0
3309	0	0	0
3310	0	0	0
3311	0	0	0
3312	0	0	0
3313	0	0	0
3314	0	0	0
3315	0	0	0
3316	244	226	242
3317	246	229	246
3318	242	219	240
3319	243	215	239
3320	239	209	235
3321	233	206	232
3322	240	216	239
3323	240	212	237
3324	241	212	237
3325	244	217	239
3326	242	213	234
3327	244	211	234
3328	0	0	0
3329	0	0	0
3330	0	0	0
3331	0	0	0
3332	0	0	0
3333	0	0	0
3334	0	0	0
3335	0	0	0
3336	0	0	0
3337	0	0	0
3338	0	0	0
3339	0	0	0
3340	0	0	0
3341	0	0	0
3342	0	0	0
3343	0	0	0
3344	0	0	0
3345	0	0	0
3346	0	0	0
3347	0	0	0
3348	0	0	0
3349	0	0	0
3350	0	0	0
3351	0	0	0
3352	0	0	0
3353	0	0	0
3354	0	0	0
3355	0	0	0
3356	0	0	0
3357	0	0	0
3358	0	0	0
3359	0	0	0
3360	0	0	0
3361	247	230	244
3362	242	221	240
3363	237	211	236
3364	239	210	237
3365	0	0	0
3366	237	212	238
3367	242	221	242
3368	244	221	240
3369	245	221	239
3370	245	219	237
3371	244	216	235
3372	246	214	235
3373	0	0	0
3374	0	0	0
3375	0	0	0
3376	0	0	0
3377	0	0	0
3378	0	0	0
3379	0	0	0
3380	0	0	0
3381	0	0	0
3382	0	0	0
3383	0	0	0
3384	0	0	0
3385	0	0	0
3386	0	0	0
3387	0	0	0
3388	0	0	0
3389	0	0	0
3390	0	0	0
3391	0	0	0
3392	0	0	0
3393	0	0	0
3394	0	0	0
3395	0	0	0
3396	0	0	0
3397	0	0	0
3398	0	0	0
3399	0	0	0
3400	0	0	0
3401	0	0	0
3402	0	0	0
3403	0	0	0
3404	0	0	0
3405	0	0	0
3406	250	235	246
3407	243	225	242
3408	237	214	237
3409	0	0	0
3410	0	0	0
3411	0	0	0
3412	0	0	0
3413	244	225	240
3414	245	223	237
3415	246	222	237
3416	243	214	233
3417	246	212	234
3418	0	0	0
3419	0	0	0
3420	0	0	0
3421	0	0	0
3422	0	0	0
3423	0	0	0
3424	0	0	0
3425	0	0	0
3426	0	0	0
3427	0	0	0
3428	0	0	0
3429	0	0	0
3430	0	0	0
3431	0	0	0
3432	0	0	0
3433	0	0	0
3434	0	0	0
3435	0	0	0
3436	0	0	0
3437	0	0	0
3438	0	0	0
3439	0	0	0
3440	0	0	0
3441	0	0	0
3442	0	0	0
3443	0	0	0
3444	0	0	0
3445	0	0	0
3446	0	0	0
3447	0	0	0
3448	0	0	0
3449	0	0	0
3450	0	0	0
3451	0	0	0
3452	241	226	240
3453	0	0	0
3454	0	0	0
3455	0	0	0
3456	0	0	0
3457	0	0	0
3458	246	228	240
3459	247	227	237
3460	243	219	233
3461	240	210	231
3462	245	212	234
3463	0	0	0
3464	0	0	0
3465	0	0	0
3466	0	0	0
3467	0	0	0
3468	0	0	0
3469	0	0	0
3470	0	0	0
3471	0	0	0
3472	0	0	0
3473	0	0	0
3474	0	0	0
3475	0	0	0
3476	0	0	0
3477	0	0	0
3478	0	0	0
3479	0	0	0
3480	0	0	0
3481	0	0	0
3482	0	0	0
3483	0	0	0
3484	0	0	0
3485	0	0	0
3486	0	0	0
3487	0	0	0
3488	0	0	0
3489	0	0	0
3490	0	0	0
3491	0	0	0
3492	0	0	0
3493	0	0	0
3494	0	0	0
3495	0	0	0
3496	0	0	0
3497	0	0	0
3498	0	0	0
3499	0	0	0
3500	0	0	0
3501	0	0	0
3502	244	232	241
3503	250	234	242
3504	245	223	234
3505	238	213	229
3506	239	212	232
3507	0	0	0
3508	0	0	0
3509	0	0	0
3510	0	0	0
3511	0	0	0
3512	0	0	0
3513	0	0	0
3514	0	0	0
3515	0	0	0
3516	0	0	0
3517	0	0	0
3518	0	0	0
3519	0	0	0
3520	0	0	0
3521	0	0	0
3522	0	0	0
3523	0	0	0
3524	0	0	0
3525	0	0	0
3526	0	0	0
3527	0	0	0
3528	0	0	0
3529	0	0	0
3530	0	0	0
3531	0	0	0
3532	0	0	0
3533	0	0	0
3534	0	0	0
3535	0	0	0
3536	0	0	0
3537	0	0	0
3538	0	0	0
3539	0	0	0
3540	0	0	0
3541	0	0	0
3542	0	0	0
3543	0	0	0
3544	0	0	0
3545	0	0	0
3546	0	0	0
3547	0	0	0
3548	246	228	238
3549	241	217	232
3550	239	216	233
3551	0	0	0
3552	0	0	0
3553	0	0	0
3554	0	0	0
3555	0	0	0
