 	R	G	B
1	0	0	0
2	0	0	0
3	0	0	0
4	0	0	0
5	0	0	0
6	0	0	0
7	0	0	0
8	0	0	0
9	0	0	0
10	0	0	0
11	0	0	0
12	255	233	230
13	255	234	231
14	0	0	0
15	255	204	217
16	251	191	215
17	243	174	209
18	0	0	0
19	0	0	0
20	0	0	0
21	0	0	0
22	244	167	213
23	0	0	0
24	0	0	0
25	0	0	0
26	0	0	0
27	0	0	0
28	0	0	0
29	0	0	0
30	0	0	0
31	0	0	0
32	0	0	0
33	0	0	0
34	0	0	0
35	0	0	0
36	255	217	221
37	255	223	228
38	255	205	217
39	251	191	212
40	255	192	219
41	255	180	219
42	244	157	213
43	248	157	219
44	245	148	215
45	247	149	217
46	241	143	213
47	244	151	219
48	244	158	224
49	0	0	0
50	0	0	0
51	0	0	0
52	0	0	0
53	0	0	0
54	0	0	0
55	0	0	0
56	0	0	0
57	0	0	0
58	0	0	0
59	255	229	230
60	0	0	0
61	253	206	219
62	249	192	213
63	243	175	205
64	249	175	212
65	255	176	222
66	245	153	215
67	234	130	210
68	235	127	214
69	230	117	210
70	231	119	212
71	227	114	211
72	237	132	223
73	236	139	224
74	0	0	0
75	0	0	0
76	0	0	0
77	0	0	0
78	0	0	0
79	0	0	0
80	0	0	0
81	0	0	0
82	0	0	0
83	255	234	237
84	255	222	231
85	255	212	226
86	255	198	220
87	252	185	216
88	248	171	212
89	254	171	221
90	254	162	224
91	243	139	218
92	246	138	226
93	243	133	229
94	242	132	231
95	243	133	234
96	241	131	234
97	251	150	247
98	234	133	231
99	250	165	247
100	0	0	0
101	0	0	0
102	0	0	0
103	0	0	0
104	0	0	0
105	0	0	0
106	0	0	0
107	0	0	0
108	255	224	234
109	255	211	226
110	255	198	221
111	252	185	219
112	249	172	216
113	245	158	212
114	245	150	215
115	244	140	219
116	250	142	229
117	251	139	233
118	251	139	238
119	249	138	242
120	245	137	243
121	238	132	238
122	231	126	233
123	214	110	220
124	228	136	235
125	0	0	0
126	0	0	0
127	0	0	0
128	0	0	0
129	0	0	0
130	0	0	0
131	255	234	236
132	255	228	237
133	255	215	232
134	254	198	223
135	252	186	220
136	250	175	220
137	247	162	218
138	255	166	228
139	255	157	230
140	248	138	227
141	253	139	235
142	249	132	234
143	250	132	239
144	249	136	245
145	239	132	243
146	237	138	244
147	226	130	237
148	224	134	240
149	239	161	255
150	226	154	242
151	0	0	0
152	0	0	0
153	0	0	0
154	253	232	234
155	254	228	231
156	255	221	229
157	255	215	231
158	251	197	224
159	248	183	221
160	249	174	223
161	247	163	222
162	255	168	232
163	255	171	241
164	254	151	234
165	244	130	229
166	245	128	233
167	239	120	230
168	243	126	237
169	239	127	241
170	234	133	243
171	231	139	246
172	226	143	245
173	221	145	244
174	217	147	241
175	201	139	226
176	0	0	0
177	0	0	0
178	255	238	239
179	255	235	238
180	255	221	230
181	253	212	226
182	255	211	231
183	253	195	226
184	255	189	231
185	255	180	233
186	247	158	225
187	255	162	235
188	255	156	237
189	245	134	229
190	246	134	236
191	243	129	238
192	238	126	237
193	237	130	242
194	233	132	243
195	229	138	245
196	232	154	253
197	225	155	251
198	212	150	242
199	201	148	234
200	0	0	0
201	0	0	0
202	254	237	238
203	255	238	242
204	255	225	236
205	252	212	228
206	253	207	227
207	255	206	230
208	255	197	229
209	255	190	233
210	252	170	227
211	242	147	220
212	243	142	225
213	243	136	229
214	244	135	234
215	243	133	238
216	239	132	240
217	233	128	240
218	230	133	243
219	224	134	242
220	227	149	249
221	229	163	255
222	214	157	245
223	199	150	234
224	0	0	0
225	0	0	0
226	255	239	241
227	255	237	240
228	255	226	237
229	250	212	229
230	255	217	234
231	255	213	234
232	255	202	231
233	255	192	231
234	252	175	227
235	243	154	221
236	246	151	227
237	247	146	232
238	254	154	244
239	251	151	247
240	239	137	240
241	236	136	243
242	234	141	247
243	226	142	246
244	221	146	245
245	225	161	252
246	224	172	254
247	207	163	241
248	206	176	243
249	0	0	0
250	0	0	0
251	255	235	240
252	252	223	234
253	248	213	228
254	255	217	234
255	255	221	239
256	255	207	233
257	255	196	231
258	249	177	225
259	243	160	225
260	246	157	232
261	247	153	236
262	254	160	246
263	255	166	253
264	242	150	244
265	228	135	237
266	229	142	243
267	224	144	244
268	219	149	244
269	213	153	242
270	213	164	245
271	211	174	246
272	211	188	249
273	0	0	0
274	0	0	0
275	0	0	0
276	0	0	0
277	255	225	238
278	252	214	233
279	255	218	239
280	255	208	234
281	252	194	229
282	254	189	232
283	245	169	227
284	250	169	237
285	251	165	243
286	250	162	245
287	254	167	252
288	249	164	250
289	229	145	238
290	223	147	241
291	220	152	244
292	220	162	248
293	219	169	249
294	213	174	248
295	208	181	246
296	0	0	0
297	0	0	0
298	0	0	0
299	0	0	0
300	0	0	0
301	0	0	0
302	0	0	0
303	252	212	237
304	250	202	235
305	247	192	230
306	248	185	231
307	249	181	235
308	251	177	240
309	252	174	244
310	251	172	247
311	247	166	248
312	245	165	249
313	238	161	247
314	230	161	246
315	222	161	245
316	218	169	248
317	216	178	250
318	217	187	252
319	213	192	250
320	0	0	0
321	0	0	0
322	0	0	0
323	0	0	0
324	0	0	0
325	0	0	0
326	0	0	0
327	0	0	0
328	255	220	245
329	255	211	243
330	254	200	238
331	254	193	239
332	251	184	240
333	250	179	243
334	249	177	247
335	246	173	248
336	242	171	249
337	236	167	247
338	234	172	250
339	229	173	250
340	226	181	252
341	218	186	251
342	211	190	249
343	0	0	0
344	0	0	0
345	0	0	0
346	0	0	0
347	0	0	0
348	0	0	0
349	0	0	0
350	0	0	0
351	0	0	0
352	0	0	0
353	255	227	246
354	255	213	240
355	255	202	237
356	252	193	236
357	248	183	237
358	250	184	245
359	248	182	250
360	244	180	252
361	239	177	250
362	236	181	253
363	233	184	253
364	230	192	255
365	226	198	255
366	216	200	251
367	0	0	0
368	0	0	0
369	0	0	0
370	0	0	0
371	0	0	0
372	0	0	0
373	0	0	0
374	0	0	0
375	0	0	0
376	0	0	0
377	0	0	0
378	0	0	0
379	247	201	231
380	251	202	236
381	248	192	235
382	246	186	238
383	249	187	246
384	242	181	246
385	235	176	246
386	235	184	251
387	232	188	252
388	223	187	247
389	0	0	0
390	0	0	0
391	0	0	0
392	0	0	0
393	0	0	0
394	0	0	0
395	0	0	0
396	0	0	0
397	0	0	0
398	0	0	0
399	0	0	0
400	0	0	0
401	0	0	0
402	0	0	0
403	0	0	0
404	250	206	238
405	253	206	242
406	250	198	242
407	246	191	243
408	242	185	243
409	232	176	239
410	231	183	244
411	230	190	249
412	226	193	248
413	0	0	0
414	0	0	0
415	0	0	0
416	0	0	0
417	0	0	0
418	0	0	0
419	0	0	0
420	0	0	0
421	0	0	0
422	0	0	0
423	0	0	0
424	0	0	0
425	0	0	0
426	0	0	0
427	0	0	0
428	0	0	0
429	0	0	0
430	252	205	243
431	248	197	242
432	242	191	242
433	0	0	0
434	0	0	0
435	0	0	0
436	226	199	247
437	0	0	0
438	0	0	0
439	0	0	0
440	0	0	0
441	0	0	0
442	0	0	0
443	0	0	0
444	0	0	0
445	0	0	0
446	0	0	0
447	0	0	0
448	0	0	0
449	0	0	0
450	0	0	0
451	0	0	0
452	0	0	0
453	0	0	0
454	0	0	0
455	0	0	0
456	243	196	241
457	0	0	0
458	0	0	0
459	0	0	0
460	0	0	0
461	0	0	0
462	0	0	0
463	0	0	0
464	0	0	0
465	0	0	0
466	0	0	0
467	0	0	0
468	0	0	0
469	0	0	0
470	0	0	0
471	0	0	0
472	0	0	0
473	0	0	0
474	0	0	0
475	0	0	0
