 	R	G	B
1	0	0	0
2	0	0	0
3	0	0	0
4	0	0	0
5	0	0	0
6	0	0	0
7	0	0	0
8	0	0	0
9	0	0	0
10	0	0	0
11	0	0	0
12	0	0	0
13	0	0	0
14	0	0	0
15	0	0	0
16	0	0	0
17	0	0	0
18	0	0	0
19	0	0	0
20	0	0	0
21	0	0	0
22	0	0	0
23	0	0	0
24	0	0	0
25	0	0	0
26	0	0	0
27	0	0	0
28	0	0	0
29	0	0	0
30	0	0	0
31	0	0	0
32	0	0	0
33	0	0	0
34	0	0	0
35	0	0	0
36	0	0	0
37	0	0	0
38	0	0	0
39	0	0	0
40	0	0	0
41	0	0	0
42	0	0	0
43	0	0	0
44	0	0	0
45	0	0	0
46	0	0	0
47	0	0	0
48	0	0	0
49	248	211	229
50	255	220	238
51	0	0	0
52	0	0	0
53	0	0	0
54	0	0	0
55	0	0	0
56	0	0	0
57	0	0	0
58	0	0	0
59	0	0	0
60	0	0	0
61	0	0	0
62	0	0	0
63	0	0	0
64	0	0	0
65	0	0	0
66	0	0	0
67	0	0	0
68	0	0	0
69	0	0	0
70	0	0	0
71	0	0	0
72	0	0	0
73	0	0	0
74	0	0	0
75	0	0	0
76	0	0	0
77	0	0	0
78	0	0	0
79	0	0	0
80	0	0	0
81	0	0	0
82	0	0	0
83	0	0	0
84	0	0	0
85	0	0	0
86	0	0	0
87	0	0	0
88	0	0	0
89	0	0	0
90	0	0	0
91	0	0	0
92	0	0	0
93	0	0	0
94	0	0	0
95	0	0	0
96	0	0	0
97	254	241	242
98	253	231	237
99	255	223	235
100	250	209	228
101	253	210	232
102	249	206	230
103	0	0	0
104	0	0	0
105	0	0	0
106	0	0	0
107	0	0	0
108	0	0	0
109	0	0	0
110	0	0	0
111	0	0	0
112	0	0	0
113	0	0	0
114	0	0	0
115	0	0	0
116	0	0	0
117	0	0	0
118	0	0	0
119	0	0	0
120	0	0	0
121	0	0	0
122	0	0	0
123	0	0	0
124	0	0	0
125	0	0	0
126	0	0	0
127	0	0	0
128	0	0	0
129	0	0	0
130	0	0	0
131	0	0	0
132	0	0	0
133	0	0	0
134	0	0	0
135	0	0	0
136	0	0	0
137	0	0	0
138	0	0	0
139	0	0	0
140	0	0	0
141	0	0	0
142	0	0	0
143	0	0	0
144	0	0	0
145	0	0	0
146	0	0	0
147	255	245	243
148	255	237	241
149	252	219	232
150	251	210	229
151	248	201	225
152	251	202	229
153	248	200	230
154	0	0	0
155	0	0	0
156	0	0	0
157	0	0	0
158	0	0	0
159	0	0	0
160	0	0	0
161	0	0	0
162	0	0	0
163	0	0	0
164	0	0	0
165	0	0	0
166	0	0	0
167	0	0	0
168	0	0	0
169	0	0	0
170	0	0	0
171	0	0	0
172	0	0	0
173	0	0	0
174	0	0	0
175	0	0	0
176	0	0	0
177	0	0	0
178	0	0	0
179	0	0	0
180	0	0	0
181	0	0	0
182	0	0	0
183	0	0	0
184	0	0	0
185	0	0	0
186	0	0	0
187	0	0	0
188	0	0	0
189	0	0	0
190	0	0	0
191	0	0	0
192	0	0	0
193	0	0	0
194	0	0	0
195	0	0	0
196	0	0	0
197	0	0	0
198	255	240	241
199	255	225	235
200	249	207	226
201	252	204	229
202	249	196	227
203	253	200	233
204	247	195	231
205	0	0	0
206	0	0	0
207	0	0	0
208	0	0	0
209	0	0	0
210	0	0	0
211	0	0	0
212	0	0	0
213	0	0	0
214	0	0	0
215	0	0	0
216	0	0	0
217	0	0	0
218	0	0	0
219	0	0	0
220	0	0	0
221	0	0	0
222	0	0	0
223	0	0	0
224	0	0	0
225	0	0	0
226	0	0	0
227	0	0	0
228	0	0	0
229	0	0	0
230	0	0	0
231	0	0	0
232	0	0	0
233	0	0	0
234	0	0	0
235	0	0	0
236	0	0	0
237	0	0	0
238	0	0	0
239	0	0	0
240	0	0	0
241	0	0	0
242	0	0	0
243	0	0	0
244	0	0	0
245	0	0	0
246	0	0	0
247	0	0	0
248	0	0	0
249	255	231	237
250	254	216	231
251	249	201	224
252	252	199	228
253	247	188	226
254	250	191	231
255	246	190	230
256	0	0	0
257	0	0	0
258	0	0	0
259	0	0	0
260	0	0	0
261	0	0	0
262	0	0	0
263	0	0	0
264	0	0	0
265	0	0	0
266	0	0	0
267	0	0	0
268	0	0	0
269	0	0	0
270	0	0	0
271	0	0	0
272	0	0	0
273	0	0	0
274	0	0	0
275	0	0	0
276	0	0	0
277	0	0	0
278	0	0	0
279	0	0	0
280	0	0	0
281	0	0	0
282	0	0	0
283	0	0	0
284	0	0	0
285	0	0	0
286	0	0	0
287	0	0	0
288	0	0	0
289	0	0	0
290	0	0	0
291	0	0	0
292	0	0	0
293	0	0	0
294	0	0	0
295	0	0	0
296	0	0	0
297	0	0	0
298	0	0	0
299	255	233	235
300	255	223	232
301	255	212	230
302	251	197	224
303	251	192	226
304	246	181	226
305	251	189	234
306	244	186	229
307	0	0	0
308	0	0	0
309	0	0	0
310	0	0	0
311	0	0	0
312	0	0	0
313	0	0	0
314	0	0	0
315	0	0	0
316	0	0	0
317	0	0	0
318	0	0	0
319	0	0	0
320	0	0	0
321	0	0	0
322	0	0	0
323	0	0	0
324	0	0	0
325	0	0	0
326	0	0	0
327	0	0	0
328	0	0	0
329	0	0	0
330	0	0	0
331	0	0	0
332	0	0	0
333	0	0	0
334	0	0	0
335	0	0	0
336	0	0	0
337	0	0	0
338	0	0	0
339	0	0	0
340	0	0	0
341	0	0	0
342	0	0	0
343	0	0	0
344	0	0	0
345	0	0	0
346	0	0	0
347	0	0	0
348	0	0	0
349	255	243	240
350	255	232	236
351	252	208	225
352	251	197	224
353	249	188	223
354	249	183	226
355	246	176	228
356	249	183	234
357	242	182	227
358	0	0	0
359	0	0	0
360	0	0	0
361	0	0	0
362	0	0	0
363	0	0	0
364	0	0	0
365	0	0	0
366	0	0	0
367	0	0	0
368	0	0	0
369	0	0	0
370	0	0	0
371	0	0	0
372	0	0	0
373	0	0	0
374	0	0	0
375	0	0	0
376	0	0	0
377	0	0	0
378	0	0	0
379	0	0	0
380	0	0	0
381	0	0	0
382	0	0	0
383	0	0	0
384	0	0	0
385	0	0	0
386	0	0	0
387	0	0	0
388	0	0	0
389	0	0	0
390	0	0	0
391	0	0	0
392	0	0	0
393	0	0	0
394	0	0	0
395	0	0	0
396	0	0	0
397	0	0	0
398	0	0	0
399	0	0	0
400	255	241	241
401	255	217	229
402	247	194	220
403	253	192	227
404	251	183	227
405	252	181	231
406	246	173	230
407	250	182	236
408	240	181	229
409	0	0	0
410	0	0	0
411	0	0	0
412	0	0	0
413	0	0	0
414	0	0	0
415	0	0	0
416	0	0	0
417	0	0	0
418	0	0	0
419	0	0	0
420	0	0	0
421	0	0	0
422	0	0	0
423	0	0	0
424	0	0	0
425	0	0	0
426	0	0	0
427	0	0	0
428	0	0	0
429	0	0	0
430	0	0	0
431	0	0	0
432	0	0	0
433	0	0	0
434	0	0	0
435	0	0	0
436	0	0	0
437	0	0	0
438	0	0	0
439	0	0	0
440	0	0	0
441	0	0	0
442	0	0	0
443	0	0	0
444	0	0	0
445	0	0	0
446	0	0	0
447	0	0	0
448	0	0	0
449	0	0	0
450	0	0	0
451	255	229	237
452	254	207	227
453	248	187	221
454	253	185	228
455	245	169	223
456	244	165	225
457	246	172	232
458	248	180	236
459	242	184	233
460	0	0	0
461	0	0	0
462	0	0	0
463	0	0	0
464	0	0	0
465	0	0	0
466	0	0	0
467	0	0	0
468	0	0	0
469	0	0	0
470	0	0	0
471	0	0	0
472	0	0	0
473	0	0	0
474	0	0	0
475	0	0	0
476	0	0	0
477	0	0	0
478	0	0	0
479	0	0	0
480	0	0	0
481	0	0	0
482	0	0	0
483	0	0	0
484	0	0	0
485	0	0	0
486	0	0	0
487	0	0	0
488	0	0	0
489	0	0	0
490	0	0	0
491	0	0	0
492	0	0	0
493	0	0	0
494	0	0	0
495	0	0	0
496	0	0	0
497	0	0	0
498	0	0	0
499	0	0	0
500	0	0	0
501	0	0	0
502	255	218	232
503	255	201	228
504	250	182	224
505	250	173	225
506	240	155	218
507	247	167	229
508	248	172	234
509	251	184	240
510	244	187	235
511	0	0	0
512	0	0	0
513	0	0	0
514	0	0	0
515	0	0	0
516	0	0	0
517	0	0	0
518	0	0	0
519	0	0	0
520	0	0	0
521	0	0	0
522	0	0	0
523	0	0	0
524	0	0	0
525	0	0	0
526	0	0	0
527	0	0	0
528	0	0	0
529	0	0	0
530	0	0	0
531	0	0	0
532	0	0	0
533	0	0	0
534	0	0	0
535	0	0	0
536	0	0	0
537	0	0	0
538	0	0	0
539	0	0	0
540	0	0	0
541	0	0	0
542	0	0	0
543	0	0	0
544	0	0	0
545	0	0	0
546	0	0	0
547	0	0	0
548	0	0	0
549	0	0	0
550	0	0	0
551	255	239	237
552	0	0	0
553	255	204	225
554	252	187	222
555	246	169	219
556	245	160	220
557	240	153	219
558	245	162	228
559	250	175	237
560	254	186	243
561	242	183	232
562	0	0	0
563	0	0	0
564	0	0	0
565	0	0	0
566	0	0	0
567	0	0	0
568	0	0	0
569	0	0	0
570	0	0	0
571	0	0	0
572	0	0	0
573	0	0	0
574	0	0	0
575	0	0	0
576	0	0	0
577	0	0	0
578	0	0	0
579	0	0	0
580	0	0	0
581	0	0	0
582	0	0	0
583	0	0	0
584	0	0	0
585	0	0	0
586	0	0	0
587	0	0	0
588	0	0	0
589	0	0	0
590	0	0	0
591	0	0	0
592	0	0	0
593	0	0	0
594	0	0	0
595	0	0	0
596	0	0	0
597	0	0	0
598	0	0	0
599	0	0	0
600	0	0	0
601	255	235	232
602	255	230	231
603	255	210	223
604	252	190	217
605	248	174	215
606	241	156	212
607	245	157	220
608	240	149	218
609	250	167	232
610	254	179	241
611	253	184	243
612	240	180	232
613	0	0	0
614	0	0	0
615	0	0	0
616	0	0	0
617	0	0	0
618	0	0	0
619	0	0	0
620	0	0	0
621	0	0	0
622	0	0	0
623	0	0	0
624	0	0	0
625	0	0	0
626	0	0	0
627	0	0	0
628	0	0	0
629	0	0	0
630	0	0	0
631	0	0	0
632	0	0	0
633	0	0	0
634	0	0	0
635	0	0	0
636	0	0	0
637	0	0	0
638	0	0	0
639	0	0	0
640	0	0	0
641	0	0	0
642	0	0	0
643	0	0	0
644	0	0	0
645	0	0	0
646	0	0	0
647	0	0	0
648	0	0	0
649	0	0	0
650	0	0	0
651	255	246	238
652	255	239	235
653	255	212	222
654	252	193	215
655	247	176	211
656	243	159	209
657	246	158	217
658	248	158	223
659	245	155	223
660	255	174	238
661	251	172	237
662	249	176	238
663	239	177	231
664	0	0	0
665	0	0	0
666	0	0	0
667	0	0	0
668	0	0	0
669	0	0	0
670	0	0	0
671	0	0	0
672	0	0	0
673	0	0	0
674	0	0	0
675	0	0	0
676	0	0	0
677	0	0	0
678	0	0	0
679	0	0	0
680	0	0	0
681	0	0	0
682	0	0	0
683	0	0	0
684	0	0	0
685	0	0	0
686	0	0	0
687	0	0	0
688	0	0	0
689	0	0	0
690	0	0	0
691	0	0	0
692	0	0	0
693	0	0	0
694	0	0	0
695	0	0	0
696	0	0	0
697	0	0	0
698	0	0	0
699	0	0	0
700	0	0	0
701	255	245	241
702	255	249	241
703	255	220	223
704	250	194	214
705	249	180	213
706	243	162	209
707	250	165	219
708	251	162	224
709	252	164	229
710	249	161	228
711	251	165	233
712	245	162	230
713	245	172	234
714	0	0	0
715	0	0	0
716	0	0	0
717	0	0	0
718	0	0	0
719	0	0	0
720	0	0	0
721	0	0	0
722	0	0	0
723	0	0	0
724	0	0	0
725	0	0	0
726	0	0	0
727	0	0	0
728	0	0	0
729	0	0	0
730	0	0	0
731	0	0	0
732	0	0	0
733	0	0	0
734	0	0	0
735	0	0	0
736	0	0	0
737	0	0	0
738	0	0	0
739	0	0	0
740	0	0	0
741	0	0	0
742	0	0	0
743	0	0	0
744	0	0	0
745	0	0	0
746	0	0	0
747	0	0	0
748	0	0	0
749	0	0	0
750	0	0	0
751	255	236	234
752	255	240	238
753	255	228	228
754	250	198	211
755	252	188	215
756	251	174	215
757	246	160	213
758	250	160	221
759	246	155	221
760	246	155	224
761	247	158	228
762	249	162	232
763	243	162	230
764	0	0	0
765	0	0	0
766	0	0	0
767	0	0	0
768	0	0	0
769	0	0	0
770	0	0	0
771	0	0	0
772	0	0	0
773	0	0	0
774	0	0	0
775	0	0	0
776	0	0	0
777	0	0	0
778	0	0	0
779	0	0	0
780	0	0	0
781	0	0	0
782	0	0	0
783	0	0	0
784	0	0	0
785	0	0	0
786	0	0	0
787	0	0	0
788	0	0	0
789	0	0	0
790	0	0	0
791	0	0	0
792	0	0	0
793	0	0	0
794	0	0	0
795	0	0	0
796	0	0	0
797	0	0	0
798	0	0	0
799	0	0	0
800	0	0	0
801	0	0	0
802	0	0	0
803	254	216	222
804	254	206	216
805	255	194	214
806	255	184	216
807	253	172	217
808	247	157	216
809	249	157	222
810	245	150	221
811	247	155	227
812	248	157	231
813	252	164	237
814	244	163	232
815	0	0	0
816	0	0	0
817	0	0	0
818	0	0	0
819	0	0	0
820	0	0	0
821	0	0	0
822	0	0	0
823	0	0	0
824	0	0	0
825	0	0	0
826	0	0	0
827	0	0	0
828	0	0	0
829	0	0	0
830	0	0	0
831	0	0	0
832	0	0	0
833	0	0	0
834	0	0	0
835	0	0	0
836	0	0	0
837	0	0	0
838	0	0	0
839	0	0	0
840	0	0	0
841	0	0	0
842	0	0	0
843	0	0	0
844	0	0	0
845	0	0	0
846	0	0	0
847	0	0	0
848	0	0	0
849	0	0	0
850	0	0	0
851	0	0	0
852	0	0	0
853	255	228	227
854	255	220	226
855	252	193	214
856	254	183	215
857	248	166	211
858	242	152	209
859	247	154	219
860	249	153	224
861	245	147	221
862	249	152	228
863	253	160	234
864	255	166	237
865	244	162	230
866	0	0	0
867	0	0	0
868	0	0	0
869	0	0	0
870	0	0	0
871	0	0	0
872	0	0	0
873	0	0	0
874	0	0	0
875	0	0	0
876	0	0	0
877	0	0	0
878	0	0	0
879	0	0	0
880	0	0	0
881	0	0	0
882	0	0	0
883	0	0	0
884	0	0	0
885	0	0	0
886	0	0	0
887	0	0	0
888	0	0	0
889	0	0	0
890	0	0	0
891	0	0	0
892	0	0	0
893	0	0	0
894	0	0	0
895	0	0	0
896	0	0	0
897	0	0	0
898	0	0	0
899	0	0	0
900	0	0	0
901	0	0	0
902	0	0	0
903	255	236	229
904	255	230	229
905	255	207	221
906	250	182	215
907	250	169	217
908	243	151	213
909	250	155	221
910	252	156	226
911	249	151	226
912	243	144	223
913	252	155	231
914	255	161	232
915	253	164	232
916	242	160	226
917	0	0	0
918	0	0	0
919	0	0	0
920	0	0	0
921	0	0	0
922	0	0	0
923	0	0	0
924	0	0	0
925	0	0	0
926	0	0	0
927	0	0	0
928	0	0	0
929	0	0	0
930	0	0	0
931	0	0	0
932	0	0	0
933	0	0	0
934	0	0	0
935	0	0	0
936	0	0	0
937	0	0	0
938	0	0	0
939	0	0	0
940	0	0	0
941	0	0	0
942	0	0	0
943	0	0	0
944	0	0	0
945	0	0	0
946	0	0	0
947	0	0	0
948	0	0	0
949	0	0	0
950	0	0	0
951	0	0	0
952	0	0	0
953	0	0	0
954	0	0	0
955	255	209	218
956	251	186	212
957	248	169	214
958	245	155	216
959	248	152	221
960	255	157	230
961	251	149	226
962	241	140	221
963	239	139	221
964	248	151	229
965	250	157	229
966	247	158	227
967	242	163	226
968	0	0	0
969	0	0	0
970	0	0	0
971	0	0	0
972	0	0	0
973	0	0	0
974	0	0	0
975	0	0	0
976	0	0	0
977	0	0	0
978	0	0	0
979	0	0	0
980	0	0	0
981	0	0	0
982	0	0	0
983	0	0	0
984	0	0	0
985	0	0	0
986	0	0	0
987	0	0	0
988	0	0	0
989	0	0	0
990	0	0	0
991	0	0	0
992	0	0	0
993	0	0	0
994	0	0	0
995	0	0	0
996	0	0	0
997	0	0	0
998	0	0	0
999	0	0	0
1000	0	0	0
1001	0	0	0
1002	0	0	0
1003	0	0	0
1004	0	0	0
1005	0	0	0
1006	247	185	208
1007	243	169	207
1008	238	152	209
1009	247	155	221
1010	249	150	224
1011	250	148	226
1012	243	138	221
1013	236	136	219
1014	233	135	220
1015	243	147	228
1016	246	153	230
1017	249	163	234
1018	243	167	229
1019	0	0	0
1020	0	0	0
1021	0	0	0
1022	0	0	0
1023	0	0	0
1024	0	0	0
1025	0	0	0
1026	0	0	0
1027	0	0	0
1028	0	0	0
1029	0	0	0
1030	0	0	0
1031	0	0	0
1032	0	0	0
1033	0	0	0
1034	0	0	0
1035	0	0	0
1036	0	0	0
1037	0	0	0
1038	0	0	0
1039	0	0	0
1040	0	0	0
1041	0	0	0
1042	0	0	0
1043	0	0	0
1044	0	0	0
1045	0	0	0
1046	0	0	0
1047	0	0	0
1048	0	0	0
1049	0	0	0
1050	0	0	0
1051	0	0	0
1052	0	0	0
1053	0	0	0
1054	0	0	0
1055	0	0	0
1056	0	0	0
1057	250	186	214
1058	241	167	212
1059	230	143	209
1060	242	147	222
1061	243	144	223
1062	240	138	220
1063	237	136	220
1064	233	135	220
1065	235	142	225
1066	244	153	232
1067	246	158	234
1068	250	168	237
1069	241	164	228
1070	0	0	0
1071	0	0	0
1072	0	0	0
1073	0	0	0
1074	0	0	0
1075	0	0	0
1076	0	0	0
1077	0	0	0
1078	0	0	0
1079	0	0	0
1080	0	0	0
1081	0	0	0
1082	0	0	0
1083	0	0	0
1084	0	0	0
1085	0	0	0
1086	0	0	0
1087	0	0	0
1088	0	0	0
1089	0	0	0
1090	0	0	0
1091	0	0	0
1092	0	0	0
1093	0	0	0
1094	0	0	0
1095	0	0	0
1096	0	0	0
1097	0	0	0
1098	0	0	0
1099	0	0	0
1100	0	0	0
1101	0	0	0
1102	0	0	0
1103	0	0	0
1104	0	0	0
1105	255	229	226
1106	255	207	217
1107	255	198	219
1108	255	189	223
1109	236	160	213
1110	222	134	209
1111	233	139	220
1112	233	134	218
1113	236	137	221
1114	233	135	220
1115	237	144	227
1116	240	151	231
1117	247	159	236
1118	248	163	235
1119	248	167	234
1120	240	164	226
1121	0	0	0
1122	0	0	0
1123	0	0	0
1124	0	0	0
1125	0	0	0
1126	0	0	0
1127	0	0	0
1128	0	0	0
1129	0	0	0
1130	0	0	0
1131	0	0	0
1132	0	0	0
1133	0	0	0
1134	0	0	0
1135	0	0	0
1136	0	0	0
1137	0	0	0
1138	0	0	0
1139	0	0	0
1140	0	0	0
1141	0	0	0
1142	0	0	0
1143	0	0	0
1144	0	0	0
1145	0	0	0
1146	0	0	0
1147	0	0	0
1148	0	0	0
1149	0	0	0
1150	0	0	0
1151	0	0	0
1152	0	0	0
1153	0	0	0
1154	0	0	0
1155	255	237	232
1156	255	212	218
1157	251	190	212
1158	254	182	217
1159	247	169	217
1160	222	138	205
1161	221	135	214
1162	227	138	222
1163	232	140	224
1164	238	144	227
1165	231	134	221
1166	236	143	227
1167	238	146	229
1168	243	154	233
1169	242	155	229
1170	241	158	228
1171	240	165	228
1172	0	0	0
1173	0	0	0
1174	0	0	0
1175	0	0	0
1176	0	0	0
1177	0	0	0
1178	0	0	0
1179	0	0	0
1180	0	0	0
1181	0	0	0
1182	0	0	0
1183	0	0	0
1184	0	0	0
1185	0	0	0
1186	0	0	0
1187	0	0	0
1188	0	0	0
1189	0	0	0
1190	0	0	0
1191	0	0	0
1192	0	0	0
1193	0	0	0
1194	0	0	0
1195	0	0	0
1196	0	0	0
1197	0	0	0
1198	0	0	0
1199	0	0	0
1200	0	0	0
1201	0	0	0
1202	0	0	0
1203	0	0	0
1204	0	0	0
1205	255	229	232
1206	255	217	223
1207	249	193	213
1208	243	172	209
1209	245	164	215
1210	236	150	214
1211	228	145	218
1212	226	141	223
1213	235	149	233
1214	238	151	233
1215	235	144	227
1216	229	133	220
1217	233	139	224
1218	235	142	227
1219	236	146	228
1220	234	146	224
1221	240	159	229
1222	240	166	230
1223	0	0	0
1224	0	0	0
1225	0	0	0
1226	0	0	0
1227	0	0	0
1228	0	0	0
1229	0	0	0
1230	0	0	0
1231	0	0	0
1232	0	0	0
1233	0	0	0
1234	0	0	0
1235	0	0	0
1236	0	0	0
1237	0	0	0
1238	0	0	0
1239	0	0	0
1240	0	0	0
1241	0	0	0
1242	0	0	0
1243	0	0	0
1244	0	0	0
1245	0	0	0
1246	0	0	0
1247	0	0	0
1248	0	0	0
1249	0	0	0
1250	0	0	0
1251	0	0	0
1252	0	0	0
1253	0	0	0
1254	0	0	0
1255	255	241	240
1256	255	232	238
1257	252	202	219
1258	240	176	208
1259	242	170	216
1260	242	162	222
1261	231	143	217
1262	225	139	220
1263	227	139	225
1264	237	148	234
1265	227	133	222
1266	217	121	212
1267	226	133	220
1268	237	141	226
1269	245	153	234
1270	239	154	231
1271	229	145	222
1272	235	158	228
1273	239	168	232
1274	0	0	0
1275	0	0	0
1276	0	0	0
1277	0	0	0
1278	0	0	0
1279	0	0	0
1280	0	0	0
1281	0	0	0
1282	0	0	0
1283	0	0	0
1284	0	0	0
1285	0	0	0
1286	0	0	0
1287	0	0	0
1288	0	0	0
1289	0	0	0
1290	0	0	0
1291	0	0	0
1292	0	0	0
1293	0	0	0
1294	0	0	0
1295	0	0	0
1296	0	0	0
1297	0	0	0
1298	0	0	0
1299	0	0	0
1300	0	0	0
1301	0	0	0
1302	0	0	0
1303	0	0	0
1304	0	0	0
1305	0	0	0
1306	255	237	237
1307	254	211	226
1308	241	181	209
1309	239	172	211
1310	240	166	219
1311	236	153	221
1312	224	134	215
1313	225	138	223
1314	226	137	226
1315	225	130	222
1316	215	114	209
1317	218	123	213
1318	227	134	221
1319	242	149	230
1320	248	160	233
1321	235	151	223
1322	225	142	218
1323	233	157	227
1324	237	167	231
1325	0	0	0
1326	0	0	0
1327	0	0	0
1328	0	0	0
1329	0	0	0
1330	0	0	0
1331	0	0	0
1332	0	0	0
1333	0	0	0
1334	0	0	0
1335	0	0	0
1336	0	0	0
1337	0	0	0
1338	0	0	0
1339	0	0	0
1340	0	0	0
1341	0	0	0
1342	0	0	0
1343	0	0	0
1344	0	0	0
1345	0	0	0
1346	0	0	0
1347	0	0	0
1348	0	0	0
1349	0	0	0
1350	0	0	0
1351	0	0	0
1352	0	0	0
1353	0	0	0
1354	0	0	0
1355	0	0	0
1356	0	0	0
1357	255	231	233
1358	252	206	223
1359	244	182	213
1360	244	174	217
1361	246	171	226
1362	238	156	226
1363	225	135	219
1364	227	139	228
1365	219	125	220
1366	216	117	215
1367	218	120	215
1368	225	131	221
1369	233	142	228
1370	243	154	233
1371	242	153	227
1372	232	146	220
1373	230	149	222
1374	237	163	230
1375	240	174	234
1376	0	0	0
1377	0	0	0
1378	0	0	0
1379	0	0	0
1380	0	0	0
1381	0	0	0
1382	0	0	0
1383	0	0	0
1384	0	0	0
1385	0	0	0
1386	0	0	0
1387	0	0	0
1388	0	0	0
1389	0	0	0
1390	0	0	0
1391	0	0	0
1392	0	0	0
1393	0	0	0
1394	0	0	0
1395	0	0	0
1396	0	0	0
1397	0	0	0
1398	0	0	0
1399	0	0	0
1400	0	0	0
1401	0	0	0
1402	0	0	0
1403	0	0	0
1404	0	0	0
1405	0	0	0
1406	0	0	0
1407	0	0	0
1408	254	224	228
1409	254	204	223
1410	248	182	216
1411	254	182	225
1412	254	176	230
1413	239	155	224
1414	225	133	220
1415	219	125	221
1416	209	111	214
1417	218	121	221
1418	220	123	220
1419	229	136	227
1420	237	148	233
1421	241	152	234
1422	240	152	231
1423	238	155	230
1424	236	157	228
1425	242	171	234
1426	244	182	237
1427	0	0	0
1428	0	0	0
1429	0	0	0
1430	0	0	0
1431	0	0	0
1432	0	0	0
1433	0	0	0
1434	0	0	0
1435	0	0	0
1436	0	0	0
1437	0	0	0
1438	0	0	0
1439	0	0	0
1440	0	0	0
1441	0	0	0
1442	0	0	0
1443	0	0	0
1444	0	0	0
1445	0	0	0
1446	0	0	0
1447	0	0	0
1448	0	0	0
1449	0	0	0
1450	0	0	0
1451	0	0	0
1452	0	0	0
1453	0	0	0
1454	0	0	0
1455	0	0	0
1456	0	0	0
1457	0	0	0
1458	0	0	0
1459	255	224	229
1460	255	205	225
1461	247	174	214
1462	255	174	225
1463	249	161	222
1464	231	137	213
1465	231	138	224
1466	225	130	225
1467	219	123	222
1468	225	132	228
1469	223	130	224
1470	231	143	231
1471	237	149	234
1472	243	154	236
1473	233	142	225
1474	229	144	223
1475	234	158	228
1476	242	173	234
1477	242	179	234
1478	0	0	0
1479	0	0	0
1480	0	0	0
1481	0	0	0
1482	0	0	0
1483	0	0	0
1484	0	0	0
1485	0	0	0
1486	0	0	0
1487	0	0	0
1488	0	0	0
1489	0	0	0
1490	0	0	0
1491	0	0	0
1492	0	0	0
1493	0	0	0
1494	0	0	0
1495	0	0	0
1496	0	0	0
1497	0	0	0
1498	0	0	0
1499	0	0	0
1500	0	0	0
1501	0	0	0
1502	0	0	0
1503	0	0	0
1504	0	0	0
1505	0	0	0
1506	0	0	0
1507	0	0	0
1508	0	0	0
1509	0	0	0
1510	255	224	230
1511	255	195	222
1512	243	164	212
1513	245	157	217
1514	238	143	214
1515	236	142	219
1516	236	142	225
1517	232	139	226
1518	226	132	224
1519	226	135	226
1520	223	133	223
1521	230	141	227
1522	235	147	230
1523	233	141	224
1524	222	129	212
1525	228	145	221
1526	235	160	229
1527	242	171	234
1528	242	177	235
1529	0	0	0
1530	0	0	0
1531	0	0	0
1532	0	0	0
1533	0	0	0
1534	0	0	0
1535	0	0	0
1536	0	0	0
1537	0	0	0
1538	0	0	0
1539	0	0	0
1540	0	0	0
1541	0	0	0
1542	0	0	0
1543	0	0	0
1544	0	0	0
1545	0	0	0
1546	0	0	0
1547	0	0	0
1548	0	0	0
1549	0	0	0
1550	0	0	0
1551	0	0	0
1552	0	0	0
1553	0	0	0
1554	0	0	0
1555	0	0	0
1556	0	0	0
1557	0	0	0
1558	0	0	0
1559	0	0	0
1560	255	230	228
1561	255	211	224
1562	250	181	215
1563	242	161	213
1564	237	149	214
1565	239	149	220
1566	240	150	225
1567	232	139	220
1568	230	135	220
1569	232	140	226
1570	231	143	228
1571	227	137	222
1572	236	147	229
1573	240	153	231
1574	231	143	223
1575	219	131	212
1576	228	149	223
1577	238	166	233
1578	248	179	239
1579	245	181	236
1580	0	0	0
1581	0	0	0
1582	0	0	0
1583	0	0	0
1584	0	0	0
1585	0	0	0
1586	0	0	0
1587	0	0	0
1588	0	0	0
1589	0	0	0
1590	0	0	0
1591	0	0	0
1592	0	0	0
1593	0	0	0
1594	0	0	0
1595	0	0	0
1596	0	0	0
1597	0	0	0
1598	0	0	0
1599	0	0	0
1600	0	0	0
1601	0	0	0
1602	0	0	0
1603	0	0	0
1604	0	0	0
1605	0	0	0
1606	0	0	0
1607	0	0	0
1608	0	0	0
1609	0	0	0
1610	252	236	234
1611	255	216	226
1612	253	195	218
1613	248	177	214
1614	240	156	211
1615	244	159	221
1616	245	159	227
1617	239	149	224
1618	232	138	218
1619	241	148	228
1620	244	153	234
1621	238	150	231
1622	233	144	224
1623	245	155	232
1624	247	160	233
1625	235	148	224
1626	223	137	218
1627	233	156	229
1628	241	171	236
1629	247	179	236
1630	0	0	0
1631	0	0	0
1632	0	0	0
1633	0	0	0
1634	0	0	0
1635	0	0	0
1636	0	0	0
1637	0	0	0
1638	0	0	0
1639	0	0	0
1640	0	0	0
1641	0	0	0
1642	0	0	0
1643	0	0	0
1644	0	0	0
1645	0	0	0
1646	0	0	0
1647	0	0	0
1648	0	0	0
1649	0	0	0
1650	0	0	0
1651	0	0	0
1652	0	0	0
1653	0	0	0
1654	0	0	0
1655	0	0	0
1656	0	0	0
1657	0	0	0
1658	0	0	0
1659	0	0	0
1660	0	0	0
1661	255	239	241
1662	255	218	232
1663	243	181	212
1664	237	162	206
1665	242	161	215
1666	251	166	227
1667	244	153	223
1668	235	141	218
1669	241	147	224
1670	254	160	236
1671	244	146	229
1672	236	141	224
1673	231	136	219
1674	241	146	227
1675	233	137	219
1676	222	127	211
1677	234	150	228
1678	242	168	238
1679	238	168	234
1680	239	174	231
1681	241	183	229
1682	0	0	0
1683	0	0	0
1684	0	0	0
1685	0	0	0
1686	0	0	0
1687	0	0	0
1688	0	0	0
1689	0	0	0
1690	0	0	0
1691	0	0	0
1692	0	0	0
1693	0	0	0
1694	0	0	0
1695	0	0	0
1696	0	0	0
1697	0	0	0
1698	0	0	0
1699	0	0	0
1700	0	0	0
1701	0	0	0
1702	0	0	0
1703	0	0	0
1704	0	0	0
1705	0	0	0
1706	0	0	0
1707	0	0	0
1708	0	0	0
1709	0	0	0
1710	0	0	0
1711	0	0	0
1712	255	237	239
1713	250	204	224
1714	236	168	208
1715	247	174	220
1716	253	172	227
1717	253	164	228
1718	245	150	221
1719	246	153	226
1720	252	160	233
1721	251	151	230
1722	240	136	221
1723	232	131	218
1724	227	127	215
1725	224	123	214
1726	215	113	207
1727	231	140	225
1728	243	162	236
1729	241	165	235
1730	237	167	234
1731	240	178	236
1732	241	186	232
1733	0	0	0
1734	0	0	0
1735	0	0	0
1736	0	0	0
1737	0	0	0
1738	0	0	0
1739	0	0	0
1740	0	0	0
1741	0	0	0
1742	0	0	0
1743	0	0	0
1744	0	0	0
1745	0	0	0
1746	0	0	0
1747	0	0	0
1748	0	0	0
1749	0	0	0
1750	0	0	0
1751	0	0	0
1752	0	0	0
1753	0	0	0
1754	0	0	0
1755	0	0	0
1756	0	0	0
1757	0	0	0
1758	0	0	0
1759	0	0	0
1760	0	0	0
1761	0	0	0
1762	0	0	0
1763	255	235	240
1764	250	202	224
1765	237	166	211
1766	254	174	226
1767	252	163	224
1768	250	153	221
1769	250	151	222
1770	252	155	227
1771	254	157	231
1772	249	147	227
1773	241	136	220
1774	234	132	219
1775	232	136	222
1776	222	128	217
1777	222	131	221
1778	242	160	239
1779	238	158	233
1780	237	162	231
1781	239	169	235
1782	241	180	238
1783	0	0	0
1784	0	0	0
1785	0	0	0
1786	0	0	0
1787	0	0	0
1788	0	0	0
1789	0	0	0
1790	0	0	0
1791	0	0	0
1792	0	0	0
1793	0	0	0
1794	0	0	0
1795	0	0	0
1796	0	0	0
1797	0	0	0
1798	0	0	0
1799	0	0	0
1800	0	0	0
1801	0	0	0
1802	0	0	0
1803	0	0	0
1804	0	0	0
1805	0	0	0
1806	0	0	0
1807	0	0	0
1808	0	0	0
1809	0	0	0
1810	0	0	0
1811	0	0	0
1812	0	0	0
1813	0	0	0
1814	255	230	237
1815	246	196	222
1816	233	161	209
1817	246	162	219
1818	244	150	215
1819	251	153	221
1820	251	151	221
1821	252	153	225
1822	255	156	230
1823	254	152	230
1824	245	140	223
1825	245	145	227
1826	242	148	230
1827	236	148	230
1828	234	151	233
1829	238	157	236
1830	235	155	230
1831	239	165	233
1832	241	172	236
1833	244	184	239
1834	0	0	0
1835	0	0	0
1836	0	0	0
1837	0	0	0
1838	0	0	0
1839	0	0	0
1840	0	0	0
1841	0	0	0
1842	0	0	0
1843	0	0	0
1844	0	0	0
1845	0	0	0
1846	0	0	0
1847	0	0	0
1848	0	0	0
1849	0	0	0
1850	0	0	0
1851	0	0	0
1852	0	0	0
1853	0	0	0
1854	0	0	0
1855	0	0	0
1856	0	0	0
1857	0	0	0
1858	0	0	0
1859	0	0	0
1860	0	0	0
1861	0	0	0
1862	0	0	0
1863	0	0	0
1864	0	0	0
1865	249	221	231
1866	238	188	218
1867	231	160	211
1868	243	161	221
1869	244	153	218
1870	248	155	223
1871	243	145	218
1872	249	150	225
1873	251	148	227
1874	248	143	226
1875	224	111	205
1876	225	115	209
1877	244	148	231
1878	240	150	232
1879	233	145	229
1880	234	149	231
1881	230	149	226
1882	234	158	230
1883	242	174	236
1884	246	186	240
1885	246	193	238
1886	0	0	0
1887	0	0	0
1888	0	0	0
1889	0	0	0
1890	0	0	0
1891	0	0	0
1892	0	0	0
1893	0	0	0
1894	0	0	0
1895	0	0	0
1896	0	0	0
1897	0	0	0
1898	0	0	0
1899	0	0	0
1900	0	0	0
1901	0	0	0
1902	0	0	0
1903	0	0	0
1904	0	0	0
1905	0	0	0
1906	0	0	0
1907	0	0	0
1908	0	0	0
1909	0	0	0
1910	0	0	0
1911	0	0	0
1912	0	0	0
1913	0	0	0
1914	0	0	0
1915	0	0	0
1916	246	214	227
1917	239	189	221
1918	233	163	218
1919	249	168	231
1920	248	159	226
1921	245	151	224
1922	241	143	223
1923	246	145	229
1924	246	141	228
1925	227	116	211
1926	203	83	191
1927	226	118	214
1928	246	150	235
1929	234	141	226
1930	226	135	221
1931	229	143	227
1932	225	143	225
1933	233	159	232
1934	239	173	237
1935	241	181	235
1936	0	0	0
1937	0	0	0
1938	0	0	0
1939	0	0	0
1940	0	0	0
1941	0	0	0
1942	0	0	0
1943	0	0	0
1944	0	0	0
1945	0	0	0
1946	0	0	0
1947	0	0	0
1948	0	0	0
1949	0	0	0
1950	0	0	0
1951	0	0	0
1952	0	0	0
1953	0	0	0
1954	0	0	0
1955	0	0	0
1956	0	0	0
1957	0	0	0
1958	0	0	0
1959	0	0	0
1960	0	0	0
1961	0	0	0
1962	0	0	0
1963	0	0	0
1964	0	0	0
1965	0	0	0
1966	0	0	0
1967	249	211	227
1968	239	184	220
1969	233	159	217
1970	250	165	232
1971	254	161	230
1972	251	155	229
1973	245	144	228
1974	246	144	233
1975	228	119	216
1976	205	90	197
1977	205	95	201
1978	232	131	225
1979	251	162	242
1980	236	151	230
1981	221	134	220
1982	226	143	226
1983	225	146	227
1984	231	162	234
1985	235	174	237
1986	0	0	0
1987	0	0	0
1988	0	0	0
1989	0	0	0
1990	0	0	0
1991	0	0	0
1992	0	0	0
1993	0	0	0
1994	0	0	0
1995	0	0	0
1996	0	0	0
1997	0	0	0
1998	0	0	0
1999	0	0	0
2000	0	0	0
2001	0	0	0
2002	0	0	0
2003	0	0	0
2004	0	0	0
2005	0	0	0
2006	0	0	0
2007	0	0	0
2008	0	0	0
2009	0	0	0
2010	0	0	0
2011	0	0	0
2012	0	0	0
2013	0	0	0
2014	0	0	0
2015	0	0	0
2016	0	0	0
2017	0	0	0
2018	248	205	224
2019	238	181	219
2020	230	155	214
2021	251	165	231
2022	255	163	231
2023	250	153	229
2024	243	141	227
2025	232	123	220
2026	213	98	205
2027	213	105	210
2028	215	110	214
2029	242	145	235
2030	255	173	246
2031	232	148	224
2032	218	133	217
2033	225	144	226
2034	222	147	223
2035	230	164	231
2036	235	178	239
2037	0	0	0
2038	0	0	0
2039	0	0	0
2040	0	0	0
2041	0	0	0
2042	0	0	0
2043	0	0	0
2044	0	0	0
2045	0	0	0
2046	0	0	0
2047	0	0	0
2048	0	0	0
2049	0	0	0
2050	0	0	0
2051	0	0	0
2052	0	0	0
2053	0	0	0
2054	0	0	0
2055	0	0	0
2056	0	0	0
2057	0	0	0
2058	0	0	0
2059	0	0	0
2060	0	0	0
2061	0	0	0
2062	0	0	0
2063	0	0	0
2064	0	0	0
2065	0	0	0
2066	0	0	0
2067	0	0	0
2068	0	0	0
2069	249	203	224
2070	236	178	218
2071	227	152	213
2072	250	164	231
2073	255	162	233
2074	247	150	229
2075	227	118	214
2076	217	101	208
2077	213	98	207
2078	217	106	213
2079	237	135	232
2080	255	169	251
2081	248	154	232
2082	221	129	210
2083	228	146	225
2084	230	155	232
2085	222	149	224
2086	233	168	234
2087	0	0	0
2088	0	0	0
2089	0	0	0
2090	0	0	0
2091	0	0	0
2092	0	0	0
2093	0	0	0
2094	0	0	0
2095	0	0	0
2096	0	0	0
2097	0	0	0
2098	0	0	0
2099	0	0	0
2100	0	0	0
2101	0	0	0
2102	0	0	0
2103	0	0	0
2104	0	0	0
2105	0	0	0
2106	0	0	0
2107	0	0	0
2108	0	0	0
2109	0	0	0
2110	0	0	0
2111	0	0	0
2112	0	0	0
2113	0	0	0
2114	0	0	0
2115	0	0	0
2116	0	0	0
2117	0	0	0
2118	0	0	0
2119	0	0	0
2120	244	199	218
2121	233	175	215
2122	225	150	214
2123	246	160	233
2124	249	157	233
2125	225	124	214
2126	203	91	197
2127	210	99	207
2128	208	95	207
2129	230	126	226
2130	249	154	239
2131	248	147	231
2132	235	135	220
2133	235	147	226
2134	240	162	237
2135	231	157	233
2136	223	152	228
2137	233	170	237
2138	236	182	237
2139	0	0	0
2140	0	0	0
2141	0	0	0
2142	0	0	0
2143	0	0	0
2144	0	0	0
2145	0	0	0
2146	0	0	0
2147	0	0	0
2148	0	0	0
2149	0	0	0
2150	0	0	0
2151	0	0	0
2152	0	0	0
2153	0	0	0
2154	0	0	0
2155	0	0	0
2156	0	0	0
2157	0	0	0
2158	0	0	0
2159	0	0	0
2160	0	0	0
2161	0	0	0
2162	0	0	0
2163	0	0	0
2164	0	0	0
2165	0	0	0
2166	0	0	0
2167	0	0	0
2168	0	0	0
2169	0	0	0
2170	0	0	0
2171	238	195	215
2172	233	175	215
2173	228	153	219
2174	245	161	236
2175	242	153	232
2176	213	117	211
2177	192	88	197
2178	200	96	206
2179	211	110	216
2180	236	143	235
2181	244	150	234
2182	241	143	227
2183	229	128	217
2184	232	141	226
2185	237	158	234
2186	229	153	228
2187	231	164	235
2188	235	179	240
2189	235	190	237
2190	0	0	0
2191	0	0	0
2192	0	0	0
2193	0	0	0
2194	0	0	0
2195	0	0	0
2196	0	0	0
2197	0	0	0
2198	0	0	0
2199	0	0	0
2200	0	0	0
2201	0	0	0
2202	0	0	0
2203	0	0	0
2204	0	0	0
2205	0	0	0
2206	0	0	0
2207	0	0	0
2208	0	0	0
2209	0	0	0
2210	0	0	0
2211	0	0	0
2212	0	0	0
2213	0	0	0
2214	0	0	0
2215	0	0	0
2216	0	0	0
2217	0	0	0
2218	0	0	0
2219	0	0	0
2220	0	0	0
2221	0	0	0
2222	238	196	217
2223	236	178	218
2224	230	155	220
2225	238	154	231
2226	232	144	227
2227	203	113	208
2228	182	84	195
2229	205	112	218
2230	217	126	225
2231	231	139	231
2232	239	146	232
2233	231	133	222
2234	218	118	213
2235	226	137	224
2236	232	154	230
2237	235	164	233
2238	236	175	236
2239	238	188	239
2240	239	200	238
2241	0	0	0
2242	0	0	0
2243	0	0	0
2244	0	0	0
2245	0	0	0
2246	0	0	0
2247	0	0	0
2248	0	0	0
2249	0	0	0
2250	0	0	0
2251	0	0	0
2252	0	0	0
2253	0	0	0
2254	0	0	0
2255	0	0	0
2256	0	0	0
2257	0	0	0
2258	0	0	0
2259	0	0	0
2260	0	0	0
2261	0	0	0
2262	0	0	0
2263	0	0	0
2264	0	0	0
2265	0	0	0
2266	0	0	0
2267	0	0	0
2268	0	0	0
2269	0	0	0
2270	0	0	0
2271	0	0	0
2272	0	0	0
2273	237	189	215
2274	232	170	215
2275	229	154	219
2276	234	151	228
2277	228	144	226
2278	197	111	206
2279	191	104	207
2280	218	133	231
2281	225	136	230
2282	239	148	237
2283	232	137	227
2284	216	120	213
2285	221	133	222
2286	230	152	233
2287	228	156	231
2288	232	167	233
2289	237	179	235
2290	243	195	239
2291	240	201	236
2292	0	0	0
2293	0	0	0
2294	0	0	0
2295	0	0	0
2296	0	0	0
2297	0	0	0
2298	0	0	0
2299	0	0	0
2300	0	0	0
2301	0	0	0
2302	0	0	0
2303	0	0	0
2304	0	0	0
2305	0	0	0
2306	0	0	0
2307	0	0	0
2308	0	0	0
2309	0	0	0
2310	0	0	0
2311	0	0	0
2312	0	0	0
2313	0	0	0
2314	0	0	0
2315	0	0	0
2316	0	0	0
2317	0	0	0
2318	0	0	0
2319	0	0	0
2320	0	0	0
2321	0	0	0
2322	0	0	0
2323	0	0	0
2324	236	185	216
2325	231	169	217
2326	226	151	217
2327	235	153	228
2328	231	147	228
2329	220	139	226
2330	214	131	226
2331	227	142	235
2332	232	144	233
2333	232	137	227
2334	224	126	219
2335	227	138	225
2336	230	150	231
2337	231	157	233
2338	230	161	233
2339	237	176	238
2340	241	187	238
2341	241	195	237
2342	0	0	0
2343	0	0	0
2344	0	0	0
2345	0	0	0
2346	0	0	0
2347	0	0	0
2348	0	0	0
2349	0	0	0
2350	0	0	0
2351	0	0	0
2352	0	0	0
2353	0	0	0
2354	0	0	0
2355	0	0	0
2356	0	0	0
2357	0	0	0
2358	0	0	0
2359	0	0	0
2360	0	0	0
2361	0	0	0
2362	0	0	0
2363	0	0	0
2364	0	0	0
2365	0	0	0
2366	0	0	0
2367	0	0	0
2368	0	0	0
2369	0	0	0
2370	0	0	0
2371	0	0	0
2372	0	0	0
2373	255	235	233
2374	239	197	213
2375	227	173	209
2376	219	155	210
2377	229	160	224
2378	241	162	235
2379	235	146	227
2380	234	143	230
2381	224	127	224
2382	230	134	229
2383	239	147	235
2384	233	138	227
2385	224	128	219
2386	230	142	227
2387	235	156	233
2388	237	162	235
2389	236	167	236
2390	242	181	241
2391	242	189	238
2392	238	194	234
2393	239	203	234
2394	0	0	0
2395	0	0	0
2396	0	0	0
2397	0	0	0
2398	0	0	0
2399	0	0	0
2400	0	0	0
2401	0	0	0
2402	0	0	0
2403	0	0	0
2404	0	0	0
2405	0	0	0
2406	0	0	0
2407	0	0	0
2408	0	0	0
2409	0	0	0
2410	0	0	0
2411	0	0	0
2412	0	0	0
2413	0	0	0
2414	0	0	0
2415	0	0	0
2416	0	0	0
2417	0	0	0
2418	0	0	0
2419	0	0	0
2420	0	0	0
2421	0	0	0
2422	0	0	0
2423	255	238	233
2424	255	223	226
2425	245	197	216
2426	233	173	216
2427	239	177	231
2428	248	180	243
2429	245	165	239
2430	237	146	228
2431	232	136	224
2432	222	120	217
2433	234	138	231
2434	241	150	237
2435	234	142	228
2436	224	131	219
2437	231	147	228
2438	238	161	235
2439	238	165	236
2440	236	169	234
2441	237	178	236
2442	238	187	235
2443	238	196	234
2444	240	205	234
2445	0	0	0
2446	0	0	0
2447	0	0	0
2448	0	0	0
2449	0	0	0
2450	0	0	0
2451	0	0	0
2452	0	0	0
2453	0	0	0
2454	0	0	0
2455	0	0	0
2456	0	0	0
2457	0	0	0
2458	0	0	0
2459	0	0	0
2460	0	0	0
2461	0	0	0
2462	0	0	0
2463	0	0	0
2464	0	0	0
2465	0	0	0
2466	0	0	0
2467	0	0	0
2468	0	0	0
2469	0	0	0
2470	0	0	0
2471	0	0	0
2472	0	0	0
2473	255	249	238
2474	255	236	235
2475	251	198	214
2476	237	173	208
2477	231	158	213
2478	241	163	228
2479	246	166	238
2480	234	145	226
2481	229	138	221
2482	219	125	215
2483	219	126	219
2484	232	144	233
2485	220	130	221
2486	213	121	212
2487	222	137	221
2488	232	153	231
2489	232	157	232
2490	232	162	232
2491	235	175	235
2492	233	183	233
2493	238	195	237
2494	246	208	241
2495	240	204	232
2496	0	0	0
2497	0	0	0
2498	0	0	0
2499	0	0	0
2500	0	0	0
2501	0	0	0
2502	0	0	0
2503	0	0	0
2504	0	0	0
2505	0	0	0
2506	0	0	0
2507	0	0	0
2508	0	0	0
2509	0	0	0
2510	0	0	0
2511	0	0	0
2512	0	0	0
2513	0	0	0
2514	0	0	0
2515	0	0	0
2516	0	0	0
2517	0	0	0
2518	0	0	0
2519	0	0	0
2520	0	0	0
2521	0	0	0
2522	0	0	0
2523	0	0	0
2524	255	244	235
2525	254	208	220
2526	237	172	204
2527	234	161	209
2528	228	145	212
2529	237	151	225
2530	240	153	230
2531	234	145	226
2532	227	136	221
2533	225	137	223
2534	223	137	226
2535	218	130	222
2536	207	115	210
2537	221	135	223
2538	233	152	234
2539	233	156	234
2540	232	159	235
2541	238	173	240
2542	240	185	238
2543	235	191	234
2544	240	203	238
2545	242	204	235
2546	236	200	227
2547	236	209	229
2548	0	0	0
2549	0	0	0
2550	0	0	0
2551	0	0	0
2552	0	0	0
2553	0	0	0
2554	0	0	0
2555	0	0	0
2556	0	0	0
2557	0	0	0
2558	0	0	0
2559	0	0	0
2560	0	0	0
2561	0	0	0
2562	0	0	0
2563	0	0	0
2564	0	0	0
2565	0	0	0
2566	0	0	0
2567	0	0	0
2568	0	0	0
2569	0	0	0
2570	0	0	0
2571	0	0	0
2572	0	0	0
2573	0	0	0
2574	0	0	0
2575	255	233	232
2576	246	196	215
2577	231	162	206
2578	231	153	213
2579	229	145	218
2580	235	149	227
2581	233	145	227
2582	228	138	223
2583	220	129	218
2584	217	129	220
2585	213	126	220
2586	207	118	215
2587	207	117	212
2588	227	139	228
2589	237	153	235
2590	234	154	233
2591	234	161	236
2592	238	174	239
2593	238	184	236
2594	236	191	232
2595	242	204	236
2596	239	202	231
2597	236	203	227
2598	0	0	0
2599	0	0	0
2600	0	0	0
2601	0	0	0
2602	0	0	0
2603	0	0	0
2604	0	0	0
2605	0	0	0
2606	0	0	0
2607	0	0	0
2608	0	0	0
2609	0	0	0
2610	0	0	0
2611	0	0	0
2612	0	0	0
2613	0	0	0
2614	0	0	0
2615	0	0	0
2616	0	0	0
2617	0	0	0
2618	0	0	0
2619	0	0	0
2620	0	0	0
2621	0	0	0
2622	0	0	0
2623	0	0	0
2624	0	0	0
2625	255	237	237
2626	255	225	233
2627	246	189	218
2628	230	156	211
2629	237	157	224
2630	234	148	226
2631	235	148	231
2632	232	143	229
2633	228	138	227
2634	221	129	223
2635	216	127	223
2636	213	123	223
2637	214	125	225
2638	214	123	222
2639	229	141	231
2640	236	153	233
2641	237	158	233
2642	237	165	236
2643	239	176	238
2644	241	186	237
2645	241	194	235
2646	245	207	237
2647	242	207	233
2648	238	208	229
2649	0	0	0
2650	0	0	0
2651	0	0	0
2652	0	0	0
2653	0	0	0
2654	0	0	0
2655	0	0	0
2656	0	0	0
2657	0	0	0
2658	0	0	0
2659	0	0	0
2660	0	0	0
2661	0	0	0
2662	0	0	0
2663	0	0	0
2664	0	0	0
2665	0	0	0
2666	0	0	0
2667	0	0	0
2668	0	0	0
2669	0	0	0
2670	0	0	0
2671	0	0	0
2672	0	0	0
2673	0	0	0
2674	0	0	0
2675	255	249	242
2676	255	235	241
2677	253	195	220
2678	229	157	205
2679	225	145	213
2680	232	146	225
2681	227	135	223
2682	228	134	226
2683	217	118	217
2684	211	112	214
2685	212	114	218
2686	211	113	219
2687	209	111	219
2688	210	113	220
2689	210	116	219
2690	218	129	223
2691	222	139	223
2692	226	146	224
2693	233	161	232
2694	238	172	235
2695	242	186	237
2696	242	194	234
2697	247	206	236
2698	242	206	231
2699	239	209	229
2700	0	0	0
2701	0	0	0
2702	0	0	0
2703	0	0	0
2704	0	0	0
2705	0	0	0
2706	0	0	0
2707	0	0	0
2708	0	0	0
2709	0	0	0
2710	0	0	0
2711	0	0	0
2712	0	0	0
2713	0	0	0
2714	0	0	0
2715	0	0	0
2716	0	0	0
2717	0	0	0
2718	0	0	0
2719	0	0	0
2720	0	0	0
2721	0	0	0
2722	0	0	0
2723	0	0	0
2724	0	0	0
2725	255	244	237
2726	255	245	241
2727	255	204	221
2728	239	165	209
2729	227	148	210
2730	221	135	215
2731	221	129	220
2732	215	116	214
2733	208	104	210
2734	197	89	202
2735	201	95	208
2736	202	97	210
2737	201	97	210
2738	198	94	209
2739	202	101	212
2740	201	104	210
2741	208	117	215
2742	215	129	219
2743	227	146	228
2744	234	159	233
2745	241	174	236
2746	245	187	237
2747	246	196	236
2748	250	209	237
2749	248	212	234
2750	244	215	233
2751	0	0	0
2752	0	0	0
2753	0	0	0
2754	0	0	0
2755	0	0	0
2756	0	0	0
2757	0	0	0
2758	0	0	0
2759	0	0	0
2760	0	0	0
2761	0	0	0
2762	0	0	0
2763	0	0	0
2764	0	0	0
2765	0	0	0
2766	0	0	0
2767	0	0	0
2768	0	0	0
2769	0	0	0
2770	0	0	0
2771	0	0	0
2772	0	0	0
2773	0	0	0
2774	0	0	0
2775	255	233	236
2776	255	231	236
2777	255	201	219
2778	230	157	198
2779	231	153	210
2780	222	137	213
2781	227	142	226
2782	223	133	226
2783	217	122	221
2784	213	112	218
2785	212	108	219
2786	218	115	226
2787	211	107	220
2788	207	104	217
2789	201	101	214
2790	202	106	215
2791	213	123	223
2792	226	140	233
2793	227	140	230
2794	238	157	238
2795	239	162	235
2796	245	175	238
2797	241	178	233
2798	241	187	231
2799	247	202	234
2800	246	206	231
2801	243	211	231
2802	0	0	0
2803	0	0	0
2804	0	0	0
2805	0	0	0
2806	0	0	0
2807	0	0	0
2808	0	0	0
2809	0	0	0
2810	0	0	0
2811	0	0	0
2812	0	0	0
2813	0	0	0
2814	0	0	0
2815	0	0	0
2816	0	0	0
2817	0	0	0
2818	0	0	0
2819	0	0	0
2820	0	0	0
2821	0	0	0
2822	0	0	0
2823	0	0	0
2824	0	0	0
2825	0	0	0
2826	242	204	219
2827	231	175	205
2828	219	147	195
2829	217	140	200
2830	218	135	210
2831	227	142	224
2832	231	144	231
2833	224	133	226
2834	218	123	222
2835	220	121	224
2836	218	116	225
2837	219	116	227
2838	212	107	221
2839	212	110	222
2840	206	106	218
2841	214	124	228
2842	224	141	235
2843	229	144	234
2844	228	142	230
2845	233	150	231
2846	233	155	228
2847	232	160	225
2848	231	164	224
2849	237	181	229
2850	242	195	231
2851	240	200	228
2852	240	206	229
2853	248	222	237
2854	0	0	0
2855	0	0	0
2856	0	0	0
2857	0	0	0
2858	0	0	0
2859	0	0	0
2860	0	0	0
2861	0	0	0
2862	0	0	0
2863	0	0	0
2864	0	0	0
2865	0	0	0
2866	0	0	0
2867	0	0	0
2868	0	0	0
2869	0	0	0
2870	0	0	0
2871	0	0	0
2872	0	0	0
2873	0	0	0
2874	0	0	0
2875	0	0	0
2876	0	0	0
2877	244	216	231
2878	236	189	220
2879	230	171	219
2880	226	162	223
2881	226	154	229
2882	244	164	244
2883	237	146	234
2884	230	135	229
2885	231	134	231
2886	229	131	231
2887	223	122	228
2888	220	118	228
2889	211	106	219
2890	215	111	224
2891	214	113	225
2892	221	130	233
2893	224	138	233
2894	225	138	230
2895	224	139	228
2896	228	147	228
2897	241	170	238
2898	240	176	236
2899	238	178	234
2900	247	197	242
2901	238	192	231
2902	232	194	226
2903	242	211	234
2904	255	233	246
2905	255	229	239
2906	0	0	0
2907	0	0	0
2908	0	0	0
2909	0	0	0
2910	0	0	0
2911	0	0	0
2912	0	0	0
2913	0	0	0
2914	0	0	0
2915	0	0	0
2916	0	0	0
2917	0	0	0
2918	0	0	0
2919	0	0	0
2920	0	0	0
2921	0	0	0
2922	0	0	0
2923	0	0	0
2924	0	0	0
2925	0	0	0
2926	0	0	0
2927	0	0	0
2928	0	0	0
2929	232	196	226
2930	226	178	223
2931	222	168	226
2932	226	161	233
2933	238	157	240
2934	232	139	230
2935	239	144	236
2936	239	144	237
2937	233	136	233
2938	226	126	230
2939	219	117	226
2940	210	105	219
2941	219	115	228
2942	220	118	229
2943	223	127	232
2944	225	134	231
2945	226	138	230
2946	225	139	229
2947	240	165	243
2948	252	188	252
2949	244	185	243
2950	242	187	239
2951	240	188	235
2952	232	184	228
2953	233	198	231
2954	242	214	237
2955	247	215	233
2956	245	212	226
2957	0	0	0
2958	0	0	0
2959	0	0	0
2960	0	0	0
2961	0	0	0
2962	0	0	0
2963	0	0	0
2964	0	0	0
2965	0	0	0
2966	0	0	0
2967	0	0	0
2968	0	0	0
2969	0	0	0
2970	0	0	0
2971	0	0	0
2972	0	0	0
2973	0	0	0
2974	0	0	0
2975	0	0	0
2976	0	0	0
2977	0	0	0
2978	0	0	0
2979	0	0	0
2980	0	0	0
2981	236	205	236
2982	241	199	243
2983	241	182	244
2984	250	177	250
2985	231	139	229
2986	235	143	235
2987	229	134	229
2988	225	126	226
2989	223	123	227
2990	216	114	224
2991	212	108	221
2992	220	118	229
2993	230	132	237
2994	237	143	242
2995	233	140	235
2996	233	143	234
2997	237	152	238
2998	253	178	252
2999	252	184	248
3000	240	179	237
3001	243	190	240
3002	243	192	237
3003	242	199	237
3004	245	213	241
3005	243	214	237
3006	243	214	232
3007	0	0	0
3008	0	0	0
3009	0	0	0
3010	0	0	0
3011	0	0	0
3012	0	0	0
3013	0	0	0
3014	0	0	0
3015	0	0	0
3016	0	0	0
3017	0	0	0
3018	0	0	0
3019	0	0	0
3020	0	0	0
3021	0	0	0
3022	0	0	0
3023	0	0	0
3024	0	0	0
3025	0	0	0
3026	0	0	0
3027	0	0	0
3028	0	0	0
3029	0	0	0
3030	0	0	0
3031	0	0	0
3032	247	231	246
3033	240	208	238
3034	240	190	239
3035	235	166	234
3036	217	130	217
3037	222	131	224
3038	217	122	220
3039	218	121	222
3040	217	118	223
3041	212	114	222
3042	207	107	218
3043	223	126	231
3044	233	139	239
3045	234	140	236
3046	232	138	231
3047	240	151	237
3048	244	160	240
3049	248	170	241
3050	246	176	238
3051	242	183	236
3052	246	195	242
3053	247	202	242
3054	247	208	238
3055	242	208	234
3056	242	212	234
3057	0	0	0
3058	0	0	0
3059	0	0	0
3060	0	0	0
3061	0	0	0
3062	0	0	0
3063	0	0	0
3064	0	0	0
3065	0	0	0
3066	0	0	0
3067	0	0	0
3068	0	0	0
3069	0	0	0
3070	0	0	0
3071	0	0	0
3072	0	0	0
3073	0	0	0
3074	0	0	0
3075	0	0	0
3076	0	0	0
3077	0	0	0
3078	0	0	0
3079	0	0	0
3080	0	0	0
3081	0	0	0
3082	0	0	0
3083	0	0	0
3084	228	204	226
3085	235	199	235
3086	231	175	232
3087	216	141	220
3088	226	145	232
3089	221	133	227
3090	223	132	230
3091	222	131	231
3092	213	124	226
3093	212	122	226
3094	231	143	240
3095	237	149	241
3096	235	148	237
3097	235	148	234
3098	247	163	242
3099	247	166	240
3100	249	175	240
3101	248	181	238
3102	248	191	240
3103	246	197	241
3104	242	201	238
3105	245	209	237
3106	248	214	237
3107	0	0	0
3108	0	0	0
3109	0	0	0
3110	0	0	0
3111	0	0	0
3112	0	0	0
3113	0	0	0
3114	0	0	0
3115	0	0	0
3116	0	0	0
3117	0	0	0
3118	0	0	0
3119	0	0	0
3120	0	0	0
3121	0	0	0
3122	0	0	0
3123	0	0	0
3124	0	0	0
3125	0	0	0
3126	0	0	0
3127	0	0	0
3128	0	0	0
3129	0	0	0
3130	0	0	0
3131	0	0	0
3132	0	0	0
3133	0	0	0
3134	0	0	0
3135	248	230	242
3136	251	223	247
3137	235	189	235
3138	220	155	227
3139	225	153	235
3140	221	140	231
3141	225	143	236
3142	222	140	234
3143	218	139	233
3144	219	139	235
3145	235	152	244
3146	240	157	242
3147	237	156	238
3148	238	157	236
3149	245	165	239
3150	245	167	236
3151	247	177	238
3152	247	184	238
3153	245	190	237
3154	242	195	235
3155	238	201	234
3156	244	212	239
3157	0	0	0
3158	0	0	0
3159	0	0	0
3160	0	0	0
3161	0	0	0
3162	0	0	0
3163	0	0	0
3164	0	0	0
3165	0	0	0
3166	0	0	0
3167	0	0	0
3168	0	0	0
3169	0	0	0
3170	0	0	0
3171	0	0	0
3172	0	0	0
3173	0	0	0
3174	0	0	0
3175	0	0	0
3176	0	0	0
3177	0	0	0
3178	0	0	0
3179	0	0	0
3180	0	0	0
3181	0	0	0
3182	0	0	0
3183	0	0	0
3184	0	0	0
3185	255	240	242
3186	255	229	241
3187	240	197	228
3188	212	156	210
3189	216	157	225
3190	223	155	234
3191	223	150	235
3192	223	151	237
3193	219	145	233
3194	221	148	236
3195	231	156	244
3196	245	169	252
3197	240	160	241
3198	238	159	236
3199	241	166	239
3200	246	173	240
3201	246	177	239
3202	251	188	243
3203	246	189	238
3204	241	193	236
3205	239	199	235
3206	239	207	236
3207	245	218	242
3208	252	226	245
3209	0	0	0
3210	0	0	0
3211	0	0	0
3212	0	0	0
3213	0	0	0
3214	0	0	0
3215	0	0	0
3216	0	0	0
3217	0	0	0
3218	0	0	0
3219	0	0	0
3220	0	0	0
3221	0	0	0
3222	0	0	0
3223	0	0	0
3224	0	0	0
3225	0	0	0
3226	0	0	0
3227	0	0	0
3228	0	0	0
3229	0	0	0
3230	0	0	0
3231	0	0	0
3232	0	0	0
3233	0	0	0
3234	0	0	0
3235	252	235	234
3236	255	239	240
3237	252	211	230
3238	235	179	220
3239	230	175	227
3240	231	174	238
3241	232	171	243
3242	228	164	240
3243	222	158	237
3244	219	153	235
3245	228	163	242
3246	237	171	248
3247	237	166	243
3248	232	157	234
3249	236	165	236
3250	240	173	238
3251	245	180	240
3252	246	184	239
3253	247	189	239
3254	242	190	234
3255	238	197	234
3256	238	204	237
3257	241	213	239
3258	247	224	243
3259	249	223	241
3260	0	0	0
3261	0	0	0
3262	0	0	0
3263	0	0	0
3264	0	0	0
3265	0	0	0
3266	0	0	0
3267	0	0	0
3268	0	0	0
3269	0	0	0
3270	0	0	0
3271	0	0	0
3272	0	0	0
3273	0	0	0
3274	0	0	0
3275	0	0	0
3276	0	0	0
3277	0	0	0
3278	0	0	0
3279	0	0	0
3280	0	0	0
3281	0	0	0
3282	0	0	0
3283	0	0	0
3284	0	0	0
3285	247	237	232
3286	255	239	236
3287	255	223	231
3288	244	194	221
3289	230	166	216
3290	231	165	226
3291	230	166	234
3292	221	156	230
3293	225	166	237
3294	219	160	233
3295	220	162	236
3296	229	171	243
3297	233	176	245
3298	228	168	238
3299	229	170	237
3300	236	180	242
3301	240	184	242
3302	248	193	245
3303	245	191	240
3304	244	195	239
3305	240	195	235
3306	239	203	237
3307	244	215	243
3308	249	225	246
3309	252	228	245
3310	0	0	0
3311	0	0	0
3312	0	0	0
3313	0	0	0
3314	0	0	0
3315	0	0	0
3316	0	0	0
3317	0	0	0
3318	0	0	0
3319	0	0	0
3320	0	0	0
3321	0	0	0
3322	0	0	0
3323	0	0	0
3324	0	0	0
3325	0	0	0
3326	0	0	0
3327	0	0	0
3328	0	0	0
3329	0	0	0
3330	0	0	0
3331	0	0	0
3332	0	0	0
3333	0	0	0
3334	0	0	0
3335	0	0	0
3336	253	241	236
3337	250	223	228
3338	249	207	225
3339	240	183	220
3340	225	154	215
3341	231	162	230
3342	228	161	232
3343	231	170	239
3344	236	179	245
3345	235	180	246
3346	235	181	246
3347	238	185	248
3348	238	188	248
3349	233	185	244
3350	233	187	245
3351	234	190	244
3352	236	193	242
3353	237	192	239
3354	235	191	235
3355	234	193	234
3356	231	194	231
3357	236	207	236
3358	242	219	242
3359	241	219	238
3360	0	0	0
3361	0	0	0
3362	0	0	0
3363	0	0	0
3364	0	0	0
3365	0	0	0
3366	0	0	0
3367	0	0	0
3368	0	0	0
3369	0	0	0
3370	0	0	0
3371	0	0	0
3372	0	0	0
3373	0	0	0
3374	0	0	0
3375	0	0	0
3376	0	0	0
3377	0	0	0
3378	0	0	0
3379	0	0	0
3380	0	0	0
3381	0	0	0
3382	0	0	0
3383	0	0	0
3384	0	0	0
3385	0	0	0
3386	0	0	0
3387	255	240	239
3388	253	221	230
3389	244	195	222
3390	233	169	217
3391	222	152	218
3392	223	155	228
3393	228	164	234
3394	238	177	244
3395	233	169	238
3396	234	170	239
3397	234	172	240
3398	231	173	238
3399	231	181	240
3400	221	176	233
3401	232	198	245
3402	231	198	242
3403	0	0	0
3404	0	0	0
3405	0	0	0
3406	0	0	0
3407	0	0	0
3408	0	0	0
3409	0	0	0
3410	0	0	0
3411	0	0	0
3412	0	0	0
3413	0	0	0
3414	0	0	0
3415	0	0	0
3416	0	0	0
3417	0	0	0
3418	0	0	0
3419	0	0	0
3420	0	0	0
3421	0	0	0
3422	0	0	0
3423	0	0	0
3424	0	0	0
3425	0	0	0
3426	0	0	0
3427	0	0	0
3428	0	0	0
3429	0	0	0
3430	0	0	0
3431	0	0	0
3432	0	0	0
3433	0	0	0
3434	0	0	0
3435	0	0	0
3436	0	0	0
3437	255	242	243
3438	255	238	239
3439	246	207	224
3440	236	181	220
3441	234	170	225
3442	222	151	222
3443	230	165	236
3444	235	172	241
3445	235	168	238
3446	230	159	233
3447	233	164	237
3448	231	166	237
3449	232	174	239
3450	231	180	239
3451	233	196	242
3452	0	0	0
3453	0	0	0
3454	0	0	0
3455	0	0	0
3456	0	0	0
3457	0	0	0
3458	0	0	0
3459	0	0	0
3460	0	0	0
3461	0	0	0
3462	0	0	0
3463	0	0	0
3464	0	0	0
3465	0	0	0
3466	0	0	0
3467	0	0	0
3468	0	0	0
3469	0	0	0
3470	0	0	0
3471	0	0	0
3472	0	0	0
3473	0	0	0
3474	0	0	0
3475	0	0	0
3476	0	0	0
3477	0	0	0
3478	0	0	0
3479	0	0	0
3480	0	0	0
3481	0	0	0
3482	0	0	0
3483	0	0	0
3484	0	0	0
3485	0	0	0
3486	0	0	0
3487	252	242	241
3488	255	239	243
3489	254	219	230
3490	234	186	214
3491	232	177	221
3492	230	166	226
3493	228	158	229
3494	239	173	244
3495	236	167	239
3496	234	161	235
3497	231	159	235
3498	228	160	235
3499	227	166	238
3500	231	175	240
3501	233	186	240
3502	0	0	0
3503	0	0	0
3504	0	0	0
3505	0	0	0
3506	0	0	0
3507	0	0	0
3508	0	0	0
3509	0	0	0
3510	0	0	0
3511	0	0	0
3512	0	0	0
3513	0	0	0
3514	0	0	0
3515	0	0	0
3516	0	0	0
3517	0	0	0
3518	0	0	0
3519	0	0	0
3520	0	0	0
3521	0	0	0
3522	0	0	0
3523	0	0	0
3524	0	0	0
3525	0	0	0
3526	0	0	0
3527	0	0	0
3528	0	0	0
3529	0	0	0
3530	0	0	0
3531	0	0	0
3532	0	0	0
3533	0	0	0
3534	0	0	0
3535	0	0	0
3536	0	0	0
3537	0	0	0
3538	254	237	240
3539	255	222	235
3540	249	203	226
3541	240	189	223
3542	235	178	226
3543	235	174	233
3544	232	165	234
3545	232	163	236
3546	227	156	231
3547	228	157	232
3548	225	154	231
3549	226	161	236
3550	226	167	239
3551	233	181	244
3552	234	190	239
3553	0	0	0
3554	0	0	0
3555	0	0	0
3556	0	0	0
3557	0	0	0
3558	0	0	0
3559	0	0	0
3560	0	0	0
3561	0	0	0
3562	0	0	0
3563	0	0	0
3564	0	0	0
3565	0	0	0
3566	0	0	0
3567	0	0	0
3568	0	0	0
3569	0	0	0
3570	0	0	0
3571	0	0	0
3572	0	0	0
3573	0	0	0
3574	0	0	0
3575	0	0	0
3576	0	0	0
3577	0	0	0
3578	0	0	0
3579	0	0	0
3580	0	0	0
3581	0	0	0
3582	0	0	0
3583	0	0	0
3584	0	0	0
3585	0	0	0
3586	0	0	0
3587	0	0	0
3588	0	0	0
3589	255	234	240
3590	255	217	234
3591	248	193	224
3592	238	178	222
3593	230	167	223
3594	226	160	225
3595	227	162	232
3596	223	157	231
3597	220	155	230
3598	219	155	230
3599	223	162	235
3600	231	173	242
3601	232	177	244
3602	236	190	247
3603	232	193	238
3604	0	0	0
3605	0	0	0
3606	0	0	0
3607	0	0	0
3608	0	0	0
3609	0	0	0
3610	0	0	0
3611	0	0	0
3612	0	0	0
3613	0	0	0
3614	0	0	0
3615	0	0	0
3616	0	0	0
3617	0	0	0
3618	0	0	0
3619	0	0	0
3620	0	0	0
3621	0	0	0
3622	0	0	0
3623	0	0	0
3624	0	0	0
3625	0	0	0
3626	0	0	0
3627	0	0	0
3628	0	0	0
3629	0	0	0
3630	0	0	0
3631	0	0	0
3632	0	0	0
3633	0	0	0
3634	0	0	0
3635	0	0	0
3636	0	0	0
3637	0	0	0
3638	0	0	0
3639	255	228	232
3640	255	227	235
3641	253	204	225
3642	241	179	217
3643	232	168	218
3644	224	155	219
3645	228	161	229
3646	227	162	233
3647	224	161	234
3648	221	159	235
3649	223	167	239
3650	227	173	241
3651	235	182	245
3652	236	186	245
3653	238	194	245
3654	235	198	241
3655	235	205	239
3656	0	0	0
3657	0	0	0
3658	0	0	0
3659	0	0	0
3660	0	0	0
3661	0	0	0
3662	0	0	0
3663	0	0	0
3664	0	0	0
3665	0	0	0
3666	0	0	0
3667	0	0	0
3668	0	0	0
3669	0	0	0
3670	0	0	0
3671	0	0	0
3672	0	0	0
3673	0	0	0
3674	0	0	0
3675	0	0	0
3676	0	0	0
3677	0	0	0
3678	0	0	0
3679	0	0	0
3680	0	0	0
3681	0	0	0
3682	0	0	0
3683	0	0	0
3684	0	0	0
3685	0	0	0
3686	0	0	0
3687	0	0	0
3688	0	0	0
3689	0	0	0
3690	255	230	237
3691	254	211	228
3692	243	186	217
3693	236	172	217
3694	226	161	218
3695	227	162	228
3696	235	169	238
3697	231	165	236
3698	227	163	236
3699	227	166	241
3700	229	174	245
3701	228	175	241
3702	234	182	243
3703	236	187	242
3704	242	196	245
3705	235	195	239
3706	0	0	0
3707	0	0	0
3708	0	0	0
3709	0	0	0
3710	0	0	0
3711	0	0	0
3712	0	0	0
3713	0	0	0
3714	0	0	0
3715	0	0	0
3716	0	0	0
3717	0	0	0
3718	0	0	0
3719	0	0	0
3720	0	0	0
3721	0	0	0
3722	0	0	0
3723	0	0	0
3724	0	0	0
3725	0	0	0
3726	0	0	0
3727	0	0	0
3728	0	0	0
3729	0	0	0
3730	0	0	0
3731	0	0	0
3732	0	0	0
3733	0	0	0
3734	0	0	0
3735	0	0	0
3736	0	0	0
3737	0	0	0
3738	0	0	0
3739	0	0	0
3740	250	228	235
3741	254	215	233
3742	249	196	225
3743	243	184	225
3744	234	170	224
3745	232	170	231
3746	231	170	237
3747	233	170	240
3748	229	165	236
3749	230	169	240
3750	229	172	243
3751	227	174	243
3752	225	175	239
3753	227	179	239
3754	230	183	239
3755	234	189	240
3756	0	0	0
3757	0	0	0
3758	0	0	0
3759	0	0	0
3760	0	0	0
3761	0	0	0
3762	0	0	0
3763	0	0	0
3764	0	0	0
3765	0	0	0
3766	0	0	0
3767	0	0	0
3768	0	0	0
3769	0	0	0
3770	0	0	0
3771	0	0	0
3772	0	0	0
3773	0	0	0
3774	0	0	0
3775	0	0	0
3776	0	0	0
3777	0	0	0
3778	0	0	0
3779	0	0	0
3780	0	0	0
3781	0	0	0
3782	0	0	0
3783	0	0	0
3784	0	0	0
3785	0	0	0
3786	0	0	0
3787	0	0	0
3788	0	0	0
3789	0	0	0
3790	0	0	0
3791	255	225	238
3792	255	211	237
3793	242	181	223
3794	232	167	220
3795	230	166	227
3796	229	166	233
3797	225	164	235
3798	221	160	233
3799	224	166	237
3800	229	172	241
3801	225	170	239
3802	220	170	237
3803	221	178	238
3804	221	181	237
3805	228	192	240
3806	233	199	242
3807	230	198	236
3808	0	0	0
3809	0	0	0
3810	0	0	0
3811	0	0	0
3812	0	0	0
3813	0	0	0
3814	0	0	0
3815	0	0	0
3816	0	0	0
3817	0	0	0
3818	0	0	0
3819	0	0	0
3820	0	0	0
3821	0	0	0
3822	0	0	0
3823	0	0	0
3824	0	0	0
3825	0	0	0
3826	0	0	0
3827	0	0	0
3828	0	0	0
3829	0	0	0
3830	0	0	0
3831	0	0	0
3832	0	0	0
3833	0	0	0
3834	0	0	0
3835	0	0	0
3836	0	0	0
3837	0	0	0
3838	0	0	0
3839	0	0	0
3840	0	0	0
3841	0	0	0
3842	252	214	232
3843	246	191	226
3844	230	161	216
3845	229	164	225
3846	226	162	229
3847	224	162	233
3848	219	158	233
3849	221	165	238
3850	225	171	242
3851	228	173	243
3852	224	170	239
3853	225	178	241
3854	226	186	242
3855	227	194	241
3856	231	203	243
3857	235	208	242
3858	234	208	237
3859	0	0	0
3860	0	0	0
3861	0	0	0
3862	0	0	0
3863	0	0	0
3864	0	0	0
3865	0	0	0
3866	0	0	0
3867	0	0	0
3868	0	0	0
3869	0	0	0
3870	0	0	0
3871	0	0	0
3872	0	0	0
3873	0	0	0
3874	0	0	0
3875	0	0	0
3876	0	0	0
3877	0	0	0
3878	0	0	0
3879	0	0	0
3880	0	0	0
3881	0	0	0
3882	0	0	0
3883	0	0	0
3884	0	0	0
3885	0	0	0
3886	0	0	0
3887	0	0	0
3888	0	0	0
3889	0	0	0
3890	0	0	0
3891	0	0	0
3892	0	0	0
3893	252	212	231
3894	243	188	225
3895	232	168	223
3896	233	171	233
3897	226	166	234
3898	222	164	235
3899	218	161	236
3900	222	169	242
3901	224	172	244
3902	228	174	244
3903	225	171	240
3904	229	181	242
3905	233	193	244
3906	232	199	243
3907	230	200	239
3908	233	204	237
3909	234	209	235
3910	0	0	0
3911	0	0	0
3912	0	0	0
3913	0	0	0
3914	0	0	0
3915	0	0	0
3916	0	0	0
3917	0	0	0
3918	0	0	0
3919	0	0	0
3920	0	0	0
3921	0	0	0
3922	0	0	0
3923	0	0	0
3924	0	0	0
3925	0	0	0
3926	0	0	0
3927	0	0	0
3928	0	0	0
3929	0	0	0
3930	0	0	0
3931	0	0	0
3932	0	0	0
3933	0	0	0
3934	0	0	0
3935	0	0	0
3936	0	0	0
3937	0	0	0
3938	0	0	0
3939	0	0	0
3940	0	0	0
3941	0	0	0
3942	0	0	0
3943	255	226	233
3944	253	210	229
3945	247	194	228
3946	234	173	226
3947	229	171	233
3948	222	165	232
3949	221	166	236
3950	218	164	237
3951	220	169	242
3952	222	171	244
3953	225	173	243
3954	222	170	238
3955	228	183	241
3956	231	193	240
3957	226	193	235
3958	226	196	237
3959	235	207	241
3960	236	212	236
3961	0	0	0
3962	0	0	0
3963	0	0	0
3964	0	0	0
3965	0	0	0
3966	0	0	0
3967	0	0	0
3968	0	0	0
3969	0	0	0
3970	0	0	0
3971	0	0	0
3972	0	0	0
3973	0	0	0
3974	0	0	0
3975	0	0	0
3976	0	0	0
3977	0	0	0
3978	0	0	0
3979	0	0	0
3980	0	0	0
3981	0	0	0
3982	0	0	0
3983	0	0	0
3984	0	0	0
3985	0	0	0
3986	0	0	0
3987	0	0	0
3988	0	0	0
3989	0	0	0
3990	0	0	0
3991	0	0	0
3992	0	0	0
3993	255	245	243
3994	255	229	238
3995	245	194	221
3996	235	175	219
3997	225	164	222
3998	215	159	225
3999	219	169	235
4000	223	172	241
4001	221	170	242
4002	222	174	245
4003	220	172	243
4004	220	172	242
4005	223	180	242
4006	226	191	243
4007	226	197	239
4008	224	198	235
4009	233	209	242
4010	244	222	249
4011	237	212	235
4012	0	0	0
4013	0	0	0
4014	0	0	0
4015	0	0	0
4016	0	0	0
4017	0	0	0
4018	0	0	0
4019	0	0	0
4020	0	0	0
4021	0	0	0
4022	0	0	0
4023	0	0	0
4024	0	0	0
4025	0	0	0
4026	0	0	0
4027	0	0	0
4028	0	0	0
4029	0	0	0
4030	0	0	0
4031	0	0	0
4032	0	0	0
4033	0	0	0
4034	0	0	0
4035	0	0	0
4036	0	0	0
4037	0	0	0
4038	0	0	0
4039	0	0	0
4040	0	0	0
4041	0	0	0
4042	0	0	0
4043	0	0	0
4044	255	248	247
4045	255	216	233
4046	239	181	221
4047	235	175	227
4048	223	162	227
4049	223	171	238
4050	226	179	246
4051	226	179	247
4052	223	175	244
4053	217	172	242
4054	214	170	240
4055	224	184	247
4056	227	192	247
4057	229	200	246
4058	231	207	244
4059	236	214	244
4060	243	223	247
4061	241	218	240
4062	235	210	232
4063	0	0	0
4064	0	0	0
4065	0	0	0
4066	0	0	0
4067	0	0	0
4068	0	0	0
4069	0	0	0
4070	0	0	0
4071	0	0	0
4072	0	0	0
4073	0	0	0
4074	0	0	0
4075	0	0	0
4076	0	0	0
4077	0	0	0
4078	0	0	0
4079	0	0	0
4080	0	0	0
4081	0	0	0
4082	0	0	0
4083	0	0	0
4084	0	0	0
4085	0	0	0
4086	0	0	0
4087	0	0	0
4088	0	0	0
4089	0	0	0
4090	0	0	0
4091	0	0	0
4092	0	0	0
4093	0	0	0
4094	255	250	248
4095	255	226	236
4096	242	190	220
4097	229	167	218
4098	224	160	224
4099	228	170	237
4100	233	181	248
4101	225	174	244
4102	219	169	239
4103	221	179	244
4104	213	175	239
4105	213	178	241
4106	224	192	250
4107	224	191	244
4108	232	202	247
4109	235	206	244
4110	241	215	244
4111	240	215	239
4112	234	207	231
4113	237	214	234
4114	0	0	0
4115	0	0	0
4116	0	0	0
4117	0	0	0
4118	0	0	0
4119	0	0	0
4120	0	0	0
4121	0	0	0
4122	0	0	0
4123	0	0	0
4124	0	0	0
4125	0	0	0
4126	0	0	0
4127	0	0	0
4128	0	0	0
4129	0	0	0
4130	0	0	0
4131	0	0	0
4132	0	0	0
4133	0	0	0
4134	0	0	0
4135	0	0	0
4136	0	0	0
4137	0	0	0
4138	0	0	0
4139	0	0	0
4140	0	0	0
4141	0	0	0
4142	0	0	0
4143	0	0	0
4144	0	0	0
4145	255	231	238
4146	250	203	224
4147	236	180	218
4148	222	157	218
4149	229	169	235
4150	231	176	241
4151	224	171	238
4152	216	164	235
4153	221	176	242
4154	224	185	244
4155	219	186	241
4156	219	189	243
4157	221	191	244
4158	222	191	243
4159	232	200	246
4160	235	204	241
4161	236	205	237
4162	236	206	236
4163	240	214	239
4164	240	219	238
4165	0	0	0
4166	0	0	0
4167	0	0	0
4168	0	0	0
4169	0	0	0
4170	0	0	0
4171	0	0	0
4172	0	0	0
4173	0	0	0
4174	0	0	0
4175	0	0	0
4176	0	0	0
4177	0	0	0
4178	0	0	0
4179	0	0	0
4180	0	0	0
4181	0	0	0
4182	0	0	0
4183	0	0	0
4184	0	0	0
4185	0	0	0
4186	0	0	0
4187	0	0	0
4188	0	0	0
4189	0	0	0
4190	0	0	0
4191	0	0	0
4192	0	0	0
4193	0	0	0
4194	0	0	0
4195	255	244	243
4196	255	222	237
4197	237	179	215
4198	218	153	207
4199	225	165	227
4200	233	177	242
4201	229	177	241
4202	218	168	234
4203	219	175	239
4204	228	189	248
4205	224	187	243
4206	223	189	242
4207	223	192	242
4208	223	192	241
4209	231	203	248
4210	240	212	252
4211	237	206	242
4212	236	207	238
4213	238	211	240
4214	242	219	243
4215	0	0	0
4216	0	0	0
4217	0	0	0
4218	0	0	0
4219	0	0	0
4220	0	0	0
4221	0	0	0
4222	0	0	0
4223	0	0	0
4224	0	0	0
4225	0	0	0
4226	0	0	0
4227	0	0	0
4228	0	0	0
4229	0	0	0
4230	0	0	0
4231	0	0	0
4232	0	0	0
4233	0	0	0
4234	0	0	0
4235	0	0	0
4236	0	0	0
4237	0	0	0
4238	0	0	0
4239	0	0	0
4240	0	0	0
4241	0	0	0
4242	0	0	0
4243	0	0	0
4244	0	0	0
4245	252	236	238
4246	255	234	243
4247	246	197	227
4248	222	155	210
4249	230	169	228
4250	234	177	238
4251	237	182	244
4252	232	181	242
4253	225	183	241
4254	225	188	245
4255	225	188	244
4256	222	187	241
4257	222	189	240
4258	222	192	239
4259	229	201	243
4260	236	211	247
4261	236	209	244
4262	234	205	239
4263	235	208	238
4264	237	212	240
4265	0	0	0
4266	0	0	0
4267	0	0	0
4268	0	0	0
4269	0	0	0
4270	0	0	0
4271	0	0	0
4272	0	0	0
4273	0	0	0
4274	0	0	0
4275	0	0	0
4276	0	0	0
4277	0	0	0
4278	0	0	0
4279	0	0	0
4280	0	0	0
4281	0	0	0
4282	0	0	0
4283	0	0	0
4284	0	0	0
4285	0	0	0
4286	0	0	0
4287	0	0	0
4288	0	0	0
4289	0	0	0
4290	0	0	0
4291	0	0	0
4292	0	0	0
4293	0	0	0
4294	0	0	0
4295	255	247	245
4296	255	243	249
4297	253	213	236
4298	228	170	216
4299	227	164	224
4300	240	181	243
4301	236	176	240
4302	236	178	242
4303	230	177	239
4304	222	177	237
4305	228	193	246
4306	224	191	243
4307	220	190	240
4308	217	191	238
4309	223	200	241
4310	235	212	248
4311	230	204	240
4312	227	200	235
4313	233	209	239
4314	0	0	0
4315	0	0	0
4316	0	0	0
4317	0	0	0
4318	0	0	0
4319	0	0	0
4320	0	0	0
4321	0	0	0
4322	0	0	0
4323	0	0	0
4324	0	0	0
4325	0	0	0
4326	0	0	0
4327	0	0	0
4328	0	0	0
4329	0	0	0
4330	0	0	0
4331	0	0	0
4332	0	0	0
4333	0	0	0
4334	0	0	0
4335	0	0	0
4336	0	0	0
4337	0	0	0
4338	0	0	0
4339	0	0	0
4340	0	0	0
4341	0	0	0
4342	0	0	0
4343	0	0	0
4344	0	0	0
4345	0	0	0
4346	255	248	248
4347	254	220	237
4348	241	190	228
4349	238	183	233
4350	234	174	235
4351	235	176	241
4352	229	169	236
4353	228	172	238
4354	223	171	235
4355	228	186	242
4356	234	200	249
4357	229	198	244
4358	224	197	241
4359	225	203	243
4360	231	212	247
4361	230	206	243
4362	225	199	237
4363	231	208	242
4364	235	216	241
4365	0	0	0
4366	0	0	0
4367	0	0	0
4368	0	0	0
4369	0	0	0
4370	0	0	0
4371	0	0	0
4372	0	0	0
4373	0	0	0
4374	0	0	0
4375	0	0	0
4376	0	0	0
4377	0	0	0
4378	0	0	0
4379	0	0	0
4380	0	0	0
4381	0	0	0
4382	0	0	0
4383	0	0	0
4384	0	0	0
4385	0	0	0
4386	0	0	0
4387	0	0	0
4388	0	0	0
4389	0	0	0
4390	0	0	0
4391	0	0	0
4392	0	0	0
4393	0	0	0
4394	0	0	0
4395	0	0	0
4396	0	0	0
4397	255	234	242
4398	247	203	229
4399	240	186	229
4400	238	179	235
4401	228	167	232
4402	223	164	233
4403	225	174	239
4404	220	174	238
4405	221	179	239
4406	237	199	251
4407	235	199	247
4408	227	194	240
4409	225	196	239
4410	230	205	243
4411	236	215	247
4412	230	206	240
4413	227	202	238
4414	234	213	243
4415	237	220	241
4416	0	0	0
4417	0	0	0
4418	0	0	0
4419	0	0	0
4420	0	0	0
4421	0	0	0
4422	0	0	0
4423	0	0	0
4424	0	0	0
4425	0	0	0
4426	0	0	0
4427	0	0	0
4428	0	0	0
4429	0	0	0
4430	0	0	0
4431	0	0	0
4432	0	0	0
4433	0	0	0
4434	0	0	0
4435	0	0	0
4436	0	0	0
4437	0	0	0
4438	0	0	0
4439	0	0	0
4440	0	0	0
4441	0	0	0
4442	0	0	0
4443	0	0	0
4444	0	0	0
4445	0	0	0
4446	0	0	0
4447	255	233	238
4448	255	221	235
4449	247	200	229
4450	239	181	229
4451	233	173	232
4452	221	160	229
4453	227	174	241
4454	227	182	244
4455	223	184	243
4456	224	189	246
4457	229	192	247
4458	227	192	241
4459	222	192	237
4460	223	195	237
4461	233	207	243
4462	240	217	248
4463	234	211	241
4464	230	207	236
4465	239	219	243
4466	242	226	243
4467	0	0	0
4468	0	0	0
4469	0	0	0
4470	0	0	0
4471	0	0	0
4472	0	0	0
4473	0	0	0
4474	0	0	0
4475	0	0	0
4476	0	0	0
4477	0	0	0
4478	0	0	0
4479	0	0	0
4480	0	0	0
4481	0	0	0
4482	0	0	0
4483	0	0	0
4484	0	0	0
4485	0	0	0
4486	0	0	0
4487	0	0	0
4488	0	0	0
4489	0	0	0
4490	0	0	0
4491	0	0	0
4492	0	0	0
4493	0	0	0
4494	0	0	0
4495	0	0	0
4496	0	0	0
4497	255	234	239
4498	255	222	235
4499	247	199	224
4500	233	176	216
4501	237	181	230
4502	230	171	232
4503	230	174	239
4504	237	188	251
4505	225	177	241
4506	221	180	240
4507	229	196	249
4508	225	194	244
4509	221	193	240
4510	219	195	237
4511	226	203	240
4512	240	217	248
4513	240	215	245
4514	235	210	239
4515	236	212	239
4516	246	225	246
4517	243	224	241
4518	0	0	0
4519	0	0	0
4520	0	0	0
4521	0	0	0
4522	0	0	0
4523	0	0	0
4524	0	0	0
4525	0	0	0
4526	0	0	0
4527	0	0	0
4528	0	0	0
4529	0	0	0
4530	0	0	0
4531	0	0	0
4532	0	0	0
4533	0	0	0
4534	0	0	0
4535	0	0	0
4536	0	0	0
4537	0	0	0
4538	0	0	0
4539	0	0	0
4540	0	0	0
4541	0	0	0
4542	0	0	0
4543	0	0	0
4544	0	0	0
4545	0	0	0
4546	0	0	0
4547	255	235	240
4548	253	220	233
4549	247	200	226
4550	235	177	217
4551	237	181	227
4552	238	183	237
4553	236	184	242
4554	235	185	245
4555	229	180	243
4556	219	170	237
4557	228	188	247
4558	233	202	250
4559	225	198	242
4560	222	198	241
4561	227	206	243
4562	233	213	243
4563	237	213	242
4564	237	212	241
4565	237	213	241
4566	238	215	241
4567	243	220	242
4568	0	0	0
4569	0	0	0
4570	0	0	0
4571	0	0	0
4572	0	0	0
4573	0	0	0
4574	0	0	0
4575	0	0	0
4576	0	0	0
4577	0	0	0
4578	0	0	0
4579	0	0	0
4580	0	0	0
4581	0	0	0
4582	0	0	0
4583	0	0	0
4584	0	0	0
4585	0	0	0
4586	0	0	0
4587	0	0	0
4588	0	0	0
4589	0	0	0
4590	0	0	0
4591	0	0	0
4592	0	0	0
4593	0	0	0
4594	0	0	0
4595	0	0	0
4596	0	0	0
4597	255	249	248
4598	255	233	242
4599	250	209	230
4600	240	187	222
4601	238	181	226
4602	239	183	234
4603	232	178	235
4604	227	177	237
4605	231	187	244
4606	226	181	241
4607	228	185	245
4608	240	204	255
4609	232	199	244
4610	224	195	237
4611	233	210	246
4612	243	220	252
4613	239	213	242
4614	235	209	237
4615	238	216	241
4616	237	217	241
4617	0	0	0
4618	0	0	0
4619	0	0	0
4620	0	0	0
4621	0	0	0
4622	0	0	0
4623	0	0	0
4624	0	0	0
4625	0	0	0
4626	0	0	0
4627	0	0	0
4628	0	0	0
4629	0	0	0
4630	0	0	0
4631	0	0	0
4632	0	0	0
4633	0	0	0
4634	0	0	0
4635	0	0	0
4636	0	0	0
4637	0	0	0
4638	0	0	0
4639	0	0	0
4640	0	0	0
4641	0	0	0
4642	0	0	0
4643	0	0	0
4644	0	0	0
4645	0	0	0
4646	0	0	0
4647	255	243	241
4648	255	243	245
4649	252	217	232
4650	241	193	223
4651	240	188	227
4652	236	180	229
4653	230	177	231
4654	223	170	230
4655	228	182	240
4656	232	191	246
4657	234	195	247
4658	235	198	247
4659	235	199	245
4660	229	196	238
4661	234	207	243
4662	244	221	250
4663	243	217	245
4664	239	211	239
4665	240	217	241
4666	241	222	242
4667	237	221	238
4668	0	0	0
4669	0	0	0
4670	0	0	0
4671	0	0	0
4672	0	0	0
4673	0	0	0
4674	0	0	0
4675	0	0	0
4676	0	0	0
4677	0	0	0
4678	0	0	0
4679	0	0	0
4680	0	0	0
4681	0	0	0
4682	0	0	0
4683	0	0	0
4684	0	0	0
4685	0	0	0
4686	0	0	0
4687	0	0	0
4688	0	0	0
4689	0	0	0
4690	0	0	0
4691	0	0	0
4692	0	0	0
4693	0	0	0
4694	0	0	0
4695	0	0	0
4696	0	0	0
4697	255	246	243
4698	255	244	244
4699	253	222	234
4700	235	193	219
4701	239	193	226
4702	239	188	230
4703	236	187	233
4704	227	180	231
4705	230	188	239
4706	241	201	250
4707	234	193	244
4708	233	195	243
4709	238	204	245
4710	236	204	242
4711	229	196	236
4712	239	211	244
4713	242	216	245
4714	236	208	237
4715	239	213	239
4716	243	221	243
4717	237	216	236
4718	0	0	0
4719	0	0	0
4720	0	0	0
4721	0	0	0
4722	0	0	0
4723	0	0	0
4724	0	0	0
4725	0	0	0
4726	0	0	0
4727	0	0	0
4728	0	0	0
4729	0	0	0
4730	0	0	0
4731	0	0	0
4732	0	0	0
4733	0	0	0
4734	0	0	0
4735	0	0	0
4736	0	0	0
4737	0	0	0
4738	0	0	0
4739	0	0	0
4740	0	0	0
4741	0	0	0
4742	0	0	0
4743	0	0	0
4744	0	0	0
4745	0	0	0
4746	0	0	0
4747	255	244	243
4748	255	245	246
4749	255	225	236
4750	245	204	229
4751	246	203	233
4752	246	200	236
4753	247	200	238
4754	242	196	238
4755	239	200	240
4756	242	207	246
4757	243	204	246
4758	237	195	241
4759	240	204	245
4760	243	212	246
4761	235	203	237
4762	228	195	233
4763	233	202	239
4764	235	208	240
4765	234	210	238
4766	237	214	238
4767	236	213	236
4768	0	0	0
4769	0	0	0
4770	0	0	0
4771	0	0	0
4772	0	0	0
4773	0	0	0
4774	0	0	0
4775	0	0	0
4776	0	0	0
4777	0	0	0
4778	0	0	0
4779	0	0	0
4780	0	0	0
4781	0	0	0
4782	0	0	0
4783	0	0	0
4784	0	0	0
4785	0	0	0
4786	0	0	0
4787	0	0	0
4788	0	0	0
4789	0	0	0
4790	0	0	0
4791	0	0	0
4792	0	0	0
4793	0	0	0
4794	0	0	0
4795	0	0	0
4796	0	0	0
4797	253	242	243
4798	255	243	246
4799	255	232	240
4800	250	211	231
4801	248	201	233
4802	250	200	239
4803	242	189	233
4804	238	185	230
4805	242	195	237
4806	241	199	239
4807	243	203	241
4808	242	199	240
4809	238	194	239
4810	240	202	243
4811	243	211	243
4812	0	0	0
4813	0	0	0
4814	0	0	0
4815	0	0	0
4816	0	0	0
4817	0	0	0
4818	0	0	0
4819	0	0	0
4820	0	0	0
4821	0	0	0
4822	0	0	0
4823	0	0	0
4824	0	0	0
4825	0	0	0
4826	0	0	0
4827	0	0	0
4828	0	0	0
4829	0	0	0
4830	0	0	0
4831	0	0	0
4832	0	0	0
4833	0	0	0
4834	0	0	0
4835	0	0	0
4836	0	0	0
4837	0	0	0
4838	0	0	0
4839	0	0	0
4840	0	0	0
4841	0	0	0
4842	0	0	0
4843	0	0	0
4844	0	0	0
4845	0	0	0
4846	0	0	0
4847	255	244	245
4848	255	240	244
4849	254	228	238
4850	251	217	232
4851	244	202	227
4852	241	191	230
4853	238	185	232
4854	231	174	226
4855	240	187	237
4856	244	196	240
4857	241	197	238
4858	241	199	238
4859	239	195	237
4860	235	191	236
4861	0	0	0
4862	0	0	0
4863	0	0	0
4864	0	0	0
4865	0	0	0
4866	0	0	0
4867	0	0	0
4868	0	0	0
4869	0	0	0
4870	0	0	0
4871	0	0	0
4872	0	0	0
4873	0	0	0
4874	0	0	0
4875	0	0	0
4876	0	0	0
4877	0	0	0
4878	0	0	0
4879	0	0	0
4880	0	0	0
4881	0	0	0
4882	0	0	0
4883	0	0	0
4884	0	0	0
4885	0	0	0
4886	0	0	0
4887	0	0	0
4888	0	0	0
4889	0	0	0
4890	0	0	0
4891	0	0	0
4892	0	0	0
4893	0	0	0
4894	0	0	0
4895	0	0	0
4896	0	0	0
4897	255	242	245
4898	255	238	244
4899	255	230	240
4900	251	217	233
4901	251	214	233
4902	240	197	226
4903	237	193	232
4904	232	185	232
4905	238	192	239
4906	255	210	254
4907	245	195	241
4908	239	193	237
4909	241	202	241
4910	0	0	0
4911	0	0	0
4912	0	0	0
4913	0	0	0
4914	0	0	0
4915	0	0	0
4916	0	0	0
4917	0	0	0
4918	0	0	0
4919	0	0	0
4920	0	0	0
4921	0	0	0
4922	0	0	0
4923	0	0	0
4924	0	0	0
4925	0	0	0
4926	0	0	0
4927	0	0	0
4928	0	0	0
4929	0	0	0
4930	0	0	0
4931	0	0	0
4932	0	0	0
4933	0	0	0
4934	0	0	0
4935	0	0	0
4936	0	0	0
4937	0	0	0
4938	0	0	0
4939	0	0	0
4940	0	0	0
4941	0	0	0
4942	0	0	0
4943	0	0	0
4944	0	0	0
4945	0	0	0
4946	0	0	0
4947	0	0	0
4948	0	0	0
4949	249	223	235
4950	246	214	231
4951	246	211	230
4952	248	209	233
4953	247	206	236
4954	244	202	239
4955	244	206	244
4956	249	211	249
4957	248	203	245
4958	238	189	237
4959	0	0	0
4960	0	0	0
4961	0	0	0
4962	0	0	0
4963	0	0	0
4964	0	0	0
4965	0	0	0
4966	0	0	0
4967	0	0	0
4968	0	0	0
4969	0	0	0
4970	0	0	0
4971	0	0	0
4972	0	0	0
4973	0	0	0
4974	0	0	0
4975	0	0	0
4976	0	0	0
4977	0	0	0
4978	0	0	0
4979	0	0	0
4980	0	0	0
4981	0	0	0
4982	0	0	0
4983	0	0	0
4984	0	0	0
4985	0	0	0
4986	0	0	0
4987	0	0	0
4988	0	0	0
4989	0	0	0
4990	0	0	0
4991	0	0	0
4992	0	0	0
4993	0	0	0
4994	0	0	0
4995	0	0	0
4996	0	0	0
4997	0	0	0
4998	0	0	0
4999	0	0	0
5000	0	0	0
5001	249	222	236
5002	247	217	235
5003	247	210	236
5004	255	212	243
5005	245	196	236
5006	242	197	238
5007	244	204	242
5008	235	191	233
5009	0	0	0
5010	0	0	0
5011	0	0	0
5012	0	0	0
5013	0	0	0
5014	0	0	0
5015	0	0	0
5016	0	0	0
5017	0	0	0
5018	0	0	0
5019	0	0	0
5020	0	0	0
5021	0	0	0
5022	0	0	0
5023	0	0	0
5024	0	0	0
5025	0	0	0
5026	0	0	0
5027	0	0	0
5028	0	0	0
5029	0	0	0
5030	0	0	0
5031	0	0	0
5032	0	0	0
5033	0	0	0
5034	0	0	0
5035	0	0	0
5036	0	0	0
5037	0	0	0
5038	0	0	0
5039	0	0	0
5040	0	0	0
5041	0	0	0
5042	0	0	0
5043	0	0	0
5044	0	0	0
5045	0	0	0
5046	0	0	0
5047	0	0	0
5048	0	0	0
5049	0	0	0
5050	0	0	0
5051	255	232	241
5052	255	233	244
5053	249	220	238
5054	248	212	239
5055	250	203	239
5056	239	186	231
5057	239	193	236
5058	239	198	237
5059	239	201	238
5060	0	0	0
5061	0	0	0
5062	0	0	0
5063	0	0	0
5064	0	0	0
5065	0	0	0
5066	0	0	0
5067	0	0	0
5068	0	0	0
5069	0	0	0
5070	0	0	0
5071	0	0	0
5072	0	0	0
5073	0	0	0
5074	0	0	0
5075	0	0	0
5076	0	0	0
5077	0	0	0
5078	0	0	0
5079	0	0	0
5080	0	0	0
5081	0	0	0
5082	0	0	0
5083	0	0	0
5084	0	0	0
5085	0	0	0
5086	0	0	0
5087	0	0	0
5088	0	0	0
5089	0	0	0
5090	0	0	0
5091	0	0	0
5092	0	0	0
5093	0	0	0
5094	0	0	0
5095	0	0	0
5096	0	0	0
5097	0	0	0
5098	0	0	0
5099	0	0	0
5100	0	0	0
5101	0	0	0
5102	255	233	244
5103	250	216	235
5104	240	201	228
5105	250	212	239
5106	246	200	236
5107	240	192	234
5108	240	199	240
5109	238	201	238
5110	238	204	238
5111	0	0	0
5112	0	0	0
5113	0	0	0
5114	0	0	0
5115	0	0	0
5116	0	0	0
5117	0	0	0
5118	0	0	0
5119	0	0	0
5120	0	0	0
5121	0	0	0
5122	0	0	0
5123	0	0	0
5124	0	0	0
5125	0	0	0
5126	0	0	0
5127	0	0	0
5128	0	0	0
5129	0	0	0
5130	0	0	0
5131	0	0	0
5132	0	0	0
5133	0	0	0
5134	0	0	0
5135	0	0	0
5136	0	0	0
5137	0	0	0
5138	0	0	0
5139	0	0	0
5140	0	0	0
5141	0	0	0
5142	0	0	0
5143	0	0	0
5144	0	0	0
5145	0	0	0
5146	0	0	0
5147	0	0	0
5148	0	0	0
5149	0	0	0
5150	0	0	0
5151	0	0	0
5152	0	0	0
5153	0	0	0
5154	239	196	225
5155	247	206	235
5156	255	216	242
5157	253	209	241
5158	246	200	240
5159	243	203	243
5160	240	204	241
5161	240	208	241
5162	0	0	0
5163	0	0	0
5164	0	0	0
5165	0	0	0
5166	0	0	0
5167	0	0	0
5168	0	0	0
5169	0	0	0
5170	0	0	0
5171	0	0	0
5172	0	0	0
5173	0	0	0
5174	0	0	0
5175	0	0	0
5176	0	0	0
5177	0	0	0
5178	0	0	0
5179	0	0	0
5180	0	0	0
5181	0	0	0
5182	0	0	0
5183	0	0	0
5184	0	0	0
5185	0	0	0
5186	0	0	0
5187	0	0	0
5188	0	0	0
5189	0	0	0
5190	0	0	0
5191	0	0	0
5192	0	0	0
5193	0	0	0
5194	0	0	0
5195	0	0	0
5196	0	0	0
5197	0	0	0
5198	0	0	0
5199	0	0	0
5200	0	0	0
5201	0	0	0
5202	0	0	0
5203	0	0	0
5204	0	0	0
5205	247	208	236
5206	255	221	248
5207	255	212	241
5208	253	204	238
5209	248	199	240
5210	244	202	242
5211	245	211	245
5212	243	213	244
5213	0	0	0
5214	0	0	0
5215	0	0	0
5216	0	0	0
5217	0	0	0
5218	0	0	0
5219	0	0	0
5220	0	0	0
5221	0	0	0
5222	0	0	0
5223	0	0	0
5224	0	0	0
5225	0	0	0
5226	0	0	0
5227	0	0	0
5228	0	0	0
5229	0	0	0
5230	0	0	0
5231	0	0	0
5232	0	0	0
5233	0	0	0
5234	0	0	0
5235	0	0	0
5236	0	0	0
5237	0	0	0
5238	0	0	0
5239	0	0	0
5240	0	0	0
5241	0	0	0
5242	0	0	0
5243	0	0	0
5244	0	0	0
5245	0	0	0
5246	0	0	0
5247	0	0	0
5248	0	0	0
5249	0	0	0
5250	0	0	0
5251	0	0	0
5252	0	0	0
5253	0	0	0
5254	0	0	0
5255	0	0	0
5256	0	0	0
5257	251	211	240
5258	247	202	235
5259	248	201	237
5260	244	196	238
5261	249	208	246
5262	250	217	247
5263	0	0	0
5264	0	0	0
5265	0	0	0
5266	0	0	0
5267	0	0	0
5268	0	0	0
5269	0	0	0
5270	0	0	0
5271	0	0	0
5272	0	0	0
5273	0	0	0
5274	0	0	0
5275	0	0	0
5276	0	0	0
5277	0	0	0
5278	0	0	0
5279	0	0	0
5280	0	0	0
5281	0	0	0
5282	0	0	0
5283	0	0	0
5284	0	0	0
5285	0	0	0
5286	0	0	0
5287	0	0	0
5288	0	0	0
5289	0	0	0
5290	0	0	0
5291	0	0	0
5292	0	0	0
5293	0	0	0
5294	0	0	0
5295	0	0	0
5296	0	0	0
5297	0	0	0
5298	0	0	0
5299	0	0	0
5300	0	0	0
5301	0	0	0
5302	0	0	0
5303	0	0	0
5304	0	0	0
5305	0	0	0
5306	0	0	0
5307	0	0	0
5308	0	0	0
5309	0	0	0
5310	0	0	0
5311	0	0	0
5312	253	217	249
5313	0	0	0
5314	0	0	0
5315	0	0	0
5316	0	0	0
5317	0	0	0
5318	0	0	0
5319	0	0	0
5320	0	0	0
5321	0	0	0
5322	0	0	0
5323	0	0	0
5324	0	0	0
5325	0	0	0
5326	0	0	0
5327	0	0	0
5328	0	0	0
5329	0	0	0
5330	0	0	0
5331	0	0	0
5332	0	0	0
5333	0	0	0
5334	0	0	0
5335	0	0	0
5336	0	0	0
5337	0	0	0
5338	0	0	0
5339	0	0	0
5340	0	0	0
5341	0	0	0
5342	0	0	0
5343	0	0	0
5344	0	0	0
5345	0	0	0
5346	0	0	0
5347	0	0	0
5348	0	0	0
5349	0	0	0
5350	0	0	0
5351	0	0	0
5352	0	0	0
5353	0	0	0
5354	0	0	0
5355	0	0	0
