 	R	G	B
1	0	0	0
2	0	0	0
3	0	0	0
4	0	0	0
5	0	0	0
6	0	0	0
7	0	0	0
8	0	0	0
9	0	0	0
10	0	0	0
11	0	0	0
12	0	0	0
13	0	0	0
14	0	0	0
15	0	0	0
16	0	0	0
17	0	0	0
18	251	221	231
19	254	222	233
20	0	0	0
21	0	0	0
22	0	0	0
23	0	0	0
24	0	0	0
25	0	0	0
26	0	0	0
27	0	0	0
28	0	0	0
29	0	0	0
30	0	0	0
31	0	0	0
32	0	0	0
33	0	0	0
34	0	0	0
35	0	0	0
36	0	0	0
37	0	0	0
38	0	0	0
39	0	0	0
40	0	0	0
41	0	0	0
42	0	0	0
43	0	0	0
44	0	0	0
45	0	0	0
46	0	0	0
47	0	0	0
48	0	0	0
49	0	0	0
50	0	0	0
51	0	0	0
52	0	0	0
53	0	0	0
54	0	0	0
55	0	0	0
56	0	0	0
57	0	0	0
58	0	0	0
59	0	0	0
60	0	0	0
61	0	0	0
62	0	0	0
63	0	0	0
64	0	0	0
65	0	0	0
66	0	0	0
67	0	0	0
68	0	0	0
69	0	0	0
70	0	0	0
71	0	0	0
72	0	0	0
73	0	0	0
74	0	0	0
75	0	0	0
76	0	0	0
77	0	0	0
78	251	221	230
79	255	224	234
80	255	224	235
81	255	219	233
82	0	0	0
83	0	0	0
84	0	0	0
85	0	0	0
86	0	0	0
87	0	0	0
88	0	0	0
89	0	0	0
90	0	0	0
91	0	0	0
92	0	0	0
93	0	0	0
94	0	0	0
95	0	0	0
96	0	0	0
97	0	0	0
98	0	0	0
99	0	0	0
100	0	0	0
101	0	0	0
102	0	0	0
103	0	0	0
104	0	0	0
105	0	0	0
106	0	0	0
107	0	0	0
108	0	0	0
109	0	0	0
110	0	0	0
111	0	0	0
112	0	0	0
113	0	0	0
114	0	0	0
115	0	0	0
116	0	0	0
117	0	0	0
118	0	0	0
119	0	0	0
120	0	0	0
121	0	0	0
122	0	0	0
123	0	0	0
124	0	0	0
125	0	0	0
126	0	0	0
127	0	0	0
128	0	0	0
129	0	0	0
130	0	0	0
131	0	0	0
132	0	0	0
133	0	0	0
134	0	0	0
135	0	0	0
136	0	0	0
137	0	0	0
138	0	0	0
139	255	224	232
140	255	226	236
141	253	215	230
142	250	210	228
143	253	214	232
144	0	0	0
145	0	0	0
146	0	0	0
147	0	0	0
148	0	0	0
149	0	0	0
150	0	0	0
151	0	0	0
152	0	0	0
153	0	0	0
154	0	0	0
155	0	0	0
156	0	0	0
157	0	0	0
158	0	0	0
159	0	0	0
160	0	0	0
161	0	0	0
162	0	0	0
163	0	0	0
164	0	0	0
165	0	0	0
166	0	0	0
167	0	0	0
168	0	0	0
169	0	0	0
170	0	0	0
171	0	0	0
172	0	0	0
173	0	0	0
174	0	0	0
175	0	0	0
176	0	0	0
177	0	0	0
178	0	0	0
179	0	0	0
180	0	0	0
181	0	0	0
182	0	0	0
183	0	0	0
184	0	0	0
185	0	0	0
186	0	0	0
187	0	0	0
188	0	0	0
189	0	0	0
190	0	0	0
191	0	0	0
192	0	0	0
193	255	231	241
194	255	229	237
195	255	229	237
196	255	230	237
197	0	0	0
198	0	0	0
199	0	0	0
200	255	224	233
201	253	215	229
202	248	206	225
203	254	213	232
204	255	217	235
205	255	219	234
206	0	0	0
207	255	217	227
208	0	0	0
209	0	0	0
210	0	0	0
211	0	0	0
212	0	0	0
213	0	0	0
214	0	0	0
215	0	0	0
216	0	0	0
217	0	0	0
218	0	0	0
219	0	0	0
220	0	0	0
221	0	0	0
222	0	0	0
223	0	0	0
224	0	0	0
225	0	0	0
226	0	0	0
227	0	0	0
228	0	0	0
229	0	0	0
230	0	0	0
231	0	0	0
232	0	0	0
233	0	0	0
234	0	0	0
235	0	0	0
236	0	0	0
237	0	0	0
238	0	0	0
239	0	0	0
240	0	0	0
241	0	0	0
242	0	0	0
243	0	0	0
244	0	0	0
245	0	0	0
246	0	0	0
247	0	0	0
248	0	0	0
249	0	0	0
250	0	0	0
251	0	0	0
252	0	0	0
253	255	229	241
254	255	229	240
255	253	221	234
256	254	221	233
257	255	224	233
258	245	213	224
259	249	218	227
260	0	0	0
261	0	0	0
262	254	214	228
263	252	209	227
264	255	216	234
265	255	213	232
266	255	215	231
267	255	221	230
268	255	216	226
269	249	203	221
270	0	0	0
271	0	0	0
272	0	0	0
273	0	0	0
274	0	0	0
275	0	0	0
276	0	0	0
277	0	0	0
278	0	0	0
279	0	0	0
280	0	0	0
281	0	0	0
282	0	0	0
283	0	0	0
284	0	0	0
285	0	0	0
286	0	0	0
287	0	0	0
288	0	0	0
289	0	0	0
290	0	0	0
291	0	0	0
292	0	0	0
293	0	0	0
294	0	0	0
295	0	0	0
296	0	0	0
297	0	0	0
298	0	0	0
299	0	0	0
300	0	0	0
301	0	0	0
302	0	0	0
303	0	0	0
304	0	0	0
305	0	0	0
306	0	0	0
307	0	0	0
308	0	0	0
309	0	0	0
310	0	0	0
311	0	0	0
312	0	0	0
313	255	230	243
314	255	226	237
315	253	219	232
316	249	212	229
317	254	217	232
318	255	219	230
319	254	222	230
320	255	227	234
321	255	225	234
322	255	225	234
323	255	220	232
324	255	213	229
325	255	213	231
326	255	211	231
327	255	215	233
328	255	221	234
329	254	208	224
330	246	195	215
331	253	205	223
332	255	212	228
333	255	213	228
334	255	213	228
335	255	216	230
336	0	0	0
337	0	0	0
338	0	0	0
339	0	0	0
340	0	0	0
341	0	0	0
342	0	0	0
343	0	0	0
344	0	0	0
345	0	0	0
346	0	0	0
347	0	0	0
348	0	0	0
349	0	0	0
350	0	0	0
351	0	0	0
352	0	0	0
353	0	0	0
354	0	0	0
355	0	0	0
356	0	0	0
357	0	0	0
358	0	0	0
359	0	0	0
360	0	0	0
361	0	0	0
362	0	0	0
363	0	0	0
364	0	0	0
365	0	0	0
366	0	0	0
367	0	0	0
368	0	0	0
369	0	0	0
370	0	0	0
371	0	0	0
372	0	0	0
373	255	230	242
374	255	229	242
375	252	216	230
376	249	210	226
377	254	216	232
378	255	222	236
379	255	216	229
380	255	220	231
381	254	215	228
382	253	212	226
383	255	219	232
384	255	214	229
385	250	201	222
386	251	201	223
387	255	208	229
388	255	213	232
389	255	213	230
390	251	200	220
391	250	198	218
392	255	208	226
393	255	206	224
394	255	207	225
395	255	206	224
396	255	208	225
397	247	201	218
398	0	0	0
399	0	0	0
400	0	0	0
401	0	0	0
402	0	0	0
403	0	0	0
404	0	0	0
405	0	0	0
406	0	0	0
407	0	0	0
408	0	0	0
409	0	0	0
410	0	0	0
411	0	0	0
412	0	0	0
413	0	0	0
414	0	0	0
415	0	0	0
416	0	0	0
417	0	0	0
418	0	0	0
419	0	0	0
420	0	0	0
421	0	0	0
422	0	0	0
423	0	0	0
424	0	0	0
425	0	0	0
426	0	0	0
427	0	0	0
428	0	0	0
429	0	0	0
430	0	0	0
431	0	0	0
432	0	0	0
433	0	0	0
434	0	0	0
435	252	218	233
436	245	206	223
437	253	214	230
438	255	221	236
439	255	217	234
440	255	212	229
441	255	210	227
442	251	204	223
443	255	210	227
444	255	217	232
445	254	204	224
446	246	191	218
447	252	199	224
448	255	205	226
449	254	204	224
450	255	205	225
451	255	204	224
452	255	202	223
453	255	201	221
454	252	198	216
455	252	197	215
456	250	196	215
457	249	195	214
458	242	189	207
459	253	207	219
460	255	223	229
461	255	225	229
462	0	0	0
463	0	0	0
464	0	0	0
465	0	0	0
466	0	0	0
467	0	0	0
468	0	0	0
469	0	0	0
470	0	0	0
471	0	0	0
472	0	0	0
473	0	0	0
474	0	0	0
475	0	0	0
476	0	0	0
477	0	0	0
478	0	0	0
479	0	0	0
480	0	0	0
481	0	0	0
482	0	0	0
483	0	0	0
484	0	0	0
485	0	0	0
486	0	0	0
487	0	0	0
488	0	0	0
489	0	0	0
490	0	0	0
491	0	0	0
492	0	0	0
493	0	0	0
494	0	0	0
495	0	0	0
496	0	0	0
497	249	208	227
498	255	218	234
499	255	212	231
500	254	209	230
501	255	209	230
502	255	207	229
503	251	199	224
504	255	205	228
505	255	208	229
506	251	195	220
507	249	192	221
508	255	200	227
509	255	206	228
510	255	206	227
511	254	198	222
512	254	196	222
513	254	196	221
514	253	195	218
515	255	200	219
516	255	199	217
517	250	191	212
518	249	191	212
519	251	196	212
520	255	214	225
521	253	205	220
522	252	208	220
523	252	214	220
524	0	0	0
525	0	0	0
526	0	0	0
527	254	238	230
528	0	0	0
529	0	0	0
530	0	0	0
531	0	0	0
532	0	0	0
533	0	0	0
534	0	0	0
535	0	0	0
536	0	0	0
537	0	0	0
538	0	0	0
539	0	0	0
540	0	0	0
541	0	0	0
542	0	0	0
543	0	0	0
544	0	0	0
545	0	0	0
546	0	0	0
547	0	0	0
548	0	0	0
549	0	0	0
550	0	0	0
551	0	0	0
552	0	0	0
553	0	0	0
554	0	0	0
555	0	0	0
556	0	0	0
557	0	0	0
558	246	206	225
559	250	206	227
560	249	201	225
561	254	204	228
562	255	205	229
563	254	200	227
564	251	194	225
565	255	198	229
566	255	201	228
567	255	198	224
568	254	195	223
569	255	203	229
570	255	210	234
571	255	200	227
572	254	193	223
573	254	193	223
574	253	191	219
575	255	196	220
576	255	201	222
577	253	192	215
578	248	185	211
579	255	195	218
580	255	199	219
581	252	194	215
582	243	185	209
583	249	196	215
584	249	202	214
585	252	213	218
586	255	225	228
587	255	230	231
588	255	236	232
589	255	242	234
590	0	0	0
591	0	0	0
592	0	0	0
593	0	0	0
594	0	0	0
595	0	0	0
596	0	0	0
597	0	0	0
598	0	0	0
599	0	0	0
600	0	0	0
601	0	0	0
602	0	0	0
603	0	0	0
604	0	0	0
605	0	0	0
606	0	0	0
607	0	0	0
608	0	0	0
609	0	0	0
610	0	0	0
611	0	0	0
612	0	0	0
613	0	0	0
614	0	0	0
615	0	0	0
616	0	0	0
617	0	0	0
618	0	0	0
619	250	213	230
620	255	214	233
621	252	204	228
622	255	208	232
623	253	198	227
624	252	194	226
625	252	190	227
626	255	195	231
627	255	191	225
628	253	188	221
629	253	187	221
630	255	195	227
631	255	194	226
632	251	185	219
633	255	191	224
634	255	191	223
635	255	189	220
636	255	194	221
637	255	192	218
638	249	184	211
639	255	196	221
640	255	206	229
641	252	188	214
642	248	183	210
643	251	190	216
644	255	201	222
645	254	201	217
646	255	212	221
647	254	210	219
648	254	215	222
649	255	221	225
650	255	227	226
651	0	0	0
652	0	0	0
653	0	0	0
654	0	0	0
655	0	0	0
656	0	0	0
657	0	0	0
658	0	0	0
659	0	0	0
660	0	0	0
661	0	0	0
662	0	0	0
663	0	0	0
664	0	0	0
665	0	0	0
666	0	0	0
667	0	0	0
668	0	0	0
669	0	0	0
670	0	0	0
671	0	0	0
672	0	0	0
673	0	0	0
674	0	0	0
675	0	0	0
676	0	0	0
677	0	0	0
678	0	0	0
679	0	0	0
680	251	217	233
681	254	211	232
682	250	201	225
683	250	195	224
684	246	186	221
685	247	184	223
686	247	181	224
687	250	182	225
688	249	179	219
689	252	181	221
690	253	182	225
691	254	183	225
692	253	181	221
693	255	186	222
694	255	191	224
695	255	191	223
696	255	190	223
697	255	189	221
698	255	187	217
699	255	197	222
700	255	208	231
701	255	192	219
702	246	175	206
703	252	184	214
704	255	191	220
705	255	195	221
706	255	197	219
707	254	197	216
708	248	194	210
709	252	202	214
710	253	209	217
711	0	0	0
712	0	0	0
713	0	0	0
714	0	0	0
715	0	0	0
716	0	0	0
717	0	0	0
718	0	0	0
719	0	0	0
720	0	0	0
721	0	0	0
722	0	0	0
723	0	0	0
724	0	0	0
725	0	0	0
726	0	0	0
727	0	0	0
728	0	0	0
729	0	0	0
730	0	0	0
731	0	0	0
732	0	0	0
733	0	0	0
734	0	0	0
735	0	0	0
736	0	0	0
737	0	0	0
738	0	0	0
739	0	0	0
740	0	0	0
741	253	220	236
742	255	215	235
743	250	200	227
744	251	195	227
745	252	193	229
746	253	191	230
747	255	192	234
748	255	194	235
749	249	176	220
750	253	179	224
751	254	177	227
752	255	179	228
753	252	175	222
754	255	180	222
755	255	178	219
756	254	178	218
757	252	175	217
758	251	174	215
759	255	184	219
760	255	193	223
761	255	187	218
762	247	171	207
763	250	176	211
764	255	186	218
765	255	187	219
766	255	191	221
767	255	190	218
768	254	191	215
769	250	188	209
770	254	197	214
771	250	197	213
772	0	0	0
773	0	0	0
774	0	0	0
775	0	0	0
776	0	0	0
777	0	0	0
778	0	0	0
779	0	0	0
780	0	0	0
781	0	0	0
782	0	0	0
783	0	0	0
784	0	0	0
785	0	0	0
786	0	0	0
787	0	0	0
788	0	0	0
789	0	0	0
790	0	0	0
791	0	0	0
792	0	0	0
793	0	0	0
794	0	0	0
795	0	0	0
796	0	0	0
797	0	0	0
798	0	0	0
799	0	0	0
800	0	0	0
801	0	0	0
802	254	222	238
803	252	210	234
804	248	197	229
805	254	200	235
806	255	197	235
807	255	198	237
808	255	199	240
809	253	183	230
810	244	166	216
811	248	168	220
812	249	167	223
813	251	168	224
814	249	165	219
815	250	166	219
816	249	165	217
817	249	164	217
818	248	162	216
819	254	173	221
820	255	182	224
821	254	175	216
822	249	169	210
823	253	174	214
824	255	180	220
825	255	183	221
826	255	183	220
827	254	181	216
828	252	180	212
829	250	179	209
830	247	177	206
831	249	183	209
832	246	184	209
833	255	200	216
834	255	213	217
835	255	218	217
836	255	225	224
837	255	232	227
838	0	0	0
839	0	0	0
840	0	0	0
841	0	0	0
842	0	0	0
843	0	0	0
844	0	0	0
845	0	0	0
846	0	0	0
847	0	0	0
848	0	0	0
849	0	0	0
850	0	0	0
851	0	0	0
852	0	0	0
853	0	0	0
854	0	0	0
855	0	0	0
856	0	0	0
857	0	0	0
858	0	0	0
859	0	0	0
860	0	0	0
861	0	0	0
862	0	0	0
863	255	228	242
864	255	217	238
865	254	206	235
866	255	209	241
867	249	189	230
868	253	191	233
869	255	193	236
870	250	178	227
871	253	177	226
872	255	180	231
873	252	169	226
874	254	171	228
875	255	169	226
876	255	171	227
877	251	162	221
878	251	162	221
879	252	164	223
880	255	174	228
881	255	176	225
882	253	168	217
883	253	168	215
884	255	174	218
885	255	171	216
886	255	173	217
887	254	174	216
888	251	172	211
889	255	185	216
890	255	185	214
891	252	177	209
892	254	184	214
893	251	183	212
894	255	200	220
895	255	201	213
896	255	205	213
897	251	201	211
898	253	208	214
899	254	215	213
900	0	0	0
901	0	0	0
902	0	0	0
903	0	0	0
904	0	0	0
905	0	0	0
906	0	0	0
907	0	0	0
908	0	0	0
909	0	0	0
910	0	0	0
911	0	0	0
912	0	0	0
913	0	0	0
914	0	0	0
915	0	0	0
916	0	0	0
917	0	0	0
918	0	0	0
919	0	0	0
920	0	0	0
921	0	0	0
922	0	0	0
923	0	0	0
924	0	0	0
925	255	220	237
926	0	0	0
927	247	194	226
928	238	175	217
929	247	182	226
930	253	186	231
931	255	187	234
932	255	187	234
933	255	178	229
934	250	166	223
935	253	168	226
936	255	167	226
937	252	162	223
938	247	153	216
939	252	159	221
940	254	162	225
941	255	166	228
942	255	169	225
943	255	168	221
944	255	168	220
945	255	166	217
946	252	161	211
947	253	164	213
948	253	166	215
949	255	178	219
950	255	190	220
951	255	181	211
952	253	175	209
953	255	179	212
954	252	178	209
955	252	181	209
956	250	184	207
957	245	180	203
958	239	175	200
959	246	188	207
960	248	196	208
961	255	214	216
962	0	0	0
963	0	0	0
964	0	0	0
965	0	0	0
966	0	0	0
967	0	0	0
968	0	0	0
969	0	0	0
970	0	0	0
971	0	0	0
972	0	0	0
973	0	0	0
974	0	0	0
975	0	0	0
976	0	0	0
977	0	0	0
978	0	0	0
979	0	0	0
980	0	0	0
981	0	0	0
982	0	0	0
983	0	0	0
984	0	0	0
985	0	0	0
986	0	0	0
987	0	0	0
988	0	0	0
989	250	195	229
990	255	202	239
991	254	188	233
992	255	190	237
993	250	172	226
994	246	163	221
995	254	170	228
996	255	172	231
997	253	164	227
998	252	159	224
999	250	155	221
1000	255	162	226
1001	254	157	226
1002	255	162	228
1003	255	159	222
1004	255	159	220
1005	255	158	218
1006	253	156	215
1007	252	156	212
1008	254	159	213
1009	254	161	214
1010	255	173	219
1011	255	175	214
1012	253	166	205
1013	252	167	207
1014	254	171	210
1015	252	172	208
1016	252	176	208
1017	255	188	214
1018	254	185	211
1019	251	183	211
1020	255	197	219
1021	251	191	211
1022	255	209	218
1023	255	209	213
1024	0	0	0
1025	0	0	0
1026	0	0	0
1027	0	0	0
1028	0	0	0
1029	0	0	0
1030	0	0	0
1031	0	0	0
1032	0	0	0
1033	0	0	0
1034	0	0	0
1035	0	0	0
1036	0	0	0
1037	0	0	0
1038	0	0	0
1039	0	0	0
1040	0	0	0
1041	0	0	0
1042	0	0	0
1043	0	0	0
1044	0	0	0
1045	0	0	0
1046	0	0	0
1047	0	0	0
1048	0	0	0
1049	0	0	0
1050	0	0	0
1051	252	196	230
1052	247	182	226
1053	244	170	224
1054	237	154	218
1055	248	166	228
1056	255	173	232
1057	252	165	228
1058	249	158	226
1059	251	158	228
1060	250	154	224
1061	249	151	222
1062	246	146	219
1063	249	147	220
1064	247	144	216
1065	250	147	216
1066	250	147	215
1067	254	151	217
1068	254	152	215
1069	255	156	217
1070	255	157	215
1071	255	161	216
1072	255	165	216
1073	255	164	213
1074	254	163	210
1075	253	164	209
1076	251	165	208
1077	255	175	212
1078	255	187	215
1079	255	186	214
1080	255	185	214
1081	255	185	214
1082	248	180	206
1083	248	184	206
1084	245	185	205
1085	252	201	213
1086	255	216	220
1087	255	222	220
1088	0	0	0
1089	0	0	0
1090	0	0	0
1091	0	0	0
1092	0	0	0
1093	0	0	0
1094	0	0	0
1095	0	0	0
1096	0	0	0
1097	0	0	0
1098	0	0	0
1099	0	0	0
1100	0	0	0
1101	0	0	0
1102	0	0	0
1103	0	0	0
1104	0	0	0
1105	0	0	0
1106	0	0	0
1107	0	0	0
1108	0	0	0
1109	0	0	0
1110	0	0	0
1111	0	0	0
1112	0	0	0
1113	252	194	232
1114	251	184	232
1115	249	174	232
1116	255	186	244
1117	255	173	234
1118	252	166	230
1119	250	160	230
1120	252	160	232
1121	249	155	227
1122	248	152	224
1123	254	157	228
1124	255	159	229
1125	250	146	219
1126	253	149	221
1127	253	147	220
1128	255	152	223
1129	252	142	214
1130	254	147	216
1131	253	145	212
1132	255	151	214
1133	255	154	216
1134	254	152	213
1135	251	152	208
1136	249	152	206
1137	255	168	214
1138	255	177	218
1139	255	177	213
1140	255	176	211
1141	251	170	208
1142	250	171	207
1143	253	179	211
1144	254	184	213
1145	250	184	212
1146	255	200	219
1147	255	204	216
1148	255	209	215
1149	250	205	208
1150	0	0	0
1151	0	0	0
1152	0	0	0
1153	0	0	0
1154	0	0	0
1155	0	0	0
1156	0	0	0
1157	0	0	0
1158	0	0	0
1159	0	0	0
1160	0	0	0
1161	0	0	0
1162	0	0	0
1163	0	0	0
1164	0	0	0
1165	0	0	0
1166	0	0	0
1167	0	0	0
1168	0	0	0
1169	0	0	0
1170	0	0	0
1171	0	0	0
1172	0	0	0
1173	0	0	0
1174	251	201	231
1175	253	194	233
1176	252	184	234
1177	252	177	234
1178	246	166	226
1179	248	163	227
1180	247	157	229
1181	251	159	233
1182	248	154	228
1183	252	159	229
1184	255	164	232
1185	255	154	225
1186	248	142	216
1187	251	143	219
1188	253	143	221
1189	251	137	218
1190	244	127	208
1191	247	131	210
1192	247	132	209
1193	252	138	213
1194	252	141	213
1195	253	143	212
1196	250	143	209
1197	255	157	216
1198	255	172	222
1199	255	168	217
1200	255	169	216
1201	252	163	210
1202	245	155	203
1203	251	166	209
1204	255	176	216
1205	253	177	214
1206	250	177	212
1207	253	185	215
1208	253	189	213
1209	249	188	209
1210	243	184	204
1211	253	203	216
1212	255	221	227
1213	255	227	228
1214	255	235	229
1215	255	237	229
1216	255	244	234
1217	255	243	234
1218	0	0	0
1219	0	0	0
1220	0	0	0
1221	0	0	0
1222	0	0	0
1223	0	0	0
1224	0	0	0
1225	0	0	0
1226	0	0	0
1227	0	0	0
1228	0	0	0
1229	0	0	0
1230	0	0	0
1231	0	0	0
1232	0	0	0
1233	0	0	0
1234	0	0	0
1235	252	210	235
1236	254	203	236
1237	251	191	234
1238	251	185	233
1239	254	182	235
1240	255	181	238
1241	251	164	233
1242	255	166	237
1243	250	156	230
1244	253	160	232
1245	255	161	231
1246	254	152	225
1247	247	138	217
1248	251	140	220
1249	255	143	224
1250	254	138	221
1251	251	132	215
1252	254	136	217
1253	254	135	217
1254	255	142	221
1255	248	127	209
1256	249	130	209
1257	253	139	213
1258	255	153	219
1259	255	157	216
1260	254	154	211
1261	255	164	219
1262	254	158	214
1263	248	154	207
1264	254	165	213
1265	255	176	221
1266	255	177	220
1267	254	176	216
1268	255	184	219
1269	254	183	215
1270	251	182	213
1271	248	181	212
1272	255	200	223
1273	255	204	222
1274	255	210	222
1275	254	209	217
1276	253	212	216
1277	255	219	221
1278	251	216	219
1279	255	226	225
1280	0	0	0
1281	0	0	0
1282	0	0	0
1283	0	0	0
1284	0	0	0
1285	0	0	0
1286	0	0	0
1287	0	0	0
1288	0	0	0
1289	0	0	0
1290	0	0	0
1291	0	0	0
1292	0	0	0
1293	0	0	0
1294	0	0	0
1295	0	0	0
1296	0	0	0
1297	246	205	234
1298	243	192	228
1299	251	194	233
1300	255	192	236
1301	254	180	233
1302	247	162	227
1303	248	159	229
1304	243	150	225
1305	247	153	227
1306	251	155	229
1307	250	145	224
1308	245	133	218
1309	252	139	224
1310	255	140	224
1311	254	137	220
1312	252	131	214
1313	252	130	214
1314	253	131	216
1315	249	123	211
1316	238	108	199
1317	249	124	209
1318	253	134	214
1319	255	140	214
1320	254	143	211
1321	255	150	213
1322	255	160	220
1323	255	157	216
1324	251	153	210
1325	255	165	218
1326	255	176	226
1327	255	172	221
1328	254	171	217
1329	249	169	211
1330	246	167	207
1331	245	169	208
1332	243	169	210
1333	246	177	214
1334	246	181	211
1335	244	182	209
1336	242	183	207
1337	244	190	211
1338	246	196	213
1339	248	204	217
1340	251	214	222
1341	253	222	227
1342	0	0	0
1343	0	0	0
1344	0	0	0
1345	0	0	0
1346	0	0	0
1347	0	0	0
1348	0	0	0
1349	0	0	0
1350	0	0	0
1351	0	0	0
1352	0	0	0
1353	0	0	0
1354	0	0	0
1355	0	0	0
1356	0	0	0
1357	0	0	0
1358	0	0	0
1359	245	210	234
1360	255	214	242
1361	253	194	234
1362	252	182	232
1363	248	170	229
1364	247	166	230
1365	248	163	232
1366	255	168	237
1367	251	156	231
1368	252	148	228
1369	253	141	227
1370	255	147	232
1371	250	131	218
1372	248	127	214
1373	253	133	217
1374	255	134	218
1375	255	140	224
1376	255	132	219
1377	242	109	204
1378	254	126	215
1379	255	130	216
1380	255	136	216
1381	253	135	210
1382	255	141	212
1383	255	149	216
1384	253	145	212
1385	250	145	210
1386	255	157	217
1387	254	159	217
1388	248	156	211
1389	255	177	222
1390	255	175	217
1391	254	175	214
1392	254	177	216
1393	254	180	220
1394	255	189	226
1395	253	185	220
1396	253	188	220
1397	250	186	217
1398	253	193	221
1399	249	193	219
1400	251	200	222
1401	255	214	229
1402	255	222	231
1403	255	223	230
1404	0	0	0
1405	0	0	0
1406	0	0	0
1407	0	0	0
1408	0	0	0
1409	0	0	0
1410	0	0	0
1411	0	0	0
1412	0	0	0
1413	0	0	0
1414	0	0	0
1415	0	0	0
1416	0	0	0
1417	0	0	0
1418	0	0	0
1419	0	0	0
1420	0	0	0
1421	248	210	235
1422	244	191	229
1423	250	187	233
1424	248	175	231
1425	252	177	236
1426	254	175	238
1427	251	164	234
1428	249	153	229
1429	254	150	231
1430	254	143	228
1431	251	134	223
1432	243	120	212
1433	253	131	221
1434	255	138	227
1435	255	144	230
1436	255	148	230
1437	255	127	215
1438	242	106	205
1439	251	117	214
1440	251	120	213
1441	252	124	212
1442	249	124	207
1443	250	129	208
1444	253	136	211
1445	248	135	208
1446	246	135	208
1447	248	141	210
1448	245	142	206
1449	255	162	216
1450	255	184	227
1451	255	180	220
1452	255	180	218
1453	255	181	218
1454	255	184	221
1455	255	182	220
1456	251	180	218
1457	251	180	218
1458	247	178	215
1459	248	182	218
1460	246	183	219
1461	253	198	228
1462	255	211	231
1463	254	211	227
1464	250	211	225
1465	0	0	0
1466	0	0	0
1467	0	0	0
1468	0	0	0
1469	0	0	0
1470	0	0	0
1471	0	0	0
1472	0	0	0
1473	0	0	0
1474	0	0	0
1475	0	0	0
1476	0	0	0
1477	0	0	0
1478	0	0	0
1479	0	0	0
1480	0	0	0
1481	0	0	0
1482	0	0	0
1483	248	208	236
1484	255	205	242
1485	247	180	231
1486	255	185	240
1487	254	174	236
1488	251	163	232
1489	255	162	235
1490	255	158	236
1491	251	140	226
1492	250	133	222
1493	251	129	220
1494	255	142	231
1495	252	123	220
1496	255	128	224
1497	255	123	217
1498	241	102	202
1499	253	118	217
1500	255	129	225
1501	250	114	212
1502	251	119	212
1503	249	119	208
1504	250	124	209
1505	255	138	215
1506	252	137	211
1507	255	146	217
1508	255	151	219
1509	247	141	208
1510	255	161	218
1511	255	171	219
1512	254	167	211
1513	255	174	214
1514	254	174	213
1515	255	182	219
1516	255	180	219
1517	255	182	222
1518	254	183	222
1519	252	182	219
1520	253	186	222
1521	251	188	225
1522	255	203	234
1523	255	205	230
1524	252	204	226
1525	0	0	0
1526	0	0	0
1527	0	0	0
1528	0	0	0
1529	0	0	0
1530	0	0	0
1531	0	0	0
1532	0	0	0
1533	0	0	0
1534	0	0	0
1535	0	0	0
1536	0	0	0
1537	0	0	0
1538	0	0	0
1539	0	0	0
1540	0	0	0
1541	0	0	0
1542	0	0	0
1543	0	0	0
1544	0	0	0
1545	250	204	236
1546	242	181	227
1547	248	178	232
1548	247	167	230
1549	251	167	233
1550	255	166	235
1551	251	151	229
1552	245	134	220
1553	250	135	224
1554	252	132	222
1555	247	119	216
1556	236	101	206
1557	243	104	211
1558	242	101	209
1559	251	114	217
1560	255	127	227
1561	253	116	217
1562	242	102	204
1563	245	108	207
1564	244	109	206
1565	250	123	211
1566	255	136	214
1567	255	142	214
1568	255	149	217
1569	254	144	212
1570	245	136	206
1571	253	150	213
1572	255	159	214
1573	255	164	213
1574	255	171	216
1575	255	175	217
1576	255	182	222
1577	255	182	222
1578	255	183	224
1579	255	183	223
1580	253	182	221
1581	254	186	223
1582	251	186	222
1583	252	191	225
1584	249	194	225
1585	246	200	225
1586	0	0	0
1587	0	0	0
1588	0	0	0
1589	0	0	0
1590	0	0	0
1591	0	0	0
1592	0	0	0
1593	0	0	0
1594	0	0	0
1595	0	0	0
1596	0	0	0
1597	0	0	0
1598	0	0	0
1599	0	0	0
1600	0	0	0
1601	0	0	0
1602	0	0	0
1603	0	0	0
1604	0	0	0
1605	0	0	0
1606	0	0	0
1607	254	203	238
1608	255	199	242
1609	243	171	228
1610	247	170	232
1611	255	174	238
1612	254	160	233
1613	248	141	225
1614	254	143	230
1615	255	145	233
1616	253	131	226
1617	236	102	209
1618	246	109	217
1619	251	112	221
1620	255	125	228
1621	255	127	226
1622	252	114	215
1623	250	111	211
1624	253	118	215
1625	250	117	212
1626	255	130	217
1627	255	142	220
1628	255	148	219
1629	255	140	211
1630	249	136	207
1631	254	145	215
1632	255	159	223
1633	251	150	212
1634	251	155	211
1635	255	167	217
1636	255	170	217
1637	255	177	222
1638	255	176	221
1639	254	176	221
1640	251	176	220
1641	255	184	223
1642	255	187	225
1643	248	180	220
1644	249	186	223
1645	248	196	227
1646	0	0	0
1647	0	0	0
1648	0	0	0
1649	0	0	0
1650	0	0	0
1651	0	0	0
1652	0	0	0
1653	0	0	0
1654	0	0	0
1655	0	0	0
1656	0	0	0
1657	0	0	0
1658	0	0	0
1659	0	0	0
1660	0	0	0
1661	0	0	0
1662	0	0	0
1663	0	0	0
1664	0	0	0
1665	0	0	0
1666	0	0	0
1667	0	0	0
1668	255	222	243
1669	251	198	234
1670	238	171	223
1671	247	177	233
1672	255	180	239
1673	250	162	232
1674	245	144	226
1675	254	148	234
1676	255	149	235
1677	241	121	218
1678	225	93	203
1679	242	108	217
1680	247	112	218
1681	255	121	223
1682	255	125	223
1683	255	123	221
1684	255	120	219
1685	255	125	221
1686	255	124	216
1687	255	139	223
1688	255	152	229
1689	255	144	221
1690	255	137	215
1691	255	146	221
1692	255	154	225
1693	255	148	218
1694	246	139	209
1695	251	151	214
1696	255	163	219
1697	254	166	218
1698	255	172	221
1699	251	169	218
1700	249	169	218
1701	253	177	222
1702	255	184	224
1703	248	178	219
1704	241	172	217
1705	248	187	227
1706	0	0	0
1707	0	0	0
1708	0	0	0
1709	0	0	0
1710	0	0	0
1711	0	0	0
1712	0	0	0
1713	0	0	0
1714	0	0	0
1715	0	0	0
1716	0	0	0
1717	0	0	0
1718	0	0	0
1719	0	0	0
1720	0	0	0
1721	0	0	0
1722	0	0	0
1723	0	0	0
1724	0	0	0
1725	0	0	0
1726	0	0	0
1727	0	0	0
1728	0	0	0
1729	255	227	241
1730	250	205	233
1731	244	185	229
1732	255	192	241
1733	251	179	236
1734	241	158	227
1735	249	159	234
1736	255	164	243
1737	255	151	235
1738	238	123	218
1739	236	117	219
1740	249	131	231
1741	241	112	217
1742	255	125	226
1743	249	110	214
1744	250	109	213
1745	253	113	215
1746	255	117	217
1747	252	116	213
1748	255	132	222
1749	255	131	219
1750	251	124	212
1751	255	132	217
1752	255	140	221
1753	255	141	218
1754	248	134	211
1755	252	145	218
1756	255	157	223
1757	255	162	222
1758	253	163	219
1759	255	175	226
1760	254	172	222
1761	252	173	223
1762	255	181	226
1763	254	184	225
1764	246	177	219
1765	250	187	227
1766	0	0	0
1767	0	0	0
1768	0	0	0
1769	0	0	0
1770	0	0	0
1771	0	0	0
1772	0	0	0
1773	0	0	0
1774	0	0	0
1775	0	0	0
1776	0	0	0
1777	0	0	0
1778	0	0	0
1779	0	0	0
1780	0	0	0
1781	0	0	0
1782	0	0	0
1783	0	0	0
1784	0	0	0
1785	0	0	0
1786	0	0	0
1787	0	0	0
1788	0	0	0
1789	0	0	0
1790	0	0	0
1791	250	214	236
1792	245	194	231
1793	245	186	233
1794	242	173	230
1795	247	173	235
1796	254	174	239
1797	254	162	236
1798	249	149	231
1799	244	141	230
1800	242	135	230
1801	236	121	224
1802	228	104	212
1803	235	101	212
1804	230	88	201
1805	238	97	206
1806	243	102	208
1807	248	108	213
1808	249	109	213
1809	253	114	217
1810	251	114	214
1811	255	123	219
1812	255	131	222
1813	255	132	219
1814	253	131	214
1815	255	141	219
1816	255	153	227
1817	255	157	227
1818	255	160	223
1819	255	167	224
1820	255	179	231
1821	255	176	227
1822	254	176	226
1823	252	179	226
1824	252	182	226
1825	254	191	229
1826	255	198	232
1827	255	208	237
1828	0	0	0
1829	0	0	0
1830	0	0	0
1831	0	0	0
1832	0	0	0
1833	0	0	0
1834	0	0	0
1835	0	0	0
1836	0	0	0
1837	0	0	0
1838	0	0	0
1839	0	0	0
1840	0	0	0
1841	0	0	0
1842	0	0	0
1843	0	0	0
1844	0	0	0
1845	0	0	0
1846	0	0	0
1847	0	0	0
1848	0	0	0
1849	0	0	0
1850	0	0	0
1851	0	0	0
1852	0	0	0
1853	246	210	236
1854	247	201	237
1855	243	184	233
1856	252	187	240
1857	255	184	240
1858	255	172	236
1859	251	159	233
1860	245	151	232
1861	249	153	238
1862	245	141	234
1863	239	124	226
1864	243	121	226
1865	232	100	210
1866	240	110	216
1867	245	113	218
1868	255	124	226
1869	252	110	219
1870	255	116	224
1871	249	104	214
1872	254	114	218
1873	253	116	217
1874	249	116	212
1875	250	123	212
1876	253	132	216
1877	255	146	225
1878	255	149	224
1879	252	151	220
1880	252	159	221
1881	255	179	232
1882	255	175	227
1883	251	174	225
1884	247	175	223
1885	255	192	232
1886	255	201	236
1887	250	197	229
1888	248	204	230
1889	0	0	0
1890	0	0	0
1891	0	0	0
1892	0	0	0
1893	0	0	0
1894	0	0	0
1895	0	0	0
1896	0	0	0
1897	0	0	0
1898	0	0	0
1899	0	0	0
1900	0	0	0
1901	0	0	0
1902	0	0	0
1903	0	0	0
1904	0	0	0
1905	0	0	0
1906	0	0	0
1907	0	0	0
1908	0	0	0
1909	0	0	0
1910	0	0	0
1911	0	0	0
1912	0	0	0
1913	249	232	239
1914	252	228	241
1915	248	212	236
1916	245	196	233
1917	254	196	239
1918	255	193	239
1919	255	182	236
1920	253	169	234
1921	254	169	238
1922	255	171	244
1923	252	155	238
1924	247	140	233
1925	244	128	228
1926	232	108	214
1927	238	114	219
1928	243	118	220
1929	247	111	218
1930	243	99	212
1931	243	95	212
1932	235	84	202
1933	240	93	207
1934	240	96	206
1935	245	107	210
1936	246	114	211
1937	250	126	215
1938	254	138	221
1939	250	141	220
1940	248	144	220
1941	255	163	229
1942	255	181	235
1943	255	176	228
1944	250	174	225
1945	254	187	231
1946	255	203	237
1947	254	199	232
1948	245	195	226
1949	0	0	0
1950	0	0	0
1951	0	0	0
1952	0	0	0
1953	0	0	0
1954	0	0	0
1955	0	0	0
1956	0	0	0
1957	0	0	0
1958	0	0	0
1959	0	0	0
1960	0	0	0
1961	0	0	0
1962	0	0	0
1963	0	0	0
1964	0	0	0
1965	0	0	0
1966	0	0	0
1967	0	0	0
1968	0	0	0
1969	0	0	0
1970	0	0	0
1971	0	0	0
1972	0	0	0
1973	0	0	0
1974	0	0	0
1975	250	232	239
1976	249	217	235
1977	250	206	234
1978	255	205	239
1979	252	191	233
1980	250	179	229
1981	252	174	231
1982	255	176	237
1983	255	170	238
1984	252	154	233
1985	250	143	231
1986	247	132	228
1987	245	126	225
1988	248	132	229
1989	245	123	224
1990	246	116	221
1991	241	102	216
1992	243	101	217
1993	242	97	213
1994	249	107	219
1995	249	108	217
1996	255	119	222
1997	247	114	215
1998	251	125	218
1999	255	142	225
2000	255	145	224
2001	254	150	226
2002	255	168	235
2003	255	167	228
2004	246	162	219
2005	255	182	230
2006	255	195	235
2007	255	202	234
2008	247	196	226
2009	248	206	231
2010	0	0	0
2011	0	0	0
2012	0	0	0
2013	0	0	0
2014	0	0	0
2015	0	0	0
2016	0	0	0
2017	0	0	0
2018	0	0	0
2019	0	0	0
2020	0	0	0
2021	0	0	0
2022	0	0	0
2023	0	0	0
2024	0	0	0
2025	0	0	0
2026	0	0	0
2027	0	0	0
2028	0	0	0
2029	0	0	0
2030	0	0	0
2031	0	0	0
2032	0	0	0
2033	0	0	0
2034	0	0	0
2035	0	0	0
2036	0	0	0
2037	253	228	239
2038	251	215	235
2039	248	202	231
2040	245	190	228
2041	249	186	230
2042	251	181	229
2043	252	175	230
2044	254	169	234
2045	253	158	233
2046	250	147	230
2047	253	144	232
2048	250	138	228
2049	244	129	223
2050	241	121	221
2051	239	111	218
2052	234	98	212
2053	241	103	218
2054	240	101	215
2055	248	109	220
2056	248	110	218
2057	247	111	217
2058	241	107	211
2059	251	126	220
2060	255	143	225
2061	255	148	225
2062	255	154	229
2063	255	158	231
2064	251	159	226
2065	255	178	234
2066	255	196	240
2067	255	197	234
2068	255	203	233
2069	249	207	230
2070	0	0	0
2071	0	0	0
2072	0	0	0
2073	0	0	0
2074	0	0	0
2075	0	0	0
2076	0	0	0
2077	0	0	0
2078	0	0	0
2079	0	0	0
2080	0	0	0
2081	0	0	0
2082	0	0	0
2083	0	0	0
2084	0	0	0
2085	0	0	0
2086	0	0	0
2087	0	0	0
2088	0	0	0
2089	0	0	0
2090	0	0	0
2091	0	0	0
2092	0	0	0
2093	0	0	0
2094	0	0	0
2095	0	0	0
2096	0	0	0
2097	0	0	0
2098	0	0	0
2099	0	0	0
2100	0	0	0
2101	249	206	234
2102	255	203	238
2103	248	185	228
2104	250	179	229
2105	253	174	233
2106	252	163	232
2107	249	151	230
2108	250	147	230
2109	254	149	232
2110	252	142	230
2111	250	135	229
2112	246	125	226
2113	241	113	221
2114	246	118	226
2115	239	106	218
2116	247	115	223
2117	244	109	217
2118	245	111	217
2119	250	121	221
2120	255	141	231
2121	255	140	225
2122	255	146	226
2123	255	151	229
2124	255	155	231
2125	245	146	222
2126	252	166	230
2127	253	180	231
2128	243	179	222
2129	250	204	231
2130	0	0	0
2131	0	0	0
2132	0	0	0
2133	0	0	0
2134	0	0	0
2135	0	0	0
2136	0	0	0
2137	0	0	0
2138	0	0	0
2139	0	0	0
2140	0	0	0
2141	0	0	0
2142	0	0	0
2143	0	0	0
2144	0	0	0
2145	0	0	0
2146	0	0	0
2147	0	0	0
2148	0	0	0
2149	0	0	0
2150	0	0	0
2151	0	0	0
2152	0	0	0
2153	0	0	0
2154	0	0	0
2155	0	0	0
2156	0	0	0
2157	0	0	0
2158	0	0	0
2159	0	0	0
2160	0	0	0
2161	0	0	0
2162	255	224	241
2163	253	207	235
2164	247	189	227
2165	249	183	229
2166	251	177	232
2167	252	169	233
2168	249	157	230
2169	253	159	235
2170	255	161	239
2171	255	153	236
2172	255	145	233
2173	252	137	231
2174	247	126	228
2175	245	120	226
2176	238	108	218
2177	242	111	220
2178	239	106	215
2179	251	122	224
2180	255	133	229
2181	255	137	230
2182	254	137	226
2183	253	140	226
2184	252	144	227
2185	244	138	221
2186	233	130	213
2187	244	153	226
2188	245	167	228
2189	248	188	232
2190	252	211	236
2191	0	0	0
2192	0	0	0
2193	0	0	0
2194	0	0	0
2195	0	0	0
2196	0	0	0
2197	0	0	0
2198	0	0	0
2199	0	0	0
2200	0	0	0
2201	0	0	0
2202	0	0	0
2203	0	0	0
2204	0	0	0
2205	0	0	0
2206	0	0	0
2207	0	0	0
2208	0	0	0
2209	0	0	0
2210	0	0	0
2211	0	0	0
2212	0	0	0
2213	0	0	0
2214	0	0	0
2215	0	0	0
2216	0	0	0
2217	0	0	0
2218	0	0	0
2219	0	0	0
2220	0	0	0
2221	0	0	0
2222	0	0	0
2223	0	0	0
2224	250	206	229
2225	251	200	230
2226	252	192	230
2227	250	182	230
2228	250	173	230
2229	251	167	231
2230	255	169	236
2231	255	167	239
2232	255	159	236
2233	253	148	232
2234	253	141	231
2235	247	128	227
2236	247	123	226
2237	252	127	229
2238	254	129	230
2239	245	116	221
2240	255	133	231
2241	255	136	231
2242	255	141	234
2243	245	124	220
2244	243	128	220
2245	255	155	235
2246	247	148	228
2247	242	145	226
2248	255	170	241
2249	245	168	232
2250	245	187	233
2251	251	213	238
2252	0	0	0
2253	0	0	0
2254	0	0	0
2255	0	0	0
2256	0	0	0
2257	0	0	0
2258	0	0	0
2259	0	0	0
2260	0	0	0
2261	0	0	0
2262	0	0	0
2263	0	0	0
2264	0	0	0
2265	0	0	0
2266	0	0	0
2267	0	0	0
2268	0	0	0
2269	0	0	0
2270	0	0	0
2271	0	0	0
2272	0	0	0
2273	0	0	0
2274	0	0	0
2275	0	0	0
2276	0	0	0
2277	0	0	0
2278	0	0	0
2279	0	0	0
2280	0	0	0
2281	0	0	0
2282	0	0	0
2283	0	0	0
2284	0	0	0
2285	255	218	233
2286	255	210	231
2287	251	197	226
2288	248	186	226
2289	252	184	230
2290	253	178	230
2291	255	176	233
2292	255	174	237
2293	253	161	232
2294	251	151	230
2295	248	140	227
2296	244	127	223
2297	254	137	232
2298	255	141	233
2299	255	134	229
2300	248	123	223
2301	255	133	231
2302	255	136	231
2303	246	124	221
2304	232	108	209
2305	248	136	226
2306	255	163	240
2307	255	160	236
2308	250	158	235
2309	255	169	241
2310	243	167	232
2311	248	194	239
2312	254	219	243
2313	0	0	0
2314	0	0	0
2315	0	0	0
2316	0	0	0
2317	0	0	0
2318	0	0	0
2319	0	0	0
2320	0	0	0
2321	0	0	0
2322	0	0	0
2323	0	0	0
2324	0	0	0
2325	0	0	0
2326	0	0	0
2327	0	0	0
2328	0	0	0
2329	0	0	0
2330	0	0	0
2331	0	0	0
2332	0	0	0
2333	0	0	0
2334	0	0	0
2335	0	0	0
2336	0	0	0
2337	0	0	0
2338	0	0	0
2339	0	0	0
2340	0	0	0
2341	0	0	0
2342	0	0	0
2343	0	0	0
2344	0	0	0
2345	0	0	0
2346	255	220	231
2347	255	213	229
2348	249	199	223
2349	250	194	226
2350	252	191	230
2351	251	182	228
2352	255	181	232
2353	253	172	231
2354	247	158	227
2355	253	161	233
2356	249	150	230
2357	250	144	230
2358	255	155	239
2359	254	139	228
2360	251	133	225
2361	251	130	226
2362	255	141	237
2363	248	126	224
2364	235	113	214
2365	246	133	226
2366	255	163	244
2367	255	158	236
2368	253	156	233
2369	248	154	232
2370	250	164	236
2371	243	168	233
2372	251	197	242
2373	251	215	241
2374	0	0	0
2375	0	0	0
2376	0	0	0
2377	0	0	0
2378	0	0	0
2379	0	0	0
2380	0	0	0
2381	0	0	0
2382	0	0	0
2383	0	0	0
2384	0	0	0
2385	0	0	0
2386	0	0	0
2387	0	0	0
2388	0	0	0
2389	251	216	234
2390	252	220	235
2391	0	0	0
2392	0	0	0
2393	0	0	0
2394	0	0	0
2395	0	0	0
2396	0	0	0
2397	0	0	0
2398	0	0	0
2399	0	0	0
2400	0	0	0
2401	0	0	0
2402	0	0	0
2403	0	0	0
2404	0	0	0
2405	0	0	0
2406	255	238	239
2407	255	229	234
2408	255	221	233
2409	253	210	228
2410	252	204	230
2411	251	196	230
2412	251	188	231
2413	252	181	233
2414	249	171	230
2415	252	172	234
2416	255	174	239
2417	255	167	237
2418	255	161	236
2419	254	151	232
2420	248	137	224
2421	252	138	228
2422	251	135	230
2423	246	127	226
2424	233	112	215
2425	242	133	227
2426	253	153	236
2427	253	152	233
2428	249	149	228
2429	251	152	230
2430	246	150	227
2431	251	166	236
2432	245	171	233
2433	247	193	238
2434	249	212	239
2435	0	0	0
2436	0	0	0
2437	0	0	0
2438	0	0	0
2439	0	0	0
2440	0	0	0
2441	0	0	0
2442	0	0	0
2443	0	0	0
2444	0	0	0
2445	0	0	0
2446	0	0	0
2447	0	0	0
2448	0	0	0
2449	251	210	234
2450	251	214	235
2451	249	215	233
2452	249	217	234
2453	255	224	241
2454	255	225	243
2455	0	0	0
2456	0	0	0
2457	0	0	0
2458	0	0	0
2459	0	0	0
2460	0	0	0
2461	0	0	0
2462	0	0	0
2463	0	0	0
2464	0	0	0
2465	254	233	234
2466	254	229	233
2467	254	226	231
2468	250	215	225
2469	254	219	230
2470	245	206	223
2471	251	211	230
2472	251	202	230
2473	254	198	235
2474	254	190	236
2475	249	177	231
2476	253	178	236
2477	252	173	235
2478	249	165	232
2479	253	165	235
2480	251	155	231
2481	251	148	230
2482	255	151	236
2483	249	137	231
2484	239	128	226
2485	235	127	224
2486	244	148	235
2487	246	154	234
2488	248	154	232
2489	249	153	232
2490	254	158	235
2491	247	152	228
2492	252	168	236
2493	240	166	228
2494	240	186	233
2495	247	211	239
2496	252	228	242
2497	0	0	0
2498	0	0	0
2499	0	0	0
2500	0	0	0
2501	0	0	0
2502	0	0	0
2503	0	0	0
2504	0	0	0
2505	0	0	0
2506	0	0	0
2507	0	0	0
2508	0	0	0
2509	0	0	0
2510	248	205	231
2511	247	207	232
2512	247	210	234
2513	246	211	234
2514	250	216	239
2515	245	204	232
2516	236	190	224
2517	0	0	0
2518	0	0	0
2519	0	0	0
2520	251	218	232
2521	249	220	230
2522	251	225	233
2523	253	230	234
2524	255	237	237
2525	254	231	234
2526	255	229	234
2527	254	225	233
2528	254	222	231
2529	255	224	234
2530	255	226	237
2531	253	221	233
2532	255	224	237
2533	255	215	235
2534	255	210	237
2535	255	197	234
2536	250	184	232
2537	252	182	236
2538	251	176	234
2539	250	172	234
2540	254	172	239
2541	252	164	236
2542	250	156	233
2543	246	146	230
2544	236	132	225
2545	236	137	230
2546	231	136	227
2547	233	145	229
2548	237	152	229
2549	241	152	230
2550	244	153	231
2551	247	154	232
2552	241	148	225
2553	244	159	230
2554	234	158	225
2555	241	186	235
2556	248	211	240
2557	250	221	238
2558	0	0	0
2559	0	0	0
2560	0	0	0
2561	0	0	0
2562	0	0	0
2563	0	0	0
2564	0	0	0
2565	0	0	0
2566	0	0	0
2567	0	0	0
2568	254	216	239
2569	0	0	0
2570	0	0	0
2571	245	201	231
2572	247	205	233
2573	250	213	238
2574	248	213	238
2575	252	220	242
2576	244	206	234
2577	247	208	236
2578	255	224	249
2579	0	0	0
2580	249	211	233
2581	255	224	238
2582	255	227	237
2583	252	222	232
2584	253	226	234
2585	253	228	233
2586	251	222	229
2587	255	225	234
2588	255	221	232
2589	254	218	231
2590	255	218	232
2591	254	218	232
2592	247	212	227
2593	253	219	231
2594	253	210	228
2595	255	208	231
2596	251	194	228
2597	251	188	232
2598	254	186	236
2599	252	181	233
2600	250	176	233
2601	253	179	238
2602	250	170	236
2603	246	161	233
2604	237	148	227
2605	236	150	233
2606	237	155	237
2607	231	150	232
2608	239	162	238
2609	239	162	236
2610	243	162	235
2611	245	162	235
2612	248	164	236
2613	240	155	228
2614	246	167	234
2615	240	168	232
2616	252	199	245
2617	254	211	242
2618	255	222	242
2619	255	227	240
2620	0	0	0
2621	0	0	0
2622	0	0	0
2623	0	0	0
2624	0	0	0
2625	0	0	0
2626	0	0	0
2627	0	0	0
2628	255	226	244
2629	255	220	241
2630	255	214	240
2631	248	206	235
2632	240	195	229
2633	248	206	236
2634	251	213	238
2635	252	217	239
2636	255	223	242
2637	252	219	239
2638	254	220	240
2639	251	211	235
2640	241	197	226
2641	249	212	235
2642	255	225	241
2643	254	221	235
2644	250	216	230
2645	249	217	229
2646	250	219	229
2647	250	218	228
2648	254	221	233
2649	255	218	232
2650	253	214	229
2651	253	214	229
2652	250	213	229
2653	247	213	227
2654	253	219	231
2655	253	212	229
2656	255	210	232
2657	252	199	230
2658	251	192	232
2659	252	189	233
2660	248	182	228
2661	247	181	228
2662	250	182	234
2663	248	175	234
2664	244	168	234
2665	247	172	241
2666	245	173	243
2667	240	170	241
2668	236	166	239
2669	241	171	243
2670	243	171	241
2671	246	171	240
2672	247	170	237
2673	245	166	234
2674	239	159	228
2675	247	172	236
2676	243	174	232
2677	251	194	240
2678	254	207	241
2679	253	211	237
2680	251	216	235
2681	0	0	0
2682	0	0	0
2683	0	0	0
2684	0	0	0
2685	0	0	0
2686	0	0	0
2687	0	0	0
2688	247	213	238
2689	254	224	243
2690	252	216	238
2691	249	210	236
2692	243	202	232
2693	248	208	238
2694	255	221	247
2695	252	212	238
2696	255	217	239
2697	255	217	238
2698	250	213	233
2699	254	219	236
2700	247	208	230
2701	246	207	232
2702	255	224	243
2703	255	221	238
2704	253	217	234
2705	253	218	233
2706	253	219	232
2707	251	217	229
2708	251	216	229
2709	255	224	236
2710	255	220	235
2711	251	209	227
2712	249	208	226
2713	249	212	229
2714	246	212	227
2715	251	217	231
2716	249	209	227
2717	254	211	231
2718	250	200	228
2719	254	202	235
2720	252	197	234
2721	248	191	230
2722	245	189	229
2723	248	190	233
2724	247	184	234
2725	245	176	235
2726	251	181	244
2727	243	172	237
2728	238	169	236
2729	241	174	241
2730	245	178	245
2731	242	172	241
2732	246	173	241
2733	244	169	236
2734	241	165	231
2735	244	169	234
2736	254	184	242
2737	249	180	236
2738	255	202	246
2739	251	197	236
2740	245	200	231
2741	251	217	237
2742	0	0	0
2743	0	0	0
2744	0	0	0
2745	0	0	0
2746	0	0	0
2747	0	0	0
2748	243	202	231
2749	250	214	239
2750	255	224	243
2751	252	216	237
2752	249	210	236
2753	253	216	242
2754	255	222	246
2755	255	216	242
2756	251	208	235
2757	255	212	237
2758	255	213	237
2759	255	218	238
2760	255	223	240
2761	255	220	237
2762	253	219	238
2763	252	218	237
2764	251	215	234
2765	253	217	234
2766	255	218	235
2767	255	217	233
2768	253	215	229
2769	255	221	233
2770	255	227	239
2771	255	216	232
2772	250	206	227
2773	253	211	232
2774	253	214	233
2775	253	216	234
2776	255	222	239
2777	255	219	237
2778	255	219	238
2779	255	215	237
2780	255	216	241
2781	253	207	237
2782	250	202	235
2783	250	201	235
2784	252	202	237
2785	249	193	235
2786	246	184	236
2787	246	181	238
2788	239	171	233
2789	241	177	237
2790	245	182	241
2791	244	178	240
2792	241	172	239
2793	240	170	238
2794	239	167	235
2795	245	175	238
2796	248	178	238
2797	252	183	239
2798	248	181	233
2799	248	184	232
2800	240	181	227
2801	247	200	235
2802	252	217	240
2803	0	0	0
2804	0	0	0
2805	0	0	0
2806	0	0	0
2807	0	0	0
2808	244	210	233
2809	249	212	238
2810	255	228	250
2811	253	214	237
2812	245	204	230
2813	250	211	238
2814	255	219	244
2815	255	217	242
2816	254	211	237
2817	255	211	237
2818	255	215	240
2819	252	207	234
2820	255	212	236
2821	255	214	235
2822	249	210	230
2823	252	216	235
2824	252	215	234
2825	254	216	235
2826	255	218	236
2827	255	215	235
2828	255	215	234
2829	253	210	229
2830	255	216	232
2831	255	211	230
2832	246	199	222
2833	254	209	231
2834	255	216	238
2835	253	208	232
2836	254	210	233
2837	255	216	237
2838	255	211	233
2839	253	209	230
2840	245	201	226
2841	250	211	234
2842	242	201	228
2843	253	214	238
2844	255	215	241
2845	251	202	235
2846	245	192	231
2847	246	189	235
2848	244	185	236
2849	241	180	234
2850	244	186	240
2851	244	184	239
2852	246	182	240
2853	243	178	239
2854	235	172	235
2855	240	179	240
2856	250	189	246
2857	246	180	238
2858	251	185	239
2859	249	184	234
2860	247	187	233
2861	247	192	235
2862	255	213	246
2863	250	212	238
2864	0	0	0
2865	0	0	0
2866	0	0	0
2867	0	0	0
2868	0	0	0
2869	251	220	242
2870	255	222	246
2871	254	214	240
2872	245	201	229
2873	247	206	232
2874	253	214	239
2875	255	213	239
2876	255	213	238
2877	255	213	238
2878	255	212	238
2879	254	206	235
2880	248	199	231
2881	252	204	234
2882	252	207	232
2883	253	211	233
2884	255	216	237
2885	255	216	237
2886	255	217	237
2887	253	212	234
2888	253	210	234
2889	254	209	234
2890	252	204	229
2891	250	201	227
2892	247	197	225
2893	253	205	231
2894	255	215	238
2895	255	211	237
2896	255	203	234
2897	255	207	235
2898	255	211	233
2899	251	203	226
2900	246	200	225
2901	244	204	227
2902	247	212	233
2903	250	217	236
2904	255	229	241
2905	253	214	234
2906	247	201	231
2907	244	197	232
2908	242	193	233
2909	239	189	233
2910	236	183	231
2911	236	183	233
2912	238	182	235
2913	243	184	238
2914	240	179	235
2915	242	186	238
2916	247	194	244
2917	246	188	241
2918	242	180	236
2919	250	187	240
2920	248	186	233
2921	249	193	235
2922	249	199	238
2923	249	204	239
2924	242	203	233
2925	0	0	0
2926	0	0	0
2927	0	0	0
2928	0	0	0
2929	249	221	243
2930	255	225	248
2931	254	217	242
2932	247	206	234
2933	250	209	235
2934	255	217	240
2935	253	212	238
2936	253	211	237
2937	255	212	238
2938	255	213	239
2939	253	205	234
2940	250	199	231
2941	254	205	236
2942	255	210	240
2943	255	208	235
2944	255	213	237
2945	252	207	234
2946	249	205	231
2947	255	217	238
2948	255	213	236
2949	255	214	238
2950	255	213	239
2951	249	197	228
2952	244	192	225
2953	249	198	230
2954	255	209	238
2955	255	206	235
2956	255	200	233
2957	246	188	226
2958	247	191	226
2959	255	210	234
2960	248	201	225
2961	249	207	229
2962	246	210	230
2963	251	222	238
2964	254	227	239
2965	255	226	236
2966	247	210	227
2967	247	209	232
2968	240	202	231
2969	240	204	235
2970	237	199	233
2971	240	201	236
2972	241	201	239
2973	239	194	238
2974	241	194	239
2975	244	193	237
2976	255	206	247
2977	251	197	242
2978	242	187	235
2979	241	184	236
2980	250	192	242
2981	247	189	234
2982	250	197	237
2983	249	200	238
2984	249	206	239
2985	248	211	239
2986	0	0	0
2987	0	0	0
2988	0	0	0
2989	0	0	0
2990	0	0	0
2991	249	216	242
2992	245	207	235
2993	249	212	237
2994	251	214	236
2995	249	210	234
2996	248	207	235
2997	254	211	240
2998	255	213	241
2999	254	206	237
3000	249	198	232
3001	254	204	237
3002	255	209	240
3003	255	208	238
3004	254	206	235
3005	252	202	232
3006	247	197	229
3007	253	207	235
3008	255	219	241
3009	255	215	237
3010	255	215	238
3011	252	200	231
3012	241	185	223
3013	242	190	227
3014	246	196	229
3015	249	195	230
3016	250	192	229
3017	245	183	224
3018	235	170	216
3019	247	191	229
3020	255	211	238
3021	255	212	234
3022	253	216	234
3023	252	222	235
3024	255	233	242
3025	255	229	239
3026	255	228	237
3027	251	221	234
3028	248	218	237
3029	244	218	238
3030	244	219	240
3031	246	220	241
3032	248	222	243
3033	245	214	241
3034	242	207	239
3035	244	207	240
3036	247	206	239
3037	251	202	238
3038	245	193	233
3039	239	188	231
3040	238	186	234
3041	247	192	239
3042	244	189	234
3043	245	195	235
3044	0	0	0
3045	248	209	239
3046	0	0	0
3047	0	0	0
3048	0	0	0
3049	0	0	0
3050	0	0	0
3051	0	0	0
3052	0	0	0
3053	247	217	240
3054	255	223	245
3055	248	213	236
3056	244	208	232
3057	250	213	239
3058	255	219	246
3059	255	209	240
3060	252	202	237
3061	249	197	235
3062	254	203	240
3063	255	206	241
3064	255	205	239
3065	254	203	236
3066	252	200	233
3067	252	201	235
3068	255	212	242
3069	255	211	239
3070	254	206	234
3071	255	206	234
3072	245	191	226
3073	247	195	231
3074	247	200	235
3075	246	198	234
3076	250	198	235
3077	244	185	228
3078	239	177	223
3079	238	177	223
3080	248	198	234
3081	253	209	238
3082	252	211	235
3083	250	214	232
3084	247	219	231
3085	251	227	236
3086	253	225	234
3087	249	221	231
3088	237	210	223
3089	243	222	234
3090	243	223	237
3091	241	220	236
3092	244	222	239
3093	245	220	239
3094	243	213	236
3095	241	209	236
3096	242	209	237
3097	244	209	236
3098	242	201	232
3099	237	194	229
3100	237	193	230
3101	241	196	236
3102	249	202	243
3103	243	194	235
3104	0	0	0
3105	0	0	0
3106	0	0	0
3107	0	0	0
3108	0	0	0
3109	0	0	0
3110	0	0	0
3111	0	0	0
3112	0	0	0
3113	0	0	0
3114	0	0	0
3115	252	221	244
3116	248	213	239
3117	251	217	243
3118	255	220	244
3119	255	212	240
3120	251	202	237
3121	250	199	237
3122	248	195	238
3123	251	199	242
3124	253	202	244
3125	253	201	242
3126	252	200	237
3127	254	202	238
3128	254	202	239
3129	253	201	238
3130	252	200	236
3131	249	197	233
3132	249	196	233
3133	250	199	234
3134	250	201	236
3135	243	196	232
3136	243	196	234
3137	239	185	229
3138	232	172	223
3139	241	182	231
3140	239	182	228
3141	247	198	235
3142	253	209	238
3143	255	214	238
3144	254	218	237
3145	249	219	233
3146	253	226	236
3147	251	222	232
3148	245	217	227
3149	243	223	229
3150	250	235	240
3151	246	230	239
3152	246	228	240
3153	247	226	241
3154	248	224	242
3155	246	219	240
3156	244	215	238
3157	243	214	238
3158	243	213	238
3159	238	205	233
3160	235	198	230
3161	241	203	235
3162	246	206	239
3163	249	206	240
3164	0	0	0
3165	0	0	0
3166	0	0	0
3167	0	0	0
3168	0	0	0
3169	0	0	0
3170	0	0	0
3171	0	0	0
3172	0	0	0
3173	0	0	0
3174	0	0	0
3175	0	0	0
3176	0	0	0
3177	253	217	245
3178	255	224	251
3179	250	208	238
3180	244	196	231
3181	251	205	239
3182	251	202	240
3183	255	206	245
3184	255	210	250
3185	255	208	249
3186	255	208	247
3187	254	203	241
3188	255	205	241
3189	252	199	237
3190	251	199	237
3191	255	208	243
3192	255	205	240
3193	254	204	239
3194	255	205	239
3195	253	206	238
3196	247	201	235
3197	252	207	241
3198	244	194	235
3199	242	189	235
3200	251	199	244
3201	240	184	231
3202	249	201	239
3203	250	204	237
3204	254	209	237
3205	254	212	236
3206	252	215	234
3207	255	225	237
3208	246	216	228
3209	244	217	226
3210	246	226	231
3211	249	231	236
3212	246	226	233
3213	250	230	239
3214	248	227	239
3215	248	225	240
3216	245	220	237
3217	243	218	236
3218	242	216	235
3219	243	218	237
3220	238	210	232
3221	243	211	236
3222	251	218	243
3223	250	212	240
3224	251	211	240
3225	0	0	0
3226	0	0	0
3227	0	0	0
3228	0	0	0
3229	0	0	0
3230	0	0	0
3231	0	0	0
3232	0	0	0
3233	0	0	0
3234	0	0	0
3235	0	0	0
3236	0	0	0
3237	0	0	0
3238	0	0	0
3239	244	203	237
3240	235	189	228
3241	245	199	236
3242	252	207	242
3243	255	211	245
3244	255	215	248
3245	255	214	248
3246	255	212	245
3247	255	208	241
3248	254	203	239
3249	252	199	236
3250	249	195	234
3251	255	205	241
3252	255	215	246
3253	255	213	244
3254	255	211	241
3255	255	212	241
3256	255	213	242
3257	255	213	242
3258	255	218	245
3259	253	209	241
3260	251	204	242
3261	247	196	239
3262	237	182	230
3263	243	191	235
3264	245	195	232
3265	250	202	234
3266	252	205	233
3267	255	215	236
3268	255	224	237
3269	250	221	230
3270	248	222	231
3271	250	227	234
3272	253	232	237
3273	253	232	236
3274	255	236	239
3275	0	0	0
3276	0	0	0
3277	0	0	0
3278	245	223	235
3279	242	221	233
3280	243	222	235
3281	243	221	235
3282	248	223	239
3283	250	220	239
3284	249	215	238
3285	0	0	0
3286	0	0	0
3287	0	0	0
3288	0	0	0
3289	0	0	0
3290	0	0	0
3291	0	0	0
3292	0	0	0
3293	0	0	0
3294	0	0	0
3295	0	0	0
3296	0	0	0
3297	0	0	0
3298	0	0	0
3299	0	0	0
3300	242	211	239
3301	241	204	238
3302	255	217	249
3303	254	212	243
3304	255	216	246
3305	255	210	243
3306	255	209	242
3307	252	202	237
3308	250	198	234
3309	253	202	237
3310	251	198	235
3311	255	204	240
3312	255	214	246
3313	255	208	240
3314	255	206	238
3315	250	198	232
3316	250	198	232
3317	255	212	242
3318	255	212	241
3319	254	207	236
3320	247	198	230
3321	253	207	241
3322	249	198	238
3323	246	194	237
3324	251	204	242
3325	251	204	238
3326	255	212	240
3327	251	203	232
3328	252	211	233
3329	253	218	232
3330	248	217	228
3331	251	223	233
3332	255	228	236
3333	251	224	232
3334	249	223	230
3335	0	0	0
3336	0	0	0
3337	0	0	0
3338	0	0	0
3339	0	0	0
3340	0	0	0
3341	0	0	0
3342	244	228	235
3343	0	0	0
3344	0	0	0
3345	0	0	0
3346	0	0	0
3347	0	0	0
3348	0	0	0
3349	0	0	0
3350	0	0	0
3351	0	0	0
3352	0	0	0
3353	0	0	0
3354	0	0	0
3355	0	0	0
3356	0	0	0
3357	0	0	0
3358	0	0	0
3359	0	0	0
3360	0	0	0
3361	0	0	0
3362	243	215	241
3363	251	216	245
3364	250	211	239
3365	253	209	239
3366	252	204	239
3367	251	201	239
3368	249	196	237
3369	252	200	240
3370	254	203	240
3371	255	208	242
3372	255	214	244
3373	255	206	238
3374	253	200	234
3375	250	195	232
3376	245	188	230
3377	255	203	241
3378	255	215	247
3379	255	207	239
3380	253	202	234
3381	255	206	237
3382	255	215	245
3383	255	211	244
3384	254	206	241
3385	254	208	240
3386	254	208	237
3387	253	205	233
3388	246	196	224
3389	250	207	229
3390	253	216	232
3391	254	220	232
3392	255	225	235
3393	254	222	232
3394	250	218	230
3395	253	225	234
3396	0	0	0
3397	0	0	0
3398	0	0	0
3399	0	0	0
3400	0	0	0
3401	0	0	0
3402	0	0	0
3403	0	0	0
3404	0	0	0
3405	0	0	0
3406	0	0	0
3407	0	0	0
3408	0	0	0
3409	0	0	0
3410	0	0	0
3411	0	0	0
3412	0	0	0
3413	0	0	0
3414	0	0	0
3415	0	0	0
3416	0	0	0
3417	0	0	0
3418	0	0	0
3419	0	0	0
3420	0	0	0
3421	0	0	0
3422	0	0	0
3423	247	225	244
3424	253	226	247
3425	250	215	240
3426	255	214	242
3427	251	204	238
3428	252	202	240
3429	255	203	244
3430	255	208	247
3431	251	198	238
3432	254	203	238
3433	255	210	241
3434	255	204	235
3435	255	204	236
3436	253	199	235
3437	253	197	238
3438	255	211	249
3439	254	199	237
3440	247	191	228
3441	255	206	237
3442	255	211	240
3443	255	207	238
3444	253	202	235
3445	253	203	234
3446	253	205	234
3447	255	210	235
3448	254	206	231
3449	251	202	228
3450	255	214	236
3451	254	211	232
3452	255	216	232
3453	255	218	231
3454	251	213	227
3455	252	217	232
3456	254	224	235
3457	0	0	0
3458	0	0	0
3459	0	0	0
3460	0	0	0
3461	0	0	0
3462	0	0	0
3463	0	0	0
3464	0	0	0
3465	0	0	0
3466	0	0	0
3467	0	0	0
3468	0	0	0
3469	0	0	0
3470	0	0	0
3471	0	0	0
3472	0	0	0
3473	0	0	0
3474	0	0	0
3475	0	0	0
3476	0	0	0
3477	0	0	0
3478	0	0	0
3479	0	0	0
3480	0	0	0
3481	0	0	0
3482	0	0	0
3483	0	0	0
3484	0	0	0
3485	245	222	241
3486	243	213	237
3487	244	206	236
3488	242	197	233
3489	252	204	242
3490	255	206	244
3491	252	200	240
3492	245	190	231
3493	252	200	236
3494	255	209	241
3495	255	208	239
3496	255	208	238
3497	255	205	237
3498	255	203	240
3499	251	194	234
3500	242	182	224
3501	251	197	231
3502	255	211	239
3503	255	204	234
3504	252	200	231
3505	252	201	232
3506	252	202	231
3507	255	208	234
3508	255	213	236
3509	255	210	234
3510	255	207	233
3511	255	207	234
3512	251	204	230
3513	253	207	231
3514	253	210	229
3515	254	214	230
3516	255	218	233
3517	0	0	0
3518	0	0	0
3519	0	0	0
3520	0	0	0
3521	0	0	0
3522	0	0	0
3523	0	0	0
3524	0	0	0
3525	0	0	0
3526	0	0	0
3527	0	0	0
3528	0	0	0
3529	0	0	0
3530	0	0	0
3531	0	0	0
3532	0	0	0
3533	0	0	0
3534	0	0	0
3535	0	0	0
3536	0	0	0
3537	0	0	0
3538	0	0	0
3539	0	0	0
3540	0	0	0
3541	0	0	0
3542	0	0	0
3543	0	0	0
3544	0	0	0
3545	0	0	0
3546	0	0	0
3547	249	229	245
3548	249	223	245
3549	243	207	239
3550	255	217	249
3551	249	201	240
3552	248	197	236
3553	255	204	240
3554	255	215	247
3555	254	201	238
3556	254	200	237
3557	253	198	233
3558	252	195	231
3559	255	200	237
3560	249	191	230
3561	250	194	231
3562	255	209	240
3563	255	205	235
3564	250	197	228
3565	255	204	233
3566	255	205	233
3567	255	207	233
3568	255	213	237
3569	254	203	230
3570	251	200	228
3571	255	207	235
3572	255	207	236
3573	255	207	235
3574	255	210	235
3575	255	210	232
3576	255	215	233
3577	254	211	231
3578	0	0	0
3579	0	0	0
3580	0	0	0
3581	0	0	0
3582	0	0	0
3583	0	0	0
3584	0	0	0
3585	0	0	0
3586	0	0	0
3587	0	0	0
3588	0	0	0
3589	0	0	0
3590	0	0	0
3591	0	0	0
3592	0	0	0
3593	0	0	0
3594	0	0	0
3595	0	0	0
3596	0	0	0
3597	0	0	0
3598	0	0	0
3599	0	0	0
3600	0	0	0
3601	0	0	0
3602	0	0	0
3603	0	0	0
3604	0	0	0
3605	0	0	0
3606	0	0	0
3607	0	0	0
3608	0	0	0
3609	0	0	0
3610	243	214	240
3611	247	208	241
3612	241	193	233
3613	254	206	242
3614	255	214	245
3615	254	202	238
3616	247	190	233
3617	250	192	237
3618	249	190	233
3619	254	196	236
3620	255	199	237
3621	255	201	237
3622	255	205	238
3623	255	202	235
3624	252	198	232
3625	255	204	235
3626	255	210	237
3627	255	210	234
3628	255	211	234
3629	255	204	231
3630	249	195	227
3631	254	202	234
3632	255	209	239
3633	255	209	238
3634	255	208	236
3635	255	209	235
3636	255	210	233
3637	254	208	231
3638	0	0	0
3639	0	0	0
3640	0	0	0
3641	255	220	234
3642	0	0	0
3643	0	0	0
3644	0	0	0
3645	0	0	0
3646	0	0	0
3647	0	0	0
3648	0	0	0
3649	0	0	0
3650	0	0	0
3651	0	0	0
3652	0	0	0
3653	0	0	0
3654	0	0	0
3655	0	0	0
3656	0	0	0
3657	0	0	0
3658	0	0	0
3659	0	0	0
3660	0	0	0
3661	0	0	0
3662	0	0	0
3663	0	0	0
3664	0	0	0
3665	0	0	0
3666	0	0	0
3667	0	0	0
3668	0	0	0
3669	0	0	0
3670	0	0	0
3671	249	226	245
3672	252	219	246
3673	247	204	239
3674	255	217	249
3675	255	210	242
3676	251	199	236
3677	252	196	240
3678	255	199	244
3679	252	192	238
3680	255	197	240
3681	249	189	231
3682	249	191	230
3683	255	206	239
3684	255	203	236
3685	254	200	235
3686	255	207	238
3687	255	207	234
3688	255	206	230
3689	255	212	235
3690	255	204	231
3691	247	190	226
3692	252	198	233
3693	255	211	240
3694	255	210	238
3695	252	201	231
3696	253	203	231
3697	255	209	234
3698	255	207	232
3699	250	200	229
3700	255	208	234
3701	255	213	234
3702	255	215	234
3703	251	212	231
3704	0	0	0
3705	254	225	240
3706	0	0	0
3707	0	0	0
3708	0	0	0
3709	0	0	0
3710	0	0	0
3711	0	0	0
3712	0	0	0
3713	0	0	0
3714	0	0	0
3715	0	0	0
3716	0	0	0
3717	0	0	0
3718	0	0	0
3719	0	0	0
3720	0	0	0
3721	0	0	0
3722	0	0	0
3723	0	0	0
3724	0	0	0
3725	0	0	0
3726	0	0	0
3727	0	0	0
3728	0	0	0
3729	0	0	0
3730	0	0	0
3731	0	0	0
3732	0	0	0
3733	250	223	244
3734	244	207	236
3735	249	207	240
3736	248	202	237
3737	251	201	239
3738	252	197	240
3739	251	194	239
3740	247	187	235
3741	246	184	233
3742	241	178	226
3743	250	193	234
3744	255	208	242
3745	255	208	241
3746	255	204	238
3747	255	208	239
3748	255	208	236
3749	255	209	234
3750	255	215	236
3751	254	199	228
3752	245	186	226
3753	255	201	237
3754	255	212	239
3755	254	202	229
3756	248	194	226
3757	253	201	231
3758	255	207	234
3759	252	200	229
3760	247	194	227
3761	251	201	231
3762	252	205	231
3763	249	204	229
3764	245	202	227
3765	252	217	236
3766	255	234	247
3767	255	225	241
3768	0	0	0
3769	254	223	240
3770	0	0	0
3771	0	0	0
3772	0	0	0
3773	0	0	0
3774	0	0	0
3775	0	0	0
3776	0	0	0
3777	0	0	0
3778	0	0	0
3779	0	0	0
3780	0	0	0
3781	0	0	0
3782	0	0	0
3783	0	0	0
3784	0	0	0
3785	0	0	0
3786	0	0	0
3787	0	0	0
3788	0	0	0
3789	0	0	0
3790	0	0	0
3791	0	0	0
3792	0	0	0
3793	0	0	0
3794	0	0	0
3795	248	222	241
3796	255	223	247
3797	250	208	240
3798	254	208	244
3799	251	199	241
3800	250	195	240
3801	253	197	240
3802	252	195	238
3803	254	197	239
3804	255	213	248
3805	255	208	244
3806	255	208	243
3807	245	181	225
3808	248	185	227
3809	255	196	232
3810	254	197	229
3811	255	204	231
3812	248	189	222
3813	249	190	230
3814	255	205	241
3815	255	206	234
3816	251	196	225
3817	252	197	229
3818	255	204	235
3819	255	203	233
3820	250	196	228
3821	253	203	234
3822	255	209	239
3823	252	205	233
3824	247	203	229
3825	251	212	234
3826	255	229	245
3827	255	224	240
3828	250	214	233
3829	252	217	236
3830	255	223	240
3831	253	220	236
3832	0	0	0
3833	0	0	0
3834	0	0	0
3835	0	0	0
3836	0	0	0
3837	0	0	0
3838	0	0	0
3839	0	0	0
3840	0	0	0
3841	0	0	0
3842	0	0	0
3843	0	0	0
3844	0	0	0
3845	0	0	0
3846	0	0	0
3847	0	0	0
3848	0	0	0
3849	0	0	0
3850	0	0	0
3851	0	0	0
3852	0	0	0
3853	0	0	0
3854	0	0	0
3855	0	0	0
3856	0	0	0
3857	249	222	240
3858	244	208	236
3859	251	207	242
3860	249	199	241
3861	255	206	247
3862	255	207	245
3863	255	210	244
3864	255	212	245
3865	255	206	240
3866	255	201	237
3867	243	179	225
3868	226	154	210
3869	240	172	223
3870	247	183	228
3871	248	187	227
3872	253	194	229
3873	251	192	228
3874	252	193	231
3875	255	197	234
3876	255	199	232
3877	255	199	230
3878	255	200	232
3879	255	200	232
3880	253	199	231
3881	255	203	234
3882	255	209	240
3883	255	207	237
3884	250	203	231
3885	254	212	235
3886	255	221	238
3887	255	218	236
3888	253	214	233
3889	251	214	233
3890	253	217	234
3891	253	217	234
3892	250	214	232
3893	249	217	233
3894	0	0	0
3895	0	0	0
3896	0	0	0
3897	0	0	0
3898	0	0	0
3899	0	0	0
3900	0	0	0
3901	0	0	0
3902	0	0	0
3903	0	0	0
3904	0	0	0
3905	0	0	0
3906	0	0	0
3907	0	0	0
3908	0	0	0
3909	0	0	0
3910	0	0	0
3911	0	0	0
3912	0	0	0
3913	0	0	0
3914	0	0	0
3915	0	0	0
3916	0	0	0
3917	0	0	0
3918	0	0	0
3919	251	224	244
3920	255	226	253
3921	248	198	241
3922	255	205	247
3923	253	201	240
3924	255	203	238
3925	255	209	240
3926	255	203	236
3927	255	201	237
3928	241	180	226
3929	238	173	226
3930	253	191	240
3931	255	194	239
3932	255	198	238
3933	255	199	237
3934	255	198	235
3935	255	197	234
3936	255	201	236
3937	255	200	233
3938	255	200	233
3939	253	196	231
3940	253	196	230
3941	255	201	234
3942	255	205	236
3943	255	207	237
3944	253	205	234
3945	255	209	235
3946	255	220	241
3947	254	210	233
3948	251	206	229
3949	253	212	234
3950	250	212	232
3951	253	217	234
3952	255	218	235
3953	249	212	232
3954	0	0	0
3955	0	0	0
3956	0	0	0
3957	0	0	0
3958	0	0	0
3959	0	0	0
3960	0	0	0
3961	0	0	0
3962	0	0	0
3963	0	0	0
3964	0	0	0
3965	0	0	0
3966	0	0	0
3967	0	0	0
3968	0	0	0
3969	0	0	0
3970	0	0	0
3971	0	0	0
3972	0	0	0
3973	0	0	0
3974	0	0	0
3975	0	0	0
3976	0	0	0
3977	0	0	0
3978	0	0	0
3979	0	0	0
3980	0	0	0
3981	251	219	244
3982	239	192	234
3983	250	200	244
3984	248	196	239
3985	252	201	239
3986	255	206	239
3987	251	199	234
3988	251	197	235
3989	248	191	234
3990	245	185	235
3991	254	196	243
3992	255	199	242
3993	255	202	243
3994	255	204	243
3995	255	205	243
3996	255	203	238
3997	255	202	236
3998	255	201	235
3999	255	198	233
4000	254	195	230
4001	255	200	234
4002	255	205	238
4003	255	205	236
4004	255	206	234
4005	255	209	235
4006	255	214	238
4007	253	206	233
4008	246	197	228
4009	251	205	234
4010	253	210	235
4011	251	212	234
4012	254	218	237
4013	252	214	235
4014	247	209	233
4015	252	223	240
4016	0	0	0
4017	0	0	0
4018	0	0	0
4019	0	0	0
4020	0	0	0
4021	0	0	0
4022	0	0	0
4023	0	0	0
4024	0	0	0
4025	0	0	0
4026	0	0	0
4027	0	0	0
4028	0	0	0
4029	0	0	0
4030	0	0	0
4031	0	0	0
4032	0	0	0
4033	0	0	0
4034	0	0	0
4035	0	0	0
4036	0	0	0
4037	0	0	0
4038	0	0	0
4039	0	0	0
4040	0	0	0
4041	0	0	0
4042	0	0	0
4043	234	195	234
4044	250	206	248
4045	247	198	241
4046	251	203	242
4047	255	212	245
4048	252	204	238
4049	255	205	241
4050	254	201	240
4051	252	196	241
4052	255	205	248
4053	255	200	242
4054	255	204	245
4055	254	193	237
4056	255	194	237
4057	254	191	232
4058	253	191	229
4059	255	197	233
4060	255	194	231
4061	251	189	228
4062	254	195	232
4063	255	203	237
4064	255	202	235
4065	255	207	235
4066	255	210	235
4067	255	214	238
4068	252	205	232
4069	249	200	232
4070	254	209	238
4071	252	210	236
4072	251	212	236
4073	251	215	236
4074	246	210	232
4075	247	212	235
4076	255	230	246
4077	251	224	238
4078	0	0	0
4079	0	0	0
4080	0	0	0
4081	0	0	0
4082	0	0	0
4083	0	0	0
4084	0	0	0
4085	0	0	0
4086	0	0	0
4087	0	0	0
4088	0	0	0
4089	0	0	0
4090	0	0	0
4091	0	0	0
4092	0	0	0
4093	0	0	0
4094	0	0	0
4095	0	0	0
4096	0	0	0
4097	0	0	0
4098	0	0	0
4099	0	0	0
4100	0	0	0
4101	0	0	0
4102	0	0	0
4103	0	0	0
4104	0	0	0
4105	240	202	243
4106	239	194	237
4107	252	208	246
4108	255	218	249
4109	255	214	245
4110	255	215	247
4111	255	210	246
4112	255	205	244
4113	255	203	243
4114	255	199	240
4115	254	192	236
4116	247	180	228
4117	250	183	230
4118	250	182	229
4119	254	189	232
4120	255	194	235
4121	255	193	234
4122	253	188	231
4123	255	196	236
4124	255	204	240
4125	255	205	239
4126	255	210	240
4127	255	211	238
4128	255	214	237
4129	253	206	231
4130	249	201	231
4131	250	205	234
4132	249	206	234
4133	250	210	235
4134	250	212	235
4135	249	214	235
4136	249	216	235
4137	249	216	235
4138	0	0	0
4139	0	0	0
4140	0	0	0
4141	0	0	0
4142	0	0	0
4143	0	0	0
4144	0	0	0
4145	0	0	0
4146	0	0	0
4147	0	0	0
4148	0	0	0
4149	0	0	0
4150	0	0	0
4151	0	0	0
4152	0	0	0
4153	0	0	0
4154	0	0	0
4155	0	0	0
4156	0	0	0
4157	0	0	0
4158	0	0	0
4159	0	0	0
4160	0	0	0
4161	0	0	0
4162	0	0	0
4163	0	0	0
4164	0	0	0
4165	0	0	0
4166	240	213	246
4167	241	207	243
4168	255	224	255
4169	255	215	247
4170	253	210	243
4171	255	212	245
4172	255	207	242
4173	255	208	243
4174	255	206	243
4175	255	200	241
4176	255	194	238
4177	245	176	227
4178	249	180	230
4179	255	187	236
4180	255	194	240
4181	255	185	234
4182	253	183	233
4183	245	173	225
4184	248	181	229
4185	255	200	240
4186	255	202	238
4187	255	204	237
4188	255	205	235
4189	255	208	233
4190	250	200	227
4191	254	209	233
4192	254	212	235
4193	254	214	237
4194	255	219	241
4195	253	213	236
4196	251	214	235
4197	248	214	234
4198	0	0	0
4199	0	0	0
4200	0	0	0
4201	0	0	0
4202	0	0	0
4203	0	0	0
4204	0	0	0
4205	0	0	0
4206	0	0	0
4207	0	0	0
4208	0	0	0
4209	0	0	0
4210	0	0	0
4211	0	0	0
4212	0	0	0
4213	0	0	0
4214	0	0	0
4215	0	0	0
4216	0	0	0
4217	0	0	0
4218	0	0	0
4219	0	0	0
4220	0	0	0
4221	0	0	0
4222	0	0	0
4223	0	0	0
4224	0	0	0
4225	0	0	0
4226	243	227	245
4227	241	222	245
4228	241	215	243
4229	248	214	246
4230	247	207	242
4231	250	209	243
4232	253	210	244
4233	255	210	243
4234	255	211	243
4235	255	203	238
4236	254	197	236
4237	247	183	230
4238	238	167	222
4239	250	180	233
4240	255	187	238
4241	253	181	235
4242	248	173	231
4243	245	168	229
4244	236	158	222
4245	248	178	233
4246	255	197	240
4247	254	196	235
4248	254	199	234
4249	255	202	234
4250	255	205	234
4251	255	212	236
4252	255	220	238
4253	255	217	234
4254	255	219	238
4255	255	216	237
4256	251	210	233
4257	251	213	234
4258	250	214	235
4259	0	0	0
4260	0	0	0
4261	0	0	0
4262	0	0	0
4263	0	0	0
4264	0	0	0
4265	0	0	0
4266	0	0	0
4267	0	0	0
4268	0	0	0
4269	0	0	0
4270	0	0	0
4271	0	0	0
4272	0	0	0
4273	0	0	0
4274	0	0	0
4275	0	0	0
4276	0	0	0
4277	0	0	0
4278	0	0	0
4279	0	0	0
4280	0	0	0
4281	0	0	0
4282	0	0	0
4283	0	0	0
4284	0	0	0
4285	0	0	0
4286	0	0	0
4287	0	0	0
4288	243	229	245
4289	241	222	243
4290	245	220	245
4291	248	216	246
4292	255	221	251
4293	254	214	246
4294	255	214	244
4295	255	211	242
4296	254	203	237
4297	255	201	238
4298	248	187	232
4299	248	183	234
4300	255	196	247
4301	255	189	242
4302	255	183	240
4303	246	167	232
4304	244	164	231
4305	250	175	237
4306	255	194	247
4307	255	199	244
4308	255	198	238
4309	255	200	237
4310	255	203	237
4311	250	196	230
4312	254	203	231
4313	255	214	235
4314	251	210	229
4315	250	213	231
4316	248	209	230
4317	251	212	233
4318	255	217	237
4319	0	0	0
4320	0	0	0
4321	0	0	0
4322	0	0	0
4323	0	0	0
4324	0	0	0
4325	0	0	0
4326	0	0	0
4327	0	0	0
4328	0	0	0
4329	0	0	0
4330	0	0	0
4331	0	0	0
4332	0	0	0
4333	0	0	0
4334	0	0	0
4335	0	0	0
4336	0	0	0
4337	0	0	0
4338	0	0	0
4339	0	0	0
4340	0	0	0
4341	0	0	0
4342	0	0	0
4343	0	0	0
4344	0	0	0
4345	0	0	0
4346	0	0	0
4347	0	0	0
4348	0	0	0
4349	0	0	0
4350	242	229	244
4351	242	224	243
4352	244	220	243
4353	249	218	244
4354	249	213	241
4355	248	209	239
4356	249	207	239
4357	252	204	240
4358	254	203	242
4359	252	197	240
4360	251	192	240
4361	254	189	241
4362	253	183	239
4363	250	174	237
4364	240	158	229
4365	252	176	241
4366	255	187	244
4367	255	191	242
4368	255	196	242
4369	255	196	239
4370	255	198	237
4371	251	193	232
4372	245	186	226
4373	254	201	234
4374	255	213	239
4375	252	210	234
4376	251	212	233
4377	251	213	233
4378	254	216	236
4379	255	218	238
4380	255	215	234
4381	0	0	0
4382	0	0	0
4383	0	0	0
4384	0	0	0
4385	0	0	0
4386	0	0	0
4387	0	0	0
4388	0	0	0
4389	0	0	0
4390	0	0	0
4391	0	0	0
4392	0	0	0
4393	0	0	0
4394	0	0	0
4395	0	0	0
4396	0	0	0
4397	0	0	0
4398	0	0	0
4399	0	0	0
4400	0	0	0
4401	0	0	0
4402	0	0	0
4403	0	0	0
4404	0	0	0
4405	0	0	0
4406	0	0	0
4407	0	0	0
4408	0	0	0
4409	0	0	0
4410	0	0	0
4411	0	0	0
4412	0	0	0
4413	245	232	245
4414	251	231	247
4415	249	221	243
4416	249	218	243
4417	254	220	247
4418	255	218	248
4419	252	206	242
4420	250	200	241
4421	255	202	245
4422	255	200	247
4423	255	190	245
4424	255	182	244
4425	237	156	228
4426	246	172	239
4427	251	184	241
4428	253	189	241
4429	255	201	247
4430	255	202	245
4431	250	190	234
4432	247	186	230
4433	251	194	234
4434	255	208	242
4435	255	208	239
4436	252	206	233
4437	255	214	235
4438	253	214	234
4439	250	210	233
4440	254	212	235
4441	252	210	231
4442	0	0	0
4443	0	0	0
4444	0	0	0
4445	0	0	0
4446	0	0	0
4447	0	0	0
4448	0	0	0
4449	0	0	0
4450	0	0	0
4451	0	0	0
4452	0	0	0
4453	0	0	0
4454	0	0	0
4455	0	0	0
4456	0	0	0
4457	0	0	0
4458	0	0	0
4459	0	0	0
4460	0	0	0
4461	0	0	0
4462	0	0	0
4463	0	0	0
4464	0	0	0
4465	0	0	0
4466	0	0	0
4467	0	0	0
4468	0	0	0
4469	0	0	0
4470	0	0	0
4471	0	0	0
4472	0	0	0
4473	0	0	0
4474	0	0	0
4475	251	238	247
4476	248	228	244
4477	252	229	247
4478	255	232	251
4479	255	220	245
4480	249	207	239
4481	252	209	243
4482	255	212	249
4483	255	200	245
4484	254	190	241
4485	245	173	234
4486	226	146	219
4487	237	166	234
4488	244	180	240
4489	252	190	243
4490	255	202	247
4491	247	187	235
4492	239	177	227
4493	248	189	235
4494	253	198	238
4495	254	200	236
4496	251	200	232
4497	254	208	234
4498	255	216	236
4499	250	208	231
4500	248	205	232
4501	254	210	237
4502	251	208	232
4503	0	0	0
4504	0	0	0
4505	0	0	0
4506	0	0	0
4507	0	0	0
4508	0	0	0
4509	0	0	0
4510	0	0	0
4511	0	0	0
4512	0	0	0
4513	0	0	0
4514	0	0	0
4515	0	0	0
4516	0	0	0
4517	0	0	0
4518	0	0	0
4519	0	0	0
4520	0	0	0
4521	0	0	0
4522	0	0	0
4523	0	0	0
4524	0	0	0
4525	0	0	0
4526	0	0	0
4527	0	0	0
4528	0	0	0
4529	0	0	0
4530	0	0	0
4531	0	0	0
4532	0	0	0
4533	0	0	0
4534	0	0	0
4535	0	0	0
4536	0	0	0
4537	249	236	245
4538	255	239	250
4539	253	230	246
4540	247	217	240
4541	249	214	240
4542	255	217	246
4543	255	213	247
4544	253	200	242
4545	252	194	241
4546	241	175	233
4547	230	160	227
4548	243	182	243
4549	251	195	250
4550	255	207	254
4551	255	207	249
4552	245	191	235
4553	245	191	237
4554	255	205	247
4555	253	200	240
4556	255	203	239
4557	252	200	233
4558	255	208	235
4559	255	213	235
4560	250	206	230
4561	253	210	238
4562	255	214	243
4563	249	204	232
4564	0	0	0
4565	0	0	0
4566	0	0	0
4567	0	0	0
4568	0	0	0
4569	0	0	0
4570	0	0	0
4571	0	0	0
4572	0	0	0
4573	0	0	0
4574	0	0	0
4575	0	0	0
4576	0	0	0
4577	0	0	0
4578	0	0	0
4579	0	0	0
4580	0	0	0
4581	0	0	0
4582	0	0	0
4583	0	0	0
4584	0	0	0
4585	0	0	0
4586	0	0	0
4587	0	0	0
4588	0	0	0
4589	0	0	0
4590	0	0	0
4591	0	0	0
4592	0	0	0
4593	0	0	0
4594	0	0	0
4595	0	0	0
4596	0	0	0
4597	0	0	0
4598	253	246	248
4599	250	237	244
4600	248	228	243
4601	247	223	242
4602	249	221	242
4603	253	217	243
4604	254	211	243
4605	250	203	241
4606	248	196	240
4607	242	186	238
4608	232	172	232
4609	248	194	249
4610	255	207	255
4611	255	208	251
4612	255	209	246
4613	251	204	240
4614	252	203	242
4615	253	203	242
4616	249	197	236
4617	247	196	233
4618	245	195	231
4619	252	203	235
4620	255	209	235
4621	255	210	236
4622	255	213	243
4623	253	208	239
4624	0	0	0
4625	0	0	0
4626	0	0	0
4627	0	0	0
4628	0	0	0
4629	0	0	0
4630	0	0	0
4631	0	0	0
4632	0	0	0
4633	0	0	0
4634	0	0	0
4635	0	0	0
4636	0	0	0
4637	0	0	0
4638	0	0	0
4639	0	0	0
4640	0	0	0
4641	0	0	0
4642	0	0	0
4643	0	0	0
4644	0	0	0
4645	0	0	0
4646	0	0	0
4647	0	0	0
4648	0	0	0
4649	0	0	0
4650	0	0	0
4651	0	0	0
4652	0	0	0
4653	0	0	0
4654	0	0	0
4655	0	0	0
4656	0	0	0
4657	0	0	0
4658	0	0	0
4659	0	0	0
4660	247	237	242
4661	244	230	242
4662	0	0	0
4663	251	232	246
4664	255	229	249
4665	250	212	241
4666	0	0	0
4667	0	0	0
4668	0	0	0
4669	0	0	0
4670	255	211	255
4671	250	200	248
4672	246	198	241
4673	255	213	245
4674	255	211	242
4675	255	206	240
4676	254	205	240
4677	251	204	238
4678	243	200	234
4679	247	205	237
4680	255	217	245
4681	255	208	236
4682	255	209	238
4683	0	0	0
4684	0	0	0
4685	0	0	0
4686	0	0	0
4687	0	0	0
4688	0	0	0
4689	0	0	0
4690	0	0	0
4691	0	0	0
4692	0	0	0
4693	0	0	0
4694	0	0	0
4695	0	0	0
4696	0	0	0
4697	0	0	0
4698	0	0	0
4699	0	0	0
4700	0	0	0
4701	0	0	0
4702	0	0	0
4703	0	0	0
4704	0	0	0
4705	0	0	0
4706	0	0	0
4707	0	0	0
4708	0	0	0
4709	0	0	0
4710	0	0	0
4711	0	0	0
4712	0	0	0
4713	0	0	0
4714	0	0	0
4715	0	0	0
4716	0	0	0
4717	0	0	0
4718	0	0	0
4719	0	0	0
4720	0	0	0
4721	0	0	0
4722	0	0	0
4723	0	0	0
4724	0	0	0
4725	253	228	245
4726	0	0	0
4727	0	0	0
4728	0	0	0
4729	0	0	0
4730	0	0	0
4731	0	0	0
4732	244	194	242
4733	249	206	246
4734	255	220	249
4735	255	215	242
4736	255	209	236
4737	255	211	238
4738	255	212	241
4739	253	215	244
4740	255	220	246
4741	255	213	241
4742	252	204	234
4743	252	203	234
4744	0	0	0
4745	0	0	0
4746	0	0	0
4747	0	0	0
4748	0	0	0
4749	0	0	0
4750	0	0	0
4751	0	0	0
4752	0	0	0
4753	0	0	0
4754	0	0	0
4755	0	0	0
4756	0	0	0
4757	0	0	0
4758	0	0	0
4759	0	0	0
4760	0	0	0
4761	0	0	0
4762	0	0	0
4763	0	0	0
4764	0	0	0
4765	0	0	0
4766	0	0	0
4767	0	0	0
4768	0	0	0
4769	0	0	0
4770	0	0	0
4771	0	0	0
4772	0	0	0
4773	0	0	0
4774	0	0	0
4775	0	0	0
4776	0	0	0
4777	0	0	0
4778	0	0	0
4779	0	0	0
4780	0	0	0
4781	0	0	0
4782	0	0	0
4783	0	0	0
4784	0	0	0
4785	0	0	0
4786	0	0	0
4787	0	0	0
4788	0	0	0
4789	0	0	0
4790	0	0	0
4791	0	0	0
4792	0	0	0
4793	0	0	0
4794	255	215	251
4795	255	219	247
4796	255	213	240
4797	250	202	231
4798	249	203	232
4799	254	210	241
4800	255	218	247
4801	253	208	238
4802	246	197	230
4803	255	209	238
4804	255	208	238
4805	0	0	0
4806	0	0	0
4807	0	0	0
4808	0	0	0
4809	0	0	0
4810	0	0	0
4811	0	0	0
4812	0	0	0
4813	0	0	0
4814	0	0	0
4815	0	0	0
4816	0	0	0
4817	0	0	0
4818	0	0	0
4819	0	0	0
4820	0	0	0
4821	0	0	0
4822	0	0	0
4823	0	0	0
4824	0	0	0
4825	0	0	0
4826	0	0	0
4827	0	0	0
4828	0	0	0
4829	0	0	0
4830	0	0	0
4831	0	0	0
4832	0	0	0
4833	0	0	0
4834	0	0	0
4835	0	0	0
4836	0	0	0
4837	0	0	0
4838	0	0	0
4839	0	0	0
4840	0	0	0
4841	0	0	0
4842	0	0	0
4843	0	0	0
4844	0	0	0
4845	0	0	0
4846	0	0	0
4847	0	0	0
4848	0	0	0
4849	0	0	0
4850	0	0	0
4851	0	0	0
4852	0	0	0
4853	0	0	0
4854	0	0	0
4855	253	212	246
4856	255	216	244
4857	253	208	237
4858	247	199	233
4859	247	203	237
4860	252	209	241
4861	251	202	237
4862	244	193	229
4863	251	203	235
4864	255	215	243
4865	255	208	239
4866	246	199	234
4867	0	0	0
4868	0	0	0
4869	0	0	0
4870	0	0	0
4871	0	0	0
4872	0	0	0
4873	0	0	0
4874	0	0	0
4875	0	0	0
4876	0	0	0
4877	0	0	0
4878	0	0	0
4879	0	0	0
4880	0	0	0
4881	0	0	0
4882	0	0	0
4883	0	0	0
4884	0	0	0
4885	0	0	0
4886	0	0	0
4887	0	0	0
4888	0	0	0
4889	0	0	0
4890	0	0	0
4891	0	0	0
4892	0	0	0
4893	0	0	0
4894	0	0	0
4895	0	0	0
4896	0	0	0
4897	0	0	0
4898	0	0	0
4899	0	0	0
4900	0	0	0
4901	0	0	0
4902	0	0	0
4903	0	0	0
4904	0	0	0
4905	0	0	0
4906	0	0	0
4907	0	0	0
4908	0	0	0
4909	0	0	0
4910	0	0	0
4911	0	0	0
4912	0	0	0
4913	0	0	0
4914	0	0	0
4915	0	0	0
4916	255	220	249
4917	254	214	241
4918	247	204	234
4919	245	201	237
4920	247	206	240
4921	255	217	246
4922	254	210	241
4923	247	198	232
4924	255	210	240
4925	255	211	240
4926	251	204	236
4927	249	205	238
4928	0	0	0
4929	0	0	0
4930	0	0	0
4931	0	0	0
4932	0	0	0
4933	0	0	0
4934	0	0	0
4935	0	0	0
4936	0	0	0
4937	0	0	0
4938	0	0	0
4939	0	0	0
4940	0	0	0
4941	0	0	0
4942	0	0	0
4943	0	0	0
4944	0	0	0
4945	0	0	0
4946	0	0	0
4947	0	0	0
4948	0	0	0
4949	0	0	0
4950	0	0	0
4951	0	0	0
4952	0	0	0
4953	0	0	0
4954	0	0	0
4955	0	0	0
4956	0	0	0
4957	0	0	0
4958	0	0	0
4959	0	0	0
4960	0	0	0
4961	0	0	0
4962	0	0	0
4963	0	0	0
4964	0	0	0
4965	0	0	0
4966	0	0	0
4967	0	0	0
4968	0	0	0
4969	0	0	0
4970	0	0	0
4971	0	0	0
4972	0	0	0
4973	0	0	0
4974	0	0	0
4975	0	0	0
4976	0	0	0
4977	0	0	0
4978	246	206	236
4979	247	206	237
4980	246	204	238
4981	251	214	244
4982	255	224	248
4983	250	210	237
4984	244	198	230
4985	251	205	236
4986	252	206	237
4987	253	209	239
4988	251	209	239
4989	0	0	0
4990	0	0	0
4991	0	0	0
4992	0	0	0
4993	0	0	0
4994	0	0	0
4995	0	0	0
4996	0	0	0
4997	0	0	0
4998	0	0	0
4999	0	0	0
5000	0	0	0
5001	0	0	0
5002	0	0	0
5003	0	0	0
5004	0	0	0
5005	0	0	0
5006	0	0	0
5007	0	0	0
5008	0	0	0
5009	0	0	0
5010	0	0	0
5011	0	0	0
5012	0	0	0
5013	0	0	0
5014	0	0	0
5015	0	0	0
5016	0	0	0
5017	0	0	0
5018	0	0	0
5019	0	0	0
5020	0	0	0
5021	0	0	0
5022	0	0	0
5023	0	0	0
5024	0	0	0
5025	0	0	0
5026	0	0	0
5027	0	0	0
5028	0	0	0
5029	0	0	0
5030	0	0	0
5031	0	0	0
5032	0	0	0
5033	0	0	0
5034	0	0	0
5035	0	0	0
5036	0	0	0
5037	0	0	0
5038	0	0	0
5039	248	214	241
5040	254	218	245
5041	245	204	237
5042	250	213	242
5043	252	218	242
5044	240	202	228
5045	247	209	235
5046	255	219	245
5047	250	204	236
5048	247	204	235
5049	250	210	239
5050	255	217	242
5051	0	0	0
5052	0	0	0
5053	0	0	0
5054	0	0	0
5055	0	0	0
5056	0	0	0
5057	0	0	0
5058	0	0	0
5059	0	0	0
5060	0	0	0
5061	0	0	0
5062	0	0	0
5063	0	0	0
5064	0	0	0
5065	0	0	0
5066	0	0	0
5067	0	0	0
5068	0	0	0
5069	0	0	0
5070	0	0	0
5071	0	0	0
5072	0	0	0
5073	0	0	0
5074	0	0	0
5075	0	0	0
5076	0	0	0
5077	0	0	0
5078	0	0	0
5079	0	0	0
5080	0	0	0
5081	0	0	0
5082	0	0	0
5083	0	0	0
5084	0	0	0
5085	0	0	0
5086	0	0	0
5087	0	0	0
5088	0	0	0
5089	0	0	0
5090	0	0	0
5091	0	0	0
5092	0	0	0
5093	0	0	0
5094	0	0	0
5095	0	0	0
5096	0	0	0
5097	0	0	0
5098	0	0	0
5099	0	0	0
5100	0	0	0
5101	245	211	240
5102	0	0	0
5103	248	210	241
5104	251	216	241
5105	251	218	240
5106	255	225	246
5107	255	216	242
5108	248	202	234
5109	250	208	240
5110	254	215	244
5111	0	0	0
5112	0	0	0
5113	0	0	0
5114	0	0	0
5115	0	0	0
5116	0	0	0
5117	0	0	0
5118	0	0	0
5119	0	0	0
5120	0	0	0
5121	0	0	0
5122	0	0	0
5123	0	0	0
5124	0	0	0
5125	0	0	0
5126	0	0	0
5127	0	0	0
5128	0	0	0
5129	0	0	0
5130	0	0	0
5131	0	0	0
5132	0	0	0
5133	0	0	0
5134	0	0	0
5135	0	0	0
5136	0	0	0
5137	0	0	0
5138	0	0	0
5139	0	0	0
5140	0	0	0
5141	0	0	0
5142	0	0	0
5143	0	0	0
5144	0	0	0
5145	0	0	0
5146	0	0	0
5147	0	0	0
5148	0	0	0
5149	0	0	0
5150	0	0	0
5151	0	0	0
5152	0	0	0
5153	0	0	0
5154	0	0	0
5155	0	0	0
5156	0	0	0
5157	0	0	0
5158	0	0	0
5159	0	0	0
5160	0	0	0
5161	0	0	0
5162	0	0	0
5163	0	0	0
5164	0	0	0
5165	254	216	243
5166	255	220	245
5167	253	212	240
5168	246	200	233
5169	0	0	0
5170	255	216	247
5171	0	0	0
5172	0	0	0
5173	0	0	0
5174	0	0	0
5175	0	0	0
5176	0	0	0
5177	0	0	0
5178	0	0	0
5179	0	0	0
5180	0	0	0
5181	0	0	0
5182	0	0	0
5183	0	0	0
5184	0	0	0
5185	0	0	0
5186	0	0	0
5187	0	0	0
5188	0	0	0
5189	0	0	0
5190	0	0	0
5191	0	0	0
5192	0	0	0
5193	0	0	0
5194	0	0	0
5195	0	0	0
5196	0	0	0
5197	0	0	0
5198	0	0	0
5199	0	0	0
5200	0	0	0
5201	0	0	0
5202	0	0	0
5203	0	0	0
5204	0	0	0
5205	0	0	0
5206	0	0	0
5207	0	0	0
5208	0	0	0
5209	0	0	0
5210	0	0	0
5211	0	0	0
5212	0	0	0
5213	0	0	0
5214	0	0	0
5215	0	0	0
5216	0	0	0
5217	0	0	0
5218	0	0	0
5219	0	0	0
5220	0	0	0
5221	0	0	0
5222	0	0	0
5223	0	0	0
5224	0	0	0
5225	0	0	0
5226	0	0	0
5227	244	203	238
5228	0	0	0
5229	0	0	0
5230	0	0	0
5231	0	0	0
5232	0	0	0
5233	0	0	0
5234	0	0	0
5235	0	0	0
5236	0	0	0
5237	0	0	0
5238	0	0	0
5239	0	0	0
5240	0	0	0
5241	0	0	0
5242	0	0	0
5243	0	0	0
5244	0	0	0
5245	0	0	0
5246	0	0	0
