 	R	G	B
1	0	0	0
2	0	0	0
3	0	0	0
4	0	0	0
5	0	0	0
6	0	0	0
7	0	0	0
8	0	0	0
9	0	0	0
10	0	0	0
11	0	0	0
12	0	0	0
13	0	0	0
14	0	0	0
15	0	0	0
16	0	0	0
17	0	0	0
18	251	222	234
19	250	214	234
20	0	0	0
21	246	209	232
22	237	204	227
23	0	0	0
24	0	0	0
25	0	0	0
26	0	0	0
27	0	0	0
28	0	0	0
29	0	0	0
30	0	0	0
31	0	0	0
32	0	0	0
33	0	0	0
34	0	0	0
35	0	0	0
36	0	0	0
37	0	0	0
38	0	0	0
39	255	247	242
40	252	237	241
41	253	234	242
42	253	228	238
43	252	221	234
44	250	212	233
45	254	215	237
46	248	211	233
47	242	212	233
48	243	217	239
49	0	0	0
50	0	0	0
51	0	0	0
52	0	0	0
53	0	0	0
54	0	0	0
55	0	0	0
56	0	0	0
57	0	0	0
58	0	0	0
59	0	0	0
60	0	0	0
61	0	0	0
62	0	0	0
63	253	250	241
64	255	244	241
65	249	227	235
66	250	223	236
67	249	218	234
68	249	210	231
69	253	212	234
70	254	213	236
71	245	204	229
72	243	208	232
73	243	212	237
74	0	0	0
75	0	0	0
76	0	0	0
77	0	0	0
78	0	0	0
79	0	0	0
80	0	0	0
81	0	0	0
82	0	0	0
83	0	0	0
84	0	0	0
85	0	0	0
86	0	0	0
87	0	0	0
88	248	245	239
89	248	231	233
90	242	214	225
91	244	211	228
92	245	207	231
93	251	210	235
94	252	210	233
95	248	205	230
96	241	197	226
97	241	202	231
98	241	205	235
99	0	0	0
100	0	0	0
101	0	0	0
102	0	0	0
103	0	0	0
104	0	0	0
105	0	0	0
106	0	0	0
107	0	0	0
108	0	0	0
109	0	0	0
110	0	0	0
111	0	0	0
112	0	0	0
113	248	244	240
114	248	230	234
115	248	220	230
116	251	218	234
117	245	206	232
118	247	206	235
119	247	206	232
120	245	202	229
121	241	199	227
122	242	202	232
123	0	0	0
124	0	0	0
125	0	0	0
126	0	0	0
127	0	0	0
128	0	0	0
129	0	0	0
130	0	0	0
131	0	0	0
132	0	0	0
133	0	0	0
134	0	0	0
135	0	0	0
136	0	0	0
137	248	246	242
138	253	245	244
139	254	236	241
140	253	225	237
141	249	214	234
142	242	202	230
143	247	206	236
144	248	206	234
145	246	205	232
146	242	200	228
147	248	209	234
148	249	215	239
149	250	223	243
150	0	0	0
151	0	0	0
152	0	0	0
153	0	0	0
154	0	0	0
155	0	0	0
156	0	0	0
157	0	0	0
158	0	0	0
159	0	0	0
160	0	0	0
161	254	250	246
162	254	246	244
163	250	233	237
164	247	222	233
165	248	217	233
166	241	204	228
167	248	209	236
168	255	218	246
169	248	201	232
170	240	195	227
171	241	197	227
172	251	209	234
173	252	212	237
174	253	220	240
175	246	220	236
176	0	0	0
177	0	0	0
178	0	0	0
179	0	0	0
180	0	0	0
181	0	0	0
182	0	0	0
183	0	0	0
184	0	0	0
185	250	244	241
186	254	246	243
187	248	232	235
188	244	220	229
189	249	219	232
190	249	214	232
191	252	216	238
192	255	221	246
193	255	211	242
194	246	194	229
195	244	197	230
196	244	199	231
197	251	206	235
198	251	209	234
199	249	211	234
200	0	0	0
201	0	0	0
202	0	0	0
203	0	0	0
204	0	0	0
205	0	0	0
206	0	0	0
207	0	0	0
208	0	0	0
209	250	248	243
210	254	249	245
211	252	241	241
212	247	227	233
213	250	223	233
214	255	223	237
215	248	204	229
216	251	207	234
217	255	208	238
218	249	196	232
219	247	192	229
220	250	198	234
221	245	193	231
222	245	197	231
223	247	206	233
224	0	0	0
225	0	0	0
226	0	0	0
227	0	0	0
228	0	0	0
229	0	0	0
230	0	0	0
231	0	0	0
232	0	0	0
233	0	0	0
234	252	251	246
235	250	242	242
236	250	235	238
237	251	229	237
238	255	225	236
239	252	211	231
240	242	192	223
241	245	194	228
242	247	194	229
243	250	193	231
244	249	191	232
245	252	193	235
246	246	189	232
247	251	201	238
248	252	208	239
249	252	215	240
250	0	0	0
251	0	0	0
252	0	0	0
253	0	0	0
254	0	0	0
255	0	0	0
256	0	0	0
257	0	0	0
258	0	0	0
259	253	250	246
260	250	241	241
261	249	231	237
262	253	227	237
263	254	218	234
264	247	202	227
265	248	198	229
266	251	200	234
267	252	199	234
268	255	198	236
269	251	189	234
270	254	192	238
271	249	186	234
272	254	198	241
273	252	201	238
274	251	207	237
275	248	212	236
276	0	0	0
277	0	0	0
278	0	0	0
279	0	0	0
280	0	0	0
281	0	0	0
282	0	0	0
283	0	0	0
284	253	248	245
285	249	236	239
286	248	227	235
287	253	221	235
288	252	212	231
289	255	209	233
290	255	206	236
291	255	206	239
292	255	204	239
293	255	196	237
294	251	186	235
295	250	185	236
296	244	178	230
297	245	184	232
298	242	186	229
299	242	194	229
300	0	0	0
301	0	0	0
302	0	0	0
303	0	0	0
304	0	0	0
305	0	0	0
306	0	0	0
307	0	0	0
308	0	0	0
309	254	245	243
310	250	233	238
311	249	223	234
312	252	216	234
313	252	207	230
314	254	205	233
315	253	198	234
316	255	199	238
317	255	193	235
318	251	184	232
319	249	181	234
320	0	0	0
321	0	0	0
322	0	0	0
323	0	0	0
324	0	0	0
325	0	0	0
326	0	0	0
327	0	0	0
328	0	0	0
329	0	0	0
330	0	0	0
331	0	0	0
332	0	0	0
333	0	0	0
334	253	241	240
335	251	230	236
336	251	219	232
337	255	215	235
338	255	206	234
339	255	204	238
340	255	198	240
341	255	195	242
342	255	187	238
343	255	185	237
344	251	181	235
345	255	192	241
346	0	0	0
347	0	0	0
348	0	0	0
349	0	0	0
350	0	0	0
351	0	0	0
352	0	0	0
353	0	0	0
354	0	0	0
355	0	0	0
356	0	0	0
357	0	0	0
358	0	0	0
359	251	236	237
360	255	228	237
361	252	213	232
362	255	208	235
363	251	192	230
364	254	189	235
365	254	183	236
366	253	179	236
367	248	171	230
368	247	168	229
369	251	177	235
370	255	188	240
371	252	189	237
372	0	0	0
373	0	0	0
374	0	0	0
375	0	0	0
376	0	0	0
377	0	0	0
378	0	0	0
379	0	0	0
380	0	0	0
381	0	0	0
382	0	0	0
383	0	0	0
384	255	234	238
385	255	221	236
386	255	207	234
387	254	195	233
388	247	178	228
389	250	176	232
390	249	169	231
391	247	165	229
392	241	156	223
393	250	168	232
394	254	177	238
395	253	181	238
396	0	0	0
397	0	0	0
398	0	0	0
399	0	0	0
400	0	0	0
401	0	0	0
402	0	0	0
403	0	0	0
404	0	0	0
405	0	0	0
406	0	0	0
407	0	0	0
408	0	0	0
409	255	226	236
410	255	212	233
411	253	197	231
412	251	184	231
413	250	174	231
414	252	172	234
415	251	167	234
416	249	162	232
417	245	157	227
418	252	168	235
419	251	171	236
420	0	0	0
421	0	0	0
422	0	0	0
423	0	0	0
424	0	0	0
425	0	0	0
426	0	0	0
427	0	0	0
428	0	0	0
429	0	0	0
430	0	0	0
431	0	0	0
432	0	0	0
433	255	226	234
434	255	216	232
435	254	200	229
436	250	185	226
437	251	178	229
438	250	168	228
439	253	168	234
440	253	163	236
441	254	163	238
442	248	157	232
443	248	161	232
444	0	0	0
445	0	0	0
446	0	0	0
447	0	0	0
448	0	0	0
449	0	0	0
450	0	0	0
451	0	0	0
452	0	0	0
453	0	0	0
454	0	0	0
455	0	0	0
456	0	0	0
457	253	231	232
458	255	224	235
459	255	206	229
460	252	191	227
461	252	181	228
462	253	175	230
463	250	164	228
464	253	162	233
465	247	151	231
466	247	150	234
467	248	156	234
468	247	159	233
469	0	0	0
470	0	0	0
471	0	0	0
472	0	0	0
473	0	0	0
474	0	0	0
475	0	0	0
476	0	0	0
477	0	0	0
478	0	0	0
479	0	0	0
480	0	0	0
481	0	0	0
482	255	229	234
483	255	214	232
484	254	197	228
485	255	189	231
486	255	178	230
487	253	169	230
488	250	158	228
489	247	150	228
490	240	137	225
491	248	150	236
492	249	155	236
493	254	169	240
494	255	180	240
495	0	0	0
496	0	0	0
497	0	0	0
498	0	0	0
499	0	0	0
500	0	0	0
501	0	0	0
502	0	0	0
503	0	0	0
504	0	0	0
505	0	0	0
506	0	0	0
507	255	222	234
508	255	205	230
509	253	189	227
510	254	181	230
511	246	161	224
512	244	151	224
513	253	159	233
514	250	150	232
515	242	139	229
516	250	151	239
517	247	154	236
518	251	166	238
519	253	181	239
520	0	0	0
521	0	0	0
522	0	0	0
523	0	0	0
524	0	0	0
525	0	0	0
526	0	0	0
527	0	0	0
528	0	0	0
529	0	0	0
530	0	0	0
531	255	224	235
532	255	212	234
533	255	196	229
534	250	179	224
535	245	162	222
536	238	143	221
537	248	153	233
538	255	158	237
539	249	149	232
540	241	137	229
541	247	148	237
542	242	149	232
543	250	169	238
544	251	183	238
545	248	195	238
546	0	0	0
547	0	0	0
548	0	0	0
549	0	0	0
550	0	0	0
551	0	0	0
552	0	0	0
553	0	0	0
554	0	0	0
555	255	232	240
556	255	219	237
557	255	202	232
558	252	186	227
559	247	170	223
560	242	152	220
561	250	157	235
562	255	165	245
563	255	160	238
564	248	149	231
565	245	145	233
566	250	155	239
567	250	164	239
568	255	182	245
569	250	187	239
570	0	0	0
571	0	0	0
572	0	0	0
573	0	0	0
574	0	0	0
575	0	0	0
576	0	0	0
577	0	0	0
578	0	0	0
579	0	0	0
580	255	225	237
581	254	206	231
582	251	190	228
583	249	176	227
584	245	161	225
585	255	168	236
586	255	169	243
587	255	166	243
588	255	160	237
589	255	159	236
590	250	154	235
591	255	170	245
592	255	178	246
593	255	187	245
594	0	0	0
595	0	0	0
596	0	0	0
597	0	0	0
598	0	0	0
599	0	0	0
600	0	0	0
601	0	0	0
602	0	0	0
603	0	0	0
604	255	229	240
605	255	217	236
606	252	198	229
607	252	186	229
608	250	172	229
609	250	163	231
610	255	169	241
611	250	154	233
612	249	150	231
613	253	156	234
614	251	154	233
615	247	151	231
616	254	166	240
617	248	169	238
618	0	0	0
619	0	0	0
620	0	0	0
621	0	0	0
622	0	0	0
623	0	0	0
624	0	0	0
625	0	0	0
626	0	0	0
627	0	0	0
628	0	0	0
629	255	219	235
630	255	208	234
631	253	194	230
632	252	181	229
633	253	174	231
634	252	164	232
635	252	157	234
636	243	142	227
637	252	152	236
638	254	156	237
639	250	154	234
640	245	150	232
641	246	159	236
642	238	160	231
643	0	0	0
644	0	0	0
645	0	0	0
646	0	0	0
647	0	0	0
648	0	0	0
649	0	0	0
650	0	0	0
651	0	0	0
652	0	0	0
653	255	223	237
654	254	210	233
655	253	198	231
656	250	184	227
657	255	183	233
658	255	175	234
659	250	159	231
660	250	152	233
661	243	139	230
662	251	148	238
663	249	150	235
664	244	147	230
665	252	164	241
666	251	172	243
667	241	172	236
668	0	0	0
669	0	0	0
670	0	0	0
671	0	0	0
672	0	0	0
673	0	0	0
674	0	0	0
675	0	0	0
676	0	0	0
677	0	0	0
678	252	212	235
679	250	200	232
680	249	188	227
681	253	186	231
682	255	184	236
683	252	168	231
684	246	152	227
685	245	145	230
686	239	133	229
687	245	142	237
688	242	143	230
689	249	159	236
690	255	175	244
691	252	181	244
692	242	182	238
693	0	0	0
694	0	0	0
695	0	0	0
696	0	0	0
697	0	0	0
698	0	0	0
699	0	0	0
700	0	0	0
701	0	0	0
702	0	0	0
703	255	216	241
704	255	206	240
705	253	191	233
706	255	188	236
707	250	171	230
708	244	154	225
709	252	160	235
710	249	152	237
711	243	142	237
712	249	150	243
713	246	152	237
714	252	168	241
715	253	179	243
716	248	184	240
717	242	192	239
718	0	0	0
719	0	0	0
720	0	0	0
721	0	0	0
722	0	0	0
723	0	0	0
724	0	0	0
725	0	0	0
726	0	0	0
727	251	217	236
728	255	220	245
729	255	205	241
730	255	191	238
731	250	176	233
732	242	157	226
733	250	163	236
734	255	167	244
735	251	158	241
736	243	145	237
737	250	157	246
738	247	160	243
739	254	176	247
740	252	185	244
741	246	193	241
742	0	0	0
743	0	0	0
744	0	0	0
745	0	0	0
746	0	0	0
747	0	0	0
748	0	0	0
749	0	0	0
750	0	0	0
751	0	0	0
752	255	221	241
753	255	212	241
754	253	195	236
755	255	189	239
756	250	173	235
757	245	161	232
758	252	166	240
759	255	170	245
760	249	159	241
761	248	158	242
762	253	169	250
763	246	165	244
764	254	182	250
765	246	185	241
766	0	0	0
767	0	0	0
768	0	0	0
769	0	0	0
770	0	0	0
771	0	0	0
772	0	0	0
773	0	0	0
774	0	0	0
775	0	0	0
776	248	221	237
777	252	213	237
778	253	203	237
779	252	193	236
780	253	185	238
781	251	176	237
782	246	164	234
783	254	172	243
784	255	174	247
785	255	176	249
786	255	174	247
787	251	173	246
788	244	169	242
789	249	182	246
790	0	0	0
791	0	0	0
792	0	0	0
793	0	0	0
794	0	0	0
795	0	0	0
796	0	0	0
797	0	0	0
798	0	0	0
799	0	0	0
800	0	0	0
801	250	217	237
802	249	206	235
803	252	202	238
804	251	191	237
805	253	187	240
806	251	177	238
807	250	172	237
808	255	178	246
809	251	168	240
810	251	168	242
811	248	167	239
812	0	0	0
813	0	0	0
814	0	0	0
815	0	0	0
816	0	0	0
817	0	0	0
818	0	0	0
819	0	0	0
820	0	0	0
821	0	0	0
822	0	0	0
823	0	0	0
824	0	0	0
825	0	0	0
826	247	211	237
827	250	206	239
828	252	200	240
829	253	195	242
830	254	189	243
831	255	185	243
832	254	179	239
833	250	171	236
834	243	160	233
835	247	165	239
836	0	0	0
837	0	0	0
838	0	0	0
839	0	0	0
840	0	0	0
841	0	0	0
842	0	0	0
843	0	0	0
844	0	0	0
845	0	0	0
846	0	0	0
847	0	0	0
848	0	0	0
849	0	0	0
850	0	0	0
851	249	214	239
852	253	209	242
853	254	202	243
854	255	196	243
855	253	188	242
856	253	183	240
857	253	180	238
858	248	171	234
859	250	173	239
860	252	177	244
861	247	176	242
862	0	0	0
863	0	0	0
864	0	0	0
865	0	0	0
866	0	0	0
867	0	0	0
868	0	0	0
869	0	0	0
870	0	0	0
871	0	0	0
872	0	0	0
873	0	0	0
874	0	0	0
875	0	0	0
876	0	0	0
877	253	209	240
878	255	202	243
879	254	195	243
880	252	187	240
881	254	186	242
882	253	182	240
883	255	185	243
884	255	185	244
885	255	189	246
886	250	186	243
887	0	0	0
888	0	0	0
889	0	0	0
890	0	0	0
891	0	0	0
892	0	0	0
893	0	0	0
894	0	0	0
895	0	0	0
896	0	0	0
897	0	0	0
898	0	0	0
899	0	0	0
900	0	0	0
901	252	217	238
902	255	211	241
903	253	200	241
904	252	193	242
905	253	190	242
906	255	189	243
907	249	179	237
908	250	181	239
909	252	185	241
910	252	188	242
911	247	188	240
912	0	0	0
913	0	0	0
914	0	0	0
915	0	0	0
916	0	0	0
917	0	0	0
918	0	0	0
919	0	0	0
920	0	0	0
921	0	0	0
922	0	0	0
923	0	0	0
924	0	0	0
925	0	0	0
926	255	221	242
927	255	210	241
928	252	199	241
929	255	198	246
930	255	195	244
931	252	187	240
932	244	176	234
933	246	182	238
934	247	186	241
935	247	190	242
936	0	0	0
937	0	0	0
938	0	0	0
939	0	0	0
940	0	0	0
941	0	0	0
942	0	0	0
943	0	0	0
944	0	0	0
945	0	0	0
946	0	0	0
947	0	0	0
948	0	0	0
949	0	0	0
950	0	0	0
951	253	218	242
952	253	208	240
953	251	198	240
954	253	197	245
955	252	193	242
956	247	184	238
957	245	182	237
958	0	0	0
959	0	0	0
960	0	0	0
961	0	0	0
962	0	0	0
963	0	0	0
964	0	0	0
965	0	0	0
966	0	0	0
967	0	0	0
968	0	0	0
969	0	0	0
970	0	0	0
971	0	0	0
972	0	0	0
973	0	0	0
974	0	0	0
975	0	0	0
976	0	0	0
977	244	201	234
978	241	190	233
979	246	191	238
980	245	187	238
981	247	190	241
982	0	0	0
983	0	0	0
984	0	0	0
985	0	0	0
986	0	0	0
987	0	0	0
988	0	0	0
989	0	0	0
990	0	0	0
991	0	0	0
992	0	0	0
993	0	0	0
994	0	0	0
995	0	0	0
996	0	0	0
997	0	0	0
998	0	0	0
999	0	0	0
1000	0	0	0
1001	0	0	0
1002	0	0	0
1003	245	204	240
1004	250	205	246
1005	243	193	240
1006	0	0	0
1007	0	0	0
1008	0	0	0
1009	0	0	0
1010	0	0	0
1011	0	0	0
1012	0	0	0
1013	0	0	0
1014	0	0	0
1015	0	0	0
1016	0	0	0
1017	0	0	0
1018	0	0	0
1019	0	0	0
1020	0	0	0
1021	0	0	0
1022	0	0	0
1023	0	0	0
1024	0	0	0
1025	0	0	0
1026	0	0	0
1027	0	0	0
1028	0	0	0
1029	246	208	246
1030	0	0	0
1031	0	0	0
1032	0	0	0
1033	0	0	0
1034	0	0	0
1035	0	0	0
1036	0	0	0
1037	0	0	0
1038	0	0	0
1039	0	0	0
1040	0	0	0
1041	0	0	0
1042	0	0	0
1043	0	0	0
1044	0	0	0
1045	0	0	0
1046	0	0	0
1047	0	0	0
1048	0	0	0
1049	0	0	0
1050	0	0	0
