 	R	G	B
1	0	0	0
2	0	0	0
3	0	0	0
4	0	0	0
5	0	0	0
6	0	0	0
7	0	0	0
8	0	0	0
9	0	0	0
10	0	0	0
11	0	0	0
12	0	0	0
13	0	0	0
14	0	0	0
15	0	0	0
16	0	0	0
17	0	0	0
18	0	0	0
19	0	0	0
20	0	0	0
21	0	0	0
22	0	0	0
23	0	0	0
24	0	0	0
25	0	0	0
26	0	0	0
27	253	224	233
28	0	0	0
29	0	0	0
30	0	0	0
31	0	0	0
32	0	0	0
33	0	0	0
34	0	0	0
35	0	0	0
36	0	0	0
37	0	0	0
38	0	0	0
39	0	0	0
40	0	0	0
41	0	0	0
42	0	0	0
43	0	0	0
44	0	0	0
45	0	0	0
46	0	0	0
47	0	0	0
48	0	0	0
49	0	0	0
50	0	0	0
51	0	0	0
52	0	0	0
53	0	0	0
54	0	0	0
55	0	0	0
56	0	0	0
57	0	0	0
58	0	0	0
59	0	0	0
60	0	0	0
61	0	0	0
62	0	0	0
63	0	0	0
64	0	0	0
65	0	0	0
66	0	0	0
67	0	0	0
68	0	0	0
69	0	0	0
70	0	0	0
71	0	0	0
72	254	224	231
73	255	231	238
74	251	216	225
75	0	0	0
76	0	0	0
77	0	0	0
78	0	0	0
79	0	0	0
80	0	0	0
81	0	0	0
82	0	0	0
83	0	0	0
84	0	0	0
85	0	0	0
86	0	0	0
87	0	0	0
88	0	0	0
89	0	0	0
90	0	0	0
91	0	0	0
92	0	0	0
93	0	0	0
94	0	0	0
95	0	0	0
96	0	0	0
97	0	0	0
98	0	0	0
99	0	0	0
100	0	0	0
101	0	0	0
102	0	0	0
103	0	0	0
104	0	0	0
105	0	0	0
106	0	0	0
107	0	0	0
108	0	0	0
109	0	0	0
110	0	0	0
111	0	0	0
112	0	0	0
113	0	0	0
114	0	0	0
115	255	235	237
116	255	237	237
117	255	235	236
118	255	232	235
119	255	222	230
120	250	209	222
121	255	218	229
122	255	226	235
123	255	225	233
124	255	222	229
125	255	224	229
126	0	0	0
127	0	0	0
128	0	0	0
129	255	235	229
130	255	238	232
131	255	239	233
132	255	240	234
133	255	237	233
134	255	232	232
135	255	228	232
136	255	226	235
137	255	232	239
138	0	0	0
139	0	0	0
140	0	0	0
141	0	0	0
142	0	0	0
143	0	0	0
144	0	0	0
145	0	0	0
146	0	0	0
147	0	0	0
148	0	0	0
149	0	0	0
150	0	0	0
151	0	0	0
152	0	0	0
153	0	0	0
154	0	0	0
155	0	0	0
156	0	0	0
157	0	0	0
158	0	0	0
159	0	0	0
160	255	232	236
161	255	236	240
162	253	217	226
163	253	215	224
164	255	216	226
165	251	206	220
166	250	203	220
167	255	213	228
168	255	212	226
169	255	211	223
170	255	212	223
171	255	215	225
172	250	207	218
173	0	0	0
174	255	224	226
175	255	228	229
176	255	213	219
177	255	214	220
178	255	210	219
179	253	207	218
180	253	206	220
181	251	203	221
182	255	210	230
183	255	214	233
184	250	202	220
185	0	0	0
186	0	0	0
187	0	0	0
188	0	0	0
189	0	0	0
190	0	0	0
191	0	0	0
192	0	0	0
193	0	0	0
194	0	0	0
195	0	0	0
196	0	0	0
197	0	0	0
198	0	0	0
199	0	0	0
200	0	0	0
201	0	0	0
202	0	0	0
203	0	0	0
204	0	0	0
205	250	224	230
206	255	231	235
207	252	215	225
208	243	197	214
209	248	201	219
210	252	203	222
211	251	200	222
212	250	197	221
213	253	200	222
214	251	198	218
215	254	201	220
216	255	204	223
217	255	202	222
218	250	195	216
219	255	209	225
220	255	222	233
221	255	207	222
222	249	191	213
223	248	188	213
224	246	184	211
225	245	183	212
226	245	183	215
227	247	186	218
228	250	190	222
229	243	180	215
230	0	0	0
231	0	0	0
232	0	0	0
233	0	0	0
234	0	0	0
235	0	0	0
236	0	0	0
237	0	0	0
238	0	0	0
239	0	0	0
240	0	0	0
241	0	0	0
242	0	0	0
243	0	0	0
244	0	0	0
245	0	0	0
246	0	0	0
247	0	0	0
248	0	0	0
249	0	0	0
250	0	0	0
251	255	230	237
252	255	223	232
253	248	205	220
254	248	200	219
255	255	205	225
256	252	197	223
257	251	194	222
258	255	200	226
259	255	203	226
260	253	192	218
261	255	197	221
262	255	192	220
263	254	190	220
264	251	185	218
265	255	201	228
266	255	194	223
267	247	178	212
268	249	179	215
269	248	176	215
270	252	181	220
271	251	180	221
272	250	179	222
273	250	181	223
274	255	192	229
275	0	0	0
276	0	0	0
277	0	0	0
278	0	0	0
279	0	0	0
280	0	0	0
281	0	0	0
282	0	0	0
283	0	0	0
284	0	0	0
285	0	0	0
286	0	0	0
287	0	0	0
288	0	0	0
289	0	0	0
290	0	0	0
291	0	0	0
292	0	0	0
293	0	0	0
294	0	0	0
295	0	0	0
296	0	0	0
297	255	222	235
298	255	215	232
299	254	208	227
300	252	202	223
301	251	195	220
302	248	188	220
303	253	193	224
304	255	198	224
305	254	191	219
306	250	182	215
307	251	181	217
308	249	176	215
309	249	174	215
310	247	171	213
311	245	166	212
312	242	160	209
313	243	161	211
314	244	161	212
315	248	166	217
316	252	172	223
317	249	170	223
318	247	167	223
319	253	177	229
320	255	187	233
321	252	180	228
322	0	0	0
323	0	0	0
324	0	0	0
325	0	0	0
326	0	0	0
327	0	0	0
328	0	0	0
329	0	0	0
330	0	0	0
331	0	0	0
332	0	0	0
333	0	0	0
334	0	0	0
335	0	0	0
336	0	0	0
337	0	0	0
338	0	0	0
339	0	0	0
340	0	0	0
341	0	0	0
342	255	219	232
343	255	215	233
344	253	201	226
345	247	194	221
346	246	190	218
347	245	184	215
348	255	196	227
349	255	202	230
350	255	198	224
351	255	192	222
352	252	178	217
353	254	177	220
354	255	178	222
355	255	177	223
356	251	168	219
357	249	163	218
358	251	165	221
359	253	166	224
360	249	161	221
361	252	165	225
362	254	169	229
363	251	166	228
364	251	168	229
365	255	177	235
366	254	176	231
367	246	169	225
368	0	0	0
369	0	0	0
370	0	0	0
371	0	0	0
372	0	0	0
373	0	0	0
374	0	0	0
375	0	0	0
376	0	0	0
377	0	0	0
378	0	0	0
379	0	0	0
380	0	0	0
381	0	0	0
382	0	0	0
383	0	0	0
384	0	0	0
385	0	0	0
386	0	0	0
387	250	213	225
388	252	209	224
389	251	200	222
390	245	187	216
391	244	185	218
392	244	182	218
393	255	195	227
394	255	206	233
395	255	201	228
396	255	199	226
397	255	187	223
398	255	175	221
399	255	180	229
400	255	180	229
401	255	171	224
402	252	162	222
403	251	161	223
404	252	162	224
405	248	157	223
406	245	152	222
407	250	157	228
408	249	159	228
409	245	158	226
410	245	160	227
411	244	160	226
412	243	160	224
413	248	170	231
414	0	0	0
415	0	0	0
416	0	0	0
417	0	0	0
418	0	0	0
419	0	0	0
420	0	0	0
421	0	0	0
422	0	0	0
423	0	0	0
424	0	0	0
425	0	0	0
426	0	0	0
427	0	0	0
428	0	0	0
429	0	0	0
430	0	0	0
431	0	0	0
432	250	218	228
433	254	215	228
434	251	202	222
435	248	192	218
436	246	184	217
437	248	184	221
438	249	183	223
439	255	196	232
440	255	195	228
441	255	191	224
442	255	181	220
443	255	170	218
444	251	160	218
445	255	165	226
446	254	158	221
447	247	148	215
448	252	155	223
449	248	153	222
450	251	160	227
451	246	154	224
452	245	152	227
453	250	158	233
454	248	158	231
455	242	155	227
456	250	170	237
457	249	170	236
458	251	173	236
459	255	184	243
460	251	179	238
461	0	0	0
462	0	0	0
463	0	0	0
464	0	0	0
465	0	0	0
466	0	0	0
467	0	0	0
468	0	0	0
469	0	0	0
470	0	0	0
471	0	0	0
472	0	0	0
473	0	0	0
474	0	0	0
475	0	0	0
476	0	0	0
477	254	220	232
478	255	223	236
479	254	209	229
480	250	196	223
481	250	190	222
482	248	183	221
483	255	187	227
484	255	186	228
485	255	189	231
486	255	189	231
487	255	179	225
488	255	170	223
489	255	161	223
490	252	150	222
491	252	147	223
492	248	140	219
493	251	145	222
494	253	150	225
495	252	154	226
496	255	160	231
497	247	154	228
498	245	151	230
499	248	155	234
500	245	154	232
501	249	167	238
502	255	182	247
503	255	181	244
504	255	182	243
505	249	177	237
506	0	0	0
507	0	0	0
508	0	0	0
509	0	0	0
510	0	0	0
511	0	0	0
512	0	0	0
513	0	0	0
514	0	0	0
515	0	0	0
516	0	0	0
517	0	0	0
518	0	0	0
519	0	0	0
520	0	0	0
521	0	0	0
522	251	210	226
523	255	216	233
524	253	203	228
525	244	186	219
526	253	195	226
527	254	190	227
528	250	177	222
529	255	182	228
530	255	176	225
531	255	179	228
532	255	171	225
533	255	161	222
534	255	154	224
535	254	146	224
536	245	130	217
537	244	126	217
538	250	136	224
539	252	140	225
540	255	148	228
541	255	152	229
542	252	150	228
543	244	143	224
544	251	156	236
545	249	158	237
546	245	156	235
547	253	170	244
548	254	175	244
549	250	173	239
550	252	181	241
551	0	0	0
552	0	0	0
553	0	0	0
554	0	0	0
555	0	0	0
556	0	0	0
557	0	0	0
558	0	0	0
559	0	0	0
560	0	0	0
561	0	0	0
562	0	0	0
563	0	0	0
564	0	0	0
565	0	0	0
566	0	0	0
567	255	225	236
568	251	203	224
569	252	196	224
570	246	183	221
571	252	189	228
572	255	197	234
573	255	183	227
574	250	171	223
575	255	170	226
576	255	165	222
577	255	159	219
578	252	151	216
579	250	143	216
580	250	137	222
581	244	124	219
582	233	105	207
583	242	119	216
584	248	128	223
585	250	134	224
586	253	141	226
587	249	139	222
588	245	137	222
589	248	147	229
590	253	158	237
591	246	156	235
592	240	153	233
593	239	157	234
594	238	160	232
595	244	170	235
596	245	178	236
597	0	0	0
598	0	0	0
599	0	0	0
600	0	0	0
601	0	0	0
602	0	0	0
603	0	0	0
604	0	0	0
605	0	0	0
606	0	0	0
607	0	0	0
608	0	0	0
609	0	0	0
610	0	0	0
611	0	0	0
612	255	230	239
613	255	210	229
614	247	190	220
615	246	182	220
616	250	182	225
617	255	190	233
618	255	188	232
619	253	173	224
620	254	168	226
621	255	167	229
622	255	158	224
623	255	152	222
624	245	132	211
625	241	123	211
626	250	132	227
627	243	117	222
628	236	107	213
629	245	119	220
630	255	136	230
631	255	142	231
632	255	143	229
633	250	139	225
634	253	148	232
635	255	158	238
636	253	162	239
637	243	157	235
638	236	156	234
639	229	157	232
640	239	177	240
641	248	188	244
642	242	186	238
643	0	0	0
644	0	0	0
645	0	0	0
646	0	0	0
647	0	0	0
648	0	0	0
649	0	0	0
650	0	0	0
651	0	0	0
652	0	0	0
653	0	0	0
654	0	0	0
655	0	0	0
656	0	0	0
657	0	0	0
658	255	214	232
659	250	196	225
660	242	176	217
661	248	179	223
662	251	179	226
663	255	179	227
664	255	177	226
665	255	170	224
666	255	164	227
667	254	155	225
668	252	146	222
669	241	126	212
670	229	105	200
671	235	111	210
672	244	118	223
673	240	112	221
674	232	101	211
675	247	123	223
676	255	139	231
677	255	140	229
678	254	142	230
679	255	150	236
680	255	158	240
681	254	159	238
682	249	162	236
683	238	158	232
684	231	158	233
685	235	174	241
686	242	193	246
687	240	191	241
688	0	0	0
689	0	0	0
690	0	0	0
691	0	0	0
692	0	0	0
693	0	0	0
694	0	0	0
695	0	0	0
696	0	0	0
697	0	0	0
698	0	0	0
699	0	0	0
700	0	0	0
701	0	0	0
702	0	0	0
703	0	0	0
704	255	212	234
705	253	194	228
706	246	177	222
707	250	179	227
708	252	176	228
709	255	177	230
710	255	168	225
711	255	161	224
712	247	145	219
713	245	136	218
714	255	151	232
715	246	130	220
716	239	117	215
717	248	124	225
718	255	133	236
719	250	125	231
720	240	113	220
721	252	133	232
722	252	135	229
723	252	137	229
724	254	141	232
725	255	149	236
726	252	152	235
727	243	150	230
728	245	164	236
729	233	160	231
730	237	175	242
731	245	194	251
732	241	197	244
733	0	0	0
734	0	0	0
735	0	0	0
736	0	0	0
737	0	0	0
738	0	0	0
739	0	0	0
740	0	0	0
741	0	0	0
742	0	0	0
743	0	0	0
744	0	0	0
745	0	0	0
746	0	0	0
747	255	228	232
748	0	0	0
749	255	214	232
750	255	210	236
751	254	192	229
752	246	175	222
753	249	174	226
754	252	172	229
755	252	164	227
756	250	155	223
757	241	138	215
758	234	123	212
759	251	140	229
760	255	154	240
761	255	141	232
762	249	128	227
763	255	137	235
764	255	143	241
765	255	133	234
766	245	121	227
767	247	128	231
768	246	130	229
769	247	133	229
770	246	135	229
771	245	140	229
772	241	142	228
773	240	153	232
774	242	167	238
775	237	175	239
776	239	188	245
777	240	195	244
778	0	0	0
779	0	0	0
780	0	0	0
781	0	0	0
782	0	0	0
783	0	0	0
784	0	0	0
785	0	0	0
786	0	0	0
787	0	0	0
788	0	0	0
789	0	0	0
790	0	0	0
791	0	0	0
792	255	228	231
793	255	221	230
794	255	210	227
795	255	205	230
796	247	186	223
797	236	166	215
798	251	182	230
799	255	183	236
800	254	169	231
801	252	160	229
802	252	155	228
803	243	139	220
804	251	144	232
805	255	161	247
806	255	138	231
807	247	125	223
808	246	122	224
809	252	128	230
810	255	143	240
811	255	133	233
812	246	124	228
813	247	129	232
814	247	136	234
815	244	137	232
816	244	143	233
817	242	147	233
818	242	155	235
819	0	0	0
820	0	0	0
821	0	0	0
822	0	0	0
823	0	0	0
824	0	0	0
825	0	0	0
826	0	0	0
827	0	0	0
828	0	0	0
829	0	0	0
830	0	0	0
831	0	0	0
832	0	0	0
833	0	0	0
834	0	0	0
835	0	0	0
836	0	0	0
837	255	233	236
838	255	222	231
839	254	211	228
840	253	199	226
841	246	183	222
842	237	164	217
843	249	179	232
844	255	194	244
845	255	177	235
846	251	162	230
847	250	157	229
848	250	152	228
849	254	154	233
850	255	159	241
851	253	140	232
852	239	116	216
853	242	117	219
854	240	113	219
855	252	129	231
856	255	143	241
857	252	133	233
858	243	122	225
859	245	130	229
860	244	137	232
861	241	141	232
862	239	146	233
863	241	156	237
864	0	0	0
865	0	0	0
866	0	0	0
867	0	0	0
868	0	0	0
869	0	0	0
870	0	0	0
871	0	0	0
872	0	0	0
873	0	0	0
874	0	0	0
875	0	0	0
876	0	0	0
877	0	0	0
878	0	0	0
879	0	0	0
880	0	0	0
881	0	0	0
882	255	240	242
883	255	229	237
884	251	208	226
885	249	196	223
886	255	198	230
887	249	181	226
888	248	174	229
889	255	190	245
890	255	179	237
891	244	158	224
892	253	167	234
893	253	161	234
894	252	155	231
895	255	158	236
896	255	158	239
897	251	137	228
898	240	118	220
899	240	118	223
900	245	125	228
901	255	141	241
902	254	136	235
903	240	122	225
904	242	130	229
905	247	140	235
906	251	153	241
907	247	157	239
908	243	161	240
909	0	0	0
910	0	0	0
911	0	0	0
912	0	0	0
913	0	0	0
914	0	0	0
915	0	0	0
916	0	0	0
917	0	0	0
918	0	0	0
919	0	0	0
920	0	0	0
921	0	0	0
922	0	0	0
923	0	0	0
924	0	0	0
925	0	0	0
926	0	0	0
927	0	0	0
928	255	231	236
929	250	211	225
930	243	191	219
931	250	194	227
932	255	194	233
933	255	187	234
934	253	178	234
935	251	171	232
936	244	159	226
937	250	165	231
938	255	173	239
939	255	165	235
940	255	158	233
941	255	155	233
942	255	152	234
943	245	133	224
944	235	116	220
945	241	125	230
946	245	130	233
947	247	130	233
948	240	123	225
949	238	129	228
950	241	138	236
951	251	154	245
952	254	166	246
953	245	167	241
954	0	0	0
955	0	0	0
956	0	0	0
957	0	0	0
958	0	0	0
959	0	0	0
960	0	0	0
961	0	0	0
962	0	0	0
963	0	0	0
964	0	0	0
965	0	0	0
966	0	0	0
967	0	0	0
968	0	0	0
969	0	0	0
970	0	0	0
971	0	0	0
972	0	0	0
973	0	0	0
974	255	227	234
975	250	207	225
976	250	197	226
977	255	199	234
978	255	190	233
979	254	182	232
980	250	173	231
981	244	163	228
982	248	166	232
983	255	173	239
984	253	165	235
985	250	156	230
986	255	159	235
987	255	155	233
988	251	147	228
989	236	126	217
990	252	147	238
991	255	157	249
992	250	141	239
993	249	139	237
994	246	139	235
995	243	144	237
996	245	153	243
997	254	169	251
998	249	172	244
999	238	171	238
1000	0	0	0
1001	0	0	0
1002	0	0	0
1003	0	0	0
1004	0	0	0
1005	0	0	0
1006	0	0	0
1007	0	0	0
1008	0	0	0
1009	0	0	0
1010	0	0	0
1011	0	0	0
1012	0	0	0
1013	0	0	0
1014	0	0	0
1015	0	0	0
1016	0	0	0
1017	0	0	0
1018	0	0	0
1019	254	227	235
1020	255	224	236
1021	255	213	232
1022	255	202	231
1023	255	194	231
1024	253	184	228
1025	251	177	228
1026	246	167	227
1027	247	168	231
1028	250	171	236
1029	249	164	234
1030	246	155	230
1031	250	157	233
1032	255	160	237
1033	253	153	233
1034	248	146	229
1035	255	161	240
1036	255	179	253
1037	255	163	243
1038	249	147	236
1039	250	150	240
1040	247	150	241
1041	246	158	243
1042	245	164	243
1043	246	172	244
1044	241	175	240
1045	0	0	0
1046	0	0	0
1047	0	0	0
1048	0	0	0
1049	0	0	0
1050	0	0	0
1051	0	0	0
1052	0	0	0
1053	0	0	0
1054	0	0	0
1055	0	0	0
1056	0	0	0
1057	0	0	0
1058	0	0	0
1059	0	0	0
1060	0	0	0
1061	0	0	0
1062	255	247	240
1063	0	0	0
1064	254	227	234
1065	255	223	236
1066	254	211	230
1067	250	197	226
1068	254	196	230
1069	252	187	228
1070	254	184	230
1071	252	176	229
1072	248	169	229
1073	247	169	233
1074	253	175	240
1075	250	167	237
1076	248	160	235
1077	252	162	239
1078	254	162	239
1079	251	154	235
1080	249	150	232
1081	255	165	242
1082	255	166	240
1083	246	147	227
1084	248	154	234
1085	245	155	237
1086	248	166	245
1087	0	0	0
1088	0	0	0
1089	0	0	0
1090	0	0	0
1091	0	0	0
1092	0	0	0
1093	0	0	0
1094	0	0	0
1095	0	0	0
1096	0	0	0
1097	0	0	0
1098	0	0	0
1099	0	0	0
1100	0	0	0
1101	0	0	0
1102	0	0	0
1103	0	0	0
1104	0	0	0
1105	0	0	0
1106	0	0	0
1107	255	249	245
1108	255	246	244
1109	255	234	238
1110	255	224	237
1111	254	211	233
1112	249	197	226
1113	251	194	228
1114	253	191	231
1115	254	187	232
1116	255	184	236
1117	253	178	235
1118	248	170	231
1119	250	173	235
1120	254	178	242
1121	249	169	238
1122	246	162	235
1123	248	162	238
1124	250	161	238
1125	248	156	236
1126	244	150	231
1127	245	152	231
1128	244	152	230
1129	244	155	231
1130	243	159	233
1131	240	167	237
1132	0	0	0
1133	0	0	0
1134	0	0	0
1135	0	0	0
1136	0	0	0
1137	0	0	0
1138	0	0	0
1139	0	0	0
1140	0	0	0
1141	0	0	0
1142	0	0	0
1143	0	0	0
1144	0	0	0
1145	0	0	0
1146	0	0	0
1147	0	0	0
1148	0	0	0
1149	0	0	0
1150	0	0	0
1151	0	0	0
1152	254	248	244
1153	255	246	246
1154	255	230	238
1155	251	218	232
1156	255	216	235
1157	251	202	230
1158	250	194	228
1159	251	191	229
1160	255	191	234
1161	255	186	234
1162	252	180	234
1163	248	173	232
1164	253	178	237
1165	255	183	243
1166	250	172	237
1167	239	161	230
1168	246	169	238
1169	250	170	242
1170	246	163	239
1171	241	157	235
1172	245	164	238
1173	245	165	238
1174	242	164	236
1175	0	0	0
1176	0	0	0
1177	0	0	0
1178	0	0	0
1179	0	0	0
1180	0	0	0
1181	0	0	0
1182	0	0	0
1183	0	0	0
1184	0	0	0
1185	0	0	0
1186	0	0	0
1187	0	0	0
1188	0	0	0
1189	0	0	0
1190	0	0	0
1191	0	0	0
1192	0	0	0
1193	0	0	0
1194	0	0	0
1195	0	0	0
1196	0	0	0
1197	253	245	242
1198	255	244	244
1199	253	229	238
1200	248	214	232
1201	250	210	231
1202	252	206	230
1203	249	197	227
1204	248	189	227
1205	252	189	231
1206	254	189	234
1207	252	183	232
1208	248	175	229
1209	250	178	234
1210	255	184	242
1211	249	174	237
1212	240	163	230
1213	241	168	234
1214	246	176	241
1215	245	171	240
1216	240	163	237
1217	241	168	240
1218	244	175	242
1219	240	174	240
1220	0	0	0
1221	0	0	0
1222	0	0	0
1223	0	0	0
1224	0	0	0
1225	0	0	0
1226	0	0	0
1227	0	0	0
1228	0	0	0
1229	0	0	0
1230	0	0	0
1231	0	0	0
1232	0	0	0
1233	0	0	0
1234	0	0	0
1235	0	0	0
1236	0	0	0
1237	0	0	0
1238	0	0	0
1239	0	0	0
1240	0	0	0
1241	0	0	0
1242	0	0	0
1243	255	251	248
1244	252	229	238
1245	246	213	231
1246	255	220	239
1247	255	215	238
1248	250	201	229
1249	248	191	226
1250	254	196	234
1251	255	196	238
1252	254	188	236
1253	251	181	233
1254	249	177	231
1255	250	180	235
1256	253	186	243
1257	242	173	235
1258	243	176	236
1259	248	183	243
1260	243	176	240
1261	236	167	236
1262	235	169	238
1263	0	0	0
1264	241	186	245
1265	0	0	0
1266	0	0	0
1267	0	0	0
1268	0	0	0
1269	0	0	0
1270	0	0	0
1271	0	0	0
1272	0	0	0
1273	0	0	0
1274	0	0	0
1275	0	0	0
1276	0	0	0
1277	0	0	0
1278	0	0	0
1279	0	0	0
1280	0	0	0
1281	0	0	0
1282	0	0	0
1283	0	0	0
1284	0	0	0
1285	0	0	0
1286	0	0	0
1287	0	0	0
1288	0	0	0
1289	0	0	0
1290	241	210	227
1291	251	216	236
1292	255	221	240
1293	253	207	233
1294	248	194	228
1295	254	199	235
1296	255	202	240
1297	255	194	238
1298	253	187	238
1299	252	184	239
1300	249	180	236
1301	252	184	240
1302	253	189	244
1303	248	187	242
1304	248	188	242
1305	241	180	237
1306	235	172	236
1307	235	175	240
1308	0	0	0
1309	0	0	0
1310	0	0	0
1311	0	0	0
1312	0	0	0
1313	0	0	0
1314	0	0	0
1315	0	0	0
1316	0	0	0
1317	0	0	0
1318	0	0	0
1319	0	0	0
1320	0	0	0
1321	0	0	0
1322	0	0	0
1323	0	0	0
1324	0	0	0
1325	0	0	0
1326	0	0	0
1327	0	0	0
1328	0	0	0
1329	0	0	0
1330	0	0	0
1331	0	0	0
1332	0	0	0
1333	0	0	0
1334	0	0	0
1335	0	0	0
1336	249	220	235
1337	255	227	245
1338	255	215	236
1339	250	201	229
1340	253	200	234
1341	255	204	242
1342	252	192	235
1343	248	183	232
1344	254	191	241
1345	254	187	242
1346	254	189	243
1347	255	192	245
1348	252	190	243
1349	249	189	241
1350	249	192	242
1351	0	0	0
1352	0	0	0
1353	0	0	0
1354	0	0	0
1355	0	0	0
1356	0	0	0
1357	0	0	0
1358	0	0	0
1359	0	0	0
1360	0	0	0
1361	0	0	0
1362	0	0	0
1363	0	0	0
1364	0	0	0
1365	0	0	0
1366	0	0	0
1367	0	0	0
1368	0	0	0
1369	0	0	0
1370	0	0	0
1371	0	0	0
1372	0	0	0
1373	0	0	0
1374	0	0	0
1375	0	0	0
1376	0	0	0
1377	0	0	0
1378	0	0	0
1379	0	0	0
1380	0	0	0
1381	0	0	0
1382	255	231	243
1383	255	220	239
1384	252	208	233
1385	255	207	236
1386	255	205	239
1387	253	195	235
1388	245	182	230
1389	251	188	237
1390	255	194	242
1391	253	193	241
1392	253	193	242
1393	251	192	241
1394	248	189	240
1395	249	193	241
1396	0	0	0
1397	0	0	0
1398	0	0	0
1399	0	0	0
1400	0	0	0
1401	0	0	0
1402	0	0	0
1403	0	0	0
1404	0	0	0
1405	0	0	0
1406	0	0	0
1407	0	0	0
1408	0	0	0
1409	0	0	0
1410	0	0	0
1411	0	0	0
1412	0	0	0
1413	0	0	0
1414	0	0	0
1415	0	0	0
1416	0	0	0
1417	0	0	0
1418	0	0	0
1419	0	0	0
1420	0	0	0
1421	0	0	0
1422	0	0	0
1423	0	0	0
1424	0	0	0
1425	0	0	0
1426	0	0	0
1427	0	0	0
1428	0	0	0
1429	252	212	234
1430	253	207	234
1431	255	206	238
1432	251	196	234
1433	245	185	230
1434	249	189	236
1435	254	195	242
1436	252	194	240
1437	246	191	236
1438	252	201	244
1439	252	200	244
1440	246	193	239
1441	0	0	0
1442	0	0	0
1443	0	0	0
1444	0	0	0
1445	0	0	0
1446	0	0	0
1447	0	0	0
1448	0	0	0
1449	0	0	0
1450	0	0	0
1451	0	0	0
1452	0	0	0
1453	0	0	0
1454	0	0	0
1455	0	0	0
1456	0	0	0
1457	0	0	0
1458	0	0	0
1459	0	0	0
1460	0	0	0
1461	0	0	0
1462	0	0	0
1463	0	0	0
1464	0	0	0
1465	0	0	0
1466	0	0	0
1467	0	0	0
1468	0	0	0
1469	0	0	0
1470	0	0	0
1471	0	0	0
1472	0	0	0
1473	0	0	0
1474	0	0	0
1475	0	0	0
1476	250	203	234
1477	248	195	232
1478	243	185	230
1479	247	190	235
1480	249	192	237
1481	249	194	237
1482	247	193	237
1483	249	200	241
1484	255	210	249
1485	249	203	245
1486	0	0	0
1487	0	0	0
1488	0	0	0
1489	0	0	0
1490	0	0	0
1491	0	0	0
1492	0	0	0
1493	0	0	0
1494	0	0	0
1495	0	0	0
1496	0	0	0
1497	0	0	0
1498	0	0	0
1499	0	0	0
1500	0	0	0
1501	0	0	0
1502	0	0	0
1503	0	0	0
1504	0	0	0
1505	0	0	0
1506	0	0	0
1507	0	0	0
1508	0	0	0
1509	0	0	0
1510	0	0	0
1511	0	0	0
1512	0	0	0
1513	0	0	0
1514	0	0	0
1515	0	0	0
1516	0	0	0
1517	0	0	0
1518	0	0	0
1519	0	0	0
1520	0	0	0
1521	0	0	0
1522	255	213	241
1523	254	204	240
1524	246	192	235
1525	0	0	0
1526	0	0	0
1527	0	0	0
1528	0	0	0
1529	0	0	0
1530	254	212	248
1531	0	0	0
1532	0	0	0
1533	0	0	0
1534	0	0	0
1535	0	0	0
1536	0	0	0
1537	0	0	0
1538	0	0	0
1539	0	0	0
1540	0	0	0
1541	0	0	0
1542	0	0	0
1543	0	0	0
1544	0	0	0
1545	0	0	0
1546	0	0	0
1547	0	0	0
1548	0	0	0
1549	0	0	0
1550	0	0	0
1551	0	0	0
1552	0	0	0
1553	0	0	0
1554	0	0	0
1555	0	0	0
1556	0	0	0
1557	0	0	0
1558	0	0	0
1559	0	0	0
1560	0	0	0
1561	0	0	0
1562	0	0	0
1563	0	0	0
1564	0	0	0
1565	0	0	0
1566	0	0	0
1567	0	0	0
1568	0	0	0
1569	253	208	240
1570	0	0	0
1571	0	0	0
1572	0	0	0
1573	0	0	0
1574	0	0	0
1575	0	0	0
1576	0	0	0
1577	0	0	0
1578	0	0	0
1579	0	0	0
1580	0	0	0
1581	0	0	0
1582	0	0	0
1583	0	0	0
1584	0	0	0
1585	0	0	0
1586	0	0	0
1587	0	0	0
1588	0	0	0
1589	0	0	0
1590	0	0	0
1591	0	0	0
1592	0	0	0
1593	0	0	0
1594	0	0	0
1595	0	0	0
1596	0	0	0
1597	0	0	0
1598	0	0	0
1599	0	0	0
1600	0	0	0
1601	0	0	0
1602	0	0	0
1603	0	0	0
1604	0	0	0
1605	0	0	0
1606	0	0	0
1607	0	0	0
1608	0	0	0
1609	0	0	0
1610	0	0	0
