244.66
174.37
219.13
231.17
173.57
223.41
241.17
175.15
224.90
245.69
181.07
225.74
247.00
189.48
228.90
238.77
169.53
222.05
245.68
180.66
222.13
243.45
169.20
225.57
236.68
183.27
228.13
233.48
173.40
219.84
243.65
176.45
223.57
239.63
174.98
225.24
228.32
165.83
221.63
234.82
169.02
224.40
238.35
169.10
220.85
240.15
192.58
224.32
235.12
167.99
223.03
241.77
187.86
223.07
247.41
174.37
224.51
230.38
171.78
223.41
230.73
147.92
218.04
238.61
171.48
226.50
233.48
172.14
221.27
232.59
184.12
228.19
231.53
209.50
223.16
241.15
186.53
227.92
237.41
176.75
221.15
226.85
203.92
230.93
222.97
211.57
229.64
230.77
161.32
220.27
242.46
188.77
224.75
239.50
180.80
221.14
239.59
172.45
223.47
235.98
174.04
225.78
239.62
167.44
220.74
246.37
183.93
227.33
