 	R	G	B
1	0	0	0
2	0	0	0
3	0	0	0
4	0	0	0
5	0	0	0
6	0	0	0
7	0	0	0
8	0	0	0
9	0	0	0
10	0	0	0
11	250	225	233
12	0	0	0
13	0	0	0
14	0	0	0
15	0	0	0
16	0	0	0
17	0	0	0
18	0	0	0
19	0	0	0
20	0	0	0
21	0	0	0
22	0	0	0
23	0	0	0
24	0	0	0
25	0	0	0
26	0	0	0
27	0	0	0
28	0	0	0
29	253	230	236
30	0	0	0
31	254	228	237
32	255	230	238
33	251	223	234
34	0	0	0
35	0	0	0
36	0	0	0
37	0	0	0
38	0	0	0
39	0	0	0
40	0	0	0
41	0	0	0
42	0	0	0
43	0	0	0
44	0	0	0
45	0	0	0
46	0	0	0
47	0	0	0
48	0	0	0
49	255	236	238
50	255	232	237
51	253	224	234
52	255	229	239
53	254	223	234
54	247	215	229
55	252	219	235
56	0	0	0
57	0	0	0
58	0	0	0
59	0	0	0
60	0	0	0
61	0	0	0
62	0	0	0
63	0	0	0
64	0	0	0
65	0	0	0
66	0	0	0
67	0	0	0
68	0	0	0
69	0	0	0
70	255	238	239
71	255	231	236
72	254	223	232
73	255	223	233
74	253	217	230
75	253	220	232
76	255	224	237
77	255	220	236
78	0	0	0
79	0	0	0
80	0	0	0
81	0	0	0
82	0	0	0
83	0	0	0
84	0	0	0
85	0	0	0
86	0	0	0
87	0	0	0
88	0	0	0
89	0	0	0
90	0	0	0
91	255	234	236
92	255	227	233
93	252	217	228
94	254	216	229
95	252	212	226
96	254	215	229
97	255	218	233
98	254	213	231
99	0	0	0
100	0	0	0
101	0	0	0
102	0	0	0
103	0	0	0
104	0	0	0
105	0	0	0
106	0	0	0
107	0	0	0
108	0	0	0
109	0	0	0
110	0	0	0
111	255	235	234
112	255	231	233
113	255	222	229
114	250	212	224
115	251	210	225
116	249	206	221
117	252	210	225
118	255	213	228
119	251	206	226
120	244	198	223
121	0	0	0
122	0	0	0
123	0	0	0
124	0	0	0
125	0	0	0
126	0	0	0
127	0	0	0
128	0	0	0
129	0	0	0
130	0	0	0
131	255	234	233
132	255	229	230
133	253	221	227
134	250	212	223
135	253	214	226
136	252	212	225
137	247	203	220
138	252	208	224
139	252	207	224
140	247	200	222
141	252	207	229
142	255	221	239
143	0	0	0
144	0	0	0
145	0	0	0
146	0	0	0
147	0	0	0
148	0	0	0
149	0	0	0
150	0	0	0
151	0	0	0
152	0	0	0
153	251	219	226
154	248	210	221
155	251	213	224
156	254	215	226
157	251	209	223
158	248	202	221
159	254	206	226
160	253	204	226
161	255	212	231
162	255	218	235
163	255	216	235
164	250	207	228
165	0	0	0
166	0	0	0
167	0	0	0
168	0	0	0
169	0	0	0
170	0	0	0
171	0	0	0
172	0	0	0
173	0	0	0
174	0	0	0
175	252	215	226
176	255	217	228
177	254	213	224
178	255	209	224
179	252	200	222
180	255	203	226
181	253	197	223
182	255	205	229
183	254	201	225
184	249	197	223
185	247	199	226
186	0	0	0
187	0	0	0
188	0	0	0
189	0	0	0
190	0	0	0
191	0	0	0
192	0	0	0
193	253	228	232
194	0	0	0
195	255	225	233
196	255	222	233
197	255	218	231
198	255	213	226
199	255	205	222
200	252	196	218
201	253	195	220
202	250	189	219
203	249	189	220
204	245	185	218
205	246	190	223
206	243	191	225
207	0	0	0
208	0	0	0
209	0	0	0
210	0	0	0
211	0	0	0
212	0	0	0
213	254	230	235
214	255	228	234
215	255	221	229
216	255	220	230
217	253	207	224
218	253	204	223
219	255	206	223
220	253	197	218
221	253	194	217
222	254	192	220
223	246	181	216
224	245	181	217
225	253	194	227
226	254	199	231
227	0	0	0
228	0	0	0
229	0	0	0
230	0	0	0
231	0	0	0
232	0	0	0
233	0	0	0
234	253	228	233
235	254	221	229
236	252	213	224
237	248	203	219
238	243	191	213
239	251	196	219
240	255	199	220
241	255	195	219
242	254	191	219
243	250	184	217
244	242	173	213
245	254	190	226
246	255	203	233
247	255	200	230
248	244	193	226
249	0	0	0
250	0	0	0
251	0	0	0
252	0	0	0
253	0	0	0
254	0	0	0
255	255	230	235
256	255	223	231
257	253	213	224
258	249	203	219
259	249	197	219
260	255	203	226
261	254	193	219
262	253	189	217
263	255	190	220
264	250	182	217
265	244	173	215
266	255	191	228
267	255	194	228
268	249	190	224
269	241	186	222
270	0	0	0
271	0	0	0
272	0	0	0
273	0	0	0
274	0	0	0
275	255	229	235
276	255	233	236
277	255	223	230
278	255	213	224
279	255	208	224
280	255	203	227
281	255	197	226
282	251	186	219
283	255	189	221
284	255	189	221
285	253	182	218
286	248	175	218
287	255	185	227
288	255	188	228
289	251	188	228
290	242	182	224
291	244	196	231
292	0	0	0
293	0	0	0
294	0	0	0
295	255	232	236
296	255	236	241
297	255	221	230
298	252	210	224
299	250	202	219
300	252	198	220
301	254	196	224
302	252	188	222
303	255	187	222
304	255	190	225
305	248	172	211
306	246	167	210
307	255	179	222
308	255	188	231
309	250	175	222
310	247	175	223
311	239	175	223
312	0	0	0
313	0	0	0
314	0	0	0
315	0	0	0
316	0	0	0
317	251	219	229
318	245	204	221
319	244	197	218
320	244	190	217
321	249	190	221
322	250	187	219
323	254	188	221
324	255	187	221
325	249	173	213
326	240	156	204
327	251	170	216
328	255	180	225
329	252	171	219
330	241	158	210
331	242	166	217
332	235	166	220
333	242	191	234
334	0	0	0
335	0	0	0
336	0	0	0
337	0	0	0
338	0	0	0
339	0	0	0
340	0	0	0
341	254	203	228
342	255	204	232
343	251	185	220
344	255	186	222
345	251	176	216
346	245	163	209
347	252	170	216
348	255	184	228
349	253	169	219
350	246	160	213
351	247	166	217
352	247	172	224
353	241	173	226
354	252	201	243
355	246	204	238
356	0	0	0
357	0	0	0
358	0	0	0
359	0	0	0
360	0	0	0
361	0	0	0
362	255	211	230
363	255	196	223
364	248	179	217
365	249	175	219
366	247	167	215
367	255	176	222
368	255	182	224
369	255	172	219
370	248	158	214
371	255	170	224
372	255	176	228
373	253	179	230
374	246	179	231
375	246	190	237
376	240	194	234
377	0	0	0
378	0	0	0
379	0	0	0
380	0	0	0
381	0	0	0
382	0	0	0
383	255	208	226
384	253	193	220
385	249	179	219
386	253	177	223
387	254	173	223
388	255	182	229
389	254	167	217
390	249	157	211
391	245	150	211
392	253	162	222
393	252	166	224
394	249	170	226
395	247	178	231
396	244	186	234
397	239	193	235
398	0	0	0
399	0	0	0
400	0	0	0
401	0	0	0
402	0	0	0
403	0	0	0
404	255	204	225
405	252	191	220
406	249	177	219
407	255	181	227
408	255	177	225
409	253	166	220
410	246	152	211
411	246	149	211
412	240	141	208
413	248	152	217
414	247	156	219
415	250	168	227
416	248	176	231
417	244	185	234
418	238	192	234
419	0	0	0
420	0	0	0
421	0	0	0
422	0	0	0
423	0	0	0
424	0	0	0
425	255	208	230
426	255	196	226
427	252	180	222
428	255	184	230
429	249	163	217
430	245	152	213
431	253	159	220
432	252	156	220
433	247	147	215
434	253	158	223
435	249	157	221
436	253	170	229
437	249	175	231
438	244	184	233
439	242	196	236
440	0	0	0
441	0	0	0
442	0	0	0
443	0	0	0
444	0	0	0
445	0	0	0
446	255	211	234
447	255	197	229
448	252	181	222
449	249	167	218
450	239	147	209
451	250	157	219
452	255	163	224
453	255	158	222
454	249	150	218
455	254	157	224
456	249	156	221
457	254	170	229
458	250	175	230
459	248	189	235
460	247	201	240
461	0	0	0
462	0	0	0
463	0	0	0
464	0	0	0
465	0	0	0
466	255	222	239
467	255	204	231
468	252	190	226
469	252	181	223
470	249	167	219
471	245	154	216
472	255	164	227
473	254	159	223
474	252	154	220
475	249	150	220
476	254	157	226
477	249	155	222
478	252	167	229
479	245	168	226
480	245	182	232
481	250	202	240
482	0	0	0
483	0	0	0
484	0	0	0
485	0	0	0
486	0	0	0
487	0	0	0
488	247	194	224
489	249	186	224
490	250	177	222
491	250	169	223
492	246	156	219
493	251	158	224
494	250	154	222
495	252	154	224
496	249	149	222
497	252	154	226
498	246	151	222
499	246	159	226
500	239	159	224
501	246	182	235
502	251	202	241
503	251	212	241
504	0	0	0
505	0	0	0
506	0	0	0
507	0	0	0
508	0	0	0
509	253	205	232
510	255	197	232
511	252	183	227
512	253	175	228
513	248	160	223
514	253	162	228
515	255	161	230
516	255	161	231
517	244	143	220
518	247	148	224
519	249	156	228
520	249	164	231
521	244	168	231
522	251	190	242
523	252	203	242
524	255	215	245
525	246	211	238
526	0	0	0
527	0	0	0
528	0	0	0
529	0	0	0
530	253	210	235
531	253	198	232
532	251	184	228
533	253	177	230
534	247	161	225
535	254	165	231
536	255	164	232
537	248	150	224
538	235	133	214
539	246	150	227
540	249	158	230
541	251	168	235
542	247	173	235
543	249	188	240
544	251	200	241
545	246	200	236
546	237	197	232
547	0	0	0
548	0	0	0
549	0	0	0
550	0	0	0
551	255	221	241
552	255	210	239
553	251	189	232
554	254	181	234
555	242	158	222
556	249	161	229
557	255	168	236
558	248	155	228
559	243	147	225
560	254	164	238
561	252	165	236
562	255	177	241
563	251	177	238
564	253	192	244
565	250	198	240
566	242	196	234
567	0	0	0
568	0	0	0
569	0	0	0
570	0	0	0
571	0	0	0
572	255	232	246
573	252	209	237
574	246	187	229
575	244	173	227
576	233	149	216
577	247	162	230
578	254	170	238
579	251	165	236
580	246	157	231
581	253	167	239
582	251	168	237
583	253	176	240
584	248	176	236
585	247	185	238
586	243	191	237
587	0	0	0
588	0	0	0
589	0	0	0
590	0	0	0
591	0	0	0
592	0	0	0
593	255	234	245
594	246	210	235
595	247	198	235
596	248	185	235
597	245	171	231
598	255	183	244
599	253	174	240
600	249	169	237
601	251	171	240
602	255	182	249
603	248	168	238
604	248	175	240
605	242	175	235
606	243	185	238
607	245	199	242
608	0	0	0
609	0	0	0
610	0	0	0
611	0	0	0
612	0	0	0
613	0	0	0
614	255	241	250
615	251	223	243
616	251	211	244
617	253	201	245
618	249	186	240
619	251	183	241
620	246	174	236
621	251	179	242
622	254	182	246
623	251	176	244
624	238	163	233
625	235	168	234
626	0	0	0
627	242	190	243
628	0	0	0
629	0	0	0
630	0	0	0
631	0	0	0
632	0	0	0
633	0	0	0
634	0	0	0
635	255	244	251
636	251	224	243
637	249	213	244
638	244	200	241
639	245	194	242
640	249	192	244
641	251	189	244
642	255	195	250
643	255	191	250
644	251	184	246
645	240	176	239
646	0	0	0
647	0	0	0
648	0	0	0
649	0	0	0
650	0	0	0
651	0	0	0
652	0	0	0
653	0	0	0
654	0	0	0
655	0	0	0
656	0	0	0
657	251	230	245
658	245	216	242
659	239	207	241
660	239	200	242
661	246	202	248
662	248	199	247
663	247	195	245
664	245	191	243
665	244	190	243
666	0	0	0
667	0	0	0
668	0	0	0
669	0	0	0
670	0	0	0
671	0	0	0
672	0	0	0
