 	R	G	B
1	0	0	0
2	0	0	0
3	0	0	0
4	0	0	0
5	0	0	0
6	0	0	0
7	0	0	0
8	0	0	0
9	0	0	0
10	0	0	0
11	0	0	0
12	0	0	0
13	0	0	0
14	0	0	0
15	0	0	0
16	0	0	0
17	0	0	0
18	0	0	0
19	0	0	0
20	0	0	0
21	0	0	0
22	0	0	0
23	0	0	0
24	0	0	0
25	0	0	0
26	0	0	0
27	0	0	0
28	0	0	0
29	0	0	0
30	0	0	0
31	0	0	0
32	0	0	0
33	0	0	0
34	0	0	0
35	0	0	0
36	0	0	0
37	0	0	0
38	0	0	0
39	0	0	0
40	0	0	0
41	0	0	0
42	0	0	0
43	0	0	0
44	0	0	0
45	0	0	0
46	253	235	237
47	0	0	0
48	0	0	0
49	0	0	0
50	0	0	0
51	0	0	0
52	0	0	0
53	0	0	0
54	0	0	0
55	0	0	0
56	0	0	0
57	0	0	0
58	0	0	0
59	0	0	0
60	0	0	0
61	0	0	0
62	0	0	0
63	0	0	0
64	0	0	0
65	0	0	0
66	0	0	0
67	0	0	0
68	0	0	0
69	0	0	0
70	0	0	0
71	0	0	0
72	0	0	0
73	0	0	0
74	0	0	0
75	0	0	0
76	0	0	0
77	0	0	0
78	0	0	0
79	0	0	0
80	0	0	0
81	0	0	0
82	250	229	228
83	245	224	225
84	0	0	0
85	0	0	0
86	0	0	0
87	0	0	0
88	0	0	0
89	252	228	234
90	255	229	237
91	0	0	0
92	247	226	234
93	250	233	236
94	253	232	235
95	251	228	232
96	0	0	0
97	0	0	0
98	0	0	0
99	0	0	0
100	0	0	0
101	0	0	0
102	0	0	0
103	0	0	0
104	0	0	0
105	0	0	0
106	0	0	0
107	0	0	0
108	0	0	0
109	0	0	0
110	0	0	0
111	0	0	0
112	0	0	0
113	0	0	0
114	0	0	0
115	0	0	0
116	0	0	0
117	0	0	0
118	0	0	0
119	0	0	0
120	0	0	0
121	0	0	0
122	0	0	0
123	0	0	0
124	0	0	0
125	0	0	0
126	0	0	0
127	0	0	0
128	0	0	0
129	255	232	232
130	251	227	229
131	246	221	225
132	248	226	228
133	253	233	233
134	254	230	231
135	253	227	228
136	252	227	229
137	255	229	234
138	254	226	234
139	247	219	230
140	246	223	232
141	250	230	235
142	251	227	233
143	249	223	231
144	252	229	235
145	0	0	0
146	0	0	0
147	0	0	0
148	0	0	0
149	0	0	0
150	0	0	0
151	0	0	0
152	0	0	0
153	0	0	0
154	0	0	0
155	0	0	0
156	0	0	0
157	0	0	0
158	0	0	0
159	0	0	0
160	0	0	0
161	0	0	0
162	0	0	0
163	0	0	0
164	0	0	0
165	0	0	0
166	0	0	0
167	0	0	0
168	0	0	0
169	0	0	0
170	0	0	0
171	0	0	0
172	0	0	0
173	0	0	0
174	0	0	0
175	0	0	0
176	0	0	0
177	251	219	226
178	244	212	220
179	249	221	226
180	255	228	231
181	255	227	231
182	253	223	227
183	252	221	225
184	252	221	226
185	253	222	230
186	247	216	228
187	246	218	229
188	250	225	233
189	251	226	234
190	247	221	230
191	250	223	233
192	255	232	240
193	0	0	0
194	0	0	0
195	0	0	0
196	252	226	229
197	252	223	227
198	254	225	228
199	255	225	227
200	255	226	227
201	254	224	225
202	252	227	226
203	254	231	229
204	252	227	226
205	250	223	223
206	249	223	222
207	251	224	222
208	254	223	221
209	0	0	0
210	255	224	219
211	255	230	223
212	0	0	0
213	255	220	222
214	255	218	222
215	254	213	217
216	254	215	216
217	254	216	215
218	252	214	215
219	254	215	221
220	254	212	222
221	251	207	219
222	254	211	223
223	255	214	227
224	252	210	224
225	248	207	222
226	249	214	224
227	254	222	227
228	254	221	225
229	253	219	224
230	250	215	222
231	249	214	221
232	251	215	224
233	251	216	228
234	248	216	228
235	248	218	229
236	249	220	230
237	250	221	231
238	250	222	231
239	252	224	234
240	250	219	232
241	0	0	0
242	0	0	0
243	250	221	228
244	254	222	230
245	249	211	223
246	252	213	224
247	252	212	222
248	254	213	223
249	250	208	220
250	248	211	222
251	247	210	223
252	244	206	219
253	248	211	220
254	249	211	220
255	245	205	215
256	244	203	212
257	252	212	217
258	255	218	220
259	254	210	213
260	250	204	210
261	255	213	219
262	255	210	219
263	252	202	212
264	253	203	212
265	252	202	210
266	251	200	210
267	255	205	218
268	253	201	218
269	251	199	217
270	253	202	221
271	253	205	224
272	247	200	219
273	253	211	226
274	255	218	229
275	255	216	224
276	252	213	220
277	249	210	220
278	244	206	217
279	251	216	225
280	255	219	230
281	254	215	229
282	250	215	228
283	252	220	231
284	252	221	231
285	253	222	232
286	255	224	235
287	252	220	232
288	0	0	0
289	0	0	0
290	0	0	0
291	242	208	223
292	244	203	221
293	240	193	217
294	245	196	219
295	245	195	216
296	245	193	214
297	242	189	213
298	240	188	215
299	238	188	216
300	242	193	219
301	245	197	217
302	243	192	213
303	239	187	210
304	244	194	214
305	251	204	219
306	250	197	213
307	247	190	207
308	253	198	212
309	255	205	216
310	254	197	211
311	249	189	208
312	249	188	208
313	248	186	205
314	249	189	208
315	253	193	215
316	250	191	215
317	248	188	213
318	250	192	217
319	250	196	220
320	254	205	225
321	255	215	229
322	255	212	225
323	255	210	221
324	253	208	220
325	249	205	221
326	250	212	226
327	255	220	232
328	254	216	229
329	251	211	227
330	252	216	229
331	254	221	232
332	252	220	232
333	253	220	233
334	248	215	230
335	0	0	0
336	0	0	0
337	0	0	0
338	0	0	0
339	249	218	233
340	252	213	233
341	243	193	224
342	249	197	228
343	252	199	225
344	253	197	223
345	252	195	224
346	253	196	226
347	249	191	226
348	251	195	227
349	251	195	222
350	249	191	219
351	248	189	219
352	251	196	222
353	255	202	224
354	254	196	218
355	252	190	214
356	255	198	219
357	251	186	210
358	246	177	204
359	251	184	211
360	250	183	210
361	253	188	211
362	254	190	214
363	254	190	217
364	252	187	217
365	253	190	218
366	255	194	221
367	254	195	221
368	255	205	227
369	255	202	222
370	253	199	219
371	255	205	222
372	253	202	221
373	250	201	222
374	249	206	227
375	248	208	227
376	242	201	221
377	250	212	228
378	254	218	232
379	250	214	229
380	248	212	228
381	249	218	232
382	0	0	0
383	0	0	0
384	0	0	0
385	0	0	0
386	0	0	0
387	241	215	231
388	239	199	225
389	232	180	220
390	243	190	229
391	247	191	225
392	249	191	223
393	249	189	223
394	248	187	223
395	245	182	221
396	247	185	223
397	248	185	220
398	250	185	220
399	249	184	220
400	251	189	222
401	255	195	223
402	252	188	217
403	252	183	215
404	247	174	211
405	240	163	205
406	248	172	212
407	251	178	214
408	252	180	213
409	254	185	214
410	252	182	213
411	251	182	216
412	253	186	220
413	254	189	220
414	253	189	218
415	251	189	216
416	249	187	214
417	246	185	213
418	249	191	217
419	252	196	221
420	247	193	219
421	243	191	219
422	241	193	221
423	240	195	222
424	243	203	226
425	249	213	231
426	244	207	227
427	242	204	224
428	246	210	228
429	247	215	230
430	246	220	232
431	0	0	0
432	0	0	0
433	0	0	0
434	0	0	0
435	239	224	235
436	242	211	232
437	240	197	231
438	253	208	242
439	250	199	232
440	251	198	230
441	247	190	224
442	245	187	223
443	248	188	225
444	255	193	230
445	252	185	224
446	252	184	223
447	255	187	226
448	255	194	230
449	252	183	220
450	247	175	213
451	255	190	225
452	255	182	221
453	245	164	213
454	252	173	220
455	252	174	217
456	251	176	215
457	255	191	223
458	255	188	221
459	249	177	216
460	251	181	219
461	255	189	223
462	254	189	221
463	254	192	220
464	249	189	218
465	246	187	219
466	249	193	224
467	247	193	223
468	241	189	219
469	245	197	225
470	246	201	228
471	246	204	231
472	249	211	235
473	247	212	232
474	238	204	224
475	244	213	231
476	252	221	237
477	250	219	234
478	252	224	238
479	248	221	237
480	0	0	0
481	0	0	0
482	0	0	0
483	244	235	239
484	247	224	236
485	246	210	234
486	254	211	239
487	252	204	235
488	248	197	230
489	242	188	223
490	243	188	223
491	247	189	226
492	252	187	227
493	250	180	224
494	253	184	226
495	255	186	228
496	248	175	220
497	241	165	212
498	249	176	219
499	255	190	227
500	251	173	217
501	240	156	209
502	248	165	217
503	248	167	215
504	255	181	221
505	255	195	228
506	255	182	219
507	245	170	214
508	250	179	221
509	254	188	226
510	255	190	226
511	254	191	224
512	247	187	221
513	243	185	223
514	243	188	226
515	240	187	223
516	241	193	225
517	246	202	231
518	248	206	233
519	248	207	234
520	245	208	232
521	242	208	229
522	242	213	230
523	248	221	236
524	249	220	236
525	248	218	235
526	246	216	234
527	0	0	0
528	0	0	0
529	0	0	0
530	0	0	0
531	248	237	240
532	248	224	235
533	245	208	230
534	254	210	237
535	247	196	230
536	240	189	225
537	240	189	225
538	242	190	226
539	245	188	227
540	252	187	229
541	251	180	226
542	254	183	229
543	255	187	230
544	249	176	222
545	252	179	225
546	255	190	231
547	255	190	229
548	252	174	219
549	244	159	214
550	251	169	223
551	254	174	223
552	255	187	230
553	254	178	221
554	243	165	211
555	247	173	218
556	252	182	225
557	255	196	235
558	255	199	235
559	252	189	225
560	243	184	222
561	243	188	229
562	242	190	231
563	242	194	230
564	244	200	232
565	246	204	234
566	249	208	236
567	245	204	232
568	238	203	227
569	246	217	234
570	250	224	237
571	247	220	234
572	244	217	232
573	246	221	237
574	0	0	0
575	0	0	0
576	0	0	0
577	0	0	0
578	252	246	246
579	254	242	245
580	251	225	238
581	246	208	232
582	248	202	233
583	240	188	226
584	239	189	227
585	240	191	229
586	242	189	230
587	246	187	232
588	250	184	231
589	247	176	226
590	250	180	227
591	253	183	229
592	254	185	228
593	255	188	228
594	255	185	225
595	255	185	225
596	246	169	216
597	238	156	213
598	248	167	224
599	251	172	224
600	246	166	218
601	238	157	211
602	243	167	217
603	248	175	222
604	255	188	229
605	255	202	238
606	254	192	230
607	244	181	221
608	240	184	223
609	240	189	230
610	241	194	234
611	241	197	233
612	242	199	232
613	244	203	234
614	244	203	233
615	239	199	228
616	0	0	0
617	247	224	237
618	245	220	232
619	0	0	0
620	243	219	233
621	0	0	0
622	0	0	0
623	0	0	0
624	0	0	0
625	254	251	249
626	254	245	246
627	254	235	242
628	248	218	235
629	247	209	235
630	247	201	235
631	241	193	231
632	240	194	233
633	244	197	236
634	251	198	239
635	248	187	235
636	247	181	231
637	250	184	231
638	253	187	232
639	255	190	234
640	255	192	234
641	255	190	230
642	255	188	227
643	252	184	224
644	239	166	215
645	246	175	227
646	255	188	238
647	253	179	230
648	246	172	224
649	243	168	222
650	251	179	229
651	255	187	232
652	255	200	238
653	255	195	233
654	242	182	222
655	244	190	227
656	244	194	232
657	237	189	231
658	238	194	234
659	0	0	0
660	0	0	0
661	248	209	237
662	246	207	235
663	0	0	0
664	0	0	0
665	0	0	0
666	0	0	0
667	0	0	0
668	0	0	0
669	0	0	0
670	0	0	0
671	0	0	0
672	0	0	0
673	0	0	0
674	246	234	239
675	244	224	235
676	242	213	232
677	242	205	233
678	244	202	237
679	239	194	233
680	239	196	235
681	242	197	235
682	243	189	232
683	240	179	229
684	247	185	233
685	250	188	232
686	254	192	234
687	255	196	239
688	255	193	236
689	255	191	232
690	253	187	228
691	250	183	227
692	250	187	231
693	255	194	239
694	255	188	236
695	249	179	230
696	246	177	228
697	243	174	227
698	253	186	235
699	255	194	237
700	250	188	230
701	243	183	224
702	242	189	227
703	245	197	233
704	240	193	232
705	234	188	231
706	0	0	0
707	0	0	0
708	0	0	0
709	0	0	0
710	0	0	0
711	0	0	0
712	0	0	0
713	0	0	0
714	0	0	0
715	0	0	0
716	0	0	0
717	0	0	0
718	0	0	0
719	0	0	0
720	0	0	0
721	0	0	0
722	0	0	0
723	0	0	0
724	0	0	0
725	0	0	0
726	248	215	243
727	245	208	241
728	247	210	244
729	239	197	235
730	234	187	230
731	241	190	236
732	249	198	241
733	247	190	233
734	255	196	237
735	254	192	237
736	250	188	234
737	255	197	237
738	253	192	233
739	247	184	229
740	249	188	233
741	253	194	237
742	249	186	233
743	253	191	236
744	250	189	235
745	246	184	233
746	255	197	243
747	252	195	238
748	241	186	227
749	247	199	233
750	251	207	239
751	245	201	236
752	0	0	0
753	0	0	0
754	0	0	0
755	0	0	0
756	0	0	0
757	0	0	0
758	0	0	0
759	0	0	0
760	0	0	0
761	0	0	0
762	0	0	0
763	0	0	0
764	0	0	0
765	0	0	0
766	0	0	0
767	0	0	0
768	0	0	0
769	0	0	0
770	0	0	0
771	0	0	0
772	0	0	0
773	251	231	244
774	250	225	243
775	247	217	241
776	240	206	237
777	232	194	233
778	235	196	238
779	238	198	240
780	237	192	236
781	236	186	231
782	242	186	232
783	241	181	229
784	246	189	233
785	252	198	238
786	244	188	230
787	238	179	226
788	242	186	231
789	245	191	233
790	248	194	235
791	251	198	236
792	246	192	233
793	242	187	233
794	246	192	238
795	242	191	233
796	243	199	235
797	248	211	239
798	240	203	232
799	0	0	0
800	0	0	0
801	0	0	0
802	0	0	0
803	0	0	0
804	0	0	0
805	0	0	0
806	0	0	0
807	0	0	0
808	0	0	0
809	0	0	0
810	0	0	0
811	0	0	0
812	0	0	0
813	0	0	0
814	0	0	0
815	0	0	0
816	0	0	0
817	0	0	0
818	0	0	0
819	0	0	0
820	252	233	241
821	249	226	238
822	240	215	233
823	241	216	238
824	235	206	235
825	235	206	240
826	236	207	243
827	235	206	242
828	230	199	236
829	238	205	240
830	245	206	242
831	240	194	236
832	250	205	243
833	252	208	244
834	241	196	235
835	240	195	236
836	246	202	241
837	244	200	238
838	245	202	238
839	245	203	236
840	241	198	234
841	241	198	238
842	241	201	241
843	241	204	240
844	247	216	245
845	242	213	238
846	0	0	0
847	0	0	0
848	0	0	0
849	0	0	0
850	0	0	0
851	0	0	0
852	0	0	0
853	0	0	0
854	0	0	0
855	0	0	0
856	0	0	0
857	0	0	0
858	0	0	0
859	0	0	0
860	0	0	0
861	0	0	0
862	0	0	0
863	0	0	0
864	0	0	0
865	0	0	0
866	0	0	0
867	0	0	0
868	0	0	0
869	241	219	233
870	237	217	234
871	238	218	240
872	239	218	242
873	237	216	243
874	233	214	242
875	232	213	242
876	233	215	242
877	238	219	242
878	236	209	236
879	232	199	234
880	241	206	241
881	242	209	241
882	236	205	238
883	236	204	239
884	238	206	241
885	237	204	239
886	238	206	238
887	239	207	238
888	239	207	238
889	238	207	240
890	239	211	243
891	239	214	243
892	240	216	243
893	0	0	0
894	0	0	0
895	0	0	0
896	0	0	0
897	0	0	0
898	0	0	0
899	0	0	0
900	0	0	0
901	0	0	0
902	0	0	0
903	0	0	0
904	0	0	0
905	0	0	0
906	0	0	0
907	0	0	0
908	0	0	0
909	0	0	0
910	0	0	0
911	0	0	0
912	0	0	0
