0.00 0.00 0.00
13.76 12.21 12.86
251.76 204.21 225.36
247.34 193.03 223.21
230.06 184.05 221.23
248.60 209.99 229.40
204.15 176.34 218.19
248.56 194.67 227.49
236.53 189.13 222.87
242.12 183.90 227.11
239.10 209.32 227.65
231.19 214.64 226.88
211.38 157.12 212.00
242.11 178.57 217.11
250.79 195.46 224.97
244.65 196.57 224.34
236.11 192.55 223.69
251.18 196.41 224.92
249.23 190.71 225.34
242.58 188.07 224.14
250.92 208.54 227.39
240.74 200.95 229.60
249.15 194.00 223.48
249.03 193.40 225.40
238.84 226.78 227.66
249.54 205.95 229.54
247.85 196.22 223.42
179.06 142.47 169.05
246.37 189.08 221.08
238.01 217.13 226.69
240.13 185.69 222.38
250.43 200.34 227.97
217.86 175.12 216.44
251.70 185.61 223.40
251.98 192.63 226.75
246.70 191.85 229.75
250.60 194.49 229.37
244.08 183.45 221.18
215.82 185.47 227.66
249.29 191.75 229.15
246.51 190.77 228.12
248.86 178.79 222.39
247.76 192.39 226.43
249.64 198.28 229.20
248.19 190.68 227.01
181.63 133.99 197.65
250.90 189.76 225.36
226.98 171.76 220.35
10.30 8.71 9.48
250.34 197.11 228.05
245.37 166.98 213.24
243.33 184.30 223.95
245.94 188.16 225.65
250.40 193.37 228.71
250.90 196.37 227.85
251.86 199.12 230.06
251.66 198.16 229.22
252.21 204.86 228.02
252.31 199.08 228.02
240.06 188.99 225.43
251.12 191.21 226.94
251.70 200.74 230.14
247.99 202.05 231.44
251.13 195.70 226.56
251.73 188.82 226.29
248.99 196.82 228.46
249.71 183.63 223.87
246.57 189.04 218.16
251.98 203.81 230.25
248.55 187.19 221.54
248.67 195.74 226.44
252.34 206.30 231.51
251.97 205.57 228.12
238.07 181.58 221.78
252.04 198.48 228.72
241.18 193.89 225.12
250.76 200.81 228.11
248.96 189.73 225.78
252.25 200.29 231.33
251.95 201.79 229.43
251.32 202.39 231.05
249.81 201.25 229.20
247.21 182.93 222.33
249.95 201.44 230.38
251.75 206.76 232.21
252.38 194.37 225.63
246.21 193.49 224.38
248.31 203.46 229.00
251.88 201.07 228.80
245.99 203.54 224.42
245.84 192.92 228.75
249.67 199.73 226.62
246.62 195.18 227.08
248.79 202.38 230.78
244.37 189.02 225.45
221.09 196.01 229.20
250.33 205.25 229.17
246.68 209.57 229.36
250.41 195.62 221.08
246.37 225.41 231.56
251.53 190.72 227.60
247.91 189.42 226.82
244.99 184.79 225.53
242.10 181.49 226.31
251.17 194.89 227.00
227.37 209.27 234.71
252.87 207.34 230.50
251.72 191.22 224.50
245.08 184.48 221.88
245.35 199.07 226.14
243.62 177.37 220.15
243.90 204.89 229.10
250.96 193.50 222.71
211.97 148.02 205.43
249.44 189.79 225.65
243.68 187.31 220.93
252.96 203.37 230.40
247.74 193.74 227.35
245.95 193.63 225.96
249.61 207.00 230.54
251.15 194.72 226.97
236.51 187.76 220.93
250.96 206.68 228.12
249.28 196.34 224.25
244.64 193.68 224.85
