 	R	G	B
1	0	0	0
2	0	0	0
3	0	0	0
4	0	0	0
5	0	0	0
6	0	0	0
7	0	0	0
8	0	0	0
9	255	238	237
10	255	234	234
11	255	237	237
12	0	0	0
13	0	0	0
14	0	0	0
15	0	0	0
16	0	0	0
17	0	0	0
18	0	0	0
19	0	0	0
20	0	0	0
21	0	0	0
22	0	0	0
23	0	0	0
24	0	0	0
25	0	0	0
26	0	0	0
27	0	0	0
28	0	0	0
29	0	0	0
30	0	0	0
31	0	0	0
32	0	0	0
33	0	0	0
34	0	0	0
35	0	0	0
36	0	0	0
37	0	0	0
38	0	0	0
39	0	0	0
40	0	0	0
41	0	0	0
42	0	0	0
43	0	0	0
44	0	0	0
45	0	0	0
46	0	0	0
47	0	0	0
48	0	0	0
49	0	0	0
50	0	0	0
51	0	0	0
52	0	0	0
53	0	0	0
54	0	0	0
55	0	0	0
56	0	0	0
57	0	0	0
58	0	0	0
59	0	0	0
60	0	0	0
61	0	0	0
62	255	227	229
63	255	227	230
64	252	214	222
65	255	217	225
66	253	215	226
67	0	0	0
68	0	0	0
69	0	0	0
70	0	0	0
71	0	0	0
72	0	0	0
73	0	0	0
74	0	0	0
75	0	0	0
76	0	0	0
77	0	0	0
78	0	0	0
79	0	0	0
80	0	0	0
81	0	0	0
82	0	0	0
83	0	0	0
84	0	0	0
85	0	0	0
86	0	0	0
87	0	0	0
88	0	0	0
89	0	0	0
90	0	0	0
91	0	0	0
92	0	0	0
93	0	0	0
94	0	0	0
95	0	0	0
96	0	0	0
97	0	0	0
98	0	0	0
99	0	0	0
100	0	0	0
101	0	0	0
102	0	0	0
103	0	0	0
104	0	0	0
105	0	0	0
106	0	0	0
107	0	0	0
108	0	0	0
109	0	0	0
110	255	221	229
111	255	224	231
112	255	223	228
113	0	0	0
114	0	0	0
115	0	0	0
116	255	219	225
117	251	208	219
118	244	195	211
119	246	197	215
120	244	194	213
121	251	205	221
122	0	0	0
123	0	0	0
124	0	0	0
125	0	0	0
126	0	0	0
127	0	0	0
128	0	0	0
129	0	0	0
130	0	0	0
131	0	0	0
132	0	0	0
133	0	0	0
134	0	0	0
135	0	0	0
136	0	0	0
137	0	0	0
138	0	0	0
139	0	0	0
140	0	0	0
141	0	0	0
142	0	0	0
143	0	0	0
144	0	0	0
145	0	0	0
146	0	0	0
147	0	0	0
148	0	0	0
149	0	0	0
150	0	0	0
151	0	0	0
152	0	0	0
153	0	0	0
154	0	0	0
155	0	0	0
156	0	0	0
157	0	0	0
158	0	0	0
159	0	0	0
160	0	0	0
161	0	0	0
162	0	0	0
163	255	223	230
164	248	204	221
165	252	208	225
166	253	208	225
167	254	209	225
168	0	0	0
169	0	0	0
170	255	213	226
171	253	201	219
172	248	192	215
173	250	194	217
174	249	194	216
175	255	204	223
176	252	202	222
177	0	0	0
178	0	0	0
179	0	0	0
180	0	0	0
181	0	0	0
182	0	0	0
183	0	0	0
184	0	0	0
185	0	0	0
186	0	0	0
187	0	0	0
188	0	0	0
189	0	0	0
190	0	0	0
191	0	0	0
192	0	0	0
193	0	0	0
194	0	0	0
195	0	0	0
196	0	0	0
197	0	0	0
198	0	0	0
199	0	0	0
200	0	0	0
201	0	0	0
202	0	0	0
203	0	0	0
204	0	0	0
205	0	0	0
206	0	0	0
207	0	0	0
208	0	0	0
209	0	0	0
210	0	0	0
211	0	0	0
212	0	0	0
213	0	0	0
214	0	0	0
215	0	0	0
216	0	0	0
217	0	0	0
218	235	182	212
219	242	188	219
220	243	187	219
221	244	188	219
222	243	186	216
223	251	195	222
224	255	206	229
225	253	195	221
226	248	186	215
227	251	190	218
228	250	190	216
229	251	192	218
230	248	191	219
231	255	214	233
232	255	234	242
233	255	228	234
234	0	0	0
235	0	0	0
236	0	0	0
237	0	0	0
238	0	0	0
239	0	0	0
240	0	0	0
241	0	0	0
242	0	0	0
243	0	0	0
244	0	0	0
245	0	0	0
246	0	0	0
247	0	0	0
248	0	0	0
249	0	0	0
250	0	0	0
251	0	0	0
252	0	0	0
253	0	0	0
254	0	0	0
255	0	0	0
256	0	0	0
257	0	0	0
258	0	0	0
259	0	0	0
260	0	0	0
261	0	0	0
262	0	0	0
263	0	0	0
264	0	0	0
265	0	0	0
266	0	0	0
267	0	0	0
268	0	0	0
269	0	0	0
270	0	0	0
271	0	0	0
272	250	200	228
273	255	206	237
274	249	192	227
275	251	193	229
276	252	192	228
277	255	201	233
278	255	194	228
279	248	183	219
280	251	185	220
281	254	189	222
282	251	186	218
283	252	188	219
284	250	188	221
285	255	211	235
286	255	208	227
287	251	202	220
288	254	208	224
289	0	0	0
290	0	0	0
291	0	0	0
292	0	0	0
293	0	0	0
294	0	0	0
295	0	0	0
296	0	0	0
297	0	0	0
298	0	0	0
299	0	0	0
300	0	0	0
301	0	0	0
302	0	0	0
303	0	0	0
304	0	0	0
305	0	0	0
306	0	0	0
307	0	0	0
308	0	0	0
309	0	0	0
310	0	0	0
311	0	0	0
312	0	0	0
313	0	0	0
314	0	0	0
315	0	0	0
316	0	0	0
317	0	0	0
318	0	0	0
319	0	0	0
320	0	0	0
321	0	0	0
322	0	0	0
323	0	0	0
324	0	0	0
325	0	0	0
326	0	0	0
327	251	197	229
328	244	184	223
329	249	188	228
330	249	187	226
331	247	182	222
332	244	176	219
333	248	180	222
334	251	181	223
335	251	181	221
336	247	177	216
337	248	180	217
338	247	180	218
339	248	183	220
340	244	181	214
341	247	188	217
342	249	193	219
343	0	0	0
344	0	0	0
345	255	222	232
346	255	230	237
347	255	238	241
348	0	0	0
349	0	0	0
350	0	0	0
351	0	0	0
352	0	0	0
353	0	0	0
354	0	0	0
355	0	0	0
356	0	0	0
357	0	0	0
358	0	0	0
359	0	0	0
360	0	0	0
361	0	0	0
362	0	0	0
363	0	0	0
364	0	0	0
365	0	0	0
366	0	0	0
367	0	0	0
368	0	0	0
369	0	0	0
370	0	0	0
371	0	0	0
372	0	0	0
373	0	0	0
374	0	0	0
375	0	0	0
376	0	0	0
377	0	0	0
378	0	0	0
379	0	0	0
380	0	0	0
381	0	0	0
382	253	198	233
383	255	203	238
384	252	190	229
385	250	185	227
386	254	188	231
387	255	192	235
388	249	177	224
389	249	177	222
390	254	184	223
391	255	187	224
392	255	188	226
393	255	192	228
394	251	185	222
395	254	192	225
396	251	191	221
397	0	0	0
398	255	211	228
399	255	218	231
400	250	205	221
401	253	213	224
402	255	226	229
403	0	0	0
404	0	0	0
405	0	0	0
406	0	0	0
407	0	0	0
408	0	0	0
409	0	0	0
410	0	0	0
411	0	0	0
412	0	0	0
413	0	0	0
414	0	0	0
415	0	0	0
416	0	0	0
417	0	0	0
418	0	0	0
419	0	0	0
420	0	0	0
421	0	0	0
422	0	0	0
423	0	0	0
424	0	0	0
425	0	0	0
426	0	0	0
427	0	0	0
428	0	0	0
429	0	0	0
430	0	0	0
431	0	0	0
432	0	0	0
433	0	0	0
434	0	0	0
435	0	0	0
436	255	207	236
437	254	198	231
438	248	186	225
439	253	190	230
440	255	192	235
441	251	181	229
442	242	167	220
443	252	180	227
444	255	186	225
445	255	189	224
446	255	191	226
447	255	187	224
448	251	181	219
449	252	185	221
450	249	184	218
451	255	196	224
452	255	206	226
453	249	195	216
454	238	182	208
455	246	198	218
456	251	211	224
457	0	0	0
458	0	0	0
459	0	0	0
460	0	0	0
461	0	0	0
462	0	0	0
463	0	0	0
464	0	0	0
465	0	0	0
466	0	0	0
467	0	0	0
468	0	0	0
469	0	0	0
470	0	0	0
471	0	0	0
472	0	0	0
473	0	0	0
474	0	0	0
475	0	0	0
476	0	0	0
477	0	0	0
478	0	0	0
479	0	0	0
480	0	0	0
481	0	0	0
482	0	0	0
483	0	0	0
484	0	0	0
485	0	0	0
486	0	0	0
487	0	0	0
488	0	0	0
489	255	218	243
490	255	206	234
491	251	197	228
492	251	193	228
493	255	198	234
494	255	196	235
495	252	185	230
496	252	182	231
497	255	195	238
498	252	180	223
499	254	183	222
500	255	184	223
501	252	180	220
502	250	178	218
503	253	183	220
504	252	184	220
505	255	196	226
506	255	197	222
507	247	186	213
508	246	189	216
509	254	204	225
510	254	212	225
511	0	0	0
512	0	0	0
513	0	0	0
514	0	0	0
515	0	0	0
516	0	0	0
517	0	0	0
518	0	0	0
519	0	0	0
520	0	0	0
521	0	0	0
522	0	0	0
523	0	0	0
524	0	0	0
525	0	0	0
526	0	0	0
527	0	0	0
528	0	0	0
529	0	0	0
530	0	0	0
531	0	0	0
532	0	0	0
533	0	0	0
534	0	0	0
535	0	0	0
536	0	0	0
537	0	0	0
538	0	0	0
539	0	0	0
540	0	0	0
541	0	0	0
542	0	0	0
543	0	0	0
544	250	204	230
545	254	203	232
546	254	200	231
547	255	199	232
548	255	197	232
549	255	194	233
550	255	192	234
551	253	183	229
552	244	170	219
553	248	174	221
554	249	174	221
555	250	175	219
556	247	172	215
557	250	177	217
558	250	179	217
559	251	182	218
560	250	184	217
561	252	189	219
562	252	192	221
563	255	206	227
564	255	212	223
565	255	230	231
566	0	0	0
567	0	0	0
568	0	0	0
569	0	0	0
570	0	0	0
571	0	0	0
572	0	0	0
573	0	0	0
574	0	0	0
575	0	0	0
576	0	0	0
577	0	0	0
578	0	0	0
579	0	0	0
580	0	0	0
581	0	0	0
582	0	0	0
583	0	0	0
584	0	0	0
585	0	0	0
586	0	0	0
587	0	0	0
588	0	0	0
589	0	0	0
590	0	0	0
591	0	0	0
592	0	0	0
593	0	0	0
594	0	0	0
595	0	0	0
596	0	0	0
597	0	0	0
598	253	211	234
599	255	211	237
600	252	200	230
601	254	200	230
602	255	197	230
603	255	195	230
604	255	194	233
605	253	186	229
606	253	183	228
607	255	187	232
608	253	179	227
609	253	180	225
610	251	177	220
611	255	182	222
612	253	181	221
613	255	185	222
614	254	186	221
615	255	192	224
616	255	193	223
617	255	207	228
618	249	196	213
619	255	214	221
620	255	230	229
621	0	0	0
622	0	0	0
623	0	0	0
624	0	0	0
625	0	0	0
626	0	0	0
627	0	0	0
628	0	0	0
629	0	0	0
630	0	0	0
631	0	0	0
632	0	0	0
633	0	0	0
634	0	0	0
635	0	0	0
636	0	0	0
637	0	0	0
638	0	0	0
639	0	0	0
640	0	0	0
641	0	0	0
642	0	0	0
643	0	0	0
644	0	0	0
645	0	0	0
646	0	0	0
647	0	0	0
648	0	0	0
649	0	0	0
650	0	0	0
651	0	0	0
652	0	0	0
653	255	211	236
654	251	201	231
655	254	201	232
656	254	199	230
657	255	199	231
658	255	198	234
659	255	195	233
660	255	190	230
661	254	184	227
662	250	177	225
663	253	180	228
664	253	179	226
665	255	182	227
666	255	181	224
667	255	186	224
668	255	187	222
669	255	192	224
670	255	194	225
671	255	195	224
672	247	186	213
673	255	203	219
674	255	217	222
675	255	222	222
676	0	0	0
677	0	0	0
678	0	0	0
679	0	0	0
680	0	0	0
681	0	0	0
682	0	0	0
683	0	0	0
684	0	0	0
685	0	0	0
686	0	0	0
687	0	0	0
688	0	0	0
689	0	0	0
690	0	0	0
691	0	0	0
692	0	0	0
693	0	0	0
694	0	0	0
695	0	0	0
696	0	0	0
697	0	0	0
698	0	0	0
699	0	0	0
700	0	0	0
701	0	0	0
702	0	0	0
703	0	0	0
704	0	0	0
705	0	0	0
706	0	0	0
707	0	0	0
708	255	210	235
709	255	210	237
710	253	199	228
711	255	199	230
712	254	193	229
713	253	190	228
714	255	194	231
715	254	188	228
716	254	185	229
717	255	189	233
718	255	184	231
719	255	189	234
720	250	173	221
721	253	178	222
722	255	182	221
723	255	187	223
724	251	176	217
725	250	178	217
726	244	174	210
727	252	191	217
728	255	205	219
729	255	211	218
730	255	222	225
731	0	0	0
732	0	0	0
733	0	0	0
734	0	0	0
735	0	0	0
736	0	0	0
737	0	0	0
738	0	0	0
739	0	0	0
740	0	0	0
741	0	0	0
742	0	0	0
743	0	0	0
744	0	0	0
745	0	0	0
746	0	0	0
747	0	0	0
748	0	0	0
749	0	0	0
750	0	0	0
751	0	0	0
752	0	0	0
753	0	0	0
754	0	0	0
755	0	0	0
756	0	0	0
757	0	0	0
758	0	0	0
759	0	0	0
760	0	0	0
761	0	0	0
762	255	215	236
763	253	206	230
764	248	195	222
765	251	195	224
766	250	190	225
767	255	197	233
768	255	201	237
769	255	197	235
770	255	194	233
771	255	190	231
772	255	185	230
773	251	175	225
774	242	161	217
775	249	169	222
776	251	173	220
777	244	164	212
778	237	153	206
779	241	159	209
780	235	156	202
781	248	178	213
782	254	194	217
783	255	202	219
784	255	212	223
785	255	221	225
786	0	0	0
787	0	0	0
788	0	0	0
789	0	0	0
790	0	0	0
791	0	0	0
792	0	0	0
793	0	0	0
794	0	0	0
795	0	0	0
796	0	0	0
797	0	0	0
798	0	0	0
799	0	0	0
800	0	0	0
801	0	0	0
802	0	0	0
803	0	0	0
804	0	0	0
805	0	0	0
806	0	0	0
807	0	0	0
808	0	0	0
809	0	0	0
810	0	0	0
811	0	0	0
812	0	0	0
813	0	0	0
814	0	0	0
815	0	0	0
816	255	223	240
817	255	215	235
818	250	200	226
819	253	200	228
820	249	190	226
821	255	196	233
822	255	193	232
823	254	189	229
824	255	192	230
825	255	188	228
826	255	186	229
827	252	176	225
828	248	169	224
829	255	178	231
830	255	180	229
831	252	172	221
832	249	167	219
833	254	174	223
834	246	166	214
835	255	189	227
836	255	187	220
837	255	196	220
838	255	202	220
839	255	211	221
840	255	211	215
841	0	0	0
842	0	0	0
843	0	0	0
844	0	0	0
845	0	0	0
846	0	0	0
847	0	0	0
848	0	0	0
849	0	0	0
850	0	0	0
851	0	0	0
852	0	0	0
853	0	0	0
854	0	0	0
855	0	0	0
856	0	0	0
857	0	0	0
858	0	0	0
859	0	0	0
860	0	0	0
861	0	0	0
862	0	0	0
863	0	0	0
864	0	0	0
865	0	0	0
866	0	0	0
867	0	0	0
868	0	0	0
869	0	0	0
870	0	0	0
871	255	216	237
872	249	202	230
873	248	195	228
874	244	185	224
875	249	187	227
876	248	183	224
877	254	190	228
878	255	193	230
879	255	189	228
880	255	187	230
881	254	180	228
882	251	173	224
883	255	178	228
884	255	182	230
885	255	178	226
886	253	173	220
887	254	174	221
888	250	169	220
889	254	177	224
890	249	175	215
891	254	185	216
892	255	192	215
893	254	194	212
894	251	194	209
895	255	206	216
896	0	0	0
897	0	0	0
898	0	0	0
899	0	0	0
900	0	0	0
901	0	0	0
902	0	0	0
903	0	0	0
904	0	0	0
905	0	0	0
906	0	0	0
907	0	0	0
908	0	0	0
909	0	0	0
910	0	0	0
911	0	0	0
912	0	0	0
913	0	0	0
914	0	0	0
915	0	0	0
916	0	0	0
917	0	0	0
918	0	0	0
919	0	0	0
920	0	0	0
921	0	0	0
922	0	0	0
923	0	0	0
924	0	0	0
925	0	0	0
926	0	0	0
927	0	0	0
928	255	204	237
929	255	206	240
930	248	184	226
931	255	191	231
932	255	189	228
933	254	185	226
934	253	181	228
935	249	174	225
936	255	182	228
937	255	186	231
938	255	182	230
939	255	179	227
940	252	172	219
941	254	173	220
942	255	173	224
943	255	182	230
944	250	170	216
945	255	181	219
946	254	181	214
947	254	184	213
948	249	181	209
949	254	193	215
950	255	202	218
951	0	0	0
952	0	0	0
953	0	0	0
954	253	218	220
955	0	0	0
956	255	236	233
957	0	0	0
958	0	0	0
959	0	0	0
960	0	0	0
961	0	0	0
962	0	0	0
963	0	0	0
964	0	0	0
965	0	0	0
966	0	0	0
967	0	0	0
968	0	0	0
969	0	0	0
970	0	0	0
971	0	0	0
972	0	0	0
973	0	0	0
974	0	0	0
975	0	0	0
976	0	0	0
977	0	0	0
978	0	0	0
979	0	0	0
980	0	0	0
981	0	0	0
982	255	218	242
983	255	201	235
984	244	180	225
985	251	186	231
986	252	184	227
987	250	179	225
988	249	176	229
989	255	185	235
990	255	191	233
991	255	184	227
992	255	181	228
993	255	178	227
994	253	171	220
995	255	174	222
996	255	174	222
997	253	168	219
998	245	158	210
999	250	165	213
1000	249	166	211
1001	250	169	212
1002	246	167	211
1003	251	179	217
1004	252	187	217
1005	252	193	218
1006	255	203	225
1007	255	208	225
1008	255	214	221
1009	255	224	225
1010	255	240	237
1011	255	239	237
1012	0	0	0
1013	0	0	0
1014	0	0	0
1015	0	0	0
1016	0	0	0
1017	0	0	0
1018	0	0	0
1019	0	0	0
1020	0	0	0
1021	0	0	0
1022	0	0	0
1023	0	0	0
1024	0	0	0
1025	0	0	0
1026	0	0	0
1027	0	0	0
1028	0	0	0
1029	0	0	0
1030	0	0	0
1031	0	0	0
1032	0	0	0
1033	0	0	0
1034	0	0	0
1035	0	0	0
1036	255	221	241
1037	255	205	236
1038	246	185	229
1039	254	191	236
1040	254	190	232
1041	253	185	229
1042	252	182	233
1043	255	191	239
1044	255	190	232
1045	255	183	226
1046	255	185	230
1047	255	182	230
1048	249	164	216
1049	253	168	219
1050	254	167	219
1051	251	163	216
1052	254	165	218
1053	255	173	223
1054	251	161	213
1055	252	165	216
1056	247	161	214
1057	253	173	220
1058	255	183	221
1059	255	189	221
1060	255	195	224
1061	255	200	223
1062	253	203	218
1063	255	213	221
1064	255	222	227
1065	255	221	225
1066	255	228	230
1067	0	0	0
1068	0	0	0
1069	0	0	0
1070	0	0	0
1071	0	0	0
1072	0	0	0
1073	0	0	0
1074	0	0	0
1075	0	0	0
1076	0	0	0
1077	0	0	0
1078	0	0	0
1079	0	0	0
1080	0	0	0
1081	0	0	0
1082	0	0	0
1083	0	0	0
1084	0	0	0
1085	0	0	0
1086	0	0	0
1087	0	0	0
1088	0	0	0
1089	0	0	0
1090	255	225	243
1091	253	206	234
1092	244	186	226
1093	252	191	232
1094	253	190	229
1095	254	188	230
1096	253	185	231
1097	255	188	234
1098	255	189	232
1099	255	186	228
1100	255	186	230
1101	251	171	221
1102	242	154	210
1103	248	160	216
1104	250	160	218
1105	255	165	221
1106	255	168	222
1107	254	160	217
1108	245	149	209
1109	246	151	210
1110	241	146	206
1111	250	162	215
1112	253	173	217
1113	252	178	217
1114	252	183	218
1115	250	187	216
1116	249	192	214
1117	250	199	215
1118	252	206	219
1119	254	213	222
1120	255	218	225
1121	0	0	0
1122	0	0	0
1123	0	0	0
1124	0	0	0
1125	0	0	0
1126	0	0	0
1127	0	0	0
1128	0	0	0
1129	0	0	0
1130	0	0	0
1131	0	0	0
1132	0	0	0
1133	0	0	0
1134	0	0	0
1135	0	0	0
1136	0	0	0
1137	0	0	0
1138	0	0	0
1139	0	0	0
1140	0	0	0
1141	0	0	0
1142	0	0	0
1143	0	0	0
1144	255	225	242
1145	250	205	232
1146	249	197	232
1147	255	202	238
1148	253	193	231
1149	254	192	231
1150	252	186	230
1151	255	190	233
1152	255	192	233
1153	255	189	230
1154	255	187	231
1155	252	172	222
1156	252	168	221
1157	255	174	227
1158	253	162	221
1159	255	167	224
1160	255	163	220
1161	252	156	215
1162	247	148	211
1163	249	150	213
1164	250	155	214
1165	255	171	223
1166	251	164	214
1167	251	170	215
1168	253	179	218
1169	251	183	217
1170	255	199	223
1171	255	206	225
1172	253	201	220
1173	255	207	222
1174	249	204	217
1175	0	0	0
1176	0	0	0
1177	0	0	0
1178	0	0	0
1179	0	0	0
1180	0	0	0
1181	0	0	0
1182	0	0	0
1183	0	0	0
1184	0	0	0
1185	0	0	0
1186	0	0	0
1187	0	0	0
1188	0	0	0
1189	0	0	0
1190	0	0	0
1191	0	0	0
1192	0	0	0
1193	0	0	0
1194	0	0	0
1195	0	0	0
1196	0	0	0
1197	0	0	0
1198	0	0	0
1199	253	214	238
1200	252	205	236
1201	253	202	236
1202	251	195	232
1203	253	193	233
1204	250	186	229
1205	255	191	232
1206	255	193	232
1207	255	190	230
1208	255	189	233
1209	255	185	232
1210	255	180	229
1211	255	170	224
1212	250	158	217
1213	252	158	218
1214	250	153	212
1215	248	148	209
1216	244	142	209
1217	251	151	216
1218	252	156	215
1219	250	155	212
1220	242	149	205
1221	247	162	213
1222	251	172	218
1223	255	186	224
1224	255	201	228
1225	255	195	220
1226	249	191	216
1227	248	193	216
1228	242	190	212
1229	255	215	226
1230	0	0	0
1231	0	0	0
1232	0	0	0
1233	0	0	0
1234	0	0	0
1235	0	0	0
1236	0	0	0
1237	0	0	0
1238	0	0	0
1239	0	0	0
1240	0	0	0
1241	0	0	0
1242	0	0	0
1243	0	0	0
1244	0	0	0
1245	0	0	0
1246	0	0	0
1247	0	0	0
1248	0	0	0
1249	0	0	0
1250	0	0	0
1251	0	0	0
1252	0	0	0
1253	0	0	0
1254	255	215	239
1255	255	211	239
1256	255	203	237
1257	255	203	239
1258	249	187	228
1259	255	192	231
1260	255	195	232
1261	255	192	230
1262	255	183	228
1263	255	179	227
1264	254	172	223
1265	250	162	217
1266	255	165	221
1267	255	164	222
1268	249	150	210
1269	247	145	209
1270	251	150	216
1271	255	159	222
1272	255	159	218
1273	253	159	215
1274	247	153	211
1275	253	166	219
1276	255	176	224
1277	255	190	229
1278	255	197	227
1279	255	191	219
1280	250	187	215
1281	249	190	216
1282	250	197	219
1283	255	221	233
1284	255	225	231
1285	0	0	0
1286	0	0	0
1287	0	0	0
1288	0	0	0
1289	0	0	0
1290	0	0	0
1291	0	0	0
1292	0	0	0
1293	0	0	0
1294	0	0	0
1295	0	0	0
1296	0	0	0
1297	0	0	0
1298	0	0	0
1299	0	0	0
1300	0	0	0
1301	0	0	0
1302	0	0	0
1303	0	0	0
1304	0	0	0
1305	0	0	0
1306	0	0	0
1307	0	0	0
1308	0	0	0
1309	255	215	238
1310	254	208	237
1311	252	198	234
1312	245	184	225
1313	253	191	231
1314	255	195	231
1315	254	185	224
1316	251	176	221
1317	250	170	220
1318	249	164	218
1319	253	166	220
1320	255	168	220
1321	252	157	215
1322	245	144	210
1323	253	153	219
1324	255	157	221
1325	255	160	223
1326	255	160	220
1327	254	158	218
1328	248	154	215
1329	255	167	222
1330	255	176	224
1331	255	182	223
1332	255	190	223
1333	252	184	215
1334	248	181	212
1335	254	193	219
1336	255	201	224
1337	255	208	226
1338	254	211	225
1339	255	220	228
1340	0	0	0
1341	0	0	0
1342	0	0	0
1343	0	0	0
1344	0	0	0
1345	0	0	0
1346	0	0	0
1347	0	0	0
1348	0	0	0
1349	0	0	0
1350	0	0	0
1351	0	0	0
1352	0	0	0
1353	0	0	0
1354	0	0	0
1355	0	0	0
1356	0	0	0
1357	0	0	0
1358	0	0	0
1359	0	0	0
1360	0	0	0
1361	0	0	0
1362	0	0	0
1363	0	0	0
1364	255	220	241
1365	255	210	239
1366	247	190	228
1367	255	199	236
1368	255	195	231
1369	254	185	225
1370	249	174	221
1371	249	169	220
1372	255	173	225
1373	255	175	227
1374	255	166	220
1375	250	156	215
1376	249	150	217
1377	255	159	226
1378	255	155	221
1379	255	158	222
1380	250	151	216
1381	248	150	213
1382	254	162	221
1383	255	175	228
1384	252	168	220
1385	253	174	220
1386	254	181	220
1387	248	176	213
1388	250	182	216
1389	255	195	224
1390	251	191	219
1391	252	198	221
1392	255	211	227
1393	255	220	229
1394	255	224	229
1395	0	0	0
1396	0	0	0
1397	0	0	0
1398	0	0	0
1399	0	0	0
1400	0	0	0
1401	0	0	0
1402	0	0	0
1403	0	0	0
1404	0	0	0
1405	0	0	0
1406	0	0	0
1407	0	0	0
1408	0	0	0
1409	0	0	0
1410	0	0	0
1411	0	0	0
1412	0	0	0
1413	0	0	0
1414	0	0	0
1415	0	0	0
1416	0	0	0
1417	0	0	0
1418	255	231	245
1419	255	212	235
1420	247	193	228
1421	253	195	233
1422	253	191	229
1423	249	180	223
1424	245	170	221
1425	252	175	227
1426	255	178	228
1427	254	170	223
1428	252	164	221
1429	253	160	222
1430	251	154	221
1431	255	156	224
1432	252	152	220
1433	250	149	216
1434	244	142	211
1435	251	154	218
1436	255	165	222
1437	249	160	217
1438	240	153	211
1439	239	157	211
1440	242	165	214
1441	241	169	214
1442	245	176	216
1443	247	180	217
1444	241	175	210
1445	252	194	220
1446	255	208	225
1447	255	212	223
1448	255	216	224
1449	255	226	229
1450	0	0	0
1451	0	0	0
1452	0	0	0
1453	0	0	0
1454	0	0	0
1455	0	0	0
1456	0	0	0
1457	0	0	0
1458	0	0	0
1459	0	0	0
1460	0	0	0
1461	0	0	0
1462	0	0	0
1463	0	0	0
1464	0	0	0
1465	0	0	0
1466	0	0	0
1467	0	0	0
1468	0	0	0
1469	0	0	0
1470	0	0	0
1471	0	0	0
1472	255	231	242
1473	252	211	232
1474	251	203	233
1475	255	204	238
1476	253	195	231
1477	250	184	226
1478	252	183	231
1479	255	188	236
1480	255	182	230
1481	254	174	226
1482	254	168	226
1483	255	165	228
1484	252	156	224
1485	255	158	228
1486	248	147	219
1487	246	144	216
1488	248	149	219
1489	255	162	224
1490	255	170	225
1491	251	164	218
1492	246	163	217
1493	244	168	218
1494	255	203	240
1495	255	207	240
1496	255	198	232
1497	255	203	233
1498	244	178	214
1499	255	198	225
1500	255	201	222
1501	254	204	220
1502	255	210	223
1503	255	220	227
1504	255	224	228
1505	0	0	0
1506	0	0	0
1507	0	0	0
1508	0	0	0
1509	0	0	0
1510	0	0	0
1511	0	0	0
1512	0	0	0
1513	0	0	0
1514	0	0	0
1515	0	0	0
1516	0	0	0
1517	0	0	0
1518	0	0	0
1519	0	0	0
1520	0	0	0
1521	0	0	0
1522	0	0	0
1523	0	0	0
1524	0	0	0
1525	0	0	0
1526	255	233	244
1527	254	220	238
1528	253	210	236
1529	252	203	234
1530	250	194	228
1531	253	194	230
1532	255	192	234
1533	255	188	235
1534	255	183	232
1535	254	177	230
1536	253	170	226
1537	251	162	224
1538	248	154	224
1539	247	149	224
1540	240	138	216
1541	248	149	223
1542	251	154	225
1543	255	166	229
1544	255	174	226
1545	255	174	222
1546	250	173	220
1547	255	202	237
1548	255	236	255
1549	255	219	239
1550	255	211	232
1551	255	195	224
1552	240	173	211
1553	250	186	220
1554	249	190	217
1555	255	200	222
1556	255	207	225
1557	255	212	227
1558	255	215	224
1559	0	0	0
1560	0	0	0
1561	0	0	0
1562	0	0	0
1563	0	0	0
1564	0	0	0
1565	0	0	0
1566	0	0	0
1567	0	0	0
1568	0	0	0
1569	0	0	0
1570	0	0	0
1571	0	0	0
1572	0	0	0
1573	0	0	0
1574	0	0	0
1575	0	0	0
1576	0	0	0
1577	0	0	0
1578	0	0	0
1579	0	0	0
1580	255	239	247
1581	255	226	240
1582	255	219	239
1583	254	212	236
1584	252	202	231
1585	255	202	234
1586	254	196	234
1587	255	192	235
1588	255	190	236
1589	255	184	234
1590	250	170	225
1591	249	163	223
1592	254	165	231
1593	253	161	231
1594	249	153	226
1595	255	165	234
1596	253	160	228
1597	255	171	231
1598	251	166	220
1599	247	165	215
1600	246	171	218
1601	255	201	233
1602	255	226	243
1603	255	209	227
1604	255	204	224
1605	251	190	218
1606	248	183	218
1607	255	198	229
1608	255	194	223
1609	255	205	228
1610	249	190	218
1611	250	195	219
1612	249	200	218
1613	0	0	0
1614	0	0	0
1615	0	0	0
1616	0	0	0
1617	0	0	0
1618	0	0	0
1619	0	0	0
1620	0	0	0
1621	0	0	0
1622	0	0	0
1623	0	0	0
1624	0	0	0
1625	0	0	0
1626	0	0	0
1627	0	0	0
1628	0	0	0
1629	0	0	0
1630	0	0	0
1631	0	0	0
1632	0	0	0
1633	0	0	0
1634	0	0	0
1635	255	233	241
1636	255	227	241
1637	255	219	238
1638	252	209	233
1639	252	203	232
1640	251	197	232
1641	251	193	232
1642	254	191	234
1643	249	180	228
1644	244	167	221
1645	252	172	227
1646	255	173	233
1647	255	170	233
1648	252	164	229
1649	255	165	230
1650	249	159	224
1651	248	160	221
1652	242	157	215
1653	245	166	218
1654	244	173	219
1655	255	195	228
1656	255	221	237
1657	255	206	223
1658	255	202	224
1659	255	198	226
1660	253	191	224
1661	255	194	226
1662	254	191	220
1663	246	180	212
1664	234	166	202
1665	241	179	210
1666	242	186	213
1667	253	208	224
1668	0	0	0
1669	0	0	0
1670	0	0	0
1671	0	0	0
1672	0	0	0
1673	0	0	0
1674	0	0	0
1675	0	0	0
1676	0	0	0
1677	0	0	0
1678	0	0	0
1679	0	0	0
1680	0	0	0
1681	0	0	0
1682	0	0	0
1683	0	0	0
1684	0	0	0
1685	0	0	0
1686	0	0	0
1687	0	0	0
1688	0	0	0
1689	0	0	0
1690	0	0	0
1691	0	0	0
1692	0	0	0
1693	0	0	0
1694	0	0	0
1695	0	0	0
1696	0	0	0
1697	0	0	0
1698	251	182	229
1699	255	187	235
1700	252	174	229
1701	252	171	230
1702	254	170	231
1703	255	172	233
1704	245	158	221
1705	244	159	220
1706	251	173	226
1707	255	184	230
1708	253	189	229
1709	255	212	238
1710	255	223	238
1711	255	209	225
1712	255	200	224
1713	255	197	225
1714	253	190	224
1715	255	193	227
1716	252	187	220
1717	245	177	213
1718	246	180	216
1719	254	194	225
1720	251	194	223
1721	255	216	233
1722	255	219	226
1723	0	0	0
1724	0	0	0
1725	0	0	0
1726	255	238	239
1727	0	0	0
1728	0	0	0
1729	0	0	0
1730	0	0	0
1731	0	0	0
1732	0	0	0
1733	0	0	0
1734	0	0	0
1735	0	0	0
1736	0	0	0
1737	0	0	0
1738	0	0	0
1739	0	0	0
1740	0	0	0
1741	0	0	0
1742	0	0	0
1743	0	0	0
1744	0	0	0
1745	0	0	0
1746	0	0	0
1747	0	0	0
1748	0	0	0
1749	0	0	0
1750	0	0	0
1751	0	0	0
1752	0	0	0
1753	251	185	229
1754	246	172	226
1755	251	175	231
1756	252	175	232
1757	248	167	228
1758	238	153	218
1759	250	173	229
1760	255	187	235
1761	255	195	236
1762	255	200	233
1763	255	210	234
1764	255	223	236
1765	255	208	224
1766	255	200	222
1767	255	195	225
1768	253	189	226
1769	252	186	226
1770	249	181	221
1771	253	187	226
1772	254	190	229
1773	255	197	232
1774	253	197	227
1775	255	204	225
1776	253	208	220
1777	255	218	223
1778	255	231	234
1779	255	234	237
1780	255	241	243
1781	255	239	241
1782	0	0	0
1783	0	0	0
1784	0	0	0
1785	0	0	0
1786	0	0	0
1787	0	0	0
1788	0	0	0
1789	0	0	0
1790	0	0	0
1791	0	0	0
1792	0	0	0
1793	0	0	0
1794	0	0	0
1795	0	0	0
1796	0	0	0
1797	0	0	0
1798	0	0	0
1799	0	0	0
1800	0	0	0
1801	0	0	0
1802	0	0	0
1803	0	0	0
1804	0	0	0
1805	0	0	0
1806	0	0	0
1807	0	0	0
1808	0	0	0
1809	0	0	0
1810	0	0	0
1811	250	177	231
1812	247	173	228
1813	255	193	240
1814	255	195	237
1815	255	204	238
1816	255	207	234
1817	255	217	236
1818	255	216	232
1819	255	203	222
1820	252	193	219
1821	251	188	221
1822	251	185	225
1823	249	182	225
1824	254	189	229
1825	255	194	233
1826	251	186	228
1827	254	193	231
1828	253	195	228
1829	255	204	228
1830	252	204	221
1831	255	214	225
1832	255	221	229
1833	255	224	231
1834	255	227	232
1835	255	225	230
1836	255	228	232
1837	0	0	0
1838	0	0	0
1839	0	0	0
1840	0	0	0
1841	0	0	0
1842	0	0	0
1843	0	0	0
1844	0	0	0
1845	0	0	0
1846	0	0	0
1847	0	0	0
1848	0	0	0
1849	0	0	0
1850	0	0	0
1851	0	0	0
1852	0	0	0
1853	0	0	0
1854	0	0	0
1855	0	0	0
1856	0	0	0
1857	0	0	0
1858	0	0	0
1859	0	0	0
1860	0	0	0
1861	0	0	0
1862	0	0	0
1863	0	0	0
1864	0	0	0
1865	255	195	238
1866	255	191	235
1867	255	201	241
1868	255	204	238
1869	255	210	239
1870	255	215	238
1871	255	210	231
1872	255	210	228
1873	252	196	220
1874	248	186	219
1875	248	184	221
1876	246	179	221
1877	250	185	225
1878	254	191	229
1879	249	184	224
1880	242	176	219
1881	249	187	226
1882	250	191	226
1883	253	197	227
1884	251	198	222
1885	254	206	225
1886	255	212	226
1887	254	214	225
1888	253	216	221
1889	255	222	225
1890	0	0	0
1891	0	0	0
1892	0	0	0
1893	0	0	0
1894	0	0	0
1895	0	0	0
1896	0	0	0
1897	0	0	0
1898	0	0	0
1899	0	0	0
1900	0	0	0
1901	0	0	0
1902	0	0	0
1903	0	0	0
1904	0	0	0
1905	0	0	0
1906	0	0	0
1907	0	0	0
1908	0	0	0
1909	0	0	0
1910	0	0	0
1911	0	0	0
1912	0	0	0
1913	0	0	0
1914	0	0	0
1915	0	0	0
1916	0	0	0
1917	0	0	0
1918	0	0	0
1919	0	0	0
1920	255	197	234
1921	255	208	240
1922	253	195	230
1923	255	203	233
1924	255	204	231
1925	253	200	225
1926	255	210	231
1927	253	197	223
1928	248	186	221
1929	247	183	222
1930	253	191	228
1931	255	196	231
1932	255	202	234
1933	254	195	229
1934	0	0	0
1935	255	205	236
1936	252	192	226
1937	255	200	229
1938	252	198	225
1939	0	0	0
1940	0	0	0
1941	0	0	0
1942	0	0	0
1943	0	0	0
1944	0	0	0
1945	0	0	0
1946	0	0	0
1947	0	0	0
1948	0	0	0
1949	0	0	0
1950	0	0	0
1951	0	0	0
1952	0	0	0
1953	0	0	0
1954	0	0	0
1955	0	0	0
1956	0	0	0
1957	0	0	0
1958	0	0	0
1959	0	0	0
1960	0	0	0
1961	0	0	0
1962	0	0	0
1963	0	0	0
1964	0	0	0
1965	0	0	0
1966	0	0	0
1967	0	0	0
1968	0	0	0
1969	0	0	0
1970	0	0	0
1971	0	0	0
1972	0	0	0
1973	0	0	0
1974	0	0	0
1975	251	196	228
1976	244	186	223
1977	248	191	228
1978	249	193	226
1979	254	201	229
1980	255	210	234
1981	253	196	224
1982	0	0	0
1983	0	0	0
1984	0	0	0
1985	255	207	236
1986	0	0	0
1987	0	0	0
1988	0	0	0
1989	0	0	0
1990	0	0	0
1991	0	0	0
1992	0	0	0
1993	0	0	0
1994	0	0	0
1995	0	0	0
1996	0	0	0
1997	0	0	0
1998	0	0	0
1999	0	0	0
2000	0	0	0
2001	0	0	0
2002	0	0	0
2003	0	0	0
2004	0	0	0
2005	0	0	0
2006	0	0	0
2007	0	0	0
2008	0	0	0
2009	0	0	0
2010	0	0	0
2011	0	0	0
2012	0	0	0
2013	0	0	0
2014	0	0	0
2015	0	0	0
2016	0	0	0
2017	0	0	0
2018	0	0	0
2019	0	0	0
2020	0	0	0
2021	0	0	0
2022	0	0	0
2023	0	0	0
2024	0	0	0
2025	0	0	0
2026	0	0	0
2027	0	0	0
2028	0	0	0
2029	0	0	0
2030	255	204	236
2031	255	210	241
2032	250	195	229
2033	255	203	233
2034	0	0	0
2035	0	0	0
2036	0	0	0
2037	0	0	0
2038	0	0	0
2039	0	0	0
2040	0	0	0
2041	0	0	0
2042	0	0	0
2043	0	0	0
2044	0	0	0
2045	0	0	0
2046	0	0	0
2047	0	0	0
2048	0	0	0
2049	0	0	0
2050	0	0	0
2051	0	0	0
2052	0	0	0
2053	0	0	0
2054	0	0	0
2055	0	0	0
2056	0	0	0
2057	0	0	0
2058	0	0	0
2059	0	0	0
2060	0	0	0
2061	0	0	0
2062	0	0	0
2063	0	0	0
2064	0	0	0
2065	0	0	0
2066	0	0	0
2067	0	0	0
2068	0	0	0
2069	0	0	0
2070	0	0	0
2071	0	0	0
2072	0	0	0
2073	0	0	0
2074	0	0	0
2075	0	0	0
2076	0	0	0
2077	0	0	0
2078	0	0	0
2079	0	0	0
2080	0	0	0
2081	0	0	0
2082	0	0	0
2083	0	0	0
2084	0	0	0
2085	252	202	231
2086	0	0	0
2087	0	0	0
2088	0	0	0
2089	0	0	0
2090	0	0	0
2091	0	0	0
2092	0	0	0
2093	0	0	0
2094	0	0	0
2095	0	0	0
2096	0	0	0
2097	0	0	0
2098	0	0	0
2099	0	0	0
2100	0	0	0
2101	0	0	0
2102	0	0	0
2103	0	0	0
2104	0	0	0
2105	0	0	0
2106	0	0	0
