 	R	G	B
1	0	0	0
2	0	0	0
3	0	0	0
4	0	0	0
5	0	0	0
6	0	0	0
7	0	0	0
8	0	0	0
9	0	0	0
10	0	0	0
11	0	0	0
12	0	0	0
13	0	0	0
14	0	0	0
15	0	0	0
16	0	0	0
17	0	0	0
18	0	0	0
19	241	186	219
20	240	181	219
21	0	0	0
22	0	0	0
23	0	0	0
24	0	0	0
25	0	0	0
26	0	0	0
27	0	0	0
28	0	0	0
29	0	0	0
30	0	0	0
31	0	0	0
32	0	0	0
33	0	0	0
34	0	0	0
35	0	0	0
36	0	0	0
37	0	0	0
38	0	0	0
39	0	0	0
40	0	0	0
41	0	0	0
42	0	0	0
43	253	205	229
44	239	179	216
45	255	202	234
46	255	206	234
47	0	0	0
48	0	0	0
49	0	0	0
50	0	0	0
51	0	0	0
52	0	0	0
53	0	0	0
54	0	0	0
55	0	0	0
56	0	0	0
57	0	0	0
58	0	0	0
59	0	0	0
60	0	0	0
61	0	0	0
62	0	0	0
63	0	0	0
64	0	0	0
65	0	0	0
66	0	0	0
67	255	226	240
68	255	213	236
69	227	158	203
70	244	180	221
71	244	188	220
72	0	0	0
73	0	0	0
74	0	0	0
75	0	0	0
76	0	0	0
77	0	0	0
78	0	0	0
79	0	0	0
80	0	0	0
81	0	0	0
82	0	0	0
83	0	0	0
84	0	0	0
85	0	0	0
86	0	0	0
87	0	0	0
88	0	0	0
89	0	0	0
90	0	0	0
91	0	0	0
92	255	232	242
93	247	189	219
94	213	135	189
95	238	168	216
96	237	175	213
97	0	0	0
98	0	0	0
99	0	0	0
100	0	0	0
101	0	0	0
102	0	0	0
103	0	0	0
104	0	0	0
105	0	0	0
106	0	0	0
107	0	0	0
108	0	0	0
109	0	0	0
110	0	0	0
111	0	0	0
112	0	0	0
113	0	0	0
114	0	0	0
115	0	0	0
116	0	0	0
117	255	214	232
118	235	173	210
119	219	142	198
120	246	176	226
121	243	180	220
122	0	0	0
123	0	0	0
124	0	0	0
125	0	0	0
126	0	0	0
127	0	0	0
128	0	0	0
129	0	0	0
130	0	0	0
131	0	0	0
132	0	0	0
133	0	0	0
134	0	0	0
135	0	0	0
136	0	0	0
137	0	0	0
138	0	0	0
139	0	0	0
140	0	0	0
141	255	220	237
142	251	201	228
143	244	181	223
144	228	151	212
145	252	181	234
146	247	183	225
147	255	212	236
148	0	0	0
149	0	0	0
150	0	0	0
151	0	0	0
152	0	0	0
153	0	0	0
154	0	0	0
155	0	0	0
156	0	0	0
157	0	0	0
158	0	0	0
159	0	0	0
160	0	0	0
161	0	0	0
162	0	0	0
163	0	0	0
164	0	0	0
165	255	244	249
166	255	223	240
167	246	188	224
168	241	169	221
169	237	158	220
170	255	185	239
171	243	173	221
172	255	203	232
173	255	227	240
174	0	0	0
175	0	0	0
176	0	0	0
177	0	0	0
178	0	0	0
179	0	0	0
180	0	0	0
181	0	0	0
182	0	0	0
183	0	0	0
184	0	0	0
185	0	0	0
186	0	0	0
187	0	0	0
188	0	0	0
189	0	0	0
190	255	243	247
191	255	209	231
192	240	174	218
193	251	178	230
194	246	166	226
195	252	174	231
196	239	164	216
197	253	193	228
198	255	215	233
199	0	0	0
200	0	0	0
201	0	0	0
202	0	0	0
203	0	0	0
204	0	0	0
205	0	0	0
206	0	0	0
207	0	0	0
208	0	0	0
209	0	0	0
210	0	0	0
211	0	0	0
212	0	0	0
213	0	0	0
214	0	0	0
215	255	242	246
216	255	207	231
217	237	166	215
218	249	171	227
219	244	161	222
220	250	169	227
221	240	161	217
222	255	191	230
223	255	204	228
224	0	0	0
225	0	0	0
226	0	0	0
227	0	0	0
228	0	0	0
229	0	0	0
230	0	0	0
231	0	0	0
232	0	0	0
233	0	0	0
234	0	0	0
235	0	0	0
236	0	0	0
237	0	0	0
238	0	0	0
239	0	0	0
240	255	238	242
241	254	200	225
242	234	158	209
243	248	166	224
244	243	156	219
245	248	162	223
246	238	155	213
247	249	178	223
248	251	192	223
249	0	0	0
250	0	0	0
251	0	0	0
252	0	0	0
253	0	0	0
254	0	0	0
255	0	0	0
256	0	0	0
257	0	0	0
258	0	0	0
259	0	0	0
260	0	0	0
261	0	0	0
262	0	0	0
263	0	0	0
264	0	0	0
265	255	229	236
266	250	191	220
267	235	156	208
268	248	163	223
269	244	154	220
270	249	161	225
271	243	157	218
272	254	181	228
273	252	189	224
274	0	0	0
275	0	0	0
276	0	0	0
277	0	0	0
278	0	0	0
279	0	0	0
280	0	0	0
281	0	0	0
282	0	0	0
283	0	0	0
284	0	0	0
285	0	0	0
286	0	0	0
287	0	0	0
288	0	0	0
289	0	0	0
290	255	220	231
291	251	189	219
292	236	154	207
293	248	160	222
294	243	151	221
295	249	159	227
296	243	156	221
297	250	173	226
298	248	181	220
299	0	0	0
300	0	0	0
301	0	0	0
302	0	0	0
303	0	0	0
304	0	0	0
305	0	0	0
306	0	0	0
307	0	0	0
308	0	0	0
309	0	0	0
310	0	0	0
311	0	0	0
312	0	0	0
313	0	0	0
314	0	0	0
315	255	208	224
316	246	178	214
317	239	155	211
318	249	160	225
319	245	151	222
320	250	160	229
321	250	164	228
322	255	181	233
323	246	178	220
324	0	0	0
325	0	0	0
326	0	0	0
327	0	0	0
328	0	0	0
329	0	0	0
330	0	0	0
331	0	0	0
332	0	0	0
333	0	0	0
334	0	0	0
335	0	0	0
336	0	0	0
337	0	0	0
338	0	0	0
339	0	0	0
340	252	197	221
341	253	182	222
342	245	159	220
343	254	164	231
344	247	153	224
345	254	165	232
346	253	169	231
347	249	172	227
348	0	0	0
349	0	0	0
350	0	0	0
351	0	0	0
352	0	0	0
353	0	0	0
354	0	0	0
355	0	0	0
356	0	0	0
357	0	0	0
358	0	0	0
359	0	0	0
360	0	0	0
361	0	0	0
362	0	0	0
363	0	0	0
364	255	222	233
365	250	190	218
366	251	175	220
367	241	150	217
368	248	153	226
369	245	149	222
370	251	160	228
371	250	165	228
372	0	0	0
373	0	0	0
374	0	0	0
375	0	0	0
376	0	0	0
377	0	0	0
378	0	0	0
379	0	0	0
380	0	0	0
381	0	0	0
382	0	0	0
383	0	0	0
384	0	0	0
385	0	0	0
386	0	0	0
387	0	0	0
388	255	248	246
389	255	216	229
390	251	185	217
391	251	170	220
392	241	145	216
393	252	154	229
394	247	148	224
395	251	159	228
396	0	0	0
397	0	0	0
398	0	0	0
399	0	0	0
400	0	0	0
401	0	0	0
402	0	0	0
403	0	0	0
404	0	0	0
405	0	0	0
406	0	0	0
407	0	0	0
408	0	0	0
409	0	0	0
410	0	0	0
411	0	0	0
412	0	0	0
413	255	235	239
414	255	201	222
415	245	171	211
416	245	155	214
417	241	140	214
418	250	148	227
419	244	142	220
420	247	151	224
421	252	168	229
422	0	0	0
423	0	0	0
424	0	0	0
425	0	0	0
426	0	0	0
427	0	0	0
428	0	0	0
429	0	0	0
430	0	0	0
431	0	0	0
432	0	0	0
433	0	0	0
434	0	0	0
435	0	0	0
436	0	0	0
437	255	233	235
438	255	218	231
439	253	191	222
440	244	160	212
441	249	155	219
442	242	137	215
443	250	145	225
444	244	138	221
445	255	162	234
446	255	176	235
447	255	185	232
448	0	0	0
449	0	0	0
450	0	0	0
451	0	0	0
452	0	0	0
453	0	0	0
454	0	0	0
455	0	0	0
456	0	0	0
457	0	0	0
458	0	0	0
459	0	0	0
460	0	0	0
461	255	251	244
462	255	235	238
463	255	207	228
464	252	180	221
465	242	150	212
466	246	144	218
467	243	133	215
468	249	139	222
469	241	132	217
470	252	154	229
471	250	165	226
472	0	0	0
473	0	0	0
474	0	0	0
475	0	0	0
476	0	0	0
477	0	0	0
478	0	0	0
479	0	0	0
480	0	0	0
481	0	0	0
482	0	0	0
483	0	0	0
484	0	0	0
485	0	0	0
486	255	250	246
487	255	220	233
488	253	193	223
489	252	172	221
490	242	143	215
491	251	144	224
492	246	132	218
493	247	134	220
494	237	125	211
495	245	145	220
496	242	155	219
497	0	0	0
498	0	0	0
499	0	0	0
500	0	0	0
501	0	0	0
502	0	0	0
503	0	0	0
504	0	0	0
505	0	0	0
506	0	0	0
507	0	0	0
508	0	0	0
509	0	0	0
510	0	0	0
511	255	250	247
512	255	223	239
513	248	177	218
514	247	157	217
515	238	131	212
516	246	131	221
517	242	124	216
518	243	125	215
519	242	132	215
520	248	150	222
521	247	163	222
522	0	0	0
523	0	0	0
524	0	0	0
525	0	0	0
526	0	0	0
527	0	0	0
528	0	0	0
529	0	0	0
530	0	0	0
531	0	0	0
532	0	0	0
533	0	0	0
534	0	0	0
535	0	0	0
536	255	248	248
537	255	204	229
538	240	160	211
539	243	145	215
540	233	118	209
541	244	124	221
542	240	116	216
543	251	135	225
544	248	139	220
545	253	158	224
546	0	0	0
547	0	0	0
548	0	0	0
549	0	0	0
550	0	0	0
551	0	0	0
552	0	0	0
553	0	0	0
554	0	0	0
555	0	0	0
556	0	0	0
557	0	0	0
558	0	0	0
559	0	0	0
560	0	0	0
561	255	244	248
562	255	195	225
563	240	154	211
564	243	139	216
565	241	125	218
566	250	129	228
567	244	122	221
568	253	137	229
569	236	124	209
570	240	142	213
571	0	0	0
572	0	0	0
573	0	0	0
574	0	0	0
575	0	0	0
576	0	0	0
577	0	0	0
578	0	0	0
579	0	0	0
580	0	0	0
581	0	0	0
582	0	0	0
583	0	0	0
584	0	0	0
585	255	234	235
586	255	233	240
587	255	190	223
588	242	148	211
589	253	148	225
590	249	132	225
591	254	134	231
592	246	123	221
593	241	122	216
594	223	108	201
595	244	151	222
596	0	0	0
597	0	0	0
598	0	0	0
599	0	0	0
600	0	0	0
601	0	0	0
602	0	0	0
603	0	0	0
604	0	0	0
605	0	0	0
606	0	0	0
607	0	0	0
608	0	0	0
609	255	251	245
610	255	240	241
611	255	215	230
612	250	173	214
613	236	134	206
614	245	132	219
615	241	118	216
616	243	118	219
617	244	122	218
618	237	120	213
619	239	135	218
620	255	178	240
621	0	0	0
622	0	0	0
623	0	0	0
624	0	0	0
625	0	0	0
626	0	0	0
627	0	0	0
628	0	0	0
629	0	0	0
630	0	0	0
631	0	0	0
632	0	0	0
633	0	0	0
634	255	250	245
635	255	221	230
636	255	196	219
637	245	161	210
638	232	122	205
639	241	122	218
640	233	105	209
641	244	120	219
642	243	123	217
643	252	145	227
644	253	160	232
645	0	0	0
646	0	0	0
647	0	0	0
648	0	0	0
649	0	0	0
650	0	0	0
651	0	0	0
652	0	0	0
653	0	0	0
654	0	0	0
655	0	0	0
656	0	0	0
657	0	0	0
658	0	0	0
659	255	249	246
660	255	219	232
661	251	182	215
662	240	147	206
663	238	128	212
664	246	126	223
665	240	114	216
666	248	126	224
667	240	123	215
668	248	143	223
669	255	171	235
670	0	0	0
671	0	0	0
672	0	0	0
673	0	0	0
674	0	0	0
675	0	0	0
676	0	0	0
677	0	0	0
678	0	0	0
679	0	0	0
680	0	0	0
681	0	0	0
682	0	0	0
683	0	0	0
684	255	247	248
685	255	205	226
686	245	168	212
687	249	155	217
688	244	132	216
689	251	133	226
690	243	120	220
691	249	130	226
692	239	125	215
693	255	159	231
694	255	186	240
695	0	0	0
696	0	0	0
697	0	0	0
698	0	0	0
699	0	0	0
700	0	0	0
701	0	0	0
702	0	0	0
703	0	0	0
704	0	0	0
705	0	0	0
706	0	0	0
707	0	0	0
708	0	0	0
709	255	235	242
710	253	193	222
711	244	161	212
712	246	146	215
713	240	126	212
714	244	125	219
715	246	127	223
716	251	136	229
717	242	133	219
718	255	167	234
719	255	186	236
720	255	196	232
721	0	0	0
722	0	0	0
723	0	0	0
724	0	0	0
725	0	0	0
726	0	0	0
727	0	0	0
728	0	0	0
729	0	0	0
730	0	0	0
731	0	0	0
732	0	0	0
733	0	0	0
734	255	221	235
735	254	188	223
736	243	154	211
737	247	145	216
738	240	124	212
739	252	136	226
740	252	137	226
741	255	146	231
742	247	143	225
743	255	168	234
744	255	186	233
745	254	191	225
746	254	202	226
747	0	0	0
748	0	0	0
749	0	0	0
750	0	0	0
751	0	0	0
752	0	0	0
753	0	0	0
754	0	0	0
755	0	0	0
756	0	0	0
757	0	0	0
758	255	238	241
759	255	212	232
760	251	179	221
761	238	144	208
762	241	134	212
763	243	128	216
764	253	138	228
765	247	131	221
766	250	139	225
767	245	142	222
768	255	167	231
769	255	187	231
770	254	192	225
771	255	208	231
772	0	0	0
773	0	0	0
774	0	0	0
775	0	0	0
776	0	0	0
777	0	0	0
778	0	0	0
779	0	0	0
780	0	0	0
781	0	0	0
782	255	252	242
783	255	231	239
784	255	203	228
785	249	171	218
786	237	137	209
787	248	142	223
788	247	133	223
789	251	136	227
790	245	129	221
791	252	143	227
792	246	144	220
793	255	169	229
794	255	190	232
795	255	200	230
796	0	0	0
797	0	0	0
798	0	0	0
799	0	0	0
800	0	0	0
801	0	0	0
802	0	0	0
803	0	0	0
804	0	0	0
805	0	0	0
806	0	0	0
807	255	246	244
808	255	209	226
809	251	186	220
810	240	154	210
811	243	145	217
812	253	147	228
813	246	132	221
814	250	135	225
815	250	136	226
816	255	150	232
817	241	138	215
818	250	163	223
819	255	190	231
820	255	200	229
821	0	0	0
822	0	0	0
823	0	0	0
824	0	0	0
825	0	0	0
826	0	0	0
827	0	0	0
828	0	0	0
829	0	0	0
830	0	0	0
831	0	0	0
832	255	223	230
833	250	195	219
834	245	172	216
835	250	164	221
836	250	152	221
837	251	145	222
838	243	130	215
839	253	141	225
840	253	142	225
841	251	143	224
842	237	133	212
843	251	165	226
844	255	191	231
845	255	200	227
846	0	0	0
847	0	0	0
848	0	0	0
849	0	0	0
850	0	0	0
851	0	0	0
852	0	0	0
853	0	0	0
854	0	0	0
855	0	0	0
856	0	0	0
857	255	217	229
858	250	188	219
859	245	167	217
860	248	158	220
861	253	156	222
862	252	148	221
863	245	133	216
864	255	144	227
865	248	136	219
866	246	137	218
867	243	143	218
868	255	175	231
869	255	195	232
870	255	204	227
871	0	0	0
872	0	0	0
873	255	235	239
874	0	0	0
875	0	0	0
876	0	0	0
877	0	0	0
878	0	0	0
879	0	0	0
880	0	0	0
881	251	215	226
882	254	205	225
883	249	184	220
884	244	162	218
885	254	165	228
886	255	163	228
887	255	153	226
888	249	138	222
889	254	142	227
890	247	134	219
891	255	150	227
892	251	154	223
893	255	180	231
894	255	201	234
895	255	212	230
896	0	0	0
897	255	229	231
898	255	234	237
899	255	218	228
900	0	0	0
901	0	0	0
902	0	0	0
903	0	0	0
904	0	0	0
905	255	241	242
906	255	226	235
907	255	206	227
908	252	185	223
909	245	163	220
910	255	165	229
911	255	163	230
912	255	153	227
913	245	131	218
914	250	135	224
915	249	136	222
916	255	152	229
917	242	142	212
918	251	167	219
919	255	202	232
920	255	214	230
921	255	228	233
922	255	223	227
923	255	221	230
924	255	205	222
925	240	183	207
926	0	0	0
927	0	0	0
928	0	0	0
929	0	0	0
930	255	247	244
931	255	223	231
932	255	204	225
933	255	186	224
934	248	164	221
935	255	169	232
936	255	166	232
937	254	147	223
938	243	126	216
939	255	141	231
940	255	143	228
941	255	146	226
942	240	136	207
943	255	173	223
944	255	208	236
945	255	210	229
946	255	227	237
947	255	213	227
948	255	211	228
949	253	196	222
950	238	174	209
951	0	0	0
952	0	0	0
953	0	0	0
954	0	0	0
955	255	245	243
956	255	221	231
957	249	189	218
958	247	172	217
959	246	159	219
960	255	162	228
961	255	153	224
962	246	134	216
963	249	132	223
964	255	148	238
965	241	118	214
966	241	122	211
967	241	134	209
968	255	171	224
969	255	193	228
970	255	196	222
971	255	220	236
972	255	207	227
973	255	200	225
974	250	185	219
975	232	162	204
976	0	0	0
977	0	0	0
978	0	0	0
979	0	0	0
980	255	244	245
981	252	206	225
982	241	175	215
983	246	168	221
984	243	152	217
985	247	148	219
986	245	138	215
987	249	137	219
988	251	134	225
989	241	117	218
990	220	88	195
991	240	119	214
992	242	132	213
993	249	155	217
994	254	177	221
995	252	185	217
996	255	209	230
997	254	193	219
998	252	186	218
999	245	174	214
1000	227	149	199
1001	0	0	0
1002	0	0	0
1003	0	0	0
1004	0	0	0
1005	255	240	244
1006	251	202	225
1007	253	190	230
1008	255	183	235
1009	244	152	219
1010	247	147	220
1011	255	151	226
1012	255	149	230
1013	249	133	225
1014	236	115	215
1015	228	104	208
1016	253	137	230
1017	240	128	213
1018	246	150	217
1019	255	189	233
1020	255	199	230
1021	255	214	236
1022	255	199	225
1023	250	179	215
1024	243	166	211
1025	232	155	203
1026	0	0	0
1027	0	0	0
1028	0	0	0
1029	0	0	0
1030	255	235	240
1031	255	217	235
1032	255	205	240
1033	255	181	233
1034	243	151	218
1035	255	159	229
1036	255	162	234
1037	254	145	227
1038	245	129	220
1039	241	125	221
1040	233	113	214
1041	238	122	218
1042	226	113	204
1043	246	153	222
1044	255	194	238
1045	255	197	230
1046	255	212	235
1047	255	191	221
1048	248	170	211
1049	250	173	216
1050	238	160	206
1051	0	0	0
1052	0	0	0
1053	255	251	249
1054	255	238	241
1055	255	224	234
1056	255	205	228
1057	254	189	230
1058	246	164	222
1059	245	153	220
1060	255	161	231
1061	255	152	227
1062	247	135	220
1063	251	137	226
1064	247	133	227
1065	231	114	212
1066	231	119	213
1067	241	142	222
1068	255	184	242
1069	255	208	245
1070	255	212	238
1071	255	201	227
1072	255	180	214
1073	239	154	203
1074	241	156	209
1075	238	159	207
1076	0	0	0
1077	255	247	244
1078	255	248	246
1079	255	229	236
1080	255	214	231
1081	249	193	223
1082	247	176	224
1083	250	169	227
1084	248	156	224
1085	250	151	224
1086	247	142	220
1087	252	144	226
1088	255	145	232
1089	242	130	223
1090	225	110	208
1091	243	143	226
1092	252	166	233
1093	255	188	237
1094	255	212	239
1095	255	192	219
1096	255	183	211
1097	246	164	204
1098	232	140	199
1099	246	160	218
1100	241	161	213
1101	255	253	249
1102	255	252	249
1103	255	230	237
1104	249	212	228
1105	255	209	231
1106	247	187	223
1107	253	184	231
1108	255	176	233
1109	249	158	225
1110	250	153	225
1111	251	149	226
1112	255	151	231
1113	249	141	226
1114	235	126	215
1115	246	146	227
1116	255	179	245
1117	255	179	235
1118	255	201	239
1119	255	215	237
1120	255	198	220
1121	254	178	209
1122	246	160	206
1123	237	143	206
1124	250	162	224
1125	242	161	215
1126	0	0	0
1127	250	230	237
1128	241	208	226
1129	244	203	227
1130	250	201	230
1131	253	194	231
1132	255	190	236
1133	255	177	233
1134	248	159	225
1135	255	161	230
1136	255	158	233
1137	255	155	233
1138	248	143	222
1139	255	168	237
1140	255	188	247
1141	255	192	244
1142	255	193	236
1143	255	201	233
1144	255	217	236
1145	255	190	216
1146	253	172	210
1147	252	163	214
1148	241	145	212
1149	252	163	226
1150	242	161	214
1151	0	0	0
1152	0	0	0
1153	255	227	241
1154	255	222	242
1155	255	208	236
1156	255	201	236
1157	255	188	234
1158	253	175	231
1159	248	160	224
1160	254	161	230
1161	254	156	231
1162	253	152	230
1163	241	136	215
1164	255	162	229
1165	255	168	228
1166	253	171	222
1167	255	191	229
1168	255	201	228
1169	255	213	232
1170	255	187	215
1171	248	163	208
1172	247	154	212
1173	239	140	209
1174	249	157	221
1175	242	159	212
1176	0	0	0
1177	0	0	0
1178	0	0	0
1179	255	223	239
1180	254	210	235
1181	252	197	232
1182	251	184	230
1183	252	175	230
1184	247	161	224
1185	251	159	227
1186	250	153	226
1187	248	147	224
1188	237	132	213
1189	248	150	223
1190	248	156	219
1191	255	174	223
1192	255	194	228
1193	255	195	222
1194	255	209	228
1195	255	177	209
1196	244	153	204
1197	246	150	211
1198	235	134	202
1199	247	155	216
1200	241	158	210
1201	0	0	0
1202	0	0	0
1203	0	0	0
1204	0	0	0
1205	255	226	243
1206	255	214	241
1207	249	184	228
1208	251	176	230
1209	249	166	227
1210	253	164	229
1211	254	161	229
1212	252	155	226
1213	244	144	219
1214	255	162	230
1215	249	158	220
1216	255	177	225
1217	255	193	228
1218	255	195	223
1219	255	195	222
1220	248	164	204
1221	247	155	209
1222	249	152	214
1223	240	141	207
1224	251	160	219
1225	243	159	212
1226	0	0	0
1227	0	0	0
1228	0	0	0
1229	0	0	0
1230	255	243	250
1231	255	212	235
1232	247	183	226
1233	254	181	233
1234	252	171	230
1235	255	171	232
1236	255	167	230
1237	254	161	226
1238	246	150	218
1239	251	158	223
1240	245	155	217
1241	253	171	223
1242	255	189	229
1243	255	181	219
1244	255	182	219
1245	254	169	214
1246	252	159	215
1247	255	159	221
1248	246	147	214
1249	252	161	222
1250	244	159	215
1251	0	0	0
1252	0	0	0
1253	0	0	0
1254	0	0	0
1255	255	234	242
1256	251	203	226
1257	249	189	227
1258	255	187	235
1259	247	167	225
1260	251	167	227
1261	255	169	229
1262	253	163	225
1263	247	155	218
1264	252	162	223
1265	249	161	219
1266	255	179	227
1267	255	201	238
1268	255	193	230
1269	255	175	219
1270	252	163	215
1271	251	155	215
1272	253	155	220
1273	241	140	210
1274	248	153	219
1275	246	162	219
1276	0	0	0
1277	0	0	0
1278	0	0	0
1279	0	0	0
1280	255	227	236
1281	253	209	229
1282	251	194	228
1283	250	181	228
1284	241	161	219
1285	251	170	229
1286	255	173	232
1287	255	169	229
1288	249	160	220
1289	253	166	223
1290	250	166	219
1291	255	185	228
1292	255	207	238
1293	255	182	220
1294	252	166	215
1295	255	163	219
1296	253	155	218
1297	252	151	219
1298	240	135	209
1299	251	157	222
1300	249	165	222
1301	0	0	0
1302	0	0	0
1303	0	0	0
1304	0	0	0
1305	255	234	242
1306	255	216	234
1307	248	192	225
1308	247	180	224
1309	250	176	228
1310	255	185	238
1311	253	172	230
1312	252	167	226
1313	249	163	222
1314	254	170	225
1315	252	171	221
1316	255	190	230
1317	255	199	232
1318	255	175	217
1319	255	167	218
1320	255	164	223
1321	246	143	213
1322	245	139	213
1323	241	135	210
1324	252	156	223
1325	250	164	222
1326	0	0	0
1327	0	0	0
1328	0	0	0
1329	0	0	0
1330	255	243	249
1331	255	216	235
1332	246	191	224
1333	254	194	233
1334	255	191	237
1335	255	183	235
1336	249	169	225
1337	252	171	226
1338	251	168	226
1339	254	174	229
1340	253	175	225
1341	255	181	226
1342	255	191	230
1343	255	175	220
1344	255	166	219
1345	249	151	214
1346	238	130	205
1347	246	138	214
1348	241	134	210
1349	252	155	222
1350	250	163	222
1351	0	0	0
1352	0	0	0
1353	0	0	0
1354	0	0	0
1355	255	240	246
1356	252	213	232
1357	250	200	229
1358	255	202	236
1359	254	189	232
1360	252	180	229
1361	252	176	227
1362	255	178	229
1363	252	173	227
1364	255	179	231
1365	255	186	232
1366	255	193	234
1367	255	188	230
1368	255	173	221
1369	253	161	216
1370	247	145	210
1371	247	141	213
1372	255	150	222
1373	246	139	213
1374	255	160	226
1375	247	157	218
1376	0	0	0
1377	0	0	0
1378	0	0	0
1379	0	0	0
1380	255	239	244
1381	255	224	239
1382	255	212	236
1383	255	203	235
1384	252	189	226
1385	255	189	229
1386	255	186	230
1387	255	186	232
1388	255	179	228
1389	255	189	234
1390	255	197	236
1391	255	187	228
1392	255	183	227
1393	255	169	220
1394	252	157	213
1395	255	156	216
1396	255	152	219
1397	255	155	224
1398	250	145	216
1399	254	155	222
1400	244	152	213
1401	0	0	0
1402	0	0	0
1403	0	0	0
1404	0	0	0
1405	255	236	241
1406	255	221	234
1407	253	206	230
1408	252	197	228
1409	251	188	224
1410	255	189	227
1411	253	182	225
1412	254	181	227
1413	251	175	224
1414	255	186	231
1415	255	187	229
1416	255	177	221
1417	255	176	223
1418	253	163	217
1419	249	151	211
1420	253	151	214
1421	255	149	217
1422	255	151	221
1423	241	129	205
1424	245	140	212
1425	241	145	211
1426	0	0	0
1427	0	0	0
1428	0	0	0
1429	0	0	0
1430	255	232	238
1431	253	216	230
1432	249	201	223
1433	254	199	227
1434	254	192	228
1435	255	188	229
1436	252	180	224
1437	252	178	224
1438	249	172	222
1439	250	173	223
1440	253	175	223
1441	249	167	217
1442	252	166	218
1443	250	157	215
1444	247	147	213
1445	255	151	219
1446	255	148	217
1447	248	135	210
1448	231	113	196
1449	241	132	209
1450	236	138	210
1451	0	0	0
1452	0	0	0
1453	0	0	0
1454	0	0	0
1455	255	235	239
1456	255	219	230
1457	251	205	225
1458	255	203	230
1459	250	186	225
1460	251	182	225
1461	253	183	225
1462	253	180	224
1463	252	177	224
1464	254	178	225
1465	255	189	231
1466	255	181	226
1467	255	177	226
1468	255	168	224
1469	251	151	217
1470	255	155	224
1471	247	134	211
1472	239	121	203
1473	237	121	203
1474	246	140	216
1475	240	145	215
1476	0	0	0
1477	0	0	0
1478	0	0	0
1479	0	0	0
1480	255	236	239
1481	255	221	232
1482	254	208	229
1483	253	197	227
1484	245	180	221
1485	253	186	228
1486	255	186	227
1487	255	184	225
1488	253	180	223
1489	255	188	227
1490	255	199	232
1491	255	186	224
1492	255	184	227
1493	255	167	221
1494	248	148	211
1495	245	135	208
1496	235	117	203
1497	243	127	213
1498	239	125	209
1499	248	145	219
1500	241	149	215
1501	0	0	0
1502	0	0	0
1503	0	0	0
1504	0	0	0
1505	255	234	238
1506	255	220	232
1507	254	208	231
1508	253	196	229
1509	244	178	220
1510	252	184	226
1511	255	188	227
1512	255	186	225
1513	249	176	219
1514	255	183	222
1515	255	197	229
1516	255	184	221
1517	255	185	227
1518	255	169	221
1519	246	144	208
1520	243	133	208
1521	246	133	216
1522	254	143	226
1523	246	137	217
1524	253	155	226
1525	240	151	215
1526	0	0	0
1527	0	0	0
1528	0	0	0
1529	0	0	0
1530	255	234	240
1531	255	219	235
1532	253	206	233
1533	0	0	0
1534	243	176	218
1535	254	187	227
1536	255	191	229
1537	255	185	225
1538	249	175	221
1539	255	186	228
1540	255	200	236
1541	255	188	226
1542	255	188	228
1543	253	164	217
1544	244	142	210
1545	255	151	225
1546	255	150	228
1547	255	155	232
1548	252	148	224
1549	254	158	227
1550	240	153	218
1551	0	0	0
1552	0	0	0
1553	0	0	0
1554	0	0	0
1555	0	0	0
1556	255	225	241
1557	0	0	0
1558	0	0	0
1559	249	185	225
1560	255	195	233
1561	250	179	222
1562	246	172	219
1563	249	176	223
1564	255	187	230
1565	255	198	236
1566	255	186	226
1567	255	190	229
1568	254	166	218
1569	246	147	214
1570	255	156	228
1571	248	139	219
1572	250	143	223
1573	247	143	219
1574	248	152	222
1575	238	154	217
1576	0	0	0
1577	0	0	0
1578	0	0	0
1579	0	0	0
1580	0	0	0
1581	0	0	0
1582	0	0	0
1583	0	0	0
1584	0	0	0
1585	249	181	225
1586	240	165	216
1587	246	172	222
1588	247	174	221
1589	251	182	225
1590	255	193	231
1591	255	187	225
1592	255	191	229
1593	255	171	220
1594	248	150	213
1595	250	146	218
1596	241	130	211
1597	248	140	220
1598	243	139	216
1599	246	153	220
1600	236	154	212
1601	0	0	0
1602	0	0	0
1603	0	0	0
1604	0	0	0
1605	0	0	0
1606	0	0	0
1607	0	0	0
1608	0	0	0
1609	249	188	226
1610	246	178	222
1611	251	182	228
1612	255	189	233
1613	251	183	225
1614	255	191	228
1615	255	207	239
1616	255	201	233
1617	255	195	231
1618	255	175	223
1619	244	145	209
1620	246	140	213
1621	245	136	215
1622	251	146	223
1623	243	142	216
1624	245	155	220
1625	241	166	218
1626	0	0	0
1627	0	0	0
1628	0	0	0
1629	0	0	0
1630	0	0	0
1631	0	0	0
1632	0	0	0
1633	0	0	0
1634	245	184	222
1635	255	193	231
1636	255	197	234
1637	255	196	232
1638	254	191	226
1639	255	203	233
1640	255	220	245
1641	255	205	235
1642	255	199	232
1643	255	172	220
1644	243	142	209
1645	252	148	220
1646	249	143	217
1647	252	150	222
1648	244	145	217
1649	251	168	228
1650	0	0	0
1651	0	0	0
1652	0	0	0
1653	0	0	0
1654	0	0	0
1655	0	0	0
1656	0	0	0
1657	0	0	0
1658	250	200	229
1659	249	192	227
1660	255	202	235
1661	251	188	224
1662	251	187	223
1663	254	192	225
1664	255	206	233
1665	255	213	238
1666	255	198	228
1667	255	186	223
1668	249	159	213
1669	240	138	209
1670	249	144	219
1671	248	144	217
1672	250	149	220
1673	235	136	209
1674	0	0	0
1675	0	0	0
1676	0	0	0
1677	0	0	0
1678	0	0	0
1679	0	0	0
1680	0	0	0
1681	0	0	0
1682	0	0	0
1683	255	209	234
1684	254	201	232
1685	254	195	230
1686	246	182	219
1687	254	192	227
1688	255	198	231
1689	255	201	231
1690	255	208	234
1691	255	187	220
1692	254	175	217
1693	248	157	213
1694	239	136	209
1695	248	145	220
1696	247	144	217
1697	243	142	215
1698	226	128	202
1699	0	0	0
1700	0	0	0
1701	0	0	0
1702	0	0	0
1703	0	0	0
1704	0	0	0
1705	0	0	0
1706	0	0	0
1707	251	214	230
1708	255	211	233
1709	252	199	228
1710	252	193	227
1711	248	185	222
1712	255	197	230
1713	255	194	228
1714	255	196	228
1715	255	206	233
1716	255	185	221
1717	253	172	218
1718	247	154	214
1719	243	143	214
1720	251	151	223
1721	251	153	222
1722	246	150	217
1723	236	147	211
1724	0	0	0
1725	0	0	0
1726	0	0	0
1727	0	0	0
1728	0	0	0
1729	0	0	0
1730	0	0	0
1731	0	0	0
1732	0	0	0
1733	252	208	227
1734	248	195	222
1735	252	195	225
1736	249	188	223
1737	252	189	224
1738	249	186	220
1739	253	190	222
1740	255	201	232
1741	255	183	223
1742	253	170	221
1743	255	165	225
1744	251	153	223
1745	255	164	231
1746	255	164	227
1747	255	171	227
1748	247	167	218
1749	0	0	0
1750	0	0	0
1751	0	0	0
1752	0	0	0
1753	0	0	0
1754	0	0	0
1755	0	0	0
1756	0	0	0
1757	0	0	0
1758	0	0	0
1759	252	203	226
1760	255	202	230
1761	247	186	221
1762	250	188	223
1763	255	196	226
1764	255	200	229
1765	255	205	236
1766	255	187	228
1767	248	161	218
1768	250	157	221
1769	245	145	217
1770	253	155	225
1771	247	151	217
1772	246	156	215
1773	242	164	213
1774	0	0	0
1775	0	0	0
1776	0	0	0
1777	0	0	0
1778	0	0	0
1779	0	0	0
1780	0	0	0
1781	0	0	0
1782	0	0	0
1783	0	0	0
1784	255	210	234
1785	253	200	229
1786	244	183	219
1787	254	195	228
1788	255	204	232
1789	255	200	229
1790	255	205	236
1791	253	177	222
1792	241	151	211
1793	245	149	216
1794	239	138	212
1795	246	146	220
1796	240	142	215
1797	246	159	222
1798	241	166	217
1799	0	0	0
1800	0	0	0
1801	0	0	0
1802	0	0	0
1803	0	0	0
1804	0	0	0
1805	0	0	0
1806	0	0	0
1807	0	0	0
1808	0	0	0
1809	255	215	237
1810	255	204	232
1811	243	184	220
1812	254	197	229
1813	255	206	234
1814	255	203	231
1815	255	200	232
1816	250	172	219
1817	246	159	217
1818	251	157	222
1819	245	146	218
1820	251	154	226
1821	238	142	215
1822	244	158	222
1823	248	180	226
1824	0	0	0
1825	0	0	0
1826	0	0	0
1827	0	0	0
1828	0	0	0
1829	0	0	0
1830	0	0	0
1831	0	0	0
1832	0	0	0
1833	255	221	239
1834	255	220	241
1835	254	204	232
1836	243	186	220
1837	253	197	228
1838	255	206	232
1839	254	195	224
1840	255	192	226
1841	253	178	223
1842	250	165	221
1843	253	162	225
1844	247	150	220
1845	248	152	223
1846	234	138	211
1847	250	172	227
1848	253	193	231
1849	0	0	0
1850	0	0	0
1851	0	0	0
1852	0	0	0
1853	0	0	0
1854	0	0	0
1855	0	0	0
1856	0	0	0
1857	255	225	239
1858	255	224	241
1859	255	213	235
1860	247	197	226
1861	249	197	227
1862	255	208	235
1863	255	210	233
1864	255	199	226
1865	255	199	231
1866	255	185	227
1867	249	166	221
1868	252	163	225
1869	247	153	221
1870	247	153	222
1871	235	144	212
1872	250	177	228
1873	255	204	235
1874	0	0	0
1875	0	0	0
1876	0	0	0
1877	0	0	0
1878	0	0	0
1879	0	0	0
1880	0	0	0
1881	0	0	0
1882	255	227	239
1883	253	217	233
1884	249	206	228
1885	254	209	232
1886	255	209	233
1887	255	211	235
1888	255	213	235
1889	255	206	230
1890	255	206	234
1891	255	188	228
1892	251	169	224
1893	255	169	230
1894	249	157	225
1895	251	162	228
1896	238	153	215
1897	255	190	234
1898	255	218	244
1899	0	0	0
1900	0	0	0
1901	0	0	0
1902	0	0	0
1903	0	0	0
1904	0	0	0
1905	0	0	0
1906	0	0	0
1907	0	0	0
1908	254	221	235
1909	252	212	231
1910	255	215	235
1911	252	206	230
1912	255	208	231
1913	255	212	234
1914	255	205	229
1915	255	208	234
1916	255	189	227
1917	246	163	218
1918	250	162	225
1919	245	155	222
1920	248	160	225
1921	238	156	217
1922	255	193	235
1923	0	0	0
1924	0	0	0
1925	0	0	0
1926	0	0	0
1927	0	0	0
1928	0	0	0
1929	0	0	0
1930	0	0	0
1931	0	0	0
1932	0	0	0
1933	255	229	241
1934	255	220	235
1935	255	214	233
1936	251	204	229
1937	254	207	232
1938	255	212	235
1939	255	208	232
1940	255	209	233
1941	254	184	220
1942	242	158	212
1943	249	162	223
1944	244	154	222
1945	250	165	230
1946	240	161	222
1947	0	0	0
1948	0	0	0
1949	0	0	0
1950	0	0	0
1951	0	0	0
1952	0	0	0
1953	0	0	0
1954	0	0	0
1955	0	0	0
1956	0	0	0
1957	255	235	244
1958	255	228	240
1959	250	210	229
1960	249	205	228
1961	250	205	230
1962	0	0	0
1963	255	223	243
1964	255	219	240
1965	255	198	225
1966	246	173	213
1967	246	164	215
1968	252	167	225
1969	242	153	221
1970	247	164	229
1971	242	167	226
1972	0	0	0
1973	0	0	0
1974	0	0	0
1975	0	0	0
1976	0	0	0
1977	0	0	0
1978	0	0	0
1979	0	0	0
1980	0	0	0
1981	0	0	0
1982	255	234	241
1983	252	219	234
1984	245	203	227
1985	251	208	232
1986	0	0	0
1987	0	0	0
1988	255	232	248
1989	255	208	232
1990	251	188	221
1991	253	182	222
1992	252	172	222
1993	252	168	226
1994	242	154	221
1995	251	171	234
1996	244	174	230
1997	0	0	0
1998	0	0	0
1999	0	0	0
2000	0	0	0
2001	0	0	0
2002	0	0	0
2003	0	0	0
2004	0	0	0
2005	0	0	0
2006	0	0	0
2007	255	234	240
2008	252	219	234
2009	245	204	228
2010	0	0	0
2011	0	0	0
2012	0	0	0
2013	255	227	245
2014	255	203	230
2015	249	183	220
2016	252	178	223
2017	249	168	221
2018	248	163	223
2019	240	153	220
2020	248	169	231
2021	245	178	231
2022	0	0	0
2023	0	0	0
2024	0	0	0
2025	0	0	0
2026	0	0	0
2027	0	0	0
2028	0	0	0
2029	0	0	0
2030	0	0	0
2031	0	0	0
2032	0	0	0
2033	252	220	233
2034	0	0	0
2035	0	0	0
2036	0	0	0
2037	0	0	0
2038	255	222	244
2039	255	199	231
2040	248	179	220
2041	251	176	224
2042	249	166	224
2043	250	166	229
2044	240	154	221
2045	252	177	235
2046	249	186	234
2047	0	0	0
2048	0	0	0
2049	0	0	0
2050	0	0	0
2051	0	0	0
2052	0	0	0
2053	0	0	0
2054	0	0	0
2055	0	0	0
2056	0	0	0
2057	0	0	0
2058	0	0	0
2059	0	0	0
2060	0	0	0
2061	0	0	0
2062	0	0	0
2063	255	225	246
2064	255	203	234
2065	247	177	220
2066	250	173	225
2067	248	165	227
2068	249	164	230
2069	240	155	223
2070	250	177	234
2071	248	187	233
2072	0	0	0
2073	0	0	0
2074	0	0	0
2075	0	0	0
2076	0	0	0
2077	0	0	0
2078	0	0	0
2079	0	0	0
2080	0	0	0
2081	0	0	0
2082	0	0	0
2083	0	0	0
2084	0	0	0
2085	0	0	0
2086	0	0	0
2087	0	0	0
2088	255	227	245
2089	255	199	231
2090	245	173	220
2091	251	173	228
2092	248	165	229
2093	251	168	235
2094	241	158	226
2095	249	178	235
2096	247	188	232
2097	0	0	0
2098	0	0	0
2099	0	0	0
2100	0	0	0
2101	0	0	0
2102	0	0	0
2103	0	0	0
2104	0	0	0
2105	0	0	0
2106	0	0	0
2107	0	0	0
2108	0	0	0
2109	0	0	0
2110	0	0	0
2111	0	0	0
2112	255	220	237
2113	255	215	237
2114	250	188	224
2115	246	174	222
2116	251	173	229
2117	247	163	229
2118	249	165	233
2119	241	160	226
2120	249	181	235
2121	253	199	239
2122	0	0	0
2123	0	0	0
2124	0	0	0
2125	0	0	0
2126	0	0	0
2127	0	0	0
2128	0	0	0
2129	0	0	0
2130	0	0	0
2131	0	0	0
2132	0	0	0
2133	0	0	0
2134	0	0	0
2135	0	0	0
2136	255	218	237
2137	255	210	233
2138	255	204	233
2139	252	189	227
2140	248	174	224
2141	250	171	228
2142	244	160	225
2143	249	168	232
2144	241	162	224
2145	253	190	238
2146	255	210	244
2147	0	0	0
2148	0	0	0
2149	0	0	0
2150	0	0	0
2151	0	0	0
2152	0	0	0
2153	0	0	0
2154	0	0	0
2155	0	0	0
2156	0	0	0
2157	0	0	0
2158	0	0	0
2159	0	0	0
2160	0	0	0
2161	255	224	243
2162	255	216	239
2163	255	203	232
2164	252	188	227
2165	249	177	226
2166	251	173	229
2167	246	165	226
2168	251	172	232
2169	240	165	223
2170	253	192	237
2171	255	215	244
2172	0	0	0
2173	0	0	0
2174	0	0	0
2175	0	0	0
2176	0	0	0
2177	0	0	0
2178	0	0	0
2179	0	0	0
2180	0	0	0
2181	0	0	0
2182	0	0	0
2183	0	0	0
2184	0	0	0
2185	255	232	244
2186	255	230	245
2187	255	214	236
2188	255	201	229
2189	254	190	226
2190	250	179	225
2191	253	178	230
2192	248	170	227
2193	252	176	233
2194	242	169	225
2195	255	199	239
2196	255	221	242
2197	0	0	0
2198	0	0	0
2199	0	0	0
2200	0	0	0
2201	0	0	0
2202	0	0	0
2203	0	0	0
2204	0	0	0
2205	0	0	0
2206	0	0	0
2207	0	0	0
2208	0	0	0
2209	255	233	243
2210	255	230	242
2211	255	214	234
2212	250	199	226
2213	253	196	227
2214	250	186	224
2215	249	178	224
2216	252	177	228
2217	248	171	227
2218	252	178	232
2219	240	168	223
2220	255	199	237
2221	255	219	239
2222	0	0	0
2223	0	0	0
2224	0	0	0
2225	0	0	0
2226	0	0	0
2227	0	0	0
2228	0	0	0
2229	0	0	0
2230	0	0	0
2231	0	0	0
2232	0	0	0
2233	255	232	241
2234	255	232	242
2235	254	216	233
2236	247	200	225
2237	248	195	225
2238	252	193	229
2239	251	187	229
2240	249	178	226
2241	253	180	231
2242	249	174	228
2243	251	178	231
2244	239	169	222
2245	254	198	237
2246	255	219	241
2247	0	0	0
2248	0	0	0
2249	0	0	0
2250	0	0	0
2251	0	0	0
2252	0	0	0
2253	0	0	0
2254	0	0	0
2255	0	0	0
2256	0	0	0
2257	255	238	242
2258	255	240	246
2259	253	219	234
2260	246	203	226
2261	250	203	229
2262	250	198	229
2263	255	206	239
2264	255	199	238
2265	250	181	228
2266	253	182	231
2267	249	175	228
2268	251	179	231
2269	241	173	224
2270	255	202	239
2271	0	0	0
2272	0	0	0
2273	0	0	0
2274	0	0	0
2275	0	0	0
2276	0	0	0
2277	0	0	0
2278	0	0	0
2279	0	0	0
2280	0	0	0
2281	255	246	246
2282	255	245	246
2283	253	225	235
2284	244	204	226
2285	249	206	231
2286	253	206	233
2287	255	210	237
2288	255	216	244
2289	255	202	237
2290	252	184	227
2291	255	185	232
2292	251	178	229
2293	251	182	232
2294	241	175	224
2295	0	0	0
2296	0	0	0
2297	0	0	0
2298	0	0	0
2299	0	0	0
2300	0	0	0
2301	0	0	0
2302	0	0	0
2303	0	0	0
2304	0	0	0
2305	0	0	0
2306	0	0	0
2307	255	234	239
2308	246	213	227
2309	249	211	232
2310	254	212	236
2311	255	215	239
2312	255	218	242
2313	255	209	238
2314	255	194	232
2315	244	173	221
2316	248	175	225
2317	247	174	227
2318	247	177	229
2319	245	182	229
2320	0	0	0
2321	0	0	0
2322	0	0	0
2323	0	0	0
2324	0	0	0
2325	0	0	0
2326	0	0	0
2327	0	0	0
2328	0	0	0
2329	0	0	0
2330	0	0	0
2331	0	0	0
2332	0	0	0
2333	249	218	231
2334	252	216	234
2335	255	220	240
2336	255	223	242
2337	255	212	237
2338	255	203	235
2339	250	186	228
2340	239	165	219
2341	247	173	229
2342	246	173	230
2343	253	187	239
2344	250	191	236
2345	0	0	0
2346	0	0	0
2347	0	0	0
2348	0	0	0
2349	0	0	0
2350	0	0	0
2351	0	0	0
2352	0	0	0
2353	0	0	0
2354	0	0	0
2355	0	0	0
2356	0	0	0
2357	0	0	0
2358	255	227	238
2359	253	219	236
2360	255	223	241
2361	255	221	240
2362	255	210	236
2363	255	199	234
2364	249	183	229
2365	242	169	225
2366	250	177	234
2367	251	180	236
2368	255	194	243
2369	244	185	230
2370	0	0	0
2371	0	0	0
2372	0	0	0
2373	0	0	0
2374	0	0	0
2375	0	0	0
2376	0	0	0
2377	0	0	0
2378	0	0	0
2379	0	0	0
2380	0	0	0
2381	0	0	0
2382	0	0	0
2383	255	231	242
2384	254	223	239
2385	255	221	240
2386	255	220	239
2387	255	206	233
2388	253	195	233
2389	251	186	234
2390	244	172	229
2391	254	184	239
2392	253	185	237
2393	251	187	234
2394	0	0	0
2395	0	0	0
2396	0	0	0
2397	0	0	0
2398	0	0	0
2399	0	0	0
2400	0	0	0
2401	0	0	0
2402	0	0	0
2403	0	0	0
2404	0	0	0
2405	0	0	0
2406	0	0	0
2407	255	242	247
2408	255	235	246
2409	252	219	237
2410	255	218	238
2411	255	218	240
2412	254	205	234
2413	251	192	232
2414	249	184	232
2415	249	180	234
2416	255	191	243
2417	247	179	231
2418	0	0	0
2419	0	0	0
2420	0	0	0
2421	0	0	0
2422	0	0	0
2423	0	0	0
2424	0	0	0
2425	0	0	0
2426	0	0	0
2427	0	0	0
2428	0	0	0
2429	0	0	0
2430	0	0	0
2431	0	0	0
2432	0	0	0
2433	254	230	241
2434	247	215	234
2435	253	215	238
2436	255	216	240
2437	253	203	234
2438	248	190	229
2439	253	191	235
2440	253	187	237
2441	252	185	237
2442	242	173	225
2443	0	0	0
2444	0	0	0
2445	0	0	0
2446	0	0	0
2447	0	0	0
2448	0	0	0
2449	0	0	0
2450	0	0	0
2451	0	0	0
2452	0	0	0
2453	0	0	0
2454	0	0	0
2455	0	0	0
2456	0	0	0
2457	0	0	0
2458	0	0	0
2459	255	228	242
2460	255	230	246
2461	255	215	239
2462	252	202	234
2463	251	195	232
2464	255	195	237
2465	251	187	235
2466	250	184	235
2467	244	179	228
2468	0	0	0
2469	0	0	0
2470	0	0	0
2471	0	0	0
2472	0	0	0
2473	0	0	0
2474	0	0	0
2475	0	0	0
2476	0	0	0
2477	0	0	0
2478	0	0	0
2479	0	0	0
2480	0	0	0
2481	0	0	0
2482	0	0	0
2483	0	0	0
2484	255	244	250
2485	255	229	242
2486	255	214	235
2487	255	208	236
2488	255	201	238
2489	255	197	240
2490	251	188	236
2491	254	191	239
2492	249	186	233
2493	0	0	0
2494	0	0	0
2495	0	0	0
2496	0	0	0
2497	0	0	0
2498	0	0	0
2499	0	0	0
2500	0	0	0
2501	0	0	0
2502	0	0	0
2503	0	0	0
2504	0	0	0
2505	0	0	0
2506	0	0	0
2507	0	0	0
2508	255	236	242
2509	255	231	240
2510	251	215	231
2511	255	215	235
2512	255	209	236
2513	251	196	233
2514	251	191	234
2515	250	187	233
2516	253	191	236
2517	0	0	0
2518	0	0	0
2519	0	0	0
2520	0	0	0
2521	0	0	0
2522	0	0	0
2523	0	0	0
2524	0	0	0
2525	0	0	0
2526	0	0	0
2527	0	0	0
2528	0	0	0
2529	0	0	0
2530	0	0	0
2531	0	0	0
2532	0	0	0
2533	252	225	237
2534	252	221	236
2535	255	219	238
2536	0	0	0
2537	253	204	232
2538	245	189	224
2539	247	189	226
2540	0	0	0
2541	0	0	0
2542	0	0	0
2543	0	0	0
2544	0	0	0
2545	0	0	0
2546	0	0	0
2547	0	0	0
2548	0	0	0
2549	0	0	0
2550	0	0	0
2551	0	0	0
2552	0	0	0
2553	0	0	0
2554	0	0	0
2555	0	0	0
2556	0	0	0
2557	0	0	0
2558	0	0	0
2559	253	220	237
2560	0	0	0
2561	0	0	0
2562	0	0	0
2563	0	0	0
2564	0	0	0
2565	0	0	0
2566	0	0	0
2567	0	0	0
2568	0	0	0
2569	0	0	0
2570	0	0	0
2571	0	0	0
2572	0	0	0
2573	0	0	0
2574	0	0	0
2575	0	0	0
