 	R	G	B
1	0	0	0
2	0	0	0
3	0	0	0
4	0	0	0
5	0	0	0
6	0	0	0
7	0	0	0
8	0	0	0
9	0	0	0
10	0	0	0
11	0	0	0
12	0	0	0
13	0	0	0
14	0	0	0
15	0	0	0
16	0	0	0
17	0	0	0
18	0	0	0
19	247	208	219
20	0	0	0
21	0	0	0
22	0	0	0
23	0	0	0
24	0	0	0
25	0	0	0
26	0	0	0
27	0	0	0
28	0	0	0
29	0	0	0
30	0	0	0
31	0	0	0
32	0	0	0
33	0	0	0
34	0	0	0
35	0	0	0
36	0	0	0
37	0	0	0
38	0	0	0
39	255	228	231
40	254	213	225
41	252	204	223
42	0	0	0
43	0	0	0
44	0	0	0
45	0	0	0
46	0	0	0
47	0	0	0
48	0	0	0
49	0	0	0
50	0	0	0
51	0	0	0
52	0	0	0
53	0	0	0
54	0	0	0
55	0	0	0
56	0	0	0
57	0	0	0
58	0	0	0
59	254	235	232
60	255	222	228
61	246	200	217
62	243	189	215
63	239	185	214
64	0	0	0
65	0	0	0
66	0	0	0
67	0	0	0
68	0	0	0
69	0	0	0
70	0	0	0
71	0	0	0
72	0	0	0
73	0	0	0
74	0	0	0
75	0	0	0
76	0	0	0
77	0	0	0
78	0	0	0
79	0	0	0
80	253	228	227
81	251	211	222
82	242	189	212
83	251	197	223
84	245	191	220
85	0	0	0
86	0	0	0
87	0	0	0
88	0	0	0
89	0	0	0
90	0	0	0
91	0	0	0
92	0	0	0
93	0	0	0
94	0	0	0
95	0	0	0
96	0	0	0
97	0	0	0
98	0	0	0
99	0	0	0
100	0	0	0
101	255	227	228
102	253	208	222
103	241	183	211
104	250	191	221
105	245	187	218
106	0	0	0
107	0	0	0
108	0	0	0
109	0	0	0
110	0	0	0
111	0	0	0
112	0	0	0
113	0	0	0
114	0	0	0
115	0	0	0
116	0	0	0
117	0	0	0
118	0	0	0
119	0	0	0
120	0	0	0
121	0	0	0
122	255	222	226
123	251	202	219
124	239	177	209
125	249	186	220
126	243	182	217
127	0	0	0
128	0	0	0
129	0	0	0
130	0	0	0
131	0	0	0
132	0	0	0
133	0	0	0
134	0	0	0
135	0	0	0
136	0	0	0
137	0	0	0
138	0	0	0
139	0	0	0
140	0	0	0
141	0	0	0
142	0	0	0
143	254	215	222
144	249	195	215
145	242	178	210
146	251	187	222
147	244	182	218
148	0	0	0
149	0	0	0
150	0	0	0
151	0	0	0
152	0	0	0
153	0	0	0
154	0	0	0
155	0	0	0
156	0	0	0
157	0	0	0
158	0	0	0
159	0	0	0
160	0	0	0
161	0	0	0
162	0	0	0
163	255	225	226
164	253	209	219
165	253	198	217
166	245	181	212
167	250	186	220
168	243	180	217
169	0	0	0
170	0	0	0
171	0	0	0
172	0	0	0
173	0	0	0
174	0	0	0
175	0	0	0
176	0	0	0
177	0	0	0
178	0	0	0
179	0	0	0
180	0	0	0
181	0	0	0
182	0	0	0
183	255	241	233
184	255	225	227
185	249	197	213
186	247	186	211
187	243	176	209
188	247	181	216
189	244	184	219
190	0	0	0
191	0	0	0
192	0	0	0
193	0	0	0
194	0	0	0
195	0	0	0
196	0	0	0
197	0	0	0
198	0	0	0
199	0	0	0
200	0	0	0
201	0	0	0
202	0	0	0
203	0	0	0
204	255	239	232
205	255	214	221
206	245	187	209
207	250	186	216
208	245	176	214
209	254	190	225
210	249	191	224
211	0	0	0
212	0	0	0
213	0	0	0
214	0	0	0
215	0	0	0
216	0	0	0
217	0	0	0
218	0	0	0
219	0	0	0
220	0	0	0
221	0	0	0
222	0	0	0
223	0	0	0
224	0	0	0
225	255	233	230
226	253	208	219
227	245	183	209
228	250	182	216
229	243	171	213
230	251	183	224
231	247	188	222
232	0	0	0
233	0	0	0
234	0	0	0
235	0	0	0
236	0	0	0
237	0	0	0
238	0	0	0
239	0	0	0
240	0	0	0
241	0	0	0
242	0	0	0
243	0	0	0
244	0	0	0
245	0	0	0
246	255	228	228
247	254	204	218
248	245	180	210
249	250	179	218
250	242	166	214
251	251	182	225
252	246	186	221
253	0	0	0
254	0	0	0
255	0	0	0
256	0	0	0
257	0	0	0
258	0	0	0
259	0	0	0
260	0	0	0
261	0	0	0
262	0	0	0
263	0	0	0
264	0	0	0
265	0	0	0
266	0	0	0
267	255	218	224
268	250	192	212
269	244	174	209
270	248	173	216
271	241	165	215
272	248	179	224
273	247	189	224
274	0	0	0
275	0	0	0
276	0	0	0
277	0	0	0
278	0	0	0
279	0	0	0
280	0	0	0
281	0	0	0
282	0	0	0
283	0	0	0
284	0	0	0
285	0	0	0
286	0	0	0
287	255	223	227
288	255	206	219
289	251	189	213
290	244	170	209
291	248	172	217
292	240	162	214
293	251	184	228
294	251	194	227
295	0	0	0
296	0	0	0
297	0	0	0
298	0	0	0
299	0	0	0
300	0	0	0
301	0	0	0
302	0	0	0
303	0	0	0
304	0	0	0
305	0	0	0
306	0	0	0
307	255	233	231
308	255	216	224
309	251	193	213
310	245	176	209
311	242	166	210
312	245	167	217
313	245	170	220
314	255	191	232
315	251	193	226
316	0	0	0
317	0	0	0
318	0	0	0
319	0	0	0
320	0	0	0
321	0	0	0
322	0	0	0
323	0	0	0
324	0	0	0
325	0	0	0
326	0	0	0
327	254	226	222
328	255	225	227
329	254	203	218
330	245	180	209
331	247	175	214
332	243	165	216
333	251	176	227
334	250	177	226
335	253	187	229
336	247	188	223
337	0	0	0
338	0	0	0
339	0	0	0
340	0	0	0
341	0	0	0
342	0	0	0
343	0	0	0
344	0	0	0
345	0	0	0
346	0	0	0
347	255	235	227
348	255	230	226
349	255	214	222
350	249	192	214
351	247	179	213
352	248	173	217
353	246	169	220
354	252	178	229
355	248	177	225
356	251	186	227
357	248	192	225
358	0	0	0
359	0	0	0
360	0	0	0
361	0	0	0
362	0	0	0
363	0	0	0
364	0	0	0
365	0	0	0
366	0	0	0
367	0	0	0
368	255	240	231
369	255	221	222
370	255	206	219
371	255	196	221
372	252	181	219
373	255	181	224
374	251	174	223
375	253	179	226
376	248	178	224
377	254	191	230
378	251	198	229
379	0	0	0
380	0	0	0
381	0	0	0
382	0	0	0
383	0	0	0
384	0	0	0
385	0	0	0
386	0	0	0
387	0	0	0
388	0	0	0
389	255	229	226
390	255	211	218
391	251	193	214
392	251	181	216
393	245	167	213
394	246	166	216
395	249	171	220
396	251	175	223
397	249	178	224
398	255	191	230
399	252	197	228
400	0	0	0
401	0	0	0
402	0	0	0
403	0	0	0
404	0	0	0
405	0	0	0
406	0	0	0
407	0	0	0
408	0	0	0
409	0	0	0
410	255	219	221
411	254	200	215
412	248	180	211
413	246	170	212
414	239	155	208
415	246	165	217
416	248	169	219
417	251	175	223
418	249	178	225
419	250	188	228
420	0	0	0
421	0	0	0
422	0	0	0
423	0	0	0
424	0	0	0
425	0	0	0
426	0	0	0
427	0	0	0
428	0	0	0
429	0	0	0
430	255	227	226
431	255	210	220
432	252	190	213
433	243	168	207
434	240	157	207
435	249	169	219
436	255	177	226
437	252	175	222
438	255	182	227
439	247	178	225
440	0	0	0
441	0	0	0
442	0	0	0
443	0	0	0
444	0	0	0
445	0	0	0
446	0	0	0
447	0	0	0
448	0	0	0
449	0	0	0
450	253	229	226
451	255	213	221
452	254	196	214
453	248	178	209
454	238	156	204
455	253	173	221
456	255	183	229
457	255	183	227
458	255	181	225
459	252	181	225
460	0	0	0
461	0	0	0
462	0	0	0
463	0	0	0
464	0	0	0
465	0	0	0
466	0	0	0
467	0	0	0
468	0	0	0
469	0	0	0
470	0	0	0
471	255	227	228
472	255	209	221
473	251	188	212
474	246	171	209
475	240	156	208
476	254	172	224
477	253	172	221
478	249	171	218
479	251	178	222
480	246	177	220
481	0	0	0
482	0	0	0
483	0	0	0
484	0	0	0
485	0	0	0
486	0	0	0
487	0	0	0
488	0	0	0
489	0	0	0
490	0	0	0
491	255	228	226
492	255	222	225
493	255	201	217
494	249	181	212
495	250	172	215
496	242	156	213
497	250	165	221
498	247	164	218
499	250	172	221
500	251	179	225
501	253	189	230
502	0	0	0
503	0	0	0
504	0	0	0
505	0	0	0
506	0	0	0
507	0	0	0
508	0	0	0
509	0	0	0
510	0	0	0
511	255	237	229
512	255	230	227
513	255	209	218
514	250	188	211
515	248	175	213
516	248	166	216
517	243	156	214
518	249	163	220
519	253	172	222
520	255	180	225
521	253	182	226
522	0	0	0
523	0	0	0
524	0	0	0
525	0	0	0
526	0	0	0
527	0	0	0
528	0	0	0
529	0	0	0
530	0	0	0
531	0	0	0
532	255	236	228
533	255	216	220
534	252	196	211
535	251	185	212
536	249	172	215
537	250	168	220
538	243	156	213
539	253	170	222
540	255	178	222
541	254	181	220
542	250	182	220
543	250	191	224
544	0	0	0
545	0	0	0
546	0	0	0
547	0	0	0
548	0	0	0
549	0	0	0
550	0	0	0
551	0	0	0
552	0	0	0
553	255	233	228
554	255	213	220
555	249	187	209
556	248	176	210
557	248	168	215
558	248	163	218
559	248	163	217
560	255	176	225
561	250	173	217
562	248	175	215
563	250	187	221
564	0	0	0
565	0	0	0
566	0	0	0
567	0	0	0
568	0	0	0
569	0	0	0
570	0	0	0
571	0	0	0
572	0	0	0
573	255	234	226
574	255	232	229
575	255	206	217
576	248	181	209
577	252	177	215
578	249	167	217
579	255	172	225
580	254	171	223
581	253	173	223
582	248	170	219
583	253	184	225
584	252	194	227
585	0	0	0
586	0	0	0
587	0	0	0
588	0	0	0
589	0	0	0
590	0	0	0
591	0	0	0
592	0	0	0
593	255	234	229
594	255	226	225
595	255	215	220
596	249	188	208
597	247	174	209
598	250	170	215
599	246	161	215
600	251	165	222
601	249	164	220
602	247	165	219
603	251	177	225
604	255	190	230
605	249	195	226
606	0	0	0
607	0	0	0
608	0	0	0
609	0	0	0
610	0	0	0
611	0	0	0
612	0	0	0
613	0	0	0
614	255	222	222
615	253	208	217
616	252	196	212
617	249	183	210
618	247	169	211
619	249	166	217
620	244	155	215
621	247	160	221
622	243	158	220
623	249	171	226
624	251	182	229
625	251	190	228
626	0	0	0
627	0	0	0
628	0	0	0
629	0	0	0
630	0	0	0
631	0	0	0
632	0	0	0
633	0	0	0
634	0	0	0
635	255	225	226
636	255	213	224
637	252	192	214
638	250	178	212
639	247	166	213
640	247	162	217
641	243	155	216
642	244	158	220
643	251	172	230
644	254	184	234
645	253	191	232
646	252	199	230
647	249	208	228
648	0	0	0
649	0	0	0
650	0	0	0
651	0	0	0
652	0	0	0
653	0	0	0
654	0	0	0
655	254	225	224
656	255	225	227
657	255	204	218
658	250	185	213
659	250	176	216
660	245	162	213
661	246	161	218
662	241	153	216
663	252	171	229
664	255	184	236
665	255	193	236
666	252	198	231
667	250	207	229
668	0	0	0
669	0	0	0
670	0	0	0
671	0	0	0
672	0	0	0
673	0	0	0
674	0	0	0
675	253	233	229
676	255	230	230
677	255	218	224
678	253	197	215
679	248	180	213
680	248	170	215
681	244	161	215
682	244	159	218
683	249	167	224
684	255	184	234
685	254	185	232
686	252	193	231
687	249	202	230
688	0	0	0
689	0	0	0
690	0	0	0
691	0	0	0
692	0	0	0
693	0	0	0
694	0	0	0
695	0	0	0
696	255	235	231
697	255	222	225
698	255	210	220
699	251	191	214
700	246	174	212
701	248	171	218
702	244	161	218
703	254	174	229
704	255	181	230
705	254	184	229
706	248	184	225
707	248	196	228
708	0	0	0
709	0	0	0
710	0	0	0
711	0	0	0
712	0	0	0
713	0	0	0
714	0	0	0
715	0	0	0
716	0	0	0
717	255	232	231
718	255	217	225
719	254	203	219
720	248	184	213
721	246	174	214
722	248	170	219
723	246	165	221
724	254	178	230
725	253	181	227
726	250	184	224
727	247	193	225
728	0	0	0
729	0	0	0
730	0	0	0
731	0	0	0
732	0	0	0
733	0	0	0
734	0	0	0
735	0	0	0
736	0	0	0
737	0	0	0
738	255	226	229
739	254	210	224
740	252	196	220
741	251	187	220
742	248	175	217
743	251	175	222
744	246	169	221
745	251	179	228
746	249	182	225
747	0	0	0
748	0	0	0
749	0	0	0
750	0	0	0
751	0	0	0
752	0	0	0
753	0	0	0
754	0	0	0
755	0	0	0
756	0	0	0
757	0	0	0
758	0	0	0
759	255	228	231
760	255	213	227
761	249	190	218
762	248	181	218
763	251	181	222
764	253	180	225
765	244	170	221
766	246	179	225
767	248	191	228
768	0	0	0
769	0	0	0
770	0	0	0
771	0	0	0
772	0	0	0
773	0	0	0
774	0	0	0
775	0	0	0
776	0	0	0
777	0	0	0
778	0	0	0
779	0	0	0
780	255	230	232
781	255	208	223
782	246	185	215
783	254	189	224
784	255	188	227
785	252	183	226
786	241	172	221
787	247	189	230
788	0	0	0
789	0	0	0
790	0	0	0
791	0	0	0
792	0	0	0
793	0	0	0
794	0	0	0
795	0	0	0
796	0	0	0
797	0	0	0
798	0	0	0
799	0	0	0
800	0	0	0
801	255	223	228
802	251	200	218
803	243	179	212
804	249	183	221
805	253	187	226
806	246	179	222
807	242	181	225
808	0	0	0
809	0	0	0
810	0	0	0
811	0	0	0
812	0	0	0
813	0	0	0
814	0	0	0
815	0	0	0
816	0	0	0
817	0	0	0
818	0	0	0
819	0	0	0
820	0	0	0
821	255	229	233
822	255	217	226
823	253	198	219
824	243	177	214
825	253	187	226
826	254	189	229
827	252	192	230
828	245	192	228
829	0	0	0
830	0	0	0
831	0	0	0
832	0	0	0
833	0	0	0
834	0	0	0
835	0	0	0
836	0	0	0
837	0	0	0
838	0	0	0
839	0	0	0
840	0	0	0
841	255	240	238
842	255	226	232
843	251	200	217
844	243	181	210
845	246	180	218
846	255	189	229
847	248	184	225
848	244	185	224
849	245	200	229
850	0	0	0
851	0	0	0
852	0	0	0
853	0	0	0
854	0	0	0
855	0	0	0
856	0	0	0
857	0	0	0
858	0	0	0
859	0	0	0
860	0	0	0
861	0	0	0
862	0	0	0
863	251	208	218
864	242	183	208
865	249	186	217
866	249	183	221
867	249	184	225
868	240	178	220
869	243	194	227
870	0	0	0
871	0	0	0
872	0	0	0
873	0	0	0
874	0	0	0
875	0	0	0
876	0	0	0
877	0	0	0
878	0	0	0
879	0	0	0
880	0	0	0
881	0	0	0
882	0	0	0
883	0	0	0
884	0	0	0
885	0	0	0
886	253	191	225
887	244	178	219
888	238	175	218
889	238	187	224
890	0	0	0
891	0	0	0
892	0	0	0
893	0	0	0
894	0	0	0
895	0	0	0
896	0	0	0
897	0	0	0
898	0	0	0
899	0	0	0
900	0	0	0
901	0	0	0
902	0	0	0
903	0	0	0
904	0	0	0
905	0	0	0
906	0	0	0
907	0	0	0
908	236	171	218
909	241	187	227
910	0	0	0
911	0	0	0
912	0	0	0
913	0	0	0
914	0	0	0
915	0	0	0
916	0	0	0
917	0	0	0
918	0	0	0
919	0	0	0
920	0	0	0
921	0	0	0
922	0	0	0
923	0	0	0
924	0	0	0
