 	R	G	B
1	0	0	0
2	0	0	0
3	250	225	229
4	0	0	0
5	0	0	0
6	252	223	231
7	253	224	229
8	0	0	0
9	0	0	0
10	251	221	226
11	254	224	226
12	255	224	225
13	255	225	225
14	0	0	0
15	0	0	0
16	0	0	0
17	0	0	0
18	255	218	222
19	255	228	225
20	255	221	219
21	252	214	215
22	255	223	221
23	255	232	227
24	255	223	221
25	254	217	216
26	255	219	217
27	255	219	216
28	255	223	216
29	0	0	0
30	0	0	0
31	0	0	0
32	0	0	0
33	0	0	0
34	0	0	0
35	0	0	0
36	0	0	0
37	0	0	0
38	0	0	0
39	0	0	0
40	0	0	0
41	0	0	0
42	0	0	0
43	0	0	0
44	0	0	0
45	0	0	0
46	0	0	0
47	0	0	0
48	251	227	222
49	0	0	0
50	0	0	0
51	0	0	0
52	0	0	0
53	0	0	0
54	0	0	0
55	0	0	0
56	0	0	0
57	0	0	0
58	0	0	0
59	0	0	0
60	0	0	0
61	0	0	0
62	0	0	0
63	0	0	0
64	0	0	0
65	0	0	0
66	0	0	0
67	0	0	0
68	0	0	0
69	0	0	0
70	0	0	0
71	0	0	0
72	0	0	0
73	0	0	0
74	0	0	0
75	0	0	0
76	0	0	0
77	0	0	0
78	0	0	0
79	0	0	0
80	0	0	0
81	0	0	0
82	0	0	0
83	0	0	0
84	0	0	0
85	0	0	0
86	0	0	0
87	0	0	0
88	0	0	0
89	0	0	0
90	0	0	0
91	0	0	0
92	0	0	0
93	0	0	0
94	0	0	0
95	0	0	0
96	0	0	0
97	0	0	0
98	0	0	0
99	0	0	0
100	0	0	0
101	0	0	0
102	0	0	0
103	0	0	0
104	0	0	0
105	0	0	0
106	0	0	0
107	0	0	0
108	0	0	0
109	0	0	0
110	0	0	0
111	0	0	0
112	0	0	0
113	0	0	0
114	0	0	0
115	0	0	0
116	0	0	0
117	0	0	0
118	0	0	0
119	0	0	0
120	0	0	0
121	0	0	0
122	0	0	0
123	0	0	0
124	0	0	0
125	0	0	0
126	0	0	0
127	0	0	0
128	0	0	0
129	0	0	0
130	0	0	0
131	0	0	0
132	0	0	0
133	0	0	0
134	0	0	0
135	0	0	0
136	0	0	0
137	0	0	0
138	0	0	0
139	0	0	0
140	0	0	0
141	0	0	0
142	0	0	0
143	0	0	0
144	0	0	0
145	0	0	0
146	0	0	0
147	0	0	0
148	0	0	0
149	0	0	0
150	0	0	0
151	0	0	0
152	0	0	0
153	0	0	0
154	0	0	0
155	0	0	0
156	0	0	0
157	255	230	238
158	248	213	227
159	242	208	223
160	249	217	231
161	255	223	235
162	252	213	224
163	249	210	221
164	254	216	227
165	255	219	229
166	254	212	222
167	255	212	220
168	255	211	219
169	253	206	215
170	0	0	0
171	0	0	0
172	254	204	217
173	255	217	226
174	255	209	218
175	251	202	212
176	250	200	212
177	255	209	217
178	255	215	219
179	254	206	212
180	251	203	209
181	253	204	210
182	255	208	211
183	255	211	211
184	253	207	204
185	0	0	0
186	0	0	0
187	0	0	0
188	0	0	0
189	0	0	0
190	0	0	0
191	0	0	0
192	0	0	0
193	0	0	0
194	0	0	0
195	0	0	0
196	0	0	0
197	0	0	0
198	251	221	220
199	0	0	0
200	0	0	0
201	0	0	0
202	251	223	220
203	254	225	221
204	249	218	218
205	0	0	0
206	0	0	0
207	0	0	0
208	0	0	0
209	0	0	0
210	0	0	0
211	0	0	0
212	0	0	0
213	0	0	0
214	0	0	0
215	0	0	0
216	0	0	0
217	0	0	0
218	0	0	0
219	0	0	0
220	0	0	0
221	0	0	0
222	0	0	0
223	0	0	0
224	0	0	0
225	0	0	0
226	0	0	0
227	0	0	0
228	0	0	0
229	0	0	0
230	0	0	0
231	0	0	0
232	0	0	0
233	0	0	0
234	0	0	0
235	0	0	0
236	0	0	0
237	0	0	0
238	0	0	0
239	0	0	0
240	0	0	0
241	0	0	0
242	0	0	0
243	0	0	0
244	0	0	0
245	0	0	0
246	0	0	0
247	0	0	0
248	0	0	0
249	0	0	0
250	0	0	0
251	0	0	0
252	0	0	0
253	0	0	0
254	0	0	0
255	0	0	0
256	0	0	0
257	0	0	0
258	0	0	0
259	0	0	0
260	0	0	0
261	0	0	0
262	0	0	0
263	0	0	0
264	0	0	0
265	0	0	0
266	0	0	0
267	0	0	0
268	0	0	0
269	0	0	0
270	0	0	0
271	0	0	0
272	0	0	0
273	0	0	0
274	0	0	0
275	0	0	0
276	0	0	0
277	0	0	0
278	0	0	0
279	0	0	0
280	0	0	0
281	0	0	0
282	0	0	0
283	0	0	0
284	0	0	0
285	0	0	0
286	0	0	0
287	0	0	0
288	0	0	0
289	0	0	0
290	0	0	0
291	0	0	0
292	0	0	0
293	0	0	0
294	0	0	0
295	0	0	0
296	0	0	0
297	0	0	0
298	0	0	0
299	0	0	0
300	0	0	0
301	0	0	0
302	0	0	0
303	0	0	0
304	0	0	0
305	0	0	0
306	0	0	0
307	0	0	0
308	0	0	0
309	0	0	0
310	0	0	0
311	248	220	232
312	245	209	225
313	235	193	216
314	236	200	220
315	244	209	226
316	247	204	223
317	242	195	213
318	248	201	217
319	253	207	222
320	250	201	217
321	246	194	211
322	248	195	211
323	249	194	212
324	248	192	211
325	247	189	209
326	252	195	214
327	255	199	216
328	252	194	213
329	248	188	211
330	248	187	211
331	246	185	209
332	252	193	212
333	255	198	213
334	252	194	208
335	250	190	205
336	251	193	207
337	253	196	209
338	251	194	207
339	248	190	202
340	255	201	208
341	255	212	213
342	255	207	209
343	254	203	207
344	254	203	209
345	254	203	209
346	255	206	211
347	255	209	213
348	255	211	213
349	255	215	215
350	255	218	216
351	255	220	217
352	255	220	218
353	255	222	222
354	255	217	221
355	0	0	0
356	251	216	221
357	255	224	225
358	253	217	219
359	247	210	213
360	252	220	219
361	0	0	0
362	0	0	0
363	0	0	0
364	0	0	0
365	0	0	0
366	0	0	0
367	0	0	0
368	0	0	0
369	0	0	0
370	252	224	223
371	0	0	0
372	0	0	0
373	0	0	0
374	0	0	0
375	0	0	0
376	0	0	0
377	0	0	0
378	0	0	0
379	0	0	0
380	0	0	0
381	0	0	0
382	0	0	0
383	0	0	0
384	0	0	0
385	0	0	0
386	0	0	0
387	0	0	0
388	0	0	0
389	0	0	0
390	0	0	0
391	0	0	0
392	0	0	0
393	0	0	0
394	0	0	0
395	0	0	0
396	0	0	0
397	0	0	0
398	0	0	0
399	0	0	0
400	0	0	0
401	0	0	0
402	0	0	0
403	0	0	0
404	0	0	0
405	0	0	0
406	0	0	0
407	0	0	0
408	0	0	0
409	0	0	0
410	0	0	0
411	0	0	0
412	0	0	0
413	0	0	0
414	0	0	0
415	0	0	0
416	0	0	0
417	0	0	0
418	0	0	0
419	0	0	0
420	0	0	0
421	0	0	0
422	0	0	0
423	0	0	0
424	0	0	0
425	0	0	0
426	0	0	0
427	0	0	0
428	0	0	0
429	0	0	0
430	0	0	0
431	0	0	0
432	0	0	0
433	0	0	0
434	0	0	0
435	0	0	0
436	0	0	0
437	0	0	0
438	0	0	0
439	0	0	0
440	0	0	0
441	0	0	0
442	0	0	0
443	0	0	0
444	0	0	0
445	0	0	0
446	0	0	0
447	0	0	0
448	0	0	0
449	0	0	0
450	0	0	0
451	0	0	0
452	0	0	0
453	0	0	0
454	0	0	0
455	0	0	0
456	0	0	0
457	0	0	0
458	0	0	0
459	0	0	0
460	0	0	0
461	0	0	0
462	0	0	0
463	0	0	0
464	0	0	0
465	0	0	0
466	0	0	0
467	246	214	231
468	241	205	227
469	243	212	232
470	246	213	232
471	249	209	229
472	248	201	221
473	255	208	226
474	253	203	223
475	248	196	218
476	252	199	218
477	255	201	220
478	251	191	215
479	250	189	214
480	254	194	217
481	255	200	222
482	253	189	214
483	250	183	211
484	254	188	218
485	253	188	218
486	253	188	216
487	255	196	220
488	253	184	210
489	250	180	205
490	252	184	207
491	253	186	208
492	255	194	213
493	255	191	210
494	254	190	208
495	255	201	214
496	255	195	207
497	251	190	202
498	255	194	206
499	254	194	208
500	252	192	207
501	254	196	208
502	255	199	209
503	255	202	209
504	255	203	210
505	255	205	211
506	255	204	210
507	254	204	210
508	254	206	213
509	249	200	210
510	255	210	219
511	255	217	224
512	255	213	220
513	247	204	212
514	252	210	216
515	255	224	225
516	253	211	214
517	0	0	0
518	0	0	0
519	0	0	0
520	0	0	0
521	246	210	213
522	246	213	217
523	0	0	0
524	250	220	223
525	255	226	228
526	247	214	220
527	0	0	0
528	0	0	0
529	0	0	0
530	0	0	0
531	0	0	0
532	0	0	0
533	0	0	0
534	0	0	0
535	0	0	0
536	0	0	0
537	0	0	0
538	0	0	0
539	0	0	0
540	0	0	0
541	0	0	0
542	0	0	0
543	0	0	0
544	0	0	0
545	0	0	0
546	0	0	0
547	0	0	0
548	0	0	0
549	0	0	0
550	0	0	0
551	0	0	0
552	0	0	0
553	0	0	0
554	0	0	0
555	0	0	0
556	0	0	0
557	0	0	0
558	0	0	0
559	0	0	0
560	0	0	0
561	0	0	0
562	0	0	0
563	0	0	0
564	0	0	0
565	0	0	0
566	0	0	0
567	0	0	0
568	0	0	0
569	0	0	0
570	0	0	0
571	0	0	0
572	0	0	0
573	0	0	0
574	0	0	0
575	0	0	0
576	0	0	0
577	0	0	0
578	0	0	0
579	0	0	0
580	0	0	0
581	0	0	0
582	0	0	0
583	0	0	0
584	0	0	0
585	0	0	0
586	0	0	0
587	0	0	0
588	0	0	0
589	0	0	0
590	0	0	0
591	0	0	0
592	0	0	0
593	0	0	0
594	0	0	0
595	0	0	0
596	0	0	0
597	0	0	0
598	0	0	0
599	0	0	0
600	0	0	0
601	0	0	0
602	0	0	0
603	0	0	0
604	0	0	0
605	0	0	0
606	0	0	0
607	0	0	0
608	0	0	0
609	0	0	0
610	0	0	0
611	0	0	0
612	0	0	0
613	0	0	0
614	0	0	0
615	0	0	0
616	0	0	0
617	0	0	0
618	0	0	0
619	0	0	0
620	0	0	0
621	0	0	0
622	0	0	0
623	238	207	230
624	236	208	231
625	240	210	232
626	245	206	230
627	245	199	225
628	249	199	225
629	248	194	223
630	250	197	224
631	254	200	225
632	250	191	218
633	245	181	213
634	252	188	218
635	255	193	220
636	249	183	213
637	244	173	210
638	251	180	216
639	254	184	217
640	252	182	215
641	252	183	215
642	249	175	210
643	242	164	202
644	245	170	206
645	248	174	208
646	253	181	211
647	255	187	211
648	253	184	206
649	251	182	203
650	248	179	201
651	246	175	199
652	250	180	202
653	253	184	205
654	253	184	206
655	251	183	206
656	254	187	209
657	255	191	208
658	254	190	206
659	253	190	204
660	252	189	204
661	250	189	204
662	249	189	204
663	248	190	203
664	252	197	208
665	255	207	216
666	254	204	214
667	251	201	211
668	253	206	215
669	255	212	219
670	253	204	214
671	243	192	205
672	246	201	210
673	254	214	218
674	253	212	217
675	251	210	216
676	252	213	219
677	252	215	221
678	249	215	221
679	251	218	224
680	248	210	220
681	238	199	212
682	245	215	222
683	0	0	0
684	0	0	0
685	0	0	0
686	245	222	226
687	0	0	0
688	0	0	0
689	0	0	0
690	0	0	0
691	0	0	0
692	0	0	0
693	0	0	0
694	0	0	0
695	0	0	0
696	0	0	0
697	0	0	0
698	0	0	0
699	0	0	0
700	0	0	0
701	0	0	0
702	0	0	0
703	0	0	0
704	0	0	0
705	0	0	0
706	0	0	0
707	0	0	0
708	0	0	0
709	0	0	0
710	0	0	0
711	0	0	0
712	0	0	0
713	0	0	0
714	0	0	0
715	0	0	0
716	0	0	0
717	0	0	0
718	0	0	0
719	0	0	0
720	0	0	0
721	0	0	0
722	0	0	0
723	0	0	0
724	0	0	0
725	0	0	0
726	0	0	0
727	0	0	0
728	0	0	0
729	0	0	0
730	0	0	0
731	0	0	0
732	0	0	0
733	0	0	0
734	0	0	0
735	0	0	0
736	0	0	0
737	0	0	0
738	0	0	0
739	0	0	0
740	0	0	0
741	0	0	0
742	0	0	0
743	0	0	0
744	0	0	0
745	0	0	0
746	0	0	0
747	0	0	0
748	0	0	0
749	0	0	0
750	0	0	0
751	0	0	0
752	0	0	0
753	0	0	0
754	0	0	0
755	0	0	0
756	0	0	0
757	0	0	0
758	0	0	0
759	0	0	0
760	0	0	0
761	0	0	0
762	0	0	0
763	0	0	0
764	0	0	0
765	0	0	0
766	0	0	0
767	0	0	0
768	0	0	0
769	0	0	0
770	0	0	0
771	0	0	0
772	0	0	0
773	0	0	0
774	0	0	0
775	0	0	0
776	0	0	0
777	0	0	0
778	0	0	0
779	0	0	0
780	242	218	237
781	247	215	237
782	245	202	230
783	252	204	232
784	252	198	229
785	255	202	231
786	252	197	226
787	245	186	218
788	249	188	221
789	255	197	229
790	251	183	219
791	241	172	211
792	247	179	218
793	255	188	226
794	250	176	215
795	248	174	213
796	251	178	216
797	248	170	212
798	245	166	210
799	246	170	212
800	247	172	214
801	255	181	217
802	255	181	212
803	249	177	205
804	246	175	204
805	245	173	203
806	252	180	209
807	255	186	214
808	254	177	207
809	254	177	208
810	250	172	206
811	252	176	208
812	255	185	212
813	255	184	209
814	250	179	203
815	249	178	203
816	252	185	208
817	249	183	205
818	254	193	209
819	255	201	212
820	253	198	211
821	249	194	208
822	251	197	211
823	255	205	218
824	251	196	212
825	240	184	203
826	244	193	209
827	251	205	217
828	252	206	217
829	250	203	215
830	251	203	216
831	255	208	221
832	251	204	218
833	245	202	216
834	248	210	221
835	238	199	214
836	243	205	219
837	255	226	234
838	250	218	225
839	0	0	0
840	243	220	224
841	249	225	229
842	245	220	227
843	0	0	0
844	251	229	231
845	251	231	232
846	0	0	0
847	0	0	0
848	0	0	0
849	0	0	0
850	0	0	0
851	0	0	0
852	0	0	0
853	0	0	0
854	0	0	0
855	0	0	0
856	0	0	0
857	0	0	0
858	0	0	0
859	0	0	0
860	0	0	0
861	0	0	0
862	0	0	0
863	0	0	0
864	0	0	0
865	0	0	0
866	0	0	0
867	0	0	0
868	0	0	0
869	0	0	0
870	0	0	0
871	0	0	0
872	0	0	0
873	0	0	0
874	0	0	0
875	0	0	0
876	0	0	0
877	0	0	0
878	0	0	0
879	0	0	0
880	0	0	0
881	0	0	0
882	0	0	0
883	0	0	0
884	0	0	0
885	0	0	0
886	0	0	0
887	0	0	0
888	0	0	0
889	0	0	0
890	0	0	0
891	0	0	0
892	0	0	0
893	0	0	0
894	0	0	0
895	0	0	0
896	0	0	0
897	0	0	0
898	0	0	0
899	0	0	0
900	0	0	0
901	0	0	0
902	0	0	0
903	0	0	0
904	0	0	0
905	0	0	0
906	0	0	0
907	0	0	0
908	0	0	0
909	0	0	0
910	0	0	0
911	0	0	0
912	0	0	0
913	0	0	0
914	0	0	0
915	0	0	0
916	0	0	0
917	0	0	0
918	0	0	0
919	0	0	0
920	0	0	0
921	0	0	0
922	0	0	0
923	0	0	0
924	0	0	0
925	0	0	0
926	0	0	0
927	0	0	0
928	0	0	0
929	0	0	0
930	0	0	0
931	0	0	0
932	0	0	0
933	0	0	0
934	0	0	0
935	0	0	0
936	238	209	230
937	237	198	226
938	246	199	230
939	245	194	226
940	245	191	224
941	243	187	220
942	246	188	221
943	250	191	225
944	249	183	223
945	241	170	216
946	244	175	220
947	248	181	222
948	245	172	216
949	239	162	210
950	241	164	213
951	244	168	216
952	246	167	217
953	242	163	213
954	240	164	213
955	242	166	216
956	249	171	217
957	248	171	209
958	242	166	204
959	243	168	209
960	252	177	217
961	255	183	220
962	255	176	215
963	252	167	209
964	249	164	207
965	245	158	204
966	251	168	210
967	255	176	213
968	250	170	207
969	245	165	203
970	249	172	207
971	251	178	211
972	253	186	214
973	255	195	215
974	255	193	212
975	251	189	210
976	248	189	210
977	250	193	213
978	247	186	208
979	240	177	202
980	242	185	208
981	248	195	215
982	251	198	218
983	251	199	218
984	247	195	214
985	246	194	214
986	248	194	216
987	244	189	212
988	245	197	217
989	247	204	222
990	244	206	221
991	249	212	227
992	249	210	225
993	241	201	217
994	239	209	220
995	247	223	229
996	245	218	225
997	242	212	222
998	249	220	228
999	251	225	230
1000	244	219	224
1001	240	216	223
1002	246	225	229
1003	0	0	0
1004	0	0	0
1005	0	0	0
1006	0	0	0
1007	0	0	0
1008	0	0	0
1009	0	0	0
1010	0	0	0
1011	0	0	0
1012	0	0	0
1013	0	0	0
1014	0	0	0
1015	0	0	0
1016	0	0	0
1017	0	0	0
1018	0	0	0
1019	0	0	0
1020	0	0	0
1021	0	0	0
1022	0	0	0
1023	0	0	0
1024	0	0	0
1025	0	0	0
1026	0	0	0
1027	0	0	0
1028	0	0	0
1029	0	0	0
1030	0	0	0
1031	0	0	0
1032	0	0	0
1033	0	0	0
1034	0	0	0
1035	0	0	0
1036	0	0	0
1037	0	0	0
1038	0	0	0
1039	0	0	0
1040	0	0	0
1041	0	0	0
1042	0	0	0
1043	0	0	0
1044	0	0	0
1045	0	0	0
1046	0	0	0
1047	0	0	0
1048	0	0	0
1049	0	0	0
1050	0	0	0
1051	0	0	0
1052	0	0	0
1053	0	0	0
1054	0	0	0
1055	0	0	0
1056	0	0	0
1057	0	0	0
1058	0	0	0
1059	0	0	0
1060	0	0	0
1061	0	0	0
1062	0	0	0
1063	0	0	0
1064	0	0	0
1065	0	0	0
1066	0	0	0
1067	0	0	0
1068	0	0	0
1069	0	0	0
1070	0	0	0
1071	0	0	0
1072	0	0	0
1073	0	0	0
1074	0	0	0
1075	0	0	0
1076	0	0	0
1077	0	0	0
1078	0	0	0
1079	0	0	0
1080	0	0	0
1081	0	0	0
1082	0	0	0
1083	0	0	0
1084	0	0	0
1085	0	0	0
1086	0	0	0
1087	0	0	0
1088	0	0	0
1089	0	0	0
1090	0	0	0
1091	0	0	0
1092	242	212	234
1093	249	213	237
1094	243	199	229
1095	243	197	227
1096	246	197	227
1097	254	202	231
1098	251	191	227
1099	246	181	223
1100	246	179	225
1101	252	186	231
1102	243	174	220
1103	234	162	211
1104	242	173	220
1105	248	177	225
1106	244	169	221
1107	244	168	221
1108	240	163	217
1109	240	165	219
1110	242	168	221
1111	248	172	222
1112	248	172	216
1113	245	169	212
1114	253	177	222
1115	255	188	233
1116	252	164	215
1117	248	156	209
1118	253	163	213
1119	250	159	210
1120	249	159	210
1121	255	168	216
1122	255	173	217
1123	251	166	210
1124	252	169	211
1125	255	176	215
1126	255	178	216
1127	255	186	218
1128	255	189	216
1129	255	187	213
1130	250	181	210
1131	246	181	210
1132	249	189	215
1133	242	180	209
1134	241	180	208
1135	247	190	216
1136	248	191	218
1137	253	195	221
1138	246	187	214
1139	238	181	209
1140	248	197	220
1141	249	196	220
1142	240	183	214
1143	244	193	220
1144	246	199	223
1145	245	201	222
1146	249	210	226
1147	245	204	221
1148	242	204	221
1149	244	215	226
1150	245	219	227
1151	242	212	223
1152	246	215	225
1153	253	223	231
1154	249	220	227
1155	237	212	219
1156	242	220	226
1157	255	233	236
1158	247	224	227
1159	0	0	0
1160	0	0	0
1161	0	0	0
1162	0	0	0
1163	0	0	0
1164	0	0	0
1165	0	0	0
1166	0	0	0
1167	0	0	0
1168	244	234	229
1169	0	0	0
1170	0	0	0
1171	0	0	0
1172	0	0	0
1173	0	0	0
1174	0	0	0
1175	0	0	0
1176	0	0	0
1177	0	0	0
1178	0	0	0
1179	0	0	0
1180	0	0	0
1181	0	0	0
1182	0	0	0
1183	0	0	0
1184	0	0	0
1185	0	0	0
1186	0	0	0
1187	0	0	0
1188	0	0	0
1189	0	0	0
1190	0	0	0
1191	0	0	0
1192	0	0	0
1193	0	0	0
1194	0	0	0
1195	0	0	0
1196	0	0	0
1197	0	0	0
1198	0	0	0
1199	0	0	0
1200	0	0	0
1201	0	0	0
1202	0	0	0
1203	0	0	0
1204	0	0	0
1205	0	0	0
1206	0	0	0
1207	0	0	0
1208	0	0	0
1209	0	0	0
1210	0	0	0
1211	0	0	0
1212	0	0	0
1213	0	0	0
1214	0	0	0
1215	0	0	0
1216	0	0	0
1217	0	0	0
1218	0	0	0
1219	0	0	0
1220	0	0	0
1221	0	0	0
1222	0	0	0
1223	0	0	0
1224	0	0	0
1225	0	0	0
1226	0	0	0
1227	0	0	0
1228	0	0	0
1229	0	0	0
1230	0	0	0
1231	0	0	0
1232	0	0	0
1233	0	0	0
1234	0	0	0
1235	0	0	0
1236	0	0	0
1237	0	0	0
1238	0	0	0
1239	0	0	0
1240	0	0	0
1241	0	0	0
1242	0	0	0
1243	0	0	0
1244	0	0	0
1245	0	0	0
1246	0	0	0
1247	0	0	0
1248	243	213	233
1249	238	200	228
1250	242	203	231
1251	246	204	229
1252	247	196	226
1253	244	187	223
1254	246	185	225
1255	247	183	226
1256	245	176	225
1257	237	165	218
1258	241	174	224
1259	248	183	229
1260	244	174	223
1261	240	167	219
1262	240	165	219
1263	237	160	217
1264	237	163	220
1265	240	166	221
1266	246	171	224
1267	249	173	224
1268	253	176	225
1269	255	182	228
1270	251	162	215
1271	236	138	200
1272	242	146	206
1273	246	153	211
1274	246	153	210
1275	245	152	209
1276	249	159	213
1277	252	163	214
1278	253	166	213
1279	253	168	211
1280	253	171	211
1281	252	174	214
1282	249	175	213
1283	249	178	212
1284	249	176	210
1285	244	170	206
1286	243	176	210
1287	246	184	216
1288	243	182	215
1289	242	182	214
1290	241	181	214
1291	242	182	216
1292	241	177	214
1293	235	170	207
1294	243	185	217
1295	252	200	225
1296	240	186	216
1297	232	175	213
1298	239	185	222
1299	242	192	223
1300	243	198	222
1301	246	204	222
1302	244	205	220
1303	241	205	220
1304	236	206	219
1305	239	211	223
1306	244	214	226
1307	247	216	227
1308	248	216	227
1309	244	214	222
1310	240	216	221
1311	245	224	229
1312	250	223	230
1313	243	215	223
1314	0	0	0
1315	248	233	233
1316	246	231	232
1317	0	0	0
1318	0	0	0
1319	0	0	0
1320	0	0	0
1321	248	230	228
1322	247	232	229
1323	249	236	233
1324	253	240	237
1325	253	242	239
1326	0	0	0
1327	0	0	0
1328	0	0	0
1329	0	0	0
1330	0	0	0
1331	0	0	0
1332	0	0	0
1333	0	0	0
1334	0	0	0
1335	0	0	0
1336	0	0	0
1337	0	0	0
1338	0	0	0
1339	0	0	0
1340	0	0	0
1341	0	0	0
1342	0	0	0
1343	0	0	0
1344	0	0	0
1345	0	0	0
1346	0	0	0
1347	0	0	0
1348	0	0	0
1349	0	0	0
1350	0	0	0
1351	0	0	0
1352	0	0	0
1353	0	0	0
1354	0	0	0
1355	0	0	0
1356	0	0	0
1357	0	0	0
1358	0	0	0
1359	0	0	0
1360	0	0	0
1361	0	0	0
1362	0	0	0
1363	0	0	0
1364	0	0	0
1365	0	0	0
1366	0	0	0
1367	0	0	0
1368	0	0	0
1369	0	0	0
1370	0	0	0
1371	0	0	0
1372	0	0	0
1373	0	0	0
1374	0	0	0
1375	0	0	0
1376	0	0	0
1377	0	0	0
1378	0	0	0
1379	0	0	0
1380	0	0	0
1381	0	0	0
1382	0	0	0
1383	0	0	0
1384	0	0	0
1385	0	0	0
1386	0	0	0
1387	0	0	0
1388	0	0	0
1389	0	0	0
1390	0	0	0
1391	0	0	0
1392	255	245	235
1393	255	255	242
1394	255	246	238
1395	0	0	0
1396	0	0	0
1397	0	0	0
1398	0	0	0
1399	0	0	0
1400	0	0	0
1401	0	0	0
1402	0	0	0
1403	0	0	0
1404	240	211	232
1405	245	214	236
1406	241	203	228
1407	241	195	224
1408	241	189	223
1409	246	190	228
1410	246	184	228
1411	247	179	227
1412	242	171	225
1413	247	180	231
1414	243	175	226
1415	239	167	220
1416	244	171	224
1417	243	169	224
1418	238	163	221
1419	238	166	223
1420	240	167	224
1421	248	173	229
1422	253	174	230
1423	255	179	232
1424	253	166	222
1425	237	143	206
1426	238	143	208
1427	243	151	215
1428	249	159	219
1429	248	159	218
1430	246	155	215
1431	251	162	219
1432	251	162	216
1433	253	165	215
1434	251	165	211
1435	251	168	211
1436	253	175	217
1437	250	177	217
1438	247	175	215
1439	246	173	214
1440	239	166	209
1441	239	172	213
1442	237	173	215
1443	236	173	214
1444	237	177	216
1445	237	177	216
1446	241	183	220
1447	234	175	214
1448	234	175	215
1449	253	195	230
1450	241	181	217
1451	221	163	203
1452	233	182	221
1453	244	194	231
1454	240	192	225
1455	240	196	224
1456	239	198	220
1457	237	199	218
1458	235	200	217
1459	229	200	215
1460	239	213	226
1461	247	218	230
1462	243	210	225
1463	240	208	221
1464	240	212	221
1465	241	218	223
1466	243	219	227
1467	244	216	226
1468	245	215	225
1469	251	226	231
1470	254	231	233
1471	248	227	228
1472	245	223	227
1473	0	0	0
1474	0	0	0
1475	242	223	224
1476	247	230	227
1477	254	236	233
1478	249	227	229
1479	250	229	232
1480	249	232	231
1481	238	223	224
1482	0	0	0
1483	0	0	0
1484	0	0	0
1485	0	0	0
1486	0	0	0
1487	0	0	0
1488	0	0	0
1489	0	0	0
1490	0	0	0
1491	0	0	0
1492	0	0	0
1493	0	0	0
1494	0	0	0
1495	0	0	0
1496	0	0	0
1497	0	0	0
1498	0	0	0
1499	0	0	0
1500	0	0	0
1501	0	0	0
1502	0	0	0
1503	0	0	0
1504	0	0	0
1505	0	0	0
1506	0	0	0
1507	0	0	0
1508	0	0	0
1509	0	0	0
1510	0	0	0
1511	0	0	0
1512	0	0	0
1513	0	0	0
1514	0	0	0
1515	0	0	0
1516	0	0	0
1517	0	0	0
1518	0	0	0
1519	0	0	0
1520	0	0	0
1521	0	0	0
1522	0	0	0
1523	0	0	0
1524	0	0	0
1525	0	0	0
1526	0	0	0
1527	0	0	0
1528	0	0	0
1529	0	0	0
1530	0	0	0
1531	0	0	0
1532	0	0	0
1533	0	0	0
1534	0	0	0
1535	0	0	0
1536	0	0	0
1537	0	0	0
1538	0	0	0
1539	0	0	0
1540	0	0	0
1541	0	0	0
1542	0	0	0
1543	0	0	0
1544	0	0	0
1545	0	0	0
1546	253	232	225
1547	255	242	232
1548	253	234	230
1549	247	225	227
1550	246	226	230
1551	0	0	0
1552	0	0	0
1553	0	0	0
1554	0	0	0
1555	0	0	0
1556	0	0	0
1557	0	0	0
1558	241	224	232
1559	241	220	233
1560	236	209	228
1561	233	199	223
1562	236	195	223
1563	237	190	223
1564	240	186	225
1565	240	181	226
1566	243	178	227
1567	238	170	222
1568	235	167	220
1569	233	164	220
1570	238	169	225
1571	243	173	228
1572	241	169	226
1573	236	163	222
1574	235	164	223
1575	238	166	225
1576	243	166	225
1577	248	167	225
1578	243	155	217
1579	237	144	210
1580	236	143	211
1581	237	144	214
1582	243	154	221
1583	248	161	223
1584	246	158	220
1585	245	155	218
1586	248	158	219
1587	247	157	215
1588	248	159	213
1589	247	159	211
1590	248	165	214
1591	250	173	217
1592	244	169	214
1593	242	168	215
1594	237	163	213
1595	230	156	209
1596	229	159	211
1597	227	160	211
1598	228	165	214
1599	229	169	217
1600	234	176	220
1601	236	181	220
1602	229	175	214
1603	231	176	218
1604	234	171	218
1605	223	157	208
1606	226	171	216
1607	235	189	226
1608	234	187	224
1609	231	185	220
1610	230	187	219
1611	231	190	220
1612	232	194	220
1613	229	195	217
1614	232	203	220
1615	241	217	229
1616	240	210	226
1617	236	202	220
1618	239	208	223
1619	241	213	223
1620	239	212	222
1621	240	212	224
1622	241	213	225
1623	242	213	226
1624	249	220	229
1625	251	224	225
1626	242	217	218
1627	240	214	221
1628	0	0	0
1629	245	222	225
1630	244	224	224
1631	250	232	229
1632	250	226	227
1633	245	216	225
1634	247	221	229
1635	247	224	227
1636	244	226	227
1637	247	231	233
1638	0	0	0
1639	0	0	0
1640	0	0	0
1641	0	0	0
1642	0	0	0
1643	0	0	0
1644	0	0	0
1645	0	0	0
1646	0	0	0
1647	0	0	0
1648	0	0	0
1649	0	0	0
1650	0	0	0
1651	0	0	0
1652	0	0	0
1653	0	0	0
1654	0	0	0
1655	0	0	0
1656	0	0	0
1657	0	0	0
1658	0	0	0
1659	0	0	0
1660	0	0	0
1661	0	0	0
1662	0	0	0
1663	0	0	0
1664	0	0	0
1665	0	0	0
1666	0	0	0
1667	0	0	0
1668	0	0	0
1669	0	0	0
1670	0	0	0
1671	0	0	0
1672	0	0	0
1673	0	0	0
1674	0	0	0
1675	0	0	0
1676	0	0	0
1677	0	0	0
1678	0	0	0
1679	0	0	0
1680	0	0	0
1681	0	0	0
1682	0	0	0
1683	0	0	0
1684	0	0	0
1685	0	0	0
1686	0	0	0
1687	0	0	0
1688	0	0	0
1689	0	0	0
1690	0	0	0
1691	0	0	0
1692	255	227	222
1693	255	230	225
1694	255	229	225
1695	255	226	222
1696	255	229	225
1697	255	233	231
1698	255	237	235
1699	255	242	239
1700	255	239	236
1701	255	235	229
1702	252	224	221
1703	247	217	221
1704	247	217	226
1705	243	216	227
1706	0	0	0
1707	0	0	0
1708	0	0	0
1709	0	0	0
1710	0	0	0
1711	0	0	0
1712	0	0	0
1713	0	0	0
1714	241	226	233
1715	235	215	227
1716	233	206	225
1717	236	203	227
1718	239	198	229
1719	240	194	230
1720	234	181	226
1721	235	177	225
1722	235	176	224
1723	235	174	224
1724	234	172	226
1725	240	177	231
1726	242	178	231
1727	240	174	229
1728	231	160	220
1729	233	163	223
1730	239	170	229
1731	245	170	229
1732	250	173	229
1733	244	160	220
1734	244	158	221
1735	243	157	223
1736	247	162	227
1737	255	173	235
1738	252	165	228
1739	250	163	225
1740	247	157	222
1741	250	161	223
1742	250	161	220
1743	250	163	218
1744	252	169	221
1745	252	174	222
1746	251	176	221
1747	249	175	221
1748	243	171	220
1749	234	164	216
1750	235	169	221
1751	239	175	226
1752	231	168	221
1753	227	169	221
1754	221	165	218
1755	225	171	220
1756	229	178	221
1757	226	174	217
1758	230	177	223
1759	227	170	221
1760	225	167	219
1761	233	184	229
1762	232	188	227
1763	224	182	219
1764	230	192	224
1765	233	197	227
1766	232	196	226
1767	233	200	226
1768	232	199	222
1769	240	211	228
1770	240	212	228
1771	232	202	220
1772	235	205	222
1773	244	215	229
1774	245	215	226
1775	242	212	224
1776	238	210	223
1777	235	208	221
1778	242	217	228
1779	250	225	232
1780	243	218	220
1781	234	210	213
1782	237	214	221
1783	246	222	228
1784	248	223	227
1785	251	228	229
1786	251	228	228
1787	247	219	224
1788	245	215	225
1789	248	220	229
1790	252	227	231
1791	255	233	234
1792	251	226	230
1793	250	227	230
1794	0	0	0
1795	0	0	0
1796	0	0	0
1797	0	0	0
1798	0	0	0
1799	0	0	0
1800	0	0	0
1801	0	0	0
1802	0	0	0
1803	0	0	0
1804	0	0	0
1805	0	0	0
1806	0	0	0
1807	0	0	0
1808	0	0	0
1809	0	0	0
1810	0	0	0
1811	0	0	0
1812	0	0	0
1813	0	0	0
1814	0	0	0
1815	0	0	0
1816	0	0	0
1817	0	0	0
1818	0	0	0
1819	0	0	0
1820	0	0	0
1821	0	0	0
1822	0	0	0
1823	0	0	0
1824	0	0	0
1825	0	0	0
1826	0	0	0
1827	0	0	0
1828	0	0	0
1829	0	0	0
1830	0	0	0
1831	0	0	0
1832	0	0	0
1833	0	0	0
1834	0	0	0
1835	0	0	0
1836	0	0	0
1837	0	0	0
1838	0	0	0
1839	0	0	0
1840	0	0	0
1841	0	0	0
1842	0	0	0
1843	0	0	0
1844	0	0	0
1845	0	0	0
1846	255	210	214
1847	255	216	219
1848	251	204	212
1849	250	202	212
1850	255	211	217
1851	255	215	221
1852	253	208	219
1853	254	213	224
1854	255	216	226
1855	253	211	221
1856	254	214	220
1857	245	203	213
1858	248	210	222
1859	243	207	223
1860	243	214	228
1861	0	0	0
1862	0	0	0
1863	0	0	0
1864	0	0	0
1865	0	0	0
1866	0	0	0
1867	0	0	0
1868	245	234	237
1869	249	238	240
1870	241	225	232
1871	239	217	231
1872	246	215	236
1873	247	210	237
1874	239	197	231
1875	232	183	226
1876	237	185	230
1877	239	184	230
1878	239	182	229
1879	238	179	230
1880	240	181	232
1881	242	183	233
1882	235	170	225
1883	227	157	218
1884	232	164	225
1885	239	171	231
1886	244	173	231
1887	249	175	230
1888	249	171	227
1889	249	169	228
1890	250	172	230
1891	253	175	233
1892	254	172	231
1893	251	166	227
1894	249	162	225
1895	246	157	222
1896	249	162	224
1897	248	163	221
1898	252	169	223
1899	254	175	226
1900	249	174	223
1901	249	177	223
1902	245	173	220
1903	239	168	218
1904	235	171	220
1905	236	176	225
1906	235	174	225
1907	227	167	221
1908	217	162	217
1909	210	157	215
1910	217	167	222
1911	222	175	223
1912	223	174	222
1913	227	177	226
1914	226	176	227
1915	223	172	224
1916	225	179	226
1917	223	182	224
1918	224	188	224
1919	231	199	229
1920	231	198	226
1921	230	197	224
1922	231	199	224
1923	232	200	223
1924	236	204	225
1925	236	206	225
1926	233	205	222
1927	236	208	224
1928	241	211	226
1929	243	212	224
1930	240	209	222
1931	236	207	220
1932	238	213	224
1933	244	221	228
1934	243	218	225
1935	239	212	219
1936	237	213	219
1937	241	218	224
1938	250	224	231
1939	253	226	230
1940	248	221	225
1941	248	220	225
1942	247	216	223
1943	244	212	221
1944	249	220	227
1945	254	228	232
1946	252	223	227
1947	246	214	221
1948	246	219	222
1949	249	225	226
1950	0	0	0
1951	0	0	0
1952	0	0	0
1953	0	0	0
1954	0	0	0
1955	0	0	0
1956	0	0	0
1957	0	0	0
1958	0	0	0
1959	0	0	0
1960	0	0	0
1961	0	0	0
1962	0	0	0
1963	0	0	0
1964	0	0	0
1965	0	0	0
1966	0	0	0
1967	0	0	0
1968	0	0	0
1969	0	0	0
1970	0	0	0
1971	0	0	0
1972	0	0	0
1973	0	0	0
1974	0	0	0
1975	0	0	0
1976	0	0	0
1977	0	0	0
1978	0	0	0
1979	0	0	0
1980	0	0	0
1981	0	0	0
1982	0	0	0
1983	0	0	0
1984	0	0	0
1985	0	0	0
1986	0	0	0
1987	0	0	0
1988	0	0	0
1989	0	0	0
1990	0	0	0
1991	0	0	0
1992	255	232	228
1993	255	223	217
1994	255	216	211
1995	255	210	211
1996	255	205	210
1997	253	200	209
1998	254	199	211
1999	254	197	212
2000	255	200	215
2001	255	203	217
2002	250	191	210
2003	242	179	205
2004	250	189	213
2005	255	198	217
2006	249	190	210
2007	242	181	205
2008	243	184	208
2009	245	188	212
2010	243	188	213
2011	245	192	215
2012	245	196	218
2013	245	200	223
2014	240	204	224
2015	0	0	0
2016	0	0	0
2017	0	0	0
2018	0	0	0
2019	0	0	0
2020	0	0	0
2021	0	0	0
2022	245	237	238
2023	253	241	242
2024	249	232	236
2025	238	218	226
2026	243	217	231
2027	254	218	238
2028	247	203	232
2029	233	186	223
2030	234	186	228
2031	240	189	233
2032	246	193	235
2033	247	191	234
2034	241	182	231
2035	240	183	232
2036	239	180	231
2037	235	169	226
2038	232	165	225
2039	236	172	230
2040	240	176	233
2041	245	177	233
2042	246	174	229
2043	246	171	227
2044	248	171	228
2045	250	174	230
2046	253	177	231
2047	253	172	229
2048	250	166	227
2049	248	162	225
2050	247	161	224
2051	248	166	226
2052	243	161	221
2053	247	167	224
2054	253	179	230
2055	251	179	228
2056	247	177	226
2057	241	172	221
2058	238	173	222
2059	236	177	226
2060	226	168	221
2061	222	164	220
2062	223	170	225
2063	215	166	222
2064	213	167	224
2065	219	176	230
2066	217	173	227
2067	219	174	227
2068	221	175	228
2069	220	173	227
2070	216	172	224
2071	216	177	225
2072	219	186	227
2073	224	195	229
2074	230	203	231
2075	232	202	229
2076	232	200	226
2077	233	202	226
2078	235	204	226
2079	237	207	228
2080	235	204	224
2081	234	205	223
2082	238	211	226
2083	240	211	225
2084	239	209	222
2085	238	208	221
2086	239	211	222
2087	243	218	226
2088	243	218	225
2089	241	214	222
2090	242	215	222
2091	243	218	224
2092	245	217	226
2093	255	225	232
2094	248	214	223
2095	238	206	216
2096	248	221	226
2097	249	219	224
2098	249	217	223
2099	254	226	229
2100	251	222	227
2101	245	215	222
2102	244	215	220
2103	244	219	222
2104	249	226	226
2105	251	225	227
2106	0	0	0
2107	0	0	0
2108	0	0	0
2109	0	0	0
2110	0	0	0
2111	0	0	0
2112	0	0	0
2113	0	0	0
2114	0	0	0
2115	0	0	0
2116	0	0	0
2117	0	0	0
2118	0	0	0
2119	0	0	0
2120	0	0	0
2121	0	0	0
2122	0	0	0
2123	0	0	0
2124	0	0	0
2125	0	0	0
2126	0	0	0
2127	0	0	0
2128	0	0	0
2129	0	0	0
2130	0	0	0
2131	0	0	0
2132	0	0	0
2133	0	0	0
2134	0	0	0
2135	0	0	0
2136	0	0	0
2137	0	0	0
2138	0	0	0
2139	0	0	0
2140	0	0	0
2141	0	0	0
2142	0	0	0
2143	0	0	0
2144	0	0	0
2145	0	0	0
2146	255	214	219
2147	255	209	216
2148	249	191	201
2149	247	185	198
2150	254	193	207
2151	252	188	207
2152	253	188	208
2153	254	187	211
2154	249	179	209
2155	252	182	213
2156	254	185	216
2157	245	172	208
2158	251	181	215
2159	255	191	223
2160	254	185	218
2161	246	176	211
2162	246	178	211
2163	246	181	214
2164	251	191	221
2165	248	190	221
2166	249	195	225
2167	249	198	227
2168	245	201	227
2169	0	0	0
2170	0	0	0
2171	0	0	0
2172	0	0	0
2173	0	0	0
2174	0	0	0
2175	0	0	0
2176	0	0	0
2177	252	245	243
2178	254	239	240
2179	250	230	234
2180	244	221	229
2181	248	220	234
2182	247	208	231
2183	240	192	224
2184	237	190	226
2185	238	190	232
2186	247	197	238
2187	250	200	236
2188	244	190	229
2189	238	181	227
2190	232	176	226
2191	230	173	227
2192	232	172	228
2193	230	168	226
2194	234	173	229
2195	237	176	230
2196	237	174	228
2197	238	172	228
2198	242	173	229
2199	244	173	230
2200	248	176	231
2201	252	178	231
2202	248	170	225
2203	245	163	223
2204	246	164	224
2205	243	162	222
2206	237	158	220
2207	232	155	219
2208	242	168	228
2209	249	180	233
2210	246	177	229
2211	243	175	227
2212	239	175	227
2213	235	176	227
2214	223	166	222
2215	213	157	218
2216	217	165	224
2217	218	172	227
2218	213	170	225
2219	210	169	225
2220	209	168	225
2221	208	167	225
2222	212	169	228
2223	211	169	226
2224	210	170	225
2225	207	169	224
2226	211	179	227
2227	216	189	228
2228	222	196	229
2229	229	204	231
2230	231	203	228
2231	231	201	226
2232	229	201	225
2233	231	203	225
2234	231	201	223
2235	229	198	221
2236	235	206	225
2237	238	211	226
2238	233	206	220
2239	232	204	218
2240	238	210	222
2241	239	212	221
2242	239	213	221
2243	240	214	222
2244	243	216	223
2245	245	217	223
2246	244	215	222
2247	247	214	225
2248	248	210	223
2249	240	199	215
2250	243	210	220
2251	252	225	228
2252	252	223	226
2253	252	221	224
2254	249	218	222
2255	246	215	221
2256	246	216	222
2257	245	217	222
2258	246	221	224
2259	251	227	228
2260	252	224	227
2261	247	218	222
2262	244	218	221
2263	242	218	223
2264	0	0	0
2265	0	0	0
2266	0	0	0
2267	0	0	0
2268	0	0	0
2269	0	0	0
2270	0	0	0
2271	0	0	0
2272	0	0	0
2273	0	0	0
2274	0	0	0
2275	0	0	0
2276	0	0	0
2277	0	0	0
2278	0	0	0
2279	0	0	0
2280	0	0	0
2281	0	0	0
2282	0	0	0
2283	0	0	0
2284	0	0	0
2285	0	0	0
2286	0	0	0
2287	0	0	0
2288	0	0	0
2289	0	0	0
2290	0	0	0
2291	0	0	0
2292	0	0	0
2293	0	0	0
2294	0	0	0
2295	0	0	0
2296	255	225	222
2297	255	218	217
2298	255	209	214
2299	253	198	209
2300	255	198	211
2301	255	195	210
2302	248	179	201
2303	238	162	193
2304	244	169	200
2305	250	176	208
2306	247	172	205
2307	247	170	203
2308	243	162	200
2309	239	155	200
2310	241	159	206
2311	244	162	211
2312	247	168	214
2313	250	173	214
2314	244	167	209
2315	240	162	209
2316	238	163	212
2317	239	166	215
2318	245	176	220
2319	248	184	223
2320	247	187	223
2321	246	191	225
2322	244	195	227
2323	0	0	0
2324	0	0	0
2325	0	0	0
2326	0	0	0
2327	0	0	0
2328	0	0	0
2329	0	0	0
2330	0	0	0
2331	0	0	0
2332	251	238	238
2333	250	230	234
2334	247	223	230
2335	245	217	228
2336	248	218	233
2337	240	201	226
2338	245	203	231
2339	248	205	236
2340	248	201	238
2341	252	205	242
2342	241	191	228
2343	232	179	219
2344	238	189	230
2345	231	184	229
2346	229	182	231
2347	228	180	232
2348	230	179	232
2349	239	187	238
2350	235	179	231
2351	231	175	228
2352	232	175	231
2353	235	176	232
2354	237	175	231
2355	246	180	235
2356	246	175	230
2357	239	165	222
2358	247	174	230
2359	251	177	233
2360	243	169	226
2361	231	163	221
2362	235	172	231
2363	248	188	243
2364	246	184	237
2365	244	182	234
2366	241	180	233
2367	236	179	232
2368	232	181	233
2369	220	170	227
2370	214	168	228
2371	218	176	234
2372	217	178	233
2373	211	176	229
2374	210	175	228
2375	212	176	230
2376	217	182	237
2377	215	182	237
2378	207	174	229
2379	206	175	227
2380	213	187	234
2381	220	199	238
2382	219	198	232
2383	226	206	233
2384	226	203	229
2385	227	201	227
2386	228	202	226
2387	225	201	223
2388	230	209	226
2389	231	208	225
2390	231	206	224
2391	241	215	231
2392	234	207	223
2393	225	200	215
2394	236	215	224
2395	244	222	229
2396	233	205	216
2397	232	205	215
2398	241	216	223
2399	245	218	225
2400	245	215	222
2401	247	213	222
2402	249	214	224
2403	247	207	221
2404	250	212	223
2405	255	225	231
2406	251	218	224
2407	247	213	219
2408	251	220	222
2409	249	217	221
2410	248	217	222
2411	250	219	224
2412	249	219	224
2413	250	223	226
2414	249	222	226
2415	250	218	223
2416	252	220	223
2417	254	223	226
2418	249	217	224
2419	246	219	225
2420	0	0	0
2421	0	0	0
2422	0	0	0
2423	0	0	0
2424	0	0	0
2425	0	0	0
2426	0	0	0
2427	0	0	0
2428	0	0	0
2429	0	0	0
2430	0	0	0
2431	0	0	0
2432	0	0	0
2433	0	0	0
2434	0	0	0
2435	0	0	0
2436	0	0	0
2437	0	0	0
2438	0	0	0
2439	0	0	0
2440	0	0	0
2441	0	0	0
2442	0	0	0
2443	0	0	0
2444	0	0	0
2445	0	0	0
2446	0	0	0
2447	0	0	0
2448	0	0	0
2449	0	0	0
2450	255	214	216
2451	255	209	214
2452	254	197	209
2453	253	190	208
2454	248	178	204
2455	252	178	207
2456	251	174	205
2457	241	157	196
2458	246	163	205
2459	252	169	212
2460	255	176	218
2461	253	171	214
2462	252	170	212
2463	248	162	209
2464	248	162	213
2465	252	166	220
2466	254	171	225
2467	255	176	228
2468	250	171	220
2469	244	164	214
2470	247	172	223
2471	242	172	223
2472	245	179	229
2473	253	190	236
2474	251	189	231
2475	251	192	230
2476	245	193	229
2477	0	0	0
2478	0	0	0
2479	0	0	0
2480	0	0	0
2481	0	0	0
2482	0	0	0
2483	0	0	0
2484	0	0	0
2485	0	0	0
2486	250	234	237
2487	253	236	238
2488	250	227	233
2489	247	220	230
2490	248	218	232
2491	250	219	235
2492	250	217	237
2493	254	219	243
2494	255	215	243
2495	253	209	240
2496	246	197	233
2497	236	185	225
2498	241	193	233
2499	245	202	239
2500	235	196	236
2501	232	193	237
2502	232	192	238
2503	233	191	239
2504	231	185	235
2505	226	178	230
2506	225	176	230
2507	225	177	233
2508	225	174	233
2509	227	173	231
2510	231	171	229
2511	230	166	224
2512	236	173	228
2513	244	181	236
2514	243	178	234
2515	234	170	226
2516	229	174	228
2517	233	183	236
2518	234	182	236
2519	232	178	231
2520	231	177	230
2521	228	175	229
2522	221	175	227
2523	217	176	228
2524	209	171	226
2525	205	169	229
2526	206	174	232
2527	205	176	229
2528	203	175	226
2529	204	175	227
2530	214	185	235
2531	217	190	237
2532	206	181	229
2533	199	174	225
2534	210	189	234
2535	218	201	237
2536	217	201	232
2537	218	202	226
2538	220	200	224
2539	221	199	225
2540	226	203	227
2541	225	202	224
2542	226	208	223
2543	231	215	226
2544	230	212	223
2545	232	211	223
2546	236	210	225
2547	230	203	220
2548	234	214	226
2549	244	228	232
2550	237	213	222
2551	227	197	212
2552	233	206	218
2553	241	216	223
2554	242	213	221
2555	243	210	220
2556	246	211	221
2557	248	210	220
2558	253	216	223
2559	255	221	226
2560	253	216	222
2561	247	210	219
2562	251	216	223
2563	255	223	226
2564	255	223	226
2565	255	222	226
2566	255	223	227
2567	254	223	226
2568	252	220	225
2569	251	218	225
2570	253	220	225
2571	255	222	224
2572	254	218	222
2573	249	212	221
2574	246	215	224
2575	249	221	228
2576	0	0	0
2577	0	0	0
2578	0	0	0
2579	0	0	0
2580	0	0	0
2581	0	0	0
2582	0	0	0
2583	0	0	0
2584	249	228	230
2585	0	0	0
2586	0	0	0
2587	0	0	0
2588	0	0	0
2589	0	0	0
2590	0	0	0
2591	0	0	0
2592	246	223	225
2593	246	224	226
2594	249	227	229
2595	253	232	233
2596	253	228	229
2597	0	0	0
2598	0	0	0
2599	0	0	0
2600	0	0	0
2601	0	0	0
2602	255	220	220
2603	255	221	220
2604	255	211	216
2605	255	200	212
2606	253	189	209
2607	249	178	206
2608	246	167	205
2609	241	156	203
2610	243	154	205
2611	242	150	203
2612	246	155	208
2613	250	159	213
2614	252	164	216
2615	255	169	220
2616	251	164	215
2617	251	164	218
2618	251	163	220
2619	249	161	221
2620	250	165	224
2621	250	168	225
2622	245	164	223
2623	242	162	222
2624	245	170	227
2625	245	175	228
2626	243	179	229
2627	246	186	234
2628	246	187	233
2629	244	186	231
2630	244	190	230
2631	238	190	226
2632	240	206	232
2633	0	0	0
2634	0	0	0
2635	0	0	0
2636	0	0	0
2637	0	0	0
2638	0	0	0
2639	0	0	0
2640	247	231	235
2641	254	234	239
2642	249	224	233
2643	243	213	226
2644	247	218	232
2645	245	215	233
2646	243	211	232
2647	243	209	234
2648	248	212	239
2649	249	208	238
2650	245	201	234
2651	238	189	228
2652	243	196	235
2653	250	206	243
2654	244	202	239
2655	233	194	233
2656	232	195	237
2657	232	194	238
2658	231	193	238
2659	221	183	231
2660	224	189	234
2661	226	190	237
2662	226	187	239
2663	226	185	238
2664	227	186	237
2665	224	181	232
2666	228	182	233
2667	238	191	240
2668	236	187	238
2669	231	181	233
2670	230	183	232
2671	230	190	235
2672	231	196	241
2673	229	193	238
2674	226	190	236
2675	224	188	234
2676	221	189	234
2677	212	186	231
2678	209	188	231
2679	206	186	231
2680	210	193	238
2681	210	197	240
2682	210	197	235
2683	212	198	236
2684	211	193	235
2685	221	202	243
2686	214	194	234
2687	200	184	224
2688	209	197	234
2689	225	215	246
2690	220	207	234
2691	220	207	229
2692	224	211	227
2693	225	210	226
2694	225	207	226
2695	228	210	228
2696	228	210	226
2697	230	216	226
2698	230	216	223
2699	230	213	220
2700	235	215	223
2701	237	214	224
2702	233	207	222
2703	241	220	230
2704	243	222	228
2705	233	206	216
2706	236	208	219
2707	243	218	226
2708	245	220	225
2709	245	216	222
2710	243	210	220
2711	244	209	220
2712	247	211	219
2713	254	218	223
2714	251	212	218
2715	247	207	215
2716	250	211	221
2717	255	218	226
2718	254	216	223
2719	255	216	223
2720	251	211	219
2721	250	211	219
2722	255	218	224
2723	254	216	223
2724	251	212	222
2725	250	212	221
2726	255	219	223
2727	253	215	221
2728	248	210	219
2729	247	214	223
2730	249	218	227
2731	246	213	223
2732	246	213	222
2733	0	0	0
2734	247	221	229
2735	249	225	232
2736	0	0	0
2737	0	0	0
2738	250	226	230
2739	253	228	232
2740	247	219	226
2741	0	0	0
2742	0	0	0
2743	0	0	0
2744	0	0	0
2745	0	0	0
2746	251	223	228
2747	254	226	230
2748	251	219	227
2749	254	223	230
2750	254	222	228
2751	249	216	222
2752	251	219	222
2753	255	225	226
2754	255	220	223
2755	254	214	219
2756	255	215	221
2757	255	216	221
2758	255	203	212
2759	252	192	208
2760	254	187	211
2761	252	176	210
2762	249	166	209
2763	246	156	208
2764	253	162	218
2765	254	159	220
2766	247	149	213
2767	251	153	217
2768	252	156	219
2769	253	159	220
2770	255	167	223
2771	252	162	220
2772	255	169	227
2773	255	167	228
2774	248	160	224
2775	243	160	223
2776	247	173	230
2777	244	170	228
2778	242	171	231
2779	245	178	235
2780	242	178	231
2781	243	184	233
2782	245	191	236
2783	241	188	232
2784	241	194	234
2785	241	198	234
2786	240	203	233
2787	249	221	243
2788	242	219	238
2789	0	0	0
2790	0	0	0
2791	0	0	0
2792	0	0	0
2793	0	0	0
2794	0	0	0
2795	0	0	0
2796	247	220	232
2797	243	210	228
2798	245	214	232
2799	247	217	236
2800	239	209	232
2801	236	204	231
2802	237	204	232
2803	239	205	233
2804	237	198	231
2805	234	192	231
2806	238	198	237
2807	242	204	239
2808	240	201	236
2809	235	197	233
2810	233	196	235
2811	233	198	239
2812	235	199	241
2813	232	198	240
2814	230	200	241
2815	232	206	243
2816	231	202	242
2817	231	200	243
2818	231	200	244
2819	231	201	242
2820	229	199	239
2821	231	200	241
2822	232	197	239
2823	0	0	0
2824	0	0	0
2825	228	197	239
2826	227	200	239
2827	228	205	240
2828	221	199	234
2829	218	197	234
2830	218	199	236
2831	215	199	235
2832	209	198	233
2833	208	201	235
2834	215	209	241
2835	217	215	242
2836	213	213	237
2837	215	214	236
2838	218	212	236
2839	218	207	237
2840	223	209	241
2841	216	202	233
2842	216	210	236
2843	224	222	242
2844	223	217	236
2845	219	210	228
2846	223	214	227
2847	227	218	227
2848	226	214	223
2849	225	210	221
2850	229	214	224
2851	230	216	224
2852	230	217	223
2853	232	217	223
2854	236	219	223
2855	239	220	223
2856	236	214	220
2857	233	207	219
2858	237	212	223
2859	240	215	222
2860	241	215	222
2861	242	217	223
2862	244	219	224
2863	247	221	223
2864	246	215	220
2865	245	210	220
2866	250	214	224
2867	253	216	224
2868	253	213	222
2869	250	207	217
2870	253	211	220
2871	255	215	225
2872	255	212	223
2873	253	209	218
2874	251	205	216
2875	248	201	215
2876	252	207	220
2877	255	214	224
2878	253	210	221
2879	250	206	219
2880	254	213	223
2881	255	220	227
2882	255	216	223
2883	251	211	220
2884	250	213	223
2885	252	218	228
2886	254	220	230
2887	253	221	228
2888	253	224	229
2889	255	229	233
2890	253	227	231
2891	250	223	228
2892	0	0	0
2893	248	222	228
2894	246	215	225
2895	240	206	220
2896	0	0	0
2897	0	0	0
2898	248	220	226
2899	247	217	224
2900	0	0	0
2901	251	221	228
2902	250	215	225
2903	247	208	222
2904	252	212	224
2905	252	212	223
2906	254	215	223
2907	255	219	225
2908	255	215	222
2909	255	209	220
2910	255	209	221
2911	255	211	221
2912	252	194	210
2913	246	180	202
2914	245	173	202
2915	247	168	208
2916	245	159	208
2917	242	149	206
2918	251	156	216
2919	255	160	223
2920	250	150	219
2921	243	139	212
2922	245	143	215
2923	245	145	214
2924	248	152	218
2925	252	160	223
2926	252	163	224
2927	255	168	227
2928	247	160	222
2929	238	153	219
2930	240	164	226
2931	245	176	233
2932	242	175	232
2933	239	175	232
2934	239	178	233
2935	238	179	233
2936	243	189	237
2937	245	195	238
2938	244	200	237
2939	245	205	238
2940	246	211	240
2941	247	217	241
2942	245	218	240
2943	0	0	0
2944	0	0	0
2945	0	0	0
2946	0	0	0
2947	0	0	0
2948	0	0	0
2949	0	0	0
2950	0	0	0
2951	0	0	0
2952	0	0	0
2953	0	0	0
2954	243	212	237
2955	231	202	229
2956	237	212	238
2957	237	212	238
2958	234	208	233
2959	228	199	229
2960	227	197	233
2961	231	203	239
2962	231	205	237
2963	227	201	232
2964	229	202	234
2965	234	205	240
2966	232	199	239
2967	233	200	241
2968	237	205	244
2969	239	210	246
2970	233	202	240
2971	229	197	237
2972	229	198	240
2973	229	198	239
2974	231	204	239
2975	229	202	237
2976	226	199	235
2977	0	0	0
2978	0	0	0
2979	0	0	0
2980	0	0	0
2981	0	0	0
2982	0	0	0
2983	0	0	0
2984	0	0	0
2985	0	0	0
2986	0	0	0
2987	0	0	0
2988	0	0	0
2989	227	230	246
2990	220	222	236
2991	215	219	230
2992	223	228	236
2993	229	227	238
2994	220	208	229
2995	223	210	233
2996	218	204	229
2997	222	214	233
2998	228	225	237
2999	223	217	228
3000	224	217	226
3001	228	222	228
3002	231	225	227
3003	228	220	223
3004	227	216	221
3005	231	221	224
3006	231	218	222
3007	236	222	224
3008	239	222	224
3009	242	223	225
3010	237	215	218
3011	230	207	213
3012	236	213	220
3013	245	220	226
3014	245	219	223
3015	244	219	221
3016	242	216	219
3017	245	219	220
3018	245	217	218
3019	244	211	216
3020	250	214	221
3021	255	221	227
3022	255	212	222
3023	254	208	219
3024	249	200	215
3025	253	205	219
3026	255	211	223
3027	255	209	221
3028	251	201	214
3029	249	196	212
3030	254	204	219
3031	255	211	225
3032	253	206	221
3033	249	202	218
3034	253	207	221
3035	255	215	226
3036	255	212	222
3037	253	206	219
3038	252	207	220
3039	253	210	223
3040	255	216	228
3041	255	218	230
3042	252	212	224
3043	253	216	226
3044	251	216	226
3045	247	213	222
3046	247	216	223
3047	242	213	220
3048	251	225	230
3049	249	218	228
3050	242	211	223
3051	243	217	226
3052	251	229	231
3053	255	228	231
3054	245	212	220
3055	243	212	220
3056	248	218	226
3057	249	214	225
3058	249	209	222
3059	255	213	226
3060	253	208	221
3061	255	214	225
3062	255	208	222
3063	255	202	220
3064	252	196	217
3065	253	195	218
3066	255	199	220
3067	249	182	210
3068	252	181	212
3069	252	174	213
3070	254	171	219
3071	251	162	219
3072	247	151	216
3073	255	157	224
3074	250	148	221
3075	242	137	215
3076	247	146	221
3077	246	148	221
3078	246	150	220
3079	250	158	224
3080	254	165	230
3081	254	167	231
3082	249	165	227
3083	236	155	218
3084	242	170	229
3085	249	183	238
3086	246	183	237
3087	241	180	234
3088	239	182	235
3089	239	185	237
3090	236	183	235
3091	241	192	239
3092	240	193	236
3093	242	199	237
3094	241	200	235
3095	244	207	238
3096	247	217	242
3097	243	216	238
3098	243	222	239
3099	0	0	0
3100	0	0	0
3101	0	0	0
3102	0	0	0
3103	0	0	0
3104	0	0	0
3105	0	0	0
3106	0	0	0
3107	0	0	0
3108	0	0	0
3109	0	0	0
3110	230	207	234
3111	234	216	238
3112	231	211	233
3113	228	208	229
3114	226	205	230
3115	224	202	233
3116	226	207	238
3117	227	210	238
3118	223	206	235
3119	226	207	236
3120	229	204	237
3121	227	198	235
3122	232	205	241
3123	236	210	243
3124	230	202	237
3125	225	195	234
3126	224	195	235
3127	224	196	236
3128	229	203	239
3129	232	208	238
3130	229	205	234
3131	225	202	233
3132	228	210	238
3133	0	0	0
3134	0	0	0
3135	0	0	0
3136	0	0	0
3137	0	0	0
3138	0	0	0
3139	0	0	0
3140	0	0	0
3141	0	0	0
3142	0	0	0
3143	0	0	0
3144	0	0	0
3145	0	0	0
3146	0	0	0
3147	241	249	244
3148	245	240	243
3149	237	222	232
3150	241	226	239
3151	235	219	236
3152	233	225	236
3153	237	234	239
3154	232	229	231
3155	232	229	229
3156	234	230	229
3157	237	233	230
3158	237	230	229
3159	237	228	227
3160	238	228	228
3161	239	226	226
3162	246	229	228
3163	249	230	228
3164	247	224	225
3165	243	218	221
3166	246	222	225
3167	250	228	229
3168	252	228	228
3169	251	225	223
3170	247	222	219
3171	247	220	219
3172	249	220	219
3173	250	218	219
3174	253	218	220
3175	255	220	222
3176	255	214	219
3177	255	206	214
3178	252	200	213
3179	249	194	212
3180	254	201	218
3181	255	206	218
3182	253	198	212
3183	248	191	209
3184	253	199	215
3185	255	206	220
3186	253	201	218
3187	250	198	218
3188	255	205	223
3189	255	209	224
3190	255	206	220
3191	252	202	216
3192	253	203	217
3193	253	204	221
3194	255	209	225
3195	255	214	228
3196	252	207	223
3197	248	202	220
3198	248	204	222
3199	247	204	221
3200	247	208	223
3201	247	212	224
3202	250	219	228
3203	255	230	235
3204	254	224	231
3205	248	217	226
3206	252	226	232
3207	255	238	238
3208	255	225	229
3209	247	210	220
3210	248	214	224
3211	254	221	230
3212	255	216	228
3213	254	211	224
3214	255	209	223
3215	255	204	219
3216	254	199	219
3217	253	194	219
3218	249	187	217
3219	245	179	214
3220	246	180	215
3221	249	183	219
3222	245	175	215
3223	247	174	217
3224	245	166	216
3225	245	161	218
3226	240	150	215
3227	236	138	212
3228	237	135	214
3229	232	126	210
3230	239	137	218
3231	244	145	222
3232	244	149	223
3233	244	152	223
3234	251	161	229
3235	254	167	235
3236	252	167	233
3237	245	164	228
3238	243	173	231
3239	247	186	239
3240	244	185	237
3241	240	184	234
3242	239	185	235
3243	238	187	237
3244	235	186	235
3245	231	184	233
3246	234	188	235
3247	233	190	233
3248	235	193	234
3249	0	0	0
3250	239	205	239
3251	242	214	241
3252	241	219	239
3253	0	0	0
3254	0	0	0
3255	0	0	0
3256	0	0	0
3257	0	0	0
3258	0	0	0
3259	0	0	0
3260	0	0	0
3261	0	0	0
3262	0	0	0
3263	0	0	0
3264	0	0	0
3265	0	0	0
3266	0	0	0
3267	0	0	0
3268	232	219	235
3269	231	217	237
3270	223	205	233
3271	226	210	239
3272	226	213	240
3273	221	209	237
3274	226	214	240
3275	227	210	239
3276	221	199	234
3277	226	206	239
3278	232	214	242
3279	225	205	235
3280	222	202	235
3281	221	203	236
3282	227	211	241
3283	235	219	246
3284	230	209	237
3285	229	207	234
3286	229	209	235
3287	0	0	0
3288	0	0	0
3289	0	0	0
3290	0	0	0
3291	0	0	0
3292	0	0	0
3293	0	0	0
3294	0	0	0
3295	0	0	0
3296	0	0	0
3297	0	0	0
3298	0	0	0
3299	0	0	0
3300	0	0	0
3301	0	0	0
3302	247	247	242
3303	255	241	245
3304	230	192	215
3305	233	195	222
3306	229	198	223
3307	219	199	218
3308	239	234	237
3309	235	229	229
3310	237	232	229
3311	238	234	229
3312	237	231	227
3313	239	230	226
3314	242	229	226
3315	247	230	228
3316	241	217	219
3317	245	220	221
3318	248	219	220
3319	247	215	218
3320	247	212	218
3321	253	219	223
3322	251	217	220
3323	246	213	215
3324	246	214	213
3325	244	211	210
3326	247	214	214
3327	251	214	215
3328	250	209	214
3329	253	209	215
3330	253	207	213
3331	251	199	208
3332	255	202	212
3333	254	198	212
3334	252	194	214
3335	255	201	220
3336	255	204	218
3337	253	195	212
3338	250	191	212
3339	254	199	218
3340	255	205	221
3341	255	201	218
3342	255	199	221
3343	255	206	227
3344	255	200	220
3345	251	195	215
3346	255	202	219
3347	255	203	220
3348	254	203	222
3349	255	207	225
3350	255	207	224
3351	248	200	218
3352	252	207	224
3353	254	210	227
3354	250	206	224
3355	251	210	226
3356	255	217	229
3357	255	226	235
3358	252	216	227
3359	245	208	220
3360	248	212	224
3361	255	225	233
3362	255	222	229
3363	249	207	219
3364	249	205	219
3365	254	212	226
3366	255	211	227
3367	255	206	224
3368	254	201	222
3369	255	199	221
3370	252	192	217
3371	250	187	216
3372	253	189	223
3373	247	181	220
3374	247	182	223
3375	247	182	224
3376	248	184	226
3377	241	174	220
3378	249	184	229
3379	246	174	225
3380	247	173	227
3381	239	160	222
3382	238	154	224
3383	242	152	227
3384	236	141	222
3385	243	152	229
3386	248	160	232
3387	253	166	234
3388	253	164	232
3389	255	172	239
3390	251	164	233
3391	247	162	232
3392	246	170	234
3393	242	178	236
3394	240	185	238
3395	233	182	233
3396	234	187	234
3397	237	190	236
3398	235	190	236
3399	230	188	234
3400	233	194	238
3401	236	199	240
3402	236	200	239
3403	0	0	0
3404	0	0	0
3405	0	0	0
3406	0	0	0
3407	0	0	0
3408	0	0	0
3409	0	0	0
3410	0	0	0
3411	0	0	0
3412	0	0	0
3413	0	0	0
3414	0	0	0
3415	0	0	0
3416	0	0	0
3417	0	0	0
3418	0	0	0
3419	0	0	0
3420	0	0	0
3421	0	0	0
3422	0	0	0
3423	0	0	0
3424	227	215	236
3425	219	204	234
3426	224	211	241
3427	223	214	240
3428	221	213	239
3429	224	217	243
3430	219	208	238
3431	213	197	232
3432	222	208	238
3433	227	216	239
3434	221	210	233
3435	0	0	0
3436	223	215	239
3437	229	223	241
3438	229	216	238
3439	226	209	235
3440	230	213	239
3441	0	0	0
3442	0	0	0
3443	0	0	0
3444	0	0	0
3445	0	0	0
3446	0	0	0
3447	0	0	0
3448	0	0	0
3449	0	0	0
3450	0	0	0
3451	0	0	0
3452	0	0	0
3453	0	0	0
3454	0	0	0
3455	0	0	0
3456	0	0	0
3457	0	0	0
3458	227	199	218
3459	200	150	193
3460	215	171	212
3461	211	173	212
3462	225	205	227
3463	244	240	242
3464	242	237	235
3465	244	240	235
3466	242	236	230
3467	242	234	227
3468	247	233	226
3469	251	233	227
3470	251	225	223
3471	246	213	216
3472	250	215	218
3473	252	215	218
3474	254	214	218
3475	255	211	217
3476	255	213	217
3477	254	210	213
3478	252	210	213
3479	252	212	215
3480	252	212	215
3481	254	214	216
3482	252	207	213
3483	251	202	213
3484	251	200	213
3485	252	197	211
3486	255	200	213
3487	255	203	216
3488	255	200	216
3489	255	196	216
3490	255	201	221
3491	255	204	222
3492	255	199	219
3493	255	194	218
3494	255	200	223
3495	255	206	225
3496	255	202	222
3497	255	200	222
3498	255	197	221
3499	251	191	216
3500	255	197	220
3501	255	205	224
3502	255	202	222
3503	254	200	221
3504	252	200	220
3505	251	200	218
3506	251	204	219
3507	255	210	224
3508	254	209	223
3509	251	205	221
3510	255	213	226
3511	255	220	231
3512	252	210	223
3513	245	202	218
3514	248	207	223
3515	252	212	227
3516	253	210	226
3517	252	207	223
3518	249	202	219
3519	249	200	220
3520	249	198	220
3521	250	197	221
3522	249	192	219
3523	249	188	219
3524	247	183	217
3525	243	176	214
3526	244	177	216
3527	244	178	220
3528	242	177	221
3529	242	178	225
3530	243	179	227
3531	243	180	228
3532	244	183	229
3533	251	192	235
3534	249	185	231
3535	249	182	232
3536	242	172	228
3537	242	167	230
3538	245	163	233
3539	239	152	227
3540	244	162	233
3541	249	169	236
3542	253	170	236
3543	251	168	232
3544	244	160	227
3545	236	152	223
3546	242	165	232
3547	242	173	236
3548	237	178	237
3549	236	186	240
3550	231	187	237
3551	232	192	238
3552	233	193	237
3553	231	192	235
3554	230	196	235
3555	232	202	239
3556	235	206	240
3557	0	0	0
3558	0	0	0
3559	0	0	0
3560	0	0	0
3561	0	0	0
3562	0	0	0
3563	0	0	0
3564	0	0	0
3565	0	0	0
3566	0	0	0
3567	0	0	0
3568	0	0	0
3569	0	0	0
3570	0	0	0
3571	0	0	0
3572	0	0	0
3573	0	0	0
3574	0	0	0
3575	0	0	0
3576	0	0	0
3577	0	0	0
3578	0	0	0
3579	0	0	0
3580	0	0	0
3581	0	0	0
3582	0	0	0
3583	0	0	0
3584	0	0	0
3585	0	0	0
3586	0	0	0
3587	0	0	0
3588	0	0	0
3589	0	0	0
3590	0	0	0
3591	0	0	0
3592	0	0	0
3593	0	0	0
3594	0	0	0
3595	0	0	0
3596	0	0	0
3597	0	0	0
3598	0	0	0
3599	0	0	0
3600	0	0	0
3601	0	0	0
3602	0	0	0
3603	0	0	0
3604	0	0	0
3605	0	0	0
3606	0	0	0
3607	0	0	0
3608	0	0	0
3609	0	0	0
3610	0	0	0
3611	0	0	0
3612	0	0	0
3613	0	0	0
3614	0	0	0
3615	215	194	226
3616	214	194	223
3617	240	231	244
3618	249	245	246
3619	246	241	237
3620	242	234	230
3621	240	231	225
3622	246	233	225
3623	254	235	227
3624	250	220	218
3625	251	213	215
3626	252	208	213
3627	255	211	216
3628	253	203	212
3629	255	202	212
3630	253	197	208
3631	253	197	207
3632	255	201	208
3633	255	204	210
3634	253	199	210
3635	252	198	211
3636	254	202	212
3637	248	193	206
3638	251	197	212
3639	252	194	212
3640	254	195	213
3641	255	197	215
3642	255	194	214
3643	255	191	214
3644	251	181	210
3645	254	186	215
3646	255	193	219
3647	254	187	215
3648	251	184	215
3649	255	191	220
3650	255	196	221
3651	254	192	218
3652	255	194	220
3653	253	190	218
3654	249	185	215
3655	253	192	219
3656	255	201	224
3657	255	198	221
3658	253	197	220
3659	250	196	218
3660	251	200	218
3661	253	204	220
3662	255	208	222
3663	254	206	221
3664	251	202	219
3665	255	211	226
3666	255	211	225
3667	246	200	217
3668	254	211	225
3669	255	218	233
3670	251	202	225
3671	249	199	224
3672	250	200	223
3673	248	195	220
3674	253	202	226
3675	251	200	225
3676	254	201	227
3677	254	197	227
3678	250	189	226
3679	245	182	224
3680	241	177	222
3681	241	178	223
3682	241	180	226
3683	239	178	226
3684	240	180	229
3685	242	182	232
3686	244	185	234
3687	247	189	235
3688	250	192	235
3689	246	184	229
3690	249	186	233
3691	242	176	228
3692	244	172	232
3693	248	169	234
3694	246	166	233
3695	248	174	237
3696	247	173	236
3697	251	174	237
3698	244	167	230
3699	231	157	222
3700	235	168	232
3701	245	182	243
3702	240	182	240
3703	238	188	242
3704	238	195	244
3705	235	197	243
3706	0	0	0
3707	0	0	0
3708	0	0	0
3709	0	0	0
3710	0	0	0
3711	0	0	0
3712	0	0	0
3713	0	0	0
3714	0	0	0
3715	0	0	0
3716	0	0	0
3717	0	0	0
3718	0	0	0
3719	0	0	0
3720	0	0	0
3721	0	0	0
3722	0	0	0
3723	0	0	0
3724	0	0	0
3725	0	0	0
3726	0	0	0
3727	0	0	0
3728	0	0	0
3729	0	0	0
3730	0	0	0
3731	0	0	0
3732	0	0	0
3733	0	0	0
3734	0	0	0
3735	0	0	0
3736	0	0	0
3737	0	0	0
3738	0	0	0
3739	0	0	0
3740	0	0	0
3741	0	0	0
3742	0	0	0
3743	0	0	0
3744	0	0	0
3745	0	0	0
3746	0	0	0
3747	0	0	0
3748	0	0	0
3749	0	0	0
3750	0	0	0
3751	0	0	0
3752	0	0	0
3753	0	0	0
3754	0	0	0
3755	0	0	0
3756	0	0	0
3757	0	0	0
3758	0	0	0
3759	0	0	0
3760	0	0	0
3761	0	0	0
3762	0	0	0
3763	0	0	0
3764	0	0	0
3765	0	0	0
3766	0	0	0
3767	0	0	0
3768	0	0	0
3769	0	0	0
3770	212	207	225
3771	214	207	222
3772	236	230	236
3773	250	246	243
3774	243	236	232
3775	242	231	226
3776	249	234	227
3777	255	238	228
3778	255	225	221
3779	253	212	215
3780	255	212	218
3781	255	206	213
3782	255	201	210
3783	255	194	208
3784	255	192	207
3785	252	187	203
3786	255	192	207
3787	255	196	208
3788	255	191	206
3789	253	186	207
3790	255	190	211
3791	255	194	212
3792	255	193	211
3793	255	195	215
3794	255	194	215
3795	255	194	216
3796	255	190	215
3797	255	186	215
3798	251	178	211
3799	245	169	208
3800	250	176	214
3801	253	182	218
3802	248	177	214
3803	246	174	213
3804	250	180	216
3805	253	186	217
3806	251	184	215
3807	252	186	217
3808	247	180	213
3809	243	175	211
3810	249	186	218
3811	255	195	222
3812	253	193	220
3813	251	193	219
3814	250	196	220
3815	251	199	220
3816	252	202	220
3817	255	206	223
3818	253	203	222
3819	251	200	221
3820	253	203	224
3821	252	203	222
3822	254	209	224
3823	255	218	229
3824	252	202	221
3825	242	186	217
3826	243	189	222
3827	245	190	223
3828	249	196	226
3829	253	201	229
3830	248	197	225
3831	249	198	227
3832	244	188	223
3833	240	180	223
3834	236	176	224
3835	232	171	222
3836	234	175	226
3837	234	177	228
3838	235	179	230
3839	237	181	231
3840	241	186	235
3841	243	189	236
3842	242	188	233
3843	245	191	234
3844	247	190	232
3845	250	191	235
3846	244	182	231
3847	245	178	234
3848	250	179	238
3849	249	176	234
3850	248	178	235
3851	249	179	237
3852	253	180	241
3853	245	173	236
3854	241	180	239
3855	243	189	247
3856	240	189	245
3857	235	187	241
3858	232	191	240
3859	233	198	240
3860	0	0	0
3861	0	0	0
3862	0	0	0
3863	0	0	0
3864	0	0	0
3865	0	0	0
3866	0	0	0
3867	0	0	0
3868	0	0	0
3869	0	0	0
3870	0	0	0
3871	0	0	0
3872	0	0	0
3873	0	0	0
3874	0	0	0
3875	0	0	0
3876	0	0	0
3877	0	0	0
3878	0	0	0
3879	0	0	0
3880	0	0	0
3881	0	0	0
3882	0	0	0
3883	0	0	0
3884	0	0	0
3885	0	0	0
3886	0	0	0
3887	0	0	0
3888	0	0	0
3889	0	0	0
3890	0	0	0
3891	0	0	0
3892	0	0	0
3893	0	0	0
3894	0	0	0
3895	0	0	0
3896	0	0	0
3897	0	0	0
3898	0	0	0
3899	0	0	0
3900	0	0	0
3901	0	0	0
3902	0	0	0
3903	0	0	0
3904	0	0	0
3905	0	0	0
3906	0	0	0
3907	0	0	0
3908	0	0	0
3909	0	0	0
3910	0	0	0
3911	0	0	0
3912	0	0	0
3913	0	0	0
3914	0	0	0
3915	0	0	0
3916	0	0	0
3917	0	0	0
3918	0	0	0
3919	0	0	0
3920	0	0	0
3921	0	0	0
3922	0	0	0
3923	0	0	0
3924	0	0	0
3925	217	220	226
3926	219	220	224
3927	244	244	240
3928	245	239	234
3929	241	231	226
3930	247	230	226
3931	255	239	232
3932	255	222	219
3933	254	208	211
3934	252	197	209
3935	255	197	212
3936	250	184	201
3937	248	178	199
3938	255	184	205
3939	255	182	205
3940	252	177	202
3941	255	183	207
3942	254	178	203
3943	250	173	201
3944	254	178	208
3945	255	182	212
3946	255	182	211
3947	255	181	211
3948	254	179	211
3949	253	178	210
3950	255	183	215
3951	255	179	213
3952	252	174	213
3953	246	165	209
3954	248	170	214
3955	252	177	220
3956	251	178	221
3957	245	172	216
3958	253	185	224
3959	255	192	228
3960	251	182	219
3961	249	180	216
3962	254	190	222
3963	248	183	217
3964	250	188	221
3965	255	198	228
3966	254	194	224
3967	253	193	223
3968	252	194	222
3969	252	197	223
3970	253	201	224
3971	254	203	225
3972	255	205	226
3973	255	203	225
3974	254	201	225
3975	255	204	227
3976	250	198	223
3977	255	205	226
3978	255	206	224
3979	243	188	214
3980	245	191	223
3981	245	193	228
3982	251	201	233
3983	255	207	238
3984	249	197	229
3985	240	191	223
3986	246	202	230
3987	237	189	223
3988	239	191	230
3989	238	189	233
3990	235	185	232
3991	237	189	236
3992	237	188	237
3993	241	192	241
3994	236	184	235
3995	239	187	237
3996	238	187	235
3997	234	185	231
3998	241	194	235
3999	245	194	236
4000	246	190	234
4001	242	182	230
4002	247	187	238
4003	245	185	237
4004	247	184	235
4005	255	191	242
4006	246	173	234
4007	248	174	238
4008	239	167	233
4009	233	172	236
4010	233	183	242
4011	0	0	0
4012	0	0	0
4013	0	0	0
4014	0	0	0
4015	0	0	0
4016	0	0	0
4017	0	0	0
4018	0	0	0
4019	0	0	0
4020	0	0	0
4021	0	0	0
4022	0	0	0
4023	0	0	0
4024	0	0	0
4025	0	0	0
4026	0	0	0
4027	0	0	0
4028	0	0	0
4029	0	0	0
4030	0	0	0
4031	0	0	0
4032	0	0	0
4033	0	0	0
4034	0	0	0
4035	0	0	0
4036	0	0	0
4037	0	0	0
4038	0	0	0
4039	0	0	0
4040	0	0	0
4041	0	0	0
4042	0	0	0
4043	0	0	0
4044	0	0	0
4045	0	0	0
4046	0	0	0
4047	0	0	0
4048	0	0	0
4049	0	0	0
4050	0	0	0
4051	0	0	0
4052	0	0	0
4053	0	0	0
4054	0	0	0
4055	0	0	0
4056	0	0	0
4057	0	0	0
4058	0	0	0
4059	0	0	0
4060	0	0	0
4061	0	0	0
4062	0	0	0
4063	0	0	0
4064	0	0	0
4065	0	0	0
4066	0	0	0
4067	0	0	0
4068	0	0	0
4069	0	0	0
4070	0	0	0
4071	0	0	0
4072	0	0	0
4073	0	0	0
4074	0	0	0
4075	0	0	0
4076	0	0	0
4077	0	0	0
4078	0	0	0
4079	0	0	0
4080	0	0	0
4081	233	237	233
4082	243	239	235
4083	246	235	228
4084	250	233	227
4085	255	235	230
4086	255	222	223
4087	255	205	211
4088	251	193	204
4089	248	182	202
4090	246	173	199
4091	240	161	193
4092	247	168	199
4093	253	174	204
4094	254	172	204
4095	252	167	204
4096	254	168	207
4097	251	163	205
4098	255	168	210
4099	255	172	214
4100	254	170	212
4101	253	169	211
4102	250	165	208
4103	249	163	209
4104	252	168	213
4105	255	173	216
4106	252	167	213
4107	248	162	213
4108	249	166	216
4109	249	169	218
4110	248	170	219
4111	247	171	222
4112	250	180	226
4113	255	191	230
4114	250	181	222
4115	243	172	216
4116	250	183	223
4117	255	192	226
4118	252	192	224
4119	254	196	226
4120	252	193	225
4121	249	190	223
4122	250	191	224
4123	249	191	221
4124	249	195	222
4125	250	199	224
4126	249	199	224
4127	252	201	227
4128	253	200	226
4129	251	198	222
4130	246	192	219
4131	243	188	219
4132	245	191	222
4133	246	192	222
4134	246	192	223
4135	246	193	227
4136	247	199	232
4137	251	205	235
4138	245	196	230
4139	237	186	224
4140	238	194	228
4141	242	204	233
4142	239	201	231
4143	240	202	236
4144	239	199	237
4145	236	195	235
4146	238	196	238
4147	239	196	241
4148	236	190	239
4149	231	182	234
4150	231	184	235
4151	229	183	232
4152	230	187	233
4153	238	196	239
4154	239	192	236
4155	239	189	234
4156	244	193	237
4157	248	197	241
4158	245	193	238
4159	248	194	239
4160	247	182	236
4161	237	164	228
4162	240	167	235
4163	229	159	231
4164	227	171	237
4165	226	181	242
4166	0	0	0
4167	0	0	0
4168	0	0	0
4169	0	0	0
4170	0	0	0
4171	0	0	0
4172	0	0	0
4173	0	0	0
4174	0	0	0
4175	0	0	0
4176	0	0	0
4177	0	0	0
4178	0	0	0
4179	0	0	0
4180	0	0	0
4181	0	0	0
4182	0	0	0
4183	0	0	0
4184	0	0	0
4185	0	0	0
4186	0	0	0
4187	0	0	0
4188	0	0	0
4189	0	0	0
4190	0	0	0
4191	0	0	0
4192	0	0	0
4193	0	0	0
4194	0	0	0
4195	0	0	0
4196	0	0	0
4197	0	0	0
4198	0	0	0
4199	0	0	0
4200	0	0	0
4201	0	0	0
4202	0	0	0
4203	0	0	0
4204	0	0	0
4205	0	0	0
4206	0	0	0
4207	0	0	0
4208	0	0	0
4209	0	0	0
4210	0	0	0
4211	0	0	0
4212	0	0	0
4213	0	0	0
4214	0	0	0
4215	0	0	0
4216	0	0	0
4217	0	0	0
4218	0	0	0
4219	0	0	0
4220	0	0	0
4221	0	0	0
4222	0	0	0
4223	0	0	0
4224	0	0	0
4225	0	0	0
4226	0	0	0
4227	0	0	0
4228	0	0	0
4229	0	0	0
4230	0	0	0
4231	0	0	0
4232	0	0	0
4233	0	0	0
4234	0	0	0
4235	242	240	233
4236	245	240	233
4237	253	242	234
4238	253	231	225
4239	255	234	228
4240	255	212	217
4241	250	196	207
4242	255	198	209
4243	253	186	204
4244	252	180	204
4245	250	172	203
4246	251	169	205
4247	255	176	212
4248	255	173	210
4249	255	171	211
4250	253	159	208
4251	255	160	213
4252	252	154	210
4253	255	158	214
4254	252	156	213
4255	247	152	208
4256	254	165	216
4257	250	161	213
4258	253	164	219
4259	255	169	223
4260	250	160	216
4261	246	153	212
4262	251	162	219
4263	250	164	221
4264	250	169	222
4265	247	169	221
4266	251	178	229
4267	254	187	233
4268	252	186	228
4269	241	175	218
4270	244	180	224
4271	254	192	233
4272	251	190	227
4273	249	191	225
4274	251	195	226
4275	249	192	224
4276	250	194	226
4277	250	195	226
4278	250	197	225
4279	251	201	226
4280	250	203	227
4281	248	202	227
4282	251	204	230
4283	254	204	230
4284	251	200	225
4285	245	194	221
4286	250	202	230
4287	253	204	234
4288	251	200	232
4289	251	200	232
4290	249	199	232
4291	250	204	235
4292	248	206	235
4293	236	193	225
4294	239	200	232
4295	244	210	239
4296	242	209	236
4297	239	206	234
4298	237	204	235
4299	232	199	233
4300	233	198	233
4301	240	202	240
4302	237	196	238
4303	230	188	234
4304	233	193	239
4305	233	195	240
4306	235	199	240
4307	238	205	242
4308	239	205	242
4309	236	198	239
4310	234	193	236
4311	239	197	239
4312	243	201	241
4313	245	200	240
4314	247	196	242
4315	246	185	240
4316	233	165	231
4317	230	165	234
4318	223	165	235
4319	226	178	243
4320	226	189	246
4321	0	0	0
4322	0	0	0
4323	0	0	0
4324	0	0	0
4325	0	0	0
4326	0	0	0
4327	0	0	0
4328	0	0	0
4329	0	0	0
4330	0	0	0
4331	0	0	0
4332	0	0	0
4333	0	0	0
4334	0	0	0
4335	0	0	0
4336	0	0	0
4337	0	0	0
4338	0	0	0
4339	0	0	0
4340	0	0	0
4341	0	0	0
4342	0	0	0
4343	0	0	0
4344	0	0	0
4345	0	0	0
4346	0	0	0
4347	0	0	0
4348	0	0	0
4349	0	0	0
4350	0	0	0
4351	0	0	0
4352	0	0	0
4353	0	0	0
4354	0	0	0
4355	0	0	0
4356	0	0	0
4357	0	0	0
4358	0	0	0
4359	0	0	0
4360	0	0	0
4361	0	0	0
4362	0	0	0
4363	0	0	0
4364	0	0	0
4365	0	0	0
4366	0	0	0
4367	0	0	0
4368	0	0	0
4369	0	0	0
4370	0	0	0
4371	0	0	0
4372	0	0	0
4373	0	0	0
4374	0	0	0
4375	0	0	0
4376	0	0	0
4377	0	0	0
4378	0	0	0
4379	0	0	0
4380	0	0	0
4381	0	0	0
4382	0	0	0
4383	0	0	0
4384	0	0	0
4385	0	0	0
4386	0	0	0
4387	0	0	0
4388	0	0	0
4389	0	0	0
4390	0	0	0
4391	255	244	230
4392	255	236	226
4393	255	227	220
4394	255	209	211
4395	247	187	202
4396	254	192	208
4397	255	194	209
4398	255	186	206
4399	255	179	208
4400	255	176	211
4401	255	173	213
4402	255	173	216
4403	255	171	216
4404	255	162	214
4405	253	149	211
4406	255	149	215
4407	250	142	213
4408	246	140	211
4409	242	137	209
4410	246	146	213
4411	253	158	218
4412	251	157	217
4413	252	160	222
4414	243	149	216
4415	236	140	211
4416	243	150	218
4417	246	156	220
4418	245	160	221
4419	246	166	222
4420	247	172	225
4421	250	180	229
4422	248	180	226
4423	245	180	223
4424	244	182	224
4425	246	186	229
4426	247	188	230
4427	246	188	228
4428	249	192	230
4429	251	196	231
4430	251	197	230
4431	252	198	228
4432	252	201	228
4433	252	203	228
4434	252	205	228
4435	252	206	230
4436	250	205	229
4437	251	206	231
4438	252	204	230
4439	250	201	229
4440	250	205	231
4441	253	210	234
4442	248	204	230
4443	246	200	230
4444	248	201	233
4445	246	201	233
4446	245	203	233
4447	243	204	232
4448	242	208	234
4449	244	215	237
4450	242	213	237
4451	240	213	237
4452	238	210	236
4453	236	207	234
4454	231	203	233
4455	233	203	235
4456	235	200	236
4457	233	194	233
4458	235	199	238
4459	236	204	241
4460	235	207	241
4461	236	210	240
4462	236	208	238
4463	236	208	238
4464	233	202	236
4465	231	198	237
4466	234	202	241
4467	238	205	241
4468	231	193	234
4469	233	190	238
4470	227	174	232
4471	211	153	221
4472	210	160	228
4473	205	160	229
4474	215	179	240
4475	0	0	0
4476	0	0	0
4477	0	0	0
4478	0	0	0
4479	0	0	0
4480	0	0	0
4481	0	0	0
4482	0	0	0
4483	0	0	0
4484	0	0	0
4485	0	0	0
4486	0	0	0
4487	0	0	0
4488	0	0	0
4489	0	0	0
4490	0	0	0
4491	0	0	0
4492	0	0	0
4493	0	0	0
4494	0	0	0
4495	0	0	0
4496	0	0	0
4497	0	0	0
4498	0	0	0
4499	0	0	0
4500	0	0	0
4501	0	0	0
4502	0	0	0
4503	0	0	0
4504	0	0	0
4505	0	0	0
4506	0	0	0
4507	0	0	0
4508	0	0	0
4509	0	0	0
4510	0	0	0
4511	0	0	0
4512	0	0	0
4513	0	0	0
4514	0	0	0
4515	0	0	0
4516	0	0	0
4517	0	0	0
4518	0	0	0
4519	0	0	0
4520	0	0	0
4521	0	0	0
4522	0	0	0
4523	0	0	0
4524	0	0	0
4525	0	0	0
4526	0	0	0
4527	0	0	0
4528	0	0	0
4529	0	0	0
4530	0	0	0
4531	0	0	0
4532	0	0	0
4533	0	0	0
4534	0	0	0
4535	0	0	0
4536	0	0	0
4537	0	0	0
4538	0	0	0
4539	0	0	0
4540	0	0	0
4541	0	0	0
4542	0	0	0
4543	0	0	0
4544	0	0	0
4545	0	0	0
4546	254	231	222
4547	255	226	219
4548	255	209	210
4549	249	191	202
4550	248	180	202
4551	255	185	210
4552	253	177	205
4553	250	167	201
4554	251	165	205
4555	250	161	207
4556	255	170	216
4557	255	171	221
4558	255	158	217
4559	255	150	216
4560	242	126	205
4561	241	124	208
4562	240	126	210
4563	234	121	206
4564	250	148	223
4565	255	159	229
4566	254	155	222
4567	250	153	220
4568	246	152	222
4569	233	139	214
4570	246	159	228
4571	253	168	234
4572	241	156	223
4573	239	159	222
4574	248	176	230
4575	252	183	232
4576	250	183	230
4577	247	183	227
4578	248	187	227
4579	249	190	230
4580	248	191	231
4581	244	190	230
4582	248	195	233
4583	255	202	239
4584	251	193	232
4585	248	192	228
4586	252	201	230
4587	253	203	230
4588	253	204	229
4589	253	205	230
4590	252	205	231
4591	251	205	230
4592	252	207	232
4593	248	202	229
4594	249	204	231
4595	251	209	234
4596	250	211	233
4597	241	203	227
4598	244	207	232
4599	246	209	236
4600	243	206	234
4601	243	208	234
4602	244	212	236
4603	247	219	239
4604	243	215	235
4605	237	212	232
4606	235	210	233
4607	232	207	232
4608	235	211	235
4609	233	208	234
4610	233	207	235
4611	0	0	0
4612	236	206	237
4613	241	213	243
4614	231	202	236
4615	0	0	0
4616	0	0	0
4617	0	0	0
4618	0	0	0
4619	0	0	0
4620	0	0	0
4621	0	0	0
4622	0	0	0
4623	0	0	0
4624	231	210	245
4625	218	191	237
4626	204	175	230
4627	205	182	238
4628	0	0	0
4629	0	0	0
4630	0	0	0
4631	0	0	0
4632	0	0	0
4633	0	0	0
4634	0	0	0
4635	0	0	0
4636	0	0	0
4637	0	0	0
4638	0	0	0
4639	0	0	0
4640	0	0	0
4641	0	0	0
4642	0	0	0
4643	0	0	0
4644	0	0	0
4645	0	0	0
4646	0	0	0
4647	0	0	0
4648	0	0	0
4649	0	0	0
4650	0	0	0
4651	0	0	0
4652	0	0	0
4653	0	0	0
4654	0	0	0
4655	0	0	0
4656	0	0	0
4657	0	0	0
4658	0	0	0
4659	0	0	0
4660	0	0	0
4661	0	0	0
4662	0	0	0
4663	0	0	0
4664	0	0	0
4665	0	0	0
4666	0	0	0
4667	0	0	0
4668	0	0	0
4669	0	0	0
4670	0	0	0
4671	0	0	0
4672	0	0	0
4673	0	0	0
4674	0	0	0
4675	0	0	0
4676	0	0	0
4677	0	0	0
4678	0	0	0
4679	0	0	0
4680	0	0	0
4681	0	0	0
4682	0	0	0
4683	0	0	0
4684	0	0	0
4685	0	0	0
4686	0	0	0
4687	0	0	0
4688	0	0	0
4689	0	0	0
4690	0	0	0
4691	0	0	0
4692	0	0	0
4693	0	0	0
4694	0	0	0
4695	0	0	0
4696	0	0	0
4697	0	0	0
4698	0	0	0
4699	0	0	0
4700	255	233	226
4701	255	224	222
4702	255	210	215
4703	253	194	206
4704	253	185	205
4705	251	175	206
4706	252	170	208
4707	249	162	206
4708	250	159	207
4709	249	154	208
4710	252	158	212
4711	255	166	220
4712	252	150	213
4713	245	137	210
4714	230	115	199
4715	212	89	187
4716	216	96	195
4717	215	98	196
4718	233	125	213
4719	251	151	229
4720	249	148	224
4721	245	143	219
4722	238	140	216
4723	233	138	215
4724	238	152	224
4725	249	170	234
4726	240	160	226
4727	229	148	219
4728	239	166	229
4729	247	182	234
4730	245	182	229
4731	244	183	227
4732	246	187	228
4733	249	191	230
4734	251	194	232
4735	249	194	232
4736	244	194	230
4737	248	199	234
4738	247	192	230
4739	240	182	224
4740	241	190	227
4741	246	199	229
4742	248	200	228
4743	248	201	229
4744	247	200	228
4745	247	200	229
4746	249	203	231
4747	249	205	232
4748	248	206	231
4749	248	207	232
4750	251	213	235
4751	251	216	236
4752	246	214	234
4753	248	217	238
4754	249	217	240
4755	246	214	237
4756	247	218	239
4757	248	222	241
4758	243	217	236
4759	238	213	231
4760	231	208	227
4761	228	206	227
4762	230	210	230
4763	234	214	235
4764	232	211	233
4765	0	0	0
4766	0	0	0
4767	0	0	0
4768	234	210	236
4769	0	0	0
4770	0	0	0
4771	0	0	0
4772	0	0	0
4773	0	0	0
4774	0	0	0
4775	0	0	0
4776	0	0	0
4777	0	0	0
4778	0	0	0
4779	0	0	0
4780	221	213	241
4781	206	198	238
4782	0	0	0
4783	0	0	0
4784	0	0	0
4785	0	0	0
4786	0	0	0
4787	0	0	0
4788	0	0	0
4789	0	0	0
4790	0	0	0
4791	0	0	0
4792	0	0	0
4793	0	0	0
4794	0	0	0
4795	0	0	0
4796	0	0	0
4797	0	0	0
4798	0	0	0
4799	0	0	0
4800	0	0	0
4801	0	0	0
4802	0	0	0
4803	0	0	0
4804	0	0	0
4805	0	0	0
4806	0	0	0
4807	0	0	0
4808	0	0	0
4809	0	0	0
4810	0	0	0
4811	0	0	0
4812	0	0	0
4813	0	0	0
4814	0	0	0
4815	0	0	0
4816	0	0	0
4817	0	0	0
4818	0	0	0
4819	0	0	0
4820	0	0	0
4821	0	0	0
4822	0	0	0
4823	0	0	0
4824	0	0	0
4825	0	0	0
4826	0	0	0
4827	0	0	0
4828	0	0	0
4829	0	0	0
4830	0	0	0
4831	0	0	0
4832	0	0	0
4833	0	0	0
4834	0	0	0
4835	0	0	0
4836	0	0	0
4837	0	0	0
4838	0	0	0
4839	0	0	0
4840	0	0	0
4841	0	0	0
4842	0	0	0
4843	0	0	0
4844	0	0	0
4845	0	0	0
4846	0	0	0
4847	0	0	0
4848	0	0	0
4849	0	0	0
4850	0	0	0
4851	0	0	0
4852	0	0	0
4853	0	0	0
4854	255	233	226
4855	255	223	220
4856	255	208	215
4857	254	193	210
4858	253	183	207
4859	253	174	207
4860	252	167	209
4861	252	162	212
4862	250	155	212
4863	250	152	213
4864	255	157	217
4865	255	161	221
4866	255	165	225
4867	247	145	215
4868	234	130	210
4869	211	103	197
4870	210	106	203
4871	214	113	210
4872	225	127	219
4873	251	158	239
4874	248	150	232
4875	245	145	226
4876	245	149	226
4877	235	143	220
4878	234	148	224
4879	241	164	232
4880	245	175	235
4881	233	162	224
4882	233	165	229
4883	245	184	241
4884	240	181	233
4885	236	180	227
4886	243	188	231
4887	248	194	234
4888	247	191	231
4889	248	193	232
4890	246	192	231
4891	242	193	229
4892	250	206	237
4893	244	196	230
4894	242	196	230
4895	242	203	233
4896	245	209	234
4897	250	212	235
4898	246	205	230
4899	245	204	230
4900	252	213	237
4901	254	216	240
4902	248	209	234
4903	247	210	234
4904	246	209	233
4905	252	215	237
4906	251	216	236
4907	246	215	235
4908	247	217	237
4909	248	217	238
4910	245	212	235
4911	246	217	238
4912	244	219	238
4913	0	0	0
4914	0	0	0
4915	0	0	0
4916	0	0	0
4917	0	0	0
4918	0	0	0
4919	0	0	0
4920	0	0	0
4921	0	0	0
4922	0	0	0
4923	0	0	0
4924	0	0	0
4925	0	0	0
4926	0	0	0
4927	0	0	0
4928	0	0	0
4929	0	0	0
4930	0	0	0
4931	0	0	0
4932	0	0	0
4933	0	0	0
4934	0	0	0
4935	0	0	0
4936	0	0	0
4937	0	0	0
4938	0	0	0
4939	0	0	0
4940	0	0	0
4941	0	0	0
4942	0	0	0
4943	0	0	0
4944	0	0	0
4945	0	0	0
4946	0	0	0
4947	0	0	0
4948	0	0	0
4949	0	0	0
4950	0	0	0
4951	0	0	0
4952	0	0	0
4953	0	0	0
4954	0	0	0
4955	0	0	0
4956	0	0	0
4957	0	0	0
4958	0	0	0
4959	0	0	0
4960	0	0	0
4961	0	0	0
4962	0	0	0
4963	0	0	0
4964	0	0	0
4965	0	0	0
4966	0	0	0
4967	0	0	0
4968	0	0	0
4969	0	0	0
4970	0	0	0
4971	0	0	0
4972	0	0	0
4973	0	0	0
4974	0	0	0
4975	0	0	0
4976	0	0	0
4977	0	0	0
4978	0	0	0
4979	0	0	0
4980	0	0	0
4981	0	0	0
4982	0	0	0
4983	0	0	0
4984	0	0	0
4985	0	0	0
4986	0	0	0
4987	0	0	0
4988	0	0	0
4989	0	0	0
4990	0	0	0
4991	0	0	0
4992	0	0	0
4993	0	0	0
4994	0	0	0
4995	0	0	0
4996	0	0	0
4997	0	0	0
4998	0	0	0
4999	0	0	0
5000	0	0	0
5001	0	0	0
5002	0	0	0
5003	0	0	0
5004	0	0	0
5005	0	0	0
5006	0	0	0
5007	0	0	0
5008	255	234	227
5009	255	221	216
5010	255	206	209
5011	253	191	207
5012	252	181	208
5013	250	172	208
5014	247	162	208
5015	245	153	208
5016	244	149	210
5017	241	141	209
5018	248	149	217
5019	253	153	219
5020	254	153	219
5021	255	157	224
5022	239	137	214
5023	223	120	209
5024	217	122	214
5025	215	125	220
5026	222	137	229
5027	233	150	235
5028	237	147	232
5029	235	140	226
5030	239	144	227
5031	238	147	226
5032	232	149	224
5033	231	154	228
5034	236	166	233
5035	240	176	234
5036	237	176	232
5037	238	180	237
5038	238	182	238
5039	234	180	232
5040	236	186	233
5041	242	194	236
5042	242	191	233
5043	240	188	229
5044	240	188	229
5045	238	188	230
5046	243	199	235
5047	249	210	237
5048	247	209	233
5049	246	209	234
5050	247	215	237
5051	251	221	240
5052	248	214	235
5053	244	207	231
5054	250	216	236
5055	255	225	242
5056	254	220	240
5057	249	213	237
5058	245	212	236
5059	245	212	236
5060	249	215	238
5061	248	215	237
5062	242	213	233
5063	242	215	233
5064	243	213	233
5065	241	210	233
5066	243	214	237
5067	0	0	0
5068	0	0	0
5069	0	0	0
5070	0	0	0
5071	0	0	0
5072	0	0	0
5073	0	0	0
5074	0	0	0
5075	0	0	0
5076	0	0	0
5077	0	0	0
5078	0	0	0
5079	0	0	0
5080	0	0	0
5081	0	0	0
5082	0	0	0
5083	0	0	0
5084	0	0	0
5085	0	0	0
5086	0	0	0
5087	0	0	0
5088	0	0	0
5089	0	0	0
5090	0	0	0
5091	0	0	0
5092	0	0	0
5093	0	0	0
5094	0	0	0
5095	0	0	0
5096	0	0	0
5097	0	0	0
5098	0	0	0
5099	0	0	0
5100	0	0	0
5101	0	0	0
5102	0	0	0
5103	0	0	0
5104	0	0	0
5105	0	0	0
5106	0	0	0
5107	0	0	0
5108	0	0	0
5109	0	0	0
5110	0	0	0
5111	0	0	0
5112	0	0	0
5113	0	0	0
5114	0	0	0
5115	0	0	0
5116	0	0	0
5117	0	0	0
5118	0	0	0
5119	0	0	0
5120	0	0	0
5121	0	0	0
5122	0	0	0
5123	0	0	0
5124	0	0	0
5125	0	0	0
5126	0	0	0
5127	0	0	0
5128	0	0	0
5129	0	0	0
5130	0	0	0
5131	0	0	0
5132	0	0	0
5133	0	0	0
5134	0	0	0
5135	0	0	0
5136	0	0	0
5137	0	0	0
5138	0	0	0
5139	0	0	0
5140	0	0	0
5141	0	0	0
5142	0	0	0
5143	0	0	0
5144	0	0	0
5145	0	0	0
5146	0	0	0
5147	0	0	0
5148	0	0	0
5149	0	0	0
5150	0	0	0
5151	0	0	0
5152	0	0	0
5153	0	0	0
5154	0	0	0
5155	0	0	0
5156	0	0	0
5157	0	0	0
5158	0	0	0
5159	0	0	0
5160	0	0	0
5161	0	0	0
5162	255	232	226
5163	255	222	220
5164	255	201	207
5165	252	187	203
5166	249	176	205
5167	244	164	205
5168	247	166	213
5169	242	155	212
5170	244	157	216
5171	240	150	216
5172	236	141	214
5173	245	148	222
5174	248	151	222
5175	248	150	223
5176	250	153	227
5177	234	134	217
5178	219	119	212
5179	212	120	216
5180	219	136	229
5181	228	149	237
5182	237	159	240
5183	238	154	235
5184	239	153	235
5185	240	157	236
5186	238	158	234
5187	237	163	234
5188	241	174	240
5189	244	184	243
5190	241	185	239
5191	240	186	238
5192	238	184	238
5193	238	186	239
5194	239	190	238
5195	241	196	239
5196	244	201	240
5197	242	198	236
5198	238	193	232
5199	235	192	230
5200	240	203	238
5201	248	215	243
5202	247	214	237
5203	245	213	232
5204	247	215	235
5205	255	225	243
5206	250	216	237
5207	241	206	229
5208	247	216	235
5209	253	225	241
5210	251	220	237
5211	250	216	236
5212	245	210	234
5213	240	208	233
5214	245	216	239
5215	248	219	241
5216	245	218	237
5217	0	0	0
5218	0	0	0
5219	247	224	239
5220	0	0	0
5221	0	0	0
5222	0	0	0
5223	0	0	0
5224	0	0	0
5225	0	0	0
5226	0	0	0
5227	0	0	0
5228	0	0	0
5229	0	0	0
5230	0	0	0
5231	0	0	0
5232	0	0	0
5233	0	0	0
5234	0	0	0
5235	0	0	0
5236	0	0	0
5237	0	0	0
5238	0	0	0
5239	0	0	0
5240	0	0	0
5241	0	0	0
5242	0	0	0
5243	0	0	0
5244	0	0	0
5245	0	0	0
5246	0	0	0
5247	0	0	0
5248	0	0	0
5249	0	0	0
5250	0	0	0
5251	0	0	0
5252	0	0	0
5253	0	0	0
5254	0	0	0
5255	0	0	0
5256	0	0	0
5257	0	0	0
5258	0	0	0
5259	0	0	0
5260	0	0	0
5261	0	0	0
5262	0	0	0
5263	0	0	0
5264	0	0	0
5265	0	0	0
5266	0	0	0
5267	0	0	0
5268	0	0	0
5269	0	0	0
5270	0	0	0
5271	0	0	0
5272	0	0	0
5273	0	0	0
5274	0	0	0
5275	0	0	0
5276	0	0	0
5277	0	0	0
5278	0	0	0
5279	0	0	0
5280	0	0	0
5281	0	0	0
5282	0	0	0
5283	0	0	0
5284	0	0	0
5285	0	0	0
5286	0	0	0
5287	0	0	0
5288	0	0	0
5289	0	0	0
5290	0	0	0
5291	0	0	0
5292	0	0	0
5293	0	0	0
5294	0	0	0
5295	0	0	0
5296	0	0	0
5297	0	0	0
5298	0	0	0
5299	0	0	0
5300	0	0	0
5301	0	0	0
5302	0	0	0
5303	0	0	0
5304	0	0	0
5305	0	0	0
5306	0	0	0
5307	0	0	0
5308	0	0	0
5309	0	0	0
5310	0	0	0
5311	0	0	0
5312	0	0	0
5313	0	0	0
5314	255	241	232
5315	255	238	230
5316	255	229	225
5317	255	221	220
5318	254	200	209
5319	244	178	200
5320	236	164	197
5321	231	153	200
5322	231	152	206
5323	232	152	211
5324	233	152	214
5325	233	151	215
5326	224	139	209
5327	220	131	209
5328	232	139	219
5329	236	142	221
5330	237	142	223
5331	238	144	226
5332	221	127	216
5333	205	110	209
5334	210	127	221
5335	217	142	230
5336	222	149	232
5337	230	159	236
5338	233	159	234
5339	234	158	235
5340	234	163	237
5341	234	166	239
5342	240	179	245
5343	243	189	246
5344	237	187	241
5345	236	189	239
5346	234	186	236
5347	232	184	236
5348	236	191	239
5349	236	194	236
5350	236	197	234
5351	240	203	237
5352	240	201	236
5353	237	198	235
5354	241	209	241
5355	246	218	243
5356	247	219	241
5357	246	219	238
5358	242	217	234
5359	245	219	235
5360	250	217	236
5361	246	210	233
5362	250	220	240
5363	254	228	242
5364	0	0	0
5365	242	213	232
5366	244	210	233
5367	0	0	0
5368	239	210	235
5369	244	219	241
5370	244	220	240
5371	0	0	0
5372	0	0	0
5373	0	0	0
5374	0	0	0
5375	0	0	0
5376	0	0	0
5377	0	0	0
5378	0	0	0
5379	0	0	0
5380	0	0	0
5381	0	0	0
5382	0	0	0
5383	0	0	0
5384	0	0	0
5385	0	0	0
5386	0	0	0
5387	0	0	0
5388	0	0	0
5389	0	0	0
5390	0	0	0
5391	0	0	0
5392	0	0	0
5393	0	0	0
5394	0	0	0
5395	0	0	0
5396	0	0	0
5397	0	0	0
5398	0	0	0
5399	0	0	0
5400	0	0	0
5401	0	0	0
5402	0	0	0
5403	0	0	0
5404	0	0	0
5405	0	0	0
5406	0	0	0
5407	0	0	0
5408	0	0	0
5409	0	0	0
5410	0	0	0
5411	0	0	0
5412	0	0	0
5413	0	0	0
5414	0	0	0
5415	0	0	0
5416	0	0	0
5417	0	0	0
5418	0	0	0
5419	0	0	0
5420	0	0	0
5421	0	0	0
5422	0	0	0
5423	0	0	0
5424	0	0	0
5425	0	0	0
5426	0	0	0
5427	0	0	0
5428	0	0	0
5429	0	0	0
5430	0	0	0
5431	0	0	0
5432	0	0	0
5433	0	0	0
5434	0	0	0
5435	0	0	0
5436	0	0	0
5437	0	0	0
5438	0	0	0
5439	0	0	0
5440	0	0	0
5441	0	0	0
5442	0	0	0
5443	0	0	0
5444	0	0	0
5445	0	0	0
5446	0	0	0
5447	0	0	0
5448	0	0	0
5449	0	0	0
5450	0	0	0
5451	0	0	0
5452	0	0	0
5453	0	0	0
5454	0	0	0
5455	0	0	0
5456	0	0	0
5457	0	0	0
5458	0	0	0
5459	0	0	0
5460	0	0	0
5461	0	0	0
5462	0	0	0
5463	0	0	0
5464	0	0	0
5465	0	0	0
5466	0	0	0
5467	0	0	0
5468	255	236	229
5469	255	234	228
5470	255	219	220
5471	255	211	217
5472	253	198	212
5473	242	175	202
5474	239	171	204
5475	219	151	195
5476	225	163	212
5477	227	162	218
5478	226	159	220
5479	228	159	222
5480	226	157	221
5481	214	143	213
5482	220	148	222
5483	237	158	235
5484	239	155	234
5485	238	153	234
5486	230	145	229
5487	209	125	216
5488	214	138	227
5489	222	156	239
5490	221	159	239
5491	225	166	240
5492	233	176	243
5493	234	175	241
5494	229	169	237
5495	231	174	241
5496	234	181	245
5497	241	194	252
5498	234	189	242
5499	0	0	0
5500	0	0	0
5501	0	0	0
5502	0	0	0
5503	0	0	0
5504	0	0	0
5505	0	0	0
5506	0	0	0
5507	0	0	0
5508	239	206	238
5509	246	218	244
5510	244	218	239
5511	243	218	236
5512	241	218	235
5513	0	0	0
5514	244	225	238
5515	249	224	239
5516	245	213	235
5517	255	226	245
5518	249	222	238
5519	0	0	0
5520	0	0	0
5521	0	0	0
5522	0	0	0
5523	0	0	0
5524	0	0	0
5525	0	0	0
5526	0	0	0
5527	0	0	0
5528	0	0	0
5529	0	0	0
5530	0	0	0
5531	0	0	0
5532	0	0	0
5533	0	0	0
5534	0	0	0
5535	0	0	0
5536	0	0	0
5537	0	0	0
5538	0	0	0
5539	0	0	0
5540	0	0	0
5541	0	0	0
5542	0	0	0
5543	0	0	0
5544	0	0	0
5545	0	0	0
5546	0	0	0
5547	0	0	0
5548	0	0	0
5549	0	0	0
5550	0	0	0
5551	0	0	0
5552	0	0	0
5553	0	0	0
5554	0	0	0
5555	0	0	0
5556	0	0	0
5557	0	0	0
5558	0	0	0
5559	0	0	0
5560	0	0	0
5561	0	0	0
5562	0	0	0
5563	0	0	0
5564	0	0	0
5565	0	0	0
5566	0	0	0
5567	0	0	0
5568	0	0	0
5569	0	0	0
5570	0	0	0
5571	0	0	0
5572	0	0	0
5573	0	0	0
5574	0	0	0
5575	0	0	0
5576	0	0	0
5577	0	0	0
5578	0	0	0
5579	0	0	0
5580	0	0	0
5581	0	0	0
5582	0	0	0
5583	0	0	0
5584	0	0	0
5585	0	0	0
5586	0	0	0
5587	0	0	0
5588	0	0	0
5589	0	0	0
5590	0	0	0
5591	0	0	0
5592	0	0	0
5593	0	0	0
5594	0	0	0
5595	0	0	0
5596	0	0	0
5597	0	0	0
5598	0	0	0
5599	0	0	0
5600	0	0	0
5601	0	0	0
5602	0	0	0
5603	0	0	0
5604	0	0	0
5605	0	0	0
5606	0	0	0
5607	0	0	0
5608	0	0	0
5609	0	0	0
5610	0	0	0
5611	0	0	0
5612	0	0	0
5613	0	0	0
5614	0	0	0
5615	0	0	0
5616	0	0	0
5617	0	0	0
5618	0	0	0
5619	0	0	0
5620	255	244	230
5621	255	245	234
5622	255	239	232
5623	255	229	225
5624	255	214	217
5625	252	200	212
5626	247	186	208
5627	242	174	208
5628	243	172	213
5629	236	165	211
5630	228	168	215
5631	231	177	227
5632	227	171	228
5633	226	167	229
5634	227	167	232
5635	225	164	231
5636	222	163	232
5637	227	166	239
5638	232	164	240
5639	232	159	236
5640	227	150	231
5641	218	141	227
5642	219	152	234
5643	223	165	242
5644	224	171	245
5645	224	174	247
5646	232	185	252
5647	238	194	253
5648	232	187	245
5649	227	180	242
5650	229	186	245
5651	0	0	0
5652	231	193	244
5653	0	0	0
5654	0	0	0
5655	0	0	0
5656	0	0	0
5657	0	0	0
5658	0	0	0
5659	0	0	0
5660	0	0	0
5661	0	0	0
5662	0	0	0
5663	0	0	0
5664	237	212	236
5665	237	214	234
5666	239	216	234
5667	0	0	0
5668	0	0	0
5669	0	0	0
5670	242	222	236
5671	0	0	0
5672	241	214	233
5673	0	0	0
5674	0	0	0
5675	0	0	0
5676	0	0	0
5677	0	0	0
5678	0	0	0
5679	0	0	0
5680	0	0	0
5681	0	0	0
5682	0	0	0
5683	0	0	0
5684	0	0	0
5685	0	0	0
5686	0	0	0
5687	0	0	0
5688	0	0	0
5689	0	0	0
5690	0	0	0
5691	0	0	0
5692	0	0	0
5693	0	0	0
5694	0	0	0
5695	0	0	0
5696	0	0	0
5697	0	0	0
5698	0	0	0
5699	0	0	0
5700	0	0	0
5701	0	0	0
5702	0	0	0
5703	0	0	0
5704	0	0	0
5705	0	0	0
5706	0	0	0
5707	0	0	0
5708	0	0	0
5709	0	0	0
5710	0	0	0
5711	0	0	0
5712	0	0	0
5713	0	0	0
5714	0	0	0
5715	0	0	0
5716	0	0	0
5717	0	0	0
5718	0	0	0
5719	0	0	0
5720	0	0	0
5721	0	0	0
5722	0	0	0
5723	0	0	0
5724	0	0	0
5725	0	0	0
5726	0	0	0
5727	0	0	0
5728	0	0	0
5729	0	0	0
5730	0	0	0
5731	0	0	0
5732	0	0	0
5733	0	0	0
5734	0	0	0
5735	0	0	0
5736	0	0	0
5737	0	0	0
5738	0	0	0
5739	0	0	0
5740	0	0	0
5741	0	0	0
5742	0	0	0
5743	0	0	0
5744	0	0	0
5745	0	0	0
5746	0	0	0
5747	0	0	0
5748	0	0	0
5749	0	0	0
5750	0	0	0
5751	0	0	0
5752	0	0	0
5753	0	0	0
5754	0	0	0
5755	0	0	0
5756	0	0	0
5757	0	0	0
5758	0	0	0
5759	0	0	0
5760	0	0	0
5761	0	0	0
5762	0	0	0
5763	0	0	0
5764	0	0	0
5765	0	0	0
5766	0	0	0
5767	0	0	0
5768	0	0	0
5769	0	0	0
5770	0	0	0
5771	0	0	0
5772	0	0	0
5773	0	0	0
5774	255	239	228
5775	255	241	231
5776	255	226	223
5777	255	218	220
5778	255	210	217
5779	251	196	211
5780	250	189	212
5781	243	174	209
5782	245	174	218
5783	244	170	221
5784	239	169	221
5785	235	173	226
5786	231	172	229
5787	223	163	226
5788	229	172	236
5789	226	169	235
5790	227	169	236
5791	228	170	239
5792	226	167	239
5793	220	158	234
5794	226	167	239
5795	224	159	235
5796	225	164	239
5797	227	175	246
5798	226	179	246
5799	227	184	248
5800	226	185	249
5801	234	196	255
5802	231	193	249
5803	222	184	239
5804	224	190	243
5805	0	0	0
5806	0	0	0
5807	0	0	0
5808	0	0	0
5809	0	0	0
5810	0	0	0
5811	0	0	0
5812	0	0	0
5813	0	0	0
5814	0	0	0
5815	0	0	0
5816	0	0	0
5817	0	0	0
5818	0	0	0
5819	0	0	0
5820	0	0	0
5821	0	0	0
5822	0	0	0
5823	0	0	0
5824	0	0	0
5825	0	0	0
5826	0	0	0
5827	0	0	0
5828	0	0	0
5829	0	0	0
5830	0	0	0
5831	0	0	0
5832	0	0	0
5833	0	0	0
5834	0	0	0
5835	0	0	0
5836	0	0	0
5837	0	0	0
5838	0	0	0
5839	0	0	0
5840	0	0	0
5841	0	0	0
5842	0	0	0
5843	0	0	0
5844	0	0	0
5845	0	0	0
5846	0	0	0
5847	0	0	0
5848	0	0	0
5849	0	0	0
5850	0	0	0
5851	0	0	0
5852	0	0	0
5853	0	0	0
5854	0	0	0
5855	0	0	0
5856	0	0	0
5857	0	0	0
5858	0	0	0
5859	0	0	0
5860	0	0	0
5861	0	0	0
5862	0	0	0
5863	0	0	0
5864	0	0	0
5865	0	0	0
5866	0	0	0
5867	0	0	0
5868	0	0	0
5869	0	0	0
5870	0	0	0
5871	0	0	0
5872	0	0	0
5873	0	0	0
5874	0	0	0
5875	0	0	0
5876	0	0	0
5877	0	0	0
5878	0	0	0
5879	0	0	0
5880	0	0	0
5881	0	0	0
5882	0	0	0
5883	0	0	0
5884	0	0	0
5885	0	0	0
5886	0	0	0
5887	0	0	0
5888	0	0	0
5889	0	0	0
5890	0	0	0
5891	0	0	0
5892	0	0	0
5893	0	0	0
5894	0	0	0
5895	0	0	0
5896	0	0	0
5897	0	0	0
5898	0	0	0
5899	0	0	0
5900	0	0	0
5901	0	0	0
5902	0	0	0
5903	0	0	0
5904	0	0	0
5905	0	0	0
5906	0	0	0
5907	0	0	0
5908	0	0	0
5909	0	0	0
5910	0	0	0
5911	0	0	0
5912	0	0	0
5913	0	0	0
5914	0	0	0
5915	0	0	0
5916	0	0	0
5917	0	0	0
5918	0	0	0
5919	0	0	0
5920	0	0	0
5921	0	0	0
5922	0	0	0
5923	0	0	0
5924	0	0	0
5925	0	0	0
5926	0	0	0
5927	0	0	0
5928	255	240	229
5929	255	238	230
5930	255	222	222
5931	251	206	212
5932	248	197	210
5933	248	191	212
5934	246	182	212
5935	243	175	212
5936	241	171	214
5937	240	168	219
5938	238	168	223
5939	233	165	223
5940	226	162	223
5941	222	161	227
5942	226	168	234
5943	230	176	239
5944	224	171	235
5945	223	170	233
5946	222	167	232
5947	218	162	231
5948	218	167	235
5949	224	176	243
5950	232	183	248
5951	234	187	251
5952	232	191	251
5953	230	195	250
5954	228	195	248
5955	228	196	249
5956	226	194	246
5957	223	192	243
5958	225	198	244
5959	0	0	0
5960	0	0	0
5961	0	0	0
5962	0	0	0
5963	0	0	0
5964	0	0	0
5965	0	0	0
5966	0	0	0
5967	0	0	0
5968	0	0	0
5969	0	0	0
5970	0	0	0
5971	0	0	0
5972	0	0	0
5973	0	0	0
5974	0	0	0
5975	0	0	0
5976	0	0	0
5977	0	0	0
5978	0	0	0
5979	0	0	0
5980	0	0	0
5981	0	0	0
5982	0	0	0
5983	0	0	0
5984	0	0	0
5985	0	0	0
5986	0	0	0
5987	0	0	0
5988	0	0	0
5989	0	0	0
5990	0	0	0
5991	0	0	0
5992	0	0	0
5993	0	0	0
5994	0	0	0
5995	0	0	0
5996	0	0	0
5997	0	0	0
5998	0	0	0
5999	0	0	0
6000	0	0	0
6001	0	0	0
6002	0	0	0
6003	0	0	0
6004	0	0	0
6005	0	0	0
6006	0	0	0
6007	0	0	0
6008	0	0	0
6009	0	0	0
6010	0	0	0
6011	0	0	0
6012	0	0	0
6013	0	0	0
6014	0	0	0
6015	0	0	0
6016	0	0	0
6017	0	0	0
6018	0	0	0
6019	0	0	0
6020	0	0	0
6021	0	0	0
6022	0	0	0
6023	0	0	0
6024	0	0	0
6025	0	0	0
6026	0	0	0
6027	0	0	0
6028	0	0	0
6029	0	0	0
6030	0	0	0
6031	0	0	0
6032	0	0	0
6033	0	0	0
6034	0	0	0
6035	0	0	0
6036	0	0	0
6037	0	0	0
6038	0	0	0
6039	0	0	0
6040	0	0	0
6041	0	0	0
6042	0	0	0
6043	0	0	0
6044	0	0	0
6045	0	0	0
6046	0	0	0
6047	0	0	0
6048	0	0	0
6049	0	0	0
6050	0	0	0
6051	0	0	0
6052	0	0	0
6053	0	0	0
6054	0	0	0
6055	0	0	0
6056	0	0	0
6057	0	0	0
6058	0	0	0
6059	0	0	0
6060	0	0	0
6061	0	0	0
6062	0	0	0
6063	0	0	0
6064	0	0	0
6065	0	0	0
6066	0	0	0
6067	0	0	0
6068	0	0	0
6069	0	0	0
6070	0	0	0
6071	0	0	0
6072	0	0	0
6073	0	0	0
6074	0	0	0
6075	0	0	0
6076	0	0	0
6077	0	0	0
6078	0	0	0
6079	0	0	0
6080	0	0	0
6081	0	0	0
6082	255	225	224
6083	255	223	223
6084	255	214	221
6085	246	197	212
6086	253	202	216
6087	250	193	214
6088	248	186	218
6089	243	176	218
6090	243	175	221
6091	238	169	221
6092	236	168	225
6093	232	167	226
6094	230	170	229
6095	221	166	228
6096	218	164	231
6097	225	173	239
6098	230	181	242
6099	222	175	235
6100	221	175	234
6101	216	170	231
6102	217	173	233
6103	219	179	238
6104	224	186	245
6105	230	191	249
6106	229	191	247
6107	229	196	248
6108	224	193	243
6109	221	193	241
6110	224	200	245
6111	0	0	0
6112	0	0	0
6113	0	0	0
6114	0	0	0
6115	0	0	0
6116	0	0	0
6117	0	0	0
6118	0	0	0
6119	0	0	0
6120	0	0	0
6121	0	0	0
6122	0	0	0
6123	0	0	0
6124	0	0	0
6125	0	0	0
6126	0	0	0
6127	0	0	0
6128	0	0	0
6129	0	0	0
6130	0	0	0
6131	0	0	0
6132	0	0	0
6133	0	0	0
6134	0	0	0
6135	0	0	0
6136	0	0	0
6137	0	0	0
6138	0	0	0
6139	0	0	0
6140	0	0	0
6141	0	0	0
6142	0	0	0
6143	0	0	0
6144	0	0	0
6145	0	0	0
6146	0	0	0
6147	0	0	0
6148	0	0	0
6149	0	0	0
6150	0	0	0
6151	0	0	0
6152	0	0	0
6153	0	0	0
6154	0	0	0
6155	0	0	0
6156	0	0	0
6157	0	0	0
6158	0	0	0
6159	0	0	0
6160	0	0	0
6161	0	0	0
6162	0	0	0
6163	0	0	0
6164	0	0	0
6165	0	0	0
6166	0	0	0
6167	0	0	0
6168	0	0	0
6169	0	0	0
6170	0	0	0
6171	0	0	0
6172	0	0	0
6173	0	0	0
6174	0	0	0
6175	0	0	0
6176	0	0	0
6177	0	0	0
6178	0	0	0
6179	0	0	0
6180	0	0	0
6181	0	0	0
6182	0	0	0
6183	0	0	0
6184	0	0	0
6185	0	0	0
6186	0	0	0
6187	0	0	0
6188	0	0	0
6189	0	0	0
6190	0	0	0
6191	0	0	0
6192	0	0	0
6193	0	0	0
6194	0	0	0
6195	0	0	0
6196	0	0	0
6197	0	0	0
6198	0	0	0
6199	0	0	0
6200	0	0	0
6201	0	0	0
6202	0	0	0
6203	0	0	0
6204	0	0	0
6205	0	0	0
6206	0	0	0
6207	0	0	0
6208	0	0	0
6209	0	0	0
6210	0	0	0
6211	0	0	0
6212	0	0	0
6213	0	0	0
6214	0	0	0
6215	0	0	0
6216	0	0	0
6217	0	0	0
6218	0	0	0
6219	0	0	0
6220	0	0	0
6221	0	0	0
6222	0	0	0
6223	0	0	0
6224	0	0	0
6225	0	0	0
6226	0	0	0
6227	0	0	0
6228	0	0	0
6229	0	0	0
6230	0	0	0
6231	0	0	0
6232	0	0	0
6233	0	0	0
6234	0	0	0
6235	255	225	225
6236	254	217	223
6237	250	208	218
6238	246	198	215
6239	243	189	216
6240	246	191	219
6241	250	194	220
6242	244	182	215
6243	240	174	218
6244	236	171	221
6245	235	169	223
6246	233	168	226
6247	230	166	229
6248	230	171	234
6249	226	172	233
6250	214	166	228
6251	211	164	231
6252	220	175	239
6253	224	182	239
6254	219	180	235
6255	219	181	237
6256	221	184	239
6257	220	186	238
6258	221	190	240
6259	224	196	247
6260	226	197	247
6261	225	196	243
6262	222	194	241
6263	219	192	239
6264	221	200	243
6265	0	0	0
6266	0	0	0
6267	0	0	0
6268	0	0	0
6269	0	0	0
6270	0	0	0
6271	0	0	0
6272	0	0	0
6273	0	0	0
6274	0	0	0
6275	0	0	0
6276	0	0	0
6277	0	0	0
6278	0	0	0
6279	0	0	0
6280	0	0	0
6281	0	0	0
6282	0	0	0
6283	0	0	0
6284	0	0	0
6285	0	0	0
6286	0	0	0
6287	0	0	0
6288	0	0	0
6289	0	0	0
6290	0	0	0
6291	0	0	0
6292	0	0	0
6293	0	0	0
6294	0	0	0
6295	0	0	0
6296	0	0	0
6297	0	0	0
6298	0	0	0
6299	0	0	0
6300	0	0	0
6301	0	0	0
6302	0	0	0
6303	0	0	0
6304	0	0	0
6305	0	0	0
6306	0	0	0
6307	0	0	0
6308	0	0	0
6309	0	0	0
6310	0	0	0
6311	0	0	0
6312	0	0	0
6313	0	0	0
6314	0	0	0
6315	0	0	0
6316	0	0	0
6317	0	0	0
6318	0	0	0
6319	0	0	0
6320	0	0	0
6321	0	0	0
6322	0	0	0
6323	0	0	0
6324	0	0	0
6325	0	0	0
6326	0	0	0
6327	0	0	0
6328	0	0	0
6329	0	0	0
6330	0	0	0
6331	0	0	0
6332	0	0	0
6333	0	0	0
6334	0	0	0
6335	0	0	0
6336	0	0	0
6337	0	0	0
6338	0	0	0
6339	0	0	0
6340	0	0	0
6341	0	0	0
6342	0	0	0
6343	0	0	0
6344	0	0	0
6345	0	0	0
6346	0	0	0
6347	0	0	0
6348	0	0	0
6349	0	0	0
6350	0	0	0
6351	0	0	0
6352	0	0	0
6353	0	0	0
6354	0	0	0
6355	0	0	0
6356	0	0	0
6357	0	0	0
6358	0	0	0
6359	0	0	0
6360	0	0	0
6361	0	0	0
6362	0	0	0
6363	0	0	0
6364	0	0	0
6365	0	0	0
6366	0	0	0
6367	0	0	0
6368	0	0	0
6369	0	0	0
6370	0	0	0
6371	0	0	0
6372	0	0	0
6373	0	0	0
6374	0	0	0
6375	0	0	0
6376	0	0	0
6377	0	0	0
6378	0	0	0
6379	0	0	0
6380	0	0	0
6381	0	0	0
6382	0	0	0
6383	0	0	0
6384	0	0	0
6385	0	0	0
6386	0	0	0
6387	0	0	0
6388	255	231	228
6389	254	221	223
6390	254	216	223
6391	254	210	223
6392	249	199	220
6393	243	188	218
6394	248	193	227
6395	250	194	230
6396	248	191	226
6397	240	178	221
6398	235	172	223
6399	227	166	222
6400	238	183	236
6401	240	184	240
6402	233	175	238
6403	232	179	242
6404	222	174	236
6405	208	166	229
6406	217	182	241
6407	224	192	247
6408	218	184	239
6409	214	182	236
6410	218	188	241
6411	223	193	243
6412	221	192	239
6413	219	195	240
6414	220	198	244
6415	0	0	0
6416	0	0	0
6417	0	0	0
6418	0	0	0
6419	0	0	0
6420	0	0	0
6421	0	0	0
6422	0	0	0
6423	0	0	0
6424	0	0	0
6425	0	0	0
6426	0	0	0
6427	0	0	0
6428	0	0	0
6429	0	0	0
6430	0	0	0
6431	0	0	0
6432	0	0	0
6433	0	0	0
6434	0	0	0
6435	0	0	0
6436	0	0	0
6437	0	0	0
6438	0	0	0
6439	0	0	0
6440	0	0	0
6441	0	0	0
6442	0	0	0
6443	0	0	0
6444	0	0	0
6445	0	0	0
6446	0	0	0
6447	0	0	0
6448	0	0	0
6449	0	0	0
6450	0	0	0
6451	0	0	0
6452	0	0	0
6453	0	0	0
6454	0	0	0
6455	0	0	0
6456	0	0	0
6457	0	0	0
6458	0	0	0
6459	0	0	0
6460	0	0	0
6461	0	0	0
6462	0	0	0
6463	0	0	0
6464	0	0	0
6465	0	0	0
6466	0	0	0
6467	0	0	0
6468	0	0	0
6469	0	0	0
6470	0	0	0
6471	0	0	0
6472	0	0	0
6473	0	0	0
6474	0	0	0
6475	0	0	0
6476	0	0	0
6477	0	0	0
6478	0	0	0
6479	0	0	0
6480	0	0	0
6481	0	0	0
6482	0	0	0
6483	0	0	0
6484	0	0	0
6485	0	0	0
6486	0	0	0
6487	0	0	0
6488	0	0	0
6489	0	0	0
6490	0	0	0
6491	0	0	0
6492	0	0	0
6493	0	0	0
6494	0	0	0
6495	0	0	0
6496	0	0	0
6497	0	0	0
6498	0	0	0
6499	0	0	0
6500	0	0	0
6501	0	0	0
6502	0	0	0
6503	0	0	0
6504	0	0	0
6505	0	0	0
6506	0	0	0
6507	0	0	0
6508	0	0	0
6509	0	0	0
6510	0	0	0
6511	0	0	0
6512	0	0	0
6513	0	0	0
6514	0	0	0
6515	0	0	0
6516	0	0	0
6517	0	0	0
6518	0	0	0
6519	0	0	0
6520	0	0	0
6521	0	0	0
6522	0	0	0
6523	0	0	0
6524	0	0	0
6525	0	0	0
6526	0	0	0
6527	0	0	0
6528	0	0	0
6529	0	0	0
6530	0	0	0
6531	0	0	0
6532	0	0	0
6533	0	0	0
6534	0	0	0
6535	0	0	0
6536	0	0	0
6537	0	0	0
6538	0	0	0
6539	0	0	0
6540	0	0	0
6541	0	0	0
6542	253	222	226
6543	255	219	226
6544	251	211	222
6545	251	206	223
6546	247	195	221
6547	240	184	218
6548	240	185	222
6549	242	188	228
6550	239	183	227
6551	237	180	227
6552	234	174	226
6553	227	167	225
6554	231	179	234
6555	240	195	245
6556	236	187	241
6557	228	177	239
6558	221	175	238
6559	212	171	233
6560	0	0	0
6561	219	195	244
6562	215	189	239
6563	210	183	238
6564	213	188	242
6565	217	193	243
6566	220	196	243
6567	218	196	239
6568	216	197	238
6569	0	0	0
6570	0	0	0
6571	0	0	0
6572	0	0	0
6573	0	0	0
6574	0	0	0
6575	0	0	0
6576	0	0	0
6577	0	0	0
6578	0	0	0
6579	0	0	0
6580	0	0	0
6581	0	0	0
6582	0	0	0
6583	0	0	0
6584	0	0	0
6585	0	0	0
6586	0	0	0
6587	0	0	0
6588	0	0	0
6589	0	0	0
6590	0	0	0
6591	0	0	0
6592	0	0	0
6593	0	0	0
6594	0	0	0
6595	0	0	0
6596	0	0	0
6597	0	0	0
6598	0	0	0
6599	0	0	0
6600	0	0	0
6601	0	0	0
6602	0	0	0
6603	0	0	0
6604	0	0	0
6605	0	0	0
6606	0	0	0
6607	0	0	0
6608	0	0	0
6609	0	0	0
6610	0	0	0
6611	0	0	0
6612	0	0	0
6613	0	0	0
6614	0	0	0
6615	0	0	0
6616	0	0	0
6617	0	0	0
6618	0	0	0
6619	0	0	0
6620	0	0	0
6621	0	0	0
6622	0	0	0
6623	0	0	0
6624	0	0	0
6625	0	0	0
6626	0	0	0
6627	0	0	0
6628	0	0	0
6629	0	0	0
6630	0	0	0
6631	0	0	0
6632	0	0	0
6633	0	0	0
6634	0	0	0
6635	0	0	0
6636	0	0	0
6637	0	0	0
6638	0	0	0
6639	0	0	0
6640	0	0	0
6641	0	0	0
6642	0	0	0
6643	0	0	0
6644	0	0	0
6645	0	0	0
6646	0	0	0
6647	0	0	0
6648	0	0	0
6649	0	0	0
6650	0	0	0
6651	0	0	0
6652	0	0	0
6653	0	0	0
6654	0	0	0
6655	0	0	0
6656	0	0	0
6657	0	0	0
6658	0	0	0
6659	0	0	0
6660	0	0	0
6661	0	0	0
6662	0	0	0
6663	0	0	0
6664	0	0	0
6665	0	0	0
6666	0	0	0
6667	0	0	0
6668	0	0	0
6669	0	0	0
6670	0	0	0
6671	0	0	0
6672	0	0	0
6673	0	0	0
6674	0	0	0
6675	0	0	0
6676	0	0	0
6677	0	0	0
6678	0	0	0
6679	0	0	0
6680	0	0	0
6681	0	0	0
6682	0	0	0
6683	0	0	0
6684	0	0	0
6685	0	0	0
6686	0	0	0
6687	0	0	0
6688	0	0	0
6689	0	0	0
6690	0	0	0
6691	0	0	0
6692	0	0	0
6693	0	0	0
6694	0	0	0
6695	0	0	0
6696	251	222	229
6697	255	221	231
6698	252	211	225
6699	249	202	222
6700	251	203	227
6701	243	190	223
6702	242	189	227
6703	238	189	229
6704	240	194	235
6705	236	188	233
6706	240	192	238
6707	238	186	237
6708	236	185	238
6709	241	198	246
6710	240	201	247
6711	233	190	241
6712	222	180	238
6713	0	0	0
6714	0	0	0
6715	0	0	0
6716	0	0	0
6717	0	0	0
6718	0	0	0
6719	0	0	0
6720	0	0	0
6721	0	0	0
6722	0	0	0
6723	0	0	0
6724	0	0	0
6725	0	0	0
6726	0	0	0
6727	0	0	0
6728	0	0	0
6729	0	0	0
6730	0	0	0
6731	0	0	0
6732	0	0	0
6733	0	0	0
6734	0	0	0
6735	0	0	0
6736	0	0	0
6737	0	0	0
6738	0	0	0
6739	0	0	0
6740	0	0	0
6741	0	0	0
6742	0	0	0
6743	0	0	0
6744	0	0	0
6745	0	0	0
6746	0	0	0
6747	0	0	0
6748	0	0	0
6749	0	0	0
6750	0	0	0
6751	0	0	0
6752	0	0	0
6753	0	0	0
6754	0	0	0
6755	0	0	0
6756	0	0	0
6757	0	0	0
6758	0	0	0
6759	0	0	0
6760	0	0	0
6761	0	0	0
6762	0	0	0
6763	0	0	0
6764	0	0	0
6765	0	0	0
6766	0	0	0
6767	0	0	0
6768	0	0	0
6769	0	0	0
6770	0	0	0
6771	0	0	0
6772	0	0	0
6773	0	0	0
6774	0	0	0
6775	0	0	0
6776	0	0	0
6777	0	0	0
6778	0	0	0
6779	0	0	0
6780	0	0	0
6781	0	0	0
6782	0	0	0
6783	0	0	0
6784	0	0	0
6785	0	0	0
6786	0	0	0
6787	0	0	0
6788	0	0	0
6789	0	0	0
6790	0	0	0
6791	0	0	0
6792	0	0	0
6793	0	0	0
6794	0	0	0
6795	0	0	0
6796	0	0	0
6797	0	0	0
6798	0	0	0
6799	0	0	0
6800	0	0	0
6801	0	0	0
6802	0	0	0
6803	0	0	0
6804	0	0	0
6805	0	0	0
6806	0	0	0
6807	0	0	0
6808	0	0	0
6809	0	0	0
6810	0	0	0
6811	0	0	0
6812	0	0	0
6813	0	0	0
6814	0	0	0
6815	0	0	0
6816	0	0	0
6817	0	0	0
6818	0	0	0
6819	0	0	0
6820	0	0	0
6821	0	0	0
6822	0	0	0
6823	0	0	0
6824	0	0	0
6825	0	0	0
6826	0	0	0
6827	0	0	0
6828	0	0	0
6829	0	0	0
6830	0	0	0
6831	0	0	0
6832	0	0	0
6833	0	0	0
6834	0	0	0
6835	0	0	0
6836	0	0	0
6837	0	0	0
6838	0	0	0
6839	0	0	0
6840	0	0	0
6841	0	0	0
6842	0	0	0
6843	0	0	0
6844	0	0	0
6845	0	0	0
6846	0	0	0
6847	0	0	0
6848	0	0	0
6849	0	0	0
6850	0	0	0
6851	253	219	231
6852	249	209	226
6853	245	197	219
6854	246	196	221
6855	246	195	226
6856	242	192	227
6857	238	190	230
6858	236	192	234
6859	236	196	238
6860	234	194	237
6861	237	197	240
6862	0	0	0
6863	0	0	0
6864	0	0	0
6865	234	200	240
6866	226	191	236
6867	0	0	0
6868	0	0	0
6869	0	0	0
6870	0	0	0
6871	0	0	0
6872	0	0	0
6873	0	0	0
6874	0	0	0
6875	0	0	0
6876	0	0	0
6877	0	0	0
6878	0	0	0
6879	0	0	0
6880	0	0	0
6881	0	0	0
6882	0	0	0
6883	0	0	0
6884	0	0	0
6885	0	0	0
6886	0	0	0
6887	0	0	0
6888	0	0	0
6889	0	0	0
6890	0	0	0
6891	0	0	0
6892	0	0	0
6893	0	0	0
6894	0	0	0
6895	0	0	0
6896	0	0	0
6897	0	0	0
6898	0	0	0
6899	0	0	0
6900	0	0	0
6901	0	0	0
6902	0	0	0
6903	0	0	0
6904	0	0	0
6905	0	0	0
6906	0	0	0
6907	0	0	0
6908	0	0	0
6909	0	0	0
6910	0	0	0
6911	0	0	0
6912	0	0	0
6913	0	0	0
6914	0	0	0
6915	0	0	0
6916	0	0	0
6917	0	0	0
6918	0	0	0
6919	0	0	0
6920	0	0	0
6921	0	0	0
6922	0	0	0
6923	0	0	0
6924	0	0	0
6925	0	0	0
6926	0	0	0
6927	0	0	0
6928	0	0	0
6929	0	0	0
6930	0	0	0
6931	0	0	0
6932	0	0	0
6933	0	0	0
6934	0	0	0
6935	0	0	0
6936	0	0	0
6937	0	0	0
6938	0	0	0
6939	0	0	0
6940	0	0	0
6941	0	0	0
6942	0	0	0
6943	0	0	0
6944	0	0	0
6945	0	0	0
6946	0	0	0
6947	0	0	0
6948	0	0	0
6949	0	0	0
6950	0	0	0
6951	0	0	0
6952	0	0	0
6953	0	0	0
6954	0	0	0
6955	0	0	0
6956	0	0	0
6957	0	0	0
6958	0	0	0
6959	0	0	0
6960	0	0	0
6961	0	0	0
6962	0	0	0
6963	0	0	0
6964	0	0	0
6965	0	0	0
6966	0	0	0
6967	0	0	0
6968	0	0	0
6969	0	0	0
6970	0	0	0
6971	0	0	0
6972	0	0	0
6973	0	0	0
6974	0	0	0
6975	0	0	0
6976	0	0	0
6977	0	0	0
6978	0	0	0
6979	0	0	0
6980	0	0	0
6981	0	0	0
6982	0	0	0
6983	0	0	0
6984	0	0	0
6985	0	0	0
6986	0	0	0
6987	0	0	0
6988	0	0	0
6989	0	0	0
6990	0	0	0
6991	0	0	0
6992	0	0	0
6993	0	0	0
6994	0	0	0
6995	0	0	0
6996	0	0	0
6997	0	0	0
6998	0	0	0
6999	0	0	0
7000	0	0	0
7001	0	0	0
7002	0	0	0
7003	0	0	0
7004	0	0	0
7005	0	0	0
7006	0	0	0
7007	243	198	223
7008	247	201	226
7009	250	200	229
7010	247	198	231
7011	0	0	0
7012	0	0	0
7013	0	0	0
7014	236	202	239
7015	0	0	0
7016	0	0	0
7017	0	0	0
7018	0	0	0
7019	0	0	0
7020	0	0	0
7021	0	0	0
7022	0	0	0
7023	0	0	0
7024	0	0	0
7025	0	0	0
7026	0	0	0
7027	0	0	0
7028	0	0	0
7029	0	0	0
7030	0	0	0
7031	0	0	0
7032	0	0	0
7033	0	0	0
7034	0	0	0
7035	0	0	0
7036	0	0	0
7037	0	0	0
7038	0	0	0
7039	0	0	0
7040	0	0	0
7041	0	0	0
7042	0	0	0
7043	0	0	0
7044	0	0	0
7045	0	0	0
7046	0	0	0
7047	0	0	0
7048	0	0	0
7049	0	0	0
7050	0	0	0
7051	0	0	0
7052	0	0	0
7053	0	0	0
7054	0	0	0
7055	0	0	0
7056	0	0	0
7057	0	0	0
7058	0	0	0
7059	0	0	0
7060	0	0	0
7061	0	0	0
7062	0	0	0
7063	0	0	0
7064	0	0	0
7065	0	0	0
7066	0	0	0
7067	0	0	0
7068	0	0	0
7069	0	0	0
7070	0	0	0
7071	0	0	0
7072	0	0	0
7073	0	0	0
7074	0	0	0
7075	0	0	0
7076	0	0	0
7077	0	0	0
7078	0	0	0
7079	0	0	0
7080	0	0	0
7081	0	0	0
7082	0	0	0
7083	0	0	0
7084	0	0	0
7085	0	0	0
7086	0	0	0
7087	0	0	0
7088	0	0	0
7089	0	0	0
7090	0	0	0
7091	0	0	0
7092	0	0	0
7093	0	0	0
7094	0	0	0
7095	0	0	0
7096	0	0	0
7097	0	0	0
7098	0	0	0
7099	0	0	0
7100	0	0	0
7101	0	0	0
7102	0	0	0
7103	0	0	0
7104	0	0	0
7105	0	0	0
7106	0	0	0
7107	0	0	0
7108	0	0	0
7109	0	0	0
7110	0	0	0
7111	0	0	0
7112	0	0	0
7113	0	0	0
7114	0	0	0
7115	0	0	0
7116	0	0	0
7117	0	0	0
7118	0	0	0
7119	0	0	0
7120	0	0	0
7121	0	0	0
7122	0	0	0
7123	0	0	0
7124	0	0	0
7125	0	0	0
7126	0	0	0
7127	0	0	0
7128	0	0	0
7129	0	0	0
7130	0	0	0
7131	0	0	0
7132	0	0	0
7133	0	0	0
7134	0	0	0
7135	0	0	0
7136	0	0	0
7137	0	0	0
7138	0	0	0
7139	0	0	0
7140	0	0	0
7141	0	0	0
7142	0	0	0
7143	0	0	0
7144	0	0	0
7145	0	0	0
7146	0	0	0
7147	0	0	0
7148	0	0	0
7149	0	0	0
7150	0	0	0
7151	0	0	0
7152	0	0	0
7153	0	0	0
7154	0	0	0
7155	0	0	0
7156	0	0	0
7157	0	0	0
7158	0	0	0
7159	0	0	0
7160	0	0	0
7161	0	0	0
7162	0	0	0
7163	242	199	229
7164	245	198	231
7165	0	0	0
7166	0	0	0
7167	0	0	0
7168	0	0	0
7169	0	0	0
7170	0	0	0
7171	0	0	0
7172	0	0	0
7173	0	0	0
7174	0	0	0
7175	0	0	0
7176	0	0	0
7177	0	0	0
7178	0	0	0
7179	0	0	0
7180	0	0	0
7181	0	0	0
7182	0	0	0
7183	0	0	0
7184	0	0	0
7185	0	0	0
7186	0	0	0
7187	0	0	0
7188	0	0	0
7189	0	0	0
7190	0	0	0
7191	0	0	0
7192	0	0	0
7193	0	0	0
7194	0	0	0
7195	0	0	0
7196	0	0	0
7197	0	0	0
7198	0	0	0
7199	0	0	0
7200	0	0	0
7201	0	0	0
7202	0	0	0
7203	0	0	0
7204	0	0	0
7205	0	0	0
7206	0	0	0
7207	0	0	0
7208	0	0	0
7209	0	0	0
7210	0	0	0
7211	0	0	0
7212	0	0	0
7213	0	0	0
7214	0	0	0
7215	0	0	0
7216	0	0	0
7217	0	0	0
7218	0	0	0
7219	0	0	0
7220	0	0	0
7221	0	0	0
7222	0	0	0
7223	0	0	0
7224	0	0	0
7225	0	0	0
7226	0	0	0
7227	0	0	0
7228	0	0	0
7229	0	0	0
7230	0	0	0
7231	0	0	0
7232	0	0	0
7233	0	0	0
7234	0	0	0
7235	0	0	0
7236	0	0	0
7237	0	0	0
7238	0	0	0
7239	0	0	0
7240	0	0	0
7241	0	0	0
7242	0	0	0
7243	0	0	0
7244	0	0	0
7245	0	0	0
7246	0	0	0
7247	0	0	0
7248	0	0	0
7249	0	0	0
7250	0	0	0
7251	0	0	0
7252	0	0	0
7253	0	0	0
7254	0	0	0
7255	0	0	0
7256	0	0	0
7257	0	0	0
7258	0	0	0
7259	0	0	0
7260	0	0	0
7261	0	0	0
7262	0	0	0
7263	0	0	0
7264	0	0	0
7265	0	0	0
7266	0	0	0
7267	0	0	0
7268	0	0	0
7269	0	0	0
7270	0	0	0
7271	0	0	0
7272	0	0	0
7273	0	0	0
7274	0	0	0
7275	0	0	0
7276	0	0	0
7277	0	0	0
7278	0	0	0
7279	0	0	0
7280	0	0	0
7281	0	0	0
7282	0	0	0
7283	0	0	0
7284	0	0	0
7285	0	0	0
