 	R	G	B
1	0	0	0
2	0	0	0
3	0	0	0
4	0	0	0
5	0	0	0
6	0	0	0
7	0	0	0
8	0	0	0
9	0	0	0
10	0	0	0
11	0	0	0
12	0	0	0
13	248	223	225
14	0	0	0
15	0	0	0
16	0	0	0
17	0	0	0
18	0	0	0
19	0	0	0
20	0	0	0
21	0	0	0
22	0	0	0
23	0	0	0
24	0	0	0
25	0	0	0
26	0	0	0
27	0	0	0
28	0	0	0
29	0	0	0
30	0	0	0
31	0	0	0
32	0	0	0
33	0	0	0
34	0	0	0
35	0	0	0
36	0	0	0
37	0	0	0
38	0	0	0
39	0	0	0
40	0	0	0
41	0	0	0
42	0	0	0
43	0	0	0
44	0	0	0
45	0	0	0
46	0	0	0
47	0	0	0
48	0	0	0
49	255	253	248
50	255	249	242
51	255	248	241
52	255	246	241
53	255	240	238
54	255	232	234
55	255	228	232
56	249	218	223
57	255	231	232
58	255	244	239
59	255	245	238
60	255	250	240
61	255	248	239
62	0	0	0
63	255	246	242
64	0	0	0
65	0	0	0
66	0	0	0
67	0	0	0
68	0	0	0
69	0	0	0
70	0	0	0
71	0	0	0
72	0	0	0
73	0	0	0
74	0	0	0
75	0	0	0
76	0	0	0
77	0	0	0
78	0	0	0
79	0	0	0
80	0	0	0
81	0	0	0
82	0	0	0
83	0	0	0
84	0	0	0
85	0	0	0
86	0	0	0
87	0	0	0
88	0	0	0
89	0	0	0
90	0	0	0
91	255	249	246
92	255	247	245
93	252	229	230
94	255	229	230
95	255	229	232
96	255	224	230
97	250	213	224
98	249	208	221
99	247	207	219
100	255	220	226
101	255	229	229
102	255	231	228
103	255	232	228
104	255	230	227
105	255	235	234
106	255	232	232
107	253	223	224
108	0	0	0
109	0	0	0
110	0	0	0
111	255	229	227
112	0	0	0
113	0	0	0
114	0	0	0
115	0	0	0
116	0	0	0
117	0	0	0
118	0	0	0
119	0	0	0
120	0	0	0
121	0	0	0
122	0	0	0
123	0	0	0
124	0	0	0
125	0	0	0
126	0	0	0
127	0	0	0
128	0	0	0
129	0	0	0
130	0	0	0
131	0	0	0
132	0	0	0
133	255	245	244
134	255	244	244
135	255	230	234
136	246	213	223
137	251	215	226
138	254	215	228
139	249	206	222
140	244	195	216
141	246	198	218
142	244	196	214
143	252	208	221
144	255	217	223
145	255	218	222
146	255	219	223
147	255	220	223
148	255	224	225
149	252	215	218
150	248	207	215
151	252	213	221
152	255	218	227
153	255	224	230
154	255	230	229
155	255	220	221
156	250	213	218
157	254	218	223
158	255	222	225
159	255	222	224
160	254	222	224
161	255	225	227
162	0	0	0
163	0	0	0
164	0	0	0
165	0	0	0
166	0	0	0
167	0	0	0
168	0	0	0
169	0	0	0
170	0	0	0
171	0	0	0
172	0	0	0
173	0	0	0
174	0	0	0
175	255	243	245
176	255	243	245
177	255	229	236
178	250	215	228
179	249	209	226
180	255	212	230
181	253	205	228
182	248	195	223
183	246	191	219
184	248	194	221
185	253	202	224
186	255	214	230
187	251	203	219
188	251	204	218
189	255	210	223
190	255	211	222
191	255	211	219
192	248	201	212
193	250	203	217
194	254	208	223
195	255	210	226
196	255	217	229
197	255	215	222
198	250	205	214
199	251	207	218
200	255	213	222
201	255	215	223
202	255	215	222
203	254	215	221
204	254	217	224
205	253	218	226
206	0	0	0
207	0	0	0
208	0	0	0
209	0	0	0
210	0	0	0
211	0	0	0
212	0	0	0
213	0	0	0
214	0	0	0
215	0	0	0
216	0	0	0
217	255	241	243
218	255	238	239
219	252	223	230
220	247	210	226
221	248	206	226
222	247	200	224
223	247	195	224
224	245	189	225
225	245	187	225
226	242	182	218
227	249	192	224
228	255	200	230
229	249	193	223
230	241	183	213
231	246	190	216
232	250	196	220
233	249	195	218
234	249	196	216
235	249	196	217
236	251	198	220
237	252	200	223
238	253	201	223
239	252	200	221
240	250	199	218
241	250	200	217
242	251	201	219
243	254	205	220
244	254	207	220
245	255	208	220
246	253	208	219
247	253	210	220
248	251	209	220
249	255	220	227
250	0	0	0
251	0	0	0
252	0	0	0
253	0	0	0
254	0	0	0
255	0	0	0
256	0	0	0
257	0	0	0
258	0	0	0
259	255	238	243
260	255	236	242
261	253	226	233
262	247	212	225
263	253	214	232
264	254	210	232
265	252	202	229
266	251	197	229
267	250	193	232
268	250	191	231
269	252	194	229
270	255	204	234
271	255	200	234
272	252	194	228
273	252	194	226
274	255	202	230
275	255	197	226
276	254	197	224
277	252	195	220
278	253	196	221
279	255	199	225
280	255	202	228
281	255	199	225
282	254	198	222
283	254	199	220
284	254	200	219
285	255	204	223
286	255	208	224
287	255	203	218
288	255	204	219
289	252	200	216
290	252	201	217
291	255	209	222
292	255	219	228
293	253	214	222
294	0	0	0
295	0	0	0
296	0	0	0
297	0	0	0
298	0	0	0
299	0	0	0
300	0	0	0
301	0	0	0
302	249	228	239
303	249	221	236
304	246	211	230
305	251	213	232
306	255	215	235
307	254	208	231
308	251	199	228
309	251	195	229
310	249	191	230
311	254	197	233
312	255	200	231
313	255	197	228
314	254	195	230
315	255	198	233
316	255	199	231
317	255	196	227
318	252	191	224
319	252	191	221
320	249	188	216
321	252	192	218
322	255	195	223
323	255	195	225
324	254	193	222
325	255	195	220
326	254	195	214
327	255	200	216
328	255	205	221
329	255	202	219
330	255	197	215
331	255	196	216
332	252	193	216
333	255	204	225
334	255	210	224
335	254	204	217
336	248	200	215
337	253	212	223
338	0	0	0
339	0	0	0
340	0	0	0
341	0	0	0
342	0	0	0
343	0	0	0
344	0	0	0
345	255	234	245
346	255	227	243
347	250	215	235
348	255	217	237
349	255	213	235
350	253	204	231
351	249	196	228
352	248	191	227
353	255	199	234
354	255	206	237
355	255	201	230
356	255	199	228
357	253	194	229
358	255	197	232
359	255	199	231
360	255	195	228
361	251	188	224
362	251	188	222
363	255	195	222
364	255	199	223
365	254	191	220
366	255	191	222
367	255	191	223
368	255	193	222
369	255	190	213
370	255	196	215
371	255	190	213
372	253	188	213
373	255	190	214
374	255	189	215
375	250	183	214
376	255	193	222
377	251	189	213
378	243	183	206
379	255	206	222
380	255	218	229
381	249	207	218
382	0	0	0
383	0	0	0
384	0	0	0
385	0	0	0
386	0	0	0
387	0	0	0
388	0	0	0
389	252	224	240
390	0	0	0
391	251	210	232
392	252	207	232
393	251	201	231
394	247	193	228
395	255	202	236
396	255	208	238
397	255	206	235
398	255	202	231
399	255	197	227
400	253	192	226
401	255	195	229
402	255	197	231
403	254	191	227
404	249	184	223
405	255	193	228
406	255	201	229
407	255	193	221
408	251	184	214
409	253	186	217
410	255	187	222
411	255	189	223
412	255	187	216
413	254	183	213
414	251	178	212
415	255	182	216
416	255	185	217
417	252	178	213
418	246	170	210
419	247	173	212
420	242	169	208
421	254	191	220
422	255	213	230
423	255	204	219
424	243	193	209
425	254	215	222
426	0	0	0
427	0	0	0
428	0	0	0
429	0	0	0
430	0	0	0
431	0	0	0
432	0	0	0
433	0	0	0
434	0	0	0
435	254	210	234
436	253	204	233
437	249	195	231
438	255	204	237
439	255	207	237
440	255	204	233
441	253	196	226
442	252	192	224
443	255	196	229
444	255	198	232
445	254	192	227
446	251	186	223
447	255	191	227
448	255	200	233
449	255	197	228
450	255	189	220
451	252	183	214
452	255	185	218
453	255	188	225
454	255	190	228
455	253	177	216
456	253	174	214
457	251	170	214
458	255	175	218
459	255	174	218
460	250	168	213
461	252	172	216
462	252	174	218
463	248	171	214
464	255	193	226
465	255	205	227
466	253	195	215
467	246	191	210
468	255	213	223
469	255	221	224
470	0	0	0
471	0	0	0
472	0	0	0
473	0	0	0
474	0	0	0
475	0	0	0
476	0	0	0
477	0	0	0
478	0	0	0
479	254	205	233
480	250	197	231
481	255	204	236
482	255	207	236
483	255	199	228
484	251	191	224
485	255	196	229
486	255	200	234
487	255	194	230
488	252	187	223
489	255	191	224
490	255	196	227
491	255	193	225
492	255	192	226
493	255	189	224
494	255	183	219
495	255	186	222
496	255	188	227
497	255	176	221
498	249	164	214
499	251	165	217
500	250	161	214
501	253	164	217
502	253	165	219
503	255	169	222
504	255	173	223
505	255	175	223
506	253	172	218
507	255	187	224
508	255	199	225
509	255	194	217
510	250	189	212
511	254	202	218
512	254	209	217
513	0	0	0
514	0	0	0
515	0	0	0
516	0	0	0
517	0	0	0
518	0	0	0
519	0	0	0
520	0	0	0
521	0	0	0
522	0	0	0
523	253	201	233
524	255	209	239
525	255	201	232
526	251	193	226
527	254	194	228
528	255	199	233
529	254	190	229
530	250	184	224
531	254	189	225
532	255	193	226
533	255	194	225
534	255	191	223
535	255	191	226
536	255	188	226
537	250	172	216
538	254	175	220
539	255	179	223
540	252	168	218
541	253	165	220
542	255	166	224
543	249	154	216
544	252	157	220
545	252	157	220
546	255	161	223
547	255	166	224
548	255	167	222
549	247	157	211
550	255	172	217
551	255	183	218
552	252	179	211
553	249	182	210
554	254	194	215
555	253	202	215
556	0	0	0
557	0	0	0
558	0	0	0
559	0	0	0
560	0	0	0
561	0	0	0
562	0	0	0
563	0	0	0
564	0	0	0
565	253	205	234
566	255	205	233
567	254	200	231
568	251	194	230
569	254	196	232
570	255	196	231
571	250	187	225
572	245	178	221
573	252	186	227
574	255	191	229
575	255	193	228
576	255	194	227
577	255	189	223
578	255	187	222
579	249	172	215
580	242	159	211
581	250	165	219
582	253	168	219
583	251	163	217
584	252	161	219
585	249	153	217
586	243	142	214
587	247	146	218
588	246	144	217
589	252	152	221
590	254	156	222
591	250	151	216
592	240	141	204
593	249	157	211
594	253	168	213
595	251	171	210
596	250	174	210
597	254	187	215
598	253	195	215
599	255	208	218
600	0	0	0
601	0	0	0
602	0	0	0
603	0	0	0
604	0	0	0
605	0	0	0
606	0	0	0
607	0	0	0
608	0	0	0
609	255	205	233
610	253	200	231
611	250	192	230
612	254	194	233
613	255	197	234
614	251	188	227
615	253	188	229
616	255	197	235
617	255	188	227
618	255	190	227
619	255	187	225
620	254	183	221
621	255	184	222
622	249	170	215
623	252	169	223
624	255	176	232
625	252	164	220
626	250	159	217
627	255	163	224
628	253	155	223
629	249	147	223
630	254	152	228
631	253	150	224
632	255	157	228
633	253	149	221
634	249	145	216
635	248	145	211
636	255	161	218
637	252	159	212
638	250	163	210
639	254	173	215
640	255	185	218
641	251	185	211
642	254	197	214
643	255	209	215
644	0	0	0
645	0	0	0
646	0	0	0
647	0	0	0
648	0	0	0
649	0	0	0
650	0	0	0
651	252	208	237
652	250	200	231
653	248	194	228
654	244	185	225
655	251	192	231
656	255	195	233
657	255	195	232
658	255	196	232
659	254	189	227
660	249	180	221
661	250	179	221
662	250	178	222
663	252	179	223
664	255	181	226
665	255	177	227
666	255	175	231
667	255	168	229
668	248	156	219
669	252	160	222
670	255	164	228
671	254	156	226
672	250	148	225
673	253	150	228
674	253	148	224
675	249	142	219
676	244	135	214
677	249	141	216
678	248	142	210
679	250	147	211
680	247	146	209
681	253	160	216
682	255	171	219
683	253	173	214
684	247	173	205
685	251	187	209
686	253	200	212
687	255	216	219
688	0	0	0
689	0	0	0
690	0	0	0
691	0	0	0
692	0	0	0
693	250	211	238
694	247	204	235
695	255	214	242
696	255	208	239
697	248	192	230
698	254	198	236
699	255	197	237
700	255	197	236
701	254	192	230
702	251	185	224
703	252	185	225
704	254	185	226
705	255	184	228
706	255	185	231
707	255	181	230
708	255	177	230
709	255	177	234
710	255	169	230
711	248	156	221
712	253	160	225
713	255	163	230
714	252	154	227
715	252	150	229
716	255	152	231
717	255	152	228
718	253	147	223
719	254	146	222
720	255	153	226
721	251	142	213
722	254	147	215
723	249	143	212
724	255	158	220
725	255	164	218
726	253	167	213
727	251	173	210
728	255	188	214
729	253	192	212
730	255	208	218
731	255	216	219
732	0	0	0
733	0	0	0
734	0	0	0
735	247	217	238
736	242	206	235
737	251	215	244
738	255	224	249
739	253	208	239
740	245	193	231
741	250	196	236
742	252	195	238
743	251	191	235
744	249	186	228
745	251	186	227
746	252	186	227
747	255	187	229
748	255	186	230
749	255	182	230
750	254	179	230
751	254	176	230
752	255	176	232
753	252	165	226
754	245	153	219
755	251	157	225
756	254	160	230
757	252	154	229
758	251	151	231
759	255	154	233
760	255	154	229
761	255	154	227
762	255	154	226
763	255	150	224
764	252	140	216
765	254	143	218
766	248	138	212
767	253	150	216
768	253	156	213
769	255	164	214
770	254	171	215
771	254	178	215
772	250	183	213
773	250	191	214
774	249	199	215
775	0	0	0
776	0	0	0
777	0	0	0
778	0	0	0
779	247	223	244
780	255	234	255
781	255	225	248
782	249	209	238
783	252	208	240
784	255	212	246
785	255	203	242
786	255	200	241
787	254	196	235
788	255	196	234
789	255	192	232
790	255	192	233
791	253	182	229
792	252	179	228
793	254	180	231
794	254	177	231
795	255	179	234
796	253	168	229
797	250	160	225
798	255	165	232
799	254	160	231
800	252	155	229
801	255	162	237
802	255	165	239
803	255	151	227
804	255	153	227
805	254	144	221
806	254	140	219
807	246	128	213
808	249	132	216
809	250	135	215
810	255	147	218
811	250	146	211
812	252	155	213
813	251	161	215
814	251	169	216
815	254	182	220
816	254	190	221
817	250	195	219
818	0	0	0
819	0	0	0
820	0	0	0
821	0	0	0
822	0	0	0
823	252	230	246
824	249	222	243
825	251	219	243
826	254	219	244
827	255	214	242
828	253	205	238
829	255	205	239
830	255	202	236
831	255	197	234
832	254	193	233
833	251	185	230
834	246	175	226
835	249	177	228
836	251	178	229
837	253	177	230
838	255	179	235
839	255	173	234
840	253	166	232
841	255	164	233
842	253	160	231
843	255	165	235
844	255	171	240
845	255	159	232
846	252	147	225
847	250	141	222
848	247	132	216
849	244	124	213
850	237	113	208
851	246	124	217
852	246	127	214
853	245	131	212
854	242	132	208
855	244	141	212
856	243	147	214
857	250	163	221
858	253	177	224
859	252	183	222
860	248	187	217
861	0	0	0
862	0	0	0
863	0	0	0
864	0	0	0
865	0	0	0
866	0	0	0
867	0	0	0
868	0	0	0
869	255	229	246
870	255	225	246
871	250	206	236
872	253	206	238
873	253	202	236
874	252	198	234
875	255	200	238
876	254	193	235
877	249	183	231
878	252	185	233
879	255	192	238
880	255	192	239
881	255	180	235
882	254	174	234
883	253	168	234
884	255	167	235
885	251	159	230
886	255	165	234
887	255	168	235
888	254	155	228
889	252	148	227
890	252	142	225
891	253	140	225
892	251	133	222
893	244	122	218
894	253	133	227
895	248	130	220
896	248	134	219
897	253	146	223
898	255	155	227
899	249	153	222
900	255	169	228
901	255	179	229
902	255	186	227
903	248	185	221
904	0	0	0
905	0	0	0
906	0	0	0
907	0	0	0
908	0	0	0
909	0	0	0
910	0	0	0
911	0	0	0
912	0	0	0
913	249	221	238
914	241	203	232
915	244	202	235
916	244	197	232
917	248	199	234
918	253	201	237
919	251	195	235
920	247	186	230
921	255	196	238
922	255	204	242
923	255	188	233
924	251	177	230
925	251	173	231
926	250	167	231
927	250	163	231
928	247	156	226
929	252	160	229
930	255	163	232
931	251	152	227
932	250	145	225
933	252	145	227
934	254	142	226
935	249	133	222
936	242	121	217
937	246	127	222
938	242	124	218
939	251	140	226
940	255	152	229
941	252	152	224
942	244	148	216
943	249	162	220
944	251	173	221
945	247	175	218
946	0	0	0
947	0	0	0
948	0	0	0
949	0	0	0
950	0	0	0
951	0	0	0
952	0	0	0
953	0	0	0
954	0	0	0
955	0	0	0
956	0	0	0
957	0	0	0
958	0	0	0
959	0	0	0
960	0	0	0
961	255	216	244
962	255	210	242
963	249	193	233
964	255	204	241
965	255	199	237
966	249	184	228
967	255	188	236
968	255	184	237
969	253	176	235
970	254	172	234
971	252	166	231
972	255	170	235
973	255	169	235
974	254	159	231
975	253	152	230
976	255	151	232
977	253	145	228
978	248	135	223
979	250	138	227
980	254	143	232
981	249	139	227
982	255	155	235
983	255	157	231
984	254	158	226
985	248	155	219
986	253	169	224
987	255	181	226
988	251	183	225
989	0	0	0
990	0	0	0
991	0	0	0
992	0	0	0
993	0	0	0
994	0	0	0
995	0	0	0
996	0	0	0
997	0	0	0
998	0	0	0
999	0	0	0
1000	0	0	0
1001	0	0	0
1002	0	0	0
1003	0	0	0
1004	0	0	0
1005	253	212	238
1006	245	196	230
1007	249	196	233
1008	249	193	232
1009	253	194	236
1010	255	198	243
1011	255	191	240
1012	255	182	236
1013	255	179	236
1014	255	174	233
1015	255	174	235
1016	255	173	236
1017	255	166	234
1018	255	159	233
1019	255	155	233
1020	253	148	230
1021	255	151	233
1022	255	153	234
1023	255	153	234
1024	252	148	228
1025	255	156	231
1026	255	159	229
1027	254	162	227
1028	249	160	222
1029	252	173	228
1030	255	184	233
1031	0	0	0
1032	0	0	0
1033	0	0	0
1034	0	0	0
1035	0	0	0
1036	0	0	0
1037	0	0	0
1038	0	0	0
1039	0	0	0
1040	0	0	0
1041	0	0	0
1042	0	0	0
1043	0	0	0
1044	0	0	0
1045	0	0	0
1046	0	0	0
1047	0	0	0
1048	0	0	0
1049	0	0	0
1050	0	0	0
1051	255	208	241
1052	255	210	245
1053	255	201	242
1054	255	193	239
1055	255	186	236
1056	255	184	236
1057	252	173	231
1058	255	174	234
1059	255	170	234
1060	254	163	232
1061	251	155	231
1062	250	150	230
1063	251	151	231
1064	253	152	231
1065	255	161	236
1066	255	161	235
1067	249	148	224
1068	253	157	229
1069	251	157	226
1070	250	160	225
1071	246	161	222
1072	248	173	227
1073	255	194	239
1074	0	0	0
1075	0	0	0
1076	0	0	0
1077	0	0	0
1078	0	0	0
1079	0	0	0
1080	0	0	0
1081	0	0	0
1082	0	0	0
1083	0	0	0
1084	0	0	0
1085	0	0	0
1086	0	0	0
1087	0	0	0
1088	0	0	0
1089	0	0	0
1090	0	0	0
1091	0	0	0
1092	0	0	0
1093	0	0	0
1094	0	0	0
1095	254	209	238
1096	252	200	237
1097	253	195	237
1098	253	189	235
1099	253	182	234
1100	250	173	230
1101	251	170	232
1102	251	166	231
1103	250	160	231
1104	247	151	230
1105	250	155	234
1106	250	155	232
1107	254	161	234
1108	255	168	237
1109	252	158	229
1110	243	146	222
1111	247	152	226
1112	244	152	223
1113	244	158	224
1114	238	158	219
1115	243	176	226
1116	0	0	0
1117	0	0	0
1118	0	0	0
1119	0	0	0
1120	0	0	0
1121	0	0	0
1122	0	0	0
1123	0	0	0
1124	0	0	0
1125	0	0	0
1126	0	0	0
1127	0	0	0
1128	0	0	0
1129	0	0	0
1130	0	0	0
1131	0	0	0
1132	0	0	0
1133	0	0	0
1134	0	0	0
1135	0	0	0
1136	0	0	0
1137	0	0	0
1138	0	0	0
1139	254	211	242
1140	255	207	243
1141	254	195	238
1142	254	188	237
1143	250	178	234
1144	253	176	235
1145	255	176	237
1146	254	169	236
1147	246	155	232
1148	250	158	236
1149	255	167	239
1150	255	172	240
1151	255	169	235
1152	247	158	227
1153	250	162	231
1154	253	168	236
1155	247	163	230
1156	246	168	230
1157	243	176	229
1158	0	0	0
1159	0	0	0
1160	0	0	0
1161	0	0	0
1162	0	0	0
1163	0	0	0
1164	0	0	0
1165	0	0	0
1166	0	0	0
1167	0	0	0
1168	0	0	0
1169	0	0	0
1170	0	0	0
1171	0	0	0
1172	0	0	0
1173	0	0	0
1174	0	0	0
1175	0	0	0
1176	0	0	0
1177	0	0	0
1178	0	0	0
1179	0	0	0
1180	0	0	0
1181	0	0	0
1182	0	0	0
1183	254	209	244
1184	251	197	238
1185	251	189	237
1186	248	179	234
1187	254	182	238
1188	255	183	239
1189	251	170	232
1190	242	155	228
1191	252	169	239
1192	255	177	243
1193	251	170	236
1194	248	166	232
1195	247	167	232
1196	248	170	233
1197	248	171	234
1198	0	0	0
1199	249	184	239
1200	0	0	0
1201	0	0	0
1202	0	0	0
1203	0	0	0
1204	0	0	0
1205	0	0	0
1206	0	0	0
1207	0	0	0
1208	0	0	0
1209	0	0	0
1210	0	0	0
1211	0	0	0
1212	0	0	0
1213	0	0	0
1214	0	0	0
1215	0	0	0
1216	0	0	0
1217	0	0	0
1218	0	0	0
1219	0	0	0
1220	0	0	0
1221	0	0	0
1222	0	0	0
1223	0	0	0
1224	0	0	0
1225	0	0	0
1226	0	0	0
1227	255	208	245
1228	255	201	244
1229	251	189	239
1230	255	192	243
1231	252	181	235
1232	245	168	228
1233	248	171	235
1234	255	183	245
1235	254	180	240
1236	0	0	0
1237	0	0	0
1238	0	0	0
1239	0	0	0
1240	0	0	0
1241	0	0	0
1242	0	0	0
1243	0	0	0
1244	0	0	0
1245	0	0	0
1246	0	0	0
1247	0	0	0
1248	0	0	0
1249	0	0	0
1250	0	0	0
1251	0	0	0
1252	0	0	0
1253	0	0	0
1254	0	0	0
1255	0	0	0
1256	0	0	0
1257	0	0	0
1258	0	0	0
1259	0	0	0
1260	0	0	0
1261	0	0	0
1262	0	0	0
1263	0	0	0
1264	0	0	0
1265	0	0	0
1266	0	0	0
1267	0	0	0
1268	0	0	0
1269	0	0	0
1270	0	0	0
1271	255	208	248
1272	251	195	241
1273	250	188	238
1274	245	178	232
1275	252	184	238
1276	254	185	242
1277	253	185	241
1278	248	181	235
1279	0	0	0
1280	0	0	0
1281	0	0	0
1282	0	0	0
1283	0	0	0
1284	0	0	0
1285	0	0	0
1286	0	0	0
1287	0	0	0
1288	0	0	0
1289	0	0	0
1290	0	0	0
1291	0	0	0
1292	0	0	0
1293	0	0	0
1294	0	0	0
1295	0	0	0
1296	0	0	0
1297	0	0	0
1298	0	0	0
1299	0	0	0
1300	0	0	0
1301	0	0	0
1302	0	0	0
1303	0	0	0
1304	0	0	0
1305	0	0	0
1306	0	0	0
1307	0	0	0
1308	0	0	0
1309	0	0	0
1310	0	0	0
1311	0	0	0
1312	0	0	0
1313	0	0	0
1314	254	214	248
1315	253	206	245
1316	250	198	242
1317	246	188	237
1318	254	195	244
1319	251	190	241
1320	247	188	237
1321	0	0	0
1322	0	0	0
1323	0	0	0
1324	0	0	0
1325	0	0	0
1326	0	0	0
1327	0	0	0
1328	0	0	0
1329	0	0	0
1330	0	0	0
1331	0	0	0
1332	0	0	0
1333	0	0	0
1334	0	0	0
1335	0	0	0
1336	0	0	0
1337	0	0	0
1338	0	0	0
1339	0	0	0
1340	0	0	0
1341	0	0	0
1342	0	0	0
1343	0	0	0
1344	0	0	0
1345	0	0	0
1346	0	0	0
1347	0	0	0
1348	0	0	0
1349	0	0	0
1350	0	0	0
1351	0	0	0
1352	0	0	0
1353	0	0	0
1354	0	0	0
1355	0	0	0
1356	0	0	0
1357	0	0	0
1358	252	215	247
1359	248	205	243
1360	243	195	238
1361	248	197	242
1362	0	0	0
1363	0	0	0
1364	0	0	0
1365	0	0	0
1366	0	0	0
1367	0	0	0
1368	0	0	0
1369	0	0	0
1370	0	0	0
1371	0	0	0
1372	0	0	0
1373	0	0	0
1374	0	0	0
1375	0	0	0
1376	0	0	0
