 	R	G	B
1	0	0	0
2	0	0	0
3	0	0	0
4	0	0	0
5	0	0	0
6	0	0	0
7	0	0	0
8	0	0	0
9	0	0	0
10	0	0	0
11	0	0	0
12	0	0	0
13	0	0	0
14	0	0	0
15	0	0	0
16	0	0	0
17	0	0	0
18	0	0	0
19	0	0	0
20	0	0	0
21	0	0	0
22	0	0	0
23	0	0	0
24	255	215	230
25	0	0	0
26	0	0	0
27	0	0	0
28	255	201	229
29	255	205	231
30	0	0	0
31	0	0	0
32	0	0	0
33	0	0	0
34	0	0	0
35	0	0	0
36	0	0	0
37	0	0	0
38	0	0	0
39	0	0	0
40	0	0	0
41	0	0	0
42	0	0	0
43	0	0	0
44	0	0	0
45	0	0	0
46	0	0	0
47	0	0	0
48	0	0	0
49	0	0	0
50	0	0	0
51	0	0	0
52	0	0	0
53	255	214	231
54	255	211	229
55	251	199	220
56	0	0	0
57	255	200	229
58	255	206	236
59	255	191	226
60	250	180	221
61	0	0	0
62	0	0	0
63	0	0	0
64	0	0	0
65	0	0	0
66	0	0	0
67	0	0	0
68	0	0	0
69	0	0	0
70	0	0	0
71	0	0	0
72	0	0	0
73	0	0	0
74	0	0	0
75	0	0	0
76	0	0	0
77	0	0	0
78	0	0	0
79	0	0	0
80	0	0	0
81	0	0	0
82	254	209	226
83	255	209	227
84	253	199	222
85	247	187	217
86	255	197	226
87	255	206	235
88	255	190	227
89	248	175	221
90	245	169	221
91	0	0	0
92	0	0	0
93	0	0	0
94	0	0	0
95	0	0	0
96	0	0	0
97	0	0	0
98	0	0	0
99	0	0	0
100	0	0	0
101	0	0	0
102	0	0	0
103	0	0	0
104	0	0	0
105	0	0	0
106	0	0	0
107	0	0	0
108	0	0	0
109	0	0	0
110	0	0	0
111	0	0	0
112	0	0	0
113	255	201	224
114	251	190	220
115	249	185	219
116	255	194	229
117	255	193	228
118	249	176	220
119	249	173	224
120	245	166	224
121	0	0	0
122	0	0	0
123	0	0	0
124	0	0	0
125	0	0	0
126	0	0	0
127	0	0	0
128	0	0	0
129	0	0	0
130	0	0	0
131	0	0	0
132	0	0	0
133	0	0	0
134	0	0	0
135	0	0	0
136	0	0	0
137	0	0	0
138	0	0	0
139	0	0	0
140	0	0	0
141	0	0	0
142	255	199	222
143	253	192	222
144	253	188	223
145	251	182	222
146	252	181	223
147	252	178	222
148	249	172	221
149	247	168	224
150	245	167	226
151	0	0	0
152	0	0	0
153	0	0	0
154	0	0	0
155	0	0	0
156	0	0	0
157	0	0	0
158	0	0	0
159	0	0	0
160	0	0	0
161	0	0	0
162	0	0	0
163	0	0	0
164	0	0	0
165	0	0	0
166	0	0	0
167	0	0	0
168	0	0	0
169	0	0	0
170	0	0	0
171	255	200	223
172	255	194	223
173	251	184	221
174	251	180	222
175	255	182	227
176	255	181	228
177	251	175	225
178	247	167	222
179	247	169	226
180	0	0	0
181	0	0	0
182	0	0	0
183	0	0	0
184	0	0	0
185	0	0	0
186	0	0	0
187	0	0	0
188	0	0	0
189	0	0	0
190	0	0	0
191	0	0	0
192	0	0	0
193	0	0	0
194	0	0	0
195	0	0	0
196	0	0	0
197	0	0	0
198	0	0	0
199	0	0	0
200	253	194	222
201	255	197	227
202	253	186	222
203	249	176	219
204	254	180	225
205	255	181	229
206	254	176	229
207	250	170	228
208	250	172	230
209	246	170	228
210	0	0	0
211	0	0	0
212	0	0	0
213	0	0	0
214	0	0	0
215	0	0	0
216	0	0	0
217	0	0	0
218	0	0	0
219	0	0	0
220	0	0	0
221	0	0	0
222	0	0	0
223	0	0	0
224	0	0	0
225	0	0	0
226	0	0	0
227	0	0	0
228	0	0	0
229	251	191	220
230	255	194	227
231	254	185	223
232	248	174	218
233	254	179	224
234	255	181	229
235	251	171	226
236	248	166	226
237	247	166	228
238	245	165	228
239	245	175	229
240	0	0	0
241	0	0	0
242	0	0	0
243	0	0	0
244	0	0	0
245	0	0	0
246	0	0	0
247	0	0	0
248	0	0	0
249	0	0	0
250	0	0	0
251	0	0	0
252	0	0	0
253	0	0	0
254	0	0	0
255	0	0	0
256	0	0	0
257	0	0	0
258	254	192	223
259	255	192	224
260	253	183	221
261	249	174	220
262	254	177	225
263	255	181	228
264	251	170	223
265	244	159	222
266	244	161	226
267	240	158	224
268	244	170	230
269	0	0	0
270	0	0	0
271	0	0	0
272	0	0	0
273	0	0	0
274	0	0	0
275	0	0	0
276	0	0	0
277	0	0	0
278	0	0	0
279	0	0	0
280	0	0	0
281	0	0	0
282	0	0	0
283	0	0	0
284	0	0	0
285	0	0	0
286	0	0	0
287	251	185	219
288	254	185	223
289	253	181	222
290	248	170	218
291	251	171	222
292	255	175	227
293	255	175	227
294	247	163	221
295	248	165	227
296	246	164	228
297	243	168	228
298	0	0	0
299	0	0	0
300	0	0	0
301	0	0	0
302	0	0	0
303	0	0	0
304	0	0	0
305	0	0	0
306	0	0	0
307	0	0	0
308	0	0	0
309	0	0	0
310	0	0	0
311	0	0	0
312	0	0	0
313	0	0	0
314	0	0	0
315	0	0	0
316	0	0	0
317	0	0	0
318	247	170	216
319	247	167	219
320	249	168	223
321	250	167	225
322	252	169	226
323	252	168	225
324	249	167	225
325	247	166	227
326	246	172	229
327	0	0	0
328	0	0	0
329	0	0	0
330	0	0	0
331	0	0	0
332	0	0	0
333	0	0	0
334	0	0	0
335	0	0	0
336	0	0	0
337	0	0	0
338	0	0	0
339	0	0	0
340	0	0	0
341	255	220	221
342	0	0	0
343	0	0	0
344	0	0	0
345	252	182	217
346	0	0	0
347	252	176	219
348	250	171	220
349	255	179	231
350	255	179	235
351	250	165	226
352	250	165	227
353	251	168	227
354	247	164	225
355	245	170	227
356	0	0	0
357	0	0	0
358	0	0	0
359	0	0	0
360	0	0	0
361	0	0	0
362	0	0	0
363	0	0	0
364	0	0	0
365	0	0	0
366	0	0	0
367	0	0	0
368	0	0	0
369	0	0	0
370	255	218	226
371	255	218	227
372	255	199	218
373	249	180	213
374	253	181	219
375	253	177	218
376	255	178	221
377	255	178	226
378	255	183	231
379	255	189	239
380	255	174	231
381	247	159	224
382	250	165	229
383	248	166	228
384	246	170	229
385	0	0	0
386	0	0	0
387	0	0	0
388	0	0	0
389	0	0	0
390	0	0	0
391	0	0	0
392	0	0	0
393	0	0	0
394	0	0	0
395	0	0	0
396	0	0	0
397	0	0	0
398	0	0	0
399	255	210	224
400	255	212	228
401	255	196	219
402	247	177	211
403	248	171	213
404	251	170	217
405	251	168	217
406	252	167	220
407	253	167	222
408	255	170	226
409	255	177	231
410	249	161	222
411	247	160	226
412	249	164	230
413	244	166	227
414	0	0	0
415	0	0	0
416	0	0	0
417	0	0	0
418	0	0	0
419	0	0	0
420	0	0	0
421	0	0	0
422	0	0	0
423	0	0	0
424	0	0	0
425	0	0	0
426	0	0	0
427	0	0	0
428	254	209	225
429	255	204	225
430	251	189	218
431	245	173	211
432	247	168	213
433	246	161	213
434	249	161	217
435	248	158	218
436	250	159	221
437	248	157	220
438	252	162	224
439	255	169	229
440	252	165	227
441	248	161	228
442	248	167	230
443	0	0	0
444	0	0	0
445	0	0	0
446	0	0	0
447	0	0	0
448	0	0	0
449	0	0	0
450	0	0	0
451	0	0	0
452	0	0	0
453	0	0	0
454	0	0	0
455	0	0	0
456	0	0	0
457	255	211	228
458	255	207	228
459	255	196	225
460	251	180	218
461	250	172	217
462	251	167	219
463	249	159	217
464	251	159	220
465	254	162	225
466	255	162	227
467	249	155	222
468	251	159	224
469	255	169	231
470	251	163	227
471	240	153	221
472	0	0	0
473	0	0	0
474	0	0	0
475	0	0	0
476	0	0	0
477	0	0	0
478	0	0	0
479	0	0	0
480	0	0	0
481	0	0	0
482	0	0	0
483	0	0	0
484	0	0	0
485	0	0	0
486	255	215	233
487	255	206	227
488	255	196	224
489	254	186	222
490	253	178	221
491	253	169	220
492	253	164	220
493	249	155	217
494	255	160	224
495	255	162	228
496	253	157	225
497	246	149	219
498	250	157	223
499	254	165	228
500	243	155	221
501	231	144	215
502	0	0	0
503	0	0	0
504	0	0	0
505	0	0	0
506	0	0	0
507	0	0	0
508	0	0	0
509	0	0	0
510	0	0	0
511	0	0	0
512	0	0	0
513	0	0	0
514	0	0	0
515	255	217	231
516	255	211	232
517	254	195	222
518	253	186	220
519	250	174	219
520	249	165	218
521	255	171	225
522	255	165	224
523	247	148	215
524	252	152	221
525	255	158	226
526	251	151	223
527	246	148	219
528	249	155	223
529	255	169	230
530	242	158	220
531	0	0	0
532	0	0	0
533	0	0	0
534	0	0	0
535	0	0	0
536	0	0	0
537	0	0	0
538	0	0	0
539	0	0	0
540	0	0	0
541	0	0	0
542	0	0	0
543	0	0	0
544	0	0	0
545	255	211	227
546	252	196	220
547	247	181	214
548	248	172	216
549	246	161	218
550	255	171	229
551	255	175	231
552	255	160	222
553	247	143	215
554	252	149	222
555	254	153	226
556	251	150	224
557	246	146	222
558	253	162	230
559	255	173	232
560	253	180	232
561	0	0	0
562	0	0	0
563	0	0	0
564	0	0	0
565	0	0	0
566	0	0	0
567	0	0	0
568	0	0	0
569	0	0	0
570	0	0	0
571	0	0	0
572	0	0	0
573	0	0	0
574	0	0	0
575	255	209	228
576	254	193	222
577	252	182	221
578	253	173	223
579	251	162	225
580	255	171	235
581	251	151	219
582	242	135	209
583	244	136	214
584	249	142	220
585	254	152	226
586	249	148	223
587	248	152	226
588	254	165	233
589	244	163	224
590	0	0	0
591	0	0	0
592	0	0	0
593	0	0	0
594	0	0	0
595	0	0	0
596	0	0	0
597	0	0	0
598	0	0	0
599	0	0	0
600	0	0	0
601	0	0	0
602	0	0	0
603	0	0	0
604	0	0	0
605	0	0	0
606	255	194	230
607	255	182	230
608	255	173	231
609	253	160	228
610	247	144	221
611	236	125	209
612	240	128	212
613	240	128	213
614	248	140	221
615	251	148	224
616	251	152	225
617	247	153	226
618	241	155	224
619	0	0	0
620	0	0	0
621	0	0	0
622	0	0	0
623	0	0	0
624	0	0	0
625	0	0	0
626	0	0	0
627	0	0	0
628	0	0	0
629	0	0	0
630	0	0	0
631	0	0	0
632	0	0	0
633	0	0	0
634	0	0	0
635	255	197	231
636	255	184	229
637	252	170	227
638	251	159	227
639	250	151	226
640	243	136	219
641	246	136	221
642	249	139	224
643	250	142	225
644	255	152	230
645	250	148	225
646	248	151	225
647	243	154	225
648	0	0	0
649	0	0	0
650	0	0	0
651	0	0	0
652	0	0	0
653	0	0	0
654	0	0	0
655	0	0	0
656	0	0	0
657	0	0	0
658	0	0	0
659	0	0	0
660	0	0	0
661	0	0	0
662	0	0	0
663	0	0	0
664	0	0	0
665	251	183	223
666	247	168	220
667	243	153	219
668	245	148	222
669	243	139	220
670	248	142	225
671	250	142	225
672	254	148	229
673	254	150	229
674	252	150	228
675	245	145	222
676	242	151	224
677	0	0	0
678	0	0	0
679	0	0	0
680	0	0	0
681	0	0	0
682	0	0	0
683	0	0	0
684	0	0	0
685	0	0	0
686	0	0	0
687	0	0	0
688	0	0	0
689	0	0	0
690	0	0	0
691	0	0	0
692	0	0	0
693	0	0	0
694	0	0	0
695	255	186	228
696	251	170	224
697	249	160	225
698	250	153	227
699	248	146	227
700	252	149	230
701	252	147	228
702	255	152	231
703	252	150	228
704	249	149	227
705	241	147	223
706	0	0	0
707	0	0	0
708	0	0	0
709	0	0	0
710	0	0	0
711	0	0	0
712	0	0	0
713	0	0	0
714	0	0	0
715	0	0	0
716	0	0	0
717	0	0	0
718	0	0	0
719	0	0	0
720	0	0	0
721	0	0	0
722	0	0	0
723	0	0	0
724	255	196	233
725	255	186	232
726	255	175	230
727	252	163	228
728	253	159	231
729	251	151	230
730	255	155	234
731	254	153	232
732	254	154	232
733	250	150	230
734	247	153	230
735	237	149	225
736	0	0	0
737	0	0	0
738	0	0	0
739	0	0	0
740	0	0	0
741	0	0	0
742	0	0	0
743	0	0	0
744	0	0	0
745	0	0	0
746	0	0	0
747	0	0	0
748	0	0	0
749	0	0	0
750	0	0	0
751	0	0	0
752	255	217	238
753	252	194	229
754	254	187	229
755	251	175	226
756	248	163	223
757	254	166	230
758	254	160	231
759	252	155	231
760	255	158	235
761	252	153	232
762	251	152	232
763	244	147	227
764	239	148	226
765	241	166	233
766	0	0	0
767	0	0	0
768	0	0	0
769	0	0	0
770	0	0	0
771	0	0	0
772	0	0	0
773	0	0	0
774	0	0	0
775	0	0	0
776	0	0	0
777	0	0	0
778	0	0	0
779	0	0	0
780	0	0	0
781	255	227	240
782	253	205	230
783	245	183	222
784	248	177	224
785	245	165	221
786	253	170	230
787	255	171	236
788	255	168	236
789	255	161	233
790	255	159	234
791	251	153	233
792	248	152	233
793	238	144	226
794	243	166	235
795	0	0	0
796	0	0	0
797	0	0	0
798	0	0	0
799	0	0	0
800	0	0	0
801	0	0	0
802	0	0	0
803	0	0	0
804	0	0	0
805	0	0	0
806	0	0	0
807	0	0	0
808	0	0	0
809	0	0	0
810	0	0	0
811	255	228	241
812	255	207	232
813	249	186	226
814	252	179	229
815	250	169	227
816	255	173	234
817	252	162	231
818	251	158	231
819	251	155	230
820	250	152	230
821	246	149	230
822	241	145	227
823	238	155	228
824	0	0	0
825	0	0	0
826	0	0	0
827	0	0	0
828	0	0	0
829	0	0	0
830	0	0	0
831	0	0	0
832	0	0	0
833	0	0	0
834	0	0	0
835	0	0	0
836	0	0	0
837	0	0	0
838	0	0	0
839	0	0	0
840	0	0	0
841	255	228	241
842	255	209	235
843	253	189	231
844	255	184	235
845	253	173	232
846	251	164	230
847	245	153	226
848	248	153	230
849	247	150	231
850	246	150	231
851	238	143	226
852	241	158	231
853	0	0	0
854	0	0	0
855	0	0	0
856	0	0	0
857	0	0	0
858	0	0	0
859	0	0	0
860	0	0	0
861	0	0	0
862	0	0	0
863	0	0	0
864	0	0	0
865	0	0	0
866	0	0	0
867	0	0	0
868	0	0	0
869	0	0	0
870	0	0	0
871	255	220	236
872	255	201	232
873	244	174	223
874	247	169	227
875	255	176	234
876	252	166	232
877	249	158	231
878	251	158	235
879	250	157	236
880	247	154	234
881	237	151	227
882	0	0	0
883	0	0	0
884	0	0	0
885	0	0	0
886	0	0	0
887	0	0	0
888	0	0	0
889	0	0	0
890	0	0	0
891	0	0	0
892	0	0	0
893	0	0	0
894	0	0	0
895	0	0	0
896	0	0	0
897	0	0	0
898	0	0	0
899	0	0	0
900	0	0	0
901	253	210	230
902	247	188	224
903	236	161	217
904	251	174	232
905	255	178	236
906	254	170	233
907	252	163	234
908	254	164	238
909	249	160	235
910	249	165	236
911	0	0	0
912	0	0	0
913	0	0	0
914	0	0	0
915	0	0	0
916	0	0	0
917	0	0	0
918	0	0	0
919	0	0	0
920	0	0	0
921	0	0	0
922	0	0	0
923	0	0	0
924	0	0	0
925	0	0	0
926	0	0	0
927	0	0	0
928	0	0	0
929	0	0	0
930	0	0	0
931	251	204	229
932	245	182	223
933	243	169	224
934	255	180	239
935	252	171	231
936	248	162	227
937	252	166	236
938	252	165	238
939	242	157	230
940	0	0	0
941	0	0	0
942	0	0	0
943	0	0	0
944	0	0	0
945	0	0	0
946	0	0	0
947	0	0	0
948	0	0	0
949	0	0	0
950	0	0	0
951	0	0	0
952	0	0	0
953	0	0	0
954	0	0	0
955	0	0	0
956	0	0	0
957	0	0	0
958	0	0	0
959	0	0	0
960	0	0	0
961	247	196	227
962	251	189	232
963	248	174	230
964	252	174	236
965	248	164	230
966	251	167	235
967	252	169	239
968	241	160	233
969	0	0	0
970	0	0	0
971	0	0	0
972	0	0	0
973	0	0	0
974	0	0	0
975	0	0	0
976	0	0	0
977	0	0	0
978	0	0	0
979	0	0	0
980	0	0	0
981	0	0	0
982	0	0	0
983	0	0	0
984	0	0	0
985	0	0	0
986	0	0	0
987	0	0	0
988	0	0	0
989	0	0	0
990	0	0	0
991	249	198	230
992	253	191	235
993	246	171	230
994	250	170	235
995	247	164	233
996	249	166	236
997	247	171	239
998	0	0	0
999	0	0	0
1000	0	0	0
1001	0	0	0
1002	0	0	0
1003	0	0	0
1004	0	0	0
1005	0	0	0
1006	0	0	0
1007	0	0	0
1008	0	0	0
1009	0	0	0
1010	0	0	0
1011	0	0	0
1012	0	0	0
1013	0	0	0
1014	0	0	0
1015	0	0	0
1016	0	0	0
1017	0	0	0
1018	0	0	0
1019	0	0	0
1020	0	0	0
1021	250	199	230
1022	251	188	232
1023	243	167	228
1024	249	170	237
1025	243	161	232
1026	242	167	235
1027	0	0	0
1028	0	0	0
1029	0	0	0
1030	0	0	0
1031	0	0	0
1032	0	0	0
1033	0	0	0
1034	0	0	0
1035	0	0	0
1036	0	0	0
1037	0	0	0
1038	0	0	0
1039	0	0	0
1040	0	0	0
1041	0	0	0
1042	0	0	0
1043	0	0	0
1044	0	0	0
1045	0	0	0
1046	0	0	0
1047	0	0	0
1048	0	0	0
1049	0	0	0
1050	0	0	0
1051	249	197	230
1052	250	185	232
1053	241	165	228
1054	245	166	235
1055	239	165	233
1056	0	0	0
1057	0	0	0
1058	0	0	0
1059	0	0	0
1060	0	0	0
1061	0	0	0
1062	0	0	0
1063	0	0	0
1064	0	0	0
1065	0	0	0
1066	0	0	0
1067	0	0	0
1068	0	0	0
1069	0	0	0
1070	0	0	0
1071	0	0	0
1072	0	0	0
1073	0	0	0
1074	0	0	0
1075	0	0	0
1076	0	0	0
1077	0	0	0
1078	0	0	0
1079	0	0	0
1080	0	0	0
1081	250	197	232
1082	247	183	232
1083	235	160	226
1084	243	171	236
1085	0	0	0
1086	0	0	0
1087	0	0	0
1088	0	0	0
1089	0	0	0
1090	0	0	0
1091	0	0	0
1092	0	0	0
1093	0	0	0
1094	0	0	0
1095	0	0	0
1096	0	0	0
1097	0	0	0
1098	0	0	0
1099	0	0	0
1100	0	0	0
1101	0	0	0
1102	0	0	0
1103	0	0	0
1104	0	0	0
1105	0	0	0
1106	0	0	0
1107	0	0	0
1108	0	0	0
1109	0	0	0
1110	0	0	0
1111	0	0	0
1112	236	171	226
1113	234	167	228
1114	0	0	0
1115	0	0	0
1116	0	0	0
1117	0	0	0
1118	0	0	0
1119	0	0	0
1120	0	0	0
1121	0	0	0
1122	0	0	0
1123	0	0	0
1124	0	0	0
1125	0	0	0
1126	0	0	0
1127	0	0	0
1128	0	0	0
1129	0	0	0
1130	0	0	0
1131	0	0	0
1132	0	0	0
1133	0	0	0
1134	0	0	0
1135	0	0	0
1136	0	0	0
1137	0	0	0
1138	0	0	0
1139	0	0	0
1140	0	0	0
