 	R	G	B
1	0	0	0
2	0	0	0
3	0	0	0
4	255	229	233
5	0	0	0
6	0	0	0
7	0	0	0
8	0	0	0
9	0	0	0
10	0	0	0
11	0	0	0
12	255	237	237
13	255	243	241
14	255	240	239
15	0	0	0
16	0	0	0
17	0	0	0
18	0	0	0
19	0	0	0
20	0	0	0
21	0	0	0
22	0	0	0
23	0	0	0
24	0	0	0
25	0	0	0
26	0	0	0
27	0	0	0
28	0	0	0
29	0	0	0
30	0	0	0
31	0	0	0
32	255	230	237
33	255	234	239
34	252	222	228
35	0	0	0
36	0	0	0
37	0	0	0
38	0	0	0
39	0	0	0
40	255	230	231
41	255	235	236
42	254	229	232
43	252	225	229
44	254	230	231
45	0	0	0
46	0	0	0
47	0	0	0
48	0	0	0
49	0	0	0
50	0	0	0
51	0	0	0
52	0	0	0
53	0	0	0
54	0	0	0
55	0	0	0
56	0	0	0
57	0	0	0
58	0	0	0
59	0	0	0
60	255	226	238
61	255	233	241
62	255	225	233
63	248	214	224
64	252	220	227
65	255	226	231
66	254	222	228
67	0	0	0
68	0	0	0
69	255	227	231
70	252	221	227
71	247	215	223
72	251	221	228
73	253	226	229
74	255	235	235
75	0	0	0
76	0	0	0
77	0	0	0
78	0	0	0
79	0	0	0
80	0	0	0
81	0	0	0
82	0	0	0
83	0	0	0
84	0	0	0
85	0	0	0
86	0	0	0
87	0	0	0
88	0	0	0
89	255	239	248
90	255	223	234
91	250	215	227
92	252	217	228
93	255	224	233
94	255	222	232
95	254	218	228
96	249	212	221
97	0	0	0
98	255	228	232
99	253	221	228
100	254	221	229
101	255	228	233
102	252	222	227
103	255	231	233
104	0	0	0
105	0	0	0
106	0	0	0
107	0	0	0
108	0	0	0
109	0	0	0
110	0	0	0
111	0	0	0
112	0	0	0
113	0	0	0
114	0	0	0
115	0	0	0
116	0	0	0
117	0	0	0
118	0	0	0
119	247	210	225
120	253	216	231
121	255	219	232
122	255	217	231
123	253	214	229
124	250	211	225
125	246	205	219
126	253	216	225
127	255	227	234
128	255	226	233
129	255	226	232
130	254	222	228
131	249	216	222
132	0	0	0
133	0	0	0
134	0	0	0
135	0	0	0
136	0	0	0
137	0	0	0
138	0	0	0
139	0	0	0
140	0	0	0
141	0	0	0
142	0	0	0
143	0	0	0
144	0	0	0
145	0	0	0
146	0	0	0
147	0	0	0
148	0	0	0
149	255	222	236
150	251	211	229
151	251	209	228
152	255	215	232
153	253	212	228
154	252	211	225
155	255	222	231
156	255	220	229
157	255	219	228
158	255	222	229
159	253	218	225
160	253	220	225
161	254	222	226
162	0	0	0
163	0	0	0
164	0	0	0
165	0	0	0
166	0	0	0
167	0	0	0
168	0	0	0
169	0	0	0
170	0	0	0
171	0	0	0
172	0	0	0
173	0	0	0
174	0	0	0
175	0	0	0
176	0	0	0
177	0	0	0
178	250	210	227
179	244	200	223
180	252	209	230
181	255	215	234
182	255	215	231
183	254	213	227
184	253	213	224
185	251	211	222
186	253	215	225
187	255	219	228
188	255	222	229
189	255	224	229
190	255	231	232
191	255	234	232
192	255	234	231
193	0	0	0
194	0	0	0
195	0	0	0
196	0	0	0
197	0	0	0
198	0	0	0
199	0	0	0
200	0	0	0
201	0	0	0
202	0	0	0
203	0	0	0
204	0	0	0
205	0	0	0
206	254	222	233
207	254	216	232
208	246	202	225
209	254	211	233
210	255	216	236
211	255	216	233
212	255	214	229
213	254	213	226
214	253	213	225
215	255	217	228
216	255	216	228
217	255	220	230
218	255	217	226
219	255	223	229
220	255	223	226
221	255	224	226
222	255	224	226
223	0	0	0
224	0	0	0
225	0	0	0
226	0	0	0
227	0	0	0
228	0	0	0
229	0	0	0
230	0	0	0
231	0	0	0
232	0	0	0
233	0	0	0
234	0	0	0
235	0	0	0
236	253	215	233
237	245	201	224
238	254	211	232
239	255	216	235
240	255	217	235
241	255	216	232
242	255	216	232
243	255	217	232
244	255	216	230
245	255	214	229
246	255	214	228
247	254	212	226
248	255	214	227
249	254	214	225
250	254	214	224
251	252	214	222
252	255	222	226
253	255	231	231
254	255	229	229
255	0	0	0
256	0	0	0
257	0	0	0
258	0	0	0
259	0	0	0
260	0	0	0
261	0	0	0
262	0	0	0
263	0	0	0
264	0	0	0
265	0	0	0
266	253	213	231
267	255	223	239
268	255	212	232
269	255	213	234
270	251	204	227
271	252	205	228
272	255	212	231
273	255	211	229
274	254	209	226
275	253	209	225
276	255	213	230
277	255	216	231
278	250	204	221
279	249	203	219
280	254	213	224
281	255	221	227
282	255	223	227
283	254	219	224
284	251	218	223
285	0	0	0
286	0	0	0
287	0	0	0
288	0	0	0
289	0	0	0
290	0	0	0
291	0	0	0
292	0	0	0
293	0	0	0
294	255	221	236
295	255	224	236
296	255	216	231
297	251	205	226
298	248	200	225
299	243	192	222
300	248	199	226
301	252	205	227
302	251	203	223
303	250	201	219
304	254	206	223
305	255	212	230
306	252	202	224
307	243	190	213
308	250	202	220
309	255	212	225
310	255	213	224
311	255	215	225
312	251	213	222
313	248	212	220
314	253	224	228
315	0	0	0
316	0	0	0
317	0	0	0
318	0	0	0
319	0	0	0
320	0	0	0
321	0	0	0
322	255	229	241
323	255	235	246
324	254	215	230
325	249	206	225
326	250	205	227
327	250	201	227
328	249	200	228
329	253	206	231
330	255	211	231
331	255	210	228
332	253	203	221
333	255	209	226
334	255	203	226
335	248	193	219
336	252	200	220
337	255	212	227
338	254	206	222
339	253	207	222
340	255	213	225
341	252	212	222
342	255	220	226
343	255	232	234
344	255	227	232
345	0	0	0
346	0	0	0
347	0	0	0
348	0	0	0
349	0	0	0
350	255	241	248
351	255	241	248
352	255	225	238
353	246	205	225
354	243	202	224
355	244	200	226
356	249	203	229
357	248	202	226
358	253	209	230
359	255	215	233
360	255	211	230
361	255	205	225
362	255	201	223
363	252	194	221
364	255	203	226
365	255	210	228
366	255	204	221
367	250	198	217
368	254	205	221
369	255	211	223
370	255	218	226
371	255	226	229
372	253	219	224
373	0	0	0
374	0	0	0
375	0	0	0
376	0	0	0
377	0	0	0
378	251	237	244
379	251	235	243
380	253	231	241
381	249	216	233
382	246	208	228
383	240	203	225
384	244	209	230
385	251	213	233
386	251	209	229
387	255	218	235
388	252	204	227
389	255	203	227
390	254	195	222
391	252	191	219
392	249	187	218
393	255	196	222
394	255	203	223
395	253	197	217
396	254	200	219
397	255	207	223
398	254	206	220
399	255	213	222
400	255	219	225
401	246	210	219
402	0	0	0
403	0	0	0
404	0	0	0
405	0	0	0
406	0	0	0
407	0	0	0
408	240	222	233
409	243	220	234
410	248	217	234
411	244	209	228
412	246	215	231
413	250	221	233
414	255	222	235
415	255	220	236
416	254	208	230
417	249	196	225
418	252	193	225
419	250	186	220
420	252	186	221
421	249	182	217
422	255	194	223
423	255	201	225
424	255	203	224
425	255	206	225
426	255	205	222
427	253	203	218
428	255	209	221
429	255	215	224
430	251	218	225
431	0	0	0
432	0	0	0
433	0	0	0
434	0	0	0
435	0	0	0
436	0	0	0
437	0	0	0
438	251	234	243
439	253	231	242
440	247	217	233
441	255	226	238
442	251	216	231
443	255	217	233
444	255	211	231
445	253	200	227
446	251	192	226
447	253	189	227
448	251	183	223
449	253	183	222
450	251	180	219
451	255	191	225
452	252	184	218
453	252	186	217
454	252	189	217
455	248	188	213
456	255	203	221
457	255	209	223
458	251	210	221
459	248	213	222
460	0	0	0
461	0	0	0
462	0	0	0
463	0	0	0
464	0	0	0
465	0	0	0
466	0	0	0
467	255	248	251
468	253	235	242
469	247	222	234
470	249	217	234
471	249	210	231
472	254	208	233
473	253	201	227
474	249	191	223
475	248	184	224
476	251	182	226
477	249	176	221
478	252	178	222
479	250	175	219
480	248	172	217
481	243	166	212
482	245	172	214
483	244	174	212
484	251	189	219
485	255	204	225
486	255	206	223
487	251	207	221
488	253	218	227
489	255	235	240
490	0	0	0
491	0	0	0
492	0	0	0
493	0	0	0
494	0	0	0
495	0	0	0
496	0	0	0
497	247	232	238
498	247	226	236
499	252	224	239
500	253	214	237
501	255	214	241
502	246	190	223
503	239	179	217
504	248	187	229
505	255	187	232
506	253	178	225
507	255	179	225
508	251	173	220
509	250	172	219
510	250	174	220
511	252	179	222
512	253	185	222
513	255	199	228
514	255	198	224
515	253	200	222
516	253	206	223
517	255	218	229
518	255	225	233
519	249	215	224
520	0	0	0
521	0	0	0
522	0	0	0
523	0	0	0
524	0	0	0
525	0	0	0
526	0	0	0
527	248	230	239
528	250	222	238
529	252	213	237
530	251	199	233
531	239	177	220
532	244	184	227
533	253	192	237
534	255	188	236
535	254	178	226
536	253	175	223
537	250	169	217
538	253	175	220
539	254	177	221
540	255	186	226
541	255	191	226
542	255	192	223
543	252	191	221
544	253	198	223
545	253	203	223
546	253	209	223
547	254	216	225
548	255	223	228
549	255	234	235
550	0	0	0
551	0	0	0
552	0	0	0
553	0	0	0
554	0	0	0
555	0	0	0
556	252	239	245
557	255	231	245
558	251	211	237
559	250	197	233
560	246	184	228
561	254	193	237
562	254	188	237
563	255	182	234
564	251	172	224
565	251	170	221
566	251	169	219
567	255	174	222
568	251	171	218
569	255	180	222
570	255	186	222
571	253	187	220
572	254	192	221
573	255	199	223
574	255	206	224
575	255	210	223
576	255	221	227
577	255	228	231
578	255	226	228
579	0	0	0
580	0	0	0
581	0	0	0
582	0	0	0
583	0	0	0
584	0	0	0
585	255	246	249
586	248	223	238
587	242	203	231
588	245	196	233
589	242	184	226
590	247	183	229
591	248	178	230
592	250	174	229
593	247	165	222
594	251	169	224
595	252	169	223
596	253	170	223
597	249	167	217
598	254	176	221
599	255	183	222
600	255	190	222
601	255	195	221
602	255	202	222
603	255	208	222
604	255	216	223
605	255	226	228
606	255	221	223
607	0	0	0
608	0	0	0
609	0	0	0
610	0	0	0
611	0	0	0
612	0	0	0
613	0	0	0
614	255	246	248
615	242	219	234
616	242	211	235
617	244	204	236
618	244	192	231
619	254	195	237
620	250	181	232
621	252	176	232
622	250	170	227
623	255	174	231
624	253	169	227
625	255	171	226
626	249	164	218
627	255	175	222
628	255	181	222
629	255	187	221
630	252	184	214
631	253	192	214
632	255	201	216
633	255	207	217
634	255	219	223
635	0	0	0
636	0	0	0
637	0	0	0
638	0	0	0
639	0	0	0
640	0	0	0
641	0	0	0
642	0	0	0
643	255	246	249
644	245	229	239
645	243	219	237
646	245	210	236
647	245	200	234
648	249	191	234
649	246	177	229
650	251	177	232
651	251	171	229
652	254	171	230
653	252	166	226
654	253	166	224
655	248	161	218
656	255	172	222
657	255	178	221
658	255	179	217
659	250	177	210
660	254	189	214
661	255	198	218
662	255	206	220
663	255	217	224
664	255	222	225
665	255	231	232
666	255	228	230
667	0	0	0
668	0	0	0
669	0	0	0
670	0	0	0
671	0	0	0
672	0	0	0
673	243	229	238
674	246	225	239
675	250	218	240
676	247	203	235
677	247	193	233
678	250	187	234
679	255	189	239
680	252	173	230
681	255	174	232
682	252	166	226
683	254	166	225
684	251	162	221
685	255	174	225
686	254	170	218
687	253	172	215
688	247	169	208
689	252	181	212
690	255	193	218
691	255	201	219
692	255	210	221
693	255	215	221
694	255	222	225
695	255	220	223
696	252	220	225
697	0	0	0
698	0	0	0
699	0	0	0
700	0	0	0
701	0	0	0
702	251	240	244
703	255	236	247
704	252	221	241
705	249	206	235
706	253	202	237
707	255	198	238
708	255	190	237
709	253	174	228
710	255	172	228
711	252	164	225
712	253	165	225
713	250	160	219
714	251	162	218
715	248	160	213
716	249	163	213
717	245	161	207
718	252	177	213
719	255	188	216
720	254	194	215
721	255	204	217
722	253	206	215
723	254	212	217
724	252	212	217
725	249	213	221
726	0	0	0
727	0	0	0
728	0	0	0
729	0	0	0
730	255	250	249
731	255	242	246
732	255	234	245
733	248	215	236
734	252	212	237
735	255	210	240
736	255	196	235
737	255	187	233
738	246	165	220
739	249	163	221
740	253	165	225
741	255	166	226
742	254	164	222
743	255	167	222
744	251	160	216
745	253	165	217
746	249	164	212
747	255	179	218
748	252	181	213
749	251	188	211
750	255	210	223
751	255	212	220
752	255	210	217
753	251	209	216
754	251	215	222
755	0	0	0
756	0	0	0
757	0	0	0
758	0	0	0
759	0	0	0
760	253	236	242
761	252	228	241
762	250	221	238
763	254	218	237
764	255	206	234
765	254	191	229
766	250	177	224
767	240	156	213
768	249	163	221
769	253	165	224
770	255	167	226
771	255	166	223
772	255	164	220
773	250	158	214
774	254	164	217
775	251	163	214
776	253	171	215
777	249	174	210
778	255	195	219
779	255	217	228
780	255	211	221
781	255	209	221
782	255	213	223
783	254	218	225
784	0	0	0
785	0	0	0
786	0	0	0
787	0	0	0
788	0	0	0
789	0	0	0
790	253	238	245
791	255	233	245
792	255	221	238
793	255	209	235
794	250	186	226
795	247	172	221
796	245	163	219
797	255	171	227
798	255	169	227
799	255	171	227
800	254	162	220
801	253	160	217
802	252	159	214
803	255	164	217
804	249	159	211
805	252	167	214
806	255	178	216
807	255	199	224
808	255	192	213
809	245	186	205
810	255	206	221
811	254	210	223
812	255	218	226
813	0	0	0
814	0	0	0
815	0	0	0
816	0	0	0
817	0	0	0
818	0	0	0
819	255	251	251
820	253	233	242
821	254	223	239
822	251	202	232
823	245	179	223
824	251	178	228
825	249	169	224
826	255	173	228
827	255	171	227
828	255	166	224
829	251	157	218
830	254	160	218
831	253	159	214
832	251	158	211
833	245	152	206
834	254	168	216
835	255	180	220
836	250	175	211
837	240	168	199
838	247	185	208
839	255	205	221
840	255	211	224
841	255	218	227
842	0	0	0
843	0	0	0
844	0	0	0
845	0	0	0
846	0	0	0
847	0	0	0
848	255	246	246
849	245	226	236
850	254	227	242
851	253	207	235
852	248	186	228
853	255	186	234
854	249	169	224
855	255	172	227
856	255	173	228
857	255	168	226
858	248	151	215
859	252	155	217
860	252	156	214
861	251	155	211
862	249	154	209
863	255	171	220
864	255	173	219
865	248	168	211
866	250	179	211
867	255	196	218
868	255	205	222
869	255	210	223
870	254	216	226
871	0	0	0
872	0	0	0
873	0	0	0
874	0	0	0
875	0	0	0
876	0	0	0
877	253	243	245
878	248	233	242
879	255	232	245
880	254	211	237
881	249	190	229
882	252	183	230
883	246	167	221
884	254	172	226
885	255	172	226
886	251	159	219
887	242	143	211
888	250	151	218
889	251	153	215
890	253	156	215
891	251	156	213
892	255	164	218
893	253	166	219
894	255	180	224
895	255	190	221
896	255	196	218
897	255	203	220
898	251	206	219
899	0	0	0
900	0	0	0
901	0	0	0
902	0	0	0
903	0	0	0
904	0	0	0
905	249	241	239
906	255	246	248
907	251	236	245
908	255	234	246
909	253	212	236
910	252	196	232
911	254	189	233
912	248	171	222
913	255	177	228
914	255	172	225
915	251	159	219
916	249	151	218
917	255	161	226
918	254	155	219
919	255	160	219
920	254	158	216
921	255	166	221
922	249	157	215
923	254	171	221
924	255	180	217
925	252	186	213
926	250	195	215
927	0	0	0
928	0	0	0
929	0	0	0
930	0	0	0
931	0	0	0
932	0	0	0
933	0	0	0
934	0	0	0
935	255	251	252
936	254	240	246
937	255	237	247
938	255	218	239
939	254	201	235
940	255	191	233
941	248	174	222
942	253	174	224
943	255	170	224
944	255	166	225
945	254	159	224
946	255	163	228
947	255	158	221
948	255	162	222
949	255	160	217
950	253	155	213
951	244	147	210
952	251	163	218
953	251	172	215
954	251	183	216
955	249	191	217
956	0	0	0
957	0	0	0
958	0	0	0
959	0	0	0
960	0	0	0
961	0	0	0
962	0	0	0
963	0	0	0
964	255	252	252
965	255	240	246
966	255	238	247
967	255	218	239
968	254	204	237
969	255	194	235
970	247	174	222
971	253	175	226
972	255	174	229
973	255	170	230
974	251	153	221
975	255	157	226
976	250	145	215
977	253	148	215
978	249	145	209
979	245	141	206
980	248	151	214
981	255	166	222
982	250	169	216
983	249	179	216
984	251	194	221
985	0	0	0
986	0	0	0
987	0	0	0
988	0	0	0
989	0	0	0
990	0	0	0
991	0	0	0
992	0	0	0
993	0	0	0
994	255	241	244
995	0	0	0
996	254	219	239
997	253	206	239
998	254	194	237
999	246	175	224
1000	255	178	230
1001	255	177	234
1002	255	163	228
1003	247	146	218
1004	249	142	219
1005	242	131	210
1006	246	135	212
1007	242	132	206
1008	248	144	212
1009	252	154	220
1010	252	161	221
1011	245	162	212
1012	249	179	216
1013	251	194	221
1014	0	0	0
1015	0	0	0
1016	0	0	0
1017	0	0	0
1018	0	0	0
1019	0	0	0
1020	0	0	0
1021	0	0	0
1022	0	0	0
1023	0	0	0
1024	0	0	0
1025	0	0	0
1026	255	218	245
1027	255	206	243
1028	245	175	223
1029	255	179	230
1030	255	178	235
1031	255	164	230
1032	249	147	222
1033	251	145	223
1034	245	133	216
1035	250	137	218
1036	244	132	210
1037	250	144	215
1038	255	157	223
1039	254	164	222
1040	247	166	214
1041	251	183	218
1042	255	204	225
1043	0	0	0
1044	0	0	0
1045	0	0	0
1046	0	0	0
1047	0	0	0
1048	0	0	0
1049	0	0	0
1050	0	0	0
1051	0	0	0
1052	0	0	0
1053	0	0	0
1054	0	0	0
1055	255	225	244
1056	253	200	233
1057	240	170	216
1058	252	176	226
1059	255	176	231
1060	253	161	225
1061	247	145	221
1062	247	139	221
1063	241	127	213
1064	246	132	216
1065	240	127	208
1066	251	146	217
1067	255	158	220
1068	255	167	221
1069	250	170	216
1070	255	195	225
1071	255	215	231
1072	0	0	0
1073	0	0	0
1074	0	0	0
1075	0	0	0
1076	0	0	0
1077	0	0	0
1078	0	0	0
1079	0	0	0
1080	0	0	0
1081	0	0	0
1082	0	0	0
1083	0	0	0
1084	255	230	244
1085	255	208	235
1086	243	176	220
1087	255	183	231
1088	254	170	226
1089	248	155	221
1090	251	151	224
1091	251	146	225
1092	251	143	224
1093	255	148	227
1094	245	134	214
1095	255	153	223
1096	252	155	219
1097	253	163	218
1098	245	163	210
1099	254	188	219
1100	255	210	224
1101	0	0	0
1102	0	0	0
1103	0	0	0
1104	0	0	0
1105	0	0	0
1106	0	0	0
1107	0	0	0
1108	0	0	0
1109	0	0	0
1110	0	0	0
1111	0	0	0
1112	0	0	0
1113	255	240	252
1114	255	212	240
1115	245	180	225
1116	251	177	229
1117	248	164	223
1118	253	162	226
1119	254	158	227
1120	255	159	230
1121	255	156	231
1122	255	150	227
1123	244	136	214
1124	250	147	219
1125	248	150	218
1126	250	159	218
1127	240	157	206
1128	251	185	215
1129	255	206	220
1130	0	0	0
1131	0	0	0
1132	0	0	0
1133	0	0	0
1134	0	0	0
1135	0	0	0
1136	0	0	0
1137	0	0	0
1138	0	0	0
1139	0	0	0
1140	0	0	0
1141	0	0	0
1142	255	244	254
1143	255	214	240
1144	249	188	229
1145	255	184	234
1146	247	164	224
1147	252	162	226
1148	254	160	225
1149	255	159	227
1150	255	155	227
1151	252	149	223
1152	249	145	219
1153	255	156	225
1154	253	158	223
1155	255	168	224
1156	243	161	210
1157	254	188	220
1158	255	206	221
1159	0	0	0
1160	0	0	0
1161	0	0	0
1162	0	0	0
1163	0	0	0
1164	0	0	0
1165	0	0	0
1166	0	0	0
1167	0	0	0
1168	0	0	0
1169	0	0	0
1170	0	0	0
1171	255	247	253
1172	255	218	239
1173	250	192	227
1174	252	182	228
1175	246	163	223
1176	255	168	231
1177	255	164	227
1178	255	161	226
1179	255	157	225
1180	255	157	226
1181	254	155	224
1182	255	162	226
1183	254	162	219
1184	253	166	219
1185	245	163	215
1186	255	189	226
1187	255	206	224
1188	0	0	0
1189	0	0	0
1190	0	0	0
1191	0	0	0
1192	0	0	0
1193	0	0	0
1194	0	0	0
1195	0	0	0
1196	0	0	0
1197	0	0	0
1198	0	0	0
1199	0	0	0
1200	255	247	250
1201	254	219	237
1202	250	196	227
1203	254	186	229
1204	247	164	223
1205	255	171	232
1206	250	156	221
1207	250	153	220
1208	252	155	222
1209	253	155	223
1210	255	158	224
1211	255	165	226
1212	248	155	212
1213	248	160	213
1214	247	167	218
1215	255	193	230
1216	255	203	224
1217	0	0	0
1218	0	0	0
1219	0	0	0
1220	0	0	0
1221	0	0	0
1222	0	0	0
1223	0	0	0
1224	0	0	0
1225	0	0	0
1226	0	0	0
1227	0	0	0
1228	0	0	0
1229	255	252	254
1230	255	225	241
1231	253	202	231
1232	253	187	228
1233	246	165	221
1234	251	162	226
1235	245	149	218
1236	252	155	224
1237	254	157	225
1238	255	161	227
1239	255	162	226
1240	254	159	222
1241	245	151	212
1242	251	164	217
1243	249	170	216
1244	255	189	223
1245	253	200	220
1246	0	0	0
1247	0	0	0
1248	0	0	0
1249	0	0	0
1250	0	0	0
1251	0	0	0
1252	0	0	0
1253	0	0	0
1254	0	0	0
1255	0	0	0
1256	0	0	0
1257	0	0	0
1258	255	252	253
1259	255	226	241
1260	253	203	231
1261	252	187	228
1262	247	167	223
1263	252	165	229
1264	246	149	221
1265	253	156	228
1266	255	158	228
1267	255	161	229
1268	252	156	224
1269	248	153	219
1270	247	155	218
1271	254	169	223
1272	248	168	216
1273	255	188	222
1274	251	196	219
1275	0	0	0
1276	0	0	0
1277	0	0	0
1278	0	0	0
1279	0	0	0
1280	0	0	0
1281	0	0	0
1282	0	0	0
1283	0	0	0
1284	0	0	0
1285	0	0	0
1286	0	0	0
1287	255	252	252
1288	255	227	241
1289	253	204	230
1290	252	188	229
1291	246	168	226
1292	248	162	229
1293	240	145	221
1294	244	151	226
1295	245	152	225
1296	245	150	222
1297	242	146	220
1298	247	154	224
1299	248	157	223
1300	250	165	224
1301	245	165	216
1302	251	182	221
1303	249	191	220
1304	0	0	0
1305	0	0	0
1306	0	0	0
1307	0	0	0
1308	0	0	0
1309	0	0	0
1310	0	0	0
1311	0	0	0
1312	0	0	0
1313	0	0	0
1314	0	0	0
1315	0	0	0
1316	255	251	254
1317	252	219	236
1318	252	204	231
1319	252	189	231
1320	244	167	226
1321	242	159	228
1322	239	154	227
1323	240	158	230
1324	244	163	232
1325	246	162	231
1326	247	161	231
1327	255	171	237
1328	253	166	230
1329	255	175	231
1330	249	172	222
1331	255	190	229
1332	248	188	222
1333	0	0	0
1334	0	0	0
1335	0	0	0
1336	0	0	0
1337	0	0	0
1338	0	0	0
1339	0	0	0
1340	0	0	0
1341	0	0	0
1342	0	0	0
1343	0	0	0
1344	0	0	0
1345	255	245	252
1346	255	223	242
1347	254	206	235
1348	251	189	231
1349	241	165	225
1350	246	169	233
1351	241	163	232
1352	242	169	236
1353	246	175	240
1354	250	175	241
1355	252	174	239
1356	255	176	239
1357	253	171	230
1358	254	176	229
1359	249	175	223
1360	250	182	224
1361	242	181	218
1362	0	0	0
1363	0	0	0
1364	0	0	0
1365	0	0	0
1366	0	0	0
1367	0	0	0
1368	0	0	0
1369	0	0	0
1370	0	0	0
1371	0	0	0
1372	0	0	0
1373	0	0	0
1374	255	247	254
1375	255	226	245
1376	254	206	237
1377	250	187	231
1378	243	171	227
1379	245	173	234
1380	241	168	233
1381	243	175	238
1382	246	179	241
1383	249	178	241
1384	250	175	238
1385	254	177	237
1386	252	173	230
1387	254	178	230
1388	247	173	223
1389	248	181	225
1390	247	188	225
1391	0	0	0
1392	0	0	0
1393	0	0	0
1394	0	0	0
1395	0	0	0
1396	0	0	0
1397	0	0	0
1398	0	0	0
1399	0	0	0
1400	0	0	0
1401	0	0	0
1402	0	0	0
1403	255	249	254
1404	255	226	244
1405	254	206	238
1406	255	196	239
1407	247	178	232
1408	247	180	236
1409	243	175	235
1410	244	178	238
1411	246	181	239
1412	247	178	237
1413	247	175	235
1414	252	177	236
1415	250	174	231
1416	248	173	227
1417	241	169	222
1418	246	182	227
1419	0	0	0
1420	0	0	0
1421	0	0	0
1422	0	0	0
1423	0	0	0
1424	0	0	0
1425	0	0	0
1426	0	0	0
1427	0	0	0
1428	0	0	0
1429	0	0	0
1430	0	0	0
1431	0	0	0
1432	255	251	255
1433	255	226	244
1434	249	200	234
1435	249	189	235
1436	244	177	230
1437	245	178	234
1438	247	183	238
1439	249	186	241
1440	249	186	240
1441	247	181	237
1442	248	180	236
1443	253	182	238
1444	252	180	234
1445	248	180	231
1446	247	183	230
1447	0	0	0
1448	0	0	0
1449	0	0	0
1450	0	0	0
1451	0	0	0
1452	0	0	0
1453	0	0	0
1454	0	0	0
1455	0	0	0
1456	0	0	0
1457	0	0	0
1458	0	0	0
1459	0	0	0
1460	0	0	0
1461	255	250	254
1462	255	222	242
1463	245	195	231
1464	248	190	235
1465	242	178	232
1466	248	186	239
1467	250	189	239
1468	250	189	239
1469	250	189	240
1470	250	187	240
1471	249	185	238
1472	253	187	238
1473	251	184	234
1474	251	190	235
1475	249	193	233
1476	0	0	0
1477	0	0	0
1478	0	0	0
1479	0	0	0
1480	0	0	0
1481	0	0	0
1482	0	0	0
1483	0	0	0
1484	0	0	0
1485	0	0	0
1486	0	0	0
1487	0	0	0
1488	0	0	0
1489	0	0	0
1490	255	246	252
1491	252	217	239
1492	242	193	229
1493	243	186	232
1494	248	191	240
1495	254	198	245
1496	253	196	241
1497	255	197	241
1498	253	193	242
1499	252	191	242
1500	250	188	239
1501	251	188	238
1502	254	195	240
1503	255	201	240
1504	248	198	235
1505	0	0	0
1506	0	0	0
1507	0	0	0
1508	0	0	0
1509	0	0	0
1510	0	0	0
1511	0	0	0
1512	0	0	0
1513	0	0	0
1514	0	0	0
1515	0	0	0
1516	0	0	0
1517	0	0	0
1518	0	0	0
1519	255	242	250
1520	252	217	239
1521	240	192	228
1522	250	200	240
1523	254	204	245
1524	255	204	246
1525	254	202	243
1526	251	197	239
1527	249	193	238
1528	248	191	239
1529	246	189	239
1530	254	199	246
1531	255	204	245
1532	250	203	240
1533	0	0	0
1534	0	0	0
1535	0	0	0
1536	0	0	0
1537	0	0	0
1538	0	0	0
1539	0	0	0
1540	0	0	0
1541	0	0	0
1542	0	0	0
1543	0	0	0
1544	0	0	0
1545	0	0	0
1546	0	0	0
1547	0	0	0
1548	255	235	245
1549	245	208	232
1550	243	200	232
1551	252	208	242
1552	252	205	242
1553	254	205	244
1554	252	203	241
1555	0	0	0
1556	0	0	0
1557	0	0	0
1558	0	0	0
1559	255	212	252
1560	247	203	241
1561	0	0	0
1562	0	0	0
1563	0	0	0
1564	0	0	0
1565	0	0	0
1566	0	0	0
1567	0	0	0
1568	0	0	0
1569	0	0	0
1570	0	0	0
1571	0	0	0
1572	0	0	0
1573	0	0	0
1574	0	0	0
1575	0	0	0
1576	0	0	0
1577	0	0	0
1578	250	218	238
1579	247	209	236
1580	249	209	238
1581	248	205	239
1582	251	206	242
1583	0	0	0
1584	0	0	0
1585	0	0	0
1586	0	0	0
1587	0	0	0
1588	0	0	0
1589	0	0	0
1590	0	0	0
1591	0	0	0
1592	0	0	0
1593	0	0	0
1594	0	0	0
1595	0	0	0
