 	R	G	B
1	0	0	0
2	0	0	0
3	0	0	0
4	0	0	0
5	0	0	0
6	0	0	0
7	0	0	0
8	0	0	0
9	0	0	0
10	0	0	0
11	0	0	0
12	0	0	0
13	0	0	0
14	0	0	0
15	0	0	0
16	0	0	0
17	0	0	0
18	0	0	0
19	0	0	0
20	0	0	0
21	0	0	0
22	0	0	0
23	0	0	0
24	0	0	0
25	0	0	0
26	0	0	0
27	0	0	0
28	0	0	0
29	0	0	0
30	0	0	0
31	0	0	0
32	0	0	0
33	255	243	233
34	255	239	228
35	255	233	222
36	0	0	0
37	0	0	0
38	0	0	0
39	0	0	0
40	0	0	0
41	0	0	0
42	0	0	0
43	0	0	0
44	0	0	0
45	0	0	0
46	0	0	0
47	0	0	0
48	0	0	0
49	0	0	0
50	0	0	0
51	0	0	0
52	0	0	0
53	0	0	0
54	0	0	0
55	0	0	0
56	0	0	0
57	0	0	0
58	0	0	0
59	0	0	0
60	0	0	0
61	0	0	0
62	0	0	0
63	0	0	0
64	0	0	0
65	0	0	0
66	0	0	0
67	0	0	0
68	0	0	0
69	0	0	0
70	0	0	0
71	0	0	0
72	0	0	0
73	0	0	0
74	0	0	0
75	0	0	0
76	0	0	0
77	0	0	0
78	0	0	0
79	0	0	0
80	0	0	0
81	0	0	0
82	0	0	0
83	0	0	0
84	0	0	0
85	0	0	0
86	0	0	0
87	0	0	0
88	0	0	0
89	0	0	0
90	0	0	0
91	0	0	0
92	0	0	0
93	0	0	0
94	0	0	0
95	0	0	0
96	0	0	0
97	0	0	0
98	0	0	0
99	0	0	0
100	0	0	0
101	0	0	0
102	0	0	0
103	0	0	0
104	0	0	0
105	0	0	0
106	0	0	0
107	0	0	0
108	0	0	0
109	0	0	0
110	0	0	0
111	0	0	0
112	0	0	0
113	0	0	0
114	0	0	0
115	0	0	0
116	0	0	0
117	0	0	0
118	0	0	0
119	0	0	0
120	0	0	0
121	0	0	0
122	0	0	0
123	0	0	0
124	0	0	0
125	255	234	229
126	255	223	219
127	254	220	215
128	254	218	212
129	255	221	211
130	255	226	212
131	255	219	208
132	254	216	211
133	255	223	215
134	255	222	208
135	255	223	206
136	255	226	208
137	255	229	211
138	255	228	212
139	255	225	210
140	255	228	212
141	255	230	213
142	255	224	209
143	255	228	212
144	0	0	0
145	0	0	0
146	0	0	0
147	0	0	0
148	0	0	0
149	0	0	0
150	0	0	0
151	0	0	0
152	0	0	0
153	0	0	0
154	0	0	0
155	0	0	0
156	0	0	0
157	0	0	0
158	0	0	0
159	0	0	0
160	0	0	0
161	0	0	0
162	0	0	0
163	0	0	0
164	0	0	0
165	0	0	0
166	0	0	0
167	0	0	0
168	0	0	0
169	0	0	0
170	0	0	0
171	0	0	0
172	0	0	0
173	0	0	0
174	0	0	0
175	0	0	0
176	0	0	0
177	0	0	0
178	0	0	0
179	0	0	0
180	0	0	0
181	0	0	0
182	0	0	0
183	0	0	0
184	0	0	0
185	0	0	0
186	0	0	0
187	0	0	0
188	0	0	0
189	0	0	0
190	0	0	0
191	0	0	0
192	0	0	0
193	0	0	0
194	0	0	0
195	0	0	0
196	0	0	0
197	0	0	0
198	0	0	0
199	0	0	0
200	0	0	0
201	0	0	0
202	0	0	0
203	0	0	0
204	0	0	0
205	0	0	0
206	0	0	0
207	0	0	0
208	0	0	0
209	0	0	0
210	0	0	0
211	0	0	0
212	0	0	0
213	0	0	0
214	0	0	0
215	0	0	0
216	255	234	228
217	255	224	221
218	255	217	216
219	251	207	208
220	254	209	209
221	254	208	207
222	255	215	210
223	255	220	212
224	255	217	210
225	255	214	210
226	255	218	212
227	255	219	208
228	255	219	204
229	255	220	202
230	255	219	201
231	255	219	205
232	255	224	210
233	255	228	211
234	255	225	209
235	255	221	206
236	255	229	212
237	255	236	216
238	255	235	213
239	255	238	212
240	255	235	210
241	255	233	212
242	255	233	214
243	255	232	214
244	255	236	217
245	255	239	215
246	255	241	217
247	255	247	226
248	0	0	0
249	0	0	0
250	0	0	0
251	0	0	0
252	0	0	0
253	0	0	0
254	0	0	0
255	0	0	0
256	0	0	0
257	0	0	0
258	0	0	0
259	0	0	0
260	0	0	0
261	0	0	0
262	0	0	0
263	0	0	0
264	0	0	0
265	0	0	0
266	0	0	0
267	0	0	0
268	0	0	0
269	0	0	0
270	0	0	0
271	0	0	0
272	0	0	0
273	0	0	0
274	0	0	0
275	0	0	0
276	0	0	0
277	0	0	0
278	0	0	0
279	0	0	0
280	0	0	0
281	0	0	0
282	0	0	0
283	0	0	0
284	0	0	0
285	0	0	0
286	0	0	0
287	0	0	0
288	0	0	0
289	0	0	0
290	0	0	0
291	0	0	0
292	0	0	0
293	0	0	0
294	0	0	0
295	0	0	0
296	0	0	0
297	0	0	0
298	0	0	0
299	0	0	0
300	0	0	0
301	0	0	0
302	0	0	0
303	0	0	0
304	0	0	0
305	0	0	0
306	0	0	0
307	255	231	226
308	255	227	223
309	255	218	217
310	254	210	212
311	253	204	208
312	250	197	204
313	254	200	207
314	251	194	203
315	255	200	206
316	255	203	208
317	255	200	205
318	249	188	196
319	252	192	198
320	255	199	199
321	255	199	195
322	255	203	194
323	255	202	193
324	255	199	196
325	255	204	201
326	255	199	195
327	253	196	192
328	252	196	193
329	255	204	198
330	255	205	196
331	254	205	194
332	255	212	197
333	254	208	194
334	255	210	196
335	255	210	198
336	255	211	200
337	255	215	202
338	255	217	199
339	255	219	201
340	255	224	208
341	255	221	207
342	255	227	209
343	255	222	205
344	255	221	208
345	0	0	0
346	0	0	0
347	0	0	0
348	0	0	0
349	0	0	0
350	255	237	222
351	0	0	0
352	0	0	0
353	0	0	0
354	0	0	0
355	0	0	0
356	0	0	0
357	0	0	0
358	0	0	0
359	0	0	0
360	0	0	0
361	0	0	0
362	0	0	0
363	0	0	0
364	0	0	0
365	0	0	0
366	0	0	0
367	0	0	0
368	0	0	0
369	0	0	0
370	0	0	0
371	0	0	0
372	0	0	0
373	0	0	0
374	0	0	0
375	0	0	0
376	0	0	0
377	0	0	0
378	0	0	0
379	0	0	0
380	0	0	0
381	0	0	0
382	0	0	0
383	0	0	0
384	0	0	0
385	0	0	0
386	0	0	0
387	0	0	0
388	0	0	0
389	0	0	0
390	0	0	0
391	0	0	0
392	0	0	0
393	0	0	0
394	253	240	238
395	255	244	241
396	255	240	237
397	255	235	229
398	255	227	222
399	254	218	217
400	255	216	217
401	255	212	215
402	253	204	210
403	251	197	204
404	251	193	203
405	250	186	202
406	250	185	203
407	247	179	198
408	250	182	201
409	254	186	204
410	248	175	197
411	239	163	187
412	247	174	193
413	251	180	194
414	254	185	194
415	255	190	194
416	255	186	193
417	254	183	196
418	254	182	196
419	249	176	189
420	249	176	187
421	248	176	186
422	250	179	188
423	248	180	187
424	251	186	190
425	255	195	195
426	255	194	194
427	255	196	194
428	255	197	196
429	255	198	198
430	255	203	200
431	255	204	197
432	255	206	197
433	255	210	202
434	255	216	207
435	255	223	210
436	255	220	208
437	255	217	209
438	255	221	211
439	255	224	212
440	255	230	215
441	255	239	222
442	255	237	222
443	255	235	221
444	255	236	223
445	0	0	0
446	0	0	0
447	0	0	0
448	0	0	0
449	0	0	0
450	0	0	0
451	0	0	0
452	0	0	0
453	0	0	0
454	0	0	0
455	0	0	0
456	0	0	0
457	0	0	0
458	0	0	0
459	0	0	0
460	0	0	0
461	0	0	0
462	0	0	0
463	0	0	0
464	0	0	0
465	0	0	0
466	0	0	0
467	0	0	0
468	0	0	0
469	0	0	0
470	0	0	0
471	0	0	0
472	0	0	0
473	0	0	0
474	0	0	0
475	0	0	0
476	0	0	0
477	0	0	0
478	0	0	0
479	0	0	0
480	0	0	0
481	0	0	0
482	0	0	0
483	0	0	0
484	0	0	0
485	0	0	0
486	252	241	238
487	255	248	244
488	255	232	234
489	255	228	228
490	255	222	220
491	253	215	213
492	253	209	212
493	255	208	214
494	254	201	211
495	252	194	207
496	252	190	204
497	253	186	203
498	248	176	201
499	249	174	202
500	253	178	204
501	255	181	207
502	255	179	207
503	251	170	201
504	249	165	197
505	255	177	203
506	252	169	195
507	255	175	197
508	255	174	196
509	254	170	194
510	253	167	196
511	252	165	196
512	248	159	189
513	248	160	188
514	252	167	191
515	253	170	192
516	249	167	189
517	252	173	192
518	255	185	200
519	255	185	198
520	251	175	189
521	252	176	190
522	253	179	194
523	255	183	195
524	251	180	189
525	251	182	189
526	254	187	193
527	255	193	198
528	253	190	195
529	250	186	192
530	249	188	193
531	249	191	194
532	255	209	205
533	255	215	208
534	255	219	210
535	255	216	209
536	251	210	207
537	249	212	209
538	0	0	0
539	0	0	0
540	0	0	0
541	0	0	0
542	0	0	0
543	0	0	0
544	0	0	0
545	0	0	0
546	0	0	0
547	0	0	0
548	0	0	0
549	0	0	0
550	0	0	0
551	0	0	0
552	0	0	0
553	0	0	0
554	0	0	0
555	0	0	0
556	0	0	0
557	0	0	0
558	0	0	0
559	0	0	0
560	0	0	0
561	0	0	0
562	0	0	0
563	0	0	0
564	0	0	0
565	0	0	0
566	0	0	0
567	0	0	0
568	0	0	0
569	0	0	0
570	0	0	0
571	0	0	0
572	0	0	0
573	0	0	0
574	0	0	0
575	0	0	0
576	0	0	0
577	0	0	0
578	0	0	0
579	255	246	241
580	255	232	233
581	248	216	223
582	248	213	220
583	248	208	212
584	248	202	207
585	247	196	205
586	247	191	204
587	247	185	204
588	248	182	204
589	249	178	202
590	247	170	200
591	242	160	196
592	249	167	202
593	253	171	204
594	251	167	201
595	250	164	199
596	252	163	200
597	251	160	199
598	251	158	198
599	246	151	191
600	247	152	191
601	249	153	194
602	247	148	192
603	244	143	188
604	243	141	187
605	240	136	186
606	246	145	192
607	249	151	193
608	246	149	189
609	242	147	186
610	249	158	192
611	255	169	198
612	249	159	190
613	241	149	181
614	244	153	184
615	246	156	187
616	244	154	184
617	240	151	179
618	242	155	180
619	244	160	185
620	241	158	183
621	238	155	182
622	240	160	184
623	239	161	182
624	249	180	192
625	255	198	201
626	255	200	201
627	255	204	204
628	253	198	202
629	247	193	201
630	255	211	212
631	255	230	221
632	255	226	215
633	255	226	216
634	255	229	219
635	255	232	219
636	255	231	219
637	255	231	224
638	255	233	226
639	255	237	231
640	0	0	0
641	0	0	0
642	0	0	0
643	0	0	0
644	0	0	0
645	0	0	0
646	0	0	0
647	0	0	0
648	0	0	0
649	0	0	0
650	0	0	0
651	0	0	0
652	0	0	0
653	0	0	0
654	0	0	0
655	0	0	0
656	0	0	0
657	0	0	0
658	0	0	0
659	0	0	0
660	0	0	0
661	0	0	0
662	0	0	0
663	0	0	0
664	0	0	0
665	0	0	0
666	0	0	0
667	0	0	0
668	0	0	0
669	0	0	0
670	0	0	0
671	0	0	0
672	255	243	238
673	254	227	229
674	250	217	224
675	251	214	221
676	255	216	220
677	255	211	216
678	252	198	208
679	251	192	207
680	255	194	212
681	255	191	213
682	254	181	210
683	252	173	207
684	248	163	203
685	255	170	208
686	255	173	209
687	255	169	206
688	253	162	202
689	255	161	203
690	251	154	200
691	252	152	201
692	251	149	198
693	253	150	200
694	254	150	202
695	252	146	200
696	249	141	195
697	248	138	195
698	249	140	199
699	255	149	205
700	252	147	200
701	249	145	196
702	253	152	200
703	255	164	206
704	255	158	200
705	249	148	192
706	248	146	189
707	251	151	193
708	254	156	197
709	252	155	195
710	248	151	190
711	250	156	193
712	255	164	199
713	252	161	197
714	247	157	194
715	249	161	196
716	251	166	196
717	255	185	205
718	255	179	199
719	254	181	198
720	249	178	196
721	243	173	193
722	251	187	204
723	255	204	213
724	255	209	209
725	255	204	202
726	252	202	203
727	254	205	206
728	252	206	205
729	249	204	204
730	255	215	215
731	254	217	218
732	255	221	220
733	252	219	219
734	255	232	227
735	255	230	225
736	0	0	0
737	0	0	0
738	0	0	0
739	0	0	0
740	0	0	0
741	0	0	0
742	0	0	0
743	0	0	0
744	0	0	0
745	0	0	0
746	0	0	0
747	0	0	0
748	0	0	0
749	0	0	0
750	0	0	0
751	0	0	0
752	0	0	0
753	0	0	0
754	0	0	0
755	0	0	0
756	0	0	0
757	0	0	0
758	0	0	0
759	0	0	0
760	0	0	0
761	0	0	0
762	0	0	0
763	0	0	0
764	254	237	233
765	255	234	230
766	251	223	224
767	248	213	219
768	255	219	225
769	255	221	225
770	255	210	217
771	254	197	210
772	255	198	212
773	255	198	214
774	255	188	211
775	255	179	212
776	254	173	211
777	250	163	205
778	255	168	209
779	255	170	209
780	254	162	203
781	252	156	202
782	248	148	199
783	244	140	196
784	247	140	198
785	247	138	197
786	248	138	198
787	248	137	197
788	246	133	195
789	245	130	196
790	248	133	199
791	248	133	200
792	247	134	198
793	245	133	195
794	250	141	200
795	255	149	206
796	250	143	201
797	247	138	195
798	247	138	193
799	246	136	191
800	252	144	197
801	255	150	201
802	252	147	199
803	248	143	195
804	250	149	198
805	255	157	204
806	251	152	200
807	246	148	196
808	252	157	201
809	253	162	202
810	248	157	197
811	243	153	194
812	240	151	192
813	235	147	187
814	244	163	197
815	251	177	205
816	252	183	204
817	252	187	201
818	247	183	197
819	246	181	200
820	246	184	203
821	245	184	201
822	247	191	204
823	251	200	209
824	250	202	208
825	250	205	209
826	255	215	213
827	255	227	219
828	255	223	216
829	253	221	217
830	255	227	224
831	255	233	231
832	255	232	232
833	255	234	235
834	255	237	237
835	0	0	0
836	0	0	0
837	0	0	0
838	0	0	0
839	0	0	0
840	0	0	0
841	0	0	0
842	0	0	0
843	0	0	0
844	0	0	0
845	0	0	0
846	0	0	0
847	0	0	0
848	0	0	0
849	0	0	0
850	0	0	0
851	0	0	0
852	0	0	0
853	0	0	0
854	0	0	0
855	0	0	0
856	0	0	0
857	0	0	0
858	254	237	231
859	252	227	225
860	252	219	223
861	255	226	230
862	254	206	217
863	250	194	209
864	255	195	212
865	255	195	214
866	253	183	206
867	249	172	204
868	255	175	212
869	253	168	212
870	252	163	208
871	255	168	213
872	250	156	203
873	246	147	198
874	255	161	209
875	254	153	207
876	253	149	207
877	255	150	210
878	251	140	205
879	252	140	205
880	252	139	204
881	250	135	203
882	252	136	207
883	254	139	210
884	251	135	205
885	250	136	204
886	255	146	209
887	255	154	214
888	253	142	206
889	249	136	201
890	255	150	209
891	255	150	208
892	247	131	195
893	253	139	202
894	252	139	201
895	248	136	199
896	254	147	205
897	255	152	209
898	255	160	215
899	255	155	211
900	249	146	202
901	255	155	207
902	254	156	206
903	249	153	203
904	255	166	213
905	254	164	211
906	246	155	203
907	255	171	212
908	255	175	213
909	255	180	212
910	255	181	207
911	251	177	204
912	250	177	208
913	250	179	210
914	252	185	210
915	254	191	212
916	254	196	212
917	252	197	211
918	252	201	211
919	255	210	214
920	255	216	214
921	252	211	210
922	252	213	215
923	255	219	222
924	253	221	225
925	248	218	224
926	253	229	232
927	255	232	234
928	252	229	231
929	0	0	0
930	0	0	0
931	0	0	0
932	0	0	0
933	0	0	0
934	0	0	0
935	0	0	0
936	0	0	0
937	0	0	0
938	0	0	0
939	0	0	0
940	0	0	0
941	0	0	0
942	0	0	0
943	0	0	0
944	0	0	0
945	0	0	0
946	0	0	0
947	0	0	0
948	0	0	0
949	0	0	0
950	252	237	232
951	255	246	238
952	255	234	230
953	255	226	228
954	254	210	220
955	245	190	208
956	252	192	213
957	255	193	215
958	251	181	208
959	246	169	204
960	249	169	208
961	253	170	212
962	251	164	211
963	251	159	210
964	245	149	205
965	239	138	199
966	250	151	207
967	255	163	214
968	255	157	211
969	255	154	214
970	253	145	210
971	247	134	204
972	249	135	206
973	250	134	207
974	250	135	209
975	251	135	210
976	250	135	209
977	247	131	204
978	255	143	212
979	255	153	217
980	254	141	207
981	244	128	196
982	253	140	204
983	255	154	212
984	252	136	200
985	240	117	192
986	245	124	199
987	244	123	197
988	252	136	205
989	255	147	211
990	255	153	215
991	255	161	223
992	255	151	215
993	248	141	203
994	250	145	205
995	250	147	208
996	255	158	215
997	255	170	220
998	254	160	212
999	247	152	207
1000	251	160	213
1001	252	165	214
1002	251	166	213
1003	250	168	210
1004	247	166	208
1005	246	165	209
1006	250	173	212
1007	250	177	209
1008	249	181	209
1009	251	187	214
1010	252	191	217
1011	253	195	217
1012	255	202	220
1013	255	208	220
1014	254	207	217
1015	253	208	218
1016	252	209	220
1017	249	209	219
1018	250	216	224
1019	255	227	233
1020	253	224	232
1021	249	221	230
1022	250	228	233
1023	0	0	0
1024	0	0	0
1025	0	0	0
1026	0	0	0
1027	0	0	0
1028	0	0	0
1029	0	0	0
1030	0	0	0
1031	0	0	0
1032	0	0	0
1033	0	0	0
1034	0	0	0
1035	0	0	0
1036	0	0	0
1037	0	0	0
1038	0	0	0
1039	0	0	0
1040	0	0	0
1041	0	0	0
1042	247	231	228
1043	255	242	237
1044	255	235	231
1045	253	222	222
1046	255	222	226
1047	253	205	218
1048	247	189	211
1049	254	192	217
1050	254	187	215
1051	248	174	209
1052	251	174	213
1053	255	174	217
1054	252	167	214
1055	250	161	211
1056	255	166	217
1057	250	156	213
1058	250	154	213
1059	255	166	221
1060	255	159	213
1061	254	152	210
1062	251	146	210
1063	247	137	207
1064	252	142	213
1065	254	142	215
1066	253	141	214
1067	254	141	215
1068	255	147	218
1069	255	146	216
1070	246	131	206
1071	255	145	216
1072	255	146	215
1073	249	133	203
1074	250	135	203
1075	255	148	211
1076	255	150	212
1077	250	131	201
1078	247	125	202
1079	253	132	209
1080	251	130	206
1081	255	143	215
1082	253	137	209
1083	254	141	212
1084	255	147	218
1085	249	137	210
1086	255	147	213
1087	255	151	216
1088	248	140	208
1089	254	151	215
1090	255	162	218
1091	250	152	210
1092	253	157	216
1093	255	166	223
1094	255	168	223
1095	255	170	223
1096	251	164	217
1097	247	162	215
1098	251	169	220
1099	255	177	222
1100	249	172	212
1101	248	175	212
1102	255	192	224
1103	255	198	228
1104	253	189	221
1105	255	196	225
1106	253	196	221
1107	250	195	218
1108	252	201	222
1109	250	201	220
1110	253	210	224
1111	255	217	229
1112	255	223	233
1113	252	219	230
1114	253	222	233
1115	255	230	238
1116	253	227	234
1117	0	0	0
1118	0	0	0
1119	0	0	0
1120	0	0	0
1121	0	0	0
1122	0	0	0
1123	0	0	0
1124	0	0	0
1125	0	0	0
1126	0	0	0
1127	0	0	0
1128	0	0	0
1129	0	0	0
1130	0	0	0
1131	0	0	0
1132	0	0	0
1133	0	0	0
1134	0	0	0
1135	251	235	231
1136	254	229	228
1137	253	222	222
1138	252	216	219
1139	255	216	223
1140	251	200	216
1141	245	184	209
1142	248	182	213
1143	248	177	212
1144	248	174	212
1145	250	172	213
1146	248	167	212
1147	246	160	211
1148	251	164	216
1149	255	168	219
1150	254	164	217
1151	253	161	215
1152	251	155	210
1153	247	148	206
1154	244	140	203
1155	241	133	201
1156	249	141	211
1157	254	147	219
1158	255	146	219
1159	253	143	216
1160	255	149	218
1161	255	154	220
1162	249	140	211
1163	241	128	205
1164	249	134	211
1165	250	135	209
1166	251	136	208
1167	253	139	209
1168	255	140	211
1169	255	143	213
1170	253	135	208
1171	249	128	204
1172	251	130	207
1173	250	128	208
1174	249	127	207
1175	242	121	202
1176	243	124	203
1177	245	129	206
1178	251	139	212
1179	255	150	220
1180	251	141	213
1181	240	128	203
1182	246	140	209
1183	253	152	217
1184	253	155	218
1185	255	160	220
1186	255	162	221
1187	254	163	220
1188	244	154	214
1189	238	149	211
1190	239	155	216
1191	244	163	220
1192	245	164	218
1193	240	159	211
1194	248	174	218
1195	255	190	227
1196	248	181	219
1197	240	172	213
1198	239	173	213
1199	238	174	213
1200	241	181	217
1201	243	187	220
1202	248	197	224
1203	251	205	228
1204	251	209	228
1205	251	213	228
1206	248	214	227
1207	249	218	230
1208	249	217	229
1209	0	0	0
1210	0	0	0
1211	0	0	0
1212	0	0	0
1213	0	0	0
1214	0	0	0
1215	0	0	0
1216	0	0	0
1217	0	0	0
1218	0	0	0
1219	0	0	0
1220	0	0	0
1221	0	0	0
1222	0	0	0
1223	0	0	0
1224	0	0	0
1225	0	0	0
1226	0	0	0
1227	0	0	0
1228	253	234	231
1229	254	227	227
1230	253	220	222
1231	251	214	219
1232	255	223	227
1233	255	207	220
1234	245	183	210
1235	247	181	213
1236	253	186	219
1237	253	183	218
1238	255	186	222
1239	255	179	220
1240	250	168	216
1241	254	172	220
1242	255	175	223
1243	255	171	220
1244	255	167	217
1245	252	161	213
1246	255	164	217
1247	253	157	214
1248	251	151	213
1249	255	158	222
1250	253	148	219
1251	253	147	219
1252	254	148	218
1253	255	153	220
1254	255	153	219
1255	246	140	211
1256	247	138	214
1257	255	146	221
1258	253	141	214
1259	255	143	214
1260	255	147	218
1261	255	149	220
1262	253	137	214
1263	249	129	209
1264	254	136	213
1265	255	138	215
1266	251	129	212
1267	250	129	213
1268	249	130	212
1269	250	133	213
1270	255	146	219
1271	255	155	226
1272	253	141	218
1273	246	132	212
1274	248	138	213
1275	252	149	219
1276	255	159	226
1277	255	162	228
1278	251	153	220
1279	251	155	221
1280	249	159	222
1281	234	148	213
1282	242	166	226
1283	245	173	231
1284	244	172	229
1285	249	175	230
1286	246	171	225
1287	255	187	233
1288	254	189	230
1289	244	179	220
1290	246	185	224
1291	244	186	224
1292	246	191	227
1293	250	199	232
1294	250	199	232
1295	255	209	237
1296	253	209	234
1297	250	211	231
1298	252	219	233
1299	249	220	231
1300	245	216	229
1301	0	0	0
1302	0	0	0
1303	0	0	0
1304	0	0	0
1305	0	0	0
1306	0	0	0
1307	0	0	0
1308	0	0	0
1309	0	0	0
1310	0	0	0
1311	0	0	0
1312	0	0	0
1313	0	0	0
1314	0	0	0
1315	0	0	0
1316	0	0	0
1317	0	0	0
1318	0	0	0
1319	0	0	0
1320	254	234	233
1321	255	236	234
1322	255	227	228
1323	253	219	223
1324	255	221	224
1325	255	229	229
1326	253	203	214
1327	242	179	207
1328	251	188	217
1329	255	192	218
1330	255	192	219
1331	255	195	226
1332	255	185	222
1333	250	173	217
1334	255	178	222
1335	255	181	225
1336	255	178	224
1337	255	174	222
1338	255	176	223
1339	255	178	226
1340	255	169	221
1341	255	163	217
1342	251	153	214
1343	245	142	211
1344	250	148	217
1345	251	150	218
1346	253	151	218
1347	254	152	220
1348	250	148	219
1349	252	147	222
1350	255	149	224
1351	254	144	216
1352	255	149	219
1353	255	155	225
1354	255	142	219
1355	248	131	215
1356	254	138	220
1357	255	144	222
1358	253	135	216
1359	247	126	215
1360	250	131	219
1361	249	132	218
1362	254	142	221
1363	255	154	225
1364	246	136	213
1365	235	121	205
1366	240	132	213
1367	241	138	213
1368	243	145	216
1369	247	153	221
1370	239	143	215
1371	233	135	210
1372	238	143	218
1373	236	147	220
1374	238	161	228
1375	246	179	239
1376	243	177	236
1377	242	176	231
1378	246	177	232
1379	244	174	230
1380	247	179	232
1381	245	181	227
1382	243	185	225
1383	246	192	229
1384	247	196	230
1385	249	200	232
1386	250	202	234
1387	250	203	234
1388	252	207	236
1389	248	206	231
1390	247	212	231
1391	0	0	0
1392	0	0	0
1393	0	0	0
1394	0	0	0
1395	0	0	0
1396	0	0	0
1397	0	0	0
1398	0	0	0
1399	0	0	0
1400	0	0	0
1401	0	0	0
1402	0	0	0
1403	0	0	0
1404	0	0	0
1405	0	0	0
1406	0	0	0
1407	0	0	0
1408	0	0	0
1409	0	0	0
1410	0	0	0
1411	0	0	0
1412	0	0	0
1413	255	228	229
1414	255	233	230
1415	254	222	221
1416	255	221	221
1417	255	222	222
1418	255	222	222
1419	248	197	207
1420	249	191	210
1421	255	199	219
1422	255	200	218
1423	255	199	219
1424	255	197	222
1425	255	186	218
1426	255	183	219
1427	255	188	224
1428	255	184	223
1429	255	181	223
1430	253	171	217
1431	255	172	220
1432	255	174	221
1433	252	165	215
1434	255	172	220
1435	253	162	216
1436	251	157	218
1437	255	163	225
1438	255	162	224
1439	255	163	226
1440	253	154	223
1441	252	152	223
1442	255	154	228
1443	255	155	229
1444	249	138	214
1445	254	144	218
1446	255	149	223
1447	250	136	217
1448	248	132	219
1449	255	140	226
1450	255	143	225
1451	249	133	219
1452	248	131	221
1453	250	135	225
1454	251	140	226
1455	255	150	229
1456	255	159	231
1457	244	141	217
1458	240	139	219
1459	241	148	225
1460	242	154	225
1461	247	162	229
1462	246	163	228
1463	237	153	221
1464	247	167	232
1465	253	176	240
1466	244	169	234
1467	247	184	243
1468	250	191	246
1469	250	190	243
1470	247	185	238
1471	247	184	236
1472	248	186	238
1473	251	192	240
1474	247	192	234
1475	243	195	231
1476	244	198	231
1477	251	206	235
1478	255	210	238
1479	255	212	238
1480	252	208	237
1481	252	211	237
1482	247	211	232
1483	244	217	232
1484	0	0	0
1485	0	0	0
1486	0	0	0
1487	0	0	0
1488	0	0	0
1489	0	0	0
1490	0	0	0
1491	0	0	0
1492	0	0	0
1493	0	0	0
1494	0	0	0
1495	0	0	0
1496	0	0	0
1497	0	0	0
1498	0	0	0
1499	0	0	0
1500	0	0	0
1501	0	0	0
1502	0	0	0
1503	0	0	0
1504	0	0	0
1505	252	222	226
1506	255	228	228
1507	255	231	223
1508	255	227	217
1509	255	226	218
1510	255	224	219
1511	255	226	224
1512	255	219	222
1513	255	210	218
1514	255	213	221
1515	255	214	224
1516	255	209	223
1517	255	206	223
1518	255	201	222
1519	255	198	224
1520	255	194	223
1521	255	190	221
1522	255	181	217
1523	252	171	215
1524	254	173	219
1525	255	175	219
1526	255	178	221
1527	255	184	226
1528	255	176	223
1529	255	171	224
1530	255	171	227
1531	255	169	227
1532	253	161	223
1533	248	152	221
1534	250	153	224
1535	253	155	227
1536	246	142	219
1537	237	127	208
1538	241	131	211
1539	245	136	213
1540	242	131	211
1541	241	127	215
1542	245	132	222
1543	246	134	222
1544	241	130	219
1545	238	128	219
1546	241	134	224
1547	242	139	226
1548	245	147	229
1549	249	157	230
1550	243	153	226
1551	238	150	227
1552	237	157	231
1553	238	164	232
1554	239	166	232
1555	239	167	232
1556	247	180	238
1557	255	194	246
1558	254	191	243
1559	245	183	237
1560	242	187	239
1561	243	193	241
1562	241	189	237
1563	239	185	235
1564	242	189	236
1565	243	190	236
1566	245	195	236
1567	243	197	232
1568	240	199	230
1569	242	203	232
1570	249	210	236
1571	253	215	238
1572	251	212	235
1573	248	208	233
1574	251	215	235
1575	247	215	231
1576	243	219	230
1577	247	227	235
1578	0	0	0
1579	0	0	0
1580	0	0	0
1581	0	0	0
1582	0	0	0
1583	0	0	0
1584	0	0	0
1585	0	0	0
1586	0	0	0
1587	0	0	0
1588	0	0	0
1589	0	0	0
1590	0	0	0
1591	0	0	0
1592	0	0	0
1593	0	0	0
1594	0	0	0
1595	0	0	0
1596	0	0	0
1597	255	228	228
1598	255	221	222
1599	255	227	223
1600	255	219	210
1601	255	215	205
1602	255	217	209
1603	255	215	211
1604	255	209	211
1605	255	199	207
1606	254	195	204
1607	255	198	207
1608	255	202	213
1609	255	196	211
1610	255	190	208
1611	253	185	207
1612	255	194	216
1613	255	189	214
1614	255	186	214
1615	254	177	211
1616	251	171	212
1617	253	173	216
1618	255	183	221
1619	255	184	223
1620	255	180	221
1621	251	171	217
1622	255	180	227
1623	255	179	229
1624	253	170	226
1625	249	162	223
1626	251	163	227
1627	252	164	230
1628	252	162	230
1629	245	149	223
1630	245	147	224
1631	249	152	227
1632	249	152	224
1633	248	148	222
1634	250	148	228
1635	253	152	234
1636	250	151	233
1637	243	145	229
1638	248	156	236
1639	251	162	240
1640	249	165	241
1641	250	172	242
1642	248	174	239
1643	245	171	236
1644	239	167	234
1645	238	174	238
1646	242	184	242
1647	243	185	242
1648	243	185	240
1649	251	198	246
1650	250	196	241
1651	249	194	238
1652	243	190	236
1653	237	193	236
1654	238	201	239
1655	232	194	232
1656	240	204	240
1657	246	210	244
1658	242	204	238
1659	245	209	238
1660	245	211	236
1661	247	217	238
1662	242	210	235
1663	244	214	236
1664	246	217	235
1665	244	214	232
1666	247	217	233
1667	255	226	239
1668	249	220	232
1669	246	224	232
1670	0	0	0
1671	0	0	0
1672	0	0	0
1673	0	0	0
1674	0	0	0
1675	0	0	0
1676	0	0	0
1677	0	0	0
1678	0	0	0
1679	0	0	0
1680	0	0	0
1681	0	0	0
1682	0	0	0
1683	0	0	0
1684	0	0	0
1685	0	0	0
1686	0	0	0
1687	0	0	0
1688	0	0	0
1689	255	232	227
1690	255	229	224
1691	255	221	215
1692	255	219	212
1693	255	214	207
1694	255	217	210
1695	255	219	212
1696	255	210	207
1697	255	201	204
1698	255	197	204
1699	255	194	205
1700	255	197	209
1701	255	199	211
1702	255	193	208
1703	255	187	207
1704	255	193	212
1705	255	200	216
1706	255	192	212
1707	255	190	214
1708	255	183	214
1709	255	176	213
1710	255	187	222
1711	255	195	226
1712	255	186	220
1713	255	181	221
1714	255	185	225
1715	255	192	231
1716	255	180	226
1717	251	172	226
1718	252	173	230
1719	253	173	231
1720	248	167	228
1721	248	165	230
1722	249	164	232
1723	248	162	233
1724	247	162	233
1725	246	162	229
1726	245	159	227
1727	247	159	231
1728	250	161	235
1729	246	159	234
1730	247	168	239
1731	250	179	246
1732	248	180	244
1733	246	182	243
1734	244	184	242
1735	244	186	241
1736	242	184	239
1737	237	180	236
1738	242	191	242
1739	246	201	246
1740	246	202	245
1741	245	202	243
1742	244	201	239
1743	243	198	234
1744	244	199	234
1745	239	196	234
1746	237	203	238
1747	238	211	240
1748	244	220	244
1749	252	229	248
1750	250	225	244
1751	245	218	239
1752	246	222	240
1753	248	225	239
1754	246	222	237
1755	242	216	235
1756	244	221	238
1757	246	223	237
1758	250	227	237
1759	254	229	237
1760	255	230	238
1761	0	0	0
1762	0	0	0
1763	0	0	0
1764	0	0	0
1765	0	0	0
1766	0	0	0
1767	0	0	0
1768	0	0	0
1769	0	0	0
1770	0	0	0
1771	0	0	0
1772	0	0	0
1773	0	0	0
1774	0	0	0
1775	0	0	0
1776	0	0	0
1777	0	0	0
1778	0	0	0
1779	0	0	0
1780	0	0	0
1781	255	232	225
1782	255	228	222
1783	255	225	219
1784	254	204	202
1785	255	204	202
1786	255	196	197
1787	255	200	202
1788	255	187	195
1789	250	178	191
1790	251	177	191
1791	250	173	191
1792	255	184	202
1793	255	186	204
1794	255	178	199
1795	251	171	196
1796	252	171	199
1797	255	176	203
1798	255	182	205
1799	252	173	199
1800	255	182	209
1801	254	174	207
1802	251	170	207
1803	255	180	215
1804	255	179	214
1805	247	170	209
1806	255	183	221
1807	255	186	225
1808	255	193	228
1809	251	180	221
1810	253	181	228
1811	255	182	232
1812	255	183	233
1813	249	176	230
1814	252	180	235
1815	252	178	237
1816	245	170	234
1817	241	169	232
1818	242	174	231
1819	239	170	228
1820	247	178	236
1821	253	182	241
1822	244	173	235
1823	241	180	237
1824	244	192	244
1825	239	192	241
1826	244	202	244
1827	247	207	246
1828	241	197	240
1829	239	196	238
1830	244	204	243
1831	254	217	252
1832	247	208	243
1833	244	208	240
1834	241	206	238
1835	239	205	235
1836	243	212	236
1837	241	210	235
1838	0	0	0
1839	0	0	0
1840	0	0	0
1841	0	0	0
1842	0	0	0
1843	244	218	234
1844	243	221	235
1845	243	224	236
1846	245	229	237
1847	244	226	236
1848	240	219	235
1849	246	226	240
1850	249	227	238
1851	0	0	0
1852	0	0	0
1853	0	0	0
1854	0	0	0
1855	0	0	0
1856	0	0	0
1857	0	0	0
1858	0	0	0
1859	0	0	0
1860	0	0	0
1861	0	0	0
1862	0	0	0
1863	0	0	0
1864	0	0	0
1865	0	0	0
1866	0	0	0
1867	0	0	0
1868	0	0	0
1869	0	0	0
1870	0	0	0
1871	0	0	0
1872	0	0	0
1873	255	233	226
1874	255	231	224
1875	255	228	220
1876	255	212	211
1877	255	194	201
1878	255	190	199
1879	253	180	191
1880	249	170	186
1881	245	159	185
1882	249	162	191
1883	249	161	192
1884	255	170	198
1885	255	178	203
1886	255	170	197
1887	252	162	194
1888	251	161	196
1889	251	161	199
1890	254	166	203
1891	255	172	205
1892	255	175	206
1893	255	181	212
1894	255	174	208
1895	252	169	206
1896	251	169	208
1897	250	170	212
1898	255	180	220
1899	255	191	227
1900	255	193	227
1901	255	198	228
1902	255	191	223
1903	255	191	228
1904	255	193	234
1905	255	195	236
1906	255	194	237
1907	255	196	241
1908	255	189	238
1909	247	181	235
1910	246	186	237
1911	247	191	236
1912	248	195	237
1913	255	202	245
1914	255	200	245
1915	248	191	237
1916	249	204	244
1917	252	216	250
1918	253	223	251
1919	255	233	252
1920	252	223	245
1921	246	215	242
1922	250	223	248
1923	255	232	253
1924	254	225	248
1925	248	217	240
1926	246	216	239
1927	244	216	238
1928	248	224	242
1929	0	0	0
1930	0	0	0
1931	0	0	0
1932	0	0	0
1933	0	0	0
1934	0	0	0
1935	0	0	0
1936	0	0	0
1937	0	0	0
1938	0	0	0
1939	251	239	242
1940	245	231	236
1941	242	224	236
1942	245	227	238
1943	249	230	237
1944	250	224	233
1945	0	0	0
1946	0	0	0
1947	0	0	0
1948	0	0	0
1949	0	0	0
1950	0	0	0
1951	0	0	0
1952	0	0	0
1953	0	0	0
1954	0	0	0
1955	0	0	0
1956	0	0	0
1957	0	0	0
1958	0	0	0
1959	0	0	0
1960	0	0	0
1961	0	0	0
1962	0	0	0
1963	0	0	0
1964	0	0	0
1965	255	235	230
1966	255	227	223
1967	255	226	222
1968	255	197	203
1969	251	183	196
1970	251	176	197
1971	253	172	197
1972	251	164	190
1973	248	155	187
1974	249	152	193
1975	253	154	199
1976	251	150	196
1977	255	159	200
1978	255	159	198
1979	250	149	192
1980	247	145	191
1981	246	144	193
1982	255	159	205
1983	255	163	208
1984	253	160	204
1985	254	162	205
1986	253	163	205
1987	246	155	200
1988	254	168	208
1989	252	168	210
1990	253	172	215
1991	255	181	221
1992	255	187	224
1993	255	188	222
1994	255	192	222
1995	248	184	216
1996	255	195	226
1997	255	195	229
1998	255	196	232
1999	255	196	234
2000	255	200	238
2001	253	192	235
2002	248	188	233
2003	247	193	236
2004	247	198	236
2005	249	201	237
2006	251	204	240
2007	250	200	237
2008	245	196	232
2009	249	210	240
2010	248	215	241
2011	253	224	244
2012	253	226	240
2013	243	214	230
2014	241	214	234
2015	245	222	240
2016	249	228	243
2017	247	222	238
2018	0	0	0
2019	247	222	237
2020	244	218	234
2021	0	0	0
2022	0	0	0
2023	0	0	0
2024	0	0	0
2025	0	0	0
2026	0	0	0
2027	0	0	0
2028	0	0	0
2029	0	0	0
2030	0	0	0
2031	0	0	0
2032	0	0	0
2033	0	0	0
2034	245	230	239
2035	248	234	241
2036	249	232	238
2037	0	0	0
2038	0	0	0
2039	0	0	0
2040	0	0	0
2041	0	0	0
2042	0	0	0
2043	0	0	0
2044	0	0	0
2045	0	0	0
2046	0	0	0
2047	0	0	0
2048	0	0	0
2049	0	0	0
2050	0	0	0
2051	0	0	0
2052	0	0	0
2053	0	0	0
2054	0	0	0
2055	0	0	0
2056	0	0	0
2057	255	235	234
2058	255	231	229
2059	255	224	222
2060	255	199	207
2061	246	172	193
2062	249	167	195
2063	249	160	196
2064	250	155	196
2065	249	148	194
2066	250	146	197
2067	250	141	200
2068	251	141	201
2069	248	136	196
2070	248	136	195
2071	248	136	195
2072	244	131	191
2073	240	126	190
2074	248	140	200
2075	255	153	209
2076	251	148	204
2077	247	145	201
2078	245	145	200
2079	244	145	201
2080	251	158	210
2081	255	170	218
2082	255	172	217
2083	254	173	216
2084	254	178	217
2085	255	184	220
2086	255	187	221
2087	255	191	223
2088	255	196	225
2089	255	205	232
2090	255	202	230
2091	255	201	230
2092	255	203	233
2093	255	206	239
2094	255	204	239
2095	252	199	236
2096	250	203	238
2097	251	209	241
2098	253	210	241
2099	254	211	240
2100	255	212	239
2101	251	209	235
2102	252	216	238
2103	253	221	240
2104	252	222	238
2105	251	224	235
2106	247	222	232
2107	244	222	235
2108	245	226	237
2109	248	231	239
2110	0	0	0
2111	0	0	0
2112	0	0	0
2113	0	0	0
2114	0	0	0
2115	0	0	0
2116	0	0	0
2117	0	0	0
2118	0	0	0
2119	0	0	0
2120	0	0	0
2121	0	0	0
2122	0	0	0
2123	0	0	0
2124	0	0	0
2125	0	0	0
2126	0	0	0
2127	250	238	244
2128	245	233	239
2129	245	230	237
2130	0	0	0
2131	0	0	0
2132	0	0	0
2133	0	0	0
2134	0	0	0
2135	0	0	0
2136	0	0	0
2137	0	0	0
2138	0	0	0
2139	0	0	0
2140	0	0	0
2141	0	0	0
2142	0	0	0
2143	0	0	0
2144	0	0	0
2145	0	0	0
2146	0	0	0
2147	0	0	0
2148	0	0	0
2149	255	239	239
2150	255	222	225
2151	255	217	221
2152	255	194	205
2153	247	170	193
2154	242	152	189
2155	245	148	193
2156	255	156	203
2157	254	149	202
2158	251	139	200
2159	252	136	203
2160	251	133	204
2161	252	132	205
2162	252	132	203
2163	252	132	202
2164	251	131	202
2165	245	125	198
2166	250	135	205
2167	255	148	213
2168	254	145	210
2169	247	139	204
2170	255	153	213
2171	254	153	212
2172	251	151	212
2173	255	162	219
2174	253	162	217
2175	250	162	214
2176	254	172	216
2177	253	177	216
2178	255	183	221
2179	254	186	222
2180	253	188	223
2181	253	193	225
2182	255	205	231
2183	254	200	226
2184	255	203	227
2185	255	203	229
2186	255	205	234
2187	252	201	233
2188	251	204	234
2189	250	209	236
2190	253	215	240
2191	255	217	241
2192	251	210	234
2193	252	211	234
2194	251	211	233
2195	255	220	238
2196	252	218	235
2197	247	217	231
2198	248	224	232
2199	244	222	230
2200	242	222	232
2201	243	227	234
2202	0	0	0
2203	0	0	0
2204	0	0	0
2205	0	0	0
2206	0	0	0
2207	0	0	0
2208	0	0	0
2209	0	0	0
2210	0	0	0
2211	0	0	0
2212	0	0	0
2213	0	0	0
2214	0	0	0
2215	0	0	0
2216	0	0	0
2217	0	0	0
2218	0	0	0
2219	0	0	0
2220	0	0	0
2221	240	229	236
2222	0	0	0
2223	0	0	0
2224	0	0	0
2225	0	0	0
2226	0	0	0
2227	0	0	0
2228	0	0	0
2229	0	0	0
2230	0	0	0
2231	0	0	0
2232	0	0	0
2233	0	0	0
2234	0	0	0
2235	0	0	0
2236	0	0	0
2237	0	0	0
2238	0	0	0
2239	0	0	0
2240	255	239	236
2241	255	238	234
2242	255	222	224
2243	255	206	212
2244	250	184	199
2245	243	162	189
2246	239	146	186
2247	235	130	185
2248	247	140	199
2249	255	146	205
2250	251	135	200
2251	246	124	197
2252	248	123	200
2253	247	120	200
2254	251	123	204
2255	251	123	203
2256	250	123	202
2257	248	122	204
2258	252	130	209
2259	255	138	213
2260	250	134	208
2261	246	131	204
2262	252	143	211
2263	255	156	218
2264	255	153	215
2265	251	151	214
2266	248	151	214
2267	244	149	210
2268	247	159	214
2269	251	170	217
2270	250	174	217
2271	252	181	222
2272	250	182	223
2273	249	184	225
2274	253	194	229
2275	255	205	231
2276	255	204	226
2277	254	206	226
2278	252	205	226
2279	252	206	229
2280	254	210	233
2281	253	212	234
2282	252	216	234
2283	254	221	236
2284	249	214	231
2285	246	209	228
2286	251	213	232
2287	251	214	232
2288	250	215	231
2289	245	212	227
2290	246	219	230
2291	249	226	234
2292	245	225	233
2293	245	226	235
2294	0	0	0
2295	0	0	0
2296	0	0	0
2297	0	0	0
2298	0	0	0
2299	0	0	0
2300	0	0	0
2301	0	0	0
2302	0	0	0
2303	0	0	0
2304	0	0	0
2305	0	0	0
2306	0	0	0
2307	0	0	0
2308	0	0	0
2309	0	0	0
2310	0	0	0
2311	0	0	0
2312	0	0	0
2313	0	0	0
2314	0	0	0
2315	0	0	0
2316	0	0	0
2317	0	0	0
2318	0	0	0
2319	0	0	0
2320	0	0	0
2321	0	0	0
2322	0	0	0
2323	0	0	0
2324	0	0	0
2325	0	0	0
2326	0	0	0
2327	0	0	0
2328	0	0	0
2329	0	0	0
2330	0	0	0
2331	0	0	0
2332	255	237	236
2333	255	234	232
2334	255	221	224
2335	255	206	214
2336	254	189	204
2337	248	169	195
2338	247	156	195
2339	244	141	193
2340	248	140	201
2341	255	148	213
2342	253	135	205
2343	248	123	199
2344	251	124	203
2345	251	122	205
2346	253	121	207
2347	255	124	210
2348	245	109	200
2349	243	108	200
2350	253	124	211
2351	255	131	215
2352	251	131	212
2353	246	126	206
2354	255	144	218
2355	255	155	224
2356	253	147	216
2357	247	142	211
2358	253	154	218
2359	250	154	218
2360	249	158	219
2361	253	169	224
2362	255	179	226
2363	254	182	225
2364	255	192	230
2365	255	193	231
2366	254	194	230
2367	255	204	234
2368	255	212	234
2369	255	211	230
2370	251	205	224
2371	244	202	221
2372	250	212	230
2373	254	217	235
2374	250	213	231
2375	249	217	231
2376	0	0	0
2377	0	0	0
2378	247	218	231
2379	255	224	238
2380	246	213	230
2381	241	211	227
2382	245	220	231
2383	253	230	238
2384	249	227	235
2385	0	0	0
2386	0	0	0
2387	0	0	0
2388	0	0	0
2389	0	0	0
2390	0	0	0
2391	0	0	0
2392	0	0	0
2393	0	0	0
2394	0	0	0
2395	0	0	0
2396	0	0	0
2397	0	0	0
2398	0	0	0
2399	0	0	0
2400	0	0	0
2401	0	0	0
2402	0	0	0
2403	0	0	0
2404	0	0	0
2405	0	0	0
2406	0	0	0
2407	0	0	0
2408	0	0	0
2409	0	0	0
2410	0	0	0
2411	0	0	0
2412	0	0	0
2413	0	0	0
2414	0	0	0
2415	0	0	0
2416	0	0	0
2417	0	0	0
2418	0	0	0
2419	0	0	0
2420	0	0	0
2421	0	0	0
2422	0	0	0
2423	0	0	0
2424	0	0	0
2425	0	0	0
2426	255	213	220
2427	255	203	214
2428	253	188	208
2429	251	173	201
2430	252	163	201
2431	251	150	203
2432	254	147	208
2433	255	144	211
2434	252	132	206
2435	245	118	199
2436	248	118	202
2437	250	118	204
2438	251	117	205
2439	251	115	207
2440	242	102	200
2441	232	88	192
2442	242	105	204
2443	250	119	210
2444	248	121	209
2445	245	121	208
2446	252	136	217
2447	255	153	227
2448	251	142	217
2449	241	133	210
2450	245	143	215
2451	249	153	217
2452	248	157	218
2453	249	162	223
2454	254	175	230
2455	255	184	231
2456	255	191	231
2457	255	200	234
2458	255	200	231
2459	255	200	228
2460	255	209	231
2461	255	218	235
2462	255	211	228
2463	247	204	223
2464	0	0	0
2465	255	223	237
2466	252	219	235
2467	0	0	0
2468	0	0	0
2469	0	0	0
2470	0	0	0
2471	0	0	0
2472	246	221	234
2473	239	211	228
2474	245	222	236
2475	250	231	240
2476	250	230	238
2477	0	0	0
2478	0	0	0
2479	0	0	0
2480	0	0	0
2481	0	0	0
2482	0	0	0
2483	0	0	0
2484	0	0	0
2485	0	0	0
2486	0	0	0
2487	0	0	0
2488	0	0	0
2489	0	0	0
2490	0	0	0
2491	0	0	0
2492	0	0	0
2493	0	0	0
2494	0	0	0
2495	0	0	0
2496	0	0	0
2497	0	0	0
2498	0	0	0
2499	0	0	0
2500	0	0	0
2501	0	0	0
2502	0	0	0
2503	0	0	0
2504	0	0	0
2505	0	0	0
2506	0	0	0
2507	0	0	0
2508	0	0	0
2509	0	0	0
2510	0	0	0
2511	0	0	0
2512	0	0	0
2513	0	0	0
2514	0	0	0
2515	0	0	0
2516	0	0	0
2517	0	0	0
2518	255	226	232
2519	255	217	227
2520	255	194	213
2521	255	181	209
2522	248	159	201
2523	248	148	202
2524	243	132	201
2525	246	129	205
2526	255	145	217
2527	254	131	210
2528	246	115	203
2529	249	116	207
2530	254	121	210
2531	253	118	210
2532	247	109	205
2533	238	96	199
2534	252	118	216
2535	255	134	228
2536	250	120	214
2537	250	122	214
2538	248	124	215
2539	253	138	222
2540	255	152	229
2541	247	140	219
2542	249	148	223
2543	251	157	226
2544	254	166	226
2545	254	170	227
2546	255	176	233
2547	255	189	240
2548	255	187	234
2549	255	194	233
2550	255	200	234
2551	255	200	230
2552	253	202	226
2553	255	211	231
2554	0	0	0
2555	0	0	0
2556	0	0	0
2557	0	0	0
2558	0	0	0
2559	0	0	0
2560	0	0	0
2561	0	0	0
2562	0	0	0
2563	0	0	0
2564	0	0	0
2565	0	0	0
2566	242	224	235
2567	255	241	249
2568	250	229	239
2569	0	0	0
2570	0	0	0
2571	0	0	0
2572	0	0	0
2573	0	0	0
2574	0	0	0
2575	0	0	0
2576	0	0	0
2577	0	0	0
2578	0	0	0
2579	0	0	0
2580	0	0	0
2581	0	0	0
2582	0	0	0
2583	0	0	0
2584	0	0	0
2585	0	0	0
2586	0	0	0
2587	0	0	0
2588	0	0	0
2589	0	0	0
2590	0	0	0
2591	0	0	0
2592	0	0	0
2593	0	0	0
2594	0	0	0
2595	0	0	0
2596	0	0	0
2597	0	0	0
2598	0	0	0
2599	0	0	0
2600	0	0	0
2601	0	0	0
2602	0	0	0
2603	0	0	0
2604	0	0	0
2605	0	0	0
2606	0	0	0
2607	0	0	0
2608	0	0	0
2609	0	0	0
2610	0	0	0
2611	255	222	232
2612	254	201	221
2613	247	177	206
2614	245	160	201
2615	239	139	196
2616	238	128	198
2617	232	111	197
2618	249	129	214
2619	255	143	221
2620	251	124	208
2621	242	108	202
2622	249	115	210
2623	253	119	213
2624	245	108	206
2625	238	98	200
2626	253	119	215
2627	255	140	231
2628	255	128	222
2629	244	115	213
2630	247	121	218
2631	244	122	216
2632	245	133	221
2633	250	146	228
2634	249	150	227
2635	250	157	227
2636	252	167	230
2637	255	177	234
2638	255	181	235
2639	255	186	237
2640	252	186	235
2641	247	184	231
2642	249	191	232
2643	250	198	232
2644	247	198	227
2645	246	200	225
2646	0	0	0
2647	0	0	0
2648	0	0	0
2649	0	0	0
2650	0	0	0
2651	0	0	0
2652	0	0	0
2653	0	0	0
2654	0	0	0
2655	0	0	0
2656	0	0	0
2657	0	0	0
2658	0	0	0
2659	0	0	0
2660	251	235	240
2661	0	0	0
2662	0	0	0
2663	0	0	0
2664	0	0	0
2665	0	0	0
2666	0	0	0
2667	0	0	0
2668	0	0	0
2669	0	0	0
2670	0	0	0
2671	0	0	0
2672	0	0	0
2673	0	0	0
2674	0	0	0
2675	0	0	0
2676	0	0	0
2677	0	0	0
2678	0	0	0
2679	0	0	0
2680	0	0	0
2681	0	0	0
2682	0	0	0
2683	0	0	0
2684	0	0	0
2685	0	0	0
2686	0	0	0
2687	0	0	0
2688	0	0	0
2689	0	0	0
2690	0	0	0
2691	0	0	0
2692	0	0	0
2693	0	0	0
2694	0	0	0
2695	0	0	0
2696	0	0	0
2697	0	0	0
2698	0	0	0
2699	0	0	0
2700	0	0	0
2701	0	0	0
2702	0	0	0
2703	0	0	0
2704	255	231	241
2705	255	211	232
2706	245	168	206
2707	242	151	202
2708	247	147	210
2709	246	135	212
2710	241	122	211
2711	255	140	227
2712	255	135	221
2713	246	115	206
2714	249	117	212
2715	255	124	219
2716	252	118	215
2717	243	107	207
2718	248	116	213
2719	255	136	227
2720	255	137	227
2721	250	125	219
2722	242	118	217
2723	244	123	222
2724	246	134	226
2725	249	145	230
2726	253	159	237
2727	250	162	234
2728	251	169	234
2729	255	180	237
2730	254	183	237
2731	254	187	238
2732	254	192	240
2733	248	191	236
2734	0	0	0
2735	0	0	0
2736	0	0	0
2737	0	0	0
2738	0	0	0
2739	0	0	0
2740	0	0	0
2741	0	0	0
2742	0	0	0
2743	0	0	0
2744	0	0	0
2745	0	0	0
2746	0	0	0
2747	0	0	0
2748	0	0	0
2749	0	0	0
2750	0	0	0
2751	0	0	0
2752	0	0	0
2753	0	0	0
2754	0	0	0
2755	0	0	0
2756	0	0	0
2757	0	0	0
2758	0	0	0
2759	0	0	0
2760	0	0	0
2761	0	0	0
2762	0	0	0
2763	0	0	0
2764	0	0	0
2765	0	0	0
2766	0	0	0
2767	0	0	0
2768	0	0	0
2769	0	0	0
2770	0	0	0
2771	0	0	0
2772	0	0	0
2773	0	0	0
2774	0	0	0
2775	0	0	0
2776	0	0	0
2777	0	0	0
2778	0	0	0
2779	0	0	0
2780	0	0	0
2781	0	0	0
2782	0	0	0
2783	0	0	0
2784	0	0	0
2785	0	0	0
2786	0	0	0
2787	0	0	0
2788	0	0	0
2789	0	0	0
2790	0	0	0
2791	0	0	0
2792	0	0	0
2793	0	0	0
2794	0	0	0
2795	0	0	0
2796	255	238	239
2797	255	236	244
2798	255	196	224
2799	237	154	202
2800	246	155	212
2801	251	151	220
2802	247	139	219
2803	242	125	215
2804	250	128	221
2805	250	124	218
2806	251	123	218
2807	253	124	220
2808	251	120	218
2809	246	114	213
2810	250	122	218
2811	254	130	223
2812	253	130	222
2813	251	130	220
2814	243	122	216
2815	235	115	215
2816	240	129	224
2817	242	139	228
2818	245	152	233
2819	249	165	237
2820	244	168	235
2821	246	176	236
2822	245	179	235
2823	243	181	233
2824	243	186	234
2825	243	192	236
2826	0	0	0
2827	0	0	0
2828	0	0	0
2829	0	0	0
2830	0	0	0
2831	0	0	0
2832	0	0	0
2833	0	0	0
2834	0	0	0
2835	0	0	0
2836	0	0	0
2837	0	0	0
2838	0	0	0
2839	0	0	0
2840	0	0	0
2841	0	0	0
2842	0	0	0
2843	0	0	0
2844	0	0	0
2845	0	0	0
2846	0	0	0
2847	0	0	0
2848	0	0	0
2849	0	0	0
2850	0	0	0
2851	0	0	0
2852	0	0	0
2853	0	0	0
2854	0	0	0
2855	0	0	0
2856	0	0	0
2857	0	0	0
2858	0	0	0
2859	0	0	0
2860	0	0	0
2861	0	0	0
2862	0	0	0
2863	0	0	0
2864	0	0	0
2865	0	0	0
2866	0	0	0
2867	0	0	0
2868	0	0	0
2869	0	0	0
2870	0	0	0
2871	0	0	0
2872	0	0	0
2873	0	0	0
2874	0	0	0
2875	0	0	0
2876	0	0	0
2877	0	0	0
2878	0	0	0
2879	0	0	0
2880	0	0	0
2881	0	0	0
2882	0	0	0
2883	0	0	0
2884	0	0	0
2885	0	0	0
2886	0	0	0
2887	0	0	0
2888	0	0	0
2889	255	235	237
2890	255	224	236
2891	251	185	218
2892	235	150	205
2893	242	149	215
2894	246	148	222
2895	242	135	219
2896	246	134	223
2897	253	136	229
2898	245	121	220
2899	246	120	220
2900	254	129	226
2901	251	124	223
2902	245	118	216
2903	247	125	221
2904	253	137	229
2905	251	136	228
2906	250	138	227
2907	242	129	222
2908	242	136	228
2909	244	148	235
2910	247	160	240
2911	251	173	244
2912	250	181	242
2913	244	184	239
2914	245	193	243
2915	0	0	0
2916	0	0	0
2917	0	0	0
2918	0	0	0
2919	0	0	0
2920	0	0	0
2921	0	0	0
2922	0	0	0
2923	0	0	0
2924	0	0	0
2925	0	0	0
2926	0	0	0
2927	0	0	0
2928	0	0	0
2929	0	0	0
2930	0	0	0
2931	0	0	0
2932	0	0	0
2933	0	0	0
2934	0	0	0
2935	0	0	0
2936	0	0	0
2937	0	0	0
2938	0	0	0
2939	0	0	0
2940	0	0	0
2941	0	0	0
2942	0	0	0
2943	0	0	0
2944	0	0	0
2945	0	0	0
2946	0	0	0
2947	0	0	0
2948	0	0	0
2949	0	0	0
2950	0	0	0
2951	0	0	0
2952	0	0	0
2953	0	0	0
2954	0	0	0
2955	0	0	0
2956	0	0	0
2957	0	0	0
2958	0	0	0
2959	0	0	0
2960	0	0	0
2961	0	0	0
2962	0	0	0
2963	0	0	0
2964	0	0	0
2965	0	0	0
2966	0	0	0
2967	0	0	0
2968	0	0	0
2969	0	0	0
2970	0	0	0
2971	0	0	0
2972	0	0	0
2973	0	0	0
2974	0	0	0
2975	0	0	0
2976	0	0	0
2977	0	0	0
2978	0	0	0
2979	0	0	0
2980	0	0	0
2981	255	243	239
2982	255	224	229
2983	255	213	229
2984	251	181	219
2985	236	147	211
2986	243	151	223
2987	245	147	225
2988	244	142	225
2989	247	139	227
2990	243	127	223
2991	234	112	214
2992	245	124	224
2993	253	132	231
2994	249	127	226
2995	241	119	218
2996	242	128	223
2997	247	139	233
2998	242	138	231
2999	239	138	230
3000	238	143	231
3001	236	147	232
3002	238	159	237
3003	242	173	242
3004	248	185	246
3005	247	192	242
3006	243	198	241
3007	0	0	0
3008	0	0	0
3009	0	0	0
3010	0	0	0
3011	0	0	0
3012	0	0	0
3013	0	0	0
3014	0	0	0
3015	0	0	0
3016	0	0	0
3017	0	0	0
3018	0	0	0
3019	0	0	0
3020	0	0	0
3021	0	0	0
3022	0	0	0
3023	0	0	0
3024	0	0	0
3025	0	0	0
3026	0	0	0
3027	0	0	0
3028	0	0	0
3029	0	0	0
3030	0	0	0
3031	0	0	0
3032	0	0	0
3033	0	0	0
3034	0	0	0
3035	0	0	0
3036	0	0	0
3037	0	0	0
3038	0	0	0
3039	0	0	0
3040	0	0	0
3041	0	0	0
3042	0	0	0
3043	0	0	0
3044	0	0	0
3045	0	0	0
3046	0	0	0
3047	0	0	0
3048	0	0	0
3049	0	0	0
3050	0	0	0
3051	0	0	0
3052	0	0	0
3053	0	0	0
3054	0	0	0
3055	0	0	0
3056	0	0	0
3057	0	0	0
3058	0	0	0
3059	0	0	0
3060	0	0	0
3061	0	0	0
3062	0	0	0
3063	0	0	0
3064	0	0	0
3065	0	0	0
3066	0	0	0
3067	0	0	0
3068	0	0	0
3069	0	0	0
3070	0	0	0
3071	0	0	0
3072	0	0	0
3073	0	0	0
3074	255	248	243
3075	255	231	236
3076	252	195	220
3077	240	162	210
3078	238	150	217
3079	244	151	228
3080	245	149	228
3081	243	143	227
3082	248	146	233
3083	240	132	226
3084	241	129	227
3085	255	143	239
3086	249	133	233
3087	242	126	227
3088	247	138	232
3089	246	146	235
3090	247	155	242
3091	237	150	238
3092	233	154	237
3093	229	157	236
3094	237	177	244
3095	243	191	249
3096	249	202	253
3097	255	217	255
3098	245	203	242
3099	0	0	0
3100	0	0	0
3101	0	0	0
3102	0	0	0
3103	0	0	0
3104	0	0	0
3105	0	0	0
3106	0	0	0
3107	0	0	0
3108	0	0	0
3109	0	0	0
3110	0	0	0
3111	0	0	0
3112	0	0	0
3113	0	0	0
3114	0	0	0
3115	0	0	0
3116	0	0	0
3117	0	0	0
3118	0	0	0
3119	0	0	0
3120	0	0	0
3121	0	0	0
3122	0	0	0
3123	0	0	0
3124	0	0	0
3125	0	0	0
3126	0	0	0
3127	0	0	0
3128	0	0	0
3129	0	0	0
3130	0	0	0
3131	0	0	0
3132	0	0	0
3133	0	0	0
3134	0	0	0
3135	0	0	0
3136	0	0	0
3137	0	0	0
3138	0	0	0
3139	0	0	0
3140	0	0	0
3141	0	0	0
3142	0	0	0
3143	0	0	0
3144	0	0	0
3145	0	0	0
3146	0	0	0
3147	0	0	0
3148	0	0	0
3149	0	0	0
3150	0	0	0
3151	0	0	0
3152	0	0	0
3153	0	0	0
3154	0	0	0
3155	0	0	0
3156	0	0	0
3157	0	0	0
3158	0	0	0
3159	0	0	0
3160	0	0	0
3161	0	0	0
3162	0	0	0
3163	0	0	0
3164	0	0	0
3165	0	0	0
3166	255	244	239
3167	255	250	246
3168	255	216	232
3169	246	179	216
3170	246	168	220
3171	242	153	223
3172	244	153	230
3173	241	148	229
3174	242	147	231
3175	245	150	237
3176	241	143	234
3177	239	138	231
3178	235	131	228
3179	228	120	223
3180	234	134	231
3181	237	145	234
3182	233	150	233
3183	233	159	239
3184	230	163	240
3185	227	167	240
3186	0	0	0
3187	0	0	0
3188	0	0	0
3189	255	230	255
3190	252	224	251
3191	0	0	0
3192	0	0	0
3193	0	0	0
3194	0	0	0
3195	0	0	0
3196	0	0	0
3197	0	0	0
3198	0	0	0
3199	0	0	0
3200	0	0	0
3201	0	0	0
3202	0	0	0
3203	0	0	0
3204	0	0	0
3205	0	0	0
3206	0	0	0
3207	0	0	0
3208	0	0	0
3209	0	0	0
3210	0	0	0
3211	0	0	0
3212	0	0	0
3213	0	0	0
3214	0	0	0
3215	0	0	0
3216	0	0	0
3217	0	0	0
3218	0	0	0
3219	0	0	0
3220	0	0	0
3221	0	0	0
3222	0	0	0
3223	0	0	0
3224	0	0	0
3225	0	0	0
3226	0	0	0
3227	0	0	0
3228	0	0	0
3229	0	0	0
3230	0	0	0
3231	0	0	0
3232	0	0	0
3233	0	0	0
3234	0	0	0
3235	0	0	0
3236	0	0	0
3237	0	0	0
3238	0	0	0
3239	0	0	0
3240	0	0	0
3241	0	0	0
3242	0	0	0
3243	0	0	0
3244	0	0	0
3245	0	0	0
3246	0	0	0
3247	0	0	0
3248	0	0	0
3249	0	0	0
3250	0	0	0
3251	0	0	0
3252	0	0	0
3253	0	0	0
3254	0	0	0
3255	0	0	0
3256	0	0	0
3257	0	0	0
3258	255	246	241
3259	255	250	246
3260	255	232	239
3261	247	190	219
3262	244	173	218
3263	244	161	222
3264	243	156	227
3265	241	152	230
3266	244	159	235
3267	242	157	235
3268	246	162	243
3269	241	155	240
3270	236	151	237
3271	223	139	228
3272	227	150	237
3273	234	164	245
3274	233	171	243
3275	228	175	240
3276	236	192	249
3277	0	0	0
3278	0	0	0
3279	0	0	0
3280	0	0	0
3281	0	0	0
3282	0	0	0
3283	0	0	0
3284	0	0	0
3285	0	0	0
3286	0	0	0
3287	0	0	0
3288	0	0	0
3289	0	0	0
3290	0	0	0
3291	0	0	0
3292	0	0	0
3293	0	0	0
3294	0	0	0
3295	0	0	0
3296	0	0	0
3297	0	0	0
3298	0	0	0
3299	0	0	0
3300	0	0	0
3301	0	0	0
3302	0	0	0
3303	0	0	0
3304	0	0	0
3305	0	0	0
3306	0	0	0
3307	0	0	0
3308	0	0	0
3309	0	0	0
3310	0	0	0
3311	0	0	0
3312	0	0	0
3313	0	0	0
3314	0	0	0
3315	0	0	0
3316	0	0	0
3317	0	0	0
3318	0	0	0
3319	0	0	0
3320	0	0	0
3321	0	0	0
3322	0	0	0
3323	0	0	0
3324	0	0	0
3325	0	0	0
3326	0	0	0
3327	0	0	0
3328	0	0	0
3329	0	0	0
3330	0	0	0
3331	0	0	0
3332	0	0	0
3333	0	0	0
3334	0	0	0
3335	0	0	0
3336	0	0	0
3337	0	0	0
3338	0	0	0
3339	0	0	0
3340	0	0	0
3341	0	0	0
3342	0	0	0
3343	0	0	0
3344	0	0	0
3345	0	0	0
3346	0	0	0
3347	0	0	0
3348	0	0	0
3349	0	0	0
3350	0	0	0
3351	255	249	246
3352	255	226	234
3353	255	208	226
3354	248	187	220
3355	244	169	222
3356	248	167	230
3357	243	158	229
3358	242	163	233
3359	242	167	235
3360	238	165	234
3361	240	168	242
3362	236	165	242
3363	230	161	240
3364	228	169	244
3365	230	179	249
3366	236	191	254
3367	0	0	0
3368	0	0	0
3369	0	0	0
3370	0	0	0
3371	0	0	0
3372	0	0	0
3373	0	0	0
3374	0	0	0
3375	0	0	0
3376	0	0	0
3377	0	0	0
3378	0	0	0
3379	0	0	0
3380	0	0	0
3381	0	0	0
3382	0	0	0
3383	0	0	0
3384	0	0	0
3385	0	0	0
3386	0	0	0
3387	0	0	0
3388	0	0	0
3389	0	0	0
3390	0	0	0
3391	0	0	0
3392	0	0	0
3393	0	0	0
3394	0	0	0
3395	0	0	0
3396	0	0	0
3397	0	0	0
3398	0	0	0
3399	0	0	0
3400	0	0	0
3401	0	0	0
3402	0	0	0
3403	0	0	0
3404	0	0	0
3405	0	0	0
3406	0	0	0
3407	0	0	0
3408	0	0	0
3409	0	0	0
3410	0	0	0
3411	0	0	0
3412	0	0	0
3413	0	0	0
3414	0	0	0
3415	0	0	0
3416	0	0	0
3417	0	0	0
3418	0	0	0
3419	0	0	0
3420	0	0	0
3421	0	0	0
3422	0	0	0
3423	0	0	0
3424	0	0	0
3425	0	0	0
3426	0	0	0
3427	0	0	0
3428	0	0	0
3429	0	0	0
3430	0	0	0
3431	0	0	0
3432	0	0	0
3433	0	0	0
3434	0	0	0
3435	0	0	0
3436	0	0	0
3437	0	0	0
3438	0	0	0
3439	0	0	0
3440	0	0	0
3441	0	0	0
3442	0	0	0
3443	0	0	0
3444	255	238	243
3445	255	215	231
3446	248	193	222
3447	241	172	217
3448	245	170	227
3449	245	165	232
3450	242	165	234
3451	237	166	235
3452	236	173	236
3453	228	169	232
3454	235	182	244
3455	230	178	243
3456	231	184	246
3457	0	0	0
3458	0	0	0
3459	0	0	0
3460	0	0	0
3461	0	0	0
3462	0	0	0
3463	0	0	0
3464	0	0	0
3465	0	0	0
3466	0	0	0
3467	0	0	0
3468	0	0	0
3469	0	0	0
3470	0	0	0
3471	0	0	0
3472	0	0	0
3473	0	0	0
3474	0	0	0
3475	0	0	0
3476	0	0	0
3477	0	0	0
3478	0	0	0
3479	0	0	0
3480	0	0	0
3481	0	0	0
3482	0	0	0
3483	0	0	0
3484	0	0	0
3485	0	0	0
3486	0	0	0
3487	0	0	0
3488	0	0	0
3489	0	0	0
3490	0	0	0
3491	0	0	0
3492	0	0	0
3493	0	0	0
3494	0	0	0
3495	0	0	0
3496	0	0	0
3497	0	0	0
3498	0	0	0
3499	0	0	0
3500	0	0	0
3501	0	0	0
3502	0	0	0
3503	0	0	0
3504	0	0	0
3505	0	0	0
3506	0	0	0
3507	0	0	0
3508	0	0	0
3509	0	0	0
3510	0	0	0
3511	0	0	0
3512	0	0	0
3513	0	0	0
3514	0	0	0
3515	0	0	0
3516	0	0	0
3517	0	0	0
3518	0	0	0
3519	0	0	0
3520	0	0	0
3521	0	0	0
3522	0	0	0
3523	0	0	0
3524	0	0	0
3525	0	0	0
3526	0	0	0
3527	0	0	0
3528	0	0	0
3529	0	0	0
3530	0	0	0
3531	0	0	0
3532	0	0	0
3533	0	0	0
3534	0	0	0
3535	0	0	0
3536	255	235	239
3537	255	225	237
3538	247	199	225
3539	238	176	218
3540	237	170	221
3541	236	164	225
3542	236	165	231
3543	231	163	233
3544	229	171	237
3545	227	177	238
3546	229	187	243
3547	0	0	0
3548	0	0	0
3549	0	0	0
3550	0	0	0
3551	0	0	0
3552	0	0	0
3553	0	0	0
3554	0	0	0
3555	0	0	0
3556	0	0	0
3557	0	0	0
3558	0	0	0
3559	0	0	0
3560	0	0	0
3561	0	0	0
3562	0	0	0
3563	0	0	0
3564	0	0	0
3565	0	0	0
3566	0	0	0
3567	0	0	0
3568	0	0	0
3569	0	0	0
3570	0	0	0
3571	0	0	0
3572	0	0	0
3573	0	0	0
3574	0	0	0
3575	0	0	0
3576	0	0	0
3577	0	0	0
3578	0	0	0
3579	0	0	0
3580	0	0	0
3581	0	0	0
3582	0	0	0
3583	0	0	0
3584	0	0	0
3585	0	0	0
3586	0	0	0
3587	0	0	0
3588	0	0	0
3589	0	0	0
3590	0	0	0
3591	0	0	0
3592	0	0	0
3593	0	0	0
3594	0	0	0
3595	0	0	0
3596	0	0	0
3597	0	0	0
3598	0	0	0
3599	0	0	0
3600	0	0	0
3601	0	0	0
3602	0	0	0
3603	0	0	0
3604	0	0	0
3605	0	0	0
3606	0	0	0
3607	0	0	0
3608	0	0	0
3609	0	0	0
3610	0	0	0
3611	0	0	0
3612	0	0	0
3613	0	0	0
3614	0	0	0
3615	0	0	0
3616	0	0	0
3617	0	0	0
3618	0	0	0
3619	0	0	0
3620	0	0	0
3621	0	0	0
3622	0	0	0
3623	0	0	0
3624	0	0	0
3625	0	0	0
3626	0	0	0
3627	0	0	0
3628	255	237	240
3629	255	224	236
3630	251	208	230
3631	237	181	219
3632	244	188	230
3633	0	0	0
3634	0	0	0
3635	0	0	0
3636	0	0	0
3637	0	0	0
3638	0	0	0
3639	0	0	0
3640	0	0	0
3641	0	0	0
3642	0	0	0
3643	0	0	0
3644	0	0	0
3645	0	0	0
3646	0	0	0
3647	0	0	0
3648	0	0	0
3649	0	0	0
3650	0	0	0
3651	0	0	0
3652	0	0	0
3653	0	0	0
3654	0	0	0
3655	0	0	0
3656	0	0	0
3657	0	0	0
3658	0	0	0
3659	0	0	0
3660	0	0	0
3661	0	0	0
3662	0	0	0
3663	0	0	0
3664	0	0	0
3665	0	0	0
3666	0	0	0
3667	0	0	0
3668	0	0	0
3669	0	0	0
3670	0	0	0
3671	0	0	0
3672	0	0	0
3673	0	0	0
3674	0	0	0
3675	0	0	0
3676	0	0	0
3677	0	0	0
3678	0	0	0
3679	0	0	0
3680	0	0	0
3681	0	0	0
3682	0	0	0
3683	0	0	0
3684	0	0	0
3685	0	0	0
3686	0	0	0
3687	0	0	0
3688	0	0	0
3689	0	0	0
3690	0	0	0
3691	0	0	0
3692	0	0	0
3693	0	0	0
3694	0	0	0
3695	0	0	0
3696	0	0	0
3697	0	0	0
3698	0	0	0
3699	0	0	0
3700	0	0	0
3701	0	0	0
3702	0	0	0
3703	0	0	0
3704	0	0	0
3705	0	0	0
3706	0	0	0
3707	0	0	0
3708	0	0	0
3709	0	0	0
3710	0	0	0
3711	0	0	0
3712	0	0	0
3713	0	0	0
3714	0	0	0
3715	0	0	0
3716	0	0	0
3717	0	0	0
3718	0	0	0
3719	0	0	0
3720	0	0	0
3721	0	0	0
3722	242	203	225
3723	234	186	221
3724	238	189	227
3725	0	0	0
3726	0	0	0
3727	0	0	0
3728	0	0	0
3729	0	0	0
3730	0	0	0
3731	0	0	0
3732	0	0	0
3733	0	0	0
3734	0	0	0
3735	0	0	0
3736	0	0	0
3737	0	0	0
3738	0	0	0
3739	0	0	0
3740	0	0	0
3741	0	0	0
3742	0	0	0
3743	0	0	0
3744	0	0	0
3745	0	0	0
3746	0	0	0
3747	0	0	0
3748	0	0	0
3749	0	0	0
3750	0	0	0
3751	0	0	0
3752	0	0	0
3753	0	0	0
3754	0	0	0
3755	0	0	0
3756	0	0	0
3757	0	0	0
3758	0	0	0
3759	0	0	0
3760	0	0	0
3761	0	0	0
3762	0	0	0
3763	0	0	0
3764	0	0	0
3765	0	0	0
3766	0	0	0
3767	0	0	0
3768	0	0	0
3769	0	0	0
3770	0	0	0
3771	0	0	0
3772	0	0	0
3773	0	0	0
3774	0	0	0
3775	0	0	0
3776	0	0	0
3777	0	0	0
3778	0	0	0
3779	0	0	0
3780	0	0	0
3781	0	0	0
3782	0	0	0
3783	0	0	0
3784	0	0	0
3785	0	0	0
3786	0	0	0
3787	0	0	0
3788	0	0	0
3789	0	0	0
3790	0	0	0
3791	0	0	0
3792	0	0	0
3793	0	0	0
3794	0	0	0
3795	0	0	0
3796	0	0	0
3797	0	0	0
3798	0	0	0
3799	0	0	0
3800	0	0	0
3801	0	0	0
3802	0	0	0
3803	0	0	0
3804	0	0	0
3805	0	0	0
3806	0	0	0
3807	0	0	0
3808	0	0	0
3809	0	0	0
3810	0	0	0
3811	0	0	0
3812	0	0	0
3813	0	0	0
3814	0	0	0
3815	0	0	0
3816	238	202	233
3817	0	0	0
3818	0	0	0
3819	0	0	0
3820	0	0	0
3821	0	0	0
3822	0	0	0
3823	0	0	0
3824	0	0	0
3825	0	0	0
3826	0	0	0
3827	0	0	0
3828	0	0	0
3829	0	0	0
3830	0	0	0
3831	0	0	0
3832	0	0	0
3833	0	0	0
3834	0	0	0
3835	0	0	0
3836	0	0	0
3837	0	0	0
3838	0	0	0
3839	0	0	0
3840	0	0	0
3841	0	0	0
3842	0	0	0
3843	0	0	0
3844	0	0	0
3845	0	0	0
3846	0	0	0
3847	0	0	0
3848	0	0	0
3849	0	0	0
3850	0	0	0
3851	0	0	0
3852	0	0	0
3853	0	0	0
3854	0	0	0
3855	0	0	0
3856	0	0	0
3857	0	0	0
3858	0	0	0
3859	0	0	0
3860	0	0	0
3861	0	0	0
3862	0	0	0
3863	0	0	0
3864	0	0	0
3865	0	0	0
3866	0	0	0
3867	0	0	0
3868	0	0	0
3869	0	0	0
3870	0	0	0
3871	0	0	0
3872	0	0	0
3873	0	0	0
3874	0	0	0
3875	0	0	0
3876	0	0	0
3877	0	0	0
3878	0	0	0
3879	0	0	0
3880	0	0	0
3881	0	0	0
3882	0	0	0
3883	0	0	0
3884	0	0	0
3885	0	0	0
3886	0	0	0
3887	0	0	0
3888	0	0	0
3889	0	0	0
3890	0	0	0
3891	0	0	0
3892	0	0	0
3893	0	0	0
3894	0	0	0
3895	0	0	0
3896	0	0	0
3897	0	0	0
3898	0	0	0
3899	0	0	0
3900	0	0	0
3901	0	0	0
3902	0	0	0
3903	0	0	0
3904	0	0	0
3905	0	0	0
3906	0	0	0
