 	R	G	B
1	0	0	0
2	0	0	0
3	0	0	0
4	0	0	0
5	0	0	0
6	0	0	0
7	0	0	0
8	0	0	0
9	0	0	0
10	0	0	0
11	0	0	0
12	0	0	0
13	0	0	0
14	0	0	0
15	0	0	0
16	0	0	0
17	0	0	0
18	0	0	0
19	0	0	0
20	0	0	0
21	0	0	0
22	0	0	0
23	0	0	0
24	0	0	0
25	0	0	0
26	0	0	0
27	0	0	0
28	0	0	0
29	0	0	0
30	0	0	0
31	0	0	0
32	0	0	0
33	0	0	0
34	0	0	0
35	0	0	0
36	0	0	0
37	0	0	0
38	249	210	222
39	0	0	0
40	244	194	219
41	0	0	0
42	0	0	0
43	0	0	0
44	0	0	0
45	0	0	0
46	0	0	0
47	0	0	0
48	0	0	0
49	0	0	0
50	0	0	0
51	0	0	0
52	0	0	0
53	0	0	0
54	0	0	0
55	0	0	0
56	0	0	0
57	0	0	0
58	0	0	0
59	0	0	0
60	0	0	0
61	0	0	0
62	0	0	0
63	0	0	0
64	0	0	0
65	0	0	0
66	0	0	0
67	0	0	0
68	0	0	0
69	0	0	0
70	0	0	0
71	0	0	0
72	0	0	0
73	0	0	0
74	0	0	0
75	0	0	0
76	0	0	0
77	0	0	0
78	0	0	0
79	0	0	0
80	0	0	0
81	0	0	0
82	0	0	0
83	253	220	226
84	247	204	219
85	247	201	220
86	250	201	225
87	251	201	228
88	0	0	0
89	246	196	228
90	0	0	0
91	0	0	0
92	0	0	0
93	0	0	0
94	0	0	0
95	0	0	0
96	0	0	0
97	0	0	0
98	0	0	0
99	0	0	0
100	0	0	0
101	0	0	0
102	0	0	0
103	0	0	0
104	0	0	0
105	0	0	0
106	0	0	0
107	0	0	0
108	0	0	0
109	0	0	0
110	0	0	0
111	0	0	0
112	0	0	0
113	0	0	0
114	0	0	0
115	0	0	0
116	0	0	0
117	0	0	0
118	0	0	0
119	0	0	0
120	0	0	0
121	0	0	0
122	0	0	0
123	0	0	0
124	0	0	0
125	0	0	0
126	0	0	0
127	0	0	0
128	254	224	229
129	252	214	224
130	255	213	226
131	255	209	226
132	255	210	229
133	255	209	234
134	255	206	234
135	246	195	225
136	251	209	233
137	0	0	0
138	0	0	0
139	0	0	0
140	0	0	0
141	0	0	0
142	0	0	0
143	0	0	0
144	0	0	0
145	0	0	0
146	0	0	0
147	0	0	0
148	0	0	0
149	0	0	0
150	0	0	0
151	0	0	0
152	0	0	0
153	0	0	0
154	0	0	0
155	0	0	0
156	0	0	0
157	0	0	0
158	0	0	0
159	0	0	0
160	0	0	0
161	0	0	0
162	0	0	0
163	0	0	0
164	0	0	0
165	0	0	0
166	0	0	0
167	0	0	0
168	0	0	0
169	0	0	0
170	0	0	0
171	0	0	0
172	0	0	0
173	252	234	233
174	255	227	232
175	249	208	221
176	252	207	223
177	251	202	222
178	252	202	225
179	253	202	230
180	250	197	228
181	251	201	229
182	255	217	239
183	249	210	231
184	0	0	0
185	0	0	0
186	0	0	0
187	0	0	0
188	0	0	0
189	0	0	0
190	0	0	0
191	0	0	0
192	0	0	0
193	0	0	0
194	0	0	0
195	0	0	0
196	0	0	0
197	0	0	0
198	0	0	0
199	0	0	0
200	0	0	0
201	0	0	0
202	0	0	0
203	0	0	0
204	0	0	0
205	0	0	0
206	0	0	0
207	0	0	0
208	0	0	0
209	0	0	0
210	0	0	0
211	0	0	0
212	0	0	0
213	0	0	0
214	0	0	0
215	0	0	0
216	0	0	0
217	0	0	0
218	0	0	0
219	255	238	236
220	252	220	228
221	245	200	217
222	248	199	220
223	247	195	221
224	250	197	226
225	250	197	227
226	255	204	232
227	255	207	232
228	254	207	231
229	244	201	225
230	0	0	0
231	0	0	0
232	0	0	0
233	0	0	0
234	0	0	0
235	0	0	0
236	0	0	0
237	0	0	0
238	0	0	0
239	0	0	0
240	0	0	0
241	0	0	0
242	0	0	0
243	0	0	0
244	0	0	0
245	0	0	0
246	0	0	0
247	0	0	0
248	0	0	0
249	0	0	0
250	0	0	0
251	0	0	0
252	0	0	0
253	0	0	0
254	0	0	0
255	0	0	0
256	0	0	0
257	0	0	0
258	0	0	0
259	0	0	0
260	0	0	0
261	0	0	0
262	0	0	0
263	0	0	0
264	0	0	0
265	0	0	0
266	248	211	221
267	251	207	222
268	254	207	226
269	253	202	228
270	255	204	231
271	252	199	228
272	255	206	232
273	251	200	226
274	247	199	224
275	250	208	231
276	255	223	240
277	0	0	0
278	0	0	0
279	0	0	0
280	0	0	0
281	0	0	0
282	0	0	0
283	0	0	0
284	0	0	0
285	0	0	0
286	0	0	0
287	0	0	0
288	0	0	0
289	0	0	0
290	0	0	0
291	0	0	0
292	0	0	0
293	0	0	0
294	0	0	0
295	0	0	0
296	0	0	0
297	0	0	0
298	0	0	0
299	0	0	0
300	0	0	0
301	0	0	0
302	0	0	0
303	0	0	0
304	0	0	0
305	0	0	0
306	0	0	0
307	0	0	0
308	0	0	0
309	0	0	0
310	255	233	230
311	255	226	228
312	255	222	229
313	255	218	230
314	255	214	230
315	255	208	228
316	255	205	229
317	253	199	226
318	252	198	225
319	246	192	217
320	251	204	225
321	254	214	234
322	252	217	235
323	0	0	0
324	0	0	0
325	0	0	0
326	0	0	0
327	0	0	0
328	0	0	0
329	0	0	0
330	0	0	0
331	0	0	0
332	0	0	0
333	0	0	0
334	0	0	0
335	0	0	0
336	0	0	0
337	0	0	0
338	0	0	0
339	0	0	0
340	0	0	0
341	0	0	0
342	0	0	0
343	0	0	0
344	0	0	0
345	0	0	0
346	0	0	0
347	0	0	0
348	0	0	0
349	0	0	0
350	0	0	0
351	0	0	0
352	0	0	0
353	0	0	0
354	0	0	0
355	255	232	227
356	255	224	225
357	252	214	221
358	252	208	221
359	253	206	222
360	251	201	221
361	253	201	223
362	252	198	223
363	252	198	224
364	251	197	223
365	250	198	220
366	255	210	229
367	252	211	231
368	0	0	0
369	0	0	0
370	0	0	0
371	0	0	0
372	0	0	0
373	0	0	0
374	0	0	0
375	0	0	0
376	0	0	0
377	0	0	0
378	0	0	0
379	0	0	0
380	0	0	0
381	0	0	0
382	0	0	0
383	0	0	0
384	0	0	0
385	0	0	0
386	0	0	0
387	0	0	0
388	0	0	0
389	0	0	0
390	0	0	0
391	0	0	0
392	0	0	0
393	0	0	0
394	0	0	0
395	0	0	0
396	0	0	0
397	0	0	0
398	0	0	0
399	0	0	0
400	255	230	227
401	255	226	227
402	252	214	222
403	248	203	218
404	247	199	218
405	247	196	217
406	249	196	219
407	250	196	221
408	251	197	222
409	251	196	222
410	254	201	225
411	253	203	225
412	255	208	229
413	251	208	228
414	0	0	0
415	0	0	0
416	0	0	0
417	0	0	0
418	0	0	0
419	0	0	0
420	0	0	0
421	0	0	0
422	0	0	0
423	0	0	0
424	0	0	0
425	0	0	0
426	0	0	0
427	0	0	0
428	0	0	0
429	0	0	0
430	0	0	0
431	0	0	0
432	0	0	0
433	0	0	0
434	0	0	0
435	0	0	0
436	0	0	0
437	0	0	0
438	0	0	0
439	0	0	0
440	0	0	0
441	0	0	0
442	0	0	0
443	0	0	0
444	0	0	0
445	255	230	228
446	255	222	224
447	255	218	224
448	250	205	218
449	252	205	221
450	250	201	220
451	255	208	226
452	255	208	227
453	253	201	223
454	253	201	224
455	255	205	227
456	255	210	230
457	252	200	224
458	254	206	228
459	0	0	0
460	0	0	0
461	0	0	0
462	0	0	0
463	0	0	0
464	0	0	0
465	0	0	0
466	0	0	0
467	0	0	0
468	0	0	0
469	0	0	0
470	0	0	0
471	0	0	0
472	0	0	0
473	0	0	0
474	0	0	0
475	0	0	0
476	0	0	0
477	0	0	0
478	0	0	0
479	0	0	0
480	0	0	0
481	0	0	0
482	0	0	0
483	0	0	0
484	0	0	0
485	0	0	0
486	255	235	229
487	255	240	234
488	255	233	230
489	255	226	227
490	255	226	227
491	255	224	223
492	255	216	219
493	255	212	222
494	255	211	224
495	255	210	224
496	255	214	226
497	255	220	231
498	255	211	226
499	255	204	224
500	255	210	228
501	255	213	230
502	254	204	224
503	246	194	218
504	247	198	222
505	0	0	0
506	0	0	0
507	0	0	0
508	0	0	0
509	0	0	0
510	0	0	0
511	0	0	0
512	0	0	0
513	0	0	0
514	0	0	0
515	0	0	0
516	0	0	0
517	0	0	0
518	0	0	0
519	0	0	0
520	0	0	0
521	0	0	0
522	0	0	0
523	0	0	0
524	0	0	0
525	0	0	0
526	0	0	0
527	0	0	0
528	0	0	0
529	0	0	0
530	0	0	0
531	252	225	222
532	255	235	230
533	255	223	223
534	254	216	219
535	255	213	219
536	255	212	219
537	255	208	215
538	251	200	212
539	252	199	216
540	251	197	217
541	253	201	219
542	254	203	219
543	255	212	223
544	253	202	217
545	253	203	221
546	255	207	226
547	255	208	225
548	249	199	219
549	250	202	222
550	250	205	225
551	0	0	0
552	0	0	0
553	0	0	0
554	0	0	0
555	0	0	0
556	0	0	0
557	0	0	0
558	0	0	0
559	0	0	0
560	0	0	0
561	0	0	0
562	0	0	0
563	0	0	0
564	0	0	0
565	0	0	0
566	0	0	0
567	0	0	0
568	0	0	0
569	0	0	0
570	0	0	0
571	0	0	0
572	0	0	0
573	0	0	0
574	0	0	0
575	0	0	0
576	255	233	227
577	253	222	220
578	255	217	220
579	252	206	213
580	255	206	215
581	255	203	214
582	255	201	214
583	254	197	215
584	252	193	214
585	250	190	214
586	252	193	217
587	253	196	219
588	254	201	220
589	255	208	221
590	253	203	217
591	253	202	220
592	252	203	222
593	252	203	223
594	254	207	226
595	255	210	228
596	255	217	232
597	255	219	234
598	0	0	0
599	0	0	0
600	0	0	0
601	0	0	0
602	0	0	0
603	0	0	0
604	0	0	0
605	0	0	0
606	0	0	0
607	0	0	0
608	0	0	0
609	0	0	0
610	0	0	0
611	0	0	0
612	0	0	0
613	0	0	0
614	0	0	0
615	0	0	0
616	0	0	0
617	0	0	0
618	0	0	0
619	0	0	0
620	0	0	0
621	255	244	232
622	255	238	231
623	252	210	215
624	255	206	215
625	251	196	210
626	255	196	213
627	249	185	208
628	249	182	208
629	251	184	214
630	248	179	212
631	252	187	217
632	252	189	217
633	255	197	221
634	255	200	221
635	255	204	219
636	250	198	214
637	255	208	223
638	254	207	224
639	254	208	226
640	255	213	229
641	254	210	226
642	255	217	231
643	251	213	228
644	0	0	0
645	0	0	0
646	0	0	0
647	0	0	0
648	0	0	0
649	0	0	0
650	0	0	0
651	0	0	0
652	0	0	0
653	0	0	0
654	0	0	0
655	0	0	0
656	0	0	0
657	0	0	0
658	0	0	0
659	0	0	0
660	0	0	0
661	0	0	0
662	0	0	0
663	0	0	0
664	0	0	0
665	0	0	0
666	0	0	0
667	255	248	232
668	255	224	221
669	250	199	210
670	254	196	214
671	251	185	210
672	248	177	208
673	243	166	205
674	247	170	210
675	248	171	213
676	251	179	218
677	254	185	220
678	254	190	220
679	255	196	221
680	255	198	220
681	255	201	219
682	255	207	223
683	255	217	230
684	255	215	229
685	255	215	228
686	255	213	227
687	254	211	226
688	254	212	228
689	248	209	226
690	0	0	0
691	0	0	0
692	0	0	0
693	0	0	0
694	0	0	0
695	0	0	0
696	0	0	0
697	0	0	0
698	0	0	0
699	0	0	0
700	0	0	0
701	0	0	0
702	0	0	0
703	0	0	0
704	0	0	0
705	0	0	0
706	0	0	0
707	0	0	0
708	0	0	0
709	0	0	0
710	0	0	0
711	0	0	0
712	0	0	0
713	255	231	222
714	255	209	213
715	244	180	202
716	249	178	208
717	250	174	209
718	247	166	207
719	251	170	214
720	254	172	218
721	249	167	215
722	252	174	218
723	254	182	220
724	253	185	218
725	255	198	224
726	255	199	222
727	254	197	219
728	255	203	222
729	255	209	226
730	255	207	224
731	255	209	224
732	252	207	223
733	254	211	227
734	253	212	228
735	247	210	227
736	0	0	0
737	0	0	0
738	0	0	0
739	0	0	0
740	0	0	0
741	0	0	0
742	0	0	0
743	0	0	0
744	0	0	0
745	0	0	0
746	0	0	0
747	0	0	0
748	0	0	0
749	0	0	0
750	0	0	0
751	0	0	0
752	0	0	0
753	0	0	0
754	0	0	0
755	0	0	0
756	0	0	0
757	0	0	0
758	255	230	220
759	255	217	218
760	251	192	209
761	239	163	197
762	246	166	206
763	247	161	206
764	252	166	212
765	255	169	216
766	253	167	216
767	249	162	214
768	253	172	219
769	254	179	219
770	255	188	221
771	255	201	228
772	255	196	221
773	251	193	217
774	252	197	219
775	254	202	221
776	252	202	221
777	251	203	223
778	253	208	227
779	254	212	231
780	252	213	230
781	246	211	226
782	0	0	0
783	0	0	0
784	0	0	0
785	0	0	0
786	0	0	0
787	0	0	0
788	0	0	0
789	0	0	0
790	0	0	0
791	0	0	0
792	0	0	0
793	0	0	0
794	0	0	0
795	0	0	0
796	0	0	0
797	0	0	0
798	0	0	0
799	0	0	0
800	0	0	0
801	0	0	0
802	0	0	0
803	255	238	222
804	255	224	219
805	252	194	208
806	243	169	201
807	245	162	204
808	251	164	212
809	249	157	210
810	254	161	215
811	252	158	213
812	249	155	212
813	249	158	216
814	253	168	220
815	253	175	218
816	255	183	219
817	255	194	224
818	252	188	218
819	255	196	222
820	254	199	223
821	254	204	224
822	253	204	224
823	252	206	226
824	253	209	229
825	251	211	230
826	248	211	229
827	247	213	228
828	0	0	0
829	0	0	0
830	0	0	0
831	0	0	0
832	0	0	0
833	0	0	0
834	0	0	0
835	0	0	0
836	0	0	0
837	0	0	0
838	0	0	0
839	0	0	0
840	0	0	0
841	0	0	0
842	0	0	0
843	0	0	0
844	0	0	0
845	0	0	0
846	0	0	0
847	0	0	0
848	255	241	224
849	255	233	221
850	255	202	208
851	245	173	200
852	251	170	208
853	251	162	211
854	253	159	216
855	250	152	215
856	251	152	217
857	248	148	212
858	250	153	216
859	250	155	218
860	253	164	222
861	252	170	218
862	252	176	217
863	255	187	221
864	255	192	222
865	255	199	227
866	254	200	226
867	255	205	228
868	254	206	228
869	254	208	227
870	253	210	228
871	251	211	229
872	249	214	231
873	248	217	231
874	251	226	236
875	0	0	0
876	0	0	0
877	0	0	0
878	0	0	0
879	0	0	0
880	0	0	0
881	0	0	0
882	0	0	0
883	0	0	0
884	0	0	0
885	0	0	0
886	0	0	0
887	0	0	0
888	0	0	0
889	0	0	0
890	0	0	0
891	0	0	0
892	0	0	0
893	255	248	230
894	255	239	227
895	252	197	203
896	240	167	191
897	249	167	203
898	252	162	210
899	248	150	209
900	248	146	212
901	255	153	221
902	255	152	222
903	248	145	215
904	250	149	218
905	251	155	220
906	253	163	223
907	253	171	222
908	253	177	221
909	255	190	226
910	255	195	226
911	253	193	223
912	249	194	222
913	255	211	233
914	255	212	232
915	253	206	225
916	254	209	227
917	249	207	226
918	246	210	228
919	249	221	234
920	248	227	236
921	0	0	0
922	0	0	0
923	0	0	0
924	0	0	0
925	0	0	0
926	0	0	0
927	0	0	0
928	0	0	0
929	0	0	0
930	0	0	0
931	0	0	0
932	0	0	0
933	0	0	0
934	0	0	0
935	0	0	0
936	0	0	0
937	0	0	0
938	255	240	227
939	255	244	230
940	255	204	208
941	238	164	189
942	249	167	202
943	255	164	210
944	251	153	209
945	245	140	208
946	253	148	218
947	255	152	223
948	253	147	220
949	247	140	215
950	250	147	218
951	249	151	216
952	251	161	219
953	253	169	222
954	255	180	226
955	255	193	230
956	255	189	224
957	248	186	218
958	251	198	223
959	255	216	234
960	255	208	227
961	250	202	221
962	248	203	222
963	244	201	222
964	250	216	231
965	251	226	236
966	0	0	0
967	0	0	0
968	0	0	0
969	0	0	0
970	0	0	0
971	0	0	0
972	0	0	0
973	0	0	0
974	0	0	0
975	0	0	0
976	0	0	0
977	0	0	0
978	0	0	0
979	0	0	0
980	0	0	0
981	0	0	0
982	0	0	0
983	255	241	227
984	255	245	232
985	255	216	216
986	246	177	197
987	240	154	194
988	251	157	207
989	248	147	206
990	242	133	203
991	252	144	217
992	255	150	225
993	250	139	217
994	245	133	213
995	252	145	221
996	254	152	223
997	250	153	218
998	252	162	220
999	255	174	227
1000	255	185	231
1001	255	189	229
1002	252	185	222
1003	250	189	221
1004	252	201	225
1005	255	215	233
1006	255	208	227
1007	249	203	222
1008	0	0	0
1009	0	0	0
1010	0	0	0
1011	0	0	0
1012	0	0	0
1013	0	0	0
1014	0	0	0
1015	0	0	0
1016	0	0	0
1017	0	0	0
1018	0	0	0
1019	0	0	0
1020	0	0	0
1021	0	0	0
1022	0	0	0
1023	0	0	0
1024	0	0	0
1025	0	0	0
1026	0	0	0
1027	0	0	0
1028	255	244	228
1029	255	244	226
1030	255	214	210
1031	252	187	201
1032	247	166	199
1033	241	143	200
1034	246	141	209
1035	241	129	204
1036	251	139	215
1037	255	148	226
1038	253	139	221
1039	244	127	213
1040	252	140	222
1041	255	152	228
1042	255	155	227
1043	252	155	223
1044	255	166	226
1045	255	178	230
1046	254	178	225
1047	252	182	225
1048	253	188	226
1049	251	192	223
1050	0	0	0
1051	255	215	234
1052	254	209	229
1053	249	205	226
1054	0	0	0
1055	0	0	0
1056	0	0	0
1057	0	0	0
1058	0	0	0
1059	0	0	0
1060	0	0	0
1061	0	0	0
1062	0	0	0
1063	0	0	0
1064	0	0	0
1065	0	0	0
1066	0	0	0
1067	0	0	0
1068	0	0	0
1069	0	0	0
1070	0	0	0
1071	0	0	0
1072	0	0	0
1073	255	241	226
1074	255	240	226
1075	255	218	211
1076	251	189	198
1077	248	170	198
1078	243	149	199
1079	249	145	211
1080	251	140	217
1081	240	122	207
1082	249	131	216
1083	255	145	227
1084	251	133	220
1085	245	127	217
1086	254	140	226
1087	255	149	227
1088	253	151	225
1089	249	151	222
1090	252	162	225
1091	255	182	232
1092	254	181	227
1093	255	188	230
1094	255	193	231
1095	250	191	224
1096	0	0	0
1097	0	0	0
1098	246	202	225
1099	0	0	0
1100	0	0	0
1101	0	0	0
1102	0	0	0
1103	0	0	0
1104	0	0	0
1105	0	0	0
1106	0	0	0
1107	0	0	0
1108	0	0	0
1109	0	0	0
1110	0	0	0
1111	0	0	0
1112	0	0	0
1113	0	0	0
1114	0	0	0
1115	0	0	0
1116	0	0	0
1117	0	0	0
1118	0	0	0
1119	255	233	221
1120	255	212	210
1121	252	192	201
1122	250	174	200
1123	247	155	203
1124	253	152	213
1125	255	144	219
1126	250	133	218
1127	238	114	207
1128	248	127	217
1129	255	138	223
1130	249	130	218
1131	244	124	217
1132	252	138	226
1133	253	145	223
1134	250	146	221
1135	246	148	222
1136	253	166	230
1137	255	184	235
1138	255	185	230
1139	255	191	232
1140	251	189	228
1141	0	0	0
1142	0	0	0
1143	0	0	0
1144	0	0	0
1145	0	0	0
1146	0	0	0
1147	0	0	0
1148	0	0	0
1149	0	0	0
1150	0	0	0
1151	0	0	0
1152	0	0	0
1153	0	0	0
1154	0	0	0
1155	0	0	0
1156	0	0	0
1157	0	0	0
1158	0	0	0
1159	0	0	0
1160	0	0	0
1161	0	0	0
1162	0	0	0
1163	0	0	0
1164	0	0	0
1165	255	228	222
1166	255	209	213
1167	249	175	201
1168	247	157	202
1169	245	142	206
1170	249	136	213
1171	252	134	218
1172	245	120	214
1173	238	111	209
1174	247	123	217
1175	255	142	227
1176	252	134	221
1177	249	131	223
1178	255	144	232
1179	251	142	223
1180	248	144	220
1181	250	155	228
1182	255	172	236
1183	255	184	236
1184	255	186	232
1185	255	192	233
1186	0	0	0
1187	0	0	0
1188	0	0	0
1189	0	0	0
1190	0	0	0
1191	0	0	0
1192	0	0	0
1193	0	0	0
1194	0	0	0
1195	0	0	0
1196	0	0	0
1197	0	0	0
1198	0	0	0
1199	0	0	0
1200	0	0	0
1201	0	0	0
1202	0	0	0
1203	0	0	0
1204	0	0	0
1205	0	0	0
1206	0	0	0
1207	0	0	0
1208	0	0	0
1209	0	0	0
1210	255	233	228
1211	255	223	222
1212	255	189	209
1213	244	156	203
1214	240	140	205
1215	236	123	204
1216	245	125	212
1217	245	120	212
1218	244	116	213
1219	237	106	209
1220	251	128	223
1221	255	146	232
1222	255	139	226
1223	251	135	226
1224	250	137	227
1225	243	135	220
1226	247	147	224
1227	248	157	228
1228	248	168	231
1229	252	181	236
1230	252	185	234
1231	252	191	233
1232	0	0	0
1233	0	0	0
1234	0	0	0
1235	0	0	0
1236	0	0	0
1237	0	0	0
1238	0	0	0
1239	0	0	0
1240	0	0	0
1241	0	0	0
1242	0	0	0
1243	0	0	0
1244	0	0	0
1245	0	0	0
1246	0	0	0
1247	0	0	0
1248	0	0	0
1249	0	0	0
1250	0	0	0
1251	0	0	0
1252	0	0	0
1253	0	0	0
1254	0	0	0
1255	255	240	232
1256	255	230	229
1257	249	182	203
1258	236	148	193
1259	246	151	211
1260	237	133	209
1261	247	137	220
1262	255	139	227
1263	245	117	213
1264	242	112	213
1265	241	112	215
1266	254	132	229
1267	255	140	228
1268	249	131	221
1269	249	135	225
1270	244	136	225
1271	247	147	227
1272	0	0	0
1273	0	0	0
1274	0	0	0
1275	0	0	0
1276	254	194	239
1277	0	0	0
1278	0	0	0
1279	0	0	0
1280	0	0	0
1281	0	0	0
1282	0	0	0
1283	0	0	0
1284	0	0	0
1285	0	0	0
1286	0	0	0
1287	0	0	0
1288	0	0	0
1289	0	0	0
1290	0	0	0
1291	0	0	0
1292	0	0	0
1293	0	0	0
1294	0	0	0
1295	0	0	0
1296	0	0	0
1297	0	0	0
1298	0	0	0
1299	0	0	0
1300	255	239	233
1301	255	233	229
1302	249	187	205
1303	228	141	188
1304	239	145	204
1305	246	145	216
1306	248	145	222
1307	255	148	230
1308	251	132	224
1309	238	108	210
1310	242	114	216
1311	241	114	219
1312	246	124	223
1313	248	129	222
1314	246	131	221
1315	246	135	224
1316	250	149	231
1317	252	160	234
1318	252	170	236
1319	0	0	0
1320	0	0	0
1321	0	0	0
1322	0	0	0
1323	0	0	0
1324	0	0	0
1325	0	0	0
1326	0	0	0
1327	0	0	0
1328	0	0	0
1329	0	0	0
1330	0	0	0
1331	0	0	0
1332	0	0	0
1333	0	0	0
1334	0	0	0
1335	0	0	0
1336	0	0	0
1337	0	0	0
1338	0	0	0
1339	0	0	0
1340	0	0	0
1341	0	0	0
1342	0	0	0
1343	0	0	0
1344	0	0	0
1345	255	244	237
1346	255	239	236
1347	255	208	217
1348	238	162	195
1349	233	142	200
1350	243	145	215
1351	252	152	225
1352	255	152	230
1353	252	140	227
1354	242	120	217
1355	235	109	211
1356	242	116	219
1357	247	126	226
1358	249	133	229
1359	250	139	229
1360	249	140	227
1361	253	151	233
1362	255	166	241
1363	249	160	232
1364	247	168	232
1365	253	185	239
1366	0	0	0
1367	0	0	0
1368	0	0	0
1369	0	0	0
1370	0	0	0
1371	0	0	0
1372	0	0	0
1373	0	0	0
1374	0	0	0
1375	0	0	0
1376	0	0	0
1377	0	0	0
1378	0	0	0
1379	0	0	0
1380	0	0	0
1381	0	0	0
1382	0	0	0
1383	0	0	0
1384	0	0	0
1385	0	0	0
1386	0	0	0
1387	0	0	0
1388	0	0	0
1389	0	0	0
1390	0	0	0
1391	255	241	233
1392	255	210	219
1393	247	181	205
1394	242	161	204
1395	237	141	208
1396	251	152	225
1397	255	157	231
1398	254	145	226
1399	249	133	224
1400	245	126	223
1401	238	114	217
1402	248	128	228
1403	252	136	232
1404	251	141	233
1405	251	146	233
1406	252	153	235
1407	255	163	238
1408	247	158	231
1409	236	153	224
1410	241	170	231
1411	245	186	236
1412	246	195	236
1413	0	0	0
1414	0	0	0
1415	0	0	0
1416	0	0	0
1417	0	0	0
1418	0	0	0
1419	0	0	0
1420	0	0	0
1421	0	0	0
1422	0	0	0
1423	0	0	0
1424	0	0	0
1425	0	0	0
1426	0	0	0
1427	0	0	0
1428	0	0	0
1429	0	0	0
1430	0	0	0
1431	0	0	0
1432	0	0	0
1433	0	0	0
1434	0	0	0
1435	0	0	0
1436	0	0	0
1437	255	228	227
1438	255	197	214
1439	242	166	203
1440	236	146	202
1441	242	145	217
1442	255	157	233
1443	255	153	231
1444	252	139	225
1445	241	120	219
1446	236	112	217
1447	236	113	219
1448	245	126	228
1449	243	128	228
1450	240	132	228
1451	242	143	231
1452	241	149	231
1453	249	169	239
1454	238	163	230
1455	237	172	233
1456	242	189	241
1457	238	194	237
1458	0	0	0
1459	0	0	0
1460	0	0	0
1461	0	0	0
1462	0	0	0
1463	0	0	0
1464	0	0	0
1465	0	0	0
1466	0	0	0
1467	0	0	0
1468	0	0	0
1469	0	0	0
1470	0	0	0
1471	0	0	0
1472	0	0	0
1473	0	0	0
1474	0	0	0
1475	0	0	0
1476	0	0	0
1477	0	0	0
1478	0	0	0
1479	0	0	0
1480	0	0	0
1481	0	0	0
1482	255	227	224
1483	255	214	219
1484	250	182	207
1485	238	152	202
1486	243	152	215
1487	246	149	224
1488	252	148	230
1489	252	144	227
1490	237	121	215
1491	225	102	209
1492	229	108	217
1493	228	107	217
1494	232	115	222
1495	230	117	223
1496	234	130	230
1497	235	140	233
1498	241	159	239
1499	246	177	242
1500	238	180	237
1501	237	189	242
1502	234	194	241
1503	0	0	0
1504	0	0	0
1505	0	0	0
1506	0	0	0
1507	0	0	0
1508	0	0	0
1509	0	0	0
1510	0	0	0
1511	0	0	0
1512	0	0	0
1513	0	0	0
1514	0	0	0
1515	0	0	0
1516	0	0	0
1517	0	0	0
1518	0	0	0
1519	0	0	0
1520	0	0	0
1521	0	0	0
1522	0	0	0
1523	0	0	0
1524	0	0	0
1525	0	0	0
1526	0	0	0
1527	255	234	229
1528	255	218	223
1529	254	193	211
1530	240	161	200
1531	241	152	210
1532	245	151	222
1533	247	149	228
1534	249	146	230
1535	249	144	228
1536	228	118	213
1537	229	120	221
1538	235	126	230
1539	235	129	230
1540	238	135	235
1541	239	140	238
1542	245	154	246
1543	240	157	244
1544	243	173	247
1545	238	181	241
1546	227	181	234
1547	233	201	244
1548	0	0	0
1549	0	0	0
1550	0	0	0
1551	0	0	0
1552	0	0	0
1553	0	0	0
1554	0	0	0
1555	0	0	0
1556	0	0	0
1557	0	0	0
1558	0	0	0
1559	0	0	0
1560	0	0	0
1561	0	0	0
1562	0	0	0
1563	0	0	0
1564	0	0	0
1565	0	0	0
1566	0	0	0
1567	0	0	0
1568	0	0	0
1569	0	0	0
1570	0	0	0
1571	0	0	0
1572	0	0	0
1573	255	221	223
1574	254	198	216
1575	246	174	209
1576	245	164	213
1577	243	152	219
1578	245	151	226
1579	246	147	229
1580	248	146	231
1581	245	143	228
1582	235	136	224
1583	234	136	229
1584	239	143	237
1585	238	144	236
1586	237	149	238
1587	237	153	240
1588	241	162	245
1589	235	164	241
1590	230	173	240
1591	0	0	0
1592	0	0	0
1593	0	0	0
1594	0	0	0
1595	0	0	0
1596	0	0	0
1597	0	0	0
1598	0	0	0
1599	0	0	0
1600	0	0	0
1601	0	0	0
1602	0	0	0
1603	0	0	0
1604	0	0	0
1605	0	0	0
1606	0	0	0
1607	0	0	0
1608	0	0	0
1609	0	0	0
1610	0	0	0
1611	0	0	0
1612	0	0	0
1613	0	0	0
1614	0	0	0
1615	0	0	0
1616	0	0	0
1617	0	0	0
1618	0	0	0
1619	255	212	221
1620	254	191	218
1621	241	162	209
1622	238	150	212
1623	247	158	227
1624	248	155	232
1625	248	152	232
1626	249	150	233
1627	245	146	229
1628	234	138	225
1629	238	148	235
1630	241	153	240
1631	236	152	236
1632	229	154	235
1633	229	161	240
1634	235	171	246
1635	229	175	241
1636	0	0	0
1637	0	0	0
1638	0	0	0
1639	0	0	0
1640	0	0	0
1641	0	0	0
1642	0	0	0
1643	0	0	0
1644	0	0	0
1645	0	0	0
1646	0	0	0
1647	0	0	0
1648	0	0	0
1649	0	0	0
1650	0	0	0
1651	0	0	0
1652	0	0	0
1653	0	0	0
1654	0	0	0
1655	0	0	0
1656	0	0	0
1657	0	0	0
1658	0	0	0
1659	0	0	0
1660	0	0	0
1661	0	0	0
1662	0	0	0
1663	0	0	0
1664	255	218	222
1665	255	202	219
1666	247	177	213
1667	233	148	207
1668	245	159	224
1669	251	165	233
1670	248	159	232
1671	248	155	233
1672	250	155	235
1673	246	151	233
1674	245	157	238
1675	247	164	245
1676	244	166	245
1677	237	164	240
1678	229	167	240
1679	228	173	245
1680	230	183	249
1681	0	0	0
1682	0	0	0
1683	0	0	0
1684	0	0	0
1685	0	0	0
1686	0	0	0
1687	0	0	0
1688	0	0	0
1689	0	0	0
1690	0	0	0
1691	0	0	0
1692	0	0	0
1693	0	0	0
1694	0	0	0
1695	0	0	0
1696	0	0	0
1697	0	0	0
1698	0	0	0
1699	0	0	0
1700	0	0	0
1701	0	0	0
1702	0	0	0
1703	0	0	0
1704	0	0	0
1705	0	0	0
1706	0	0	0
1707	0	0	0
1708	0	0	0
1709	255	231	232
1710	254	210	222
1711	247	188	215
1712	236	161	207
1713	237	154	215
1714	249	165	232
1715	244	157	229
1716	239	149	225
1717	247	159	234
1718	249	158	237
1719	241	148	232
1720	242	155	238
1721	244	166	244
1722	237	164	240
1723	237	174	243
1724	230	177	243
1725	223	179	243
1726	0	0	0
1727	0	0	0
1728	0	0	0
1729	0	0	0
1730	0	0	0
1731	0	0	0
1732	0	0	0
1733	0	0	0
1734	0	0	0
1735	0	0	0
1736	0	0	0
1737	0	0	0
1738	0	0	0
1739	0	0	0
1740	0	0	0
1741	0	0	0
1742	0	0	0
1743	0	0	0
1744	0	0	0
1745	0	0	0
1746	0	0	0
1747	0	0	0
1748	0	0	0
1749	0	0	0
1750	0	0	0
1751	0	0	0
1752	0	0	0
1753	0	0	0
1754	255	231	233
1755	255	223	229
1756	253	200	219
1757	244	177	215
1758	242	169	219
1759	240	160	224
1760	242	158	229
1761	237	149	226
1762	241	157	233
1763	247	165	238
1764	241	155	232
1765	232	145	230
1766	236	157	239
1767	236	165	242
1768	233	173	243
1769	232	182	244
1770	223	182	239
1771	0	0	0
1772	0	0	0
1773	0	0	0
1774	0	0	0
1775	0	0	0
1776	0	0	0
1777	0	0	0
1778	0	0	0
1779	0	0	0
1780	0	0	0
1781	0	0	0
1782	0	0	0
1783	0	0	0
1784	0	0	0
1785	0	0	0
1786	0	0	0
1787	0	0	0
1788	0	0	0
1789	0	0	0
1790	0	0	0
1791	0	0	0
1792	0	0	0
1793	0	0	0
1794	0	0	0
1795	0	0	0
1796	0	0	0
1797	0	0	0
1798	0	0	0
1799	255	241	237
1800	255	238	241
1801	253	202	220
1802	243	177	211
1803	237	163	213
1804	231	153	215
1805	241	164	230
1806	242	161	233
1807	238	154	232
1808	242	162	238
1809	235	157	233
1810	224	144	225
1811	232	160	238
1812	234	170	245
1813	225	169	241
1814	0	0	0
1815	0	0	0
1816	0	0	0
1817	0	0	0
1818	0	0	0
1819	0	0	0
1820	0	0	0
1821	0	0	0
1822	0	0	0
1823	0	0	0
1824	0	0	0
1825	0	0	0
1826	0	0	0
1827	0	0	0
1828	0	0	0
1829	0	0	0
1830	0	0	0
1831	0	0	0
1832	0	0	0
1833	0	0	0
1834	0	0	0
1835	0	0	0
1836	0	0	0
1837	0	0	0
1838	0	0	0
1839	0	0	0
1840	0	0	0
1841	0	0	0
1842	0	0	0
1843	0	0	0
1844	255	245	234
1845	255	244	240
1846	255	211	225
1847	238	176	209
1848	235	164	211
1849	227	149	212
1850	235	160	226
1851	242	169	236
1852	241	164	236
1853	235	156	234
1854	228	152	232
1855	220	146	228
1856	225	160	237
1857	230	173	245
1858	227	176	245
1859	0	0	0
1860	0	0	0
1861	0	0	0
1862	0	0	0
1863	0	0	0
1864	0	0	0
1865	0	0	0
1866	0	0	0
1867	0	0	0
1868	0	0	0
1869	0	0	0
1870	0	0	0
1871	0	0	0
1872	0	0	0
1873	0	0	0
1874	0	0	0
1875	0	0	0
1876	0	0	0
1877	0	0	0
1878	0	0	0
1879	0	0	0
1880	0	0	0
1881	0	0	0
1882	0	0	0
1883	0	0	0
1884	0	0	0
1885	0	0	0
1886	0	0	0
1887	0	0	0
1888	0	0	0
1889	255	249	235
1890	255	245	236
1891	255	223	228
1892	240	187	212
1893	236	173	214
1894	229	160	215
1895	231	160	225
1896	241	172	239
1897	237	166	236
1898	233	159	234
1899	233	163	238
1900	222	155	234
1901	220	162	238
1902	225	175	245
1903	226	183	248
1904	225	187	247
1905	221	189	245
1906	0	0	0
1907	0	0	0
1908	0	0	0
1909	0	0	0
1910	0	0	0
1911	0	0	0
1912	0	0	0
1913	0	0	0
1914	0	0	0
1915	0	0	0
1916	0	0	0
1917	0	0	0
1918	0	0	0
1919	0	0	0
1920	0	0	0
1921	0	0	0
1922	0	0	0
1923	0	0	0
1924	0	0	0
1925	0	0	0
1926	0	0	0
1927	0	0	0
1928	0	0	0
1929	0	0	0
1930	0	0	0
1931	0	0	0
1932	0	0	0
1933	0	0	0
1934	0	0	0
1935	255	247	238
1936	255	224	228
1937	248	201	218
1938	242	187	217
1939	235	173	220
1940	234	171	228
1941	234	169	235
1942	237	169	240
1943	232	162	237
1944	232	166	240
1945	231	169	244
1946	229	176	246
1947	226	181	247
1948	224	188	248
1949	225	195	250
1950	225	199	249
1951	0	0	0
1952	0	0	0
1953	0	0	0
1954	0	0	0
1955	0	0	0
1956	0	0	0
1957	0	0	0
1958	0	0	0
1959	0	0	0
1960	0	0	0
1961	0	0	0
1962	0	0	0
1963	0	0	0
1964	0	0	0
1965	0	0	0
1966	0	0	0
1967	0	0	0
1968	0	0	0
1969	0	0	0
1970	0	0	0
1971	0	0	0
1972	0	0	0
1973	0	0	0
1974	0	0	0
1975	0	0	0
1976	0	0	0
1977	0	0	0
1978	0	0	0
1979	0	0	0
1980	0	0	0
1981	255	239	238
1982	255	215	228
1983	243	188	215
1984	234	172	214
1985	231	170	223
1986	228	166	229
1987	233	173	240
1988	237	173	245
1989	225	158	235
1990	219	159	235
1991	229	178	248
1992	232	187	252
1993	221	180	243
1994	216	185	242
1995	220	198	246
1996	0	0	0
1997	0	0	0
1998	0	0	0
1999	0	0	0
2000	0	0	0
2001	0	0	0
2002	0	0	0
2003	0	0	0
2004	0	0	0
2005	0	0	0
2006	0	0	0
2007	0	0	0
2008	0	0	0
2009	0	0	0
2010	0	0	0
2011	0	0	0
2012	0	0	0
2013	0	0	0
2014	0	0	0
2015	0	0	0
2016	0	0	0
2017	0	0	0
2018	0	0	0
2019	0	0	0
2020	0	0	0
2021	0	0	0
2022	0	0	0
2023	0	0	0
2024	0	0	0
2025	0	0	0
2026	255	234	235
2027	255	227	234
2028	250	201	223
2029	235	173	213
2030	234	173	221
2031	230	168	228
2032	231	173	237
2033	236	178	245
2034	232	170	242
2035	219	155	233
2036	225	172	243
2037	232	190	253
2038	224	184	245
2039	214	177	237
2040	215	190	241
2041	0	0	0
2042	0	0	0
2043	0	0	0
2044	0	0	0
2045	0	0	0
2046	0	0	0
2047	0	0	0
2048	0	0	0
2049	0	0	0
2050	0	0	0
2051	0	0	0
2052	0	0	0
2053	0	0	0
2054	0	0	0
2055	0	0	0
2056	0	0	0
2057	0	0	0
2058	0	0	0
2059	0	0	0
2060	0	0	0
2061	0	0	0
2062	0	0	0
2063	0	0	0
2064	0	0	0
2065	0	0	0
2066	0	0	0
2067	0	0	0
2068	0	0	0
2069	0	0	0
2070	0	0	0
2071	255	244	243
2072	255	234	239
2073	252	210	227
2074	238	182	215
2075	235	175	219
2076	234	173	227
2077	233	174	235
2078	236	179	244
2079	235	177	245
2080	226	165	238
2081	0	0	0
2082	0	0	0
2083	234	196	252
2084	0	0	0
2085	0	0	0
2086	0	0	0
2087	0	0	0
2088	0	0	0
2089	0	0	0
2090	0	0	0
2091	0	0	0
2092	0	0	0
2093	0	0	0
2094	0	0	0
2095	0	0	0
2096	0	0	0
2097	0	0	0
2098	0	0	0
2099	0	0	0
2100	0	0	0
2101	0	0	0
2102	0	0	0
2103	0	0	0
2104	0	0	0
2105	0	0	0
2106	0	0	0
2107	0	0	0
2108	0	0	0
2109	0	0	0
2110	0	0	0
2111	0	0	0
2112	0	0	0
2113	0	0	0
2114	0	0	0
2115	0	0	0
2116	0	0	0
2117	255	241	244
2118	254	218	232
2119	244	194	221
2120	242	187	223
2121	237	178	226
2122	236	178	233
2123	235	177	239
2124	233	176	242
2125	229	173	241
2126	0	0	0
2127	0	0	0
2128	0	0	0
2129	0	0	0
2130	0	0	0
2131	0	0	0
2132	0	0	0
2133	0	0	0
2134	0	0	0
2135	0	0	0
2136	0	0	0
2137	0	0	0
2138	0	0	0
2139	0	0	0
2140	0	0	0
2141	0	0	0
2142	0	0	0
2143	0	0	0
2144	0	0	0
2145	0	0	0
2146	0	0	0
2147	0	0	0
2148	0	0	0
2149	0	0	0
2150	0	0	0
2151	0	0	0
2152	0	0	0
2153	0	0	0
2154	0	0	0
2155	0	0	0
2156	0	0	0
2157	0	0	0
2158	0	0	0
2159	0	0	0
2160	0	0	0
2161	0	0	0
2162	0	0	0
2163	255	229	239
2164	249	204	228
2165	243	189	223
2166	239	180	224
2167	235	175	228
2168	0	0	0
2169	242	187	245
2170	0	0	0
2171	0	0	0
2172	0	0	0
2173	0	0	0
2174	0	0	0
2175	0	0	0
2176	0	0	0
2177	0	0	0
2178	0	0	0
2179	0	0	0
2180	0	0	0
2181	0	0	0
2182	0	0	0
2183	0	0	0
2184	0	0	0
2185	0	0	0
2186	0	0	0
2187	0	0	0
2188	0	0	0
2189	0	0	0
2190	0	0	0
2191	0	0	0
2192	0	0	0
2193	0	0	0
2194	0	0	0
2195	0	0	0
2196	0	0	0
2197	0	0	0
2198	0	0	0
2199	0	0	0
2200	0	0	0
2201	0	0	0
2202	0	0	0
2203	0	0	0
2204	0	0	0
2205	0	0	0
2206	0	0	0
2207	0	0	0
2208	0	0	0
2209	254	213	231
2210	247	198	227
2211	239	182	225
2212	234	177	228
2213	0	0	0
2214	0	0	0
2215	0	0	0
2216	0	0	0
2217	0	0	0
2218	0	0	0
2219	0	0	0
2220	0	0	0
2221	0	0	0
2222	0	0	0
2223	0	0	0
2224	0	0	0
2225	0	0	0
2226	0	0	0
2227	0	0	0
2228	0	0	0
2229	0	0	0
2230	0	0	0
2231	0	0	0
2232	0	0	0
2233	0	0	0
2234	0	0	0
2235	0	0	0
2236	0	0	0
2237	0	0	0
2238	0	0	0
2239	0	0	0
2240	0	0	0
2241	0	0	0
2242	0	0	0
2243	0	0	0
2244	0	0	0
2245	0	0	0
2246	0	0	0
2247	0	0	0
2248	0	0	0
2249	0	0	0
2250	0	0	0
2251	0	0	0
2252	0	0	0
2253	0	0	0
2254	0	0	0
2255	252	208	230
2256	242	191	226
2257	236	183	228
2258	0	0	0
2259	0	0	0
2260	0	0	0
2261	0	0	0
2262	0	0	0
2263	0	0	0
2264	0	0	0
2265	0	0	0
2266	0	0	0
2267	0	0	0
2268	0	0	0
2269	0	0	0
2270	0	0	0
2271	0	0	0
2272	0	0	0
2273	0	0	0
2274	0	0	0
2275	0	0	0
2276	0	0	0
2277	0	0	0
2278	0	0	0
2279	0	0	0
2280	0	0	0
2281	0	0	0
2282	0	0	0
2283	0	0	0
2284	0	0	0
2285	0	0	0
2286	0	0	0
2287	0	0	0
2288	0	0	0
2289	0	0	0
2290	0	0	0
2291	0	0	0
2292	0	0	0
2293	0	0	0
2294	0	0	0
2295	0	0	0
2296	0	0	0
2297	0	0	0
2298	0	0	0
2299	0	0	0
2300	0	0	0
2301	0	0	0
2302	244	194	230
2303	0	0	0
2304	0	0	0
2305	0	0	0
2306	0	0	0
2307	0	0	0
2308	0	0	0
2309	0	0	0
2310	0	0	0
2311	0	0	0
2312	0	0	0
2313	0	0	0
2314	0	0	0
2315	0	0	0
2316	0	0	0
2317	0	0	0
2318	0	0	0
2319	0	0	0
2320	0	0	0
2321	0	0	0
2322	0	0	0
2323	0	0	0
2324	0	0	0
2325	0	0	0
2326	0	0	0
2327	0	0	0
2328	0	0	0
2329	0	0	0
2330	0	0	0
2331	0	0	0
2332	0	0	0
2333	0	0	0
2334	0	0	0
2335	0	0	0
2336	0	0	0
2337	0	0	0
2338	0	0	0
2339	0	0	0
2340	0	0	0
2341	0	0	0
2342	0	0	0
2343	0	0	0
2344	0	0	0
2345	0	0	0
2346	0	0	0
