 	R	G	B
1	0	0	0
2	0	0	0
3	0	0	0
4	0	0	0
5	0	0	0
6	248	217	232
7	0	0	0
8	0	0	0
9	0	0	0
10	0	0	0
11	0	0	0
12	0	0	0
13	0	0	0
14	0	0	0
15	0	0	0
16	0	0	0
17	0	0	0
18	0	0	0
19	0	0	0
20	0	0	0
21	0	0	0
22	0	0	0
23	0	0	0
24	0	0	0
25	0	0	0
26	0	0	0
27	0	0	0
28	0	0	0
29	0	0	0
30	0	0	0
31	0	0	0
32	0	0	0
33	248	237	239
34	244	217	230
35	234	194	219
36	0	0	0
37	0	0	0
38	0	0	0
39	0	0	0
40	0	0	0
41	0	0	0
42	0	0	0
43	0	0	0
44	0	0	0
45	0	0	0
46	0	0	0
47	0	0	0
48	0	0	0
49	0	0	0
50	0	0	0
51	0	0	0
52	0	0	0
53	0	0	0
54	0	0	0
55	0	0	0
56	0	0	0
57	0	0	0
58	0	0	0
59	0	0	0
60	0	0	0
61	251	242	243
62	250	225	237
63	241	203	227
64	0	0	0
65	0	0	0
66	0	0	0
67	0	0	0
68	0	0	0
69	0	0	0
70	0	0	0
71	0	0	0
72	0	0	0
73	0	0	0
74	0	0	0
75	0	0	0
76	0	0	0
77	0	0	0
78	0	0	0
79	0	0	0
80	0	0	0
81	0	0	0
82	0	0	0
83	0	0	0
84	0	0	0
85	0	0	0
86	0	0	0
87	0	0	0
88	0	0	0
89	251	240	242
90	253	225	238
91	243	197	226
92	0	0	0
93	0	0	0
94	0	0	0
95	0	0	0
96	0	0	0
97	0	0	0
98	0	0	0
99	0	0	0
100	0	0	0
101	0	0	0
102	0	0	0
103	0	0	0
104	0	0	0
105	0	0	0
106	0	0	0
107	0	0	0
108	0	0	0
109	0	0	0
110	0	0	0
111	0	0	0
112	0	0	0
113	0	0	0
114	0	0	0
115	0	0	0
116	0	0	0
117	248	236	239
118	248	215	232
119	239	189	221
120	247	191	230
121	0	0	0
122	0	0	0
123	0	0	0
124	0	0	0
125	0	0	0
126	0	0	0
127	0	0	0
128	0	0	0
129	0	0	0
130	0	0	0
131	0	0	0
132	0	0	0
133	0	0	0
134	0	0	0
135	0	0	0
136	0	0	0
137	0	0	0
138	0	0	0
139	0	0	0
140	0	0	0
141	0	0	0
142	0	0	0
143	0	0	0
144	0	0	0
145	251	239	241
146	251	219	235
147	239	187	222
148	0	0	0
149	0	0	0
150	0	0	0
151	0	0	0
152	0	0	0
153	0	0	0
154	0	0	0
155	0	0	0
156	0	0	0
157	0	0	0
158	0	0	0
159	0	0	0
160	0	0	0
161	0	0	0
162	0	0	0
163	0	0	0
164	0	0	0
165	0	0	0
166	0	0	0
167	0	0	0
168	0	0	0
169	0	0	0
170	0	0	0
171	0	0	0
172	0	0	0
173	254	243	244
174	247	214	232
175	234	182	218
176	0	0	0
177	0	0	0
178	0	0	0
179	0	0	0
180	0	0	0
181	0	0	0
182	0	0	0
183	0	0	0
184	0	0	0
185	0	0	0
186	0	0	0
187	0	0	0
188	0	0	0
189	0	0	0
190	0	0	0
191	0	0	0
192	0	0	0
193	0	0	0
194	0	0	0
195	0	0	0
196	0	0	0
197	0	0	0
198	0	0	0
199	0	0	0
200	0	0	0
201	255	243	244
202	246	212	230
203	236	184	219
204	247	189	233
205	0	0	0
206	0	0	0
207	0	0	0
208	0	0	0
209	0	0	0
210	0	0	0
211	0	0	0
212	0	0	0
213	0	0	0
214	0	0	0
215	0	0	0
216	0	0	0
217	0	0	0
218	0	0	0
219	0	0	0
220	0	0	0
221	0	0	0
222	0	0	0
223	0	0	0
224	0	0	0
225	0	0	0
226	0	0	0
227	0	0	0
228	0	0	0
229	254	239	240
230	246	213	230
231	235	184	219
232	238	179	225
233	225	159	217
234	0	0	0
235	0	0	0
236	0	0	0
237	0	0	0
238	0	0	0
239	0	0	0
240	0	0	0
241	0	0	0
242	0	0	0
243	0	0	0
244	0	0	0
245	0	0	0
246	0	0	0
247	0	0	0
248	0	0	0
249	0	0	0
250	0	0	0
251	0	0	0
252	0	0	0
253	0	0	0
254	0	0	0
255	0	0	0
256	0	0	0
257	251	238	239
258	244	213	229
259	225	174	212
260	226	168	218
261	230	169	225
262	249	192	244
263	0	0	0
264	0	0	0
265	0	0	0
266	0	0	0
267	0	0	0
268	0	0	0
269	0	0	0
270	0	0	0
271	0	0	0
272	0	0	0
273	0	0	0
274	0	0	0
275	0	0	0
276	0	0	0
277	0	0	0
278	0	0	0
279	0	0	0
280	0	0	0
281	0	0	0
282	0	0	0
283	0	0	0
284	247	239	238
285	254	241	241
286	239	205	225
287	219	167	211
288	233	179	230
289	236	180	234
290	241	179	236
291	0	0	0
292	0	0	0
293	0	0	0
294	0	0	0
295	0	0	0
296	0	0	0
297	0	0	0
298	0	0	0
299	0	0	0
300	0	0	0
301	0	0	0
302	0	0	0
303	0	0	0
304	0	0	0
305	0	0	0
306	0	0	0
307	0	0	0
308	0	0	0
309	0	0	0
310	0	0	0
311	254	251	246
312	255	246	244
313	252	231	236
314	233	194	219
315	219	166	214
316	231	178	232
317	227	168	228
318	232	167	230
319	228	158	223
320	236	173	231
321	233	174	227
322	0	0	0
323	0	0	0
324	0	0	0
325	0	0	0
326	0	0	0
327	0	0	0
328	0	0	0
329	0	0	0
330	0	0	0
331	0	0	0
332	0	0	0
333	0	0	0
334	0	0	0
335	0	0	0
336	0	0	0
337	0	0	0
338	0	0	0
339	254	251	243
340	248	231	232
341	245	218	227
342	233	192	220
343	218	165	215
344	220	164	224
345	216	154	222
346	225	158	228
347	220	149	220
348	226	159	224
349	225	161	222
350	243	188	235
351	0	0	0
352	0	0	0
353	0	0	0
354	0	0	0
355	0	0	0
356	0	0	0
357	0	0	0
358	0	0	0
359	0	0	0
360	0	0	0
361	0	0	0
362	0	0	0
363	0	0	0
364	0	0	0
365	0	0	0
366	0	0	0
367	251	248	240
368	244	228	231
369	241	213	226
370	231	189	220
371	217	163	216
372	217	162	225
373	218	160	230
374	225	163	235
375	216	148	221
376	224	159	226
377	232	171	231
378	250	197	244
379	239	191	230
380	0	0	0
381	0	0	0
382	0	0	0
383	0	0	0
384	0	0	0
385	0	0	0
386	0	0	0
387	0	0	0
388	0	0	0
389	0	0	0
390	0	0	0
391	0	0	0
392	0	0	0
393	0	0	0
394	0	0	0
395	249	244	241
396	241	223	231
397	237	208	226
398	228	187	221
399	214	160	215
400	219	166	228
401	220	164	233
402	219	159	232
403	210	143	219
404	227	165	231
405	236	177	234
406	240	183	234
407	231	178	224
408	0	0	0
409	0	0	0
410	0	0	0
411	0	0	0
412	0	0	0
413	0	0	0
414	0	0	0
415	0	0	0
416	0	0	0
417	0	0	0
418	0	0	0
419	0	0	0
420	0	0	0
421	0	0	0
422	0	0	0
423	255	251	247
424	245	228	235
425	234	204	225
426	225	183	220
427	217	166	220
428	224	172	233
429	220	164	233
430	217	158	231
431	210	144	221
432	230	168	235
433	234	173	233
434	238	178	232
435	229	172	225
436	0	0	0
437	0	0	0
438	0	0	0
439	0	0	0
440	0	0	0
441	0	0	0
442	0	0	0
443	0	0	0
444	0	0	0
445	0	0	0
446	0	0	0
447	0	0	0
448	0	0	0
449	0	0	0
450	0	0	0
451	255	254	246
452	242	224	229
453	232	200	222
454	231	190	226
455	224	173	227
456	226	172	234
457	221	163	232
458	220	159	231
459	212	146	223
460	225	162	232
461	229	166	229
462	232	170	228
463	225	165	222
464	0	0	0
465	0	0	0
466	0	0	0
467	0	0	0
468	0	0	0
469	0	0	0
470	0	0	0
471	0	0	0
472	0	0	0
473	0	0	0
474	0	0	0
475	0	0	0
476	0	0	0
477	0	0	0
478	0	0	0
479	254	248	242
480	239	218	225
481	231	196	220
482	233	187	225
483	227	172	226
484	226	169	231
485	223	162	231
486	224	159	232
487	217	148	226
488	225	161	233
489	221	157	225
490	225	162	225
491	229	170	228
492	0	0	0
493	0	0	0
494	0	0	0
495	0	0	0
496	0	0	0
497	0	0	0
498	0	0	0
499	0	0	0
500	0	0	0
501	0	0	0
502	0	0	0
503	0	0	0
504	0	0	0
505	0	0	0
506	250	244	240
507	255	246	242
508	240	217	227
509	232	194	220
510	232	184	223
511	225	167	220
512	225	165	226
513	222	158	228
514	223	156	230
515	216	145	223
516	216	149	225
517	213	146	220
518	229	165	231
519	233	173	232
520	0	0	0
521	0	0	0
522	0	0	0
523	0	0	0
524	0	0	0
525	0	0	0
526	0	0	0
527	0	0	0
528	0	0	0
529	0	0	0
530	0	0	0
531	0	0	0
532	0	0	0
533	253	249	244
534	255	246	243
535	253	236	238
536	236	206	222
537	233	193	220
538	230	181	220
539	227	170	221
540	229	169	228
541	226	162	230
542	225	159	232
543	218	149	226
544	221	155	229
545	222	156	229
546	240	177	241
547	232	168	230
548	0	0	0
549	0	0	0
550	0	0	0
551	0	0	0
552	0	0	0
553	0	0	0
554	0	0	0
555	0	0	0
556	0	0	0
557	0	0	0
558	0	0	0
559	0	0	0
560	0	0	0
561	253	247	243
562	249	234	236
563	248	224	232
564	242	208	225
565	238	195	223
566	240	189	227
567	238	179	230
568	240	177	236
569	236	169	237
570	231	163	236
571	224	154	229
572	228	161	233
573	229	162	231
574	235	167	232
575	228	159	224
576	240	182	232
577	0	0	0
578	0	0	0
579	0	0	0
580	0	0	0
581	0	0	0
582	0	0	0
583	0	0	0
584	0	0	0
585	0	0	0
586	0	0	0
587	0	0	0
588	0	0	0
589	255	251	244
590	252	236	236
591	247	220	230
592	244	207	226
593	244	194	225
594	249	190	231
595	244	174	229
596	245	170	233
597	244	169	237
598	236	161	233
599	232	159	232
600	236	166	236
601	234	163	231
602	238	167	232
603	232	160	226
604	245	184	236
605	237	182	223
606	0	0	0
607	0	0	0
608	0	0	0
609	0	0	0
610	0	0	0
611	0	0	0
612	0	0	0
613	0	0	0
614	0	0	0
615	0	0	0
616	0	0	0
617	255	254	242
618	251	233	231
619	248	218	227
620	248	206	227
621	249	193	227
622	252	184	229
623	246	168	226
624	251	171	233
625	249	168	233
626	243	165	232
627	240	163	232
628	240	164	233
629	238	162	230
630	240	164	231
631	234	158	224
632	238	168	227
633	232	168	220
634	245	195	230
635	0	0	0
636	0	0	0
637	0	0	0
638	0	0	0
639	0	0	0
640	0	0	0
641	0	0	0
642	0	0	0
643	0	0	0
644	0	0	0
645	255	246	238
646	251	227	228
647	250	212	226
648	250	200	226
649	252	190	229
650	252	179	228
651	245	163	223
652	249	165	228
653	248	165	229
654	246	164	230
655	248	168	234
656	249	170	236
657	243	162	230
658	244	164	231
659	239	159	226
660	243	170	231
661	237	168	225
662	250	196	236
663	248	203	230
664	0	0	0
665	0	0	0
666	0	0	0
667	0	0	0
668	0	0	0
669	0	0	0
670	0	0	0
671	0	0	0
672	0	0	0
673	254	239	237
674	248	219	228
675	247	204	225
676	250	195	227
677	251	185	228
678	250	174	227
679	241	157	218
680	247	163	225
681	249	164	228
682	254	170	234
683	255	173	237
684	250	167	233
685	244	158	227
686	243	159	227
687	238	156	225
688	242	164	229
689	236	163	223
690	243	180	229
691	241	189	224
692	0	0	0
693	0	0	0
694	0	0	0
695	0	0	0
696	0	0	0
697	0	0	0
698	0	0	0
699	0	0	0
700	0	0	0
701	254	238	239
702	246	216	228
703	250	209	230
704	254	200	231
705	252	187	230
706	248	174	227
707	245	164	222
708	252	170	229
709	253	168	232
710	255	175	238
711	254	167	233
712	248	160	228
713	247	161	228
714	246	162	229
715	242	160	228
716	246	169	232
717	240	166	226
718	250	185	233
719	245	187	227
720	0	0	0
721	0	0	0
722	0	0	0
723	0	0	0
724	0	0	0
725	0	0	0
726	0	0	0
727	0	0	0
728	0	0	0
729	253	235	240
730	252	222	234
731	255	214	233
732	254	200	230
733	251	186	227
734	251	180	228
735	248	170	226
736	254	173	232
737	255	172	234
738	255	171	236
739	255	164	232
740	255	169	237
741	255	170	237
742	254	169	235
743	249	167	233
744	247	168	230
745	242	166	223
746	248	178	228
747	244	181	224
748	249	199	229
749	0	0	0
750	0	0	0
751	0	0	0
752	0	0	0
753	0	0	0
754	0	0	0
755	0	0	0
756	0	0	0
757	255	233	240
758	255	221	235
759	253	209	231
760	249	193	225
761	253	190	228
762	253	184	229
763	253	178	230
764	255	181	237
765	255	168	232
766	255	168	235
767	251	154	227
768	255	161	233
769	247	148	224
770	243	147	222
771	254	167	233
772	250	169	231
773	244	164	223
774	250	177	229
775	245	175	224
776	252	195	232
777	249	201	228
778	0	0	0
779	0	0	0
780	0	0	0
781	0	0	0
782	0	0	0
783	0	0	0
784	0	0	0
785	253	229	238
786	251	215	231
787	250	203	228
788	254	200	230
789	255	195	230
790	255	190	231
791	255	184	232
792	255	175	231
793	251	162	226
794	250	154	225
795	242	140	217
796	241	136	216
797	231	124	209
798	243	145	222
799	253	166	232
800	247	162	226
801	243	159	223
802	247	168	228
803	243	168	224
804	248	182	228
805	244	188	223
806	0	0	0
807	0	0	0
808	0	0	0
809	0	0	0
810	0	0	0
811	0	0	0
812	0	0	0
813	255	232	240
814	250	216	233
815	251	207	232
816	255	204	233
817	254	195	228
818	255	189	228
819	255	183	231
820	255	174	230
821	253	164	229
822	251	156	228
823	240	138	218
824	236	133	216
825	237	137	220
826	249	159	232
827	255	174	237
828	254	172	233
829	243	158	224
830	250	168	231
831	249	171	229
832	254	185	234
833	242	180	222
834	0	0	0
835	0	0	0
836	0	0	0
837	0	0	0
838	0	0	0
839	0	0	0
840	0	0	0
841	255	234	243
842	252	220	237
843	252	211	234
844	253	203	231
845	251	192	225
846	250	185	224
847	251	178	226
848	249	168	225
849	246	158	225
850	240	146	222
851	229	128	213
852	240	142	225
853	241	147	228
854	251	164	237
855	255	179	239
856	246	163	225
857	237	151	218
858	249	165	230
859	249	168	228
860	247	173	227
861	238	170	220
862	253	200	234
863	0	0	0
864	0	0	0
865	0	0	0
866	0	0	0
867	0	0	0
868	0	0	0
869	255	235	244
870	252	222	238
871	253	215	237
872	253	206	233
873	252	198	229
874	250	189	226
875	253	187	230
876	251	177	229
877	252	172	233
878	243	158	228
879	239	149	225
880	254	165	240
881	247	156	233
882	255	174	242
883	255	176	236
884	241	159	222
885	244	162	227
886	255	179	240
887	247	163	225
888	244	167	225
889	243	173	226
890	255	205	242
891	254	206	232
892	0	0	0
893	0	0	0
894	0	0	0
895	0	0	0
896	0	0	0
897	0	0	0
898	252	226	240
899	253	218	239
900	253	210	237
901	251	201	232
902	253	198	232
903	255	195	232
904	255	190	233
905	255	184	236
906	251	176	234
907	247	167	232
908	252	168	236
909	246	159	229
910	254	169	235
911	254	173	234
912	250	171	231
913	251	174	235
914	249	167	232
915	237	151	218
916	241	164	224
917	241	171	225
918	247	182	229
919	241	184	221
920	0	0	0
921	0	0	0
922	0	0	0
923	0	0	0
924	0	0	0
925	251	239	244
926	253	230	241
927	251	219	239
928	248	209	235
929	251	208	236
930	254	205	236
931	253	196	231
932	254	190	230
933	254	185	232
934	251	177	230
935	252	176	233
936	253	176	235
937	247	164	228
938	255	177	238
939	253	168	231
940	250	168	231
941	245	164	230
942	236	154	223
943	236	157	224
944	246	174	234
945	238	167	225
946	242	177	227
947	241	185	226
948	0	0	0
949	0	0	0
950	0	0	0
951	0	0	0
952	0	0	0
953	251	242	244
954	251	231	239
955	248	220	236
956	249	217	237
957	253	216	239
958	254	208	237
959	253	199	233
960	254	194	233
961	255	189	232
962	255	190	236
963	255	188	236
964	252	178	232
965	247	168	229
966	250	166	231
967	244	159	226
968	241	157	226
969	236	153	224
970	237	160	229
971	238	165	232
972	240	167	232
973	232	160	222
974	241	177	230
975	243	186	230
976	254	208	239
977	0	0	0
978	0	0	0
979	0	0	0
980	0	0	0
981	249	242	243
982	246	230	237
983	247	223	237
984	249	221	238
985	253	219	240
986	255	211	238
987	255	204	236
988	254	198	235
989	253	191	232
990	255	192	236
991	253	183	231
992	247	173	227
993	249	174	232
994	250	172	234
995	246	167	231
996	245	168	233
997	236	158	228
998	239	165	235
999	237	165	234
1000	238	167	233
1001	234	163	227
1002	245	181	236
1003	239	177	229
1004	254	200	240
1005	250	205	235
1006	0	0	0
1007	0	0	0
1008	0	0	0
1009	0	0	0
1010	247	234	241
1011	246	227	240
1012	244	221	238
1013	248	218	238
1014	251	212	237
1015	252	206	235
1016	253	201	236
1017	252	193	234
1018	253	188	235
1019	249	180	232
1020	248	179	233
1021	248	179	234
1022	247	176	234
1023	243	172	232
1024	237	165	229
1025	229	156	226
1026	231	161	231
1027	229	160	228
1028	232	163	229
1029	229	161	225
1030	230	163	225
1031	226	160	220
1032	237	177	228
1033	0	0	0
1034	0	0	0
1035	0	0	0
1036	0	0	0
1037	0	0	0
1038	0	0	0
1039	0	0	0
1040	0	0	0
1041	248	229	242
1042	252	224	241
1043	253	214	238
1044	255	211	242
1045	248	191	233
1046	248	186	234
1047	251	190	239
1048	249	188	239
1049	241	178	232
1050	239	175	231
1051	237	174	232
1052	229	167	230
1053	222	158	228
1054	228	165	234
1055	226	161	231
1056	228	164	232
1057	226	163	228
1058	225	165	228
1059	226	168	228
1060	239	185	237
1061	0	0	0
1062	0	0	0
1063	0	0	0
1064	0	0	0
1065	0	0	0
1066	0	0	0
1067	0	0	0
1068	0	0	0
1069	0	0	0
1070	249	229	240
1071	249	220	237
1072	245	203	231
1073	236	183	226
1074	244	191	237
1075	246	194	238
1076	239	184	232
1077	232	175	229
1078	234	177	233
1079	233	176	235
1080	225	169	233
1081	219	160	230
1082	222	163	235
1083	223	162	236
1084	227	166	239
1085	224	164	232
1086	226	170	233
1087	227	173	234
1088	240	189	240
1089	241	193	234
1090	0	0	0
1091	0	0	0
1092	0	0	0
1093	0	0	0
1094	0	0	0
1095	0	0	0
1096	0	0	0
1097	0	0	0
1098	0	0	0
1099	247	228	239
1100	241	210	232
1101	238	200	233
1102	245	207	243
1103	239	198	237
1104	234	190	233
1105	233	186	235
1106	236	189	241
1107	231	180	239
1108	228	175	238
1109	223	169	237
1110	225	170	241
1111	226	170	243
1112	233	175	247
1113	224	164	234
1114	226	171	235
1115	232	178	240
1116	246	194	246
1117	237	187	231
1118	0	0	0
1119	0	0	0
1120	0	0	0
1121	0	0	0
1122	0	0	0
1123	0	0	0
1124	0	0	0
1125	0	0	0
1126	0	0	0
1127	0	0	0
1128	245	226	239
1129	241	215	236
1130	238	209	237
1131	234	201	235
1132	235	200	237
1133	234	196	237
1134	233	191	239
1135	229	184	239
1136	228	181	241
1137	224	174	239
1138	223	173	240
1139	224	173	242
1140	227	171	241
1141	220	161	230
1142	228	173	238
1143	234	180	243
1144	238	185	242
1145	230	178	228
1146	239	200	233
1147	0	0	0
1148	0	0	0
1149	0	0	0
1150	0	0	0
1151	0	0	0
1152	0	0	0
1153	0	0	0
1154	0	0	0
1155	0	0	0
1156	0	0	0
1157	0	0	0
1158	0	0	0
1159	238	214	240
1160	239	212	242
1161	234	200	238
1162	235	197	240
1163	227	183	237
1164	224	179	239
1165	220	175	238
1166	219	175	239
1167	221	175	241
1168	226	174	242
1169	225	168	236
1170	237	183	247
1171	231	175	241
1172	228	176	237
1173	229	181	233
1174	246	208	243
1175	242	209	233
1176	0	0	0
1177	0	0	0
1178	0	0	0
1179	0	0	0
1180	0	0	0
1181	0	0	0
1182	0	0	0
1183	0	0	0
1184	0	0	0
1185	0	0	0
1186	0	0	0
1187	0	0	0
1188	236	214	238
1189	230	202	235
1190	227	192	235
1191	220	179	233
1192	222	180	239
1193	219	177	239
1194	220	178	242
1195	223	179	244
1196	227	178	245
1197	227	173	241
1198	230	173	242
1199	223	165	235
1200	225	175	238
1201	227	181	236
1202	234	191	236
1203	233	193	228
1204	0	0	0
1205	0	0	0
1206	0	0	0
1207	0	0	0
1208	0	0	0
1209	0	0	0
1210	0	0	0
1211	0	0	0
1212	0	0	0
1213	0	0	0
1214	0	0	0
1215	0	0	0
1216	0	0	0
1217	0	0	0
1218	0	0	0
1219	223	193	238
1220	230	197	247
1221	225	186	243
1222	230	190	249
1223	228	182	245
1224	229	180	244
1225	228	176	242
1226	230	176	242
1227	228	174	239
1228	230	184	243
1229	233	191	243
1230	240	201	244
1231	240	201	237
1232	251	219	244
1233	0	0	0
1234	0	0	0
1235	0	0	0
1236	0	0	0
1237	0	0	0
1238	0	0	0
1239	0	0	0
1240	0	0	0
1241	0	0	0
1242	0	0	0
1243	0	0	0
1244	0	0	0
1245	0	0	0
1246	0	0	0
1247	232	210	244
1248	231	201	243
1249	227	190	241
1250	228	187	243
1251	225	180	239
1252	226	179	239
1253	227	176	238
1254	234	183	243
1255	232	181	240
1256	233	189	243
1257	236	196	244
1258	240	201	243
1259	240	202	238
1260	0	0	0
1261	0	0	0
1262	0	0	0
1263	0	0	0
1264	0	0	0
1265	0	0	0
1266	0	0	0
1267	0	0	0
1268	0	0	0
1269	0	0	0
1270	0	0	0
1271	0	0	0
1272	0	0	0
1273	0	0	0
1274	0	0	0
1275	237	215	243
1276	232	204	240
1277	228	194	239
1278	227	190	240
1279	228	188	240
1280	231	188	242
1281	230	182	239
1282	240	190	246
1283	232	180	238
1284	234	188	241
1285	235	194	241
1286	239	199	241
1287	240	202	238
1288	0	0	0
1289	0	0	0
1290	0	0	0
1291	0	0	0
1292	0	0	0
1293	0	0	0
1294	0	0	0
1295	0	0	0
1296	0	0	0
1297	0	0	0
1298	0	0	0
1299	0	0	0
1300	0	0	0
1301	0	0	0
1302	0	0	0
1303	0	0	0
1304	234	208	238
1305	229	197	237
1306	233	199	243
1307	233	197	243
1308	233	192	242
1309	231	185	239
1310	233	184	239
1311	225	174	232
1312	228	183	236
1313	230	188	236
1314	235	195	237
1315	236	198	236
1316	0	0	0
1317	0	0	0
1318	0	0	0
1319	0	0	0
1320	0	0	0
1321	0	0	0
1322	0	0	0
1323	0	0	0
1324	0	0	0
1325	0	0	0
1326	0	0	0
1327	0	0	0
1328	0	0	0
1329	0	0	0
1330	0	0	0
1331	0	0	0
1332	0	0	0
1333	235	206	239
1334	241	209	246
1335	234	195	240
1336	230	189	238
1337	234	193	242
1338	232	189	240
1339	227	184	237
1340	233	194	241
1341	239	203	243
1342	245	209	245
1343	239	203	238
1344	0	0	0
1345	0	0	0
1346	0	0	0
1347	0	0	0
1348	0	0	0
1349	0	0	0
1350	0	0	0
1351	0	0	0
1352	0	0	0
1353	0	0	0
1354	0	0	0
1355	0	0	0
1356	0	0	0
1357	0	0	0
1358	0	0	0
1359	0	0	0
1360	0	0	0
1361	0	0	0
1362	237	204	239
1363	0	0	0
1364	0	0	0
1365	0	0	0
1366	0	0	0
1367	230	193	240
1368	239	205	247
1369	246	215	248
1370	247	213	244
1371	0	0	0
1372	0	0	0
1373	0	0	0
1374	0	0	0
1375	0	0	0
1376	0	0	0
1377	0	0	0
1378	0	0	0
1379	0	0	0
1380	0	0	0
1381	0	0	0
1382	0	0	0
1383	0	0	0
1384	0	0	0
1385	0	0	0
1386	0	0	0
1387	0	0	0
1388	0	0	0
1389	0	0	0
1390	0	0	0
1391	0	0	0
1392	0	0	0
1393	0	0	0
1394	231	197	238
1395	237	204	243
1396	249	219	252
1397	243	209	241
1398	0	0	0
1399	0	0	0
1400	0	0	0
1401	0	0	0
1402	0	0	0
1403	0	0	0
1404	0	0	0
1405	0	0	0
1406	0	0	0
1407	0	0	0
1408	0	0	0
1409	0	0	0
1410	0	0	0
1411	0	0	0
1412	0	0	0
1413	0	0	0
1414	0	0	0
1415	0	0	0
1416	0	0	0
1417	0	0	0
1418	0	0	0
1419	0	0	0
1420	0	0	0
1421	0	0	0
1422	0	0	0
1423	247	218	246
1424	242	210	240
1425	0	0	0
1426	0	0	0
1427	0	0	0
1428	0	0	0
