 	R	G	B
1	0	0	0
2	0	0	0
3	0	0	0
4	0	0	0
5	0	0	0
6	0	0	0
7	0	0	0
8	0	0	0
9	0	0	0
10	0	0	0
11	0	0	0
12	0	0	0
13	0	0	0
14	255	244	253
15	254	235	250
16	255	238	255
17	255	240	255
18	255	229	255
19	251	216	250
20	255	220	255
21	0	0	0
22	0	0	0
23	0	0	0
24	0	0	0
25	0	0	0
26	0	0	0
27	0	0	0
28	0	0	0
29	0	0	0
30	0	0	0
31	0	0	0
32	0	0	0
33	0	0	0
34	0	0	0
35	0	0	0
36	255	248	255
37	255	241	253
38	251	228	247
39	255	230	252
40	255	229	255
41	252	218	251
42	249	210	248
43	253	213	253
44	253	213	253
45	0	0	0
46	0	0	0
47	0	0	0
48	0	0	0
49	0	0	0
50	0	0	0
51	0	0	0
52	0	0	0
53	0	0	0
54	0	0	0
55	0	0	0
56	0	0	0
57	0	0	0
58	0	0	0
59	255	243	255
60	254	233	251
61	249	220	246
62	252	220	250
63	254	219	252
64	250	211	249
65	246	203	246
66	249	206	249
67	249	206	249
68	249	208	248
69	0	0	0
70	0	0	0
71	0	0	0
72	0	0	0
73	0	0	0
74	0	0	0
75	0	0	0
76	0	0	0
77	0	0	0
78	0	0	0
79	0	0	0
80	0	0	0
81	0	0	0
82	255	239	255
83	255	229	252
84	250	218	248
85	254	218	252
86	254	216	253
87	250	208	249
88	254	211	253
89	255	213	255
90	249	204	248
91	248	206	247
92	245	209	245
93	0	0	0
94	0	0	0
95	0	0	0
96	0	0	0
97	0	0	0
98	0	0	0
99	0	0	0
100	0	0	0
101	0	0	0
102	0	0	0
103	0	0	0
104	0	0	0
105	255	233	252
106	254	224	251
107	250	213	247
108	255	216	253
109	255	214	254
110	255	217	255
111	255	219	255
112	255	212	255
113	248	203	248
114	253	213	253
115	248	215	249
116	0	0	0
117	0	0	0
118	0	0	0
119	0	0	0
120	0	0	0
121	0	0	0
122	0	0	0
123	0	0	0
124	0	0	0
125	0	0	0
126	0	0	0
127	0	0	0
128	255	232	253
129	255	224	253
130	251	210	247
131	255	212	253
132	251	203	249
133	254	206	252
134	255	207	253
135	249	200	247
136	246	200	246
137	250	209	250
138	247	215	247
139	0	0	0
140	0	0	0
141	0	0	0
142	0	0	0
143	0	0	0
144	0	0	0
145	0	0	0
146	0	0	0
147	0	0	0
148	255	252	255
149	255	244	252
150	255	239	253
151	255	233	255
152	255	221	253
153	251	207	247
154	251	202	248
155	246	192	244
156	250	197	249
157	250	198	249
158	250	201	250
159	246	199	246
160	248	210	248
161	0	0	0
162	0	0	0
163	0	0	0
164	0	0	0
165	0	0	0
166	0	0	0
167	0	0	0
168	0	0	0
169	0	0	0
170	255	255	254
171	255	252	255
172	253	232	246
173	255	227	248
174	255	219	250
175	251	208	247
176	250	201	246
177	249	195	246
178	250	195	249
179	253	199	253
180	250	196	250
181	249	198	249
182	245	199	245
183	0	0	0
184	0	0	0
185	0	0	0
186	0	0	0
187	0	0	0
188	0	0	0
189	0	0	0
190	0	0	0
191	0	0	0
192	0	0	0
193	255	254	255
194	255	241	253
195	247	219	242
196	250	215	246
197	251	208	247
198	251	203	249
199	249	196	247
200	251	196	249
201	251	194	250
202	251	195	251
203	247	192	247
204	250	199	250
205	244	200	244
206	0	0	0
207	0	0	0
208	0	0	0
209	0	0	0
210	0	0	0
211	0	0	0
212	0	0	0
213	0	0	0
214	0	0	0
215	0	0	0
216	255	253	255
217	255	236	251
218	250	219	245
219	254	216	250
220	249	202	246
221	249	196	247
222	252	197	250
223	253	196	252
224	254	198	253
225	253	197	253
226	250	196	250
227	251	203	251
228	242	200	243
229	0	0	0
230	0	0	0
231	0	0	0
232	0	0	0
233	0	0	0
234	0	0	0
235	0	0	0
236	0	0	0
237	0	0	0
238	0	0	0
239	255	251	255
240	255	232	248
241	250	215	242
242	251	207	244
243	246	193	241
244	253	199	250
245	255	199	254
246	255	202	255
247	255	202	255
248	255	203	255
249	252	201	252
250	251	205	251
251	241	201	242
252	0	0	0
253	0	0	0
254	0	0	0
255	0	0	0
256	0	0	0
257	0	0	0
258	0	0	0
259	0	0	0
260	0	0	0
261	0	0	0
262	255	251	255
263	255	233	250
264	249	210	239
265	250	203	241
266	248	193	242
267	255	198	252
268	251	191	249
269	253	193	252
270	253	195	253
271	251	195	251
272	251	199	251
273	248	203	248
274	0	0	0
275	0	0	0
276	0	0	0
277	0	0	0
278	0	0	0
279	0	0	0
280	0	0	0
281	0	0	0
282	0	0	0
283	0	0	0
284	0	0	0
285	255	250	255
286	255	228	248
287	247	205	237
288	252	203	242
289	251	193	244
290	253	191	249
291	247	182	244
292	251	188	250
293	251	191	251
294	255	199	254
295	253	202	253
296	255	214	255
297	0	0	0
298	0	0	0
299	0	0	0
300	0	0	0
301	0	0	0
302	0	0	0
303	0	0	0
304	0	0	0
305	0	0	0
306	0	0	0
307	255	253	255
308	255	241	254
309	253	219	244
310	250	205	239
311	255	202	245
312	247	184	240
313	248	183	244
314	251	186	249
315	255	192	254
316	250	188	250
317	252	195	252
318	247	195	247
319	0	0	0
320	0	0	0
321	0	0	0
322	0	0	0
323	0	0	0
324	0	0	0
325	0	0	0
326	0	0	0
327	0	0	0
328	0	0	0
329	0	0	0
330	0	0	0
331	255	232	249
332	255	220	248
333	255	207	246
334	253	196	245
335	244	177	238
336	254	188	251
337	255	191	255
338	255	191	255
339	250	185	249
340	249	190	249
341	242	189	242
342	0	0	0
343	0	0	0
344	0	0	0
345	0	0	0
346	0	0	0
347	0	0	0
348	0	0	0
349	0	0	0
350	0	0	0
351	0	0	0
352	0	0	0
353	0	0	0
354	255	227	247
355	255	217	248
356	250	196	242
357	248	184	242
358	247	178	243
359	255	188	254
360	251	180	249
361	248	178	248
362	249	183	248
363	247	187	247
364	245	196	246
365	0	0	0
366	0	0	0
367	0	0	0
368	0	0	0
369	0	0	0
370	0	0	0
371	0	0	0
372	0	0	0
373	0	0	0
374	0	0	0
375	0	0	0
376	255	238	250
377	255	223	246
378	255	208	245
379	247	186	240
380	252	186	248
381	251	180	248
382	250	177	249
383	244	168	243
384	249	178	249
385	249	183	249
386	255	198	254
387	252	205	252
388	0	0	0
389	0	0	0
390	0	0	0
391	0	0	0
392	0	0	0
393	0	0	0
394	0	0	0
395	0	0	0
396	0	0	0
397	0	0	0
398	255	252	255
399	255	240	255
400	252	211	242
401	250	195	241
402	243	177	238
403	248	176	245
404	253	179	251
405	251	175	250
406	247	171	247
407	253	181	253
408	249	182	249
409	253	197	253
410	247	200	247
411	0	0	0
412	0	0	0
413	0	0	0
414	0	0	0
415	0	0	0
416	0	0	0
417	0	0	0
418	0	0	0
419	0	0	0
420	0	0	0
421	255	251	255
422	255	229	251
423	248	200	239
424	248	188	240
425	242	169	238
426	252	177	250
427	254	179	251
428	254	179	252
429	251	175	250
430	254	183	254
431	249	183	249
432	251	194	251
433	243	196	243
434	0	0	0
435	0	0	0
436	0	0	0
437	0	0	0
438	0	0	0
439	0	0	0
440	0	0	0
441	0	0	0
442	0	0	0
443	255	253	255
444	255	243	255
445	253	213	244
446	243	186	234
447	243	174	236
448	246	172	244
449	255	179	254
450	250	171	248
451	250	171	248
452	250	173	249
453	253	181	253
454	246	179	246
455	247	189	247
456	247	203	247
457	0	0	0
458	0	0	0
459	0	0	0
460	0	0	0
461	0	0	0
462	0	0	0
463	0	0	0
464	0	0	0
465	255	255	251
466	255	244	253
467	254	223	245
468	247	200	239
469	237	173	230
470	246	176	241
471	247	172	245
472	249	170	247
473	244	162	243
474	250	170	249
475	250	171	249
476	250	177	250
477	243	175	243
478	248	194	249
479	0	0	0
480	0	0	0
481	0	0	0
482	0	0	0
483	0	0	0
484	0	0	0
485	0	0	0
486	0	0	0
487	0	0	0
488	255	254	252
489	255	239	250
490	255	219	245
491	248	195	239
492	241	175	235
493	248	177	245
494	255	182	253
495	255	179	254
496	249	169	249
497	255	176	255
498	248	170	248
499	248	175	248
500	242	176	242
501	0	0	0
502	0	0	0
503	0	0	0
504	0	0	0
505	0	0	0
506	0	0	0
507	0	0	0
508	0	0	0
509	0	0	0
510	0	0	0
511	255	252	253
512	255	236	250
513	255	215	244
514	253	200	243
515	246	179	240
516	255	188	254
517	255	192	255
518	255	183	255
519	251	172	250
520	251	172	251
521	244	165	244
522	248	177	248
523	241	178	242
524	0	0	0
525	0	0	0
526	0	0	0
527	0	0	0
528	0	0	0
529	0	0	0
530	0	0	0
531	0	0	0
532	0	0	0
533	0	0	0
534	255	246	254
535	254	221	243
536	249	201	238
537	245	184	236
538	245	177	240
539	255	185	252
540	255	186	255
541	253	177	252
542	250	172	250
543	249	172	249
544	248	174	248
545	252	185	252
546	242	183	243
547	0	0	0
548	0	0	0
549	0	0	0
550	0	0	0
551	0	0	0
552	0	0	0
553	0	0	0
554	0	0	0
555	0	0	0
556	255	246	254
557	255	230	247
558	252	211	242
559	247	192	239
560	250	188	244
561	248	178	244
562	254	182	252
563	255	184	255
564	255	180	255
565	252	175	252
566	255	183	255
567	254	184	255
568	255	192	255
569	245	189	245
570	0	0	0
571	0	0	0
572	0	0	0
573	0	0	0
574	0	0	0
575	0	0	0
576	0	0	0
577	0	0	0
578	255	253	255
579	255	242	253
580	253	219	244
581	248	200	240
582	245	186	239
583	247	180	243
584	253	184	250
585	255	187	255
586	252	176	251
587	251	173	250
588	253	176	253
589	255	183	255
590	248	177	248
591	248	184	248
592	245	193	246
593	0	0	0
594	0	0	0
595	0	0	0
596	0	0	0
597	0	0	0
598	0	0	0
599	0	0	0
600	0	0	0
601	255	251	255
602	255	228	246
603	248	206	240
604	248	195	241
605	243	179	237
606	252	186	248
607	255	189	255
608	254	180	253
609	247	168	246
610	254	177	254
611	255	180	255
612	255	182	255
613	248	175	248
614	255	194	255
615	251	202	252
616	0	0	0
617	0	0	0
618	0	0	0
619	0	0	0
620	0	0	0
621	0	0	0
622	0	0	0
623	0	0	0
624	255	243	253
625	251	217	241
626	251	205	242
627	249	193	242
628	246	181	240
629	255	187	250
630	255	188	255
631	255	179	253
632	250	171	249
633	255	179	255
634	255	178	255
635	255	178	255
636	238	161	238
637	244	179	245
638	246	198	247
639	0	0	0
640	0	0	0
641	0	0	0
642	0	0	0
643	0	0	0
644	0	0	0
645	0	0	0
646	255	241	253
647	255	233	250
648	255	217	244
649	252	203	241
650	252	195	242
651	250	184	243
652	255	189	253
653	255	189	255
654	255	184	255
655	255	176	255
656	255	179	255
657	255	177	255
658	250	169	249
659	232	151	232
660	242	178	243
661	243	196	244
662	0	0	0
663	0	0	0
664	0	0	0
665	0	0	0
666	0	0	0
667	0	0	0
668	255	248	255
669	255	237	253
670	252	218	243
671	247	201	236
672	252	199	240
673	251	191	241
674	252	184	246
675	255	189	255
676	253	175	249
677	253	171	249
678	252	167	251
679	255	170	255
680	247	159	247
681	238	150	238
682	239	161	239
683	247	187	249
684	249	208	251
685	0	0	0
686	0	0	0
687	0	0	0
688	0	0	0
689	0	0	0
690	0	0	0
691	0	0	0
692	248	218	241
693	241	199	233
694	246	198	238
695	251	195	241
696	253	190	244
697	254	184	249
698	253	176	250
699	247	163	243
700	250	162	247
701	249	158	248
702	247	154	246
703	236	142	237
704	246	162	246
705	246	173	247
706	252	198	254
707	0	0	0
708	0	0	0
709	0	0	0
710	0	0	0
711	0	0	0
712	0	0	0
713	0	0	0
714	0	0	0
715	0	0	0
716	252	213	246
717	255	212	251
718	254	198	247
719	255	192	249
720	254	182	251
721	254	175	252
722	246	159	244
723	250	159	248
724	250	156	249
725	246	151	246
726	236	142	237
727	244	161	245
728	245	176	246
729	0	0	0
730	0	0	0
731	0	0	0
732	0	0	0
733	0	0	0
734	0	0	0
735	0	0	0
736	0	0	0
737	0	0	0
738	255	228	253
739	255	224	254
740	255	210	251
741	253	197	248
742	251	186	248
743	249	175	247
744	246	164	245
745	239	149	238
746	243	150	242
747	241	146	241
748	240	146	241
749	229	136	231
750	242	163	244
751	242	177	244
752	0	0	0
753	0	0	0
754	0	0	0
755	0	0	0
756	0	0	0
757	0	0	0
758	0	0	0
759	0	0	0
760	255	234	255
761	255	228	254
762	253	212	248
763	248	198	244
764	255	203	254
765	255	192	253
766	253	182	252
767	249	170	249
768	248	164	248
769	252	165	252
770	248	159	248
771	244	157	246
772	238	155	241
773	252	183	254
774	245	187	248
775	0	0	0
776	0	0	0
777	0	0	0
778	0	0	0
779	0	0	0
780	0	0	0
781	0	0	0
782	0	0	0
783	255	233	255
784	250	216	248
785	245	201	242
786	253	205	251
787	255	210	255
788	255	198	255
789	254	186	252
790	253	180	252
791	252	174	252
792	255	175	255
793	251	168	251
794	252	175	255
795	246	173	249
796	255	191	255
797	248	196	251
798	0	0	0
799	0	0	0
800	0	0	0
801	0	0	0
802	0	0	0
803	0	0	0
804	0	0	0
805	0	0	0
806	255	237	255
807	253	221	252
808	252	211	251
809	255	215	255
810	255	201	255
811	249	188	249
812	254	190	253
813	253	183	251
814	255	187	255
815	255	187	255
816	244	163	244
817	245	170	248
818	247	179	250
819	255	198	255
820	246	195	248
821	0	0	0
822	0	0	0
823	0	0	0
824	0	0	0
825	0	0	0
826	0	0	0
827	0	0	0
828	0	0	0
829	255	240	255
830	255	228	255
831	255	218	255
832	254	208	254
833	249	194	248
834	255	197	254
835	255	200	255
836	255	202	255
837	255	205	255
838	255	188	255
839	242	163	242
840	251	180	253
841	253	189	255
842	255	198	255
843	245	196	245
844	0	0	0
845	0	0	0
846	0	0	0
847	0	0	0
848	0	0	0
849	0	0	0
850	0	0	0
851	0	0	0
852	255	243	255
853	255	232	255
854	252	214	251
855	250	204	250
856	250	198	250
857	255	202	255
858	255	197	255
859	255	199	255
860	255	185	254
861	244	168	244
862	247	172	247
863	255	190	255
864	249	185	250
865	248	191	249
866	246	200	246
867	0	0	0
868	0	0	0
869	0	0	0
870	0	0	0
871	0	0	0
872	0	0	0
873	0	0	0
874	0	0	0
875	255	244	255
876	253	226	251
877	246	208	245
878	251	206	249
879	251	200	249
880	255	199	253
881	255	195	253
882	251	184	250
883	245	171	244
884	254	181	254
885	255	186	255
886	255	188	255
887	247	182	247
888	251	197	251
889	0	0	0
890	0	0	0
891	0	0	0
892	0	0	0
893	0	0	0
894	0	0	0
895	0	0	0
896	0	0	0
897	0	0	0
898	255	245	255
899	252	226	250
900	252	218	250
901	255	216	255
902	255	207	253
903	0	0	0
904	254	192	252
905	250	182	249
906	248	175	247
907	255	185	255
908	249	176	249
909	247	177	247
910	243	179	243
911	0	0	0
912	0	0	0
913	0	0	0
914	0	0	0
915	0	0	0
916	0	0	0
917	0	0	0
918	0	0	0
919	0	0	0
920	0	0	0
921	0	0	0
922	255	235	255
923	255	227	254
924	255	221	255
925	0	0	0
926	0	0	0
927	251	188	249
928	254	186	253
929	251	178	250
930	250	176	250
931	242	167	242
932	247	178	247
933	242	180	243
934	0	0	0
935	0	0	0
936	0	0	0
937	0	0	0
938	0	0	0
939	0	0	0
940	0	0	0
941	0	0	0
942	0	0	0
943	0	0	0
944	0	0	0
945	0	0	0
946	254	226	251
947	0	0	0
948	0	0	0
949	0	0	0
950	252	190	251
951	255	188	255
952	246	171	245
953	245	169	245
954	248	176	248
955	253	187	253
956	243	182	243
957	0	0	0
958	0	0	0
959	0	0	0
960	0	0	0
961	0	0	0
962	0	0	0
963	0	0	0
964	0	0	0
965	0	0	0
966	0	0	0
967	0	0	0
968	0	0	0
969	0	0	0
970	0	0	0
971	0	0	0
972	0	0	0
973	252	190	252
974	249	180	249
975	239	163	239
976	250	178	251
977	253	184	253
978	252	189	253
979	241	184	242
980	0	0	0
981	0	0	0
982	0	0	0
983	0	0	0
984	0	0	0
985	0	0	0
986	0	0	0
987	0	0	0
988	0	0	0
989	0	0	0
990	0	0	0
991	0	0	0
992	0	0	0
993	0	0	0
994	0	0	0
995	0	0	0
996	0	0	0
997	249	181	249
998	0	0	0
999	254	186	255
1000	247	180	248
1001	245	185	247
1002	243	191	244
1003	0	0	0
1004	0	0	0
1005	0	0	0
1006	0	0	0
1007	0	0	0
1008	0	0	0
1009	0	0	0
1010	0	0	0
1011	0	0	0
1012	0	0	0
1013	0	0	0
1014	0	0	0
1015	0	0	0
1016	0	0	0
1017	0	0	0
1018	0	0	0
1019	0	0	0
1020	0	0	0
1021	0	0	0
1022	0	0	0
1023	241	176	243
1024	248	193	250
1025	245	199	248
1026	0	0	0
1027	0	0	0
1028	0	0	0
1029	0	0	0
1030	0	0	0
1031	0	0	0
1032	0	0	0
1033	0	0	0
1034	0	0	0
1035	0	0	0
1036	0	0	0
1037	0	0	0
1038	0	0	0
1039	0	0	0
1040	0	0	0
1041	0	0	0
1042	0	0	0
1043	0	0	0
1044	0	0	0
1045	0	0	0
1046	245	184	246
1047	251	200	253
1048	243	201	246
1049	0	0	0
1050	0	0	0
1051	0	0	0
1052	0	0	0
1053	0	0	0
1054	0	0	0
1055	0	0	0
1056	0	0	0
1057	0	0	0
1058	0	0	0
1059	0	0	0
1060	0	0	0
1061	0	0	0
1062	0	0	0
1063	0	0	0
1064	0	0	0
1065	0	0	0
1066	0	0	0
1067	0	0	0
1068	0	0	0
1069	0	0	0
1070	245	199	250
1071	0	0	0
1072	0	0	0
1073	0	0	0
1074	0	0	0
1075	0	0	0
1076	0	0	0
1077	0	0	0
1078	0	0	0
1079	0	0	0
1080	0	0	0
1081	0	0	0
