 	R	G	B
1	0	0	0
2	0	0	0
3	0	0	0
4	0	0	0
5	0	0	0
6	255	254	255
7	255	253	255
8	255	253	255
9	255	252	255
10	255	251	255
11	255	243	255
12	255	250	255
13	255	252	255
14	255	250	255
15	255	243	255
16	255	246	255
17	255	247	255
18	255	251	255
19	0	0	0
20	0	0	0
21	0	0	0
22	0	0	0
23	0	0	0
24	0	0	0
25	0	0	0
26	0	0	0
27	0	0	0
28	0	0	0
29	0	0	0
30	255	248	255
31	255	245	255
32	255	236	251
33	255	238	254
34	255	236	253
35	255	229	249
36	252	224	249
37	255	235	255
38	255	236	254
39	253	225	246
40	254	225	249
41	255	228	252
42	254	226	249
43	255	233	253
44	255	231	252
45	0	0	0
46	0	0	0
47	0	0	0
48	0	0	0
49	0	0	0
50	0	0	0
51	0	0	0
52	0	0	0
53	0	0	0
54	0	0	0
55	0	0	0
56	255	228	251
57	251	219	245
58	254	220	248
59	255	219	250
60	255	217	251
61	253	212	250
62	253	213	248
63	252	213	243
64	250	210	240
65	251	210	243
66	251	210	245
67	249	208	245
68	246	206	243
69	244	204	241
70	250	215	248
71	255	226	253
72	255	232	254
73	0	0	0
74	0	0	0
75	0	0	0
76	0	0	0
77	0	0	0
78	0	0	0
79	0	0	0
80	0	0	0
81	0	0	0
82	254	210	249
83	255	212	252
84	249	198	245
85	249	196	246
86	253	202	251
87	253	202	249
88	255	208	248
89	254	205	244
90	248	196	241
91	248	196	242
92	254	205	249
93	250	203	247
94	250	205	248
95	255	216	255
96	255	217	252
97	255	222	251
98	250	220	248
99	0	0	0
100	0	0	0
101	0	0	0
102	0	0	0
103	0	0	0
104	0	0	0
105	0	0	0
106	251	199	248
107	254	199	251
108	249	188	246
109	241	175	239
110	248	184	246
111	251	188	248
112	254	194	250
113	255	200	252
114	249	188	243
115	242	179	238
116	248	189	244
117	253	197	247
118	251	198	246
119	251	201	248
120	251	203	249
121	249	204	247
122	247	205	245
123	243	203	242
124	252	220	251
125	0	0	0
126	0	0	0
127	0	0	0
128	0	0	0
129	0	0	0
130	254	198	251
131	255	199	255
132	252	187	250
133	246	175	245
134	246	173	246
135	253	182	252
136	247	174	245
137	251	180	247
138	255	189	251
139	246	177	242
140	249	183	247
141	254	192	252
142	253	193	248
143	251	194	246
144	254	200	250
145	254	203	252
146	254	206	253
147	253	208	252
148	250	208	250
149	255	224	255
150	255	227	255
151	0	0	0
152	252	200	251
153	255	206	255
154	255	200	255
155	255	194	255
156	248	179	247
157	240	164	239
158	239	161	239
159	239	159	239
160	238	157	238
161	233	150	232
162	240	161	239
163	245	170	244
164	247	174	245
165	249	179	248
166	248	181	247
167	247	183	245
168	249	189	246
169	251	194	248
170	253	199	251
171	254	204	253
172	255	207	255
173	253	208	252
174	253	212	252
175	251	213	250
176	255	200	254
177	255	207	255
178	251	188	250
179	249	181	248
180	252	183	251
181	242	167	242
182	250	176	250
183	249	173	249
184	255	180	255
185	254	177	254
186	246	166	246
187	253	177	253
188	251	176	251
189	252	180	252
190	253	185	253
191	253	187	252
192	255	194	255
193	255	200	255
194	253	195	251
195	255	200	253
196	255	203	255
197	255	207	255
198	250	200	249
199	250	204	249
200	253	213	252
201	255	200	255
202	247	182	246
203	236	163	235
204	240	165	239
205	242	167	242
206	248	174	248
207	254	182	254
208	255	186	255
209	255	192	255
210	255	182	255
211	248	171	247
212	249	174	249
213	247	173	246
214	250	179	249
215	251	184	251
216	255	192	255
217	255	200	255
218	255	197	255
219	251	192	250
220	254	197	253
221	255	200	254
222	251	196	251
223	244	190	244
224	249	200	248
225	252	209	250
226	255	198	255
227	247	180	247
228	244	174	244
229	248	176	248
230	250	179	250
231	255	185	255
232	254	184	254
233	255	187	255
234	255	189	255
235	250	178	250
236	251	180	251
237	253	183	252
238	253	185	253
239	255	192	255
240	254	192	254
241	255	200	255
242	255	198	255
243	253	195	252
244	255	198	255
245	255	203	255
246	251	195	251
247	248	192	248
248	248	195	248
249	254	206	253
250	0	0	0
251	0	0	0
252	246	182	246
253	243	175	243
254	247	179	247
255	249	182	249
256	249	181	249
257	248	180	247
258	249	182	249
259	250	184	250
260	252	186	252
261	253	187	253
262	254	191	254
263	255	193	255
264	253	193	253
265	251	193	251
266	249	191	249
267	247	189	247
268	250	194	250
269	253	198	253
270	0	0	0
271	242	183	242
272	246	190	246
273	247	194	247
274	0	0	0
275	0	0	0
276	0	0	0
277	0	0	0
278	0	0	0
279	0	0	0
280	0	0	0
281	0	0	0
282	0	0	0
283	255	196	255
284	251	191	251
285	252	192	252
286	251	192	251
287	253	196	253
288	253	198	253
289	252	199	252
290	255	204	255
291	254	203	254
292	254	205	254
293	255	209	255
294	0	0	0
295	0	0	0
296	0	0	0
297	0	0	0
298	0	0	0
299	0	0	0
300	0	0	0
301	0	0	0
302	0	0	0
303	0	0	0
304	0	0	0
305	0	0	0
306	0	0	0
307	0	0	0
308	0	0	0
309	244	190	244
310	244	191	244
311	243	191	243
312	246	195	246
313	246	198	246
314	249	203	249
315	253	210	253
316	252	210	252
317	253	211	253
318	0	0	0
319	0	0	0
320	0	0	0
321	0	0	0
322	0	0	0
323	0	0	0
324	0	0	0
325	0	0	0
