 	R	G	B
1	0	0	0
2	0	0	0
3	0	0	0
4	0	0	0
5	0	0	0
6	0	0	0
7	0	0	0
8	255	243	233
9	255	239	225
10	0	0	0
11	0	0	0
12	0	0	0
13	0	0	0
14	0	0	0
15	0	0	0
16	0	0	0
17	0	0	0
18	0	0	0
19	0	0	0
20	0	0	0
21	0	0	0
22	0	0	0
23	0	0	0
24	0	0	0
25	0	0	0
26	0	0	0
27	0	0	0
28	0	0	0
29	0	0	0
30	0	0	0
31	0	0	0
32	0	0	0
33	0	0	0
34	0	0	0
35	0	0	0
36	0	0	0
37	0	0	0
38	0	0	0
39	0	0	0
40	0	0	0
41	0	0	0
42	0	0	0
43	255	230	225
44	255	229	221
45	252	217	210
46	254	220	210
47	253	219	209
48	0	0	0
49	0	0	0
50	0	0	0
51	0	0	0
52	0	0	0
53	0	0	0
54	0	0	0
55	0	0	0
56	0	0	0
57	0	0	0
58	0	0	0
59	0	0	0
60	0	0	0
61	0	0	0
62	0	0	0
63	0	0	0
64	0	0	0
65	0	0	0
66	0	0	0
67	0	0	0
68	0	0	0
69	0	0	0
70	0	0	0
71	0	0	0
72	0	0	0
73	0	0	0
74	250	237	237
75	247	229	231
76	254	234	234
77	255	238	236
78	255	230	229
79	255	219	217
80	254	211	211
81	248	201	204
82	254	207	207
83	252	205	202
84	255	215	207
85	0	0	0
86	0	0	0
87	0	0	0
88	0	0	0
89	0	0	0
90	0	0	0
91	0	0	0
92	0	0	0
93	0	0	0
94	0	0	0
95	0	0	0
96	0	0	0
97	0	0	0
98	0	0	0
99	0	0	0
100	0	0	0
101	0	0	0
102	0	0	0
103	0	0	0
104	0	0	0
105	0	0	0
106	0	0	0
107	0	0	0
108	0	0	0
109	253	240	241
110	255	240	241
111	252	223	229
112	255	229	232
113	255	221	227
114	254	212	219
115	253	204	210
116	252	198	206
117	250	193	205
118	255	198	208
119	244	183	192
120	248	193	196
121	255	212	208
122	255	212	205
123	0	0	0
124	0	0	0
125	0	0	0
126	0	0	0
127	0	0	0
128	0	0	0
129	0	0	0
130	0	0	0
131	0	0	0
132	0	0	0
133	0	0	0
134	0	0	0
135	0	0	0
136	0	0	0
137	0	0	0
138	0	0	0
139	0	0	0
140	0	0	0
141	0	0	0
142	0	0	0
143	0	0	0
144	0	0	0
145	253	237	238
146	254	227	232
147	250	213	222
148	251	208	220
149	250	201	218
150	251	197	215
151	249	190	206
152	250	186	203
153	249	181	201
154	247	176	198
155	236	162	184
156	251	186	198
157	255	204	206
158	255	206	202
159	255	208	198
160	255	217	201
161	255	227	208
162	0	0	0
163	0	0	0
164	0	0	0
165	0	0	0
166	0	0	0
167	0	0	0
168	0	0	0
169	0	0	0
170	0	0	0
171	0	0	0
172	0	0	0
173	0	0	0
174	0	0	0
175	0	0	0
176	0	0	0
177	0	0	0
178	0	0	0
179	0	0	0
180	0	0	0
181	249	230	234
182	253	222	230
183	252	210	224
184	255	207	225
185	252	196	220
186	254	192	218
187	252	184	209
188	253	181	207
189	249	172	202
190	248	168	200
191	246	165	195
192	255	189	208
193	253	181	196
194	250	183	191
195	255	196	193
196	255	203	194
197	255	207	196
198	251	209	198
199	0	0	0
200	0	0	0
201	0	0	0
202	0	0	0
203	0	0	0
204	0	0	0
205	0	0	0
206	0	0	0
207	0	0	0
208	0	0	0
209	0	0	0
210	0	0	0
211	0	0	0
212	0	0	0
213	0	0	0
214	0	0	0
215	0	0	0
216	0	0	0
217	245	222	232
218	251	215	230
219	252	205	226
220	252	196	223
221	248	185	216
222	251	181	215
223	250	175	209
224	250	169	207
225	247	160	203
226	254	166	208
227	252	164	204
228	253	166	201
229	244	158	188
230	253	175	194
231	255	188	195
232	255	190	192
233	254	194	193
234	255	207	201
235	255	223	211
236	255	226	212
237	255	231	216
238	255	233	216
239	0	0	0
240	0	0	0
241	0	0	0
242	0	0	0
243	0	0	0
244	0	0	0
245	0	0	0
246	0	0	0
247	0	0	0
248	0	0	0
249	0	0	0
250	0	0	0
251	0	0	0
252	0	0	0
253	250	225	237
254	255	218	237
255	254	203	229
256	254	194	226
257	253	185	221
258	255	183	221
259	252	170	213
260	253	165	212
261	250	157	209
262	255	164	215
263	251	153	206
264	252	155	204
265	242	144	190
266	252	162	197
267	253	168	193
268	250	170	188
269	255	185	195
270	255	198	201
271	255	195	196
272	253	197	197
273	255	205	202
274	253	207	201
275	255	215	204
276	0	0	0
277	0	0	0
278	0	0	0
279	0	0	0
280	0	0	0
281	0	0	0
282	0	0	0
283	0	0	0
284	0	0	0
285	0	0	0
286	0	0	0
287	0	0	0
288	0	0	0
289	251	223	238
290	254	212	235
291	251	196	227
292	253	190	224
293	252	181	221
294	252	173	218
295	249	161	213
296	251	157	214
297	248	148	210
298	249	145	209
299	244	136	202
300	242	133	198
301	234	123	189
302	243	138	195
303	243	145	191
304	250	160	194
305	255	174	198
306	250	171	191
307	244	168	186
308	248	177	191
309	250	185	196
310	251	192	198
311	252	199	198
312	255	213	203
313	0	0	0
314	0	0	0
315	0	0	0
316	0	0	0
317	0	0	0
318	0	0	0
319	0	0	0
320	0	0	0
321	0	0	0
322	0	0	0
323	0	0	0
324	0	0	0
325	251	223	239
326	254	211	237
327	249	191	227
328	252	186	226
329	255	182	225
330	255	173	223
331	250	159	218
332	253	156	220
333	251	147	217
334	252	144	216
335	249	138	210
336	248	135	208
337	252	140	210
338	255	156	217
339	247	140	200
340	254	157	204
341	255	170	206
342	254	167	198
343	249	163	193
344	253	172	198
345	249	173	197
346	250	180	198
347	255	194	199
348	255	206	201
349	254	209	198
350	0	0	0
351	0	0	0
352	0	0	0
353	0	0	0
354	0	0	0
355	0	0	0
356	0	0	0
357	0	0	0
358	0	0	0
359	0	0	0
360	0	0	0
361	250	220	239
362	250	204	235
363	245	185	227
364	251	183	230
365	254	178	228
366	250	165	223
367	246	151	218
368	249	147	220
369	247	139	218
370	251	140	220
371	247	133	212
372	254	141	215
373	255	147	218
374	252	139	210
375	239	125	196
376	249	143	204
377	255	157	207
378	250	154	200
379	246	151	194
380	246	155	196
381	244	156	196
382	253	174	203
383	255	187	200
384	254	191	194
385	251	194	191
386	255	214	202
387	255	237	218
388	0	0	0
389	0	0	0
390	255	235	221
391	0	0	0
392	0	0	0
393	0	0	0
394	0	0	0
395	0	0	0
396	0	0	0
397	252	221	241
398	250	204	237
399	251	193	235
400	255	192	239
401	253	176	231
402	250	164	226
403	254	160	228
404	255	157	231
405	251	143	225
406	253	142	226
407	241	125	210
408	247	133	213
409	255	144	218
410	252	138	212
411	247	132	206
412	255	151	215
413	255	151	211
414	249	148	205
415	247	148	202
416	250	154	205
417	253	162	209
418	255	180	215
419	253	173	198
420	250	176	193
421	250	183	192
422	255	202	201
423	255	212	204
424	250	204	196
425	255	215	206
426	255	222	211
427	255	223	211
428	0	0	0
429	0	0	0
430	0	0	0
431	0	0	0
432	0	0	0
433	0	0	0
434	247	205	235
435	247	193	233
436	246	181	230
437	243	167	227
438	251	167	232
439	254	163	232
440	249	150	226
441	243	136	220
442	242	129	218
443	232	114	206
444	245	129	215
445	253	140	220
446	252	138	215
447	247	132	208
448	248	136	208
449	246	138	206
450	243	139	205
451	242	140	205
452	249	151	211
453	252	158	212
454	252	159	207
455	245	154	195
456	248	164	197
457	248	171	196
458	251	181	198
459	253	190	199
460	254	197	199
461	255	208	206
462	255	209	205
463	255	211	207
464	255	222	215
465	255	232	222
466	255	238	225
467	255	247	230
468	0	0	0
469	0	0	0
470	0	0	0
471	246	201	237
472	244	188	234
473	249	182	237
474	255	184	245
475	250	161	231
476	240	146	223
477	246	148	229
478	250	144	230
479	239	123	217
480	253	139	227
481	255	142	225
482	253	139	219
483	247	133	211
484	249	138	212
485	250	144	214
486	247	145	214
487	245	145	214
488	249	155	218
489	249	155	215
490	255	160	214
491	248	151	203
492	252	162	207
493	254	171	208
494	255	181	209
495	253	180	203
496	254	188	203
497	255	194	205
498	253	195	203
499	252	198	205
500	255	208	211
501	254	211	211
502	254	218	213
503	255	227	219
504	252	224	218
505	0	0	0
506	0	0	0
507	0	0	0
508	248	201	242
509	252	194	243
510	254	179	240
511	244	157	229
512	245	157	233
513	251	160	239
514	247	145	233
515	237	125	220
516	250	136	228
517	252	139	225
518	249	136	219
519	244	132	213
520	247	139	216
521	248	145	218
522	246	146	217
523	243	145	214
524	242	147	214
525	245	150	215
526	249	149	214
527	244	141	205
528	250	153	210
529	252	162	210
530	249	163	206
531	246	164	202
532	248	171	204
533	250	178	205
534	249	181	204
535	248	184	205
536	248	188	206
537	246	190	204
538	248	198	207
539	250	207	211
540	0	0	0
541	0	0	0
542	0	0	0
543	249	217	245
544	248	207	244
545	247	192	240
546	248	177	237
547	247	165	235
548	250	167	241
549	246	157	238
550	239	141	230
551	240	136	228
552	255	149	238
553	249	137	226
554	245	134	221
555	242	133	218
556	243	140	220
557	243	143	220
558	244	147	221
559	241	143	216
560	243	146	217
561	250	153	223
562	253	151	222
563	248	143	213
564	254	156	218
565	255	165	220
566	255	166	217
567	251	165	214
568	254	173	217
569	255	178	217
570	253	180	216
571	251	181	215
572	251	185	216
573	248	186	214
574	249	194	216
575	247	199	215
576	0	0	0
577	0	0	0
578	0	0	0
579	0	0	0
580	241	202	237
581	239	188	236
582	244	180	238
583	242	167	234
584	239	159	233
585	236	150	232
586	239	148	234
587	240	143	231
588	241	137	227
589	234	126	218
590	235	128	218
591	233	128	216
592	235	134	219
593	236	139	220
594	236	139	219
595	232	135	213
596	234	138	214
597	240	145	220
598	242	141	217
599	237	133	209
600	244	145	215
601	248	155	218
602	242	153	214
603	239	152	213
604	242	158	216
605	242	162	216
606	234	159	211
607	230	159	210
608	228	161	210
609	227	163	211
610	229	172	214
611	0	0	0
612	0	0	0
613	0	0	0
614	0	0	0
615	0	0	0
616	0	0	0
617	244	202	243
618	245	192	244
619	243	181	241
620	242	174	241
621	241	164	240
622	246	164	244
623	238	147	233
624	234	139	226
625	241	149	232
626	244	153	234
627	240	147	229
628	247	157	235
629	241	149	230
630	239	148	228
631	229	139	219
632	226	139	217
633	240	158	230
634	244	156	229
635	240	147	222
636	249	161	230
637	246	161	227
638	237	157	222
639	241	167	227
640	247	174	232
641	240	172	228
642	0	0	0
643	0	0	0
644	0	0	0
645	0	0	0
646	0	0	0
647	0	0	0
648	0	0	0
649	0	0	0
650	0	0	0
651	0	0	0
652	0	0	0
653	0	0	0
654	247	206	248
655	245	195	247
656	241	183	244
657	240	173	242
658	241	164	241
659	232	148	233
660	243	161	242
661	249	171	244
662	243	165	238
663	240	159	234
664	240	156	233
665	235	149	229
666	232	146	228
667	223	138	222
668	230	154	231
669	242	171	241
670	242	164	236
671	237	156	230
672	237	158	230
673	233	157	228
674	229	161	226
675	231	169	229
676	231	170	229
677	0	0	0
678	0	0	0
679	0	0	0
680	0	0	0
681	0	0	0
682	0	0	0
683	0	0	0
684	0	0	0
685	0	0	0
686	0	0	0
687	0	0	0
688	0	0	0
689	0	0	0
690	0	0	0
691	245	204	248
692	241	192	245
693	241	184	246
694	242	175	246
695	236	162	241
696	248	176	251
697	247	177	246
698	239	169	238
699	232	159	233
700	231	156	232
701	235	161	235
702	233	159	235
703	226	150	231
704	238	168	244
705	235	166	240
706	228	156	231
707	231	162	234
708	229	163	232
709	234	177	239
710	230	181	237
711	227	183	235
712	0	0	0
713	0	0	0
714	0	0	0
715	0	0	0
716	0	0	0
717	0	0	0
718	0	0	0
719	0	0	0
720	0	0	0
721	0	0	0
722	0	0	0
723	0	0	0
724	0	0	0
725	0	0	0
726	0	0	0
727	0	0	0
728	241	202	246
729	239	193	247
730	237	182	246
731	231	169	241
732	238	176	246
733	238	176	241
734	230	166	234
735	225	159	233
736	232	168	240
737	235	171	240
738	230	165	236
739	224	157	235
740	225	158	238
741	222	155	234
742	225	161	236
743	225	167	237
744	229	179	239
745	233	192	241
746	227	193	237
747	0	0	0
748	0	0	0
749	0	0	0
750	0	0	0
751	0	0	0
752	0	0	0
753	0	0	0
754	0	0	0
755	0	0	0
756	0	0	0
757	0	0	0
758	0	0	0
759	0	0	0
760	0	0	0
761	0	0	0
762	0	0	0
763	0	0	0
764	0	0	0
765	0	0	0
766	0	0	0
767	237	197	251
768	246	205	255
769	236	189	246
770	233	183	243
771	235	181	247
772	242	189	254
773	233	175	240
774	227	168	236
775	228	169	241
776	226	169	242
777	229	176	245
778	0	0	0
779	0	0	0
780	0	0	0
781	0	0	0
782	0	0	0
783	0	0	0
784	0	0	0
785	0	0	0
786	0	0	0
787	0	0	0
788	0	0	0
789	0	0	0
790	0	0	0
791	0	0	0
792	0	0	0
793	0	0	0
794	0	0	0
795	0	0	0
796	0	0	0
797	0	0	0
798	0	0	0
799	0	0	0
800	0	0	0
801	0	0	0
802	0	0	0
803	0	0	0
804	244	215	255
805	0	0	0
806	0	0	0
807	238	197	253
808	232	187	247
809	224	173	237
810	228	178	241
811	227	177	242
812	229	185	245
813	0	0	0
814	0	0	0
815	0	0	0
816	0	0	0
817	0	0	0
818	0	0	0
819	0	0	0
820	0	0	0
821	0	0	0
822	0	0	0
823	0	0	0
824	0	0	0
825	0	0	0
826	0	0	0
827	0	0	0
828	0	0	0
