 	R	G	B
1	0	0	0
2	0	0	0
3	0	0	0
4	0	0	0
5	0	0	0
6	0	0	0
7	0	0	0
8	0	0	0
9	0	0	0
10	0	0	0
11	0	0	0
12	0	0	0
13	0	0	0
14	0	0	0
15	0	0	0
16	0	0	0
17	0	0	0
18	255	232	230
19	0	0	0
20	0	0	0
21	0	0	0
22	0	0	0
23	0	0	0
24	0	0	0
25	0	0	0
26	0	0	0
27	0	0	0
28	0	0	0
29	0	0	0
30	0	0	0
31	0	0	0
32	0	0	0
33	0	0	0
34	0	0	0
35	0	0	0
36	0	0	0
37	0	0	0
38	0	0	0
39	0	0	0
40	0	0	0
41	0	0	0
42	255	226	226
43	253	220	224
44	243	207	219
45	0	0	0
46	0	0	0
47	0	0	0
48	0	0	0
49	0	0	0
50	0	0	0
51	0	0	0
52	0	0	0
53	0	0	0
54	0	0	0
55	0	0	0
56	0	0	0
57	0	0	0
58	0	0	0
59	0	0	0
60	0	0	0
61	0	0	0
62	0	0	0
63	0	0	0
64	254	237	232
65	255	235	234
66	255	229	234
67	255	218	227
68	252	210	224
69	240	195	215
70	0	0	0
71	0	0	0
72	0	0	0
73	0	0	0
74	0	0	0
75	0	0	0
76	0	0	0
77	0	0	0
78	0	0	0
79	0	0	0
80	0	0	0
81	0	0	0
82	0	0	0
83	0	0	0
84	0	0	0
85	0	0	0
86	0	0	0
87	0	0	0
88	250	231	227
89	255	233	232
90	254	219	228
91	255	212	228
92	244	192	216
93	239	182	212
94	240	190	216
95	0	0	0
96	0	0	0
97	0	0	0
98	0	0	0
99	0	0	0
100	0	0	0
101	0	0	0
102	0	0	0
103	0	0	0
104	0	0	0
105	0	0	0
106	0	0	0
107	0	0	0
108	0	0	0
109	0	0	0
110	255	242	238
111	255	237	233
112	254	232	229
113	255	230	230
114	255	216	225
115	251	202	221
116	245	187	216
117	233	167	207
118	243	183	219
119	244	189	221
120	0	0	0
121	0	0	0
122	0	0	0
123	0	0	0
124	0	0	0
125	0	0	0
126	0	0	0
127	0	0	0
128	0	0	0
129	0	0	0
130	0	0	0
131	0	0	0
132	0	0	0
133	0	0	0
134	255	241	237
135	255	241	240
136	254	223	228
137	255	221	229
138	255	212	225
139	249	196	219
140	250	190	220
141	243	175	215
142	239	169	213
143	248	183	224
144	248	192	226
145	0	0	0
146	0	0	0
147	0	0	0
148	0	0	0
149	0	0	0
150	0	0	0
151	0	0	0
152	0	0	0
153	0	0	0
154	0	0	0
155	0	0	0
156	0	0	0
157	0	0	0
158	255	239	234
159	255	241	237
160	255	224	229
161	249	207	222
162	247	197	220
163	245	188	218
164	244	181	217
165	243	174	217
166	244	174	220
167	238	165	212
168	250	184	224
169	0	0	0
170	0	0	0
171	0	0	0
172	0	0	0
173	0	0	0
174	0	0	0
175	0	0	0
176	0	0	0
177	0	0	0
178	0	0	0
179	0	0	0
180	0	0	0
181	0	0	0
182	250	233	230
183	255	237	236
184	254	221	227
185	250	205	220
186	249	199	222
187	243	187	218
188	250	193	226
189	249	186	226
190	247	179	226
191	244	176	225
192	234	163	213
193	249	183	225
194	253	193	228
195	0	0	0
196	0	0	0
197	0	0	0
198	0	0	0
199	0	0	0
200	0	0	0
201	0	0	0
202	0	0	0
203	0	0	0
204	255	249	241
205	255	247	237
206	255	239	234
207	255	233	234
208	247	215	225
209	241	199	217
210	246	194	219
211	246	188	219
212	247	190	224
213	252	194	230
214	249	187	229
215	245	179	227
216	239	172	225
217	231	160	217
218	247	181	229
219	249	190	226
220	0	0	0
221	0	0	0
222	0	0	0
223	0	0	0
224	0	0	0
225	0	0	0
226	0	0	0
227	0	0	0
228	255	245	236
229	255	244	238
230	252	230	230
231	255	227	232
232	249	212	226
233	231	189	212
234	243	201	224
235	250	198	227
236	248	189	225
237	251	192	229
238	247	186	228
239	238	175	222
240	237	174	225
241	236	170	225
242	236	170	226
243	248	189	235
244	244	188	225
245	0	0	0
246	0	0	0
247	0	0	0
248	0	0	0
249	0	0	0
250	0	0	0
251	0	0	0
252	255	248	236
253	255	244	237
254	250	228	230
255	247	216	226
256	247	205	224
257	239	189	217
258	239	194	222
259	249	205	234
260	248	197	231
261	244	186	226
262	243	183	225
263	240	177	224
264	237	175	226
265	238	174	229
266	244	180	236
267	242	179	232
268	242	184	231
269	0	0	0
270	0	0	0
271	0	0	0
272	0	0	0
273	0	0	0
274	0	0	0
275	0	0	0
276	255	240	233
277	255	238	234
278	247	220	225
279	239	205	220
280	248	211	230
281	246	198	226
282	246	194	225
283	252	202	234
284	247	195	232
285	234	180	223
286	234	179	223
287	235	177	224
288	240	180	229
289	242	181	233
290	238	171	229
291	244	176	234
292	243	179	231
293	0	0	0
294	0	0	0
295	0	0	0
296	0	0	0
297	0	0	0
298	0	0	0
299	0	0	0
300	0	0	0
301	0	0	0
302	245	214	223
303	236	197	218
304	241	200	225
305	249	205	233
306	252	201	232
307	252	196	230
308	250	191	230
309	244	183	229
310	236	179	228
311	234	178	228
312	236	179	230
313	240	182	233
314	237	175	230
315	232	164	224
316	242	176	232
317	241	178	228
318	0	0	0
319	0	0	0
320	0	0	0
321	0	0	0
322	0	0	0
323	0	0	0
324	0	0	0
325	0	0	0
326	0	0	0
327	0	0	0
328	244	199	225
329	248	202	232
330	250	199	233
331	252	195	232
332	255	194	232
333	253	188	231
334	247	179	230
335	243	178	231
336	244	184	236
337	238	181	233
338	234	176	231
339	230	168	227
340	228	164	225
341	239	176	231
342	238	178	226
343	0	0	0
344	0	0	0
345	0	0	0
346	0	0	0
347	0	0	0
348	0	0	0
349	0	0	0
350	0	0	0
351	0	0	0
352	0	0	0
353	0	0	0
354	243	191	226
355	244	188	227
356	250	189	229
357	253	187	229
358	251	181	227
359	245	172	225
360	251	181	234
361	252	187	237
362	238	177	230
363	233	172	230
364	232	171	231
365	230	168	229
366	241	179	235
367	240	181	229
368	252	202	236
369	255	218	237
370	251	215	228
371	0	0	0
372	0	0	0
373	0	0	0
374	0	0	0
375	0	0	0
376	0	0	0
377	0	0	0
378	0	0	0
379	0	0	0
380	254	198	234
381	255	197	237
382	251	184	229
383	250	178	228
384	250	175	228
385	255	184	236
386	251	180	231
387	239	171	225
388	241	177	233
389	237	175	233
390	237	175	233
391	249	188	241
392	244	183	232
393	253	202	237
394	248	202	228
395	243	200	221
396	245	205	222
397	0	0	0
398	0	0	0
399	0	0	0
400	0	0	0
401	0	0	0
402	0	0	0
403	0	0	0
404	255	206	236
405	255	207	240
406	255	195	237
407	252	182	233
408	254	181	235
409	253	177	232
410	251	174	229
411	246	170	223
412	246	175	226
413	247	181	233
414	243	180	233
415	239	179	230
416	242	182	232
417	237	178	227
418	239	184	227
419	237	186	223
420	236	190	221
421	239	195	221
422	247	204	224
423	0	0	0
424	0	0	0
425	0	0	0
426	0	0	0
427	0	0	0
428	255	204	235
429	255	204	237
430	253	189	230
431	248	177	227
432	249	175	230
433	249	172	231
434	252	177	232
435	249	173	228
436	255	183	232
437	255	190	237
438	249	180	231
439	242	178	230
440	235	175	225
441	230	174	223
442	231	179	226
443	237	188	231
444	233	184	226
445	234	189	225
446	240	200	228
447	246	208	230
448	242	203	221
449	0	0	0
450	0	0	0
451	0	0	0
452	0	0	0
453	255	201	235
454	248	184	227
455	241	169	221
456	244	169	225
457	243	165	225
458	249	172	230
459	251	176	231
460	255	185	235
461	255	195	240
462	255	187	234
463	248	177	229
464	238	174	227
465	229	171	223
466	228	176	225
467	229	181	228
468	229	181	227
469	225	177	222
470	231	189	227
471	237	200	229
472	235	197	223
473	232	192	216
474	0	0	0
475	0	0	0
476	0	0	0
477	0	0	0
478	255	204	239
479	251	187	230
480	248	179	231
481	251	179	234
482	251	176	232
483	255	183	236
484	254	181	233
485	255	190	237
486	255	188	235
487	253	180	230
488	245	175	228
489	230	170	223
490	228	176	227
491	234	185	233
492	233	185	231
493	230	184	228
494	230	187	229
495	237	199	235
496	235	199	229
497	234	197	224
498	236	199	223
499	0	0	0
500	0	0	0
501	0	0	0
502	250	196	234
503	255	201	237
504	253	192	232
505	251	184	233
506	255	186	237
507	254	183	234
508	255	184	233
509	253	181	230
510	252	180	229
511	252	180	231
512	251	178	231
513	241	173	227
514	231	175	227
515	231	181	233
516	236	188	237
517	234	187	231
518	232	190	230
519	232	193	232
520	230	194	230
521	229	194	224
522	235	201	226
523	239	205	228
524	251	220	235
525	0	0	0
526	253	208	239
527	255	215	247
528	255	202	237
529	251	192	232
530	252	190	235
531	255	191	238
532	252	184	232
533	253	185	232
534	253	184	231
535	253	184	232
536	254	185	235
537	252	183	235
538	246	182	233
539	239	186	235
540	232	182	235
541	235	187	238
542	228	181	228
543	225	183	226
544	229	194	232
545	227	195	229
546	230	200	227
547	239	208	231
548	238	202	227
549	251	217	236
550	249	219	230
551	255	222	245
552	255	212	243
553	251	200	236
554	251	196	235
555	250	192	234
556	249	187	231
557	245	181	226
558	248	183	229
559	250	184	231
560	253	186	234
561	252	187	236
562	252	189	237
563	246	188	234
564	236	182	230
565	229	179	233
566	230	181	236
567	223	175	227
568	227	187	231
569	230	197	234
570	229	199	231
571	233	204	230
572	237	203	229
573	235	198	227
574	240	205	230
575	0	0	0
576	255	224	242
577	255	215	241
578	251	204	236
579	0	0	0
580	0	0	0
581	0	0	0
582	0	0	0
583	0	0	0
584	255	196	238
585	255	199	241
586	250	190	235
587	248	190	234
588	249	197	237
589	244	194	236
590	233	184	234
591	231	184	236
592	229	186	235
593	236	199	240
594	235	202	237
595	232	203	232
596	235	205	231
597	242	206	233
598	237	198	230
599	0	0	0
600	0	0	0
601	0	0	0
602	253	218	239
603	0	0	0
604	0	0	0
605	0	0	0
606	0	0	0
607	0	0	0
608	0	0	0
609	253	203	237
610	252	198	236
611	245	190	230
612	250	199	236
613	253	206	240
614	241	195	232
615	230	183	227
616	231	189	233
617	231	192	235
618	237	200	238
619	237	204	235
620	234	202	231
621	237	204	232
622	241	202	233
623	0	0	0
624	0	0	0
625	0	0	0
626	0	0	0
627	0	0	0
628	0	0	0
629	0	0	0
630	0	0	0
631	0	0	0
632	0	0	0
633	0	0	0
634	252	213	239
635	253	210	239
636	247	198	233
637	255	210	242
638	248	203	236
639	232	189	225
640	228	188	227
641	232	196	234
642	235	200	238
643	243	209	242
644	243	208	237
645	243	209	235
646	237	201	231
647	0	0	0
648	0	0	0
649	0	0	0
650	0	0	0
651	0	0	0
652	0	0	0
653	0	0	0
654	0	0	0
655	0	0	0
656	0	0	0
657	0	0	0
658	0	0	0
659	0	0	0
660	249	214	238
661	244	204	235
662	246	203	237
663	240	198	232
664	235	197	232
665	231	197	233
666	234	203	237
667	236	206	238
668	240	209	238
669	242	209	234
670	239	203	230
671	0	0	0
672	0	0	0
673	0	0	0
674	0	0	0
675	0	0	0
676	0	0	0
677	0	0	0
678	0	0	0
679	0	0	0
680	0	0	0
681	0	0	0
682	0	0	0
683	0	0	0
684	0	0	0
685	0	0	0
686	0	0	0
687	0	0	0
688	243	211	239
689	244	214	243
690	232	199	234
691	230	202	235
692	235	211	238
693	238	213	237
694	235	205	230
695	0	0	0
696	0	0	0
697	0	0	0
698	0	0	0
699	0	0	0
700	0	0	0
701	0	0	0
702	0	0	0
703	0	0	0
704	0	0	0
705	0	0	0
706	0	0	0
707	0	0	0
708	0	0	0
709	0	0	0
710	0	0	0
711	0	0	0
712	0	0	0
713	0	0	0
714	239	212	237
715	0	0	0
716	230	206	236
717	234	215	236
718	231	207	229
719	0	0	0
720	0	0	0
721	0	0	0
722	0	0	0
723	0	0	0
724	0	0	0
725	0	0	0
