 	R	G	B
1	0	0	0
2	0	0	0
3	0	0	0
4	0	0	0
5	0	0	0
6	0	0	0
7	0	0	0
8	0	0	0
9	0	0	0
10	0	0	0
11	0	0	0
12	0	0	0
13	0	0	0
14	0	0	0
15	0	0	0
16	0	0	0
17	0	0	0
18	0	0	0
19	0	0	0
20	0	0	0
21	0	0	0
22	255	248	243
23	0	0	0
24	0	0	0
25	0	0	0
26	0	0	0
27	0	0	0
28	0	0	0
29	0	0	0
30	0	0	0
31	0	0	0
32	0	0	0
33	0	0	0
34	0	0	0
35	0	0	0
36	0	0	0
37	0	0	0
38	0	0	0
39	0	0	0
40	0	0	0
41	0	0	0
42	0	0	0
43	0	0	0
44	0	0	0
45	0	0	0
46	0	0	0
47	255	244	243
48	255	240	239
49	255	225	231
50	0	0	0
51	0	0	0
52	0	0	0
53	0	0	0
54	0	0	0
55	0	0	0
56	0	0	0
57	0	0	0
58	0	0	0
59	0	0	0
60	0	0	0
61	0	0	0
62	0	0	0
63	0	0	0
64	0	0	0
65	0	0	0
66	0	0	0
67	0	0	0
68	0	0	0
69	0	0	0
70	0	0	0
71	0	0	0
72	255	249	246
73	255	245	245
74	255	226	232
75	250	211	224
76	0	0	0
77	0	0	0
78	0	0	0
79	0	0	0
80	0	0	0
81	0	0	0
82	0	0	0
83	0	0	0
84	0	0	0
85	0	0	0
86	0	0	0
87	0	0	0
88	0	0	0
89	0	0	0
90	0	0	0
91	0	0	0
92	0	0	0
93	0	0	0
94	0	0	0
95	0	0	0
96	0	0	0
97	0	0	0
98	255	247	245
99	254	230	237
100	247	211	224
101	248	206	224
102	0	0	0
103	0	0	0
104	0	0	0
105	0	0	0
106	0	0	0
107	0	0	0
108	0	0	0
109	0	0	0
110	0	0	0
111	0	0	0
112	0	0	0
113	0	0	0
114	0	0	0
115	0	0	0
116	0	0	0
117	0	0	0
118	0	0	0
119	0	0	0
120	0	0	0
121	0	0	0
122	0	0	0
123	0	0	0
124	255	243	243
125	253	225	235
126	245	205	224
127	245	199	225
128	0	0	0
129	0	0	0
130	0	0	0
131	0	0	0
132	0	0	0
133	0	0	0
134	0	0	0
135	0	0	0
136	0	0	0
137	0	0	0
138	0	0	0
139	0	0	0
140	0	0	0
141	0	0	0
142	0	0	0
143	0	0	0
144	0	0	0
145	0	0	0
146	0	0	0
147	0	0	0
148	0	0	0
149	254	241	240
150	255	235	237
151	248	216	229
152	240	197	224
153	0	0	0
154	0	0	0
155	0	0	0
156	0	0	0
157	0	0	0
158	0	0	0
159	0	0	0
160	0	0	0
161	0	0	0
162	0	0	0
163	0	0	0
164	0	0	0
165	0	0	0
166	0	0	0
167	0	0	0
168	0	0	0
169	0	0	0
170	0	0	0
171	0	0	0
172	0	0	0
173	0	0	0
174	255	250	244
175	255	241	241
176	249	224	231
177	240	205	223
178	241	199	228
179	246	199	235
180	0	0	0
181	0	0	0
182	0	0	0
183	0	0	0
184	0	0	0
185	0	0	0
186	0	0	0
187	0	0	0
188	0	0	0
189	0	0	0
190	0	0	0
191	0	0	0
192	0	0	0
193	0	0	0
194	0	0	0
195	0	0	0
196	0	0	0
197	0	0	0
198	0	0	0
199	0	0	0
200	255	248	244
201	254	233	238
202	247	217	230
203	243	208	229
204	242	201	230
205	242	195	231
206	0	0	0
207	0	0	0
208	0	0	0
209	0	0	0
210	0	0	0
211	0	0	0
212	0	0	0
213	0	0	0
214	0	0	0
215	0	0	0
216	0	0	0
217	0	0	0
218	0	0	0
219	0	0	0
220	0	0	0
221	0	0	0
222	0	0	0
223	0	0	0
224	0	0	0
225	0	0	0
226	255	243	241
227	255	229	238
228	245	207	227
229	237	196	224
230	241	200	230
231	240	194	230
232	0	0	0
233	248	196	237
234	0	0	0
235	0	0	0
236	0	0	0
237	0	0	0
238	0	0	0
239	0	0	0
240	0	0	0
241	0	0	0
242	0	0	0
243	0	0	0
244	0	0	0
245	0	0	0
246	0	0	0
247	0	0	0
248	0	0	0
249	0	0	0
250	0	0	0
251	253	238	234
252	255	235	237
253	253	218	232
254	241	196	223
255	243	200	229
256	246	203	234
257	245	198	234
258	243	191	234
259	248	193	238
260	237	183	228
261	0	0	0
262	0	0	0
263	0	0	0
264	0	0	0
265	0	0	0
266	0	0	0
267	0	0	0
268	0	0	0
269	0	0	0
270	0	0	0
271	0	0	0
272	0	0	0
273	0	0	0
274	0	0	0
275	0	0	0
276	255	246	239
277	255	238	236
278	253	225	232
279	248	208	226
280	244	197	225
281	249	202	233
282	246	196	232
283	243	190	232
284	240	183	231
285	243	184	234
286	237	181	228
287	0	0	0
288	0	0	0
289	0	0	0
290	0	0	0
291	0	0	0
292	0	0	0
293	0	0	0
294	0	0	0
295	0	0	0
296	0	0	0
297	0	0	0
298	0	0	0
299	0	0	0
300	0	0	0
301	0	0	0
302	255	242	236
303	253	229	232
304	250	216	228
305	250	208	228
306	246	197	225
307	245	193	228
308	242	188	230
309	240	183	231
310	234	174	228
311	236	179	232
312	0	0	0
313	0	0	0
314	0	0	0
315	0	0	0
316	0	0	0
317	0	0	0
318	0	0	0
319	0	0	0
320	0	0	0
321	0	0	0
322	0	0	0
323	0	0	0
324	0	0	0
325	0	0	0
326	0	0	0
327	0	0	0
328	255	236	233
329	255	226	232
330	250	210	226
331	249	201	225
332	244	192	224
333	242	188	226
334	244	190	233
335	241	184	233
336	233	177	229
337	0	0	0
338	0	0	0
339	0	0	0
340	0	0	0
341	0	0	0
342	0	0	0
343	0	0	0
344	0	0	0
345	0	0	0
346	0	0	0
347	0	0	0
348	0	0	0
349	0	0	0
350	0	0	0
351	0	0	0
352	0	0	0
353	255	241	235
354	255	233	232
355	255	221	230
356	252	206	225
357	252	201	229
358	247	191	228
359	246	192	232
360	246	193	236
361	243	189	235
362	235	181	230
363	0	0	0
364	0	0	0
365	0	0	0
366	0	0	0
367	0	0	0
368	0	0	0
369	0	0	0
370	0	0	0
371	0	0	0
372	0	0	0
373	0	0	0
374	0	0	0
375	0	0	0
376	0	0	0
377	0	0	0
378	255	253	245
379	255	243	239
380	255	222	227
381	251	209	222
382	251	199	223
383	254	195	228
384	246	184	225
385	240	182	226
386	241	187	231
387	238	183	230
388	236	184	230
389	0	0	0
390	0	0	0
391	0	0	0
392	0	0	0
393	0	0	0
394	0	0	0
395	0	0	0
396	0	0	0
397	0	0	0
398	0	0	0
399	0	0	0
400	0	0	0
401	0	0	0
402	0	0	0
403	0	0	0
404	255	250	241
405	255	229	229
406	250	210	218
407	249	201	219
408	248	192	221
409	252	189	226
410	242	176	218
411	241	181	224
412	242	187	231
413	244	191	235
414	241	191	234
415	0	0	0
416	0	0	0
417	0	0	0
418	0	0	0
419	0	0	0
420	0	0	0
421	0	0	0
422	0	0	0
423	0	0	0
424	0	0	0
425	0	0	0
426	0	0	0
427	0	0	0
428	0	0	0
429	0	0	0
430	255	242	235
431	254	223	225
432	248	203	216
433	246	195	217
434	245	186	220
435	245	181	223
436	237	170	216
437	239	177	224
438	239	181	229
439	238	182	231
440	0	0	0
441	0	0	0
442	0	0	0
443	0	0	0
444	0	0	0
445	0	0	0
446	0	0	0
447	0	0	0
448	0	0	0
449	0	0	0
450	0	0	0
451	0	0	0
452	0	0	0
453	0	0	0
454	0	0	0
455	255	240	236
456	255	236	234
457	255	219	225
458	250	200	217
459	250	194	221
460	247	184	224
461	245	179	228
462	236	167	222
463	239	174	229
464	237	175	230
465	0	0	0
466	0	0	0
467	0	0	0
468	0	0	0
469	0	0	0
470	0	0	0
471	0	0	0
472	0	0	0
473	0	0	0
474	0	0	0
475	0	0	0
476	0	0	0
477	0	0	0
478	0	0	0
479	0	0	0
480	0	0	0
481	255	238	236
482	255	223	228
483	252	206	220
484	250	193	217
485	252	187	222
486	242	171	220
487	235	163	220
488	237	167	226
489	243	175	234
490	237	174	231
491	0	0	0
492	0	0	0
493	0	0	0
494	0	0	0
495	0	0	0
496	0	0	0
497	0	0	0
498	0	0	0
499	0	0	0
500	0	0	0
501	0	0	0
502	0	0	0
503	0	0	0
504	0	0	0
505	0	0	0
506	0	0	0
507	255	224	228
508	253	210	222
509	252	198	220
510	249	184	218
511	244	173	217
512	232	155	211
513	236	162	221
514	237	166	227
515	238	171	231
516	231	168	227
517	0	0	0
518	0	0	0
519	0	0	0
520	0	0	0
521	0	0	0
522	0	0	0
523	0	0	0
524	0	0	0
525	0	0	0
526	0	0	0
527	0	0	0
528	0	0	0
529	0	0	0
530	0	0	0
531	0	0	0
532	0	0	0
533	0	0	0
534	250	198	217
535	246	184	215
536	242	174	216
537	232	159	212
538	230	155	215
539	240	166	227
540	234	163	225
541	228	162	223
542	226	170	226
543	0	0	0
544	0	0	0
545	0	0	0
546	0	0	0
547	0	0	0
548	0	0	0
549	0	0	0
550	0	0	0
551	0	0	0
552	0	0	0
553	0	0	0
554	0	0	0
555	0	0	0
556	0	0	0
557	0	0	0
558	0	0	0
559	0	0	0
560	242	182	211
561	245	176	214
562	240	165	216
563	237	164	220
564	234	159	222
565	238	163	228
566	230	158	221
567	227	166	224
568	0	0	0
569	0	0	0
570	0	0	0
571	0	0	0
572	0	0	0
573	0	0	0
574	0	0	0
575	0	0	0
576	0	0	0
577	0	0	0
578	0	0	0
579	0	0	0
580	0	0	0
581	0	0	0
582	0	0	0
583	0	0	0
584	0	0	0
585	0	0	0
586	246	185	216
587	254	182	223
588	244	162	218
589	241	160	222
590	239	161	226
591	237	161	227
592	227	156	219
593	225	165	221
594	0	0	0
595	0	0	0
596	0	0	0
597	0	0	0
598	0	0	0
599	0	0	0
600	0	0	0
601	0	0	0
602	0	0	0
603	0	0	0
604	0	0	0
605	0	0	0
606	0	0	0
607	0	0	0
608	0	0	0
609	0	0	0
610	0	0	0
611	251	198	220
612	253	190	222
613	255	178	223
614	245	157	217
615	248	163	226
616	245	162	228
617	240	163	228
618	229	158	221
619	238	182	232
620	250	205	242
621	0	0	0
622	0	0	0
623	0	0	0
624	0	0	0
625	0	0	0
626	0	0	0
627	0	0	0
628	0	0	0
629	0	0	0
630	0	0	0
631	0	0	0
632	0	0	0
633	0	0	0
634	255	237	236
635	0	0	0
636	251	199	218
637	253	191	219
638	251	178	218
639	248	164	216
640	241	148	213
641	247	155	222
642	249	161	228
643	242	161	226
644	238	165	226
645	248	190	237
646	246	197	233
647	236	189	221
648	0	0	0
649	0	0	0
650	0	0	0
651	0	0	0
652	0	0	0
653	0	0	0
654	0	0	0
655	0	0	0
656	0	0	0
657	0	0	0
658	0	0	0
659	255	243	240
660	255	234	235
661	255	213	224
662	252	192	216
663	250	180	216
664	247	166	215
665	244	155	214
666	236	139	209
667	248	154	223
668	249	159	226
669	249	167	230
670	245	173	230
671	245	183	232
672	243	190	229
673	243	199	228
674	0	0	0
675	0	0	0
676	0	0	0
677	0	0	0
678	0	0	0
679	0	0	0
680	0	0	0
681	0	0	0
682	0	0	0
683	0	0	0
684	255	244	241
685	255	235	236
686	255	220	227
687	253	199	217
688	247	179	211
689	246	168	212
690	253	171	222
691	248	158	219
692	244	149	218
693	255	163	230
694	252	163	228
695	254	172	232
696	248	173	230
697	246	182	231
698	242	188	229
699	0	0	0
700	0	0	0
701	0	0	0
702	0	0	0
703	0	0	0
704	0	0	0
705	0	0	0
706	0	0	0
707	0	0	0
708	0	0	0
709	0	0	0
710	255	234	232
711	255	220	227
712	254	207	220
713	250	189	213
714	244	169	209
715	254	174	221
716	255	176	229
717	255	170	230
718	252	160	226
719	255	167	232
720	254	167	229
721	255	173	231
722	249	173	227
723	243	179	228
724	0	0	0
725	0	0	0
726	0	0	0
727	0	0	0
728	0	0	0
729	0	0	0
730	0	0	0
731	0	0	0
732	0	0	0
733	0	0	0
734	0	0	0
735	0	0	0
736	255	235	232
737	255	223	231
738	252	197	216
739	247	179	211
740	245	166	211
741	254	171	222
742	254	166	225
743	251	159	224
744	248	154	223
745	249	159	226
746	252	165	228
747	255	172	230
748	247	170	224
749	0	0	0
750	0	0	0
751	0	0	0
752	0	0	0
753	0	0	0
754	0	0	0
755	0	0	0
756	0	0	0
757	0	0	0
758	0	0	0
759	0	0	0
760	0	0	0
761	255	244	233
762	255	237	235
763	255	213	225
764	251	188	214
765	251	178	214
766	247	164	214
767	251	163	221
768	250	158	223
769	249	156	224
770	245	150	220
771	249	159	226
772	251	165	229
773	254	171	231
774	247	169	223
775	0	0	0
776	0	0	0
777	0	0	0
778	0	0	0
779	0	0	0
780	0	0	0
781	0	0	0
782	0	0	0
783	0	0	0
784	0	0	0
785	0	0	0
786	255	250	237
787	255	239	233
788	252	209	220
789	244	184	210
790	250	182	215
791	250	172	216
792	247	160	215
793	250	159	220
794	252	160	225
795	250	157	225
796	250	159	227
797	254	168	232
798	248	161	227
799	250	167	229
800	245	168	223
801	0	0	0
802	0	0	0
803	0	0	0
804	0	0	0
805	0	0	0
806	0	0	0
807	0	0	0
808	0	0	0
809	0	0	0
810	0	0	0
811	255	242	233
812	255	242	234
813	251	211	219
814	239	182	208
815	247	182	217
816	253	180	222
817	253	171	222
818	248	158	217
819	254	163	225
820	255	163	228
821	255	165	230
822	255	167	231
823	250	162	228
824	244	156	224
825	249	166	229
826	243	167	224
827	0	0	0
828	0	0	0
829	0	0	0
830	0	0	0
831	0	0	0
832	0	0	0
833	0	0	0
834	0	0	0
835	0	0	0
836	255	251	241
837	255	248	239
838	255	231	230
839	248	200	216
840	244	182	214
841	252	182	224
842	255	180	229
843	255	169	226
844	243	148	215
845	249	153	221
846	250	156	224
847	247	157	224
848	251	164	228
849	248	160	226
850	246	160	226
851	250	170	231
852	248	176	229
853	248	192	231
854	0	0	0
855	0	0	0
856	0	0	0
857	0	0	0
858	0	0	0
859	0	0	0
860	0	0	0
861	0	0	0
862	255	252	244
863	255	233	232
864	255	216	223
865	251	198	218
866	247	180	217
867	255	182	228
868	255	177	231
869	246	157	220
870	234	136	209
871	243	146	218
872	244	148	219
873	244	153	222
874	247	161	227
875	248	162	228
876	246	162	226
877	254	177	234
878	251	183	231
879	0	0	0
880	0	0	0
881	0	0	0
882	0	0	0
883	0	0	0
884	0	0	0
885	0	0	0
886	0	0	0
887	0	0	0
888	255	250	245
889	255	231	235
890	248	201	218
891	244	183	214
892	251	181	222
893	255	181	230
894	247	161	221
895	231	138	209
896	248	160	227
897	255	170	235
898	247	154	222
899	248	160	225
900	254	170	232
901	252	171	231
902	252	172	230
903	255	188	238
904	248	179	226
905	0	0	0
906	0	0	0
907	0	0	0
908	0	0	0
909	0	0	0
910	0	0	0
911	0	0	0
912	0	0	0
913	255	245	238
914	255	247	243
915	253	216	228
916	241	186	215
917	246	183	220
918	250	178	223
919	246	165	220
920	236	145	212
921	251	167	230
922	255	187	244
923	255	174	234
924	247	157	222
925	253	168	228
926	255	178	233
927	255	179	232
928	254	179	230
929	248	177	226
930	237	171	220
931	242	188	229
932	0	0	0
933	0	0	0
934	0	0	0
935	0	0	0
936	0	0	0
937	0	0	0
938	255	251	241
939	255	249	241
940	255	230	234
941	245	198	220
942	240	183	218
943	241	178	221
944	250	182	227
945	247	168	223
946	238	150	217
947	255	174	237
948	255	176	236
949	248	159	222
950	246	159	220
951	252	170	227
952	255	177	230
953	255	179	230
954	249	178	225
955	238	172	219
956	244	190	230
957	254	210	243
958	243	205	234
959	0	0	0
960	0	0	0
961	0	0	0
962	0	0	0
963	0	0	0
964	255	252	243
965	255	229	231
966	251	211	223
967	248	197	222
968	243	181	221
969	248	185	229
970	253	188	234
971	247	171	226
972	238	153	220
973	249	162	229
974	250	164	228
975	250	164	226
976	248	164	222
977	251	171	226
978	255	179	232
979	254	181	232
980	248	180	226
981	248	193	231
982	253	209	240
983	247	207	235
984	0	0	0
985	0	0	0
986	0	0	0
987	0	0	0
988	0	0	0
989	0	0	0
990	255	243	238
991	253	221	227
992	247	202	221
993	247	189	221
994	250	186	226
995	254	189	233
996	245	174	226
997	233	155	217
998	241	162	226
999	250	170	234
1000	245	163	229
1001	246	164	227
1002	250	170	226
1003	255	179	230
1004	255	185	234
1005	255	186	233
1006	248	185	229
1007	252	200	236
1008	249	206	236
1009	0	0	0
1010	0	0	0
1011	0	0	0
1012	0	0	0
1013	0	0	0
1014	0	0	0
1015	0	0	0
1016	255	231	231
1017	247	210	222
1018	243	192	219
1019	253	194	228
1020	253	188	227
1021	242	174	222
1022	233	160	220
1023	239	168	229
1024	244	173	233
1025	243	168	231
1026	239	161	228
1027	247	171	233
1028	250	176	230
1029	254	183	230
1030	254	187	230
1031	246	185	226
1032	241	186	226
1033	243	195	231
1034	0	0	0
1035	0	0	0
1036	0	0	0
1037	0	0	0
1038	0	0	0
1039	0	0	0
1040	0	0	0
1041	0	0	0
1042	253	227	230
1043	245	206	222
1044	248	198	225
1045	255	199	233
1046	246	180	221
1047	231	163	214
1048	236	169	227
1049	243	177	237
1050	237	168	230
1051	234	162	227
1052	238	167	233
1053	246	177	238
1054	242	174	229
1055	244	179	228
1056	237	176	221
1057	0	0	0
1058	0	0	0
1059	0	0	0
1060	0	0	0
1061	0	0	0
1062	0	0	0
1063	0	0	0
1064	0	0	0
1065	0	0	0
1066	0	0	0
1067	0	0	0
1068	0	0	0
1069	252	212	230
1070	0	0	0
1071	253	192	228
1072	241	172	218
1073	239	174	223
1074	241	179	234
1075	235	172	233
1076	228	162	227
1077	232	168	232
1078	235	171	234
1079	239	174	235
1080	236	172	230
1081	233	172	226
1082	225	170	221
1083	0	0	0
1084	0	0	0
1085	0	0	0
1086	0	0	0
1087	0	0	0
1088	0	0	0
1089	0	0	0
1090	0	0	0
1091	0	0	0
1092	0	0	0
1093	0	0	0
1094	0	0	0
1095	0	0	0
1096	0	0	0
1097	245	181	221
1098	235	165	214
1099	236	169	222
1100	246	187	239
1101	236	176	234
1102	229	170	231
1103	229	174	234
1104	227	171	231
1105	237	177	235
1106	239	181	236
1107	233	180	232
1108	0	0	0
1109	0	0	0
1110	0	0	0
1111	0	0	0
1112	0	0	0
1113	0	0	0
1114	0	0	0
1115	0	0	0
1116	0	0	0
1117	0	0	0
1118	0	0	0
1119	0	0	0
1120	0	0	0
1121	0	0	0
1122	0	0	0
1123	239	175	217
1124	231	160	214
1125	247	181	233
1126	255	197	245
1127	240	186	237
1128	232	179	234
1129	230	178	234
1130	229	176	232
1131	243	188	241
1132	245	192	241
1133	244	200	242
1134	0	0	0
1135	0	0	0
1136	0	0	0
1137	0	0	0
1138	0	0	0
1139	0	0	0
1140	0	0	0
1141	0	0	0
1142	0	0	0
1143	0	0	0
1144	0	0	0
1145	0	0	0
1146	0	0	0
1147	0	0	0
1148	0	0	0
1149	235	174	217
1150	234	166	219
1151	255	191	241
1152	252	190	239
1153	232	175	227
1154	235	183	235
1155	240	187	240
1156	235	176	233
1157	242	184	237
1158	242	188	236
1159	0	0	0
1160	0	0	0
1161	0	0	0
1162	0	0	0
1163	0	0	0
1164	0	0	0
1165	0	0	0
1166	0	0	0
1167	0	0	0
1168	0	0	0
1169	0	0	0
1170	0	0	0
1171	0	0	0
1172	0	0	0
1173	0	0	0
1174	238	185	222
1175	240	182	226
1176	239	174	225
1177	255	186	238
1178	251	185	235
1179	241	184	233
1180	244	193	242
1181	241	185	238
1182	233	173	230
1183	239	182	234
1184	0	0	0
1185	0	0	0
1186	0	0	0
1187	0	0	0
1188	0	0	0
1189	0	0	0
1190	0	0	0
1191	0	0	0
1192	0	0	0
1193	0	0	0
1194	0	0	0
1195	0	0	0
1196	0	0	0
1197	0	0	0
1198	0	0	0
1199	0	0	0
1200	241	187	226
1201	243	184	229
1202	238	170	223
1203	253	182	235
1204	251	180	233
1205	244	181	233
1206	242	185	236
1207	230	172	227
1208	229	174	229
1209	0	0	0
1210	0	0	0
1211	0	0	0
1212	0	0	0
1213	0	0	0
1214	0	0	0
1215	0	0	0
1216	0	0	0
1217	0	0	0
1218	0	0	0
1219	0	0	0
1220	0	0	0
1221	0	0	0
1222	0	0	0
1223	0	0	0
1224	0	0	0
1225	248	199	229
1226	245	189	228
1227	239	178	225
1228	232	163	220
1229	246	174	232
1230	245	173	231
1231	240	175	230
1232	236	175	229
1233	230	175	228
1234	0	0	0
1235	0	0	0
1236	0	0	0
1237	0	0	0
1238	0	0	0
1239	0	0	0
1240	0	0	0
1241	0	0	0
1242	0	0	0
1243	0	0	0
1244	0	0	0
1245	0	0	0
1246	0	0	0
1247	0	0	0
1248	0	0	0
1249	0	0	0
1250	249	204	230
1251	250	197	230
1252	244	185	226
1253	234	172	221
1254	235	171	226
1255	246	180	237
1256	240	172	232
1257	237	174	232
1258	230	172	228
1259	227	172	226
1260	238	195	241
1261	0	0	0
1262	0	0	0
1263	0	0	0
1264	0	0	0
1265	0	0	0
1266	0	0	0
1267	0	0	0
1268	0	0	0
1269	0	0	0
1270	0	0	0
1271	0	0	0
1272	0	0	0
1273	0	0	0
1274	0	0	0
1275	0	0	0
1276	248	200	231
1277	251	195	233
1278	244	182	226
1279	241	181	229
1280	240	179	234
1281	239	176	234
1282	231	166	227
1283	226	166	226
1284	222	165	226
1285	236	190	240
1286	245	209	245
1287	0	0	0
1288	0	0	0
1289	0	0	0
1290	0	0	0
1291	0	0	0
1292	0	0	0
1293	0	0	0
1294	0	0	0
1295	0	0	0
1296	0	0	0
1297	0	0	0
1298	0	0	0
1299	0	0	0
1300	0	0	0
1301	0	0	0
1302	253	208	237
1303	255	205	241
1304	244	178	225
1305	242	178	228
1306	242	180	235
1307	234	173	231
1308	232	177	231
1309	226	176	230
1310	230	186	237
1311	246	211	251
1312	243	212	242
1313	0	0	0
1314	0	0	0
1315	0	0	0
1316	0	0	0
1317	0	0	0
1318	0	0	0
1319	0	0	0
1320	0	0	0
1321	0	0	0
1322	0	0	0
1323	0	0	0
1324	0	0	0
1325	0	0	0
1326	0	0	0
1327	253	219	237
1328	255	217	240
1329	255	198	234
1330	241	173	223
1331	249	183	234
1332	247	184	238
1333	246	190	241
1334	243	193	240
1335	241	200	241
1336	241	207	242
1337	242	213	243
1338	0	0	0
1339	0	0	0
1340	0	0	0
1341	0	0	0
1342	0	0	0
1343	0	0	0
1344	0	0	0
1345	0	0	0
1346	0	0	0
1347	0	0	0
1348	0	0	0
1349	0	0	0
1350	0	0	0
1351	0	0	0
1352	0	0	0
1353	0	0	0
1354	255	208	235
1355	245	187	226
1356	241	175	225
1357	253	186	239
1358	246	178	234
1359	245	183	236
1360	246	194	238
1361	243	200	238
1362	239	204	236
1363	0	0	0
1364	0	0	0
1365	0	0	0
1366	0	0	0
1367	0	0	0
1368	0	0	0
1369	0	0	0
1370	0	0	0
1371	0	0	0
1372	0	0	0
1373	0	0	0
1374	0	0	0
1375	0	0	0
1376	0	0	0
1377	0	0	0
1378	0	0	0
1379	0	0	0
1380	0	0	0
1381	245	188	228
1382	240	175	227
1383	246	178	234
1384	239	169	228
1385	249	187	238
1386	248	196	238
1387	241	199	235
1388	0	0	0
1389	0	0	0
1390	0	0	0
1391	0	0	0
1392	0	0	0
1393	0	0	0
1394	0	0	0
1395	0	0	0
1396	0	0	0
1397	0	0	0
1398	0	0	0
1399	0	0	0
1400	0	0	0
1401	0	0	0
1402	0	0	0
1403	0	0	0
1404	0	0	0
1405	0	0	0
1406	0	0	0
1407	0	0	0
1408	245	185	232
1409	248	185	237
1410	247	183	237
1411	255	202	248
1412	242	190	232
1413	0	0	0
1414	0	0	0
1415	0	0	0
1416	0	0	0
1417	0	0	0
1418	0	0	0
1419	0	0	0
1420	0	0	0
1421	0	0	0
1422	0	0	0
1423	0	0	0
1424	0	0	0
1425	0	0	0
1426	0	0	0
1427	0	0	0
1428	0	0	0
1429	0	0	0
1430	0	0	0
1431	0	0	0
1432	0	0	0
1433	0	0	0
1434	0	0	0
1435	0	0	0
1436	250	194	240
1437	246	193	238
1438	0	0	0
1439	0	0	0
1440	0	0	0
1441	0	0	0
1442	0	0	0
1443	0	0	0
1444	0	0	0
1445	0	0	0
1446	0	0	0
1447	0	0	0
1448	0	0	0
1449	0	0	0
1450	0	0	0
1451	0	0	0
1452	0	0	0
1453	0	0	0
1454	0	0	0
1455	0	0	0
1456	0	0	0
