 	R	G	B
1	0	0	0
2	0	0	0
3	0	0	0
4	0	0	0
5	0	0	0
6	0	0	0
7	0	0	0
8	0	0	0
9	0	0	0
10	255	250	242
11	255	251	241
12	255	244	237
13	255	230	231
14	255	236	236
15	0	0	0
16	0	0	0
17	0	0	0
18	0	0	0
19	0	0	0
20	0	0	0
21	0	0	0
22	0	0	0
23	0	0	0
24	0	0	0
25	0	0	0
26	255	250	245
27	255	251	243
28	255	246	241
29	0	0	0
30	0	0	0
31	0	0	0
32	0	0	0
33	0	0	0
34	0	0	0
35	0	0	0
36	0	0	0
37	0	0	0
38	254	248	242
39	255	252	245
40	252	232	231
41	254	226	229
42	245	207	219
43	251	214	225
44	248	211	222
45	0	0	0
46	0	0	0
47	0	0	0
48	0	0	0
49	0	0	0
50	0	0	0
51	0	0	0
52	0	0	0
53	0	0	0
54	255	231	233
55	255	233	236
56	250	211	219
57	246	204	217
58	248	211	224
59	0	0	0
60	0	0	0
61	0	0	0
62	0	0	0
63	0	0	0
64	0	0	0
65	0	0	0
66	0	0	0
67	255	248	241
68	248	230	230
69	242	211	221
70	242	201	218
71	234	183	209
72	240	189	214
73	238	186	210
74	249	202	219
75	255	215	225
76	0	0	0
77	252	209	216
78	255	220	223
79	255	232	232
80	255	222	226
81	255	213	223
82	255	215	224
83	255	215	221
84	248	195	210
85	235	175	202
86	241	185	213
87	240	188	215
88	0	0	0
89	0	0	0
90	0	0	0
91	0	0	0
92	0	0	0
93	0	0	0
94	0	0	0
95	0	0	0
96	255	246	242
97	252	228	232
98	243	206	222
99	244	196	221
100	245	192	220
101	253	198	226
102	248	189	219
103	255	206	230
104	254	199	222
105	251	195	216
106	253	197	216
107	255	208	223
108	255	200	216
109	249	190	210
110	254	196	218
111	255	198	220
112	253	190	212
113	239	170	200
114	241	172	208
115	246	180	217
116	244	185	218
117	0	0	0
118	0	0	0
119	0	0	0
120	0	0	0
121	0	0	0
122	0	0	0
123	0	0	0
124	255	245	245
125	255	245	246
126	251	219	230
127	242	198	220
128	249	198	225
129	250	193	224
130	254	193	226
131	250	185	221
132	249	182	219
133	244	174	212
134	245	177	213
135	248	180	215
136	245	174	211
137	239	166	204
138	245	171	209
139	249	176	213
140	245	169	209
141	242	163	208
142	242	164	210
143	240	161	207
144	245	173	216
145	242	178	219
146	0	0	0
147	0	0	0
148	0	0	0
149	0	0	0
150	0	0	0
151	0	0	0
152	255	236	240
153	255	233	240
154	255	223	234
155	242	197	218
156	251	203	227
157	255	203	231
158	253	191	226
159	255	190	228
160	247	175	220
161	247	173	219
162	252	179	221
163	255	183	223
164	255	188	228
165	255	183	226
166	246	164	214
167	252	170	219
168	253	171	219
169	248	163	214
170	249	164	219
171	248	163	218
172	245	164	214
173	248	174	219
174	243	178	221
175	0	0	0
176	0	0	0
177	0	0	0
178	0	0	0
179	0	0	0
180	0	0	0
181	254	222	231
182	251	212	227
183	248	202	222
184	252	204	226
185	255	209	232
186	255	197	226
187	251	185	224
188	247	174	220
189	238	159	213
190	249	171	222
191	254	177	222
192	255	179	222
193	255	185	228
194	252	168	219
195	242	151	212
196	249	158	219
197	250	159	218
198	250	158	217
199	249	158	219
200	250	162	221
201	245	161	216
202	245	170	219
203	0	0	0
204	0	0	0
205	0	0	0
206	0	0	0
207	0	0	0
208	0	0	0
209	0	0	0
210	254	216	230
211	252	207	227
212	249	197	222
213	254	199	225
214	255	201	227
215	250	186	220
216	251	184	224
217	246	173	221
218	244	166	220
219	255	179	229
220	255	180	226
221	255	182	226
222	255	179	225
223	251	163	218
224	250	157	220
225	255	164	229
226	249	152	219
227	247	150	218
228	249	155	220
229	248	158	220
230	246	163	218
231	244	170	219
232	247	188	227
233	0	0	0
234	0	0	0
235	0	0	0
236	0	0	0
237	0	0	0
238	0	0	0
239	251	207	227
240	250	200	226
241	247	189	219
242	251	191	221
243	254	191	222
244	251	185	220
245	253	183	225
246	252	178	226
247	250	172	225
248	255	180	231
249	255	182	229
250	255	177	224
251	255	174	223
252	255	166	221
253	255	160	223
254	251	152	222
255	242	140	214
256	245	146	218
257	245	149	218
258	248	159	221
259	245	163	218
260	252	184	227
261	253	200	231
262	0	0	0
263	0	0	0
264	0	0	0
265	0	0	0
266	0	0	0
267	252	214	227
268	255	211	232
269	254	202	230
270	250	192	224
271	254	193	226
272	254	189	223
273	252	183	221
274	255	183	226
275	255	180	227
276	254	171	224
277	255	179	230
278	255	167	221
279	254	163	218
280	254	161	216
281	251	153	214
282	251	151	218
283	245	141	215
284	245	144	218
285	249	150	222
286	255	163	226
287	255	172	228
288	245	165	220
289	251	186	228
290	252	201	229
291	0	0	0
292	0	0	0
293	0	0	0
294	0	0	0
295	0	0	0
296	0	0	0
297	252	208	229
298	250	199	227
299	249	190	226
300	253	190	230
301	253	186	227
302	255	184	226
303	255	184	228
304	255	177	225
305	255	169	220
306	253	162	217
307	248	152	214
308	250	151	215
309	250	148	213
310	248	145	212
311	247	142	215
312	247	146	219
313	247	147	220
314	255	163	227
315	255	174	230
316	254	172	225
317	244	167	221
318	254	191	232
319	253	205	230
320	0	0	0
321	0	0	0
322	0	0	0
323	0	0	0
324	0	0	0
325	0	0	0
326	0	0	0
327	242	193	222
328	250	194	230
329	255	196	235
330	251	181	226
331	252	179	225
332	252	175	224
333	253	169	221
334	254	163	218
335	252	156	215
336	249	149	215
337	252	148	218
338	250	146	216
339	247	141	213
340	248	144	217
341	247	146	218
342	250	153	221
343	255	168	229
344	255	171	226
345	250	169	222
346	247	172	224
347	255	197	236
348	250	202	229
349	0	0	0
350	0	0	0
351	0	0	0
352	0	0	0
353	0	0	0
354	0	0	0
355	239	199	226
356	248	201	230
357	255	201	235
358	255	191	231
359	250	177	224
360	250	172	224
361	251	168	224
362	252	163	222
363	252	157	219
364	249	149	215
365	246	141	212
366	248	142	215
367	247	139	215
368	250	144	218
369	250	146	218
370	254	156	223
371	255	162	225
372	255	169	227
373	255	172	227
374	251	173	225
375	245	175	223
376	244	186	225
377	0	0	0
378	0	0	0
379	0	0	0
380	0	0	0
381	0	0	0
382	243	209	231
383	240	204	230
384	241	200	229
385	253	203	235
386	253	191	230
387	252	180	226
388	251	171	223
389	252	167	224
390	254	166	226
391	253	159	223
392	253	156	221
393	249	147	216
394	254	151	220
395	255	151	222
396	251	144	219
397	254	149	223
398	254	151	222
399	255	160	227
400	247	148	215
401	248	154	217
402	251	167	224
403	0	0	0
404	250	191	230
405	0	0	0
406	0	0	0
407	0	0	0
408	0	0	0
409	0	0	0
410	246	211	233
411	248	213	235
412	242	204	230
413	244	199	231
414	248	190	229
415	248	178	225
416	248	170	223
417	247	162	221
418	250	161	223
419	251	158	222
420	251	155	220
421	250	151	217
422	255	155	220
423	255	158	224
424	255	153	222
425	252	146	219
426	255	151	224
427	255	154	226
428	249	146	219
429	237	134	208
430	245	151	218
431	246	162	221
432	0	0	0
433	0	0	0
434	0	0	0
435	0	0	0
436	0	0	0
437	0	0	0
438	244	210	231
439	252	215	238
440	249	208	233
441	245	200	230
442	247	195	230
443	247	184	227
444	253	183	230
445	252	175	229
446	252	168	228
447	255	167	229
448	251	158	223
449	251	155	221
450	255	158	223
451	255	161	226
452	254	152	220
453	252	146	217
454	250	144	217
455	254	150	222
456	255	153	224
457	247	145	218
458	246	149	219
459	254	166	228
460	245	167	223
461	0	0	0
462	0	0	0
463	0	0	0
464	0	0	0
465	0	0	0
466	247	215	233
467	247	212	235
468	246	206	233
469	244	198	229
470	243	192	226
471	246	188	228
472	251	186	231
473	255	185	233
474	255	178	232
475	254	171	231
476	254	165	229
477	251	158	224
478	255	162	228
479	255	165	230
480	255	157	226
481	252	147	219
482	253	148	220
483	251	145	217
484	253	149	219
485	252	152	220
486	252	157	222
487	249	160	223
488	245	165	223
489	0	0	0
490	0	0	0
491	0	0	0
492	0	0	0
493	0	0	0
494	254	223	237
495	251	218	236
496	248	212	235
497	243	203	231
498	246	201	231
499	248	197	231
500	252	194	233
501	255	191	235
502	255	185	233
503	255	177	231
504	252	168	229
505	251	162	227
506	255	165	229
507	255	170	233
508	253	154	223
509	250	147	219
510	252	147	220
511	253	147	221
512	249	144	217
513	250	147	217
514	250	152	218
515	247	156	219
516	239	157	216
517	0	0	0
518	0	0	0
519	0	0	0
520	0	0	0
521	0	0	0
522	0	0	0
523	254	223	236
524	249	215	232
525	246	208	231
526	247	206	232
527	250	205	233
528	252	201	234
529	255	197	235
530	253	189	232
531	253	182	229
532	251	173	227
533	249	164	226
534	255	169	231
535	255	171	231
536	252	156	221
537	244	141	213
538	250	146	218
539	250	145	219
540	249	144	218
541	246	140	215
542	250	149	219
543	249	153	218
544	248	161	221
545	237	160	217
546	0	0	0
547	0	0	0
548	0	0	0
549	0	0	0
550	0	0	0
551	0	0	0
552	0	0	0
553	246	213	231
554	248	211	232
555	254	212	237
556	252	203	233
557	251	196	232
558	252	194	233
559	249	185	229
560	254	186	232
561	253	178	229
562	250	167	227
563	255	172	231
564	255	171	229
565	251	157	219
566	250	150	219
567	255	154	225
568	243	136	213
569	242	135	211
570	255	158	225
571	255	166	229
572	249	156	220
573	249	164	223
574	240	168	220
575	0	0	0
576	0	0	0
577	0	0	0
578	0	0	0
579	0	0	0
580	0	0	0
581	0	0	0
582	247	216	234
583	250	214	235
584	252	207	234
585	249	198	232
586	249	194	232
587	250	191	233
588	251	189	234
589	255	190	235
590	252	179	230
591	248	168	225
592	252	168	226
593	255	168	225
594	252	161	221
595	251	154	223
596	245	143	218
597	233	125	206
598	251	152	223
599	255	174	231
600	255	167	225
601	247	158	220
602	253	175	230
603	244	178	225
604	0	0	0
605	0	0	0
606	0	0	0
607	0	0	0
608	0	0	0
609	0	0	0
610	253	222	238
611	248	216	235
612	249	213	236
613	248	205	233
614	250	202	234
615	251	199	235
616	253	198	237
617	255	197	238
618	255	193	236
619	252	180	229
620	253	178	230
621	255	179	231
622	255	172	226
623	253	164	223
624	251	158	224
625	245	146	219
626	246	148	222
627	255	175	238
628	255	168	225
629	250	162	218
630	241	155	216
631	245	170	225
632	248	189	230
633	0	0	0
634	0	0	0
635	0	0	0
636	0	0	0
637	0	0	0
638	0	0	0
639	250	220	236
640	247	214	233
641	248	212	235
642	249	209	236
643	250	205	234
644	251	202	233
645	254	201	234
646	254	197	233
647	255	193	232
648	255	189	233
649	255	187	234
650	255	180	231
651	252	173	225
652	249	164	222
653	247	157	221
654	253	164	229
655	254	166	231
656	255	166	229
657	248	160	219
658	246	160	217
659	235	152	212
660	244	178	226
661	0	0	0
662	0	0	0
663	0	0	0
664	0	0	0
665	0	0	0
666	0	0	0
667	0	0	0
668	251	225	238
669	250	220	237
670	249	215	237
671	248	210	236
672	247	206	233
673	250	204	233
674	255	208	236
675	254	202	233
676	252	195	231
677	254	192	233
678	255	189	234
679	253	182	230
680	255	181	229
681	251	173	225
682	252	172	227
683	255	178	234
684	255	174	232
685	255	175	232
686	251	169	225
687	250	169	223
688	239	165	218
689	0	0	0
690	0	0	0
691	0	0	0
692	0	0	0
693	0	0	0
694	0	0	0
695	0	0	0
696	0	0	0
697	0	0	0
698	253	224	240
699	252	219	239
700	252	215	240
701	251	212	240
702	255	214	241
703	255	216	240
704	250	203	231
705	248	196	231
706	252	194	233
707	253	191	232
708	255	192	234
709	255	191	233
710	255	191	235
711	255	190	237
712	255	188	236
713	255	184	234
714	255	183	233
715	253	178	228
716	254	183	230
717	0	0	0
718	0	0	0
719	0	0	0
720	0	0	0
721	0	0	0
722	0	0	0
723	0	0	0
724	0	0	0
725	0	0	0
726	251	228	239
727	253	224	239
728	252	218	238
729	254	215	240
730	253	212	240
731	251	211	239
732	249	210	233
733	240	197	224
734	252	209	237
735	255	209	240
736	255	202	238
737	255	203	240
738	252	185	228
739	253	185	229
740	255	187	233
741	255	185	232
742	254	182	230
743	254	181	230
744	246	174	223
745	0	0	0
746	0	0	0
747	0	0	0
748	0	0	0
749	0	0	0
750	0	0	0
751	0	0	0
752	0	0	0
753	0	0	0
754	0	0	0
755	250	227	237
756	249	220	234
757	248	214	233
758	252	214	236
759	251	211	237
760	248	210	236
761	246	210	233
762	251	216	236
763	255	227	246
764	255	219	243
765	255	212	241
766	251	195	232
767	241	178	223
768	249	184	229
769	253	186	232
770	252	184	231
771	250	181	229
772	248	179	227
773	238	172	220
774	0	0	0
775	0	0	0
776	0	0	0
777	0	0	0
778	0	0	0
779	0	0	0
780	0	0	0
781	0	0	0
782	0	0	0
783	0	0	0
784	0	0	0
785	241	215	228
786	247	219	234
787	252	219	237
788	251	216	238
789	251	217	238
790	249	214	234
791	255	222	239
792	255	219	238
793	251	208	232
794	0	0	0
795	0	0	0
796	245	193	231
797	255	201	240
798	253	192	235
799	253	190	234
800	250	187	232
801	243	183	228
802	238	183	225
803	0	0	0
804	0	0	0
805	0	0	0
806	0	0	0
807	0	0	0
808	0	0	0
809	0	0	0
810	0	0	0
811	0	0	0
812	0	0	0
813	0	0	0
814	0	0	0
815	246	224	236
816	252	224	239
817	252	220	237
818	250	219	236
819	250	218	234
820	249	215	232
821	248	211	230
822	0	0	0
823	0	0	0
824	0	0	0
825	0	0	0
826	252	202	238
827	248	194	234
828	250	194	236
829	246	191	232
830	243	194	232
831	0	0	0
832	0	0	0
833	0	0	0
834	0	0	0
835	0	0	0
836	0	0	0
837	0	0	0
838	0	0	0
839	0	0	0
840	0	0	0
841	0	0	0
842	0	0	0
843	0	0	0
844	247	230	239
845	254	231	242
846	247	217	232
847	0	0	0
848	253	225	237
849	251	221	235
850	242	208	228
851	0	0	0
852	0	0	0
853	0	0	0
854	0	0	0
855	0	0	0
856	0	0	0
857	0	0	0
858	0	0	0
859	0	0	0
860	0	0	0
861	0	0	0
862	0	0	0
863	0	0	0
864	0	0	0
865	0	0	0
866	0	0	0
867	0	0	0
868	0	0	0
869	0	0	0
870	0	0	0
871	0	0	0
872	0	0	0
873	0	0	0
874	247	225	235
875	0	0	0
876	0	0	0
877	255	230	238
878	248	219	232
879	240	207	230
880	0	0	0
881	0	0	0
882	0	0	0
883	0	0	0
884	0	0	0
885	0	0	0
886	0	0	0
887	0	0	0
888	0	0	0
889	0	0	0
890	0	0	0
891	0	0	0
892	0	0	0
893	0	0	0
894	0	0	0
895	0	0	0
896	0	0	0
897	0	0	0
898	0	0	0
899	0	0	0
900	0	0	0
901	0	0	0
902	0	0	0
903	0	0	0
904	0	0	0
905	0	0	0
906	254	231	238
907	249	220	233
908	242	209	232
909	0	0	0
910	0	0	0
911	0	0	0
912	0	0	0
913	0	0	0
914	0	0	0
915	0	0	0
916	0	0	0
917	0	0	0
918	0	0	0
919	0	0	0
920	0	0	0
921	0	0	0
922	0	0	0
923	0	0	0
924	0	0	0
925	0	0	0
926	0	0	0
927	0	0	0
928	0	0	0
929	0	0	0
930	0	0	0
931	0	0	0
932	0	0	0
933	0	0	0
934	0	0	0
935	0	0	0
936	248	221	234
937	0	0	0
938	0	0	0
939	0	0	0
940	0	0	0
941	0	0	0
942	0	0	0
943	0	0	0
944	0	0	0
945	0	0	0
946	0	0	0
947	0	0	0
948	0	0	0
949	0	0	0
950	0	0	0
951	0	0	0
952	0	0	0
953	0	0	0
954	0	0	0
955	0	0	0
956	0	0	0
957	0	0	0
