 	R	G	B
1	0	0	0
2	0	0	0
3	0	0	0
4	0	0	0
5	0	0	0
6	0	0	0
7	0	0	0
8	0	0	0
9	0	0	0
10	0	0	0
11	0	0	0
12	0	0	0
13	0	0	0
14	0	0	0
15	0	0	0
16	0	0	0
17	0	0	0
18	246	227	234
19	246	220	232
20	0	0	0
21	0	0	0
22	0	0	0
23	0	0	0
24	0	0	0
25	0	0	0
26	0	0	0
27	0	0	0
28	0	0	0
29	0	0	0
30	0	0	0
31	0	0	0
32	0	0	0
33	0	0	0
34	0	0	0
35	0	0	0
36	0	0	0
37	0	0	0
38	0	0	0
39	0	0	0
40	0	0	0
41	0	0	0
42	247	233	237
43	248	228	236
44	249	221	234
45	255	222	237
46	0	0	0
47	0	0	0
48	0	0	0
49	0	0	0
50	0	0	0
51	0	0	0
52	0	0	0
53	0	0	0
54	0	0	0
55	0	0	0
56	0	0	0
57	0	0	0
58	0	0	0
59	0	0	0
60	0	0	0
61	0	0	0
62	0	0	0
63	0	0	0
64	0	0	0
65	0	0	0
66	0	0	0
67	249	232	237
68	249	226	236
69	245	212	230
70	254	215	234
71	254	208	231
72	0	0	0
73	0	0	0
74	0	0	0
75	0	0	0
76	0	0	0
77	0	0	0
78	0	0	0
79	0	0	0
80	0	0	0
81	0	0	0
82	0	0	0
83	0	0	0
84	0	0	0
85	0	0	0
86	0	0	0
87	0	0	0
88	0	0	0
89	0	0	0
90	0	0	0
91	251	236	238
92	251	231	237
93	248	220	233
94	245	206	228
95	251	205	231
96	0	0	0
97	0	0	0
98	0	0	0
99	0	0	0
100	0	0	0
101	0	0	0
102	0	0	0
103	0	0	0
104	0	0	0
105	0	0	0
106	0	0	0
107	0	0	0
108	0	0	0
109	0	0	0
110	0	0	0
111	0	0	0
112	0	0	0
113	0	0	0
114	0	0	0
115	255	243	242
116	254	236	239
117	248	222	233
118	247	212	231
119	246	202	230
120	251	200	233
121	249	193	229
122	0	0	0
123	0	0	0
124	0	0	0
125	0	0	0
126	0	0	0
127	0	0	0
128	0	0	0
129	0	0	0
130	0	0	0
131	0	0	0
132	0	0	0
133	0	0	0
134	0	0	0
135	0	0	0
136	0	0	0
137	0	0	0
138	0	0	0
139	255	247	247
140	255	243	244
141	251	227	235
142	245	213	230
143	247	206	231
144	245	196	232
145	244	190	230
146	240	181	223
147	246	187	228
148	0	0	0
149	0	0	0
150	0	0	0
151	0	0	0
152	0	0	0
153	0	0	0
154	0	0	0
155	0	0	0
156	0	0	0
157	0	0	0
158	0	0	0
159	0	0	0
160	0	0	0
161	0	0	0
162	0	0	0
163	255	253	249
164	255	250	250
165	254	229	236
166	244	213	228
167	243	206	228
168	245	199	230
169	246	197	234
170	236	186	227
171	240	190	229
172	251	198	236
173	0	0	0
174	0	0	0
175	0	0	0
176	0	0	0
177	0	0	0
178	0	0	0
179	0	0	0
180	0	0	0
181	0	0	0
182	0	0	0
183	0	0	0
184	0	0	0
185	0	0	0
186	0	0	0
187	0	0	0
188	255	253	246
189	255	233	237
190	245	213	227
191	245	208	229
192	245	202	231
193	252	204	236
194	250	199	234
195	245	200	233
196	250	204	238
197	254	202	239
198	0	0	0
199	0	0	0
200	0	0	0
201	0	0	0
202	0	0	0
203	0	0	0
204	0	0	0
205	0	0	0
206	0	0	0
207	0	0	0
208	0	0	0
209	0	0	0
210	0	0	0
211	0	0	0
212	0	0	0
213	255	247	242
214	253	227	233
215	248	212	228
216	252	209	233
217	251	202	234
218	254	201	236
219	250	195	230
220	249	197	231
221	255	202	238
222	255	197	236
223	0	0	0
224	0	0	0
225	0	0	0
226	0	0	0
227	0	0	0
228	0	0	0
229	0	0	0
230	0	0	0
231	0	0	0
232	0	0	0
233	0	0	0
234	0	0	0
235	0	0	0
236	0	0	0
237	0	0	0
238	255	244	242
239	255	228	236
240	250	211	228
241	251	206	230
242	249	198	231
243	249	195	231
244	245	188	224
245	249	192	228
246	254	198	234
247	253	193	232
248	243	180	224
249	249	196	234
250	0	0	0
251	0	0	0
252	0	0	0
253	0	0	0
254	0	0	0
255	0	0	0
256	0	0	0
257	0	0	0
258	0	0	0
259	0	0	0
260	0	0	0
261	0	0	0
262	255	244	243
263	255	234	239
264	255	218	232
265	241	195	218
266	236	186	216
267	245	197	230
268	244	194	229
269	245	193	227
270	252	199	232
271	253	197	233
272	251	191	231
273	246	183	226
274	255	201	239
275	248	198	232
276	0	0	0
277	0	0	0
278	0	0	0
279	0	0	0
280	0	0	0
281	0	0	0
282	0	0	0
283	0	0	0
284	0	0	0
285	0	0	0
286	255	244	244
287	253	231	237
288	251	220	233
289	244	202	223
290	231	178	210
291	241	192	223
292	250	203	235
293	250	202	235
294	250	201	233
295	252	199	233
296	252	197	235
297	250	192	233
298	244	183	226
299	243	185	226
300	0	0	0
301	0	0	0
302	0	0	0
303	0	0	0
304	0	0	0
305	0	0	0
306	0	0	0
307	0	0	0
308	0	0	0
309	0	0	0
310	0	0	0
311	255	247	248
312	255	234	242
313	241	206	226
314	231	186	215
315	238	191	220
316	255	208	237
317	252	198	234
318	250	196	234
319	250	196	232
320	246	191	230
321	240	183	228
322	236	177	225
323	235	179	223
324	0	0	0
325	0	0	0
326	0	0	0
327	0	0	0
328	0	0	0
329	0	0	0
330	0	0	0
331	0	0	0
332	0	0	0
333	0	0	0
334	0	0	0
335	255	246	247
336	255	250	252
337	255	227	240
338	241	199	226
339	249	206	233
340	255	210	236
341	255	202	235
342	252	192	233
343	252	192	235
344	250	192	234
345	241	182	228
346	234	173	226
347	238	180	231
348	0	0	0
349	0	0	0
350	0	0	0
351	0	0	0
352	0	0	0
353	0	0	0
354	0	0	0
355	0	0	0
356	0	0	0
357	0	0	0
358	0	0	0
359	255	249	246
360	255	251	250
361	255	229	240
362	246	203	227
363	239	185	220
364	250	193	230
365	255	197	231
366	250	186	225
367	253	189	232
368	252	190	234
369	251	191	235
370	242	181	229
371	238	176	230
372	245	184	237
373	246	191	236
374	0	0	0
375	0	0	0
376	0	0	0
377	0	0	0
378	0	0	0
379	0	0	0
380	0	0	0
381	0	0	0
382	0	0	0
383	0	0	0
384	255	253	247
385	255	228	235
386	243	200	220
387	240	187	217
388	234	170	213
389	247	180	225
390	251	183	226
391	253	185	227
392	254	187	228
393	253	187	229
394	252	189	232
395	245	183	230
396	241	178	230
397	250	191	239
398	249	196	237
399	0	0	0
400	0	0	0
401	0	0	0
402	0	0	0
403	0	0	0
404	0	0	0
405	0	0	0
406	0	0	0
407	0	0	0
408	0	0	0
409	255	244	243
410	247	214	226
411	242	196	219
412	242	185	219
413	246	182	224
414	255	191	235
415	251	180	227
416	253	182	228
417	255	184	227
418	253	184	226
419	252	184	228
420	244	178	226
421	245	183	232
422	249	193	237
423	248	199	235
424	0	0	0
425	0	0	0
426	0	0	0
427	0	0	0
428	0	0	0
429	0	0	0
430	0	0	0
431	0	0	0
432	0	0	0
433	255	241	242
434	255	233	238
435	248	210	226
436	243	193	221
437	251	193	228
438	253	188	230
439	252	183	229
440	247	172	223
441	254	180	229
442	255	182	228
443	252	181	226
444	250	180	227
445	249	185	230
446	248	189	232
447	248	197	235
448	246	202	233
449	0	0	0
450	0	0	0
451	0	0	0
452	0	0	0
453	0	0	0
454	0	0	0
455	0	0	0
456	0	0	0
457	0	0	0
458	255	232	240
459	255	220	232
460	246	199	222
461	250	196	226
462	254	194	230
463	255	190	231
464	254	184	229
465	253	178	228
466	255	187	236
467	246	168	221
468	241	165	218
469	249	182	230
470	248	186	231
471	242	186	228
472	242	193	230
473	242	203	231
474	0	0	0
475	0	0	0
476	0	0	0
477	0	0	0
478	0	0	0
479	0	0	0
480	0	0	0
481	0	0	0
482	253	229	236
483	253	219	234
484	251	208	227
485	255	206	230
486	255	202	233
487	255	199	234
488	255	195	235
489	255	190	235
490	255	184	233
491	252	172	227
492	237	153	214
493	245	171	226
494	252	186	236
495	247	186	233
496	241	186	229
497	243	197	233
498	243	206	235
499	0	0	0
500	0	0	0
501	0	0	0
502	0	0	0
503	0	0	0
504	0	0	0
505	0	0	0
506	0	0	0
507	255	233	240
508	255	224	238
509	247	197	223
510	251	194	225
511	255	194	230
512	255	190	230
513	255	185	230
514	255	180	230
515	250	170	225
516	242	158	219
517	243	162	222
518	252	179	234
519	254	189	238
520	248	188	234
521	247	194	234
522	251	206	239
523	249	215	239
524	0	0	0
525	0	0	0
526	0	0	0
527	0	0	0
528	0	0	0
529	0	0	0
530	0	0	0
531	255	239	242
532	255	236	242
533	255	212	230
534	243	186	217
535	250	189	225
536	253	188	228
537	252	181	227
538	251	176	227
539	247	167	224
540	241	156	220
541	248	165	228
542	247	168	227
543	250	178	232
544	251	187	236
545	251	194	237
546	249	199	235
547	250	209	236
548	0	0	0
549	0	0	0
550	0	0	0
551	0	0	0
552	0	0	0
553	0	0	0
554	0	0	0
555	255	244	245
556	255	237	243
557	255	218	231
558	246	194	219
559	246	186	221
560	254	189	229
561	252	183	228
562	250	177	226
563	255	183	233
564	252	173	230
565	246	162	226
566	251	170	232
567	250	175	231
568	251	184	233
569	252	192	237
570	252	199	238
571	245	200	231
572	0	0	0
573	0	0	0
574	0	0	0
575	0	0	0
576	0	0	0
577	0	0	0
578	0	0	0
579	255	245	246
580	255	240	243
581	255	221	232
582	249	203	225
583	250	195	225
584	250	187	226
585	252	185	228
586	251	178	226
587	255	184	232
588	255	190	237
589	255	178	231
590	248	167	227
591	255	178	235
592	254	182	235
593	255	191	238
594	255	199	239
595	253	203	236
596	245	204	230
597	0	0	0
598	0	0	0
599	0	0	0
600	0	0	0
601	0	0	0
602	0	0	0
603	255	247	247
604	255	243	246
605	255	227	237
606	251	208	227
607	249	196	224
608	249	188	225
609	254	190	231
610	255	186	232
611	249	174	226
612	255	180	231
613	253	175	228
614	245	163	220
615	248	168	226
616	254	178	233
617	255	184	235
618	255	194	238
619	252	195	233
620	247	198	229
621	246	210	231
622	0	0	0
623	0	0	0
624	0	0	0
625	0	0	0
626	0	0	0
627	0	0	0
628	254	243	245
629	254	228	239
630	251	213	231
631	250	202	227
632	247	190	223
633	253	191	229
634	255	191	235
635	251	179	230
636	244	167	224
637	246	166	224
638	243	160	221
639	248	167	226
640	250	172	228
641	254	181	233
642	254	186	234
643	251	189	231
644	245	189	225
645	250	205	231
646	250	218	235
647	0	0	0
648	0	0	0
649	0	0	0
650	0	0	0
651	0	0	0
652	0	0	0
653	251	236	243
654	250	221	237
655	249	208	232
656	250	198	229
657	247	186	225
658	251	186	229
659	255	188	234
660	246	174	227
661	251	179	232
662	253	178	234
663	247	168	228
664	252	175	233
665	252	177	232
666	255	186	235
667	251	186	230
668	245	187	226
669	248	200	230
670	255	218	239
671	250	219	236
672	0	0	0
673	0	0	0
674	0	0	0
675	0	0	0
676	0	0	0
677	0	0	0
678	248	228	239
679	248	215	236
680	248	203	233
681	251	195	233
682	247	182	227
683	252	185	230
684	253	185	231
685	253	185	232
686	255	190	239
687	253	181	235
688	247	171	231
689	254	179	237
690	253	181	234
691	254	186	233
692	247	184	226
693	248	197	229
694	252	211	237
695	251	215	237
696	0	0	0
697	0	0	0
698	0	0	0
699	0	0	0
700	0	0	0
701	0	0	0
702	0	0	0
703	251	227	242
704	250	215	239
705	245	195	232
706	248	187	232
707	251	186	232
708	254	187	233
709	252	183	230
710	253	184	231
711	255	191	238
712	250	180	232
713	253	183	237
714	255	192	244
715	251	182	233
716	250	185	231
717	248	191	227
718	249	204	231
719	250	214	236
720	0	0	0
721	0	0	0
722	0	0	0
723	0	0	0
724	0	0	0
725	0	0	0
726	0	0	0
727	250	230	239
728	251	223	240
729	243	204	233
730	237	184	227
731	248	189	235
732	251	187	233
733	252	185	232
734	250	181	229
735	255	188	234
736	255	193	238
737	255	193	238
738	255	194	240
739	252	188	236
740	244	178	228
741	250	191	233
742	248	196	230
743	246	206	229
744	0	0	0
745	0	0	0
746	0	0	0
747	0	0	0
748	0	0	0
749	0	0	0
750	0	0	0
751	255	245	247
752	255	240	248
753	247	213	235
754	231	189	223
755	235	187	229
756	249	194	239
757	252	190	236
758	254	189	235
759	252	185	232
760	254	190	235
761	252	189	234
762	249	188	233
763	248	189	234
764	240	181	227
765	244	189	232
766	252	202	238
767	245	200	230
768	0	0	0
769	0	0	0
770	0	0	0
771	0	0	0
772	0	0	0
773	0	0	0
774	0	0	0
775	0	0	0
776	255	249	251
777	253	226	240
778	240	199	226
779	238	197	229
780	241	195	235
781	250	197	241
782	253	194	240
783	255	193	239
784	252	187	234
785	249	187	233
786	245	185	232
787	243	186	232
788	242	187	234
789	244	194	237
790	247	200	238
791	248	205	238
792	0	0	0
793	0	0	0
794	0	0	0
795	0	0	0
796	0	0	0
797	0	0	0
798	0	0	0
799	0	0	0
800	0	0	0
801	255	250	252
802	253	227	241
803	244	203	230
804	248	204	237
805	245	194	236
806	247	193	238
807	252	195	241
808	255	194	241
809	249	186	234
810	244	184	231
811	242	187	233
812	239	187	233
813	241	193	237
814	246	202	241
815	0	0	0
816	0	0	0
817	0	0	0
818	0	0	0
819	0	0	0
820	0	0	0
821	0	0	0
822	0	0	0
823	0	0	0
824	0	0	0
825	0	0	0
826	255	249	251
827	250	225	239
828	241	202	230
829	243	198	233
830	240	188	231
831	246	193	238
832	249	193	239
833	246	188	235
834	239	180	229
835	240	185	231
836	0	0	0
837	241	195	237
838	0	0	0
839	0	0	0
840	0	0	0
841	0	0	0
842	0	0	0
843	0	0	0
844	0	0	0
845	0	0	0
846	0	0	0
847	0	0	0
848	0	0	0
849	0	0	0
850	0	0	0
851	255	246	247
852	243	220	234
853	242	210	235
854	0	0	0
855	245	201	238
856	255	208	247
857	247	194	238
858	236	185	231
859	0	0	0
860	0	0	0
861	0	0	0
862	0	0	0
863	0	0	0
864	0	0	0
865	0	0	0
866	0	0	0
867	0	0	0
868	0	0	0
869	0	0	0
870	0	0	0
871	0	0	0
872	0	0	0
873	0	0	0
874	0	0	0
875	0	0	0
876	0	0	0
877	244	228	237
878	0	0	0
879	0	0	0
880	0	0	0
881	249	204	240
882	0	0	0
883	0	0	0
884	0	0	0
885	0	0	0
886	0	0	0
887	0	0	0
888	0	0	0
889	0	0	0
890	0	0	0
891	0	0	0
892	0	0	0
893	0	0	0
894	0	0	0
895	0	0	0
896	0	0	0
897	0	0	0
898	0	0	0
899	0	0	0
900	0	0	0
