 	R	G	B
1	0	0	0
2	0	0	0
3	0	0	0
4	0	0	0
5	0	0	0
6	0	0	0
7	0	0	0
8	0	0	0
9	0	0	0
10	0	0	0
11	0	0	0
12	247	247	244
13	248	248	244
14	249	248	244
15	0	0	0
16	246	246	242
17	0	0	0
18	0	0	0
19	0	0	0
20	0	0	0
21	0	0	0
22	0	0	0
23	0	0	0
24	0	0	0
25	0	0	0
26	0	0	0
27	0	0	0
28	0	0	0
29	0	0	0
30	0	0	0
31	0	0	0
32	0	0	0
33	0	0	0
34	0	0	0
35	0	0	0
36	0	0	0
37	0	0	0
38	0	0	0
39	0	0	0
40	0	0	0
41	0	0	0
42	0	0	0
43	0	0	0
44	0	0	0
45	0	0	0
46	0	0	0
47	0	0	0
48	0	0	0
49	0	0	0
50	0	0	0
51	0	0	0
52	0	0	0
53	0	0	0
54	0	0	0
55	0	0	0
56	0	0	0
57	0	0	0
58	0	0	0
59	0	0	0
60	0	0	0
61	0	0	0
62	0	0	0
63	0	0	0
64	250	249	245
65	250	250	247
66	247	246	243
67	248	247	243
68	252	252	246
69	253	251	246
70	250	248	241
71	0	0	0
72	0	0	0
73	0	0	0
74	0	0	0
75	0	0	0
76	0	0	0
77	0	0	0
78	0	0	0
79	0	0	0
80	0	0	0
81	0	0	0
82	250	250	247
83	250	250	246
84	0	0	0
85	0	0	0
86	0	0	0
87	0	0	0
88	0	0	0
89	0	0	0
90	0	0	0
91	0	0	0
92	0	0	0
93	0	0	0
94	0	0	0
95	0	0	0
96	0	0	0
97	0	0	0
98	0	0	0
99	0	0	0
100	0	0	0
101	0	0	0
102	0	0	0
103	0	0	0
104	0	0	0
105	0	0	0
106	0	0	0
107	0	0	0
108	0	0	0
109	0	0	0
110	0	0	0
111	0	0	0
112	0	0	0
113	0	0	0
114	0	0	0
115	0	0	0
116	253	253	247
117	253	253	248
118	250	249	246
119	247	245	243
120	250	249	246
121	254	254	248
122	255	253	247
123	252	250	242
124	0	0	0
125	0	0	0
126	0	0	0
127	0	0	0
128	0	0	0
129	0	0	0
130	0	0	0
131	0	0	0
132	0	0	0
133	0	0	0
134	248	247	246
135	251	252	249
136	251	252	248
137	251	252	247
138	0	0	0
139	0	0	0
140	0	0	0
141	0	0	0
142	0	0	0
143	0	0	0
144	0	0	0
145	0	0	0
146	0	0	0
147	0	0	0
148	0	0	0
149	0	0	0
150	0	0	0
151	0	0	0
152	0	0	0
153	0	0	0
154	0	0	0
155	0	0	0
156	0	0	0
157	0	0	0
158	0	0	0
159	0	0	0
160	0	0	0
161	0	0	0
162	0	0	0
163	0	0	0
164	0	0	0
165	0	0	0
166	0	0	0
167	0	0	0
168	252	253	248
169	252	252	247
170	250	249	245
171	249	247	244
172	250	249	246
173	252	252	248
174	250	250	244
175	250	249	242
176	249	248	240
177	0	0	0
178	251	253	246
179	0	0	0
180	0	0	0
181	0	0	0
182	0	0	0
183	0	0	0
184	0	0	0
185	0	0	0
186	248	245	244
187	252	251	248
188	252	251	248
189	249	249	246
190	248	248	244
191	0	0	0
192	247	246	242
193	251	251	246
194	249	248	245
195	0	0	0
196	0	0	0
197	0	0	0
198	250	249	247
199	252	252	249
200	0	0	0
201	250	250	244
202	250	249	244
203	0	0	0
204	0	0	0
205	0	0	0
206	0	0	0
207	0	0	0
208	0	0	0
209	0	0	0
210	0	0	0
211	0	0	0
212	0	0	0
213	0	0	0
214	0	0	0
215	0	0	0
216	0	0	0
217	0	0	0
218	0	0	0
219	0	0	0
220	0	0	0
221	250	251	244
222	249	249	243
223	247	246	241
224	250	249	244
225	253	252	248
226	251	250	247
227	248	247	241
228	249	248	241
229	249	248	241
230	252	252	244
231	254	255	247
232	248	250	243
233	0	0	0
234	0	0	0
235	0	0	0
236	0	0	0
237	0	0	0
238	249	247	243
239	249	247	244
240	250	248	245
241	250	248	245
242	247	246	242
243	245	244	241
244	248	248	243
245	250	251	245
246	249	249	243
247	247	245	241
248	250	249	245
249	253	253	247
250	252	252	247
251	253	252	248
252	252	251	248
253	250	250	245
254	249	248	243
255	248	247	243
256	249	248	244
257	250	249	242
258	0	0	0
259	0	0	0
260	0	0	0
261	0	0	0
262	0	0	0
263	0	0	0
264	0	0	0
265	0	0	0
266	0	0	0
267	0	0	0
268	0	0	0
269	0	0	0
270	0	0	0
271	0	0	0
272	0	0	0
273	0	0	0
274	248	248	242
275	247	246	241
276	246	245	240
277	248	247	243
278	252	251	248
279	251	250	247
280	248	246	241
281	249	247	241
282	247	244	240
283	250	248	243
284	250	250	243
285	246	245	239
286	250	251	245
287	252	253	247
288	251	251	247
289	249	248	244
290	247	245	242
291	249	247	243
292	248	245	242
293	248	246	243
294	250	249	245
295	248	247	243
296	249	249	245
297	251	252	246
298	250	251	244
299	249	249	243
300	246	244	240
301	251	249	245
302	253	252	247
303	252	251	247
304	252	251	247
305	251	250	246
306	250	249	245
307	248	247	243
308	249	248	244
309	250	250	245
310	248	247	241
311	250	249	243
312	0	0	0
313	0	0	0
314	0	0	0
315	0	0	0
316	0	0	0
317	0	0	0
318	0	0	0
319	0	0	0
320	0	0	0
321	0	0	0
322	0	0	0
323	0	0	0
324	0	0	0
325	0	0	0
326	0	0	0
327	247	246	241
328	246	245	240
329	246	245	242
330	248	248	245
331	251	251	247
332	250	248	245
333	248	245	243
334	247	243	242
335	245	240	240
336	246	243	241
337	248	246	242
338	251	251	245
339	254	255	246
340	252	253	245
341	251	252	247
342	249	249	246
343	247	246	243
344	248	246	243
345	246	243	242
346	249	247	245
347	251	251	247
348	253	253	248
349	253	254	249
350	252	253	247
351	252	253	246
352	249	249	243
353	247	244	241
354	251	248	246
355	253	251	248
356	252	251	248
357	251	251	246
358	250	249	245
359	249	249	245
360	249	249	245
361	249	249	243
362	248	247	242
363	247	244	242
364	0	0	0
365	0	0	0
366	0	0	0
367	0	0	0
368	0	0	0
369	0	0	0
370	0	0	0
371	0	0	0
372	0	0	0
373	0	0	0
374	0	0	0
375	0	0	0
376	0	0	0
377	0	0	0
378	0	0	0
379	0	0	0
380	247	247	240
381	246	246	240
382	249	249	245
383	252	252	248
384	249	247	245
385	247	244	243
386	247	244	244
387	246	242	243
388	246	243	242
389	248	246	244
390	253	252	248
391	255	255	250
392	247	245	240
393	244	242	238
394	250	250	246
395	248	248	245
396	247	245	242
397	247	244	242
398	249	246	245
399	251	250	248
400	250	249	246
401	250	250	246
402	247	246	243
403	248	246	243
404	252	251	246
405	249	247	244
406	246	243	242
407	249	247	246
408	251	251	248
409	250	250	247
410	249	248	244
411	248	247	243
412	249	249	245
413	248	248	244
414	247	248	242
415	248	246	242
416	249	247	245
417	0	0	0
418	0	0	0
419	0	0	0
420	0	0	0
421	0	0	0
422	0	0	0
423	0	0	0
424	0	0	0
425	0	0	0
426	0	0	0
427	0	0	0
428	0	0	0
429	0	0	0
430	0	0	0
431	0	0	0
432	0	0	0
433	0	0	0
434	249	249	241
435	251	252	245
436	249	248	244
437	247	244	243
438	246	243	244
439	246	242	243
440	247	244	244
441	247	244	243
442	252	250	247
443	255	255	251
444	248	246	243
445	240	235	236
446	244	242	241
447	250	249	245
448	248	246	243
449	247	244	242
450	249	247	244
451	250	248	246
452	249	247	245
453	248	246	244
454	245	242	241
455	242	238	237
456	245	242	241
457	250	248	245
458	248	246	244
459	246	242	243
460	249	247	246
461	250	250	247
462	248	248	244
463	247	246	242
464	247	247	242
465	248	249	245
466	248	248	244
467	247	248	243
468	249	248	245
469	249	248	246
470	0	0	0
471	0	0	0
472	0	0	0
473	0	0	0
474	0	0	0
475	0	0	0
476	0	0	0
477	0	0	0
478	0	0	0
479	0	0	0
480	0	0	0
481	0	0	0
482	0	0	0
483	0	0	0
484	0	0	0
485	0	0	0
486	0	0	0
487	0	0	0
488	250	249	243
489	248	246	243
490	246	242	242
491	245	241	243
492	251	250	248
493	252	251	248
494	246	244	242
495	251	250	247
496	253	253	248
497	245	242	240
498	247	246	244
499	253	253	250
500	251	250	246
501	251	248	244
502	249	245	243
503	248	246	244
504	248	248	244
505	249	248	244
506	250	249	246
507	248	245	243
508	249	247	243
509	250	250	245
510	252	253	248
511	250	250	247
512	245	242	242
513	248	247	246
514	250	250	247
515	249	248	244
516	247	247	242
517	247	247	242
518	250	252	246
519	251	252	247
520	249	249	245
521	249	248	245
522	249	249	246
523	0	0	0
524	0	0	0
525	0	0	0
526	0	0	0
527	0	0	0
528	0	0	0
529	0	0	0
530	0	0	0
531	0	0	0
532	0	0	0
533	0	0	0
534	0	0	0
535	0	0	0
536	0	0	0
537	0	0	0
538	0	0	0
539	0	0	0
540	0	0	0
541	248	247	243
542	247	244	242
543	245	241	242
544	250	249	247
545	255	255	250
546	250	250	244
547	245	242	240
548	248	246	243
549	249	249	245
550	250	251	245
551	253	254	246
552	252	251	245
553	251	249	243
554	251	247	243
555	248	244	241
556	248	246	242
557	248	248	243
558	250	249	244
559	251	250	246
560	253	253	247
561	254	254	247
562	252	254	245
563	253	255	247
564	249	249	243
565	244	241	239
566	247	246	243
567	250	250	246
568	250	249	244
569	248	247	242
570	250	250	243
571	252	255	246
572	250	251	245
573	249	248	244
574	249	249	245
575	248	248	244
576	0	0	0
577	0	0	0
578	0	0	0
579	0	0	0
580	0	0	0
581	0	0	0
582	0	0	0
583	0	0	0
584	0	0	0
585	0	0	0
586	0	0	0
587	0	0	0
588	0	0	0
589	0	0	0
590	0	0	0
591	0	0	0
592	0	0	0
593	0	0	0
594	248	246	243
595	247	243	242
596	249	246	244
597	253	254	249
598	251	253	245
599	246	245	239
600	247	246	242
601	249	249	245
602	251	252	246
603	253	254	247
604	248	247	241
605	246	244	239
606	250	249	243
607	250	247	242
608	250	247	243
609	250	249	245
610	248	247	243
611	249	248	243
612	248	247	243
613	248	249	243
614	250	252	244
615	250	252	244
616	249	250	242
617	245	243	238
618	245	243	240
619	249	248	244
620	252	252	247
621	251	250	246
622	248	246	242
623	251	250	244
624	251	252	245
625	246	247	241
626	248	250	244
627	250	251	245
628	248	249	243
629	0	0	0
630	0	0	0
631	0	0	0
632	0	0	0
633	0	0	0
634	0	0	0
635	0	0	0
636	0	0	0
637	0	0	0
638	0	0	0
639	0	0	0
640	0	0	0
641	0	0	0
642	0	0	0
643	0	0	0
644	0	0	0
645	0	0	0
646	0	0	0
647	248	246	242
648	250	249	244
649	251	251	245
650	250	250	244
651	248	249	241
652	249	249	242
653	250	250	245
654	252	253	247
655	253	255	247
656	249	249	242
657	245	243	240
658	248	247	243
659	251	251	244
660	250	250	243
661	250	250	245
662	248	248	244
663	246	245	243
664	247	245	243
665	245	244	242
666	247	248	243
667	249	251	245
668	248	248	242
669	246	245	239
670	246	245	240
671	247	245	242
672	250	249	246
673	252	253	248
674	250	249	246
675	246	244	242
676	249	247	244
677	250	250	245
678	248	250	243
679	249	252	243
680	249	251	242
681	248	249	241
682	0	0	0
683	0	0	0
684	0	0	0
685	0	0	0
686	0	0	0
687	0	0	0
688	0	0	0
689	0	0	0
690	0	0	0
691	0	0	0
692	0	0	0
693	0	0	0
694	0	0	0
695	0	0	0
696	0	0	0
697	0	0	0
698	0	0	0
699	0	0	0
700	250	249	244
701	252	252	246
702	250	250	243
703	249	249	242
704	247	246	240
705	248	247	241
706	251	251	245
707	253	254	247
708	250	250	243
709	246	244	239
710	247	245	241
711	250	250	245
712	250	250	243
713	247	248	241
714	247	248	243
715	246	246	243
716	249	250	246
717	250	251	247
718	248	248	245
719	250	251	246
720	250	252	246
721	249	249	244
722	246	245	241
723	245	244	241
724	249	249	245
725	252	253	249
726	249	248	245
727	246	244	243
728	246	245	244
729	247	248	245
730	251	254	247
731	252	255	247
732	247	248	240
733	246	246	238
734	248	248	241
735	0	0	0
736	0	0	0
737	0	0	0
738	0	0	0
739	0	0	0
740	0	0	0
741	0	0	0
742	0	0	0
743	0	0	0
744	0	0	0
745	0	0	0
746	0	0	0
747	0	0	0
748	0	0	0
749	0	0	0
750	0	0	0
751	0	0	0
752	0	0	0
753	253	253	248
754	251	251	246
755	249	249	243
756	247	246	241
757	245	244	240
758	249	248	244
759	252	252	247
760	250	249	245
761	248	246	241
762	248	247	240
763	248	247	241
764	249	248	242
765	249	249	243
766	248	249	243
767	247	248	242
768	250	252	245
769	253	255	249
770	251	254	248
771	249	251	246
772	249	251	246
773	249	251	244
774	248	247	242
775	246	244	242
776	249	248	246
777	251	252	247
778	249	248	244
779	245	243	242
780	246	245	243
781	246	246	244
782	249	252	246
783	253	255	248
784	249	251	242
785	246	245	239
786	248	248	242
787	250	250	245
788	0	0	0
789	0	0	0
790	0	0	0
791	0	0	0
792	0	0	0
793	0	0	0
794	0	0	0
795	0	0	0
796	0	0	0
797	0	0	0
798	0	0	0
799	0	0	0
800	0	0	0
801	0	0	0
802	0	0	0
803	0	0	0
804	0	0	0
805	0	0	0
806	249	250	245
807	248	248	243
808	251	252	245
809	250	249	244
810	246	245	242
811	249	249	246
812	251	251	247
813	250	249	245
814	248	245	242
815	247	245	241
816	247	246	240
817	247	247	240
818	250	251	244
819	250	251	245
820	248	248	242
821	251	251	245
822	252	253	247
823	247	249	245
824	246	248	244
825	248	249	244
826	249	249	244
827	246	245	241
828	246	245	243
829	251	251	247
830	252	252	247
831	249	247	243
832	248	246	244
833	247	248	245
834	245	247	243
835	247	252	245
836	247	251	242
837	245	246	239
838	246	245	240
839	249	248	244
840	250	250	246
841	0	0	0
842	0	0	0
843	0	0	0
844	0	0	0
845	0	0	0
846	0	0	0
847	0	0	0
848	0	0	0
849	0	0	0
850	0	0	0
851	0	0	0
852	0	0	0
853	0	0	0
854	0	0	0
855	0	0	0
856	0	0	0
857	0	0	0
858	0	0	0
859	248	247	244
860	252	252	246
861	255	255	248
862	251	250	244
863	247	246	243
864	247	247	245
865	248	249	246
866	249	247	244
867	247	244	242
868	248	246	243
869	248	247	243
870	249	250	244
871	252	253	246
872	250	250	244
873	248	246	241
874	250	249	243
875	251	251	247
876	247	248	245
877	245	246	243
878	248	248	244
879	249	249	245
880	247	247	244
881	247	247	244
882	250	249	245
883	251	251	244
884	250	250	244
885	249	249	246
886	248	249	246
887	246	247	244
888	244	247	242
889	245	247	241
890	247	246	242
891	247	245	242
892	250	248	245
893	250	250	246
894	0	0	0
895	0	0	0
896	0	0	0
897	0	0	0
898	0	0	0
899	0	0	0
900	0	0	0
901	0	0	0
902	0	0	0
903	0	0	0
904	0	0	0
905	0	0	0
906	0	0	0
907	0	0	0
908	0	0	0
909	0	0	0
910	0	0	0
911	0	0	0
912	251	250	246
913	255	255	249
914	251	248	243
915	245	242	238
916	247	247	243
917	248	248	245
918	250	251	247
919	249	249	245
920	245	242	241
921	247	245	243
922	250	249	246
923	253	253	248
924	250	249	244
925	247	245	241
926	248	247	241
927	250	249	244
928	253	253	249
929	251	251	248
930	249	248	245
931	250	249	246
932	249	247	245
933	247	246	243
934	249	250	245
935	252	252	245
936	249	249	242
937	247	247	241
938	246	246	243
939	247	247	244
940	250	251	247
941	250	251	246
942	247	247	243
943	247	245	242
944	249	248	244
945	252	251	247
946	250	248	245
947	0	0	0
948	0	0	0
949	0	0	0
950	0	0	0
951	0	0	0
952	0	0	0
953	0	0	0
954	0	0	0
955	0	0	0
956	0	0	0
957	0	0	0
958	0	0	0
959	0	0	0
960	0	0	0
961	0	0	0
962	0	0	0
963	0	0	0
964	0	0	0
965	0	0	0
966	250	247	243
967	245	240	237
968	247	244	240
969	249	249	245
970	249	250	245
971	251	252	246
972	247	246	242
973	243	239	237
974	247	245	242
975	251	250	247
976	249	247	244
977	247	244	240
978	248	246	242
979	249	248	243
980	251	250	246
981	253	254	249
982	250	250	247
983	249	248	245
984	248	247	244
985	247	244	242
986	249	249	244
987	252	253	245
988	250	250	243
989	248	247	241
990	245	245	239
991	244	243	240
992	249	249	244
993	252	252	247
994	248	248	244
995	246	244	241
996	248	247	243
997	249	249	244
998	248	246	242
999	247	244	242
1000	0	0	0
1001	0	0	0
1002	0	0	0
1003	0	0	0
1004	0	0	0
1005	0	0	0
1006	0	0	0
1007	0	0	0
1008	0	0	0
1009	0	0	0
1010	0	0	0
1011	0	0	0
1012	0	0	0
1013	0	0	0
1014	0	0	0
1015	0	0	0
1016	0	0	0
1017	0	0	0
1018	0	0	0
1019	0	0	0
1020	246	243	240
1021	250	249	244
1022	250	250	245
1023	250	251	245
1024	251	252	246
1025	246	245	241
1026	245	244	240
1027	250	250	244
1028	250	250	246
1029	247	247	243
1030	249	248	244
1031	251	251	246
1032	248	247	243
1033	250	250	245
1034	250	251	246
1035	247	248	244
1036	247	247	243
1037	246	245	242
1038	250	249	245
1039	253	254	247
1040	248	247	242
1041	245	244	239
1042	247	247	241
1043	246	245	240
1044	249	249	245
1045	253	254	248
1046	249	249	245
1047	245	244	241
1048	248	249	245
1049	250	251	246
1050	248	249	243
1051	246	246	241
1052	246	244	242
1053	0	0	0
1054	0	0	0
1055	0	0	0
1056	0	0	0
1057	0	0	0
1058	0	0	0
1059	0	0	0
1060	0	0	0
1061	0	0	0
1062	0	0	0
1063	0	0	0
1064	0	0	0
1065	0	0	0
1066	0	0	0
1067	0	0	0
1068	0	0	0
1069	0	0	0
1070	0	0	0
1071	0	0	0
1072	0	0	0
1073	248	247	244
1074	250	249	245
1075	250	250	246
1076	251	251	246
1077	252	252	248
1078	250	251	246
1079	249	249	243
1080	251	251	245
1081	251	252	246
1082	251	252	246
1083	252	253	247
1084	249	249	244
1085	246	245	240
1086	248	247	241
1087	248	249	243
1088	246	246	241
1089	245	245	241
1090	248	249	244
1091	251	253	247
1092	248	247	244
1093	243	241	239
1094	245	244	241
1095	247	247	242
1096	251	251	246
1097	254	255	250
1098	251	252	248
1099	248	247	244
1100	250	251	246
1101	253	255	250
1102	250	252	247
1103	248	249	244
1104	246	246	242
1105	245	244	242
1106	0	0	0
1107	0	0	0
1108	0	0	0
1109	0	0	0
1110	0	0	0
1111	0	0	0
1112	0	0	0
1113	0	0	0
1114	0	0	0
1115	0	0	0
1116	0	0	0
1117	0	0	0
1118	0	0	0
1119	0	0	0
1120	0	0	0
1121	0	0	0
1122	0	0	0
1123	0	0	0
1124	0	0	0
1125	0	0	0
1126	249	248	246
1127	250	249	246
1128	250	249	246
1129	250	250	246
1130	252	253	248
1131	249	250	245
1132	246	245	241
1133	250	248	243
1134	249	247	243
1135	248	247	242
1136	251	253	246
1137	247	248	242
1138	246	247	240
1139	249	249	243
1140	247	247	241
1141	245	245	240
1142	250	252	245
1143	251	255	247
1144	247	249	243
1145	244	243	240
1146	245	244	242
1147	249	248	245
1148	253	253	247
1149	255	255	249
1150	249	249	245
1151	245	244	243
1152	247	246	243
1153	251	251	247
1154	250	250	246
1155	247	246	243
1156	249	249	245
1157	246	246	242
1158	246	247	243
1159	0	0	0
1160	0	0	0
1161	0	0	0
1162	0	0	0
1163	0	0	0
1164	0	0	0
1165	0	0	0
1166	0	0	0
1167	0	0	0
1168	0	0	0
1169	0	0	0
1170	0	0	0
1171	0	0	0
1172	0	0	0
1173	0	0	0
1174	0	0	0
1175	0	0	0
1176	0	0	0
1177	0	0	0
1178	0	0	0
1179	0	0	0
1180	248	247	245
1181	247	247	245
1182	249	250	246
1183	250	252	245
1184	246	246	241
1185	244	242	239
1186	245	243	240
1187	245	241	238
1188	249	247	241
1189	252	252	244
1190	248	249	242
1191	248	249	243
1192	249	248	244
1193	247	245	241
1194	252	253	246
1195	254	255	249
1196	249	251	245
1197	244	245	241
1198	246	247	243
1199	248	248	244
1200	253	253	247
1201	255	255	248
1202	250	249	242
1203	244	241	238
1204	244	243	240
1205	246	245	241
1206	246	245	242
1207	246	244	241
1208	248	248	243
1209	250	251	246
1210	249	251	246
1211	249	252	245
1212	0	0	0
1213	0	0	0
1214	248	247	245
1215	0	0	0
1216	0	0	0
1217	0	0	0
1218	0	0	0
1219	0	0	0
1220	0	0	0
1221	0	0	0
1222	0	0	0
1223	0	0	0
1224	0	0	0
1225	0	0	0
1226	0	0	0
1227	0	0	0
1228	0	0	0
1229	0	0	0
1230	0	0	0
1231	0	0	0
1232	0	0	0
1233	0	0	0
1234	248	251	246
1235	250	254	248
1236	247	247	242
1237	245	243	240
1238	249	249	244
1239	248	247	243
1240	245	244	240
1241	251	251	244
1242	252	251	244
1243	250	249	242
1244	250	249	245
1245	249	248	245
1246	247	246	243
1247	252	253	247
1248	252	254	247
1249	246	246	241
1250	248	248	244
1251	250	249	246
1252	249	248	245
1253	251	253	247
1254	250	250	244
1255	245	243	238
1256	248	246	240
1257	248	248	242
1258	248	249	243
1259	247	248	242
1260	246	246	241
1261	249	250	244
1262	249	250	245
1263	249	251	245
1264	247	248	242
1265	0	0	0
1266	253	254	248
1267	251	249	246
1268	247	244	243
1269	0	0	0
1270	0	0	0
1271	0	0	0
1272	0	0	0
1273	0	0	0
1274	0	0	0
1275	0	0	0
1276	0	0	0
1277	0	0	0
1278	0	0	0
1279	0	0	0
1280	0	0	0
1281	0	0	0
1282	0	0	0
1283	0	0	0
1284	0	0	0
1285	0	0	0
1286	0	0	0
1287	251	255	248
1288	246	248	242
1289	243	243	241
1290	249	249	246
1291	253	254	249
1292	250	250	246
1293	247	247	242
1294	249	248	243
1295	250	249	243
1296	249	249	244
1297	250	249	245
1298	250	248	246
1299	248	247	244
1300	248	247	244
1301	248	248	244
1302	248	248	244
1303	250	250	246
1304	251	250	247
1305	250	249	246
1306	248	247	245
1307	246	245	243
1308	249	248	243
1309	251	251	243
1310	250	251	243
1311	251	252	245
1312	249	251	244
1313	248	250	243
1314	249	250	244
1315	250	250	245
1316	247	248	243
1317	246	246	241
1318	0	0	0
1319	255	255	249
1320	252	252	246
1321	248	246	242
1322	0	0	0
1323	0	0	0
1324	0	0	0
1325	0	0	0
1326	0	0	0
1327	0	0	0
1328	0	0	0
1329	0	0	0
1330	0	0	0
1331	0	0	0
1332	0	0	0
1333	0	0	0
1334	0	0	0
1335	0	0	0
1336	0	0	0
1337	0	0	0
1338	0	0	0
1339	0	0	0
1340	248	250	243
1341	243	243	238
1342	247	248	244
1343	251	253	248
1344	249	250	246
1345	250	249	245
1346	249	248	244
1347	248	248	244
1348	250	251	245
1349	249	250	245
1350	248	248	245
1351	249	248	246
1352	248	247	244
1353	248	247	244
1354	249	248	245
1355	248	249	245
1356	250	251	246
1357	251	251	247
1358	250	249	247
1359	248	247	245
1360	248	247	245
1361	250	250	245
1362	248	248	241
1363	247	248	240
1364	250	251	244
1365	251	251	244
1366	247	246	241
1367	247	246	241
1368	252	253	247
1369	250	251	245
1370	246	245	241
1371	0	0	0
1372	252	253	246
1373	249	248	243
1374	246	244	240
1375	0	0	0
1376	0	0	0
1377	0	0	0
1378	0	0	0
1379	0	0	0
1380	0	0	0
1381	0	0	0
1382	0	0	0
1383	0	0	0
1384	0	0	0
1385	0	0	0
1386	0	0	0
1387	0	0	0
1388	0	0	0
1389	0	0	0
1390	0	0	0
1391	0	0	0
1392	0	0	0
1393	245	246	241
1394	248	250	243
1395	251	254	247
1396	249	250	244
1397	247	247	242
1398	250	249	245
1399	250	249	246
1400	249	251	246
1401	250	253	246
1402	248	250	244
1403	247	247	244
1404	248	247	245
1405	247	246	243
1406	248	248	244
1407	249	249	245
1408	249	250	246
1409	250	251	247
1410	250	250	247
1411	249	248	246
1412	249	248	246
1413	248	248	245
1414	248	248	244
1415	246	247	242
1416	247	248	242
1417	249	250	242
1418	247	246	240
1419	244	241	239
1420	249	248	244
1421	253	255	247
1422	248	249	242
1423	244	244	240
1424	0	0	0
1425	250	250	246
1426	248	247	244
1427	246	243	240
1428	0	0	0
1429	0	0	0
1430	0	0	0
1431	0	0	0
1432	0	0	0
1433	0	0	0
1434	0	0	0
1435	0	0	0
1436	0	0	0
1437	0	0	0
1438	0	0	0
1439	0	0	0
1440	0	0	0
1441	0	0	0
1442	0	0	0
1443	0	0	0
1444	0	0	0
1445	0	0	0
1446	248	248	243
1447	251	252	246
1448	250	251	245
1449	248	247	242
1450	248	247	243
1451	249	248	244
1452	248	248	245
1453	248	250	246
1454	248	251	244
1455	246	247	242
1456	248	248	244
1457	248	248	245
1458	248	247	244
1459	249	249	246
1460	248	247	244
1461	249	249	246
1462	249	250	247
1463	246	247	244
1464	247	248	245
1465	249	249	246
1466	249	248	244
1467	248	248	243
1468	246	247	243
1469	247	248	243
1470	249	251	242
1471	246	246	239
1472	245	244	241
1473	251	252	247
1474	250	251	244
1475	244	245	239
1476	246	247	242
1477	0	0	0
1478	248	247	245
1479	246	244	243
1480	247	244	242
1481	0	0	0
1482	0	0	0
1483	0	0	0
1484	0	0	0
1485	0	0	0
1486	0	0	0
1487	0	0	0
1488	0	0	0
1489	0	0	0
1490	0	0	0
1491	0	0	0
1492	0	0	0
1493	0	0	0
1494	0	0	0
1495	0	0	0
1496	0	0	0
1497	0	0	0
1498	0	0	0
1499	251	251	246
1500	249	249	244
1501	248	247	243
1502	249	248	245
1503	249	248	245
1504	249	248	246
1505	248	248	245
1506	247	248	243
1507	247	249	242
1508	248	249	242
1509	249	249	244
1510	250	250	245
1511	250	250	246
1512	248	248	245
1513	246	245	243
1514	248	247	245
1515	249	249	246
1516	247	248	245
1517	247	248	243
1518	249	249	243
1519	249	248	243
1520	248	248	242
1521	247	246	242
1522	248	249	244
1523	250	252	245
1524	249	250	243
1525	248	248	243
1526	249	249	244
1527	248	249	245
1528	249	250	245
1529	250	252	246
1530	0	0	0
1531	245	243	242
1532	246	244	243
1533	247	244	242
1534	0	0	0
1535	0	0	0
1536	0	0	0
1537	0	0	0
1538	0	0	0
1539	0	0	0
1540	0	0	0
1541	0	0	0
1542	0	0	0
1543	0	0	0
1544	0	0	0
1545	0	0	0
1546	0	0	0
1547	0	0	0
1548	0	0	0
1549	0	0	0
1550	0	0	0
1551	0	0	0
1552	249	248	244
1553	247	246	242
1554	249	249	245
1555	251	250	247
1556	249	248	246
1557	249	248	246
1558	249	249	246
1559	249	250	245
1560	248	249	243
1561	248	248	242
1562	248	247	242
1563	249	249	244
1564	249	248	245
1565	247	246	244
1566	246	245	243
1567	247	247	244
1568	249	249	245
1569	250	249	245
1570	251	250	245
1571	250	249	243
1572	248	246	241
1573	247	246	241
1574	249	249	244
1575	251	252	245
1576	250	251	244
1577	249	249	243
1578	250	250	245
1579	251	251	246
1580	251	251	246
1581	252	252	247
1582	250	250	245
1583	246	244	241
1584	247	245	243
1585	247	246	244
1586	247	246	243
1587	0	0	0
1588	0	0	0
1589	0	0	0
1590	0	0	0
1591	0	0	0
1592	0	0	0
1593	0	0	0
1594	0	0	0
1595	0	0	0
1596	0	0	0
1597	0	0	0
1598	0	0	0
1599	0	0	0
1600	0	0	0
1601	0	0	0
1602	0	0	0
1603	0	0	0
1604	0	0	0
1605	247	245	241
1606	249	248	244
1607	252	252	248
1608	250	250	247
1609	249	247	246
1610	250	248	247
1611	250	250	247
1612	249	249	245
1613	248	248	243
1614	248	247	243
1615	247	246	242
1616	247	245	242
1617	247	245	244
1618	246	245	244
1619	245	244	242
1620	247	246	242
1621	248	248	242
1622	250	249	244
1623	252	251	246
1624	249	248	244
1625	247	245	241
1626	249	249	244
1627	251	251	245
1628	250	250	244
1629	250	250	244
1630	250	251	245
1631	251	252	246
1632	251	251	245
1633	250	250	243
1634	248	248	241
1635	247	246	240
1636	248	246	241
1637	248	246	243
1638	247	246	243
1639	246	246	242
1640	0	0	0
1641	0	0	0
1642	0	0	0
1643	0	0	0
1644	0	0	0
1645	0	0	0
1646	0	0	0
1647	0	0	0
1648	0	0	0
1649	0	0	0
1650	0	0	0
1651	0	0	0
1652	0	0	0
1653	0	0	0
1654	0	0	0
1655	0	0	0
1656	0	0	0
1657	249	250	245
1658	245	244	241
1659	248	248	244
1660	250	249	247
1661	248	247	245
1662	247	245	245
1663	248	247	245
1664	253	254	249
1665	250	252	246
1666	246	245	242
1667	247	246	242
1668	249	248	243
1669	246	246	242
1670	250	251	247
1671	249	251	248
1672	246	245	243
1673	248	248	243
1674	248	248	242
1675	249	249	243
1676	251	251	246
1677	249	248	245
1678	245	244	242
1679	248	248	244
1680	248	248	243
1681	247	248	243
1682	247	248	243
1683	247	249	244
1684	248	250	245
1685	248	249	243
1686	247	249	241
1687	246	246	239
1688	247	247	240
1689	247	247	242
1690	247	247	242
1691	246	247	242
1692	248	249	243
1693	249	250	244
1694	0	0	0
1695	0	0	0
1696	0	0	0
1697	0	0	0
1698	0	0	0
1699	0	0	0
1700	0	0	0
1701	0	0	0
1702	0	0	0
1703	0	0	0
1704	0	0	0
1705	0	0	0
1706	0	0	0
1707	0	0	0
1708	0	0	0
1709	251	253	246
1710	247	247	242
1711	243	242	239
1712	246	245	242
1713	248	246	244
1714	248	246	245
1715	247	244	244
1716	251	251	247
1717	255	255	249
1718	249	249	244
1719	245	243	241
1720	249	247	244
1721	250	249	245
1722	250	252	246
1723	253	255	250
1724	249	251	247
1725	246	245	243
1726	248	247	245
1727	248	247	244
1728	250	249	245
1729	251	252	247
1730	248	247	244
1731	245	243	242
1732	246	246	244
1733	247	247	245
1734	248	248	245
1735	248	248	245
1736	248	249	245
1737	249	250	245
1738	248	250	244
1739	248	250	243
1740	249	250	243
1741	249	250	244
1742	248	249	244
1743	248	249	244
1744	248	250	245
1745	249	251	244
1746	0	0	0
1747	0	0	0
1748	0	0	0
1749	0	0	0
1750	0	0	0
1751	0	0	0
1752	0	0	0
1753	0	0	0
1754	0	0	0
1755	0	0	0
1756	0	0	0
1757	0	0	0
1758	0	0	0
1759	0	0	0
1760	0	0	0
1761	0	0	0
1762	249	251	244
1763	245	245	240
1764	247	248	243
1765	250	251	246
1766	249	248	245
1767	250	248	246
1768	248	245	244
1769	251	251	246
1770	253	254	247
1771	248	247	242
1772	246	243	242
1773	248	247	244
1774	249	249	245
1775	251	252	246
1776	252	254	248
1777	248	248	244
1778	248	248	245
1779	249	249	247
1780	250	250	246
1781	251	252	247
1782	249	248	244
1783	245	244	242
1784	246	245	243
1785	248	248	246
1786	249	249	246
1787	250	250	247
1788	249	248	245
1789	249	249	245
1790	249	248	244
1791	249	248	244
1792	251	251	245
1793	250	250	245
1794	247	246	242
1795	246	245	242
1796	251	251	246
1797	250	252	245
1798	248	250	243
1799	0	0	0
1800	0	0	0
1801	0	0	0
1802	0	0	0
1803	0	0	0
1804	0	0	0
1805	0	0	0
1806	0	0	0
1807	0	0	0
1808	0	0	0
1809	0	0	0
1810	0	0	0
1811	0	0	0
1812	249	247	245
1813	252	253	246
1814	250	251	244
1815	250	252	244
1816	250	252	245
1817	252	255	246
1818	250	251	243
1819	248	247	244
1820	249	248	245
1821	247	245	243
1822	249	248	244
1823	251	251	245
1824	249	248	243
1825	247	244	242
1826	250	248	245
1827	251	250	246
1828	251	251	245
1829	252	253	245
1830	251	252	245
1831	252	252	247
1832	252	252	248
1833	251	252	247
1834	248	247	243
1835	245	243	241
1836	245	244	241
1837	246	245	242
1838	247	247	242
1839	248	248	242
1840	247	246	241
1841	246	244	240
1842	247	245	240
1843	247	245	242
1844	248	246	243
1845	249	249	245
1846	246	245	242
1847	243	241	240
1848	249	248	244
1849	252	254	246
1850	250	252	243
1851	249	251	244
1852	0	0	0
1853	0	0	0
1854	0	0	0
1855	0	0	0
1856	0	0	0
1857	0	0	0
1858	0	0	0
1859	0	0	0
1860	0	0	0
1861	0	0	0
1862	0	0	0
1863	0	0	0
1864	247	243	243
1865	253	251	248
1866	249	247	243
1867	246	245	240
1868	247	246	241
1869	249	248	243
1870	252	253	245
1871	248	248	241
1872	247	247	243
1873	247	247	243
1874	247	247	243
1875	250	250	245
1876	249	249	244
1877	247	245	241
1878	247	244	242
1879	251	249	246
1880	249	247	244
1881	249	248	244
1882	250	249	243
1883	248	247	242
1884	246	244	242
1885	248	245	243
1886	254	255	248
1887	250	249	244
1888	246	245	242
1889	246	246	242
1890	246	247	242
1891	247	248	242
1892	249	250	243
1893	248	249	241
1894	247	246	240
1895	248	247	242
1896	248	247	243
1897	247	248	244
1898	249	251	246
1899	246	248	244
1900	244	244	242
1901	251	252	247
1902	250	251	243
1903	248	249	241
1904	248	248	242
1905	0	0	0
1906	0	0	0
1907	0	0	0
1908	0	0	0
1909	0	0	0
1910	0	0	0
1911	0	0	0
1912	0	0	0
1913	0	0	0
1914	0	0	0
1915	0	0	0
1916	0	0	0
1917	247	244	242
1918	247	243	242
1919	244	240	238
1920	244	241	239
1921	244	242	240
1922	249	248	244
1923	253	253	247
1924	250	250	244
1925	248	248	244
1926	248	249	244
1927	248	248	243
1928	247	247	242
1929	247	245	240
1930	245	243	239
1931	245	243	240
1932	247	244	242
1933	246	242	242
1934	247	244	242
1935	247	245	242
1936	243	240	238
1937	241	237	238
1938	250	247	245
1939	255	255	249
1940	251	251	244
1941	248	248	243
1942	248	250	245
1943	248	250	245
1944	250	252	246
1945	252	255	246
1946	250	251	243
1947	250	249	243
1948	250	250	245
1949	250	250	245
1950	250	253	246
1951	251	255	247
1952	248	251	244
1953	246	247	244
1954	250	249	245
1955	249	249	243
1956	248	248	241
1957	248	247	242
1958	0	0	0
1959	0	0	0
1960	0	0	0
1961	0	0	0
1962	0	0	0
1963	0	0	0
1964	0	0	0
1965	0	0	0
1966	0	0	0
1967	0	0	0
1968	0	0	0
1969	0	0	0
1970	248	247	243
1971	248	246	243
1972	248	246	243
1973	249	248	245
1974	246	243	241
1975	250	248	245
1976	253	253	248
1977	250	249	245
1978	250	250	246
1979	251	251	247
1980	247	245	241
1981	244	242	239
1982	249	250	243
1983	247	248	242
1984	249	249	243
1985	250	249	244
1986	247	244	243
1987	249	246	245
1988	250	249	245
1989	246	244	242
1990	246	244	244
1991	255	255	251
1992	254	255	247
1993	248	248	241
1994	245	244	241
1995	248	247	244
1996	250	250	246
1997	251	252	247
1998	250	250	244
1999	248	247	241
2000	250	249	244
2001	250	250	245
2002	250	250	245
2003	252	253	247
2004	247	247	241
2005	243	242	238
2006	247	247	243
2007	251	249	245
2008	253	251	245
2009	251	249	243
2010	248	247	242
2011	0	0	0
2012	0	0	0
2013	0	0	0
2014	0	0	0
2015	0	0	0
2016	0	0	0
2017	0	0	0
2018	0	0	0
2019	0	0	0
2020	0	0	0
2021	254	255	250
2022	252	254	247
2023	251	251	245
2024	250	250	245
2025	250	249	246
2026	248	246	245
2027	245	242	241
2028	248	246	244
2029	251	252	247
2030	251	251	247
2031	252	252	248
2032	248	247	244
2033	244	241	239
2034	248	248	244
2035	253	255	248
2036	252	254	246
2037	252	254	244
2038	249	249	242
2039	248	245	242
2040	251	249	246
2041	252	252	248
2042	251	251	248
2043	251	251	248
2044	253	253	249
2045	253	253	246
2046	245	245	241
2047	243	242	240
2048	248	247	245
2049	250	249	245
2050	248	247	243
2051	247	245	242
2052	248	246	243
2053	249	248	245
2054	249	249	245
2055	250	249	245
2056	246	244	241
2057	242	238	237
2058	243	241	239
2059	246	245	242
2060	251	249	245
2061	253	251	245
2062	249	247	242
2063	247	245	243
2064	0	0	0
2065	0	0	0
2066	0	0	0
2067	0	0	0
2068	0	0	0
2069	0	0	0
2070	0	0	0
2071	0	0	0
2072	0	0	0
2073	253	255	249
2074	251	251	246
2075	250	248	244
2076	251	249	244
2077	247	246	243
2078	248	247	244
2079	247	245	243
2080	246	245	243
2081	248	249	245
2082	251	254	248
2083	253	255	249
2084	247	246	243
2085	242	240	239
2086	246	247	243
2087	253	255	248
2088	251	252	246
2089	249	251	244
2090	248	249	241
2091	247	244	238
2092	249	247	242
2093	251	250	246
2094	252	252	248
2095	252	252	248
2096	246	244	242
2097	247	245	242
2098	250	251	245
2099	245	245	240
2100	247	247	244
2101	250	251	247
2102	243	242	240
2103	243	241	239
2104	251	251	247
2105	251	252	247
2106	247	247	244
2107	248	248	244
2108	249	249	245
2109	246	244	242
2110	248	246	243
2111	250	250	246
2112	250	249	245
2113	251	251	246
2114	247	246	241
2115	244	243	239
2116	250	250	246
2117	0	0	0
2118	0	0	0
2119	0	0	0
2120	0	0	0
2121	0	0	0
2122	0	0	0
2123	0	0	0
2124	0	0	0
2125	0	0	0
2126	249	248	245
2127	247	245	243
2128	251	247	245
2129	251	248	245
2130	247	246	242
2131	247	246	243
2132	249	248	245
2133	249	249	245
2134	250	252	247
2135	253	255	248
2136	247	248	242
2137	242	240	238
2138	247	248	245
2139	252	254	248
2140	251	252	247
2141	250	250	245
2142	247	247	243
2143	247	246	241
2144	250	248	243
2145	251	250	245
2146	251	250	246
2147	252	252	247
2148	246	244	242
2149	240	237	237
2150	245	243	241
2151	248	249	243
2152	249	250	244
2153	251	252	247
2154	246	246	243
2155	240	238	238
2156	248	248	245
2157	255	255	250
2158	250	251	246
2159	247	247	243
2160	248	248	244
2161	250	250	245
2162	250	251	245
2163	251	252	246
2164	252	253	247
2165	252	252	246
2166	248	247	243
2167	243	242	239
2168	245	247	242
2169	250	254	247
2170	0	0	0
2171	0	0	0
2172	0	0	0
2173	0	0	0
2174	0	0	0
2175	0	0	0
2176	0	0	0
2177	0	0	0
2178	249	250	244
2179	248	247	244
2180	247	244	244
2181	249	246	246
2182	250	248	245
2183	248	247	243
2184	248	248	244
2185	250	250	246
2186	250	249	246
2187	252	253	248
2188	249	250	244
2189	240	240	236
2190	247	249	243
2191	255	255	250
2192	248	246	243
2193	246	243	241
2194	249	249	245
2195	247	246	243
2196	249	248	244
2197	251	250	246
2198	248	246	243
2199	247	246	243
2200	249	250	245
2201	243	243	240
2202	245	244	242
2203	250	251	246
2204	249	249	244
2205	250	251	245
2206	249	249	245
2207	246	243	242
2208	243	239	240
2209	250	249	247
2210	255	255	250
2211	251	250	245
2212	251	249	244
2213	252	251	245
2214	252	252	245
2215	250	251	244
2216	247	248	241
2217	250	250	243
2218	250	250	244
2219	247	245	242
2220	246	247	242
2221	245	250	243
2222	249	255	246
2223	249	253	245
2224	0	0	0
2225	0	0	0
2226	0	0	0
2227	0	0	0
2228	0	0	0
2229	0	0	0
2230	0	0	0
2231	249	250	244
2232	247	246	242
2233	245	242	242
2234	248	246	245
2235	249	248	245
2236	249	248	245
2237	249	249	246
2238	249	249	246
2239	249	248	245
2240	248	247	245
2241	246	245	243
2242	249	251	245
2243	254	255	248
2244	248	247	241
2245	241	236	236
2246	246	243	242
2247	250	248	245
2248	250	249	245
2249	251	250	245
2250	248	246	242
2251	244	242	240
2252	246	246	243
2253	249	250	244
2254	248	250	244
2255	249	251	245
2256	249	250	246
2257	249	249	245
2258	247	246	243
2259	246	244	242
2260	245	242	241
2261	243	238	239
2262	248	246	244
2263	253	253	247
2264	253	252	246
2265	253	252	246
2266	255	254	247
2267	254	254	246
2268	248	249	241
2269	245	246	238
2270	247	247	239
2271	249	248	242
2272	251	251	245
2273	250	252	244
2274	248	255	244
2275	251	255	246
2276	246	250	240
2277	242	241	237
2278	0	0	0
2279	0	0	0
2280	0	0	0
2281	0	0	0
2282	0	0	0
2283	249	249	243
2284	250	250	244
2285	247	246	242
2286	248	246	244
2287	251	250	247
2288	248	247	244
2289	247	247	243
2290	248	249	245
2291	248	248	244
2292	251	253	247
2293	252	252	247
2294	246	243	242
2295	250	250	246
2296	252	254	245
2297	244	241	237
2298	247	244	242
2299	253	252	249
2300	248	245	244
2301	249	246	244
2302	250	248	243
2303	245	243	240
2304	246	244	242
2305	250	249	246
2306	251	251	246
2307	249	250	244
2308	248	249	243
2309	248	248	244
2310	251	252	247
2311	249	249	245
2312	246	245	243
2313	245	243	241
2314	248	247	244
2315	253	254	249
2316	249	249	244
2317	249	248	243
2318	248	247	243
2319	250	249	244
2320	250	251	243
2321	246	247	239
2322	247	248	239
2323	248	248	241
2324	250	249	244
2325	252	252	246
2326	245	244	239
2327	246	248	240
2328	253	255	245
2329	247	248	239
2330	246	245	241
2331	0	0	0
2332	0	0	0
2333	0	0	0
2334	0	0	0
2335	0	0	0
2336	0	0	0
2337	250	250	245
2338	250	250	245
2339	250	250	245
2340	249	249	245
2341	247	246	243
2342	248	248	244
2343	249	250	244
2344	251	253	245
2345	254	255	247
2346	248	248	242
2347	243	239	238
2348	247	245	243
2349	250	250	245
2350	250	249	244
2351	252	252	246
2352	248	246	243
2353	244	240	240
2354	247	244	243
2355	248	246	243
2356	247	245	242
2357	248	247	244
2358	251	250	247
2359	252	252	247
2360	248	249	243
2361	247	248	242
2362	250	251	244
2363	253	254	248
2364	251	251	247
2365	249	248	245
2366	252	252	248
2367	254	255	249
2368	249	250	244
2369	245	244	240
2370	245	244	241
2371	245	243	242
2372	248	247	244
2373	249	249	243
2374	249	250	243
2375	251	252	245
2376	251	251	245
2377	251	251	247
2378	246	245	243
2379	240	237	236
2380	247	247	242
2381	254	255	247
2382	251	252	244
2383	249	249	246
2384	0	0	0
2385	0	0	0
2386	0	0	0
2387	0	0	0
2388	0	0	0
2389	0	0	0
2390	0	0	0
2391	0	0	0
2392	0	0	0
2393	0	0	0
2394	247	246	243
2395	250	249	245
2396	247	247	242
2397	249	249	242
2398	250	251	243
2399	244	242	237
2400	247	245	241
2401	250	250	246
2402	249	248	245
2403	251	249	245
2404	253	252	246
2405	248	246	242
2406	247	244	243
2407	250	248	246
2408	248	246	243
2409	248	246	243
2410	248	247	245
2411	250	250	246
2412	250	250	246
2413	247	248	243
2414	247	249	243
2415	250	251	245
2416	250	251	245
2417	250	249	244
2418	246	243	241
2419	249	247	244
2420	251	251	246
2421	246	245	241
2422	247	247	242
2423	248	247	243
2424	247	246	244
2425	250	249	246
2426	249	248	244
2427	250	249	244
2428	249	248	244
2429	249	247	244
2430	252	253	249
2431	248	247	245
2432	245	241	241
2433	252	252	247
2434	254	255	247
2435	248	249	242
2436	246	247	243
2437	0	0	0
2438	0	0	0
2439	0	0	0
2440	0	0	0
2441	0	0	0
2442	0	0	0
2443	0	0	0
2444	0	0	0
2445	0	0	0
2446	0	0	0
2447	0	0	0
2448	247	245	242
2449	245	242	239
2450	245	243	239
2451	247	246	241
2452	249	248	243
2453	250	249	245
2454	250	249	246
2455	248	247	243
2456	252	250	245
2457	254	253	247
2458	249	249	244
2459	248	247	245
2460	248	247	245
2461	247	245	243
2462	247	246	243
2463	248	247	244
2464	249	249	244
2465	248	249	243
2466	247	249	243
2467	248	250	244
2468	248	248	243
2469	247	247	241
2470	245	242	239
2471	242	237	237
2472	245	242	240
2473	247	246	242
2474	247	247	242
2475	248	248	242
2476	249	248	243
2477	248	246	243
2478	249	247	244
2479	248	246	243
2480	247	245	242
2481	247	244	242
2482	250	248	245
2483	253	253	249
2484	249	248	245
2485	246	244	243
2486	250	249	246
2487	251	252	246
2488	247	248	241
2489	245	246	239
2490	247	246	240
2491	0	0	0
2492	0	0	0
2493	0	0	0
2494	0	0	0
2495	0	0	0
2496	0	0	0
2497	0	0	0
2498	0	0	0
2499	0	0	0
2500	251	249	245
2501	249	247	243
2502	249	247	243
2503	250	250	244
2504	250	250	245
2505	251	251	246
2506	249	249	246
2507	249	248	245
2508	247	244	242
2509	250	248	245
2510	252	252	246
2511	246	246	242
2512	246	247	244
2513	248	248	245
2514	249	248	244
2515	250	250	245
2516	251	251	246
2517	251	252	246
2518	245	245	241
2519	245	246	241
2520	249	251	245
2521	248	249	243
2522	248	248	242
2523	246	243	239
2524	248	246	243
2525	250	250	246
2526	249	250	244
2527	251	251	245
2528	250	249	244
2529	250	248	243
2530	247	245	241
2531	248	245	243
2532	249	247	244
2533	249	247	245
2534	248	246	244
2535	251	250	247
2536	248	248	245
2537	244	243	241
2538	247	247	245
2539	250	251	247
2540	250	251	246
2541	249	249	243
2542	245	242	237
2543	0	0	0
2544	0	0	0
2545	0	0	0
2546	0	0	0
2547	0	0	0
2548	0	0	0
2549	0	0	0
2550	0	0	0
2551	0	0	0
2552	0	0	0
2553	0	0	0
2554	252	252	247
2555	252	252	246
2556	253	253	247
2557	253	254	248
2558	251	251	247
2559	250	249	246
2560	247	246	244
2561	245	242	242
2562	250	248	246
2563	252	252	248
2564	248	250	245
2565	248	251	246
2566	251	252	247
2567	252	253	246
2568	252	253	246
2569	253	255	248
2570	249	249	245
2571	244	242	239
2572	247	247	242
2573	250	251	244
2574	249	250	243
2575	250	250	244
2576	253	253	247
2577	254	255	249
2578	252	254	248
2579	251	253	246
2580	250	251	244
2581	250	250	245
2582	247	245	242
2583	244	241	238
2584	248	245	241
2585	250	248	245
2586	249	247	245
2587	248	246	245
2588	246	244	243
2589	244	242	241
2590	247	247	245
2591	250	251	248
2592	248	250	246
2593	248	249	245
2594	247	245	242
2595	244	239	239
2596	250	248	245
2597	0	0	0
2598	0	0	0
2599	0	0	0
2600	0	0	0
2601	0	0	0
2602	0	0	0
2603	0	0	0
2604	0	0	0
2605	0	0	0
2606	0	0	0
2607	0	0	0
2608	0	0	0
2609	0	0	0
2610	0	0	0
2611	0	0	0
2612	0	0	0
2613	248	247	245
2614	247	245	244
2615	252	250	248
2616	252	251	248
2617	250	250	247
2618	247	247	244
2619	249	248	244
2620	250	250	244
2621	249	249	243
2622	248	248	244
2623	246	243	242
2624	247	245	242
2625	249	249	244
2626	249	249	243
2627	247	248	242
2628	248	248	244
2629	251	251	246
2630	250	250	246
2631	249	250	245
2632	249	250	243
2633	248	248	241
2634	251	252	246
2635	248	248	243
2636	249	249	243
2637	253	254	246
2638	249	247	244
2639	248	246	243
2640	250	250	247
2641	249	248	245
2642	247	246	244
2643	250	251	247
2644	248	249	245
2645	246	248	244
2646	248	249	245
2647	249	246	244
2648	248	244	243
2649	252	252	249
2650	252	253	248
2651	0	0	0
2652	0	0	0
2653	0	0	0
2654	0	0	0
2655	0	0	0
2656	0	0	0
2657	0	0	0
2658	0	0	0
2659	0	0	0
2660	0	0	0
2661	0	0	0
2662	0	0	0
2663	0	0	0
2664	0	0	0
2665	251	250	246
2666	250	249	245
2667	249	248	245
2668	251	250	247
2669	251	250	247
2670	247	246	244
2671	245	243	241
2672	247	245	242
2673	247	246	241
2674	244	242	239
2675	244	241	240
2676	247	244	244
2677	249	246	245
2678	249	247	245
2679	248	247	244
2680	246	246	242
2681	246	246	243
2682	247	247	243
2683	247	246	244
2684	249	249	245
2685	249	249	243
2686	251	253	244
2687	254	255	247
2688	252	255	246
2689	254	255	247
2690	252	253	245
2691	248	246	242
2692	249	250	245
2693	252	254	248
2694	249	251	245
2695	247	248	242
2696	248	248	242
2697	247	247	242
2698	246	247	242
2699	249	250	246
2700	250	249	246
2701	249	246	244
2702	249	248	244
2703	0	0	0
2704	0	0	0
2705	0	0	0
2706	0	0	0
2707	0	0	0
2708	0	0	0
2709	0	0	0
2710	0	0	0
2711	0	0	0
2712	0	0	0
2713	0	0	0
2714	0	0	0
2715	0	0	0
2716	0	0	0
2717	0	0	0
2718	252	253	247
2719	251	251	245
2720	246	243	241
2721	247	245	243
2722	249	249	246
2723	0	0	0
2724	0	0	0
2725	247	246	243
2726	250	251	245
2727	248	248	243
2728	249	247	245
2729	253	251	249
2730	249	245	245
2731	249	246	245
2732	248	246	244
2733	244	244	242
2734	247	248	244
2735	249	249	245
2736	249	248	245
2737	250	250	247
2738	246	245	241
2739	247	247	241
2740	249	251	242
2741	248	251	242
2742	248	251	242
2743	245	245	239
2744	244	243	239
2745	248	248	243
2746	252	255	248
2747	249	251	244
2748	246	247	241
2749	247	248	241
2750	250	251	244
2751	250	251	245
2752	248	248	244
2753	246	246	243
2754	248	248	243
2755	0	0	0
2756	0	0	0
2757	0	0	0
2758	0	0	0
2759	0	0	0
2760	0	0	0
2761	0	0	0
2762	0	0	0
2763	0	0	0
2764	0	0	0
2765	0	0	0
2766	0	0	0
2767	0	0	0
2768	0	0	0
2769	0	0	0
2770	0	0	0
2771	0	0	0
2772	248	246	241
2773	243	239	238
2774	247	244	242
2775	0	0	0
2776	0	0	0
2777	0	0	0
2778	0	0	0
2779	0	0	0
2780	0	0	0
2781	253	253	249
2782	250	248	247
2783	246	242	242
2784	247	244	244
2785	246	244	243
2786	246	246	243
2787	248	250	244
2788	248	249	243
2789	248	248	244
2790	246	244	243
2791	242	239	239
2792	245	244	242
2793	247	248	243
2794	245	246	241
2795	246	246	241
2796	245	245	241
2797	244	243	239
2798	249	250	244
2799	253	255	248
2800	248	251	244
2801	246	247	242
2802	250	252	245
2803	253	255	248
2804	249	250	245
2805	246	247	242
2806	247	249	243
2807	248	250	244
2808	0	0	0
2809	0	0	0
2810	0	0	0
2811	0	0	0
2812	0	0	0
2813	0	0	0
2814	0	0	0
2815	0	0	0
2816	0	0	0
2817	0	0	0
2818	0	0	0
2819	0	0	0
2820	0	0	0
2821	0	0	0
2822	0	0	0
2823	0	0	0
2824	0	0	0
2825	0	0	0
2826	0	0	0
2827	0	0	0
2828	0	0	0
2829	0	0	0
2830	0	0	0
2831	0	0	0
2832	0	0	0
2833	249	249	245
2834	251	251	247
2835	248	245	244
2836	247	245	244
2837	249	247	246
2838	249	248	246
2839	249	251	246
2840	249	250	244
2841	248	248	242
2842	250	249	245
2843	248	246	244
2844	249	248	246
2845	252	253	249
2846	247	246	243
2847	245	245	241
2848	248	248	244
2849	247	246	243
2850	247	246	242
2851	252	253	247
2852	250	252	245
2853	246	246	241
2854	248	251	244
2855	251	254	247
2856	247	249	244
2857	243	244	240
2858	248	251	244
2859	250	253	245
2860	247	249	242
2861	0	0	0
2862	0	0	0
2863	0	0	0
2864	0	0	0
2865	0	0	0
2866	0	0	0
2867	0	0	0
2868	0	0	0
2869	0	0	0
2870	0	0	0
2871	0	0	0
2872	0	0	0
2873	0	0	0
2874	0	0	0
2875	0	0	0
2876	0	0	0
2877	0	0	0
2878	0	0	0
2879	0	0	0
2880	0	0	0
2881	0	0	0
2882	0	0	0
2883	0	0	0
2884	0	0	0
2885	246	246	242
2886	248	248	244
2887	250	249	244
2888	248	247	243
2889	248	247	244
2890	250	250	246
2891	250	250	247
2892	250	251	246
2893	249	251	244
2894	249	250	243
2895	250	251	245
2896	251	251	246
2897	252	253	247
2898	247	247	243
2899	243	241	239
2900	246	245	242
2901	248	249	244
2902	249	249	244
2903	250	250	244
2904	249	249	244
2905	248	248	243
2906	249	251	245
2907	251	254	247
2908	248	250	244
2909	244	244	240
2910	247	250	243
2911	251	255	245
2912	249	251	242
2913	246	247	241
2914	0	0	0
2915	0	0	0
2916	0	0	0
2917	0	0	0
2918	0	0	0
2919	0	0	0
2920	0	0	0
2921	0	0	0
2922	0	0	0
2923	0	0	0
2924	0	0	0
2925	0	0	0
2926	0	0	0
2927	0	0	0
2928	0	0	0
2929	0	0	0
2930	0	0	0
2931	0	0	0
2932	0	0	0
2933	0	0	0
2934	0	0	0
2935	0	0	0
2936	0	0	0
2937	0	0	0
2938	249	248	244
2939	249	248	245
2940	247	246	242
2941	245	244	240
2942	250	251	246
2943	252	253	248
2944	248	247	243
2945	248	247	243
2946	248	249	243
2947	246	247	241
2948	245	246	241
2949	245	247	241
2950	252	255	247
2951	248	250	244
2952	244	243	240
2953	248	249	244
2954	249	249	244
2955	251	250	244
2956	252	251	246
2957	250	249	245
2958	247	245	242
2959	248	249	244
2960	249	250	245
2961	246	246	241
2962	246	246	242
2963	250	251	244
2964	248	250	241
2965	245	245	238
2966	248	250	243
2967	0	0	0
2968	0	0	0
2969	0	0	0
2970	0	0	0
2971	0	0	0
2972	0	0	0
2973	0	0	0
2974	0	0	0
2975	0	0	0
2976	0	0	0
2977	0	0	0
2978	0	0	0
2979	0	0	0
2980	0	0	0
2981	0	0	0
2982	0	0	0
2983	0	0	0
2984	0	0	0
2985	0	0	0
2986	0	0	0
2987	0	0	0
2988	0	0	0
2989	0	0	0
2990	0	0	0
2991	249	247	243
2992	247	246	244
2993	245	244	241
2994	249	249	245
2995	253	255	250
2996	250	249	246
2997	245	243	240
2998	247	246	242
2999	248	247	242
3000	245	245	240
3001	243	243	238
3002	248	251	243
3003	253	255	248
3004	250	253	245
3005	246	247	242
3006	249	249	244
3007	250	249	245
3008	252	251	246
3009	252	251	247
3010	249	247	243
3011	245	243	241
3012	245	244	241
3013	246	246	243
3014	247	247	243
3015	248	247	244
3016	248	247	243
3017	246	246	241
3018	249	249	243
3019	252	254	247
3020	0	0	0
3021	0	0	0
3022	0	0	0
3023	0	0	0
3024	0	0	0
3025	0	0	0
3026	0	0	0
3027	0	0	0
3028	0	0	0
3029	0	0	0
3030	0	0	0
3031	0	0	0
3032	0	0	0
3033	0	0	0
3034	0	0	0
3035	0	0	0
3036	0	0	0
3037	0	0	0
3038	0	0	0
3039	0	0	0
3040	0	0	0
3041	0	0	0
3042	0	0	0
3043	0	0	0
3044	249	248	244
3045	248	248	245
3046	248	248	244
3047	252	254	248
3048	250	249	246
3049	245	243	240
3050	249	248	243
3051	252	251	245
3052	247	245	242
3053	246	244	240
3054	251	253	245
3055	254	255	247
3056	249	251	243
3057	244	244	238
3058	249	250	244
3059	251	251	246
3060	248	246	243
3061	248	246	243
3062	248	246	243
3063	246	243	241
3064	249	247	244
3065	249	249	245
3066	249	249	245
3067	248	249	244
3068	250	249	245
3069	251	250	245
3070	249	246	242
3071	251	250	245
3072	253	254	247
3073	0	0	0
3074	0	0	0
3075	0	0	0
3076	0	0	0
3077	0	0	0
3078	0	0	0
3079	0	0	0
3080	0	0	0
3081	0	0	0
3082	0	0	0
3083	0	0	0
3084	0	0	0
3085	0	0	0
3086	0	0	0
3087	0	0	0
3088	0	0	0
3089	0	0	0
3090	0	0	0
3091	0	0	0
3092	0	0	0
3093	0	0	0
3094	0	0	0
3095	0	0	0
3096	0	0	0
3097	251	251	246
3098	250	251	246
3099	250	251	245
3100	247	247	242
3101	245	243	239
3102	248	247	242
3103	252	253	245
3104	249	248	243
3105	246	244	241
3106	253	253	247
3107	254	255	246
3108	249	251	241
3109	243	242	237
3110	247	247	242
3111	252	252	246
3112	248	246	243
3113	244	240	239
3114	244	240	240
3115	244	241	240
3116	247	246	243
3117	251	250	246
3118	251	251	246
3119	251	251	246
3120	250	250	245
3121	251	250	244
3122	250	248	242
3123	248	245	241
3124	251	250	244
3125	253	254	245
3126	0	0	0
3127	0	0	0
3128	0	0	0
3129	0	0	0
3130	0	0	0
3131	0	0	0
3132	0	0	0
3133	0	0	0
3134	0	0	0
3135	0	0	0
3136	0	0	0
3137	0	0	0
3138	0	0	0
3139	0	0	0
3140	0	0	0
3141	0	0	0
3142	0	0	0
3143	0	0	0
3144	0	0	0
3145	0	0	0
3146	0	0	0
3147	0	0	0
3148	0	0	0
3149	0	0	0
3150	0	0	0
3151	249	249	245
3152	249	249	244
3153	246	245	241
3154	245	244	240
3155	248	249	243
3156	248	249	243
3157	245	244	240
3158	247	246	243
3159	254	255	249
3160	248	248	241
3161	239	238	232
3162	247	248	242
3163	252	254	247
3164	250	250	245
3165	246	244	240
3166	249	249	245
3167	249	249	245
3168	249	248	245
3169	252	253	247
3170	249	249	244
3171	250	249	244
3172	251	250	245
3173	251	250	244
3174	250	248	242
3175	248	245	240
3176	248	246	242
3177	252	251	245
3178	251	251	244
3179	0	0	0
3180	0	0	0
3181	0	0	0
3182	0	0	0
3183	0	0	0
3184	0	0	0
3185	0	0	0
3186	0	0	0
3187	0	0	0
3188	0	0	0
3189	0	0	0
3190	0	0	0
3191	0	0	0
3192	0	0	0
3193	0	0	0
3194	0	0	0
3195	0	0	0
3196	0	0	0
3197	0	0	0
3198	0	0	0
3199	0	0	0
3200	0	0	0
3201	0	0	0
3202	0	0	0
3203	251	250	247
3204	249	248	245
3205	248	248	244
3206	247	246	242
3207	247	246	242
3208	247	247	244
3209	247	246	243
3210	248	247	244
3211	249	248	244
3212	244	242	239
3213	239	236	234
3214	244	245	240
3215	252	255	248
3216	251	252	247
3217	249	248	243
3218	252	252	246
3219	255	255	249
3220	255	255	249
3221	253	255	248
3222	250	251	245
3223	247	247	242
3224	249	249	243
3225	250	249	243
3226	248	248	242
3227	248	246	241
3228	249	248	243
3229	250	249	245
3230	249	248	245
3231	248	248	245
3232	246	246	243
3233	0	0	0
3234	0	0	0
3235	0	0	0
3236	0	0	0
3237	0	0	0
3238	0	0	0
3239	0	0	0
3240	0	0	0
3241	0	0	0
3242	0	0	0
3243	0	0	0
3244	0	0	0
3245	0	0	0
3246	0	0	0
3247	0	0	0
3248	0	0	0
3249	0	0	0
3250	0	0	0
3251	0	0	0
3252	0	0	0
3253	0	0	0
3254	0	0	0
3255	0	0	0
3256	249	247	245
3257	247	246	244
3258	249	249	244
3259	248	248	243
3260	250	250	245
3261	251	251	247
3262	246	244	242
3263	247	245	243
3264	251	251	246
3265	247	245	241
3266	248	247	243
3267	254	255	250
3268	250	250	246
3269	247	246	242
3270	248	246	242
3271	250	251	245
3272	251	251	245
3273	250	251	244
3274	249	249	242
3275	246	245	240
3276	249	249	243
3277	250	250	244
3278	246	245	240
3279	243	243	239
3280	247	248	243
3281	252	251	246
3282	248	246	244
3283	246	245	243
3284	250	251	247
3285	247	248	245
3286	248	249	245
3287	0	0	0
3288	0	0	0
3289	0	0	0
3290	0	0	0
3291	0	0	0
3292	0	0	0
3293	0	0	0
3294	0	0	0
3295	0	0	0
3296	0	0	0
3297	0	0	0
3298	0	0	0
3299	0	0	0
3300	0	0	0
3301	0	0	0
3302	0	0	0
3303	0	0	0
3304	0	0	0
3305	0	0	0
3306	0	0	0
3307	0	0	0
3308	247	246	242
3309	248	246	243
3310	250	249	246
3311	251	251	246
3312	250	251	245
3313	251	253	245
3314	247	246	241
3315	242	239	237
3316	249	247	243
3317	253	253	247
3318	252	254	247
3319	254	255	249
3320	250	250	246
3321	245	243	241
3322	246	244	242
3323	247	245	242
3324	247	246	242
3325	247	247	243
3326	247	246	242
3327	246	244	240
3328	248	247	241
3329	250	250	245
3330	248	247	243
3331	244	242	239
3332	244	246	240
3333	248	250	244
3334	247	246	242
3335	245	242	241
3336	248	248	246
3337	251	253	248
3338	248	251	245
3339	248	251	244
3340	0	0	0
3341	0	0	0
3342	0	0	0
3343	0	0	0
3344	0	0	0
3345	0	0	0
3346	0	0	0
3347	0	0	0
3348	0	0	0
3349	0	0	0
3350	0	0	0
3351	0	0	0
3352	0	0	0
3353	0	0	0
3354	0	0	0
3355	0	0	0
3356	0	0	0
3357	0	0	0
3358	0	0	0
3359	0	0	0
3360	247	245	241
3361	246	244	241
3362	249	247	244
3363	252	251	247
3364	249	248	244
3365	247	247	242
3366	252	254	246
3367	246	246	240
3368	244	243	239
3369	251	252	246
3370	248	247	242
3371	247	247	242
3372	251	252	247
3373	248	247	244
3374	247	245	242
3375	247	246	243
3376	248	249	245
3377	250	250	246
3378	249	248	244
3379	248	247	243
3380	246	245	241
3381	247	247	242
3382	251	252	246
3383	250	249	245
3384	248	246	243
3385	249	249	245
3386	248	250	244
3387	245	244	240
3388	247	246	243
3389	252	253	248
3390	250	251	245
3391	246	248	242
3392	247	250	242
3393	0	0	0
3394	0	0	0
3395	0	0	0
3396	0	0	0
3397	0	0	0
3398	0	0	0
3399	0	0	0
3400	0	0	0
3401	0	0	0
3402	0	0	0
3403	0	0	0
3404	0	0	0
3405	0	0	0
3406	0	0	0
3407	0	0	0
3408	0	0	0
3409	0	0	0
3410	0	0	0
3411	0	0	0
3412	246	245	242
3413	245	243	240
3414	246	245	242
3415	248	247	244
3416	248	246	243
3417	246	243	242
3418	249	249	246
3419	254	255	249
3420	250	252	245
3421	248	248	243
3422	247	246	242
3423	244	242	240
3424	245	245	242
3425	249	250	246
3426	249	248	244
3427	247	245	242
3428	247	248	244
3429	250	251	247
3430	249	249	245
3431	248	247	243
3432	247	246	242
3433	245	244	241
3434	247	248	243
3435	250	252	246
3436	251	251	246
3437	250	249	247
3438	250	249	248
3439	249	249	246
3440	249	249	245
3441	250	250	245
3442	250	250	245
3443	248	248	242
3444	248	250	242
3445	250	253	245
3446	0	0	0
3447	0	0	0
3448	0	0	0
3449	0	0	0
3450	0	0	0
3451	0	0	0
3452	0	0	0
3453	0	0	0
3454	0	0	0
3455	0	0	0
3456	0	0	0
3457	0	0	0
3458	0	0	0
3459	0	0	0
3460	0	0	0
3461	0	0	0
3462	0	0	0
3463	0	0	0
3464	249	250	246
3465	247	247	243
3466	247	247	243
3467	250	250	245
3468	248	248	244
3469	247	246	243
3470	247	246	244
3471	252	253	249
3472	252	253	247
3473	249	249	244
3474	249	248	244
3475	248	246	243
3476	246	243	242
3477	247	247	245
3478	250	251	247
3479	249	249	245
3480	245	243	241
3481	245	245	241
3482	251	254	247
3483	251	252	246
3484	248	248	243
3485	247	247	242
3486	247	248	243
3487	0	0	0
3488	0	0	0
3489	0	0	0
3490	246	244	244
3491	246	245	245
3492	249	250	246
3493	250	250	245
3494	250	250	245
3495	249	249	243
3496	246	246	240
3497	249	250	242
3498	251	254	246
3499	0	0	0
3500	0	0	0
3501	0	0	0
3502	0	0	0
3503	0	0	0
3504	0	0	0
3505	0	0	0
3506	0	0	0
3507	0	0	0
3508	0	0	0
3509	0	0	0
3510	0	0	0
3511	0	0	0
3512	0	0	0
3513	0	0	0
3514	248	248	245
3515	250	251	246
3516	251	252	246
3517	251	252	246
3518	250	251	246
3519	250	252	246
3520	250	250	245
3521	248	248	244
3522	249	249	245
3523	250	250	246
3524	250	250	246
3525	249	249	245
3526	249	248	244
3527	250	248	245
3528	249	246	244
3529	246	243	242
3530	248	247	245
3531	251	252	247
3532	248	247	244
3533	244	242	240
3534	248	249	244
3535	253	255	247
3536	251	252	244
3537	249	249	243
3538	250	251	245
3539	0	0	0
3540	0	0	0
3541	0	0	0
3542	0	0	0
3543	242	239	239
3544	247	245	244
3545	250	251	245
3546	249	250	244
3547	249	250	246
3548	247	248	244
3549	245	245	240
3550	250	250	244
3551	253	254	248
3552	0	0	0
3553	0	0	0
3554	0	0	0
3555	0	0	0
3556	0	0	0
3557	0	0	0
3558	0	0	0
3559	0	0	0
3560	0	0	0
3561	0	0	0
3562	0	0	0
3563	0	0	0
3564	250	250	245
3565	250	250	246
3566	247	246	243
3567	247	248	244
3568	249	251	245
3569	250	252	245
3570	250	251	245
3571	250	251	245
3572	248	248	244
3573	247	247	243
3574	248	248	243
3575	249	249	244
3576	249	248	245
3577	249	248	245
3578	247	246	243
3579	246	244	242
3580	251	251	248
3581	250	249	247
3582	247	244	243
3583	250	248	246
3584	252	252	247
3585	0	0	0
3586	0	0	0
3587	0	0	0
3588	0	0	0
3589	0	0	0
3590	0	0	0
3591	0	0	0
3592	0	0	0
3593	0	0	0
3594	0	0	0
3595	0	0	0
3596	247	245	243
3597	252	251	247
3598	249	248	243
3599	247	247	242
3600	247	248	245
3601	244	245	243
3602	244	246	241
3603	250	251	245
3604	250	251	246
3605	0	0	0
3606	0	0	0
3607	0	0	0
3608	0	0	0
3609	0	0	0
3610	0	0	0
3611	0	0	0
3612	0	0	0
3613	0	0	0
3614	0	0	0
3615	0	0	0
3616	249	248	244
3617	252	253	246
3618	250	250	244
3619	247	246	243
3620	249	249	246
3621	250	252	245
3622	249	250	243
3623	249	249	243
3624	247	247	242
3625	246	245	242
3626	248	247	243
3627	248	248	243
3628	248	247	242
3629	248	246	243
3630	247	245	243
3631	246	243	241
3632	248	247	244
3633	252	253	249
3634	250	249	247
3635	247	245	244
3636	250	249	246
3637	0	0	0
3638	0	0	0
3639	0	0	0
3640	0	0	0
3641	0	0	0
3642	0	0	0
3643	0	0	0
3644	0	0	0
3645	0	0	0
3646	0	0	0
3647	0	0	0
3648	0	0	0
3649	0	0	0
3650	249	247	244
3651	247	245	242
3652	246	245	242
3653	246	247	244
3654	245	247	244
3655	246	248	243
3656	247	248	243
3657	246	246	241
3658	0	0	0
3659	0	0	0
3660	0	0	0
3661	0	0	0
3662	0	0	0
3663	0	0	0
3664	0	0	0
3665	0	0	0
3666	0	0	0
3667	0	0	0
3668	246	245	242
3669	249	249	245
3670	250	251	244
3671	248	247	242
3672	246	244	242
3673	249	249	245
3674	249	250	243
3675	246	246	240
3676	249	251	244
3677	249	249	244
3678	250	249	245
3679	252	251	246
3680	248	247	243
3681	247	246	242
3682	248	246	243
3683	249	246	244
3684	248	245	243
3685	249	249	246
3686	250	251	247
3687	249	247	245
3688	248	245	244
3689	250	249	246
3690	0	0	0
3691	0	0	0
3692	0	0	0
3693	0	0	0
3694	0	0	0
3695	0	0	0
3696	0	0	0
3697	0	0	0
3698	0	0	0
3699	0	0	0
3700	0	0	0
3701	0	0	0
3702	0	0	0
3703	0	0	0
3704	248	248	244
3705	247	248	244
3706	244	245	242
3707	245	246	243
3708	250	253	246
3709	251	252	245
3710	249	249	243
3711	0	0	0
3712	0	0	0
3713	0	0	0
3714	0	0	0
3715	0	0	0
3716	0	0	0
3717	0	0	0
3718	0	0	0
3719	0	0	0
3720	0	0	0
3721	247	246	244
3722	249	248	245
3723	250	249	244
3724	247	245	242
3725	246	242	240
3726	248	245	242
3727	248	246	241
3728	248	248	242
3729	251	253	246
3730	251	253	247
3731	251	252	246
3732	249	248	244
3733	246	244	241
3734	248	245	242
3735	249	246	243
3736	250	247	244
3737	249	246	244
3738	247	247	244
3739	248	248	244
3740	248	248	244
3741	247	246	243
3742	250	250	245
3743	252	254	245
3744	0	0	0
3745	0	0	0
3746	0	0	0
3747	0	0	0
3748	0	0	0
3749	0	0	0
3750	0	0	0
3751	0	0	0
3752	0	0	0
3753	0	0	0
3754	0	0	0
3755	0	0	0
3756	0	0	0
3757	0	0	0
3758	245	246	241
3759	242	242	238
3760	247	249	243
3761	252	255	246
3762	251	252	245
3763	250	250	244
3764	0	0	0
3765	0	0	0
3766	0	0	0
3767	0	0	0
3768	0	0	0
3769	0	0	0
3770	0	0	0
3771	0	0	0
3772	0	0	0
3773	0	0	0
3774	0	0	0
3775	250	250	245
3776	250	249	245
3777	249	246	243
3778	248	244	242
3779	249	247	243
3780	249	249	244
3781	250	251	245
3782	250	252	245
3783	249	250	244
3784	249	250	244
3785	246	246	242
3786	247	246	243
3787	250	248	245
3788	247	243	242
3789	246	243	242
3790	251	250	246
3791	251	251	247
3792	248	248	244
3793	246	246	242
3794	245	244	241
3795	248	249	243
3796	249	250	242
3797	0	0	0
3798	0	0	0
3799	0	0	0
3800	0	0	0
3801	0	0	0
3802	0	0	0
3803	0	0	0
3804	0	0	0
3805	0	0	0
3806	0	0	0
3807	0	0	0
3808	0	0	0
3809	0	0	0
3810	0	0	0
3811	0	0	0
3812	246	247	241
3813	251	253	245
3814	251	254	245
3815	250	251	243
3816	250	252	245
3817	0	0	0
3818	0	0	0
3819	0	0	0
3820	0	0	0
3821	0	0	0
3822	0	0	0
3823	0	0	0
3824	0	0	0
3825	0	0	0
3826	0	0	0
3827	0	0	0
3828	250	248	242
3829	250	248	244
3830	251	248	245
3831	249	246	244
3832	250	249	246
3833	251	251	246
3834	250	251	245
3835	250	251	243
3836	249	250	243
3837	249	250	243
3838	247	248	243
3839	247	248	244
3840	246	244	243
3841	243	239	240
3842	248	246	245
3843	252	253	248
3844	250	250	245
3845	248	247	243
3846	245	245	241
3847	244	243	240
3848	246	245	241
3849	246	246	242
3850	0	0	0
3851	0	0	0
3852	0	0	0
3853	0	0	0
3854	0	0	0
3855	0	0	0
3856	0	0	0
3857	0	0	0
3858	0	0	0
3859	0	0	0
3860	0	0	0
3861	0	0	0
3862	0	0	0
3863	0	0	0
3864	0	0	0
3865	251	253	244
3866	253	255	246
3867	253	255	245
3868	252	255	244
3869	0	0	0
3870	0	0	0
3871	0	0	0
3872	0	0	0
3873	0	0	0
3874	0	0	0
3875	0	0	0
3876	0	0	0
3877	0	0	0
3878	0	0	0
3879	0	0	0
3880	250	247	241
3881	249	247	242
3882	247	244	242
3883	247	243	243
3884	248	245	244
3885	248	248	245
3886	249	249	245
3887	250	250	245
3888	251	250	244
3889	250	249	243
3890	247	245	241
3891	243	243	239
3892	246	248	243
3893	243	243	241
3894	247	248	245
3895	254	255	250
3896	250	251	246
3897	248	247	243
3898	248	247	243
3899	246	246	242
3900	248	248	242
3901	249	249	244
3902	248	247	243
3903	0	0	0
3904	0	0	0
3905	0	0	0
3906	0	0	0
3907	0	0	0
3908	0	0	0
3909	0	0	0
3910	0	0	0
3911	0	0	0
3912	0	0	0
3913	0	0	0
3914	0	0	0
3915	0	0	0
3916	0	0	0
3917	0	0	0
3918	248	248	241
3919	251	251	243
3920	249	248	241
3921	247	247	240
3922	0	0	0
3923	0	0	0
3924	0	0	0
3925	0	0	0
3926	0	0	0
3927	0	0	0
3928	0	0	0
3929	0	0	0
3930	0	0	0
3931	0	0	0
3932	251	249	246
3933	250	247	245
3934	246	243	242
3935	244	240	241
3936	246	243	243
3937	247	245	244
3938	246	245	243
3939	247	247	243
3940	248	247	243
3941	250	248	245
3942	250	246	244
3943	246	242	240
3944	246	245	241
3945	248	250	244
3946	251	254	246
3947	254	255	248
3948	251	253	246
3949	248	248	244
3950	248	248	244
3951	248	247	244
3952	249	249	244
3953	250	250	243
3954	248	249	242
3955	247	247	242
3956	0	0	0
3957	0	0	0
3958	0	0	0
3959	0	0	0
3960	0	0	0
3961	0	0	0
3962	0	0	0
3963	0	0	0
3964	0	0	0
3965	0	0	0
3966	0	0	0
3967	0	0	0
3968	0	0	0
3969	0	0	0
3970	0	0	0
3971	0	0	0
3972	245	243	239
3973	243	240	237
3974	0	0	0
3975	0	0	0
3976	0	0	0
3977	0	0	0
3978	0	0	0
3979	0	0	0
3980	0	0	0
3981	0	0	0
3982	0	0	0
3983	0	0	0
3984	250	249	245
3985	251	248	246
3986	250	247	246
3987	246	243	243
3988	248	246	246
3989	251	250	248
3990	250	249	246
3991	250	250	246
3992	249	249	244
3993	248	248	244
3994	249	248	246
3995	251	247	246
3996	247	242	241
3997	249	246	242
3998	253	252	246
3999	254	255	247
4000	250	250	243
4001	246	245	239
4002	248	248	243
4003	249	249	245
4004	247	246	243
4005	248	248	243
4006	251	252	243
4007	249	250	242
4008	247	247	242
4009	0	0	0
4010	0	0	0
4011	0	0	0
4012	0	0	0
4013	0	0	0
4014	0	0	0
4015	0	0	0
4016	0	0	0
4017	0	0	0
4018	0	0	0
4019	0	0	0
4020	0	0	0
4021	0	0	0
4022	0	0	0
4023	0	0	0
4024	0	0	0
4025	0	0	0
4026	0	0	0
4027	0	0	0
4028	0	0	0
4029	0	0	0
4030	0	0	0
4031	0	0	0
4032	0	0	0
4033	0	0	0
4034	0	0	0
4035	0	0	0
4036	0	0	0
4037	249	249	244
4038	250	248	244
4039	250	247	245
4040	250	249	246
4041	252	253	248
4042	252	252	247
4043	251	251	246
4044	251	251	245
4045	250	251	245
4046	246	247	242
4047	247	247	244
4048	248	245	243
4049	245	239	238
4050	249	246	242
4051	253	253	247
4052	249	248	244
4053	246	243	241
4054	247	246	242
4055	249	249	244
4056	247	247	242
4057	245	245	241
4058	248	249	243
4059	251	253	244
4060	249	250	242
4061	0	0	0
4062	0	0	0
4063	0	0	0
4064	0	0	0
4065	0	0	0
4066	0	0	0
4067	0	0	0
4068	0	0	0
4069	0	0	0
4070	0	0	0
4071	0	0	0
4072	0	0	0
4073	0	0	0
4074	0	0	0
4075	0	0	0
4076	0	0	0
4077	0	0	0
4078	0	0	0
4079	0	0	0
4080	0	0	0
4081	0	0	0
4082	0	0	0
4083	0	0	0
4084	0	0	0
4085	0	0	0
4086	0	0	0
4087	0	0	0
4088	0	0	0
4089	0	0	0
4090	249	248	243
4091	249	247	243
4092	246	242	241
4093	248	246	244
4094	251	251	247
4095	249	249	245
4096	245	245	241
4097	245	245	241
4098	247	248	243
4099	245	246	241
4100	250	250	246
4101	250	248	244
4102	245	242	240
4103	248	248	243
4104	248	250	245
4105	247	246	243
4106	247	246	244
4107	249	249	246
4108	247	247	243
4109	245	245	240
4110	246	248	243
4111	248	252	245
4112	245	248	241
4113	244	245	239
4114	0	0	0
4115	0	0	0
4116	0	0	0
4117	0	0	0
4118	0	0	0
4119	0	0	0
4120	0	0	0
4121	0	0	0
4122	0	0	0
4123	0	0	0
4124	0	0	0
4125	0	0	0
4126	0	0	0
4127	0	0	0
4128	0	0	0
4129	0	0	0
4130	0	0	0
4131	0	0	0
4132	0	0	0
4133	0	0	0
4134	0	0	0
4135	0	0	0
4136	0	0	0
4137	0	0	0
4138	0	0	0
4139	0	0	0
4140	0	0	0
4141	0	0	0
4142	0	0	0
4143	248	247	241
4144	246	243	239
4145	243	238	238
4146	248	245	244
4147	251	250	247
4148	247	246	244
4149	243	242	240
4150	244	244	241
4151	246	247	243
4152	248	250	245
4153	252	254	249
4154	251	251	246
4155	246	245	242
4156	246	247	242
4157	247	249	244
4158	247	248	244
4159	248	248	245
4160	247	247	244
4161	246	246	242
4162	248	249	244
4163	249	252	246
4164	245	248	242
4165	242	244	239
4166	245	246	240
4167	248	249	244
4168	0	0	0
4169	0	0	0
4170	0	0	0
4171	0	0	0
4172	0	0	0
4173	0	0	0
4174	0	0	0
4175	0	0	0
4176	0	0	0
4177	0	0	0
4178	0	0	0
4179	0	0	0
4180	0	0	0
4181	0	0	0
4182	0	0	0
4183	0	0	0
4184	0	0	0
4185	0	0	0
4186	0	0	0
4187	0	0	0
4188	0	0	0
4189	0	0	0
4190	0	0	0
4191	0	0	0
4192	0	0	0
4193	0	0	0
4194	0	0	0
4195	0	0	0
4196	252	252	245
4197	249	248	243
4198	245	241	240
4199	250	248	247
4200	251	250	248
4201	248	246	244
4202	247	246	243
4203	249	249	244
4204	250	251	245
4205	252	253	246
4206	252	254	247
4207	248	249	244
4208	244	243	240
4209	247	247	242
4210	251	252	246
4211	250	250	245
4212	247	247	244
4213	247	247	244
4214	249	250	246
4215	251	253	247
4216	249	249	245
4217	247	247	243
4218	250	250	245
4219	249	251	245
4220	246	245	242
4221	0	0	0
4222	0	0	0
4223	0	0	0
4224	0	0	0
4225	0	0	0
4226	0	0	0
4227	0	0	0
4228	0	0	0
4229	0	0	0
4230	0	0	0
4231	0	0	0
4232	0	0	0
4233	0	0	0
4234	0	0	0
4235	0	0	0
4236	0	0	0
4237	0	0	0
4238	0	0	0
4239	0	0	0
4240	0	0	0
4241	0	0	0
4242	0	0	0
4243	0	0	0
4244	0	0	0
4245	0	0	0
4246	0	0	0
4247	0	0	0
4248	253	255	246
4249	255	255	248
4250	251	250	244
4251	246	243	241
4252	248	246	244
4253	249	248	245
4254	250	248	244
4255	249	249	243
4256	251	251	244
4257	252	253	244
4258	252	253	244
4259	252	254	245
4260	247	248	242
4261	243	242	238
4262	250	249	243
4263	254	255	247
4264	250	250	245
4265	247	247	244
4266	250	251	248
4267	252	254	248
4268	249	250	245
4269	247	246	242
4270	251	250	245
4271	254	255	249
4272	247	247	243
4273	243	241	239
4274	0	0	0
4275	0	0	0
4276	0	0	0
4277	0	0	0
4278	0	0	0
4279	0	0	0
4280	0	0	0
4281	0	0	0
4282	0	0	0
4283	0	0	0
4284	0	0	0
4285	0	0	0
4286	0	0	0
4287	0	0	0
4288	0	0	0
4289	0	0	0
4290	0	0	0
4291	0	0	0
4292	0	0	0
4293	0	0	0
4294	0	0	0
4295	0	0	0
4296	0	0	0
4297	0	0	0
4298	0	0	0
4299	0	0	0
4300	250	251	244
4301	251	252	244
4302	252	252	245
4303	247	245	241
4304	247	244	241
4305	249	247	244
4306	251	250	245
4307	251	250	245
4308	249	249	243
4309	250	251	244
4310	247	247	240
4311	247	247	240
4312	249	249	242
4313	246	243	239
4314	248	246	241
4315	252	252	246
4316	251	251	244
4317	248	247	242
4318	246	244	243
4319	249	248	246
4320	251	253	247
4321	247	248	243
4322	244	243	239
4323	247	247	243
4324	253	255	248
4325	248	248	243
4326	246	245	242
4327	0	0	0
4328	0	0	0
4329	0	0	0
4330	0	0	0
4331	0	0	0
4332	0	0	0
4333	0	0	0
4334	0	0	0
4335	0	0	0
4336	0	0	0
4337	0	0	0
4338	0	0	0
4339	0	0	0
4340	0	0	0
4341	0	0	0
4342	0	0	0
4343	0	0	0
4344	0	0	0
4345	0	0	0
4346	0	0	0
4347	0	0	0
4348	0	0	0
4349	0	0	0
4350	0	0	0
4351	0	0	0
4352	0	0	0
4353	249	250	242
4354	249	249	242
4355	250	249	245
4356	250	248	245
4357	248	247	243
4358	250	249	244
4359	252	252	246
4360	252	251	246
4361	251	250	244
4362	247	246	241
4363	244	242	239
4364	246	244	241
4365	247	245	242
4366	249	247	244
4367	251	250	246
4368	250	249	245
4369	249	248	244
4370	248	245	242
4371	245	242	242
4372	248	247	245
4373	250	251	246
4374	246	246	241
4375	242	241	238
4376	247	248	243
4377	253	255	247
4378	250	252	245
4379	250	250	246
4380	0	0	0
4381	0	0	0
4382	0	0	0
4383	0	0	0
4384	0	0	0
4385	0	0	0
4386	0	0	0
4387	0	0	0
4388	0	0	0
4389	0	0	0
4390	0	0	0
4391	0	0	0
4392	0	0	0
4393	0	0	0
4394	0	0	0
4395	0	0	0
4396	0	0	0
4397	0	0	0
4398	0	0	0
4399	0	0	0
4400	0	0	0
4401	0	0	0
4402	0	0	0
4403	0	0	0
4404	0	0	0
4405	0	0	0
4406	0	0	0
4407	250	248	243
4408	250	248	245
4409	249	247	244
4410	248	247	243
4411	249	249	244
4412	248	248	243
4413	249	248	244
4414	249	247	244
4415	247	244	241
4416	250	249	245
4417	250	249	246
4418	246	243	242
4419	249	246	244
4420	254	253	248
4421	252	251	246
4422	247	245	243
4423	246	243	242
4424	249	246	245
4425	251	250	247
4426	250	250	244
4427	246	245	240
4428	246	245	242
4429	249	251	246
4430	249	252	244
4431	248	249	242
4432	249	249	245
4433	0	0	0
4434	0	0	0
4435	0	0	0
4436	0	0	0
4437	0	0	0
4438	0	0	0
4439	0	0	0
4440	0	0	0
4441	0	0	0
4442	0	0	0
4443	0	0	0
4444	0	0	0
4445	0	0	0
4446	0	0	0
4447	0	0	0
4448	0	0	0
4449	0	0	0
4450	0	0	0
4451	0	0	0
4452	0	0	0
4453	0	0	0
4454	0	0	0
4455	0	0	0
4456	0	0	0
4457	0	0	0
4458	0	0	0
4459	0	0	0
4460	0	0	0
4461	248	244	241
4462	248	246	242
4463	248	248	243
4464	246	246	241
4465	245	245	241
4466	247	245	243
4467	248	244	243
4468	250	248	245
4469	253	252	246
4470	247	245	240
4471	243	240	238
4472	250	248	244
4473	254	254	247
4474	248	247	242
4475	245	241	241
4476	249	246	246
4477	251	249	248
4478	249	247	246
4479	247	246	242
4480	247	246	242
4481	247	247	245
4482	248	249	245
4483	248	249	243
4484	247	248	241
4485	248	247	242
4486	0	0	0
4487	0	0	0
4488	0	0	0
4489	0	0	0
4490	0	0	0
4491	0	0	0
4492	0	0	0
4493	0	0	0
4494	0	0	0
4495	0	0	0
4496	0	0	0
4497	0	0	0
4498	0	0	0
4499	0	0	0
4500	0	0	0
4501	0	0	0
4502	0	0	0
4503	0	0	0
4504	0	0	0
4505	0	0	0
4506	0	0	0
4507	0	0	0
4508	0	0	0
4509	0	0	0
4510	0	0	0
4511	0	0	0
4512	0	0	0
4513	0	0	0
4514	248	247	242
4515	250	249	244
4516	250	249	244
4517	248	247	243
4518	248	247	244
4519	249	247	244
4520	248	245	244
4521	250	249	246
4522	250	251	244
4523	245	244	239
4524	248	247	242
4525	253	254	248
4526	251	250	244
4527	245	243	240
4528	245	243	241
4529	251	249	247
4530	252	251	249
4531	248	248	245
4532	248	250	243
4533	248	250	243
4534	247	248	244
4535	249	250	246
4536	249	250	245
4537	248	248	242
4538	247	247	241
4539	0	0	0
4540	0	0	0
4541	0	0	0
4542	0	0	0
4543	0	0	0
4544	0	0	0
4545	0	0	0
4546	0	0	0
4547	0	0	0
4548	0	0	0
4549	0	0	0
4550	0	0	0
4551	0	0	0
4552	0	0	0
4553	0	0	0
4554	0	0	0
4555	0	0	0
4556	0	0	0
4557	0	0	0
4558	0	0	0
4559	0	0	0
4560	0	0	0
4561	0	0	0
4562	0	0	0
4563	0	0	0
4564	0	0	0
4565	0	0	0
4566	0	0	0
4567	251	250	245
4568	251	250	246
4569	251	250	246
4570	251	249	246
4571	250	249	245
4572	250	249	246
4573	249	247	245
4574	251	250	247
4575	251	251	247
4576	251	252	246
4577	253	254	248
4578	250	250	246
4579	248	247	242
4580	247	246	242
4581	247	246	242
4582	251	249	246
4583	252	252	247
4584	251	253	246
4585	251	254	246
4586	247	250	243
4587	247	248	243
4588	248	249	244
4589	249	250	244
4590	247	248	242
4591	246	246	241
4592	0	0	0
4593	0	0	0
4594	0	0	0
4595	0	0	0
4596	0	0	0
4597	0	0	0
4598	0	0	0
4599	0	0	0
4600	0	0	0
4601	0	0	0
4602	0	0	0
4603	0	0	0
4604	0	0	0
4605	0	0	0
4606	0	0	0
4607	0	0	0
4608	0	0	0
4609	0	0	0
4610	0	0	0
4611	0	0	0
4612	0	0	0
4613	0	0	0
4614	0	0	0
4615	0	0	0
4616	0	0	0
4617	0	0	0
4618	0	0	0
4619	0	0	0
4620	251	250	246
4621	250	249	246
4622	249	248	245
4623	251	249	246
4624	250	248	245
4625	250	247	245
4626	247	243	243
4627	249	246	245
4628	249	247	245
4629	249	248	244
4630	253	254	248
4631	249	249	245
4632	246	245	242
4633	248	246	243
4634	251	250	245
4635	252	252	246
4636	249	248	243
4637	249	250	243
4638	246	247	240
4639	243	243	238
4640	248	250	244
4641	250	252	245
4642	252	254	246
4643	250	252	244
4644	247	247	241
4645	0	0	0
4646	0	0	0
4647	0	0	0
4648	0	0	0
4649	0	0	0
4650	0	0	0
4651	0	0	0
4652	0	0	0
4653	0	0	0
4654	0	0	0
4655	0	0	0
4656	0	0	0
4657	0	0	0
4658	0	0	0
4659	0	0	0
4660	0	0	0
4661	0	0	0
4662	0	0	0
4663	0	0	0
4664	0	0	0
4665	0	0	0
4666	0	0	0
4667	0	0	0
4668	0	0	0
4669	0	0	0
4670	0	0	0
4671	0	0	0
4672	0	0	0
4673	250	248	246
4674	249	247	246
4675	247	246	243
4676	248	246	243
4677	248	245	243
4678	246	242	242
4679	243	238	240
4680	245	241	241
4681	245	242	241
4682	247	246	243
4683	252	253	249
4684	248	248	245
4685	245	243	241
4686	249	248	245
4687	253	253	248
4688	249	248	244
4689	246	244	240
4690	245	243	239
4691	242	241	237
4692	246	247	242
4693	250	254	247
4694	253	255	247
4695	255	255	246
4696	251	253	243
4697	249	249	243
4698	0	0	0
4699	0	0	0
4700	0	0	0
4701	0	0	0
4702	0	0	0
4703	0	0	0
4704	0	0	0
4705	0	0	0
4706	0	0	0
4707	0	0	0
4708	0	0	0
4709	0	0	0
4710	0	0	0
4711	0	0	0
4712	0	0	0
4713	0	0	0
4714	0	0	0
4715	0	0	0
4716	0	0	0
4717	0	0	0
4718	0	0	0
4719	0	0	0
4720	0	0	0
4721	0	0	0
4722	0	0	0
4723	0	0	0
4724	0	0	0
4725	247	248	242
4726	248	248	245
4727	248	248	246
4728	249	249	245
4729	248	247	244
4730	243	242	241
4731	242	239	239
4732	246	245	243
4733	249	248	245
4734	249	248	244
4735	251	252	246
4736	253	255	249
4737	251	252	247
4738	245	243	241
4739	248	247	244
4740	253	254	248
4741	249	250	244
4742	246	245	240
4743	247	245	241
4744	247	246	243
4745	250	252	247
4746	247	249	244
4747	249	250	244
4748	252	254	244
4749	249	249	241
4750	246	245	240
4751	0	0	0
4752	0	0	0
4753	0	0	0
4754	0	0	0
4755	0	0	0
4756	0	0	0
4757	0	0	0
4758	0	0	0
4759	0	0	0
4760	0	0	0
4761	0	0	0
4762	0	0	0
4763	0	0	0
4764	0	0	0
4765	0	0	0
4766	0	0	0
4767	0	0	0
4768	0	0	0
4769	0	0	0
4770	0	0	0
4771	0	0	0
4772	0	0	0
4773	0	0	0
4774	0	0	0
4775	0	0	0
4776	0	0	0
4777	249	250	244
4778	247	248	244
4779	247	248	244
4780	250	250	246
4781	250	251	246
4782	244	244	241
4783	241	239	238
4784	246	246	243
4785	250	251	245
4786	253	254	246
4787	253	255	246
4788	252	255	245
4789	254	255	248
4790	250	251	244
4791	245	242	240
4792	249	249	244
4793	252	255	246
4794	248	249	240
4795	246	245	238
4796	249	248	243
4797	250	250	247
4798	247	247	245
4799	244	244	242
4800	248	248	244
4801	251	252	246
4802	246	245	241
4803	242	240	238
4804	0	0	0
4805	0	0	0
4806	0	0	0
4807	0	0	0
4808	0	0	0
4809	0	0	0
4810	0	0	0
4811	0	0	0
4812	0	0	0
4813	0	0	0
4814	0	0	0
4815	0	0	0
4816	0	0	0
4817	0	0	0
4818	0	0	0
4819	0	0	0
4820	0	0	0
4821	0	0	0
4822	0	0	0
4823	0	0	0
4824	0	0	0
4825	0	0	0
4826	0	0	0
4827	0	0	0
4828	0	0	0
4829	249	251	245
4830	247	248	243
4831	247	247	243
4832	248	249	244
4833	250	250	245
4834	249	249	244
4835	243	243	239
4836	249	249	245
4837	255	255	250
4838	247	246	240
4839	249	248	241
4840	250	249	242
4841	248	250	242
4842	250	252	243
4843	246	244	240
4844	248	246	243
4845	251	252	246
4846	250	252	243
4847	246	246	238
4848	247	247	240
4849	250	249	244
4850	248	247	246
4851	246	245	245
4852	247	247	245
4853	251	251	247
4854	247	247	244
4855	241	240	238
4856	246	247	243
4857	0	0	0
4858	0	0	0
4859	0	0	0
4860	0	0	0
4861	0	0	0
4862	0	0	0
4863	0	0	0
4864	0	0	0
4865	0	0	0
4866	0	0	0
4867	0	0	0
4868	0	0	0
4869	0	0	0
4870	0	0	0
4871	0	0	0
4872	0	0	0
4873	0	0	0
4874	0	0	0
4875	0	0	0
4876	0	0	0
4877	0	0	0
4878	0	0	0
4879	0	0	0
4880	0	0	0
4881	0	0	0
4882	0	0	0
4883	245	245	242
4884	247	247	243
4885	249	249	244
4886	248	248	243
4887	248	248	243
4888	250	252	246
4889	254	255	249
4890	250	249	243
4891	243	239	236
4892	245	243	239
4893	245	244	239
4894	246	246	241
4895	248	248	243
4896	251	250	246
4897	252	252	249
4898	250	250	246
4899	249	250	243
4900	248	249	242
4901	249	249	244
4902	248	247	244
4903	246	245	244
4904	247	247	245
4905	248	249	245
4906	247	246	242
4907	244	242	241
4908	247	248	244
4909	252	255	247
4910	0	0	0
4911	0	0	0
4912	0	0	0
4913	0	0	0
4914	0	0	0
4915	0	0	0
4916	0	0	0
4917	0	0	0
4918	0	0	0
4919	0	0	0
4920	0	0	0
4921	0	0	0
4922	0	0	0
4923	0	0	0
4924	0	0	0
4925	0	0	0
4926	0	0	0
4927	0	0	0
4928	0	0	0
4929	0	0	0
4930	0	0	0
4931	0	0	0
4932	0	0	0
4933	0	0	0
4934	0	0	0
4935	0	0	0
4936	247	247	243
4937	248	248	244
4938	248	249	244
4939	248	248	243
4940	248	248	243
4941	251	253	246
4942	252	254	246
4943	246	244	239
4944	247	246	242
4945	248	249	244
4946	246	246	242
4947	248	248	244
4948	246	244	242
4949	248	246	244
4950	247	244	243
4951	246	243	242
4952	252	253	247
4953	251	252	246
4954	247	247	243
4955	246	245	243
4956	248	248	245
4957	249	250	246
4958	249	249	244
4959	247	245	242
4960	248	246	244
4961	251	252	247
4962	250	251	243
4963	0	0	0
4964	0	0	0
4965	0	0	0
4966	0	0	0
4967	0	0	0
4968	0	0	0
4969	0	0	0
4970	0	0	0
4971	0	0	0
4972	0	0	0
4973	0	0	0
4974	0	0	0
4975	0	0	0
4976	0	0	0
4977	0	0	0
4978	0	0	0
4979	0	0	0
4980	0	0	0
4981	0	0	0
4982	0	0	0
4983	0	0	0
4984	0	0	0
4985	0	0	0
4986	0	0	0
4987	0	0	0
4988	0	0	0
4989	249	248	246
4990	248	248	246
4991	249	249	245
4992	250	249	245
4993	249	249	244
4994	250	250	245
4995	251	251	245
4996	251	252	246
4997	252	253	247
4998	248	249	244
4999	245	246	242
5000	244	243	240
5001	242	238	238
5002	243	238	238
5003	241	236	237
5004	248	246	243
5005	254	255	248
5006	248	249	243
5007	245	243	241
5008	249	248	245
5009	251	251	247
5010	249	250	245
5011	249	249	245
5012	250	249	245
5013	250	249	246
5014	247	247	243
5015	247	245	241
5016	0	0	0
5017	0	0	0
5018	0	0	0
5019	0	0	0
5020	0	0	0
5021	0	0	0
5022	0	0	0
5023	0	0	0
5024	0	0	0
5025	0	0	0
5026	0	0	0
5027	0	0	0
5028	0	0	0
5029	0	0	0
5030	0	0	0
5031	0	0	0
5032	0	0	0
5033	0	0	0
5034	0	0	0
5035	0	0	0
5036	0	0	0
5037	251	251	246
5038	249	248	242
5039	0	0	0
5040	249	247	242
5041	250	250	245
5042	248	247	245
5043	248	248	246
5044	250	250	246
5045	250	250	246
5046	249	248	244
5047	250	249	245
5048	249	248	244
5049	249	248	244
5050	251	252	246
5051	248	249	244
5052	250	252	245
5053	249	248	243
5054	246	243	241
5055	247	243	241
5056	251	248	245
5057	255	255	249
5058	252	253	245
5059	245	245	239
5060	244	243	240
5061	250	249	245
5062	250	249	245
5063	249	247	244
5064	247	246	243
5065	247	246	243
5066	251	252	247
5067	251	251	246
5068	249	249	244
5069	0	0	0
5070	0	0	0
5071	0	0	0
5072	0	0	0
5073	0	0	0
5074	0	0	0
5075	0	0	0
5076	0	0	0
5077	0	0	0
5078	0	0	0
5079	0	0	0
5080	0	0	0
5081	0	0	0
5082	0	0	0
5083	0	0	0
5084	0	0	0
5085	0	0	0
5086	0	0	0
5087	0	0	0
5088	0	0	0
5089	252	254	247
5090	249	250	242
5091	246	246	239
5092	249	248	240
5093	251	250	244
5094	250	249	244
5095	247	246	243
5096	249	248	245
5097	250	250	245
5098	247	247	243
5099	246	245	242
5100	246	245	242
5101	245	243	241
5102	248	248	244
5103	251	252	246
5104	252	254	247
5105	255	255	248
5106	251	251	244
5107	248	246	241
5108	252	252	246
5109	255	255	248
5110	253	253	245
5111	249	248	242
5112	246	246	240
5113	245	244	240
5114	248	246	242
5115	249	247	244
5116	248	246	244
5117	246	244	241
5118	249	249	244
5119	253	255	249
5120	251	252	247
5121	250	250	246
5122	0	0	0
5123	0	0	0
5124	0	0	0
5125	0	0	0
5126	0	0	0
5127	0	0	0
5128	0	0	0
5129	0	0	0
5130	0	0	0
5131	0	0	0
5132	0	0	0
5133	0	0	0
5134	0	0	0
5135	0	0	0
5136	0	0	0
5137	0	0	0
5138	0	0	0
5139	0	0	0
5140	0	0	0
5141	0	0	0
5142	0	0	0
5143	246	248	240
5144	245	246	238
5145	248	248	240
5146	253	254	246
5147	253	253	246
5148	245	243	240
5149	247	245	242
5150	248	249	244
5151	245	245	241
5152	245	245	241
5153	245	245	242
5154	248	249	245
5155	251	253	248
5156	247	248	243
5157	249	250	243
5158	247	247	241
5159	243	241	236
5160	246	246	240
5161	249	251	244
5162	250	252	243
5163	247	248	240
5164	248	248	242
5165	248	247	242
5166	246	245	240
5167	247	246	241
5168	249	248	245
5169	249	248	245
5170	245	243	241
5171	247	247	243
5172	251	254	247
5173	248	251	245
5174	247	248	243
5175	0	0	0
5176	0	0	0
5177	0	0	0
5178	0	0	0
5179	0	0	0
5180	0	0	0
5181	0	0	0
5182	0	0	0
5183	0	0	0
5184	0	0	0
5185	0	0	0
5186	0	0	0
5187	0	0	0
5188	0	0	0
5189	0	0	0
5190	0	0	0
5191	0	0	0
5192	0	0	0
5193	0	0	0
5194	0	0	0
5195	0	0	0
5196	249	251	244
5197	247	249	242
5198	251	254	245
5199	254	255	247
5200	250	249	243
5201	243	240	238
5202	246	244	242
5203	248	248	245
5204	246	247	243
5205	246	247	243
5206	249	251	246
5207	252	254	249
5208	248	249	244
5209	244	243	240
5210	244	243	239
5211	243	240	237
5212	246	245	240
5213	248	249	243
5214	247	249	242
5215	247	249	241
5216	246	248	241
5217	248	248	243
5218	249	248	244
5219	247	245	241
5220	249	247	243
5221	251	250	245
5222	248	247	244
5223	244	242	241
5224	247	249	245
5225	250	255	246
5226	246	250	242
5227	245	247	241
5228	0	0	0
5229	0	0	0
5230	0	0	0
5231	0	0	0
5232	0	0	0
5233	0	0	0
5234	0	0	0
5235	0	0	0
5236	0	0	0
5237	0	0	0
5238	0	0	0
5239	0	0	0
5240	0	0	0
5241	0	0	0
5242	0	0	0
5243	0	0	0
5244	0	0	0
5245	0	0	0
5246	0	0	0
5247	0	0	0
5248	0	0	0
5249	0	0	0
5250	247	249	243
5251	249	252	244
5252	249	251	243
5253	244	241	237
5254	246	243	240
5255	249	248	245
5256	248	248	245
5257	246	247	243
5258	247	248	243
5259	252	253	247
5260	253	252	247
5261	247	246	242
5262	247	246	242
5263	247	245	242
5264	246	243	239
5265	249	247	242
5266	253	254	247
5267	251	253	245
5268	250	252	244
5269	249	251	244
5270	250	250	246
5271	250	249	245
5272	248	245	241
5273	252	249	244
5274	253	250	246
5275	247	245	243
5276	245	244	242
5277	248	250	245
5278	249	253	244
5279	245	248	240
5280	0	0	0
5281	0	0	0
5282	0	0	0
5283	0	0	0
5284	0	0	0
5285	0	0	0
5286	0	0	0
5287	0	0	0
5288	0	0	0
5289	0	0	0
5290	0	0	0
5291	0	0	0
5292	0	0	0
5293	0	0	0
5294	0	0	0
5295	0	0	0
5296	0	0	0
5297	0	0	0
5298	0	0	0
5299	0	0	0
5300	0	0	0
5301	0	0	0
5302	0	0	0
5303	0	0	0
5304	245	245	241
5305	245	244	239
5306	245	245	239
5307	247	247	242
5308	247	247	243
5309	246	246	242
5310	246	247	242
5311	248	248	242
5312	252	250	244
5313	252	250	245
5314	249	248	244
5315	249	248	244
5316	250	248	244
5317	248	245	242
5318	253	253	246
5319	255	255	247
5320	255	255	247
5321	254	255	248
5322	252	254	246
5323	252	252	246
5324	250	249	244
5325	248	245	241
5326	252	248	243
5327	252	249	245
5328	249	247	243
5329	245	245	241
5330	246	248	242
5331	248	251	244
5332	247	250	243
5333	0	0	0
5334	0	0	0
5335	0	0	0
5336	0	0	0
5337	0	0	0
5338	0	0	0
5339	0	0	0
5340	0	0	0
5341	0	0	0
5342	0	0	0
5343	0	0	0
5344	0	0	0
5345	0	0	0
5346	0	0	0
5347	0	0	0
5348	0	0	0
5349	0	0	0
5350	0	0	0
5351	0	0	0
5352	0	0	0
5353	0	0	0
5354	0	0	0
5355	0	0	0
5356	0	0	0
5357	0	0	0
5358	249	249	243
5359	248	248	242
5360	251	252	245
5361	251	253	245
5362	249	250	243
5363	251	251	244
5364	250	249	243
5365	252	249	245
5366	249	244	242
5367	246	242	240
5368	250	248	245
5369	250	248	245
5370	247	242	241
5371	251	250	245
5372	248	246	241
5373	247	244	240
5374	251	251	245
5375	248	248	243
5376	249	248	243
5377	247	245	242
5378	248	245	242
5379	250	247	244
5380	251	249	245
5381	249	248	244
5382	247	246	241
5383	248	249	243
5384	250	253	246
5385	250	251	245
5386	0	0	0
5387	0	0	0
5388	0	0	0
5389	0	0	0
5390	0	0	0
5391	0	0	0
5392	0	0	0
5393	0	0	0
5394	0	0	0
5395	0	0	0
5396	0	0	0
5397	0	0	0
5398	0	0	0
5399	0	0	0
5400	0	0	0
5401	0	0	0
5402	0	0	0
5403	0	0	0
5404	0	0	0
5405	0	0	0
5406	0	0	0
5407	0	0	0
5408	0	0	0
5409	0	0	0
5410	249	250	244
5411	252	253	244
5412	252	255	245
5413	254	255	247
5414	253	255	245
5415	251	252	243
5416	251	250	243
5417	250	248	245
5418	249	245	243
5419	245	239	239
5420	246	243	242
5421	250	248	245
5422	247	243	242
5423	243	238	240
5424	241	236	239
5425	238	232	235
5426	245	240	240
5427	249	247	243
5428	246	245	241
5429	247	246	243
5430	249	247	244
5431	249	247	244
5432	250	248	246
5433	251	250	247
5434	250	249	246
5435	248	247	244
5436	251	251	246
5437	253	255	248
5438	250	251	244
5439	248	247	242
5440	0	0	0
5441	0	0	0
5442	0	0	0
5443	0	0	0
5444	0	0	0
5445	0	0	0
5446	0	0	0
5447	0	0	0
5448	0	0	0
5449	0	0	0
5450	0	0	0
5451	0	0	0
5452	0	0	0
5453	0	0	0
5454	0	0	0
5455	0	0	0
5456	0	0	0
5457	0	0	0
5458	0	0	0
5459	0	0	0
5460	0	0	0
5461	0	0	0
5462	0	0	0
5463	0	0	0
5464	249	250	242
5465	251	253	244
5466	251	252	242
5467	248	248	240
5468	249	249	242
5469	248	247	241
5470	249	247	244
5471	248	244	244
5472	248	244	243
5473	250	248	246
5474	249	248	245
5475	246	242	241
5476	251	249	247
5477	249	247	246
5478	245	242	243
5479	252	250	248
5480	253	251	247
5481	251	250	244
5482	249	248	244
5483	250	249	246
5484	248	246	244
5485	249	247	245
5486	251	250	247
5487	250	249	246
5488	249	248	244
5489	251	251	246
5490	248	247	243
5491	246	243	240
5492	0	0	0
5493	0	0	0
5494	0	0	0
5495	0	0	0
5496	0	0	0
5497	0	0	0
5498	0	0	0
5499	0	0	0
5500	0	0	0
5501	0	0	0
5502	0	0	0
5503	0	0	0
5504	0	0	0
5505	0	0	0
5506	0	0	0
5507	0	0	0
5508	0	0	0
5509	0	0	0
5510	0	0	0
5511	0	0	0
5512	0	0	0
5513	0	0	0
5514	0	0	0
5515	0	0	0
5516	0	0	0
5517	0	0	0
5518	248	248	242
5519	248	247	240
5520	248	247	241
5521	249	249	244
5522	248	247	243
5523	248	247	243
5524	249	247	243
5525	249	247	244
5526	249	248	245
5527	249	248	245
5528	253	253	248
5529	255	255	248
5530	251	252	245
5531	248	248	243
5532	252	251	246
5533	252	252	246
5534	251	251	245
5535	250	249	245
5536	249	247	245
5537	247	244	243
5538	249	247	245
5539	251	250	245
5540	249	248	243
5541	248	246	242
5542	245	243	239
5543	242	238	237
5544	0	0	0
5545	0	0	0
5546	0	0	0
5547	0	0	0
5548	0	0	0
5549	0	0	0
5550	0	0	0
5551	0	0	0
5552	0	0	0
5553	0	0	0
5554	0	0	0
5555	0	0	0
5556	0	0	0
5557	0	0	0
5558	0	0	0
5559	0	0	0
5560	0	0	0
5561	0	0	0
5562	0	0	0
5563	0	0	0
5564	0	0	0
5565	0	0	0
5566	0	0	0
5567	0	0	0
5568	0	0	0
5569	0	0	0
5570	0	0	0
5571	0	0	0
5572	248	246	241
5573	248	246	242
5574	248	246	244
5575	246	245	242
5576	247	247	243
5577	247	246	242
5578	250	250	246
5579	250	251	247
5580	243	241	240
5581	247	247	243
5582	253	255	246
5583	249	250	241
5584	247	248	241
5585	249	250	244
5586	249	250	243
5587	250	250	244
5588	247	244	241
5589	246	242	241
5590	250	248	245
5591	251	250	246
5592	249	248	242
5593	247	246	241
5594	249	248	242
5595	246	244	240
5596	0	0	0
5597	0	0	0
5598	0	0	0
5599	0	0	0
5600	0	0	0
5601	0	0	0
5602	0	0	0
5603	0	0	0
5604	0	0	0
5605	0	0	0
5606	0	0	0
5607	0	0	0
5608	0	0	0
5609	0	0	0
5610	0	0	0
5611	0	0	0
5612	0	0	0
5613	0	0	0
5614	0	0	0
5615	0	0	0
5616	0	0	0
5617	0	0	0
5618	0	0	0
5619	0	0	0
5620	0	0	0
5621	0	0	0
5622	0	0	0
5623	0	0	0
5624	0	0	0
5625	0	0	0
5626	246	244	242
5627	245	243	242
5628	247	246	244
5629	248	248	244
5630	249	250	244
5631	252	254	247
5632	245	245	242
5633	238	236	235
5634	246	247	242
5635	253	255	248
5636	251	253	245
5637	249	251	244
5638	247	249	243
5639	247	249	243
5640	246	244	240
5641	242	238	237
5642	246	243	240
5643	249	249	243
5644	248	247	241
5645	246	245	240
5646	248	247	242
5647	250	249	244
5648	250	249	244
5649	249	248	244
5650	0	0	0
5651	0	0	0
5652	0	0	0
5653	0	0	0
5654	0	0	0
5655	0	0	0
5656	0	0	0
5657	0	0	0
5658	0	0	0
5659	0	0	0
5660	0	0	0
5661	0	0	0
5662	0	0	0
5663	0	0	0
5664	0	0	0
5665	0	0	0
5666	0	0	0
5667	0	0	0
5668	0	0	0
5669	0	0	0
5670	0	0	0
5671	0	0	0
5672	0	0	0
5673	0	0	0
5674	0	0	0
5675	0	0	0
5676	0	0	0
5677	0	0	0
5678	0	0	0
5679	0	0	0
5680	0	0	0
5681	249	248	246
5682	247	246	243
5683	248	248	243
5684	253	255	249
5685	247	248	243
5686	241	238	236
5687	249	250	244
5688	251	253	246
5689	249	250	243
5690	249	250	243
5691	246	248	242
5692	249	251	245
5693	247	246	242
5694	244	242	239
5695	246	247	242
5696	249	252	243
5697	249	251	243
5698	247	247	242
5699	248	249	244
5700	247	247	242
5701	248	247	243
5702	250	249	245
5703	0	0	0
5704	0	0	0
5705	0	0	0
5706	0	0	0
5707	0	0	0
5708	0	0	0
5709	0	0	0
5710	0	0	0
5711	0	0	0
5712	0	0	0
5713	0	0	0
5714	0	0	0
5715	0	0	0
5716	0	0	0
5717	0	0	0
5718	0	0	0
5719	0	0	0
5720	0	0	0
5721	0	0	0
5722	0	0	0
5723	0	0	0
5724	0	0	0
5725	0	0	0
5726	0	0	0
5727	0	0	0
5728	0	0	0
5729	0	0	0
5730	0	0	0
5731	0	0	0
5732	0	0	0
5733	0	0	0
5734	249	248	245
5735	247	246	244
5736	250	251	246
5737	254	255	248
5738	248	249	242
5739	242	240	237
5740	246	246	241
5741	249	250	243
5742	249	250	243
5743	249	250	243
5744	248	251	243
5745	250	253	246
5746	250	251	245
5747	247	247	243
5748	249	252	245
5749	251	255	246
5750	250	252	243
5751	248	248	243
5752	247	247	244
5753	245	245	242
5754	249	248	244
5755	251	250	245
5756	0	0	0
5757	0	0	0
5758	0	0	0
5759	0	0	0
5760	0	0	0
5761	0	0	0
5762	0	0	0
5763	0	0	0
5764	0	0	0
5765	0	0	0
5766	0	0	0
5767	0	0	0
5768	0	0	0
5769	0	0	0
5770	0	0	0
5771	0	0	0
5772	0	0	0
5773	0	0	0
5774	0	0	0
5775	0	0	0
5776	0	0	0
5777	0	0	0
5778	0	0	0
5779	0	0	0
5780	0	0	0
5781	0	0	0
5782	0	0	0
5783	0	0	0
5784	0	0	0
5785	0	0	0
5786	0	0	0
5787	248	246	245
5788	246	245	244
5789	249	250	245
5790	252	255	247
5791	246	247	240
5792	246	245	240
5793	250	251	245
5794	248	248	242
5795	249	248	242
5796	247	247	241
5797	246	248	241
5798	247	249	242
5799	245	246	241
5800	247	247	242
5801	251	253	246
5802	251	253	244
5803	246	247	240
5804	246	246	242
5805	245	245	242
5806	247	247	244
5807	250	249	246
5808	250	248	244
5809	0	0	0
5810	0	0	0
5811	0	0	0
5812	0	0	0
5813	0	0	0
5814	0	0	0
5815	0	0	0
5816	0	0	0
5817	0	0	0
5818	0	0	0
5819	0	0	0
5820	0	0	0
5821	0	0	0
5822	0	0	0
5823	0	0	0
5824	0	0	0
5825	0	0	0
5826	0	0	0
5827	0	0	0
5828	0	0	0
5829	0	0	0
5830	0	0	0
5831	0	0	0
5832	0	0	0
5833	0	0	0
5834	0	0	0
5835	0	0	0
5836	0	0	0
5837	0	0	0
5838	0	0	0
5839	0	0	0
5840	247	244	244
5841	245	243	242
5842	249	249	246
5843	253	255	248
5844	251	253	245
5845	251	251	245
5846	249	249	244
5847	247	246	242
5848	248	246	243
5849	247	245	243
5850	246	246	241
5851	245	246	239
5852	245	246	239
5853	247	248	241
5854	249	248	242
5855	248	248	241
5856	245	245	239
5857	244	243	240
5858	246	246	244
5859	248	248	245
5860	248	247	244
5861	248	246	243
5862	247	245	242
5863	0	0	0
5864	0	0	0
5865	0	0	0
5866	0	0	0
5867	0	0	0
5868	0	0	0
5869	0	0	0
5870	0	0	0
5871	0	0	0
5872	0	0	0
5873	0	0	0
5874	0	0	0
5875	0	0	0
5876	0	0	0
5877	0	0	0
5878	0	0	0
5879	0	0	0
5880	0	0	0
5881	0	0	0
5882	0	0	0
5883	0	0	0
5884	0	0	0
5885	0	0	0
5886	0	0	0
5887	0	0	0
5888	0	0	0
5889	0	0	0
5890	0	0	0
5891	0	0	0
5892	248	246	244
5893	248	247	245
5894	246	244	242
5895	251	251	246
5896	251	251	245
5897	248	247	242
5898	248	247	242
5899	247	245	242
5900	245	242	240
5901	245	242	241
5902	250	249	246
5903	249	249	244
5904	246	246	239
5905	247	247	238
5906	252	253	244
5907	252	253	244
5908	249	249	242
5909	248	247	241
5910	248	248	244
5911	249	250	246
5912	245	245	243
5913	247	245	243
5914	249	247	244
5915	249	247	244
5916	247	245	241
5917	0	0	0
5918	0	0	0
5919	0	0	0
5920	0	0	0
5921	0	0	0
5922	0	0	0
5923	0	0	0
5924	0	0	0
5925	0	0	0
5926	0	0	0
5927	0	0	0
5928	0	0	0
5929	0	0	0
5930	0	0	0
5931	0	0	0
5932	0	0	0
5933	0	0	0
5934	0	0	0
5935	0	0	0
5936	0	0	0
5937	0	0	0
5938	0	0	0
5939	0	0	0
5940	0	0	0
5941	0	0	0
5942	0	0	0
5943	0	0	0
5944	0	0	0
5945	250	249	246
5946	248	247	244
5947	246	243	240
5948	247	244	240
5949	247	244	241
5950	244	242	239
5951	244	241	239
5952	243	239	238
5953	241	236	238
5954	247	244	244
5955	251	251	247
5956	249	249	243
5957	247	246	240
5958	251	252	243
5959	255	255	246
5960	252	253	243
5961	250	249	242
5962	251	251	244
5963	252	252	246
5964	246	247	242
5965	243	242	240
5966	247	246	244
5967	250	249	247
5968	249	248	245
5969	0	0	0
5970	0	0	0
5971	0	0	0
5972	0	0	0
5973	0	0	0
5974	0	0	0
5975	0	0	0
5976	0	0	0
5977	0	0	0
5978	0	0	0
5979	0	0	0
5980	0	0	0
5981	0	0	0
5982	0	0	0
5983	0	0	0
5984	0	0	0
5985	0	0	0
5986	0	0	0
5987	0	0	0
5988	0	0	0
5989	0	0	0
5990	0	0	0
5991	0	0	0
5992	0	0	0
5993	0	0	0
5994	0	0	0
5995	0	0	0
5996	0	0	0
5997	0	0	0
5998	250	248	245
5999	248	245	243
6000	248	245	242
6001	249	246	242
6002	252	250	245
6003	249	247	244
6004	249	249	245
6005	249	247	245
6006	247	244	245
6007	251	251	249
6008	248	248	244
6009	246	245	240
6010	246	246	240
6011	250	252	244
6012	249	250	242
6013	247	246	239
6014	249	249	241
6015	250	250	243
6016	250	250	244
6017	246	245	242
6018	249	249	245
6019	252	252	248
6020	0	0	0
6021	0	0	0
6022	0	0	0
6023	0	0	0
6024	0	0	0
6025	0	0	0
6026	0	0	0
6027	0	0	0
6028	0	0	0
6029	0	0	0
6030	0	0	0
6031	0	0	0
6032	0	0	0
6033	0	0	0
6034	0	0	0
6035	0	0	0
6036	0	0	0
6037	0	0	0
6038	0	0	0
6039	0	0	0
6040	0	0	0
6041	0	0	0
6042	0	0	0
6043	0	0	0
6044	0	0	0
6045	0	0	0
6046	0	0	0
6047	0	0	0
6048	0	0	0
6049	0	0	0
6050	0	0	0
6051	0	0	0
6052	249	246	246
6053	249	247	245
6054	252	251	247
6055	255	255	249
6056	254	255	249
6057	255	255	250
6058	253	253	249
6059	250	250	248
6060	248	248	246
6061	245	244	241
6062	246	245	240
6063	247	247	241
6064	245	245	241
6065	245	244	241
6066	248	247	243
6067	250	249	244
6068	249	249	243
6069	250	250	245
6070	251	252	247
6071	253	255	250
6072	0	0	0
6073	0	0	0
6074	0	0	0
6075	0	0	0
6076	0	0	0
6077	0	0	0
6078	0	0	0
6079	0	0	0
6080	0	0	0
6081	0	0	0
6082	0	0	0
6083	0	0	0
6084	0	0	0
6085	0	0	0
6086	0	0	0
6087	0	0	0
6088	0	0	0
6089	0	0	0
6090	0	0	0
6091	0	0	0
6092	0	0	0
6093	0	0	0
6094	0	0	0
6095	0	0	0
6096	0	0	0
6097	0	0	0
6098	0	0	0
6099	0	0	0
6100	0	0	0
6101	0	0	0
6102	0	0	0
6103	0	0	0
6104	0	0	0
6105	0	0	0
6106	248	247	245
6107	0	0	0
6108	250	251	246
6109	251	252	246
6110	250	249	245
6111	246	245	243
6112	246	246	243
6113	246	245	242
6114	248	247	242
6115	249	249	243
6116	250	250	245
6117	248	248	244
6118	246	245	243
6119	250	249	246
6120	249	249	244
6121	247	247	243
6122	249	249	245
6123	250	251	247
6124	0	0	0
6125	0	0	0
6126	0	0	0
6127	0	0	0
6128	0	0	0
6129	0	0	0
6130	0	0	0
6131	0	0	0
6132	0	0	0
6133	0	0	0
6134	0	0	0
6135	0	0	0
6136	0	0	0
6137	0	0	0
6138	0	0	0
6139	0	0	0
6140	0	0	0
6141	0	0	0
6142	0	0	0
6143	0	0	0
6144	0	0	0
6145	0	0	0
6146	0	0	0
6147	0	0	0
6148	0	0	0
6149	0	0	0
6150	0	0	0
6151	0	0	0
6152	0	0	0
6153	0	0	0
6154	0	0	0
6155	0	0	0
6156	0	0	0
6157	0	0	0
6158	0	0	0
6159	0	0	0
6160	0	0	0
6161	0	0	0
6162	0	0	0
6163	245	243	241
6164	244	243	241
6165	245	244	242
6166	248	248	244
6167	250	250	244
6168	250	251	244
6169	250	251	246
6170	249	249	245
6171	248	246	244
6172	248	247	244
6173	248	247	243
6174	248	248	244
6175	248	249	244
6176	248	250	243
6177	0	0	0
6178	0	0	0
6179	0	0	0
6180	0	0	0
6181	0	0	0
6182	0	0	0
6183	0	0	0
6184	0	0	0
6185	0	0	0
6186	0	0	0
6187	0	0	0
6188	0	0	0
6189	0	0	0
6190	0	0	0
6191	0	0	0
6192	0	0	0
6193	0	0	0
6194	0	0	0
6195	0	0	0
6196	0	0	0
6197	0	0	0
6198	0	0	0
6199	0	0	0
6200	0	0	0
6201	0	0	0
6202	0	0	0
6203	0	0	0
6204	0	0	0
6205	0	0	0
6206	0	0	0
6207	0	0	0
6208	0	0	0
6209	0	0	0
6210	0	0	0
6211	0	0	0
6212	0	0	0
6213	0	0	0
6214	0	0	0
6215	0	0	0
6216	0	0	0
6217	251	251	246
6218	245	243	240
6219	247	246	242
6220	249	250	243
6221	247	249	243
6222	248	249	244
6223	249	249	245
6224	245	243	241
6225	245	243	241
6226	248	248	244
6227	248	249	244
6228	247	249	243
6229	246	249	242
6230	0	0	0
6231	0	0	0
6232	0	0	0
6233	0	0	0
6234	0	0	0
6235	0	0	0
6236	0	0	0
6237	0	0	0
6238	0	0	0
6239	0	0	0
6240	0	0	0
6241	0	0	0
6242	0	0	0
6243	0	0	0
6244	0	0	0
6245	0	0	0
6246	0	0	0
6247	0	0	0
6248	0	0	0
6249	0	0	0
6250	0	0	0
6251	0	0	0
6252	0	0	0
6253	0	0	0
6254	0	0	0
6255	0	0	0
6256	0	0	0
6257	0	0	0
6258	0	0	0
6259	0	0	0
6260	0	0	0
6261	0	0	0
6262	0	0	0
6263	0	0	0
6264	0	0	0
6265	0	0	0
6266	0	0	0
6267	0	0	0
6268	0	0	0
6269	0	0	0
6270	249	248	242
6271	243	240	237
6272	247	246	241
6273	248	249	243
6274	246	247	242
6275	247	248	244
6276	246	245	243
6277	243	239	240
6278	247	245	243
6279	249	249	245
6280	249	250	244
6281	248	250	244
6282	247	250	243
6283	248	251	243
6284	0	0	0
6285	0	0	0
6286	0	0	0
6287	0	0	0
6288	0	0	0
6289	0	0	0
6290	0	0	0
6291	0	0	0
6292	0	0	0
6293	0	0	0
6294	0	0	0
6295	0	0	0
6296	0	0	0
6297	0	0	0
6298	0	0	0
6299	0	0	0
6300	0	0	0
6301	0	0	0
6302	0	0	0
6303	0	0	0
6304	0	0	0
6305	0	0	0
6306	0	0	0
6307	0	0	0
6308	0	0	0
6309	0	0	0
6310	0	0	0
6311	0	0	0
6312	0	0	0
6313	0	0	0
6314	0	0	0
6315	0	0	0
6316	0	0	0
6317	0	0	0
6318	0	0	0
6319	0	0	0
6320	0	0	0
6321	0	0	0
6322	0	0	0
6323	0	0	0
6324	245	244	240
6325	250	250	245
6326	248	248	243
6327	245	245	242
6328	248	249	245
6329	247	245	243
6330	246	243	243
6331	250	250	247
6332	247	246	243
6333	247	247	242
6334	251	253	246
6335	251	253	245
6336	0	0	0
6337	0	0	0
6338	0	0	0
6339	0	0	0
6340	0	0	0
6341	0	0	0
6342	0	0	0
6343	0	0	0
6344	0	0	0
6345	0	0	0
6346	0	0	0
6347	0	0	0
6348	0	0	0
6349	0	0	0
6350	0	0	0
6351	0	0	0
6352	0	0	0
6353	0	0	0
6354	0	0	0
6355	0	0	0
6356	0	0	0
6357	0	0	0
6358	0	0	0
6359	0	0	0
6360	0	0	0
6361	0	0	0
6362	0	0	0
6363	0	0	0
6364	0	0	0
6365	0	0	0
6366	0	0	0
6367	0	0	0
6368	0	0	0
6369	0	0	0
6370	0	0	0
6371	0	0	0
6372	0	0	0
6373	0	0	0
6374	0	0	0
6375	0	0	0
6376	247	248	243
6377	248	249	244
6378	248	248	245
6379	247	245	243
6380	248	248	245
6381	250	251	246
6382	248	248	244
6383	247	247	244
6384	247	246	244
6385	245	243	241
6386	249	249	244
6387	253	254	246
6388	247	246	240
6389	241	239	236
6390	0	0	0
6391	0	0	0
6392	0	0	0
6393	0	0	0
6394	0	0	0
6395	0	0	0
6396	0	0	0
6397	0	0	0
6398	0	0	0
6399	0	0	0
6400	0	0	0
6401	0	0	0
6402	0	0	0
6403	0	0	0
6404	0	0	0
6405	0	0	0
6406	0	0	0
6407	0	0	0
6408	0	0	0
6409	0	0	0
6410	0	0	0
6411	0	0	0
6412	0	0	0
6413	0	0	0
6414	0	0	0
6415	0	0	0
6416	0	0	0
6417	0	0	0
6418	0	0	0
6419	0	0	0
6420	0	0	0
6421	0	0	0
6422	0	0	0
6423	0	0	0
6424	0	0	0
6425	0	0	0
6426	0	0	0
6427	0	0	0
6428	0	0	0
6429	247	246	243
6430	249	249	245
6431	248	248	245
6432	248	247	245
6433	250	250	247
6434	248	248	244
6435	244	244	241
6436	247	247	243
6437	248	248	244
6438	245	243	241
6439	249	249	244
6440	249	249	243
6441	244	242	237
6442	244	242	239
6443	0	0	0
6444	0	0	0
6445	0	0	0
6446	0	0	0
6447	0	0	0
6448	0	0	0
6449	0	0	0
6450	0	0	0
6451	0	0	0
6452	0	0	0
6453	0	0	0
6454	0	0	0
6455	0	0	0
6456	0	0	0
6457	0	0	0
6458	0	0	0
6459	0	0	0
6460	0	0	0
6461	0	0	0
6462	0	0	0
6463	0	0	0
6464	0	0	0
6465	0	0	0
6466	0	0	0
6467	0	0	0
6468	0	0	0
6469	0	0	0
6470	0	0	0
6471	0	0	0
6472	0	0	0
6473	0	0	0
6474	0	0	0
6475	0	0	0
6476	0	0	0
6477	0	0	0
6478	0	0	0
6479	0	0	0
6480	0	0	0
6481	0	0	0
6482	247	247	243
6483	249	249	244
6484	249	248	244
6485	248	247	244
6486	248	247	244
6487	246	245	242
6488	245	246	242
6489	247	249	243
6490	246	245	241
6491	244	241	239
6492	246	243	241
6493	246	244	241
6494	247	245	242
6495	247	246	243
6496	0	0	0
6497	0	0	0
6498	0	0	0
6499	0	0	0
6500	0	0	0
6501	0	0	0
6502	0	0	0
6503	0	0	0
6504	0	0	0
6505	0	0	0
6506	0	0	0
6507	0	0	0
6508	0	0	0
6509	0	0	0
6510	0	0	0
6511	0	0	0
6512	0	0	0
6513	0	0	0
6514	0	0	0
6515	0	0	0
6516	0	0	0
6517	0	0	0
6518	0	0	0
6519	0	0	0
6520	0	0	0
6521	0	0	0
6522	0	0	0
6523	0	0	0
6524	0	0	0
6525	0	0	0
6526	0	0	0
6527	0	0	0
6528	0	0	0
6529	0	0	0
6530	0	0	0
6531	0	0	0
6532	0	0	0
6533	0	0	0
6534	0	0	0
6535	0	0	0
6536	250	251	245
6537	249	249	244
6538	248	248	243
6539	0	0	0
6540	246	247	243
6541	247	249	244
6542	245	246	241
6543	243	242	238
6544	247	247	242
6545	250	249	245
6546	249	246	244
6547	250	248	245
6548	249	248	245
6549	0	0	0
6550	0	0	0
6551	0	0	0
6552	0	0	0
6553	0	0	0
6554	0	0	0
6555	0	0	0
6556	0	0	0
6557	0	0	0
6558	0	0	0
6559	0	0	0
6560	0	0	0
6561	0	0	0
6562	0	0	0
6563	0	0	0
6564	0	0	0
6565	0	0	0
6566	0	0	0
6567	0	0	0
6568	0	0	0
6569	0	0	0
6570	0	0	0
6571	0	0	0
6572	0	0	0
6573	0	0	0
6574	0	0	0
6575	0	0	0
6576	0	0	0
6577	0	0	0
6578	0	0	0
6579	0	0	0
6580	0	0	0
6581	0	0	0
6582	0	0	0
6583	0	0	0
6584	0	0	0
6585	0	0	0
6586	0	0	0
6587	0	0	0
6588	0	0	0
6589	0	0	0
6590	249	250	244
6591	0	0	0
6592	0	0	0
6593	0	0	0
6594	246	246	243
6595	244	244	240
6596	246	247	241
6597	250	251	244
6598	250	249	243
6599	249	247	243
6600	250	248	245
6601	0	0	0
6602	0	0	0
6603	0	0	0
6604	0	0	0
6605	0	0	0
6606	0	0	0
6607	0	0	0
6608	0	0	0
6609	0	0	0
6610	0	0	0
6611	0	0	0
6612	0	0	0
6613	0	0	0
6614	0	0	0
6615	0	0	0
6616	0	0	0
6617	0	0	0
6618	0	0	0
6619	0	0	0
6620	0	0	0
6621	0	0	0
6622	0	0	0
6623	0	0	0
6624	0	0	0
6625	0	0	0
6626	0	0	0
6627	0	0	0
6628	0	0	0
6629	0	0	0
6630	0	0	0
6631	0	0	0
6632	0	0	0
6633	0	0	0
6634	0	0	0
6635	0	0	0
6636	0	0	0
6637	0	0	0
6638	0	0	0
6639	0	0	0
6640	0	0	0
6641	0	0	0
6642	0	0	0
6643	0	0	0
6644	0	0	0
6645	0	0	0
6646	0	0	0
6647	0	0	0
6648	0	0	0
6649	0	0	0
6650	251	252	245
6651	251	250	243
6652	248	246	242
6653	0	0	0
6654	0	0	0
6655	0	0	0
6656	0	0	0
6657	0	0	0
6658	0	0	0
6659	0	0	0
6660	0	0	0
6661	0	0	0
6662	0	0	0
6663	0	0	0
6664	0	0	0
6665	0	0	0
6666	0	0	0
6667	0	0	0
6668	0	0	0
6669	0	0	0
6670	0	0	0
6671	0	0	0
6672	0	0	0
6673	0	0	0
6674	0	0	0
6675	0	0	0
6676	0	0	0
6677	0	0	0
6678	0	0	0
6679	0	0	0
6680	0	0	0
6681	0	0	0
6682	0	0	0
6683	0	0	0
6684	0	0	0
6685	0	0	0
6686	0	0	0
6687	0	0	0
6688	0	0	0
6689	0	0	0
6690	0	0	0
6691	0	0	0
6692	0	0	0
6693	0	0	0
6694	0	0	0
6695	0	0	0
6696	0	0	0
6697	0	0	0
6698	0	0	0
6699	0	0	0
6700	0	0	0
6701	0	0	0
6702	0	0	0
6703	0	0	0
6704	250	250	244
6705	0	0	0
6706	0	0	0
6707	0	0	0
6708	0	0	0
6709	0	0	0
6710	0	0	0
6711	0	0	0
6712	0	0	0
6713	0	0	0
6714	0	0	0
6715	0	0	0
6716	0	0	0
6717	0	0	0
6718	0	0	0
6719	0	0	0
6720	0	0	0
6721	0	0	0
6722	0	0	0
6723	0	0	0
6724	0	0	0
6725	0	0	0
6726	0	0	0
6727	0	0	0
6728	0	0	0
6729	0	0	0
6730	0	0	0
6731	0	0	0
