 	R	G	B
1	0	0	0
2	0	0	0
3	0	0	0
4	0	0	0
5	0	0	0
6	0	0	0
7	0	0	0
8	0	0	0
9	0	0	0
10	0	0	0
11	0	0	0
12	0	0	0
13	0	0	0
14	0	0	0
15	0	0	0
16	0	0	0
17	0	0	0
18	0	0	0
19	0	0	0
20	0	0	0
21	0	0	0
22	0	0	0
23	0	0	0
24	254	254	250
25	255	255	252
26	255	255	252
27	255	255	252
28	255	255	250
29	0	0	0
30	0	0	0
31	0	0	0
32	0	0	0
33	0	0	0
34	0	0	0
35	0	0	0
36	0	0	0
37	0	0	0
38	0	0	0
39	0	0	0
40	0	0	0
41	0	0	0
42	0	0	0
43	0	0	0
44	0	0	0
45	0	0	0
46	0	0	0
47	0	0	0
48	0	0	0
49	0	0	0
50	0	0	0
51	0	0	0
52	0	0	0
53	0	0	0
54	0	0	0
55	0	0	0
56	0	0	0
57	0	0	0
58	251	251	246
59	253	253	248
60	253	251	248
61	255	255	251
62	255	254	250
63	253	253	249
64	253	253	248
65	251	251	247
66	253	253	249
67	0	0	0
68	0	0	0
69	0	0	0
70	0	0	0
71	0	0	0
72	0	0	0
73	0	0	0
74	0	0	0
75	0	0	0
76	0	0	0
77	0	0	0
78	0	0	0
79	0	0	0
80	0	0	0
81	0	0	0
82	0	0	0
83	0	0	0
84	0	0	0
85	0	0	0
86	0	0	0
87	0	0	0
88	255	255	251
89	0	0	0
90	0	0	0
91	0	0	0
92	254	254	251
93	254	254	250
94	253	254	248
95	253	254	247
96	252	252	246
97	252	251	248
98	253	251	250
99	252	250	248
100	251	250	247
101	251	250	247
102	252	252	248
103	254	254	250
104	253	252	249
105	0	0	0
106	253	252	250
107	0	0	0
108	0	0	0
109	0	0	0
110	0	0	0
111	0	0	0
112	0	0	0
113	0	0	0
114	0	0	0
115	0	0	0
116	0	0	0
117	0	0	0
118	0	0	0
119	0	0	0
120	0	0	0
121	0	0	0
122	0	0	0
123	0	0	0
124	254	255	251
125	255	255	251
126	251	250	247
127	0	0	0
128	255	255	252
129	255	255	252
130	252	249	248
131	252	249	246
132	254	254	248
133	252	251	245
134	253	252	249
135	254	253	251
136	252	251	248
137	252	251	248
138	254	253	249
139	255	255	251
140	255	254	251
141	252	251	249
142	254	254	251
143	255	255	252
144	253	253	249
145	0	0	0
146	0	0	0
147	0	0	0
148	0	0	0
149	0	0	0
150	0	0	0
151	0	0	0
152	0	0	0
153	0	0	0
154	0	0	0
155	0	0	0
156	0	0	0
157	0	0	0
158	0	0	0
159	0	0	0
160	0	0	0
161	254	255	250
162	252	253	248
163	247	245	244
164	251	251	248
165	255	255	252
166	254	252	250
167	249	244	244
168	253	250	248
169	255	254	250
170	253	253	248
171	254	254	249
172	254	253	249
173	253	252	249
174	255	255	251
175	255	255	251
176	255	255	251
177	255	254	252
178	255	255	253
179	255	255	251
180	254	253	249
181	250	248	246
182	0	0	0
183	0	0	0
184	0	0	0
185	0	0	0
186	0	0	0
187	0	0	0
188	0	0	0
189	0	0	0
190	0	0	0
191	0	0	0
192	0	0	0
193	0	0	0
194	0	0	0
195	0	0	0
196	0	0	0
197	0	0	0
198	252	252	247
199	247	245	243
200	250	250	247
201	254	255	251
202	255	255	251
203	253	251	248
204	250	246	246
205	254	252	250
206	254	254	250
207	253	253	248
208	255	254	249
209	254	253	249
210	254	252	249
211	255	255	251
212	254	253	249
213	254	252	248
214	253	253	250
215	254	254	251
216	254	255	250
217	252	251	247
218	252	250	248
219	253	252	250
220	253	253	250
221	0	0	0
222	0	0	0
223	0	0	0
224	0	0	0
225	0	0	0
226	0	0	0
227	0	0	0
228	0	0	0
229	0	0	0
230	0	0	0
231	0	0	0
232	0	0	0
233	0	0	0
234	252	252	247
235	248	246	244
236	251	251	247
237	254	255	249
238	254	255	249
239	255	255	250
240	253	253	249
241	250	248	246
242	252	250	248
243	252	252	248
244	253	253	248
245	254	254	248
246	253	252	247
247	253	252	249
248	253	252	250
249	252	250	246
250	252	250	246
251	252	251	247
252	252	252	248
253	253	253	248
254	254	254	249
255	254	254	251
256	255	255	252
257	255	255	251
258	254	255	250
259	0	0	0
260	0	0	0
261	0	0	0
262	0	0	0
263	0	0	0
264	0	0	0
265	0	0	0
266	0	0	0
267	0	0	0
268	0	0	0
269	0	0	0
270	255	255	250
271	252	252	247
272	250	249	247
273	254	255	250
274	253	254	248
275	254	255	248
276	255	255	249
277	250	248	246
278	252	252	248
279	255	255	251
280	253	252	248
281	253	253	248
282	252	253	247
283	251	251	246
284	254	254	250
285	255	255	252
286	253	251	248
287	253	251	247
288	254	254	248
289	254	255	249
290	254	255	249
291	255	255	251
292	252	250	249
293	252	250	250
294	253	252	249
295	253	252	248
296	0	0	0
297	0	0	0
298	0	0	0
299	0	0	0
300	0	0	0
301	0	0	0
302	0	0	0
303	0	0	0
304	0	0	0
305	0	0	0
306	0	0	0
307	255	255	250
308	254	255	249
309	252	252	248
310	252	252	248
311	252	251	247
312	253	252	248
313	253	252	249
314	254	254	251
315	255	255	251
316	255	255	250
317	252	252	248
318	252	252	248
319	252	253	248
320	253	254	249
321	255	255	251
322	255	254	251
323	254	252	250
324	255	255	251
325	255	255	250
326	255	255	249
327	255	255	250
328	253	251	249
329	250	245	247
330	251	248	249
331	251	250	248
332	253	252	248
333	0	0	0
334	0	0	0
335	0	0	0
336	0	0	0
337	0	0	0
338	0	0	0
339	0	0	0
340	0	0	0
341	0	0	0
342	0	0	0
343	0	0	0
344	254	255	249
345	252	252	247
346	252	252	247
347	252	253	248
348	255	255	250
349	255	255	251
350	252	250	248
351	254	253	251
352	255	255	251
353	255	254	249
354	253	252	247
355	253	253	248
356	255	255	250
357	255	255	251
358	253	253	249
359	252	250	248
360	255	254	252
361	255	255	252
362	252	251	248
363	251	249	246
364	255	255	251
365	253	250	249
366	252	249	250
367	254	252	252
368	252	251	249
369	0	0	0
370	0	0	0
371	0	0	0
372	0	0	0
373	0	0	0
374	0	0	0
375	0	0	0
376	0	0	0
377	0	0	0
378	0	0	0
379	0	0	0
380	0	0	0
381	254	255	249
382	253	254	248
383	253	254	248
384	255	255	249
385	255	255	248
386	254	254	248
387	250	249	247
388	254	254	251
389	255	255	251
390	255	255	249
391	254	252	247
392	255	255	249
393	255	255	250
394	255	254	250
395	252	250	247
396	254	254	250
397	255	255	251
398	253	251	249
399	248	245	245
400	251	250	249
401	255	255	252
402	255	253	251
403	254	252	250
404	253	252	250
405	252	251	249
406	0	0	0
407	0	0	0
408	0	0	0
409	0	0	0
410	0	0	0
411	0	0	0
412	0	0	0
413	0	0	0
414	0	0	0
415	0	0	0
416	0	0	0
417	0	0	0
418	254	253	248
419	253	252	246
420	253	253	246
421	254	255	246
422	255	255	248
423	252	251	246
424	251	249	247
425	255	254	251
426	255	254	250
427	253	251	247
428	253	251	246
429	255	254	249
430	255	254	250
431	253	251	248
432	253	251	248
433	255	254	250
434	255	255	250
435	251	249	247
436	252	250	249
437	255	255	253
438	254	254	251
439	253	252	250
440	253	252	249
441	253	252	249
442	254	253	250
443	255	255	253
444	0	0	0
445	0	0	0
446	0	0	0
447	0	0	0
448	0	0	0
449	0	0	0
450	0	0	0
451	0	0	0
452	0	0	0
453	0	0	0
454	0	0	0
455	0	0	0
456	253	252	246
457	253	253	243
458	252	252	243
459	254	254	247
460	253	252	248
461	252	249	246
462	253	251	248
463	253	251	248
464	253	251	248
465	254	251	248
466	255	252	249
467	255	252	249
468	255	252	249
469	254	252	249
470	254	252	248
471	255	254	249
472	255	254	249
473	255	254	251
474	254	254	250
475	253	253	249
476	254	253	250
477	254	253	250
478	253	253	249
479	254	253	250
480	0	0	0
481	0	0	0
482	0	0	0
483	0	0	0
484	0	0	0
485	0	0	0
486	0	0	0
487	0	0	0
488	0	0	0
489	0	0	0
490	0	0	0
491	0	0	0
492	253	251	248
493	254	253	247
494	254	254	244
495	254	254	245
496	254	253	248
497	253	251	248
498	252	249	247
499	254	252	248
500	254	251	248
501	255	251	248
502	255	252	249
503	255	252	249
504	254	250	247
505	253	249	247
506	255	252	248
507	255	252	249
508	254	252	248
509	254	252	248
510	254	252	249
511	253	251	248
512	253	252	249
513	254	253	250
514	252	249	247
515	251	249	247
516	0	0	0
517	0	0	0
518	0	0	0
519	0	0	0
520	0	0	0
521	0	0	0
522	0	0	0
523	0	0	0
524	0	0	0
525	0	0	0
526	0	0	0
527	0	0	0
528	0	0	0
529	255	255	250
530	255	255	250
531	255	255	249
532	255	254	248
533	255	253	248
534	254	252	248
535	253	251	247
536	254	250	248
537	254	250	248
538	255	251	248
539	255	251	247
540	254	249	245
541	252	246	244
542	253	248	246
543	254	251	248
544	254	251	248
545	253	250	247
546	253	250	247
547	253	251	248
548	252	251	248
549	253	251	248
550	252	249	247
551	249	246	245
552	0	0	0
553	0	0	0
554	0	0	0
555	0	0	0
556	0	0	0
557	0	0	0
558	0	0	0
559	0	0	0
560	0	0	0
561	0	0	0
562	0	0	0
563	0	0	0
564	0	0	0
565	0	0	0
566	255	252	248
567	255	252	248
568	255	253	248
569	254	250	247
570	255	252	248
571	255	251	248
572	255	251	247
573	254	249	246
574	253	249	246
575	255	250	247
576	255	252	247
577	253	248	245
578	251	246	244
579	253	248	247
580	255	252	250
581	254	251	249
582	252	250	247
583	253	250	247
584	254	252	248
585	253	252	247
586	255	255	250
587	254	252	249
588	251	248	246
589	0	0	0
590	0	0	0
591	0	0	0
592	0	0	0
593	0	0	0
594	0	0	0
595	0	0	0
596	0	0	0
597	0	0	0
598	0	0	0
599	0	0	0
600	0	0	0
601	0	0	0
602	253	245	246
603	255	248	244
604	255	248	243
605	255	250	247
606	255	253	251
607	255	254	250
608	255	254	249
609	255	254	249
610	255	253	248
611	255	252	247
612	255	252	248
613	255	253	249
614	254	249	247
615	251	246	245
616	254	250	248
617	255	254	251
618	253	251	249
619	252	249	247
620	254	252	248
621	254	253	246
622	255	254	247
623	255	255	250
624	255	254	250
625	252	249	247
626	0	0	0
627	0	0	0
628	0	0	0
629	0	0	0
630	0	0	0
631	0	0	0
632	0	0	0
633	0	0	0
634	0	0	0
635	0	0	0
636	0	0	0
637	0	0	0
638	249	240	243
639	255	248	248
640	250	241	239
641	252	242	239
642	255	251	250
643	255	253	252
644	253	240	241
645	254	240	241
646	255	244	242
647	255	243	240
648	255	244	241
649	253	243	242
650	255	252	249
651	252	246	245
652	251	246	246
653	255	251	250
654	255	255	252
655	255	252	249
656	255	252	249
657	255	254	250
658	253	250	245
659	253	251	245
660	254	253	248
661	252	249	247
662	254	251	248
663	0	0	0
664	0	0	0
665	0	0	0
666	0	0	0
667	0	0	0
668	0	0	0
669	0	0	0
670	0	0	0
671	0	0	0
672	0	0	0
673	0	0	0
674	0	0	0
675	252	243	245
676	252	241	244
677	248	236	238
678	255	244	244
679	255	253	251
680	255	240	243
681	247	226	234
682	254	234	239
683	255	237	237
684	255	239	237
685	255	240	241
686	255	247	247
687	255	253	250
688	255	251	248
689	255	251	250
690	255	254	252
691	255	255	250
692	255	255	250
693	255	255	251
694	255	251	248
695	251	247	246
696	251	247	246
697	251	248	246
698	254	251	249
699	255	254	251
700	255	253	251
701	255	253	252
702	255	254	252
703	0	0	0
704	0	0	0
705	0	0	0
706	0	0	0
707	0	0	0
708	0	0	0
709	0	0	0
710	0	0	0
711	0	0	0
712	255	244	246
713	255	242	246
714	249	232	238
715	254	239	243
716	255	249	251
717	255	238	243
718	250	224	236
719	255	233	241
720	251	225	231
721	251	226	231
722	253	231	235
723	255	237	240
724	255	245	245
725	253	241	242
726	255	247	248
727	255	249	249
728	255	250	247
729	255	247	245
730	255	251	248
731	251	246	245
732	254	251	249
733	254	252	250
734	253	251	249
735	255	254	250
736	253	250	249
737	254	250	249
738	255	252	251
739	255	253	252
740	255	254	252
741	0	0	0
742	0	0	0
743	0	0	0
744	0	0	0
745	0	0	0
746	252	241	240
747	253	241	242
748	255	242	244
749	255	244	248
750	255	238	245
751	249	228	237
752	255	238	245
753	255	248	252
754	255	234	243
755	250	221	235
756	250	219	233
757	245	212	226
758	250	219	230
759	250	222	230
760	254	230	234
761	255	238	240
762	255	241	244
763	255	247	250
764	255	248	250
765	255	247	247
766	255	249	247
767	255	252	251
768	255	253	251
769	255	255	252
770	255	254	250
771	254	253	250
772	251	249	247
773	249	245	245
774	252	248	247
775	253	249	248
776	254	251	249
777	253	252	250
778	0	0	0
779	0	0	0
780	0	0	0
781	0	0	0
782	255	241	242
783	255	240	241
784	255	239	242
785	255	238	243
786	255	243	248
787	255	236	245
788	250	223	236
789	255	234	245
790	255	232	244
791	248	217	233
792	251	219	235
793	252	217	235
794	250	214	233
795	255	221	236
796	250	217	228
797	253	224	232
798	255	230	236
799	255	234	240
800	255	235	242
801	255	235	242
802	252	234	239
803	251	235	239
804	254	242	245
805	252	243	244
806	255	255	252
807	253	250	248
808	253	252	248
809	250	247	245
810	253	252	249
811	255	255	251
812	253	249	247
813	254	251	248
814	254	253	250
815	0	0	0
816	0	0	0
817	0	0	0
818	255	242	245
819	255	241	243
820	255	239	242
821	255	238	243
822	255	238	244
823	255	241	246
824	253	227	237
825	246	215	230
826	247	214	232
827	247	212	232
828	248	213	233
829	251	214	235
830	251	214	235
831	250	212	234
832	250	212	233
833	245	208	225
834	247	213	226
835	249	218	229
836	248	218	229
837	247	219	229
838	245	219	230
839	243	218	230
840	245	224	233
841	246	230	236
842	250	239	241
843	255	252	250
844	253	250	247
845	253	251	248
846	255	254	250
847	255	255	251
848	255	253	249
849	251	249	246
850	253	251	248
851	0	0	0
852	0	0	0
853	0	0	0
854	255	233	239
855	255	231	238
856	255	229	236
857	253	227	235
858	255	234	242
859	255	234	242
860	255	230	239
861	248	217	230
862	253	222	237
863	254	221	238
864	252	216	236
865	254	217	238
866	254	217	237
867	254	216	237
868	253	214	236
869	253	214	235
870	250	212	230
871	252	218	231
872	255	226	235
873	254	225	235
874	248	219	231
875	246	218	231
876	250	228	238
877	250	233	240
878	251	238	242
879	255	249	248
880	255	254	251
881	254	251	249
882	254	252	249
883	255	255	251
884	252	251	247
885	248	246	243
886	254	254	249
887	255	255	251
888	0	0	0
889	0	0	0
890	0	0	0
891	255	226	237
892	254	222	234
893	252	220	233
894	255	225	236
895	255	231	241
896	254	224	236
897	252	221	235
898	254	223	237
899	255	228	242
900	255	221	239
901	252	216	237
902	253	216	237
903	253	216	236
904	253	215	234
905	252	212	232
906	253	214	232
907	250	212	229
908	253	219	232
909	255	226	235
910	248	218	230
911	242	212	229
912	247	222	235
913	250	230	238
914	251	236	240
915	252	242	243
916	255	248	247
917	255	253	250
918	255	252	249
919	255	253	250
920	252	250	248
921	248	246	244
922	252	252	247
923	255	255	249
924	0	0	0
925	0	0	0
926	0	0	0
927	0	0	0
928	255	216	233
929	252	212	230
930	254	217	234
931	255	221	236
932	255	224	237
933	251	217	232
934	255	222	237
935	255	224	239
936	255	225	240
937	253	218	236
938	255	219	239
939	255	220	239
940	255	219	238
941	255	217	237
942	250	210	231
943	251	212	231
944	250	214	231
945	253	220	234
946	253	225	235
947	244	216	229
948	252	230	241
949	255	240	247
950	255	244	245
951	255	251	248
952	255	247	245
953	255	251	249
954	255	252	249
955	255	253	249
956	254	252	250
957	250	248	246
958	252	252	249
959	255	255	250
960	255	255	249
961	0	0	0
962	0	0	0
963	0	0	0
964	253	205	226
965	253	207	230
966	254	210	233
967	255	215	236
968	254	215	234
969	254	217	232
970	253	218	232
971	255	222	237
972	255	222	237
973	255	222	238
974	255	222	239
975	255	223	241
976	255	223	242
977	255	222	243
978	253	216	238
979	248	208	232
980	249	211	233
981	248	212	233
982	248	217	234
983	248	221	235
984	253	233	241
985	255	246	250
986	255	252	252
987	255	254	250
988	255	253	248
989	255	250	247
990	254	250	248
991	254	251	248
992	254	251	249
993	253	250	249
994	255	254	251
995	255	255	251
996	255	255	251
997	254	253	249
998	254	255	250
999	0	0	0
1000	248	191	218
1001	250	194	222
1002	251	198	228
1003	251	201	231
1004	255	211	236
1005	252	210	233
1006	255	217	234
1007	253	217	232
1008	255	225	239
1009	255	224	239
1010	255	222	239
1011	255	221	239
1012	255	219	238
1013	255	219	239
1014	252	214	238
1015	246	207	233
1016	252	217	238
1017	253	220	239
1018	251	221	238
1019	249	224	238
1020	255	239	246
1021	255	251	252
1022	255	246	247
1023	255	251	248
1024	255	251	247
1025	255	249	245
1026	255	251	248
1027	255	253	249
1028	254	251	248
1029	252	250	247
1030	253	251	249
1031	255	255	252
1032	255	253	250
1033	253	251	248
1034	253	251	249
1035	254	253	250
1036	254	254	249
1037	244	179	216
1038	246	183	220
1039	246	186	224
1040	250	196	230
1041	254	205	236
1042	254	210	236
1043	255	218	237
1044	255	220	236
1045	255	228	242
1046	255	224	240
1047	255	222	239
1048	252	217	236
1049	251	214	234
1050	247	209	232
1051	244	205	231
1052	250	215	238
1053	254	224	240
1054	253	225	238
1055	251	226	239
1056	255	241	247
1057	255	253	252
1058	255	251	249
1059	255	247	245
1060	254	247	245
1061	254	249	246
1062	255	251	248
1063	255	253	250
1064	255	252	249
1065	253	250	247
1066	253	251	247
1067	253	252	249
1068	253	251	249
1069	251	248	247
1070	252	249	248
1071	251	248	248
1072	253	251	249
1073	0	0	0
1074	251	184	225
1075	252	188	228
1076	251	191	229
1077	254	200	234
1078	255	206	237
1079	255	211	237
1080	255	218	238
1081	255	220	237
1082	255	223	239
1083	254	219	236
1084	255	222	239
1085	251	217	236
1086	254	221	238
1087	250	216	235
1088	249	215	236
1089	254	225	242
1090	252	227	239
1091	249	227	236
1092	254	237	243
1093	255	253	252
1094	255	252	249
1095	255	247	245
1096	255	248	245
1097	255	250	247
1098	255	251	249
1099	255	252	250
1100	255	252	249
1101	0	0	0
1102	0	0	0
1103	0	0	0
1104	0	0	0
1105	0	0	0
1106	0	0	0
1107	0	0	0
1108	0	0	0
1109	0	0	0
1110	0	0	0
1111	254	186	231
1112	253	189	231
1113	251	190	227
1114	253	197	230
1115	254	203	234
1116	255	210	236
1117	255	217	238
1118	254	216	235
1119	254	218	234
1120	254	219	234
1121	254	221	236
1122	253	222	237
1123	255	226	240
1124	251	223	237
1125	248	220	235
1126	250	226	238
1127	250	229	238
1128	253	238	243
1129	255	248	248
1130	255	249	247
1131	255	249	246
1132	255	250	248
1133	255	251	250
1134	255	252	250
1135	255	253	250
1136	255	252	248
1137	254	252	247
1138	0	0	0
1139	0	0	0
1140	0	0	0
1141	0	0	0
1142	0	0	0
1143	0	0	0
1144	0	0	0
1145	0	0	0
1146	0	0	0
1147	0	0	0
1148	255	189	234
1149	255	191	232
1150	254	195	230
1151	0	0	0
1152	253	202	233
1153	255	209	236
1154	255	217	238
1155	0	0	0
1156	0	0	0
1157	255	222	235
1158	249	216	232
1159	245	215	231
1160	254	231	241
1161	249	228	238
1162	248	228	237
1163	251	234	240
1164	255	245	247
1165	255	254	251
1166	255	250	247
1167	255	252	247
1168	255	249	246
1169	255	250	248
1170	253	249	249
1171	254	250	249
1172	255	253	250
1173	255	253	249
1174	253	250	246
1175	0	0	0
1176	0	0	0
1177	0	0	0
1178	0	0	0
1179	0	0	0
1180	0	0	0
1181	0	0	0
1182	0	0	0
1183	0	0	0
1184	0	0	0
1185	0	0	0
1186	255	193	231
1187	0	0	0
1188	0	0	0
1189	0	0	0
1190	253	207	236
1191	0	0	0
1192	0	0	0
1193	0	0	0
1194	0	0	0
1195	240	208	226
1196	246	222	235
1197	254	237	244
1198	251	237	242
1199	251	239	243
1200	255	252	251
1201	255	255	249
1202	255	255	249
1203	255	253	247
1204	255	252	246
1205	254	250	245
1206	253	248	245
1207	251	247	246
1208	254	251	250
1209	255	254	251
1210	254	252	249
1211	0	0	0
1212	0	0	0
1213	0	0	0
1214	0	0	0
1215	0	0	0
1216	0	0	0
1217	0	0	0
1218	0	0	0
1219	0	0	0
1220	0	0	0
1221	0	0	0
