 	R	G	B
1	0	0	0
2	0	0	0
3	0	0	0
4	0	0	0
5	0	0	0
6	0	0	0
7	0	0	0
8	254	253	250
9	0	0	0
10	0	0	0
11	0	0	0
12	0	0	0
13	0	0	0
14	0	0	0
15	0	0	0
16	0	0	0
17	0	0	0
18	0	0	0
19	0	0	0
20	0	0	0
21	0	0	0
22	0	0	0
23	0	0	0
24	0	0	0
25	0	0	0
26	0	0	0
27	0	0	0
28	0	0	0
29	0	0	0
30	0	0	0
31	0	0	0
32	0	0	0
33	0	0	0
34	0	0	0
35	0	0	0
36	0	0	0
37	255	255	253
38	254	252	250
39	0	0	0
40	254	254	250
41	255	253	250
42	254	253	250
43	0	0	0
44	0	0	0
45	0	0	0
46	0	0	0
47	0	0	0
48	0	0	0
49	0	0	0
50	0	0	0
51	0	0	0
52	0	0	0
53	0	0	0
54	0	0	0
55	0	0	0
56	0	0	0
57	0	0	0
58	0	0	0
59	0	0	0
60	0	0	0
61	0	0	0
62	0	0	0
63	0	0	0
64	0	0	0
65	0	0	0
66	0	0	0
67	0	0	0
68	0	0	0
69	255	255	253
70	254	252	251
71	250	247	248
72	252	251	250
73	255	255	252
74	255	255	253
75	255	255	253
76	0	0	0
77	0	0	0
78	0	0	0
79	0	0	0
80	0	0	0
81	0	0	0
82	0	0	0
83	0	0	0
84	0	0	0
85	0	0	0
86	0	0	0
87	0	0	0
88	0	0	0
89	0	0	0
90	0	0	0
91	0	0	0
92	0	0	0
93	0	0	0
94	0	0	0
95	0	0	0
96	0	0	0
97	0	0	0
98	0	0	0
99	0	0	0
100	0	0	0
101	0	0	0
102	253	250	249
103	249	245	246
104	252	250	250
105	253	253	252
106	255	255	253
107	255	255	253
108	254	251	251
109	255	253	253
110	255	252	251
111	0	0	0
112	0	0	0
113	0	0	0
114	0	0	0
115	0	0	0
116	0	0	0
117	0	0	0
118	0	0	0
119	0	0	0
120	0	0	0
121	0	0	0
122	0	0	0
123	0	0	0
124	0	0	0
125	0	0	0
126	0	0	0
127	0	0	0
128	0	0	0
129	0	0	0
130	0	0	0
131	0	0	0
132	0	0	0
133	0	0	0
134	0	0	0
135	248	243	245
136	252	249	248
137	254	253	251
138	254	254	251
139	255	255	252
140	253	251	249
141	250	245	246
142	251	246	248
143	250	245	247
144	251	247	249
145	253	250	250
146	0	0	0
147	0	0	0
148	0	0	0
149	0	0	0
150	0	0	0
151	0	0	0
152	0	0	0
153	0	0	0
154	0	0	0
155	0	0	0
156	0	0	0
157	0	0	0
158	0	0	0
159	0	0	0
160	0	0	0
161	0	0	0
162	0	0	0
163	0	0	0
164	0	0	0
165	0	0	0
166	0	0	0
167	0	0	0
168	252	249	249
169	255	255	252
170	253	250	249
171	254	252	249
172	255	255	252
173	254	251	250
174	249	245	246
175	250	245	247
176	255	253	252
177	255	255	254
178	254	252	252
179	255	255	253
180	0	0	0
181	0	0	0
182	0	0	0
183	0	0	0
184	0	0	0
185	0	0	0
186	0	0	0
187	0	0	0
188	0	0	0
189	0	0	0
190	0	0	0
191	0	0	0
192	0	0	0
193	0	0	0
194	0	0	0
195	0	0	0
196	0	0	0
197	0	0	0
198	0	0	0
199	0	0	0
200	252	250	249
201	255	254	251
202	254	251	249
203	250	246	246
204	255	253	251
205	255	255	253
206	254	252	252
207	249	245	247
208	253	252	251
209	255	255	252
210	255	255	252
211	253	252	250
212	253	250	249
213	251	248	246
214	0	0	0
215	0	0	0
216	0	0	0
217	0	0	0
218	0	0	0
219	0	0	0
220	0	0	0
221	0	0	0
222	0	0	0
223	0	0	0
224	0	0	0
225	0	0	0
226	0	0	0
227	0	0	0
228	0	0	0
229	0	0	0
230	0	0	0
231	0	0	0
232	0	0	0
233	0	0	0
234	255	255	252
235	255	253	250
236	251	248	248
237	255	254	253
238	255	254	254
239	251	247	249
240	252	249	249
241	254	255	252
242	255	255	252
243	254	254	250
244	253	252	249
245	251	249	247
246	253	252	248
247	255	255	252
248	0	0	0
249	0	0	0
250	0	0	0
251	0	0	0
252	0	0	0
253	0	0	0
254	0	0	0
255	0	0	0
256	0	0	0
257	0	0	0
258	0	0	0
259	0	0	0
260	0	0	0
261	0	0	0
262	0	0	0
263	0	0	0
264	0	0	0
265	0	0	0
266	255	255	253
267	255	255	252
268	255	254	252
269	252	249	249
270	252	249	249
271	251	248	248
272	253	251	249
273	254	253	251
274	255	255	252
275	255	255	251
276	255	255	250
277	254	253	250
278	255	255	251
279	255	255	251
280	255	255	251
281	254	251	249
282	255	251	250
283	0	0	0
284	0	0	0
285	0	0	0
286	0	0	0
287	0	0	0
288	0	0	0
289	0	0	0
290	0	0	0
291	0	0	0
292	0	0	0
293	0	0	0
294	0	0	0
295	0	0	0
296	0	0	0
297	0	0	0
298	252	249	248
299	254	251	250
300	255	255	253
301	253	250	250
302	253	250	250
303	253	250	250
304	250	248	247
305	251	249	248
306	255	255	252
307	255	255	252
308	254	253	249
309	253	251	247
310	253	252	249
311	254	254	250
312	255	255	251
313	254	252	249
314	255	252	250
315	255	251	250
316	251	245	245
317	0	0	0
318	0	0	0
319	0	0	0
320	0	0	0
321	0	0	0
322	0	0	0
323	0	0	0
324	0	0	0
325	0	0	0
326	0	0	0
327	0	0	0
328	0	0	0
329	0	0	0
330	0	0	0
331	0	0	0
332	251	247	247
333	254	251	250
334	254	251	250
335	254	251	251
336	253	250	250
337	251	248	248
338	254	253	251
339	255	255	252
340	254	252	249
341	250	248	245
342	251	249	247
343	252	250	248
344	253	252	250
345	254	253	250
346	255	252	250
347	255	252	251
348	253	247	248
349	0	0	0
350	0	0	0
351	0	0	0
352	0	0	0
353	0	0	0
354	0	0	0
355	0	0	0
356	0	0	0
357	0	0	0
358	0	0	0
359	0	0	0
360	0	0	0
361	0	0	0
362	0	0	0
363	0	0	0
364	0	0	0
365	0	0	0
366	253	251	250
367	253	251	250
368	253	250	250
369	251	248	249
370	253	250	250
371	255	255	253
372	255	253	250
373	249	247	245
374	253	252	248
375	254	254	250
376	253	252	249
377	254	253	251
378	253	250	249
379	252	249	248
380	255	254	253
381	254	249	250
382	0	0	0
383	0	0	0
384	0	0	0
385	0	0	0
386	0	0	0
387	0	0	0
388	0	0	0
389	0	0	0
390	0	0	0
391	0	0	0
392	0	0	0
393	0	0	0
394	0	0	0
395	0	0	0
396	0	0	0
397	0	0	0
398	0	0	0
399	252	249	250
400	251	248	249
401	250	247	248
402	251	249	249
403	253	251	250
404	253	250	250
405	252	248	248
406	254	253	250
407	255	255	251
408	255	255	250
409	253	253	249
410	251	249	248
411	249	246	247
412	252	250	249
413	255	254	252
414	254	250	249
415	0	0	0
416	252	251	250
417	0	0	0
418	0	0	0
419	0	0	0
420	0	0	0
421	0	0	0
422	0	0	0
423	0	0	0
424	0	0	0
425	0	0	0
426	0	0	0
427	0	0	0
428	0	0	0
429	0	0	0
430	0	0	0
431	0	0	0
432	0	0	0
433	251	249	249
434	253	252	251
435	254	255	252
436	254	253	251
437	254	252	251
438	255	253	252
439	255	255	253
440	252	251	248
441	250	248	246
442	254	253	250
443	251	250	248
444	252	250	249
445	255	254	252
446	255	255	251
447	253	251	248
448	250	248	247
449	254	254	251
450	255	255	252
451	0	0	0
452	0	0	0
453	0	0	0
454	0	0	0
455	0	0	0
456	0	0	0
457	0	0	0
458	0	0	0
459	0	0	0
460	0	0	0
461	0	0	0
462	0	0	0
463	0	0	0
464	0	0	0
465	0	0	0
466	0	0	0
467	255	255	252
468	255	255	251
469	255	255	252
470	255	255	252
471	255	255	253
472	252	250	249
473	247	244	244
474	251	249	247
475	255	254	252
476	255	254	252
477	255	254	252
478	255	255	252
479	255	255	249
480	254	254	248
481	252	251	249
482	255	255	252
483	255	255	252
484	255	255	251
485	0	0	0
486	0	0	0
487	0	0	0
488	0	0	0
489	0	0	0
490	0	0	0
491	0	0	0
492	0	0	0
493	0	0	0
494	0	0	0
495	0	0	0
496	0	0	0
497	0	0	0
498	0	0	0
499	0	0	0
500	254	254	250
501	255	254	251
502	251	248	247
503	250	247	246
504	255	255	252
505	250	249	248
506	250	250	248
507	254	254	251
508	255	255	253
509	255	255	253
510	254	253	250
511	255	254	251
512	255	254	248
513	253	251	246
514	252	250	248
515	254	254	251
516	254	254	251
517	255	255	251
518	254	254	249
519	0	0	0
520	0	0	0
521	0	0	0
522	0	0	0
523	0	0	0
524	0	0	0
525	0	0	0
526	0	0	0
527	0	0	0
528	0	0	0
529	0	0	0
530	0	0	0
531	0	0	0
532	253	253	250
533	251	249	249
534	251	246	247
535	246	240	244
536	250	248	248
537	254	255	252
538	254	255	251
539	255	255	251
540	255	255	251
541	255	255	251
542	255	255	251
543	253	251	249
544	253	251	249
545	253	252	249
546	252	250	248
547	251	249	247
548	253	251	250
549	254	252	251
550	253	251	250
551	252	251	248
552	253	252	249
553	0	0	0
554	0	0	0
555	0	0	0
556	0	0	0
557	0	0	0
558	0	0	0
559	0	0	0
560	0	0	0
561	0	0	0
562	0	0	0
563	0	0	0
564	252	252	249
565	247	245	244
566	254	254	251
567	254	252	251
568	251	247	248
569	255	254	253
570	253	253	250
571	253	253	249
572	255	255	250
573	255	255	250
574	255	255	250
575	254	251	248
576	252	249	247
577	251	249	247
578	254	254	251
579	254	253	250
580	252	250	248
581	255	253	251
582	254	252	251
583	254	251	250
584	254	252	250
585	255	253	251
586	255	253	249
587	0	0	0
588	0	0	0
589	0	0	0
590	0	0	0
591	0	0	0
592	0	0	0
593	0	0	0
594	0	0	0
595	0	0	0
596	0	0	0
597	0	0	0
598	251	251	248
599	255	255	250
600	255	255	250
601	253	251	249
602	254	252	250
603	252	250	248
604	253	253	249
605	255	255	248
606	253	252	247
607	253	251	248
608	253	249	249
609	250	246	247
610	252	251	249
611	255	255	252
612	253	253	249
613	252	251	248
614	253	250	249
615	253	249	248
616	253	250	248
617	254	251	249
618	255	252	249
619	254	252	248
620	0	0	0
621	0	0	0
622	0	0	0
623	0	0	0
624	0	0	0
625	0	0	0
626	0	0	0
627	0	0	0
628	0	0	0
629	0	0	0
630	251	251	249
631	255	255	251
632	254	254	248
633	251	249	244
634	254	252	248
635	255	254	250
636	251	249	247
637	252	251	247
638	255	255	248
639	253	253	247
640	254	253	250
641	254	252	251
642	252	250	249
643	255	255	252
644	255	255	251
645	253	252	248
646	251	249	247
647	252	248	247
648	255	253	250
649	255	254	251
650	253	251	249
651	253	252	249
652	252	250	246
653	0	0	0
654	0	0	0
655	0	0	0
656	0	0	0
657	0	0	0
658	0	0	0
659	0	0	0
660	0	0	0
661	0	0	0
662	0	0	0
663	255	255	251
664	254	254	250
665	251	249	246
666	253	252	248
667	255	255	250
668	253	251	248
669	250	247	245
670	253	252	249
671	255	255	249
672	255	255	249
673	255	255	251
674	255	254	252
675	254	252	250
676	254	252	250
677	253	253	250
678	252	250	248
679	250	247	246
680	254	252	249
681	255	255	252
682	254	253	251
683	252	250	250
684	251	249	248
685	249	247	245
686	251	249	246
687	0	0	0
688	253	250	249
689	0	0	0
690	0	0	0
691	0	0	0
692	0	0	0
693	0	0	0
694	0	0	0
695	0	0	0
696	253	252	248
697	249	247	246
698	253	253	250
699	255	255	251
700	254	253	249
701	252	250	247
702	253	251	249
703	255	255	251
704	255	255	250
705	254	254	249
706	251	250	248
707	250	248	247
708	255	255	251
709	255	255	251
710	252	252	249
711	250	249	247
712	253	253	250
713	255	255	251
714	253	252	249
715	250	249	247
716	253	253	251
717	252	252	250
718	253	252	249
719	254	255	250
720	255	255	251
721	254	253	250
722	250	247	247
723	0	0	0
724	0	0	0
725	0	0	0
726	0	0	0
727	0	0	0
728	0	0	0
729	0	0	0
730	252	250	248
731	255	255	253
732	254	254	251
733	253	252	249
734	255	255	251
735	255	255	252
736	255	255	252
737	255	255	251
738	251	250	247
739	248	246	246
740	253	253	250
741	255	255	250
742	253	254	248
743	251	250	248
744	255	255	252
745	255	255	251
746	255	255	251
747	251	249	248
748	254	253	251
749	255	255	252
750	255	255	252
751	255	255	251
752	255	255	250
753	255	255	250
754	252	252	247
755	248	245	244
756	0	0	0
757	0	0	0
758	0	0	0
759	0	0	0
760	0	0	0
761	0	0	0
762	254	253	250
763	255	255	252
764	255	255	253
765	253	252	250
766	254	253	250
767	255	255	251
768	253	249	248
769	251	249	247
770	254	253	250
771	251	249	248
772	251	249	249
773	255	255	252
774	255	255	250
775	249	250	244
776	252	254	248
777	255	255	250
778	254	253	249
779	250	248	246
780	254	251	250
781	255	255	253
782	253	251	249
783	252	251	248
784	253	254	249
785	253	253	248
786	255	255	249
787	251	250	246
788	250	247	245
789	0	0	0
790	0	0	0
791	0	0	0
792	0	0	0
793	0	0	0
794	255	254	251
795	255	255	251
796	255	255	251
797	253	253	250
798	254	253	251
799	255	254	251
800	252	249	247
801	247	242	242
802	250	246	246
803	253	251	250
804	253	252	250
805	253	251	250
806	254	254	250
807	254	255	249
808	253	255	247
809	255	255	247
810	252	252	245
811	249	246	245
812	252	249	249
813	254	252	251
814	252	249	249
815	249	245	245
816	251	249	247
817	252	251	248
818	253	253	249
819	255	255	251
820	253	253	249
821	252	251	248
822	254	253	250
823	0	0	0
824	0	0	0
825	0	0	0
826	253	252	249
827	255	255	252
828	251	251	248
829	247	246	243
830	255	255	251
831	255	255	251
832	252	248	248
833	247	242	243
834	252	249	248
835	255	254	251
836	255	253	251
837	254	253	251
838	252	251	249
839	254	254	250
840	255	255	250
841	255	255	248
842	252	252	244
843	248	246	241
844	252	250	248
845	255	254	252
846	254	252	251
847	251	249	249
848	252	251	249
849	255	255	252
850	252	250	248
851	252	251	249
852	255	255	252
853	253	252	249
854	252	250	248
855	254	252	249
856	254	252	249
857	0	0	0
858	0	0	0
859	0	0	0
860	252	250	248
861	247	244	243
862	252	253	248
863	255	255	248
864	253	251	246
865	247	241	243
866	252	248	250
867	255	255	253
868	255	255	252
869	255	254	250
870	254	253	250
871	253	251	249
872	255	255	251
873	255	255	250
874	254	253	247
875	251	249	245
876	253	252	248
877	255	255	251
878	255	254	251
879	254	253	252
880	254	254	252
881	255	255	252
882	254	252	249
883	250	247	247
884	253	251	250
885	255	254	252
886	253	252	250
887	252	249	249
888	253	251	249
889	253	251	248
890	0	0	0
891	0	0	0
892	0	0	0
893	0	0	0
894	252	248	247
895	255	255	250
896	254	252	246
897	244	239	237
898	253	251	249
899	255	255	253
900	254	253	252
901	253	252	249
902	254	255	250
903	255	254	250
904	250	247	247
905	252	251	249
906	255	255	251
907	254	252	248
908	252	249	248
909	253	252	250
910	254	253	251
911	254	252	250
912	254	252	251
913	253	253	251
914	255	255	251
915	253	250	248
916	252	249	248
917	255	254	252
918	254	253	251
919	252	250	249
920	253	250	250
921	253	251	249
922	253	252	248
923	0	0	0
924	0	0	0
925	0	0	0
926	255	252	251
927	254	251	249
928	252	248	246
929	248	242	242
930	253	251	248
931	255	255	251
932	255	255	252
933	252	250	249
934	254	253	251
935	255	255	250
936	252	250	246
937	247	243	243
938	251	249	248
939	255	255	251
940	253	251	249
941	251	248	248
942	252	250	250
943	253	251	250
944	253	251	250
945	253	250	250
946	254	253	251
947	255	254	251
948	253	252	248
949	253	250	248
950	253	250	249
951	252	249	248
952	253	250	250
953	253	251	249
954	253	252	249
955	253	253	249
956	254	253	249
957	0	0	0
958	255	253	253
959	254	251	250
960	252	249	248
961	250	245	245
962	250	246	245
963	255	255	252
964	255	255	250
965	252	252	248
966	253	253	250
967	255	255	252
968	254	252	248
969	250	245	244
970	252	249	248
971	255	255	252
972	255	255	252
973	251	251	248
974	251	250	249
975	254	253	252
976	253	252	251
977	253	252	251
978	255	253	252
979	255	255	253
980	252	250	248
981	249	246	245
982	254	254	250
983	255	254	251
984	250	247	247
985	252	249	249
986	254	252	250
987	254	253	250
988	252	251	248
989	253	252	248
990	255	254	250
991	0	0	0
992	251	248	248
993	250	247	248
994	253	250	249
995	252	250	248
996	254	254	249
997	255	255	250
998	255	255	250
999	255	255	251
1000	254	252	250
1001	251	248	248
1002	254	251	250
1003	255	254	252
1004	255	255	252
1005	255	255	252
1006	253	254	250
1007	253	253	250
1008	253	253	250
1009	253	253	250
1010	255	254	252
1011	255	255	253
1012	254	251	250
1013	249	245	246
1014	252	252	249
1015	255	255	251
1016	253	251	249
1017	248	245	245
1018	253	251	250
1019	255	255	252
1020	254	252	250
1021	251	250	247
1022	252	251	247
1023	254	253	247
1024	0	0	0
1025	0	0	0
1026	254	253	252
1027	255	255	253
1028	252	249	247
1029	252	252	248
1030	255	255	251
1031	255	255	251
1032	252	251	248
1033	249	246	246
1034	252	250	249
1035	254	253	252
1036	254	253	251
1037	255	254	251
1038	254	253	250
1039	252	251	248
1040	254	255	250
1041	255	255	250
1042	254	252	249
1043	255	253	250
1044	255	255	252
1045	253	250	249
1046	251	247	247
1047	255	254	251
1048	255	255	252
1049	252	250	248
1050	252	249	249
1051	255	255	253
1052	255	252	251
1053	253	250	249
1054	252	250	248
1055	252	250	247
1056	254	255	248
1057	0	0	0
1058	0	0	0
1059	255	255	252
1060	254	253	250
1061	249	246	245
1062	253	252	249
1063	255	255	251
1064	254	253	250
1065	250	247	247
1066	252	250	249
1067	254	253	250
1068	253	252	249
1069	253	252	249
1070	254	253	250
1071	254	252	251
1072	255	255	252
1073	255	255	250
1074	255	255	249
1075	254	252	246
1076	254	253	248
1077	255	255	251
1078	255	252	250
1079	252	249	247
1080	254	253	250
1081	255	255	253
1082	255	255	253
1083	255	253	252
1084	254	252	251
1085	253	249	249
1086	253	250	249
1087	252	250	248
1088	255	255	251
1089	255	255	250
1090	0	0	0
1091	0	0	0
1092	255	255	252
1093	251	250	247
1094	251	250	247
1095	255	255	252
1096	255	254	251
1097	252	249	247
1098	251	248	248
1099	254	251	250
1100	255	255	252
1101	255	254	250
1102	253	251	248
1103	254	251	250
1104	252	249	249
1105	254	252	251
1106	255	253	250
1107	253	250	246
1108	252	249	244
1109	252	249	245
1110	255	253	249
1111	253	250	248
1112	253	251	247
1113	255	255	251
1114	255	254	252
1115	252	251	250
1116	255	255	252
1117	255	253	251
1118	253	250	248
1119	253	251	248
1120	255	255	251
1121	255	255	251
1122	253	251	248
1123	0	0	0
1124	0	0	0
1125	0	0	0
1126	254	255	251
1127	254	255	249
1128	253	252	247
1129	251	248	246
1130	251	248	247
1131	250	247	247
1132	254	252	250
1133	255	255	253
1134	255	252	250
1135	253	249	249
1136	252	247	248
1137	249	244	247
1138	250	246	247
1139	251	247	246
1140	251	247	245
1141	251	246	244
1142	251	248	246
1143	253	251	248
1144	254	252	249
1145	254	252	248
1146	254	252	249
1147	253	250	249
1148	254	254	251
1149	255	255	252
1150	255	254	250
1151	253	251	247
1152	255	255	249
1153	255	255	250
1154	253	251	248
1155	247	242	243
1156	0	0	0
1157	0	0	0
1158	0	0	0
1159	0	0	0
1160	254	255	249
1161	0	0	0
1162	0	0	0
1163	0	0	0
1164	253	252	250
1165	255	255	253
1166	255	255	253
1167	255	253	252
1168	253	249	249
1169	251	246	248
1170	253	251	251
1171	254	252	251
1172	254	253	251
1173	255	253	251
1174	252	248	247
1175	253	250	248
1176	255	255	251
1177	255	255	251
1178	254	252	249
1179	254	252	249
1180	252	250	249
1181	254	253	251
1182	253	252	250
1183	251	249	246
1184	252	251	247
1185	254	255	249
1186	254	255	249
1187	249	247	244
1188	252	250	249
1189	0	0	0
1190	0	0	0
1191	0	0	0
1192	0	0	0
1193	0	0	0
1194	0	0	0
1195	0	0	0
1196	255	255	253
1197	255	255	253
1198	255	255	253
1199	255	255	252
1200	254	252	250
1201	251	247	248
1202	254	252	251
1203	255	255	253
1204	255	255	252
1205	255	255	252
1206	255	254	251
1207	252	249	248
1208	255	254	251
1209	255	255	251
1210	255	255	252
1211	255	253	250
1212	253	251	250
1213	253	249	250
1214	253	250	250
1215	251	249	248
1216	253	251	249
1217	253	253	250
1218	252	252	249
1219	253	252	249
1220	255	255	251
1221	255	255	252
1222	0	0	0
1223	0	0	0
1224	0	0	0
1225	0	0	0
1226	0	0	0
1227	0	0	0
1228	255	254	251
1229	255	255	253
1230	254	252	251
1231	252	250	249
1232	254	254	251
1233	251	249	247
1234	251	249	248
1235	254	254	251
1236	255	255	251
1237	255	255	252
1238	254	253	251
1239	252	250	249
1240	252	249	248
1241	254	254	251
1242	255	255	252
1243	255	253	250
1244	253	250	249
1245	252	248	249
1246	255	252	252
1247	255	252	253
1248	253	250	249
1249	253	252	250
1250	253	251	249
1251	252	251	248
1252	255	255	252
1253	255	255	252
1254	253	251	249
1255	0	0	0
1256	0	0	0
1257	0	0	0
1258	0	0	0
1259	0	0	0
1260	0	0	0
1261	0	0	0
1262	253	250	249
1263	249	246	247
1264	250	248	249
1265	252	251	250
1266	253	252	250
1267	253	252	249
1268	254	254	250
1269	255	255	251
1270	253	253	249
1271	252	250	249
1272	252	250	249
1273	252	249	248
1274	253	251	249
1275	254	253	250
1276	253	250	249
1277	252	248	248
1278	253	250	250
1279	255	254	253
1280	255	252	251
1281	253	250	249
1282	252	249	248
1283	251	249	247
1284	254	254	251
1285	255	255	251
1286	254	252	249
1287	249	244	244
1288	0	0	0
1289	0	0	0
1290	0	0	0
1291	0	0	0
1292	0	0	0
1293	0	0	0
1294	0	0	0
1295	0	0	0
1296	0	0	0
1297	0	0	0
1298	255	255	253
1299	255	255	253
1300	252	249	248
1301	254	252	249
1302	255	254	250
1303	252	249	248
1304	252	251	250
1305	253	251	250
1306	253	251	249
1307	255	254	251
1308	253	251	249
1309	252	248	248
1310	254	250	250
1311	255	253	252
1312	254	252	250
1313	252	250	248
1314	254	252	249
1315	254	252	249
1316	252	250	248
1317	255	255	251
1318	255	255	252
1319	252	249	247
1320	252	249	247
1321	0	0	0
1322	0	0	0
1323	0	0	0
1324	0	0	0
1325	0	0	0
1326	0	0	0
1327	0	0	0
1328	0	0	0
1329	0	0	0
1330	0	0	0
1331	255	255	252
1332	254	252	251
1333	250	246	247
1334	253	249	250
1335	254	251	251
1336	253	250	250
1337	253	251	250
1338	253	252	250
1339	254	253	251
1340	253	250	249
1341	251	248	247
1342	254	250	250
1343	255	252	251
1344	254	251	250
1345	253	251	249
1346	254	252	249
1347	255	254	250
1348	254	253	249
1349	253	251	248
1350	253	252	249
1351	254	254	250
1352	255	254	251
1353	255	253	251
1354	0	0	0
1355	0	0	0
1356	0	0	0
1357	0	0	0
1358	0	0	0
1359	0	0	0
1360	0	0	0
1361	0	0	0
1362	0	0	0
1363	0	0	0
1364	253	252	249
1365	250	247	247
1366	253	251	251
1367	255	254	254
1368	252	248	250
1369	252	248	249
1370	255	255	253
1371	255	255	252
1372	254	252	250
1373	253	249	249
1374	252	249	249
1375	254	251	250
1376	253	251	249
1377	252	250	248
1378	254	252	250
1379	255	254	251
1380	254	253	248
1381	253	251	246
1382	255	254	250
1383	255	255	251
1384	254	253	250
1385	255	253	251
1386	254	250	249
1387	0	0	0
1388	0	0	0
1389	0	0	0
1390	0	0	0
1391	0	0	0
1392	0	0	0
1393	0	0	0
1394	0	0	0
1395	0	0	0
1396	0	0	0
1397	0	0	0
1398	254	252	250
1399	255	255	253
1400	253	250	250
1401	249	245	247
1402	254	252	252
1403	255	255	252
1404	255	254	251
1405	252	249	247
1406	252	249	248
1407	252	249	248
1408	253	250	249
1409	252	249	249
1410	254	252	251
1411	255	254	252
1412	255	253	250
1413	253	251	247
1414	255	254	249
1415	255	255	251
1416	254	254	250
1417	253	251	248
1418	252	249	247
1419	250	246	246
1420	0	0	0
1421	0	0	0
1422	0	0	0
1423	0	0	0
1424	0	0	0
1425	0	0	0
1426	0	0	0
1427	0	0	0
1428	0	0	0
1429	0	0	0
1430	0	0	0
1431	0	0	0
1432	255	255	253
1433	252	249	249
1434	250	247	248
1435	254	254	253
1436	255	255	252
1437	253	252	249
1438	251	249	247
1439	251	249	247
1440	255	254	252
1441	255	255	253
1442	253	249	249
1443	254	251	251
1444	255	254	252
1445	255	252	250
1446	253	251	247
1447	255	254	249
1448	254	253	250
1449	251	249	247
1450	254	254	249
1451	253	251	248
1452	251	248	248
1453	0	0	0
1454	0	0	0
1455	0	0	0
1456	0	0	0
1457	0	0	0
1458	0	0	0
1459	0	0	0
1460	0	0	0
1461	0	0	0
1462	0	0	0
1463	0	0	0
1464	0	0	0
1465	0	0	0
1466	253	252	250
1467	250	249	248
1468	253	253	250
1469	255	255	251
1470	253	254	249
1471	252	250	248
1472	255	255	252
1473	255	255	252
1474	255	254	252
1475	252	247	248
1476	255	251	251
1477	255	254	252
1478	254	252	250
1479	253	251	249
1480	253	250	248
1481	251	249	247
1482	252	252	249
1483	255	255	252
1484	255	254	251
1485	253	250	250
1486	0	0	0
1487	0	0	0
1488	0	0	0
1489	0	0	0
1490	0	0	0
1491	0	0	0
1492	0	0	0
1493	0	0	0
1494	0	0	0
1495	0	0	0
1496	0	0	0
1497	0	0	0
1498	0	0	0
1499	0	0	0
1500	253	253	250
1501	0	0	0
1502	255	255	251
1503	254	253	249
1504	250	247	246
1505	255	253	250
1506	255	255	252
1507	253	249	248
1508	252	247	248
1509	255	252	252
1510	255	252	251
1511	252	250	249
1512	253	252	250
1513	253	252	250
1514	251	250	248
1515	253	253	250
1516	255	255	251
1517	254	253	249
1518	252	249	248
1519	0	0	0
1520	0	0	0
1521	0	0	0
1522	0	0	0
1523	0	0	0
1524	0	0	0
1525	0	0	0
1526	0	0	0
1527	0	0	0
1528	0	0	0
1529	0	0	0
1530	0	0	0
1531	0	0	0
1532	0	0	0
1533	0	0	0
1534	0	0	0
1535	0	0	0
1536	252	250	246
1537	248	244	243
1538	252	248	247
1539	254	250	249
1540	253	249	248
1541	252	247	248
1542	253	249	250
1543	252	249	250
1544	252	251	250
1545	252	252	249
1546	252	251	248
1547	251	249	247
1548	252	252	248
1549	254	254	248
1550	252	250	246
1551	250	247	246
1552	0	0	0
1553	0	0	0
1554	0	0	0
1555	0	0	0
1556	0	0	0
1557	0	0	0
1558	0	0	0
1559	0	0	0
1560	0	0	0
1561	0	0	0
1562	0	0	0
1563	0	0	0
1564	0	0	0
1565	0	0	0
1566	0	0	0
1567	0	0	0
1568	0	0	0
1569	0	0	0
1570	254	252	249
1571	255	255	252
1572	253	250	249
1573	252	248	248
1574	254	252	251
1575	254	253	251
1576	255	254	253
1577	255	255	253
1578	253	253	249
1579	252	251	248
1580	252	252	249
1581	255	255	250
1582	255	255	248
1583	252	251	245
1584	0	0	0
1585	0	0	0
1586	0	0	0
1587	0	0	0
1588	0	0	0
1589	0	0	0
1590	0	0	0
1591	0	0	0
1592	0	0	0
1593	0	0	0
1594	0	0	0
1595	0	0	0
1596	0	0	0
1597	0	0	0
1598	0	0	0
1599	0	0	0
1600	0	0	0
1601	0	0	0
1602	255	253	250
1603	255	255	251
1604	255	255	252
1605	252	250	248
1606	255	254	252
1607	255	255	252
1608	255	255	252
1609	255	255	251
1610	255	255	252
1611	254	254	251
1612	255	255	251
1613	255	255	250
1614	255	255	250
1615	255	255	248
1616	0	0	0
1617	0	0	0
1618	0	0	0
1619	0	0	0
1620	0	0	0
1621	0	0	0
1622	0	0	0
1623	0	0	0
1624	0	0	0
1625	0	0	0
1626	0	0	0
1627	0	0	0
1628	0	0	0
1629	0	0	0
1630	0	0	0
1631	0	0	0
1632	0	0	0
1633	0	0	0
1634	0	0	0
1635	255	255	252
1636	255	255	251
1637	252	250	248
1638	253	251	249
1639	255	255	253
1640	253	251	249
1641	253	252	248
1642	254	254	250
1643	252	251	248
1644	253	252	250
1645	255	254	252
1646	252	250	248
1647	251	250	246
1648	255	255	248
1649	0	0	0
1650	0	0	0
1651	0	0	0
1652	0	0	0
1653	0	0	0
1654	0	0	0
1655	0	0	0
1656	0	0	0
1657	0	0	0
1658	0	0	0
1659	0	0	0
1660	0	0	0
1661	0	0	0
1662	0	0	0
1663	0	0	0
1664	0	0	0
1665	0	0	0
1666	0	0	0
1667	0	0	0
1668	253	253	250
1669	252	250	248
1670	252	250	249
1671	253	251	251
1672	252	249	250
1673	249	245	246
1674	252	249	249
1675	254	252	249
1676	252	250	248
1677	253	251	250
1678	252	248	249
1679	249	244	246
1680	252	250	249
1681	255	255	251
1682	0	0	0
1683	0	0	0
1684	0	0	0
1685	0	0	0
1686	0	0	0
1687	0	0	0
1688	0	0	0
1689	0	0	0
1690	0	0	0
1691	0	0	0
1692	0	0	0
1693	0	0	0
1694	0	0	0
1695	0	0	0
1696	0	0	0
1697	0	0	0
1698	0	0	0
1699	0	0	0
1700	0	0	0
1701	0	0	0
1702	253	253	250
1703	253	253	250
1704	255	255	253
1705	255	253	252
1706	252	248	248
1707	255	252	252
1708	253	250	249
1709	251	248	248
1710	255	255	253
1711	255	253	252
1712	250	246	249
1713	253	252	252
1714	255	255	253
1715	0	0	0
1716	0	0	0
1717	0	0	0
1718	0	0	0
1719	0	0	0
1720	0	0	0
1721	0	0	0
1722	0	0	0
1723	0	0	0
1724	0	0	0
1725	0	0	0
1726	0	0	0
1727	0	0	0
1728	0	0	0
1729	0	0	0
1730	0	0	0
1731	0	0	0
1732	0	0	0
1733	0	0	0
1734	0	0	0
1735	0	0	0
1736	255	255	250
1737	255	255	252
1738	254	253	251
1739	251	248	247
1740	254	249	249
1741	253	248	249
1742	255	254	253
1743	255	255	252
1744	255	254	253
1745	250	247	249
1746	252	252	251
1747	255	255	252
1748	0	0	0
1749	0	0	0
1750	0	0	0
1751	0	0	0
1752	0	0	0
1753	0	0	0
1754	0	0	0
1755	0	0	0
1756	0	0	0
1757	0	0	0
1758	0	0	0
1759	0	0	0
1760	0	0	0
1761	0	0	0
1762	0	0	0
1763	0	0	0
1764	0	0	0
1765	0	0	0
1766	0	0	0
1767	0	0	0
1768	0	0	0
1769	0	0	0
1770	255	255	251
1771	254	253	250
1772	252	249	247
1773	255	251	250
1774	252	246	249
1775	255	252	252
1776	255	255	253
1777	251	248	247
1778	251	250	249
1779	254	254	252
1780	255	255	252
1781	0	0	0
1782	0	0	0
1783	0	0	0
1784	0	0	0
1785	0	0	0
1786	0	0	0
1787	0	0	0
1788	0	0	0
1789	0	0	0
1790	0	0	0
1791	0	0	0
1792	0	0	0
1793	0	0	0
1794	0	0	0
1795	0	0	0
1796	0	0	0
1797	0	0	0
1798	0	0	0
1799	0	0	0
1800	0	0	0
1801	0	0	0
1802	0	0	0
1803	0	0	0
1804	255	254	250
1805	253	250	248
1806	252	247	248
1807	249	242	246
1808	250	246	248
1809	251	249	247
1810	251	250	247
1811	253	252	250
1812	253	254	251
1813	254	255	250
1814	0	0	0
1815	0	0	0
1816	0	0	0
1817	0	0	0
1818	0	0	0
1819	0	0	0
1820	0	0	0
1821	0	0	0
1822	0	0	0
1823	0	0	0
1824	0	0	0
1825	0	0	0
1826	0	0	0
1827	0	0	0
1828	0	0	0
1829	0	0	0
1830	0	0	0
1831	0	0	0
1832	0	0	0
1833	0	0	0
1834	0	0	0
1835	0	0	0
1836	0	0	0
1837	0	0	0
1838	0	0	0
1839	0	0	0
1840	0	0	0
1841	0	0	0
1842	0	0	0
1843	0	0	0
1844	254	255	250
1845	255	255	251
1846	253	253	248
1847	0	0	0
1848	0	0	0
1849	0	0	0
1850	0	0	0
1851	0	0	0
1852	0	0	0
1853	0	0	0
1854	0	0	0
1855	0	0	0
1856	0	0	0
1857	0	0	0
1858	0	0	0
1859	0	0	0
1860	0	0	0
1861	0	0	0
1862	0	0	0
1863	0	0	0
1864	0	0	0
1865	0	0	0
1866	0	0	0
1867	0	0	0
1868	0	0	0
1869	0	0	0
1870	0	0	0
1871	0	0	0
1872	0	0	0
1873	0	0	0
1874	0	0	0
1875	0	0	0
1876	0	0	0
1877	0	0	0
1878	254	254	249
1879	0	0	0
1880	0	0	0
1881	0	0	0
