 	R	G	B
1	0	0	0
2	0	0	0
3	0	0	0
4	0	0	0
5	0	0	0
6	0	0	0
7	0	0	0
8	0	0	0
9	0	0	0
10	0	0	0
11	0	0	0
12	255	254	255
13	255	252	255
14	255	251	255
15	255	250	255
16	255	251	255
17	255	251	255
18	255	252	255
19	0	0	0
20	0	0	0
21	0	0	0
22	0	0	0
23	0	0	0
24	0	0	0
25	0	0	0
26	0	0	0
27	0	0	0
28	0	0	0
29	0	0	0
30	0	0	0
31	0	0	0
32	0	0	0
33	0	0	0
34	0	0	0
35	0	0	0
36	0	0	0
37	0	0	0
38	0	0	0
39	0	0	0
40	255	252	255
41	255	250	255
42	250	224	244
43	254	226	248
44	254	224	248
45	255	231	254
46	253	222	248
47	254	226	250
48	255	232	250
49	0	0	0
50	0	0	0
51	0	0	0
52	0	0	0
53	0	0	0
54	0	0	0
55	0	0	0
56	0	0	0
57	0	0	0
58	0	0	0
59	0	0	0
60	0	0	0
61	0	0	0
62	0	0	0
63	0	0	0
64	0	0	0
65	0	0	0
66	0	0	0
67	0	0	0
68	255	252	255
69	255	241	254
70	252	221	246
71	238	196	233
72	246	203	242
73	248	202	243
74	248	200	243
75	241	191	236
76	248	203	243
77	249	209	244
78	255	224	251
79	0	0	0
80	0	0	0
81	0	0	0
82	0	0	0
83	0	0	0
84	0	0	0
85	0	0	0
86	0	0	0
87	0	0	0
88	0	0	0
89	0	0	0
90	0	0	0
91	0	0	0
92	0	0	0
93	0	0	0
94	0	0	0
95	0	0	0
96	255	252	255
97	255	243	255
98	254	223	247
99	247	205	240
100	246	196	240
101	255	204	250
102	252	194	247
103	253	193	248
104	244	181	240
105	251	193	246
106	250	196	245
107	255	210	251
108	252	213	248
109	0	0	0
110	0	0	0
111	0	0	0
112	0	0	0
113	0	0	0
114	0	0	0
115	0	0	0
116	0	0	0
117	0	0	0
118	0	0	0
119	0	0	0
120	0	0	0
121	0	0	0
122	0	0	0
123	0	0	0
124	255	252	255
125	255	239	251
126	253	222	245
127	247	203	239
128	251	200	243
129	250	191	240
130	252	188	243
131	249	179	241
132	248	175	242
133	241	164	236
134	247	175	243
135	246	178	241
136	248	187	243
137	245	191	241
138	0	0	0
139	0	0	0
140	0	0	0
141	0	0	0
142	0	0	0
143	0	0	0
144	0	0	0
145	0	0	0
146	0	0	0
147	0	0	0
148	0	0	0
149	0	0	0
150	0	0	0
151	0	0	0
152	255	254	254
153	255	251	255
154	254	226	246
155	251	210	242
156	250	198	241
157	254	195	245
158	250	181	240
159	252	177	242
160	248	167	241
161	248	164	242
162	247	162	242
163	253	173	249
164	249	172	245
165	252	181	247
166	245	180	242
167	0	0	0
168	0	0	0
169	0	0	0
170	0	0	0
171	0	0	0
172	0	0	0
173	0	0	0
174	0	0	0
175	0	0	0
176	0	0	0
177	0	0	0
178	0	0	0
179	0	0	0
180	0	0	0
181	255	253	254
182	255	233	248
183	248	209	239
184	250	201	241
185	249	189	240
186	250	180	241
187	246	167	239
188	248	163	243
189	244	153	240
190	249	157	246
191	247	154	243
192	250	160	246
193	246	159	243
194	249	168	246
195	242	167	240
196	252	190	249
197	0	0	0
198	0	0	0
199	0	0	0
200	0	0	0
201	0	0	0
202	0	0	0
203	0	0	0
204	0	0	0
205	0	0	0
206	0	0	0
207	0	0	0
208	0	0	0
209	255	254	254
210	255	244	254
211	249	217	240
212	254	210	245
213	255	202	248
214	249	181	240
215	249	172	242
216	251	166	246
217	252	162	249
218	247	150	244
219	252	154	249
220	248	149	246
221	251	155	248
222	252	160	249
223	255	168	252
224	240	154	237
225	250	178	247
226	254	196	249
227	255	210	249
228	0	0	0
229	0	0	0
230	0	0	0
231	0	0	0
232	0	0	0
233	0	0	0
234	0	0	0
235	0	0	0
236	0	0	0
237	0	0	0
238	255	241	250
239	250	223	242
240	253	215	245
241	255	209	250
242	254	192	246
243	245	170	238
244	249	166	243
245	249	160	246
246	248	151	245
247	241	139	239
248	245	141	243
249	242	138	241
250	248	146	246
251	249	151	247
252	242	145	239
253	228	133	225
254	242	161	240
255	248	180	244
256	253	200	248
257	255	216	248
258	0	0	0
259	0	0	0
260	0	0	0
261	0	0	0
262	0	0	0
263	0	0	0
264	0	0	0
265	0	0	0
266	0	0	0
267	0	0	0
268	254	223	246
269	255	217	251
270	255	199	246
271	250	181	242
272	247	167	241
273	249	163	245
274	255	165	252
275	253	156	250
276	248	146	246
277	252	149	251
278	250	145	249
279	255	154	254
280	254	155	252
281	247	150	245
282	245	153	243
283	255	183	255
284	253	181	249
285	255	200	254
286	247	198	241
287	0	0	0
288	0	0	0
289	0	0	0
290	0	0	0
291	0	0	0
292	0	0	0
293	0	0	0
294	0	0	0
295	0	0	0
296	0	0	0
297	255	221	247
298	254	205	244
299	249	186	239
300	249	176	241
301	247	163	242
302	255	168	252
303	255	169	255
304	255	161	253
305	254	152	252
306	255	153	255
307	254	149	253
308	255	155	255
309	255	155	253
310	255	164	255
311	255	168	254
312	255	173	253
313	249	172	245
314	247	179	243
315	238	178	234
316	253	211	248
317	0	0	0
318	0	0	0
319	0	0	0
320	0	0	0
321	0	0	0
322	0	0	0
323	0	0	0
324	0	0	0
325	0	0	0
326	255	217	248
327	253	200	245
328	248	181	239
329	248	170	241
330	250	165	246
331	255	169	255
332	252	157	248
333	249	148	246
334	253	151	252
335	255	152	255
336	253	147	252
337	255	152	255
338	248	144	246
339	252	153	249
340	255	163	252
341	255	169	251
342	250	169	245
343	250	178	246
344	247	185	244
345	255	218	255
346	255	227	252
347	0	0	0
348	0	0	0
349	0	0	0
350	0	0	0
351	0	0	0
352	0	0	0
353	0	0	0
354	255	224	249
355	255	213	251
356	254	196	248
357	248	176	243
358	252	173	248
359	253	166	249
360	251	157	248
361	245	145	243
362	251	149	250
363	254	150	253
364	254	148	252
365	251	144	249
366	246	139	244
367	239	131	237
368	248	146	245
369	251	157	248
370	251	161	246
371	247	163	241
372	252	177	247
373	249	184	246
374	252	199	248
375	250	210	244
376	253	225	246
377	0	0	0
378	0	0	0
379	0	0	0
380	0	0	0
381	0	0	0
382	255	232	250
383	255	220	251
384	252	199	246
385	247	181	243
386	251	176	248
387	253	172	251
388	253	165	250
389	251	156	248
390	250	149	248
391	255	154	255
392	253	147	252
393	252	145	250
394	249	142	247
395	245	137	242
396	254	152	252
397	255	167	255
398	249	153	245
399	249	159	244
400	255	172	249
401	255	186	254
402	245	175	242
403	249	191	245
404	255	212	249
405	255	227	251
406	255	240	255
407	0	0	0
408	0	0	0
409	0	0	0
410	0	0	0
411	255	225	248
412	249	204	243
413	242	183	239
414	247	180	246
415	250	174	249
416	252	169	251
417	252	162	249
418	252	157	249
419	251	150	248
420	251	148	250
421	248	141	247
422	247	140	246
423	245	138	244
424	255	154	253
425	255	168	255
426	255	158	250
427	243	145	238
428	253	163	247
429	255	176	252
430	249	171	244
431	236	161	233
432	249	188	246
433	255	209	250
434	255	220	248
435	255	233	251
436	0	0	0
437	0	0	0
438	0	0	0
439	0	0	0
440	255	223	249
441	250	203	245
442	245	186	244
443	248	181	250
444	250	177	252
445	254	172	254
446	253	163	250
447	253	158	250
448	252	153	250
449	252	150	251
450	250	146	249
451	250	146	249
452	255	153	252
453	255	169	255
454	255	156	250
455	246	147	240
456	249	154	244
457	255	173	254
458	254	171	248
459	246	166	241
460	247	176	244
461	255	203	255
462	255	208	250
463	255	219	249
464	254	227	248
465	0	0	0
466	0	0	0
467	0	0	0
468	0	0	0
469	255	222	252
470	254	206	250
471	248	188	248
472	252	186	254
473	254	181	255
474	254	173	255
475	253	164	251
476	253	160	251
477	253	155	251
478	254	154	252
479	251	150	250
480	255	160	255
481	255	167	255
482	255	156	250
483	245	144	241
484	250	154	247
485	253	162	250
486	252	163	248
487	247	162	243
488	253	176	250
489	255	187	252
490	255	197	253
491	252	202	246
492	252	211	245
493	251	220	246
494	0	0	0
495	0	0	0
496	0	0	0
497	0	0	0
498	255	221	253
499	254	204	251
500	246	183	246
501	252	182	253
502	252	176	253
503	249	166	250
504	253	166	252
505	254	163	253
506	251	156	250
507	252	154	251
508	252	153	251
509	255	163	255
510	255	159	251
511	248	149	243
512	249	152	247
513	255	163	253
514	255	169	255
515	255	170	252
516	249	167	247
517	255	182	254
518	255	187	251
519	255	198	252
520	249	197	243
521	251	207	244
522	255	223	250
523	0	0	0
524	0	0	0
525	0	0	0
526	0	0	0
527	255	220	255
528	252	199	250
529	244	178	244
530	251	178	251
531	250	172	251
532	251	170	252
533	254	170	255
534	252	162	251
535	249	154	248
536	252	156	251
537	251	155	251
538	252	155	250
539	249	152	246
540	252	157	249
541	254	160	251
542	255	168	255
543	255	174	255
544	255	173	252
545	250	170	248
546	252	179	250
547	251	183	247
548	249	188	245
549	243	188	239
550	251	208	246
551	255	223	250
552	0	0	0
553	0	0	0
554	0	0	0
555	0	0	0
556	255	217	255
557	249	195	249
558	243	177	245
559	250	177	251
560	252	174	253
561	253	172	254
562	255	174	255
563	253	166	252
564	255	166	254
565	255	168	255
566	254	161	252
567	255	161	252
568	252	158	249
569	255	163	252
570	253	162	250
571	255	170	253
572	255	174	252
573	253	173	250
574	252	176	250
575	255	185	253
576	255	193	253
577	255	198	252
578	249	196	246
579	255	216	254
580	255	223	251
581	0	0	0
582	0	0	0
583	0	0	0
584	254	217	253
585	255	215	255
586	251	196	253
587	244	178	247
588	251	180	253
589	252	176	254
590	255	179	255
591	255	181	255
592	255	179	255
593	255	179	255
594	255	172	254
595	254	165	250
596	255	166	251
597	254	163	249
598	255	165	250
599	252	164	247
600	254	170	249
601	255	174	249
602	255	179	252
603	255	184	255
604	255	195	255
605	255	203	255
606	255	204	255
607	254	203	251
608	255	214	254
609	255	222	251
610	0	0	0
611	0	0	0
612	252	216	249
613	251	211	251
614	250	203	253
615	246	186	248
616	247	181	250
617	248	179	253
618	249	175	252
619	255	179	255
620	253	172	253
621	252	170	252
622	255	178	255
623	255	171	251
624	253	166	249
625	255	166	250
626	252	162	247
627	253	165	248
628	253	167	248
629	255	173	250
630	254	174	249
631	255	180	251
632	255	183	253
633	255	194	255
634	253	191	251
635	250	193	248
636	254	205	252
637	255	217	255
638	254	218	249
639	0	0	0
640	0	0	0
641	250	211	248
642	245	201	246
643	245	193	249
644	250	191	254
645	250	185	255
646	248	181	254
647	248	176	253
648	249	172	252
649	247	165	248
650	254	173	254
651	255	181	255
652	255	176	255
653	255	171	254
654	255	168	253
655	252	163	249
656	255	169	252
657	255	172	252
658	255	174	252
659	254	175	251
660	254	179	252
661	253	182	252
662	250	182	248
663	244	178	242
664	249	192	247
665	254	205	250
666	253	210	248
667	249	212	243
668	0	0	0
669	0	0	0
670	252	210	250
671	247	200	249
672	244	190	249
673	246	186	252
674	246	182	252
675	246	178	252
676	247	176	253
677	248	172	252
678	252	175	254
679	255	182	255
680	255	176	255
681	253	169	252
682	252	167	252
683	251	164	250
684	253	167	251
685	255	172	254
686	255	173	253
687	255	176	254
688	253	177	253
689	254	181	254
690	254	185	253
691	251	185	249
692	250	189	249
693	255	203	254
694	255	210	253
695	255	215	251
696	248	211	243
697	0	0	0
698	0	0	0
699	252	208	253
700	248	198	251
701	244	187	249
702	244	184	251
703	242	178	250
704	244	178	252
705	245	176	252
706	249	178	255
707	252	179	255
708	249	173	252
709	247	166	248
710	246	163	246
711	245	160	245
712	248	164	248
713	249	166	249
714	250	169	250
715	250	171	250
716	252	175	252
717	250	176	250
718	252	182	252
719	252	185	251
720	253	191	252
721	253	196	252
722	255	205	254
723	255	211	254
724	250	209	248
725	244	206	242
726	0	0	0
727	0	0	0
728	253	206	254
729	252	198	254
730	249	190	253
731	244	184	251
732	241	179	250
733	242	178	252
734	244	180	253
735	243	179	253
736	242	175	251
737	241	169	247
738	251	178	254
739	251	176	254
740	250	173	252
741	252	176	254
742	251	176	253
743	251	179	254
744	251	179	253
745	254	183	255
746	249	178	250
747	251	184	252
748	255	193	254
749	255	198	255
750	254	201	254
751	255	210	255
752	255	213	254
753	250	212	249
754	0	0	0
755	0	0	0
756	250	207	251
757	251	202	253
758	251	197	254
759	247	189	252
760	243	185	251
761	240	180	250
762	244	183	254
763	245	184	255
764	242	179	253
765	240	175	250
766	248	183	255
767	255	191	255
768	255	187	255
769	253	184	255
770	253	184	255
771	251	183	255
772	251	184	255
773	250	185	254
774	249	182	252
775	244	177	246
776	251	189	252
777	255	198	255
778	254	201	254
779	253	204	253
780	253	210	253
781	253	213	252
782	0	0	0
783	0	0	0
784	0	0	0
785	251	207	253
786	249	203	254
787	244	194	251
788	243	190	251
789	243	188	253
790	240	182	250
791	244	185	254
792	246	186	255
793	247	183	255
794	244	178	251
795	248	183	254
796	251	188	255
797	247	182	252
798	249	186	254
799	250	187	255
800	249	186	253
801	249	187	253
802	250	190	255
803	248	187	251
804	247	188	250
805	255	200	255
806	254	201	254
807	253	205	253
808	255	214	255
809	255	219	255
810	250	215	250
811	0	0	0
812	0	0	0
813	0	0	0
814	253	209	255
815	250	204	254
816	243	196	252
817	241	192	251
818	240	188	251
819	238	182	248
820	239	182	250
821	241	182	251
822	239	178	248
823	236	172	244
824	241	178	248
825	243	183	250
826	243	185	250
827	246	189	253
828	249	190	254
829	248	189	252
830	249	192	253
831	249	194	254
832	249	195	253
833	248	195	251
834	249	200	252
835	248	201	249
836	252	211	253
837	255	221	255
838	252	218	250
839	0	0	0
840	0	0	0
841	0	0	0
842	253	212	253
843	252	207	254
844	248	201	252
845	241	194	249
846	243	198	254
847	240	193	252
848	236	185	248
849	239	187	251
850	241	190	253
851	233	182	247
852	238	188	251
853	247	197	255
854	248	197	255
855	246	197	255
856	244	193	252
857	251	197	255
858	251	195	253
859	248	196	252
860	250	201	254
861	249	202	253
862	249	205	252
863	0	0	0
864	249	212	252
865	255	223	255
866	255	228	255
867	253	226	251
868	0	0	0
869	0	0	0
870	0	0	0
871	0	0	0
872	247	202	248
873	243	196	246
874	244	199	251
875	245	203	255
876	238	195	250
877	232	187	246
878	238	193	251
879	238	195	252
880	236	198	253
881	242	205	255
882	251	209	255
883	252	209	255
884	245	201	254
885	243	197	250
886	249	199	252
887	249	198	251
888	250	203	253
889	251	208	254
890	252	211	255
891	0	0	0
892	0	0	0
893	0	0	0
894	255	231	255
895	255	235	255
896	0	0	0
897	0	0	0
898	0	0	0
899	0	0	0
900	0	0	0
901	0	0	0
902	251	210	254
903	253	214	255
904	243	202	251
905	0	0	0
906	0	0	0
907	241	205	254
908	236	201	251
909	235	204	252
910	240	209	255
911	251	215	255
912	249	207	255
913	244	201	250
914	246	204	252
915	0	0	0
916	253	212	255
917	255	220	255
918	250	210	251
919	0	0	0
920	0	0	0
921	0	0	0
922	0	0	0
923	0	0	0
924	0	0	0
925	0	0	0
926	0	0	0
927	0	0	0
928	0	0	0
929	0	0	0
930	0	0	0
931	0	0	0
932	248	210	252
933	0	0	0
934	0	0	0
935	0	0	0
936	0	0	0
937	0	0	0
938	0	0	0
939	243	216	255
940	248	212	255
941	246	205	250
942	249	209	252
943	0	0	0
944	0	0	0
945	0	0	0
946	255	221	255
947	0	0	0
948	0	0	0
949	0	0	0
950	0	0	0
951	0	0	0
952	0	0	0
953	0	0	0
954	0	0	0
955	0	0	0
956	0	0	0
957	0	0	0
