 	R	G	B
1	0	0	0
2	0	0	0
3	0	0	0
4	0	0	0
5	0	0	0
6	0	0	0
7	0	0	0
8	0	0	0
9	0	0	0
10	0	0	0
11	0	0	0
12	0	0	0
13	0	0	0
14	0	0	0
15	0	0	0
16	0	0	0
17	0	0	0
18	0	0	0
19	0	0	0
20	0	0	0
21	0	0	0
22	0	0	0
23	0	0	0
24	0	0	0
25	0	0	0
26	0	0	0
27	0	0	0
28	0	0	0
29	0	0	0
30	0	0	0
31	0	0	0
32	0	0	0
33	0	0	0
34	0	0	0
35	0	0	0
36	0	0	0
37	0	0	0
38	0	0	0
39	0	0	0
40	0	0	0
41	0	0	0
42	0	0	0
43	0	0	0
44	0	0	0
45	0	0	0
46	0	0	0
47	255	252	253
48	254	237	246
49	0	0	0
50	0	0	0
51	0	0	0
52	0	0	0
53	0	0	0
54	0	0	0
55	0	0	0
56	0	0	0
57	0	0	0
58	0	0	0
59	0	0	0
60	0	0	0
61	0	0	0
62	0	0	0
63	0	0	0
64	0	0	0
65	0	0	0
66	0	0	0
67	0	0	0
68	0	0	0
69	0	0	0
70	0	0	0
71	0	0	0
72	0	0	0
73	0	0	0
74	0	0	0
75	0	0	0
76	0	0	0
77	0	0	0
78	0	0	0
79	0	0	0
80	0	0	0
81	0	0	0
82	0	0	0
83	0	0	0
84	0	0	0
85	0	0	0
86	0	0	0
87	0	0	0
88	0	0	0
89	0	0	0
90	0	0	0
91	0	0	0
92	0	0	0
93	0	0	0
94	0	0	0
95	0	0	0
96	0	0	0
97	255	253	253
98	255	243	250
99	252	228	243
100	251	222	244
101	0	0	0
102	0	0	0
103	0	0	0
104	0	0	0
105	0	0	0
106	0	0	0
107	0	0	0
108	0	0	0
109	0	0	0
110	0	0	0
111	0	0	0
112	0	0	0
113	0	0	0
114	0	0	0
115	0	0	0
116	0	0	0
117	0	0	0
118	0	0	0
119	0	0	0
120	0	0	0
121	0	0	0
122	0	0	0
123	0	0	0
124	0	0	0
125	0	0	0
126	0	0	0
127	0	0	0
128	0	0	0
129	0	0	0
130	0	0	0
131	0	0	0
132	0	0	0
133	0	0	0
134	0	0	0
135	0	0	0
136	0	0	0
137	0	0	0
138	0	0	0
139	0	0	0
140	0	0	0
141	0	0	0
142	0	0	0
143	0	0	0
144	0	0	0
145	0	0	0
146	0	0	0
147	255	253	254
148	255	243	251
149	251	228	244
150	245	216	239
151	243	209	240
152	240	203	241
153	0	0	0
154	0	0	0
155	0	0	0
156	0	0	0
157	0	0	0
158	0	0	0
159	0	0	0
160	0	0	0
161	0	0	0
162	0	0	0
163	0	0	0
164	0	0	0
165	0	0	0
166	0	0	0
167	0	0	0
168	0	0	0
169	0	0	0
170	0	0	0
171	0	0	0
172	0	0	0
173	0	0	0
174	0	0	0
175	0	0	0
176	0	0	0
177	0	0	0
178	0	0	0
179	0	0	0
180	0	0	0
181	0	0	0
182	0	0	0
183	0	0	0
184	0	0	0
185	0	0	0
186	0	0	0
187	0	0	0
188	0	0	0
189	0	0	0
190	0	0	0
191	0	0	0
192	0	0	0
193	0	0	0
194	0	0	0
195	0	0	0
196	0	0	0
197	0	0	0
198	0	0	0
199	253	229	244
200	248	218	242
201	242	206	239
202	241	202	242
203	237	194	241
204	0	0	0
205	0	0	0
206	0	0	0
207	0	0	0
208	0	0	0
209	0	0	0
210	0	0	0
211	0	0	0
212	0	0	0
213	0	0	0
214	0	0	0
215	0	0	0
216	0	0	0
217	0	0	0
218	0	0	0
219	0	0	0
220	0	0	0
221	0	0	0
222	0	0	0
223	0	0	0
224	0	0	0
225	0	0	0
226	0	0	0
227	0	0	0
228	0	0	0
229	0	0	0
230	0	0	0
231	0	0	0
232	0	0	0
233	0	0	0
234	0	0	0
235	0	0	0
236	0	0	0
237	0	0	0
238	0	0	0
239	0	0	0
240	0	0	0
241	0	0	0
242	0	0	0
243	0	0	0
244	0	0	0
245	0	0	0
246	0	0	0
247	0	0	0
248	0	0	0
249	0	0	0
250	251	222	243
251	249	213	244
252	242	198	241
253	239	193	242
254	240	195	246
255	0	0	0
256	0	0	0
257	0	0	0
258	0	0	0
259	0	0	0
260	0	0	0
261	0	0	0
262	0	0	0
263	0	0	0
264	0	0	0
265	0	0	0
266	0	0	0
267	0	0	0
268	0	0	0
269	0	0	0
270	0	0	0
271	0	0	0
272	0	0	0
273	0	0	0
274	0	0	0
275	0	0	0
276	0	0	0
277	0	0	0
278	0	0	0
279	0	0	0
280	0	0	0
281	0	0	0
282	0	0	0
283	0	0	0
284	0	0	0
285	0	0	0
286	0	0	0
287	0	0	0
288	0	0	0
289	0	0	0
290	0	0	0
291	0	0	0
292	0	0	0
293	0	0	0
294	0	0	0
295	0	0	0
296	0	0	0
297	0	0	0
298	0	0	0
299	0	0	0
300	250	220	241
301	252	216	244
302	248	205	243
303	239	189	240
304	242	194	247
305	240	195	247
306	0	0	0
307	0	0	0
308	0	0	0
309	0	0	0
310	0	0	0
311	0	0	0
312	0	0	0
313	0	0	0
314	0	0	0
315	0	0	0
316	0	0	0
317	0	0	0
318	0	0	0
319	0	0	0
320	0	0	0
321	0	0	0
322	0	0	0
323	0	0	0
324	0	0	0
325	0	0	0
326	0	0	0
327	0	0	0
328	0	0	0
329	0	0	0
330	0	0	0
331	0	0	0
332	0	0	0
333	0	0	0
334	0	0	0
335	0	0	0
336	0	0	0
337	0	0	0
338	0	0	0
339	0	0	0
340	0	0	0
341	0	0	0
342	0	0	0
343	0	0	0
344	0	0	0
345	0	0	0
346	0	0	0
347	0	0	0
348	0	0	0
349	0	0	0
350	248	218	241
351	252	216	245
352	246	201	240
353	239	186	237
354	238	185	241
355	236	187	244
356	243	199	250
357	0	0	0
358	0	0	0
359	0	0	0
360	0	0	0
361	0	0	0
362	0	0	0
363	0	0	0
364	0	0	0
365	0	0	0
366	0	0	0
367	0	0	0
368	0	0	0
369	0	0	0
370	0	0	0
371	0	0	0
372	0	0	0
373	0	0	0
374	0	0	0
375	0	0	0
376	0	0	0
377	0	0	0
378	0	0	0
379	0	0	0
380	0	0	0
381	0	0	0
382	0	0	0
383	0	0	0
384	0	0	0
385	0	0	0
386	0	0	0
387	0	0	0
388	0	0	0
389	0	0	0
390	0	0	0
391	0	0	0
392	0	0	0
393	0	0	0
394	0	0	0
395	0	0	0
396	0	0	0
397	0	0	0
398	255	248	251
399	255	236	246
400	252	224	245
401	248	213	244
402	244	200	242
403	236	182	235
404	238	183	240
405	236	180	241
406	241	192	248
407	247	203	253
408	247	203	249
409	0	0	0
410	0	0	0
411	0	0	0
412	0	0	0
413	0	0	0
414	0	0	0
415	0	0	0
416	0	0	0
417	0	0	0
418	0	0	0
419	0	0	0
420	0	0	0
421	0	0	0
422	0	0	0
423	0	0	0
424	0	0	0
425	0	0	0
426	0	0	0
427	0	0	0
428	0	0	0
429	0	0	0
430	0	0	0
431	0	0	0
432	0	0	0
433	0	0	0
434	0	0	0
435	0	0	0
436	0	0	0
437	0	0	0
438	0	0	0
439	0	0	0
440	0	0	0
441	0	0	0
442	0	0	0
443	0	0	0
444	0	0	0
445	0	0	0
446	0	0	0
447	0	0	0
448	255	249	250
449	255	237	247
450	248	216	239
451	243	205	238
452	239	196	239
453	231	180	235
454	233	180	239
455	235	180	242
456	239	185	246
457	249	198	254
458	246	197	249
459	0	0	0
460	0	0	0
461	0	0	0
462	0	0	0
463	0	0	0
464	0	0	0
465	0	0	0
466	0	0	0
467	0	0	0
468	0	0	0
469	0	0	0
470	0	0	0
471	0	0	0
472	0	0	0
473	0	0	0
474	0	0	0
475	0	0	0
476	0	0	0
477	0	0	0
478	0	0	0
479	0	0	0
480	0	0	0
481	0	0	0
482	0	0	0
483	0	0	0
484	0	0	0
485	0	0	0
486	0	0	0
487	0	0	0
488	0	0	0
489	0	0	0
490	0	0	0
491	0	0	0
492	0	0	0
493	0	0	0
494	0	0	0
495	0	0	0
496	0	0	0
497	255	255	248
498	255	249	248
499	255	239	245
500	250	219	239
501	240	199	235
502	238	193	238
503	232	181	236
504	232	180	239
505	233	178	242
506	240	186	249
507	243	189	250
508	245	192	249
509	241	189	244
510	0	0	0
511	0	0	0
512	0	0	0
513	0	0	0
514	0	0	0
515	0	0	0
516	0	0	0
517	0	0	0
518	0	0	0
519	0	0	0
520	0	0	0
521	0	0	0
522	0	0	0
523	0	0	0
524	0	0	0
525	0	0	0
526	0	0	0
527	0	0	0
528	0	0	0
529	0	0	0
530	0	0	0
531	0	0	0
532	0	0	0
533	0	0	0
534	0	0	0
535	0	0	0
536	0	0	0
537	0	0	0
538	0	0	0
539	0	0	0
540	0	0	0
541	0	0	0
542	0	0	0
543	0	0	0
544	0	0	0
545	0	0	0
546	0	0	0
547	255	254	250
548	255	248	249
549	255	236	243
550	252	222	239
551	243	203	234
552	240	194	238
553	239	186	242
554	232	176	238
555	230	173	239
556	237	182	247
557	244	188	252
558	242	187	248
559	241	187	245
560	243	197	246
561	0	0	0
562	0	0	0
563	0	0	0
564	0	0	0
565	0	0	0
566	0	0	0
567	0	0	0
568	0	0	0
569	0	0	0
570	0	0	0
571	0	0	0
572	0	0	0
573	0	0	0
574	0	0	0
575	0	0	0
576	0	0	0
577	0	0	0
578	0	0	0
579	0	0	0
580	0	0	0
581	0	0	0
582	0	0	0
583	0	0	0
584	0	0	0
585	0	0	0
586	0	0	0
587	0	0	0
588	0	0	0
589	0	0	0
590	0	0	0
591	0	0	0
592	0	0	0
593	0	0	0
594	0	0	0
595	0	0	0
596	0	0	0
597	0	0	0
598	255	245	248
599	255	235	242
600	250	220	236
601	246	208	235
602	245	199	238
603	242	188	240
604	239	182	243
605	232	171	240
606	239	180	248
607	244	186	252
608	243	186	249
609	240	183	245
610	245	196	249
611	0	0	0
612	0	0	0
613	0	0	0
614	0	0	0
615	0	0	0
616	0	0	0
617	0	0	0
618	0	0	0
619	0	0	0
620	0	0	0
621	0	0	0
622	0	0	0
623	0	0	0
624	0	0	0
625	0	0	0
626	0	0	0
627	0	0	0
628	0	0	0
629	0	0	0
630	0	0	0
631	0	0	0
632	0	0	0
633	0	0	0
634	0	0	0
635	0	0	0
636	0	0	0
637	0	0	0
638	0	0	0
639	0	0	0
640	0	0	0
641	0	0	0
642	0	0	0
643	0	0	0
644	0	0	0
645	0	0	0
646	0	0	0
647	0	0	0
648	255	250	251
649	255	243	249
650	248	217	236
651	239	201	231
652	241	195	235
653	244	188	239
654	238	176	237
655	230	165	236
656	232	167	241
657	244	178	250
658	249	186	253
659	242	182	246
660	240	185	244
661	0	0	0
662	0	0	0
663	0	0	0
664	0	0	0
665	0	0	0
666	0	0	0
667	0	0	0
668	0	0	0
669	0	0	0
670	0	0	0
671	0	0	0
672	0	0	0
673	0	0	0
674	0	0	0
675	0	0	0
676	0	0	0
677	0	0	0
678	0	0	0
679	0	0	0
680	0	0	0
681	0	0	0
682	0	0	0
683	0	0	0
684	0	0	0
685	0	0	0
686	0	0	0
687	0	0	0
688	0	0	0
689	0	0	0
690	0	0	0
691	0	0	0
692	0	0	0
693	0	0	0
694	0	0	0
695	0	0	0
696	0	0	0
697	0	0	0
698	0	0	0
699	255	246	251
700	253	223	241
701	240	199	233
702	235	190	234
703	235	183	237
704	238	175	239
705	232	161	233
706	232	163	238
707	234	163	242
708	247	178	252
709	250	185	253
710	245	186	248
711	241	188	244
712	0	0	0
713	0	0	0
714	0	0	0
715	0	0	0
716	0	0	0
717	0	0	0
718	0	0	0
719	0	0	0
720	0	0	0
721	0	0	0
722	0	0	0
723	0	0	0
724	0	0	0
725	0	0	0
726	0	0	0
727	0	0	0
728	0	0	0
729	0	0	0
730	0	0	0
731	0	0	0
732	0	0	0
733	0	0	0
734	0	0	0
735	0	0	0
736	0	0	0
737	0	0	0
738	0	0	0
739	0	0	0
740	0	0	0
741	0	0	0
742	0	0	0
743	0	0	0
744	0	0	0
745	0	0	0
746	0	0	0
747	0	0	0
748	0	0	0
749	0	0	0
750	255	232	244
751	247	209	237
752	241	194	236
753	236	185	239
754	237	182	243
755	237	171	242
756	235	163	240
757	240	167	246
758	239	166	246
759	247	176	251
760	250	184	251
761	244	185	245
762	242	192	244
763	0	0	0
764	0	0	0
765	0	0	0
766	0	0	0
767	0	0	0
768	0	0	0
769	0	0	0
770	0	0	0
771	0	0	0
772	0	0	0
773	0	0	0
774	0	0	0
775	0	0	0
776	0	0	0
777	0	0	0
778	0	0	0
779	0	0	0
780	0	0	0
781	0	0	0
782	0	0	0
783	0	0	0
784	0	0	0
785	0	0	0
786	0	0	0
787	0	0	0
788	0	0	0
789	0	0	0
790	0	0	0
791	0	0	0
792	0	0	0
793	0	0	0
794	0	0	0
795	0	0	0
796	0	0	0
797	0	0	0
798	0	0	0
799	0	0	0
800	252	226	239
801	251	218	239
802	247	203	237
803	240	187	236
804	238	183	240
805	238	179	245
806	238	173	246
807	236	164	244
808	242	167	248
809	240	163	244
810	246	174	248
811	246	181	245
812	244	189	244
813	0	0	0
814	0	0	0
815	0	0	0
816	0	0	0
817	0	0	0
818	0	0	0
819	0	0	0
820	0	0	0
821	0	0	0
822	0	0	0
823	0	0	0
824	0	0	0
825	0	0	0
826	0	0	0
827	0	0	0
828	0	0	0
829	0	0	0
830	0	0	0
831	0	0	0
832	0	0	0
833	0	0	0
834	0	0	0
835	0	0	0
836	0	0	0
837	0	0	0
838	0	0	0
839	0	0	0
840	0	0	0
841	0	0	0
842	0	0	0
843	0	0	0
844	0	0	0
845	0	0	0
846	0	0	0
847	0	0	0
848	0	0	0
849	0	0	0
850	255	230	242
851	255	224	244
852	246	200	233
853	237	183	229
854	234	175	233
855	233	171	238
856	234	169	242
857	231	161	240
858	235	162	244
859	241	165	247
860	247	173	249
861	250	182	250
862	247	187	245
863	0	0	0
864	0	0	0
865	0	0	0
866	0	0	0
867	0	0	0
868	0	0	0
869	0	0	0
870	0	0	0
871	0	0	0
872	0	0	0
873	0	0	0
874	0	0	0
875	0	0	0
876	0	0	0
877	0	0	0
878	0	0	0
879	0	0	0
880	0	0	0
881	0	0	0
882	0	0	0
883	0	0	0
884	0	0	0
885	0	0	0
886	0	0	0
887	0	0	0
888	0	0	0
889	0	0	0
890	0	0	0
891	0	0	0
892	0	0	0
893	0	0	0
894	0	0	0
895	0	0	0
896	0	0	0
897	0	0	0
898	255	243	246
899	255	239	244
900	255	232	243
901	255	227	244
902	250	205	237
903	238	181	229
904	234	173	232
905	231	165	236
906	234	166	242
907	233	161	241
908	234	162	242
909	236	162	245
910	249	176	253
911	253	183	253
912	252	189	250
913	248	192	246
914	0	0	0
915	0	0	0
916	0	0	0
917	0	0	0
918	0	0	0
919	0	0	0
920	0	0	0
921	0	0	0
922	0	0	0
923	0	0	0
924	0	0	0
925	0	0	0
926	0	0	0
927	0	0	0
928	0	0	0
929	0	0	0
930	0	0	0
931	0	0	0
932	0	0	0
933	0	0	0
934	0	0	0
935	0	0	0
936	0	0	0
937	0	0	0
938	0	0	0
939	0	0	0
940	0	0	0
941	0	0	0
942	0	0	0
943	0	0	0
944	0	0	0
945	0	0	0
946	0	0	0
947	0	0	0
948	255	246	247
949	255	246	249
950	255	227	241
951	255	221	242
952	250	205	237
953	238	181	228
954	237	175	233
955	233	167	236
956	239	171	246
957	244	171	251
958	234	157	241
959	232	155	239
960	241	168	249
961	251	180	255
962	248	179	247
963	247	184	243
964	249	197	245
965	0	0	0
966	0	0	0
967	0	0	0
968	0	0	0
969	0	0	0
970	0	0	0
971	0	0	0
972	0	0	0
973	0	0	0
974	0	0	0
975	0	0	0
976	0	0	0
977	0	0	0
978	0	0	0
979	0	0	0
980	0	0	0
981	0	0	0
982	0	0	0
983	0	0	0
984	0	0	0
985	0	0	0
986	0	0	0
987	0	0	0
988	0	0	0
989	0	0	0
990	0	0	0
991	0	0	0
992	0	0	0
993	0	0	0
994	0	0	0
995	0	0	0
996	0	0	0
997	0	0	0
998	0	0	0
999	255	247	249
1000	255	230	242
1001	251	213	237
1002	245	198	234
1003	239	182	231
1004	240	178	236
1005	238	171	240
1006	240	173	245
1007	244	174	249
1008	242	164	245
1009	233	150	237
1010	241	164	247
1011	248	176	253
1012	251	180	252
1013	246	178	244
1014	251	193	246
1015	253	205	247
1016	0	0	0
1017	0	0	0
1018	0	0	0
1019	0	0	0
1020	0	0	0
1021	0	0	0
1022	0	0	0
1023	0	0	0
1024	0	0	0
1025	0	0	0
1026	0	0	0
1027	0	0	0
1028	0	0	0
1029	0	0	0
1030	0	0	0
1031	0	0	0
1032	0	0	0
1033	0	0	0
1034	0	0	0
1035	0	0	0
1036	0	0	0
1037	0	0	0
1038	0	0	0
1039	0	0	0
1040	0	0	0
1041	0	0	0
1042	0	0	0
1043	0	0	0
1044	0	0	0
1045	0	0	0
1046	0	0	0
1047	0	0	0
1048	0	0	0
1049	0	0	0
1050	255	235	244
1051	251	218	238
1052	249	206	237
1053	243	190	235
1054	240	180	237
1055	242	176	243
1056	235	163	240
1057	236	163	243
1058	241	168	245
1059	238	157	239
1060	240	157	241
1061	250	172	252
1062	250	175	251
1063	250	177	248
1064	246	178	242
1065	249	192	244
1066	255	212	248
1067	255	228	250
1068	0	0	0
1069	0	0	0
1070	0	0	0
1071	0	0	0
1072	0	0	0
1073	0	0	0
1074	0	0	0
1075	0	0	0
1076	0	0	0
1077	0	0	0
1078	0	0	0
1079	0	0	0
1080	0	0	0
1081	0	0	0
1082	0	0	0
1083	0	0	0
1084	0	0	0
1085	0	0	0
1086	0	0	0
1087	0	0	0
1088	0	0	0
1089	0	0	0
1090	0	0	0
1091	0	0	0
1092	0	0	0
1093	0	0	0
1094	0	0	0
1095	0	0	0
1096	0	0	0
1097	0	0	0
1098	0	0	0
1099	0	0	0
1100	250	224	238
1101	254	223	240
1102	249	209	236
1103	246	196	235
1104	243	186	236
1105	240	176	238
1106	237	166	239
1107	229	151	234
1108	234	158	240
1109	239	162	242
1110	243	163	243
1111	244	163	243
1112	249	169	247
1113	247	171	244
1114	247	176	243
1115	242	177	238
1116	250	198	245
1117	255	217	245
1118	0	0	0
1119	0	0	0
1120	0	0	0
1121	0	0	0
1122	0	0	0
1123	0	0	0
1124	0	0	0
1125	0	0	0
1126	0	0	0
1127	0	0	0
1128	0	0	0
1129	0	0	0
1130	0	0	0
1131	0	0	0
1132	0	0	0
1133	0	0	0
1134	0	0	0
1135	0	0	0
1136	0	0	0
1137	0	0	0
1138	0	0	0
1139	0	0	0
1140	0	0	0
1141	0	0	0
1142	0	0	0
1143	0	0	0
1144	0	0	0
1145	0	0	0
1146	0	0	0
1147	0	0	0
1148	0	0	0
1149	0	0	0
1150	252	229	242
1151	255	231	248
1152	254	213	239
1153	243	195	231
1154	241	187	233
1155	239	177	235
1156	239	171	239
1157	234	160	237
1158	232	155	238
1159	237	161	243
1160	242	166	245
1161	245	166	244
1162	246	166	244
1163	250	172	246
1164	248	174	243
1165	244	177	240
1166	249	193	245
1167	255	215	252
1168	255	223	247
1169	0	0	0
1170	0	0	0
1171	0	0	0
1172	0	0	0
1173	0	0	0
1174	0	0	0
1175	0	0	0
1176	0	0	0
1177	0	0	0
1178	0	0	0
1179	0	0	0
1180	0	0	0
1181	0	0	0
1182	0	0	0
1183	0	0	0
1184	0	0	0
1185	0	0	0
1186	0	0	0
1187	0	0	0
1188	0	0	0
1189	0	0	0
1190	0	0	0
1191	0	0	0
1192	0	0	0
1193	0	0	0
1194	0	0	0
1195	0	0	0
1196	0	0	0
1197	0	0	0
1198	0	0	0
1199	0	0	0
1200	248	226	240
1201	255	231	246
1202	255	216	241
1203	247	198	233
1204	240	187	231
1205	238	179	234
1206	239	174	237
1207	238	166	240
1208	238	164	242
1209	236	158	240
1210	243	165	246
1211	246	170	248
1212	247	170	247
1213	247	169	245
1214	251	176	247
1215	249	179	243
1216	254	195	249
1217	255	210	252
1218	255	221	252
1219	0	0	0
1220	0	0	0
1221	0	0	0
1222	0	0	0
1223	0	0	0
1224	0	0	0
1225	0	0	0
1226	0	0	0
1227	0	0	0
1228	0	0	0
1229	0	0	0
1230	0	0	0
1231	0	0	0
1232	0	0	0
1233	0	0	0
1234	0	0	0
1235	0	0	0
1236	0	0	0
1237	0	0	0
1238	0	0	0
1239	0	0	0
1240	0	0	0
1241	0	0	0
1242	0	0	0
1243	0	0	0
1244	0	0	0
1245	0	0	0
1246	0	0	0
1247	0	0	0
1248	0	0	0
1249	0	0	0
1250	255	229	243
1251	255	231	247
1252	252	218	241
1253	243	199	233
1254	240	188	233
1255	237	180	233
1256	238	176	237
1257	239	170	239
1258	238	163	240
1259	238	160	241
1260	241	161	242
1261	248	168	247
1262	246	167	245
1263	243	165	242
1264	243	168	242
1265	247	175	243
1266	251	186	245
1267	255	203	251
1268	252	205	244
1269	0	0	0
1270	0	0	0
1271	0	0	0
1272	0	0	0
1273	0	0	0
1274	0	0	0
1275	0	0	0
1276	0	0	0
1277	0	0	0
1278	0	0	0
1279	0	0	0
1280	0	0	0
1281	0	0	0
1282	0	0	0
1283	0	0	0
1284	0	0	0
1285	0	0	0
1286	0	0	0
1287	0	0	0
1288	0	0	0
1289	0	0	0
1290	0	0	0
1291	0	0	0
1292	0	0	0
1293	0	0	0
1294	0	0	0
1295	0	0	0
1296	0	0	0
1297	0	0	0
1298	0	0	0
1299	0	0	0
1300	0	0	0
1301	255	229	243
1302	251	216	238
1303	246	204	235
1304	242	193	236
1305	238	182	237
1306	236	176	238
1307	236	171	239
1308	235	165	239
1309	234	158	238
1310	241	162	244
1311	244	163	244
1312	247	166	244
1313	245	163	241
1314	245	168	242
1315	245	171	243
1316	253	185	249
1317	255	195	249
1318	252	199	245
1319	0	0	0
1320	0	0	0
1321	0	0	0
1322	0	0	0
1323	0	0	0
1324	0	0	0
1325	0	0	0
1326	0	0	0
1327	0	0	0
1328	0	0	0
1329	0	0	0
1330	0	0	0
1331	0	0	0
1332	0	0	0
1333	0	0	0
1334	0	0	0
1335	0	0	0
1336	0	0	0
1337	0	0	0
1338	0	0	0
1339	0	0	0
1340	0	0	0
1341	0	0	0
1342	0	0	0
1343	0	0	0
1344	0	0	0
1345	0	0	0
1346	0	0	0
1347	0	0	0
1348	0	0	0
1349	0	0	0
1350	0	0	0
1351	255	229	241
1352	255	223	240
1353	252	210	237
1354	245	195	235
1355	242	184	236
1356	238	177	239
1357	232	169	237
1358	236	173	241
1359	234	165	239
1360	237	163	241
1361	245	168	247
1362	246	167	245
1363	250	169	246
1364	246	163	240
1365	247	168	242
1366	250	178	246
1367	255	190	250
1368	251	193	245
1369	0	0	0
1370	0	0	0
1371	0	0	0
1372	0	0	0
1373	0	0	0
1374	0	0	0
1375	0	0	0
1376	0	0	0
1377	0	0	0
1378	0	0	0
1379	0	0	0
1380	0	0	0
1381	0	0	0
1382	0	0	0
1383	0	0	0
1384	0	0	0
1385	0	0	0
1386	0	0	0
1387	0	0	0
1388	0	0	0
1389	0	0	0
1390	0	0	0
1391	0	0	0
1392	0	0	0
1393	0	0	0
1394	0	0	0
1395	0	0	0
1396	0	0	0
1397	0	0	0
1398	0	0	0
1399	0	0	0
1400	0	0	0
1401	0	0	0
1402	253	220	237
1403	253	214	239
1404	247	199	235
1405	241	183	232
1406	243	180	237
1407	238	171	237
1408	238	174	241
1409	240	176	244
1410	240	173	242
1411	241	169	242
1412	246	170	245
1413	248	169	246
1414	249	168	245
1415	245	162	239
1416	250	174	244
1417	252	182	244
1418	251	188	244
1419	247	192	240
1420	0	0	0
1421	0	0	0
1422	0	0	0
1423	0	0	0
1424	0	0	0
1425	0	0	0
1426	0	0	0
1427	0	0	0
1428	0	0	0
1429	0	0	0
1430	0	0	0
1431	0	0	0
1432	0	0	0
1433	0	0	0
1434	0	0	0
1435	0	0	0
1436	0	0	0
1437	0	0	0
1438	0	0	0
1439	0	0	0
1440	0	0	0
1441	0	0	0
1442	0	0	0
1443	0	0	0
1444	0	0	0
1445	0	0	0
1446	0	0	0
1447	0	0	0
1448	0	0	0
1449	0	0	0
1450	0	0	0
1451	0	0	0
1452	255	230	241
1453	255	222	240
1454	251	207	237
1455	245	192	234
1456	245	185	236
1457	247	181	241
1458	239	168	237
1459	241	171	241
1460	240	170	240
1461	236	164	235
1462	242	169	240
1463	246	169	243
1464	247	168	243
1465	245	165	242
1466	246	168	242
1467	252	180	245
1468	252	187	244
1469	251	193	242
1470	248	199	241
1471	0	0	0
1472	0	0	0
1473	0	0	0
1474	0	0	0
1475	0	0	0
1476	0	0	0
1477	0	0	0
1478	0	0	0
1479	0	0	0
1480	0	0	0
1481	0	0	0
1482	0	0	0
1483	0	0	0
1484	0	0	0
1485	0	0	0
1486	0	0	0
1487	0	0	0
1488	0	0	0
1489	0	0	0
1490	0	0	0
1491	0	0	0
1492	0	0	0
1493	0	0	0
1494	0	0	0
1495	0	0	0
1496	0	0	0
1497	0	0	0
1498	0	0	0
1499	0	0	0
1500	254	239	246
1501	0	0	0
1502	255	234	245
1503	255	231	242
1504	252	212	233
1505	246	198	233
1506	246	191	236
1507	246	183	236
1508	246	176	238
1509	239	162	236
1510	241	166	241
1511	240	164	238
1512	241	167	239
1513	246	171	243
1514	246	169	242
1515	245	166	241
1516	250	173	245
1517	249	176	243
1518	253	186	245
1519	252	192	242
1520	251	199	240
1521	248	205	239
1522	0	0	0
1523	0	0	0
1524	0	0	0
1525	0	0	0
1526	0	0	0
1527	0	0	0
1528	0	0	0
1529	0	0	0
1530	0	0	0
1531	0	0	0
1532	0	0	0
1533	0	0	0
1534	0	0	0
1535	0	0	0
1536	0	0	0
1537	0	0	0
1538	0	0	0
1539	0	0	0
1540	0	0	0
1541	0	0	0
1542	0	0	0
1543	0	0	0
1544	0	0	0
1545	0	0	0
1546	0	0	0
1547	0	0	0
1548	0	0	0
1549	0	0	0
1550	255	242	248
1551	255	239	247
1552	255	230	243
1553	255	227	242
1554	255	216	235
1555	244	197	227
1556	246	195	234
1557	243	186	236
1558	244	181	237
1559	247	175	240
1560	239	159	236
1561	240	161	240
1562	242	165	240
1563	246	168	241
1564	248	172	244
1565	243	166	239
1566	248	174	244
1567	255	182	248
1568	247	174	239
1569	249	183	240
1570	255	203	244
1571	254	209	242
1572	252	216	241
1573	0	0	0
1574	0	0	0
1575	0	0	0
1576	0	0	0
1577	0	0	0
1578	0	0	0
1579	0	0	0
1580	0	0	0
1581	0	0	0
1582	0	0	0
1583	0	0	0
1584	0	0	0
1585	0	0	0
1586	0	0	0
1587	0	0	0
1588	0	0	0
1589	0	0	0
1590	0	0	0
1591	0	0	0
1592	0	0	0
1593	0	0	0
1594	0	0	0
1595	0	0	0
1596	0	0	0
1597	0	0	0
1598	0	0	0
1599	0	0	0
1600	255	242	245
1601	255	238	244
1602	253	229	240
1603	251	220	236
1604	250	211	234
1605	248	202	232
1606	247	197	235
1607	248	193	239
1608	245	186	239
1609	246	181	241
1610	245	169	240
1611	236	152	234
1612	239	159	240
1613	241	163	239
1614	246	167	240
1615	247	170	241
1616	248	175	242
1617	252	182	245
1618	251	179	242
1619	243	172	235
1620	255	196	246
1621	255	214	249
1622	255	221	246
1623	0	0	0
1624	0	0	0
1625	0	0	0
1626	0	0	0
1627	0	0	0
1628	0	0	0
1629	0	0	0
1630	0	0	0
1631	0	0	0
1632	0	0	0
1633	0	0	0
1634	0	0	0
1635	0	0	0
1636	0	0	0
1637	0	0	0
1638	0	0	0
1639	0	0	0
1640	0	0	0
1641	0	0	0
1642	0	0	0
1643	0	0	0
1644	0	0	0
1645	0	0	0
1646	0	0	0
1647	0	0	0
1648	0	0	0
1649	0	0	0
1650	0	0	0
1651	254	241	244
1652	254	235	242
1653	250	225	237
1654	252	221	237
1655	252	212	236
1656	253	207	239
1657	254	202	243
1658	250	192	242
1659	249	185	242
1660	248	178	242
1661	242	164	237
1662	240	160	239
1663	243	167	244
1664	243	168	241
1665	248	172	242
1666	251	176	243
1667	253	182	244
1668	251	181	241
1669	246	177	236
1670	249	186	240
1671	255	209	252
1672	254	209	243
1673	0	0	0
1674	0	0	0
1675	0	0	0
1676	0	0	0
1677	0	0	0
1678	0	0	0
1679	0	0	0
1680	0	0	0
1681	0	0	0
1682	0	0	0
1683	0	0	0
1684	0	0	0
1685	0	0	0
1686	0	0	0
1687	0	0	0
1688	0	0	0
1689	0	0	0
1690	0	0	0
1691	0	0	0
1692	0	0	0
1693	0	0	0
1694	0	0	0
1695	0	0	0
1696	0	0	0
1697	0	0	0
1698	0	0	0
1699	0	0	0
1700	0	0	0
1701	0	0	0
1702	254	238	242
1703	253	233	241
1704	251	225	238
1705	252	220	236
1706	254	214	236
1707	254	207	238
1708	249	196	236
1709	245	186	237
1710	246	180	239
1711	244	172	237
1712	245	170	240
1713	244	167	241
1714	245	171	244
1715	245	171	241
1716	250	177	243
1717	252	181	243
1718	250	181	240
1719	247	180	237
1720	251	190	241
1721	253	198	244
1722	252	203	243
1723	246	204	237
1724	0	0	0
1725	0	0	0
1726	0	0	0
1727	0	0	0
1728	0	0	0
1729	0	0	0
1730	0	0	0
1731	0	0	0
1732	0	0	0
1733	0	0	0
1734	0	0	0
1735	0	0	0
1736	0	0	0
1737	0	0	0
1738	0	0	0
1739	0	0	0
1740	0	0	0
1741	0	0	0
1742	0	0	0
1743	0	0	0
1744	0	0	0
1745	0	0	0
1746	0	0	0
1747	0	0	0
1748	0	0	0
1749	0	0	0
1750	0	0	0
1751	0	0	0
1752	255	247	247
1753	255	242	246
1754	253	229	239
1755	249	221	236
1756	252	219	237
1757	254	212	237
1758	251	203	236
1759	243	190	232
1760	242	185	236
1761	243	180	238
1762	243	174	237
1763	245	173	239
1764	249	176	244
1765	253	181	247
1766	247	173	240
1767	249	178	240
1768	251	183	240
1769	248	182	237
1770	249	188	238
1771	252	198	242
1772	255	208	244
1773	254	213	243
1774	250	215	242
1775	0	0	0
1776	0	0	0
1777	0	0	0
1778	0	0	0
1779	0	0	0
1780	0	0	0
1781	0	0	0
1782	0	0	0
1783	0	0	0
1784	0	0	0
1785	0	0	0
1786	0	0	0
1787	0	0	0
1788	0	0	0
1789	0	0	0
1790	0	0	0
1791	0	0	0
1792	0	0	0
1793	0	0	0
1794	0	0	0
1795	0	0	0
1796	0	0	0
1797	0	0	0
1798	0	0	0
1799	0	0	0
1800	0	0	0
1801	0	0	0
1802	0	0	0
1803	255	250	249
1804	255	237	242
1805	250	223	236
1806	249	219	237
1807	252	218	240
1808	254	210	240
1809	251	201	238
1810	248	195	239
1811	246	189	242
1812	246	185	243
1813	244	179	239
1814	251	184	243
1815	254	186	246
1816	251	181	241
1817	244	173	233
1818	249	181	238
1819	250	186	239
1820	253	193	241
1821	252	198	241
1822	253	206	241
1823	254	215	242
1824	254	220	241
1825	0	0	0
1826	0	0	0
1827	0	0	0
1828	0	0	0
1829	0	0	0
1830	0	0	0
1831	0	0	0
1832	0	0	0
1833	0	0	0
1834	0	0	0
1835	0	0	0
1836	0	0	0
1837	0	0	0
1838	0	0	0
1839	0	0	0
1840	0	0	0
1841	0	0	0
1842	0	0	0
1843	0	0	0
1844	0	0	0
1845	0	0	0
1846	0	0	0
1847	0	0	0
1848	0	0	0
1849	0	0	0
1850	0	0	0
1851	0	0	0
1852	0	0	0
1853	255	248	247
1854	255	243	244
1855	251	228	236
1856	250	222	236
1857	249	219	238
1858	254	220	243
1859	254	211	242
1860	253	201	240
1861	255	197	243
1862	251	189	242
1863	244	181	239
1864	241	176	236
1865	248	182	240
1866	252	186	241
1867	245	178	234
1868	246	180	234
1869	253	190	241
1870	251	189	238
1871	252	195	239
1872	253	203	240
1873	251	210	239
1874	255	223	242
1875	0	0	0
1876	0	0	0
1877	0	0	0
1878	0	0	0
1879	0	0	0
1880	0	0	0
1881	0	0	0
1882	0	0	0
1883	0	0	0
1884	0	0	0
1885	0	0	0
1886	0	0	0
1887	0	0	0
1888	0	0	0
1889	0	0	0
1890	0	0	0
1891	0	0	0
1892	0	0	0
1893	0	0	0
1894	0	0	0
1895	0	0	0
1896	0	0	0
1897	0	0	0
1898	0	0	0
1899	0	0	0
1900	0	0	0
1901	0	0	0
1902	0	0	0
1903	0	0	0
1904	254	240	242
1905	254	236	240
1906	252	229	238
1907	251	222	238
1908	252	220	240
1909	255	221	244
1910	255	210	241
1911	253	200	240
1912	254	195	240
1913	249	186	236
1914	244	182	235
1915	241	177	235
1916	248	184	241
1917	250	188	240
1918	250	189	239
1919	251	191	239
1920	252	193	240
1921	249	190	237
1922	253	202	241
1923	254	210	240
1924	255	222	243
1925	255	234	246
1926	0	0	0
1927	0	0	0
1928	0	0	0
1929	0	0	0
1930	0	0	0
1931	0	0	0
1932	0	0	0
1933	0	0	0
1934	0	0	0
1935	0	0	0
1936	0	0	0
1937	0	0	0
1938	0	0	0
1939	0	0	0
1940	0	0	0
1941	0	0	0
1942	0	0	0
1943	0	0	0
1944	0	0	0
1945	0	0	0
1946	0	0	0
1947	0	0	0
1948	0	0	0
1949	0	0	0
1950	0	0	0
1951	0	0	0
1952	0	0	0
1953	0	0	0
1954	255	246	246
1955	255	242	245
1956	254	233	240
1957	250	225	237
1958	249	220	237
1959	251	218	239
1960	255	217	242
1961	254	207	239
1962	251	197	237
1963	248	189	235
1964	247	186	234
1965	247	184	236
1966	245	182	237
1967	246	186	240
1968	247	188	238
1969	251	192	239
1970	250	190	237
1971	247	190	235
1972	248	196	237
1973	253	207	241
1974	255	217	241
1975	255	230	245
1976	255	233	243
1977	0	0	0
1978	0	0	0
1979	0	0	0
1980	0	0	0
1981	0	0	0
1982	0	0	0
1983	0	0	0
1984	0	0	0
1985	0	0	0
1986	0	0	0
1987	0	0	0
1988	0	0	0
1989	0	0	0
1990	0	0	0
1991	0	0	0
1992	0	0	0
1993	0	0	0
1994	0	0	0
1995	0	0	0
1996	0	0	0
1997	0	0	0
1998	0	0	0
1999	0	0	0
2000	0	0	0
2001	0	0	0
2002	0	0	0
2003	0	0	0
2004	0	0	0
2005	255	246	247
2006	255	239	244
2007	254	230	240
2008	251	224	237
2009	250	219	236
2010	252	216	237
2011	255	215	239
2012	254	205	237
2013	250	194	235
2014	249	192	237
2015	249	190	238
2016	252	191	240
2017	249	187	237
2018	247	188	237
2019	248	191	238
2020	250	192	237
2021	248	189	234
2022	247	196	235
2023	0	0	0
2024	252	213	240
2025	253	223	239
2026	251	227	238
2027	0	0	0
2028	0	0	0
2029	0	0	0
2030	0	0	0
2031	0	0	0
2032	0	0	0
2033	0	0	0
2034	0	0	0
2035	0	0	0
2036	0	0	0
2037	0	0	0
2038	0	0	0
2039	0	0	0
2040	0	0	0
2041	0	0	0
2042	0	0	0
2043	0	0	0
2044	0	0	0
2045	0	0	0
2046	0	0	0
2047	0	0	0
2048	0	0	0
2049	0	0	0
2050	0	0	0
2051	0	0	0
2052	0	0	0
2053	0	0	0
2054	0	0	0
2055	0	0	0
2056	255	243	246
2057	255	236	244
2058	252	224	237
2059	249	218	235
2060	252	218	237
2061	255	216	239
2062	255	209	237
2063	250	198	233
2064	251	196	235
2065	251	193	237
2066	251	192	239
2067	253	192	240
2068	248	185	234
2069	248	188	235
2070	252	195	239
2071	251	194	237
2072	249	197	235
2073	0	0	0
2074	0	0	0
2075	0	0	0
2076	0	0	0
2077	0	0	0
2078	0	0	0
2079	0	0	0
2080	0	0	0
2081	0	0	0
2082	0	0	0
2083	0	0	0
2084	0	0	0
2085	0	0	0
2086	0	0	0
2087	0	0	0
2088	0	0	0
2089	0	0	0
2090	0	0	0
2091	0	0	0
2092	0	0	0
2093	0	0	0
2094	0	0	0
2095	0	0	0
2096	0	0	0
2097	0	0	0
2098	0	0	0
2099	0	0	0
2100	0	0	0
2101	0	0	0
2102	0	0	0
2103	0	0	0
2104	0	0	0
2105	0	0	0
2106	0	0	0
2107	255	240	245
2108	253	230	241
2109	249	218	233
2110	250	217	235
2111	254	217	239
2112	255	212	239
2113	254	205	237
2114	255	203	238
2115	255	199	238
2116	253	197	238
2117	253	195	239
2118	251	190	237
2119	246	183	232
2120	250	191	236
2121	253	198	238
2122	253	202	239
2123	251	204	237
2124	0	0	0
2125	0	0	0
2126	0	0	0
2127	0	0	0
2128	0	0	0
2129	0	0	0
2130	0	0	0
2131	0	0	0
2132	0	0	0
2133	0	0	0
2134	0	0	0
2135	0	0	0
2136	0	0	0
2137	0	0	0
2138	0	0	0
2139	0	0	0
2140	0	0	0
2141	0	0	0
2142	0	0	0
2143	0	0	0
2144	0	0	0
2145	0	0	0
2146	0	0	0
2147	0	0	0
2148	0	0	0
2149	0	0	0
2150	0	0	0
2151	0	0	0
2152	0	0	0
2153	0	0	0
2154	0	0	0
2155	0	0	0
2156	0	0	0
2157	0	0	0
2158	255	239	244
2159	254	228	240
2160	251	219	235
2161	254	219	237
2162	255	218	240
2163	255	212	239
2164	253	201	235
2165	254	199	236
2166	249	191	232
2167	246	187	231
2168	250	193	236
2169	247	187	233
2170	251	194	237
2171	255	202	240
2172	255	205	239
2173	254	209	239
2174	248	207	235
2175	0	0	0
2176	0	0	0
2177	0	0	0
2178	0	0	0
2179	0	0	0
2180	0	0	0
2181	0	0	0
2182	0	0	0
2183	0	0	0
2184	0	0	0
2185	0	0	0
2186	0	0	0
2187	0	0	0
2188	0	0	0
2189	0	0	0
2190	0	0	0
2191	0	0	0
2192	0	0	0
2193	0	0	0
2194	0	0	0
2195	0	0	0
2196	0	0	0
2197	0	0	0
2198	0	0	0
2199	0	0	0
2200	0	0	0
2201	0	0	0
2202	0	0	0
2203	0	0	0
2204	0	0	0
2205	0	0	0
2206	0	0	0
2207	0	0	0
2208	0	0	0
2209	255	236	242
2210	255	229	240
2211	253	221	236
2212	255	219	237
2213	255	218	239
2214	254	207	234
2215	249	194	229
2216	249	191	231
2217	244	183	228
2218	248	189	234
2219	251	194	238
2220	255	201	241
2221	255	206	241
2222	255	210	240
2223	255	212	238
2224	252	212	235
2225	246	211	234
2226	0	0	0
2227	0	0	0
2228	0	0	0
2229	0	0	0
2230	0	0	0
2231	0	0	0
2232	0	0	0
2233	0	0	0
2234	0	0	0
2235	0	0	0
2236	0	0	0
2237	0	0	0
2238	0	0	0
2239	0	0	0
2240	0	0	0
2241	0	0	0
2242	0	0	0
2243	0	0	0
2244	0	0	0
2245	0	0	0
2246	0	0	0
2247	0	0	0
2248	0	0	0
2249	0	0	0
2250	0	0	0
2251	0	0	0
2252	0	0	0
2253	0	0	0
2254	0	0	0
2255	255	255	249
2256	0	0	0
2257	0	0	0
2258	250	240	238
2259	255	240	240
2260	254	232	238
2261	253	224	236
2262	251	217	234
2263	255	216	237
2264	255	217	239
2265	254	205	233
2266	249	193	228
2267	248	189	230
2268	249	190	234
2269	253	196	239
2270	252	196	238
2271	255	202	240
2272	253	202	235
2273	250	204	232
2274	253	213	235
2275	250	214	233
2276	0	0	0
2277	0	0	0
2278	0	0	0
2279	0	0	0
2280	0	0	0
2281	0	0	0
2282	0	0	0
2283	0	0	0
2284	0	0	0
2285	0	0	0
2286	0	0	0
2287	0	0	0
2288	0	0	0
2289	0	0	0
2290	0	0	0
2291	0	0	0
2292	0	0	0
2293	0	0	0
2294	0	0	0
2295	0	0	0
2296	0	0	0
2297	0	0	0
2298	0	0	0
2299	0	0	0
2300	0	0	0
2301	0	0	0
2302	0	0	0
2303	0	0	0
2304	0	0	0
2305	255	255	248
2306	255	251	245
2307	253	245	244
2308	252	244	244
2309	255	247	246
2310	255	238	241
2311	254	228	236
2312	253	222	236
2313	253	216	236
2314	255	218	241
2315	255	218	242
2316	255	206	235
2317	249	193	229
2318	253	196	235
2319	253	196	238
2320	254	198	240
2321	251	196	236
2322	249	197	233
2323	246	197	229
2324	247	206	231
2325	251	216	236
2326	0	0	0
2327	0	0	0
2328	0	0	0
2329	0	0	0
2330	0	0	0
2331	0	0	0
2332	0	0	0
2333	0	0	0
2334	0	0	0
2335	0	0	0
2336	0	0	0
2337	0	0	0
2338	0	0	0
2339	0	0	0
2340	0	0	0
2341	0	0	0
2342	0	0	0
2343	0	0	0
2344	0	0	0
2345	0	0	0
2346	0	0	0
2347	0	0	0
2348	0	0	0
2349	0	0	0
2350	0	0	0
2351	0	0	0
2352	0	0	0
2353	0	0	0
2354	0	0	0
2355	0	0	0
2356	255	254	247
2357	254	246	243
2358	254	242	243
2359	255	244	246
2360	255	240	242
2361	252	228	235
2362	255	227	237
2363	255	221	237
2364	252	210	234
2365	255	211	238
2366	255	208	238
2367	249	195	230
2368	250	194	231
2369	253	196	235
2370	251	193	236
2371	251	195	237
2372	250	197	235
2373	246	197	230
2374	252	212	236
2375	253	220	239
2376	0	0	0
2377	0	0	0
2378	0	0	0
2379	0	0	0
2380	0	0	0
2381	0	0	0
2382	0	0	0
2383	0	0	0
2384	0	0	0
2385	0	0	0
2386	0	0	0
2387	0	0	0
2388	0	0	0
2389	0	0	0
2390	0	0	0
2391	0	0	0
2392	0	0	0
2393	0	0	0
2394	0	0	0
2395	0	0	0
2396	0	0	0
2397	0	0	0
2398	0	0	0
2399	0	0	0
2400	0	0	0
2401	0	0	0
2402	0	0	0
2403	0	0	0
2404	0	0	0
2405	0	0	0
2406	255	254	249
2407	255	249	247
2408	254	244	245
2409	253	238	242
2410	253	234	239
2411	253	230	235
2412	253	226	234
2413	255	225	238
2414	253	215	235
2415	248	203	229
2416	252	203	232
2417	252	200	233
2418	253	199	235
2419	254	198	236
2420	252	196	236
2421	248	191	233
2422	249	196	235
2423	247	198	233
2424	254	213	240
2425	255	228	245
2426	0	0	0
2427	0	0	0
2428	0	0	0
2429	0	0	0
2430	0	0	0
2431	0	0	0
2432	0	0	0
2433	0	0	0
2434	0	0	0
2435	0	0	0
2436	0	0	0
2437	0	0	0
2438	0	0	0
2439	0	0	0
2440	0	0	0
2441	0	0	0
2442	0	0	0
2443	0	0	0
2444	0	0	0
2445	0	0	0
2446	0	0	0
2447	0	0	0
2448	0	0	0
2449	0	0	0
2450	0	0	0
2451	0	0	0
2452	0	0	0
2453	0	0	0
2454	0	0	0
2455	0	0	0
2456	0	0	0
2457	255	253	249
2458	255	246	247
2459	255	242	245
2460	255	239	243
2461	255	234	239
2462	255	233	238
2463	255	230	238
2464	255	221	238
2465	252	210	234
2466	253	207	233
2467	255	206	237
2468	250	194	232
2469	251	193	234
2470	253	196	236
2471	250	193	234
2472	249	195	234
2473	245	197	233
2474	248	207	236
2475	255	224	244
2476	255	227	241
2477	0	0	0
2478	0	0	0
2479	0	0	0
2480	0	0	0
2481	0	0	0
2482	0	0	0
2483	0	0	0
2484	0	0	0
2485	0	0	0
2486	0	0	0
2487	0	0	0
2488	0	0	0
2489	0	0	0
2490	0	0	0
2491	0	0	0
2492	0	0	0
2493	0	0	0
2494	0	0	0
2495	0	0	0
2496	0	0	0
2497	0	0	0
2498	0	0	0
2499	0	0	0
2500	0	0	0
2501	0	0	0
2502	0	0	0
2503	0	0	0
2504	0	0	0
2505	0	0	0
2506	0	0	0
2507	255	255	250
2508	255	250	247
2509	255	243	245
2510	255	242	247
2511	255	240	245
2512	255	238	244
2513	255	237	243
2514	255	228	239
2515	255	219	238
2516	255	215	240
2517	255	212	240
2518	255	202	236
2519	248	189	231
2520	252	194	237
2521	253	196	237
2522	255	200	239
2523	252	201	238
2524	252	210	240
2525	253	219	242
2526	254	223	240
2527	0	0	0
2528	0	0	0
2529	0	0	0
2530	0	0	0
2531	0	0	0
2532	0	0	0
2533	0	0	0
2534	0	0	0
2535	0	0	0
2536	0	0	0
2537	0	0	0
2538	0	0	0
2539	0	0	0
2540	0	0	0
2541	0	0	0
2542	0	0	0
2543	0	0	0
2544	0	0	0
2545	0	0	0
2546	0	0	0
2547	0	0	0
2548	0	0	0
2549	0	0	0
2550	0	0	0
2551	0	0	0
2552	0	0	0
2553	0	0	0
2554	0	0	0
2555	0	0	0
2556	0	0	0
2557	0	0	0
2558	255	255	251
2559	255	248	247
2560	254	239	244
2561	255	239	245
2562	255	233	241
2563	255	231	241
2564	255	225	238
2565	254	215	235
2566	252	208	235
2567	252	204	237
2568	255	204	238
2569	251	194	234
2570	247	187	233
2571	251	191	237
2572	252	195	237
2573	252	198	237
2574	249	199	236
2575	0	0	0
2576	254	222	241
2577	0	0	0
2578	0	0	0
2579	0	0	0
2580	0	0	0
2581	0	0	0
2582	0	0	0
2583	0	0	0
2584	0	0	0
2585	0	0	0
2586	0	0	0
2587	0	0	0
2588	0	0	0
2589	0	0	0
2590	0	0	0
2591	0	0	0
2592	0	0	0
2593	0	0	0
2594	0	0	0
2595	0	0	0
2596	0	0	0
2597	0	0	0
2598	0	0	0
2599	0	0	0
2600	0	0	0
2601	0	0	0
2602	0	0	0
2603	0	0	0
2604	0	0	0
2605	0	0	0
2606	0	0	0
2607	0	0	0
2608	0	0	0
2609	255	254	254
2610	255	244	248
2611	252	235	242
2612	252	230	240
2613	251	224	236
2614	251	218	235
2615	251	213	235
2616	251	207	235
2617	249	199	236
2618	253	200	239
2619	254	199	240
2620	252	193	237
2621	248	186	235
2622	250	191	239
2623	249	193	236
2624	248	195	235
2625	0	0	0
2626	0	0	0
2627	0	0	0
2628	0	0	0
2629	0	0	0
2630	0	0	0
2631	0	0	0
2632	0	0	0
2633	0	0	0
2634	0	0	0
2635	0	0	0
2636	0	0	0
2637	0	0	0
2638	0	0	0
2639	0	0	0
2640	0	0	0
2641	0	0	0
2642	0	0	0
2643	0	0	0
2644	0	0	0
2645	0	0	0
2646	0	0	0
2647	0	0	0
2648	0	0	0
2649	0	0	0
2650	0	0	0
2651	0	0	0
2652	0	0	0
2653	0	0	0
2654	0	0	0
2655	0	0	0
2656	0	0	0
2657	0	0	0
2658	0	0	0
2659	255	251	252
2660	255	248	251
2661	250	236	243
2662	253	236	244
2663	255	232	242
2664	255	229	242
2665	255	224	241
2666	253	210	237
2667	253	204	238
2668	253	200	239
2669	255	200	243
2670	252	193	239
2671	248	186	236
2672	248	187	237
2673	249	191	239
2674	249	196	238
2675	0	0	0
2676	0	0	0
2677	0	0	0
2678	0	0	0
2679	0	0	0
2680	0	0	0
2681	0	0	0
2682	0	0	0
2683	0	0	0
2684	0	0	0
2685	0	0	0
2686	0	0	0
2687	0	0	0
2688	0	0	0
2689	0	0	0
2690	0	0	0
2691	0	0	0
2692	0	0	0
2693	0	0	0
2694	0	0	0
2695	0	0	0
2696	0	0	0
2697	0	0	0
2698	0	0	0
2699	0	0	0
2700	0	0	0
2701	0	0	0
2702	0	0	0
2703	0	0	0
2704	0	0	0
2705	0	0	0
2706	0	0	0
2707	0	0	0
2708	0	0	0
2709	0	0	0
2710	254	243	247
2711	254	241	246
2712	254	239	245
2713	255	239	247
2714	255	235	244
2715	255	232	244
2716	255	218	238
2717	250	204	235
2718	253	203	239
2719	252	197	237
2720	251	193	237
2721	248	186	237
2722	251	189	241
2723	249	188	238
2724	250	194	240
2725	250	199	241
2726	0	0	0
2727	0	0	0
2728	0	0	0
2729	0	0	0
2730	0	0	0
2731	0	0	0
2732	0	0	0
2733	0	0	0
2734	0	0	0
2735	0	0	0
2736	0	0	0
2737	0	0	0
2738	0	0	0
2739	0	0	0
2740	0	0	0
2741	0	0	0
2742	0	0	0
2743	0	0	0
2744	0	0	0
2745	0	0	0
2746	0	0	0
2747	0	0	0
2748	0	0	0
2749	0	0	0
2750	0	0	0
2751	0	0	0
2752	0	0	0
2753	0	0	0
2754	0	0	0
2755	0	0	0
2756	0	0	0
2757	0	0	0
2758	0	0	0
2759	0	0	0
2760	253	246	248
2761	255	245	249
2762	255	238	244
2763	255	236	244
2764	255	231	242
2765	254	225	239
2766	255	230	244
2767	255	216	238
2768	250	201	235
2769	253	200	238
2770	253	196	238
2771	252	191	237
2772	248	185	237
2773	249	187	239
2774	254	197	242
2775	254	202	243
2776	251	204	242
2777	0	0	0
2778	0	0	0
2779	0	0	0
2780	0	0	0
2781	0	0	0
2782	0	0	0
2783	0	0	0
2784	0	0	0
2785	0	0	0
2786	0	0	0
2787	0	0	0
2788	0	0	0
2789	0	0	0
2790	0	0	0
2791	0	0	0
2792	0	0	0
2793	0	0	0
2794	0	0	0
2795	0	0	0
2796	0	0	0
2797	0	0	0
2798	0	0	0
2799	0	0	0
2800	0	0	0
2801	0	0	0
2802	0	0	0
2803	0	0	0
2804	0	0	0
2805	0	0	0
2806	0	0	0
2807	0	0	0
2808	0	0	0
2809	0	0	0
2810	0	0	0
2811	255	246	248
2812	255	240	245
2813	253	232	241
2814	252	227	239
2815	251	222	238
2816	255	224	241
2817	255	229	245
2818	255	213	238
2819	250	198	234
2820	254	199	241
2821	255	196	243
2822	254	192	242
2823	247	183	234
2824	253	195	240
2825	255	205	244
2826	255	208	244
2827	252	208	240
2828	0	0	0
2829	0	0	0
2830	0	0	0
2831	0	0	0
2832	0	0	0
2833	0	0	0
2834	0	0	0
2835	0	0	0
2836	0	0	0
2837	0	0	0
2838	0	0	0
2839	0	0	0
2840	0	0	0
2841	0	0	0
2842	0	0	0
2843	0	0	0
2844	0	0	0
2845	0	0	0
2846	0	0	0
2847	0	0	0
2848	0	0	0
2849	0	0	0
2850	0	0	0
2851	0	0	0
2852	0	0	0
2853	0	0	0
2854	0	0	0
2855	0	0	0
2856	0	0	0
2857	0	0	0
2858	0	0	0
2859	0	0	0
2860	0	0	0
2861	0	0	0
2862	0	0	0
2863	254	237	244
2864	253	230	240
2865	252	225	239
2866	255	225	242
2867	255	227	245
2868	255	222	242
2869	252	206	234
2870	251	198	235
2871	255	199	242
2872	251	189	240
2873	247	183	237
2874	243	180	232
2875	247	190	236
2876	254	205	243
2877	253	208	241
2878	246	205	235
2879	0	0	0
2880	0	0	0
2881	0	0	0
2882	0	0	0
2883	0	0	0
2884	0	0	0
2885	0	0	0
2886	0	0	0
2887	0	0	0
2888	0	0	0
2889	0	0	0
2890	0	0	0
2891	0	0	0
2892	0	0	0
2893	0	0	0
2894	0	0	0
2895	0	0	0
2896	0	0	0
2897	0	0	0
2898	0	0	0
2899	0	0	0
2900	0	0	0
2901	0	0	0
2902	0	0	0
2903	0	0	0
2904	0	0	0
2905	0	0	0
2906	0	0	0
2907	0	0	0
2908	0	0	0
2909	0	0	0
2910	0	0	0
2911	0	0	0
2912	0	0	0
2913	0	0	0
2914	0	0	0
2915	0	0	0
2916	255	226	242
2917	255	225	244
2918	255	221	242
2919	255	216	240
2920	255	207	238
2921	254	198	237
2922	251	191	237
2923	245	179	234
2924	246	182	238
2925	241	180	235
2926	248	195	242
2927	254	208	246
2928	249	207	240
2929	0	0	0
2930	0	0	0
2931	0	0	0
2932	0	0	0
2933	0	0	0
2934	0	0	0
2935	0	0	0
2936	0	0	0
2937	0	0	0
2938	0	0	0
2939	0	0	0
2940	0	0	0
2941	0	0	0
2942	0	0	0
2943	0	0	0
2944	0	0	0
2945	0	0	0
2946	0	0	0
2947	0	0	0
2948	0	0	0
2949	0	0	0
2950	0	0	0
2951	0	0	0
2952	0	0	0
2953	0	0	0
2954	0	0	0
2955	0	0	0
2956	0	0	0
2957	0	0	0
2958	0	0	0
2959	0	0	0
2960	0	0	0
2961	0	0	0
2962	0	0	0
2963	0	0	0
2964	0	0	0
2965	0	0	0
2966	255	233	245
2967	255	234	247
2968	254	218	239
2969	255	213	238
2970	255	211	239
2971	255	202	237
2972	249	189	233
2973	244	180	232
2974	247	184	238
2975	247	186	241
2976	246	188	241
2977	253	203	248
2978	253	209	246
2979	0	0	0
2980	0	0	0
2981	0	0	0
2982	0	0	0
2983	0	0	0
2984	0	0	0
2985	0	0	0
2986	0	0	0
2987	0	0	0
2988	0	0	0
2989	0	0	0
2990	0	0	0
2991	0	0	0
2992	0	0	0
2993	0	0	0
2994	0	0	0
2995	0	0	0
2996	0	0	0
2997	0	0	0
2998	0	0	0
2999	0	0	0
3000	0	0	0
3001	0	0	0
3002	0	0	0
3003	0	0	0
3004	0	0	0
3005	0	0	0
3006	0	0	0
3007	0	0	0
3008	0	0	0
3009	0	0	0
3010	0	0	0
3011	0	0	0
3012	0	0	0
3013	0	0	0
3014	0	0	0
3015	0	0	0
3016	0	0	0
3017	255	238	247
3018	255	223	240
3019	249	208	232
3020	253	207	235
3021	255	204	236
3022	251	193	234
3023	244	180	232
3024	249	187	241
3025	248	188	242
3026	248	192	243
3027	245	193	241
3028	246	200	242
3029	246	205	241
3030	0	0	0
3031	0	0	0
3032	0	0	0
3033	0	0	0
3034	0	0	0
3035	0	0	0
3036	0	0	0
3037	0	0	0
3038	0	0	0
3039	0	0	0
3040	0	0	0
3041	0	0	0
3042	0	0	0
3043	0	0	0
3044	0	0	0
3045	0	0	0
3046	0	0	0
3047	0	0	0
3048	0	0	0
3049	0	0	0
3050	0	0	0
3051	0	0	0
3052	0	0	0
3053	0	0	0
3054	0	0	0
3055	0	0	0
3056	0	0	0
3057	0	0	0
3058	0	0	0
3059	0	0	0
3060	0	0	0
3061	0	0	0
3062	0	0	0
3063	0	0	0
3064	0	0	0
3065	0	0	0
3066	0	0	0
3067	0	0	0
3068	255	235	246
3069	255	221	238
3070	252	209	234
3071	255	208	238
3072	253	199	236
3073	248	187	233
3074	247	184	237
3075	248	188	243
3076	240	182	237
3077	240	185	237
3078	246	201	243
3079	244	206	242
3080	0	0	0
3081	0	0	0
3082	0	0	0
3083	0	0	0
3084	0	0	0
3085	0	0	0
3086	0	0	0
3087	0	0	0
3088	0	0	0
3089	0	0	0
3090	0	0	0
3091	0	0	0
3092	0	0	0
3093	0	0	0
3094	0	0	0
3095	0	0	0
3096	0	0	0
3097	0	0	0
3098	0	0	0
3099	0	0	0
3100	0	0	0
3101	0	0	0
3102	0	0	0
3103	0	0	0
3104	0	0	0
3105	0	0	0
3106	0	0	0
3107	0	0	0
3108	0	0	0
3109	0	0	0
3110	0	0	0
3111	0	0	0
3112	0	0	0
3113	0	0	0
3114	0	0	0
3115	0	0	0
3116	0	0	0
3117	0	0	0
3118	0	0	0
3119	255	234	247
3120	255	221	241
3121	254	210	237
3122	255	204	238
3123	252	195	238
3124	255	195	244
3125	252	190	242
3126	247	188	241
3127	238	181	237
3128	248	200	248
3129	253	214	251
3130	251	221	249
3131	0	0	0
3132	0	0	0
3133	0	0	0
3134	0	0	0
3135	0	0	0
3136	0	0	0
3137	0	0	0
3138	0	0	0
3139	0	0	0
3140	0	0	0
3141	0	0	0
3142	0	0	0
3143	0	0	0
3144	0	0	0
3145	0	0	0
3146	0	0	0
3147	0	0	0
3148	0	0	0
3149	0	0	0
3150	0	0	0
3151	0	0	0
3152	0	0	0
3153	0	0	0
3154	0	0	0
3155	0	0	0
3156	0	0	0
3157	0	0	0
3158	0	0	0
3159	0	0	0
3160	0	0	0
3161	0	0	0
3162	0	0	0
3163	0	0	0
3164	0	0	0
3165	0	0	0
3166	0	0	0
3167	0	0	0
3168	0	0	0
3169	0	0	0
3170	255	230	245
3171	255	217	240
3172	255	208	238
3173	255	202	241
3174	250	187	237
3175	253	188	242
3176	248	182	239
3177	242	178	237
3178	240	183	240
3179	247	200	248
3180	245	206	243
3181	0	0	0
3182	0	0	0
3183	0	0	0
3184	0	0	0
3185	0	0	0
3186	0	0	0
3187	0	0	0
3188	0	0	0
3189	0	0	0
3190	0	0	0
3191	0	0	0
3192	0	0	0
3193	0	0	0
3194	0	0	0
3195	0	0	0
3196	0	0	0
3197	0	0	0
3198	0	0	0
3199	0	0	0
3200	0	0	0
3201	0	0	0
3202	0	0	0
3203	0	0	0
3204	0	0	0
3205	0	0	0
3206	0	0	0
3207	0	0	0
3208	0	0	0
3209	0	0	0
3210	0	0	0
3211	0	0	0
3212	0	0	0
3213	0	0	0
3214	0	0	0
3215	0	0	0
3216	0	0	0
3217	0	0	0
3218	0	0	0
3219	0	0	0
3220	0	0	0
3221	255	224	242
3222	255	216	241
3223	255	207	241
3224	255	196	239
3225	246	179	234
3226	249	180	240
3227	244	175	238
3228	244	182	243
3229	240	184	243
3230	238	192	242
3231	0	0	0
3232	0	0	0
3233	0	0	0
3234	0	0	0
3235	0	0	0
3236	0	0	0
3237	0	0	0
3238	0	0	0
3239	0	0	0
3240	0	0	0
3241	0	0	0
3242	0	0	0
3243	0	0	0
3244	0	0	0
3245	0	0	0
3246	0	0	0
3247	0	0	0
3248	0	0	0
3249	0	0	0
3250	0	0	0
3251	0	0	0
3252	0	0	0
3253	0	0	0
3254	0	0	0
3255	0	0	0
3256	0	0	0
3257	0	0	0
3258	0	0	0
3259	0	0	0
3260	0	0	0
3261	0	0	0
3262	0	0	0
3263	0	0	0
3264	0	0	0
3265	0	0	0
3266	0	0	0
3267	0	0	0
3268	0	0	0
3269	0	0	0
3270	0	0	0
3271	0	0	0
3272	255	220	241
3273	255	211	240
3274	253	197	237
3275	249	185	235
3276	246	176	235
3277	246	176	240
3278	241	173	239
3279	241	179	243
3280	241	190	246
3281	236	195	241
3282	0	0	0
3283	0	0	0
3284	0	0	0
3285	0	0	0
3286	0	0	0
3287	0	0	0
3288	0	0	0
3289	0	0	0
3290	0	0	0
3291	0	0	0
3292	0	0	0
3293	0	0	0
3294	0	0	0
3295	0	0	0
3296	0	0	0
3297	0	0	0
3298	0	0	0
3299	0	0	0
3300	0	0	0
3301	0	0	0
3302	0	0	0
3303	0	0	0
3304	0	0	0
3305	0	0	0
3306	0	0	0
3307	0	0	0
3308	0	0	0
3309	0	0	0
3310	0	0	0
3311	0	0	0
3312	0	0	0
3313	0	0	0
3314	0	0	0
3315	0	0	0
3316	0	0	0
3317	0	0	0
3318	0	0	0
3319	0	0	0
3320	255	238	245
3321	0	0	0
3322	255	224	242
3323	255	214	239
3324	253	201	235
3325	248	186	232
3326	251	183	238
3327	246	174	238
3328	245	177	243
3329	239	172	240
3330	246	188	249
3331	244	197	248
3332	245	212	249
3333	251	229	250
3334	0	0	0
3335	0	0	0
3336	0	0	0
3337	0	0	0
3338	0	0	0
3339	0	0	0
3340	0	0	0
3341	0	0	0
3342	0	0	0
3343	0	0	0
3344	0	0	0
3345	0	0	0
3346	0	0	0
3347	0	0	0
3348	0	0	0
3349	0	0	0
3350	0	0	0
3351	0	0	0
3352	0	0	0
3353	0	0	0
3354	0	0	0
3355	0	0	0
3356	0	0	0
3357	0	0	0
3358	0	0	0
3359	0	0	0
3360	0	0	0
3361	0	0	0
3362	0	0	0
3363	0	0	0
3364	0	0	0
3365	0	0	0
3366	0	0	0
3367	0	0	0
3368	0	0	0
3369	0	0	0
3370	255	248	250
3371	255	244	249
3372	255	229	243
3373	255	220	240
3374	255	209	237
3375	251	195	235
3376	247	183	234
3377	249	179	240
3378	243	170	238
3379	240	170	241
3380	239	175	242
3381	247	191	250
3382	246	200	248
3383	246	214	248
3384	245	223	244
3385	0	0	0
3386	0	0	0
3387	0	0	0
3388	0	0	0
3389	0	0	0
3390	0	0	0
3391	0	0	0
3392	0	0	0
3393	0	0	0
3394	0	0	0
3395	0	0	0
3396	0	0	0
3397	0	0	0
3398	0	0	0
3399	0	0	0
3400	0	0	0
3401	0	0	0
3402	0	0	0
3403	0	0	0
3404	0	0	0
3405	0	0	0
3406	0	0	0
3407	0	0	0
3408	0	0	0
3409	0	0	0
3410	0	0	0
3411	0	0	0
3412	0	0	0
3413	0	0	0
3414	0	0	0
3415	0	0	0
3416	0	0	0
3417	0	0	0
3418	0	0	0
3419	0	0	0
3420	0	0	0
3421	255	252	251
3422	255	239	245
3423	255	224	239
3424	254	213	237
3425	253	202	235
3426	251	192	236
3427	247	179	237
3428	249	177	243
3429	241	166	239
3430	242	175	245
3431	239	177	244
3432	245	192	249
3433	244	201	245
3434	242	210	242
3435	0	0	0
3436	0	0	0
3437	0	0	0
3438	0	0	0
3439	0	0	0
3440	0	0	0
3441	0	0	0
3442	0	0	0
3443	0	0	0
3444	0	0	0
3445	0	0	0
3446	0	0	0
3447	0	0	0
3448	0	0	0
3449	0	0	0
3450	0	0	0
3451	0	0	0
3452	0	0	0
3453	0	0	0
3454	0	0	0
3455	0	0	0
3456	0	0	0
3457	0	0	0
3458	0	0	0
3459	0	0	0
3460	0	0	0
3461	0	0	0
3462	0	0	0
3463	0	0	0
3464	0	0	0
3465	0	0	0
3466	0	0	0
3467	0	0	0
3468	0	0	0
3469	0	0	0
3470	0	0	0
3471	0	0	0
3472	255	245	247
3473	255	229	239
3474	252	214	235
3475	251	204	234
3476	255	202	239
3477	254	191	240
3478	247	176	238
3479	248	173	242
3480	244	171	243
3481	245	179	248
3482	240	182	245
3483	240	193	245
3484	245	210	247
3485	0	0	0
3486	0	0	0
3487	0	0	0
3488	0	0	0
3489	0	0	0
3490	0	0	0
3491	0	0	0
3492	0	0	0
3493	0	0	0
3494	0	0	0
3495	0	0	0
3496	0	0	0
3497	0	0	0
3498	0	0	0
3499	0	0	0
3500	0	0	0
3501	0	0	0
3502	0	0	0
3503	0	0	0
3504	0	0	0
3505	0	0	0
3506	0	0	0
3507	0	0	0
3508	0	0	0
3509	0	0	0
3510	0	0	0
3511	0	0	0
3512	0	0	0
3513	0	0	0
3514	0	0	0
3515	0	0	0
3516	0	0	0
3517	0	0	0
3518	0	0	0
3519	0	0	0
3520	0	0	0
3521	0	0	0
3522	0	0	0
3523	255	234	240
3524	251	219	235
3525	247	205	233
3526	254	205	240
3527	255	202	244
3528	253	189	240
3529	244	171	234
3530	249	177	242
3531	244	173	243
3532	246	183	247
3533	239	185	242
3534	244	203	246
3535	250	220	251
3536	0	0	0
3537	0	0	0
3538	0	0	0
3539	0	0	0
3540	0	0	0
3541	0	0	0
3542	0	0	0
3543	0	0	0
3544	0	0	0
3545	0	0	0
3546	0	0	0
3547	0	0	0
3548	0	0	0
3549	0	0	0
3550	0	0	0
3551	0	0	0
3552	0	0	0
3553	0	0	0
3554	0	0	0
3555	0	0	0
3556	0	0	0
3557	0	0	0
3558	0	0	0
3559	0	0	0
3560	0	0	0
3561	0	0	0
3562	0	0	0
3563	0	0	0
3564	0	0	0
3565	0	0	0
3566	0	0	0
3567	0	0	0
3568	0	0	0
3569	0	0	0
3570	0	0	0
3571	0	0	0
3572	0	0	0
3573	0	0	0
3574	255	238	244
3575	255	224	240
3576	251	207	237
3577	255	206	244
3578	255	195	242
3579	250	181	238
3580	245	172	235
3581	246	175	241
3582	241	174	240
3583	242	183	244
3584	241	191	243
3585	248	211	249
3586	250	222	248
3587	0	0	0
3588	0	0	0
3589	0	0	0
3590	0	0	0
3591	0	0	0
3592	0	0	0
3593	0	0	0
3594	0	0	0
3595	0	0	0
3596	0	0	0
3597	0	0	0
3598	0	0	0
3599	0	0	0
3600	0	0	0
3601	0	0	0
3602	0	0	0
3603	0	0	0
3604	0	0	0
3605	0	0	0
3606	0	0	0
3607	0	0	0
3608	0	0	0
3609	0	0	0
3610	0	0	0
3611	0	0	0
3612	0	0	0
3613	0	0	0
3614	0	0	0
3615	0	0	0
3616	0	0	0
3617	0	0	0
3618	0	0	0
3619	0	0	0
3620	0	0	0
3621	0	0	0
3622	0	0	0
3623	0	0	0
3624	255	246	246
3625	255	242	247
3626	255	224	240
3627	252	207	236
3628	254	199	239
3629	250	187	239
3630	252	184	243
3631	246	175	239
3632	247	179	244
3633	241	177	242
3634	244	191	247
3635	243	199	246
3636	247	212	247
3637	0	0	0
3638	0	0	0
3639	0	0	0
3640	0	0	0
3641	0	0	0
3642	0	0	0
3643	0	0	0
3644	0	0	0
3645	0	0	0
3646	0	0	0
3647	0	0	0
3648	0	0	0
3649	0	0	0
3650	0	0	0
3651	0	0	0
3652	0	0	0
3653	0	0	0
3654	0	0	0
3655	0	0	0
3656	0	0	0
3657	0	0	0
3658	0	0	0
3659	0	0	0
3660	0	0	0
3661	0	0	0
3662	0	0	0
3663	0	0	0
3664	0	0	0
3665	0	0	0
3666	0	0	0
3667	0	0	0
3668	0	0	0
3669	0	0	0
3670	0	0	0
3671	0	0	0
3672	0	0	0
3673	0	0	0
3674	255	249	247
3675	255	240	242
3676	255	232	241
3677	252	214	234
3678	252	204	234
3679	253	196	238
3680	247	182	236
3681	247	178	240
3682	245	175	241
3683	246	180	245
3684	243	183	244
3685	244	194	247
3686	242	202	244
3687	0	0	0
3688	0	0	0
3689	0	0	0
3690	0	0	0
3691	0	0	0
3692	0	0	0
3693	0	0	0
3694	0	0	0
3695	0	0	0
3696	0	0	0
3697	0	0	0
3698	0	0	0
3699	0	0	0
3700	0	0	0
3701	0	0	0
3702	0	0	0
3703	0	0	0
3704	0	0	0
3705	0	0	0
3706	0	0	0
3707	0	0	0
3708	0	0	0
3709	0	0	0
3710	0	0	0
3711	0	0	0
3712	0	0	0
3713	0	0	0
3714	0	0	0
3715	0	0	0
3716	0	0	0
3717	0	0	0
3718	0	0	0
3719	0	0	0
3720	0	0	0
3721	0	0	0
3722	0	0	0
3723	0	0	0
3724	0	0	0
3725	255	242	244
3726	252	229	237
3727	253	221	236
3728	252	211	234
3729	251	200	233
3730	249	190	234
3731	244	176	233
3732	248	180	242
3733	245	177	243
3734	249	187	249
3735	245	188	246
3736	246	200	248
3737	244	208	245
3738	0	0	0
3739	0	0	0
3740	0	0	0
3741	0	0	0
3742	0	0	0
3743	0	0	0
3744	0	0	0
3745	0	0	0
3746	0	0	0
3747	0	0	0
3748	0	0	0
3749	0	0	0
3750	0	0	0
3751	0	0	0
3752	0	0	0
3753	0	0	0
3754	0	0	0
3755	0	0	0
3756	0	0	0
3757	0	0	0
3758	0	0	0
3759	0	0	0
3760	0	0	0
3761	0	0	0
3762	0	0	0
3763	0	0	0
3764	0	0	0
3765	0	0	0
3766	0	0	0
3767	0	0	0
3768	0	0	0
3769	0	0	0
3770	0	0	0
3771	0	0	0
3772	0	0	0
3773	0	0	0
3774	0	0	0
3775	0	0	0
3776	255	243	245
3777	254	230	238
3778	255	226	240
3779	255	216	239
3780	249	196	232
3781	246	185	232
3782	248	183	238
3783	253	187	247
3784	246	180	243
3785	247	187	247
3786	243	190	245
3787	248	204	249
3788	247	209	245
3789	0	0	0
3790	0	0	0
3791	0	0	0
3792	0	0	0
3793	0	0	0
3794	0	0	0
3795	0	0	0
3796	0	0	0
3797	0	0	0
3798	0	0	0
3799	0	0	0
3800	0	0	0
3801	0	0	0
3802	0	0	0
3803	0	0	0
3804	0	0	0
3805	0	0	0
3806	0	0	0
3807	0	0	0
3808	0	0	0
3809	0	0	0
3810	0	0	0
3811	0	0	0
3812	0	0	0
3813	0	0	0
3814	0	0	0
3815	0	0	0
3816	0	0	0
3817	0	0	0
3818	0	0	0
3819	0	0	0
3820	0	0	0
3821	0	0	0
3822	0	0	0
3823	0	0	0
3824	0	0	0
3825	0	0	0
3826	255	244	247
3827	255	242	243
3828	255	233	239
3829	255	229	242
3830	254	211	236
3831	246	192	230
3832	252	194	239
3833	253	191	244
3834	255	192	248
3835	248	183	242
3836	246	190	245
3837	243	193	245
3838	245	202	248
3839	244	208	244
3840	0	0	0
3841	0	0	0
3842	0	0	0
3843	0	0	0
3844	0	0	0
3845	0	0	0
3846	0	0	0
3847	0	0	0
3848	0	0	0
3849	0	0	0
3850	0	0	0
3851	0	0	0
3852	0	0	0
3853	0	0	0
3854	0	0	0
3855	0	0	0
3856	0	0	0
3857	0	0	0
3858	0	0	0
3859	0	0	0
3860	0	0	0
3861	0	0	0
3862	0	0	0
3863	0	0	0
3864	0	0	0
3865	0	0	0
3866	0	0	0
3867	0	0	0
3868	0	0	0
3869	0	0	0
3870	0	0	0
3871	0	0	0
3872	0	0	0
3873	0	0	0
3874	0	0	0
3875	0	0	0
3876	0	0	0
3877	0	0	0
3878	255	238	242
3879	255	230	238
3880	255	224	239
3881	251	205	233
3882	248	193	232
3883	253	194	240
3884	250	187	240
3885	252	187	244
3886	243	179	237
3887	242	185	239
3888	249	203	249
3889	248	211	249
3890	248	219	249
3891	0	0	0
3892	0	0	0
3893	0	0	0
3894	0	0	0
3895	0	0	0
3896	0	0	0
3897	0	0	0
3898	0	0	0
3899	0	0	0
3900	0	0	0
3901	0	0	0
3902	0	0	0
3903	0	0	0
3904	0	0	0
3905	0	0	0
3906	0	0	0
3907	0	0	0
3908	0	0	0
3909	0	0	0
3910	0	0	0
3911	0	0	0
3912	0	0	0
3913	0	0	0
3914	0	0	0
3915	0	0	0
3916	0	0	0
3917	0	0	0
3918	0	0	0
3919	0	0	0
3920	0	0	0
3921	0	0	0
3922	0	0	0
3923	0	0	0
3924	0	0	0
3925	0	0	0
3926	0	0	0
3927	0	0	0
3928	0	0	0
3929	255	235	243
3930	255	226	239
3931	255	220	240
3932	254	208	238
3933	249	195	234
3934	249	190	236
3935	245	182	236
3936	247	183	240
3937	239	175	235
3938	247	196	245
3939	252	212	249
3940	251	221	248
3941	251	229	248
3942	0	0	0
3943	0	0	0
3944	0	0	0
3945	0	0	0
3946	0	0	0
3947	0	0	0
3948	0	0	0
3949	0	0	0
3950	0	0	0
3951	0	0	0
3952	0	0	0
3953	0	0	0
3954	0	0	0
3955	0	0	0
3956	0	0	0
3957	0	0	0
3958	0	0	0
3959	0	0	0
3960	0	0	0
3961	0	0	0
3962	0	0	0
3963	0	0	0
3964	0	0	0
3965	0	0	0
3966	0	0	0
3967	0	0	0
3968	0	0	0
3969	0	0	0
3970	0	0	0
3971	0	0	0
3972	0	0	0
3973	0	0	0
3974	0	0	0
3975	0	0	0
3976	0	0	0
3977	0	0	0
3978	0	0	0
3979	0	0	0
3980	255	235	245
3981	255	226	242
3982	254	215	240
3983	251	203	236
3984	250	196	236
3985	248	191	236
3986	248	189	240
3987	249	189	243
3988	242	185	239
3989	250	205	248
3990	252	217	247
3991	253	226	246
3992	0	0	0
3993	0	0	0
3994	0	0	0
3995	0	0	0
3996	0	0	0
3997	0	0	0
3998	0	0	0
3999	0	0	0
4000	0	0	0
4001	0	0	0
4002	0	0	0
4003	0	0	0
4004	0	0	0
4005	0	0	0
4006	0	0	0
4007	0	0	0
4008	0	0	0
4009	0	0	0
4010	0	0	0
4011	0	0	0
4012	0	0	0
4013	0	0	0
4014	0	0	0
4015	0	0	0
4016	0	0	0
4017	0	0	0
4018	0	0	0
4019	0	0	0
4020	0	0	0
4021	0	0	0
4022	0	0	0
4023	0	0	0
4024	0	0	0
4025	0	0	0
4026	0	0	0
4027	0	0	0
4028	0	0	0
4029	0	0	0
4030	0	0	0
4031	255	233	244
4032	254	222	241
4033	251	210	237
4034	252	206	239
4035	251	198	238
4036	254	200	243
4037	253	197	244
4038	253	200	247
4039	246	195	242
4040	253	213	250
4041	255	225	250
4042	253	228	246
4043	0	0	0
4044	0	0	0
4045	0	0	0
4046	0	0	0
4047	0	0	0
4048	0	0	0
4049	0	0	0
4050	0	0	0
4051	0	0	0
4052	0	0	0
4053	0	0	0
4054	0	0	0
4055	0	0	0
4056	0	0	0
4057	0	0	0
4058	0	0	0
4059	0	0	0
4060	0	0	0
4061	0	0	0
4062	0	0	0
4063	0	0	0
4064	0	0	0
4065	0	0	0
4066	0	0	0
4067	0	0	0
4068	0	0	0
4069	0	0	0
4070	0	0	0
4071	0	0	0
4072	0	0	0
4073	0	0	0
4074	0	0	0
4075	0	0	0
4076	0	0	0
4077	0	0	0
4078	0	0	0
4079	0	0	0
4080	0	0	0
4081	0	0	0
4082	255	231	244
4083	253	219	240
4084	252	211	240
4085	252	206	241
4086	248	196	238
4087	252	198	243
4088	249	194	241
4089	247	196	241
4090	247	201	243
4091	255	219	252
4092	255	223	247
4093	0	0	0
4094	0	0	0
4095	0	0	0
4096	0	0	0
4097	0	0	0
4098	0	0	0
4099	0	0	0
4100	0	0	0
4101	0	0	0
4102	0	0	0
4103	0	0	0
4104	0	0	0
4105	0	0	0
4106	0	0	0
4107	0	0	0
4108	0	0	0
4109	0	0	0
4110	0	0	0
4111	0	0	0
4112	0	0	0
4113	0	0	0
4114	0	0	0
4115	0	0	0
4116	0	0	0
4117	0	0	0
4118	0	0	0
4119	0	0	0
4120	0	0	0
4121	0	0	0
4122	0	0	0
4123	0	0	0
4124	0	0	0
4125	0	0	0
4126	0	0	0
4127	0	0	0
4128	0	0	0
4129	0	0	0
4130	0	0	0
4131	0	0	0
4132	0	0	0
4133	255	229	243
4134	254	221	242
4135	253	213	242
4136	251	206	242
4137	247	196	241
4138	252	199	245
4139	247	194	239
4140	250	202	243
4141	250	207	246
4142	252	215	247
4143	250	219	242
4144	0	0	0
4145	0	0	0
4146	0	0	0
4147	0	0	0
4148	0	0	0
4149	0	0	0
4150	0	0	0
4151	0	0	0
4152	0	0	0
4153	0	0	0
4154	0	0	0
4155	0	0	0
4156	0	0	0
4157	0	0	0
4158	0	0	0
4159	0	0	0
4160	0	0	0
4161	0	0	0
4162	0	0	0
4163	0	0	0
4164	0	0	0
4165	0	0	0
4166	0	0	0
4167	0	0	0
4168	0	0	0
4169	0	0	0
4170	0	0	0
4171	0	0	0
4172	0	0	0
4173	0	0	0
4174	0	0	0
4175	0	0	0
4176	0	0	0
4177	0	0	0
4178	0	0	0
4179	0	0	0
4180	0	0	0
4181	0	0	0
4182	0	0	0
4183	0	0	0
4184	255	228	243
4185	254	220	242
4186	252	212	241
4187	251	204	241
4188	254	205	246
4189	255	207	250
4190	245	192	237
4191	247	200	241
4192	253	215	248
4193	252	221	247
4194	251	226	244
4195	0	0	0
4196	0	0	0
4197	0	0	0
4198	0	0	0
4199	0	0	0
4200	0	0	0
4201	0	0	0
4202	0	0	0
4203	0	0	0
4204	0	0	0
4205	0	0	0
4206	0	0	0
4207	0	0	0
4208	0	0	0
4209	0	0	0
4210	0	0	0
4211	0	0	0
4212	0	0	0
4213	0	0	0
4214	0	0	0
4215	0	0	0
4216	0	0	0
4217	0	0	0
4218	0	0	0
4219	0	0	0
4220	0	0	0
4221	0	0	0
4222	0	0	0
4223	0	0	0
4224	0	0	0
4225	0	0	0
4226	0	0	0
4227	0	0	0
4228	0	0	0
4229	0	0	0
4230	0	0	0
4231	0	0	0
4232	0	0	0
4233	0	0	0
4234	0	0	0
4235	255	229	245
4236	255	221	243
4237	253	212	240
4238	255	214	244
4239	255	212	245
4240	253	204	242
4241	242	191	236
4242	252	210	247
4243	255	222	248
4244	254	227	246
4245	0	0	0
4246	0	0	0
4247	0	0	0
4248	0	0	0
4249	0	0	0
4250	0	0	0
4251	0	0	0
4252	0	0	0
4253	0	0	0
4254	0	0	0
4255	0	0	0
4256	0	0	0
4257	0	0	0
4258	0	0	0
4259	0	0	0
4260	0	0	0
4261	0	0	0
4262	0	0	0
4263	0	0	0
4264	0	0	0
4265	0	0	0
4266	0	0	0
4267	0	0	0
4268	0	0	0
4269	0	0	0
4270	0	0	0
4271	0	0	0
4272	0	0	0
4273	0	0	0
4274	0	0	0
4275	0	0	0
4276	0	0	0
4277	0	0	0
4278	0	0	0
4279	0	0	0
4280	0	0	0
4281	0	0	0
4282	0	0	0
4283	0	0	0
4284	0	0	0
4285	255	233	246
4286	254	224	241
4287	253	216	239
4288	251	209	238
4289	254	210	241
4290	249	203	237
4291	242	194	234
4292	243	197	240
4293	254	217	251
4294	249	217	243
4295	0	0	0
4296	0	0	0
4297	0	0	0
4298	0	0	0
4299	0	0	0
4300	0	0	0
4301	0	0	0
4302	0	0	0
4303	0	0	0
4304	0	0	0
4305	0	0	0
4306	0	0	0
4307	0	0	0
4308	0	0	0
4309	0	0	0
4310	0	0	0
4311	0	0	0
4312	0	0	0
4313	0	0	0
4314	0	0	0
4315	0	0	0
4316	0	0	0
4317	0	0	0
4318	0	0	0
4319	0	0	0
4320	0	0	0
4321	0	0	0
4322	0	0	0
4323	0	0	0
4324	0	0	0
4325	0	0	0
4326	0	0	0
4327	0	0	0
4328	0	0	0
4329	0	0	0
4330	0	0	0
4331	0	0	0
4332	0	0	0
4333	0	0	0
4334	0	0	0
4335	0	0	0
4336	0	0	0
4337	250	217	235
4338	252	214	237
4339	250	207	237
4340	249	205	239
4341	246	199	239
4342	248	205	244
4343	247	206	246
4344	248	212	246
4345	244	213	240
4346	0	0	0
4347	0	0	0
4348	0	0	0
4349	0	0	0
4350	0	0	0
4351	0	0	0
4352	0	0	0
4353	0	0	0
4354	0	0	0
4355	0	0	0
4356	0	0	0
4357	0	0	0
4358	0	0	0
4359	0	0	0
4360	0	0	0
4361	0	0	0
4362	0	0	0
4363	0	0	0
4364	0	0	0
4365	0	0	0
4366	0	0	0
4367	0	0	0
4368	0	0	0
4369	0	0	0
4370	0	0	0
4371	0	0	0
4372	0	0	0
4373	0	0	0
4374	0	0	0
4375	0	0	0
4376	0	0	0
4377	0	0	0
4378	0	0	0
4379	0	0	0
4380	0	0	0
4381	0	0	0
4382	0	0	0
4383	0	0	0
4384	0	0	0
4385	0	0	0
4386	0	0	0
4387	0	0	0
4388	254	222	240
4389	255	218	242
4390	247	204	236
4391	246	201	238
4392	247	204	243
4393	251	209	248
4394	252	214	249
4395	251	219	249
4396	0	0	0
4397	0	0	0
4398	0	0	0
4399	0	0	0
4400	0	0	0
4401	0	0	0
4402	0	0	0
4403	0	0	0
4404	0	0	0
4405	0	0	0
4406	0	0	0
4407	0	0	0
4408	0	0	0
4409	0	0	0
4410	0	0	0
4411	0	0	0
4412	0	0	0
4413	0	0	0
4414	0	0	0
4415	0	0	0
4416	0	0	0
4417	0	0	0
4418	0	0	0
4419	0	0	0
4420	0	0	0
4421	0	0	0
4422	0	0	0
4423	0	0	0
4424	0	0	0
4425	0	0	0
4426	0	0	0
4427	0	0	0
4428	0	0	0
4429	0	0	0
4430	0	0	0
4431	0	0	0
4432	0	0	0
4433	0	0	0
4434	0	0	0
4435	0	0	0
4436	0	0	0
4437	0	0	0
4438	0	0	0
4439	0	0	0
4440	253	215	243
4441	0	0	0
4442	249	206	242
4443	0	0	0
4444	255	217	250
4445	0	0	0
4446	0	0	0
4447	0	0	0
4448	0	0	0
4449	0	0	0
4450	0	0	0
4451	0	0	0
4452	0	0	0
4453	0	0	0
4454	0	0	0
4455	0	0	0
4456	0	0	0
4457	0	0	0
4458	0	0	0
4459	0	0	0
4460	0	0	0
4461	0	0	0
4462	0	0	0
4463	0	0	0
4464	0	0	0
4465	0	0	0
4466	0	0	0
4467	0	0	0
4468	0	0	0
4469	0	0	0
4470	0	0	0
4471	0	0	0
4472	0	0	0
4473	0	0	0
4474	0	0	0
4475	0	0	0
4476	0	0	0
4477	0	0	0
4478	0	0	0
4479	0	0	0
4480	0	0	0
4481	0	0	0
4482	0	0	0
4483	0	0	0
4484	0	0	0
4485	0	0	0
4486	0	0	0
4487	0	0	0
4488	0	0	0
