 	R	G	B
1	0	0	0
2	0	0	0
3	0	0	0
4	0	0	0
5	231	196	232
6	0	0	0
7	0	0	0
8	0	0	0
9	0	0	0
10	0	0	0
11	0	0	0
12	0	0	0
13	0	0	0
14	0	0	0
15	0	0	0
16	0	0	0
17	0	0	0
18	0	0	0
19	0	0	0
20	0	0	0
21	0	0	0
22	0	0	0
23	0	0	0
24	0	0	0
25	0	0	0
26	0	0	0
27	0	0	0
28	0	0	0
29	0	0	0
30	239	211	237
31	232	194	232
32	237	195	238
33	0	0	0
34	0	0	0
35	0	0	0
36	0	0	0
37	0	0	0
38	0	0	0
39	0	0	0
40	0	0	0
41	0	0	0
42	0	0	0
43	0	0	0
44	0	0	0
45	0	0	0
46	0	0	0
47	0	0	0
48	0	0	0
49	0	0	0
50	0	0	0
51	0	0	0
52	0	0	0
53	0	0	0
54	0	0	0
55	0	0	0
56	240	209	237
57	233	194	232
58	235	194	237
59	0	0	0
60	0	0	0
61	0	0	0
62	0	0	0
63	0	0	0
64	0	0	0
65	0	0	0
66	0	0	0
67	0	0	0
68	0	0	0
69	0	0	0
70	0	0	0
71	0	0	0
72	0	0	0
73	0	0	0
74	0	0	0
75	0	0	0
76	0	0	0
77	0	0	0
78	0	0	0
79	0	0	0
80	0	0	0
81	0	0	0
82	236	206	233
83	230	191	229
84	237	198	238
85	0	0	0
86	0	0	0
87	0	0	0
88	0	0	0
89	0	0	0
90	0	0	0
91	0	0	0
92	0	0	0
93	0	0	0
94	0	0	0
95	0	0	0
96	0	0	0
97	0	0	0
98	0	0	0
99	0	0	0
100	0	0	0
101	0	0	0
102	0	0	0
103	0	0	0
104	0	0	0
105	0	0	0
106	0	0	0
107	0	0	0
108	235	209	235
109	225	188	226
110	235	196	237
111	0	0	0
112	0	0	0
113	0	0	0
114	0	0	0
115	0	0	0
116	0	0	0
117	0	0	0
118	0	0	0
119	0	0	0
120	0	0	0
121	0	0	0
122	0	0	0
123	0	0	0
124	0	0	0
125	0	0	0
126	0	0	0
127	0	0	0
128	0	0	0
129	0	0	0
130	0	0	0
131	0	0	0
132	0	0	0
133	0	0	0
134	229	205	231
135	221	185	226
136	228	187	235
137	0	0	0
138	0	0	0
139	0	0	0
140	0	0	0
141	0	0	0
142	0	0	0
143	0	0	0
144	0	0	0
145	0	0	0
146	0	0	0
147	0	0	0
148	0	0	0
149	0	0	0
150	0	0	0
151	0	0	0
152	0	0	0
153	0	0	0
154	0	0	0
155	0	0	0
156	0	0	0
157	0	0	0
158	0	0	0
159	0	0	0
160	227	204	231
161	222	188	230
162	229	191	240
163	0	0	0
164	0	0	0
165	0	0	0
166	0	0	0
167	0	0	0
168	0	0	0
169	0	0	0
170	0	0	0
171	0	0	0
172	0	0	0
173	0	0	0
174	0	0	0
175	0	0	0
176	0	0	0
177	0	0	0
178	0	0	0
179	0	0	0
180	0	0	0
181	0	0	0
182	0	0	0
183	0	0	0
184	0	0	0
185	0	0	0
186	230	207	235
187	224	192	234
188	221	184	236
189	210	166	226
190	225	184	239
191	0	0	0
192	0	0	0
193	0	0	0
194	0	0	0
195	0	0	0
196	0	0	0
197	0	0	0
198	0	0	0
199	0	0	0
200	0	0	0
201	0	0	0
202	0	0	0
203	0	0	0
204	0	0	0
205	0	0	0
206	0	0	0
207	0	0	0
208	0	0	0
209	0	0	0
210	0	0	0
211	0	0	0
212	228	203	233
213	220	186	231
214	210	175	229
215	213	176	233
216	235	198	251
217	219	174	230
218	0	0	0
219	0	0	0
220	0	0	0
221	0	0	0
222	0	0	0
223	0	0	0
224	0	0	0
225	0	0	0
226	0	0	0
227	0	0	0
228	0	0	0
229	0	0	0
230	0	0	0
231	0	0	0
232	0	0	0
233	0	0	0
234	0	0	0
235	0	0	0
236	0	0	0
237	0	0	0
238	222	196	230
239	214	180	229
240	214	184	236
241	216	184	238
242	222	181	239
243	208	159	223
244	0	0	0
245	0	0	0
246	0	0	0
247	0	0	0
248	0	0	0
249	0	0	0
250	0	0	0
251	0	0	0
252	0	0	0
253	0	0	0
254	0	0	0
255	0	0	0
256	0	0	0
257	0	0	0
258	0	0	0
259	0	0	0
260	0	0	0
261	0	0	0
262	226	221	231
263	0	0	0
264	222	199	233
265	209	178	229
266	211	183	239
267	204	171	232
268	207	166	232
269	207	162	228
270	0	0	0
271	0	0	0
272	0	0	0
273	0	0	0
274	0	0	0
275	0	0	0
276	0	0	0
277	0	0	0
278	0	0	0
279	0	0	0
280	0	0	0
281	0	0	0
282	0	0	0
283	0	0	0
284	0	0	0
285	0	0	0
286	0	0	0
287	240	243	242
288	227	223	234
289	219	207	230
290	216	194	232
291	204	174	230
292	201	171	236
293	194	159	231
294	207	170	241
295	205	165	234
296	0	0	0
297	0	0	0
298	0	0	0
299	0	0	0
300	0	0	0
301	0	0	0
302	0	0	0
303	0	0	0
304	0	0	0
305	0	0	0
306	0	0	0
307	0	0	0
308	0	0	0
309	0	0	0
310	0	0	0
311	0	0	0
312	0	0	0
313	240	242	242
314	228	224	234
315	216	203	227
316	209	189	228
317	205	180	236
318	206	180	245
319	194	160	234
320	203	169	242
321	201	163	235
322	0	0	0
323	0	0	0
324	0	0	0
325	0	0	0
326	0	0	0
327	0	0	0
328	0	0	0
329	0	0	0
330	0	0	0
331	0	0	0
332	0	0	0
333	0	0	0
334	0	0	0
335	0	0	0
336	0	0	0
337	0	0	0
338	0	0	0
339	237	239	238
340	223	218	229
341	210	198	222
342	209	193	229
343	206	185	238
344	201	176	241
345	188	156	229
346	199	166	238
347	197	161	233
348	0	0	0
349	0	0	0
350	0	0	0
351	0	0	0
352	0	0	0
353	0	0	0
354	0	0	0
355	0	0	0
356	0	0	0
357	0	0	0
358	0	0	0
359	0	0	0
360	0	0	0
361	0	0	0
362	0	0	0
363	0	0	0
364	0	0	0
365	236	238	237
366	220	216	227
367	207	197	221
368	208	194	230
369	199	180	234
370	192	169	235
371	186	158	229
372	200	170	241
373	0	0	0
374	0	0	0
375	0	0	0
376	0	0	0
377	0	0	0
378	0	0	0
379	0	0	0
380	0	0	0
381	0	0	0
382	0	0	0
383	0	0	0
384	0	0	0
385	0	0	0
386	0	0	0
387	0	0	0
388	0	0	0
389	0	0	0
390	0	0	0
391	234	237	234
392	217	216	226
393	205	197	221
394	202	189	226
395	193	174	230
396	190	170	236
397	185	159	233
398	184	151	231
399	169	127	215
400	195	161	236
401	0	0	0
402	0	0	0
403	0	0	0
404	0	0	0
405	0	0	0
406	0	0	0
407	0	0	0
408	0	0	0
409	0	0	0
410	0	0	0
411	0	0	0
412	0	0	0
413	0	0	0
414	0	0	0
415	0	0	0
416	0	0	0
417	230	233	231
418	213	213	224
419	205	200	223
420	202	192	230
421	189	171	229
422	187	168	237
423	181	158	234
424	179	149	231
425	174	138	224
426	203	173	247
427	203	170	237
428	0	0	0
429	0	0	0
430	0	0	0
431	0	0	0
432	0	0	0
433	0	0	0
434	0	0	0
435	0	0	0
436	0	0	0
437	0	0	0
438	0	0	0
439	0	0	0
440	0	0	0
441	0	0	0
442	0	0	0
443	229	232	231
444	215	215	226
445	206	202	226
446	198	188	229
447	184	167	229
448	181	164	236
449	174	154	231
450	178	155	234
451	174	144	227
452	189	158	235
453	191	156	230
454	0	0	0
455	0	0	0
456	0	0	0
457	0	0	0
458	0	0	0
459	0	0	0
460	0	0	0
461	0	0	0
462	0	0	0
463	0	0	0
464	0	0	0
465	0	0	0
466	0	0	0
467	0	0	0
468	0	0	0
469	232	236	236
470	218	219	230
471	204	200	226
472	194	184	228
473	178	162	228
474	172	159	233
475	167	152	230
476	173	154	234
477	164	137	221
478	178	150	230
479	186	154	230
480	0	0	0
481	0	0	0
482	0	0	0
483	0	0	0
484	0	0	0
485	0	0	0
486	0	0	0
487	0	0	0
488	0	0	0
489	0	0	0
490	0	0	0
491	0	0	0
492	0	0	0
493	0	0	0
494	0	0	0
495	234	238	239
496	214	215	229
497	200	196	225
498	187	179	227
499	171	157	226
500	169	158	235
501	164	152	233
502	163	147	231
503	155	130	218
504	171	147	228
505	180	150	226
506	0	0	0
507	0	0	0
508	0	0	0
509	0	0	0
510	0	0	0
511	0	0	0
512	0	0	0
513	0	0	0
514	0	0	0
515	0	0	0
516	0	0	0
517	0	0	0
518	0	0	0
519	0	0	0
520	0	0	0
521	228	233	236
522	209	210	226
523	197	195	227
524	184	178	227
525	173	164	231
526	172	166	241
527	157	146	230
528	154	140	228
529	149	128	219
530	168	147	231
531	169	139	220
532	0	0	0
533	0	0	0
534	0	0	0
535	0	0	0
536	0	0	0
537	0	0	0
538	0	0	0
539	0	0	0
540	0	0	0
541	0	0	0
542	0	0	0
543	0	0	0
544	0	0	0
545	0	0	0
546	0	0	0
547	221	226	230
548	205	208	225
549	194	193	227
550	186	184	232
551	174	170	233
552	163	157	232
553	148	137	222
554	148	136	225
555	144	126	219
556	160	137	227
557	160	129	216
558	192	163	234
559	0	0	0
560	0	0	0
561	0	0	0
562	0	0	0
563	0	0	0
564	0	0	0
565	0	0	0
566	0	0	0
567	0	0	0
568	0	0	0
569	0	0	0
570	0	0	0
571	0	0	0
572	0	0	0
573	221	229	231
574	204	210	227
575	188	190	226
576	183	182	233
577	170	165	229
578	158	152	227
579	147	138	223
580	147	138	227
581	144	128	223
582	163	141	233
583	153	119	213
584	180	150	229
585	198	168	233
586	0	0	0
587	0	0	0
588	0	0	0
589	0	0	0
590	0	0	0
591	0	0	0
592	0	0	0
593	0	0	0
594	0	0	0
595	0	0	0
596	0	0	0
597	0	0	0
598	0	0	0
599	222	231	231
600	197	204	222
601	182	184	225
602	176	175	231
603	163	158	226
604	155	150	227
605	145	138	225
606	145	136	228
607	142	127	223
608	148	124	222
609	138	103	203
610	166	134	221
611	184	152	227
612	0	0	0
613	0	0	0
614	0	0	0
615	0	0	0
616	0	0	0
617	0	0	0
618	0	0	0
619	0	0	0
620	0	0	0
621	0	0	0
622	0	0	0
623	0	0	0
624	0	0	0
625	223	232	232
626	196	204	222
627	185	193	231
628	178	183	236
629	163	163	230
630	156	156	232
631	143	136	225
632	145	136	230
633	138	121	221
634	139	116	217
635	139	110	210
636	169	144	230
637	173	140	222
638	204	172	235
639	0	0	0
640	0	0	0
641	0	0	0
642	0	0	0
643	0	0	0
644	0	0	0
645	0	0	0
646	0	0	0
647	0	0	0
648	0	0	0
649	0	0	0
650	0	0	0
651	224	234	235
652	200	212	228
653	187	199	233
654	178	185	235
655	163	166	231
656	150	150	228
657	138	131	221
658	138	127	223
659	130	112	214
660	138	120	219
661	138	115	213
662	156	129	220
663	159	126	212
664	202	172	236
665	229	206	247
666	0	0	0
667	0	0	0
668	0	0	0
669	0	0	0
670	0	0	0
671	0	0	0
672	0	0	0
673	0	0	0
674	0	0	0
675	0	0	0
676	0	0	0
677	224	234	235
678	197	210	226
679	184	196	230
680	175	183	233
681	158	160	227
682	146	146	225
683	141	137	225
684	142	134	227
685	129	112	213
686	137	120	220
687	135	112	212
688	150	125	219
689	149	115	206
690	195	163	233
691	216	186	238
692	0	0	0
693	0	0	0
694	0	0	0
695	0	0	0
696	0	0	0
697	0	0	0
698	0	0	0
699	0	0	0
700	0	0	0
701	0	0	0
702	0	0	0
703	224	234	235
704	197	210	226
705	184	197	232
706	171	178	231
707	155	155	224
708	150	151	228
709	145	142	227
710	139	131	224
711	127	110	212
712	133	115	217
713	131	107	210
714	139	112	212
715	139	102	201
716	180	144	226
717	202	168	231
718	0	0	0
719	0	0	0
720	0	0	0
721	0	0	0
722	0	0	0
723	0	0	0
724	0	0	0
725	0	0	0
726	0	0	0
727	0	0	0
728	0	0	0
729	218	227	229
730	193	204	222
731	186	198	233
732	172	179	232
733	159	161	229
734	156	158	233
735	141	136	223
736	134	124	219
737	127	109	213
738	136	116	221
739	136	111	216
740	143	116	217
741	142	106	207
742	180	146	231
743	188	152	225
744	0	0	0
745	0	0	0
746	0	0	0
747	0	0	0
748	0	0	0
749	0	0	0
750	0	0	0
751	0	0	0
752	0	0	0
753	0	0	0
754	0	0	0
755	209	218	222
756	195	206	223
757	188	200	233
758	176	184	235
759	164	167	233
760	151	151	230
761	136	129	220
762	131	121	220
763	123	106	214
764	134	114	221
765	134	110	216
766	142	114	218
767	140	105	208
768	162	127	220
769	173	134	216
770	0	0	0
771	0	0	0
772	0	0	0
773	0	0	0
774	0	0	0
775	0	0	0
776	0	0	0
777	0	0	0
778	0	0	0
779	0	0	0
780	0	0	0
781	205	217	221
782	195	208	225
783	182	192	228
784	171	177	230
785	162	164	232
786	148	146	228
787	130	123	218
788	124	115	217
789	122	110	217
790	131	117	223
791	124	101	210
792	136	108	214
793	134	98	205
794	153	119	215
795	168	130	216
796	0	0	0
797	0	0	0
798	0	0	0
799	0	0	0
800	0	0	0
801	0	0	0
802	0	0	0
803	0	0	0
804	0	0	0
805	0	0	0
806	0	0	0
807	205	219	222
808	189	201	221
809	177	185	227
810	169	175	233
811	159	161	232
812	145	143	227
813	128	121	217
814	129	122	222
815	126	116	220
816	124	108	215
817	117	92	204
818	128	98	208
819	126	89	198
820	146	112	210
821	160	123	210
822	0	0	0
823	0	0	0
824	0	0	0
825	0	0	0
826	0	0	0
827	0	0	0
828	0	0	0
829	0	0	0
830	0	0	0
831	0	0	0
832	0	0	0
833	203	216	222
834	188	197	221
835	177	185	229
836	164	172	232
837	148	151	225
838	138	135	222
839	133	125	221
840	136	127	226
841	123	107	213
842	120	98	209
843	122	97	209
844	131	102	212
845	132	98	207
846	153	123	219
847	148	109	202
848	0	0	0
849	0	0	0
850	0	0	0
851	0	0	0
852	0	0	0
853	0	0	0
854	0	0	0
855	0	0	0
856	0	0	0
857	0	0	0
858	0	0	0
859	199	211	222
860	188	197	223
861	176	184	230
862	157	164	228
863	141	143	221
864	141	139	225
865	136	128	222
866	128	114	216
867	116	94	205
868	124	101	212
869	125	99	212
870	133	106	216
871	135	103	211
872	141	106	210
873	136	93	194
874	178	139	222
875	0	0	0
876	0	0	0
877	0	0	0
878	0	0	0
879	0	0	0
880	0	0	0
881	0	0	0
882	0	0	0
883	0	0	0
884	0	0	0
885	0	0	0
886	191	202	230
887	170	175	226
888	151	155	224
889	140	141	222
890	139	136	225
891	129	118	216
892	121	104	209
893	125	105	212
894	133	112	220
895	123	95	209
896	128	101	213
897	131	100	210
898	142	106	212
899	139	94	198
900	178	139	225
901	192	153	227
902	0	0	0
903	0	0	0
904	0	0	0
905	0	0	0
906	0	0	0
907	0	0	0
908	0	0	0
909	0	0	0
910	0	0	0
911	0	0	0
912	0	0	0
913	159	162	219
914	149	151	224
915	138	137	222
916	133	126	221
917	123	110	213
918	130	115	219
919	131	114	218
920	128	106	213
921	118	90	204
922	124	96	209
923	128	96	208
924	137	100	209
925	134	89	196
926	162	119	212
927	175	132	214
928	0	0	0
929	0	0	0
930	0	0	0
931	0	0	0
932	0	0	0
933	0	0	0
934	0	0	0
935	0	0	0
936	0	0	0
937	0	0	0
938	0	0	0
939	163	171	226
940	157	163	232
941	140	137	222
942	135	126	222
943	132	120	222
944	138	125	227
945	122	101	209
946	113	90	201
947	112	86	201
948	124	95	209
949	126	92	206
950	131	95	206
951	130	87	196
952	157	118	213
953	165	121	209
954	0	0	0
955	0	0	0
956	0	0	0
957	0	0	0
958	0	0	0
959	0	0	0
960	0	0	0
961	0	0	0
962	0	0	0
963	0	0	0
964	0	0	0
965	169	180	231
966	155	159	227
967	138	134	217
968	139	132	224
969	136	126	224
970	127	110	216
971	110	86	199
972	111	87	201
973	111	83	202
974	120	90	207
975	121	86	201
976	126	89	201
977	125	83	194
978	146	105	207
979	154	108	203
980	0	0	0
981	0	0	0
982	0	0	0
983	0	0	0
984	0	0	0
985	0	0	0
986	0	0	0
987	0	0	0
988	0	0	0
989	0	0	0
990	0	0	0
991	170	177	229
992	154	155	224
993	139	134	216
994	137	132	221
995	130	121	218
996	121	105	211
997	116	95	205
998	122	99	211
999	118	88	207
1000	124	93	210
1001	124	89	203
1002	129	93	205
1003	129	86	199
1004	149	108	212
1005	148	100	200
1006	0	0	0
1007	0	0	0
1008	0	0	0
1009	0	0	0
1010	0	0	0
1011	0	0	0
1012	0	0	0
1013	0	0	0
1014	0	0	0
1015	0	0	0
1016	0	0	0
1017	168	173	228
1018	156	157	226
1019	140	135	216
1020	136	129	218
1021	128	118	215
1022	126	113	215
1023	122	103	211
1024	124	100	212
1025	118	89	206
1026	123	92	208
1027	124	89	204
1028	129	92	205
1029	129	86	200
1030	142	98	206
1031	140	90	193
1032	0	0	0
1033	0	0	0
1034	0	0	0
1035	0	0	0
1036	0	0	0
1037	0	0	0
1038	0	0	0
1039	0	0	0
1040	0	0	0
1041	0	0	0
1042	0	0	0
1043	170	176	230
1044	158	160	229
1045	141	135	218
1046	138	131	220
1047	126	113	211
1048	124	108	211
1049	119	98	207
1050	118	93	207
1051	110	80	200
1052	115	84	203
1053	123	89	206
1054	132	94	209
1055	129	85	200
1056	139	95	204
1057	138	88	193
1058	0	0	0
1059	0	0	0
1060	0	0	0
1061	0	0	0
1062	0	0	0
1063	0	0	0
1064	0	0	0
1065	0	0	0
1066	0	0	0
1067	0	0	0
1068	0	0	0
1069	169	177	229
1070	155	157	226
1071	140	134	219
1072	132	122	216
1073	121	105	206
1074	122	102	207
1075	117	93	204
1076	116	88	205
1077	108	75	199
1078	117	86	208
1079	124	91	211
1080	128	89	207
1081	125	79	196
1082	134	88	199
1083	134	83	190
1084	176	129	217
1085	0	0	0
1086	0	0	0
1087	0	0	0
1088	0	0	0
1089	0	0	0
1090	0	0	0
1091	0	0	0
1092	0	0	0
1093	0	0	0
1094	0	0	0
1095	164	174	226
1096	153	155	225
1097	144	140	224
1098	135	128	222
1099	125	110	211
1100	129	110	214
1101	121	93	206
1102	118	89	207
1103	106	70	198
1104	115	81	207
1105	120	85	207
1106	120	81	202
1107	125	82	198
1108	137	94	204
1109	134	83	192
1110	172	127	217
1111	197	158	230
1112	227	195	241
1113	0	0	0
1114	0	0	0
1115	0	0	0
1116	0	0	0
1117	0	0	0
1118	0	0	0
1119	0	0	0
1120	0	0	0
1121	162	172	225
1122	157	161	231
1123	147	146	229
1124	138	131	224
1125	128	114	215
1126	127	105	213
1127	117	88	203
1128	113	79	200
1129	102	61	192
1130	113	74	202
1131	116	77	201
1132	120	82	201
1133	126	85	201
1134	136	91	204
1135	131	80	189
1136	168	126	215
1137	193	157	227
1138	228	196	241
1139	253	233	251
1140	0	0	0
1141	0	0	0
1142	0	0	0
1143	0	0	0
1144	0	0	0
1145	0	0	0
1146	0	0	0
1147	167	175	228
1148	159	163	233
1149	146	144	227
1150	140	132	225
1151	134	120	220
1152	129	109	215
1153	118	89	204
1154	116	82	204
1155	112	72	201
1156	124	86	211
1157	116	75	199
1158	121	80	200
1159	135	95	210
1160	145	102	213
1161	125	72	185
1162	157	116	208
1163	177	139	214
1164	217	180	232
1165	244	219	244
1166	0	0	0
1167	0	0	0
1168	0	0	0
1169	0	0	0
1170	0	0	0
1171	0	0	0
1172	0	0	0
1173	165	173	226
1174	155	159	228
1175	143	140	223
1176	142	134	225
1177	137	123	220
1178	129	108	213
1179	119	90	205
1180	123	90	210
1181	119	80	207
1182	122	81	208
1183	114	71	197
1184	127	89	207
1185	142	104	217
1186	136	91	204
1187	117	62	177
1188	145	99	198
1189	165	123	207
1190	210	169	230
1191	238	209	244
1192	0	0	0
1193	0	0	0
1194	0	0	0
1195	0	0	0
1196	0	0	0
1197	0	0	0
1198	0	0	0
1199	170	183	230
1200	161	170	233
1201	144	143	223
1202	144	138	226
1203	139	126	220
1204	133	112	215
1205	122	92	207
1206	126	92	213
1207	115	74	202
1208	116	74	203
1209	114	72	198
1210	128	90	209
1211	128	87	205
1212	124	75	194
1213	128	76	189
1214	157	115	211
1215	163	118	206
1216	207	163	230
1217	240	210	249
1218	0	0	0
1219	0	0	0
1220	0	0	0
1221	0	0	0
1222	0	0	0
1223	0	0	0
1224	0	0	0
1225	177	193	232
1226	164	173	232
1227	147	146	223
1228	144	139	225
1229	137	126	218
1230	130	110	212
1231	120	90	205
1232	119	83	205
1233	108	65	195
1234	114	73	201
1235	112	70	196
1236	114	72	196
1237	115	70	194
1238	129	83	202
1239	133	85	197
1240	149	104	205
1241	154	106	198
1242	207	165	231
1243	241	212	252
1244	0	0	0
1245	0	0	0
1246	0	0	0
1247	0	0	0
1248	0	0	0
1249	0	0	0
1250	0	0	0
1251	181	196	231
1252	172	177	233
1253	152	149	223
1254	142	138	222
1255	133	125	215
1256	126	109	209
1257	123	98	209
1258	122	91	210
1259	114	75	201
1260	121	84	209
1261	114	73	198
1262	117	76	199
1263	123	81	202
1264	134	94	209
1265	132	87	199
1266	149	107	207
1267	145	94	191
1268	195	152	224
1269	226	194	242
1270	0	0	0
1271	0	0	0
1272	0	0	0
1273	0	0	0
1274	0	0	0
1275	0	0	0
1276	0	0	0
1277	182	196	229
1278	170	175	228
1279	151	147	219
1280	143	139	220
1281	134	126	215
1282	130	117	214
1283	127	106	214
1284	131	102	218
1285	123	87	209
1286	122	86	209
1287	115	75	200
1288	126	87	207
1289	131	92	208
1290	132	93	206
1291	131	87	199
1292	139	93	200
1293	135	82	185
1294	185	138	219
1295	217	180	238
1296	0	0	0
1297	0	0	0
1298	0	0	0
1299	0	0	0
1300	0	0	0
1301	0	0	0
1302	0	0	0
1303	189	207	233
1304	173	183	230
1305	157	156	222
1306	158	154	230
1307	143	132	220
1308	133	120	216
1309	128	107	215
1310	137	106	221
1311	118	76	202
1312	114	72	200
1313	113	73	199
1314	126	86	207
1315	124	82	200
1316	127	84	199
1317	133	87	202
1318	142	95	204
1319	141	86	192
1320	190	143	225
1321	210	170	234
1322	0	0	0
1323	0	0	0
1324	0	0	0
1325	0	0	0
1326	0	0	0
1327	0	0	0
1328	0	0	0
1329	198	219	237
1330	176	190	228
1331	159	163	222
1332	157	154	227
1333	143	133	220
1334	134	120	217
1335	129	107	215
1336	126	91	210
1337	108	61	191
1338	111	68	197
1339	112	70	198
1340	118	75	200
1341	117	72	195
1342	124	79	198
1343	131	85	202
1344	143	94	206
1345	141	86	192
1346	181	131	218
1347	202	159	227
1348	231	199	240
1349	0	0	0
1350	0	0	0
1351	0	0	0
1352	0	0	0
1353	0	0	0
1354	0	0	0
1355	204	224	236
1356	176	191	225
1357	154	161	218
1358	149	150	223
1359	139	133	219
1360	137	124	220
1361	132	110	216
1362	123	90	208
1363	113	72	198
1364	121	83	207
1365	117	76	203
1366	124	82	206
1367	119	75	197
1368	124	82	200
1369	136	94	208
1370	151	105	214
1371	137	78	189
1372	171	121	212
1373	194	148	222
1374	234	195	242
1375	255	232	249
1376	0	0	0
1377	0	0	0
1378	0	0	0
1379	0	0	0
1380	0	0	0
1381	210	229	237
1382	177	191	222
1383	155	162	220
1384	149	151	226
1385	140	134	221
1386	137	123	219
1387	131	109	213
1388	128	100	211
1389	118	82	202
1390	121	85	206
1391	118	79	204
1392	125	83	207
1393	120	76	198
1394	129	90	204
1395	141	101	212
1396	139	89	202
1397	125	64	179
1398	159	107	205
1399	183	135	216
1400	227	182	238
1401	251	219	246
1402	0	0	0
1403	0	0	0
1404	0	0	0
1405	0	0	0
1406	0	0	0
1407	216	234	237
1408	183	195	222
1409	167	174	227
1410	163	164	235
1411	148	142	226
1412	142	130	222
1413	137	118	217
1414	136	110	216
1415	121	85	203
1416	122	87	207
1417	121	83	207
1418	129	89	211
1419	117	70	194
1420	128	84	202
1421	133	89	203
1422	128	76	192
1423	138	86	195
1424	173	130	222
1425	177	129	215
1426	221	175	238
1427	245	211	246
1428	0	0	0
1429	0	0	0
1430	0	0	0
1431	0	0	0
1432	0	0	0
1433	0	0	0
1434	190	203	224
1435	173	180	227
1436	163	166	230
1437	149	144	223
1438	146	137	224
1439	141	126	220
1440	135	110	215
1441	120	86	203
1442	121	88	208
1443	120	83	205
1444	121	78	203
1445	111	60	190
1446	121	73	196
1447	126	77	196
1448	140	94	205
1449	150	104	207
1450	160	115	211
1451	163	114	205
1452	210	163	232
1453	236	200	244
1454	0	0	0
1455	0	0	0
1456	0	0	0
1457	0	0	0
1458	0	0	0
1459	0	0	0
1460	0	0	0
1461	181	193	230
1462	167	176	231
1463	148	148	221
1464	148	144	226
1465	137	123	216
1466	129	107	210
1467	121	94	206
1468	125	97	213
1469	121	87	207
1470	123	82	206
1471	118	69	197
1472	130	83	205
1473	137	89	205
1474	151	107	214
1475	150	103	207
1476	155	111	208
1477	163	117	207
1478	209	167	236
1479	236	203	248
1480	244	222	246
1481	0	0	0
1482	0	0	0
1483	0	0	0
1484	0	0	0
1485	0	0	0
1486	0	0	0
1487	193	208	234
1488	170	180	227
1489	150	153	221
1490	147	143	223
1491	135	122	213
1492	133	115	213
1493	125	102	209
1494	125	99	211
1495	122	90	208
1496	125	87	208
1497	120	74	200
1498	135	90	210
1499	142	96	209
1500	149	102	210
1501	149	99	205
1502	158	114	211
1503	164	119	209
1504	207	167	235
1505	234	203	247
1506	238	212	239
1507	0	0	0
1508	0	0	0
1509	0	0	0
1510	0	0	0
1511	0	0	0
1512	0	0	0
1513	199	215	234
1514	175	187	227
1515	155	157	221
1516	151	147	225
1517	141	129	216
1518	138	122	216
1519	126	103	208
1520	125	99	210
1521	123	92	208
1522	125	88	208
1523	121	79	201
1524	136	95	211
1525	140	95	207
1526	152	103	210
1527	160	110	213
1528	171	126	219
1529	171	123	212
1530	209	169	236
1531	227	194	240
1532	0	0	0
1533	0	0	0
1534	0	0	0
1535	0	0	0
1536	0	0	0
1537	0	0	0
1538	0	0	0
1539	207	224	236
1540	178	188	224
1541	158	160	223
1542	155	151	229
1543	143	133	218
1544	136	120	214
1545	124	101	207
1546	126	101	211
1547	123	94	208
1548	128	94	210
1549	126	86	203
1550	138	96	210
1551	143	96	208
1552	160	111	215
1553	169	119	217
1554	173	125	216
1555	172	122	209
1556	201	159	227
1557	219	184	232
1558	0	0	0
1559	0	0	0
1560	0	0	0
1561	0	0	0
1562	0	0	0
1563	0	0	0
1564	0	0	0
1565	209	225	234
1566	180	189	221
1567	168	172	229
1568	164	163	235
1569	148	140	223
1570	139	127	219
1571	127	108	212
1572	130	108	216
1573	123	95	208
1574	129	97	211
1575	126	84	202
1576	141	96	210
1577	146	96	208
1578	162	110	215
1579	174	123	219
1580	179	130	218
1581	176	125	210
1582	201	160	227
1583	216	180	230
1584	0	0	0
1585	0	0	0
1586	0	0	0
1587	0	0	0
1588	0	0	0
1589	0	0	0
1590	0	0	0
1591	216	230	236
1592	189	201	226
1593	175	183	231
1594	167	168	235
1595	152	146	226
1596	143	133	223
1597	131	113	215
1598	129	107	215
1599	124	95	209
1600	128	94	210
1601	124	81	201
1602	139	93	208
1603	144	93	206
1604	167	115	219
1605	180	129	224
1606	183	133	221
1607	181	129	213
1608	200	156	225
1609	216	176	230
1610	0	0	0
1611	0	0	0
1612	0	0	0
1613	0	0	0
1614	0	0	0
1615	0	0	0
1616	0	0	0
1617	224	238	240
1618	192	206	226
1619	175	185	228
1620	168	171	232
1621	155	150	226
1622	148	138	225
1623	140	124	221
1624	141	120	222
1625	138	110	219
1626	141	108	220
1627	124	80	200
1628	133	90	206
1629	145	99	210
1630	172	124	226
1631	175	120	219
1632	180	124	217
1633	185	130	215
1634	206	157	228
1635	212	166	227
1636	0	0	0
1637	0	0	0
1638	0	0	0
1639	0	0	0
1640	0	0	0
1641	0	0	0
1642	0	0	0
1643	234	248	245
1644	198	212	227
1645	181	191	230
1646	173	176	233
1647	160	155	227
1648	156	148	229
1649	149	134	225
1650	147	128	225
1651	144	119	221
1652	137	103	213
1653	120	76	196
1654	136	95	210
1655	148	105	214
1656	167	115	220
1657	171	112	215
1658	183	125	220
1659	190	132	219
1660	202	147	223
1661	206	154	221
1662	0	0	0
1663	0	0	0
1664	0	0	0
1665	0	0	0
1666	0	0	0
1667	0	0	0
1668	0	0	0
1669	237	248	244
1670	202	213	226
1671	190	199	233
1672	180	183	235
1673	164	158	226
1674	161	151	229
1675	148	132	221
1676	142	124	219
1677	144	123	220
1678	140	110	214
1679	131	91	204
1680	148	112	220
1681	144	98	210
1682	162	108	217
1683	162	98	207
1684	178	114	215
1685	190	128	219
1686	201	142	222
1687	204	149	220
1688	0	0	0
1689	0	0	0
1690	0	0	0
1691	0	0	0
1692	0	0	0
1693	0	0	0
1694	0	0	0
1695	0	0	0
1696	208	220	229
1697	194	204	232
1698	179	182	228
1699	163	158	222
1700	162	150	227
1701	149	132	221
1702	145	130	223
1703	145	128	221
1704	144	117	215
1705	136	100	206
1706	139	98	208
1707	137	87	202
1708	154	92	208
1709	154	84	200
1710	177	108	214
1711	188	121	217
1712	199	136	221
1713	203	144	221
1714	0	0	0
1715	0	0	0
1716	0	0	0
1717	0	0	0
1718	0	0	0
1719	0	0	0
1720	0	0	0
1721	0	0	0
1722	0	0	0
1723	200	217	234
1724	185	194	230
1725	170	168	226
1726	173	163	235
1727	161	145	229
1728	154	142	229
1729	145	131	220
1730	142	120	214
1731	143	111	212
1732	151	112	217
1733	147	93	208
1734	163	100	216
1735	165	93	209
1736	185	117	221
1737	189	120	218
1738	202	136	223
1739	206	143	223
1740	0	0	0
1741	0	0	0
1742	0	0	0
1743	0	0	0
1744	0	0	0
1745	0	0	0
1746	0	0	0
1747	0	0	0
1748	0	0	0
1749	215	236	241
1750	193	204	230
1751	179	179	229
1752	182	174	239
1753	168	155	233
1754	156	146	228
1755	148	135	221
1756	152	131	222
1757	153	124	220
1758	154	113	218
1759	150	95	210
1760	167	103	218
1761	168	96	210
1762	182	110	216
1763	186	114	213
1764	199	131	221
1765	204	139	222
1766	220	164	233
1767	0	0	0
1768	0	0	0
1769	0	0	0
1770	0	0	0
1771	0	0	0
1772	0	0	0
1773	0	0	0
1774	0	0	0
1775	222	234	237
1776	195	200	223
1777	183	181	227
1778	181	174	235
1779	166	154	228
1780	157	146	226
1781	155	140	225
1782	160	138	227
1783	151	116	216
1784	150	104	212
1785	148	90	207
1786	163	99	215
1787	170	100	212
1788	187	116	220
1789	184	110	212
1790	193	124	217
1791	201	136	221
1792	222	164	236
1793	225	171	233
1794	0	0	0
1795	0	0	0
1796	0	0	0
1797	0	0	0
1798	0	0	0
1799	0	0	0
1800	0	0	0
1801	226	233	237
1802	200	204	225
1803	186	184	225
1804	182	174	231
1805	168	155	226
1806	164	151	229
1807	162	145	228
1808	155	126	219
1809	146	104	208
1810	148	99	210
1811	145	85	203
1812	161	98	214
1813	169	100	213
1814	180	106	215
1815	177	100	205
1816	186	116	212
1817	195	128	216
1818	211	146	225
1819	216	155	225
1820	0	0	0
1821	0	0	0
1822	0	0	0
1823	0	0	0
1824	0	0	0
1825	0	0	0
1826	0	0	0
1827	231	239	239
1828	202	208	224
1829	190	191	225
1830	189	182	232
1831	179	165	231
1832	178	162	237
1833	173	153	233
1834	164	132	223
1835	161	122	221
1836	163	116	222
1837	151	93	209
1838	164	105	218
1839	170	105	216
1840	182	112	219
1841	182	107	211
1842	194	125	219
1843	205	140	225
1844	221	158	234
1845	223	161	232
1846	0	0	0
1847	0	0	0
1848	0	0	0
1849	0	0	0
1850	0	0	0
1851	0	0	0
1852	0	0	0
1853	238	247	243
1854	209	217	227
1855	197	199	226
1856	195	189	233
1857	187	173	234
1858	185	167	238
1859	180	157	235
1860	176	147	232
1861	172	136	229
1862	164	120	222
1863	151	97	209
1864	165	108	218
1865	170	107	216
1866	183	114	219
1867	185	111	214
1868	199	130	222
1869	210	145	227
1870	217	153	230
1871	218	156	227
1872	0	0	0
1873	0	0	0
1874	0	0	0
1875	0	0	0
1876	0	0	0
1877	0	0	0
1878	0	0	0
1879	242	251	244
1880	214	221	228
1881	202	203	225
1882	198	192	231
1883	187	171	230
1884	184	166	235
1885	177	153	230
1886	174	143	228
1887	173	138	229
1888	161	120	219
1889	154	104	211
1890	171	118	223
1891	172	108	215
1892	186	116	219
1893	197	125	222
1894	214	145	233
1895	217	150	231
1896	218	156	230
1897	215	156	226
1898	0	0	0
1899	0	0	0
1900	0	0	0
1901	0	0	0
1902	0	0	0
1903	0	0	0
1904	0	0	0
1905	0	0	0
1906	221	227	232
1907	208	209	226
1908	197	189	224
1909	185	169	225
1910	185	164	233
1911	178	152	230
1912	181	151	234
1913	179	146	232
1914	168	131	224
1915	161	115	216
1916	170	117	219
1917	171	108	212
1918	194	128	226
1919	206	137	229
1920	217	148	233
1921	219	153	230
1922	217	155	228
1923	214	156	226
1924	0	0	0
1925	0	0	0
1926	0	0	0
1927	0	0	0
1928	0	0	0
1929	0	0	0
1930	0	0	0
1931	0	0	0
1932	0	0	0
1933	217	219	230
1934	202	198	226
1935	191	177	228
1936	195	175	239
1937	183	153	231
1938	182	151	233
1939	174	138	226
1940	167	125	220
1941	166	118	217
1942	171	118	218
1943	178	119	218
1944	202	140	233
1945	201	130	223
1946	212	142	227
1947	219	152	230
1948	220	157	230
1949	220	164	231
1950	0	0	0
1951	0	0	0
1952	0	0	0
1953	0	0	0
1954	0	0	0
1955	0	0	0
1956	0	0	0
1957	0	0	0
1958	0	0	0
1959	228	232	237
1960	207	204	226
1961	197	184	228
1962	197	174	236
1963	184	153	228
1964	178	143	227
1965	170	131	222
1966	173	130	225
1967	172	123	221
1968	180	130	227
1969	187	131	227
1970	197	134	229
1971	196	125	218
1972	213	144	230
1973	223	156	236
1974	228	167	239
1975	227	172	238
1976	0	0	0
1977	0	0	0
1978	0	0	0
1979	0	0	0
1980	0	0	0
1981	0	0	0
1982	0	0	0
1983	0	0	0
1984	0	0	0
1985	234	237	239
1986	213	209	227
1987	202	187	228
1988	202	178	235
1989	188	154	228
1990	180	145	228
1991	180	143	230
1992	184	143	233
1993	173	123	221
1994	182	130	227
1995	189	133	229
1996	196	135	229
1997	191	121	216
1998	212	143	231
1999	217	148	233
2000	221	157	235
2001	220	165	232
2002	0	0	0
2003	0	0	0
2004	0	0	0
2005	0	0	0
2006	0	0	0
2007	0	0	0
2008	0	0	0
2009	0	0	0
2010	0	0	0
2011	0	0	0
2012	212	209	225
2013	199	186	223
2014	197	174	229
2015	185	152	225
2016	189	158	236
2017	189	155	236
2018	182	141	229
2019	173	123	219
2020	186	134	230
2021	194	138	232
2022	195	133	228
2023	190	120	217
2024	209	138	230
2025	212	142	231
2026	219	155	235
2027	218	163	233
2028	0	0	0
2029	0	0	0
2030	0	0	0
2031	0	0	0
2032	0	0	0
2033	0	0	0
2034	0	0	0
2035	0	0	0
2036	0	0	0
2037	0	0	0
2038	0	0	0
2039	205	201	228
2040	200	188	233
2041	181	153	223
2042	192	162	238
2043	183	147	229
2044	174	132	221
2045	177	129	223
2046	195	143	236
2047	190	129	227
2048	190	124	223
2049	188	115	217
2050	203	131	228
2051	199	125	221
2052	206	139	225
2053	226	175	241
2054	0	0	0
2055	0	0	0
2056	0	0	0
2057	0	0	0
2058	0	0	0
2059	0	0	0
2060	0	0	0
2061	0	0	0
2062	0	0	0
2063	0	0	0
2064	0	0	0
2065	0	0	0
2066	195	185	225
2067	176	152	218
2068	183	152	231
2069	176	138	224
2070	180	139	228
2071	182	136	228
2072	185	130	227
2073	181	116	219
2074	187	118	222
2075	185	110	217
2076	196	119	224
2077	191	113	216
2078	217	154	237
2079	236	188	250
2080	0	0	0
2081	0	0	0
2082	0	0	0
2083	0	0	0
2084	0	0	0
2085	0	0	0
2086	0	0	0
2087	0	0	0
2088	0	0	0
2089	0	0	0
2090	0	0	0
2091	0	0	0
2092	0	0	0
2093	186	167	226
2094	192	168	239
2095	178	141	226
2096	185	145	233
2097	181	133	227
2098	178	125	224
2099	177	116	220
2100	188	120	227
2101	186	108	220
2102	196	118	226
2103	191	112	217
2104	217	152	237
2105	233	185	247
2106	0	0	0
2107	0	0	0
2108	0	0	0
2109	0	0	0
2110	0	0	0
2111	0	0	0
2112	0	0	0
2113	0	0	0
2114	0	0	0
2115	0	0	0
2116	0	0	0
2117	0	0	0
2118	0	0	0
2119	198	183	233
2120	193	168	235
2121	178	141	223
2122	182	139	228
2123	178	129	225
2124	179	125	226
2125	178	116	222
2126	185	115	225
2127	182	103	218
2128	195	115	226
2129	189	109	216
2130	217	152	237
2131	232	184	247
2132	0	0	0
2133	0	0	0
2134	0	0	0
2135	0	0	0
2136	0	0	0
2137	0	0	0
2138	0	0	0
2139	0	0	0
2140	0	0	0
2141	0	0	0
2142	0	0	0
2143	0	0	0
2144	0	0	0
2145	201	183	231
2146	196	168	234
2147	185	147	226
2148	187	144	231
2149	182	131	227
2150	186	130	231
2151	180	114	223
2152	184	112	224
2153	179	99	216
2154	190	111	223
2155	189	111	218
2156	218	155	240
2157	232	185	249
2158	0	0	0
2159	0	0	0
2160	0	0	0
2161	0	0	0
2162	0	0	0
2163	0	0	0
2164	0	0	0
2165	0	0	0
2166	0	0	0
2167	0	0	0
2168	0	0	0
2169	0	0	0
2170	0	0	0
2171	203	183	230
2172	200	171	234
2173	189	150	227
2174	186	142	228
2175	180	128	224
2176	180	120	223
2177	174	105	216
2178	180	105	219
2179	175	93	212
2180	193	113	226
2181	192	114	220
2182	219	155	242
2183	234	186	254
2184	0	0	0
2185	0	0	0
2186	0	0	0
2187	0	0	0
2188	0	0	0
2189	0	0	0
2190	0	0	0
2191	0	0	0
2192	0	0	0
2193	0	0	0
2194	0	0	0
2195	0	0	0
2196	0	0	0
2197	210	191	232
2198	206	178	235
2199	194	155	229
2200	192	148	231
2201	186	135	227
2202	183	126	225
2203	183	119	225
2204	190	120	229
2205	181	100	217
2206	201	122	232
2207	194	113	220
2208	221	154	242
2209	236	186	255
2210	0	0	0
2211	0	0	0
2212	0	0	0
2213	0	0	0
2214	0	0	0
2215	0	0	0
2216	0	0	0
2217	0	0	0
2218	0	0	0
2219	0	0	0
2220	0	0	0
2221	0	0	0
2222	0	0	0
2223	212	195	227
2224	206	179	230
2225	197	158	229
2226	198	154	235
2227	192	141	229
2228	193	138	231
2229	194	132	232
2230	193	122	229
2231	183	102	217
2232	197	116	227
2233	189	106	214
2234	219	151	239
2235	234	183	250
2236	0	0	0
2237	0	0	0
2238	0	0	0
2239	0	0	0
2240	0	0	0
2241	0	0	0
2242	0	0	0
2243	0	0	0
2244	0	0	0
2245	0	0	0
2246	0	0	0
2247	0	0	0
2248	0	0	0
2249	219	206	229
2250	213	190	231
2251	199	160	228
2252	205	159	238
2253	197	142	229
2254	199	139	231
2255	198	132	230
2256	197	123	228
2257	194	114	224
2258	203	126	232
2259	187	105	212
2260	218	152	238
2261	233	182	248
2262	0	0	0
2263	0	0	0
2264	0	0	0
2265	0	0	0
2266	0	0	0
2267	0	0	0
2268	0	0	0
2269	0	0	0
2270	0	0	0
2271	0	0	0
2272	0	0	0
2273	0	0	0
2274	0	0	0
2275	231	221	236
2276	217	193	229
2277	205	164	229
2278	210	161	239
2279	203	144	230
2280	204	141	231
2281	203	133	230
2282	206	133	233
2283	203	124	229
2284	203	123	229
2285	187	104	211
2286	219	152	238
2287	234	182	248
2288	0	0	0
2289	0	0	0
2290	0	0	0
2291	0	0	0
2292	0	0	0
2293	0	0	0
2294	0	0	0
2295	0	0	0
2296	0	0	0
2297	0	0	0
2298	0	0	0
2299	0	0	0
2300	0	0	0
2301	236	222	235
2302	223	194	228
2303	214	169	231
2304	217	164	240
2305	211	150	232
2306	211	146	233
2307	209	139	231
2308	213	138	235
2309	206	124	227
2310	208	125	229
2311	201	118	220
2312	232	165	248
2313	235	179	246
2314	0	0	0
2315	0	0	0
2316	0	0	0
2317	0	0	0
2318	0	0	0
2319	0	0	0
2320	0	0	0
2321	0	0	0
2322	0	0	0
2323	0	0	0
2324	0	0	0
2325	0	0	0
2326	0	0	0
2327	241	225	238
2328	229	198	230
2329	219	172	229
2330	224	169	239
2331	217	155	233
2332	218	152	234
2333	215	144	233
2334	215	138	232
2335	208	125	226
2336	218	135	234
2337	210	127	224
2338	226	156	238
2339	229	170	238
2340	0	0	0
2341	0	0	0
2342	0	0	0
2343	0	0	0
2344	0	0	0
2345	0	0	0
2346	0	0	0
2347	0	0	0
2348	0	0	0
2349	0	0	0
2350	0	0	0
2351	0	0	0
2352	0	0	0
2353	244	228	240
2354	231	199	230
2355	223	176	230
2356	228	173	240
2357	218	153	231
2358	218	149	232
2359	214	141	229
2360	214	135	228
2361	217	134	231
2362	228	146	240
2363	207	121	219
2364	219	148	231
2365	233	179	243
2366	0	0	0
2367	0	0	0
2368	0	0	0
2369	0	0	0
2370	0	0	0
2371	0	0	0
2372	0	0	0
2373	0	0	0
2374	0	0	0
2375	0	0	0
2376	0	0	0
2377	0	0	0
2378	0	0	0
2379	246	231	240
2380	236	205	233
2381	228	181	232
2382	230	172	239
2383	220	152	233
2384	220	149	235
2385	217	141	230
2386	226	147	237
2387	228	146	237
2388	223	139	233
2389	203	115	215
2390	229	160	241
2391	242	190	251
2392	0	0	0
2393	0	0	0
2394	0	0	0
2395	0	0	0
2396	0	0	0
2397	0	0	0
2398	0	0	0
2399	0	0	0
2400	0	0	0
2401	0	0	0
2402	0	0	0
2403	0	0	0
2404	0	0	0
2405	249	237	242
2406	242	212	237
2407	231	183	233
2408	233	174	240
2409	228	160	238
2410	227	157	240
2411	224	146	234
2412	236	154	242
2413	229	143	234
2414	217	132	226
2415	210	126	222
2416	245	176	254
2417	237	176	243
2418	0	0	0
2419	0	0	0
2420	0	0	0
2421	0	0	0
2422	0	0	0
2423	0	0	0
2424	0	0	0
2425	0	0	0
2426	0	0	0
2427	0	0	0
2428	0	0	0
2429	0	0	0
2430	0	0	0
2431	0	0	0
2432	241	212	235
2433	231	183	230
2434	235	178	238
2435	229	163	234
2436	227	157	235
2437	225	148	232
2438	234	149	237
2439	226	137	227
2440	223	139	228
2441	217	135	226
2442	234	157	241
2443	227	159	233
2444	0	0	0
2445	0	0	0
2446	0	0	0
2447	0	0	0
2448	0	0	0
2449	0	0	0
2450	0	0	0
2451	0	0	0
2452	0	0	0
2453	0	0	0
2454	0	0	0
2455	0	0	0
2456	0	0	0
2457	0	0	0
2458	0	0	0
2459	235	195	233
2460	240	190	241
2461	228	165	232
2462	227	160	233
2463	231	158	237
2464	240	159	241
2465	226	138	226
2466	226	142	229
2467	222	141	228
2468	237	163	242
2469	233	166	238
2470	0	0	0
2471	0	0	0
2472	0	0	0
2473	0	0	0
2474	0	0	0
2475	0	0	0
2476	0	0	0
2477	0	0	0
2478	0	0	0
2479	0	0	0
2480	0	0	0
2481	0	0	0
2482	0	0	0
2483	0	0	0
2484	0	0	0
2485	240	207	236
2486	239	191	236
2487	230	169	232
2488	238	174	243
2489	242	171	244
2490	242	161	240
2491	230	141	228
2492	233	149	234
2493	228	147	230
2494	242	167	242
2495	237	171	239
2496	0	0	0
2497	0	0	0
2498	0	0	0
2499	0	0	0
2500	0	0	0
2501	0	0	0
2502	0	0	0
2503	0	0	0
2504	0	0	0
2505	0	0	0
2506	0	0	0
2507	0	0	0
2508	0	0	0
2509	0	0	0
2510	0	0	0
2511	239	212	234
2512	240	198	235
2513	231	171	231
2514	244	178	245
2515	239	163	237
2516	237	151	232
2517	237	148	233
2518	242	157	240
2519	232	146	230
2520	244	166	242
2521	234	164	234
2522	0	0	0
2523	0	0	0
2524	0	0	0
2525	0	0	0
2526	0	0	0
2527	0	0	0
2528	0	0	0
2529	0	0	0
2530	0	0	0
2531	0	0	0
2532	0	0	0
2533	0	0	0
2534	0	0	0
2535	0	0	0
2536	0	0	0
2537	246	223	237
2538	240	198	230
2539	231	171	228
2540	235	166	235
2541	230	151	228
2542	239	156	235
2543	240	153	234
2544	241	154	237
2545	232	144	230
2546	239	159	239
2547	229	157	231
2548	0	0	0
2549	0	0	0
2550	0	0	0
2551	0	0	0
2552	0	0	0
2553	0	0	0
2554	0	0	0
2555	0	0	0
2556	0	0	0
2557	0	0	0
2558	0	0	0
2559	0	0	0
2560	0	0	0
2561	0	0	0
2562	0	0	0
2563	248	224	236
2564	240	197	228
2565	232	174	227
2566	231	166	232
2567	229	157	231
2568	239	163	239
2569	238	156	234
2570	243	159	239
2571	232	144	231
2572	237	158	239
2573	233	164	235
2574	0	0	0
2575	0	0	0
2576	0	0	0
2577	0	0	0
2578	0	0	0
2579	0	0	0
2580	0	0	0
2581	0	0	0
2582	0	0	0
2583	0	0	0
2584	0	0	0
2585	0	0	0
2586	0	0	0
2587	0	0	0
2588	0	0	0
2589	247	222	236
2590	241	200	229
2591	232	175	225
2592	238	176	237
2593	238	169	239
2594	243	169	244
2595	242	162	238
2596	242	158	238
2597	231	144	230
2598	239	163	241
2599	236	169	237
2600	0	0	0
2601	0	0	0
2602	0	0	0
2603	0	0	0
2604	0	0	0
2605	0	0	0
2606	0	0	0
2607	0	0	0
2608	0	0	0
2609	0	0	0
2610	0	0	0
2611	0	0	0
2612	0	0	0
2613	0	0	0
2614	0	0	0
2615	247	230	240
2616	242	207	233
2617	234	180	226
2618	249	185	242
2619	247	172	242
2620	250	171	245
2621	241	156	235
2622	237	150	232
2623	234	148	232
2624	245	169	245
2625	235	166	235
2626	0	0	0
2627	0	0	0
2628	0	0	0
2629	0	0	0
2630	0	0	0
2631	0	0	0
2632	0	0	0
2633	0	0	0
2634	0	0	0
2635	0	0	0
2636	0	0	0
2637	0	0	0
2638	0	0	0
2639	0	0	0
2640	0	0	0
2641	253	240	246
2642	244	212	235
2643	236	185	228
2644	248	183	238
2645	246	170	237
2646	246	164	238
2647	238	150	231
2648	245	158	239
2649	241	156	238
2650	248	169	245
2651	237	165	236
2652	0	0	0
2653	0	0	0
2654	0	0	0
2655	0	0	0
2656	0	0	0
2657	0	0	0
2658	0	0	0
2659	0	0	0
2660	0	0	0
2661	0	0	0
2662	0	0	0
2663	0	0	0
2664	0	0	0
2665	0	0	0
2666	0	0	0
2667	251	238	244
2668	242	210	233
2669	239	189	229
2670	245	185	236
2671	243	170	234
2672	247	167	239
2673	243	154	235
2674	251	164	245
2675	242	152	236
2676	249	165	244
2677	237	160	233
2678	0	0	0
2679	0	0	0
2680	0	0	0
2681	0	0	0
2682	0	0	0
2683	0	0	0
2684	0	0	0
2685	0	0	0
2686	0	0	0
2687	0	0	0
2688	0	0	0
2689	0	0	0
2690	0	0	0
2691	0	0	0
2692	0	0	0
2693	252	238	246
2694	246	215	237
2695	241	194	231
2696	243	185	234
2697	242	171	233
2698	249	169	240
2699	244	156	236
2700	244	155	238
2701	236	143	231
2702	244	157	239
2703	233	152	227
2704	0	0	0
2705	0	0	0
2706	0	0	0
2707	0	0	0
2708	0	0	0
2709	0	0	0
2710	0	0	0
2711	0	0	0
2712	0	0	0
2713	0	0	0
2714	0	0	0
2715	0	0	0
2716	0	0	0
2717	0	0	0
2718	0	0	0
2719	255	243	249
2720	246	218	237
2721	241	197	230
2722	244	189	234
2723	243	174	234
2724	252	173	242
2725	241	154	233
2726	238	150	233
2727	238	152	236
2728	248	167	245
2729	232	153	228
2730	0	0	0
2731	0	0	0
2732	0	0	0
2733	0	0	0
2734	0	0	0
2735	0	0	0
2736	0	0	0
2737	0	0	0
2738	0	0	0
2739	0	0	0
2740	0	0	0
2741	0	0	0
2742	0	0	0
2743	0	0	0
2744	0	0	0
2745	255	247	248
2746	247	221	235
2747	241	200	228
2748	243	189	231
2749	243	175	232
2750	247	168	236
2751	237	149	228
2752	242	158	238
2753	242	160	240
2754	243	163	241
2755	229	151	228
2756	0	0	0
2757	0	0	0
2758	0	0	0
2759	0	0	0
2760	0	0	0
2761	0	0	0
2762	0	0	0
2763	0	0	0
2764	0	0	0
2765	0	0	0
2766	0	0	0
2767	0	0	0
2768	0	0	0
2769	0	0	0
2770	0	0	0
2771	255	245	245
2772	246	220	232
2773	243	203	229
2774	245	192	231
2775	246	181	234
2776	249	173	237
2777	242	158	232
2778	250	169	243
2779	242	160	236
2780	240	161	236
2781	0	0	0
2782	0	0	0
2783	0	0	0
2784	0	0	0
2785	0	0	0
2786	0	0	0
2787	0	0	0
2788	0	0	0
2789	0	0	0
2790	0	0	0
2791	0	0	0
2792	0	0	0
2793	0	0	0
2794	0	0	0
2795	0	0	0
2796	0	0	0
2797	254	245	247
2798	249	225	238
2799	246	208	233
2800	249	199	236
2801	248	187	236
2802	251	181	239
2803	245	165	234
2804	249	168	239
2805	241	158	231
2806	250	176	242
2807	248	182	243
2808	0	0	0
2809	0	0	0
2810	0	0	0
2811	0	0	0
2812	0	0	0
2813	0	0	0
2814	0	0	0
2815	0	0	0
2816	0	0	0
2817	0	0	0
2818	0	0	0
2819	0	0	0
2820	0	0	0
2821	0	0	0
2822	0	0	0
2823	255	250	251
2824	251	229	242
2825	248	211	235
2826	250	202	237
2827	245	185	233
2828	248	178	235
2829	244	166	232
2830	248	169	238
2831	239	156	229
2832	249	174	241
2833	241	172	235
2834	0	0	0
2835	0	0	0
2836	0	0	0
2837	0	0	0
2838	0	0	0
2839	0	0	0
2840	0	0	0
2841	0	0	0
2842	0	0	0
2843	0	0	0
2844	0	0	0
2845	0	0	0
2846	0	0	0
2847	0	0	0
2848	0	0	0
2849	0	0	0
2850	248	230	240
2851	244	211	233
2852	247	200	234
2853	244	184	233
2854	249	181	238
2855	245	169	233
2856	246	167	235
2857	238	155	229
2858	246	168	239
2859	238	166	233
2860	0	0	0
2861	0	0	0
2862	0	0	0
2863	0	0	0
2864	0	0	0
2865	0	0	0
2866	0	0	0
2867	0	0	0
2868	0	0	0
2869	0	0	0
2870	0	0	0
2871	0	0	0
2872	0	0	0
2873	0	0	0
2874	0	0	0
2875	0	0	0
2876	0	0	0
2877	245	221	237
2878	254	214	242
2879	243	182	232
2880	248	179	237
2881	246	171	234
2882	246	168	235
2883	241	159	233
2884	251	174	244
2885	243	168	237
2886	0	0	0
2887	0	0	0
2888	0	0	0
2889	0	0	0
2890	0	0	0
2891	0	0	0
2892	0	0	0
2893	0	0	0
2894	0	0	0
2895	0	0	0
2896	0	0	0
2897	0	0	0
2898	0	0	0
2899	0	0	0
2900	0	0	0
2901	0	0	0
2902	0	0	0
2903	251	235	244
2904	249	209	237
2905	238	177	227
2906	247	180	238
2907	246	172	235
2908	247	171	237
2909	242	162	234
2910	251	172	243
2911	242	166	236
2912	249	186	243
2913	0	0	0
2914	0	0	0
2915	0	0	0
2916	0	0	0
2917	0	0	0
2918	0	0	0
2919	0	0	0
2920	0	0	0
2921	0	0	0
2922	0	0	0
2923	0	0	0
2924	0	0	0
2925	0	0	0
2926	0	0	0
2927	0	0	0
2928	0	0	0
2929	255	239	247
2930	249	211	237
2931	238	180	228
2932	247	183	239
2933	244	173	235
2934	248	173	239
2935	241	160	234
2936	250	170	242
2937	240	165	234
2938	0	0	0
2939	0	0	0
2940	0	0	0
2941	0	0	0
2942	0	0	0
2943	0	0	0
2944	0	0	0
2945	0	0	0
2946	0	0	0
2947	0	0	0
2948	0	0	0
2949	0	0	0
2950	0	0	0
2951	0	0	0
2952	0	0	0
2953	0	0	0
2954	0	0	0
2955	255	244	251
2956	247	212	236
2957	235	180	224
2958	243	181	234
2959	241	172	234
2960	244	169	238
2961	239	157	233
2962	250	170	243
2963	239	163	231
2964	0	0	0
2965	0	0	0
2966	0	0	0
2967	0	0	0
2968	0	0	0
2969	0	0	0
2970	0	0	0
2971	0	0	0
2972	0	0	0
2973	0	0	0
2974	0	0	0
2975	0	0	0
2976	0	0	0
2977	0	0	0
2978	0	0	0
2979	0	0	0
2980	0	0	0
2981	255	247	252
2982	245	213	235
2983	240	192	230
2984	250	194	241
2985	243	176	236
2986	244	172	239
2987	241	163	238
2988	254	176	248
2989	235	159	228
2990	0	0	0
2991	0	0	0
2992	0	0	0
2993	0	0	0
2994	0	0	0
2995	0	0	0
2996	0	0	0
2997	0	0	0
2998	0	0	0
2999	0	0	0
3000	0	0	0
3001	0	0	0
3002	0	0	0
3003	0	0	0
3004	0	0	0
3005	0	0	0
3006	0	0	0
3007	255	250	252
3008	250	224	241
3009	246	204	237
3010	251	197	242
3011	243	177	234
3012	243	174	238
3013	240	165	237
3014	245	169	241
3015	0	0	0
3016	0	0	0
3017	0	0	0
3018	0	0	0
3019	0	0	0
3020	0	0	0
3021	0	0	0
3022	0	0	0
3023	0	0	0
3024	0	0	0
3025	0	0	0
3026	0	0	0
3027	0	0	0
3028	0	0	0
3029	0	0	0
3030	0	0	0
3031	0	0	0
3032	0	0	0
3033	255	248	249
3034	246	223	238
3035	247	208	239
3036	254	201	244
3037	240	173	230
3038	239	170	234
3039	239	170	238
3040	241	172	241
3041	232	163	230
3042	0	0	0
3043	0	0	0
3044	0	0	0
3045	0	0	0
3046	0	0	0
3047	0	0	0
3048	0	0	0
3049	0	0	0
3050	0	0	0
3051	0	0	0
3052	0	0	0
3053	0	0	0
3054	0	0	0
3055	0	0	0
3056	0	0	0
3057	0	0	0
3058	0	0	0
3059	0	0	0
3060	245	225	238
3061	244	209	237
3062	245	194	237
3063	233	167	225
3064	244	178	239
3065	245	178	243
3066	247	183	246
3067	238	174	237
3068	0	0	0
3069	0	0	0
3070	0	0	0
3071	0	0	0
3072	0	0	0
3073	0	0	0
3074	0	0	0
3075	0	0	0
3076	0	0	0
3077	0	0	0
3078	0	0	0
3079	0	0	0
3080	0	0	0
3081	0	0	0
3082	0	0	0
3083	0	0	0
3084	0	0	0
3085	0	0	0
3086	0	0	0
3087	248	222	242
3088	246	205	241
3089	232	172	227
3090	0	0	0
3091	244	172	239
3092	245	176	242
3093	238	172	235
3094	0	0	0
3095	0	0	0
3096	0	0	0
3097	0	0	0
3098	0	0	0
3099	0	0	0
3100	0	0	0
3101	0	0	0
3102	0	0	0
3103	0	0	0
3104	0	0	0
3105	0	0	0
3106	0	0	0
3107	0	0	0
3108	0	0	0
3109	0	0	0
3110	0	0	0
3111	0	0	0
3112	0	0	0
3113	0	0	0
3114	244	207	237
3115	0	0	0
3116	0	0	0
3117	236	162	233
3118	244	174	242
3119	237	170	236
3120	0	0	0
3121	0	0	0
3122	0	0	0
3123	0	0	0
3124	0	0	0
3125	0	0	0
3126	0	0	0
3127	0	0	0
3128	0	0	0
3129	0	0	0
3130	0	0	0
3131	0	0	0
3132	0	0	0
3133	0	0	0
3134	0	0	0
3135	0	0	0
3136	0	0	0
3137	0	0	0
3138	0	0	0
3139	0	0	0
3140	0	0	0
3141	0	0	0
3142	0	0	0
3143	0	0	0
3144	248	182	249
3145	0	0	0
3146	0	0	0
