 	R	G	B
1	0	0	0
2	0	0	0
3	0	0	0
4	0	0	0
5	0	0	0
6	0	0	0
7	0	0	0
8	0	0	0
9	0	0	0
10	0	0	0
11	0	0	0
12	0	0	0
13	0	0	0
14	0	0	0
15	0	0	0
16	0	0	0
17	0	0	0
18	0	0	0
19	0	0	0
20	0	0	0
21	0	0	0
22	0	0	0
23	0	0	0
24	0	0	0
25	0	0	0
26	0	0	0
27	0	0	0
28	0	0	0
29	0	0	0
30	0	0	0
31	0	0	0
32	0	0	0
33	0	0	0
34	0	0	0
35	0	0	0
36	0	0	0
37	0	0	0
38	0	0	0
39	0	0	0
40	0	0	0
41	0	0	0
42	0	0	0
43	0	0	0
44	0	0	0
45	0	0	0
46	0	0	0
47	0	0	0
48	0	0	0
49	0	0	0
50	0	0	0
51	0	0	0
52	0	0	0
53	0	0	0
54	0	0	0
55	255	246	236
56	255	250	235
57	255	245	231
58	255	243	232
59	255	242	236
60	255	237	235
61	255	236	235
62	255	236	236
63	255	234	234
64	0	0	0
65	0	0	0
66	0	0	0
67	0	0	0
68	0	0	0
69	0	0	0
70	0	0	0
71	0	0	0
72	0	0	0
73	0	0	0
74	0	0	0
75	0	0	0
76	0	0	0
77	0	0	0
78	0	0	0
79	0	0	0
80	0	0	0
81	0	0	0
82	0	0	0
83	0	0	0
84	0	0	0
85	0	0	0
86	0	0	0
87	0	0	0
88	0	0	0
89	0	0	0
90	0	0	0
91	0	0	0
92	0	0	0
93	0	0	0
94	0	0	0
95	0	0	0
96	0	0	0
97	0	0	0
98	0	0	0
99	0	0	0
100	0	0	0
101	0	0	0
102	0	0	0
103	0	0	0
104	0	0	0
105	0	0	0
106	0	0	0
107	0	0	0
108	0	0	0
109	0	0	0
110	0	0	0
111	0	0	0
112	0	0	0
113	0	0	0
114	0	0	0
115	0	0	0
116	0	0	0
117	0	0	0
118	254	224	229
119	0	0	0
120	0	0	0
121	0	0	0
122	0	0	0
123	0	0	0
124	0	0	0
125	0	0	0
126	0	0	0
127	0	0	0
128	0	0	0
129	0	0	0
130	0	0	0
131	0	0	0
132	0	0	0
133	0	0	0
134	0	0	0
135	0	0	0
136	0	0	0
137	0	0	0
138	0	0	0
139	0	0	0
140	0	0	0
141	0	0	0
142	0	0	0
143	0	0	0
144	0	0	0
145	0	0	0
146	0	0	0
147	0	0	0
148	0	0	0
149	0	0	0
150	255	228	227
151	255	236	233
152	255	223	222
153	255	221	220
154	254	215	221
155	255	213	223
156	254	212	224
157	253	211	225
158	255	214	228
159	254	209	225
160	251	204	220
161	0	0	0
162	0	0	0
163	0	0	0
164	0	0	0
165	0	0	0
166	0	0	0
167	0	0	0
168	0	0	0
169	0	0	0
170	0	0	0
171	0	0	0
172	0	0	0
173	0	0	0
174	0	0	0
175	0	0	0
176	0	0	0
177	0	0	0
178	0	0	0
179	0	0	0
180	0	0	0
181	0	0	0
182	0	0	0
183	0	0	0
184	0	0	0
185	0	0	0
186	0	0	0
187	0	0	0
188	0	0	0
189	0	0	0
190	0	0	0
191	0	0	0
192	0	0	0
193	0	0	0
194	0	0	0
195	0	0	0
196	0	0	0
197	0	0	0
198	0	0	0
199	0	0	0
200	0	0	0
201	0	0	0
202	0	0	0
203	0	0	0
204	0	0	0
205	0	0	0
206	0	0	0
207	0	0	0
208	0	0	0
209	254	222	234
210	251	217	231
211	252	222	233
212	255	228	235
213	255	222	230
214	252	214	224
215	248	214	224
216	248	216	224
217	251	219	225
218	253	220	225
219	253	217	223
220	251	213	223
221	0	0	0
222	245	207	220
223	252	218	227
224	255	225	230
225	250	223	226
226	249	222	225
227	251	223	224
228	253	225	223
229	253	221	221
230	247	215	218
231	249	222	224
232	251	229	228
233	254	234	230
234	255	241	233
235	255	231	226
236	250	222	220
237	247	216	217
238	244	210	214
239	249	214	218
240	255	221	223
241	253	214	219
242	0	0	0
243	255	210	219
244	252	207	216
245	255	215	220
246	255	223	226
247	255	212	219
248	251	201	214
249	248	194	212
250	246	188	211
251	247	188	213
252	246	187	213
253	247	188	215
254	250	191	220
255	247	187	219
256	244	183	218
257	247	191	223
258	254	201	228
259	251	195	224
260	0	0	0
261	0	0	0
262	0	0	0
263	0	0	0
264	0	0	0
265	0	0	0
266	0	0	0
267	0	0	0
268	0	0	0
269	0	0	0
270	0	0	0
271	0	0	0
272	0	0	0
273	0	0	0
274	0	0	0
275	0	0	0
276	0	0	0
277	0	0	0
278	0	0	0
279	0	0	0
280	0	0	0
281	0	0	0
282	0	0	0
283	0	0	0
284	0	0	0
285	0	0	0
286	0	0	0
287	0	0	0
288	0	0	0
289	0	0	0
290	0	0	0
291	0	0	0
292	0	0	0
293	0	0	0
294	0	0	0
295	0	0	0
296	0	0	0
297	254	216	236
298	253	216	235
299	255	221	238
300	255	223	240
301	255	218	236
302	252	214	233
303	0	0	0
304	255	217	234
305	255	214	233
306	250	206	228
307	253	213	232
308	255	214	230
309	251	206	224
310	248	202	221
311	247	203	221
312	251	210	225
313	255	215	228
314	252	206	222
315	249	202	220
316	250	203	223
317	249	202	223
318	249	201	224
319	255	215	234
320	253	204	225
321	248	202	222
322	245	201	220
323	243	200	216
324	249	209	220
325	248	205	218
326	245	199	217
327	252	209	226
328	246	201	219
329	246	204	219
330	253	215	223
331	247	204	215
332	246	203	215
333	237	194	210
334	239	195	212
335	247	202	218
336	252	206	220
337	249	198	215
338	251	197	217
339	255	201	221
340	248	188	212
341	254	196	217
342	255	197	217
343	248	185	209
344	252	189	215
345	247	182	213
346	250	184	217
347	253	185	219
348	249	179	216
349	249	180	218
350	253	186	223
351	250	182	222
352	251	183	226
353	255	192	231
354	255	194	231
355	251	186	225
356	246	180	222
357	0	0	0
358	0	0	0
359	0	0	0
360	0	0	0
361	0	0	0
362	0	0	0
363	0	0	0
364	0	0	0
365	0	0	0
366	0	0	0
367	0	0	0
368	0	0	0
369	0	0	0
370	0	0	0
371	0	0	0
372	0	0	0
373	0	0	0
374	0	0	0
375	0	0	0
376	0	0	0
377	0	0	0
378	0	0	0
379	0	0	0
380	0	0	0
381	0	0	0
382	0	0	0
383	0	0	0
384	0	0	0
385	0	0	0
386	0	0	0
387	0	0	0
388	0	0	0
389	0	0	0
390	0	0	0
391	0	0	0
392	250	206	231
393	251	207	232
394	251	206	231
395	253	210	234
396	255	212	234
397	251	206	230
398	249	201	228
399	253	205	231
400	254	207	229
401	251	200	225
402	247	194	224
403	249	197	227
404	250	198	226
405	249	195	223
406	245	191	220
407	248	197	223
408	252	203	226
409	250	197	222
410	245	189	218
411	244	189	219
412	243	189	218
413	242	188	217
414	243	188	219
415	244	185	219
416	238	176	214
417	238	179	216
418	236	178	214
419	239	186	218
420	245	194	222
421	239	186	216
422	237	179	215
423	238	178	217
424	233	171	211
425	238	180	215
426	245	190	219
427	244	187	216
428	242	185	215
429	237	182	212
430	238	184	215
431	245	188	219
432	248	190	219
433	247	187	216
434	250	186	216
435	245	176	212
436	239	165	207
437	243	168	212
438	245	169	212
439	246	170	212
440	249	174	214
441	247	173	214
442	250	175	219
443	250	172	219
444	246	166	215
445	249	171	219
446	251	176	222
447	250	175	221
448	249	175	221
449	251	178	224
450	253	181	228
451	248	176	225
452	242	169	219
453	0	0	0
454	0	0	0
455	0	0	0
456	0	0	0
457	249	207	234
458	0	0	0
459	0	0	0
460	0	0	0
461	0	0	0
462	0	0	0
463	0	0	0
464	0	0	0
465	0	0	0
466	0	0	0
467	0	0	0
468	0	0	0
469	0	0	0
470	0	0	0
471	0	0	0
472	0	0	0
473	0	0	0
474	0	0	0
475	0	0	0
476	0	0	0
477	0	0	0
478	0	0	0
479	0	0	0
480	0	0	0
481	0	0	0
482	0	0	0
483	0	0	0
484	0	0	0
485	255	213	236
486	0	0	0
487	251	204	234
488	255	212	239
489	255	213	238
490	253	205	232
491	255	208	234
492	255	206	233
493	251	201	229
494	255	208	235
495	255	212	239
496	248	191	224
497	244	184	220
498	255	200	233
499	255	204	236
500	252	192	227
501	248	188	223
502	250	191	225
503	254	198	230
504	253	197	227
505	247	188	222
506	239	179	219
507	238	180	219
508	237	181	218
509	238	181	218
510	239	182	220
511	236	177	219
512	228	165	214
513	231	169	219
514	231	170	218
515	239	180	224
516	238	179	222
517	228	168	214
518	232	171	220
519	236	171	222
520	238	172	222
521	243	181	227
522	241	178	223
523	241	175	220
524	244	179	220
525	243	178	219
526	249	185	226
527	251	186	226
528	245	177	219
529	244	173	216
530	245	173	216
531	239	162	210
532	241	162	214
533	245	166	219
534	248	168	221
535	249	169	220
536	248	167	217
537	247	165	216
538	251	169	221
539	251	166	221
540	250	164	220
541	252	168	223
542	252	171	223
543	247	169	220
544	249	172	222
545	252	175	226
546	255	179	230
547	249	173	226
548	247	173	226
549	0	0	0
550	0	0	0
551	0	0	0
552	247	194	229
553	244	201	229
554	252	224	238
555	0	0	0
556	0	0	0
557	0	0	0
558	0	0	0
559	0	0	0
560	0	0	0
561	0	0	0
562	0	0	0
563	0	0	0
564	0	0	0
565	0	0	0
566	0	0	0
567	0	0	0
568	0	0	0
569	0	0	0
570	0	0	0
571	0	0	0
572	0	0	0
573	0	0	0
574	0	0	0
575	0	0	0
576	0	0	0
577	0	0	0
578	0	0	0
579	0	0	0
580	255	210	236
581	252	204	233
582	248	198	231
583	255	207	238
584	255	215	243
585	255	207	235
586	251	199	227
587	252	200	228
588	252	199	230
589	255	204	235
590	255	211	240
591	250	191	228
592	237	172	217
593	249	187	229
594	255	201	237
595	252	189	227
596	243	178	218
597	245	182	221
598	248	185	224
599	250	187	225
600	249	186	225
601	240	176	219
602	233	168	217
603	235	172	221
604	234	173	220
605	235	174	220
606	235	174	221
607	227	163	217
608	219	153	214
609	220	155	217
610	220	156	215
611	225	159	218
612	225	158	218
613	222	159	218
614	226	162	221
615	233	166	225
616	235	167	224
617	234	165	223
618	233	163	222
619	237	167	224
620	239	169	223
621	242	173	223
622	247	179	226
623	240	167	218
624	236	159	215
625	237	159	216
626	238	157	215
627	236	155	213
628	238	155	214
629	243	158	218
630	247	161	221
631	246	159	219
632	244	156	215
633	244	156	214
634	247	159	218
635	247	157	218
636	246	155	217
637	249	161	221
638	248	163	221
639	245	164	220
640	247	168	224
641	252	171	227
642	254	174	228
643	251	174	228
644	250	175	229
645	252	181	232
646	0	0	0
647	0	0	0
648	243	189	224
649	249	211	234
650	255	233	242
651	0	0	0
652	0	0	0
653	0	0	0
654	0	0	0
655	0	0	0
656	0	0	0
657	0	0	0
658	0	0	0
659	0	0	0
660	0	0	0
661	0	0	0
662	0	0	0
663	0	0	0
664	0	0	0
665	0	0	0
666	0	0	0
667	0	0	0
668	0	0	0
669	0	0	0
670	0	0	0
671	0	0	0
672	0	0	0
673	0	0	0
674	252	208	237
675	255	217	244
676	254	206	236
677	250	200	232
678	255	205	237
679	255	214	244
680	255	206	238
681	251	198	231
682	254	201	232
683	255	202	233
684	248	190	227
685	252	196	232
686	255	203	238
687	247	183	226
688	249	184	230
689	255	201	243
690	254	191	232
691	241	177	220
692	247	185	225
693	253	192	231
694	249	184	227
695	252	186	230
696	244	175	223
697	234	165	218
698	239	172	226
699	244	178	232
700	234	166	222
701	231	165	222
702	226	159	219
703	222	151	216
704	225	157	225
705	222	158	226
706	219	156	222
707	224	159	225
708	217	148	219
709	215	149	220
710	214	146	218
711	218	150	220
712	218	147	217
713	219	146	216
714	222	148	220
715	224	151	221
716	222	149	215
717	223	151	213
718	228	157	215
719	225	147	210
720	237	159	221
721	241	160	223
722	233	147	214
723	231	145	212
724	240	154	219
725	248	159	223
726	250	159	224
727	248	155	221
728	246	153	217
729	245	153	216
730	248	158	220
731	246	154	218
732	249	158	221
733	253	164	225
734	246	158	220
735	242	158	219
736	249	170	227
737	255	174	230
738	255	173	228
739	252	173	227
740	251	175	230
741	253	180	231
742	254	188	230
743	250	190	227
744	245	194	227
745	251	216	237
746	252	230	239
747	0	0	0
748	0	0	0
749	0	0	0
750	0	0	0
751	0	0	0
752	0	0	0
753	0	0	0
754	0	0	0
755	0	0	0
756	0	0	0
757	0	0	0
758	0	0	0
759	0	0	0
760	0	0	0
761	0	0	0
762	0	0	0
763	0	0	0
764	0	0	0
765	0	0	0
766	0	0	0
767	0	0	0
768	0	0	0
769	255	219	246
770	255	218	245
771	255	209	238
772	248	198	232
773	254	204	237
774	255	210	241
775	255	203	237
776	249	195	232
777	253	198	235
778	255	202	238
779	250	191	230
780	241	177	222
781	247	185	228
782	254	193	236
783	254	192	235
784	255	192	235
785	253	186	232
786	245	177	225
787	247	184	229
788	252	193	233
789	248	185	229
790	245	178	227
791	242	171	226
792	234	160	220
793	235	165	225
794	239	171	230
795	232	161	224
796	222	149	217
797	217	145	215
798	213	141	214
799	222	151	225
800	225	157	230
801	217	154	227
802	215	152	225
803	210	142	219
804	203	131	212
805	201	130	211
806	199	127	209
807	199	126	209
808	200	124	207
809	207	129	211
810	210	130	213
811	208	130	212
812	206	128	207
813	209	132	208
814	216	139	212
815	227	148	218
816	238	158	224
817	234	148	217
818	228	137	211
819	237	148	220
820	246	157	226
821	250	157	226
822	250	155	223
823	247	150	219
824	245	148	217
825	246	152	219
826	249	156	222
827	249	158	222
828	251	161	223
829	246	156	218
830	240	151	214
831	244	160	220
832	252	172	228
833	255	172	228
834	253	171	225
835	251	172	225
836	249	172	227
837	253	182	231
838	253	190	230
839	253	197	231
840	249	201	232
841	250	216	237
842	252	229	240
843	0	0	0
844	0	0	0
845	0	0	0
846	0	0	0
847	0	0	0
848	0	0	0
849	0	0	0
850	0	0	0
851	0	0	0
852	0	0	0
853	0	0	0
854	0	0	0
855	0	0	0
856	0	0	0
857	0	0	0
858	0	0	0
859	0	0	0
860	0	0	0
861	0	0	0
862	0	0	0
863	0	0	0
864	0	0	0
865	0	0	0
866	254	209	239
867	249	200	233
868	253	204	238
869	255	211	243
870	255	207	241
871	254	200	236
872	251	195	233
873	255	199	237
874	255	202	240
875	249	190	231
876	251	191	232
877	255	199	239
878	255	195	238
879	254	193	236
880	254	191	234
881	252	186	232
882	251	184	232
883	255	192	238
884	250	188	233
885	243	179	227
886	239	172	227
887	235	165	226
888	232	160	225
889	235	167	231
890	234	167	230
891	223	155	222
892	217	148	220
893	215	146	221
894	215	146	224
895	223	156	233
896	208	138	221
897	200	134	217
898	199	135	218
899	194	126	212
900	204	136	219
901	206	137	220
902	202	130	216
903	200	127	214
904	205	132	218
905	214	137	223
906	211	131	218
907	209	130	216
908	210	131	214
909	215	136	217
910	220	140	220
911	229	147	224
912	228	141	217
913	223	130	209
914	228	132	213
915	239	144	223
916	231	130	213
917	229	126	209
918	239	140	215
919	238	137	211
920	242	143	216
921	242	145	217
922	244	148	219
923	247	151	220
924	243	149	216
925	234	141	209
926	241	154	217
927	251	166	225
928	251	166	224
929	249	164	221
930	250	168	222
931	248	169	223
932	246	171	225
933	247	179	227
934	250	190	229
935	253	199	232
936	252	204	233
937	254	219	239
938	250	225	237
939	0	0	0
940	0	0	0
941	0	0	0
942	0	0	0
943	0	0	0
944	0	0	0
945	0	0	0
946	0	0	0
947	0	0	0
948	0	0	0
949	0	0	0
950	0	0	0
951	0	0	0
952	0	0	0
953	0	0	0
954	0	0	0
955	0	0	0
956	0	0	0
957	0	0	0
958	0	0	0
959	0	0	0
960	0	0	0
961	0	0	0
962	0	0	0
963	253	205	239
964	255	210	244
965	255	206	242
966	254	202	238
967	252	198	236
968	250	193	232
969	253	196	235
970	255	199	237
971	255	199	236
972	255	200	236
973	255	198	235
974	255	193	233
975	252	190	232
976	253	190	234
977	255	190	235
978	253	187	235
979	248	183	232
980	243	178	228
981	238	170	224
982	234	164	226
983	228	159	225
984	224	154	224
985	225	157	227
986	225	157	225
987	220	151	222
988	215	145	221
989	213	145	224
990	212	145	226
991	204	132	219
992	190	115	208
993	189	116	210
994	188	118	212
995	195	127	218
996	203	137	223
997	200	131	218
998	196	124	213
999	201	130	218
1000	206	133	221
1001	205	128	217
1002	202	121	211
1003	203	122	210
1004	205	124	211
1005	210	128	214
1006	215	131	216
1007	213	124	211
1008	212	119	207
1009	214	118	207
1010	219	120	210
1011	219	113	206
1012	211	99	196
1013	223	115	206
1014	233	129	212
1015	238	133	213
1016	242	139	218
1017	239	139	217
1018	241	142	217
1019	243	143	217
1020	240	141	216
1021	240	148	218
1022	245	159	223
1023	246	159	221
1024	245	158	217
1025	247	162	219
1026	248	166	222
1027	248	170	224
1028	245	172	225
1029	248	183	229
1030	251	194	232
1031	253	201	233
1032	251	205	229
1033	247	211	229
1034	0	0	0
1035	0	0	0
1036	0	0	0
1037	0	0	0
1038	0	0	0
1039	0	0	0
1040	0	0	0
1041	0	0	0
1042	0	0	0
1043	0	0	0
1044	0	0	0
1045	0	0	0
1046	0	0	0
1047	0	0	0
1048	0	0	0
1049	0	0	0
1050	0	0	0
1051	0	0	0
1052	0	0	0
1053	0	0	0
1054	0	0	0
1055	0	0	0
1056	0	0	0
1057	0	0	0
1058	0	0	0
1059	255	215	246
1060	255	209	243
1061	253	204	240
1062	255	206	241
1063	255	202	238
1064	250	194	232
1065	253	197	234
1066	255	201	238
1067	255	202	239
1068	252	192	231
1069	250	188	228
1070	254	193	233
1071	254	191	233
1072	255	194	236
1073	255	193	237
1074	250	184	233
1075	243	179	230
1076	243	180	230
1077	242	174	229
1078	240	172	231
1079	228	164	228
1080	226	164	231
1081	228	167	234
1082	225	159	229
1083	228	158	230
1084	221	148	226
1085	214	145	225
1086	211	143	226
1087	203	131	221
1088	201	127	220
1089	205	132	226
1090	199	126	223
1091	201	133	226
1092	196	129	220
1093	189	120	212
1094	190	119	212
1095	201	128	220
1096	192	114	210
1097	184	104	202
1098	204	130	217
1099	211	135	220
1100	206	123	213
1101	209	126	215
1102	211	126	214
1103	208	119	209
1104	210	120	210
1105	209	118	209
1106	217	123	214
1107	221	118	213
1108	212	99	200
1109	226	117	211
1110	232	123	212
1111	238	128	214
1112	242	135	218
1113	236	133	214
1114	238	136	215
1115	243	138	216
1116	244	142	219
1117	244	149	221
1118	244	154	222
1119	240	152	216
1120	243	157	217
1121	247	162	220
1122	248	167	223
1123	248	170	225
1124	248	175	226
1125	253	187	232
1126	251	192	231
1127	248	196	228
1128	245	202	225
1129	244	209	226
1130	247	222	234
1131	0	0	0
1132	0	0	0
1133	0	0	0
1134	0	0	0
1135	0	0	0
1136	0	0	0
1137	0	0	0
1138	0	0	0
1139	0	0	0
1140	0	0	0
1141	0	0	0
1142	0	0	0
1143	0	0	0
1144	0	0	0
1145	0	0	0
1146	0	0	0
1147	0	0	0
1148	0	0	0
1149	0	0	0
1150	0	0	0
1151	0	0	0
1152	0	0	0
1153	0	0	0
1154	0	0	0
1155	255	212	243
1156	253	206	239
1157	254	206	239
1158	255	208	240
1159	253	200	234
1160	248	192	228
1161	252	196	233
1162	255	200	239
1163	252	193	236
1164	246	183	229
1165	248	186	231
1166	252	191	235
1167	255	193	236
1168	255	195	235
1169	253	188	232
1170	246	181	231
1171	241	179	230
1172	242	180	230
1173	244	179	231
1174	242	176	231
1175	235	174	231
1176	233	174	235
1177	224	164	230
1178	221	157	228
1179	222	151	226
1180	215	141	220
1181	207	136	218
1182	204	134	220
1183	203	132	222
1184	202	129	221
1185	203	129	223
1186	197	123	219
1187	192	120	216
1188	187	116	212
1189	183	112	210
1190	185	112	210
1191	184	104	206
1192	175	90	198
1193	191	115	212
1194	211	140	225
1195	209	129	216
1196	204	118	211
1197	204	117	210
1198	204	115	208
1199	205	115	207
1200	206	115	207
1201	205	115	206
1202	213	119	212
1203	215	109	208
1204	207	92	196
1205	219	105	206
1206	225	112	208
1207	235	121	212
1208	238	127	213
1209	230	124	207
1210	232	127	209
1211	239	132	212
1212	240	136	213
1213	238	140	213
1214	238	146	216
1215	238	151	218
1216	239	156	217
1217	244	162	220
1218	246	166	222
1219	249	172	226
1220	250	177	227
1221	253	186	230
1222	251	191	228
1223	248	197	227
1224	247	204	229
1225	251	218	235
1226	253	230	238
1227	0	0	0
1228	0	0	0
1229	0	0	0
1230	0	0	0
1231	0	0	0
1232	0	0	0
1233	0	0	0
1234	0	0	0
1235	0	0	0
1236	0	0	0
1237	0	0	0
1238	0	0	0
1239	0	0	0
1240	0	0	0
1241	0	0	0
1242	0	0	0
1243	0	0	0
1244	0	0	0
1245	0	0	0
1246	0	0	0
1247	0	0	0
1248	0	0	0
1249	0	0	0
1250	0	0	0
1251	0	0	0
1252	252	204	239
1253	0	0	0
1254	255	214	243
1255	255	205	237
1256	250	196	231
1257	255	201	236
1258	255	204	242
1259	254	196	238
1260	247	188	233
1261	247	190	233
1262	255	203	242
1263	255	206	244
1264	255	192	233
1265	249	185	229
1266	246	182	231
1267	241	180	231
1268	240	179	230
1269	240	178	230
1270	237	171	227
1271	239	174	231
1272	236	172	233
1273	220	158	225
1274	218	157	228
1275	214	148	224
1276	215	150	225
1277	214	149	225
1278	209	142	224
1279	205	138	224
1280	199	129	219
1281	202	130	222
1282	203	131	223
1283	199	129	221
1284	193	122	217
1285	193	121	217
1286	197	125	220
1287	191	114	213
1288	194	116	216
1289	213	142	233
1290	205	127	217
1291	202	116	208
1292	211	123	215
1293	209	121	214
1294	210	120	212
1295	212	121	212
1296	219	129	217
1297	218	128	216
1298	217	120	213
1299	217	110	209
1300	217	103	205
1301	227	115	214
1302	221	106	205
1303	232	115	210
1304	242	132	217
1305	234	128	211
1306	234	130	212
1307	239	134	213
1308	249	152	221
1309	248	156	222
1310	237	147	216
1311	234	151	218
1312	232	151	215
1313	236	157	217
1314	244	167	223
1315	249	174	226
1316	251	178	227
1317	254	187	229
1318	252	191	226
1319	252	198	227
1320	252	205	231
1321	255	220	238
1322	254	225	235
1323	0	0	0
1324	0	0	0
1325	0	0	0
1326	0	0	0
1327	0	0	0
1328	0	0	0
1329	0	0	0
1330	0	0	0
1331	0	0	0
1332	0	0	0
1333	0	0	0
1334	0	0	0
1335	0	0	0
1336	0	0	0
1337	0	0	0
1338	0	0	0
1339	0	0	0
1340	0	0	0
1341	0	0	0
1342	0	0	0
1343	0	0	0
1344	0	0	0
1345	0	0	0
1346	0	0	0
1347	0	0	0
1348	0	0	0
1349	0	0	0
1350	255	219	248
1351	255	209	239
1352	252	201	234
1353	255	203	237
1354	255	205	239
1355	252	197	235
1356	246	190	230
1357	253	201	237
1358	255	213	245
1359	255	201	237
1360	250	187	229
1361	247	184	228
1362	243	180	229
1363	242	180	231
1364	241	180	232
1365	235	173	229
1366	233	167	227
1367	236	169	230
1368	233	166	230
1369	222	160	226
1370	219	159	230
1371	219	159	231
1372	219	159	229
1373	214	151	225
1374	209	144	224
1375	203	137	221
1376	198	128	217
1377	205	135	224
1378	206	137	225
1379	198	129	219
1380	192	122	215
1381	200	129	221
1382	204	132	223
1383	205	134	223
1384	206	135	225
1385	198	122	215
1386	191	108	203
1387	206	118	211
1388	215	125	216
1389	213	124	214
1390	214	124	215
1391	222	131	219
1392	229	139	224
1393	218	124	213
1394	216	116	210
1395	221	113	211
1396	220	106	207
1397	219	104	205
1398	213	94	197
1399	233	118	212
1400	244	134	219
1401	235	130	212
1402	235	132	214
1403	249	151	225
1404	255	166	229
1405	245	155	218
1406	234	145	214
1407	231	148	216
1408	229	148	216
1409	236	159	221
1410	243	169	225
1411	248	174	226
1412	249	177	223
1413	251	184	224
1414	250	189	223
1415	249	195	224
1416	248	201	225
1417	250	210	228
1418	0	0	0
1419	0	0	0
1420	0	0	0
1421	0	0	0
1422	0	0	0
1423	0	0	0
1424	0	0	0
1425	0	0	0
1426	0	0	0
1427	0	0	0
1428	0	0	0
1429	0	0	0
1430	0	0	0
1431	0	0	0
1432	0	0	0
1433	0	0	0
1434	0	0	0
1435	0	0	0
1436	0	0	0
1437	0	0	0
1438	0	0	0
1439	0	0	0
1440	0	0	0
1441	0	0	0
1442	0	0	0
1443	0	0	0
1444	0	0	0
1445	0	0	0
1446	255	216	246
1447	254	206	238
1448	252	202	235
1449	255	204	237
1450	254	202	235
1451	246	194	229
1452	254	204	237
1453	255	218	247
1454	255	203	237
1455	247	188	228
1456	248	188	230
1457	245	186	230
1458	245	184	231
1459	249	187	236
1460	246	183	235
1461	235	173	229
1462	233	171	230
1463	235	172	233
1464	230	166	230
1465	225	162	229
1466	225	164	233
1467	223	163	233
1468	220	161	229
1469	214	152	223
1470	216	155	229
1471	212	148	228
1472	203	134	221
1473	210	141	227
1474	207	138	224
1475	195	128	216
1476	188	118	211
1477	198	127	218
1478	199	126	217
1479	200	127	217
1480	200	127	217
1481	189	113	206
1482	193	112	206
1483	211	125	216
1484	217	127	216
1485	217	125	214
1486	217	123	214
1487	224	130	218
1488	230	137	221
1489	221	122	211
1490	226	125	216
1491	228	121	216
1492	221	109	207
1493	222	107	207
1494	217	99	201
1495	236	122	216
1496	236	125	212
1497	229	121	205
1498	242	142	220
1499	254	160	230
1500	245	151	217
1501	233	139	206
1502	236	148	215
1503	237	152	220
1504	234	153	220
1505	238	162	223
1506	245	173	227
1507	250	178	228
1508	244	172	219
1509	245	178	219
1510	248	189	223
1511	245	195	223
1512	240	195	221
1513	0	0	0
1514	0	0	0
1515	0	0	0
1516	0	0	0
1517	0	0	0
1518	0	0	0
1519	0	0	0
1520	0	0	0
1521	0	0	0
1522	0	0	0
1523	0	0	0
1524	0	0	0
1525	0	0	0
1526	0	0	0
1527	0	0	0
1528	0	0	0
1529	0	0	0
1530	0	0	0
1531	0	0	0
1532	0	0	0
1533	0	0	0
1534	0	0	0
1535	0	0	0
1536	0	0	0
1537	0	0	0
1538	0	0	0
1539	0	0	0
1540	0	0	0
1541	0	0	0
1542	0	0	0
1543	249	205	237
1544	248	201	235
1545	252	202	236
1546	250	201	233
1547	255	210	239
1548	255	220	246
1549	255	206	238
1550	249	193	232
1551	248	191	232
1552	247	191	233
1553	244	188	232
1554	245	187	234
1555	251	188	237
1556	247	183	233
1557	237	176	228
1558	234	174	230
1559	233	171	232
1560	230	166	232
1561	232	169	235
1562	231	170	237
1563	227	167	234
1564	223	164	231
1565	220	161	229
1566	222	164	234
1567	212	149	227
1568	204	136	221
1569	210	139	226
1570	205	136	222
1571	190	122	211
1572	184	114	207
1573	195	121	215
1574	196	120	215
1575	197	121	215
1576	198	122	214
1577	196	119	211
1578	199	118	211
1579	215	128	219
1580	222	130	219
1581	222	127	216
1582	222	125	215
1583	227	130	218
1584	233	136	220
1585	231	132	217
1586	236	135	222
1587	227	121	214
1588	220	108	205
1589	221	106	205
1590	216	98	199
1591	224	110	206
1592	224	113	202
1593	234	131	211
1594	248	152	223
1595	244	146	217
1596	236	138	210
1597	234	142	212
1598	236	150	218
1599	236	153	219
1600	235	154	218
1601	242	166	224
1602	248	177	228
1603	245	173	223
1604	239	168	218
1605	245	181	224
1606	248	192	226
1607	243	193	223
1608	240	195	224
1609	250	216	235
1610	0	0	0
1611	0	0	0
1612	0	0	0
1613	0	0	0
1614	0	0	0
1615	0	0	0
1616	0	0	0
1617	0	0	0
1618	0	0	0
1619	0	0	0
1620	0	0	0
1621	0	0	0
1622	0	0	0
1623	0	0	0
1624	0	0	0
1625	0	0	0
1626	0	0	0
1627	0	0	0
1628	0	0	0
1629	0	0	0
1630	0	0	0
1631	0	0	0
1632	0	0	0
1633	0	0	0
1634	0	0	0
1635	0	0	0
1636	0	0	0
1637	0	0	0
1638	0	0	0
1639	0	0	0
1640	251	212	241
1641	255	215	244
1642	252	205	236
1643	255	215	243
1644	255	209	239
1645	248	194	229
1646	252	199	236
1647	252	198	238
1648	252	199	239
1649	248	196	238
1650	244	187	235
1651	251	189	238
1652	247	183	233
1653	238	177	229
1654	239	179	234
1655	237	175	235
1656	235	171	235
1657	238	174	239
1658	233	169	235
1659	227	164	232
1660	222	161	229
1661	216	157	226
1662	222	167	234
1663	212	152	227
1664	208	143	225
1665	215	148	231
1666	207	138	222
1667	192	125	212
1668	195	128	217
1669	207	136	225
1670	202	125	218
1671	202	126	218
1672	209	134	222
1673	211	133	221
1674	202	115	210
1675	215	122	217
1676	219	122	214
1677	220	119	211
1678	225	123	215
1679	230	128	216
1680	235	134	218
1681	232	129	214
1682	232	129	217
1683	222	114	208
1684	227	118	211
1685	229	118	212
1686	219	104	202
1687	222	113	206
1688	228	125	210
1689	244	147	222
1690	245	148	220
1691	243	142	215
1692	238	140	213
1693	232	142	213
1694	234	151	217
1695	234	154	218
1696	237	159	220
1697	249	174	229
1698	243	167	221
1699	236	162	215
1700	240	171	220
1701	247	185	227
1702	252	195	228
1703	251	199	227
1704	249	201	230
1705	255	222	239
1706	255	228	234
1707	0	0	0
1708	0	0	0
1709	0	0	0
1710	0	0	0
1711	0	0	0
1712	0	0	0
1713	0	0	0
1714	0	0	0
1715	0	0	0
1716	0	0	0
1717	0	0	0
1718	0	0	0
1719	0	0	0
1720	0	0	0
1721	0	0	0
1722	0	0	0
1723	0	0	0
1724	0	0	0
1725	0	0	0
1726	0	0	0
1727	0	0	0
1728	0	0	0
1729	0	0	0
1730	0	0	0
1731	0	0	0
1732	0	0	0
1733	0	0	0
1734	0	0	0
1735	0	0	0
1736	255	224	247
1737	255	218	245
1738	253	208	239
1739	251	203	236
1740	248	197	232
1741	251	200	235
1742	254	204	238
1743	254	204	240
1744	255	206	244
1745	246	195	237
1746	243	186	234
1747	247	186	237
1748	244	181	233
1749	240	180	233
1750	240	182	236
1751	236	176	234
1752	234	172	232
1753	234	169	232
1754	229	163	229
1755	224	160	228
1756	219	157	226
1757	222	165	231
1758	228	174	238
1759	219	161	231
1760	215	152	230
1761	217	150	231
1762	210	141	224
1763	206	141	223
1764	209	143	226
1765	207	136	222
1766	201	125	214
1767	206	131	219
1768	213	139	223
1769	204	122	212
1770	196	104	204
1771	207	110	209
1772	210	109	206
1773	218	115	209
1774	223	119	211
1775	228	125	213
1776	232	131	215
1777	228	125	211
1778	228	124	212
1779	231	126	215
1780	237	131	221
1781	232	123	216
1782	221	109	204
1783	228	124	213
1784	235	138	219
1785	238	140	218
1786	240	141	218
1787	241	142	218
1788	235	139	213
1789	234	148	216
1790	236	156	220
1791	236	160	221
1792	240	165	223
1793	243	164	222
1794	238	158	217
1795	241	168	221
1796	245	178	225
1797	253	191	230
1798	255	201	231
1799	255	204	229
1800	255	206	229
1801	255	214	231
1802	253	220	228
1803	0	0	0
1804	0	0	0
1805	0	0	0
1806	0	0	0
1807	0	0	0
1808	0	0	0
1809	0	0	0
1810	0	0	0
1811	0	0	0
1812	0	0	0
1813	0	0	0
1814	0	0	0
1815	0	0	0
1816	0	0	0
1817	0	0	0
1818	0	0	0
1819	0	0	0
1820	0	0	0
1821	0	0	0
1822	0	0	0
1823	0	0	0
1824	0	0	0
1825	0	0	0
1826	0	0	0
1827	0	0	0
1828	0	0	0
1829	0	0	0
1830	0	0	0
1831	0	0	0
1832	255	223	245
1833	254	215	241
1834	253	210	239
1835	250	205	237
1836	255	210	241
1837	255	214	244
1838	252	204	237
1839	251	204	238
1840	252	204	241
1841	246	194	236
1842	247	194	239
1843	247	191	239
1844	242	184	234
1845	239	184	236
1846	234	179	234
1847	229	173	231
1848	234	178	235
1849	236	176	235
1850	232	170	232
1851	226	166	230
1852	223	164	230
1853	228	173	237
1854	226	169	234
1855	218	156	227
1856	217	151	228
1857	217	147	228
1858	214	142	225
1859	216	146	227
1860	211	139	223
1861	203	128	215
1862	206	133	218
1863	209	139	221
1864	206	132	216
1865	197	116	207
1866	203	117	212
1867	212	122	218
1868	210	113	209
1869	219	120	212
1870	226	126	215
1871	229	131	216
1872	228	129	213
1873	224	124	209
1874	228	126	212
1875	236	131	217
1876	237	129	218
1877	230	119	210
1878	232	124	212
1879	242	142	224
1880	238	139	220
1881	239	141	219
1882	239	143	220
1883	235	141	217
1884	228	135	211
1885	233	147	217
1886	231	148	216
1887	230	151	215
1888	240	164	224
1889	243	163	223
1890	238	157	217
1891	242	167	222
1892	248	177	226
1893	255	191	232
1894	251	184	222
1895	248	186	218
1896	255	203	226
1897	254	211	227
1898	251	216	227
1899	0	0	0
1900	0	0	0
1901	0	0	0
1902	0	0	0
1903	0	0	0
1904	0	0	0
1905	0	0	0
1906	0	0	0
1907	0	0	0
1908	0	0	0
1909	0	0	0
1910	0	0	0
1911	0	0	0
1912	0	0	0
1913	0	0	0
1914	0	0	0
1915	0	0	0
1916	0	0	0
1917	0	0	0
1918	0	0	0
1919	0	0	0
1920	0	0	0
1921	0	0	0
1922	0	0	0
1923	0	0	0
1924	0	0	0
1925	0	0	0
1926	0	0	0
1927	0	0	0
1928	0	0	0
1929	250	214	236
1930	249	209	235
1931	0	0	0
1932	255	221	244
1933	254	212	239
1934	249	204	236
1935	250	204	239
1936	251	203	240
1937	251	202	241
1938	252	201	242
1939	246	194	238
1940	240	187	233
1941	236	183	233
1942	233	179	236
1943	237	184	241
1944	242	188	244
1945	241	183	241
1946	237	177	236
1947	230	172	233
1948	227	169	232
1949	225	166	231
1950	223	162	230
1951	219	155	228
1952	217	150	227
1953	218	147	228
1954	215	142	224
1955	214	139	223
1956	209	133	219
1957	212	139	223
1958	213	143	224
1959	207	135	217
1960	203	129	214
1961	206	128	216
1962	210	129	220
1963	209	123	217
1964	207	115	209
1965	222	126	217
1966	229	133	220
1967	228	131	217
1968	227	129	213
1969	225	127	211
1970	229	129	214
1971	234	130	216
1972	235	128	213
1973	239	135	217
1974	241	140	220
1975	238	139	218
1976	234	136	215
1977	237	141	218
1978	237	144	219
1979	230	139	215
1980	224	134	211
1981	228	140	215
1982	227	142	214
1983	231	152	219
1984	241	166	229
1985	240	161	224
1986	235	153	216
1987	242	164	221
1988	248	175	227
1989	247	173	224
1990	241	168	216
1991	251	186	224
1992	255	202	227
1993	253	207	225
1994	251	213	228
1995	0	0	0
1996	0	0	0
1997	0	0	0
1998	0	0	0
1999	0	0	0
2000	0	0	0
2001	0	0	0
2002	0	0	0
2003	0	0	0
2004	0	0	0
2005	0	0	0
2006	0	0	0
2007	0	0	0
2008	0	0	0
2009	0	0	0
2010	0	0	0
2011	0	0	0
2012	0	0	0
2013	0	0	0
2014	0	0	0
2015	0	0	0
2016	0	0	0
2017	0	0	0
2018	0	0	0
2019	0	0	0
2020	0	0	0
2021	0	0	0
2022	0	0	0
2023	0	0	0
2024	0	0	0
2025	0	0	0
2026	0	0	0
2027	0	0	0
2028	0	0	0
2029	0	0	0
2030	253	214	242
2031	255	216	247
2032	253	205	240
2033	250	201	239
2034	248	199	239
2035	243	192	235
2036	248	198	239
2037	245	194	240
2038	238	183	238
2039	245	189	246
2040	246	190	244
2041	242	183	238
2042	239	178	235
2043	235	175	233
2044	240	182	239
2045	236	178	237
2046	230	169	234
2047	224	161	231
2048	222	156	231
2049	223	154	232
2050	217	145	226
2051	213	140	223
2052	209	136	221
2053	214	144	227
2054	207	134	218
2055	203	127	212
2056	210	134	219
2057	212	133	220
2058	212	131	220
2059	208	124	216
2060	211	122	214
2061	228	135	224
2062	227	129	219
2063	227	128	216
2064	226	127	214
2065	221	124	210
2066	226	129	214
2067	232	130	216
2068	234	130	213
2069	238	137	217
2070	231	131	212
2071	225	129	209
2072	227	135	212
2073	230	140	215
2074	227	137	213
2075	227	135	213
2076	225	134	214
2077	227	139	217
2078	228	144	217
2079	233	154	223
2080	231	152	221
2081	227	146	215
2082	238	160	221
2083	249	174	228
2084	251	176	228
2085	247	173	224
2086	247	176	224
2087	255	196	232
2088	255	202	227
2089	255	207	225
2090	254	214	228
2091	0	0	0
2092	0	0	0
2093	0	0	0
2094	0	0	0
2095	0	0	0
2096	0	0	0
2097	0	0	0
2098	0	0	0
2099	0	0	0
2100	0	0	0
2101	0	0	0
2102	0	0	0
2103	0	0	0
2104	0	0	0
2105	0	0	0
2106	0	0	0
2107	0	0	0
2108	0	0	0
2109	0	0	0
2110	0	0	0
2111	0	0	0
2112	0	0	0
2113	0	0	0
2114	0	0	0
2115	0	0	0
2116	0	0	0
2117	0	0	0
2118	0	0	0
2119	0	0	0
2120	0	0	0
2121	0	0	0
2122	0	0	0
2123	0	0	0
2124	0	0	0
2125	0	0	0
2126	0	0	0
2127	255	214	241
2128	248	201	234
2129	246	198	234
2130	244	196	236
2131	0	0	0
2132	250	206	243
2133	241	193	235
2134	235	181	233
2135	240	185	238
2136	241	184	235
2137	240	182	233
2138	238	179	232
2139	242	184	236
2140	246	191	240
2141	238	180	234
2142	231	171	232
2143	225	164	230
2144	222	158	229
2145	221	153	228
2146	214	143	224
2147	210	140	222
2148	206	136	220
2149	202	130	216
2150	197	121	210
2151	206	130	217
2152	214	138	222
2153	215	136	222
2154	214	133	222
2155	212	131	221
2156	215	129	221
2157	221	128	220
2158	220	121	214
2159	222	123	214
2160	222	124	214
2161	221	125	213
2162	225	129	217
2163	231	133	220
2164	233	134	218
2165	232	132	216
2166	225	127	212
2167	225	133	213
2168	226	138	213
2169	220	132	207
2170	219	130	208
2171	223	131	212
2172	222	130	213
2173	227	139	218
2174	227	143	217
2175	225	142	214
2176	223	140	213
2177	232	154	221
2178	244	169	229
2179	251	174	229
2180	252	176	227
2181	251	180	226
2182	251	183	225
2183	255	193	227
2184	255	200	222
2185	255	207	222
2186	255	214	226
2187	0	0	0
2188	0	0	0
2189	0	0	0
2190	0	0	0
2191	0	0	0
2192	0	0	0
2193	0	0	0
2194	0	0	0
2195	0	0	0
2196	0	0	0
2197	0	0	0
2198	0	0	0
2199	0	0	0
2200	0	0	0
2201	0	0	0
2202	0	0	0
2203	0	0	0
2204	0	0	0
2205	0	0	0
2206	0	0	0
2207	0	0	0
2208	0	0	0
2209	0	0	0
2210	0	0	0
2211	0	0	0
2212	0	0	0
2213	0	0	0
2214	0	0	0
2215	0	0	0
2216	0	0	0
2217	0	0	0
2218	0	0	0
2219	0	0	0
2220	0	0	0
2221	0	0	0
2222	0	0	0
2223	0	0	0
2224	243	202	233
2225	0	0	0
2226	0	0	0
2227	0	0	0
2228	0	0	0
2229	0	0	0
2230	243	198	239
2231	245	199	242
2232	238	189	233
2233	240	187	233
2234	239	184	232
2235	244	190	237
2236	243	189	235
2237	234	176	228
2238	231	174	231
2239	224	166	228
2240	226	168	233
2241	225	162	233
2242	220	155	230
2243	216	151	229
2244	215	151	230
2245	211	145	227
2246	203	131	218
2247	213	141	226
2248	218	144	227
2249	220	143	227
2250	211	128	219
2251	209	126	219
2252	214	130	221
2253	217	128	219
2254	218	126	217
2255	220	128	217
2256	223	131	219
2257	227	135	222
2258	223	129	218
2259	223	130	218
2260	223	128	216
2261	225	129	216
2262	220	123	211
2263	221	130	213
2264	220	132	210
2265	213	125	203
2266	220	135	213
2267	225	137	217
2268	226	137	218
2269	230	145	222
2270	225	138	215
2271	224	138	213
2272	227	143	216
2273	235	157	224
2274	242	166	227
2275	249	170	227
2276	246	167	219
2277	243	170	217
2278	249	181	223
2279	255	193	226
2280	255	197	220
2281	255	204	221
2282	249	203	219
2283	0	0	0
2284	0	0	0
2285	0	0	0
2286	0	0	0
2287	0	0	0
2288	0	0	0
2289	0	0	0
2290	0	0	0
2291	0	0	0
2292	0	0	0
2293	0	0	0
2294	0	0	0
2295	0	0	0
2296	0	0	0
2297	0	0	0
2298	0	0	0
2299	0	0	0
2300	0	0	0
2301	0	0	0
2302	0	0	0
2303	0	0	0
2304	0	0	0
2305	0	0	0
2306	0	0	0
2307	0	0	0
2308	0	0	0
2309	0	0	0
2310	0	0	0
2311	0	0	0
2312	0	0	0
2313	0	0	0
2314	0	0	0
2315	0	0	0
2316	0	0	0
2317	0	0	0
2318	0	0	0
2319	0	0	0
2320	0	0	0
2321	0	0	0
2322	0	0	0
2323	0	0	0
2324	0	0	0
2325	0	0	0
2326	0	0	0
2327	243	202	237
2328	237	192	231
2329	237	190	231
2330	236	186	231
2331	237	185	232
2332	238	185	233
2333	238	183	234
2334	236	180	235
2335	230	176	234
2336	232	177	238
2337	231	172	237
2338	226	164	235
2339	223	163	235
2340	223	163	238
2341	214	150	230
2342	206	137	223
2343	215	144	228
2344	218	146	227
2345	211	133	219
2346	203	120	213
2347	208	125	218
2348	211	128	218
2349	215	129	218
2350	215	128	216
2351	217	130	218
2352	222	133	221
2353	222	130	219
2354	218	124	214
2355	213	121	211
2356	212	120	210
2357	213	118	209
2358	209	113	204
2359	212	120	207
2360	213	123	208
2361	215	130	212
2362	222	139	219
2363	224	139	218
2364	223	138	215
2365	218	132	209
2366	215	127	206
2367	223	137	213
2368	226	142	215
2369	229	149	218
2370	235	158	221
2371	240	160	219
2372	237	156	211
2373	242	168	216
2374	250	181	225
2375	255	189	227
2376	255	194	221
2377	249	193	217
2378	0	0	0
2379	0	0	0
2380	0	0	0
2381	0	0	0
2382	0	0	0
2383	0	0	0
2384	0	0	0
2385	0	0	0
2386	0	0	0
2387	0	0	0
2388	0	0	0
2389	0	0	0
2390	0	0	0
2391	0	0	0
2392	0	0	0
2393	0	0	0
2394	0	0	0
2395	0	0	0
2396	0	0	0
2397	0	0	0
2398	0	0	0
2399	0	0	0
2400	0	0	0
2401	0	0	0
2402	0	0	0
2403	0	0	0
2404	0	0	0
2405	0	0	0
2406	0	0	0
2407	0	0	0
2408	0	0	0
2409	0	0	0
2410	0	0	0
2411	0	0	0
2412	0	0	0
2413	0	0	0
2414	0	0	0
2415	0	0	0
2416	0	0	0
2417	0	0	0
2418	0	0	0
2419	0	0	0
2420	0	0	0
2421	0	0	0
2422	0	0	0
2423	0	0	0
2424	0	0	0
2425	0	0	0
2426	0	0	0
2427	0	0	0
2428	242	196	239
2429	250	198	244
2430	242	185	237
2431	233	179	233
2432	239	188	241
2433	238	182	241
2434	232	172	237
2435	230	171	238
2436	230	171	240
2437	220	157	233
2438	221	157	235
2439	229	163	240
2440	218	147	227
2441	208	133	217
2442	216	141	226
2443	224	149	233
2444	215	135	222
2445	215	134	219
2446	219	137	222
2447	223	141	224
2448	226	142	226
2449	226	139	224
2450	221	132	219
2451	215	129	216
2452	216	132	218
2453	215	129	216
2454	215	128	214
2455	222	137	220
2456	216	129	214
2457	218	136	218
2458	220	140	220
2459	220	138	218
2460	222	142	218
2461	217	137	212
2462	226	147	219
2463	237	158	226
2464	234	152	221
2465	237	160	224
2466	240	166	226
2467	242	166	224
2468	238	160	215
2469	248	175	223
2470	252	182	226
2471	254	189	227
2472	252	191	221
2473	247	191	216
2474	0	0	0
2475	0	0	0
2476	0	0	0
2477	0	0	0
2478	0	0	0
2479	0	0	0
2480	0	0	0
2481	0	0	0
2482	0	0	0
2483	0	0	0
2484	0	0	0
2485	0	0	0
2486	0	0	0
2487	0	0	0
2488	0	0	0
2489	0	0	0
2490	0	0	0
2491	0	0	0
2492	0	0	0
2493	0	0	0
2494	0	0	0
2495	0	0	0
2496	0	0	0
2497	0	0	0
2498	0	0	0
2499	0	0	0
2500	0	0	0
2501	0	0	0
2502	0	0	0
2503	0	0	0
2504	0	0	0
2505	0	0	0
2506	0	0	0
2507	0	0	0
2508	0	0	0
2509	0	0	0
2510	0	0	0
2511	0	0	0
2512	0	0	0
2513	0	0	0
2514	0	0	0
2515	0	0	0
2516	0	0	0
2517	0	0	0
2518	0	0	0
2519	0	0	0
2520	0	0	0
2521	0	0	0
2522	0	0	0
2523	0	0	0
2524	0	0	0
2525	249	199	240
2526	0	0	0
2527	242	191	237
2528	247	199	243
2529	239	187	237
2530	233	177	235
2531	234	177	239
2532	233	176	239
2533	230	173	237
2534	231	173	240
2535	224	160	232
2536	214	145	222
2537	219	151	227
2538	225	158	234
2539	220	148	228
2540	212	135	218
2541	216	140	221
2542	219	143	223
2543	222	144	223
2544	224	145	224
2545	222	140	221
2546	217	133	217
2547	215	135	219
2548	216	137	220
2549	215	136	219
2550	216	136	217
2551	215	132	215
2552	209	125	210
2553	210	130	213
2554	212	134	214
2555	218	141	219
2556	222	146	222
2557	227	155	225
2558	234	163	227
2559	235	161	222
2560	231	155	217
2561	233	160	219
2562	237	167	224
2563	237	165	222
2564	234	160	216
2565	242	170	220
2566	244	176	219
2567	246	181	219
2568	247	186	218
2569	254	200	224
2570	255	210	224
2571	0	0	0
2572	0	0	0
2573	0	0	0
2574	0	0	0
2575	0	0	0
2576	0	0	0
2577	0	0	0
2578	0	0	0
2579	0	0	0
2580	0	0	0
2581	0	0	0
2582	0	0	0
2583	0	0	0
2584	0	0	0
2585	0	0	0
2586	0	0	0
2587	0	0	0
2588	0	0	0
2589	0	0	0
2590	0	0	0
2591	0	0	0
2592	0	0	0
2593	0	0	0
2594	0	0	0
2595	0	0	0
2596	0	0	0
2597	0	0	0
2598	0	0	0
2599	0	0	0
2600	0	0	0
2601	0	0	0
2602	0	0	0
2603	0	0	0
2604	0	0	0
2605	0	0	0
2606	0	0	0
2607	0	0	0
2608	0	0	0
2609	0	0	0
2610	0	0	0
2611	0	0	0
2612	0	0	0
2613	0	0	0
2614	0	0	0
2615	0	0	0
2616	0	0	0
2617	0	0	0
2618	0	0	0
2619	0	0	0
2620	0	0	0
2621	0	0	0
2622	0	0	0
2623	0	0	0
2624	242	193	235
2625	0	0	0
2626	235	188	238
2627	239	189	242
2628	231	178	235
2629	227	174	233
2630	232	179	237
2631	225	166	231
2632	222	158	229
2633	230	167	237
2634	230	165	235
2635	221	153	226
2636	221	153	227
2637	227	159	232
2638	225	154	228
2639	226	155	228
2640	225	152	226
2641	221	146	222
2642	219	144	222
2643	219	147	224
2644	222	151	227
2645	222	151	226
2646	223	151	225
2647	219	146	221
2648	216	143	220
2649	217	148	224
2650	212	142	218
2651	219	150	224
2652	218	147	222
2653	223	156	225
2654	223	155	219
2655	221	151	213
2656	229	161	217
2657	232	168	221
2658	235	170	223
2659	237	170	224
2660	235	167	219
2661	240	176	222
2662	239	176	217
2663	244	184	218
2664	248	189	220
2665	255	207	229
2666	249	196	215
2667	0	0	0
2668	0	0	0
2669	0	0	0
2670	0	0	0
2671	0	0	0
2672	0	0	0
2673	0	0	0
2674	0	0	0
2675	0	0	0
2676	0	0	0
2677	0	0	0
2678	0	0	0
2679	0	0	0
2680	0	0	0
2681	0	0	0
2682	0	0	0
2683	0	0	0
2684	0	0	0
2685	0	0	0
2686	0	0	0
2687	0	0	0
2688	0	0	0
2689	0	0	0
2690	0	0	0
2691	0	0	0
2692	0	0	0
2693	0	0	0
2694	0	0	0
2695	0	0	0
2696	0	0	0
2697	0	0	0
2698	0	0	0
2699	0	0	0
2700	0	0	0
2701	0	0	0
2702	0	0	0
2703	0	0	0
2704	0	0	0
2705	0	0	0
2706	0	0	0
2707	0	0	0
2708	0	0	0
2709	0	0	0
2710	0	0	0
2711	0	0	0
2712	0	0	0
2713	0	0	0
2714	0	0	0
2715	0	0	0
2716	0	0	0
2717	0	0	0
2718	0	0	0
2719	0	0	0
2720	0	0	0
2721	0	0	0
2722	0	0	0
2723	235	190	237
2724	228	179	231
2725	229	181	234
2726	233	185	236
2727	229	176	233
2728	228	170	233
2729	231	171	237
2730	229	169	234
2731	226	167	232
2732	227	167	233
2733	227	165	232
2734	225	160	228
2735	225	159	228
2736	224	156	227
2737	222	154	226
2738	220	152	224
2739	221	156	226
2740	224	160	229
2741	224	160	229
2742	223	160	227
2743	220	156	224
2744	217	153	223
2745	212	148	220
2746	207	142	215
2747	209	143	216
2748	208	140	213
2749	211	144	214
2750	213	146	213
2751	223	159	220
2752	232	170	224
2753	233	171	222
2754	235	172	223
2755	237	173	223
2756	236	171	219
2757	238	176	220
2758	239	178	218
2759	248	188	222
2760	253	194	222
2761	255	194	221
2762	246	187	213
2763	255	211	227
2764	0	0	0
2765	0	0	0
2766	0	0	0
2767	0	0	0
2768	0	0	0
2769	0	0	0
2770	0	0	0
2771	0	0	0
2772	0	0	0
2773	0	0	0
2774	0	0	0
2775	0	0	0
2776	0	0	0
2777	0	0	0
2778	0	0	0
2779	0	0	0
2780	0	0	0
2781	0	0	0
2782	0	0	0
2783	0	0	0
2784	0	0	0
2785	0	0	0
2786	0	0	0
2787	0	0	0
2788	0	0	0
2789	0	0	0
2790	0	0	0
2791	0	0	0
2792	0	0	0
2793	0	0	0
2794	0	0	0
2795	0	0	0
2796	0	0	0
2797	0	0	0
2798	0	0	0
2799	0	0	0
2800	0	0	0
2801	0	0	0
2802	0	0	0
2803	0	0	0
2804	0	0	0
2805	0	0	0
2806	0	0	0
2807	0	0	0
2808	0	0	0
2809	0	0	0
2810	0	0	0
2811	0	0	0
2812	0	0	0
2813	0	0	0
2814	0	0	0
2815	0	0	0
2816	0	0	0
2817	0	0	0
2818	0	0	0
2819	0	0	0
2820	237	198	238
2821	240	201	242
2822	234	191	235
2823	230	182	231
2824	237	189	241
2825	240	189	244
2826	230	177	235
2827	226	174	232
2828	232	183	238
2829	235	182	237
2830	230	172	231
2831	228	170	231
2832	223	163	228
2833	222	162	226
2834	229	172	232
2835	230	176	233
2836	227	172	231
2837	226	171	230
2838	225	172	229
2839	222	168	226
2840	223	171	228
2841	221	167	226
2842	222	168	227
2843	223	169	227
2844	221	165	223
2845	227	170	226
2846	231	174	228
2847	243	188	236
2848	239	179	227
2849	243	182	228
2850	242	179	225
2851	241	178	222
2852	247	185	226
2853	253	193	230
2854	250	186	224
2855	255	197	230
2856	255	188	220
2857	254	188	218
2858	247	181	214
2859	255	207	230
2860	255	207	224
2861	0	0	0
2862	0	0	0
2863	0	0	0
2864	0	0	0
2865	0	0	0
2866	0	0	0
2867	0	0	0
2868	0	0	0
2869	0	0	0
2870	0	0	0
2871	0	0	0
2872	0	0	0
2873	0	0	0
2874	0	0	0
2875	0	0	0
2876	0	0	0
2877	0	0	0
2878	0	0	0
2879	0	0	0
2880	0	0	0
2881	0	0	0
2882	0	0	0
2883	0	0	0
2884	0	0	0
2885	0	0	0
2886	0	0	0
2887	0	0	0
2888	0	0	0
2889	0	0	0
2890	0	0	0
2891	0	0	0
2892	0	0	0
2893	0	0	0
2894	0	0	0
2895	0	0	0
2896	0	0	0
2897	0	0	0
2898	0	0	0
2899	0	0	0
2900	0	0	0
2901	0	0	0
2902	0	0	0
2903	0	0	0
2904	0	0	0
2905	0	0	0
2906	0	0	0
2907	0	0	0
2908	0	0	0
2909	0	0	0
2910	0	0	0
2911	0	0	0
2912	0	0	0
2913	0	0	0
2914	0	0	0
2915	0	0	0
2916	0	0	0
2917	241	207	237
2918	234	196	232
2919	236	199	236
2920	242	204	243
2921	234	192	236
2922	225	180	229
2923	226	186	232
2924	233	194	237
2925	232	186	233
2926	228	178	229
2927	228	176	230
2928	223	169	226
2929	233	182	234
2930	240	193	238
2931	236	188	233
2932	232	184	232
2933	229	184	231
2934	228	184	229
2935	226	184	228
2936	228	186	229
2937	233	189	231
2938	234	191	230
2939	231	187	227
2940	231	184	225
2941	242	194	232
2942	247	198	232
2943	244	192	227
2944	242	185	223
2945	250	189	228
2946	251	187	226
2947	255	196	232
2948	255	205	236
2949	255	200	233
2950	255	193	229
2951	255	189	226
2952	254	181	217
2953	250	178	214
2954	244	172	211
2955	249	180	217
2956	246	182	214
2957	251	193	219
2958	254	202	223
2959	255	208	225
2960	255	218	231
2961	255	214	228
2962	255	210	224
2963	0	0	0
2964	252	207	225
2965	0	0	0
2966	0	0	0
2967	248	199	227
2968	247	196	226
2969	249	200	228
2970	0	0	0
2971	0	0	0
2972	0	0	0
2973	0	0	0
2974	0	0	0
2975	0	0	0
2976	0	0	0
2977	0	0	0
2978	0	0	0
2979	0	0	0
2980	0	0	0
2981	0	0	0
2982	0	0	0
2983	0	0	0
2984	0	0	0
2985	0	0	0
2986	0	0	0
2987	0	0	0
2988	0	0	0
2989	0	0	0
2990	0	0	0
2991	0	0	0
2992	0	0	0
2993	0	0	0
2994	0	0	0
2995	0	0	0
2996	0	0	0
2997	0	0	0
2998	0	0	0
2999	0	0	0
3000	0	0	0
3001	0	0	0
3002	0	0	0
3003	0	0	0
3004	0	0	0
3005	0	0	0
3006	0	0	0
3007	0	0	0
3008	0	0	0
3009	0	0	0
3010	0	0	0
3011	0	0	0
3012	0	0	0
3013	0	0	0
3014	0	0	0
3015	0	0	0
3016	0	0	0
3017	0	0	0
3018	0	0	0
3019	0	0	0
3020	0	0	0
3021	0	0	0
3022	237	200	234
3023	239	199	236
3024	232	186	229
3025	244	200	238
3026	244	201	235
3027	241	196	230
3028	238	194	230
3029	231	192	226
3030	230	196	226
3031	229	195	225
3032	233	199	227
3033	241	204	230
3034	240	200	225
3035	235	196	221
3036	235	191	220
3037	251	204	231
3038	246	193	221
3039	242	187	216
3040	244	185	219
3041	254	191	226
3042	251	181	220
3043	255	193	229
3044	255	189	226
3045	255	183	222
3046	255	179	220
3047	253	175	217
3048	254	178	218
3049	251	176	216
3050	250	176	219
3051	255	186	227
3052	252	182	221
3053	255	193	228
3054	254	191	224
3055	255	198	227
3056	255	201	227
3057	252	195	222
3058	248	192	219
3059	244	188	216
3060	255	210	233
3061	255	205	233
3062	249	191	227
3063	249	191	230
3064	251	194	232
3065	253	197	233
3066	252	198	232
3067	0	0	0
3068	255	206	237
3069	0	0	0
3070	0	0	0
3071	0	0	0
3072	0	0	0
3073	0	0	0
3074	0	0	0
3075	0	0	0
3076	0	0	0
3077	0	0	0
3078	0	0	0
3079	0	0	0
3080	0	0	0
3081	0	0	0
3082	0	0	0
3083	0	0	0
3084	0	0	0
3085	0	0	0
3086	0	0	0
3087	0	0	0
3088	0	0	0
3089	0	0	0
3090	0	0	0
3091	0	0	0
3092	0	0	0
3093	0	0	0
3094	0	0	0
3095	0	0	0
3096	0	0	0
3097	0	0	0
3098	0	0	0
3099	0	0	0
3100	0	0	0
3101	0	0	0
3102	0	0	0
3103	0	0	0
3104	0	0	0
3105	0	0	0
3106	0	0	0
3107	0	0	0
3108	0	0	0
3109	0	0	0
3110	0	0	0
3111	0	0	0
3112	0	0	0
3113	0	0	0
3114	0	0	0
3115	0	0	0
3116	0	0	0
3117	0	0	0
3118	248	223	236
3119	248	215	234
3120	242	203	228
3121	246	208	232
3122	248	210	232
3123	252	212	234
3124	250	211	232
3125	248	215	233
3126	248	219	233
3127	248	220	232
3128	253	224	236
3129	255	225	237
3130	255	223	233
3131	255	216	228
3132	255	213	229
3133	255	210	230
3134	255	200	222
3135	255	197	222
3136	255	195	225
3137	255	191	226
3138	255	182	223
3139	255	182	225
3140	255	178	222
3141	255	175	220
3142	254	171	217
3143	255	175	220
3144	255	178	222
3145	254	176	221
3146	253	177	225
3147	250	174	223
3148	246	170	217
3149	248	173	219
3150	246	172	217
3151	246	174	217
3152	246	177	217
3153	242	173	215
3154	239	171	214
3155	249	188	226
3156	255	208	239
3157	251	190	229
3158	242	176	225
3159	247	182	232
3160	248	185	231
3161	249	187	230
3162	248	187	228
3163	252	195	232
3164	255	204	239
3165	253	198	235
3166	0	0	0
3167	0	0	0
3168	0	0	0
3169	0	0	0
3170	0	0	0
3171	0	0	0
3172	0	0	0
3173	0	0	0
3174	0	0	0
3175	0	0	0
3176	0	0	0
3177	0	0	0
3178	0	0	0
3179	0	0	0
3180	0	0	0
3181	0	0	0
3182	0	0	0
3183	0	0	0
3184	0	0	0
3185	0	0	0
3186	0	0	0
3187	0	0	0
3188	0	0	0
3189	0	0	0
3190	0	0	0
3191	0	0	0
3192	0	0	0
3193	0	0	0
3194	0	0	0
3195	0	0	0
3196	0	0	0
3197	0	0	0
3198	0	0	0
3199	0	0	0
3200	0	0	0
3201	0	0	0
3202	0	0	0
3203	0	0	0
3204	0	0	0
3205	0	0	0
3206	0	0	0
3207	0	0	0
3208	0	0	0
3209	0	0	0
3210	0	0	0
3211	0	0	0
3212	0	0	0
3213	0	0	0
3214	245	223	227
3215	248	217	227
3216	242	205	221
3217	244	209	224
3218	249	214	228
3219	255	219	232
3220	247	203	221
3221	249	209	223
3222	249	211	222
3223	251	212	223
3224	255	217	228
3225	255	218	229
3226	255	207	221
3227	255	204	220
3228	255	199	220
3229	255	194	219
3230	255	185	214
3231	255	184	217
3232	253	176	217
3233	251	169	216
3234	255	175	223
3235	255	175	225
3236	248	156	213
3237	246	153	211
3238	251	162	216
3239	254	166	219
3240	251	164	217
3241	247	162	215
3242	255	183	231
3243	254	180	229
3244	251	176	225
3245	255	180	229
3246	249	172	223
3247	249	174	223
3248	253	181	228
3249	250	179	226
3250	249	179	227
3251	255	195	238
3252	255	202	240
3253	248	183	228
3254	248	182	234
3255	254	188	241
3256	253	188	237
3257	253	189	235
3258	252	190	233
3259	255	197	238
3260	255	198	238
3261	250	192	234
3262	252	197	236
3263	255	204	241
3264	0	0	0
3265	0	0	0
3266	0	0	0
3267	0	0	0
3268	0	0	0
3269	0	0	0
3270	0	0	0
3271	0	0	0
3272	0	0	0
3273	0	0	0
3274	0	0	0
3275	0	0	0
3276	0	0	0
3277	0	0	0
3278	0	0	0
3279	0	0	0
3280	0	0	0
3281	0	0	0
3282	0	0	0
3283	0	0	0
3284	0	0	0
3285	0	0	0
3286	0	0	0
3287	0	0	0
3288	0	0	0
3289	0	0	0
3290	0	0	0
3291	0	0	0
3292	0	0	0
3293	0	0	0
3294	0	0	0
3295	0	0	0
3296	0	0	0
3297	0	0	0
3298	0	0	0
3299	0	0	0
3300	0	0	0
3301	0	0	0
3302	0	0	0
3303	0	0	0
3304	0	0	0
3305	0	0	0
3306	0	0	0
3307	0	0	0
3308	0	0	0
3309	0	0	0
3310	253	235	233
3311	255	228	231
3312	250	216	226
3313	255	224	231
3314	255	229	233
3315	255	219	227
3316	252	205	219
3317	255	210	224
3318	255	212	223
3319	255	217	227
3320	255	222	232
3321	255	212	227
3322	255	203	223
3323	255	199	223
3324	255	193	221
3325	255	185	217
3326	255	176	215
3327	255	170	217
3328	251	163	217
3329	255	167	223
3330	255	171	227
3331	249	153	216
3332	236	134	204
3333	244	145	213
3334	250	154	220
3335	250	155	220
3336	246	153	216
3337	255	172	227
3338	255	191	237
3339	255	181	229
3340	254	178	231
3341	251	172	228
3342	244	162	219
3343	248	170	224
3344	253	178	232
3345	253	179	232
3346	251	179	230
3347	254	185	233
3348	255	192	237
3349	252	185	234
3350	251	184	237
3351	254	186	240
3352	252	186	237
3353	252	187	236
3354	251	187	235
3355	251	188	235
3356	250	189	235
3357	252	194	237
3358	254	198	238
3359	252	198	238
3360	251	199	239
3361	0	0	0
3362	0	0	0
3363	0	0	0
3364	0	0	0
3365	0	0	0
3366	0	0	0
3367	0	0	0
3368	0	0	0
3369	0	0	0
3370	0	0	0
3371	0	0	0
3372	0	0	0
3373	0	0	0
3374	0	0	0
3375	0	0	0
3376	0	0	0
3377	0	0	0
3378	0	0	0
3379	0	0	0
3380	0	0	0
3381	0	0	0
3382	0	0	0
3383	0	0	0
3384	0	0	0
3385	0	0	0
3386	0	0	0
3387	0	0	0
3388	0	0	0
3389	0	0	0
3390	0	0	0
3391	0	0	0
3392	0	0	0
3393	0	0	0
3394	0	0	0
3395	0	0	0
3396	0	0	0
3397	0	0	0
3398	0	0	0
3399	0	0	0
3400	0	0	0
3401	0	0	0
3402	0	0	0
3403	0	0	0
3404	0	0	0
3405	0	0	0
3406	251	231	230
3407	249	222	225
3408	247	211	221
3409	255	223	230
3410	255	210	219
3411	250	198	212
3412	253	198	216
3413	255	205	222
3414	255	199	218
3415	255	203	221
3416	255	198	220
3417	255	189	216
3418	255	185	217
3419	255	181	217
3420	253	172	212
3421	251	164	210
3422	255	166	216
3423	253	160	217
3424	249	152	216
3425	253	156	222
3426	255	162	227
3427	246	144	215
3428	248	146	218
3429	255	157	227
3430	255	156	227
3431	253	155	225
3432	248	151	220
3433	255	170	230
3434	255	174	229
3435	248	164	221
3436	251	171	230
3437	245	163	226
3438	250	172	229
3439	255	180	234
3440	252	176	234
3441	253	178	235
3442	254	181	235
3443	255	186	237
3444	255	187	237
3445	251	181	233
3446	255	187	239
3447	255	188	240
3448	253	186	238
3449	253	187	238
3450	255	193	240
3451	255	193	240
3452	252	191	237
3453	254	196	239
3454	255	200	240
3455	252	199	239
3456	252	202	242
3457	0	0	0
3458	0	0	0
3459	0	0	0
3460	0	0	0
3461	0	0	0
3462	0	0	0
3463	0	0	0
3464	0	0	0
3465	0	0	0
3466	0	0	0
3467	0	0	0
3468	0	0	0
3469	0	0	0
3470	0	0	0
3471	0	0	0
3472	0	0	0
3473	0	0	0
3474	0	0	0
3475	0	0	0
3476	0	0	0
3477	0	0	0
3478	0	0	0
3479	0	0	0
3480	0	0	0
3481	0	0	0
3482	0	0	0
3483	0	0	0
3484	0	0	0
3485	0	0	0
3486	0	0	0
3487	0	0	0
3488	0	0	0
3489	0	0	0
3490	0	0	0
3491	0	0	0
3492	0	0	0
3493	0	0	0
3494	0	0	0
3495	0	0	0
3496	0	0	0
3497	0	0	0
3498	0	0	0
3499	0	0	0
3500	0	0	0
3501	255	235	233
3502	255	237	236
3503	254	224	229
3504	252	214	225
3505	253	206	221
3506	248	193	211
3507	251	194	214
3508	255	195	217
3509	254	192	217
3510	251	186	214
3511	250	181	214
3512	249	177	214
3513	250	172	215
3514	250	168	214
3515	248	161	211
3516	245	152	208
3517	249	154	213
3518	253	156	217
3519	248	147	213
3520	243	137	209
3521	249	145	217
3522	254	151	223
3523	255	152	225
3524	255	153	228
3525	254	152	226
3526	252	149	223
3527	249	148	221
3528	244	143	216
3529	248	152	221
3530	249	157	225
3531	246	158	225
3532	248	163	231
3533	251	170	234
3534	255	179	237
3535	251	174	232
3536	248	170	232
3537	252	176	237
3538	252	178	235
3539	250	178	232
3540	249	178	232
3541	250	181	233
3542	253	186	236
3543	251	184	234
3544	249	182	234
3545	252	188	237
3546	255	193	239
3547	251	191	236
3548	249	189	233
3549	251	194	236
3550	251	197	238
3551	251	200	238
3552	0	0	0
3553	0	0	0
3554	0	0	0
3555	0	0	0
3556	0	0	0
3557	0	0	0
3558	0	0	0
3559	0	0	0
3560	0	0	0
3561	0	0	0
3562	0	0	0
3563	0	0	0
3564	0	0	0
3565	0	0	0
3566	0	0	0
3567	0	0	0
3568	0	0	0
3569	0	0	0
3570	0	0	0
3571	0	0	0
3572	0	0	0
3573	0	0	0
3574	0	0	0
3575	0	0	0
3576	0	0	0
3577	0	0	0
3578	0	0	0
3579	0	0	0
3580	0	0	0
3581	0	0	0
3582	0	0	0
3583	0	0	0
3584	0	0	0
3585	0	0	0
3586	0	0	0
3587	0	0	0
3588	0	0	0
3589	0	0	0
3590	0	0	0
3591	0	0	0
3592	0	0	0
3593	0	0	0
3594	0	0	0
3595	0	0	0
3596	255	228	230
3597	255	229	232
3598	255	219	227
3599	249	207	221
3600	255	211	226
3601	254	201	221
3602	249	191	215
3603	253	192	218
3604	255	194	221
3605	255	191	221
3606	254	184	218
3607	253	180	219
3608	255	177	223
3609	255	173	224
3610	254	166	221
3611	252	158	218
3612	247	148	214
3613	251	150	218
3614	253	151	220
3615	248	141	214
3616	252	146	218
3617	255	153	225
3618	254	148	224
3619	254	147	225
3620	252	147	225
3621	249	144	222
3622	255	155	227
3623	253	154	224
3624	252	154	223
3625	255	163	230
3626	251	158	229
3627	249	160	231
3628	255	171	237
3629	255	178	239
3630	255	181	239
3631	252	176	234
3632	254	179	239
3633	255	185	243
3634	250	176	235
3635	246	175	231
3636	253	187	238
3637	255	191	238
3638	253	190	236
3639	251	187	234
3640	251	188	235
3641	255	194	240
3642	255	199	242
3643	254	196	239
3644	253	198	239
3645	255	203	241
3646	254	204	241
3647	0	0	0
3648	0	0	0
3649	0	0	0
3650	0	0	0
3651	0	0	0
3652	0	0	0
3653	0	0	0
3654	0	0	0
3655	0	0	0
3656	0	0	0
3657	0	0	0
3658	0	0	0
3659	0	0	0
3660	0	0	0
3661	0	0	0
3662	0	0	0
3663	0	0	0
3664	0	0	0
3665	0	0	0
3666	0	0	0
3667	0	0	0
3668	0	0	0
3669	0	0	0
3670	0	0	0
3671	0	0	0
3672	0	0	0
3673	0	0	0
3674	0	0	0
3675	0	0	0
3676	0	0	0
3677	0	0	0
3678	0	0	0
3679	0	0	0
3680	0	0	0
3681	0	0	0
3682	0	0	0
3683	0	0	0
3684	0	0	0
3685	0	0	0
3686	0	0	0
3687	0	0	0
3688	0	0	0
3689	0	0	0
3690	0	0	0
3691	254	229	229
3692	250	216	223
3693	250	210	222
3694	247	201	218
3695	251	204	222
3696	255	207	226
3697	253	197	222
3698	248	187	219
3699	251	188	222
3700	254	189	223
3701	251	181	218
3702	250	175	217
3703	252	173	219
3704	253	170	221
3705	251	163	221
3706	250	156	221
3707	246	147	218
3708	241	136	212
3709	246	139	217
3710	249	142	220
3711	255	148	224
3712	255	151	224
3713	255	148	222
3714	252	142	222
3715	251	142	223
3716	248	140	221
3717	252	148	224
3718	255	159	227
3719	255	158	225
3720	255	159	224
3721	251	156	224
3722	246	152	224
3723	250	163	231
3724	255	174	235
3725	254	175	234
3726	255	179	236
3727	254	180	237
3728	255	183	239
3729	250	177	236
3730	243	170	230
3731	250	183	237
3732	255	195	242
3733	254	193	238
3734	254	193	238
3735	253	193	238
3736	253	193	237
3737	255	199	241
3738	255	204	246
3739	255	206	247
3740	255	207	245
3741	255	209	243
3742	0	0	0
3743	0	0	0
3744	0	0	0
3745	0	0	0
3746	0	0	0
3747	0	0	0
3748	0	0	0
3749	0	0	0
3750	0	0	0
3751	0	0	0
3752	0	0	0
3753	0	0	0
3754	0	0	0
3755	0	0	0
3756	0	0	0
3757	0	0	0
3758	0	0	0
3759	0	0	0
3760	0	0	0
3761	0	0	0
3762	0	0	0
3763	0	0	0
3764	0	0	0
3765	0	0	0
3766	0	0	0
3767	0	0	0
3768	0	0	0
3769	0	0	0
3770	0	0	0
3771	0	0	0
3772	0	0	0
3773	0	0	0
3774	0	0	0
3775	0	0	0
3776	0	0	0
3777	0	0	0
3778	0	0	0
3779	0	0	0
3780	0	0	0
3781	0	0	0
3782	0	0	0
3783	0	0	0
3784	0	0	0
3785	0	0	0
3786	250	237	233
3787	252	228	229
3788	252	218	226
3789	253	213	226
3790	250	203	222
3791	255	206	227
3792	252	199	223
3793	247	188	219
3794	250	189	224
3795	252	191	227
3796	255	191	228
3797	254	184	223
3798	255	181	223
3799	255	178	225
3800	253	167	223
3801	251	160	223
3802	254	159	227
3803	250	149	223
3804	252	150	224
3805	255	153	228
3806	255	150	229
3807	255	156	234
3808	251	140	220
3809	249	136	218
3810	247	134	219
3811	246	133	219
3812	255	149	228
3813	255	157	230
3814	255	162	229
3815	255	162	226
3816	251	156	222
3817	248	154	221
3818	252	163	230
3819	255	173	236
3820	255	182	237
3821	255	183	237
3822	252	178	234
3823	249	178	234
3824	254	188	239
3825	250	182	236
3826	248	181	236
3827	255	196	245
3828	253	192	239
3829	250	189	235
3830	253	195	239
3831	254	195	239
3832	253	196	238
3833	255	201	241
3834	255	202	244
3835	255	205	246
3836	251	199	239
3837	0	0	0
3838	0	0	0
3839	0	0	0
3840	0	0	0
3841	0	0	0
3842	0	0	0
3843	0	0	0
3844	0	0	0
3845	0	0	0
3846	0	0	0
3847	0	0	0
3848	0	0	0
3849	0	0	0
3850	0	0	0
3851	0	0	0
3852	0	0	0
3853	0	0	0
3854	0	0	0
3855	0	0	0
3856	0	0	0
3857	0	0	0
3858	0	0	0
3859	0	0	0
3860	0	0	0
3861	0	0	0
3862	0	0	0
3863	0	0	0
3864	0	0	0
3865	0	0	0
3866	0	0	0
3867	0	0	0
3868	0	0	0
3869	0	0	0
3870	0	0	0
3871	0	0	0
3872	0	0	0
3873	0	0	0
3874	0	0	0
3875	0	0	0
3876	0	0	0
3877	0	0	0
3878	0	0	0
3879	0	0	0
3880	0	0	0
3881	0	0	0
3882	0	0	0
3883	255	234	238
3884	255	223	233
3885	255	214	229
3886	253	204	224
3887	253	199	224
3888	250	192	223
3889	254	194	227
3890	255	194	229
3891	255	194	230
3892	255	195	232
3893	255	187	228
3894	255	183	226
3895	254	172	222
3896	250	161	221
3897	252	160	226
3898	254	159	228
3899	255	159	229
3900	255	158	228
3901	255	156	228
3902	255	153	230
3903	253	142	225
3904	243	126	215
3905	244	127	217
3906	241	124	216
3907	251	142	226
3908	255	157	233
3909	255	161	232
3910	255	166	232
3911	255	161	227
3912	250	156	224
3913	255	165	231
3914	255	173	237
3915	255	180	239
3916	255	188	239
3917	255	182	234
3918	250	177	232
3919	252	185	237
3920	255	194	241
3921	252	191	237
3922	250	189	236
3923	250	189	237
3924	248	187	236
3925	249	191	238
3926	251	195	240
3927	252	196	239
3928	252	197	239
3929	252	198	239
3930	251	198	241
3931	247	195	238
3932	0	0	0
3933	0	0	0
3934	0	0	0
3935	0	0	0
3936	0	0	0
3937	0	0	0
3938	0	0	0
3939	0	0	0
3940	0	0	0
3941	0	0	0
3942	0	0	0
3943	0	0	0
3944	0	0	0
3945	0	0	0
3946	0	0	0
3947	0	0	0
3948	0	0	0
3949	0	0	0
3950	0	0	0
3951	0	0	0
3952	0	0	0
3953	0	0	0
3954	0	0	0
3955	0	0	0
3956	0	0	0
3957	0	0	0
3958	0	0	0
3959	0	0	0
3960	0	0	0
3961	0	0	0
3962	0	0	0
3963	0	0	0
3964	0	0	0
3965	0	0	0
3966	0	0	0
3967	0	0	0
3968	0	0	0
3969	0	0	0
3970	0	0	0
3971	0	0	0
3972	0	0	0
3973	0	0	0
3974	0	0	0
3975	0	0	0
3976	0	0	0
3977	0	0	0
3978	0	0	0
3979	0	0	0
3980	0	0	0
3981	246	196	220
3982	254	203	227
3983	255	198	227
3984	253	190	226
3985	255	192	230
3986	253	186	227
3987	253	184	227
3988	255	190	232
3989	254	181	226
3990	255	182	228
3991	254	171	224
3992	250	161	223
3993	252	159	226
3994	255	162	230
3995	255	162	231
3996	255	154	225
3997	255	152	226
3998	255	147	227
3999	249	136	223
4000	246	129	221
4001	247	130	223
4002	251	139	227
4003	255	156	236
4004	255	156	232
4005	255	159	231
4006	253	156	227
4007	248	151	222
4008	251	158	227
4009	254	167	232
4010	255	172	234
4011	255	179	235
4012	255	189	238
4013	254	183	232
4014	251	182	234
4015	253	190	239
4016	255	197	241
4017	252	194	237
4018	252	195	238
4019	252	195	239
4020	250	194	240
4021	251	197	242
4022	252	200	241
4023	0	0	0
4024	0	0	0
4025	0	0	0
4026	0	0	0
4027	0	0	0
4028	0	0	0
4029	0	0	0
4030	0	0	0
4031	0	0	0
4032	0	0	0
4033	0	0	0
4034	0	0	0
4035	0	0	0
4036	0	0	0
4037	0	0	0
4038	0	0	0
4039	0	0	0
4040	0	0	0
4041	0	0	0
4042	0	0	0
4043	0	0	0
4044	0	0	0
4045	0	0	0
4046	0	0	0
4047	0	0	0
4048	0	0	0
4049	0	0	0
4050	0	0	0
4051	0	0	0
4052	0	0	0
4053	0	0	0
4054	0	0	0
4055	0	0	0
4056	0	0	0
4057	0	0	0
4058	0	0	0
4059	0	0	0
4060	0	0	0
4061	0	0	0
4062	0	0	0
4063	0	0	0
4064	0	0	0
4065	0	0	0
4066	0	0	0
4067	0	0	0
4068	0	0	0
4069	0	0	0
4070	0	0	0
4071	0	0	0
4072	0	0	0
4073	0	0	0
4074	0	0	0
4075	0	0	0
4076	245	192	220
4077	251	198	228
4078	255	205	235
4079	255	196	231
4080	253	186	228
4081	250	182	227
4082	246	175	223
4083	248	177	224
4084	253	182	228
4085	252	179	227
4086	255	181	231
4087	254	171	227
4088	249	159	223
4089	254	162	228
4090	255	164	232
4091	254	157	228
4092	251	150	224
4093	250	144	223
4094	249	139	225
4095	249	136	226
4096	245	129	221
4097	253	142	230
4098	255	150	233
4099	255	151	232
4100	253	151	230
4101	248	147	225
4102	244	145	222
4103	247	152	226
4104	248	158	227
4105	249	164	228
4106	249	169	229
4107	251	177	231
4108	255	188	234
4109	253	185	231
4110	250	185	233
4111	254	194	239
4112	255	201	243
4113	254	199	240
4114	254	200	241
4115	253	199	241
4116	250	197	240
4117	249	200	240
4118	0	0	0
4119	0	0	0
4120	0	0	0
4121	0	0	0
4122	0	0	0
4123	0	0	0
4124	0	0	0
4125	0	0	0
4126	0	0	0
4127	0	0	0
4128	0	0	0
4129	0	0	0
4130	0	0	0
4131	0	0	0
4132	0	0	0
4133	0	0	0
4134	0	0	0
4135	0	0	0
4136	0	0	0
4137	0	0	0
4138	0	0	0
4139	0	0	0
4140	0	0	0
4141	0	0	0
4142	0	0	0
4143	0	0	0
4144	0	0	0
4145	0	0	0
4146	0	0	0
4147	0	0	0
4148	0	0	0
4149	0	0	0
4150	0	0	0
4151	0	0	0
4152	0	0	0
4153	0	0	0
4154	0	0	0
4155	0	0	0
4156	0	0	0
4157	0	0	0
4158	0	0	0
4159	0	0	0
4160	0	0	0
4161	0	0	0
4162	0	0	0
4163	0	0	0
4164	0	0	0
4165	0	0	0
4166	0	0	0
4167	0	0	0
4168	0	0	0
4169	0	0	0
4170	0	0	0
4171	0	0	0
4172	0	0	0
4173	255	201	236
4174	255	197	236
4175	253	187	231
4176	251	183	230
4177	245	176	226
4178	241	173	224
4179	242	175	225
4180	255	192	236
4181	255	189	235
4182	255	179	233
4183	253	169	229
4184	250	161	226
4185	254	163	229
4186	255	165	232
4187	254	157	228
4188	255	156	230
4189	254	150	231
4190	251	142	230
4191	249	138	229
4192	248	137	227
4193	255	149	234
4194	251	146	230
4195	250	147	229
4196	255	158	235
4197	251	154	231
4198	251	159	233
4199	254	166	236
4200	253	169	234
4201	253	175	234
4202	255	183	235
4203	255	191	237
4204	255	196	238
4205	255	195	236
4206	252	190	235
4207	255	199	241
4208	253	199	238
4209	249	196	235
4210	255	210	244
4211	255	209	243
4212	249	201	238
4213	0	0	0
4214	0	0	0
4215	0	0	0
4216	0	0	0
4217	0	0	0
4218	0	0	0
4219	0	0	0
4220	0	0	0
4221	0	0	0
4222	0	0	0
4223	0	0	0
4224	0	0	0
4225	0	0	0
4226	0	0	0
4227	0	0	0
4228	0	0	0
4229	0	0	0
4230	0	0	0
4231	0	0	0
4232	0	0	0
4233	0	0	0
4234	0	0	0
4235	0	0	0
4236	0	0	0
4237	0	0	0
4238	0	0	0
4239	0	0	0
4240	0	0	0
4241	0	0	0
4242	0	0	0
4243	0	0	0
4244	0	0	0
4245	0	0	0
4246	0	0	0
4247	0	0	0
4248	0	0	0
4249	0	0	0
4250	0	0	0
4251	0	0	0
4252	0	0	0
4253	0	0	0
4254	0	0	0
4255	0	0	0
4256	0	0	0
4257	0	0	0
4258	0	0	0
4259	0	0	0
4260	0	0	0
4261	0	0	0
4262	0	0	0
4263	0	0	0
4264	0	0	0
4265	252	205	227
4266	0	0	0
4267	0	0	0
4268	255	195	233
4269	255	194	236
4270	255	189	235
4271	249	182	231
4272	245	177	228
4273	242	174	227
4274	239	171	227
4275	250	186	237
4276	255	202	244
4277	254	187	234
4278	252	177	232
4279	251	169	231
4280	249	161	228
4281	252	163	230
4282	254	163	229
4283	254	159	229
4284	255	159	235
4285	252	150	233
4286	247	141	229
4287	248	142	231
4288	247	140	229
4289	246	140	228
4290	242	138	225
4291	248	149	231
4292	253	160	236
4293	253	164	236
4294	253	168	236
4295	253	172	236
4296	253	177	236
4297	255	185	239
4298	255	193	239
4299	255	198	240
4300	255	205	243
4301	255	199	240
4302	252	194	237
4303	252	196	238
4304	0	0	0
4305	254	207	237
4306	255	221	244
4307	255	213	239
4308	250	206	235
4309	0	0	0
4310	0	0	0
4311	0	0	0
4312	0	0	0
4313	0	0	0
4314	0	0	0
4315	0	0	0
4316	0	0	0
4317	0	0	0
4318	0	0	0
4319	0	0	0
4320	0	0	0
4321	0	0	0
4322	0	0	0
4323	0	0	0
4324	0	0	0
4325	0	0	0
4326	0	0	0
4327	0	0	0
4328	0	0	0
4329	0	0	0
4330	0	0	0
4331	0	0	0
4332	0	0	0
4333	0	0	0
4334	0	0	0
4335	0	0	0
4336	0	0	0
4337	0	0	0
4338	0	0	0
4339	0	0	0
4340	0	0	0
4341	0	0	0
4342	0	0	0
4343	0	0	0
4344	0	0	0
4345	0	0	0
4346	0	0	0
4347	0	0	0
4348	0	0	0
4349	0	0	0
4350	0	0	0
4351	0	0	0
4352	0	0	0
4353	0	0	0
4354	0	0	0
4355	0	0	0
4356	0	0	0
4357	0	0	0
4358	0	0	0
4359	0	0	0
4360	255	211	234
4361	255	206	233
4362	251	194	226
4363	253	191	229
4364	253	187	233
4365	253	184	235
4366	249	181	234
4367	239	171	227
4368	246	183	235
4369	247	183	236
4370	248	181	237
4371	255	197	247
4372	254	189	238
4373	243	171	226
4374	248	174	232
4375	246	165	230
4376	252	169	234
4377	255	171	236
4378	252	162	229
4379	250	157	229
4380	255	160	237
4381	250	151	234
4382	250	150	234
4383	251	151	236
4384	254	156	238
4385	252	156	237
4386	251	158	236
4387	255	170	242
4388	255	170	240
4389	255	173	239
4390	251	172	234
4391	250	176	234
4392	255	192	242
4393	255	201	245
4394	255	196	238
4395	255	202	240
4396	255	203	241
4397	0	0	0
4398	0	0	0
4399	0	0	0
4400	0	0	0
4401	0	0	0
4402	255	216	238
4403	250	208	232
4404	252	211	237
4405	255	223	246
4406	0	0	0
4407	0	0	0
4408	0	0	0
4409	0	0	0
4410	0	0	0
4411	0	0	0
4412	0	0	0
4413	0	0	0
4414	0	0	0
4415	0	0	0
4416	0	0	0
4417	0	0	0
4418	0	0	0
4419	0	0	0
4420	0	0	0
4421	0	0	0
4422	0	0	0
4423	0	0	0
4424	0	0	0
4425	0	0	0
4426	0	0	0
4427	0	0	0
4428	0	0	0
4429	0	0	0
4430	0	0	0
4431	0	0	0
4432	0	0	0
4433	0	0	0
4434	0	0	0
4435	0	0	0
4436	0	0	0
4437	0	0	0
4438	0	0	0
4439	0	0	0
4440	0	0	0
4441	0	0	0
4442	0	0	0
4443	0	0	0
4444	0	0	0
4445	0	0	0
4446	0	0	0
4447	0	0	0
4448	0	0	0
4449	0	0	0
4450	0	0	0
4451	0	0	0
4452	0	0	0
4453	0	0	0
4454	0	0	0
4455	0	0	0
4456	255	211	239
4457	255	198	232
4458	249	186	226
4459	248	181	227
4460	247	176	230
4461	248	176	234
4462	244	173	233
4463	248	183	240
4464	255	194	248
4465	254	191	246
4466	253	188	243
4467	248	181	237
4468	243	173	233
4469	240	169	231
4470	244	170	234
4471	249	173	237
4472	254	176	239
4473	250	166	233
4474	246	157	230
4475	248	158	232
4476	250	159	236
4477	250	158	236
4478	249	156	236
4479	254	164	240
4480	255	169	242
4481	255	171	241
4482	255	172	239
4483	253	173	237
4484	251	173	237
4485	249	174	235
4486	0	0	0
4487	251	188	236
4488	255	203	242
4489	255	200	238
4490	250	197	233
4491	250	198	233
4492	0	0	0
4493	0	0	0
4494	0	0	0
4495	0	0	0
4496	0	0	0
4497	0	0	0
4498	0	0	0
4499	250	212	237
4500	252	216	240
4501	0	0	0
4502	0	0	0
4503	0	0	0
4504	0	0	0
4505	0	0	0
4506	0	0	0
4507	0	0	0
4508	0	0	0
4509	0	0	0
4510	0	0	0
4511	0	0	0
4512	0	0	0
4513	0	0	0
4514	0	0	0
4515	0	0	0
4516	0	0	0
4517	0	0	0
4518	0	0	0
4519	0	0	0
4520	0	0	0
4521	0	0	0
4522	0	0	0
4523	0	0	0
4524	0	0	0
4525	0	0	0
4526	0	0	0
4527	0	0	0
4528	0	0	0
4529	0	0	0
4530	0	0	0
4531	0	0	0
4532	0	0	0
4533	0	0	0
4534	0	0	0
4535	0	0	0
4536	0	0	0
4537	0	0	0
4538	0	0	0
4539	0	0	0
4540	0	0	0
4541	0	0	0
4542	0	0	0
4543	0	0	0
4544	0	0	0
4545	0	0	0
4546	0	0	0
4547	0	0	0
4548	0	0	0
4549	0	0	0
4550	0	0	0
4551	0	0	0
4552	255	200	237
4553	250	187	229
4554	249	182	229
4555	248	178	230
4556	253	184	239
4557	250	182	240
4558	248	178	239
4559	255	191	250
4560	254	185	246
4561	246	178	239
4562	247	182	240
4563	240	173	234
4564	242	175	237
4565	239	172	236
4566	248	182	244
4567	255	185	246
4568	253	177	239
4569	248	166	233
4570	254	174	241
4571	255	173	242
4572	254	171	242
4573	252	169	240
4574	253	170	240
4575	255	176	244
4576	253	172	239
4577	253	174	238
4578	254	180	238
4579	0	0	0
4580	0	0	0
4581	0	0	0
4582	0	0	0
4583	0	0	0
4584	0	0	0
4585	0	0	0
4586	0	0	0
4587	0	0	0
4588	0	0	0
4589	0	0	0
4590	0	0	0
4591	0	0	0
4592	0	0	0
4593	0	0	0
4594	0	0	0
4595	0	0	0
4596	0	0	0
4597	0	0	0
4598	0	0	0
4599	0	0	0
4600	0	0	0
4601	0	0	0
4602	0	0	0
4603	0	0	0
4604	0	0	0
4605	0	0	0
4606	0	0	0
4607	0	0	0
4608	0	0	0
4609	0	0	0
4610	0	0	0
4611	0	0	0
4612	0	0	0
4613	0	0	0
4614	0	0	0
4615	0	0	0
4616	0	0	0
4617	0	0	0
4618	0	0	0
4619	0	0	0
4620	0	0	0
4621	0	0	0
4622	0	0	0
4623	0	0	0
4624	0	0	0
4625	0	0	0
4626	0	0	0
4627	0	0	0
4628	0	0	0
4629	0	0	0
4630	0	0	0
4631	0	0	0
4632	0	0	0
4633	0	0	0
4634	0	0	0
4635	0	0	0
4636	0	0	0
4637	0	0	0
4638	0	0	0
4639	0	0	0
4640	0	0	0
4641	0	0	0
4642	0	0	0
4643	0	0	0
4644	0	0	0
4645	0	0	0
4646	0	0	0
4647	0	0	0
4648	0	0	0
4649	247	182	232
4650	246	176	231
4651	253	184	238
4652	255	188	243
4653	247	180	239
4654	244	176	238
4655	247	175	240
4656	242	169	235
4657	241	171	235
4658	242	175	238
4659	242	176	239
4660	242	177	241
4661	245	184	246
4662	253	193	252
4663	250	183	244
4664	247	175	238
4665	251	179	240
4666	255	184	244
4667	253	180	241
4668	252	178	241
4669	253	179	242
4670	252	179	239
4671	247	175	236
4672	244	172	234
4673	248	180	237
4674	0	0	0
4675	0	0	0
4676	0	0	0
4677	0	0	0
4678	0	0	0
4679	0	0	0
4680	0	0	0
4681	0	0	0
4682	0	0	0
4683	0	0	0
4684	0	0	0
4685	0	0	0
4686	0	0	0
4687	0	0	0
4688	0	0	0
4689	0	0	0
4690	0	0	0
4691	0	0	0
4692	0	0	0
4693	0	0	0
4694	0	0	0
4695	0	0	0
4696	0	0	0
4697	0	0	0
4698	0	0	0
4699	0	0	0
4700	0	0	0
4701	0	0	0
4702	0	0	0
4703	0	0	0
4704	0	0	0
4705	0	0	0
4706	0	0	0
4707	0	0	0
4708	0	0	0
4709	0	0	0
4710	0	0	0
4711	0	0	0
4712	0	0	0
4713	0	0	0
4714	0	0	0
4715	0	0	0
4716	0	0	0
4717	0	0	0
4718	0	0	0
4719	0	0	0
4720	0	0	0
4721	0	0	0
4722	0	0	0
4723	0	0	0
4724	0	0	0
4725	0	0	0
4726	0	0	0
4727	0	0	0
4728	0	0	0
4729	0	0	0
4730	0	0	0
4731	0	0	0
4732	0	0	0
4733	0	0	0
4734	0	0	0
4735	0	0	0
4736	0	0	0
4737	0	0	0
4738	0	0	0
4739	0	0	0
4740	0	0	0
4741	0	0	0
4742	0	0	0
4743	0	0	0
4744	255	195	243
4745	254	190	241
4746	249	180	236
4747	255	187	242
4748	252	185	242
4749	242	177	236
4750	243	180	241
4751	243	178	241
4752	241	174	238
4753	246	179	243
4754	250	186	247
4755	250	186	248
4756	243	179	243
4757	245	184	246
4758	245	187	246
4759	238	174	236
4760	248	187	243
4761	252	191	245
4762	252	190	242
4763	0	0	0
4764	0	0	0
4765	0	0	0
4766	0	0	0
4767	0	0	0
4768	0	0	0
4769	0	0	0
4770	0	0	0
4771	0	0	0
4772	0	0	0
4773	0	0	0
4774	0	0	0
4775	0	0	0
4776	0	0	0
4777	0	0	0
4778	0	0	0
4779	0	0	0
4780	0	0	0
4781	0	0	0
4782	0	0	0
4783	0	0	0
4784	0	0	0
4785	0	0	0
4786	0	0	0
4787	0	0	0
4788	0	0	0
4789	0	0	0
4790	0	0	0
4791	0	0	0
4792	0	0	0
4793	0	0	0
4794	0	0	0
4795	0	0	0
4796	0	0	0
4797	0	0	0
4798	0	0	0
4799	0	0	0
4800	0	0	0
4801	0	0	0
4802	0	0	0
4803	0	0	0
4804	0	0	0
4805	0	0	0
4806	0	0	0
4807	0	0	0
4808	0	0	0
4809	0	0	0
4810	0	0	0
4811	0	0	0
4812	0	0	0
4813	0	0	0
4814	0	0	0
4815	0	0	0
4816	0	0	0
4817	0	0	0
4818	0	0	0
4819	0	0	0
4820	0	0	0
4821	0	0	0
4822	0	0	0
4823	0	0	0
4824	0	0	0
4825	0	0	0
4826	0	0	0
4827	0	0	0
4828	0	0	0
4829	0	0	0
4830	0	0	0
4831	0	0	0
4832	0	0	0
4833	0	0	0
4834	0	0	0
4835	0	0	0
4836	0	0	0
4837	0	0	0
4838	0	0	0
4839	0	0	0
4840	0	0	0
4841	250	187	238
4842	245	178	233
4843	248	180	237
4844	245	178	236
4845	241	179	236
4846	243	183	242
4847	241	180	242
4848	0	0	0
4849	246	183	245
4850	250	188	248
4851	244	181	242
4852	238	175	238
4853	237	177	239
4854	236	178	237
4855	240	187	240
4856	249	199	248
4857	251	198	246
4858	0	0	0
4859	0	0	0
4860	0	0	0
4861	0	0	0
4862	0	0	0
4863	0	0	0
4864	0	0	0
4865	0	0	0
4866	0	0	0
4867	0	0	0
4868	0	0	0
4869	0	0	0
4870	0	0	0
4871	0	0	0
4872	0	0	0
4873	0	0	0
4874	0	0	0
4875	0	0	0
4876	0	0	0
4877	0	0	0
4878	0	0	0
4879	0	0	0
4880	0	0	0
4881	0	0	0
4882	0	0	0
4883	0	0	0
4884	0	0	0
4885	0	0	0
4886	0	0	0
4887	0	0	0
4888	0	0	0
4889	0	0	0
4890	0	0	0
4891	0	0	0
4892	0	0	0
4893	0	0	0
4894	0	0	0
4895	0	0	0
4896	0	0	0
4897	0	0	0
4898	0	0	0
4899	0	0	0
4900	0	0	0
4901	0	0	0
4902	0	0	0
4903	0	0	0
4904	0	0	0
4905	0	0	0
4906	0	0	0
4907	0	0	0
4908	0	0	0
4909	0	0	0
4910	0	0	0
4911	0	0	0
4912	0	0	0
4913	0	0	0
4914	0	0	0
4915	0	0	0
4916	0	0	0
4917	0	0	0
4918	0	0	0
4919	0	0	0
4920	0	0	0
4921	0	0	0
4922	0	0	0
4923	0	0	0
4924	0	0	0
4925	0	0	0
4926	0	0	0
4927	0	0	0
4928	0	0	0
4929	0	0	0
4930	0	0	0
4931	0	0	0
4932	0	0	0
4933	0	0	0
4934	0	0	0
4935	0	0	0
4936	0	0	0
4937	0	0	0
4938	0	0	0
4939	255	198	247
4940	0	0	0
4941	0	0	0
4942	0	0	0
4943	0	0	0
4944	0	0	0
4945	0	0	0
4946	0	0	0
4947	0	0	0
4948	0	0	0
4949	0	0	0
4950	242	194	242
4951	0	0	0
4952	0	0	0
4953	0	0	0
4954	0	0	0
4955	0	0	0
4956	0	0	0
4957	0	0	0
4958	0	0	0
4959	0	0	0
4960	0	0	0
4961	0	0	0
4962	0	0	0
4963	0	0	0
4964	0	0	0
4965	0	0	0
4966	0	0	0
4967	0	0	0
4968	0	0	0
4969	0	0	0
4970	0	0	0
4971	0	0	0
4972	0	0	0
4973	0	0	0
4974	0	0	0
4975	0	0	0
4976	0	0	0
4977	0	0	0
4978	0	0	0
4979	0	0	0
4980	0	0	0
4981	0	0	0
4982	0	0	0
4983	0	0	0
4984	0	0	0
4985	0	0	0
4986	0	0	0
4987	0	0	0
4988	0	0	0
4989	0	0	0
4990	0	0	0
4991	0	0	0
4992	0	0	0
