 	R	G	B
1	0	0	0
2	0	0	0
3	0	0	0
4	253	244	250
5	255	249	252
6	253	247	250
7	252	246	249
8	253	248	249
9	253	249	248
10	253	249	248
11	0	0	0
12	0	0	0
13	0	0	0
14	0	0	0
15	0	0	0
16	0	0	0
17	0	0	0
18	0	0	0
19	0	0	0
20	0	0	0
21	0	0	0
22	0	0	0
23	0	0	0
24	251	241	248
25	254	247	252
26	254	249	251
27	252	247	249
28	255	252	252
29	255	254	252
30	253	249	248
31	252	249	248
32	253	251	249
33	0	0	0
34	0	0	0
35	0	0	0
36	0	0	0
37	251	248	248
38	252	249	250
39	255	255	253
40	255	254	252
41	0	0	0
42	0	0	0
43	0	0	0
44	0	0	0
45	252	244	249
46	254	247	251
47	253	248	250
48	255	253	252
49	255	255	252
50	255	252	250
51	252	248	247
52	254	251	249
53	254	253	250
54	255	255	251
55	0	0	0
56	0	0	0
57	254	252	251
58	254	254	252
59	255	255	253
60	255	255	254
61	255	255	253
62	255	254	252
63	0	0	0
64	0	0	0
65	0	0	0
66	255	247	251
67	255	250	251
68	252	247	249
69	255	252	251
70	255	255	252
71	253	250	248
72	255	252	250
73	255	255	252
74	252	248	247
75	251	249	247
76	255	255	251
77	254	253	250
78	252	250	249
79	254	252	251
80	255	254	253
81	255	255	253
82	254	251	250
83	253	250	249
84	255	254	252
85	0	0	0
86	0	0	0
87	255	251	251
88	253	248	248
89	251	246	247
90	254	251	251
91	255	255	253
92	255	254	252
93	255	255	252
94	253	250	248
95	248	243	245
96	251	249	249
97	255	254	251
98	252	250	248
99	251	248	247
100	254	251	251
101	255	253	253
102	253	250	251
103	251	247	248
104	253	250	250
105	0	0	0
106	0	0	0
107	0	0	0
108	255	253	252
109	255	251	250
110	251	246	247
111	255	251	251
112	255	254	253
113	255	253	252
114	254	253	250
115	250	247	247
116	252	249	250
117	255	255	255
118	255	253	252
119	252	249	248
120	254	251	250
121	255	255	253
122	253	250	251
123	251	248	249
124	254	251	251
125	255	255	253
126	254	252	251
127	0	0	0
128	255	249	249
129	255	255	252
130	255	251	250
131	251	246	248
132	254	251	252
133	255	253	252
134	254	252	250
135	254	252	250
136	254	253	250
137	255	255	254
138	255	254	254
139	254	251	252
140	255	254	253
141	255	255	253
142	254	251	250
143	251	247	248
144	253	251	251
145	255	255	252
146	254	252	250
147	0	0	0
148	255	247	249
149	255	253	252
150	255	252	250
151	251	247	246
152	254	252	252
153	255	255	254
154	252	250	250
155	252	249	249
156	253	252	250
157	253	252	250
158	254	253	251
159	254	252	251
160	255	253	253
161	255	255	254
162	253	249	249
163	249	244	246
164	254	251	251
165	0	0	0
166	0	0	0
167	0	0	0
168	0	0	0
169	255	251	250
170	255	249	248
171	253	248	247
172	255	252	250
173	255	255	253
174	254	251	251
175	250	246	248
176	252	250	250
177	254	252	250
178	252	251	248
179	252	251	249
180	253	251	249
181	255	253	252
182	252	248	250
183	247	241	245
184	253	249	251
185	255	255	254
186	255	252	252
187	252	248	250
188	0	0	0
189	0	0	0
190	255	252	251
191	255	250	249
192	253	248	248
193	255	253	251
194	255	254	252
195	252	248	248
196	252	249	249
197	255	252	252
198	253	251	250
199	251	249	248
200	253	253	250
201	254	253	250
202	255	255	253
203	253	250	250
204	250	246	249
205	255	254	255
206	255	255	254
207	255	252	252
208	252	246	250
209	255	252	254
210	0	0	0
211	255	253	252
212	253	249	248
213	252	248	248
214	254	249	250
215	254	251	250
216	254	251	250
217	254	251	251
218	253	250	250
219	251	248	248
220	254	253	251
221	255	255	253
222	255	255	253
223	255	255	252
224	255	254	251
225	252	250	249
226	255	252	251
227	255	253	252
228	251	246	248
229	248	241	246
230	250	243	248
231	248	242	246
232	0	0	0
233	252	247	247
234	0	0	0
235	255	253	253
236	254	250	250
237	254	251	250
238	253	250	249
239	251	248	248
240	255	254	252
241	255	255	253
242	254	252	251
243	254	252	250
244	255	255	252
245	251	250	248
246	252	250	249
247	254	252	251
248	254	251	250
249	249	244	246
250	253	249	251
251	255	251	253
252	252	248	249
253	0	0	0
254	0	0	0
255	0	0	0
256	254	252	251
257	253	249	248
258	253	249	249
259	252	249	249
260	254	253	251
261	255	255	252
262	253	252	249
263	249	245	244
264	252	249	248
265	254	252	250
266	252	250	249
267	253	251	250
268	254	251	251
269	253	250	251
270	255	253	253
271	255	255	254
272	255	255	253
273	254	252	251
274	0	0	0
275	0	0	0
276	255	255	253
277	255	255	252
278	252	248	248
279	251	248	248
280	253	252	250
281	255	255	253
282	255	255	252
283	251	250	247
284	252	251	248
285	255	255	252
286	254	251	250
287	253	250	250
288	255	254	253
289	255	252	253
290	253	250	251
291	255	254	253
292	255	253	252
293	254	251	250
294	252	249	248
295	0	0	0
296	0	0	0
297	255	255	251
298	255	254	250
299	251	247	247
300	254	252	251
301	255	255	252
302	255	255	252
303	255	255	252
304	254	255	251
305	255	255	252
306	255	253	251
307	252	249	249
308	255	252	252
309	255	255	254
310	255	253	253
311	253	250	250
312	253	250	250
313	254	250	251
314	252	248	250
315	0	0	0
316	0	0	0
317	255	254	251
318	255	255	251
319	251	249	246
320	254	252	250
321	255	255	253
322	252	249	248
323	251	249	248
324	254	254	252
325	252	253	250
326	255	255	252
327	255	254	251
328	251	248	248
329	254	252	252
330	255	254	253
331	253	251	250
332	254	251	250
333	255	252	251
334	254	250	251
335	0	0	0
336	0	0	0
337	0	0	0
338	0	0	0
339	253	253	248
340	254	255	249
341	255	255	251
342	254	252	250
343	248	244	245
344	251	249	249
345	254	254	251
346	254	255	251
347	255	255	250
348	252	251	247
349	250	246	247
350	253	250	250
351	254	251	250
352	253	251	249
353	0	0	0
354	0	0	0
355	0	0	0
356	0	0	0
357	0	0	0
358	0	0	0
359	0	0	0
360	0	0	0
361	255	255	251
362	254	254	250
363	252	249	247
364	250	246	247
365	253	252	250
366	0	0	0
367	0	0	0
368	0	0	0
369	0	0	0
370	254	253	250
371	255	255	253
372	252	248	248
373	0	0	0
374	0	0	0
375	0	0	0
376	0	0	0
377	0	0	0
378	0	0	0
379	0	0	0
380	0	0	0
381	0	0	0
382	0	0	0
383	252	251	249
384	252	250	248
385	251	248	247
386	0	0	0
387	0	0	0
388	0	0	0
389	0	0	0
390	0	0	0
391	0	0	0
392	254	253	250
393	0	0	0
394	0	0	0
395	0	0	0
396	0	0	0
397	0	0	0
398	0	0	0
399	0	0	0
