 	R	G	B
1	0	0	0
2	0	0	0
3	0	0	0
4	0	0	0
5	0	0	0
6	0	0	0
7	0	0	0
8	0	0	0
9	0	0	0
10	0	0	0
11	0	0	0
12	0	0	0
13	0	0	0
14	0	0	0
15	0	0	0
16	0	0	0
17	0	0	0
18	0	0	0
19	0	0	0
20	0	0	0
21	0	0	0
22	0	0	0
23	0	0	0
24	0	0	0
25	0	0	0
26	0	0	0
27	0	0	0
28	0	0	0
29	0	0	0
30	0	0	0
31	0	0	0
32	0	0	0
33	0	0	0
34	0	0	0
35	0	0	0
36	0	0	0
37	0	0	0
38	0	0	0
39	0	0	0
40	0	0	0
41	0	0	0
42	0	0	0
43	0	0	0
44	0	0	0
45	0	0	0
46	0	0	0
47	0	0	0
48	0	0	0
49	0	0	0
50	0	0	0
51	0	0	0
52	253	237	235
53	255	236	236
54	255	231	237
55	255	224	236
56	255	219	234
57	249	209	227
58	246	208	226
59	0	0	0
60	0	0	0
61	0	0	0
62	0	0	0
63	0	0	0
64	0	0	0
65	0	0	0
66	0	0	0
67	0	0	0
68	0	0	0
69	0	0	0
70	0	0	0
71	0	0	0
72	0	0	0
73	0	0	0
74	0	0	0
75	0	0	0
76	0	0	0
77	0	0	0
78	0	0	0
79	0	0	0
80	0	0	0
81	0	0	0
82	0	0	0
83	0	0	0
84	0	0	0
85	0	0	0
86	0	0	0
87	0	0	0
88	0	0	0
89	0	0	0
90	0	0	0
91	0	0	0
92	0	0	0
93	0	0	0
94	0	0	0
95	0	0	0
96	0	0	0
97	0	0	0
98	0	0	0
99	0	0	0
100	0	0	0
101	0	0	0
102	0	0	0
103	0	0	0
104	0	0	0
105	0	0	0
106	0	0	0
107	0	0	0
108	0	0	0
109	0	0	0
110	0	0	0
111	0	0	0
112	255	230	234
113	255	230	235
114	252	210	225
115	249	203	224
116	252	205	228
117	246	197	224
118	245	197	224
119	247	198	227
120	247	200	231
121	0	0	0
122	0	0	0
123	0	0	0
124	0	0	0
125	0	0	0
126	0	0	0
127	0	0	0
128	0	0	0
129	0	0	0
130	0	0	0
131	0	0	0
132	0	0	0
133	0	0	0
134	0	0	0
135	0	0	0
136	0	0	0
137	0	0	0
138	0	0	0
139	0	0	0
140	0	0	0
141	0	0	0
142	0	0	0
143	0	0	0
144	0	0	0
145	0	0	0
146	0	0	0
147	0	0	0
148	0	0	0
149	0	0	0
150	0	0	0
151	0	0	0
152	0	0	0
153	0	0	0
154	0	0	0
155	0	0	0
156	0	0	0
157	0	0	0
158	0	0	0
159	0	0	0
160	0	0	0
161	0	0	0
162	0	0	0
163	0	0	0
164	0	0	0
165	0	0	0
166	255	234	234
167	255	234	232
168	255	230	232
169	255	224	229
170	255	219	227
171	252	213	225
172	255	217	228
173	255	222	232
174	253	202	221
175	242	182	212
176	244	185	217
177	244	185	221
178	242	184	222
179	242	185	224
180	246	189	229
181	245	189	229
182	0	0	0
183	0	0	0
184	0	0	0
185	0	0	0
186	0	0	0
187	0	0	0
188	0	0	0
189	0	0	0
190	0	0	0
191	0	0	0
192	0	0	0
193	0	0	0
194	0	0	0
195	0	0	0
196	0	0	0
197	0	0	0
198	0	0	0
199	0	0	0
200	0	0	0
201	0	0	0
202	0	0	0
203	0	0	0
204	0	0	0
205	0	0	0
206	0	0	0
207	0	0	0
208	0	0	0
209	0	0	0
210	0	0	0
211	0	0	0
212	0	0	0
213	0	0	0
214	0	0	0
215	0	0	0
216	0	0	0
217	0	0	0
218	0	0	0
219	0	0	0
220	0	0	0
221	0	0	0
222	0	0	0
223	0	0	0
224	0	0	0
225	0	0	0
226	255	221	227
227	255	222	230
228	255	213	225
229	255	208	223
230	253	203	221
231	248	197	219
232	250	199	222
233	255	204	227
234	255	201	226
235	243	179	213
236	242	176	216
237	242	178	220
238	247	186	227
239	247	185	229
240	246	184	230
241	249	187	233
242	245	185	230
243	0	0	0
244	0	0	0
245	0	0	0
246	0	0	0
247	0	0	0
248	0	0	0
249	0	0	0
250	0	0	0
251	0	0	0
252	0	0	0
253	0	0	0
254	0	0	0
255	0	0	0
256	0	0	0
257	0	0	0
258	0	0	0
259	0	0	0
260	0	0	0
261	0	0	0
262	0	0	0
263	0	0	0
264	0	0	0
265	0	0	0
266	0	0	0
267	0	0	0
268	0	0	0
269	0	0	0
270	0	0	0
271	0	0	0
272	0	0	0
273	0	0	0
274	0	0	0
275	0	0	0
276	255	237	230
277	255	235	230
278	255	232	232
279	255	226	230
280	255	231	233
281	255	233	232
282	255	228	227
283	255	224	226
284	255	224	228
285	255	223	227
286	255	217	226
287	255	212	227
288	253	201	222
289	249	192	217
290	247	187	216
291	245	182	218
292	246	183	221
293	248	184	222
294	249	181	222
295	249	178	223
296	245	174	222
297	242	170	222
298	246	177	228
299	250	184	233
300	248	182	231
301	247	180	231
302	248	182	232
303	245	180	230
304	247	190	234
305	0	0	0
306	0	0	0
307	0	0	0
308	0	0	0
309	0	0	0
310	0	0	0
311	0	0	0
312	0	0	0
313	0	0	0
314	0	0	0
315	0	0	0
316	0	0	0
317	0	0	0
318	0	0	0
319	0	0	0
320	0	0	0
321	0	0	0
322	0	0	0
323	0	0	0
324	0	0	0
325	0	0	0
326	0	0	0
327	0	0	0
328	0	0	0
329	0	0	0
330	0	0	0
331	0	0	0
332	0	0	0
333	0	0	0
334	0	0	0
335	255	236	231
336	255	223	222
337	255	221	222
338	255	214	222
339	255	211	223
340	252	202	218
341	255	207	222
342	255	209	223
343	255	204	220
344	253	197	216
345	255	197	218
346	251	190	215
347	247	182	213
348	251	188	220
349	243	176	214
350	252	189	223
351	249	183	222
352	246	178	224
353	249	180	229
354	249	178	227
355	250	174	227
356	250	173	230
357	246	168	228
358	244	167	229
359	247	174	234
360	249	178	236
361	248	175	234
362	247	175	233
363	247	176	232
364	251	185	236
365	253	195	240
366	250	195	238
367	0	0	0
368	0	0	0
369	0	0	0
370	0	0	0
371	0	0	0
372	0	0	0
373	0	0	0
374	0	0	0
375	0	0	0
376	0	0	0
377	0	0	0
378	0	0	0
379	0	0	0
380	0	0	0
381	0	0	0
382	0	0	0
383	0	0	0
384	0	0	0
385	0	0	0
386	0	0	0
387	0	0	0
388	0	0	0
389	0	0	0
390	0	0	0
391	0	0	0
392	255	238	231
393	255	238	233
394	255	235	232
395	255	231	230
396	255	222	226
397	255	210	220
398	255	204	220
399	255	197	219
400	253	190	217
401	248	181	211
402	252	185	214
403	255	187	218
404	250	179	214
405	247	172	213
406	243	165	211
407	239	157	209
408	242	162	214
409	244	166	219
410	248	174	223
411	255	186	230
412	248	176	224
413	245	170	224
414	243	167	226
415	243	165	226
416	245	163	228
417	244	160	228
418	241	159	228
419	239	159	229
420	242	163	233
421	244	168	236
422	245	168	236
423	243	167	234
424	250	178	239
425	252	187	240
426	244	184	233
427	0	0	0
428	0	0	0
429	0	0	0
430	0	0	0
431	0	0	0
432	0	0	0
433	0	0	0
434	0	0	0
435	0	0	0
436	0	0	0
437	0	0	0
438	0	0	0
439	0	0	0
440	0	0	0
441	0	0	0
442	0	0	0
443	0	0	0
444	0	0	0
445	0	0	0
446	0	0	0
447	0	0	0
448	0	0	0
449	0	0	0
450	0	0	0
451	0	0	0
452	255	226	225
453	255	230	230
454	255	215	224
455	255	212	224
456	255	204	218
457	251	192	213
458	253	190	217
459	253	185	217
460	253	180	218
461	251	174	216
462	250	172	215
463	254	174	218
464	252	171	218
465	248	162	215
466	252	166	220
467	246	158	218
468	250	163	225
469	254	167	230
470	249	162	226
471	251	169	229
472	255	179	232
473	249	169	226
474	246	164	227
475	241	160	227
476	247	167	234
477	247	164	234
478	245	162	233
479	241	160	232
480	245	168	238
481	250	173	243
482	248	171	242
483	246	170	241
484	244	170	239
485	250	181	244
486	245	181	237
487	235	177	229
488	0	0	0
489	0	0	0
490	0	0	0
491	0	0	0
492	0	0	0
493	0	0	0
494	0	0	0
495	0	0	0
496	0	0	0
497	0	0	0
498	0	0	0
499	0	0	0
500	0	0	0
501	0	0	0
502	0	0	0
503	0	0	0
504	0	0	0
505	0	0	0
506	0	0	0
507	0	0	0
508	0	0	0
509	0	0	0
510	255	235	234
511	255	231	232
512	255	227	230
513	255	222	227
514	255	206	219
515	251	191	215
516	250	184	214
517	248	177	211
518	249	174	212
519	251	172	217
520	250	167	218
521	249	162	218
522	249	160	219
523	249	157	218
524	245	151	215
525	243	147	214
526	246	150	217
527	248	152	219
528	248	154	222
529	252	158	229
530	250	156	229
531	244	150	223
532	247	158	227
533	251	167	230
534	245	159	224
535	241	154	224
536	241	157	228
537	244	162	234
538	244	161	234
539	242	159	233
540	243	165	236
541	247	172	240
542	247	170	240
543	245	167	239
544	242	168	239
545	239	167	236
546	238	171	236
547	234	172	231
548	0	0	0
549	0	0	0
550	0	0	0
551	0	0	0
552	0	0	0
553	0	0	0
554	0	0	0
555	0	0	0
556	0	0	0
557	0	0	0
558	0	0	0
559	0	0	0
560	0	0	0
561	0	0	0
562	0	0	0
563	0	0	0
564	0	0	0
565	0	0	0
566	0	0	0
567	0	0	0
568	0	0	0
569	0	0	0
570	255	221	228
571	255	221	230
572	251	198	218
573	253	195	218
574	255	195	219
575	247	178	210
576	252	180	217
577	251	173	218
578	251	168	217
579	252	166	219
580	253	162	221
581	251	157	222
582	249	151	221
583	248	148	222
584	254	156	228
585	249	149	224
586	252	152	227
587	254	154	228
588	250	150	223
589	250	151	225
590	255	160	234
591	253	157	232
592	250	154	230
593	253	162	234
594	249	160	230
595	240	151	223
596	248	164	234
597	249	167	238
598	247	166	238
599	245	163	236
600	247	169	239
601	251	176	244
602	248	172	241
603	247	170	240
604	245	170	239
605	240	169	237
606	241	177	241
607	239	181	240
608	240	185	240
609	251	202	249
610	0	0	0
611	0	0	0
612	0	0	0
613	0	0	0
614	0	0	0
615	0	0	0
616	0	0	0
617	0	0	0
618	0	0	0
619	0	0	0
620	254	242	237
621	255	246	241
622	255	241	240
623	252	234	235
624	255	238	237
625	0	0	0
626	0	0	0
627	0	0	0
628	0	0	0
629	0	0	0
630	253	206	220
631	255	207	222
632	248	187	214
633	239	166	208
634	244	169	214
635	247	169	216
636	247	165	216
637	251	166	222
638	249	160	222
639	248	154	220
640	249	150	220
641	247	145	218
642	244	139	217
643	241	133	218
644	247	140	225
645	252	147	231
646	250	146	229
647	252	148	229
648	249	145	226
649	245	141	221
650	250	148	226
651	254	155	231
652	250	152	228
653	247	150	228
654	247	151	229
655	242	149	227
656	243	157	231
657	250	169	240
658	248	167	239
659	246	167	238
660	246	170	239
661	248	174	240
662	246	171	238
663	245	169	239
664	246	171	240
665	242	170	236
666	242	178	239
667	244	186	243
668	244	192	245
669	247	198	249
670	246	196	245
671	0	0	0
672	0	0	0
673	0	0	0
674	0	0	0
675	0	0	0
676	0	0	0
677	0	0	0
678	0	0	0
679	0	0	0
680	252	237	234
681	255	247	242
682	254	226	231
683	252	221	230
684	251	220	231
685	254	224	233
686	252	220	230
687	0	0	0
688	0	0	0
689	0	0	0
690	252	198	222
691	255	199	225
692	254	189	221
693	244	169	213
694	246	164	219
695	251	166	227
696	250	162	224
697	249	158	223
698	255	169	235
699	255	161	233
700	251	150	228
701	250	145	226
702	248	140	223
703	244	134	221
704	248	138	228
705	253	145	235
706	255	149	237
707	252	147	234
708	255	153	236
709	253	150	232
710	249	145	228
711	253	152	232
712	254	156	233
713	249	152	229
714	252	157	234
715	253	159	237
716	244	152	231
717	240	157	232
718	248	172	241
719	249	172	241
720	249	173	240
721	246	174	240
722	247	179	241
723	247	177	241
724	246	175	241
725	246	176	241
726	246	181	240
727	247	189	243
728	244	190	242
729	248	197	247
730	248	199	248
731	0	0	0
732	0	0	0
733	0	0	0
734	0	0	0
735	0	0	0
736	0	0	0
737	0	0	0
738	0	0	0
739	0	0	0
740	255	242	243
741	255	246	246
742	255	228	236
743	248	207	224
744	249	207	226
745	248	206	227
746	245	201	224
747	244	200	226
748	241	192	223
749	241	187	223
750	249	189	228
751	253	189	230
752	246	176	223
753	244	166	220
754	243	159	221
755	244	154	226
756	248	153	229
757	245	148	224
758	251	155	229
759	255	164	238
760	250	148	229
761	244	136	224
762	242	132	223
763	240	127	222
764	245	133	227
765	247	135	230
766	249	139	233
767	250	143	234
768	252	147	235
769	255	153	237
770	253	149	234
771	249	145	231
772	250	149	233
773	250	152	234
774	248	153	233
775	252	159	237
776	251	157	236
777	242	150	229
778	241	161	234
779	248	175	241
780	250	177	241
781	249	177	240
782	246	178	239
783	246	182	242
784	243	178	239
785	240	175	237
786	245	184	241
787	246	189	239
788	243	189	238
789	242	191	240
790	0	0	0
791	0	0	0
792	0	0	0
793	0	0	0
794	0	0	0
795	0	0	0
796	0	0	0
797	0	0	0
798	0	0	0
799	0	0	0
800	255	225	237
801	255	228	241
802	254	214	232
803	241	193	219
804	242	193	223
805	242	193	225
806	246	198	228
807	245	195	228
808	251	201	236
809	248	194	235
810	243	180	230
811	250	182	236
812	246	174	232
813	234	158	222
814	244	167	232
815	247	161	234
816	248	155	235
817	252	154	237
818	249	147	231
819	252	153	235
820	251	149	234
821	241	133	224
822	251	145	234
823	248	140	232
824	252	144	236
825	255	149	241
826	247	138	233
827	248	141	235
828	255	154	242
829	255	159	244
830	253	151	236
831	249	147	232
832	252	152	236
833	252	155	238
834	253	160	239
835	252	161	239
836	255	169	243
837	255	167	240
838	245	158	233
839	250	172	240
840	251	179	242
841	248	177	238
842	249	182	240
843	247	184	240
844	244	185	240
845	235	178	234
846	244	194	243
847	251	203	248
848	0	0	0
849	0	0	0
850	0	0	0
851	0	0	0
852	0	0	0
853	0	0	0
854	0	0	0
855	0	0	0
856	255	238	241
857	255	242	247
858	255	232	242
859	255	220	235
860	255	216	234
861	255	210	232
862	248	195	225
863	240	182	219
864	240	182	222
865	241	183	227
866	243	187	232
867	246	192	234
868	248	192	234
869	252	196	238
870	238	176	227
871	232	162	225
872	235	159	229
873	231	151	225
874	230	152	227
875	240	161	237
876	240	152	234
877	240	144	231
878	242	141	231
879	239	134	226
880	235	130	224
881	234	128	225
882	243	138	233
883	252	148	237
884	252	149	236
885	255	153	239
886	251	146	236
887	242	135	229
888	249	148	237
889	255	161	245
890	250	151	236
891	244	143	229
892	248	150	233
893	250	155	236
894	250	159	238
895	252	164	240
896	254	170	242
897	255	177	245
898	252	169	238
899	243	161	231
900	248	171	237
901	250	179	239
902	249	183	239
903	249	187	239
904	246	188	237
905	243	189	237
906	247	202	244
907	254	216	252
908	0	0	0
909	0	0	0
910	0	0	0
911	0	0	0
912	0	0	0
913	0	0	0
914	0	0	0
915	0	0	0
916	251	211	230
917	255	214	233
918	255	215	236
919	253	203	230
920	251	198	228
921	251	194	227
922	253	194	230
923	243	179	222
924	245	182	228
925	247	183	234
926	246	182	237
927	249	186	241
928	247	184	238
929	247	183	236
930	246	184	237
931	227	162	223
932	234	169	236
933	237	165	240
934	233	157	236
935	235	160	238
936	245	171	247
937	243	160	241
938	245	156	240
939	246	152	239
940	245	148	237
941	242	144	235
942	251	155	246
943	255	166	253
944	254	155	241
945	254	155	239
946	254	155	240
947	249	148	235
948	246	144	233
949	252	157	241
950	255	165	245
951	249	156	237
952	248	155	236
953	253	163	241
954	252	164	240
955	251	167	241
956	251	169	241
957	255	176	244
958	255	180	243
959	247	170	234
960	249	176	238
961	255	188	245
962	253	186	241
963	253	190	241
964	252	194	240
965	247	193	237
966	244	195	237
967	250	209	246
968	245	206	241
969	235	195	232
970	0	0	0
971	0	0	0
972	0	0	0
973	0	0	0
974	0	0	0
975	0	0	0
976	0	0	0
977	0	0	0
978	244	186	227
979	245	185	227
980	240	177	223
981	239	172	222
982	241	172	223
983	242	172	225
984	243	174	229
985	244	175	233
986	242	173	234
987	239	170	235
988	235	167	233
989	232	164	229
990	233	164	229
991	234	166	232
992	230	165	233
993	235	171	243
994	234	165	242
995	229	156	236
996	234	164	241
997	243	172	246
998	244	166	243
999	247	163	245
1000	249	162	246
1001	248	157	243
1002	254	166	248
1003	255	176	254
1004	255	167	247
1005	251	156	240
1006	250	155	240
1007	250	155	240
1008	248	153	238
1009	244	150	234
1010	248	158	237
1011	252	166	242
1012	250	165	240
1013	250	165	242
1014	252	169	244
1015	250	168	240
1016	246	169	238
1017	246	171	239
1018	250	177	241
1019	0	0	0
1020	249	183	238
1021	252	190	241
1022	254	192	242
1023	251	190	238
1024	253	196	240
1025	252	199	240
1026	247	199	239
1027	244	200	240
1028	242	200	239
1029	239	198	237
1030	0	0	0
1031	0	0	0
1032	0	0	0
1033	0	0	0
1034	0	0	0
1035	0	0	0
1036	0	0	0
1037	0	0	0
1038	0	0	0
1039	255	195	244
1040	245	179	233
1041	237	169	227
1042	252	188	241
1043	254	188	243
1044	246	175	235
1045	246	176	238
1046	241	170	236
1047	236	166	234
1048	239	175	242
1049	231	170	237
1050	234	176	240
1051	237	177	242
1052	242	182	246
1053	244	184	250
1054	239	176	248
1055	233	167	245
1056	232	167	244
1057	235	173	247
1058	236	170	243
1059	238	165	241
1060	247	169	248
1061	250	168	248
1062	250	165	246
1063	255	173	250
1064	255	171	247
1065	250	162	240
1066	251	162	242
1067	249	161	242
1068	250	163	243
1069	246	161	239
1070	251	169	242
1071	255	178	247
1072	252	173	243
1073	252	173	243
1074	254	177	247
1075	253	179	246
1076	249	177	240
1077	0	0	0
1078	0	0	0
1079	0	0	0
1080	0	0	0
1081	0	0	0
1082	251	199	242
1083	255	203	244
1084	251	194	238
1085	251	199	241
1086	247	199	238
1087	243	200	237
1088	243	203	241
1089	0	0	0
1090	0	0	0
1091	0	0	0
1092	0	0	0
1093	0	0	0
1094	0	0	0
1095	0	0	0
1096	0	0	0
1097	0	0	0
1098	0	0	0
1099	0	0	0
1100	0	0	0
1101	230	158	225
1102	241	175	238
1103	254	192	249
1104	245	178	239
1105	237	165	232
1106	235	162	233
1107	230	157	232
1108	236	169	240
1109	238	177	244
1110	235	179	243
1111	239	187	250
1112	245	191	252
1113	249	194	253
1114	241	183	247
1115	237	176	247
1116	236	175	249
1117	234	174	247
1118	231	170	244
1119	231	167	243
1120	236	168	244
1121	242	171	246
1122	244	169	245
1123	244	166	241
1124	244	166	240
1125	244	165	240
1126	245	165	240
1127	246	165	239
1128	246	166	240
1129	246	168	240
1130	251	177	245
1131	255	186	248
1132	253	182	244
1133	250	178	242
1134	253	183	245
1135	254	186	247
1136	253	187	245
1137	0	0	0
1138	0	0	0
1139	0	0	0
1140	0	0	0
1141	0	0	0
1142	0	0	0
1143	0	0	0
1144	254	205	241
1145	249	198	239
1146	247	200	240
1147	244	200	239
1148	244	205	242
1149	245	209	245
1150	0	0	0
1151	0	0	0
1152	0	0	0
1153	0	0	0
1154	0	0	0
1155	0	0	0
1156	0	0	0
1157	0	0	0
1158	0	0	0
1159	0	0	0
1160	0	0	0
1161	0	0	0
1162	0	0	0
1163	0	0	0
1164	250	190	248
1165	237	173	236
1166	244	183	245
1167	246	182	247
1168	242	176	246
1169	247	187	253
1170	243	185	249
1171	243	189	250
1172	247	194	255
1173	252	197	255
1174	244	186	248
1175	231	173	238
1176	238	184	250
1177	238	184	252
1178	235	180	249
1179	236	178	248
1180	240	183	252
1181	0	0	0
1182	0	0	0
1183	0	0	0
1184	0	0	0
1185	249	183	248
1186	245	177	244
1187	244	176	243
1188	249	183	246
1189	252	186	246
1190	253	187	246
1191	255	196	251
1192	251	189	244
1193	249	186	241
1194	250	189	244
1195	252	192	246
1196	251	192	244
1197	253	195	244
1198	0	0	0
1199	0	0	0
1200	0	0	0
1201	0	0	0
1202	0	0	0
1203	0	0	0
1204	0	0	0
1205	0	0	0
1206	0	0	0
1207	0	0	0
1208	0	0	0
1209	251	215	248
1210	0	0	0
1211	0	0	0
1212	0	0	0
1213	0	0	0
1214	0	0	0
1215	0	0	0
1216	0	0	0
1217	0	0	0
1218	0	0	0
1219	0	0	0
1220	0	0	0
1221	0	0	0
1222	0	0	0
1223	0	0	0
1224	0	0	0
1225	0	0	0
1226	0	0	0
1227	245	193	249
1228	244	189	247
1229	238	182	243
1230	236	182	243
1231	0	0	0
1232	0	0	0
1233	0	0	0
1234	236	181	242
1235	229	172	237
1236	230	179	242
1237	235	189	248
1238	229	182	244
1239	229	179	243
1240	238	187	249
1241	0	0	0
1242	0	0	0
1243	0	0	0
1244	0	0	0
1245	0	0	0
1246	245	191	246
1247	242	185	243
1248	248	193	248
1249	253	201	251
1250	255	203	250
1251	255	204	247
1252	253	199	244
1253	248	193	241
1254	250	197	244
1255	251	199	245
1256	250	199	244
1257	249	199	243
1258	250	200	243
1259	0	0	0
1260	0	0	0
1261	0	0	0
1262	0	0	0
1263	0	0	0
1264	0	0	0
1265	0	0	0
1266	0	0	0
1267	0	0	0
1268	0	0	0
1269	0	0	0
1270	0	0	0
1271	0	0	0
1272	0	0	0
1273	0	0	0
1274	0	0	0
1275	0	0	0
1276	0	0	0
1277	0	0	0
1278	0	0	0
1279	0	0	0
1280	0	0	0
1281	0	0	0
1282	0	0	0
1283	0	0	0
1284	0	0	0
1285	0	0	0
1286	0	0	0
1287	0	0	0
1288	0	0	0
1289	0	0	0
1290	0	0	0
1291	0	0	0
1292	0	0	0
1293	0	0	0
1294	0	0	0
1295	0	0	0
1296	0	0	0
1297	0	0	0
1298	236	200	250
1299	0	0	0
1300	0	0	0
1301	0	0	0
1302	0	0	0
1303	0	0	0
1304	0	0	0
1305	0	0	0
1306	0	0	0
1307	0	0	0
1308	247	203	247
1309	255	213	253
1310	248	204	246
1311	248	205	244
1312	253	210	244
1313	254	207	243
1314	248	199	241
1315	246	201	242
1316	251	210	245
1317	254	212	247
1318	247	204	241
1319	0	0	0
1320	0	0	0
1321	0	0	0
1322	0	0	0
1323	0	0	0
1324	0	0	0
1325	0	0	0
1326	0	0	0
1327	0	0	0
1328	0	0	0
1329	0	0	0
1330	0	0	0
1331	0	0	0
1332	0	0	0
1333	0	0	0
1334	0	0	0
1335	0	0	0
1336	0	0	0
1337	0	0	0
1338	0	0	0
1339	0	0	0
1340	0	0	0
1341	0	0	0
1342	0	0	0
1343	0	0	0
1344	0	0	0
1345	0	0	0
1346	0	0	0
1347	0	0	0
1348	0	0	0
1349	0	0	0
1350	0	0	0
1351	0	0	0
1352	0	0	0
1353	0	0	0
1354	0	0	0
1355	0	0	0
1356	0	0	0
1357	0	0	0
1358	0	0	0
1359	0	0	0
1360	0	0	0
1361	0	0	0
1362	0	0	0
1363	0	0	0
1364	0	0	0
1365	0	0	0
1366	0	0	0
1367	0	0	0
1368	0	0	0
1369	0	0	0
1370	246	214	242
1371	241	206	240
1372	245	212	244
1373	251	218	244
1374	251	213	242
1375	0	0	0
1376	0	0	0
1377	253	222	248
1378	248	215	243
1379	0	0	0
1380	0	0	0
1381	0	0	0
1382	0	0	0
1383	0	0	0
1384	0	0	0
1385	0	0	0
1386	0	0	0
1387	0	0	0
1388	0	0	0
1389	0	0	0
1390	0	0	0
1391	0	0	0
1392	0	0	0
1393	0	0	0
1394	0	0	0
1395	0	0	0
1396	0	0	0
1397	0	0	0
1398	0	0	0
1399	0	0	0
1400	0	0	0
1401	0	0	0
1402	0	0	0
1403	0	0	0
