 	R	G	B
1	0	0	0
2	0	0	0
3	0	0	0
4	0	0	0
5	0	0	0
6	0	0	0
7	0	0	0
8	0	0	0
9	0	0	0
10	0	0	0
11	0	0	0
12	0	0	0
13	0	0	0
14	0	0	0
15	0	0	0
16	255	253	252
17	0	0	0
18	0	0	0
19	0	0	0
20	0	0	0
21	0	0	0
22	0	0	0
23	0	0	0
24	0	0	0
25	0	0	0
26	0	0	0
27	0	0	0
28	0	0	0
29	0	0	0
30	0	0	0
31	0	0	0
32	0	0	0
33	0	0	0
34	0	0	0
35	0	0	0
36	0	0	0
37	0	0	0
38	0	0	0
39	0	0	0
40	0	0	0
41	0	0	0
42	0	0	0
43	0	0	0
44	0	0	0
45	0	0	0
46	0	0	0
47	0	0	0
48	0	0	0
49	0	0	0
50	0	0	0
51	0	0	0
52	0	0	0
53	0	0	0
54	0	0	0
55	255	254	252
56	254	252	251
57	251	249	250
58	0	0	0
59	0	0	0
60	0	0	0
61	0	0	0
62	0	0	0
63	0	0	0
64	0	0	0
65	0	0	0
66	0	0	0
67	0	0	0
68	0	0	0
69	0	0	0
70	0	0	0
71	0	0	0
72	0	0	0
73	0	0	0
74	0	0	0
75	0	0	0
76	0	0	0
77	0	0	0
78	0	0	0
79	0	0	0
80	0	0	0
81	0	0	0
82	0	0	0
83	0	0	0
84	0	0	0
85	0	0	0
86	0	0	0
87	0	0	0
88	0	0	0
89	0	0	0
90	0	0	0
91	0	0	0
92	0	0	0
93	0	0	0
94	253	252	251
95	254	253	250
96	252	250	249
97	250	247	248
98	253	252	251
99	255	255	253
100	255	255	252
101	254	254	252
102	254	253	252
103	0	0	0
104	0	0	0
105	0	0	0
106	0	0	0
107	0	0	0
108	0	0	0
109	0	0	0
110	0	0	0
111	0	0	0
112	0	0	0
113	0	0	0
114	0	0	0
115	0	0	0
116	0	0	0
117	0	0	0
118	0	0	0
119	0	0	0
120	0	0	0
121	0	0	0
122	0	0	0
123	0	0	0
124	0	0	0
125	0	0	0
126	0	0	0
127	0	0	0
128	0	0	0
129	0	0	0
130	0	0	0
131	0	0	0
132	0	0	0
133	253	252	251
134	252	251	250
135	254	254	251
136	252	251	249
137	252	251	250
138	255	255	254
139	254	254	252
140	253	253	251
141	254	254	252
142	253	252	251
143	252	252	251
144	0	0	0
145	0	0	0
146	0	0	0
147	0	0	0
148	0	0	0
149	0	0	0
150	0	0	0
151	0	0	0
152	0	0	0
153	0	0	0
154	0	0	0
155	0	0	0
156	0	0	0
157	0	0	0
158	0	0	0
159	0	0	0
160	0	0	0
161	0	0	0
162	0	0	0
163	0	0	0
164	0	0	0
165	0	0	0
166	0	0	0
167	0	0	0
168	0	0	0
169	0	0	0
170	0	0	0
171	0	0	0
172	0	0	0
173	0	0	0
174	253	253	251
175	255	255	253
176	255	255	253
177	255	254	252
178	255	254	252
179	253	252	251
180	254	253	252
181	254	254	252
182	254	254	252
183	0	0	0
184	0	0	0
185	0	0	0
186	0	0	0
187	0	0	0
188	0	0	0
189	0	0	0
190	0	0	0
191	0	0	0
192	0	0	0
193	0	0	0
194	0	0	0
195	0	0	0
196	0	0	0
197	0	0	0
198	0	0	0
199	0	0	0
200	0	0	0
201	0	0	0
202	0	0	0
203	0	0	0
204	0	0	0
205	0	0	0
206	0	0	0
207	0	0	0
208	0	0	0
209	0	0	0
210	0	0	0
211	0	0	0
212	254	253	252
213	253	252	251
214	255	255	253
215	255	254	253
216	255	254	252
217	254	253	251
218	253	252	250
219	252	250	250
220	253	251	251
221	254	254	252
222	253	253	251
223	0	0	0
224	0	0	0
225	0	0	0
226	0	0	0
227	0	0	0
228	0	0	0
229	0	0	0
230	0	0	0
231	0	0	0
232	0	0	0
233	0	0	0
234	0	0	0
235	0	0	0
236	0	0	0
237	0	0	0
238	0	0	0
239	0	0	0
240	0	0	0
241	0	0	0
242	0	0	0
243	0	0	0
244	0	0	0
245	0	0	0
246	0	0	0
247	0	0	0
248	0	0	0
249	0	0	0
250	0	0	0
251	255	255	254
252	255	255	254
253	254	254	252
254	253	253	252
255	253	252	251
256	253	252	251
257	253	251	250
258	252	250	250
259	251	248	249
260	253	251	251
261	254	254	252
262	253	253	251
263	0	0	0
264	254	254	252
265	0	0	0
266	0	0	0
267	0	0	0
268	0	0	0
269	0	0	0
270	0	0	0
271	0	0	0
272	0	0	0
273	0	0	0
274	0	0	0
275	0	0	0
276	0	0	0
277	0	0	0
278	0	0	0
279	0	0	0
280	0	0	0
281	0	0	0
282	0	0	0
283	0	0	0
284	0	0	0
285	0	0	0
286	0	0	0
287	0	0	0
288	0	0	0
289	0	0	0
290	255	254	252
291	255	254	253
292	254	253	252
293	254	253	252
294	252	252	251
295	253	253	252
296	253	253	251
297	255	254	253
298	254	253	252
299	252	250	250
300	255	253	252
301	254	253	252
302	253	252	251
303	255	255	253
304	255	255	253
305	254	252	251
306	0	0	0
307	0	0	0
308	0	0	0
309	0	0	0
310	0	0	0
311	0	0	0
312	0	0	0
313	0	0	0
314	0	0	0
315	0	0	0
316	0	0	0
317	0	0	0
318	0	0	0
319	0	0	0
320	0	0	0
321	0	0	0
322	0	0	0
323	0	0	0
324	0	0	0
325	0	0	0
326	0	0	0
327	0	0	0
328	253	252	251
329	253	252	251
330	253	253	251
331	253	253	252
332	253	253	252
333	253	253	252
334	253	253	252
335	254	254	252
336	254	254	252
337	255	255	253
338	254	253	252
339	252	249	250
340	253	251	251
341	253	252	251
342	253	253	251
343	255	255	252
344	253	252	250
345	252	250	250
346	0	0	0
347	0	0	0
348	0	0	0
349	0	0	0
350	0	0	0
351	0	0	0
352	0	0	0
353	0	0	0
354	0	0	0
355	0	0	0
356	0	0	0
357	0	0	0
358	0	0	0
359	0	0	0
360	0	0	0
361	0	0	0
362	0	0	0
363	0	0	0
364	0	0	0
365	0	0	0
366	0	0	0
367	252	253	251
368	253	253	251
369	253	253	252
370	253	253	252
371	252	252	251
372	253	253	252
373	252	252	251
374	253	253	251
375	254	255	252
376	253	254	252
377	253	254	252
378	252	252	251
379	253	251	251
380	253	253	252
381	255	255	253
382	255	255	253
383	255	255	253
384	254	253	251
385	251	248	249
386	0	0	0
387	0	0	0
388	0	0	0
389	0	0	0
390	0	0	0
391	0	0	0
392	0	0	0
393	0	0	0
394	0	0	0
395	0	0	0
396	0	0	0
397	0	0	0
398	0	0	0
399	0	0	0
400	0	0	0
401	0	0	0
402	0	0	0
403	0	0	0
404	0	0	0
405	0	0	0
406	0	0	0
407	253	253	251
408	253	254	251
409	254	254	252
410	253	253	251
411	252	252	250
412	252	252	251
413	252	252	250
414	254	254	252
415	255	255	253
416	253	254	251
417	253	254	251
418	254	254	252
419	254	254	252
420	255	255	254
421	255	255	253
422	255	255	253
423	255	255	254
424	252	251	250
425	249	247	248
426	0	0	0
427	0	0	0
428	0	0	0
429	0	0	0
430	0	0	0
431	0	0	0
432	0	0	0
433	0	0	0
434	0	0	0
435	0	0	0
436	0	0	0
437	0	0	0
438	0	0	0
439	0	0	0
440	0	0	0
441	0	0	0
442	0	0	0
443	0	0	0
444	0	0	0
445	0	0	0
446	0	0	0
447	253	253	250
448	253	253	250
449	253	254	251
450	253	253	251
451	253	254	252
452	254	254	252
453	255	254	252
454	255	255	253
455	251	249	249
456	248	247	246
457	254	255	252
458	255	255	252
459	253	252	250
460	254	254	252
461	255	255	253
462	254	255	253
463	254	255	253
464	251	250	250
465	251	250	250
466	255	255	254
467	0	0	0
468	0	0	0
469	0	0	0
470	0	0	0
471	0	0	0
472	0	0	0
473	0	0	0
474	0	0	0
475	0	0	0
476	0	0	0
477	0	0	0
478	0	0	0
479	0	0	0
480	0	0	0
481	0	0	0
482	0	0	0
483	0	0	0
484	0	0	0
485	0	0	0
486	0	0	0
487	0	0	0
488	253	253	249
489	253	253	251
490	254	254	252
491	255	255	252
492	255	254	252
493	255	254	252
494	252	249	249
495	246	242	244
496	250	250	249
497	254	255	251
498	254	254	249
499	251	250	248
500	253	253	251
501	254	255	252
502	254	254	252
503	254	254	252
504	253	253	252
505	253	253	252
506	255	254	252
507	255	254	252
508	253	250	250
509	249	245	247
510	0	0	0
511	0	0	0
512	0	0	0
513	0	0	0
514	0	0	0
515	0	0	0
516	253	251	250
517	0	0	0
518	0	0	0
519	0	0	0
520	0	0	0
521	0	0	0
522	0	0	0
523	0	0	0
524	0	0	0
525	0	0	0
526	0	0	0
527	0	0	0
528	0	0	0
529	253	252	250
530	253	253	251
531	254	255	252
532	253	254	251
533	254	253	251
534	251	249	249
535	251	248	249
536	255	255	253
537	255	255	251
538	252	253	248
539	252	252	249
540	254	254	252
541	253	253	251
542	253	252	251
543	253	253	251
544	253	252	251
545	254	253	252
546	255	254	252
547	254	253	251
548	251	248	249
549	252	250	251
550	255	255	254
551	255	254	254
552	0	0	0
553	0	0	0
554	0	0	0
555	253	254	251
556	251	251	249
557	251	250	250
558	0	0	0
559	0	0	0
560	0	0	0
561	0	0	0
562	0	0	0
563	0	0	0
564	0	0	0
565	0	0	0
566	252	252	250
567	0	0	0
568	252	252	250
569	252	251	249
570	253	253	251
571	254	255	252
572	253	254	251
573	254	254	252
574	255	254	253
575	254	254	252
576	254	255	252
577	254	255	250
578	253	253	249
579	253	252	250
580	253	252	251
581	252	250	249
582	252	251	250
583	253	252	251
584	253	252	251
585	254	253	251
586	254	252	251
587	253	251	251
588	254	253	252
589	255	254	253
590	254	252	252
591	251	249	250
592	252	252	251
593	254	254	252
594	253	254	251
595	254	255	252
596	254	255	252
597	253	254	252
598	0	0	0
599	0	0	0
600	0	0	0
601	0	0	0
602	0	0	0
603	0	0	0
604	0	0	0
605	253	254	251
606	254	255	252
607	253	252	250
608	252	251	250
609	253	253	251
610	255	255	253
611	254	254	251
612	253	253	251
613	255	255	253
614	254	254	253
615	253	252	251
616	254	254	251
617	254	255	251
618	253	253	249
619	254	254	251
620	254	254	252
621	253	252	250
622	254	253	251
623	254	253	252
624	254	253	252
625	255	254	252
626	254	252	251
627	253	252	251
628	254	253	252
629	254	255	253
630	253	253	251
631	252	251	250
632	255	254	253
633	255	254	252
634	253	254	251
635	254	254	252
636	255	255	252
637	254	254	251
638	253	253	251
639	0	0	0
640	0	0	0
641	0	0	0
642	0	0	0
643	0	0	0
644	255	255	254
645	255	255	251
646	253	253	249
647	252	252	249
648	254	254	252
649	255	255	252
650	254	254	251
651	253	253	251
652	255	255	253
653	255	255	254
654	253	253	252
655	252	252	250
656	254	254	252
657	255	255	252
658	254	255	252
659	255	255	252
660	254	254	252
661	253	252	251
662	254	253	252
663	254	253	252
664	255	254	252
665	255	254	252
666	254	253	252
667	253	252	252
668	254	254	253
669	255	255	253
670	254	254	251
671	252	252	250
672	254	253	251
673	254	254	252
674	253	253	251
675	253	254	250
676	254	254	251
677	254	253	251
678	0	0	0
679	0	0	0
680	0	0	0
681	0	0	0
682	0	0	0
683	255	255	254
684	254	255	253
685	254	255	251
686	252	252	248
687	252	252	250
688	255	255	252
689	254	253	251
690	252	251	249
691	254	254	252
692	255	255	253
693	254	253	251
694	251	250	249
695	253	253	251
696	255	255	253
697	253	252	250
698	251	251	249
699	254	255	252
700	253	254	251
701	252	252	251
702	253	253	252
703	254	254	252
704	254	254	252
705	253	253	252
706	253	252	251
707	253	253	252
708	255	255	253
709	255	255	252
710	254	253	251
711	252	252	250
712	253	253	251
713	254	254	252
714	254	255	252
715	251	251	249
716	251	250	248
717	254	254	252
718	0	0	0
719	0	0	0
720	0	0	0
721	0	0	0
722	0	0	0
723	253	254	252
724	254	254	252
725	255	255	253
726	253	253	251
727	253	253	251
728	253	252	250
729	252	250	249
730	253	253	251
731	255	255	253
732	254	253	252
733	251	249	249
734	252	251	250
735	254	254	252
736	253	251	250
737	250	247	248
738	252	252	250
739	255	255	252
740	254	254	251
741	253	252	250
742	254	254	252
743	255	255	253
744	254	253	251
745	253	252	251
746	253	253	251
747	254	253	252
748	255	255	253
749	255	255	253
750	255	254	252
751	254	253	251
752	254	254	251
753	255	255	252
754	253	252	250
755	251	249	249
756	253	253	252
757	255	255	253
758	254	255	252
759	0	0	0
760	0	0	0
761	0	0	0
762	0	0	0
763	254	254	252
764	255	255	253
765	255	255	253
766	253	253	252
767	253	252	251
768	253	252	250
769	252	251	250
770	253	253	252
771	255	255	254
772	255	254	253
773	251	249	249
774	253	251	250
775	254	254	252
776	252	250	249
777	252	251	250
778	255	255	254
779	255	255	253
780	253	252	250
781	253	252	251
782	254	254	252
783	254	255	252
784	253	253	251
785	254	254	252
786	254	254	252
787	253	253	251
788	254	254	252
789	254	252	251
790	253	251	251
791	255	254	252
792	255	255	252
793	253	252	250
794	252	249	249
795	253	250	251
796	255	254	253
797	254	253	252
798	252	251	249
799	254	255	252
800	0	0	0
801	0	0	0
802	0	0	0
803	254	254	252
804	255	254	252
805	254	254	253
806	252	252	251
807	252	252	250
808	253	252	251
809	252	251	250
810	254	254	253
811	255	255	253
812	254	253	252
813	251	249	249
814	253	252	251
815	254	254	252
816	254	254	252
817	254	254	252
818	255	254	253
819	254	254	253
820	254	253	252
821	253	253	251
822	253	253	251
823	254	254	252
824	254	254	252
825	254	255	252
826	253	253	251
827	253	252	251
828	252	251	250
829	251	249	249
830	253	251	250
831	255	253	252
832	253	250	250
833	251	247	249
834	253	249	250
835	253	250	251
836	253	250	251
837	252	250	250
838	252	252	251
839	255	255	252
840	253	252	251
841	0	0	0
842	0	0	0
843	253	252	251
844	252	251	251
845	253	253	252
846	252	252	251
847	253	253	251
848	254	254	252
849	254	253	252
850	255	255	254
851	255	255	253
852	250	249	249
853	251	250	249
854	254	254	252
855	255	255	253
856	255	255	253
857	252	252	251
858	252	252	251
859	254	254	252
860	255	254	253
861	253	252	251
862	252	252	250
863	252	254	251
864	253	254	251
865	254	255	252
866	254	254	252
867	254	253	252
868	252	251	251
869	252	251	250
870	253	253	252
871	255	255	254
872	255	253	253
873	253	250	251
874	254	251	253
875	254	251	251
876	253	251	251
877	251	250	250
878	253	253	252
879	254	255	252
880	0	0	0
881	0	0	0
882	254	253	252
883	252	250	250
884	253	252	252
885	254	254	253
886	253	254	252
887	254	255	253
888	255	254	252
889	254	253	252
890	254	253	252
891	253	252	251
892	251	251	250
893	252	252	249
894	255	255	251
895	255	255	253
896	255	254	253
897	252	251	251
898	253	253	251
899	254	254	252
900	254	254	252
901	253	252	251
902	253	253	251
903	253	254	250
904	253	255	250
905	255	255	251
906	255	255	251
907	254	254	252
908	255	254	253
909	254	254	252
910	255	255	253
911	255	255	254
912	255	254	253
913	253	251	251
914	254	251	251
915	253	251	250
916	252	250	249
917	251	250	249
918	253	253	251
919	0	0	0
920	0	0	0
921	254	252	252
922	252	250	250
923	251	247	249
924	252	249	251
925	254	254	253
926	253	253	252
927	254	255	252
928	254	255	252
929	253	252	251
930	253	252	251
931	253	252	251
932	252	252	250
933	252	253	249
934	255	255	251
935	255	255	253
936	253	252	252
937	254	253	252
938	255	254	253
939	253	252	251
940	253	252	250
941	255	254	252
942	255	255	252
943	254	254	251
944	254	254	250
945	254	254	250
946	253	252	250
947	254	253	251
948	255	254	253
949	252	250	250
950	253	251	250
951	255	255	254
952	253	252	251
953	253	251	251
954	254	252	252
955	253	252	250
956	252	252	249
957	253	254	251
958	0	0	0
959	0	0	0
960	0	0	0
961	0	0	0
962	250	246	249
963	248	244	247
964	252	250	251
965	255	254	254
966	254	255	253
967	255	255	251
968	253	253	249
969	252	251	250
970	253	252	251
971	253	253	251
972	254	254	251
973	254	254	251
974	253	253	250
975	253	252	251
976	254	253	252
977	255	254	252
978	254	253	252
979	253	251	251
980	255	253	252
981	255	255	252
982	255	254	252
983	255	254	252
984	254	253	251
985	253	253	251
986	252	252	250
987	253	251	250
988	252	249	249
989	250	247	247
990	253	251	251
991	255	255	254
992	254	253	252
993	253	252	252
994	254	253	252
995	254	254	252
996	255	255	252
997	255	255	252
998	255	255	251
999	0	0	0
1000	0	0	0
1001	0	0	0
1002	0	0	0
1003	252	248	250
1004	255	255	254
1005	255	254	254
1006	255	255	253
1007	254	254	250
1008	251	250	247
1009	253	253	251
1010	254	254	252
1011	255	254	252
1012	255	255	253
1013	254	253	251
1014	251	251	249
1015	253	253	251
1016	254	254	252
1017	255	254	252
1018	255	254	252
1019	253	250	250
1020	254	252	251
1021	253	252	251
1022	252	251	250
1023	254	254	252
1024	254	254	252
1025	255	255	253
1026	253	253	252
1027	253	252	250
1028	252	250	249
1029	252	251	250
1030	255	255	254
1031	255	255	254
1032	254	253	252
1033	252	251	251
1034	252	252	251
1035	254	254	252
1036	255	255	252
1037	255	255	251
1038	253	252	249
1039	0	0	0
1040	0	0	0
1041	0	0	0
1042	0	0	0
1043	254	252	251
1044	255	253	252
1045	254	253	252
1046	253	252	251
1047	252	251	250
1048	253	253	251
1049	255	255	253
1050	255	255	253
1051	255	255	252
1052	255	255	252
1053	253	252	250
1054	254	254	251
1055	254	255	251
1056	254	254	251
1057	254	254	252
1058	253	251	250
1059	250	247	247
1060	250	248	248
1061	250	248	248
1062	252	251	250
1063	254	254	252
1064	255	255	253
1065	255	255	254
1066	255	255	253
1067	254	254	252
1068	255	255	253
1069	255	255	252
1070	255	255	252
1071	255	254	253
1072	253	252	252
1073	251	250	250
1074	253	253	251
1075	254	254	252
1076	254	254	251
1077	254	253	251
1078	0	0	0
1079	0	0	0
1080	0	0	0
1081	0	0	0
1082	0	0	0
1083	254	253	252
1084	254	254	252
1085	253	253	251
1086	252	252	251
1087	252	252	251
1088	254	254	252
1089	254	254	252
1090	253	254	251
1091	254	254	251
1092	254	253	251
1093	253	251	250
1094	254	253	251
1095	255	255	252
1096	254	254	251
1097	254	253	251
1098	252	249	249
1099	254	253	251
1100	253	253	251
1101	252	251	250
1102	255	255	253
1103	255	255	253
1104	255	255	253
1105	253	251	251
1106	252	250	250
1107	255	255	254
1108	255	255	253
1109	252	251	249
1110	252	250	248
1111	255	255	253
1112	253	253	252
1113	254	254	252
1114	255	255	253
1115	253	252	250
1116	252	251	250
1117	254	253	252
1118	0	0	0
1119	0	0	0
1120	0	0	0
1121	0	0	0
1122	0	0	0
1123	255	255	254
1124	254	254	252
1125	252	253	250
1126	253	253	250
1127	252	253	250
1128	253	253	250
1129	253	253	251
1130	253	253	251
1131	254	254	251
1132	254	252	251
1133	253	251	250
1134	254	253	252
1135	255	254	252
1136	254	253	251
1137	253	252	251
1138	255	255	254
1139	255	255	253
1140	255	255	254
1141	253	253	251
1142	255	254	251
1143	255	255	252
1144	253	251	250
1145	249	246	247
1146	252	251	250
1147	255	255	254
1148	253	252	250
1149	250	247	248
1150	253	252	250
1151	255	255	253
1152	254	255	252
1153	255	255	252
1154	254	253	250
1155	252	249	249
1156	252	251	251
1157	0	0	0
1158	0	0	0
1159	0	0	0
1160	0	0	0
1161	0	0	0
1162	0	0	0
1163	255	255	254
1164	254	254	252
1165	251	250	249
1166	252	251	249
1167	254	254	251
1168	254	254	251
1169	255	255	252
1170	255	255	253
1171	254	253	252
1172	253	251	251
1173	253	252	251
1174	255	254	252
1175	254	254	253
1176	253	252	251
1177	252	252	251
1178	255	255	254
1179	255	255	254
1180	254	254	252
1181	253	253	251
1182	255	254	251
1183	255	255	252
1184	252	250	249
1185	250	248	248
1186	254	254	252
1187	254	254	252
1188	252	251	250
1189	252	251	250
1190	254	254	253
1191	254	254	252
1192	253	254	251
1193	253	254	250
1194	252	251	248
1195	252	251	250
1196	0	0	0
1197	0	0	0
1198	0	0	0
1199	0	0	0
1200	0	0	0
1201	0	0	0
1202	0	0	0
1203	0	0	0
1204	252	251	250
1205	250	248	248
1206	254	252	251
1207	255	255	253
1208	255	255	253
1209	255	255	254
1210	254	254	253
1211	253	251	251
1212	254	252	251
1213	254	253	252
1214	253	253	251
1215	253	253	251
1216	253	252	251
1217	252	251	250
1218	254	253	251
1219	255	254	253
1220	254	254	253
1221	253	253	252
1222	254	254	252
1223	255	255	253
1224	253	253	251
1225	252	251	250
1226	252	252	251
1227	253	253	251
1228	254	253	251
1229	254	253	252
1230	253	253	252
1231	253	253	251
1232	253	253	251
1233	253	253	250
1234	253	252	250
1235	0	0	0
1236	0	0	0
1237	0	0	0
1238	0	0	0
1239	0	0	0
1240	0	0	0
1241	0	0	0
1242	0	0	0
1243	0	0	0
1244	0	0	0
1245	253	252	251
1246	255	255	254
1247	253	252	251
1248	254	252	251
1249	255	255	254
1250	253	253	252
1251	251	251	250
1252	253	252	251
1253	255	254	252
1254	254	254	252
1255	254	254	252
1256	253	253	251
1257	252	252	250
1258	254	253	252
1259	253	253	252
1260	253	252	251
1261	253	252	252
1262	254	253	252
1263	254	254	252
1264	252	252	251
1265	252	251	250
1266	253	253	251
1267	253	253	251
1268	253	253	251
1269	255	255	253
1270	255	255	253
1271	253	253	251
1272	254	253	251
1273	253	252	251
1274	251	250	249
1275	0	0	0
1276	0	0	0
1277	0	0	0
1278	0	0	0
1279	0	0	0
1280	0	0	0
1281	0	0	0
1282	0	0	0
1283	0	0	0
1284	0	0	0
1285	255	255	253
1286	252	252	250
1287	249	247	247
1288	254	252	252
1289	255	255	254
1290	253	254	253
1291	252	251	250
1292	254	254	252
1293	255	255	253
1294	255	255	252
1295	254	254	252
1296	253	253	251
1297	252	251	250
1298	252	252	251
1299	252	252	251
1300	253	252	251
1301	252	252	251
1302	253	252	251
1303	253	253	251
1304	253	252	251
1305	252	251	250
1306	253	253	251
1307	254	253	251
1308	255	255	253
1309	255	255	253
1310	254	254	252
1311	253	251	250
1312	253	251	250
1313	253	250	250
1314	254	253	252
1315	0	0	0
1316	0	0	0
1317	0	0	0
1318	0	0	0
1319	0	0	0
1320	0	0	0
1321	0	0	0
1322	0	0	0
1323	0	0	0
1324	0	0	0
1325	254	255	251
1326	252	252	249
1327	251	250	249
1328	255	254	253
1329	255	255	254
1330	253	253	252
1331	254	254	251
1332	254	255	252
1333	253	253	250
1334	253	253	251
1335	254	254	252
1336	253	253	251
1337	253	253	251
1338	253	253	252
1339	253	252	251
1340	254	253	252
1341	253	253	251
1342	252	252	250
1343	254	254	252
1344	254	253	252
1345	254	254	252
1346	255	255	253
1347	254	254	252
1348	255	255	254
1349	253	253	252
1350	251	250	249
1351	254	253	251
1352	254	252	251
1353	251	249	249
1354	0	0	0
1355	0	0	0
1356	0	0	0
1357	0	0	0
1358	0	0	0
1359	0	0	0
1360	0	0	0
1361	0	0	0
1362	0	0	0
1363	0	0	0
1364	0	0	0
1365	254	255	251
1366	254	254	250
1367	253	252	250
1368	253	253	252
1369	254	253	252
1370	254	254	252
1371	254	255	251
1372	252	252	249
1373	251	250	248
1374	253	253	251
1375	254	254	252
1376	254	254	252
1377	254	254	251
1378	252	252	250
1379	252	251	250
1380	254	253	252
1381	254	253	252
1382	254	254	252
1383	255	255	252
1384	255	255	253
1385	255	255	254
1386	255	255	254
1387	255	255	254
1388	253	252	251
1389	251	249	249
1390	253	252	251
1391	255	255	253
1392	252	251	250
1393	249	246	248
1394	252	251	250
1395	0	0	0
1396	0	0	0
1397	0	0	0
1398	0	0	0
1399	0	0	0
1400	0	0	0
1401	0	0	0
1402	0	0	0
1403	0	0	0
1404	0	0	0
1405	254	255	250
1406	254	253	250
1407	252	251	249
1408	252	251	250
1409	254	255	252
1410	254	255	252
1411	253	253	249
1412	252	252	249
1413	253	253	251
1414	255	255	253
1415	253	252	251
1416	252	251	250
1417	254	255	252
1418	252	252	250
1419	253	253	251
1420	255	255	253
1421	253	252	251
1422	253	253	252
1423	253	253	251
1424	254	254	252
1425	255	255	254
1426	254	254	253
1427	252	252	251
1428	251	249	249
1429	253	252	252
1430	255	255	253
1431	254	255	253
1432	251	251	250
1433	252	251	250
1434	255	255	253
1435	254	254	251
1436	0	0	0
1437	0	0	0
1438	0	0	0
1439	0	0	0
1440	0	0	0
1441	0	0	0
1442	0	0	0
1443	0	0	0
1444	0	0	0
1445	0	0	0
1446	253	252	250
1447	251	249	249
1448	254	254	252
1449	255	255	252
1450	253	254	250
1451	252	253	249
1452	255	254	252
1453	255	255	253
1454	253	252	251
1455	250	249	249
1456	253	253	252
1457	255	255	254
1458	254	255	253
1459	254	255	252
1460	253	253	251
1461	252	250	250
1462	253	252	251
1463	253	252	251
1464	254	253	252
1465	254	254	252
1466	251	251	250
1467	250	248	249
1468	253	252	251
1469	255	255	253
1470	255	255	253
1471	255	255	253
1472	255	255	253
1473	255	255	253
1474	255	255	252
1475	254	254	251
1476	0	0	0
1477	0	0	0
1478	0	0	0
1479	0	0	0
1480	0	0	0
1481	0	0	0
1482	0	0	0
1483	0	0	0
1484	0	0	0
1485	0	0	0
1486	0	0	0
1487	252	251	251
1488	255	255	253
1489	254	254	251
1490	251	251	248
1491	255	255	252
1492	255	255	253
1493	254	252	251
1494	251	249	249
1495	252	251	251
1496	255	255	254
1497	253	254	253
1498	253	253	252
1499	254	255	252
1500	254	253	251
1501	253	251	251
1502	254	253	252
1503	254	253	252
1504	254	253	252
1505	254	253	252
1506	252	251	250
1507	253	252	251
1508	255	255	254
1509	255	254	252
1510	254	253	251
1511	254	254	252
1512	255	254	252
1513	254	253	251
1514	253	252	250
1515	254	253	251
1516	0	0	0
1517	0	0	0
1518	0	0	0
1519	0	0	0
1520	0	0	0
1521	0	0	0
1522	0	0	0
1523	0	0	0
1524	0	0	0
1525	0	0	0
1526	0	0	0
1527	254	254	253
1528	254	253	251
1529	252	251	249
1530	253	253	251
1531	255	255	253
1532	255	254	252
1533	252	250	250
1534	253	252	252
1535	254	255	253
1536	254	254	252
1537	252	252	251
1538	254	254	252
1539	255	255	254
1540	255	254	252
1541	253	252	251
1542	254	252	251
1543	254	253	252
1544	253	252	251
1545	253	252	251
1546	254	254	253
1547	255	255	253
1548	254	253	252
1549	253	251	250
1550	253	252	250
1551	254	253	251
1552	253	252	251
1553	252	250	249
1554	253	252	251
1555	254	254	252
1556	0	0	0
1557	0	0	0
1558	0	0	0
1559	0	0	0
1560	0	0	0
1561	0	0	0
1562	0	0	0
1563	0	0	0
1564	0	0	0
1565	0	0	0
1566	0	0	0
1567	254	254	252
1568	253	252	251
1569	252	252	251
1570	254	255	253
1571	255	255	253
1572	253	252	251
1573	252	249	250
1574	254	252	252
1575	255	255	254
1576	255	255	253
1577	253	251	251
1578	254	254	252
1579	254	253	252
1580	252	250	250
1581	253	251	251
1582	253	252	251
1583	254	254	252
1584	254	254	252
1585	254	254	252
1586	255	255	254
1587	252	251	251
1588	251	249	249
1589	253	253	251
1590	254	254	251
1591	254	253	251
1592	253	252	251
1593	253	252	251
1594	255	255	253
1595	253	252	251
1596	0	0	0
1597	0	0	0
1598	0	0	0
1599	0	0	0
1600	0	0	0
1601	0	0	0
1602	0	0	0
1603	0	0	0
1604	0	0	0
1605	0	0	0
1606	0	0	0
1607	254	253	252
1608	253	253	252
1609	253	252	251
1610	254	254	252
1611	255	254	253
1612	253	252	251
1613	251	249	250
1614	254	253	252
1615	255	255	254
1616	255	254	253
1617	252	250	250
1618	252	250	250
1619	251	249	250
1620	252	251	251
1621	253	252	251
1622	254	254	252
1623	255	255	253
1624	255	255	253
1625	255	255	254
1626	253	251	251
1627	249	247	248
1628	252	251	251
1629	255	255	253
1630	254	254	251
1631	253	253	250
1632	254	253	251
1633	255	254	252
1634	254	253	252
1635	0	0	0
1636	0	0	0
1637	0	0	0
1638	0	0	0
1639	0	0	0
1640	0	0	0
1641	0	0	0
1642	0	0	0
1643	0	0	0
1644	0	0	0
1645	0	0	0
1646	0	0	0
1647	254	254	252
1648	254	253	252
1649	254	253	252
1650	255	255	253
1651	253	251	250
1652	250	247	248
1653	253	252	252
1654	255	255	254
1655	255	255	253
1656	253	252	251
1657	255	253	252
1658	255	253	253
1659	252	250	251
1660	253	252	252
1661	253	252	251
1662	254	253	252
1663	255	255	253
1664	255	255	253
1665	254	253	251
1666	250	248	248
1667	252	251	251
1668	255	255	254
1669	255	255	253
1670	254	253	251
1671	254	254	252
1672	255	255	253
1673	0	0	0
1674	0	0	0
1675	0	0	0
1676	0	0	0
1677	0	0	0
1678	0	0	0
1679	0	0	0
1680	0	0	0
1681	0	0	0
1682	0	0	0
1683	0	0	0
1684	0	0	0
1685	0	0	0
1686	0	0	0
1687	0	0	0
1688	253	253	252
1689	254	253	252
1690	253	251	251
1691	250	246	248
1692	252	251	251
1693	255	255	254
1694	254	254	252
1695	253	253	250
1696	254	254	251
1697	255	255	253
1698	254	253	252
1699	251	250	250
1700	253	251	251
1701	253	252	251
1702	254	253	252
1703	255	255	252
1704	254	253	251
1705	252	251	250
1706	253	253	251
1707	255	255	253
1708	255	255	253
1709	254	254	252
1710	255	254	253
1711	255	255	254
1712	253	252	251
1713	0	0	0
1714	0	0	0
1715	0	0	0
1716	0	0	0
1717	0	0	0
1718	0	0	0
1719	0	0	0
1720	0	0	0
1721	0	0	0
1722	0	0	0
1723	0	0	0
1724	0	0	0
1725	0	0	0
1726	0	0	0
1727	0	0	0
1728	0	0	0
1729	254	254	252
1730	253	251	251
1731	251	248	250
1732	254	253	253
1733	255	255	254
1734	254	255	253
1735	252	252	249
1736	253	253	250
1737	254	254	251
1738	251	251	250
1739	252	252	251
1740	255	254	252
1741	255	254	252
1742	255	255	253
1743	255	254	252
1744	253	252	251
1745	252	251	250
1746	253	253	252
1747	255	255	253
1748	255	254	253
1749	253	251	251
1750	0	0	0
1751	255	255	253
1752	0	0	0
1753	0	0	0
1754	0	0	0
1755	0	0	0
1756	0	0	0
1757	0	0	0
1758	0	0	0
1759	0	0	0
1760	0	0	0
1761	0	0	0
1762	0	0	0
1763	0	0	0
1764	0	0	0
1765	0	0	0
1766	0	0	0
1767	0	0	0
1768	0	0	0
1769	255	255	253
1770	254	253	252
1771	252	250	251
1772	254	254	253
1773	255	255	254
1774	254	254	252
1775	252	251	250
1776	254	253	251
1777	254	254	252
1778	254	254	252
1779	255	255	252
1780	255	255	253
1781	255	255	253
1782	255	254	252
1783	254	253	252
1784	253	252	251
1785	252	250	250
1786	253	252	252
1787	255	254	253
1788	254	253	252
1789	252	250	250
1790	0	0	0
1791	0	0	0
1792	0	0	0
1793	0	0	0
1794	0	0	0
1795	0	0	0
1796	0	0	0
1797	0	0	0
1798	0	0	0
1799	0	0	0
1800	0	0	0
1801	0	0	0
1802	0	0	0
1803	0	0	0
1804	0	0	0
1805	0	0	0
1806	0	0	0
1807	0	0	0
1808	0	0	0
1809	252	252	251
1810	251	249	250
1811	252	251	251
1812	254	255	253
1813	255	255	254
1814	253	253	251
1815	254	254	252
1816	255	255	253
1817	252	250	249
1818	252	251	249
1819	255	255	253
1820	255	255	253
1821	253	251	251
1822	252	250	250
1823	254	253	251
1824	253	251	250
1825	254	253	252
1826	255	255	254
1827	254	253	253
1828	253	251	252
1829	252	250	250
1830	0	0	0
1831	0	0	0
1832	0	0	0
1833	0	0	0
1834	0	0	0
1835	0	0	0
1836	0	0	0
1837	0	0	0
1838	0	0	0
1839	0	0	0
1840	0	0	0
1841	0	0	0
1842	0	0	0
1843	0	0	0
1844	0	0	0
1845	0	0	0
1846	0	0	0
1847	0	0	0
1848	0	0	0
1849	250	248	248
1850	252	251	251
1851	253	252	252
1852	253	253	252
1853	253	254	252
1854	254	254	252
1855	255	255	253
1856	253	251	250
1857	249	245	246
1858	252	251	250
1859	255	255	253
1860	252	251	250
1861	249	247	248
1862	251	250	250
1863	253	252	251
1864	253	253	251
1865	255	254	252
1866	253	252	251
1867	252	250	250
1868	253	251	251
1869	0	0	0
1870	0	0	0
1871	0	0	0
1872	0	0	0
1873	0	0	0
1874	0	0	0
1875	0	0	0
1876	0	0	0
1877	0	0	0
1878	0	0	0
1879	0	0	0
1880	0	0	0
1881	0	0	0
1882	0	0	0
1883	0	0	0
1884	0	0	0
1885	0	0	0
1886	0	0	0
1887	0	0	0
1888	0	0	0
1889	253	252	252
1890	255	255	254
1891	252	251	251
1892	252	252	251
1893	253	253	251
1894	253	254	251
1895	255	255	253
1896	253	251	250
1897	251	249	249
1898	255	254	253
1899	254	254	253
1900	250	249	249
1901	251	251	250
1902	0	0	0
1903	0	0	0
1904	0	0	0
1905	0	0	0
1906	0	0	0
1907	253	250	250
1908	0	0	0
1909	0	0	0
1910	0	0	0
1911	0	0	0
1912	0	0	0
1913	0	0	0
1914	0	0	0
1915	0	0	0
1916	0	0	0
1917	0	0	0
1918	0	0	0
1919	0	0	0
1920	0	0	0
1921	0	0	0
1922	0	0	0
1923	0	0	0
1924	0	0	0
1925	0	0	0
1926	0	0	0
1927	0	0	0
1928	0	0	0
1929	255	255	254
1930	254	253	253
1931	251	250	250
1932	252	252	250
1933	252	253	250
1934	254	254	251
1935	255	255	253
1936	255	255	253
1937	254	252	252
1938	254	253	252
1939	253	252	252
1940	253	254	252
1941	255	255	253
1942	0	0	0
1943	0	0	0
1944	0	0	0
1945	0	0	0
1946	0	0	0
1947	0	0	0
1948	0	0	0
1949	0	0	0
1950	0	0	0
1951	0	0	0
1952	0	0	0
1953	0	0	0
1954	0	0	0
1955	0	0	0
1956	0	0	0
1957	0	0	0
1958	0	0	0
1959	0	0	0
1960	0	0	0
1961	0	0	0
1962	0	0	0
1963	0	0	0
1964	0	0	0
1965	0	0	0
1966	0	0	0
1967	0	0	0
1968	0	0	0
1969	255	255	254
1970	253	252	252
1971	253	253	252
1972	254	255	253
1973	253	254	250
1974	254	255	251
1975	254	254	252
1976	253	252	251
1977	252	250	250
1978	253	251	251
1979	255	254	253
1980	255	255	253
1981	254	253	251
1982	0	0	0
1983	0	0	0
1984	0	0	0
1985	0	0	0
1986	0	0	0
1987	0	0	0
1988	0	0	0
1989	0	0	0
1990	0	0	0
1991	0	0	0
1992	0	0	0
1993	0	0	0
1994	0	0	0
1995	0	0	0
1996	0	0	0
1997	0	0	0
1998	0	0	0
1999	0	0	0
2000	0	0	0
2001	0	0	0
2002	0	0	0
2003	0	0	0
2004	0	0	0
2005	0	0	0
2006	0	0	0
2007	0	0	0
2008	0	0	0
2009	254	255	252
2010	255	255	253
2011	255	255	254
2012	254	255	253
2013	253	254	251
2014	252	252	249
2015	252	252	250
2016	252	250	249
2017	251	248	248
2018	253	252	251
2019	255	255	254
2020	255	253	252
2021	252	250	250
2022	0	0	0
2023	0	0	0
2024	0	0	0
2025	0	0	0
2026	0	0	0
2027	0	0	0
2028	0	0	0
2029	0	0	0
2030	0	0	0
2031	0	0	0
2032	0	0	0
2033	0	0	0
2034	0	0	0
2035	0	0	0
2036	0	0	0
2037	0	0	0
2038	0	0	0
2039	0	0	0
2040	0	0	0
2041	0	0	0
2042	0	0	0
2043	0	0	0
2044	0	0	0
2045	0	0	0
2046	0	0	0
2047	0	0	0
2048	0	0	0
2049	253	254	251
2050	254	255	252
2051	253	253	251
2052	252	252	250
2053	253	254	251
2054	253	253	250
2055	253	252	250
2056	252	251	250
2057	253	252	250
2058	255	255	253
2059	255	255	253
2060	255	253	252
2061	252	249	249
2062	0	0	0
2063	0	0	0
2064	0	0	0
2065	0	0	0
2066	0	0	0
2067	0	0	0
2068	0	0	0
2069	0	0	0
2070	0	0	0
2071	0	0	0
2072	0	0	0
2073	0	0	0
2074	0	0	0
2075	0	0	0
2076	0	0	0
2077	0	0	0
2078	0	0	0
2079	0	0	0
2080	0	0	0
2081	0	0	0
2082	0	0	0
2083	0	0	0
2084	0	0	0
2085	0	0	0
2086	0	0	0
2087	0	0	0
2088	0	0	0
2089	0	0	0
2090	252	251	249
2091	251	250	249
2092	253	252	251
2093	255	255	253
2094	254	254	252
2095	253	253	251
2096	255	255	252
2097	255	255	253
2098	255	255	253
2099	255	255	252
2100	253	251	250
2101	250	247	247
2102	0	0	0
2103	0	0	0
2104	0	0	0
2105	0	0	0
2106	0	0	0
2107	0	0	0
2108	0	0	0
2109	0	0	0
2110	0	0	0
2111	0	0	0
2112	0	0	0
2113	0	0	0
2114	0	0	0
2115	0	0	0
2116	0	0	0
2117	0	0	0
2118	0	0	0
2119	0	0	0
2120	0	0	0
2121	0	0	0
2122	0	0	0
2123	0	0	0
2124	0	0	0
2125	0	0	0
2126	0	0	0
2127	0	0	0
2128	0	0	0
2129	0	0	0
2130	0	0	0
2131	254	253	252
2132	255	255	254
2133	254	253	252
2134	252	251	250
2135	251	251	249
2136	0	0	0
2137	255	255	253
2138	255	255	253
2139	254	253	251
2140	251	249	248
2141	252	251	249
2142	0	0	0
2143	0	0	0
2144	0	0	0
2145	0	0	0
2146	0	0	0
2147	0	0	0
2148	0	0	0
2149	0	0	0
2150	0	0	0
2151	0	0	0
2152	0	0	0
2153	0	0	0
2154	0	0	0
2155	0	0	0
2156	0	0	0
2157	0	0	0
2158	0	0	0
2159	0	0	0
2160	0	0	0
2161	0	0	0
2162	0	0	0
2163	0	0	0
2164	0	0	0
2165	0	0	0
2166	0	0	0
2167	0	0	0
2168	0	0	0
2169	0	0	0
2170	0	0	0
2171	0	0	0
2172	0	0	0
2173	0	0	0
2174	251	249	249
2175	0	0	0
2176	0	0	0
2177	255	255	253
2178	255	254	252
2179	253	251	251
2180	254	253	252
2181	0	0	0
2182	0	0	0
2183	0	0	0
2184	0	0	0
2185	0	0	0
2186	0	0	0
2187	0	0	0
2188	0	0	0
2189	0	0	0
2190	0	0	0
2191	0	0	0
2192	0	0	0
2193	0	0	0
2194	0	0	0
2195	0	0	0
2196	0	0	0
2197	0	0	0
2198	0	0	0
2199	0	0	0
2200	0	0	0
2201	0	0	0
2202	0	0	0
2203	0	0	0
2204	0	0	0
2205	0	0	0
2206	0	0	0
2207	0	0	0
2208	0	0	0
2209	0	0	0
2210	0	0	0
2211	0	0	0
2212	0	0	0
2213	0	0	0
2214	0	0	0
2215	0	0	0
2216	0	0	0
2217	0	0	0
2218	254	253	252
2219	0	0	0
2220	0	0	0
2221	0	0	0
2222	0	0	0
2223	0	0	0
2224	0	0	0
2225	0	0	0
2226	0	0	0
2227	0	0	0
2228	0	0	0
2229	0	0	0
2230	0	0	0
2231	0	0	0
2232	0	0	0
2233	0	0	0
2234	0	0	0
2235	0	0	0
2236	0	0	0
2237	0	0	0
2238	0	0	0
2239	0	0	0
2240	0	0	0
