 	R	G	B
1	0	0	0
2	0	0	0
3	0	0	0
4	0	0	0
5	0	0	0
6	0	0	0
7	0	0	0
8	0	0	0
9	0	0	0
10	0	0	0
11	0	0	0
12	0	0	0
13	0	0	0
14	0	0	0
15	0	0	0
16	0	0	0
17	0	0	0
18	0	0	0
19	0	0	0
20	0	0	0
21	0	0	0
22	0	0	0
23	0	0	0
24	0	0	0
25	0	0	0
26	0	0	0
27	0	0	0
28	0	0	0
29	0	0	0
30	0	0	0
31	0	0	0
32	0	0	0
33	255	242	245
34	255	250	249
35	0	0	0
36	0	0	0
37	0	0	0
38	0	0	0
39	0	0	0
40	0	0	0
41	0	0	0
42	0	0	0
43	0	0	0
44	0	0	0
45	0	0	0
46	0	0	0
47	0	0	0
48	0	0	0
49	0	0	0
50	0	0	0
51	0	0	0
52	0	0	0
53	0	0	0
54	0	0	0
55	0	0	0
56	0	0	0
57	0	0	0
58	0	0	0
59	0	0	0
60	0	0	0
61	0	0	0
62	0	0	0
63	0	0	0
64	0	0	0
65	0	0	0
66	0	0	0
67	0	0	0
68	0	0	0
69	0	0	0
70	0	0	0
71	0	0	0
72	0	0	0
73	0	0	0
74	0	0	0
75	0	0	0
76	0	0	0
77	0	0	0
78	0	0	0
79	0	0	0
80	0	0	0
81	0	0	0
82	255	254	246
83	255	254	246
84	255	253	247
85	255	252	249
86	255	246	248
87	255	236	244
88	255	235	242
89	255	230	235
90	0	0	0
91	0	0	0
92	253	223	233
93	255	230	235
94	255	229	235
95	255	228	239
96	255	227	240
97	0	0	0
98	0	0	0
99	0	0	0
100	0	0	0
101	0	0	0
102	0	0	0
103	255	233	248
104	255	232	247
105	255	229	245
106	255	230	246
107	0	0	0
108	0	0	0
109	0	0	0
110	0	0	0
111	0	0	0
112	0	0	0
113	0	0	0
114	0	0	0
115	0	0	0
116	0	0	0
117	0	0	0
118	0	0	0
119	0	0	0
120	0	0	0
121	0	0	0
122	0	0	0
123	0	0	0
124	0	0	0
125	0	0	0
126	0	0	0
127	0	0	0
128	0	0	0
129	0	0	0
130	0	0	0
131	0	0	0
132	0	0	0
133	0	0	0
134	0	0	0
135	255	242	239
136	255	247	243
137	255	235	236
138	255	233	237
139	255	228	236
140	253	220	233
141	255	221	236
142	255	219	235
143	252	214	229
144	247	206	223
145	255	221	236
146	255	229	242
147	255	217	232
148	255	215	232
149	252	209	232
150	252	208	232
151	255	212	234
152	252	207	230
153	250	207	228
154	252	210	232
155	0	0	0
156	255	223	245
157	255	223	246
158	255	221	245
159	254	216	243
160	254	217	244
161	253	217	242
162	0	0	0
163	0	0	0
164	0	0	0
165	0	0	0
166	0	0	0
167	0	0	0
168	0	0	0
169	0	0	0
170	0	0	0
171	0	0	0
172	0	0	0
173	0	0	0
174	0	0	0
175	0	0	0
176	0	0	0
177	0	0	0
178	0	0	0
179	0	0	0
180	0	0	0
181	0	0	0
182	0	0	0
183	0	0	0
184	0	0	0
185	0	0	0
186	255	254	242
187	255	253	243
188	255	249	244
189	255	236	237
190	255	228	235
191	253	217	229
192	253	213	228
193	251	207	226
194	253	208	228
195	255	209	230
196	253	205	228
197	251	201	227
198	255	216	239
199	255	230	247
200	255	217	238
201	255	206	233
202	253	199	232
203	248	192	229
204	253	198	234
205	255	202	236
206	255	203	236
207	255	203	235
208	255	210	241
209	255	218	248
210	255	217	249
211	255	217	249
212	255	211	246
213	253	206	244
214	252	205	243
215	250	205	241
216	0	0	0
217	0	0	0
218	0	0	0
219	0	0	0
220	0	0	0
221	0	0	0
222	0	0	0
223	0	0	0
224	0	0	0
225	0	0	0
226	0	0	0
227	0	0	0
228	0	0	0
229	0	0	0
230	0	0	0
231	0	0	0
232	0	0	0
233	0	0	0
234	0	0	0
235	0	0	0
236	0	0	0
237	0	0	0
238	0	0	0
239	255	241	233
240	255	245	237
241	255	236	234
242	255	226	232
243	251	210	224
244	250	203	224
245	254	204	228
246	254	200	228
247	249	191	222
248	251	192	223
249	255	200	229
250	255	196	228
251	253	191	228
252	255	207	240
253	255	199	234
254	250	186	225
255	255	193	235
256	253	186	233
257	254	188	235
258	255	194	239
259	255	190	237
260	255	190	237
261	254	190	237
262	255	197	243
263	255	197	243
264	255	196	243
265	252	193	242
266	247	186	238
267	252	195	244
268	250	194	243
269	254	203	247
270	255	209	249
271	0	0	0
272	0	0	0
273	0	0	0
274	0	0	0
275	0	0	0
276	0	0	0
277	0	0	0
278	0	0	0
279	0	0	0
280	0	0	0
281	0	0	0
282	0	0	0
283	0	0	0
284	0	0	0
285	0	0	0
286	0	0	0
287	0	0	0
288	0	0	0
289	0	0	0
290	0	0	0
291	0	0	0
292	255	246	238
293	255	233	229
294	255	226	228
295	255	218	226
296	252	202	221
297	245	187	216
298	252	190	224
299	255	192	230
300	253	186	228
301	249	177	223
302	255	186	229
303	255	194	234
304	255	190	233
305	255	185	232
306	255	181	232
307	253	175	230
308	255	179	235
309	255	185	243
310	255	186	243
311	255	187	242
312	255	184	240
313	255	179	239
314	255	181	241
315	255	180	243
316	252	178	242
317	250	176	241
318	245	171	238
319	241	167	235
320	244	174	239
321	248	182	244
322	251	190	247
323	255	198	251
324	253	198	249
325	0	0	0
326	0	0	0
327	0	0	0
328	0	0	0
329	0	0	0
330	0	0	0
331	0	0	0
332	0	0	0
333	0	0	0
334	0	0	0
335	0	0	0
336	0	0	0
337	0	0	0
338	0	0	0
339	0	0	0
340	0	0	0
341	0	0	0
342	255	255	244
343	0	0	0
344	0	0	0
345	255	237	236
346	255	227	231
347	250	204	218
348	252	199	218
349	254	196	221
350	248	180	216
351	252	181	222
352	255	184	230
353	255	177	230
354	253	171	228
355	255	173	230
356	255	182	236
357	255	173	230
358	255	169	228
359	250	158	224
360	248	154	225
361	254	162	234
362	255	165	239
363	254	163	238
364	254	163	238
365	255	169	240
366	255	166	239
367	248	155	234
368	248	156	237
369	255	168	246
370	251	164	244
371	254	172	249
372	249	167	245
373	249	171	246
374	250	176	248
375	255	189	254
376	255	195	255
377	254	194	252
378	251	193	249
379	0	0	0
380	0	0	0
381	0	0	0
382	0	0	0
383	0	0	0
384	0	0	0
385	0	0	0
386	0	0	0
387	0	0	0
388	0	0	0
389	0	0	0
390	0	0	0
391	0	0	0
392	0	0	0
393	0	0	0
394	255	254	245
395	255	253	243
396	255	246	242
397	255	225	228
398	255	224	230
399	255	223	232
400	255	201	222
401	245	180	215
402	251	180	221
403	254	178	224
404	255	180	230
405	255	179	233
406	255	174	234
407	255	168	235
408	255	172	241
409	255	174	241
410	255	162	231
411	254	153	226
412	246	140	220
413	239	129	219
414	247	139	229
415	252	146	234
416	247	140	230
417	243	136	229
418	245	141	232
419	248	147	237
420	239	136	230
421	231	125	227
422	240	138	237
423	245	148	243
424	244	152	243
425	247	159	247
426	247	162	247
427	247	166	247
428	252	177	251
429	255	188	255
430	250	183	249
431	246	181	245
432	0	0	0
433	0	0	0
434	0	0	0
435	0	0	0
436	0	0	0
437	0	0	0
438	0	0	0
439	0	0	0
440	0	0	0
441	0	0	0
442	0	0	0
443	0	0	0
444	0	0	0
445	0	0	0
446	0	0	0
447	255	243	241
448	255	250	246
449	255	231	235
450	253	214	225
451	254	207	223
452	255	207	227
453	255	195	223
454	247	174	215
455	251	172	222
456	255	172	230
457	255	163	230
458	255	165	236
459	253	148	226
460	253	143	227
461	255	143	231
462	255	147	236
463	252	137	228
464	244	125	219
465	255	147	236
466	250	134	230
467	248	129	233
468	255	139	243
469	252	136	239
470	245	129	234
471	251	141	242
472	250	143	244
473	246	142	243
474	235	129	236
475	240	137	244
476	249	150	254
477	248	154	253
478	244	155	249
479	247	162	252
480	249	166	252
481	254	175	255
482	255	186	255
483	255	186	255
484	247	180	247
485	250	191	251
486	0	0	0
487	0	0	0
488	0	0	0
489	0	0	0
490	0	0	0
491	0	0	0
492	0	0	0
493	0	0	0
494	0	0	0
495	0	0	0
496	0	0	0
497	0	0	0
498	0	0	0
499	0	0	0
500	0	0	0
501	255	234	236
502	255	218	228
503	249	201	223
504	254	199	227
505	255	194	226
506	254	182	222
507	251	169	220
508	254	166	224
509	255	163	229
510	255	156	232
511	255	147	232
512	247	132	226
513	238	115	219
514	240	115	222
515	240	112	222
516	236	106	219
517	230	97	213
518	243	116	228
519	255	138	246
520	251	129	242
521	247	123	240
522	247	122	242
523	244	119	240
524	248	129	247
525	252	140	253
526	241	132	245
527	236	130	244
528	234	133	245
529	237	139	248
530	240	145	250
531	238	147	248
532	235	150	246
533	237	157	247
534	241	164	248
535	244	172	250
536	240	171	245
537	236	171	240
538	239	180	243
539	0	0	0
540	0	0	0
541	0	0	0
542	0	0	0
543	0	0	0
544	0	0	0
545	0	0	0
546	0	0	0
547	0	0	0
548	0	0	0
549	0	0	0
550	0	0	0
551	0	0	0
552	0	0	0
553	0	0	0
554	0	0	0
555	255	218	232
556	255	203	226
557	253	189	226
558	255	188	232
559	254	173	226
560	251	160	223
561	252	154	225
562	255	150	229
563	255	144	231
564	255	136	232
565	250	126	231
566	238	109	224
567	241	113	231
568	241	112	233
569	233	103	226
570	229	96	223
571	233	102	229
572	248	122	245
573	246	120	245
574	237	109	238
575	239	113	242
576	237	111	241
577	237	113	244
578	244	124	251
579	243	129	252
580	230	120	242
581	237	138	253
582	233	140	252
583	231	142	249
584	232	145	249
585	236	156	252
586	235	159	250
587	237	169	251
588	235	173	249
589	236	181	250
590	229	177	242
591	234	189	245
592	0	0	0
593	0	0	0
594	0	0	0
595	0	0	0
596	0	0	0
597	0	0	0
598	0	0	0
599	0	0	0
600	0	0	0
601	0	0	0
602	0	0	0
603	0	0	0
604	0	0	0
605	0	0	0
606	255	229	238
607	255	220	233
608	255	213	233
609	255	205	233
610	255	191	231
611	255	177	230
612	255	165	229
613	250	150	225
614	250	143	227
615	250	136	230
616	248	127	229
617	247	120	230
618	243	110	228
619	237	99	225
620	237	102	230
621	238	105	236
622	228	94	229
623	220	84	222
624	224	91	228
625	228	97	233
626	228	96	234
627	224	92	231
628	224	94	233
629	225	97	236
630	224	98	237
631	224	99	238
632	226	106	240
633	224	110	240
634	225	122	243
635	230	139	252
636	222	136	245
637	216	135	240
638	214	141	239
639	217	150	241
640	221	159	241
641	222	167	242
642	219	172	239
643	220	180	240
644	224	189	241
645	0	0	0
646	0	0	0
647	0	0	0
648	0	0	0
649	0	0	0
650	0	0	0
651	0	0	0
652	0	0	0
653	0	0	0
654	0	0	0
655	0	0	0
656	0	0	0
657	0	0	0
658	0	0	0
659	255	232	243
660	255	225	241
661	255	202	230
662	255	197	232
663	253	176	227
664	252	164	227
665	254	157	231
666	252	144	231
667	246	130	228
668	244	122	229
669	251	127	237
670	247	117	235
671	249	118	240
672	241	105	235
673	233	93	230
674	237	97	236
675	240	104	242
676	228	92	234
677	228	95	236
678	232	102	243
679	233	105	245
680	231	102	244
681	226	98	241
682	222	99	241
683	219	99	240
684	219	99	240
685	226	113	248
686	227	118	249
687	228	128	250
688	227	138	252
689	228	150	255
690	219	146	247
691	212	150	243
692	201	150	236
693	212	173	246
694	0	0	0
695	0	0	0
696	0	0	0
697	0	0	0
698	0	0	0
699	0	0	0
700	0	0	0
701	0	0	0
702	0	0	0
703	0	0	0
704	0	0	0
705	0	0	0
706	0	0	0
707	0	0	0
708	0	0	0
709	0	0	0
710	255	246	251
711	255	243	249
712	255	236	247
713	255	229	246
714	255	208	238
715	255	187	233
716	252	169	230
717	245	148	223
718	246	141	227
719	246	133	232
720	237	117	227
721	230	101	222
722	237	106	231
723	241	109	235
724	242	107	237
725	243	107	240
726	230	91	231
727	222	79	226
728	232	90	236
729	236	96	240
730	234	99	242
731	234	102	246
732	233	104	247
733	231	104	248
734	224	99	245
735	216	93	240
736	205	88	234
737	200	87	231
738	211	102	240
739	218	115	246
740	218	124	246
741	216	131	245
742	209	136	241
743	208	145	241
744	201	147	236
745	194	150	231
746	196	168	236
747	0	0	0
748	0	0	0
749	0	0	0
750	0	0	0
751	0	0	0
752	0	0	0
753	0	0	0
754	0	0	0
755	0	0	0
756	0	0	0
757	0	0	0
758	0	0	0
759	0	0	0
760	0	0	0
761	0	0	0
762	0	0	0
763	255	237	246
764	255	237	248
765	255	219	237
766	255	213	237
767	255	200	236
768	254	180	231
769	252	165	233
770	249	148	232
771	247	137	232
772	246	128	234
773	244	124	239
774	227	103	229
775	233	111	239
776	242	116	247
777	231	97	235
778	231	94	235
779	237	102	242
780	224	86	232
781	234	99	244
782	246	110	254
783	237	97	244
784	237	101	247
785	236	102	249
786	233	103	250
787	227	101	248
788	214	92	240
789	212	102	244
790	196	94	234
791	208	117	247
792	222	134	255
793	215	131	249
794	208	134	244
795	205	145	244
796	196	148	237
797	205	175	248
798	0	0	0
799	0	0	0
800	0	0	0
801	0	0	0
802	0	0	0
803	0	0	0
804	0	0	0
805	0	0	0
806	0	0	0
807	0	0	0
808	0	0	0
809	0	0	0
810	0	0	0
811	0	0	0
812	0	0	0
813	0	0	0
814	0	0	0
815	0	0	0
816	255	244	249
817	255	228	242
818	255	214	238
819	252	197	230
820	251	185	230
821	252	174	232
822	248	157	230
823	246	141	231
824	246	132	234
825	242	119	234
826	239	114	236
827	233	107	237
828	229	107	240
829	234	113	248
830	222	94	236
831	209	73	223
832	218	82	230
833	224	89	235
834	227	95	239
835	237	108	250
836	231	97	244
837	220	83	234
838	220	87	237
839	218	88	239
840	212	86	237
841	204	83	233
842	202	93	235
843	200	102	238
844	198	117	242
845	208	137	252
846	209	138	248
847	199	132	238
848	194	142	236
849	192	152	235
850	0	0	0
851	0	0	0
852	0	0	0
853	0	0	0
854	0	0	0
855	0	0	0
856	0	0	0
857	0	0	0
858	0	0	0
859	0	0	0
860	0	0	0
861	0	0	0
862	0	0	0
863	0	0	0
864	0	0	0
865	0	0	0
866	0	0	0
867	0	0	0
868	0	0	0
869	255	242	248
870	255	229	243
871	254	207	235
872	252	194	233
873	253	184	234
874	253	172	235
875	250	157	235
876	246	140	233
877	248	134	238
878	244	121	239
879	237	110	237
880	228	101	235
881	233	111	245
882	235	114	250
883	234	114	252
884	215	90	236
885	220	96	240
886	230	105	248
887	233	108	248
888	238	115	253
889	242	123	255
890	228	107	248
891	216	96	239
892	214	99	242
893	211	104	245
894	203	100	240
895	205	112	244
896	208	123	249
897	209	134	251
898	209	149	255
899	203	151	249
900	196	146	240
901	202	165	246
902	0	0	0
903	0	0	0
904	0	0	0
905	0	0	0
906	0	0	0
907	0	0	0
908	0	0	0
909	0	0	0
910	0	0	0
911	0	0	0
912	0	0	0
913	0	0	0
914	0	0	0
915	0	0	0
916	0	0	0
917	0	0	0
918	0	0	0
919	0	0	0
920	255	252	252
921	255	251	252
922	255	243	252
923	255	231	247
924	255	208	238
925	248	187	231
926	248	176	233
927	250	167	236
928	244	148	233
929	239	130	229
930	238	121	230
931	237	114	235
932	228	101	232
933	218	88	226
934	221	97	235
935	226	106	243
936	225	105	243
937	224	105	244
938	224	109	248
939	230	115	252
940	237	121	255
941	239	122	255
942	239	125	255
943	241	132	255
944	224	116	249
945	209	104	240
946	205	110	243
947	200	113	243
948	200	123	245
949	202	133	248
950	206	145	251
951	205	154	251
952	192	151	240
953	185	152	234
954	0	0	0
955	0	0	0
956	0	0	0
957	0	0	0
958	0	0	0
959	0	0	0
960	0	0	0
961	0	0	0
962	0	0	0
963	0	0	0
964	0	0	0
965	0	0	0
966	0	0	0
967	0	0	0
968	0	0	0
969	0	0	0
970	0	0	0
971	0	0	0
972	0	0	0
973	255	240	248
974	255	241	251
975	255	230	246
976	254	214	240
977	254	205	239
978	246	183	230
979	249	177	235
980	248	166	237
981	253	163	245
982	246	143	240
983	243	133	238
984	239	121	237
985	246	132	251
986	232	116	243
987	229	114	244
988	237	126	254
989	234	124	253
990	229	120	251
991	229	120	252
992	234	127	255
993	233	122	254
994	240	127	255
995	239	128	255
996	236	129	255
997	243	145	255
998	226	131	253
999	213	125	248
1000	201	126	245
1001	195	131	244
1002	197	141	246
1003	199	153	248
1004	200	161	247
1005	200	176	249
1006	0	0	0
1007	0	0	0
1008	0	0	0
1009	0	0	0
1010	0	0	0
1011	0	0	0
1012	0	0	0
1013	0	0	0
1014	0	0	0
1015	0	0	0
1016	0	0	0
1017	0	0	0
1018	0	0	0
1019	0	0	0
1020	0	0	0
1021	0	0	0
1022	0	0	0
1023	0	0	0
1024	0	0	0
1025	0	0	0
1026	0	0	0
1027	253	223	240
1028	245	207	233
1029	243	197	231
1030	239	183	228
1031	239	174	228
1032	240	166	229
1033	242	160	233
1034	244	154	237
1035	247	149	241
1036	243	137	239
1037	238	125	237
1038	244	134	247
1039	248	142	255
1040	239	136	253
1041	236	134	253
1042	237	135	255
1043	232	132	254
1044	225	128	251
1045	222	126	250
1046	216	120	244
1047	212	114	239
1048	216	117	241
1049	214	117	239
1050	219	130	245
1051	225	146	255
1052	211	138	246
1053	196	130	238
1054	180	131	232
1055	174	134	229
1056	183	150	235
1057	188	163	237
1058	0	0	0
1059	0	0	0
1060	0	0	0
1061	0	0	0
1062	0	0	0
1063	0	0	0
1064	0	0	0
1065	0	0	0
1066	0	0	0
1067	0	0	0
1068	0	0	0
1069	0	0	0
1070	0	0	0
1071	0	0	0
1072	0	0	0
1073	0	0	0
1074	0	0	0
1075	0	0	0
1076	0	0	0
1077	0	0	0
1078	0	0	0
1079	0	0	0
1080	0	0	0
1081	0	0	0
1082	247	201	236
1083	254	204	244
1084	249	191	241
1085	250	184	243
1086	250	176	244
1087	250	168	245
1088	250	160	246
1089	250	153	247
1090	245	140	243
1091	250	147	252
1092	253	152	255
1093	248	149	255
1094	241	144	254
1095	236	142	254
1096	233	140	254
1097	227	138	251
1098	217	133	246
1099	216	141	250
1100	204	130	241
1101	206	141	246
1102	203	141	243
1103	203	144	243
1104	212	159	251
1105	210	165	252
1106	192	153	239
1107	183	157	237
1108	167	156	230
1109	0	0	0
1110	0	0	0
1111	0	0	0
1112	0	0	0
1113	0	0	0
1114	0	0	0
1115	0	0	0
1116	0	0	0
1117	0	0	0
1118	0	0	0
1119	0	0	0
1120	0	0	0
1121	0	0	0
1122	0	0	0
1123	0	0	0
1124	0	0	0
1125	0	0	0
1126	0	0	0
1127	0	0	0
1128	0	0	0
1129	0	0	0
1130	0	0	0
1131	0	0	0
1132	0	0	0
1133	0	0	0
1134	0	0	0
1135	0	0	0
1136	0	0	0
1137	252	200	246
1138	249	189	243
1139	249	182	244
1140	249	174	245
1141	249	166	246
1142	250	160	247
1143	248	153	247
1144	255	161	255
1145	255	165	255
1146	250	158	255
1147	242	153	254
1148	235	148	251
1149	230	145	249
1150	222	142	247
1151	214	139	243
1152	210	144	244
1153	208	151	246
1154	205	157	246
1155	205	166	250
1156	200	167	247
1157	197	169	245
1158	198	174	245
1159	196	179	244
1160	0	0	0
1161	0	0	0
1162	0	0	0
1163	0	0	0
1164	0	0	0
1165	0	0	0
1166	0	0	0
1167	0	0	0
1168	0	0	0
1169	0	0	0
1170	0	0	0
1171	0	0	0
1172	0	0	0
1173	0	0	0
1174	0	0	0
1175	0	0	0
1176	0	0	0
1177	0	0	0
1178	0	0	0
1179	0	0	0
1180	0	0	0
1181	0	0	0
1182	0	0	0
1183	0	0	0
1184	0	0	0
1185	0	0	0
1186	0	0	0
1187	0	0	0
1188	0	0	0
1189	0	0	0
1190	0	0	0
1191	0	0	0
1192	253	197	249
1193	254	191	251
1194	254	183	251
1195	251	171	249
1196	251	165	250
1197	249	159	249
1198	255	166	255
1199	251	163	255
1200	235	152	247
1201	235	159	251
1202	228	154	248
1203	225	158	249
1204	212	152	243
1205	207	155	242
1206	204	160	243
1207	209	175	249
1208	208	182	250
1209	208	189	251
1210	202	189	247
1211	0	0	0
1212	0	0	0
1213	0	0	0
1214	0	0	0
1215	0	0	0
1216	0	0	0
1217	0	0	0
1218	0	0	0
1219	0	0	0
1220	0	0	0
1221	0	0	0
1222	0	0	0
1223	0	0	0
1224	0	0	0
1225	0	0	0
1226	0	0	0
1227	0	0	0
1228	0	0	0
1229	0	0	0
1230	0	0	0
1231	0	0	0
1232	0	0	0
1233	0	0	0
1234	0	0	0
1235	0	0	0
1236	0	0	0
1237	0	0	0
1238	0	0	0
1239	0	0	0
1240	0	0	0
1241	0	0	0
1242	0	0	0
1243	0	0	0
1244	0	0	0
1245	254	209	252
1246	251	199	248
1247	252	193	248
1248	249	182	246
1249	245	169	244
1250	246	166	246
1251	241	157	243
1252	240	157	244
1253	231	151	240
1254	222	153	238
1255	221	160	242
1256	220	163	243
1257	216	165	242
1258	207	166	239
1259	202	169	238
1260	210	185	246
1261	0	0	0
1262	0	0	0
1263	0	0	0
1264	0	0	0
1265	0	0	0
1266	0	0	0
1267	0	0	0
1268	0	0	0
1269	0	0	0
1270	0	0	0
1271	0	0	0
1272	0	0	0
1273	0	0	0
1274	0	0	0
1275	0	0	0
1276	0	0	0
1277	0	0	0
1278	0	0	0
1279	0	0	0
1280	0	0	0
1281	0	0	0
1282	0	0	0
1283	0	0	0
1284	0	0	0
1285	0	0	0
1286	0	0	0
1287	0	0	0
1288	0	0	0
1289	0	0	0
1290	0	0	0
1291	0	0	0
1292	0	0	0
1293	0	0	0
1294	0	0	0
1295	0	0	0
1296	0	0	0
1297	0	0	0
1298	0	0	0
1299	255	226	255
1300	255	215	255
1301	254	202	251
1302	250	190	248
1303	249	183	249
1304	249	178	250
1305	245	177	250
1306	233	170	244
1307	226	172	243
1308	219	174	242
1309	0	0	0
1310	0	0	0
1311	0	0	0
1312	0	0	0
1313	0	0	0
1314	0	0	0
1315	0	0	0
1316	0	0	0
1317	0	0	0
1318	0	0	0
1319	0	0	0
1320	0	0	0
1321	0	0	0
1322	0	0	0
1323	0	0	0
1324	0	0	0
1325	0	0	0
1326	0	0	0
1327	0	0	0
1328	0	0	0
1329	0	0	0
1330	0	0	0
1331	0	0	0
1332	0	0	0
1333	0	0	0
1334	0	0	0
1335	0	0	0
1336	0	0	0
1337	0	0	0
1338	0	0	0
1339	0	0	0
1340	0	0	0
1341	0	0	0
1342	0	0	0
1343	0	0	0
1344	0	0	0
1345	0	0	0
1346	0	0	0
1347	0	0	0
1348	0	0	0
1349	0	0	0
1350	0	0	0
1351	0	0	0
1352	0	0	0
1353	255	242	255
1354	255	222	255
1355	252	208	251
1356	252	202	252
1357	248	193	249
1358	250	195	253
1359	243	191	250
1360	233	191	247
1361	225	192	245
1362	0	0	0
1363	0	0	0
1364	0	0	0
1365	0	0	0
1366	0	0	0
1367	0	0	0
1368	0	0	0
1369	0	0	0
1370	0	0	0
1371	0	0	0
1372	0	0	0
1373	0	0	0
1374	0	0	0
1375	0	0	0
1376	0	0	0
1377	0	0	0
1378	0	0	0
1379	0	0	0
1380	0	0	0
1381	0	0	0
1382	0	0	0
1383	0	0	0
1384	0	0	0
1385	0	0	0
1386	0	0	0
1387	0	0	0
1388	0	0	0
1389	0	0	0
1390	0	0	0
1391	0	0	0
1392	0	0	0
1393	0	0	0
1394	0	0	0
1395	0	0	0
1396	0	0	0
1397	0	0	0
1398	0	0	0
1399	0	0	0
1400	0	0	0
1401	0	0	0
1402	0	0	0
1403	0	0	0
1404	0	0	0
1405	0	0	0
1406	0	0	0
1407	255	248	255
1408	255	229	255
1409	251	216	251
1410	249	208	250
1411	245	203	248
1412	241	201	247
1413	0	0	0
1414	0	0	0
1415	0	0	0
1416	0	0	0
1417	0	0	0
1418	0	0	0
1419	0	0	0
1420	0	0	0
1421	0	0	0
1422	0	0	0
1423	0	0	0
1424	0	0	0
1425	0	0	0
1426	0	0	0
1427	0	0	0
1428	0	0	0
1429	0	0	0
1430	0	0	0
1431	0	0	0
1432	0	0	0
1433	0	0	0
1434	0	0	0
1435	0	0	0
1436	0	0	0
1437	0	0	0
1438	0	0	0
1439	0	0	0
1440	0	0	0
1441	0	0	0
1442	0	0	0
1443	0	0	0
1444	0	0	0
1445	0	0	0
1446	0	0	0
1447	0	0	0
1448	0	0	0
1449	0	0	0
1450	0	0	0
1451	0	0	0
1452	0	0	0
1453	0	0	0
1454	0	0	0
1455	0	0	0
1456	0	0	0
1457	0	0	0
1458	0	0	0
1459	0	0	0
1460	0	0	0
1461	0	0	0
1462	255	237	255
1463	250	224	250
1464	249	221	251
1465	0	0	0
1466	0	0	0
1467	0	0	0
1468	0	0	0
1469	0	0	0
1470	0	0	0
1471	0	0	0
1472	0	0	0
1473	0	0	0
1474	0	0	0
1475	0	0	0
1476	0	0	0
1477	0	0	0
1478	0	0	0
1479	0	0	0
1480	0	0	0
1481	0	0	0
1482	0	0	0
1483	0	0	0
1484	0	0	0
1485	0	0	0
1486	0	0	0
1487	0	0	0
1488	0	0	0
1489	0	0	0
1490	0	0	0
1491	0	0	0
1492	0	0	0
1493	0	0	0
1494	0	0	0
1495	0	0	0
1496	0	0	0
1497	0	0	0
1498	0	0	0
1499	0	0	0
1500	0	0	0
1501	0	0	0
1502	0	0	0
1503	0	0	0
1504	0	0	0
1505	0	0	0
1506	0	0	0
1507	0	0	0
1508	0	0	0
1509	0	0	0
1510	0	0	0
1511	0	0	0
1512	0	0	0
