 	R	G	B
1	0	0	0
2	0	0	0
3	0	0	0
4	0	0	0
5	0	0	0
6	0	0	0
7	0	0	0
8	0	0	0
9	0	0	0
10	0	0	0
11	0	0	0
12	255	217	235
13	251	209	230
14	253	210	231
15	254	208	231
16	0	0	0
17	0	0	0
18	0	0	0
19	0	0	0
20	0	0	0
21	0	0	0
22	0	0	0
23	0	0	0
24	0	0	0
25	0	0	0
26	0	0	0
27	0	0	0
28	0	0	0
29	0	0	0
30	0	0	0
31	0	0	0
32	0	0	0
33	0	0	0
34	0	0	0
35	0	0	0
36	0	0	0
37	0	0	0
38	0	0	0
39	0	0	0
40	0	0	0
41	0	0	0
42	0	0	0
43	0	0	0
44	252	215	232
45	250	209	231
46	246	201	226
47	248	201	227
48	249	200	227
49	251	201	229
50	0	0	0
51	252	207	233
52	0	0	0
53	0	0	0
54	0	0	0
55	0	0	0
56	0	0	0
57	0	0	0
58	0	0	0
59	0	0	0
60	0	0	0
61	0	0	0
62	0	0	0
63	0	0	0
64	0	0	0
65	0	0	0
66	0	0	0
67	0	0	0
68	0	0	0
69	0	0	0
70	0	0	0
71	0	0	0
72	0	0	0
73	0	0	0
74	0	0	0
75	0	0	0
76	250	216	228
77	255	221	236
78	254	215	235
79	253	211	233
80	255	212	234
81	255	208	233
82	255	208	235
83	246	194	227
84	253	205	234
85	253	208	232
86	255	218	234
87	254	216	225
88	0	0	0
89	0	0	0
90	0	0	0
91	0	0	0
92	0	0	0
93	0	0	0
94	0	0	0
95	0	0	0
96	0	0	0
97	0	0	0
98	0	0	0
99	0	0	0
100	0	0	0
101	0	0	0
102	0	0	0
103	0	0	0
104	0	0	0
105	0	0	0
106	0	0	0
107	0	0	0
108	0	0	0
109	0	0	0
110	255	228	240
111	255	222	237
112	255	217	234
113	255	214	233
114	255	210	233
115	250	201	228
116	241	187	222
117	248	197	229
118	248	200	227
119	250	204	225
120	247	203	219
121	248	209	219
122	0	0	0
123	0	0	0
124	0	0	0
125	0	0	0
126	0	0	0
127	0	0	0
128	0	0	0
129	0	0	0
130	0	0	0
131	0	0	0
132	0	0	0
133	0	0	0
134	0	0	0
135	0	0	0
136	0	0	0
137	0	0	0
138	0	0	0
139	0	0	0
140	0	0	0
141	0	0	0
142	0	0	0
143	0	0	0
144	249	213	228
145	255	222	235
146	255	219	234
147	254	211	231
148	249	201	227
149	250	202	230
150	255	212	238
151	255	208	232
152	255	213	232
153	249	204	222
154	0	0	0
155	0	0	0
156	0	0	0
157	0	0	0
158	0	0	0
159	0	0	0
160	0	0	0
161	0	0	0
162	0	0	0
163	0	0	0
164	0	0	0
165	0	0	0
166	0	0	0
167	0	0	0
168	0	0	0
169	255	221	238
170	255	223	239
171	255	219	236
172	253	214	231
173	255	221	234
174	0	0	0
175	0	0	0
176	0	0	0
177	0	0	0
178	255	230	239
179	255	219	232
180	253	211	229
181	255	213	232
182	255	213	234
183	255	214	235
184	255	210	230
185	252	206	225
186	245	198	217
187	0	0	0
188	0	0	0
189	0	0	0
190	0	0	0
191	0	0	0
192	0	0	0
193	0	0	0
194	0	0	0
195	0	0	0
196	0	0	0
197	0	0	0
198	0	0	0
199	0	0	0
200	0	0	0
201	255	222	239
202	255	225	242
203	255	216	235
204	254	213	233
205	250	206	228
206	255	213	231
207	255	216	230
208	0	0	0
209	0	0	0
210	255	220	232
211	255	226	235
212	252	213	227
213	255	218	232
214	255	219	234
215	255	215	233
216	255	216	233
217	252	207	226
218	250	204	222
219	0	0	0
220	0	0	0
221	0	0	0
222	0	0	0
223	0	0	0
224	0	0	0
225	0	0	0
226	0	0	0
227	0	0	0
228	0	0	0
229	0	0	0
230	0	0	0
231	0	0	0
232	0	0	0
233	255	220	236
234	255	225	239
235	255	215	233
236	251	207	228
237	251	205	228
238	247	199	225
239	251	204	229
240	251	207	228
241	0	0	0
242	0	0	0
243	255	218	230
244	255	224	236
245	255	225	237
246	255	229	238
247	255	224	236
248	255	220	235
249	255	215	232
250	252	207	225
251	255	216	229
252	255	223	230
253	0	0	0
254	0	0	0
255	0	0	0
256	0	0	0
257	0	0	0
258	0	0	0
259	0	0	0
260	0	0	0
261	0	0	0
262	0	0	0
263	0	0	0
264	0	0	0
265	0	0	0
266	0	0	0
267	255	219	236
268	253	210	230
269	252	206	229
270	253	204	230
271	250	200	229
272	253	205	232
273	253	207	232
274	0	0	0
275	0	0	0
276	255	219	231
277	255	225	236
278	255	225	235
279	255	222	232
280	255	218	229
281	255	216	230
282	255	211	227
283	251	205	222
284	255	215	227
285	255	222	227
286	0	0	0
287	0	0	0
288	0	0	0
289	0	0	0
290	0	0	0
291	0	0	0
292	0	0	0
293	0	0	0
294	0	0	0
295	0	0	0
296	0	0	0
297	0	0	0
298	0	0	0
299	0	0	0
300	0	0	0
301	254	209	233
302	253	205	232
303	255	205	233
304	252	200	230
305	253	204	232
306	253	206	233
307	255	212	235
308	255	220	237
309	255	222	235
310	255	226	234
311	255	221	229
312	255	219	228
313	255	217	227
314	255	216	228
315	255	213	227
316	254	208	224
317	255	217	228
318	255	224	226
319	0	0	0
320	0	0	0
321	0	0	0
322	0	0	0
323	255	211	218
324	255	214	217
325	255	219	220
326	0	0	0
327	0	0	0
328	0	0	0
329	0	0	0
330	0	0	0
331	0	0	0
332	0	0	0
333	255	216	242
334	255	213	239
335	250	198	229
336	251	197	229
337	249	195	227
338	250	199	229
339	255	210	235
340	255	216	237
341	255	219	237
342	255	221	235
343	255	220	229
344	255	216	225
345	255	216	226
346	255	214	225
347	255	209	223
348	254	206	221
349	254	205	222
350	255	215	226
351	255	215	220
352	255	201	210
353	248	190	206
354	255	198	215
355	253	196	213
356	255	202	216
357	254	204	213
358	253	208	215
359	249	208	216
360	0	0	0
361	0	0	0
362	0	0	0
363	0	0	0
364	0	0	0
365	255	219	244
366	255	216	242
367	254	205	234
368	245	190	224
369	248	192	226
370	245	189	223
371	252	201	229
372	255	211	233
373	255	212	230
374	255	215	229
375	253	212	225
376	253	213	224
377	255	212	224
378	255	212	224
379	254	208	222
380	253	204	220
381	255	206	223
382	255	205	221
383	255	209	223
384	255	210	220
385	255	200	214
386	254	189	211
387	255	193	217
388	254	190	215
389	255	194	216
390	253	195	213
391	250	196	211
392	244	195	210
393	0	0	0
394	0	0	0
395	0	0	0
396	0	0	0
397	255	223	244
398	255	224	246
399	252	205	235
400	248	195	229
401	247	192	227
402	249	194	228
403	251	198	229
404	255	209	234
405	255	211	233
406	255	213	230
407	255	218	230
408	255	216	227
409	255	218	228
410	255	218	229
411	254	207	222
412	254	204	220
413	255	209	224
414	255	212	227
415	255	197	217
416	255	202	220
417	255	193	213
418	255	183	208
419	252	177	208
420	255	180	214
421	253	179	212
422	253	182	212
423	255	190	213
424	251	191	210
425	251	198	214
426	0	0	0
427	0	0	0
428	0	0	0
429	0	0	0
430	255	224	243
431	251	210	236
432	243	192	226
433	250	197	232
434	250	194	231
435	254	201	234
436	254	204	233
437	253	206	230
438	253	209	231
439	255	214	231
440	255	219	232
441	255	219	229
442	255	221	230
443	255	212	225
444	254	203	220
445	255	211	227
446	255	217	229
447	255	207	224
448	255	194	219
449	255	192	220
450	255	184	215
451	255	180	214
452	255	173	212
453	255	175	214
454	255	173	212
455	255	182	215
456	255	189	215
457	255	199	217
458	255	206	220
459	255	220	225
460	0	0	0
461	0	0	0
462	0	0	0
463	255	232	247
464	255	218	242
465	245	195	231
466	252	200	237
467	244	188	228
468	248	194	230
469	255	210	236
470	253	211	232
471	255	220	237
472	255	225	239
473	255	220	233
474	255	220	231
475	255	217	228
476	255	209	223
477	255	200	220
478	255	211	229
479	255	194	219
480	255	187	217
481	250	163	207
482	254	162	210
483	252	155	207
484	252	151	206
485	245	140	200
486	245	142	201
487	254	158	209
488	255	167	212
489	251	166	206
490	252	175	207
491	252	184	209
492	254	196	212
493	255	214	217
494	0	0	0
495	0	0	0
496	0	0	0
497	248	213	238
498	238	190	229
499	242	190	233
500	235	178	224
501	252	201	238
502	255	216	241
503	255	222	240
504	255	231	242
505	255	224	236
506	255	219	232
507	255	215	228
508	255	213	226
509	255	205	221
510	255	197	217
511	255	186	215
512	254	174	213
513	249	157	210
514	239	135	201
515	245	134	206
516	243	128	203
517	242	123	202
518	235	112	196
519	248	133	209
520	255	148	214
521	253	149	211
522	248	149	208
523	251	161	211
524	249	168	209
525	253	185	213
526	255	202	216
527	255	220	223
528	0	0	0
529	0	0	0
530	0	0	0
531	242	203	236
532	248	204	242
533	246	198	237
534	255	221	251
535	254	209	236
536	255	216	236
537	255	225	239
538	255	218	232
539	255	215	231
540	255	212	228
541	255	215	229
542	255	208	226
543	255	188	216
544	255	180	217
545	255	164	218
546	253	149	217
547	242	124	207
548	247	124	212
549	252	126	216
550	251	121	215
551	242	108	205
552	254	129	217
553	255	137	217
554	253	138	213
555	250	140	213
556	253	152	217
557	250	159	213
558	254	175	216
559	255	191	217
560	255	208	222
561	255	222	228
562	0	0	0
563	0	0	0
564	0	0	0
565	252	217	245
566	251	211	240
567	253	210	239
568	245	199	227
569	252	210	232
570	255	221	237
571	254	213	231
572	255	212	231
573	255	211	231
574	255	215	231
575	255	196	222
576	255	178	216
577	255	165	218
578	253	150	218
579	246	130	213
580	236	106	205
581	246	113	216
582	250	114	218
583	247	108	214
584	236	94	202
585	246	111	211
586	250	120	213
587	252	126	215
588	250	129	213
589	253	141	218
590	250	149	216
591	255	167	221
592	255	182	222
593	255	192	221
594	0	0	0
595	0	0	0
596	0	0	0
597	0	0	0
598	255	230	249
599	253	217	241
600	255	216	240
601	248	206	231
602	255	218	238
603	255	220	239
604	254	213	233
605	255	217	238
606	255	218	238
607	255	210	234
608	255	193	227
609	247	158	214
610	249	147	217
611	247	134	217
612	240	113	211
613	245	113	218
614	255	120	228
615	249	108	220
616	243	101	214
617	233	90	205
618	244	107	215
619	247	112	216
620	253	120	219
621	246	114	212
622	248	126	216
623	253	142	221
624	255	160	227
625	252	163	221
626	250	172	219
627	252	186	221
628	0	0	0
629	0	0	0
630	0	0	0
631	255	236	250
632	255	223	242
633	254	218	240
634	248	208	232
635	251	211	234
636	253	214	236
637	253	212	235
638	255	217	239
639	255	203	231
640	255	197	230
641	243	162	215
642	229	129	204
643	234	123	211
644	233	110	210
645	242	113	219
646	247	112	223
647	249	107	222
648	242	96	215
649	237	91	212
650	229	81	205
651	235	92	212
652	237	96	212
653	238	97	210
654	231	91	202
655	241	111	212
656	246	127	217
657	240	130	213
658	235	134	210
659	237	148	213
660	238	160	212
661	0	0	0
662	0	0	0
663	0	0	0
664	0	0	0
665	251	220	239
666	250	216	237
667	250	214	235
668	252	217	237
669	0	0	0
670	0	0	0
671	255	228	246
672	255	215	239
673	255	202	238
674	248	168	225
675	243	148	224
676	246	141	230
677	239	121	224
678	249	124	233
679	246	111	226
680	250	107	225
681	245	96	219
682	240	92	217
683	238	90	216
684	244	101	223
685	236	93	215
686	232	91	211
687	238	103	216
688	253	126	228
689	252	132	225
690	245	134	221
691	252	155	231
692	254	168	235
693	247	172	227
694	0	0	0
695	0	0	0
696	0	0	0
697	0	0	0
698	0	0	0
699	0	0	0
700	0	0	0
701	0	0	0
702	0	0	0
703	0	0	0
704	255	234	246
705	255	213	236
706	255	201	238
707	255	181	236
708	251	160	235
709	248	144	235
710	240	124	229
711	241	115	229
712	237	101	222
713	242	99	223
714	238	89	216
715	239	91	217
716	236	89	214
717	233	87	213
718	226	80	208
719	235	97	219
720	242	109	225
721	248	121	228
722	246	126	223
723	248	141	227
724	253	160	235
725	244	162	229
726	0	0	0
727	0	0	0
728	0	0	0
729	0	0	0
730	0	0	0
731	0	0	0
732	0	0	0
733	0	0	0
734	0	0	0
735	0	0	0
736	0	0	0
737	255	233	245
738	255	212	237
739	255	197	239
740	255	176	237
741	244	149	229
742	240	133	228
743	249	136	239
744	247	126	237
745	235	103	225
746	238	100	225
747	237	95	221
748	240	99	223
749	232	88	214
750	228	86	213
751	232	93	219
752	247	113	233
753	244	111	229
754	246	120	229
755	248	133	229
756	248	148	231
757	251	168	238
758	0	0	0
759	0	0	0
760	0	0	0
761	0	0	0
762	0	0	0
763	0	0	0
764	0	0	0
765	0	0	0
766	0	0	0
767	0	0	0
768	0	0	0
769	0	0	0
770	255	230	246
771	251	204	236
772	251	189	238
773	243	162	231
774	231	133	219
775	242	138	232
776	250	141	241
777	239	120	231
778	227	98	220
779	236	102	226
780	236	98	224
781	235	94	222
782	226	84	214
783	229	93	220
784	232	98	222
785	235	103	224
786	230	100	219
787	236	117	225
788	237	130	226
789	238	148	229
790	0	0	0
791	0	0	0
792	0	0	0
793	0	0	0
794	0	0	0
795	0	0	0
796	0	0	0
797	0	0	0
798	0	0	0
799	0	0	0
800	0	0	0
801	0	0	0
802	0	0	0
803	255	240	254
804	255	215	245
805	255	200	246
806	247	172	238
807	245	157	235
808	255	162	247
809	253	150	244
810	241	129	234
811	239	118	232
812	251	124	242
813	245	110	233
814	242	105	231
815	233	95	223
816	234	103	227
817	236	112	229
818	234	114	227
819	229	115	224
820	0	0	0
821	0	0	0
822	0	0	0
823	0	0	0
824	0	0	0
825	0	0	0
826	0	0	0
827	0	0	0
828	0	0	0
829	0	0	0
830	0	0	0
831	0	0	0
832	0	0	0
833	0	0	0
834	0	0	0
835	0	0	0
836	0	0	0
837	253	219	243
838	250	201	242
839	248	185	240
840	247	171	240
841	249	163	241
842	246	150	238
843	245	142	239
844	244	132	238
845	247	126	238
846	241	111	231
847	242	110	232
848	233	99	223
849	239	115	231
850	240	123	232
851	240	131	233
852	233	131	229
853	0	0	0
854	0	0	0
855	0	0	0
856	0	0	0
857	0	0	0
858	0	0	0
859	0	0	0
860	0	0	0
861	0	0	0
862	0	0	0
863	0	0	0
864	0	0	0
865	0	0	0
866	0	0	0
867	0	0	0
868	0	0	0
869	0	0	0
870	0	0	0
871	0	0	0
872	0	0	0
873	252	195	247
874	255	186	250
875	251	167	245
876	254	162	248
877	242	138	238
878	239	128	235
879	243	128	238
880	251	130	241
881	246	122	234
882	252	137	241
883	244	133	233
884	244	140	235
885	237	143	231
886	0	0	0
887	0	0	0
888	0	0	0
889	0	0	0
890	0	0	0
891	0	0	0
892	0	0	0
893	0	0	0
894	0	0	0
895	0	0	0
896	0	0	0
897	0	0	0
898	0	0	0
899	0	0	0
900	0	0	0
901	0	0	0
902	0	0	0
903	0	0	0
904	0	0	0
905	0	0	0
906	255	217	253
907	253	197	247
908	249	179	245
909	243	160	242
910	232	137	232
911	239	142	240
912	244	142	241
913	254	145	245
914	249	137	236
915	249	142	237
916	242	138	231
917	246	152	237
918	0	0	0
919	0	0	0
920	0	0	0
921	0	0	0
922	0	0	0
923	0	0	0
924	0	0	0
925	0	0	0
926	0	0	0
927	0	0	0
928	0	0	0
929	0	0	0
930	0	0	0
931	0	0	0
932	0	0	0
933	0	0	0
934	0	0	0
935	0	0	0
936	0	0	0
937	0	0	0
938	0	0	0
939	0	0	0
940	250	207	246
941	252	199	250
942	240	177	244
943	237	165	243
944	250	172	254
945	245	157	244
946	253	159	247
947	243	145	234
948	244	150	236
949	238	147	232
950	0	0	0
951	0	0	0
952	0	0	0
953	0	0	0
954	0	0	0
955	0	0	0
956	0	0	0
957	0	0	0
958	0	0	0
959	0	0	0
960	0	0	0
961	0	0	0
962	0	0	0
963	0	0	0
964	0	0	0
965	0	0	0
966	0	0	0
967	0	0	0
968	0	0	0
969	0	0	0
970	0	0	0
971	0	0	0
972	0	0	0
973	0	0	0
974	255	221	255
975	247	205	251
976	244	191	250
977	245	182	250
978	240	167	241
979	244	163	242
980	236	150	233
981	240	159	239
982	0	0	0
983	0	0	0
984	0	0	0
985	0	0	0
986	0	0	0
987	0	0	0
988	0	0	0
989	0	0	0
990	0	0	0
