 	R	G	B
1	0	0	0
2	0	0	0
3	0	0	0
4	0	0	0
5	0	0	0
6	0	0	0
7	0	0	0
8	0	0	0
9	0	0	0
10	0	0	0
11	0	0	0
12	0	0	0
13	0	0	0
14	0	0	0
15	0	0	0
16	0	0	0
17	0	0	0
18	0	0	0
19	0	0	0
20	0	0	0
21	0	0	0
22	255	236	238
23	0	0	0
24	0	0	0
25	0	0	0
26	0	0	0
27	0	0	0
28	0	0	0
29	0	0	0
30	0	0	0
31	0	0	0
32	0	0	0
33	0	0	0
34	0	0	0
35	0	0	0
36	0	0	0
37	0	0	0
38	0	0	0
39	0	0	0
40	0	0	0
41	0	0	0
42	0	0	0
43	0	0	0
44	0	0	0
45	0	0	0
46	0	0	0
47	0	0	0
48	255	250	244
49	255	233	237
50	249	202	222
51	0	0	0
52	0	0	0
53	0	0	0
54	0	0	0
55	0	0	0
56	0	0	0
57	0	0	0
58	0	0	0
59	0	0	0
60	0	0	0
61	0	0	0
62	0	0	0
63	0	0	0
64	0	0	0
65	0	0	0
66	0	0	0
67	0	0	0
68	0	0	0
69	0	0	0
70	0	0	0
71	0	0	0
72	0	0	0
73	0	0	0
74	255	251	244
75	255	248	245
76	255	217	231
77	244	187	218
78	253	190	230
79	0	0	0
80	0	0	0
81	0	0	0
82	0	0	0
83	0	0	0
84	0	0	0
85	0	0	0
86	0	0	0
87	0	0	0
88	0	0	0
89	0	0	0
90	0	0	0
91	0	0	0
92	0	0	0
93	0	0	0
94	0	0	0
95	0	0	0
96	0	0	0
97	0	0	0
98	0	0	0
99	0	0	0
100	255	253	244
101	255	248	244
102	255	224	233
103	246	194	220
104	245	181	220
105	252	183	231
106	244	169	226
107	0	0	0
108	0	0	0
109	0	0	0
110	0	0	0
111	0	0	0
112	0	0	0
113	0	0	0
114	0	0	0
115	0	0	0
116	0	0	0
117	0	0	0
118	0	0	0
119	0	0	0
120	0	0	0
121	0	0	0
122	0	0	0
123	0	0	0
124	0	0	0
125	0	0	0
126	0	0	0
127	255	251	244
128	255	225	232
129	250	202	223
130	252	193	226
131	250	179	226
132	248	172	227
133	237	155	220
134	0	0	0
135	0	0	0
136	0	0	0
137	0	0	0
138	0	0	0
139	0	0	0
140	0	0	0
141	0	0	0
142	0	0	0
143	0	0	0
144	0	0	0
145	0	0	0
146	0	0	0
147	0	0	0
148	0	0	0
149	0	0	0
150	0	0	0
151	0	0	0
152	0	0	0
153	0	0	0
154	255	242	243
155	255	217	231
156	244	185	218
157	246	176	222
158	247	170	225
159	243	160	223
160	236	153	220
161	0	0	0
162	0	0	0
163	0	0	0
164	0	0	0
165	0	0	0
166	0	0	0
167	0	0	0
168	0	0	0
169	0	0	0
170	0	0	0
171	0	0	0
172	0	0	0
173	0	0	0
174	0	0	0
175	0	0	0
176	0	0	0
177	0	0	0
178	0	0	0
179	0	0	0
180	255	238	240
181	255	233	239
182	253	201	225
183	239	168	214
184	246	169	224
185	245	161	225
186	245	161	228
187	236	152	221
188	0	0	0
189	0	0	0
190	0	0	0
191	0	0	0
192	0	0	0
193	0	0	0
194	0	0	0
195	0	0	0
196	0	0	0
197	0	0	0
198	0	0	0
199	0	0	0
200	0	0	0
201	0	0	0
202	0	0	0
203	0	0	0
204	0	0	0
205	0	0	0
206	255	243	242
207	255	235	242
208	255	210	229
209	244	178	216
210	240	163	217
211	245	161	225
212	247	162	230
213	246	160	230
214	241	160	226
215	0	0	0
216	0	0	0
217	0	0	0
218	0	0	0
219	0	0	0
220	0	0	0
221	0	0	0
222	0	0	0
223	0	0	0
224	0	0	0
225	0	0	0
226	0	0	0
227	0	0	0
228	0	0	0
229	0	0	0
230	0	0	0
231	0	0	0
232	255	242	239
233	255	238	240
234	255	213	230
235	249	189	223
236	248	175	223
237	243	159	221
238	250	164	231
239	249	162	232
240	252	169	236
241	246	167	232
242	0	0	0
243	0	0	0
244	0	0	0
245	0	0	0
246	0	0	0
247	0	0	0
248	0	0	0
249	0	0	0
250	0	0	0
251	0	0	0
252	0	0	0
253	0	0	0
254	0	0	0
255	0	0	0
256	0	0	0
257	0	0	0
258	255	248	242
259	255	244	243
260	255	217	230
261	250	192	221
262	246	175	220
263	243	161	220
264	247	161	226
265	253	164	233
266	245	155	228
267	247	161	230
268	249	172	233
269	0	0	0
270	0	0	0
271	0	0	0
272	0	0	0
273	0	0	0
274	0	0	0
275	0	0	0
276	0	0	0
277	0	0	0
278	0	0	0
279	0	0	0
280	0	0	0
281	0	0	0
282	0	0	0
283	0	0	0
284	0	0	0
285	255	249	243
286	255	221	231
287	251	196	222
288	249	181	221
289	244	163	218
290	252	167	228
291	253	164	231
292	252	161	232
293	244	151	226
294	252	169	236
295	252	178	234
296	0	0	0
297	0	0	0
298	0	0	0
299	0	0	0
300	0	0	0
301	0	0	0
302	0	0	0
303	0	0	0
304	0	0	0
305	0	0	0
306	0	0	0
307	0	0	0
308	0	0	0
309	0	0	0
310	0	0	0
311	0	0	0
312	255	233	235
313	255	206	224
314	246	180	218
315	244	164	218
316	246	159	221
317	252	161	229
318	249	154	227
319	246	150	226
320	246	154	228
321	253	170	236
322	249	175	230
323	0	0	0
324	0	0	0
325	0	0	0
326	0	0	0
327	0	0	0
328	0	0	0
329	0	0	0
330	0	0	0
331	0	0	0
332	0	0	0
333	0	0	0
334	0	0	0
335	0	0	0
336	0	0	0
337	0	0	0
338	255	222	227
339	255	217	227
340	250	188	217
341	241	163	213
342	247	161	222
343	247	155	224
344	250	154	228
345	246	146	226
346	253	157	234
347	251	159	231
348	253	170	234
349	248	175	232
350	0	0	0
351	0	0	0
352	0	0	0
353	0	0	0
354	0	0	0
355	0	0	0
356	0	0	0
357	0	0	0
358	0	0	0
359	0	0	0
360	0	0	0
361	0	0	0
362	0	0	0
363	0	0	0
364	255	229	232
365	255	220	230
366	255	198	222
367	243	169	213
368	243	159	219
369	248	156	226
370	255	161	232
371	255	158	234
372	243	140	224
373	250	150	230
374	248	154	227
375	249	164	230
376	245	173	229
377	0	0	0
378	0	0	0
379	0	0	0
380	0	0	0
381	0	0	0
382	0	0	0
383	0	0	0
384	0	0	0
385	0	0	0
386	0	0	0
387	0	0	0
388	0	0	0
389	0	0	0
390	255	234	235
391	255	223	230
392	255	200	222
393	249	179	219
394	248	168	223
395	247	157	226
396	254	162	235
397	255	164	236
398	252	150	228
399	239	131	217
400	249	147	229
401	247	151	227
402	250	166	232
403	244	173	228
404	0	0	0
405	0	0	0
406	0	0	0
407	0	0	0
408	0	0	0
409	0	0	0
410	0	0	0
411	0	0	0
412	0	0	0
413	0	0	0
414	0	0	0
415	0	0	0
416	255	233	237
417	255	217	227
418	254	200	220
419	246	177	214
420	248	170	222
421	247	159	225
422	250	158	232
423	255	161	237
424	255	161	236
425	251	147	227
426	238	129	217
427	248	144	227
428	246	150	227
429	248	165	230
430	247	179	231
431	0	0	0
432	0	0	0
433	0	0	0
434	0	0	0
435	0	0	0
436	0	0	0
437	0	0	0
438	0	0	0
439	0	0	0
440	0	0	0
441	0	0	0
442	255	216	231
443	255	216	230
444	250	194	218
445	245	178	215
446	245	169	218
447	246	161	223
448	251	161	230
449	252	157	232
450	255	158	235
451	255	157	234
452	249	144	226
453	236	126	216
454	246	143	227
455	243	147	224
456	250	170	232
457	250	184	232
458	0	0	0
459	0	0	0
460	0	0	0
461	0	0	0
462	0	0	0
463	0	0	0
464	0	0	0
465	0	0	0
466	0	0	0
467	0	0	0
468	253	212	230
469	255	212	233
470	255	206	229
471	249	185	218
472	250	178	221
473	249	167	223
474	253	166	230
475	255	164	235
476	253	156	231
477	255	156	233
478	253	150	230
479	245	136	222
480	243	136	223
481	252	152	233
482	246	154	226
483	253	176	234
484	253	191	235
485	0	0	0
486	0	0	0
487	0	0	0
488	0	0	0
489	0	0	0
490	0	0	0
491	0	0	0
492	0	0	0
493	0	0	0
494	0	0	0
495	0	0	0
496	254	199	229
497	254	193	226
498	251	182	221
499	251	174	223
500	254	172	228
501	255	168	232
502	255	162	232
503	252	152	228
504	252	149	229
505	250	144	227
506	254	149	232
507	251	148	231
508	255	159	235
509	249	160	228
510	255	182	235
511	255	198	237
512	255	220	242
513	0	0	0
514	0	0	0
515	0	0	0
516	0	0	0
517	0	0	0
518	0	0	0
519	0	0	0
520	0	0	0
521	0	0	0
522	255	202	232
523	255	196	231
524	252	184	224
525	248	173	219
526	255	177	228
527	255	174	231
528	253	161	228
529	252	154	227
530	254	154	229
531	254	150	229
532	250	144	227
533	253	148	231
534	249	146	228
535	252	157	231
536	247	160	226
537	254	182	233
538	255	198	234
539	255	220	239
540	255	233	239
541	0	0	0
542	0	0	0
543	0	0	0
544	0	0	0
545	0	0	0
546	0	0	0
547	0	0	0
548	252	200	228
549	253	195	229
550	251	185	225
551	247	173	220
552	255	177	227
553	255	181	233
554	255	169	230
555	252	156	227
556	255	158	232
557	255	158	232
558	255	154	230
559	253	146	226
560	255	152	231
561	252	149	229
562	254	160	233
563	249	163	228
564	253	182	231
565	255	198	230
566	253	208	227
567	255	222	230
568	0	0	0
569	0	0	0
570	0	0	0
571	0	0	0
572	0	0	0
573	0	0	0
574	0	0	0
575	0	0	0
576	255	193	229
577	253	183	227
578	251	174	225
579	255	178	231
580	255	171	229
581	253	159	225
582	249	149	224
583	254	151	229
584	255	155	231
585	255	149	228
586	247	135	220
587	250	140	224
588	245	140	222
589	247	150	224
590	252	168	229
591	255	187	232
592	255	205	233
593	255	217	232
594	255	223	230
595	0	0	0
596	0	0	0
597	0	0	0
598	0	0	0
599	0	0	0
600	0	0	0
601	0	0	0
602	0	0	0
603	254	189	228
604	255	183	231
605	253	173	228
606	254	169	228
607	254	162	226
608	251	153	224
609	248	143	223
610	255	152	233
611	255	155	235
612	255	143	228
613	246	130	222
614	248	135	225
615	241	133	217
616	251	156	226
617	255	175	231
618	255	195	235
619	255	214	238
620	255	219	234
621	255	225	233
622	0	0	0
623	0	0	0
624	0	0	0
625	0	0	0
626	0	0	0
627	0	0	0
628	0	0	0
629	0	0	0
630	255	189	230
631	255	183	233
632	250	165	226
633	251	160	226
634	255	161	228
635	254	153	226
636	250	141	224
637	255	150	235
638	249	132	223
639	241	120	216
640	246	129	224
641	247	133	225
642	245	139	221
643	254	162	229
644	255	177	230
645	255	198	235
646	255	202	228
647	255	208	225
648	255	225	234
649	0	0	0
650	0	0	0
651	0	0	0
652	0	0	0
653	0	0	0
654	0	0	0
655	0	0	0
656	251	188	225
657	255	186	229
658	250	170	225
659	243	154	220
660	251	157	227
661	255	157	226
662	250	145	220
663	247	135	220
664	242	123	218
665	231	105	208
666	240	118	218
667	244	124	222
668	248	136	225
669	246	142	222
670	254	163	228
671	255	179	229
672	255	189	227
673	254	194	220
674	255	213	228
675	255	231	239
676	0	0	0
677	0	0	0
678	0	0	0
679	0	0	0
680	0	0	0
681	0	0	0
682	255	205	234
683	255	202	236
684	255	185	229
685	250	169	224
686	253	165	230
687	255	168	236
688	255	156	226
689	250	144	221
690	253	142	226
691	248	130	224
692	241	118	220
693	249	130	230
694	248	134	227
695	251	144	229
696	253	154	230
697	255	176	238
698	255	175	228
699	255	187	228
700	246	177	213
701	253	196	221
702	253	207	225
703	0	0	0
704	0	0	0
705	0	0	0
706	0	0	0
707	0	0	0
708	255	215	236
709	255	215	239
710	255	200	233
711	255	185	228
712	255	181	233
713	255	176	238
714	255	166	235
715	254	154	227
716	255	150	227
717	255	146	230
718	252	137	229
719	244	125	225
720	250	136	233
721	248	138	229
722	252	150	232
723	254	160	235
724	252	163	231
725	248	164	223
726	245	165	219
727	234	157	206
728	242	176	215
729	242	186	217
730	0	0	0
731	0	0	0
732	0	0	0
733	0	0	0
734	255	219	235
735	255	221	240
736	255	200	230
737	253	186	225
738	249	172	222
739	252	168	226
740	255	168	232
741	254	158	229
742	251	148	225
743	251	144	226
744	252	143	228
745	247	133	224
746	250	138	231
747	255	148	237
748	249	145	230
749	253	158	234
750	255	177	244
751	255	181	242
752	254	173	234
753	254	176	232
754	236	156	215
755	246	177	224
756	245	187	222
757	0	0	0
758	0	0	0
759	0	0	0
760	255	226	236
761	255	225	238
762	255	206	231
763	252	189	227
764	251	178	227
765	246	163	221
766	251	163	226
767	255	163	230
768	251	153	227
769	249	144	226
770	253	146	231
771	253	144	231
772	255	150	235
773	255	153	236
774	255	154	234
775	249	151	229
776	255	167	236
777	255	186	243
778	250	173	231
779	246	168	229
780	240	160	224
781	224	142	209
782	239	168	223
783	237	178	218
784	0	0	0
785	0	0	0
786	255	232	238
787	255	233	242
788	255	213	232
789	251	195	226
790	255	189	231
791	254	178	231
792	246	160	222
793	251	161	227
794	255	165	233
795	254	155	230
796	252	149	230
797	255	149	234
798	246	136	225
799	248	141	227
800	253	152	232
801	249	151	228
802	248	158	228
803	253	174	234
804	255	200	246
805	254	187	234
806	255	190	239
807	251	183	237
808	239	168	227
809	254	195	242
810	244	191	228
811	0	0	0
812	0	0	0
813	255	239	242
814	255	221	235
815	252	202	229
816	254	195	231
817	255	188	231
818	251	172	226
819	243	155	219
820	254	163	230
821	255	168	235
822	255	159	232
823	254	151	231
824	249	142	227
825	238	128	217
826	248	145	228
827	253	155	234
828	251	162	233
829	0	0	0
830	255	185	234
831	255	212	246
832	254	200	233
833	254	201	235
834	245	190	229
835	234	176	222
836	243	190	231
837	0	0	0
838	0	0	0
839	0	0	0
840	255	233	238
841	255	214	231
842	250	195	228
843	252	189	230
844	255	188	232
845	252	172	225
846	248	160	224
847	255	167	234
848	252	155	228
849	247	145	224
850	255	154	232
851	249	144	227
852	243	137	223
853	252	152	233
854	249	156	232
855	0	0	0
856	0	0	0
857	0	0	0
858	0	0	0
859	0	0	0
860	0	0	0
861	0	0	0
862	0	0	0
863	0	0	0
864	0	0	0
865	0	0	0
866	0	0	0
867	255	224	233
868	252	206	227
869	247	188	225
870	255	191	234
871	255	189	235
872	255	177	231
873	253	164	229
874	250	155	228
875	243	142	222
876	251	150	230
877	255	157	235
878	252	152	232
879	246	145	229
880	249	155	234
881	244	156	229
882	0	0	0
883	0	0	0
884	0	0	0
885	0	0	0
886	0	0	0
887	0	0	0
888	0	0	0
889	0	0	0
890	0	0	0
891	0	0	0
892	0	0	0
893	0	0	0
894	255	220	232
895	253	203	228
896	250	189	228
897	255	191	237
898	251	172	227
899	246	159	223
900	253	164	232
901	249	153	229
902	248	150	230
903	255	157	237
904	252	154	233
905	247	148	229
906	248	154	232
907	250	162	235
908	246	167	230
909	0	0	0
910	0	0	0
911	0	0	0
912	0	0	0
913	0	0	0
914	0	0	0
915	0	0	0
916	0	0	0
917	0	0	0
918	0	0	0
919	0	0	0
920	0	0	0
921	254	215	229
922	255	204	231
923	253	189	230
924	250	175	229
925	242	157	223
926	249	161	231
927	255	165	238
928	254	161	237
929	250	154	232
930	249	153	231
931	246	150	231
932	250	158	235
933	249	161	234
934	253	173	236
935	248	178	231
936	0	0	0
937	0	0	0
938	0	0	0
939	0	0	0
940	0	0	0
941	0	0	0
942	0	0	0
943	0	0	0
944	0	0	0
945	0	0	0
946	0	0	0
947	0	0	0
948	251	207	228
949	253	196	231
950	249	180	228
951	245	166	226
952	247	163	230
953	253	166	238
954	255	166	240
955	253	162	238
956	250	158	233
957	248	156	231
958	253	165	239
959	255	171	241
960	249	169	233
961	252	181	235
962	249	187	231
963	0	0	0
964	0	0	0
965	0	0	0
966	0	0	0
967	0	0	0
968	0	0	0
969	0	0	0
970	0	0	0
971	0	0	0
972	0	0	0
973	0	0	0
974	255	229	237
975	249	200	229
976	250	189	231
977	245	171	227
978	249	170	232
979	249	165	232
980	253	167	236
981	255	167	238
982	255	168	239
983	254	165	237
984	255	173	241
985	255	181	245
986	255	180	240
987	0	0	0
988	252	189	233
989	0	0	0
990	0	0	0
991	0	0	0
992	0	0	0
993	0	0	0
994	0	0	0
995	0	0	0
996	0	0	0
997	0	0	0
998	0	0	0
999	0	0	0
1000	255	246	245
1001	251	212	228
1002	247	193	227
1003	247	181	229
1004	248	175	232
1005	251	172	235
1006	254	173	237
1007	255	175	240
1008	251	163	234
1009	252	163	235
1010	247	158	231
1011	250	166	234
1012	254	177	238
1013	0	0	0
1014	0	0	0
1015	0	0	0
1016	0	0	0
1017	0	0	0
1018	0	0	0
1019	0	0	0
1020	0	0	0
1021	0	0	0
1022	0	0	0
1023	0	0	0
1024	0	0	0
1025	0	0	0
1026	0	0	0
1027	0	0	0
1028	249	205	227
1029	243	185	223
1030	250	184	232
1031	250	177	235
1032	255	182	242
1033	255	182	243
1034	254	171	237
1035	247	160	232
1036	247	159	232
1037	240	152	225
1038	246	165	232
1039	0	0	0
1040	0	0	0
1041	0	0	0
1042	0	0	0
1043	0	0	0
1044	0	0	0
1045	0	0	0
1046	0	0	0
1047	0	0	0
1048	0	0	0
1049	0	0	0
1050	0	0	0
1051	0	0	0
1052	0	0	0
1053	0	0	0
1054	0	0	0
1055	0	0	0
1056	251	194	231
1057	255	191	238
1058	249	175	234
1059	255	178	240
1060	254	176	239
1061	248	164	232
1062	249	165	235
1063	248	164	235
1064	245	163	231
1065	0	0	0
1066	0	0	0
1067	0	0	0
1068	0	0	0
1069	0	0	0
1070	0	0	0
1071	0	0	0
1072	0	0	0
1073	0	0	0
1074	0	0	0
1075	0	0	0
1076	0	0	0
1077	0	0	0
1078	0	0	0
1079	0	0	0
1080	0	0	0
1081	0	0	0
1082	255	212	238
1083	255	204	240
1084	255	192	239
1085	249	174	234
1086	250	173	237
1087	249	170	236
1088	248	168	234
1089	248	168	235
1090	251	173	239
1091	247	173	235
1092	0	0	0
1093	0	0	0
1094	0	0	0
1095	0	0	0
1096	0	0	0
1097	0	0	0
1098	0	0	0
1099	0	0	0
1100	0	0	0
1101	0	0	0
1102	0	0	0
1103	0	0	0
1104	0	0	0
1105	0	0	0
1106	0	0	0
1107	0	0	0
1108	252	212	232
1109	255	205	236
1110	251	190	233
1111	247	177	231
1112	243	166	230
1113	244	165	232
1114	255	185	245
1115	254	181	242
1116	249	175	237
1117	251	180	240
1118	248	182	238
1119	0	0	0
1120	0	0	0
1121	0	0	0
1122	0	0	0
1123	0	0	0
1124	0	0	0
1125	0	0	0
1126	0	0	0
1127	0	0	0
1128	0	0	0
1129	0	0	0
1130	0	0	0
1131	0	0	0
1132	0	0	0
1133	0	0	0
1134	0	0	0
1135	0	0	0
1136	246	190	226
1137	242	175	226
1138	243	171	230
1139	237	159	226
1140	252	180	241
1141	255	199	252
1142	255	190	243
1143	249	182	238
1144	250	188	241
1145	0	0	0
1146	0	0	0
1147	0	0	0
1148	0	0	0
1149	0	0	0
1150	0	0	0
1151	0	0	0
1152	0	0	0
1153	0	0	0
1154	0	0	0
1155	0	0	0
1156	0	0	0
1157	0	0	0
1158	0	0	0
1159	0	0	0
1160	0	0	0
1161	0	0	0
1162	0	0	0
1163	0	0	0
1164	253	192	239
1165	254	187	242
1166	238	163	229
1167	252	183	242
1168	255	206	253
1169	255	194	243
1170	245	185	234
1171	0	0	0
1172	0	0	0
1173	0	0	0
1174	0	0	0
1175	0	0	0
1176	0	0	0
1177	0	0	0
1178	0	0	0
1179	0	0	0
1180	0	0	0
1181	0	0	0
1182	0	0	0
1183	0	0	0
1184	0	0	0
1185	0	0	0
1186	0	0	0
1187	0	0	0
1188	0	0	0
1189	0	0	0
1190	0	0	0
1191	255	208	249
1192	255	191	243
1193	239	167	231
1194	255	195	250
1195	255	215	255
1196	255	201	243
1197	0	0	0
1198	0	0	0
1199	0	0	0
1200	0	0	0
1201	0	0	0
1202	0	0	0
1203	0	0	0
1204	0	0	0
1205	0	0	0
1206	0	0	0
1207	0	0	0
1208	0	0	0
1209	0	0	0
1210	0	0	0
1211	0	0	0
1212	0	0	0
1213	0	0	0
1214	0	0	0
1215	0	0	0
1216	0	0	0
1217	0	0	0
1218	0	0	0
1219	247	182	235
1220	0	0	0
1221	255	201	252
1222	254	198	243
1223	0	0	0
1224	0	0	0
1225	0	0	0
1226	0	0	0
1227	0	0	0
1228	0	0	0
1229	0	0	0
1230	0	0	0
1231	0	0	0
1232	0	0	0
1233	0	0	0
1234	0	0	0
1235	0	0	0
1236	0	0	0
1237	0	0	0
1238	0	0	0
1239	0	0	0
1240	0	0	0
1241	0	0	0
1242	0	0	0
