 	R	G	B
1	0	0	0
2	0	0	0
3	0	0	0
4	0	0	0
5	0	0	0
6	255	211	233
7	255	213	228
8	0	0	0
9	250	204	215
10	255	223	225
11	0	0	0
12	0	0	0
13	0	0	0
14	0	0	0
15	0	0	0
16	0	0	0
17	0	0	0
18	0	0	0
19	0	0	0
20	0	0	0
21	0	0	0
22	0	0	0
23	0	0	0
24	0	0	0
25	0	0	0
26	0	0	0
27	0	0	0
28	0	0	0
29	0	0	0
30	0	0	0
31	0	0	0
32	0	0	0
33	0	0	0
34	0	0	0
35	0	0	0
36	0	0	0
37	0	0	0
38	0	0	0
39	0	0	0
40	0	0	0
41	0	0	0
42	0	0	0
43	0	0	0
44	0	0	0
45	0	0	0
46	0	0	0
47	0	0	0
48	0	0	0
49	0	0	0
50	0	0	0
51	0	0	0
52	0	0	0
53	0	0	0
54	0	0	0
55	0	0	0
56	0	0	0
57	0	0	0
58	0	0	0
59	0	0	0
60	0	0	0
61	0	0	0
62	0	0	0
63	0	0	0
64	0	0	0
65	0	0	0
66	0	0	0
67	0	0	0
68	0	0	0
69	0	0	0
70	0	0	0
71	0	0	0
72	0	0	0
73	0	0	0
74	0	0	0
75	0	0	0
76	0	0	0
77	254	208	234
78	255	207	235
79	246	189	222
80	254	199	227
81	255	200	222
82	252	198	216
83	250	196	212
84	255	216	222
85	254	208	211
86	0	0	0
87	0	0	0
88	0	0	0
89	0	0	0
90	0	0	0
91	0	0	0
92	0	0	0
93	0	0	0
94	0	0	0
95	0	0	0
96	0	0	0
97	0	0	0
98	0	0	0
99	0	0	0
100	0	0	0
101	0	0	0
102	0	0	0
103	0	0	0
104	0	0	0
105	0	0	0
106	0	0	0
107	0	0	0
108	0	0	0
109	0	0	0
110	0	0	0
111	0	0	0
112	0	0	0
113	0	0	0
114	0	0	0
115	0	0	0
116	0	0	0
117	0	0	0
118	0	0	0
119	0	0	0
120	0	0	0
121	0	0	0
122	0	0	0
123	0	0	0
124	0	0	0
125	0	0	0
126	0	0	0
127	0	0	0
128	0	0	0
129	0	0	0
130	0	0	0
131	0	0	0
132	0	0	0
133	0	0	0
134	0	0	0
135	0	0	0
136	0	0	0
137	0	0	0
138	0	0	0
139	0	0	0
140	0	0	0
141	0	0	0
142	0	0	0
143	0	0	0
144	0	0	0
145	0	0	0
146	0	0	0
147	0	0	0
148	0	0	0
149	0	0	0
150	251	212	234
151	249	201	229
152	246	190	224
153	236	174	214
154	246	184	221
155	249	187	221
156	253	192	221
157	250	189	213
158	249	189	209
159	242	183	201
160	252	199	211
161	0	0	0
162	0	0	0
163	0	0	0
164	0	0	0
165	0	0	0
166	0	0	0
167	0	0	0
168	0	0	0
169	0	0	0
170	0	0	0
171	0	0	0
172	0	0	0
173	0	0	0
174	0	0	0
175	0	0	0
176	0	0	0
177	0	0	0
178	0	0	0
179	0	0	0
180	0	0	0
181	0	0	0
182	0	0	0
183	0	0	0
184	0	0	0
185	0	0	0
186	0	0	0
187	0	0	0
188	0	0	0
189	0	0	0
190	0	0	0
191	0	0	0
192	0	0	0
193	0	0	0
194	0	0	0
195	0	0	0
196	0	0	0
197	0	0	0
198	0	0	0
199	0	0	0
200	0	0	0
201	0	0	0
202	0	0	0
203	0	0	0
204	0	0	0
205	0	0	0
206	0	0	0
207	0	0	0
208	0	0	0
209	0	0	0
210	0	0	0
211	0	0	0
212	0	0	0
213	0	0	0
214	0	0	0
215	0	0	0
216	0	0	0
217	0	0	0
218	0	0	0
219	0	0	0
220	0	0	0
221	0	0	0
222	0	0	0
223	251	227	240
224	255	222	240
225	250	202	230
226	245	191	226
227	250	192	229
228	255	204	239
229	254	190	228
230	255	196	230
231	246	177	211
232	247	178	209
233	250	184	211
234	255	200	221
235	254	195	213
236	0	0	0
237	0	0	0
238	0	0	0
239	0	0	0
240	0	0	0
241	0	0	0
242	0	0	0
243	0	0	0
244	0	0	0
245	0	0	0
246	0	0	0
247	0	0	0
248	0	0	0
249	0	0	0
250	0	0	0
251	0	0	0
252	0	0	0
253	0	0	0
254	0	0	0
255	0	0	0
256	0	0	0
257	0	0	0
258	0	0	0
259	0	0	0
260	0	0	0
261	0	0	0
262	0	0	0
263	0	0	0
264	0	0	0
265	0	0	0
266	0	0	0
267	0	0	0
268	0	0	0
269	0	0	0
270	0	0	0
271	0	0	0
272	0	0	0
273	0	0	0
274	0	0	0
275	0	0	0
276	0	0	0
277	0	0	0
278	0	0	0
279	0	0	0
280	0	0	0
281	0	0	0
282	0	0	0
283	0	0	0
284	0	0	0
285	0	0	0
286	0	0	0
287	0	0	0
288	0	0	0
289	0	0	0
290	0	0	0
291	0	0	0
292	0	0	0
293	0	0	0
294	0	0	0
295	0	0	0
296	0	0	0
297	0	0	0
298	249	216	236
299	243	197	229
300	252	203	236
301	255	204	237
302	254	194	231
303	247	180	221
304	243	171	214
305	233	155	202
306	245	169	212
307	249	175	213
308	248	176	211
309	243	171	204
310	250	181	207
311	0	0	0
312	255	193	209
313	255	196	209
314	255	202	211
315	255	206	211
316	255	214	214
317	0	0	0
318	0	0	0
319	0	0	0
320	0	0	0
321	0	0	0
322	0	0	0
323	0	0	0
324	0	0	0
325	0	0	0
326	0	0	0
327	0	0	0
328	0	0	0
329	0	0	0
330	0	0	0
331	0	0	0
332	0	0	0
333	0	0	0
334	0	0	0
335	0	0	0
336	0	0	0
337	0	0	0
338	0	0	0
339	0	0	0
340	0	0	0
341	0	0	0
342	0	0	0
343	0	0	0
344	0	0	0
345	0	0	0
346	0	0	0
347	0	0	0
348	0	0	0
349	0	0	0
350	0	0	0
351	0	0	0
352	0	0	0
353	0	0	0
354	0	0	0
355	0	0	0
356	0	0	0
357	0	0	0
358	0	0	0
359	0	0	0
360	0	0	0
361	0	0	0
362	0	0	0
363	0	0	0
364	0	0	0
365	0	0	0
366	0	0	0
367	0	0	0
368	0	0	0
369	0	0	0
370	0	0	0
371	0	0	0
372	0	0	0
373	251	217	240
374	255	225	250
375	253	201	235
376	251	192	229
377	252	187	227
378	249	179	223
379	248	173	220
380	255	188	231
381	249	170	217
382	251	173	217
383	254	176	218
384	255	188	223
385	249	170	207
386	253	176	209
387	247	169	201
388	249	174	202
389	253	185	206
390	255	192	207
391	251	192	203
392	0	0	0
393	0	0	0
394	0	0	0
395	0	0	0
396	0	0	0
397	0	0	0
398	0	0	0
399	0	0	0
400	0	0	0
401	0	0	0
402	0	0	0
403	0	0	0
404	0	0	0
405	0	0	0
406	0	0	0
407	0	0	0
408	0	0	0
409	0	0	0
410	0	0	0
411	0	0	0
412	0	0	0
413	0	0	0
414	0	0	0
415	0	0	0
416	0	0	0
417	0	0	0
418	0	0	0
419	0	0	0
420	0	0	0
421	0	0	0
422	0	0	0
423	0	0	0
424	0	0	0
425	0	0	0
426	0	0	0
427	0	0	0
428	0	0	0
429	0	0	0
430	0	0	0
431	0	0	0
432	0	0	0
433	0	0	0
434	0	0	0
435	0	0	0
436	0	0	0
437	0	0	0
438	0	0	0
439	0	0	0
440	0	0	0
441	0	0	0
442	0	0	0
443	0	0	0
444	0	0	0
445	0	0	0
446	0	0	0
447	0	0	0
448	250	213	236
449	241	191	225
450	246	190	229
451	249	187	228
452	252	185	228
453	251	179	225
454	248	170	220
455	237	153	209
456	248	164	219
457	254	170	225
458	247	158	215
459	234	140	195
460	234	139	192
461	229	133	187
462	239	149	198
463	245	160	202
464	244	163	199
465	240	162	191
466	249	179	197
467	255	194	202
468	255	207	207
469	255	221	214
470	255	230	218
471	0	0	0
472	0	0	0
473	0	0	0
474	0	0	0
475	0	0	0
476	0	0	0
477	0	0	0
478	0	0	0
479	0	0	0
480	0	0	0
481	0	0	0
482	0	0	0
483	0	0	0
484	0	0	0
485	0	0	0
486	0	0	0
487	0	0	0
488	0	0	0
489	0	0	0
490	0	0	0
491	0	0	0
492	0	0	0
493	0	0	0
494	0	0	0
495	0	0	0
496	0	0	0
497	0	0	0
498	0	0	0
499	0	0	0
500	0	0	0
501	0	0	0
502	0	0	0
503	0	0	0
504	0	0	0
505	0	0	0
506	0	0	0
507	0	0	0
508	0	0	0
509	0	0	0
510	0	0	0
511	0	0	0
512	0	0	0
513	0	0	0
514	0	0	0
515	0	0	0
516	0	0	0
517	0	0	0
518	0	0	0
519	0	0	0
520	0	0	0
521	0	0	0
522	0	0	0
523	250	213	238
524	255	215	244
525	252	197	235
526	255	196	237
527	254	185	230
528	251	177	226
529	248	168	223
530	255	181	235
531	255	171	232
532	252	161	225
533	245	148	212
534	247	149	210
535	248	151	212
536	255	168	222
537	250	156	211
538	250	160	208
539	249	161	202
540	255	179	208
541	250	172	199
542	255	185	204
543	254	187	200
544	255	196	201
545	255	202	201
546	0	0	0
547	0	0	0
548	0	0	0
549	0	0	0
550	0	0	0
551	0	0	0
552	0	0	0
553	0	0	0
554	0	0	0
555	0	0	0
556	0	0	0
557	0	0	0
558	0	0	0
559	0	0	0
560	0	0	0
561	0	0	0
562	0	0	0
563	0	0	0
564	0	0	0
565	0	0	0
566	0	0	0
567	0	0	0
568	0	0	0
569	0	0	0
570	0	0	0
571	0	0	0
572	0	0	0
573	0	0	0
574	0	0	0
575	0	0	0
576	0	0	0
577	0	0	0
578	0	0	0
579	0	0	0
580	0	0	0
581	0	0	0
582	0	0	0
583	0	0	0
584	0	0	0
585	0	0	0
586	0	0	0
587	0	0	0
588	0	0	0
589	0	0	0
590	0	0	0
591	0	0	0
592	0	0	0
593	0	0	0
594	0	0	0
595	0	0	0
596	0	0	0
597	255	236	248
598	254	218	240
599	249	202	236
600	252	196	236
601	250	186	230
602	251	181	229
603	250	173	227
604	250	168	227
605	247	158	223
606	247	154	223
607	243	144	218
608	249	151	222
609	250	152	221
610	247	147	215
611	239	136	205
612	245	145	208
613	246	149	204
614	245	149	200
615	239	143	193
616	243	152	196
617	242	154	193
618	245	163	194
619	246	169	191
620	253	182	196
621	255	197	205
622	255	197	203
623	255	199	203
624	255	196	198
625	251	192	193
626	255	203	198
627	255	216	204
628	0	0	0
629	0	0	0
630	0	0	0
631	0	0	0
632	0	0	0
633	0	0	0
634	0	0	0
635	0	0	0
636	0	0	0
637	0	0	0
638	0	0	0
639	0	0	0
640	0	0	0
641	0	0	0
642	0	0	0
643	0	0	0
644	0	0	0
645	0	0	0
646	0	0	0
647	0	0	0
648	0	0	0
649	0	0	0
650	0	0	0
651	0	0	0
652	0	0	0
653	0	0	0
654	0	0	0
655	0	0	0
656	0	0	0
657	0	0	0
658	0	0	0
659	0	0	0
660	0	0	0
661	0	0	0
662	0	0	0
663	0	0	0
664	0	0	0
665	0	0	0
666	0	0	0
667	0	0	0
668	0	0	0
669	0	0	0
670	0	0	0
671	255	238	245
672	248	218	235
673	251	213	240
674	255	208	242
675	253	197	236
676	255	194	237
677	255	185	234
678	255	180	235
679	251	166	229
680	252	162	231
681	244	149	226
682	248	155	230
683	253	160	231
684	254	157	227
685	249	146	218
686	255	157	224
687	255	155	219
688	255	156	217
689	247	143	207
690	253	153	212
691	251	153	207
692	255	163	208
693	250	157	198
694	255	171	203
695	251	165	198
696	249	165	196
697	253	172	197
698	248	168	192
699	247	170	190
700	252	180	195
701	255	193	200
702	253	187	195
703	0	0	0
704	0	0	0
705	0	0	0
706	0	0	0
707	0	0	0
708	0	0	0
709	0	0	0
710	0	0	0
711	0	0	0
712	0	0	0
713	0	0	0
714	0	0	0
715	0	0	0
716	0	0	0
717	0	0	0
718	0	0	0
719	0	0	0
720	0	0	0
721	0	0	0
722	0	0	0
723	0	0	0
724	0	0	0
725	0	0	0
726	0	0	0
727	0	0	0
728	0	0	0
729	0	0	0
730	0	0	0
731	0	0	0
732	0	0	0
733	0	0	0
734	0	0	0
735	0	0	0
736	0	0	0
737	0	0	0
738	0	0	0
739	0	0	0
740	0	0	0
741	0	0	0
742	0	0	0
743	0	0	0
744	0	0	0
745	0	0	0
746	250	230	239
747	251	224	241
748	250	213	239
749	249	203	236
750	250	195	234
751	249	186	231
752	248	177	230
753	243	164	226
754	240	156	226
755	233	143	221
756	240	152	228
757	247	159	231
758	249	153	227
759	245	144	220
760	251	148	222
761	252	148	219
762	249	140	214
763	242	129	206
764	248	137	211
765	246	137	206
766	243	135	200
767	238	131	192
768	235	127	189
769	232	124	189
770	238	134	195
771	240	139	191
772	238	140	187
773	238	143	188
774	245	156	193
775	251	167	197
776	249	168	194
777	248	170	193
778	255	183	200
779	255	192	201
780	255	201	203
781	255	210	205
782	255	219	208
783	255	231	215
784	255	229	213
785	255	230	215
786	255	235	219
787	0	0	0
788	0	0	0
789	0	0	0
790	0	0	0
791	0	0	0
792	0	0	0
793	0	0	0
794	0	0	0
795	0	0	0
796	0	0	0
797	0	0	0
798	0	0	0
799	0	0	0
800	0	0	0
801	0	0	0
802	0	0	0
803	0	0	0
804	0	0	0
805	0	0	0
806	0	0	0
807	0	0	0
808	0	0	0
809	0	0	0
810	0	0	0
811	0	0	0
812	0	0	0
813	0	0	0
814	0	0	0
815	0	0	0
816	0	0	0
817	0	0	0
818	0	0	0
819	0	0	0
820	0	0	0
821	0	0	0
822	0	0	0
823	248	216	240
824	0	0	0
825	246	199	236
826	248	191	236
827	234	166	226
828	228	157	223
829	238	167	234
830	252	179	245
831	246	165	236
832	247	159	232
833	247	153	227
834	255	159	232
835	255	150	227
836	255	145	224
837	246	129	215
838	253	138	220
839	249	134	213
840	247	133	208
841	255	147	215
842	254	144	213
843	249	136	211
844	255	147	217
845	245	135	202
846	244	137	198
847	255	157	209
848	255	170	215
849	252	156	201
850	251	157	199
851	254	163	200
852	255	176	206
853	248	162	192
854	252	172	195
855	252	178	194
856	254	186	195
857	255	198	199
858	252	194	194
859	255	205	201
860	254	208	203
861	255	222	212
862	0	0	0
863	0	0	0
864	0	0	0
865	0	0	0
866	0	0	0
867	0	0	0
868	0	0	0
869	0	0	0
870	0	0	0
871	0	0	0
872	0	0	0
873	0	0	0
874	0	0	0
875	0	0	0
876	0	0	0
877	0	0	0
878	0	0	0
879	0	0	0
880	0	0	0
881	0	0	0
882	0	0	0
883	0	0	0
884	0	0	0
885	0	0	0
886	0	0	0
887	0	0	0
888	0	0	0
889	0	0	0
890	0	0	0
891	0	0	0
892	0	0	0
893	0	0	0
894	0	0	0
895	0	0	0
896	0	0	0
897	0	0	0
898	0	0	0
899	250	213	244
900	242	193	236
901	228	168	226
902	237	180	238
903	246	190	245
904	245	179	240
905	240	166	234
906	241	160	232
907	242	154	228
908	247	150	228
909	247	142	224
910	245	133	219
911	237	118	210
912	243	123	213
913	240	120	207
914	248	133	214
915	255	148	223
916	251	138	215
917	245	129	208
918	242	124	204
919	234	115	195
920	250	139	208
921	255	158	214
922	253	146	203
923	243	134	195
924	250	144	201
925	253	149	201
926	244	139	191
927	232	126	179
928	239	138	185
929	240	145	187
930	246	159	192
931	249	169	191
932	251	177	191
933	253	187	195
934	255	200	202
935	255	213	208
936	255	225	213
937	255	241	223
938	255	238	219
939	255	240	222
940	255	243	224
941	255	249	228
942	255	250	229
943	0	0	0
944	0	0	0
945	0	0	0
946	0	0	0
947	0	0	0
948	0	0	0
949	0	0	0
950	0	0	0
951	0	0	0
952	0	0	0
953	0	0	0
954	0	0	0
955	0	0	0
956	0	0	0
957	0	0	0
958	0	0	0
959	0	0	0
960	0	0	0
961	0	0	0
962	0	0	0
963	0	0	0
964	0	0	0
965	0	0	0
966	0	0	0
967	0	0	0
968	0	0	0
969	0	0	0
970	0	0	0
971	0	0	0
972	0	0	0
973	249	217	244
974	236	194	234
975	231	183	232
976	245	198	247
977	241	187	240
978	236	174	233
979	240	173	236
980	240	168	235
981	244	166	236
982	250	163	236
983	245	146	227
984	244	137	223
985	244	132	222
986	252	138	226
987	247	131	217
988	255	144	224
989	255	149	227
990	253	140	219
991	254	140	217
992	251	136	214
993	250	134	214
994	255	159	228
995	255	145	212
996	249	134	202
997	252	136	206
998	255	147	214
999	251	136	203
1000	244	128	194
1001	250	138	199
1002	255	151	207
1003	251	144	200
1004	255	158	204
1005	251	156	194
1006	252	164	194
1007	252	171	194
1008	255	183	198
1009	253	184	195
1010	255	195	199
1011	255	206	204
1012	253	202	199
1013	255	214	206
1014	255	216	207
1015	255	224	210
1016	255	225	211
1017	255	225	212
1018	0	0	0
1019	0	0	0
1020	0	0	0
1021	0	0	0
1022	0	0	0
1023	0	0	0
1024	0	0	0
1025	0	0	0
1026	0	0	0
1027	0	0	0
1028	0	0	0
1029	0	0	0
1030	0	0	0
1031	0	0	0
1032	0	0	0
1033	0	0	0
1034	0	0	0
1035	0	0	0
1036	0	0	0
1037	0	0	0
1038	0	0	0
1039	0	0	0
1040	0	0	0
1041	0	0	0
1042	0	0	0
1043	0	0	0
1044	0	0	0
1045	0	0	0
1046	0	0	0
1047	0	0	0
1048	236	206	238
1049	232	195	235
1050	236	191	238
1051	234	182	235
1052	241	184	240
1053	243	183	241
1054	240	176	237
1055	243	174	239
1056	242	159	233
1057	238	143	224
1058	245	144	227
1059	247	140	225
1060	251	141	227
1061	247	135	220
1062	252	141	223
1063	255	146	224
1064	255	145	222
1065	255	147	223
1066	255	146	223
1067	255	144	221
1068	254	137	215
1069	246	125	206
1070	251	130	209
1071	253	132	210
1072	250	126	206
1073	243	116	198
1074	253	131	207
1075	255	141	211
1076	255	139	207
1077	249	132	199
1078	248	135	196
1079	243	134	190
1080	246	142	190
1081	246	148	189
1082	246	154	190
1083	243	156	188
1084	247	167	192
1085	250	177	194
1086	253	187	197
1087	255	199	205
1088	255	205	206
1089	255	212	207
1090	255	211	205
1091	255	211	206
1092	255	231	219
1093	255	248	230
1094	255	242	226
1095	255	235	222
1096	255	237	223
1097	255	240	225
1098	255	235	222
1099	255	232	223
1100	255	234	226
1101	255	238	228
1102	255	240	230
1103	255	245	236
1104	255	243	236
1105	255	239	235
1106	0	0	0
1107	0	0	0
1108	0	0	0
1109	0	0	0
1110	0	0	0
1111	0	0	0
1112	0	0	0
1113	0	0	0
1114	0	0	0
1115	0	0	0
1116	0	0	0
1117	0	0	0
1118	0	0	0
1119	0	0	0
1120	0	0	0
1121	0	0	0
1122	0	0	0
1123	237	211	240
1124	244	209	246
1125	241	194	241
1126	249	198	248
1127	241	182	239
1128	234	174	234
1129	242	179	241
1130	240	164	234
1131	242	156	230
1132	252	158	235
1133	250	148	229
1134	254	148	230
1135	251	143	225
1136	255	149	228
1137	250	141	221
1138	252	142	220
1139	255	149	226
1140	255	149	226
1141	255	138	218
1142	252	132	214
1143	253	130	214
1144	255	136	219
1145	252	125	211
1146	249	119	207
1147	249	118	206
1148	255	133	216
1149	253	124	207
1150	250	122	203
1151	246	119	198
1152	246	123	197
1153	255	141	206
1154	255	150	207
1155	251	143	198
1156	252	149	199
1157	249	150	197
1158	254	162	202
1159	252	165	199
1160	255	174	202
1161	254	177	202
1162	255	183	203
1163	255	185	200
1164	251	183	196
1165	247	181	194
1166	255	200	207
1167	255	208	210
1168	251	197	201
1169	253	204	206
1170	253	205	207
1171	255	213	210
1172	250	207	207
1173	255	215	216
1174	255	216	219
1175	255	223	222
1176	255	226	224
1177	255	222	225
1178	253	219	224
1179	253	220	225
1180	255	223	226
1181	0	0	0
1182	0	0	0
1183	0	0	0
1184	0	0	0
1185	0	0	0
1186	0	0	0
1187	0	0	0
1188	0	0	0
1189	0	0	0
1190	0	0	0
1191	0	0	0
1192	0	0	0
1193	0	0	0
1194	0	0	0
1195	0	0	0
1196	0	0	0
1197	0	0	0
1198	241	214	242
1199	237	199	238
1200	239	191	239
1201	234	178	234
1202	239	182	240
1203	246	187	246
1204	246	178	241
1205	248	169	237
1206	254	164	237
1207	252	153	230
1208	253	151	230
1209	250	146	225
1210	244	139	219
1211	240	132	215
1212	252	143	224
1213	255	151	230
1214	254	140	222
1215	249	130	214
1216	250	129	213
1217	250	127	211
1218	245	117	205
1219	240	108	202
1220	244	110	205
1221	243	108	202
1222	241	104	199
1223	235	96	192
1224	239	101	195
1225	237	100	192
1226	251	122	205
1227	255	140	214
1228	252	132	205
1229	245	127	198
1230	245	130	198
1231	242	131	194
1232	245	138	197
1233	245	143	196
1234	244	146	196
1235	243	149	195
1236	242	151	194
1237	242	153	192
1238	239	152	190
1239	235	149	188
1240	241	160	194
1241	242	167	195
1242	242	171	195
1243	245	177	199
1244	246	183	201
1245	248	189	202
1246	249	193	204
1247	252	200	212
1248	253	204	216
1249	255	211	219
1250	248	203	215
1251	245	199	216
1252	245	200	217
1253	244	200	213
1254	245	203	213
1255	248	207	217
1256	250	210	220
1257	0	0	0
1258	0	0	0
1259	0	0	0
1260	0	0	0
1261	0	0	0
1262	0	0	0
1263	0	0	0
1264	0	0	0
1265	0	0	0
1266	0	0	0
1267	0	0	0
1268	0	0	0
1269	0	0	0
1270	0	0	0
1271	0	0	0
1272	0	0	0
1273	0	0	0
1274	0	0	0
1275	243	198	242
1276	255	206	253
1277	246	185	242
1278	244	175	237
1279	251	175	239
1280	255	169	239
1281	247	150	228
1282	248	148	227
1283	251	153	229
1284	244	146	223
1285	246	146	225
1286	255	158	236
1287	255	147	229
1288	251	137	221
1289	251	134	219
1290	252	133	218
1291	254	133	217
1292	250	124	212
1293	251	123	215
1294	255	125	218
1295	255	126	217
1296	255	123	214
1297	248	110	206
1298	253	116	211
1299	247	109	205
1300	255	131	218
1301	253	124	210
1302	244	117	202
1303	255	138	215
1304	255	142	215
1305	249	133	205
1306	252	141	208
1307	253	145	209
1308	253	149	209
1309	251	149	207
1310	250	151	206
1311	253	158	209
1312	251	157	207
1313	249	156	207
1314	255	167	214
1315	247	160	205
1316	247	164	205
1317	253	176	211
1318	253	180	212
1319	249	179	208
1320	248	182	208
1321	254	193	216
1322	254	197	218
1323	255	204	223
1324	249	196	217
1325	252	202	224
1326	253	203	224
1327	252	204	220
1328	253	206	220
1329	255	210	224
1330	255	212	226
1331	249	206	221
1332	0	0	0
1333	0	0	0
1334	0	0	0
1335	0	0	0
1336	0	0	0
1337	0	0	0
1338	0	0	0
1339	0	0	0
1340	0	0	0
1341	0	0	0
1342	0	0	0
1343	0	0	0
1344	0	0	0
1345	0	0	0
1346	0	0	0
1347	0	0	0
1348	0	0	0
1349	0	0	0
1350	243	196	237
1351	236	176	228
1352	241	176	233
1353	247	176	236
1354	245	162	231
1355	237	144	223
1356	247	155	232
1357	252	161	234
1358	250	159	233
1359	253	158	234
1360	254	150	231
1361	249	139	224
1362	249	136	221
1363	249	134	220
1364	252	135	221
1365	255	136	223
1366	255	134	222
1367	255	132	220
1368	255	135	222
1369	255	136	222
1370	255	127	218
1371	251	115	213
1372	253	115	215
1373	247	108	208
1374	244	107	205
1375	237	101	198
1376	248	120	209
1377	255	141	220
1378	251	130	209
1379	242	122	201
1380	246	128	204
1381	246	132	204
1382	245	133	204
1383	242	133	204
1384	244	139	206
1385	248	146	209
1386	246	145	208
1387	244	144	208
1388	239	141	206
1389	232	135	200
1390	239	148	207
1391	245	160	212
1392	245	162	211
1393	242	161	209
1394	247	172	213
1395	251	182	216
1396	251	186	217
1397	254	193	223
1398	252	195	224
1399	255	200	226
1400	254	201	225
1401	254	203	224
1402	253	203	223
1403	254	206	225
1404	251	202	222
1405	245	197	218
1406	254	210	227
1407	0	0	0
1408	0	0	0
1409	0	0	0
1410	0	0	0
1411	0	0	0
1412	0	0	0
1413	0	0	0
1414	0	0	0
1415	0	0	0
1416	0	0	0
1417	0	0	0
1418	0	0	0
1419	0	0	0
1420	0	0	0
1421	0	0	0
1422	0	0	0
1423	0	0	0
1424	0	0	0
1425	240	192	234
1426	244	191	239
1427	242	180	235
1428	240	166	231
1429	244	164	235
1430	255	176	246
1431	253	166	239
1432	255	167	240
1433	251	155	233
1434	248	145	227
1435	254	150	230
1436	254	148	229
1437	253	143	227
1438	255	144	228
1439	255	142	227
1440	255	140	225
1441	255	135	221
1442	255	138	223
1443	255	130	219
1444	252	121	215
1445	248	112	212
1446	250	113	215
1447	248	110	212
1448	246	110	211
1449	249	116	214
1450	255	136	224
1451	255	138	221
1452	249	128	210
1453	254	137	215
1454	255	144	219
1455	251	137	212
1456	249	138	212
1457	252	146	218
1458	253	151	220
1459	255	156	222
1460	254	156	221
1461	250	153	219
1462	242	148	215
1463	243	153	218
1464	252	167	227
1465	253	169	227
1466	255	172	228
1467	247	162	218
1468	251	173	221
1469	255	188	226
1470	255	191	225
1471	252	187	224
1472	252	189	225
1473	255	198	228
1474	254	198	225
1475	254	200	226
1476	253	201	225
1477	255	205	227
1478	252	201	224
1479	252	202	225
1480	255	216	234
1481	0	0	0
1482	0	0	0
1483	0	0	0
1484	0	0	0
1485	0	0	0
1486	0	0	0
1487	0	0	0
1488	0	0	0
1489	0	0	0
1490	0	0	0
1491	0	0	0
1492	0	0	0
1493	0	0	0
1494	0	0	0
1495	0	0	0
1496	0	0	0
1497	0	0	0
1498	0	0	0
1499	0	0	0
1500	243	197	240
1501	239	185	236
1502	246	185	240
1503	249	182	242
1504	249	175	241
1505	247	167	238
1506	246	158	234
1507	241	145	226
1508	248	152	230
1509	254	157	232
1510	253	152	229
1511	252	148	229
1512	253	146	228
1513	252	143	224
1514	253	140	221
1515	253	136	219
1516	252	130	218
1517	250	123	217
1518	246	115	214
1519	241	105	207
1520	243	106	209
1521	242	105	209
1522	249	117	217
1523	252	123	220
1524	252	127	220
1525	251	130	216
1526	255	138	218
1527	255	147	223
1528	254	141	217
1529	246	134	211
1530	247	140	215
1531	250	148	221
1532	251	152	224
1533	253	157	226
1534	250	154	223
1535	245	151	219
1536	244	155	220
1537	246	161	224
1538	248	164	227
1539	250	167	230
1540	247	161	224
1541	236	149	211
1542	245	166	217
1543	252	181	221
1544	247	176	216
1545	244	174	218
1546	250	185	225
1547	254	193	228
1548	251	192	224
1549	251	194	225
1550	251	196	225
1551	252	200	223
1552	249	198	221
1553	249	200	223
1554	0	0	0
1555	0	0	0
1556	0	0	0
1557	0	0	0
1558	0	0	0
1559	0	0	0
1560	0	0	0
1561	0	0	0
1562	0	0	0
1563	0	0	0
1564	0	0	0
1565	0	0	0
1566	0	0	0
1567	0	0	0
1568	0	0	0
1569	0	0	0
1570	0	0	0
1571	0	0	0
1572	0	0	0
1573	0	0	0
1574	0	0	0
1575	243	197	240
1576	249	197	244
1577	248	188	242
1578	247	182	240
1579	248	177	241
1580	246	167	237
1581	245	162	234
1582	252	168	238
1583	255	167	236
1584	255	163	234
1585	255	160	236
1586	255	158	235
1587	255	153	229
1588	255	151	227
1589	253	140	221
1590	252	134	221
1591	251	128	222
1592	248	120	218
1593	251	124	220
1594	253	126	221
1595	249	121	219
1596	255	133	228
1597	255	133	226
1598	255	137	225
1599	255	140	223
1600	255	148	226
1601	253	140	218
1602	247	134	213
1603	248	143	217
1604	246	147	220
1605	251	158	229
1606	255	165	234
1607	249	157	227
1608	242	153	222
1609	243	157	223
1610	249	165	228
1611	254	173	232
1612	255	175	234
1613	250	168	232
1614	245	162	227
1615	244	165	224
1616	250	181	228
1617	251	184	226
1618	250	181	223
1619	251	182	226
1620	255	193	233
1621	252	190	228
1622	248	188	224
1623	255	201	232
1624	255	203	231
1625	251	201	225
1626	0	0	0
1627	0	0	0
1628	0	0	0
1629	0	0	0
1630	0	0	0
1631	0	0	0
1632	0	0	0
1633	0	0	0
1634	0	0	0
1635	0	0	0
1636	0	0	0
1637	0	0	0
1638	0	0	0
1639	0	0	0
1640	0	0	0
1641	0	0	0
1642	0	0	0
1643	0	0	0
1644	0	0	0
1645	0	0	0
1646	0	0	0
1647	0	0	0
1648	0	0	0
1649	0	0	0
1650	246	202	241
1651	244	193	240
1652	245	189	241
1653	246	183	239
1654	249	182	240
1655	249	177	237
1656	252	177	238
1657	255	177	241
1658	255	174	241
1659	255	171	240
1660	255	166	237
1661	255	161	232
1662	253	150	226
1663	250	141	222
1664	250	136	222
1665	247	129	220
1666	253	135	226
1667	255	140	229
1668	255	137	227
1669	252	131	224
1670	255	137	227
1671	254	138	225
1672	255	141	224
1673	255	144	222
1674	248	136	215
1675	241	129	210
1676	248	141	218
1677	249	150	222
1678	247	156	226
1679	253	168	234
1680	251	163	232
1681	243	155	224
1682	239	156	224
1683	240	161	226
1684	249	171	232
1685	254	178	234
1686	244	168	226
1687	239	162	227
1688	246	171	233
1689	246	175	230
1690	244	177	228
1691	246	182	229
1692	248	182	229
1693	248	182	226
1694	247	182	224
1695	243	180	222
1696	248	191	228
1697	255	203	234
1698	252	201	230
1699	0	0	0
1700	0	0	0
1701	0	0	0
1702	0	0	0
1703	0	0	0
1704	0	0	0
1705	0	0	0
1706	0	0	0
1707	0	0	0
1708	0	0	0
1709	0	0	0
1710	0	0	0
1711	0	0	0
1712	0	0	0
1713	0	0	0
1714	0	0	0
1715	0	0	0
1716	0	0	0
1717	0	0	0
1718	0	0	0
1719	0	0	0
1720	0	0	0
1721	0	0	0
1722	0	0	0
1723	0	0	0
1724	0	0	0
1725	246	207	244
1726	246	203	245
1727	236	181	232
1728	242	180	234
1729	249	184	237
1730	253	184	239
1731	255	184	241
1732	255	180	241
1733	255	173	237
1734	255	168	234
1735	255	167	234
1736	253	157	229
1737	253	152	228
1738	253	147	228
1739	248	136	223
1740	253	142	228
1741	255	147	231
1742	255	144	229
1743	252	139	226
1744	255	145	230
1745	252	141	225
1746	254	145	225
1747	254	148	225
1748	248	142	218
1749	250	147	222
1750	255	159	229
1751	253	162	228
1752	253	169	232
1753	250	167	233
1754	246	161	229
1755	241	159	225
1756	236	160	225
1757	242	172	233
1758	250	181	238
1759	245	177	230
1760	233	165	221
1761	239	174	232
1762	248	185	239
1763	248	186	235
1764	251	191	235
1765	252	193	237
1766	251	192	235
1767	252	194	232
1768	252	195	230
1769	0	0	0
1770	0	0	0
1771	0	0	0
1772	0	0	0
1773	0	0	0
1774	0	0	0
1775	0	0	0
1776	0	0	0
1777	0	0	0
1778	0	0	0
1779	0	0	0
1780	0	0	0
1781	0	0	0
1782	0	0	0
1783	0	0	0
1784	0	0	0
1785	0	0	0
1786	0	0	0
1787	0	0	0
1788	0	0	0
1789	0	0	0
1790	0	0	0
1791	0	0	0
1792	0	0	0
1793	0	0	0
1794	0	0	0
1795	0	0	0
1796	0	0	0
1797	0	0	0
1798	0	0	0
1799	0	0	0
1800	236	200	236
1801	226	178	228
1802	240	188	237
1803	248	191	238
1804	253	191	239
1805	255	190	240
1806	254	182	235
1807	252	175	231
1808	252	172	231
1809	255	171	235
1810	254	165	233
1811	253	159	230
1812	251	152	227
1813	246	141	224
1814	252	149	231
1815	255	154	233
1816	254	150	230
1817	251	145	226
1818	250	144	226
1819	246	141	223
1820	249	146	226
1821	250	150	227
1822	252	156	229
1823	254	162	230
1824	254	167	231
1825	252	169	228
1826	246	165	225
1827	244	163	227
1828	245	165	229
1829	242	163	227
1830	244	173	233
1831	250	184	240
1832	248	182	238
1833	243	179	233
1834	244	184	235
1835	249	192	241
1836	251	195	241
1837	252	196	237
1838	254	199	237
1839	255	200	238
1840	255	204	238
1841	255	207	237
1842	255	206	235
1843	0	0	0
1844	0	0	0
1845	0	0	0
1846	0	0	0
1847	0	0	0
1848	0	0	0
1849	0	0	0
1850	0	0	0
1851	0	0	0
1852	0	0	0
1853	0	0	0
1854	0	0	0
1855	0	0	0
1856	0	0	0
1857	0	0	0
1858	0	0	0
1859	0	0	0
1860	0	0	0
1861	0	0	0
1862	0	0	0
1863	0	0	0
1864	0	0	0
1865	0	0	0
1866	0	0	0
1867	0	0	0
1868	0	0	0
1869	0	0	0
1870	0	0	0
1871	0	0	0
1872	0	0	0
1873	0	0	0
1874	0	0	0
1875	0	0	0
1876	0	0	0
1877	247	202	241
1878	255	203	243
1879	253	191	236
1880	249	182	230
1881	255	188	235
1882	255	186	236
1883	255	180	238
1884	255	174	237
1885	254	168	234
1886	251	160	231
1887	250	157	232
1888	255	164	239
1889	255	165	238
1890	255	161	234
1891	250	153	227
1892	248	151	227
1893	255	162	235
1894	255	168	239
1895	255	166	235
1896	255	171	236
1897	251	169	232
1898	252	174	232
1899	247	171	227
1900	244	168	225
1901	248	173	231
1902	250	175	234
1903	252	179	235
1904	255	192	243
1905	254	185	238
1906	247	180	233
1907	252	190	238
1908	255	198	242
1909	251	193	237
1910	250	193	234
1911	255	202	237
1912	255	204	236
1913	253	200	233
1914	255	204	235
1915	254	204	233
1916	0	0	0
1917	0	0	0
1918	0	0	0
1919	0	0	0
1920	0	0	0
1921	0	0	0
1922	0	0	0
1923	0	0	0
1924	0	0	0
1925	0	0	0
1926	0	0	0
1927	0	0	0
1928	0	0	0
1929	0	0	0
1930	0	0	0
1931	0	0	0
1932	0	0	0
1933	0	0	0
1934	0	0	0
1935	0	0	0
1936	0	0	0
1937	0	0	0
1938	0	0	0
1939	0	0	0
1940	0	0	0
1941	0	0	0
1942	0	0	0
1943	0	0	0
1944	0	0	0
1945	0	0	0
1946	0	0	0
1947	0	0	0
1948	0	0	0
1949	0	0	0
1950	0	0	0
1951	0	0	0
1952	250	203	239
1953	0	0	0
1954	0	0	0
1955	0	0	0
1956	255	195	238
1957	255	189	240
1958	255	183	240
1959	254	178	239
1960	255	177	241
1961	255	173	241
1962	255	175	243
1963	255	176	241
1964	255	169	234
1965	248	159	227
1966	253	169	234
1967	255	180	243
1968	255	181	243
1969	255	179	238
1970	252	178	235
1971	248	176	233
1972	244	173	229
1973	242	172	227
1974	248	178	232
1975	252	183	236
1976	255	188	238
1977	255	190	237
1978	252	185	232
1979	246	179	227
1980	251	189	232
1981	255	199	236
1982	255	197	233
1983	250	192	229
1984	252	198	231
1985	255	207	235
1986	254	203	231
1987	250	199	229
1988	249	200	230
1989	0	0	0
1990	0	0	0
1991	0	0	0
1992	0	0	0
1993	0	0	0
1994	0	0	0
1995	0	0	0
1996	0	0	0
1997	0	0	0
1998	0	0	0
1999	0	0	0
2000	0	0	0
2001	0	0	0
2002	0	0	0
2003	0	0	0
2004	0	0	0
2005	0	0	0
2006	0	0	0
2007	0	0	0
2008	0	0	0
2009	0	0	0
2010	0	0	0
2011	0	0	0
2012	0	0	0
2013	0	0	0
2014	0	0	0
2015	0	0	0
2016	0	0	0
2017	0	0	0
2018	0	0	0
2019	0	0	0
2020	0	0	0
2021	0	0	0
2022	0	0	0
2023	0	0	0
2024	0	0	0
2025	0	0	0
2026	0	0	0
2027	0	0	0
2028	0	0	0
2029	0	0	0
2030	0	0	0
2031	0	0	0
2032	247	183	235
2033	253	187	242
2034	255	187	245
2035	253	176	239
2036	255	178	239
2037	255	183	240
2038	255	175	234
2039	248	170	229
2040	250	178	235
2041	254	186	242
2042	255	188	243
2043	248	177	232
2044	242	175	228
2045	240	178	230
2046	238	176	229
2047	244	184	234
2048	253	192	239
2049	249	185	235
2050	250	188	235
2051	249	189	233
2052	241	181	225
2053	246	189	229
2054	255	203	237
2055	254	197	230
2056	252	194	227
2057	249	193	226
2058	250	200	229
2059	255	210	234
2060	0	0	0
2061	0	0	0
2062	0	0	0
2063	0	0	0
2064	0	0	0
2065	0	0	0
2066	0	0	0
2067	0	0	0
2068	0	0	0
2069	0	0	0
2070	0	0	0
2071	0	0	0
2072	0	0	0
2073	0	0	0
2074	0	0	0
2075	0	0	0
2076	0	0	0
2077	0	0	0
2078	0	0	0
2079	0	0	0
2080	0	0	0
2081	0	0	0
2082	0	0	0
2083	0	0	0
2084	0	0	0
2085	0	0	0
2086	0	0	0
2087	0	0	0
2088	0	0	0
2089	0	0	0
2090	0	0	0
2091	0	0	0
2092	0	0	0
2093	0	0	0
2094	0	0	0
2095	0	0	0
2096	0	0	0
2097	0	0	0
2098	0	0	0
2099	0	0	0
2100	0	0	0
2101	0	0	0
2102	0	0	0
2103	0	0	0
2104	0	0	0
2105	0	0	0
2106	0	0	0
2107	255	199	246
2108	254	190	242
2109	247	178	234
2110	251	184	236
2111	255	189	238
2112	255	188	238
2113	253	184	235
2114	253	190	239
2115	255	197	246
2116	251	188	239
2117	242	177	229
2118	242	181	231
2119	242	184	235
2120	246	191	239
2121	252	199	241
2122	252	195	239
2123	248	188	234
2124	250	192	237
2125	249	193	237
2126	250	199	237
2127	255	206	239
2128	255	202	234
2129	252	196	230
2130	253	199	231
2131	250	198	229
2132	254	207	234
2133	255	218	240
2134	0	0	0
2135	0	0	0
2136	0	0	0
2137	0	0	0
2138	0	0	0
2139	0	0	0
2140	0	0	0
2141	0	0	0
2142	0	0	0
2143	0	0	0
2144	0	0	0
2145	0	0	0
2146	0	0	0
2147	0	0	0
2148	0	0	0
2149	0	0	0
2150	0	0	0
2151	0	0	0
2152	0	0	0
2153	0	0	0
2154	0	0	0
2155	0	0	0
2156	0	0	0
2157	0	0	0
2158	0	0	0
2159	0	0	0
2160	0	0	0
2161	0	0	0
2162	0	0	0
2163	0	0	0
2164	0	0	0
2165	0	0	0
2166	0	0	0
2167	0	0	0
2168	0	0	0
2169	0	0	0
2170	0	0	0
2171	0	0	0
2172	0	0	0
2173	0	0	0
2174	0	0	0
2175	0	0	0
2176	0	0	0
2177	0	0	0
2178	0	0	0
2179	0	0	0
2180	0	0	0
2181	0	0	0
2182	0	0	0
2183	0	0	0
2184	0	0	0
2185	0	0	0
2186	254	194	238
2187	249	185	233
2188	252	192	239
2189	253	197	242
2190	243	186	233
2191	247	191	235
2192	253	198	241
2193	252	196	241
2194	255	203	245
2195	255	203	242
2196	253	197	237
2197	249	191	234
2198	251	195	238
2199	249	195	238
2200	254	202	240
2201	255	204	237
2202	250	197	230
2203	254	202	233
2204	254	204	233
2205	249	200	229
2206	255	212	236
2207	255	217	240
2208	255	215	237
2209	0	0	0
2210	0	0	0
2211	0	0	0
2212	0	0	0
2213	0	0	0
2214	0	0	0
2215	0	0	0
2216	0	0	0
2217	0	0	0
2218	0	0	0
2219	0	0	0
2220	0	0	0
2221	0	0	0
2222	0	0	0
2223	0	0	0
2224	0	0	0
2225	0	0	0
2226	0	0	0
2227	0	0	0
2228	0	0	0
2229	0	0	0
2230	0	0	0
2231	0	0	0
2232	0	0	0
2233	0	0	0
2234	0	0	0
2235	0	0	0
2236	0	0	0
2237	0	0	0
2238	0	0	0
2239	0	0	0
2240	0	0	0
2241	0	0	0
2242	0	0	0
2243	0	0	0
2244	0	0	0
2245	0	0	0
2246	0	0	0
2247	0	0	0
2248	0	0	0
2249	0	0	0
2250	0	0	0
2251	0	0	0
2252	0	0	0
2253	0	0	0
2254	0	0	0
2255	0	0	0
2256	0	0	0
2257	0	0	0
2258	0	0	0
2259	0	0	0
2260	250	196	238
2261	246	187	233
2262	251	195	238
2263	251	199	239
2264	247	199	236
2265	250	204	240
2266	252	203	239
2267	251	200	237
2268	251	201	237
2269	252	202	236
2270	250	197	234
2271	246	192	232
2272	245	193	233
2273	244	192	233
2274	248	197	234
2275	251	200	234
2276	254	205	234
2277	255	208	232
2278	249	203	227
2279	246	200	226
2280	252	207	232
2281	255	213	234
2282	0	0	0
2283	0	0	0
2284	0	0	0
2285	0	0	0
2286	0	0	0
2287	0	0	0
2288	0	0	0
2289	0	0	0
2290	0	0	0
2291	0	0	0
2292	0	0	0
2293	0	0	0
2294	0	0	0
2295	0	0	0
2296	0	0	0
2297	0	0	0
2298	0	0	0
2299	0	0	0
2300	0	0	0
2301	0	0	0
2302	0	0	0
2303	0	0	0
2304	0	0	0
2305	0	0	0
2306	0	0	0
2307	0	0	0
2308	0	0	0
2309	0	0	0
2310	0	0	0
2311	0	0	0
2312	0	0	0
2313	0	0	0
2314	0	0	0
2315	0	0	0
2316	0	0	0
2317	0	0	0
2318	0	0	0
2319	0	0	0
2320	0	0	0
2321	0	0	0
2322	0	0	0
2323	0	0	0
2324	0	0	0
2325	0	0	0
2326	0	0	0
2327	0	0	0
2328	0	0	0
2329	0	0	0
2330	0	0	0
2331	0	0	0
2332	0	0	0
2333	0	0	0
2334	0	0	0
2335	249	197	238
2336	255	205	243
2337	250	201	238
2338	0	0	0
2339	0	0	0
2340	0	0	0
2341	246	206	235
2342	248	207	236
2343	246	203	233
2344	0	0	0
2345	0	0	0
2346	0	0	0
2347	0	0	0
2348	0	0	0
2349	253	209	238
2350	255	215	240
2351	249	203	228
2352	0	0	0
2353	0	0	0
2354	255	222	239
2355	0	0	0
2356	0	0	0
2357	0	0	0
2358	0	0	0
2359	0	0	0
2360	0	0	0
2361	0	0	0
2362	0	0	0
2363	0	0	0
2364	0	0	0
2365	0	0	0
2366	0	0	0
2367	0	0	0
2368	0	0	0
2369	0	0	0
2370	0	0	0
2371	0	0	0
2372	0	0	0
2373	0	0	0
2374	0	0	0
2375	0	0	0
2376	0	0	0
2377	0	0	0
2378	0	0	0
2379	0	0	0
2380	0	0	0
2381	0	0	0
2382	0	0	0
2383	0	0	0
2384	0	0	0
2385	0	0	0
2386	0	0	0
2387	0	0	0
2388	0	0	0
2389	0	0	0
2390	0	0	0
2391	0	0	0
2392	0	0	0
2393	0	0	0
2394	0	0	0
2395	0	0	0
2396	0	0	0
2397	0	0	0
2398	0	0	0
2399	0	0	0
2400	0	0	0
2401	0	0	0
2402	0	0	0
2403	0	0	0
2404	0	0	0
2405	0	0	0
2406	0	0	0
2407	0	0	0
2408	0	0	0
2409	0	0	0
2410	253	207	241
2411	0	0	0
2412	0	0	0
2413	0	0	0
2414	0	0	0
2415	0	0	0
2416	0	0	0
2417	0	0	0
2418	0	0	0
2419	0	0	0
2420	0	0	0
2421	0	0	0
2422	255	217	242
2423	255	220	243
2424	255	213	238
2425	248	202	231
2426	0	0	0
2427	0	0	0
2428	0	0	0
2429	0	0	0
2430	0	0	0
2431	0	0	0
2432	0	0	0
2433	0	0	0
2434	0	0	0
2435	0	0	0
2436	0	0	0
2437	0	0	0
2438	0	0	0
2439	0	0	0
2440	0	0	0
2441	0	0	0
2442	0	0	0
2443	0	0	0
2444	0	0	0
2445	0	0	0
2446	0	0	0
2447	0	0	0
2448	0	0	0
2449	0	0	0
2450	0	0	0
2451	0	0	0
2452	0	0	0
2453	0	0	0
2454	0	0	0
2455	0	0	0
2456	0	0	0
2457	0	0	0
2458	0	0	0
2459	0	0	0
2460	0	0	0
2461	0	0	0
2462	0	0	0
2463	0	0	0
2464	0	0	0
2465	0	0	0
2466	0	0	0
2467	0	0	0
2468	0	0	0
2469	0	0	0
2470	0	0	0
2471	0	0	0
2472	0	0	0
2473	0	0	0
2474	0	0	0
2475	0	0	0
2476	0	0	0
2477	0	0	0
2478	0	0	0
2479	0	0	0
2480	0	0	0
2481	0	0	0
2482	0	0	0
2483	0	0	0
2484	0	0	0
2485	0	0	0
2486	0	0	0
2487	0	0	0
2488	0	0	0
2489	0	0	0
2490	0	0	0
2491	0	0	0
2492	0	0	0
2493	0	0	0
2494	0	0	0
2495	0	0	0
2496	255	219	242
2497	255	212	236
2498	249	203	231
2499	0	0	0
2500	0	0	0
2501	0	0	0
2502	0	0	0
2503	0	0	0
2504	0	0	0
2505	0	0	0
2506	0	0	0
2507	0	0	0
2508	0	0	0
2509	0	0	0
2510	0	0	0
2511	0	0	0
2512	0	0	0
2513	0	0	0
2514	0	0	0
2515	0	0	0
2516	0	0	0
2517	0	0	0
2518	0	0	0
2519	0	0	0
2520	0	0	0
2521	0	0	0
2522	0	0	0
2523	0	0	0
2524	0	0	0
2525	0	0	0
2526	0	0	0
2527	0	0	0
2528	0	0	0
2529	0	0	0
2530	0	0	0
2531	0	0	0
2532	0	0	0
2533	0	0	0
2534	0	0	0
2535	0	0	0
2536	0	0	0
2537	0	0	0
2538	0	0	0
2539	0	0	0
2540	0	0	0
2541	0	0	0
2542	0	0	0
2543	0	0	0
2544	0	0	0
2545	0	0	0
2546	0	0	0
2547	0	0	0
2548	0	0	0
2549	0	0	0
2550	0	0	0
2551	0	0	0
2552	0	0	0
2553	0	0	0
2554	0	0	0
2555	0	0	0
2556	0	0	0
2557	0	0	0
2558	0	0	0
2559	0	0	0
2560	0	0	0
2561	0	0	0
2562	0	0	0
2563	0	0	0
2564	0	0	0
2565	0	0	0
2566	0	0	0
2567	0	0	0
2568	0	0	0
2569	0	0	0
2570	0	0	0
2571	245	201	228
2572	0	0	0
2573	0	0	0
2574	0	0	0
2575	0	0	0
2576	0	0	0
2577	0	0	0
2578	0	0	0
2579	0	0	0
2580	0	0	0
2581	0	0	0
2582	0	0	0
2583	0	0	0
2584	0	0	0
2585	0	0	0
2586	0	0	0
2587	0	0	0
2588	0	0	0
2589	0	0	0
2590	0	0	0
