 	R	G	B
1	0	0	0
2	0	0	0
3	0	0	0
4	0	0	0
5	0	0	0
6	229	204	225
7	0	0	0
8	0	0	0
9	0	0	0
10	0	0	0
11	0	0	0
12	0	0	0
13	0	0	0
14	217	182	212
15	248	222	240
16	233	204	219
17	0	0	0
18	0	0	0
19	0	0	0
20	0	0	0
21	0	0	0
22	230	189	217
23	231	196	220
24	233	195	220
25	218	178	203
26	0	0	0
27	0	0	0
28	0	0	0
29	0	0	0
30	247	190	220
31	253	204	230
32	233	183	213
33	220	174	205
34	216	175	204
35	0	0	0
36	0	0	0
37	0	0	0
38	0	0	0
39	255	196	223
40	245	185	217
41	225	165	202
42	223	173	207
43	218	175	208
44	0	0	0
45	0	0	0
46	0	0	0
47	0	0	0
48	250	187	219
49	238	175	211
50	220	156	199
51	223	168	209
52	219	170	209
53	0	0	0
54	0	0	0
55	0	0	0
56	255	188	223
57	247	180	217
58	232	164	208
59	214	146	200
60	219	160	210
61	0	0	0
62	0	0	0
63	0	0	0
64	254	185	224
65	255	184	224
66	245	170	215
67	227	154	205
68	222	157	211
69	226	171	220
70	216	167	211
71	232	197	225
72	0	0	0
73	248	175	218
74	251	172	219
75	241	160	212
76	237	165	216
77	231	167	218
78	229	174	221
79	218	170	213
80	221	184	215
81	222	194	212
82	249	175	221
83	253	172	223
84	244	161	216
85	242	167	221
86	233	165	218
87	232	172	220
88	221	171	213
89	215	181	211
90	217	191	209
91	246	171	221
92	250	169	224
93	241	157	216
94	238	161	218
95	232	159	216
96	234	170	220
97	222	169	210
98	214	179	208
99	217	191	212
100	251	181	228
101	254	178	230
102	242	162	220
103	241	167	222
104	236	165	220
105	242	178	226
106	227	171	213
107	220	182	212
108	215	182	209
109	0	0	0
110	251	179	228
111	241	164	219
112	243	169	223
113	239	168	221
114	243	176	224
115	230	171	215
116	217	172	210
117	212	172	206
118	0	0	0
119	0	0	0
120	248	176	226
121	254	183	232
122	246	173	223
123	249	181	226
124	236	172	217
125	225	175	214
126	216	170	208
127	0	0	0
128	0	0	0
129	255	188	234
130	255	185	231
131	248	176	221
132	249	178	221
133	237	170	213
134	225	169	210
135	215	164	204
136	0	0	0
137	0	0	0
138	0	0	0
139	252	182	227
140	243	168	216
141	246	172	218
142	239	169	215
143	228	169	213
144	213	159	203
145	0	0	0
146	0	0	0
147	0	0	0
148	241	169	219
149	234	157	213
150	243	166	221
151	236	163	217
152	224	161	212
153	208	151	201
154	0	0	0
155	0	0	0
156	0	0	0
157	0	0	0
158	241	173	223
159	252	183	233
160	237	168	221
161	225	166	217
162	211	156	207
163	0	0	0
164	0	0	0
165	0	0	0
166	0	0	0
167	252	190	231
168	251	185	229
169	236	169	217
170	220	165	212
171	207	156	205
172	0	0	0
173	0	0	0
174	0	0	0
175	0	0	0
176	254	187	229
177	250	180	224
178	230	162	211
179	209	155	204
180	201	157	203
181	0	0	0
182	0	0	0
183	0	0	0
184	0	0	0
185	0	0	0
186	243	173	221
187	224	156	209
188	216	164	211
189	208	165	208
190	0	0	0
191	0	0	0
192	0	0	0
193	0	0	0
194	0	0	0
195	0	0	0
196	0	0	0
197	234	181	227
198	0	0	0
