 	R	G	B
1	0	0	0
2	0	0	0
3	0	0	0
4	0	0	0
5	0	0	0
6	246	238	235
7	0	0	0
8	0	0	0
9	0	0	0
10	0	0	0
11	0	0	0
12	0	0	0
13	0	0	0
14	0	0	0
15	0	0	0
16	0	0	0
17	0	0	0
18	0	0	0
19	0	0	0
20	0	0	0
21	0	0	0
22	0	0	0
23	0	0	0
24	0	0	0
25	0	0	0
26	0	0	0
27	0	0	0
28	0	0	0
29	0	0	0
30	0	0	0
31	0	0	0
32	0	0	0
33	0	0	0
34	0	0	0
35	0	0	0
36	0	0	0
37	0	0	0
38	0	0	0
39	0	0	0
40	0	0	0
41	0	0	0
42	0	0	0
43	0	0	0
44	0	0	0
45	0	0	0
46	0	0	0
47	0	0	0
48	0	0	0
49	0	0	0
50	0	0	0
51	0	0	0
52	0	0	0
53	0	0	0
54	0	0	0
55	0	0	0
56	245	230	230
57	247	231	230
58	242	223	223
59	0	0	0
60	0	0	0
61	0	0	0
62	0	0	0
63	0	0	0
64	0	0	0
65	0	0	0
66	0	0	0
67	0	0	0
68	0	0	0
69	0	0	0
70	0	0	0
71	0	0	0
72	0	0	0
73	0	0	0
74	0	0	0
75	0	0	0
76	0	0	0
77	0	0	0
78	0	0	0
79	0	0	0
80	0	0	0
81	0	0	0
82	0	0	0
83	0	0	0
84	0	0	0
85	0	0	0
86	0	0	0
87	0	0	0
88	0	0	0
89	0	0	0
90	0	0	0
91	0	0	0
92	0	0	0
93	0	0	0
94	0	0	0
95	0	0	0
96	0	0	0
97	0	0	0
98	0	0	0
99	0	0	0
100	0	0	0
101	0	0	0
102	0	0	0
103	0	0	0
104	0	0	0
105	0	0	0
106	0	0	0
107	244	222	225
108	240	216	221
109	236	209	216
110	250	225	227
111	0	0	0
112	0	0	0
113	0	0	0
114	0	0	0
115	0	0	0
116	0	0	0
117	0	0	0
118	0	0	0
119	0	0	0
120	0	0	0
121	0	0	0
122	0	0	0
123	0	0	0
124	0	0	0
125	0	0	0
126	0	0	0
127	0	0	0
128	0	0	0
129	0	0	0
130	0	0	0
131	0	0	0
132	0	0	0
133	0	0	0
134	0	0	0
135	0	0	0
136	0	0	0
137	0	0	0
138	0	0	0
139	0	0	0
140	0	0	0
141	0	0	0
142	0	0	0
143	0	0	0
144	0	0	0
145	0	0	0
146	0	0	0
147	0	0	0
148	0	0	0
149	0	0	0
150	0	0	0
151	0	0	0
152	0	0	0
153	0	0	0
154	0	0	0
155	252	231	238
156	243	214	223
157	245	216	223
158	240	210	219
159	230	201	213
160	238	210	220
161	255	230	234
162	248	215	218
163	0	0	0
164	0	0	0
165	0	0	0
166	0	0	0
167	0	0	0
168	0	0	0
169	0	0	0
170	0	0	0
171	0	0	0
172	0	0	0
173	0	0	0
174	0	0	0
175	0	0	0
176	0	0	0
177	0	0	0
178	0	0	0
179	0	0	0
180	0	0	0
181	0	0	0
182	0	0	0
183	0	0	0
184	0	0	0
185	0	0	0
186	0	0	0
187	0	0	0
188	0	0	0
189	0	0	0
190	0	0	0
191	0	0	0
192	0	0	0
193	0	0	0
194	0	0	0
195	0	0	0
196	0	0	0
197	0	0	0
198	0	0	0
199	0	0	0
200	0	0	0
201	0	0	0
202	0	0	0
203	0	0	0
204	0	0	0
205	243	223	232
206	241	214	226
207	234	199	217
208	237	200	219
209	232	194	213
210	234	201	217
211	244	211	224
212	251	208	222
213	239	193	206
214	236	203	209
215	240	215	218
216	245	224	225
217	248	230	229
218	245	228	228
219	242	227	227
220	243	233	231
221	247	240	236
222	0	0	0
223	0	0	0
224	0	0	0
225	0	0	0
226	0	0	0
227	0	0	0
228	0	0	0
229	0	0	0
230	0	0	0
231	0	0	0
232	0	0	0
233	0	0	0
234	0	0	0
235	0	0	0
236	0	0	0
237	0	0	0
238	0	0	0
239	0	0	0
240	0	0	0
241	0	0	0
242	0	0	0
243	0	0	0
244	0	0	0
245	0	0	0
246	0	0	0
247	0	0	0
248	0	0	0
249	0	0	0
250	0	0	0
251	0	0	0
252	0	0	0
253	0	0	0
254	0	0	0
255	0	0	0
256	248	232	238
257	247	223	234
258	239	205	225
259	242	207	228
260	239	200	222
261	250	211	229
262	253	210	228
263	253	204	222
264	245	194	211
265	249	207	217
266	245	208	217
267	246	213	220
268	243	210	218
269	245	212	219
270	243	213	219
271	239	216	220
272	243	226	226
273	248	233	231
274	0	0	0
275	0	0	0
276	0	0	0
277	0	0	0
278	0	0	0
279	0	0	0
280	0	0	0
281	0	0	0
282	0	0	0
283	0	0	0
284	0	0	0
285	0	0	0
286	0	0	0
287	0	0	0
288	0	0	0
289	0	0	0
290	0	0	0
291	0	0	0
292	0	0	0
293	0	0	0
294	0	0	0
295	0	0	0
296	0	0	0
297	0	0	0
298	0	0	0
299	0	0	0
300	0	0	0
301	255	236	238
302	0	0	0
303	0	0	0
304	0	0	0
305	0	0	0
306	0	0	0
307	0	0	0
308	246	222	236
309	239	205	227
310	244	206	231
311	243	201	226
312	251	205	229
313	253	203	226
314	252	198	220
315	245	189	211
316	244	192	211
317	242	194	212
318	239	192	211
319	237	190	208
320	246	199	214
321	243	200	211
322	240	207	212
323	242	216	218
324	244	220	222
325	245	225	225
326	0	0	0
327	0	0	0
328	0	0	0
329	0	0	0
330	0	0	0
331	0	0	0
332	0	0	0
333	0	0	0
334	0	0	0
335	0	0	0
336	0	0	0
337	0	0	0
338	0	0	0
339	0	0	0
340	0	0	0
341	0	0	0
342	0	0	0
343	0	0	0
344	0	0	0
345	0	0	0
346	0	0	0
347	0	0	0
348	0	0	0
349	0	0	0
350	0	0	0
351	255	241	243
352	253	219	230
353	243	193	209
354	0	0	0
355	0	0	0
356	0	0	0
357	0	0	0
358	0	0	0
359	0	0	0
360	249	218	237
361	255	222	243
362	246	198	228
363	252	201	230
364	249	194	224
365	248	189	219
366	247	189	215
367	246	192	215
368	249	198	219
369	251	200	219
370	247	192	214
371	255	201	220
372	243	188	206
373	240	196	208
374	241	205	213
375	240	208	215
376	240	213	218
377	0	0	0
378	0	0	0
379	0	0	0
380	0	0	0
381	0	0	0
382	0	0	0
383	0	0	0
384	0	0	0
385	0	0	0
386	0	0	0
387	0	0	0
388	0	0	0
389	0	0	0
390	0	0	0
391	0	0	0
392	0	0	0
393	0	0	0
394	0	0	0
395	0	0	0
396	0	0	0
397	0	0	0
398	0	0	0
399	0	0	0
400	0	0	0
401	0	0	0
402	255	243	244
403	255	221	232
404	236	178	201
405	0	0	0
406	0	0	0
407	0	0	0
408	0	0	0
409	0	0	0
410	0	0	0
411	254	227	241
412	248	209	232
413	236	184	219
414	238	183	221
415	237	178	218
416	243	182	220
417	242	182	215
418	247	190	217
419	251	196	218
420	249	191	213
421	247	185	210
422	248	183	210
423	237	172	200
424	240	185	206
425	241	195	211
426	241	200	213
427	240	204	214
428	244	215	219
429	250	227	224
430	0	0	0
431	0	0	0
432	0	0	0
433	0	0	0
434	0	0	0
435	0	0	0
436	0	0	0
437	0	0	0
438	0	0	0
439	0	0	0
440	0	0	0
441	0	0	0
442	0	0	0
443	0	0	0
444	0	0	0
445	0	0	0
446	0	0	0
447	0	0	0
448	0	0	0
449	0	0	0
450	0	0	0
451	0	0	0
452	254	240	238
453	255	242	238
454	254	208	219
455	233	167	199
456	0	0	0
457	0	0	0
458	0	0	0
459	0	0	0
460	0	0	0
461	0	0	0
462	255	231	243
463	247	211	232
464	240	195	224
465	242	194	227
466	247	197	231
467	254	203	235
468	253	197	227
469	255	208	232
470	252	191	217
471	249	185	212
472	252	187	215
473	254	186	216
474	245	176	206
475	250	190	214
476	244	187	211
477	243	193	212
478	243	197	212
479	249	209	218
480	243	208	213
481	234	204	208
482	0	0	0
483	0	0	0
484	0	0	0
485	0	0	0
486	0	0	0
487	0	0	0
488	0	0	0
489	0	0	0
490	0	0	0
491	0	0	0
492	0	0	0
493	0	0	0
494	0	0	0
495	0	0	0
496	0	0	0
497	0	0	0
498	0	0	0
499	0	0	0
500	0	0	0
501	0	0	0
502	255	249	243
503	255	245	241
504	255	223	225
505	247	188	207
506	232	159	197
507	0	0	0
508	0	0	0
509	0	0	0
510	0	0	0
511	0	0	0
512	0	0	0
513	255	235	245
514	251	220	237
515	244	204	227
516	253	212	235
517	255	215	237
518	255	213	237
519	255	208	233
520	255	198	226
521	249	182	216
522	253	186	219
523	255	189	222
524	255	184	217
525	247	173	205
526	245	175	205
527	241	174	205
528	243	183	210
529	243	188	210
530	244	191	210
531	238	191	207
532	236	198	210
533	238	208	218
534	244	219	226
535	0	0	0
536	0	0	0
537	0	0	0
538	0	0	0
539	0	0	0
540	0	0	0
541	0	0	0
542	0	0	0
543	0	0	0
544	0	0	0
545	0	0	0
546	0	0	0
547	0	0	0
548	0	0	0
549	0	0	0
550	0	0	0
551	0	0	0
552	251	241	233
553	255	252	244
554	255	227	230
555	254	206	217
556	249	184	208
557	232	153	196
558	0	0	0
559	0	0	0
560	247	183	221
561	0	0	0
562	0	0	0
563	0	0	0
564	255	239	247
565	252	224	239
566	249	211	231
567	255	220	239
568	251	203	227
569	254	201	226
570	255	199	227
571	252	188	221
572	252	184	220
573	255	189	225
574	253	179	217
575	250	173	211
576	250	174	208
577	253	179	211
578	251	178	211
579	253	187	216
580	247	183	210
581	247	187	211
582	246	191	212
583	244	198	215
584	242	202	218
585	242	210	222
586	237	210	219
587	0	0	0
588	0	0	0
589	0	0	0
590	231	218	220
591	0	0	0
592	0	0	0
593	0	0	0
594	0	0	0
595	0	0	0
596	0	0	0
597	0	0	0
598	0	0	0
599	0	0	0
600	0	0	0
601	0	0	0
602	250	241	237
603	255	244	238
604	255	236	235
605	250	211	221
606	242	185	207
607	237	162	199
608	234	155	200
609	0	0	0
610	246	181	219
611	246	183	222
612	218	158	205
613	0	0	0
614	0	0	0
615	0	0	0
616	251	228	241
617	248	215	234
618	248	204	229
619	241	188	218
620	248	190	221
621	251	190	223
622	253	187	222
623	253	182	220
624	251	176	216
625	245	166	206
626	249	170	207
627	252	173	211
628	255	178	215
629	254	176	211
630	251	176	210
631	246	174	207
632	248	181	211
633	247	185	211
634	245	189	212
635	241	193	213
636	236	194	213
637	231	195	213
638	236	209	220
639	243	224	226
640	232	214	217
641	225	207	214
642	236	223	226
643	248	238	235
644	247	235	233
645	0	0	0
646	0	0	0
647	0	0	0
648	0	0	0
649	0	0	0
650	0	0	0
651	0	0	0
652	0	0	0
653	253	242	239
654	250	227	230
655	253	220	227
656	243	192	212
657	235	166	202
658	245	170	211
659	242	162	209
660	249	175	219
661	252	185	226
662	233	167	215
663	205	142	200
664	0	0	0
665	0	0	0
666	0	0	0
667	0	0	0
668	252	228	241
669	255	220	239
670	250	201	228
671	255	204	232
672	255	196	227
673	255	193	227
674	252	180	218
675	251	175	214
676	249	171	209
677	254	175	213
678	255	179	218
679	255	184	221
680	249	164	205
681	250	167	206
682	249	171	209
683	248	176	210
684	249	184	213
685	250	190	216
686	246	190	214
687	241	192	214
688	244	202	222
689	250	217	230
690	243	215	223
691	227	201	211
692	229	207	218
693	246	226	232
694	250	230	232
695	248	226	228
696	244	224	228
697	0	0	0
698	0	0	0
699	0	0	0
700	0	0	0
701	0	0	0
702	0	0	0
703	248	233	233
704	255	238	239
705	255	225	232
706	255	215	227
707	248	188	214
708	237	161	203
709	244	162	211
710	246	162	212
711	255	178	224
712	250	176	222
713	223	153	207
714	203	146	204
715	0	0	0
716	0	0	0
717	0	0	0
718	0	0	0
719	255	244	250
720	255	227	242
721	253	208	232
722	255	205	232
723	255	197	225
724	253	187	219
725	248	175	212
726	252	176	215
727	253	174	215
728	255	179	218
729	255	182	220
730	252	167	210
731	240	149	199
732	247	160	206
733	247	164	206
734	248	172	209
735	250	181	214
736	249	183	214
737	243	183	211
738	243	192	215
739	246	202	222
740	242	201	221
741	237	201	219
742	233	202	219
743	236	208	224
744	245	216	229
745	247	218	225
746	243	215	220
747	240	214	221
748	241	222	227
749	247	233	234
750	0	0	0
751	245	230	234
752	0	0	0
753	247	228	231
754	246	225	228
755	255	231	235
756	253	214	226
757	255	204	221
758	245	178	209
759	233	151	200
760	246	161	213
761	247	161	212
762	252	166	216
763	242	163	212
764	224	159	209
765	203	151	206
766	0	0	0
767	0	0	0
768	0	0	0
769	0	0	0
770	255	241	249
771	254	222	239
772	254	213	235
773	255	209	235
774	250	190	222
775	249	182	217
776	249	176	214
777	254	179	218
778	254	175	218
779	255	180	221
780	255	173	215
781	248	159	206
782	245	155	206
783	250	165	213
784	247	165	209
785	253	176	214
786	253	180	216
787	247	180	214
788	238	176	208
789	237	184	211
790	242	198	220
791	239	198	219
792	243	204	225
793	246	210	230
794	247	211	230
795	251	216	231
796	244	210	222
797	235	204	215
798	243	216	224
799	255	230	236
800	250	224	231
801	243	218	227
802	243	222	229
803	238	218	226
804	252	234	235
805	255	235	237
806	255	234	239
807	255	216	229
808	255	198	219
809	243	171	207
810	242	161	208
811	255	171	221
812	250	163	214
813	250	165	216
814	234	155	207
815	216	152	204
816	200	151	205
817	0	0	0
818	0	0	0
819	0	0	0
820	0	0	0
821	0	0	0
822	250	223	241
823	249	212	235
824	246	197	227
825	242	181	221
826	249	183	225
827	249	177	220
828	253	177	221
829	253	174	219
830	252	168	215
831	249	162	209
832	252	163	211
833	249	160	210
834	251	166	214
835	250	167	214
836	255	174	218
837	253	177	216
838	245	175	211
839	236	171	207
840	237	182	213
841	242	196	221
842	243	199	224
843	248	206	229
844	247	206	229
845	247	206	226
846	244	204	223
847	239	200	219
848	238	206	221
849	244	217	227
850	244	213	224
851	241	207	221
852	240	210	223
853	239	213	226
854	242	222	230
855	255	238	239
856	255	229	233
857	255	229	235
858	255	207	223
859	252	190	216
860	254	183	218
861	252	171	216
862	255	171	220
863	250	162	212
864	244	158	210
865	228	149	206
866	215	153	209
867	198	151	208
868	0	0	0
869	0	0	0
870	0	0	0
871	0	0	0
872	0	0	0
873	0	0	0
874	0	0	0
875	0	0	0
876	254	201	236
877	255	203	240
878	247	176	220
879	252	177	220
880	255	178	221
881	255	173	218
882	255	169	215
883	255	171	218
884	249	157	209
885	253	164	215
886	252	164	215
887	254	170	219
888	249	169	215
889	241	167	211
890	240	173	214
891	244	186	220
892	249	197	227
893	250	201	228
894	248	201	228
895	243	198	224
896	245	204	225
897	243	203	223
898	240	202	223
899	243	210	227
900	246	217	229
901	240	210	222
902	241	212	224
903	243	216	228
904	241	216	228
905	245	226	234
906	252	235	237
907	248	223	228
908	255	232	236
909	255	213	227
910	248	182	212
911	251	175	214
912	250	165	212
913	254	165	215
914	248	157	209
915	240	153	208
916	235	160	214
917	221	164	217
918	200	155	210
919	0	0	0
920	0	0	0
921	0	0	0
922	0	0	0
923	0	0	0
924	0	0	0
925	0	0	0
926	0	0	0
927	255	213	239
928	253	194	229
929	239	168	210
930	251	177	217
931	255	180	218
932	255	178	217
933	255	174	217
934	254	165	213
935	244	150	205
936	247	155	210
937	244	154	209
938	243	157	210
939	239	158	211
940	237	164	214
941	237	170	217
942	244	183	223
943	250	194	229
944	249	194	227
945	245	193	225
946	242	196	225
947	244	203	228
948	244	203	228
949	241	202	225
950	243	209	227
951	246	216	228
952	246	217	227
953	247	219	229
954	249	221	232
955	247	221	232
956	244	223	232
957	250	231	235
958	250	227	231
959	255	236	240
960	251	201	220
961	240	170	205
962	247	168	210
963	246	159	208
964	251	160	212
965	244	153	208
966	247	165	217
967	239	169	219
968	219	165	214
969	199	156	209
970	0	0	0
971	0	0	0
972	0	0	0
973	0	0	0
974	0	0	0
975	0	0	0
976	0	0	0
977	0	0	0
978	255	220	239
979	255	203	232
980	242	174	214
981	255	185	223
982	254	177	216
983	255	175	215
984	253	167	212
985	249	158	209
986	249	158	210
987	250	162	215
988	239	152	208
989	236	155	210
990	243	170	221
991	242	177	225
992	238	175	223
993	250	190	232
994	254	197	233
995	251	195	230
996	247	195	228
997	243	198	227
998	243	202	229
999	243	203	228
1000	240	201	225
1001	242	208	226
1002	247	215	228
1003	252	219	230
1004	250	213	228
1005	251	216	231
1006	246	214	228
1007	239	214	225
1008	251	232	237
1009	254	229	234
1010	255	231	238
1011	246	195	216
1012	247	181	213
1013	255	180	219
1014	245	158	207
1015	247	158	211
1016	241	153	210
1017	244	165	219
1018	229	160	212
1019	207	154	206
1020	200	162	212
1021	0	0	0
1022	0	0	0
1023	0	0	0
1024	0	0	0
1025	0	0	0
1026	0	0	0
1027	0	0	0
1028	0	0	0
1029	255	229	241
1030	252	204	230
1031	242	178	217
1032	251	181	223
1033	249	172	214
1034	249	167	211
1035	248	160	211
1036	255	166	217
1037	254	165	216
1038	250	162	215
1039	240	154	212
1040	245	169	224
1041	250	183	231
1042	244	181	227
1043	242	180	228
1044	249	188	232
1045	251	194	231
1046	246	192	226
1047	242	192	224
1048	238	194	223
1049	239	198	226
1050	241	201	226
1051	239	199	221
1052	242	206	223
1053	248	214	227
1054	247	209	225
1055	245	204	225
1056	246	207	227
1057	241	205	223
1058	244	216	228
1059	255	235	241
1060	250	223	232
1061	255	224	235
1062	254	205	225
1063	255	192	222
1064	255	179	218
1065	243	156	205
1066	246	159	211
1067	239	154	212
1068	237	159	217
1069	221	153	211
1070	210	163	215
1071	204	169	218
1072	0	0	0
1073	0	0	0
1074	0	0	0
1075	0	0	0
1076	0	0	0
1077	0	0	0
1078	0	0	0
1079	0	0	0
1080	255	234	242
1081	253	210	231
1082	250	194	227
1083	255	197	233
1084	249	174	216
1085	250	170	215
1086	253	169	218
1087	255	175	224
1088	247	155	210
1089	246	153	211
1090	244	156	217
1091	247	170	226
1092	247	177	227
1093	245	177	226
1094	246	181	229
1095	248	187	230
1096	250	197	231
1097	241	193	223
1098	240	197	225
1099	240	201	226
1100	245	208	231
1101	250	212	233
1102	242	200	222
1103	245	208	225
1104	247	211	227
1105	243	204	223
1106	241	203	226
1107	241	204	227
1108	246	213	230
1109	255	229	239
1110	255	228	239
1111	243	212	226
1112	255	229	239
1113	255	211	230
1114	253	188	217
1115	251	173	213
1116	243	158	206
1117	247	162	214
1118	240	157	214
1119	237	161	219
1120	225	163	219
1121	214	171	223
1122	202	170	219
1123	0	0	0
1124	0	0	0
1125	0	0	0
1126	0	0	0
1127	0	0	0
1128	0	0	0
1129	0	0	0
1130	0	0	0
1131	255	245	249
1132	255	224	239
1133	255	206	232
1134	252	191	225
1135	242	170	212
1136	249	172	216
1137	253	171	218
1138	246	158	212
1139	235	140	203
1140	246	153	215
1141	243	154	216
1142	242	162	220
1143	244	170	224
1144	248	176	226
1145	246	179	225
1146	247	188	227
1147	248	198	229
1148	242	199	225
1149	242	203	226
1150	243	207	227
1151	249	215	232
1152	247	208	228
1153	239	197	220
1154	241	202	223
1155	243	206	226
1156	243	205	227
1157	241	203	228
1158	243	211	232
1159	248	219	234
1160	247	216	230
1161	247	215	232
1162	249	218	234
1163	255	235	244
1164	255	205	223
1165	248	181	209
1166	249	172	209
1167	242	158	206
1168	247	164	215
1169	239	158	214
1170	236	167	221
1171	224	168	219
1172	207	168	218
1173	0	0	0
1174	0	0	0
1175	0	0	0
1176	0	0	0
1177	0	0	0
1178	0	0	0
1179	0	0	0
1180	0	0	0
1181	0	0	0
1182	255	242	246
1183	254	219	234
1184	255	210	232
1185	251	194	226
1186	247	181	220
1187	255	184	225
1188	255	181	223
1189	251	168	217
1190	247	159	217
1191	255	171	229
1192	242	156	218
1193	246	167	224
1194	253	181	232
1195	255	186	233
1196	243	177	222
1197	240	184	222
1198	247	202	229
1199	245	204	228
1200	241	202	224
1201	243	206	226
1202	252	217	233
1203	249	210	229
1204	237	195	220
1205	233	197	221
1206	236	202	225
1207	244	205	230
1208	244	206	231
1209	244	212	233
1210	246	219	234
1211	0	0	0
1212	0	0	0
1213	0	0	0
1214	255	228	239
1215	249	197	217
1216	253	191	215
1217	254	182	214
1218	245	164	209
1219	250	169	218
1220	238	163	214
1221	230	168	218
1222	216	167	216
1223	0	0	0
1224	0	0	0
1225	0	0	0
1226	0	0	0
1227	0	0	0
1228	0	0	0
1229	0	0	0
1230	0	0	0
1231	0	0	0
1232	0	0	0
1233	255	241	246
1234	255	226	239
1235	255	216	236
1236	255	206	233
1237	253	193	230
1238	255	193	231
1239	255	189	226
1240	255	182	223
1241	253	172	223
1242	249	167	223
1243	236	153	214
1244	244	169	224
1245	249	182	230
1246	244	177	223
1247	233	170	215
1248	238	187	223
1249	246	205	231
1250	244	203	228
1251	241	201	225
1252	247	210	230
1253	254	220	237
1254	245	206	228
1255	233	192	220
1256	229	194	222
1257	233	199	227
1258	244	207	233
1259	245	207	231
1260	244	212	233
1261	246	219	235
1262	0	0	0
1263	0	0	0
1264	0	0	0
1265	0	0	0
1266	255	209	226
1267	255	202	223
1268	255	188	219
1269	247	169	212
1270	249	174	219
1271	236	166	213
1272	225	169	216
1273	212	169	218
1274	0	0	0
1275	0	0	0
1276	0	0	0
1277	0	0	0
1278	0	0	0
1279	0	0	0
1280	0	0	0
1281	0	0	0
1282	0	0	0
1283	0	0	0
1284	255	244	248
1285	255	230	241
1286	255	219	237
1287	254	207	234
1288	253	199	233
1289	255	198	234
1290	254	189	225
1291	253	181	222
1292	249	173	221
1293	247	168	222
1294	243	168	223
1295	246	182	231
1296	244	187	229
1297	237	182	222
1298	235	185	221
1299	246	205	233
1300	246	206	233
1301	246	206	231
1302	245	204	229
1303	249	212	234
1304	245	208	231
1305	232	193	221
1306	234	197	225
1307	236	203	231
1308	241	208	235
1309	248	213	238
1310	245	209	232
1311	247	216	235
1312	248	222	237
1313	0	0	0
1314	0	0	0
1315	0	0	0
1316	255	220	234
1317	255	207	227
1318	255	197	222
1319	251	183	216
1320	241	166	209
1321	242	169	215
1322	234	170	214
1323	223	173	216
1324	211	173	218
1325	0	0	0
1326	0	0	0
1327	0	0	0
1328	0	0	0
1329	0	0	0
1330	0	0	0
1331	0	0	0
1332	0	0	0
1333	0	0	0
1334	0	0	0
1335	0	0	0
1336	253	233	243
1337	251	221	237
1338	252	212	235
1339	252	203	233
1340	253	198	232
1341	251	189	227
1342	249	183	224
1343	245	174	222
1344	250	181	229
1345	246	181	228
1346	246	189	232
1347	244	194	232
1348	242	197	231
1349	241	200	229
1350	241	201	228
1351	243	205	231
1352	244	205	232
1353	244	204	230
1354	242	202	229
1355	239	199	229
1356	239	203	232
1357	241	207	235
1358	243	211	238
1359	246	215	239
1360	244	212	235
1361	240	208	229
1362	242	213	231
1363	0	0	0
1364	0	0	0
1365	0	0	0
1366	0	0	0
1367	0	0	0
1368	250	201	224
1369	250	191	220
1370	247	181	217
1371	236	163	209
1372	241	174	219
1373	232	174	218
1374	222	177	219
1375	212	176	218
1376	0	0	0
1377	0	0	0
1378	0	0	0
1379	0	0	0
1380	0	0	0
1381	0	0	0
1382	0	0	0
1383	0	0	0
1384	0	0	0
1385	0	0	0
1386	0	0	0
1387	0	0	0
1388	249	228	239
1389	0	0	0
1390	252	211	235
1391	255	207	236
1392	252	197	231
1393	248	189	228
1394	247	187	228
1395	250	192	233
1396	243	185	228
1397	248	197	236
1398	239	189	229
1399	238	193	228
1400	243	204	232
1401	242	206	231
1402	241	206	231
1403	241	206	232
1404	243	207	232
1405	244	206	233
1406	243	202	232
1407	246	207	237
1408	243	204	235
1409	243	207	236
1410	242	211	236
1411	0	0	0
1412	0	0	0
1413	0	0	0
1414	0	0	0
1415	0	0	0
1416	0	0	0
1417	0	0	0
1418	0	0	0
1419	0	0	0
1420	251	199	224
1421	248	187	221
1422	242	177	217
1423	245	187	227
1424	232	179	222
1425	224	183	223
1426	0	0	0
1427	0	0	0
1428	0	0	0
1429	0	0	0
1430	0	0	0
1431	0	0	0
1432	0	0	0
1433	0	0	0
1434	0	0	0
1435	0	0	0
1436	0	0	0
1437	0	0	0
1438	0	0	0
1439	0	0	0
1440	0	0	0
1441	254	221	238
1442	254	214	237
1443	251	204	234
1444	252	203	235
1445	249	199	234
1446	245	196	233
1447	239	189	229
1448	238	188	230
1449	231	182	226
1450	240	197	235
1451	245	209	238
1452	241	206	232
1453	239	205	230
1454	238	205	228
1455	241	207	230
1456	242	204	230
1457	241	200	229
1458	243	202	231
1459	240	199	229
1460	240	204	232
1461	0	0	0
1462	0	0	0
1463	0	0	0
1464	0	0	0
1465	0	0	0
1466	0	0	0
1467	0	0	0
1468	0	0	0
1469	0	0	0
1470	0	0	0
1471	253	205	225
1472	255	201	227
1473	246	190	222
1474	241	190	225
1475	229	183	222
1476	228	193	229
1477	0	0	0
1478	0	0	0
1479	0	0	0
1480	0	0	0
1481	0	0	0
1482	0	0	0
1483	0	0	0
1484	0	0	0
1485	0	0	0
1486	0	0	0
1487	0	0	0
1488	0	0	0
1489	0	0	0
1490	0	0	0
1491	0	0	0
1492	246	219	234
1493	245	210	232
1494	246	207	232
1495	248	207	235
1496	245	203	234
1497	242	199	233
1498	243	202	236
1499	240	200	236
1500	237	197	235
1501	249	214	246
1502	245	211	240
1503	240	208	234
1504	240	210	233
1505	239	209	231
1506	0	0	0
1507	0	0	0
1508	246	206	231
1509	247	207	232
1510	240	202	229
1511	0	0	0
1512	0	0	0
1513	0	0	0
1514	0	0	0
1515	0	0	0
1516	0	0	0
1517	0	0	0
1518	0	0	0
1519	0	0	0
1520	0	0	0
1521	0	0	0
1522	251	204	223
1523	251	200	224
1524	240	188	219
1525	231	185	219
1526	226	188	224
1527	230	201	233
1528	225	201	230
1529	0	0	0
1530	0	0	0
1531	0	0	0
1532	0	0	0
1533	0	0	0
1534	0	0	0
1535	0	0	0
1536	0	0	0
1537	0	0	0
1538	0	0	0
1539	0	0	0
1540	0	0	0
1541	0	0	0
1542	0	0	0
1543	0	0	0
1544	245	218	235
1545	244	214	234
1546	246	212	236
1547	243	208	236
1548	243	210	239
1549	244	212	240
1550	244	211	239
1551	242	208	238
1552	243	210	239
1553	239	208	236
1554	238	209	234
1555	240	213	235
1556	0	0	0
1557	0	0	0
1558	249	215	235
1559	247	210	230
1560	245	209	229
1561	239	203	225
1562	0	0	0
1563	0	0	0
1564	0	0	0
1565	0	0	0
1566	0	0	0
1567	0	0	0
1568	0	0	0
1569	0	0	0
1570	0	0	0
1571	0	0	0
1572	254	218	230
1573	251	208	225
1574	251	203	226
1575	241	191	224
1576	237	197	229
1577	231	199	230
1578	229	203	232
1579	0	0	0
1580	0	0	0
1581	0	0	0
1582	0	0	0
1583	0	0	0
1584	0	0	0
1585	0	0	0
1586	0	0	0
1587	0	0	0
1588	0	0	0
1589	0	0	0
1590	0	0	0
1591	0	0	0
1592	0	0	0
1593	0	0	0
1594	0	0	0
1595	0	0	0
1596	241	218	235
1597	0	0	0
1598	0	0	0
1599	0	0	0
1600	242	220	241
1601	248	222	243
1602	242	212	237
1603	0	0	0
1604	241	216	238
1605	238	217	237
1606	239	217	235
1607	0	0	0
1608	0	0	0
1609	0	0	0
1610	243	208	227
1611	238	205	224
1612	0	0	0
1613	0	0	0
1614	0	0	0
1615	0	0	0
1616	0	0	0
1617	0	0	0
1618	0	0	0
1619	0	0	0
1620	0	0	0
1621	0	0	0
1622	255	232	239
1623	255	222	234
1624	249	208	225
1625	249	202	227
1626	241	192	226
1627	240	200	232
1628	233	200	230
1629	0	0	0
1630	0	0	0
1631	0	0	0
1632	0	0	0
1633	0	0	0
1634	0	0	0
1635	0	0	0
1636	0	0	0
1637	0	0	0
1638	0	0	0
1639	0	0	0
1640	0	0	0
1641	0	0	0
1642	0	0	0
1643	0	0	0
1644	0	0	0
1645	0	0	0
1646	0	0	0
1647	0	0	0
1648	0	0	0
1649	0	0	0
1650	0	0	0
1651	0	0	0
1652	246	225	240
1653	0	0	0
1654	0	0	0
1655	0	0	0
1656	237	220	234
1657	0	0	0
1658	0	0	0
1659	0	0	0
1660	0	0	0
1661	0	0	0
1662	0	0	0
1663	0	0	0
1664	0	0	0
1665	0	0	0
1666	0	0	0
1667	0	0	0
1668	0	0	0
1669	0	0	0
1670	0	0	0
1671	0	0	0
1672	0	0	0
1673	0	0	0
1674	249	220	233
1675	243	206	226
1676	242	201	226
1677	0	0	0
1678	239	200	231
1679	0	0	0
1680	0	0	0
1681	0	0	0
1682	0	0	0
1683	0	0	0
