 	R	G	B
1	0	0	0
2	0	0	0
3	0	0	0
4	0	0	0
5	0	0	0
6	0	0	0
7	0	0	0
8	0	0	0
9	0	0	0
10	0	0	0
11	0	0	0
12	0	0	0
13	0	0	0
14	0	0	0
15	0	0	0
16	0	0	0
17	0	0	0
18	0	0	0
19	0	0	0
20	0	0	0
21	0	0	0
22	0	0	0
23	0	0	0
24	0	0	0
25	0	0	0
26	0	0	0
27	0	0	0
28	0	0	0
29	0	0	0
30	0	0	0
31	0	0	0
32	0	0	0
33	0	0	0
34	0	0	0
35	0	0	0
36	0	0	0
37	0	0	0
38	0	0	0
39	0	0	0
40	0	0	0
41	0	0	0
42	0	0	0
43	0	0	0
44	0	0	0
45	0	0	0
46	0	0	0
47	0	0	0
48	0	0	0
49	0	0	0
50	0	0	0
51	0	0	0
52	0	0	0
53	0	0	0
54	0	0	0
55	0	0	0
56	0	0	0
57	0	0	0
58	0	0	0
59	0	0	0
60	0	0	0
61	0	0	0
62	0	0	0
63	0	0	0
64	0	0	0
65	0	0	0
66	0	0	0
67	0	0	0
68	0	0	0
69	0	0	0
70	0	0	0
71	0	0	0
72	0	0	0
73	0	0	0
74	0	0	0
75	0	0	0
76	0	0	0
77	0	0	0
78	0	0	0
79	0	0	0
80	0	0	0
81	0	0	0
82	0	0	0
83	255	238	239
84	0	0	0
85	255	238	242
86	0	0	0
87	0	0	0
88	0	0	0
89	0	0	0
90	0	0	0
91	0	0	0
92	0	0	0
93	0	0	0
94	0	0	0
95	0	0	0
96	0	0	0
97	0	0	0
98	0	0	0
99	0	0	0
100	0	0	0
101	0	0	0
102	0	0	0
103	0	0	0
104	0	0	0
105	0	0	0
106	0	0	0
107	0	0	0
108	0	0	0
109	0	0	0
110	0	0	0
111	0	0	0
112	0	0	0
113	0	0	0
114	0	0	0
115	0	0	0
116	0	0	0
117	0	0	0
118	0	0	0
119	0	0	0
120	0	0	0
121	0	0	0
122	0	0	0
123	0	0	0
124	0	0	0
125	0	0	0
126	0	0	0
127	0	0	0
128	0	0	0
129	0	0	0
130	0	0	0
131	0	0	0
132	0	0	0
133	0	0	0
134	0	0	0
135	0	0	0
136	0	0	0
137	0	0	0
138	0	0	0
139	0	0	0
140	0	0	0
141	0	0	0
142	0	0	0
143	0	0	0
144	0	0	0
145	0	0	0
146	0	0	0
147	0	0	0
148	0	0	0
149	0	0	0
150	0	0	0
151	0	0	0
152	0	0	0
153	0	0	0
154	0	0	0
155	0	0	0
156	0	0	0
157	0	0	0
158	0	0	0
159	0	0	0
160	0	0	0
161	0	0	0
162	0	0	0
163	0	0	0
164	0	0	0
165	0	0	0
166	0	0	0
167	0	0	0
168	0	0	0
169	0	0	0
170	0	0	0
171	0	0	0
172	0	0	0
173	255	246	246
174	255	239	239
175	255	234	237
176	255	230	238
177	255	221	234
178	249	209	226
179	251	209	229
180	252	209	233
181	0	0	0
182	0	0	0
183	0	0	0
184	0	0	0
185	0	0	0
186	0	0	0
187	0	0	0
188	0	0	0
189	0	0	0
190	0	0	0
191	0	0	0
192	0	0	0
193	0	0	0
194	0	0	0
195	0	0	0
196	0	0	0
197	0	0	0
198	0	0	0
199	0	0	0
200	0	0	0
201	0	0	0
202	0	0	0
203	0	0	0
204	0	0	0
205	0	0	0
206	0	0	0
207	0	0	0
208	0	0	0
209	0	0	0
210	0	0	0
211	0	0	0
212	0	0	0
213	0	0	0
214	0	0	0
215	0	0	0
216	0	0	0
217	0	0	0
218	0	0	0
219	0	0	0
220	0	0	0
221	0	0	0
222	0	0	0
223	0	0	0
224	0	0	0
225	0	0	0
226	0	0	0
227	0	0	0
228	0	0	0
229	0	0	0
230	0	0	0
231	0	0	0
232	0	0	0
233	0	0	0
234	0	0	0
235	0	0	0
236	0	0	0
237	0	0	0
238	0	0	0
239	0	0	0
240	0	0	0
241	0	0	0
242	0	0	0
243	0	0	0
244	0	0	0
245	0	0	0
246	0	0	0
247	0	0	0
248	0	0	0
249	0	0	0
250	0	0	0
251	0	0	0
252	0	0	0
253	0	0	0
254	0	0	0
255	0	0	0
256	0	0	0
257	0	0	0
258	0	0	0
259	0	0	0
260	0	0	0
261	0	0	0
262	0	0	0
263	255	242	243
264	255	239	242
265	252	221	229
266	252	217	228
267	255	219	233
268	252	209	229
269	250	203	226
270	252	203	229
271	252	203	233
272	251	203	236
273	0	0	0
274	0	0	0
275	0	0	0
276	0	0	0
277	0	0	0
278	0	0	0
279	0	0	0
280	0	0	0
281	0	0	0
282	0	0	0
283	0	0	0
284	0	0	0
285	0	0	0
286	0	0	0
287	0	0	0
288	0	0	0
289	0	0	0
290	0	0	0
291	0	0	0
292	0	0	0
293	0	0	0
294	0	0	0
295	0	0	0
296	0	0	0
297	0	0	0
298	0	0	0
299	0	0	0
300	0	0	0
301	0	0	0
302	0	0	0
303	0	0	0
304	0	0	0
305	0	0	0
306	0	0	0
307	0	0	0
308	0	0	0
309	0	0	0
310	0	0	0
311	0	0	0
312	0	0	0
313	0	0	0
314	0	0	0
315	0	0	0
316	0	0	0
317	0	0	0
318	0	0	0
319	0	0	0
320	0	0	0
321	0	0	0
322	0	0	0
323	0	0	0
324	0	0	0
325	0	0	0
326	0	0	0
327	0	0	0
328	0	0	0
329	0	0	0
330	0	0	0
331	0	0	0
332	0	0	0
333	0	0	0
334	0	0	0
335	0	0	0
336	0	0	0
337	0	0	0
338	0	0	0
339	0	0	0
340	0	0	0
341	0	0	0
342	0	0	0
343	0	0	0
344	0	0	0
345	0	0	0
346	0	0	0
347	0	0	0
348	0	0	0
349	0	0	0
350	0	0	0
351	0	0	0
352	0	0	0
353	255	242	241
354	255	238	239
355	255	224	233
356	249	207	225
357	254	210	229
358	255	211	230
359	253	204	227
360	250	197	226
361	250	196	229
362	247	194	232
363	243	195	233
364	0	0	0
365	0	0	0
366	0	0	0
367	0	0	0
368	0	0	0
369	0	0	0
370	0	0	0
371	0	0	0
372	0	0	0
373	0	0	0
374	0	0	0
375	0	0	0
376	0	0	0
377	0	0	0
378	0	0	0
379	0	0	0
380	0	0	0
381	0	0	0
382	0	0	0
383	0	0	0
384	0	0	0
385	0	0	0
386	0	0	0
387	0	0	0
388	0	0	0
389	0	0	0
390	0	0	0
391	0	0	0
392	0	0	0
393	0	0	0
394	0	0	0
395	0	0	0
396	0	0	0
397	0	0	0
398	0	0	0
399	0	0	0
400	0	0	0
401	0	0	0
402	0	0	0
403	0	0	0
404	0	0	0
405	0	0	0
406	0	0	0
407	0	0	0
408	0	0	0
409	0	0	0
410	0	0	0
411	0	0	0
412	0	0	0
413	0	0	0
414	0	0	0
415	0	0	0
416	0	0	0
417	0	0	0
418	0	0	0
419	0	0	0
420	0	0	0
421	0	0	0
422	0	0	0
423	0	0	0
424	0	0	0
425	0	0	0
426	0	0	0
427	0	0	0
428	0	0	0
429	0	0	0
430	0	0	0
431	0	0	0
432	0	0	0
433	0	0	0
434	0	0	0
435	0	0	0
436	0	0	0
437	0	0	0
438	0	0	0
439	0	0	0
440	0	0	0
441	0	0	0
442	0	0	0
443	255	234	235
444	255	232	236
445	255	218	228
446	250	204	222
447	251	201	225
448	255	204	231
449	251	194	225
450	246	186	221
451	248	190	228
452	246	188	229
453	246	195	236
454	234	191	231
455	235	204	235
456	0	0	0
457	0	0	0
458	0	0	0
459	0	0	0
460	0	0	0
461	0	0	0
462	0	0	0
463	0	0	0
464	0	0	0
465	0	0	0
466	0	0	0
467	0	0	0
468	0	0	0
469	0	0	0
470	0	0	0
471	0	0	0
472	0	0	0
473	0	0	0
474	0	0	0
475	0	0	0
476	0	0	0
477	0	0	0
478	0	0	0
479	0	0	0
480	0	0	0
481	0	0	0
482	0	0	0
483	0	0	0
484	0	0	0
485	0	0	0
486	0	0	0
487	0	0	0
488	0	0	0
489	0	0	0
490	0	0	0
491	0	0	0
492	0	0	0
493	0	0	0
494	0	0	0
495	0	0	0
496	0	0	0
497	0	0	0
498	0	0	0
499	0	0	0
500	0	0	0
501	0	0	0
502	0	0	0
503	0	0	0
504	0	0	0
505	0	0	0
506	0	0	0
507	0	0	0
508	0	0	0
509	0	0	0
510	0	0	0
511	0	0	0
512	0	0	0
513	0	0	0
514	0	0	0
515	0	0	0
516	0	0	0
517	0	0	0
518	0	0	0
519	0	0	0
520	0	0	0
521	0	0	0
522	0	0	0
523	0	0	0
524	0	0	0
525	0	0	0
526	0	0	0
527	0	0	0
528	0	0	0
529	0	0	0
530	0	0	0
531	0	0	0
532	255	244	238
533	255	234	233
534	255	225	231
535	255	214	227
536	251	201	221
537	253	199	223
538	253	194	225
539	250	187	225
540	244	177	223
541	245	180	228
542	245	182	231
543	247	190	237
544	243	195	238
545	236	203	237
546	0	0	0
547	0	0	0
548	0	0	0
549	0	0	0
550	0	0	0
551	0	0	0
552	0	0	0
553	0	0	0
554	0	0	0
555	0	0	0
556	0	0	0
557	0	0	0
558	0	0	0
559	0	0	0
560	0	0	0
561	0	0	0
562	0	0	0
563	0	0	0
564	0	0	0
565	0	0	0
566	0	0	0
567	0	0	0
568	0	0	0
569	0	0	0
570	0	0	0
571	0	0	0
572	0	0	0
573	0	0	0
574	0	0	0
575	0	0	0
576	0	0	0
577	0	0	0
578	0	0	0
579	0	0	0
580	0	0	0
581	0	0	0
582	0	0	0
583	0	0	0
584	0	0	0
585	0	0	0
586	0	0	0
587	0	0	0
588	0	0	0
589	0	0	0
590	0	0	0
591	0	0	0
592	0	0	0
593	0	0	0
594	0	0	0
595	0	0	0
596	0	0	0
597	0	0	0
598	0	0	0
599	0	0	0
600	0	0	0
601	0	0	0
602	0	0	0
603	0	0	0
604	0	0	0
605	0	0	0
606	0	0	0
607	0	0	0
608	0	0	0
609	0	0	0
610	0	0	0
611	0	0	0
612	0	0	0
613	0	0	0
614	0	0	0
615	0	0	0
616	0	0	0
617	0	0	0
618	0	0	0
619	0	0	0
620	0	0	0
621	0	0	0
622	255	242	241
623	255	231	232
624	254	220	226
625	253	211	225
626	252	201	224
627	252	193	222
628	254	190	225
629	247	178	221
630	241	169	219
631	248	181	232
632	248	182	236
633	246	186	238
634	243	190	239
635	240	198	239
636	0	0	0
637	0	0	0
638	0	0	0
639	0	0	0
640	0	0	0
641	0	0	0
642	0	0	0
643	0	0	0
644	0	0	0
645	0	0	0
646	0	0	0
647	0	0	0
648	0	0	0
649	0	0	0
650	0	0	0
651	0	0	0
652	0	0	0
653	0	0	0
654	0	0	0
655	0	0	0
656	0	0	0
657	0	0	0
658	0	0	0
659	0	0	0
660	0	0	0
661	0	0	0
662	0	0	0
663	0	0	0
664	0	0	0
665	0	0	0
666	0	0	0
667	0	0	0
668	0	0	0
669	0	0	0
670	0	0	0
671	0	0	0
672	0	0	0
673	0	0	0
674	0	0	0
675	0	0	0
676	0	0	0
677	0	0	0
678	0	0	0
679	0	0	0
680	0	0	0
681	0	0	0
682	0	0	0
683	0	0	0
684	0	0	0
685	0	0	0
686	0	0	0
687	0	0	0
688	0	0	0
689	0	0	0
690	0	0	0
691	0	0	0
692	0	0	0
693	0	0	0
694	0	0	0
695	0	0	0
696	0	0	0
697	0	0	0
698	0	0	0
699	0	0	0
700	0	0	0
701	0	0	0
702	0	0	0
703	0	0	0
704	0	0	0
705	0	0	0
706	0	0	0
707	0	0	0
708	0	0	0
709	0	0	0
710	0	0	0
711	0	0	0
712	0	0	0
713	255	231	237
714	255	221	229
715	255	209	224
716	254	200	226
717	254	193	227
718	252	184	225
719	245	172	220
720	236	159	216
721	243	170	226
722	248	179	235
723	249	184	238
724	244	185	237
725	238	193	237
726	0	0	0
727	0	0	0
728	0	0	0
729	0	0	0
730	0	0	0
731	0	0	0
732	0	0	0
733	0	0	0
734	0	0	0
735	0	0	0
736	0	0	0
737	0	0	0
738	0	0	0
739	0	0	0
740	0	0	0
741	0	0	0
742	0	0	0
743	0	0	0
744	0	0	0
745	0	0	0
746	0	0	0
747	0	0	0
748	0	0	0
749	0	0	0
750	0	0	0
751	0	0	0
752	0	0	0
753	0	0	0
754	0	0	0
755	0	0	0
756	0	0	0
757	0	0	0
758	0	0	0
759	0	0	0
760	0	0	0
761	0	0	0
762	0	0	0
763	0	0	0
764	0	0	0
765	0	0	0
766	0	0	0
767	0	0	0
768	0	0	0
769	0	0	0
770	0	0	0
771	0	0	0
772	0	0	0
773	0	0	0
774	0	0	0
775	0	0	0
776	0	0	0
777	0	0	0
778	0	0	0
779	0	0	0
780	0	0	0
781	0	0	0
782	0	0	0
783	0	0	0
784	0	0	0
785	0	0	0
786	0	0	0
787	0	0	0
788	0	0	0
789	0	0	0
790	0	0	0
791	0	0	0
792	0	0	0
793	0	0	0
794	0	0	0
795	0	0	0
796	0	0	0
797	0	0	0
798	0	0	0
799	0	0	0
800	0	0	0
801	0	0	0
802	0	0	0
803	255	225	231
804	255	219	232
805	251	197	219
806	249	187	217
807	253	187	224
808	250	178	224
809	248	173	224
810	236	159	218
811	241	167	226
812	248	177	235
813	250	183	239
814	250	187	240
815	241	186	236
816	0	0	0
817	0	0	0
818	0	0	0
819	0	0	0
820	0	0	0
821	0	0	0
822	0	0	0
823	0	0	0
824	0	0	0
825	0	0	0
826	0	0	0
827	0	0	0
828	0	0	0
829	0	0	0
830	0	0	0
831	0	0	0
832	0	0	0
833	0	0	0
834	0	0	0
835	0	0	0
836	0	0	0
837	0	0	0
838	0	0	0
839	0	0	0
840	0	0	0
841	0	0	0
842	0	0	0
843	0	0	0
844	0	0	0
845	0	0	0
846	0	0	0
847	0	0	0
848	0	0	0
849	0	0	0
850	0	0	0
851	0	0	0
852	0	0	0
853	0	0	0
854	0	0	0
855	0	0	0
856	0	0	0
857	0	0	0
858	0	0	0
859	0	0	0
860	0	0	0
861	0	0	0
862	0	0	0
863	0	0	0
864	0	0	0
865	0	0	0
866	0	0	0
867	0	0	0
868	0	0	0
869	0	0	0
870	0	0	0
871	0	0	0
872	0	0	0
873	0	0	0
874	0	0	0
875	0	0	0
876	0	0	0
877	0	0	0
878	0	0	0
879	0	0	0
880	0	0	0
881	0	0	0
882	0	0	0
883	0	0	0
884	0	0	0
885	0	0	0
886	0	0	0
887	0	0	0
888	0	0	0
889	0	0	0
890	0	0	0
891	255	236	235
892	255	237	235
893	255	225	228
894	255	215	224
895	253	195	217
896	244	175	211
897	248	174	217
898	248	171	219
899	245	166	220
900	241	160	221
901	243	167	229
902	246	175	236
903	250	181	240
904	249	184	239
905	243	186	236
906	0	0	0
907	0	0	0
908	0	0	0
909	0	0	0
910	0	0	0
911	0	0	0
912	0	0	0
913	0	0	0
914	0	0	0
915	0	0	0
916	0	0	0
917	0	0	0
918	0	0	0
919	0	0	0
920	0	0	0
921	0	0	0
922	0	0	0
923	0	0	0
924	0	0	0
925	0	0	0
926	0	0	0
927	0	0	0
928	0	0	0
929	0	0	0
930	0	0	0
931	0	0	0
932	0	0	0
933	0	0	0
934	0	0	0
935	0	0	0
936	0	0	0
937	0	0	0
938	0	0	0
939	0	0	0
940	0	0	0
941	0	0	0
942	0	0	0
943	0	0	0
944	0	0	0
945	0	0	0
946	0	0	0
947	0	0	0
948	0	0	0
949	0	0	0
950	0	0	0
951	0	0	0
952	0	0	0
953	0	0	0
954	0	0	0
955	0	0	0
956	0	0	0
957	0	0	0
958	0	0	0
959	0	0	0
960	0	0	0
961	0	0	0
962	0	0	0
963	0	0	0
964	0	0	0
965	0	0	0
966	0	0	0
967	0	0	0
968	0	0	0
969	0	0	0
970	0	0	0
971	0	0	0
972	0	0	0
973	0	0	0
974	0	0	0
975	0	0	0
976	0	0	0
977	0	0	0
978	0	0	0
979	0	0	0
980	0	0	0
981	255	227	229
982	255	230	234
983	255	213	224
984	253	201	217
985	255	196	217
986	247	176	211
987	246	168	215
988	247	166	220
989	247	166	222
990	240	157	219
991	242	163	227
992	246	171	235
993	248	175	239
994	250	181	241
995	245	184	237
996	0	0	0
997	0	0	0
998	0	0	0
999	0	0	0
1000	0	0	0
1001	0	0	0
1002	0	0	0
1003	0	0	0
1004	0	0	0
1005	0	0	0
1006	0	0	0
1007	0	0	0
1008	0	0	0
1009	0	0	0
1010	0	0	0
1011	0	0	0
1012	0	0	0
1013	0	0	0
1014	0	0	0
1015	0	0	0
1016	0	0	0
1017	0	0	0
1018	0	0	0
1019	0	0	0
1020	0	0	0
1021	0	0	0
1022	0	0	0
1023	0	0	0
1024	0	0	0
1025	0	0	0
1026	0	0	0
1027	0	0	0
1028	0	0	0
1029	0	0	0
1030	0	0	0
1031	0	0	0
1032	0	0	0
1033	0	0	0
1034	0	0	0
1035	0	0	0
1036	0	0	0
1037	0	0	0
1038	0	0	0
1039	0	0	0
1040	0	0	0
1041	0	0	0
1042	0	0	0
1043	0	0	0
1044	0	0	0
1045	0	0	0
1046	0	0	0
1047	0	0	0
1048	0	0	0
1049	0	0	0
1050	0	0	0
1051	0	0	0
1052	0	0	0
1053	0	0	0
1054	0	0	0
1055	0	0	0
1056	0	0	0
1057	0	0	0
1058	0	0	0
1059	0	0	0
1060	0	0	0
1061	0	0	0
1062	0	0	0
1063	0	0	0
1064	0	0	0
1065	0	0	0
1066	0	0	0
1067	0	0	0
1068	0	0	0
1069	0	0	0
1070	0	0	0
1071	255	229	231
1072	255	218	225
1073	254	204	219
1074	247	188	211
1075	246	181	211
1076	248	177	215
1077	246	167	215
1078	241	156	215
1079	243	159	222
1080	242	158	223
1081	243	162	227
1082	245	167	232
1083	247	172	236
1084	247	175	239
1085	249	183	242
1086	241	185	236
1087	0	0	0
1088	0	0	0
1089	0	0	0
1090	0	0	0
1091	0	0	0
1092	0	0	0
1093	0	0	0
1094	0	0	0
1095	0	0	0
1096	0	0	0
1097	0	0	0
1098	0	0	0
1099	0	0	0
1100	0	0	0
1101	0	0	0
1102	0	0	0
1103	0	0	0
1104	0	0	0
1105	0	0	0
1106	0	0	0
1107	0	0	0
1108	0	0	0
1109	0	0	0
1110	0	0	0
1111	0	0	0
1112	0	0	0
1113	0	0	0
1114	0	0	0
1115	0	0	0
1116	0	0	0
1117	0	0	0
1118	0	0	0
1119	0	0	0
1120	0	0	0
1121	0	0	0
1122	0	0	0
1123	0	0	0
1124	0	0	0
1125	0	0	0
1126	0	0	0
1127	0	0	0
1128	0	0	0
1129	0	0	0
1130	0	0	0
1131	0	0	0
1132	0	0	0
1133	0	0	0
1134	0	0	0
1135	0	0	0
1136	0	0	0
1137	0	0	0
1138	0	0	0
1139	0	0	0
1140	0	0	0
1141	0	0	0
1142	0	0	0
1143	0	0	0
1144	0	0	0
1145	0	0	0
1146	0	0	0
1147	0	0	0
1148	0	0	0
1149	0	0	0
1150	0	0	0
1151	0	0	0
1152	0	0	0
1153	0	0	0
1154	0	0	0
1155	0	0	0
1156	0	0	0
1157	0	0	0
1158	0	0	0
1159	0	0	0
1160	0	0	0
1161	255	226	229
1162	255	219	227
1163	252	199	217
1164	245	184	211
1165	242	175	211
1166	241	169	213
1167	247	171	221
1168	242	160	220
1169	236	150	218
1170	235	150	222
1171	237	155	227
1172	241	160	231
1173	245	166	234
1174	247	170	237
1175	246	175	239
1176	240	179	238
1177	235	187	235
1178	0	0	0
1179	0	0	0
1180	0	0	0
1181	0	0	0
1182	0	0	0
1183	0	0	0
1184	0	0	0
1185	0	0	0
1186	0	0	0
1187	0	0	0
1188	0	0	0
1189	0	0	0
1190	0	0	0
1191	0	0	0
1192	0	0	0
1193	0	0	0
1194	0	0	0
1195	0	0	0
1196	0	0	0
1197	0	0	0
1198	0	0	0
1199	0	0	0
1200	0	0	0
1201	0	0	0
1202	0	0	0
1203	0	0	0
1204	0	0	0
1205	0	0	0
1206	0	0	0
1207	0	0	0
1208	0	0	0
1209	0	0	0
1210	0	0	0
1211	0	0	0
1212	0	0	0
1213	0	0	0
1214	0	0	0
1215	0	0	0
1216	0	0	0
1217	0	0	0
1218	0	0	0
1219	0	0	0
1220	0	0	0
1221	0	0	0
1222	0	0	0
1223	0	0	0
1224	0	0	0
1225	0	0	0
1226	0	0	0
1227	0	0	0
1228	0	0	0
1229	0	0	0
1230	0	0	0
1231	0	0	0
1232	0	0	0
1233	0	0	0
1234	0	0	0
1235	0	0	0
1236	0	0	0
1237	0	0	0
1238	0	0	0
1239	0	0	0
1240	0	0	0
1241	0	0	0
1242	0	0	0
1243	0	0	0
1244	0	0	0
1245	0	0	0
1246	0	0	0
1247	0	0	0
1248	0	0	0
1249	253	239	232
1250	255	238	235
1251	255	228	232
1252	255	217	227
1253	250	197	217
1254	241	178	210
1255	236	168	210
1256	233	159	212
1257	239	161	220
1258	242	162	225
1259	238	153	223
1260	230	142	221
1261	230	147	227
1262	231	149	229
1263	238	158	234
1264	241	162	235
1265	245	170	239
1266	241	174	238
1267	235	183	238
1268	0	0	0
1269	0	0	0
1270	0	0	0
1271	0	0	0
1272	0	0	0
1273	0	0	0
1274	0	0	0
1275	0	0	0
1276	0	0	0
1277	0	0	0
1278	0	0	0
1279	0	0	0
1280	0	0	0
1281	0	0	0
1282	0	0	0
1283	0	0	0
1284	0	0	0
1285	0	0	0
1286	0	0	0
1287	0	0	0
1288	0	0	0
1289	0	0	0
1290	0	0	0
1291	0	0	0
1292	0	0	0
1293	0	0	0
1294	0	0	0
1295	0	0	0
1296	0	0	0
1297	0	0	0
1298	0	0	0
1299	0	0	0
1300	0	0	0
1301	0	0	0
1302	0	0	0
1303	0	0	0
1304	0	0	0
1305	0	0	0
1306	0	0	0
1307	0	0	0
1308	0	0	0
1309	0	0	0
1310	0	0	0
1311	0	0	0
1312	0	0	0
1313	0	0	0
1314	0	0	0
1315	0	0	0
1316	0	0	0
1317	0	0	0
1318	0	0	0
1319	0	0	0
1320	0	0	0
1321	0	0	0
1322	0	0	0
1323	0	0	0
1324	0	0	0
1325	0	0	0
1326	0	0	0
1327	0	0	0
1328	0	0	0
1329	0	0	0
1330	0	0	0
1331	0	0	0
1332	0	0	0
1333	0	0	0
1334	0	0	0
1335	0	0	0
1336	0	0	0
1337	0	0	0
1338	0	0	0
1339	252	236	231
1340	255	241	239
1341	255	219	228
1342	255	208	225
1343	253	198	222
1344	239	176	211
1345	239	174	216
1346	233	164	216
1347	232	159	220
1348	238	161	227
1349	238	157	226
1350	233	146	223
1351	232	147	228
1352	231	150	232
1353	232	155	235
1354	239	163	239
1355	240	166	238
1356	241	172	239
1357	237	179	238
1358	0	0	0
1359	0	0	0
1360	0	0	0
1361	0	0	0
1362	0	0	0
1363	0	0	0
1364	0	0	0
1365	0	0	0
1366	0	0	0
1367	0	0	0
1368	0	0	0
1369	0	0	0
1370	0	0	0
1371	0	0	0
1372	0	0	0
1373	0	0	0
1374	0	0	0
1375	0	0	0
1376	0	0	0
1377	0	0	0
1378	0	0	0
1379	0	0	0
1380	0	0	0
1381	0	0	0
1382	0	0	0
1383	0	0	0
1384	0	0	0
1385	0	0	0
1386	0	0	0
1387	0	0	0
1388	0	0	0
1389	0	0	0
1390	0	0	0
1391	0	0	0
1392	0	0	0
1393	0	0	0
1394	0	0	0
1395	0	0	0
1396	0	0	0
1397	0	0	0
1398	0	0	0
1399	0	0	0
1400	0	0	0
1401	0	0	0
1402	0	0	0
1403	0	0	0
1404	0	0	0
1405	0	0	0
1406	0	0	0
1407	0	0	0
1408	0	0	0
1409	0	0	0
1410	0	0	0
1411	0	0	0
1412	0	0	0
1413	0	0	0
1414	0	0	0
1415	0	0	0
1416	0	0	0
1417	0	0	0
1418	0	0	0
1419	0	0	0
1420	0	0	0
1421	0	0	0
1422	0	0	0
1423	0	0	0
1424	0	0	0
1425	0	0	0
1426	0	0	0
1427	0	0	0
1428	0	0	0
1429	254	240	234
1430	255	234	233
1431	254	215	225
1432	245	194	215
1433	243	185	215
1434	240	177	217
1435	237	172	219
1436	235	169	221
1437	230	161	220
1438	228	154	222
1439	230	151	224
1440	229	146	221
1441	233	149	225
1442	232	149	228
1443	234	155	234
1444	236	161	239
1445	243	168	243
1446	242	170	241
1447	243	181	242
1448	237	186	237
1449	0	0	0
1450	0	0	0
1451	0	0	0
1452	0	0	0
1453	0	0	0
1454	0	0	0
1455	0	0	0
1456	0	0	0
1457	0	0	0
1458	0	0	0
1459	0	0	0
1460	0	0	0
1461	0	0	0
1462	0	0	0
1463	0	0	0
1464	0	0	0
1465	0	0	0
1466	0	0	0
1467	0	0	0
1468	0	0	0
1469	0	0	0
1470	0	0	0
1471	0	0	0
1472	0	0	0
1473	0	0	0
1474	0	0	0
1475	0	0	0
1476	0	0	0
1477	0	0	0
1478	0	0	0
1479	0	0	0
1480	0	0	0
1481	0	0	0
1482	0	0	0
1483	0	0	0
1484	0	0	0
1485	0	0	0
1486	0	0	0
1487	0	0	0
1488	0	0	0
1489	0	0	0
1490	0	0	0
1491	0	0	0
1492	0	0	0
1493	0	0	0
1494	0	0	0
1495	0	0	0
1496	0	0	0
1497	0	0	0
1498	0	0	0
1499	0	0	0
1500	0	0	0
1501	0	0	0
1502	0	0	0
1503	0	0	0
1504	0	0	0
1505	0	0	0
1506	0	0	0
1507	0	0	0
1508	0	0	0
1509	0	0	0
1510	0	0	0
1511	0	0	0
1512	0	0	0
1513	0	0	0
1514	0	0	0
1515	0	0	0
1516	0	0	0
1517	0	0	0
1518	0	0	0
1519	255	237	232
1520	255	230	230
1521	251	215	224
1522	241	194	215
1523	241	188	216
1524	238	180	217
1525	234	172	221
1526	232	168	224
1527	228	162	224
1528	224	154	222
1529	226	153	225
1530	227	149	225
1531	232	153	227
1532	235	154	230
1533	232	149	228
1534	237	157	235
1535	243	166	241
1536	248	172	245
1537	243	171	240
1538	240	179	238
1539	237	191	236
1540	0	0	0
1541	0	0	0
1542	0	0	0
1543	0	0	0
1544	0	0	0
1545	0	0	0
1546	0	0	0
1547	0	0	0
1548	0	0	0
1549	0	0	0
1550	0	0	0
1551	0	0	0
1552	0	0	0
1553	0	0	0
1554	0	0	0
1555	0	0	0
1556	0	0	0
1557	0	0	0
1558	0	0	0
1559	0	0	0
1560	0	0	0
1561	0	0	0
1562	0	0	0
1563	0	0	0
1564	0	0	0
1565	0	0	0
1566	0	0	0
1567	0	0	0
1568	0	0	0
1569	0	0	0
1570	0	0	0
1571	0	0	0
1572	0	0	0
1573	0	0	0
1574	0	0	0
1575	0	0	0
1576	0	0	0
1577	0	0	0
1578	0	0	0
1579	0	0	0
1580	0	0	0
1581	0	0	0
1582	0	0	0
1583	0	0	0
1584	0	0	0
1585	0	0	0
1586	0	0	0
1587	0	0	0
1588	0	0	0
1589	0	0	0
1590	0	0	0
1591	0	0	0
1592	0	0	0
1593	0	0	0
1594	0	0	0
1595	0	0	0
1596	0	0	0
1597	0	0	0
1598	0	0	0
1599	0	0	0
1600	0	0	0
1601	0	0	0
1602	0	0	0
1603	0	0	0
1604	0	0	0
1605	0	0	0
1606	0	0	0
1607	0	0	0
1608	0	0	0
1609	255	235	231
1610	252	223	224
1611	248	210	220
1612	243	196	216
1613	241	189	217
1614	240	184	221
1615	235	176	221
1616	230	168	223
1617	227	163	226
1618	224	156	226
1619	226	156	230
1620	227	153	231
1621	232	157	234
1622	236	159	235
1623	232	154	231
1624	229	148	229
1625	239	160	238
1626	244	167	240
1627	247	172	240
1628	240	170	235
1629	239	185	238
1630	237	198	238
1631	0	0	0
1632	0	0	0
1633	0	0	0
1634	0	0	0
1635	0	0	0
1636	0	0	0
1637	0	0	0
1638	0	0	0
1639	0	0	0
1640	0	0	0
1641	0	0	0
1642	0	0	0
1643	0	0	0
1644	0	0	0
1645	0	0	0
1646	0	0	0
1647	0	0	0
1648	0	0	0
1649	0	0	0
1650	0	0	0
1651	0	0	0
1652	0	0	0
1653	0	0	0
1654	0	0	0
1655	0	0	0
1656	0	0	0
1657	0	0	0
1658	0	0	0
1659	0	0	0
1660	0	0	0
1661	0	0	0
1662	0	0	0
1663	0	0	0
1664	0	0	0
1665	0	0	0
1666	0	0	0
1667	0	0	0
1668	0	0	0
1669	0	0	0
1670	0	0	0
1671	0	0	0
1672	0	0	0
1673	0	0	0
1674	0	0	0
1675	0	0	0
1676	0	0	0
1677	0	0	0
1678	0	0	0
1679	0	0	0
1680	0	0	0
1681	0	0	0
1682	0	0	0
1683	0	0	0
1684	0	0	0
1685	0	0	0
1686	0	0	0
1687	0	0	0
1688	0	0	0
1689	0	0	0
1690	0	0	0
1691	0	0	0
1692	0	0	0
1693	0	0	0
1694	0	0	0
1695	0	0	0
1696	0	0	0
1697	0	0	0
1698	0	0	0
1699	255	239	235
1700	255	227	228
1701	247	209	220
1702	243	196	216
1703	241	188	217
1704	238	182	219
1705	236	178	223
1706	231	169	223
1707	226	161	223
1708	223	156	225
1709	218	146	225
1710	220	145	228
1711	225	149	231
1712	230	151	233
1713	233	156	235
1714	226	148	229
1715	230	153	233
1716	238	164	240
1717	237	164	236
1718	240	168	235
1719	238	175	235
1720	236	189	237
1721	241	209	242
1722	0	0	0
1723	0	0	0
1724	0	0	0
1725	0	0	0
1726	0	0	0
1727	0	0	0
1728	0	0	0
1729	0	0	0
1730	0	0	0
1731	0	0	0
1732	0	0	0
1733	0	0	0
1734	0	0	0
1735	0	0	0
1736	0	0	0
1737	0	0	0
1738	0	0	0
1739	0	0	0
1740	0	0	0
1741	0	0	0
1742	0	0	0
1743	0	0	0
1744	0	0	0
1745	0	0	0
1746	0	0	0
1747	0	0	0
1748	0	0	0
1749	0	0	0
1750	0	0	0
1751	0	0	0
1752	0	0	0
1753	0	0	0
1754	0	0	0
1755	0	0	0
1756	0	0	0
1757	0	0	0
1758	0	0	0
1759	0	0	0
1760	0	0	0
1761	0	0	0
1762	0	0	0
1763	0	0	0
1764	0	0	0
1765	0	0	0
1766	0	0	0
1767	0	0	0
1768	0	0	0
1769	0	0	0
1770	0	0	0
1771	0	0	0
1772	0	0	0
1773	0	0	0
1774	0	0	0
1775	0	0	0
1776	0	0	0
1777	0	0	0
1778	0	0	0
1779	0	0	0
1780	0	0	0
1781	0	0	0
1782	0	0	0
1783	0	0	0
1784	0	0	0
1785	0	0	0
1786	0	0	0
1787	0	0	0
1788	0	0	0
1789	0	0	0
1790	255	233	234
1791	254	215	227
1792	247	198	221
1793	246	191	222
1794	241	182	222
1795	234	175	222
1796	231	169	224
1797	227	162	224
1798	221	152	221
1799	214	143	219
1800	208	132	219
1801	215	139	227
1802	221	142	229
1803	231	150	234
1804	234	154	236
1805	232	157	235
1806	233	160	236
1807	234	162	236
1808	232	162	233
1809	240	175	239
1810	238	182	238
1811	237	198	240
1812	0	0	0
1813	0	0	0
1814	0	0	0
1815	0	0	0
1816	0	0	0
1817	0	0	0
1818	0	0	0
1819	0	0	0
1820	0	0	0
1821	0	0	0
1822	0	0	0
1823	0	0	0
1824	0	0	0
1825	0	0	0
1826	0	0	0
1827	0	0	0
1828	0	0	0
1829	0	0	0
1830	0	0	0
1831	0	0	0
1832	0	0	0
1833	0	0	0
1834	0	0	0
1835	0	0	0
1836	0	0	0
1837	0	0	0
1838	0	0	0
1839	0	0	0
1840	0	0	0
1841	0	0	0
1842	0	0	0
1843	0	0	0
1844	0	0	0
1845	0	0	0
1846	0	0	0
1847	0	0	0
1848	0	0	0
1849	0	0	0
1850	0	0	0
1851	0	0	0
1852	0	0	0
1853	0	0	0
1854	0	0	0
1855	0	0	0
1856	0	0	0
1857	0	0	0
1858	0	0	0
1859	0	0	0
1860	0	0	0
1861	0	0	0
1862	0	0	0
1863	0	0	0
1864	0	0	0
1865	0	0	0
1866	0	0	0
1867	0	0	0
1868	0	0	0
1869	0	0	0
1870	0	0	0
1871	0	0	0
1872	0	0	0
1873	0	0	0
1874	0	0	0
1875	0	0	0
1876	0	0	0
1877	0	0	0
1878	0	0	0
1879	255	237	237
1880	255	232	236
1881	255	218	229
1882	255	203	225
1883	247	185	220
1884	243	177	221
1885	239	174	223
1886	226	163	219
1887	226	164	226
1888	225	157	226
1889	221	151	224
1890	212	140	220
1891	211	138	224
1892	217	143	230
1893	229	153	237
1894	245	164	245
1895	239	155	238
1896	233	155	235
1897	230	158	234
1898	228	158	232
1899	234	170	238
1900	241	183	242
1901	237	189	239
1902	0	0	0
1903	0	0	0
1904	0	0	0
1905	0	0	0
1906	0	0	0
1907	0	0	0
1908	0	0	0
1909	0	0	0
1910	0	0	0
1911	0	0	0
1912	0	0	0
1913	0	0	0
1914	0	0	0
1915	0	0	0
1916	0	0	0
1917	0	0	0
1918	0	0	0
1919	0	0	0
1920	0	0	0
1921	0	0	0
1922	0	0	0
1923	0	0	0
1924	0	0	0
1925	0	0	0
1926	0	0	0
1927	0	0	0
1928	0	0	0
1929	0	0	0
1930	0	0	0
1931	0	0	0
1932	0	0	0
1933	0	0	0
1934	0	0	0
1935	0	0	0
1936	0	0	0
1937	0	0	0
1938	0	0	0
1939	0	0	0
1940	0	0	0
1941	0	0	0
1942	0	0	0
1943	0	0	0
1944	0	0	0
1945	0	0	0
1946	0	0	0
1947	0	0	0
1948	0	0	0
1949	0	0	0
1950	0	0	0
1951	0	0	0
1952	0	0	0
1953	0	0	0
1954	0	0	0
1955	0	0	0
1956	0	0	0
1957	0	0	0
1958	0	0	0
1959	0	0	0
1960	0	0	0
1961	0	0	0
1962	0	0	0
1963	0	0	0
1964	0	0	0
1965	0	0	0
1966	0	0	0
1967	255	248	238
1968	255	249	240
1969	255	239	236
1970	255	231	235
1971	250	213	226
1972	248	200	221
1973	246	184	218
1974	238	166	213
1975	240	167	219
1976	234	163	219
1977	225	158	219
1978	225	159	226
1979	223	153	226
1980	220	146	225
1981	217	144	225
1982	215	140	225
1983	221	149	231
1984	232	159	238
1985	240	158	239
1986	234	149	232
1987	230	152	232
1988	227	155	233
1989	232	168	240
1990	235	178	243
1991	240	191	245
1992	236	196	236
1993	0	0	0
1994	0	0	0
1995	0	0	0
1996	0	0	0
1997	0	0	0
1998	0	0	0
1999	0	0	0
2000	0	0	0
2001	0	0	0
2002	0	0	0
2003	0	0	0
2004	0	0	0
2005	0	0	0
2006	0	0	0
2007	0	0	0
2008	0	0	0
2009	0	0	0
2010	0	0	0
2011	0	0	0
2012	0	0	0
2013	0	0	0
2014	0	0	0
2015	0	0	0
2016	0	0	0
2017	0	0	0
2018	0	0	0
2019	0	0	0
2020	0	0	0
2021	0	0	0
2022	0	0	0
2023	0	0	0
2024	0	0	0
2025	0	0	0
2026	0	0	0
2027	0	0	0
2028	0	0	0
2029	0	0	0
2030	0	0	0
2031	0	0	0
2032	0	0	0
2033	0	0	0
2034	0	0	0
2035	0	0	0
2036	0	0	0
2037	0	0	0
2038	0	0	0
2039	0	0	0
2040	0	0	0
2041	0	0	0
2042	0	0	0
2043	0	0	0
2044	0	0	0
2045	0	0	0
2046	0	0	0
2047	0	0	0
2048	0	0	0
2049	0	0	0
2050	0	0	0
2051	0	0	0
2052	0	0	0
2053	0	0	0
2054	0	0	0
2055	0	0	0
2056	0	0	0
2057	255	247	238
2058	255	251	242
2059	255	228	229
2060	253	220	226
2061	252	215	227
2062	240	195	217
2063	243	192	219
2064	239	175	216
2065	236	165	217
2066	239	166	224
2067	236	163	224
2068	231	159	224
2069	231	160	229
2070	226	152	227
2071	232	159	235
2072	232	157	236
2073	229	154	233
2074	232	161	237
2075	233	160	237
2076	234	156	236
2077	227	147	229
2078	227	153	233
2079	230	163	239
2080	232	175	244
2081	230	180	241
2082	231	190	240
2083	0	0	0
2084	0	0	0
2085	0	0	0
2086	0	0	0
2087	0	0	0
2088	0	0	0
2089	0	0	0
2090	0	0	0
2091	0	0	0
2092	0	0	0
2093	0	0	0
2094	0	0	0
2095	0	0	0
2096	0	0	0
2097	0	0	0
2098	0	0	0
2099	0	0	0
2100	0	0	0
2101	0	0	0
2102	0	0	0
2103	0	0	0
2104	0	0	0
2105	0	0	0
2106	0	0	0
2107	0	0	0
2108	0	0	0
2109	0	0	0
2110	0	0	0
2111	0	0	0
2112	0	0	0
2113	0	0	0
2114	0	0	0
2115	0	0	0
2116	0	0	0
2117	0	0	0
2118	0	0	0
2119	0	0	0
2120	0	0	0
2121	0	0	0
2122	0	0	0
2123	0	0	0
2124	0	0	0
2125	0	0	0
2126	0	0	0
2127	0	0	0
2128	0	0	0
2129	0	0	0
2130	0	0	0
2131	0	0	0
2132	0	0	0
2133	0	0	0
2134	0	0	0
2135	0	0	0
2136	0	0	0
2137	0	0	0
2138	0	0	0
2139	0	0	0
2140	0	0	0
2141	0	0	0
2142	0	0	0
2143	0	0	0
2144	0	0	0
2145	0	0	0
2146	0	0	0
2147	255	246	240
2148	255	251	243
2149	255	228	230
2150	245	207	219
2151	249	204	222
2152	248	198	221
2153	241	189	216
2154	241	185	216
2155	239	174	216
2156	237	164	222
2157	241	166	231
2158	241	164	231
2159	242	164	234
2160	242	164	235
2161	245	169	240
2162	250	174	246
2163	248	172	245
2164	244	168	242
2165	239	165	239
2166	237	163	239
2167	232	157	235
2168	224	147	228
2169	231	162	238
2170	232	170	243
2171	230	177	243
2172	0	0	0
2173	0	0	0
2174	0	0	0
2175	0	0	0
2176	0	0	0
2177	0	0	0
2178	0	0	0
2179	0	0	0
2180	0	0	0
2181	0	0	0
2182	0	0	0
2183	0	0	0
2184	0	0	0
2185	0	0	0
2186	0	0	0
2187	0	0	0
2188	0	0	0
2189	0	0	0
2190	0	0	0
2191	0	0	0
2192	0	0	0
2193	0	0	0
2194	0	0	0
2195	0	0	0
2196	0	0	0
2197	0	0	0
2198	0	0	0
2199	0	0	0
2200	0	0	0
2201	0	0	0
2202	0	0	0
2203	0	0	0
2204	0	0	0
2205	0	0	0
2206	0	0	0
2207	0	0	0
2208	0	0	0
2209	0	0	0
2210	0	0	0
2211	0	0	0
2212	0	0	0
2213	0	0	0
2214	0	0	0
2215	0	0	0
2216	0	0	0
2217	0	0	0
2218	0	0	0
2219	0	0	0
2220	0	0	0
2221	0	0	0
2222	0	0	0
2223	0	0	0
2224	0	0	0
2225	0	0	0
2226	0	0	0
2227	0	0	0
2228	0	0	0
2229	0	0	0
2230	0	0	0
2231	0	0	0
2232	0	0	0
2233	0	0	0
2234	0	0	0
2235	0	0	0
2236	255	248	242
2237	0	0	0
2238	255	238	236
2239	255	236	236
2240	248	214	224
2241	248	204	223
2242	254	202	227
2243	250	192	223
2244	241	182	217
2245	243	181	219
2246	239	169	219
2247	239	163	226
2248	245	165	234
2249	246	162	235
2250	252	165	239
2251	251	161	237
2252	254	165	240
2253	250	161	238
2254	242	155	233
2255	245	163	238
2256	242	161	237
2257	244	167	240
2258	234	158	234
2259	232	160	235
2260	238	174	244
2261	235	178	245
2262	0	0	0
2263	0	0	0
2264	0	0	0
2265	0	0	0
2266	0	0	0
2267	0	0	0
2268	0	0	0
2269	0	0	0
2270	0	0	0
2271	0	0	0
2272	0	0	0
2273	0	0	0
2274	0	0	0
2275	0	0	0
2276	0	0	0
2277	0	0	0
2278	0	0	0
2279	0	0	0
2280	0	0	0
2281	0	0	0
2282	0	0	0
2283	0	0	0
2284	0	0	0
2285	0	0	0
2286	0	0	0
2287	0	0	0
2288	0	0	0
2289	0	0	0
2290	0	0	0
2291	0	0	0
2292	0	0	0
2293	0	0	0
2294	0	0	0
2295	0	0	0
2296	0	0	0
2297	0	0	0
2298	0	0	0
2299	0	0	0
2300	0	0	0
2301	0	0	0
2302	0	0	0
2303	0	0	0
2304	0	0	0
2305	0	0	0
2306	0	0	0
2307	0	0	0
2308	0	0	0
2309	0	0	0
2310	0	0	0
2311	0	0	0
2312	0	0	0
2313	0	0	0
2314	0	0	0
2315	0	0	0
2316	0	0	0
2317	0	0	0
2318	0	0	0
2319	0	0	0
2320	0	0	0
2321	0	0	0
2322	0	0	0
2323	0	0	0
2324	0	0	0
2325	255	248	241
2326	255	248	240
2327	255	240	236
2328	255	229	229
2329	254	225	229
2330	255	226	234
2331	254	212	230
2332	252	201	228
2333	250	192	225
2334	245	181	222
2335	242	177	222
2336	243	175	226
2337	241	167	226
2338	239	159	228
2339	240	157	230
2340	241	153	228
2341	248	154	231
2342	247	150	229
2343	247	151	231
2344	243	147	228
2345	245	154	234
2346	248	162	240
2347	246	165	241
2348	245	169	240
2349	241	170	238
2350	238	172	238
2351	238	180	242
2352	235	183	242
2353	0	0	0
2354	0	0	0
2355	0	0	0
2356	0	0	0
2357	0	0	0
2358	0	0	0
2359	0	0	0
2360	0	0	0
2361	0	0	0
2362	0	0	0
2363	0	0	0
2364	0	0	0
2365	0	0	0
2366	0	0	0
2367	0	0	0
2368	0	0	0
2369	0	0	0
2370	0	0	0
2371	0	0	0
2372	0	0	0
2373	0	0	0
2374	0	0	0
2375	0	0	0
2376	0	0	0
2377	0	0	0
2378	0	0	0
2379	0	0	0
2380	0	0	0
2381	0	0	0
2382	0	0	0
2383	0	0	0
2384	0	0	0
2385	0	0	0
2386	0	0	0
2387	0	0	0
2388	0	0	0
2389	0	0	0
2390	0	0	0
2391	0	0	0
2392	0	0	0
2393	0	0	0
2394	0	0	0
2395	0	0	0
2396	0	0	0
2397	0	0	0
2398	0	0	0
2399	0	0	0
2400	0	0	0
2401	0	0	0
2402	0	0	0
2403	0	0	0
2404	0	0	0
2405	0	0	0
2406	0	0	0
2407	0	0	0
2408	0	0	0
2409	0	0	0
2410	0	0	0
2411	0	0	0
2412	0	0	0
2413	0	0	0
2414	0	0	0
2415	255	248	240
2416	255	248	241
2417	255	232	232
2418	253	224	228
2419	254	219	226
2420	255	217	228
2421	255	213	232
2422	254	200	228
2423	248	189	223
2424	238	175	217
2425	248	186	228
2426	249	184	231
2427	245	173	229
2428	242	163	228
2429	244	165	232
2430	242	160	231
2431	248	165	236
2432	252	165	238
2433	242	148	228
2434	240	148	229
2435	237	145	227
2436	245	155	236
2437	245	159	239
2438	239	159	236
2439	240	168	237
2440	238	170	236
2441	237	176	237
2442	235	181	238
2443	0	0	0
2444	0	0	0
2445	0	0	0
2446	0	0	0
2447	0	0	0
2448	0	0	0
2449	0	0	0
2450	0	0	0
2451	0	0	0
2452	0	0	0
2453	0	0	0
2454	0	0	0
2455	0	0	0
2456	0	0	0
2457	0	0	0
2458	0	0	0
2459	0	0	0
2460	0	0	0
2461	0	0	0
2462	0	0	0
2463	0	0	0
2464	0	0	0
2465	0	0	0
2466	0	0	0
2467	0	0	0
2468	0	0	0
2469	0	0	0
2470	0	0	0
2471	0	0	0
2472	0	0	0
2473	0	0	0
2474	0	0	0
2475	0	0	0
2476	0	0	0
2477	0	0	0
2478	0	0	0
2479	0	0	0
2480	0	0	0
2481	0	0	0
2482	0	0	0
2483	0	0	0
2484	0	0	0
2485	0	0	0
2486	0	0	0
2487	0	0	0
2488	0	0	0
2489	0	0	0
2490	0	0	0
2491	0	0	0
2492	0	0	0
2493	0	0	0
2494	0	0	0
2495	0	0	0
2496	0	0	0
2497	0	0	0
2498	0	0	0
2499	0	0	0
2500	0	0	0
2501	0	0	0
2502	0	0	0
2503	255	250	242
2504	255	252	242
2505	255	249	240
2506	255	247	239
2507	255	231	230
2508	249	216	225
2509	251	213	227
2510	251	208	225
2511	251	202	224
2512	252	198	227
2513	248	187	223
2514	241	174	216
2515	245	182	224
2516	254	192	236
2517	249	180	231
2518	244	168	228
2519	248	170	232
2520	250	170	234
2521	253	173	237
2522	255	178	244
2523	248	162	236
2524	236	145	226
2525	231	142	225
2526	229	139	225
2527	239	149	233
2528	238	153	233
2529	238	162	237
2530	239	171	241
2531	242	179	243
2532	0	0	0
2533	0	0	0
2534	0	0	0
2535	0	0	0
2536	0	0	0
2537	0	0	0
2538	0	0	0
2539	0	0	0
2540	0	0	0
2541	0	0	0
2542	0	0	0
2543	0	0	0
2544	0	0	0
2545	0	0	0
2546	0	0	0
2547	0	0	0
2548	0	0	0
2549	0	0	0
2550	0	0	0
2551	0	0	0
2552	0	0	0
2553	0	0	0
2554	0	0	0
2555	0	0	0
2556	0	0	0
2557	0	0	0
2558	0	0	0
2559	0	0	0
2560	0	0	0
2561	0	0	0
2562	0	0	0
2563	0	0	0
2564	0	0	0
2565	0	0	0
2566	0	0	0
2567	0	0	0
2568	0	0	0
2569	0	0	0
2570	0	0	0
2571	0	0	0
2572	0	0	0
2573	0	0	0
2574	0	0	0
2575	0	0	0
2576	0	0	0
2577	0	0	0
2578	0	0	0
2579	0	0	0
2580	0	0	0
2581	0	0	0
2582	0	0	0
2583	0	0	0
2584	0	0	0
2585	0	0	0
2586	0	0	0
2587	0	0	0
2588	0	0	0
2589	0	0	0
2590	0	0	0
2591	0	0	0
2592	0	0	0
2593	253	243	239
2594	254	245	238
2595	253	239	235
2596	255	238	234
2597	255	232	231
2598	247	215	222
2599	250	213	227
2600	252	210	230
2601	254	207	230
2602	254	201	229
2603	252	193	229
2604	244	180	223
2605	244	179	223
2606	252	187	232
2607	249	180	231
2608	241	165	225
2609	245	168	230
2610	250	170	233
2611	251	168	233
2612	255	172	237
2613	255	170	238
2614	239	150	227
2615	230	142	223
2616	226	140	224
2617	241	162	240
2618	249	171	246
2619	242	163	239
2620	244	174	244
2621	235	167	238
2622	0	0	0
2623	0	0	0
2624	0	0	0
2625	0	0	0
2626	0	0	0
2627	0	0	0
2628	0	0	0
2629	0	0	0
2630	0	0	0
2631	0	0	0
2632	0	0	0
2633	0	0	0
2634	0	0	0
2635	0	0	0
2636	0	0	0
2637	0	0	0
2638	0	0	0
2639	0	0	0
2640	0	0	0
2641	0	0	0
2642	0	0	0
2643	0	0	0
2644	0	0	0
2645	0	0	0
2646	0	0	0
2647	0	0	0
2648	0	0	0
2649	0	0	0
2650	0	0	0
2651	0	0	0
2652	0	0	0
2653	0	0	0
2654	0	0	0
2655	0	0	0
2656	0	0	0
2657	0	0	0
2658	0	0	0
2659	0	0	0
2660	0	0	0
2661	0	0	0
2662	0	0	0
2663	0	0	0
2664	0	0	0
2665	0	0	0
2666	0	0	0
2667	0	0	0
2668	0	0	0
2669	0	0	0
2670	0	0	0
2671	0	0	0
2672	0	0	0
2673	0	0	0
2674	0	0	0
2675	0	0	0
2676	0	0	0
2677	0	0	0
2678	0	0	0
2679	0	0	0
2680	0	0	0
2681	0	0	0
2682	0	0	0
2683	255	244	240
2684	255	241	237
2685	250	234	233
2686	249	229	231
2687	248	222	227
2688	248	216	225
2689	244	209	222
2690	246	206	225
2691	250	204	228
2692	252	201	229
2693	250	194	227
2694	247	186	226
2695	246	183	228
2696	247	181	229
2697	243	173	227
2698	239	164	225
2699	243	166	230
2700	248	169	234
2701	249	167	234
2702	250	165	233
2703	252	164	233
2704	248	159	231
2705	236	149	225
2706	228	141	224
2707	241	163	239
2708	253	183	250
2709	250	177	245
2710	242	170	240
2711	236	168	238
2712	227	161	232
2713	0	0	0
2714	0	0	0
2715	0	0	0
2716	0	0	0
2717	0	0	0
2718	0	0	0
2719	0	0	0
2720	0	0	0
2721	0	0	0
2722	0	0	0
2723	0	0	0
2724	0	0	0
2725	0	0	0
2726	0	0	0
2727	0	0	0
2728	0	0	0
2729	0	0	0
2730	0	0	0
2731	0	0	0
2732	0	0	0
2733	0	0	0
2734	0	0	0
2735	0	0	0
2736	0	0	0
2737	0	0	0
2738	0	0	0
2739	0	0	0
2740	0	0	0
2741	0	0	0
2742	0	0	0
2743	0	0	0
2744	0	0	0
2745	0	0	0
2746	0	0	0
2747	0	0	0
2748	0	0	0
2749	0	0	0
2750	0	0	0
2751	0	0	0
2752	0	0	0
2753	0	0	0
2754	0	0	0
2755	0	0	0
2756	0	0	0
2757	0	0	0
2758	0	0	0
2759	0	0	0
2760	0	0	0
2761	0	0	0
2762	0	0	0
2763	0	0	0
2764	0	0	0
2765	0	0	0
2766	0	0	0
2767	0	0	0
2768	0	0	0
2769	0	0	0
2770	0	0	0
2771	0	0	0
2772	0	0	0
2773	255	240	239
2774	255	240	239
2775	251	226	229
2776	244	219	224
2777	248	224	230
2778	244	215	226
2779	247	215	227
2780	244	208	225
2781	248	208	229
2782	254	207	233
2783	251	197	229
2784	247	188	226
2785	244	182	226
2786	244	180	228
2787	247	182	233
2788	242	173	230
2789	244	171	233
2790	251	174	239
2791	252	173	238
2792	251	169	236
2793	253	171	237
2794	253	167	236
2795	246	160	230
2796	236	150	225
2797	241	160	235
2798	255	182	251
2799	255	184	247
2800	248	176	239
2801	244	174	240
2802	235	171	237
2803	231	171	237
2804	0	0	0
2805	0	0	0
2806	0	0	0
2807	0	0	0
2808	0	0	0
2809	0	0	0
2810	0	0	0
2811	0	0	0
2812	0	0	0
2813	0	0	0
2814	0	0	0
2815	0	0	0
2816	0	0	0
2817	0	0	0
2818	0	0	0
2819	0	0	0
2820	0	0	0
2821	0	0	0
2822	0	0	0
2823	0	0	0
2824	0	0	0
2825	0	0	0
2826	0	0	0
2827	0	0	0
2828	0	0	0
2829	0	0	0
2830	0	0	0
2831	0	0	0
2832	0	0	0
2833	0	0	0
2834	0	0	0
2835	0	0	0
2836	0	0	0
2837	0	0	0
2838	0	0	0
2839	0	0	0
2840	0	0	0
2841	0	0	0
2842	0	0	0
2843	0	0	0
2844	0	0	0
2845	0	0	0
2846	0	0	0
2847	0	0	0
2848	0	0	0
2849	0	0	0
2850	0	0	0
2851	0	0	0
2852	0	0	0
2853	0	0	0
2854	0	0	0
2855	0	0	0
2856	0	0	0
2857	0	0	0
2858	0	0	0
2859	0	0	0
2860	0	0	0
2861	0	0	0
2862	255	243	242
2863	255	241	242
2864	255	237	238
2865	255	226	231
2866	246	212	222
2867	245	213	224
2868	248	218	229
2869	247	215	229
2870	249	216	231
2871	249	212	232
2872	253	211	234
2873	250	201	231
2874	246	190	227
2875	244	184	226
2876	241	177	225
2877	243	180	230
2878	247	182	234
2879	248	179	235
2880	250	178	239
2881	254	178	242
2882	254	175	240
2883	252	173	237
2884	253	173	237
2885	249	167	232
2886	243	159	228
2887	246	168	235
2888	251	176	242
2889	255	181	244
2890	253	182	242
2891	248	179	239
2892	242	177	237
2893	236	179	238
2894	233	180	239
2895	0	0	0
2896	0	0	0
2897	0	0	0
2898	0	0	0
2899	0	0	0
2900	0	0	0
2901	0	0	0
2902	0	0	0
2903	0	0	0
2904	0	0	0
2905	0	0	0
2906	0	0	0
2907	0	0	0
2908	0	0	0
2909	0	0	0
2910	0	0	0
2911	0	0	0
2912	0	0	0
2913	0	0	0
2914	0	0	0
2915	0	0	0
2916	0	0	0
2917	0	0	0
2918	0	0	0
2919	0	0	0
2920	0	0	0
2921	0	0	0
2922	0	0	0
2923	0	0	0
2924	0	0	0
2925	0	0	0
2926	0	0	0
2927	0	0	0
2928	0	0	0
2929	0	0	0
2930	0	0	0
2931	0	0	0
2932	0	0	0
2933	0	0	0
2934	0	0	0
2935	0	0	0
2936	0	0	0
2937	0	0	0
2938	0	0	0
2939	0	0	0
2940	0	0	0
2941	0	0	0
2942	0	0	0
2943	0	0	0
2944	0	0	0
2945	0	0	0
2946	0	0	0
2947	0	0	0
2948	0	0	0
2949	0	0	0
2950	0	0	0
2951	0	0	0
2952	252	239	240
2953	253	235	237
2954	255	234	239
2955	252	218	229
2956	245	206	222
2957	249	210	226
2958	250	213	228
2959	252	217	232
2960	250	214	230
2961	252	213	233
2962	254	211	235
2963	249	200	230
2964	241	186	223
2965	247	191	230
2966	245	186	230
2967	242	179	229
2968	243	181	233
2969	244	178	233
2970	248	176	236
2971	251	175	238
2972	251	173	239
2973	250	171	238
2974	246	168	235
2975	250	173	236
2976	245	165	230
2977	241	162	228
2978	246	171	235
2979	253	183	242
2980	255	187	244
2981	250	182	239
2982	241	177	235
2983	241	185	237
2984	238	188	238
2985	240	195	244
2986	0	0	0
2987	0	0	0
2988	0	0	0
2989	0	0	0
2990	0	0	0
2991	0	0	0
2992	0	0	0
2993	0	0	0
2994	0	0	0
2995	0	0	0
2996	0	0	0
2997	0	0	0
2998	0	0	0
2999	0	0	0
3000	0	0	0
3001	0	0	0
3002	0	0	0
3003	0	0	0
3004	0	0	0
3005	0	0	0
3006	0	0	0
3007	0	0	0
3008	0	0	0
3009	0	0	0
3010	0	0	0
3011	0	0	0
3012	0	0	0
3013	0	0	0
3014	0	0	0
3015	0	0	0
3016	0	0	0
3017	0	0	0
3018	0	0	0
3019	0	0	0
3020	0	0	0
3021	0	0	0
3022	0	0	0
3023	0	0	0
3024	0	0	0
3025	0	0	0
3026	0	0	0
3027	0	0	0
3028	0	0	0
3029	0	0	0
3030	0	0	0
3031	0	0	0
3032	0	0	0
3033	0	0	0
3034	0	0	0
3035	0	0	0
3036	0	0	0
3037	0	0	0
3038	0	0	0
3039	0	0	0
3040	0	0	0
3041	0	0	0
3042	0	0	0
3043	248	229	234
3044	249	225	231
3045	247	212	225
3046	240	197	220
3047	245	202	227
3048	249	207	231
3049	252	211	233
3050	255	215	233
3051	253	211	231
3052	254	209	234
3053	250	199	230
3054	243	187	225
3055	243	188	227
3056	247	192	233
3057	246	187	232
3058	242	180	232
3059	238	175	232
3060	239	172	233
3061	243	171	234
3062	244	168	232
3063	246	168	234
3064	245	166	236
3065	246	169	238
3066	248	174	239
3067	245	171	235
3068	241	166	231
3069	248	178	238
3070	255	189	244
3071	251	185	240
3072	243	179	236
3073	240	185	236
3074	239	191	236
3075	238	198	238
3076	0	0	0
3077	0	0	0
3078	0	0	0
3079	0	0	0
3080	0	0	0
3081	0	0	0
3082	0	0	0
3083	0	0	0
3084	0	0	0
3085	0	0	0
3086	0	0	0
3087	0	0	0
3088	0	0	0
3089	0	0	0
3090	0	0	0
3091	0	0	0
3092	0	0	0
3093	0	0	0
3094	0	0	0
3095	0	0	0
3096	0	0	0
3097	0	0	0
3098	0	0	0
3099	0	0	0
3100	0	0	0
3101	0	0	0
3102	0	0	0
3103	0	0	0
3104	0	0	0
3105	0	0	0
3106	0	0	0
3107	0	0	0
3108	0	0	0
3109	0	0	0
3110	0	0	0
3111	0	0	0
3112	0	0	0
3113	0	0	0
3114	0	0	0
3115	0	0	0
3116	0	0	0
3117	0	0	0
3118	0	0	0
3119	0	0	0
3120	0	0	0
3121	0	0	0
3122	0	0	0
3123	0	0	0
3124	0	0	0
3125	0	0	0
3126	0	0	0
3127	0	0	0
3128	0	0	0
3129	0	0	0
3130	0	0	0
3131	0	0	0
3132	0	0	0
3133	254	234	238
3134	252	229	235
3135	249	220	229
3136	245	206	223
3137	244	201	226
3138	247	206	233
3139	251	211	237
3140	255	216	239
3141	255	210	232
3142	254	206	231
3143	250	198	230
3144	242	186	225
3145	244	189	229
3146	242	189	231
3147	245	191	235
3148	246	186	235
3149	239	175	231
3150	232	169	229
3151	241	180	240
3152	242	177	239
3153	244	175	236
3154	250	177	240
3155	249	174	241
3156	249	177	243
3157	251	182	245
3158	247	178	240
3159	241	172	234
3160	249	184	240
3161	254	194	245
3162	245	186	237
3163	239	186	237
3164	0	0	0
3165	0	0	0
3166	0	0	0
3167	0	0	0
3168	0	0	0
3169	0	0	0
3170	0	0	0
3171	0	0	0
3172	0	0	0
3173	0	0	0
3174	0	0	0
3175	0	0	0
3176	0	0	0
3177	0	0	0
3178	0	0	0
3179	0	0	0
3180	0	0	0
3181	0	0	0
3182	0	0	0
3183	0	0	0
3184	0	0	0
3185	0	0	0
3186	0	0	0
3187	0	0	0
3188	0	0	0
3189	0	0	0
3190	0	0	0
3191	0	0	0
3192	0	0	0
3193	0	0	0
3194	0	0	0
3195	0	0	0
3196	0	0	0
3197	0	0	0
3198	0	0	0
3199	0	0	0
3200	0	0	0
3201	0	0	0
3202	0	0	0
3203	0	0	0
3204	0	0	0
3205	0	0	0
3206	0	0	0
3207	0	0	0
3208	0	0	0
3209	0	0	0
3210	0	0	0
3211	0	0	0
3212	0	0	0
3213	0	0	0
3214	0	0	0
3215	0	0	0
3216	0	0	0
3217	0	0	0
3218	0	0	0
3219	0	0	0
3220	0	0	0
3221	0	0	0
3222	0	0	0
3223	255	232	238
3224	255	234	239
3225	248	220	230
3226	244	211	226
3227	244	207	226
3228	243	201	227
3229	247	207	233
3230	251	211	235
3231	250	205	231
3232	249	199	226
3233	246	192	224
3234	242	184	224
3235	245	188	231
3236	246	191	235
3237	243	189	235
3238	245	190	238
3239	241	181	234
3240	233	169	228
3241	236	177	233
3242	243	187	242
3243	242	182	239
3244	244	180	239
3245	249	181	241
3246	248	177	241
3247	250	183	244
3248	252	188	246
3249	245	182	241
3250	240	175	236
3251	248	187	243
3252	250	195	243
3253	239	191	236
3254	0	0	0
3255	0	0	0
3256	0	0	0
3257	0	0	0
3258	0	0	0
3259	0	0	0
3260	0	0	0
3261	0	0	0
3262	0	0	0
3263	0	0	0
3264	0	0	0
3265	0	0	0
3266	0	0	0
3267	0	0	0
3268	0	0	0
3269	0	0	0
3270	0	0	0
3271	0	0	0
3272	0	0	0
3273	0	0	0
3274	0	0	0
3275	0	0	0
3276	0	0	0
3277	0	0	0
3278	0	0	0
3279	0	0	0
3280	0	0	0
3281	0	0	0
3282	0	0	0
3283	0	0	0
3284	0	0	0
3285	0	0	0
3286	0	0	0
3287	0	0	0
3288	0	0	0
3289	0	0	0
3290	0	0	0
3291	0	0	0
3292	0	0	0
3293	0	0	0
3294	0	0	0
3295	0	0	0
3296	0	0	0
3297	0	0	0
3298	0	0	0
3299	0	0	0
3300	0	0	0
3301	0	0	0
3302	0	0	0
3303	0	0	0
3304	0	0	0
3305	0	0	0
3306	0	0	0
3307	0	0	0
3308	0	0	0
3309	0	0	0
3310	0	0	0
3311	0	0	0
3312	0	0	0
3313	254	228	237
3314	255	233	242
3315	250	216	230
3316	234	199	218
3317	240	208	226
3318	238	202	225
3319	243	206	230
3320	254	214	239
3321	250	206	233
3322	243	197	226
3323	251	205	232
3324	249	198	230
3325	242	184	227
3326	246	189	234
3327	248	193	239
3328	246	191	239
3329	243	186	237
3330	235	174	230
3331	239	181	234
3332	243	189	241
3333	243	189	241
3334	240	184	238
3335	244	187	241
3336	246	185	241
3337	247	185	242
3338	253	192	247
3339	250	190	245
3340	242	183	239
3341	244	188	242
3342	250	199	248
3343	244	200	242
3344	0	0	0
3345	0	0	0
3346	0	0	0
3347	0	0	0
3348	0	0	0
3349	0	0	0
3350	0	0	0
3351	0	0	0
3352	0	0	0
3353	0	0	0
3354	0	0	0
3355	0	0	0
3356	0	0	0
3357	0	0	0
3358	0	0	0
3359	0	0	0
3360	0	0	0
3361	0	0	0
3362	0	0	0
3363	0	0	0
3364	0	0	0
3365	0	0	0
3366	0	0	0
3367	0	0	0
3368	0	0	0
3369	0	0	0
3370	0	0	0
3371	0	0	0
3372	0	0	0
3373	0	0	0
3374	0	0	0
3375	0	0	0
3376	0	0	0
3377	0	0	0
3378	0	0	0
3379	0	0	0
3380	0	0	0
3381	0	0	0
3382	0	0	0
3383	0	0	0
3384	0	0	0
3385	0	0	0
3386	0	0	0
3387	0	0	0
3388	0	0	0
3389	0	0	0
3390	0	0	0
3391	0	0	0
3392	0	0	0
3393	0	0	0
3394	0	0	0
3395	0	0	0
3396	0	0	0
3397	0	0	0
3398	0	0	0
3399	249	237	241
3400	0	0	0
3401	0	0	0
3402	0	0	0
3403	0	0	0
3404	251	223	233
3405	246	210	227
3406	235	193	218
3407	238	202	225
3408	242	210	231
3409	240	208	230
3410	245	211	234
3411	249	207	235
3412	246	199	231
3413	246	201	233
3414	252	209	236
3415	245	194	228
3416	238	181	224
3417	244	188	234
3418	246	191	238
3419	241	185	235
3420	237	179	232
3421	240	185	235
3422	242	191	238
3423	238	188	236
3424	238	189	238
3425	241	190	240
3426	243	191	240
3427	243	190	239
3428	244	191	241
3429	243	189	240
3430	240	187	237
3431	240	191	239
3432	241	196	242
3433	243	201	243
3434	0	0	0
3435	0	0	0
3436	0	0	0
3437	0	0	0
3438	0	0	0
3439	0	0	0
3440	0	0	0
3441	0	0	0
3442	0	0	0
3443	0	0	0
3444	0	0	0
3445	0	0	0
3446	0	0	0
3447	0	0	0
3448	0	0	0
3449	0	0	0
3450	0	0	0
3451	0	0	0
3452	0	0	0
3453	0	0	0
3454	0	0	0
3455	0	0	0
3456	0	0	0
3457	0	0	0
3458	0	0	0
3459	0	0	0
3460	0	0	0
3461	0	0	0
3462	0	0	0
3463	0	0	0
3464	0	0	0
3465	0	0	0
3466	0	0	0
3467	0	0	0
3468	0	0	0
3469	0	0	0
3470	0	0	0
3471	0	0	0
3472	0	0	0
3473	0	0	0
3474	0	0	0
3475	0	0	0
3476	0	0	0
3477	0	0	0
3478	0	0	0
3479	0	0	0
3480	0	0	0
3481	0	0	0
3482	0	0	0
3483	0	0	0
3484	0	0	0
3485	0	0	0
3486	0	0	0
3487	0	0	0
3488	0	0	0
3489	248	235	240
3490	255	243	246
3491	248	229	235
3492	0	0	0
3493	0	0	0
3494	250	224	234
3495	249	221	233
3496	237	204	223
3497	237	202	226
3498	249	215	238
3499	244	208	232
3500	238	203	228
3501	246	211	235
3502	250	207	236
3503	249	202	234
3504	248	204	236
3505	248	205	234
3506	239	190	225
3507	241	189	229
3508	249	196	239
3509	245	190	238
3510	237	182	232
3511	239	187	234
3512	243	193	239
3513	239	191	236
3514	231	186	231
3515	238	196	240
3516	243	199	243
3517	243	198	239
3518	240	195	237
3519	243	201	242
3520	238	197	239
3521	236	197	237
3522	0	0	0
3523	0	0	0
3524	0	0	0
3525	0	0	0
3526	0	0	0
3527	0	0	0
3528	0	0	0
3529	0	0	0
3530	0	0	0
3531	0	0	0
3532	0	0	0
3533	0	0	0
3534	0	0	0
3535	0	0	0
3536	0	0	0
3537	0	0	0
3538	0	0	0
3539	0	0	0
3540	0	0	0
3541	0	0	0
3542	0	0	0
3543	0	0	0
3544	0	0	0
3545	0	0	0
3546	0	0	0
3547	0	0	0
3548	0	0	0
3549	0	0	0
3550	0	0	0
3551	0	0	0
3552	0	0	0
3553	0	0	0
3554	0	0	0
3555	0	0	0
3556	0	0	0
3557	0	0	0
3558	0	0	0
3559	0	0	0
3560	0	0	0
3561	0	0	0
3562	0	0	0
3563	0	0	0
3564	0	0	0
3565	0	0	0
3566	0	0	0
3567	0	0	0
3568	0	0	0
3569	0	0	0
3570	0	0	0
3571	0	0	0
3572	0	0	0
3573	0	0	0
3574	0	0	0
3575	0	0	0
3576	0	0	0
3577	0	0	0
3578	0	0	0
3579	0	0	0
3580	250	238	242
3581	249	229	237
3582	242	216	229
3583	247	222	233
3584	252	229	237
3585	252	225	235
3586	249	220	234
3587	239	211	228
3588	238	209	231
3589	244	208	234
3590	240	201	227
3591	242	206	231
3592	251	214	239
3593	253	210	238
3594	250	204	234
3595	248	203	233
3596	247	203	231
3597	240	195	226
3598	241	193	230
3599	241	190	232
3600	237	184	229
3601	237	188	233
3602	238	191	235
3603	237	191	235
3604	233	189	233
3605	231	193	234
3606	238	203	241
3607	244	205	242
3608	242	203	239
3609	240	206	239
3610	0	0	0
3611	238	210	241
3612	0	0	0
3613	0	0	0
3614	0	0	0
3615	0	0	0
3616	0	0	0
3617	0	0	0
3618	0	0	0
3619	0	0	0
3620	0	0	0
3621	0	0	0
3622	0	0	0
3623	0	0	0
3624	0	0	0
3625	0	0	0
3626	0	0	0
3627	0	0	0
3628	0	0	0
3629	0	0	0
3630	0	0	0
3631	0	0	0
3632	0	0	0
3633	0	0	0
3634	0	0	0
3635	0	0	0
3636	0	0	0
3637	0	0	0
3638	0	0	0
3639	0	0	0
3640	0	0	0
3641	0	0	0
3642	0	0	0
3643	0	0	0
3644	0	0	0
3645	0	0	0
3646	0	0	0
3647	0	0	0
3648	0	0	0
3649	0	0	0
3650	0	0	0
3651	0	0	0
3652	0	0	0
3653	0	0	0
3654	0	0	0
3655	0	0	0
3656	0	0	0
3657	0	0	0
3658	0	0	0
3659	0	0	0
3660	0	0	0
3661	0	0	0
3662	0	0	0
3663	0	0	0
3664	0	0	0
3665	0	0	0
3666	0	0	0
3667	0	0	0
3668	0	0	0
3669	0	0	0
3670	0	0	0
3671	250	238	241
3672	246	227	236
3673	239	213	229
3674	250	223	237
3675	252	222	235
3676	248	216	231
3677	241	209	228
3678	229	199	222
3679	240	214	235
3680	245	213	236
3681	242	203	229
3682	250	211	235
3683	253	212	238
3684	248	204	234
3685	247	201	232
3686	250	202	232
3687	247	200	229
3688	234	189	221
3689	241	200	232
3690	240	196	232
3691	237	193	232
3692	240	198	236
3693	236	195	233
3694	232	193	232
3695	235	202	238
3696	236	207	240
3697	242	214	243
3698	248	216	245
3699	239	205	236
3700	0	0	0
3701	0	0	0
3702	0	0	0
3703	0	0	0
3704	0	0	0
3705	0	0	0
3706	0	0	0
3707	0	0	0
3708	0	0	0
3709	0	0	0
3710	0	0	0
3711	0	0	0
3712	0	0	0
3713	0	0	0
3714	0	0	0
3715	0	0	0
3716	0	0	0
3717	0	0	0
3718	0	0	0
3719	0	0	0
3720	0	0	0
3721	0	0	0
3722	0	0	0
3723	0	0	0
3724	0	0	0
3725	0	0	0
3726	0	0	0
3727	0	0	0
3728	0	0	0
3729	0	0	0
3730	0	0	0
3731	0	0	0
3732	0	0	0
3733	0	0	0
3734	0	0	0
3735	0	0	0
3736	0	0	0
3737	0	0	0
3738	0	0	0
3739	0	0	0
3740	0	0	0
3741	0	0	0
3742	0	0	0
3743	0	0	0
3744	0	0	0
3745	0	0	0
3746	0	0	0
3747	0	0	0
3748	0	0	0
3749	0	0	0
3750	0	0	0
3751	0	0	0
3752	0	0	0
3753	0	0	0
3754	0	0	0
3755	0	0	0
3756	0	0	0
3757	0	0	0
3758	0	0	0
3759	0	0	0
3760	0	0	0
3761	244	233	238
3762	249	237	241
3763	239	221	231
3764	234	207	225
3765	242	212	231
3766	243	211	230
3767	238	205	226
3768	232	198	224
3769	235	208	231
3770	245	221	239
3771	240	210	232
3772	238	201	226
3773	249	206	233
3774	250	206	233
3775	242	199	228
3776	241	196	228
3777	245	198	230
3778	243	196	228
3779	242	201	230
3780	247	211	238
3781	244	207	236
3782	241	203	235
3783	239	202	235
3784	235	199	233
3785	240	209	239
3786	243	217	243
3787	244	220	244
3788	250	227	247
3789	249	221	243
3790	0	0	0
3791	0	0	0
3792	0	0	0
3793	0	0	0
3794	0	0	0
3795	0	0	0
3796	0	0	0
3797	0	0	0
3798	0	0	0
3799	0	0	0
3800	0	0	0
3801	0	0	0
3802	0	0	0
3803	0	0	0
3804	0	0	0
3805	0	0	0
3806	0	0	0
3807	0	0	0
3808	0	0	0
3809	0	0	0
3810	0	0	0
3811	0	0	0
3812	0	0	0
3813	0	0	0
3814	0	0	0
3815	0	0	0
3816	0	0	0
3817	0	0	0
3818	0	0	0
3819	0	0	0
3820	0	0	0
3821	0	0	0
3822	0	0	0
3823	0	0	0
3824	0	0	0
3825	0	0	0
3826	0	0	0
3827	0	0	0
3828	0	0	0
3829	0	0	0
3830	0	0	0
3831	0	0	0
3832	0	0	0
3833	0	0	0
3834	0	0	0
3835	0	0	0
3836	0	0	0
3837	0	0	0
3838	0	0	0
3839	0	0	0
3840	0	0	0
3841	0	0	0
3842	0	0	0
3843	0	0	0
3844	0	0	0
3845	0	0	0
3846	0	0	0
3847	0	0	0
3848	0	0	0
3849	0	0	0
3850	0	0	0
3851	243	233	239
3852	246	236	241
3853	239	225	233
3854	229	210	223
3855	232	209	226
3856	239	213	232
3857	237	209	229
3858	232	203	225
3859	233	204	228
3860	243	217	238
3861	239	212	233
3862	228	198	222
3863	238	205	229
3864	252	213	238
3865	244	199	228
3866	232	190	221
3867	240	202	231
3868	243	203	232
3869	246	206	233
3870	251	214	238
3871	244	206	233
3872	239	201	229
3873	245	210	236
3874	241	208	234
3875	236	204	233
3876	243	215	240
3877	241	215	238
3878	242	218	238
3879	246	223	240
3880	245	216	236
3881	244	217	238
3882	0	0	0
3883	0	0	0
3884	0	0	0
3885	0	0	0
3886	0	0	0
3887	0	0	0
3888	0	0	0
3889	0	0	0
3890	0	0	0
3891	0	0	0
3892	0	0	0
3893	0	0	0
3894	0	0	0
3895	0	0	0
3896	0	0	0
3897	0	0	0
3898	0	0	0
3899	0	0	0
3900	0	0	0
3901	0	0	0
3902	0	0	0
3903	0	0	0
3904	0	0	0
3905	0	0	0
3906	0	0	0
3907	0	0	0
3908	0	0	0
3909	0	0	0
3910	0	0	0
3911	0	0	0
3912	0	0	0
3913	0	0	0
3914	0	0	0
3915	0	0	0
3916	0	0	0
3917	0	0	0
3918	0	0	0
3919	0	0	0
3920	0	0	0
3921	0	0	0
3922	0	0	0
3923	0	0	0
3924	0	0	0
3925	0	0	0
3926	0	0	0
3927	0	0	0
3928	0	0	0
3929	0	0	0
3930	0	0	0
3931	0	0	0
3932	0	0	0
3933	0	0	0
3934	0	0	0
3935	0	0	0
3936	0	0	0
3937	0	0	0
3938	0	0	0
3939	0	0	0
3940	0	0	0
3941	0	0	0
3942	245	236	240
3943	238	225	233
3944	232	215	226
3945	232	214	228
3946	234	213	230
3947	235	211	231
3948	234	208	229
3949	236	210	232
3950	238	212	232
3951	241	211	233
3952	237	206	229
3953	234	206	229
3954	242	213	236
3955	246	206	234
3956	238	193	225
3957	238	200	229
3958	244	212	238
3959	248	214	239
3960	251	217	239
3961	249	211	235
3962	244	204	231
3963	248	213	236
3964	252	221	239
3965	247	217	235
3966	244	213	236
3967	245	217	238
3968	243	216	236
3969	243	218	235
3970	246	222	238
3971	250	225	240
3972	248	226	239
3973	0	0	0
3974	0	0	0
3975	0	0	0
3976	0	0	0
3977	0	0	0
3978	0	0	0
3979	0	0	0
3980	0	0	0
3981	0	0	0
3982	0	0	0
3983	0	0	0
3984	0	0	0
3985	0	0	0
3986	0	0	0
3987	0	0	0
3988	0	0	0
3989	0	0	0
3990	0	0	0
3991	0	0	0
3992	0	0	0
3993	0	0	0
3994	0	0	0
3995	0	0	0
3996	0	0	0
3997	0	0	0
3998	0	0	0
3999	0	0	0
4000	0	0	0
4001	0	0	0
4002	0	0	0
4003	0	0	0
4004	0	0	0
4005	0	0	0
4006	0	0	0
4007	0	0	0
4008	0	0	0
4009	0	0	0
4010	0	0	0
4011	0	0	0
4012	0	0	0
4013	0	0	0
4014	0	0	0
4015	0	0	0
4016	0	0	0
4017	0	0	0
4018	0	0	0
4019	0	0	0
4020	0	0	0
4021	0	0	0
4022	0	0	0
4023	0	0	0
4024	0	0	0
4025	0	0	0
4026	0	0	0
4027	0	0	0
4028	0	0	0
4029	0	0	0
4030	0	0	0
4031	0	0	0
4032	0	0	0
4033	244	234	239
4034	238	223	232
4035	234	215	229
4036	235	215	231
4037	234	212	230
4038	232	209	229
4039	237	212	234
4040	245	218	239
4041	240	206	231
4042	241	205	230
4043	242	206	231
4044	237	205	230
4045	241	209	234
4046	241	200	229
4047	242	199	228
4048	245	209	233
4049	244	210	234
4050	244	211	233
4051	248	213	234
4052	248	209	232
4053	248	208	232
4054	251	216	237
4055	250	217	234
4056	248	214	232
4057	245	211	232
4058	246	214	234
4059	246	218	235
4060	245	219	234
4061	242	219	233
4062	243	221	233
4063	0	0	0
4064	0	0	0
4065	0	0	0
4066	0	0	0
4067	0	0	0
4068	0	0	0
4069	0	0	0
4070	0	0	0
4071	0	0	0
4072	0	0	0
4073	0	0	0
4074	0	0	0
4075	0	0	0
4076	0	0	0
4077	0	0	0
4078	0	0	0
4079	0	0	0
4080	0	0	0
4081	0	0	0
4082	0	0	0
4083	0	0	0
4084	0	0	0
4085	0	0	0
4086	0	0	0
4087	0	0	0
4088	0	0	0
4089	0	0	0
4090	0	0	0
4091	0	0	0
4092	0	0	0
4093	0	0	0
4094	0	0	0
4095	0	0	0
4096	0	0	0
4097	0	0	0
4098	0	0	0
4099	0	0	0
4100	0	0	0
4101	0	0	0
4102	0	0	0
4103	0	0	0
4104	0	0	0
4105	0	0	0
4106	0	0	0
4107	0	0	0
4108	0	0	0
4109	0	0	0
4110	0	0	0
4111	0	0	0
4112	0	0	0
4113	0	0	0
4114	0	0	0
4115	0	0	0
4116	0	0	0
4117	0	0	0
4118	0	0	0
4119	0	0	0
4120	0	0	0
4121	0	0	0
4122	0	0	0
4123	240	225	235
4124	245	232	238
4125	238	222	231
4126	234	215	230
4127	235	213	231
4128	233	210	230
4129	232	210	231
4130	237	214	235
4131	237	206	232
4132	233	196	226
4133	239	201	230
4134	239	202	229
4135	235	201	226
4136	239	204	229
4137	244	206	231
4138	245	205	229
4139	247	210	231
4140	247	211	231
4141	246	211	230
4142	249	214	232
4143	252	214	233
4144	250	212	231
4145	246	211	229
4146	246	213	229
4147	247	212	229
4148	244	208	228
4149	247	215	233
4150	248	220	234
4151	243	218	231
4152	240	216	228
4153	0	0	0
4154	0	0	0
4155	0	0	0
4156	0	0	0
4157	0	0	0
4158	0	0	0
4159	0	0	0
4160	0	0	0
4161	0	0	0
4162	0	0	0
4163	0	0	0
4164	0	0	0
4165	0	0	0
4166	0	0	0
4167	0	0	0
4168	0	0	0
4169	0	0	0
4170	0	0	0
4171	0	0	0
4172	0	0	0
4173	0	0	0
4174	0	0	0
4175	0	0	0
4176	0	0	0
4177	0	0	0
4178	0	0	0
4179	0	0	0
4180	0	0	0
4181	0	0	0
4182	0	0	0
4183	0	0	0
4184	0	0	0
4185	0	0	0
4186	0	0	0
4187	0	0	0
4188	0	0	0
4189	0	0	0
4190	0	0	0
4191	0	0	0
4192	0	0	0
4193	0	0	0
4194	0	0	0
4195	0	0	0
4196	0	0	0
4197	0	0	0
4198	0	0	0
4199	0	0	0
4200	0	0	0
4201	0	0	0
4202	0	0	0
4203	0	0	0
4204	0	0	0
4205	0	0	0
4206	0	0	0
4207	0	0	0
4208	0	0	0
4209	0	0	0
4210	0	0	0
4211	0	0	0
4212	0	0	0
4213	243	228	239
4214	250	236	244
4215	242	225	234
4216	233	213	226
4217	239	220	234
4218	239	218	235
4219	235	213	231
4220	233	213	231
4221	237	216	235
4222	235	208	231
4223	232	199	228
4224	237	204	232
4225	239	207	231
4226	239	207	229
4227	243	210	231
4228	247	210	231
4229	246	206	227
4230	253	212	231
4231	248	205	227
4232	246	205	225
4233	250	212	229
4234	249	210	227
4235	245	208	225
4236	239	206	222
4237	246	218	230
4238	248	217	231
4239	243	210	228
4240	246	216	232
4241	247	220	233
4242	0	0	0
4243	0	0	0
4244	0	0	0
4245	0	0	0
4246	0	0	0
4247	0	0	0
4248	0	0	0
4249	0	0	0
4250	0	0	0
4251	0	0	0
4252	0	0	0
4253	0	0	0
4254	0	0	0
4255	0	0	0
4256	0	0	0
4257	0	0	0
4258	0	0	0
4259	0	0	0
4260	0	0	0
4261	0	0	0
4262	0	0	0
4263	0	0	0
4264	0	0	0
4265	0	0	0
4266	0	0	0
4267	0	0	0
4268	0	0	0
4269	0	0	0
4270	0	0	0
4271	0	0	0
4272	0	0	0
4273	0	0	0
4274	0	0	0
4275	0	0	0
4276	0	0	0
4277	0	0	0
4278	0	0	0
4279	0	0	0
4280	0	0	0
4281	0	0	0
4282	0	0	0
4283	0	0	0
4284	0	0	0
4285	0	0	0
4286	0	0	0
4287	0	0	0
4288	0	0	0
4289	0	0	0
4290	0	0	0
4291	0	0	0
4292	0	0	0
4293	0	0	0
4294	0	0	0
4295	0	0	0
4296	0	0	0
4297	0	0	0
4298	0	0	0
4299	0	0	0
4300	0	0	0
4301	0	0	0
4302	0	0	0
4303	0	0	0
4304	248	235	242
4305	243	226	236
4306	236	215	229
4307	239	220	234
4308	244	226	239
4309	244	223	237
4310	241	219	234
4311	243	221	235
4312	245	224	237
4313	240	215	233
4314	236	207	232
4315	240	211	235
4316	243	213	234
4317	247	215	234
4318	251	218	236
4319	251	214	232
4320	251	209	228
4321	254	208	228
4322	249	201	225
4323	253	208	230
4324	255	215	232
4325	255	217	232
4326	253	215	231
4327	252	222	233
4328	255	232	238
4329	253	223	233
4330	248	216	232
4331	247	219	235
4332	248	223	235
4333	252	230	238
4334	0	0	0
4335	0	0	0
4336	0	0	0
4337	0	0	0
4338	0	0	0
4339	0	0	0
4340	0	0	0
4341	0	0	0
4342	0	0	0
4343	0	0	0
4344	0	0	0
4345	0	0	0
4346	0	0	0
4347	0	0	0
4348	0	0	0
4349	0	0	0
4350	0	0	0
4351	0	0	0
4352	0	0	0
4353	0	0	0
4354	0	0	0
4355	0	0	0
4356	0	0	0
4357	0	0	0
4358	0	0	0
4359	0	0	0
4360	0	0	0
4361	0	0	0
4362	0	0	0
4363	0	0	0
4364	0	0	0
4365	0	0	0
4366	0	0	0
4367	0	0	0
4368	0	0	0
4369	0	0	0
4370	0	0	0
4371	0	0	0
4372	0	0	0
4373	0	0	0
4374	0	0	0
4375	0	0	0
4376	0	0	0
4377	0	0	0
4378	0	0	0
4379	0	0	0
4380	0	0	0
4381	0	0	0
4382	0	0	0
4383	0	0	0
4384	0	0	0
4385	0	0	0
4386	0	0	0
4387	0	0	0
4388	0	0	0
4389	0	0	0
4390	0	0	0
4391	0	0	0
4392	0	0	0
4393	0	0	0
4394	0	0	0
4395	246	232	239
4396	240	222	232
4397	236	216	231
4398	241	222	236
4399	241	220	234
4400	242	217	231
4401	248	221	234
4402	255	227	239
4403	245	210	229
4404	232	197	220
4405	237	206	230
4406	242	210	233
4407	244	211	231
4408	250	214	232
4409	250	209	229
4410	251	206	226
4411	254	207	226
4412	255	204	226
4413	249	196	222
4414	254	204	228
4415	255	208	229
4416	255	210	230
4417	250	200	224
4418	252	208	227
4419	255	219	231
4420	248	208	222
4421	253	218	233
4422	250	221	235
4423	250	225	235
4424	255	232	238
4425	253	233	237
4426	0	0	0
4427	0	0	0
4428	0	0	0
4429	0	0	0
4430	0	0	0
4431	0	0	0
4432	0	0	0
4433	0	0	0
4434	0	0	0
4435	0	0	0
4436	0	0	0
4437	0	0	0
4438	0	0	0
4439	0	0	0
4440	0	0	0
4441	0	0	0
4442	0	0	0
4443	0	0	0
4444	0	0	0
4445	0	0	0
4446	0	0	0
4447	0	0	0
4448	0	0	0
4449	0	0	0
4450	0	0	0
4451	0	0	0
4452	0	0	0
4453	0	0	0
4454	0	0	0
4455	0	0	0
4456	0	0	0
4457	0	0	0
4458	0	0	0
4459	0	0	0
4460	0	0	0
4461	0	0	0
4462	0	0	0
4463	0	0	0
4464	0	0	0
4465	0	0	0
4466	0	0	0
4467	0	0	0
4468	0	0	0
4469	0	0	0
4470	0	0	0
4471	0	0	0
4472	0	0	0
4473	0	0	0
4474	0	0	0
4475	0	0	0
4476	0	0	0
4477	0	0	0
4478	0	0	0
4479	0	0	0
4480	0	0	0
4481	0	0	0
4482	0	0	0
4483	0	0	0
4484	0	0	0
4485	0	0	0
4486	244	229	236
4487	237	221	231
4488	235	215	231
4489	239	217	233
4490	239	214	229
4491	243	216	230
4492	250	221	232
4493	251	212	229
4494	243	197	223
4495	246	206	231
4496	250	215	237
4497	251	215	236
4498	253	215	234
4499	255	212	231
4500	255	207	228
4501	255	207	228
4502	255	208	228
4503	255	203	226
4504	253	195	223
4505	255	201	228
4506	255	205	229
4507	255	199	226
4508	249	190	222
4509	255	203	230
4510	255	214	232
4511	255	220	233
4512	255	229	240
4513	255	233	241
4514	255	237	241
4515	255	238	241
4516	0	0	0
4517	0	0	0
4518	0	0	0
4519	0	0	0
4520	0	0	0
4521	0	0	0
4522	0	0	0
4523	0	0	0
4524	0	0	0
4525	0	0	0
4526	0	0	0
4527	0	0	0
4528	0	0	0
4529	0	0	0
4530	0	0	0
4531	0	0	0
4532	0	0	0
4533	0	0	0
4534	0	0	0
4535	0	0	0
4536	0	0	0
4537	0	0	0
4538	0	0	0
4539	0	0	0
4540	0	0	0
4541	0	0	0
4542	0	0	0
4543	0	0	0
4544	0	0	0
4545	0	0	0
4546	0	0	0
4547	0	0	0
4548	0	0	0
4549	0	0	0
4550	0	0	0
4551	0	0	0
4552	0	0	0
4553	0	0	0
4554	0	0	0
4555	0	0	0
4556	0	0	0
4557	0	0	0
4558	0	0	0
4559	0	0	0
4560	0	0	0
4561	0	0	0
4562	0	0	0
4563	0	0	0
4564	0	0	0
4565	0	0	0
4566	0	0	0
4567	0	0	0
4568	0	0	0
4569	0	0	0
4570	0	0	0
4571	0	0	0
4572	0	0	0
4573	0	0	0
4574	0	0	0
4575	0	0	0
4576	245	229	236
4577	239	223	231
4578	230	213	225
4579	238	221	234
4580	247	225	239
4581	241	212	230
4582	239	212	227
4583	243	212	226
4584	245	203	224
4585	245	195	224
4586	255	210	238
4587	253	202	231
4588	251	201	228
4589	253	201	228
4590	254	197	225
4591	251	191	222
4592	249	190	220
4593	255	197	224
4594	255	193	223
4595	251	183	219
4596	255	190	225
4597	255	191	224
4598	251	184	220
4599	248	181	221
4600	255	194	229
4601	255	203	228
4602	255	208	228
4603	255	212	230
4604	255	216	231
4605	253	212	227
4606	252	212	227
4607	253	219	231
4608	0	0	0
4609	0	0	0
4610	0	0	0
4611	0	0	0
4612	0	0	0
4613	0	0	0
4614	0	0	0
4615	0	0	0
4616	0	0	0
4617	0	0	0
4618	0	0	0
4619	0	0	0
4620	0	0	0
4621	0	0	0
4622	0	0	0
4623	0	0	0
4624	0	0	0
4625	0	0	0
4626	0	0	0
4627	0	0	0
4628	0	0	0
4629	0	0	0
4630	0	0	0
4631	0	0	0
4632	0	0	0
4633	0	0	0
4634	0	0	0
4635	0	0	0
4636	0	0	0
4637	0	0	0
4638	0	0	0
4639	0	0	0
4640	0	0	0
4641	0	0	0
4642	0	0	0
4643	0	0	0
4644	0	0	0
4645	0	0	0
4646	0	0	0
4647	0	0	0
4648	0	0	0
4649	0	0	0
4650	0	0	0
4651	0	0	0
4652	0	0	0
4653	0	0	0
4654	0	0	0
4655	0	0	0
4656	0	0	0
4657	0	0	0
4658	0	0	0
4659	0	0	0
4660	0	0	0
4661	0	0	0
4662	0	0	0
4663	0	0	0
4664	0	0	0
4665	0	0	0
4666	252	233	238
4667	244	225	233
4668	237	218	229
4669	236	220	230
4670	245	228	238
4671	245	220	235
4672	240	208	229
4673	239	207	228
4674	241	207	225
4675	245	201	224
4676	246	193	224
4677	252	194	227
4678	248	185	221
4679	246	185	221
4680	249	186	224
4681	250	183	223
4682	247	177	219
4683	251	183	223
4684	255	191	226
4685	253	182	222
4686	249	173	220
4687	253	177	224
4688	253	178	221
4689	251	176	220
4690	247	173	220
4691	255	186	228
4692	255	195	228
4693	255	196	225
4694	255	199	225
4695	250	194	222
4696	245	191	221
4697	249	199	227
4698	249	205	228
4699	0	0	0
4700	0	0	0
4701	0	0	0
4702	0	0	0
4703	0	0	0
4704	0	0	0
4705	0	0	0
4706	0	0	0
4707	0	0	0
4708	0	0	0
4709	0	0	0
4710	0	0	0
4711	0	0	0
4712	0	0	0
4713	0	0	0
4714	0	0	0
4715	0	0	0
4716	0	0	0
4717	0	0	0
4718	0	0	0
4719	0	0	0
4720	0	0	0
4721	0	0	0
4722	0	0	0
4723	0	0	0
4724	0	0	0
4725	0	0	0
4726	0	0	0
4727	0	0	0
4728	0	0	0
4729	0	0	0
4730	0	0	0
4731	0	0	0
4732	0	0	0
4733	0	0	0
4734	0	0	0
4735	0	0	0
4736	0	0	0
4737	0	0	0
4738	0	0	0
4739	0	0	0
4740	0	0	0
4741	0	0	0
4742	0	0	0
4743	0	0	0
4744	0	0	0
4745	0	0	0
4746	0	0	0
4747	0	0	0
4748	0	0	0
4749	0	0	0
4750	0	0	0
4751	0	0	0
4752	0	0	0
4753	0	0	0
4754	0	0	0
4755	0	0	0
4756	255	231	237
4757	250	226	235
4758	240	217	228
4759	241	221	232
4760	245	225	235
4761	250	229	237
4762	245	217	231
4763	246	213	233
4764	251	216	237
4765	245	203	228
4766	246	196	225
4767	247	190	224
4768	251	189	226
4769	247	181	221
4770	246	181	222
4771	246	180	225
4772	248	177	225
4773	251	178	226
4774	255	186	231
4775	255	181	227
4776	249	170	221
4777	248	167	223
4778	253	172	228
4779	251	169	223
4780	249	168	222
4781	247	166	222
4782	254	179	230
4783	255	184	229
4784	254	186	226
4785	252	186	224
4786	246	181	220
4787	250	190	228
4788	253	198	233
4789	251	203	231
4790	0	0	0
4791	0	0	0
4792	0	0	0
4793	0	0	0
4794	0	0	0
4795	0	0	0
4796	0	0	0
4797	0	0	0
4798	0	0	0
4799	0	0	0
4800	0	0	0
4801	0	0	0
4802	0	0	0
4803	0	0	0
4804	0	0	0
4805	0	0	0
4806	0	0	0
4807	0	0	0
4808	0	0	0
4809	0	0	0
4810	0	0	0
4811	0	0	0
4812	0	0	0
4813	0	0	0
4814	0	0	0
4815	0	0	0
4816	0	0	0
4817	0	0	0
4818	0	0	0
4819	0	0	0
4820	0	0	0
4821	0	0	0
4822	0	0	0
4823	0	0	0
4824	0	0	0
4825	0	0	0
4826	0	0	0
4827	0	0	0
4828	0	0	0
4829	0	0	0
4830	0	0	0
4831	0	0	0
4832	0	0	0
4833	0	0	0
4834	0	0	0
4835	0	0	0
4836	0	0	0
4837	0	0	0
4838	0	0	0
4839	0	0	0
4840	0	0	0
4841	0	0	0
4842	0	0	0
4843	0	0	0
4844	0	0	0
4845	0	0	0
4846	0	0	0
4847	252	225	234
4848	248	219	231
4849	243	220	231
4850	246	225	235
4851	250	227	236
4852	254	229	238
4853	251	222	234
4854	253	219	236
4855	251	209	234
4856	247	197	230
4857	250	194	231
4858	250	188	227
4859	252	185	227
4860	249	178	224
4861	248	177	225
4862	248	175	227
4863	254	179	232
4864	255	179	232
4865	255	174	229
4866	252	169	225
4867	248	163	223
4868	246	160	225
4869	247	161	228
4870	245	158	225
4871	244	157	224
4872	241	156	222
4873	247	164	226
4874	248	169	225
4875	244	168	222
4876	243	169	222
4877	246	177	226
4878	249	185	230
4879	252	193	232
4880	250	198	229
4881	0	0	0
4882	0	0	0
4883	0	0	0
4884	0	0	0
4885	0	0	0
4886	0	0	0
4887	0	0	0
4888	0	0	0
4889	0	0	0
4890	0	0	0
4891	0	0	0
4892	0	0	0
4893	0	0	0
4894	0	0	0
4895	0	0	0
4896	0	0	0
4897	0	0	0
4898	0	0	0
4899	0	0	0
4900	0	0	0
4901	0	0	0
4902	0	0	0
4903	0	0	0
4904	0	0	0
4905	0	0	0
4906	0	0	0
4907	0	0	0
4908	0	0	0
4909	0	0	0
4910	0	0	0
4911	0	0	0
4912	0	0	0
4913	0	0	0
4914	0	0	0
4915	0	0	0
4916	0	0	0
4917	0	0	0
4918	0	0	0
4919	0	0	0
4920	0	0	0
4921	0	0	0
4922	0	0	0
4923	0	0	0
4924	0	0	0
4925	0	0	0
4926	0	0	0
4927	0	0	0
4928	0	0	0
4929	0	0	0
4930	0	0	0
4931	0	0	0
4932	0	0	0
4933	0	0	0
4934	0	0	0
4935	0	0	0
4936	0	0	0
4937	0	0	0
4938	251	223	234
4939	244	214	228
4940	242	215	229
4941	251	229	238
4942	255	230	239
4943	253	222	233
4944	251	215	230
4945	255	217	235
4946	255	207	234
4947	247	189	228
4948	251	187	232
4949	251	182	229
4950	254	179	228
4951	255	176	228
4952	255	177	231
4953	251	167	227
4954	255	169	232
4955	251	163	228
4956	247	157	224
4957	254	167	231
4958	250	161	229
4959	246	156	229
4960	245	155	231
4961	245	157	231
4962	243	156	230
4963	247	162	233
4964	254	172	238
4965	248	166	230
4966	242	164	226
4967	251	180	236
4968	255	189	240
4969	253	187	236
4970	254	194	236
4971	252	196	231
4972	0	0	0
4973	0	0	0
4974	0	0	0
4975	0	0	0
4976	0	0	0
4977	0	0	0
4978	0	0	0
4979	0	0	0
4980	0	0	0
4981	0	0	0
4982	0	0	0
4983	0	0	0
4984	0	0	0
4985	0	0	0
4986	0	0	0
4987	0	0	0
4988	0	0	0
4989	0	0	0
4990	0	0	0
4991	0	0	0
4992	0	0	0
4993	0	0	0
4994	0	0	0
4995	0	0	0
4996	0	0	0
4997	0	0	0
4998	0	0	0
4999	0	0	0
5000	0	0	0
5001	0	0	0
5002	0	0	0
5003	0	0	0
5004	0	0	0
5005	0	0	0
5006	0	0	0
5007	0	0	0
5008	0	0	0
5009	0	0	0
5010	0	0	0
5011	0	0	0
5012	0	0	0
5013	0	0	0
5014	0	0	0
5015	0	0	0
5016	0	0	0
5017	0	0	0
5018	0	0	0
5019	0	0	0
5020	0	0	0
5021	0	0	0
5022	0	0	0
5023	0	0	0
5024	0	0	0
5025	0	0	0
5026	0	0	0
5027	0	0	0
5028	255	230	239
5029	253	222	235
5030	246	213	230
5031	250	222	236
5032	255	235	244
5033	255	225	236
5034	252	216	231
5035	253	213	229
5036	255	213	230
5037	247	193	222
5038	241	176	222
5039	247	177	229
5040	248	173	228
5041	253	173	229
5042	254	170	226
5043	249	161	223
5044	243	151	220
5045	243	148	222
5046	239	142	221
5047	247	152	229
5048	253	161	236
5049	246	154	231
5050	240	146	226
5051	239	149	228
5052	238	151	230
5053	240	155	232
5054	244	161	235
5055	244	160	232
5056	238	155	226
5057	244	168	232
5058	251	183	239
5059	249	182	235
5060	246	180	232
5061	248	187	233
5062	247	190	231
5063	0	0	0
5064	0	0	0
5065	0	0	0
5066	0	0	0
5067	0	0	0
5068	0	0	0
5069	0	0	0
5070	0	0	0
5071	0	0	0
5072	0	0	0
5073	0	0	0
5074	0	0	0
5075	0	0	0
5076	0	0	0
5077	0	0	0
5078	0	0	0
5079	0	0	0
5080	0	0	0
5081	0	0	0
5082	0	0	0
5083	0	0	0
5084	0	0	0
5085	0	0	0
5086	0	0	0
5087	0	0	0
5088	0	0	0
5089	0	0	0
5090	0	0	0
5091	0	0	0
5092	0	0	0
5093	0	0	0
5094	0	0	0
5095	0	0	0
5096	0	0	0
5097	0	0	0
5098	0	0	0
5099	0	0	0
5100	0	0	0
5101	0	0	0
5102	0	0	0
5103	0	0	0
5104	0	0	0
5105	0	0	0
5106	0	0	0
5107	0	0	0
5108	0	0	0
5109	0	0	0
5110	0	0	0
5111	0	0	0
5112	0	0	0
5113	0	0	0
5114	0	0	0
5115	0	0	0
5116	255	226	232
5117	251	216	227
5118	253	216	229
5119	255	221	234
5120	251	212	230
5121	252	215	232
5122	255	226	239
5123	255	232	242
5124	255	219	234
5125	254	213	231
5126	252	209	229
5127	255	211	231
5128	247	190	222
5129	248	183	229
5130	254	185	238
5131	251	174	234
5132	255	175	237
5133	251	164	229
5134	244	154	225
5135	238	144	222
5136	237	141	224
5137	247	153	236
5138	255	164	246
5139	250	157	240
5140	241	147	232
5141	237	146	230
5142	235	147	231
5143	244	162	242
5144	246	167	244
5145	246	168	242
5146	245	166	239
5147	246	170	240
5148	253	185	247
5149	250	184	242
5150	244	181	236
5151	248	190	240
5152	253	198	243
5153	0	0	0
5154	0	0	0
5155	0	0	0
5156	0	0	0
5157	0	0	0
5158	0	0	0
5159	0	0	0
5160	0	0	0
5161	0	0	0
5162	0	0	0
5163	0	0	0
5164	0	0	0
5165	0	0	0
5166	0	0	0
5167	0	0	0
5168	0	0	0
5169	0	0	0
5170	0	0	0
5171	0	0	0
5172	0	0	0
5173	0	0	0
5174	0	0	0
5175	0	0	0
5176	0	0	0
5177	0	0	0
5178	0	0	0
5179	0	0	0
5180	0	0	0
5181	0	0	0
5182	0	0	0
5183	0	0	0
5184	0	0	0
5185	0	0	0
5186	0	0	0
5187	0	0	0
5188	0	0	0
5189	0	0	0
5190	0	0	0
5191	0	0	0
5192	0	0	0
5193	0	0	0
5194	0	0	0
5195	0	0	0
5196	0	0	0
5197	0	0	0
5198	0	0	0
5199	0	0	0
5200	0	0	0
5201	0	0	0
5202	0	0	0
5203	0	0	0
5204	0	0	0
5205	255	228	235
5206	255	223	231
5207	255	219	230
5208	255	210	225
5209	255	217	232
5210	255	221	237
5211	255	224	239
5212	255	226	240
5213	255	230	242
5214	255	236	246
5215	255	224	238
5216	255	217	237
5217	255	211	234
5218	255	213	239
5219	252	197	232
5220	249	187	233
5221	245	176	232
5222	242	166	233
5223	245	161	235
5224	239	150	229
5225	232	141	225
5226	224	131	222
5227	235	144	234
5228	243	154	243
5229	237	146	237
5230	230	138	231
5231	227	139	230
5232	225	138	228
5233	235	154	239
5234	243	168	248
5235	241	167	245
5236	240	168	243
5237	241	171	243
5238	241	174	242
5239	239	175	240
5240	236	175	236
5241	237	182	237
5242	241	190	240
5243	239	188	237
5244	235	185	231
5245	239	192	234
5246	0	0	0
5247	0	0	0
5248	0	0	0
5249	0	0	0
5250	0	0	0
5251	0	0	0
5252	0	0	0
5253	0	0	0
5254	0	0	0
5255	0	0	0
5256	0	0	0
5257	0	0	0
5258	0	0	0
5259	0	0	0
5260	0	0	0
5261	0	0	0
5262	0	0	0
5263	0	0	0
5264	0	0	0
5265	0	0	0
5266	0	0	0
5267	0	0	0
5268	0	0	0
5269	0	0	0
5270	0	0	0
5271	0	0	0
5272	0	0	0
5273	0	0	0
5274	0	0	0
5275	0	0	0
5276	0	0	0
5277	0	0	0
5278	0	0	0
5279	0	0	0
5280	0	0	0
5281	0	0	0
5282	0	0	0
5283	0	0	0
5284	0	0	0
5285	0	0	0
5286	0	0	0
5287	0	0	0
5288	0	0	0
5289	0	0	0
5290	0	0	0
5291	0	0	0
5292	0	0	0
5293	0	0	0
5294	0	0	0
5295	255	223	232
5296	255	221	232
5297	255	204	222
5298	255	200	222
5299	250	189	216
5300	255	197	224
5301	255	194	223
5302	255	197	225
5303	255	199	225
5304	255	202	228
5305	255	199	227
5306	244	185	218
5307	255	203	232
5308	250	195	229
5309	255	207	240
5310	247	190	232
5311	249	191	237
5312	241	178	234
5313	242	174	241
5314	244	170	245
5315	240	160	241
5316	232	151	237
5317	231	150	240
5318	241	163	251
5319	241	164	251
5320	229	153	241
5321	230	158	244
5322	228	158	244
5323	224	153	239
5324	240	172	251
5325	241	174	251
5326	235	171	245
5327	238	180	249
5328	237	182	247
5329	237	186	247
5330	235	187	244
5331	238	195	247
5332	242	204	250
5333	242	205	247
5334	239	202	242
5335	243	209	245
5336	251	219	250
5337	251	216	248
5338	0	0	0
5339	0	0	0
5340	0	0	0
5341	0	0	0
5342	0	0	0
5343	0	0	0
5344	0	0	0
5345	0	0	0
5346	0	0	0
5347	0	0	0
5348	0	0	0
5349	0	0	0
5350	0	0	0
5351	0	0	0
5352	0	0	0
5353	0	0	0
5354	0	0	0
5355	0	0	0
5356	0	0	0
5357	0	0	0
5358	0	0	0
5359	0	0	0
5360	0	0	0
5361	0	0	0
5362	0	0	0
5363	0	0	0
5364	0	0	0
5365	0	0	0
5366	0	0	0
5367	0	0	0
5368	0	0	0
5369	0	0	0
5370	0	0	0
5371	0	0	0
5372	0	0	0
5373	0	0	0
5374	0	0	0
5375	0	0	0
5376	0	0	0
5377	0	0	0
5378	0	0	0
5379	0	0	0
5380	0	0	0
5381	0	0	0
5382	0	0	0
5383	0	0	0
5384	0	0	0
5385	255	226	236
5386	255	219	231
5387	255	205	225
5388	253	189	218
5389	252	183	218
5390	246	172	213
5391	248	174	216
5392	245	170	214
5393	247	173	217
5394	247	175	219
5395	242	170	217
5396	237	165	216
5397	241	175	222
5398	250	191	232
5399	248	191	231
5400	254	200	240
5401	247	193	236
5402	246	193	240
5403	235	180	236
5404	233	175	240
5405	231	167	241
5406	226	157	237
5407	224	157	239
5408	222	155	239
5409	225	159	243
5410	223	160	243
5411	219	161	242
5412	219	165	244
5413	213	159	238
5414	209	154	233
5415	218	162	238
5416	219	164	237
5417	222	172	240
5418	226	181	243
5419	227	186	243
5420	229	192	244
5421	233	201	247
5422	238	209	251
5423	239	212	250
5424	239	214	246
5425	242	220	247
5426	247	227	250
5427	246	223	246
5428	0	0	0
5429	0	0	0
5430	0	0	0
5431	0	0	0
5432	0	0	0
5433	0	0	0
5434	0	0	0
5435	0	0	0
5436	0	0	0
5437	0	0	0
5438	0	0	0
5439	0	0	0
5440	0	0	0
5441	0	0	0
5442	0	0	0
5443	0	0	0
5444	0	0	0
5445	0	0	0
5446	0	0	0
5447	0	0	0
5448	0	0	0
5449	0	0	0
5450	0	0	0
5451	0	0	0
5452	0	0	0
5453	0	0	0
5454	0	0	0
5455	0	0	0
5456	0	0	0
5457	0	0	0
5458	0	0	0
5459	0	0	0
5460	0	0	0
5461	0	0	0
5462	0	0	0
5463	0	0	0
5464	0	0	0
5465	0	0	0
5466	0	0	0
5467	0	0	0
5468	0	0	0
5469	0	0	0
5470	0	0	0
5471	0	0	0
5472	0	0	0
5473	0	0	0
5474	0	0	0
5475	255	217	232
5476	255	212	231
5477	254	194	221
5478	250	180	215
5479	251	176	217
5480	251	170	218
5481	247	163	217
5482	246	163	220
5483	245	162	221
5484	248	166	225
5485	247	167	225
5486	238	160	221
5487	238	165	226
5488	241	174	231
5489	254	198	243
5490	250	196	238
5491	255	208	246
5492	245	198	239
5493	243	200	244
5494	230	185	238
5495	231	188	246
5496	225	178	244
5497	225	179	246
5498	223	178	248
5499	214	169	241
5500	0	0	0
5501	0	0	0
5502	0	0	0
5503	0	0	0
5504	0	0	0
5505	0	0	0
5506	0	0	0
5507	0	0	0
5508	0	0	0
5509	0	0	0
5510	0	0	0
5511	0	0	0
5512	0	0	0
5513	0	0	0
5514	0	0	0
5515	0	0	0
5516	0	0	0
5517	0	0	0
5518	0	0	0
5519	0	0	0
5520	0	0	0
5521	0	0	0
5522	0	0	0
5523	0	0	0
5524	0	0	0
5525	0	0	0
5526	0	0	0
5527	0	0	0
5528	0	0	0
5529	0	0	0
5530	0	0	0
5531	0	0	0
5532	0	0	0
5533	0	0	0
5534	0	0	0
5535	0	0	0
5536	0	0	0
5537	0	0	0
5538	0	0	0
5539	0	0	0
5540	0	0	0
5541	0	0	0
5542	0	0	0
5543	0	0	0
5544	0	0	0
5545	0	0	0
5546	0	0	0
5547	0	0	0
5548	0	0	0
5549	0	0	0
5550	0	0	0
5551	0	0	0
5552	0	0	0
5553	0	0	0
5554	0	0	0
5555	0	0	0
5556	0	0	0
5557	0	0	0
5558	0	0	0
5559	0	0	0
5560	0	0	0
5561	0	0	0
5562	0	0	0
5563	0	0	0
5564	255	229	239
5565	255	221	238
5566	255	206	229
5567	252	187	219
5568	245	169	213
5569	246	165	216
5570	246	159	217
5571	242	152	216
5572	237	145	215
5573	238	147	220
5574	237	146	222
5575	239	150	226
5576	236	150	225
5577	235	154	227
5578	233	158	229
5579	242	179	240
5580	253	200	248
5581	249	202	242
5582	252	211	245
5583	239	201	237
5584	237	202	244
5585	229	197	244
5586	227	198	249
5587	222	195	248
5588	220	195	249
5589	212	187	243
5590	0	0	0
5591	0	0	0
5592	0	0	0
5593	0	0	0
5594	0	0	0
5595	0	0	0
5596	0	0	0
5597	0	0	0
5598	0	0	0
5599	0	0	0
5600	0	0	0
5601	0	0	0
5602	0	0	0
5603	0	0	0
5604	0	0	0
5605	0	0	0
5606	0	0	0
5607	0	0	0
5608	0	0	0
5609	0	0	0
5610	0	0	0
5611	0	0	0
5612	0	0	0
5613	0	0	0
5614	0	0	0
5615	0	0	0
5616	0	0	0
5617	0	0	0
5618	0	0	0
5619	0	0	0
5620	0	0	0
5621	0	0	0
5622	0	0	0
5623	0	0	0
5624	0	0	0
5625	0	0	0
5626	0	0	0
5627	0	0	0
5628	0	0	0
5629	0	0	0
5630	0	0	0
5631	0	0	0
5632	0	0	0
5633	0	0	0
5634	0	0	0
5635	0	0	0
5636	0	0	0
5637	0	0	0
5638	0	0	0
5639	0	0	0
5640	0	0	0
5641	0	0	0
5642	0	0	0
5643	0	0	0
5644	0	0	0
5645	0	0	0
5646	0	0	0
5647	0	0	0
5648	0	0	0
5649	0	0	0
5650	0	0	0
5651	0	0	0
5652	0	0	0
5653	255	227	237
5654	255	228	240
5655	255	208	232
5656	255	198	230
5657	248	176	218
5658	236	156	209
5659	246	165	221
5660	249	161	224
5661	246	156	223
5662	237	147	219
5663	245	158	231
5664	247	160	237
5665	235	145	229
5666	235	147	232
5667	241	160	239
5668	241	165	240
5669	239	169	241
5670	245	187	249
5671	243	195	245
5672	236	193	237
5673	244	212	244
5674	0	0	0
5675	0	0	0
5676	0	0	0
5677	0	0	0
5678	0	0	0
5679	0	0	0
5680	0	0	0
5681	0	0	0
5682	0	0	0
5683	0	0	0
5684	0	0	0
5685	0	0	0
5686	0	0	0
5687	0	0	0
5688	0	0	0
5689	0	0	0
5690	0	0	0
5691	0	0	0
5692	0	0	0
5693	0	0	0
5694	0	0	0
5695	0	0	0
5696	0	0	0
5697	0	0	0
5698	0	0	0
5699	0	0	0
5700	0	0	0
5701	0	0	0
5702	0	0	0
5703	0	0	0
5704	0	0	0
5705	0	0	0
5706	0	0	0
5707	0	0	0
5708	0	0	0
5709	0	0	0
5710	0	0	0
5711	0	0	0
5712	0	0	0
5713	0	0	0
5714	0	0	0
5715	0	0	0
5716	0	0	0
5717	0	0	0
5718	0	0	0
5719	0	0	0
5720	0	0	0
5721	0	0	0
5722	0	0	0
5723	0	0	0
5724	0	0	0
5725	0	0	0
5726	0	0	0
5727	0	0	0
5728	0	0	0
5729	0	0	0
5730	0	0	0
5731	0	0	0
5732	0	0	0
5733	0	0	0
5734	0	0	0
5735	0	0	0
5736	0	0	0
5737	0	0	0
5738	0	0	0
5739	0	0	0
5740	0	0	0
5741	0	0	0
5742	0	0	0
5743	255	236	244
5744	255	223	238
5745	255	205	230
5746	250	185	221
5747	243	166	216
5748	234	146	212
5749	237	150	219
5750	242	156	226
5751	240	151	224
5752	236	145	222
5753	239	153	229
5754	245	163	239
5755	236	150	233
5756	224	134	225
5757	234	152	238
5758	240	164	244
5759	237	167	242
5760	231	168	238
5761	226	173	235
5762	0	0	0
5763	231	197	241
5764	0	0	0
5765	0	0	0
5766	0	0	0
5767	0	0	0
5768	0	0	0
5769	0	0	0
5770	0	0	0
5771	0	0	0
5772	0	0	0
5773	0	0	0
5774	0	0	0
5775	0	0	0
5776	0	0	0
5777	0	0	0
5778	0	0	0
5779	0	0	0
5780	0	0	0
5781	0	0	0
5782	0	0	0
5783	0	0	0
5784	0	0	0
5785	0	0	0
5786	0	0	0
5787	0	0	0
5788	0	0	0
5789	0	0	0
5790	0	0	0
5791	0	0	0
5792	0	0	0
5793	0	0	0
5794	0	0	0
5795	0	0	0
5796	0	0	0
5797	0	0	0
5798	0	0	0
5799	0	0	0
5800	0	0	0
5801	0	0	0
5802	0	0	0
5803	0	0	0
5804	0	0	0
5805	0	0	0
5806	0	0	0
5807	0	0	0
5808	0	0	0
5809	0	0	0
5810	0	0	0
5811	0	0	0
5812	0	0	0
5813	0	0	0
5814	0	0	0
5815	0	0	0
5816	0	0	0
5817	0	0	0
5818	0	0	0
5819	0	0	0
5820	0	0	0
5821	0	0	0
5822	0	0	0
5823	0	0	0
5824	0	0	0
5825	0	0	0
5826	0	0	0
5827	0	0	0
5828	0	0	0
5829	0	0	0
5830	0	0	0
5831	0	0	0
5832	0	0	0
5833	255	231	242
5834	255	220	238
5835	252	196	227
5836	243	176	219
5837	240	164	217
5838	235	147	213
5839	241	152	225
5840	242	155	231
5841	244	160	234
5842	235	151	227
5843	231	149	228
5844	237	158	237
5845	236	157	238
5846	227	144	232
5847	229	148	237
5848	240	164	250
5849	233	163	244
5850	225	162	237
5851	228	179	241
5852	0	0	0
5853	0	0	0
5854	0	0	0
5855	0	0	0
5856	0	0	0
5857	0	0	0
5858	0	0	0
5859	0	0	0
5860	0	0	0
5861	0	0	0
5862	0	0	0
5863	0	0	0
5864	0	0	0
5865	0	0	0
5866	0	0	0
5867	0	0	0
5868	0	0	0
5869	0	0	0
5870	0	0	0
5871	0	0	0
5872	0	0	0
5873	0	0	0
5874	0	0	0
5875	0	0	0
5876	0	0	0
5877	0	0	0
5878	0	0	0
5879	0	0	0
5880	0	0	0
5881	0	0	0
5882	0	0	0
5883	0	0	0
5884	0	0	0
5885	0	0	0
5886	0	0	0
5887	0	0	0
5888	0	0	0
5889	0	0	0
5890	0	0	0
5891	0	0	0
5892	0	0	0
5893	0	0	0
5894	0	0	0
5895	0	0	0
5896	0	0	0
5897	0	0	0
5898	0	0	0
5899	0	0	0
5900	0	0	0
5901	0	0	0
5902	0	0	0
5903	0	0	0
5904	0	0	0
5905	0	0	0
5906	0	0	0
5907	0	0	0
5908	0	0	0
5909	0	0	0
5910	0	0	0
5911	0	0	0
5912	0	0	0
5913	0	0	0
5914	0	0	0
5915	0	0	0
5916	0	0	0
5917	0	0	0
5918	0	0	0
5919	0	0	0
5920	0	0	0
5921	0	0	0
5922	0	0	0
5923	255	228	239
5924	255	212	233
5925	249	190	225
5926	239	168	218
5927	236	157	219
5928	234	146	219
5929	243	153	229
5930	245	153	231
5931	246	158	235
5932	246	163	239
5933	238	158	236
5934	233	155	236
5935	231	154	238
5936	229	153	240
5937	228	154	243
5938	226	155	243
5939	220	153	239
5940	211	149	231
5941	216	167	236
5942	0	0	0
5943	0	0	0
5944	0	0	0
5945	0	0	0
5946	0	0	0
5947	0	0	0
5948	0	0	0
5949	0	0	0
5950	0	0	0
5951	0	0	0
5952	0	0	0
5953	0	0	0
5954	0	0	0
5955	0	0	0
5956	0	0	0
5957	0	0	0
5958	0	0	0
5959	0	0	0
5960	0	0	0
5961	0	0	0
5962	0	0	0
5963	0	0	0
5964	0	0	0
5965	0	0	0
5966	0	0	0
5967	0	0	0
5968	0	0	0
5969	0	0	0
5970	0	0	0
5971	0	0	0
5972	0	0	0
5973	0	0	0
5974	0	0	0
5975	0	0	0
5976	0	0	0
5977	0	0	0
5978	0	0	0
5979	0	0	0
5980	0	0	0
5981	0	0	0
5982	0	0	0
5983	0	0	0
5984	0	0	0
5985	0	0	0
5986	0	0	0
5987	0	0	0
5988	0	0	0
5989	0	0	0
5990	0	0	0
5991	0	0	0
5992	0	0	0
5993	0	0	0
5994	0	0	0
5995	0	0	0
5996	0	0	0
5997	0	0	0
5998	0	0	0
5999	0	0	0
6000	0	0	0
6001	0	0	0
6002	0	0	0
6003	0	0	0
6004	0	0	0
6005	0	0	0
6006	0	0	0
6007	0	0	0
6008	0	0	0
6009	0	0	0
6010	0	0	0
6011	0	0	0
6012	0	0	0
6013	255	241	246
6014	255	227	243
6015	248	191	224
6016	237	168	217
6017	245	170	229
6018	247	162	234
6019	239	146	229
6020	245	150	234
6021	244	151	233
6022	245	155	236
6023	245	159	240
6024	238	154	238
6025	232	150	238
6026	227	147	238
6027	228	155	245
6028	221	153	243
6029	214	156	240
6030	0	0	0
6031	0	0	0
6032	0	0	0
6033	0	0	0
6034	0	0	0
6035	0	0	0
6036	0	0	0
6037	0	0	0
6038	0	0	0
6039	0	0	0
6040	0	0	0
6041	0	0	0
6042	0	0	0
6043	0	0	0
6044	0	0	0
6045	0	0	0
6046	0	0	0
6047	0	0	0
6048	0	0	0
6049	0	0	0
6050	0	0	0
6051	0	0	0
6052	0	0	0
6053	0	0	0
6054	0	0	0
6055	0	0	0
6056	0	0	0
6057	0	0	0
6058	0	0	0
6059	0	0	0
6060	0	0	0
6061	0	0	0
6062	0	0	0
6063	0	0	0
6064	0	0	0
6065	0	0	0
6066	0	0	0
6067	0	0	0
6068	0	0	0
6069	0	0	0
6070	0	0	0
6071	0	0	0
6072	0	0	0
6073	0	0	0
6074	0	0	0
6075	0	0	0
6076	0	0	0
6077	0	0	0
6078	0	0	0
6079	0	0	0
6080	0	0	0
6081	0	0	0
6082	0	0	0
6083	0	0	0
6084	0	0	0
6085	0	0	0
6086	0	0	0
6087	0	0	0
6088	0	0	0
6089	0	0	0
6090	0	0	0
6091	0	0	0
6092	0	0	0
6093	0	0	0
6094	0	0	0
6095	0	0	0
6096	0	0	0
6097	0	0	0
6098	0	0	0
6099	0	0	0
6100	0	0	0
6101	0	0	0
6102	0	0	0
6103	255	234	242
6104	255	238	248
6105	254	203	231
6106	236	167	216
6107	239	166	224
6108	245	167	234
6109	241	153	231
6110	231	134	222
6111	239	143	231
6112	239	144	232
6113	241	150	236
6114	241	154	240
6115	234	148	238
6116	227	143	238
6117	227	150	244
6118	224	155	246
6119	213	155	240
6120	0	0	0
6121	0	0	0
6122	0	0	0
6123	0	0	0
6124	0	0	0
6125	0	0	0
6126	0	0	0
6127	0	0	0
6128	0	0	0
6129	0	0	0
6130	0	0	0
6131	0	0	0
6132	0	0	0
6133	0	0	0
6134	0	0	0
6135	0	0	0
6136	0	0	0
6137	0	0	0
6138	0	0	0
6139	0	0	0
6140	0	0	0
6141	0	0	0
6142	0	0	0
6143	0	0	0
6144	0	0	0
6145	0	0	0
6146	0	0	0
6147	0	0	0
6148	0	0	0
6149	0	0	0
6150	0	0	0
6151	0	0	0
6152	0	0	0
6153	0	0	0
6154	0	0	0
6155	0	0	0
6156	0	0	0
6157	0	0	0
6158	0	0	0
6159	0	0	0
6160	0	0	0
6161	0	0	0
6162	0	0	0
6163	0	0	0
6164	0	0	0
6165	0	0	0
6166	0	0	0
6167	0	0	0
6168	0	0	0
6169	0	0	0
6170	0	0	0
6171	0	0	0
6172	0	0	0
6173	0	0	0
6174	0	0	0
6175	0	0	0
6176	0	0	0
6177	0	0	0
6178	0	0	0
6179	0	0	0
6180	0	0	0
6181	0	0	0
6182	0	0	0
6183	0	0	0
6184	0	0	0
6185	0	0	0
6186	0	0	0
6187	0	0	0
6188	0	0	0
6189	0	0	0
6190	0	0	0
6191	0	0	0
6192	0	0	0
6193	255	238	246
6194	255	240	252
6195	255	212	237
6196	239	176	220
6197	237	165	222
6198	240	164	230
6199	245	167	239
6200	236	149	231
6201	235	145	231
6202	243	153	240
6203	236	144	235
6204	238	149	240
6205	240	155	244
6206	233	149	242
6207	226	146	242
6208	222	150	244
6209	220	162	246
6210	0	0	0
6211	0	0	0
6212	0	0	0
6213	0	0	0
6214	0	0	0
6215	0	0	0
6216	0	0	0
6217	0	0	0
6218	0	0	0
6219	0	0	0
6220	0	0	0
6221	0	0	0
6222	0	0	0
6223	0	0	0
6224	0	0	0
6225	0	0	0
6226	0	0	0
6227	0	0	0
6228	0	0	0
6229	0	0	0
6230	0	0	0
6231	0	0	0
6232	0	0	0
6233	0	0	0
6234	0	0	0
6235	0	0	0
6236	0	0	0
6237	0	0	0
6238	0	0	0
6239	0	0	0
6240	0	0	0
6241	0	0	0
6242	0	0	0
6243	0	0	0
6244	0	0	0
6245	0	0	0
6246	0	0	0
6247	0	0	0
6248	0	0	0
6249	0	0	0
6250	0	0	0
6251	0	0	0
6252	0	0	0
6253	0	0	0
6254	0	0	0
6255	0	0	0
6256	0	0	0
6257	0	0	0
6258	0	0	0
6259	0	0	0
6260	0	0	0
6261	0	0	0
6262	0	0	0
6263	0	0	0
6264	0	0	0
6265	0	0	0
6266	0	0	0
6267	0	0	0
6268	0	0	0
6269	0	0	0
6270	0	0	0
6271	0	0	0
6272	0	0	0
6273	0	0	0
6274	0	0	0
6275	0	0	0
6276	0	0	0
6277	0	0	0
6278	0	0	0
6279	0	0	0
6280	0	0	0
6281	0	0	0
6282	0	0	0
6283	0	0	0
6284	255	241	250
6285	250	211	236
6286	239	183	227
6287	238	172	228
6288	235	160	227
6289	241	164	236
6290	245	165	242
6291	243	160	242
6292	240	154	241
6293	235	148	239
6294	227	138	233
6295	232	146	239
6296	233	151	243
6297	226	148	241
6298	215	141	236
6299	212	153	239
6300	0	0	0
6301	0	0	0
6302	0	0	0
6303	0	0	0
6304	0	0	0
6305	0	0	0
6306	0	0	0
6307	0	0	0
6308	0	0	0
6309	0	0	0
6310	0	0	0
6311	0	0	0
6312	0	0	0
6313	0	0	0
6314	0	0	0
6315	0	0	0
6316	0	0	0
6317	0	0	0
6318	0	0	0
6319	0	0	0
6320	0	0	0
6321	0	0	0
6322	0	0	0
6323	0	0	0
6324	0	0	0
6325	0	0	0
6326	0	0	0
6327	0	0	0
6328	0	0	0
6329	0	0	0
6330	0	0	0
6331	0	0	0
6332	0	0	0
6333	0	0	0
6334	0	0	0
6335	0	0	0
6336	0	0	0
6337	0	0	0
6338	0	0	0
6339	0	0	0
6340	0	0	0
6341	0	0	0
6342	0	0	0
6343	0	0	0
6344	0	0	0
6345	0	0	0
6346	0	0	0
6347	0	0	0
6348	0	0	0
6349	0	0	0
6350	0	0	0
6351	0	0	0
6352	0	0	0
6353	0	0	0
6354	0	0	0
6355	0	0	0
6356	0	0	0
6357	0	0	0
6358	0	0	0
6359	0	0	0
6360	0	0	0
6361	0	0	0
6362	0	0	0
6363	0	0	0
6364	0	0	0
6365	0	0	0
6366	0	0	0
6367	0	0	0
6368	0	0	0
6369	0	0	0
6370	0	0	0
6371	0	0	0
6372	0	0	0
6373	0	0	0
6374	255	245	254
6375	255	228	246
6376	240	194	229
6377	235	178	229
6378	235	168	232
6379	241	168	238
6380	248	172	246
6381	247	165	245
6382	244	159	244
6383	241	156	243
6384	230	146	238
6385	227	146	239
6386	234	154	247
6387	229	154	246
6388	216	147	238
6389	207	150	235
6390	0	0	0
6391	0	0	0
6392	0	0	0
6393	0	0	0
6394	0	0	0
6395	0	0	0
6396	0	0	0
6397	0	0	0
6398	0	0	0
6399	0	0	0
6400	0	0	0
6401	0	0	0
6402	0	0	0
6403	0	0	0
6404	0	0	0
6405	0	0	0
6406	0	0	0
6407	0	0	0
6408	0	0	0
6409	0	0	0
6410	0	0	0
6411	0	0	0
6412	0	0	0
6413	0	0	0
6414	0	0	0
6415	0	0	0
6416	0	0	0
6417	0	0	0
6418	0	0	0
6419	0	0	0
6420	0	0	0
6421	0	0	0
6422	0	0	0
6423	0	0	0
6424	0	0	0
6425	0	0	0
6426	0	0	0
6427	0	0	0
6428	0	0	0
6429	0	0	0
6430	0	0	0
6431	0	0	0
6432	0	0	0
6433	0	0	0
6434	0	0	0
6435	0	0	0
6436	0	0	0
6437	0	0	0
6438	0	0	0
6439	0	0	0
6440	0	0	0
6441	0	0	0
6442	0	0	0
6443	0	0	0
6444	0	0	0
6445	0	0	0
6446	0	0	0
6447	0	0	0
6448	0	0	0
6449	0	0	0
6450	0	0	0
6451	0	0	0
6452	0	0	0
6453	0	0	0
6454	0	0	0
6455	0	0	0
6456	0	0	0
6457	0	0	0
6458	0	0	0
6459	0	0	0
6460	0	0	0
6461	0	0	0
6462	0	0	0
6463	0	0	0
6464	0	0	0
6465	255	226	242
6466	251	210	235
6467	239	189	229
6468	233	172	230
6469	243	177	242
6470	248	177	247
6471	246	169	246
6472	244	161	244
6473	244	160	246
6474	239	156	243
6475	231	152	241
6476	227	151	243
6477	229	155	247
6478	221	152	242
6479	209	155	237
6480	0	0	0
6481	0	0	0
6482	0	0	0
6483	0	0	0
6484	0	0	0
6485	0	0	0
6486	0	0	0
6487	0	0	0
6488	0	0	0
6489	0	0	0
6490	0	0	0
6491	0	0	0
6492	0	0	0
6493	0	0	0
6494	0	0	0
6495	0	0	0
6496	0	0	0
6497	0	0	0
6498	0	0	0
6499	0	0	0
6500	0	0	0
6501	0	0	0
6502	0	0	0
6503	0	0	0
6504	0	0	0
6505	0	0	0
6506	0	0	0
6507	0	0	0
6508	0	0	0
6509	0	0	0
6510	0	0	0
6511	0	0	0
6512	0	0	0
6513	0	0	0
6514	0	0	0
6515	0	0	0
6516	0	0	0
6517	0	0	0
6518	0	0	0
6519	0	0	0
6520	0	0	0
6521	0	0	0
6522	0	0	0
6523	0	0	0
6524	0	0	0
6525	0	0	0
6526	0	0	0
6527	0	0	0
6528	0	0	0
6529	0	0	0
6530	0	0	0
6531	0	0	0
6532	0	0	0
6533	0	0	0
6534	0	0	0
6535	0	0	0
6536	0	0	0
6537	0	0	0
6538	0	0	0
6539	0	0	0
6540	0	0	0
6541	0	0	0
6542	0	0	0
6543	0	0	0
6544	0	0	0
6545	0	0	0
6546	0	0	0
6547	0	0	0
6548	0	0	0
6549	0	0	0
6550	0	0	0
6551	0	0	0
6552	0	0	0
6553	0	0	0
6554	0	0	0
6555	255	236	247
6556	251	218	238
6557	247	203	235
6558	239	185	231
6559	240	176	237
6560	251	181	249
6561	251	177	250
6562	243	165	244
6563	245	167	248
6564	246	166	249
6565	241	161	245
6566	233	158	244
6567	232	162	248
6568	229	163	249
6569	219	165	243
6570	0	0	0
6571	0	0	0
6572	0	0	0
6573	0	0	0
6574	0	0	0
6575	0	0	0
6576	0	0	0
6577	0	0	0
6578	0	0	0
6579	0	0	0
6580	0	0	0
6581	0	0	0
6582	0	0	0
6583	0	0	0
6584	0	0	0
6585	0	0	0
6586	0	0	0
6587	0	0	0
6588	0	0	0
6589	0	0	0
6590	0	0	0
6591	0	0	0
6592	0	0	0
6593	0	0	0
6594	0	0	0
6595	0	0	0
6596	0	0	0
6597	0	0	0
6598	0	0	0
6599	0	0	0
6600	0	0	0
6601	0	0	0
6602	0	0	0
6603	0	0	0
6604	0	0	0
6605	0	0	0
6606	0	0	0
6607	0	0	0
6608	0	0	0
6609	0	0	0
6610	0	0	0
6611	0	0	0
6612	0	0	0
6613	0	0	0
6614	0	0	0
6615	0	0	0
6616	0	0	0
6617	0	0	0
6618	0	0	0
6619	0	0	0
6620	0	0	0
6621	0	0	0
6622	0	0	0
6623	0	0	0
6624	0	0	0
6625	0	0	0
6626	0	0	0
6627	0	0	0
6628	0	0	0
6629	0	0	0
6630	0	0	0
6631	0	0	0
6632	0	0	0
6633	0	0	0
6634	0	0	0
6635	0	0	0
6636	0	0	0
6637	0	0	0
6638	0	0	0
6639	0	0	0
6640	0	0	0
6641	0	0	0
6642	0	0	0
6643	0	0	0
6644	0	0	0
6645	254	232	244
6646	255	229	246
6647	247	210	238
6648	243	196	236
6649	241	186	238
6650	240	175	240
6651	246	176	247
6652	245	171	246
6653	244	171	247
6654	245	172	249
6655	244	170	248
6656	239	165	246
6657	235	168	248
6658	230	169	248
6659	227	175	249
6660	0	0	0
6661	0	0	0
6662	0	0	0
6663	0	0	0
6664	0	0	0
6665	0	0	0
6666	0	0	0
6667	0	0	0
6668	0	0	0
6669	0	0	0
6670	0	0	0
6671	0	0	0
6672	0	0	0
6673	0	0	0
6674	0	0	0
6675	0	0	0
6676	0	0	0
6677	0	0	0
6678	0	0	0
6679	0	0	0
6680	0	0	0
6681	0	0	0
6682	0	0	0
6683	0	0	0
6684	0	0	0
6685	0	0	0
6686	0	0	0
6687	0	0	0
6688	0	0	0
6689	0	0	0
6690	0	0	0
6691	0	0	0
6692	0	0	0
6693	0	0	0
6694	0	0	0
6695	0	0	0
6696	0	0	0
6697	0	0	0
6698	0	0	0
6699	0	0	0
6700	0	0	0
6701	0	0	0
6702	0	0	0
6703	0	0	0
6704	0	0	0
6705	0	0	0
6706	0	0	0
6707	0	0	0
6708	0	0	0
6709	0	0	0
6710	0	0	0
6711	0	0	0
6712	0	0	0
6713	0	0	0
6714	0	0	0
6715	0	0	0
6716	0	0	0
6717	0	0	0
6718	0	0	0
6719	0	0	0
6720	0	0	0
6721	0	0	0
6722	0	0	0
6723	0	0	0
6724	0	0	0
6725	0	0	0
6726	0	0	0
6727	0	0	0
6728	0	0	0
6729	0	0	0
6730	0	0	0
6731	0	0	0
6732	0	0	0
6733	0	0	0
6734	0	0	0
6735	255	239	248
6736	255	235	249
6737	253	221	244
6738	244	202	237
6739	245	199	242
6740	241	187	241
6741	237	178	242
6742	238	175	245
6743	242	177	249
6744	245	179	252
6745	239	170	245
6746	236	166	243
6747	239	175	250
6748	234	176	249
6749	220	170	241
6750	0	0	0
6751	0	0	0
6752	0	0	0
6753	0	0	0
6754	0	0	0
6755	0	0	0
6756	0	0	0
6757	0	0	0
6758	0	0	0
6759	0	0	0
6760	0	0	0
6761	0	0	0
6762	0	0	0
6763	0	0	0
6764	0	0	0
6765	0	0	0
6766	0	0	0
6767	0	0	0
6768	0	0	0
6769	0	0	0
6770	0	0	0
6771	0	0	0
6772	0	0	0
6773	0	0	0
6774	0	0	0
6775	0	0	0
6776	0	0	0
6777	0	0	0
6778	0	0	0
6779	0	0	0
6780	0	0	0
6781	0	0	0
6782	0	0	0
6783	0	0	0
6784	0	0	0
6785	0	0	0
6786	0	0	0
6787	0	0	0
6788	0	0	0
6789	0	0	0
6790	0	0	0
6791	0	0	0
6792	0	0	0
6793	0	0	0
6794	0	0	0
6795	0	0	0
6796	0	0	0
6797	0	0	0
6798	0	0	0
6799	0	0	0
6800	0	0	0
6801	0	0	0
6802	0	0	0
6803	0	0	0
6804	0	0	0
6805	0	0	0
6806	0	0	0
6807	0	0	0
6808	0	0	0
6809	0	0	0
6810	0	0	0
6811	0	0	0
6812	0	0	0
6813	0	0	0
6814	0	0	0
6815	0	0	0
6816	0	0	0
6817	0	0	0
6818	0	0	0
6819	0	0	0
6820	0	0	0
6821	0	0	0
6822	0	0	0
6823	0	0	0
6824	0	0	0
6825	0	0	0
6826	255	240	249
6827	253	225	244
6828	248	211	240
6829	247	205	243
6830	247	201	246
6831	243	192	246
6832	237	181	244
6833	239	183	249
6834	241	183	251
6835	235	174	245
6836	227	163	238
6837	230	172	243
6838	231	179	247
6839	224	178	243
6840	0	0	0
6841	0	0	0
6842	0	0	0
6843	0	0	0
6844	0	0	0
6845	0	0	0
6846	0	0	0
6847	0	0	0
6848	0	0	0
6849	0	0	0
6850	0	0	0
6851	0	0	0
6852	0	0	0
6853	0	0	0
6854	0	0	0
6855	0	0	0
6856	0	0	0
6857	0	0	0
6858	0	0	0
6859	0	0	0
6860	0	0	0
6861	0	0	0
6862	0	0	0
6863	0	0	0
6864	0	0	0
6865	0	0	0
6866	0	0	0
6867	0	0	0
6868	0	0	0
6869	0	0	0
6870	0	0	0
6871	0	0	0
6872	0	0	0
6873	0	0	0
6874	0	0	0
6875	0	0	0
6876	0	0	0
6877	0	0	0
6878	0	0	0
6879	0	0	0
6880	0	0	0
6881	0	0	0
6882	0	0	0
6883	0	0	0
6884	0	0	0
6885	0	0	0
6886	0	0	0
6887	0	0	0
6888	0	0	0
6889	0	0	0
6890	0	0	0
6891	0	0	0
6892	0	0	0
6893	0	0	0
6894	0	0	0
6895	0	0	0
6896	0	0	0
6897	0	0	0
6898	0	0	0
6899	0	0	0
6900	0	0	0
6901	0	0	0
6902	0	0	0
6903	0	0	0
6904	0	0	0
6905	0	0	0
6906	0	0	0
6907	0	0	0
6908	0	0	0
6909	0	0	0
6910	0	0	0
6911	0	0	0
6912	0	0	0
6913	0	0	0
6914	0	0	0
6915	0	0	0
6916	0	0	0
6917	255	239	250
6918	255	224	246
6919	250	210	243
6920	246	203	244
6921	243	196	245
6922	239	187	244
6923	240	187	247
6924	240	187	250
6925	238	187	250
6926	227	174	241
6927	233	187	249
6928	233	193	251
6929	229	196	250
6930	0	0	0
6931	0	0	0
6932	0	0	0
6933	0	0	0
6934	0	0	0
6935	0	0	0
6936	0	0	0
6937	0	0	0
6938	0	0	0
6939	0	0	0
6940	0	0	0
6941	0	0	0
6942	0	0	0
6943	0	0	0
6944	0	0	0
6945	0	0	0
6946	0	0	0
6947	0	0	0
6948	0	0	0
6949	0	0	0
6950	0	0	0
6951	0	0	0
6952	0	0	0
6953	0	0	0
6954	0	0	0
6955	0	0	0
6956	0	0	0
6957	0	0	0
6958	0	0	0
6959	0	0	0
6960	0	0	0
6961	0	0	0
6962	0	0	0
6963	0	0	0
6964	0	0	0
6965	0	0	0
6966	0	0	0
6967	0	0	0
6968	0	0	0
6969	0	0	0
6970	0	0	0
6971	0	0	0
6972	0	0	0
6973	0	0	0
6974	0	0	0
6975	0	0	0
6976	0	0	0
6977	0	0	0
6978	0	0	0
6979	0	0	0
6980	0	0	0
6981	0	0	0
6982	0	0	0
6983	0	0	0
6984	0	0	0
6985	0	0	0
6986	0	0	0
6987	0	0	0
6988	0	0	0
6989	0	0	0
6990	0	0	0
6991	0	0	0
6992	0	0	0
6993	0	0	0
6994	0	0	0
6995	0	0	0
6996	0	0	0
6997	0	0	0
6998	0	0	0
6999	0	0	0
7000	0	0	0
7001	0	0	0
7002	0	0	0
7003	0	0	0
7004	0	0	0
7005	0	0	0
7006	0	0	0
7007	0	0	0
7008	251	233	247
7009	247	217	242
7010	241	202	238
7011	237	194	238
7012	233	187	239
7013	236	188	244
7014	234	186	245
7015	231	186	244
7016	227	184	242
7017	231	195	248
7018	237	208	255
7019	235	211	254
7020	0	0	0
7021	0	0	0
7022	0	0	0
7023	0	0	0
7024	0	0	0
7025	0	0	0
7026	0	0	0
7027	0	0	0
7028	0	0	0
7029	0	0	0
7030	0	0	0
7031	0	0	0
7032	0	0	0
7033	0	0	0
7034	0	0	0
7035	0	0	0
7036	0	0	0
7037	0	0	0
7038	0	0	0
7039	0	0	0
7040	0	0	0
7041	0	0	0
7042	0	0	0
7043	0	0	0
7044	0	0	0
7045	0	0	0
7046	0	0	0
7047	0	0	0
7048	0	0	0
7049	0	0	0
7050	0	0	0
7051	0	0	0
7052	0	0	0
7053	0	0	0
7054	0	0	0
7055	0	0	0
7056	0	0	0
7057	0	0	0
7058	0	0	0
7059	0	0	0
7060	0	0	0
7061	0	0	0
7062	0	0	0
7063	0	0	0
7064	0	0	0
7065	0	0	0
7066	0	0	0
7067	0	0	0
7068	0	0	0
7069	0	0	0
7070	0	0	0
7071	0	0	0
7072	0	0	0
7073	0	0	0
7074	0	0	0
7075	0	0	0
7076	0	0	0
7077	0	0	0
7078	0	0	0
7079	0	0	0
7080	0	0	0
7081	0	0	0
7082	0	0	0
7083	0	0	0
7084	0	0	0
7085	0	0	0
7086	0	0	0
7087	0	0	0
7088	0	0	0
7089	0	0	0
7090	0	0	0
7091	0	0	0
7092	0	0	0
7093	0	0	0
7094	0	0	0
7095	0	0	0
7096	0	0	0
7097	0	0	0
7098	0	0	0
7099	250	235	249
7100	241	217	241
7101	241	212	243
7102	238	204	244
7103	239	204	248
7104	239	203	251
7105	232	196	246
7106	224	193	242
7107	226	202	246
7108	0	0	0
7109	0	0	0
7110	0	0	0
7111	0	0	0
7112	0	0	0
7113	0	0	0
7114	0	0	0
7115	0	0	0
7116	0	0	0
7117	0	0	0
7118	0	0	0
7119	0	0	0
7120	0	0	0
7121	0	0	0
7122	0	0	0
7123	0	0	0
7124	0	0	0
7125	0	0	0
7126	0	0	0
7127	0	0	0
7128	0	0	0
7129	0	0	0
7130	0	0	0
7131	0	0	0
7132	0	0	0
7133	0	0	0
7134	0	0	0
7135	0	0	0
7136	0	0	0
7137	0	0	0
7138	0	0	0
7139	0	0	0
7140	0	0	0
7141	0	0	0
7142	0	0	0
7143	0	0	0
7144	0	0	0
7145	0	0	0
7146	0	0	0
7147	0	0	0
7148	0	0	0
7149	0	0	0
7150	0	0	0
7151	0	0	0
7152	0	0	0
7153	0	0	0
7154	0	0	0
7155	0	0	0
7156	0	0	0
7157	0	0	0
7158	0	0	0
7159	0	0	0
7160	0	0	0
7161	0	0	0
7162	0	0	0
7163	0	0	0
7164	0	0	0
7165	0	0	0
7166	0	0	0
7167	0	0	0
7168	0	0	0
7169	0	0	0
7170	0	0	0
7171	0	0	0
7172	0	0	0
7173	0	0	0
7174	0	0	0
7175	0	0	0
7176	0	0	0
7177	0	0	0
7178	0	0	0
7179	0	0	0
7180	0	0	0
7181	0	0	0
7182	0	0	0
7183	0	0	0
7184	0	0	0
7185	0	0	0
7186	0	0	0
7187	0	0	0
7188	0	0	0
7189	0	0	0
7190	0	0	0
7191	242	225	245
7192	240	219	246
7193	241	218	250
7194	240	216	251
7195	237	212	250
7196	0	0	0
7197	0	0	0
7198	0	0	0
7199	0	0	0
7200	0	0	0
7201	0	0	0
7202	0	0	0
7203	0	0	0
7204	0	0	0
7205	0	0	0
7206	0	0	0
7207	0	0	0
7208	0	0	0
7209	0	0	0
7210	0	0	0
7211	0	0	0
7212	0	0	0
7213	0	0	0
7214	0	0	0
7215	0	0	0
7216	0	0	0
7217	0	0	0
7218	0	0	0
7219	0	0	0
7220	0	0	0
7221	0	0	0
7222	0	0	0
7223	0	0	0
7224	0	0	0
7225	0	0	0
7226	0	0	0
7227	0	0	0
7228	0	0	0
7229	0	0	0
7230	0	0	0
7231	0	0	0
7232	0	0	0
7233	0	0	0
7234	0	0	0
7235	0	0	0
7236	0	0	0
7237	0	0	0
7238	0	0	0
7239	0	0	0
7240	0	0	0
7241	0	0	0
7242	0	0	0
7243	0	0	0
7244	0	0	0
7245	0	0	0
7246	0	0	0
7247	0	0	0
7248	0	0	0
7249	0	0	0
7250	0	0	0
7251	0	0	0
7252	0	0	0
7253	0	0	0
7254	0	0	0
7255	0	0	0
7256	0	0	0
7257	0	0	0
7258	0	0	0
7259	0	0	0
7260	0	0	0
7261	0	0	0
7262	0	0	0
7263	0	0	0
7264	0	0	0
7265	0	0	0
7266	0	0	0
7267	0	0	0
7268	0	0	0
7269	0	0	0
7270	0	0	0
7271	0	0	0
7272	0	0	0
7273	0	0	0
7274	0	0	0
7275	0	0	0
7276	0	0	0
7277	0	0	0
7278	0	0	0
7279	0	0	0
7280	0	0	0
