 	R	G	B
1	0	0	0
2	245	205	227
3	0	0	0
4	0	0	0
5	0	0	0
6	0	0	0
7	0	0	0
8	0	0	0
9	0	0	0
10	0	0	0
11	0	0	0
12	0	0	0
13	0	0	0
14	0	0	0
15	0	0	0
16	0	0	0
17	0	0	0
18	0	0	0
19	0	0	0
20	0	0	0
21	0	0	0
22	0	0	0
23	0	0	0
24	0	0	0
25	0	0	0
26	0	0	0
27	0	0	0
28	0	0	0
29	0	0	0
30	0	0	0
31	0	0	0
32	0	0	0
33	242	202	232
34	237	191	220
35	241	196	223
36	0	0	0
37	0	0	0
38	0	0	0
39	255	234	236
40	0	0	0
41	0	0	0
42	0	0	0
43	0	0	0
44	0	0	0
45	0	0	0
46	0	0	0
47	0	0	0
48	0	0	0
49	0	0	0
50	0	0	0
51	0	0	0
52	0	0	0
53	0	0	0
54	0	0	0
55	0	0	0
56	0	0	0
57	0	0	0
58	0	0	0
59	0	0	0
60	0	0	0
61	0	0	0
62	0	0	0
63	0	0	0
64	0	0	0
65	251	218	244
66	244	200	230
67	252	208	235
68	240	189	223
69	0	0	0
70	255	218	233
71	255	224	232
72	250	217	227
73	0	0	0
74	0	0	0
75	0	0	0
76	0	0	0
77	0	0	0
78	0	0	0
79	0	0	0
80	0	0	0
81	0	0	0
82	0	0	0
83	0	0	0
84	0	0	0
85	0	0	0
86	0	0	0
87	0	0	0
88	0	0	0
89	0	0	0
90	0	0	0
91	0	0	0
92	0	0	0
93	0	0	0
94	0	0	0
95	0	0	0
96	0	0	0
97	0	0	0
98	237	195	226
99	241	192	227
100	232	176	216
101	247	195	229
102	252	204	229
103	250	202	225
104	242	195	219
105	0	0	0
106	0	0	0
107	0	0	0
108	0	0	0
109	0	0	0
110	0	0	0
111	0	0	0
112	0	0	0
113	0	0	0
114	0	0	0
115	0	0	0
116	0	0	0
117	0	0	0
118	0	0	0
119	0	0	0
120	0	0	0
121	0	0	0
122	0	0	0
123	0	0	0
124	0	0	0
125	0	0	0
126	0	0	0
127	0	0	0
128	0	0	0
129	0	0	0
130	239	207	234
131	250	207	239
132	237	181	224
133	255	203	240
134	252	196	231
135	251	195	227
136	243	187	222
137	0	0	0
138	0	0	0
139	0	0	0
140	0	0	0
141	0	0	0
142	0	0	0
143	0	0	0
144	0	0	0
145	0	0	0
146	0	0	0
147	0	0	0
148	0	0	0
149	0	0	0
150	0	0	0
151	0	0	0
152	0	0	0
153	0	0	0
154	0	0	0
155	0	0	0
156	0	0	0
157	0	0	0
158	0	0	0
159	0	0	0
160	0	0	0
161	0	0	0
162	241	214	237
163	243	200	236
164	233	175	223
165	244	183	231
166	241	177	223
167	244	180	224
168	238	174	219
169	253	199	233
170	255	214	236
171	253	221	236
172	0	0	0
173	0	0	0
174	0	0	0
175	0	0	0
176	0	0	0
177	0	0	0
178	0	0	0
179	0	0	0
180	0	0	0
181	0	0	0
182	0	0	0
183	0	0	0
184	0	0	0
185	0	0	0
186	0	0	0
187	0	0	0
188	0	0	0
189	0	0	0
190	0	0	0
191	0	0	0
192	0	0	0
193	0	0	0
194	253	232	248
195	255	218	246
196	244	190	233
197	255	199	242
198	249	186	232
199	254	191	234
200	244	177	225
201	255	202	240
202	255	201	232
203	255	211	234
204	254	213	233
205	0	0	0
206	0	0	0
207	0	0	0
208	0	0	0
209	0	0	0
210	0	0	0
211	0	0	0
212	0	0	0
213	0	0	0
214	0	0	0
215	0	0	0
216	0	0	0
217	0	0	0
218	0	0	0
219	0	0	0
220	0	0	0
221	0	0	0
222	0	0	0
223	0	0	0
224	0	0	0
225	0	0	0
226	0	0	0
227	250	219	239
228	239	192	225
229	249	194	232
230	247	184	226
231	250	183	228
232	242	172	221
233	251	184	229
234	249	185	224
235	251	192	226
236	249	194	225
237	255	208	231
238	0	0	0
239	0	0	0
240	0	0	0
241	0	0	0
242	0	0	0
243	0	0	0
244	0	0	0
245	0	0	0
246	0	0	0
247	0	0	0
248	0	0	0
249	0	0	0
250	0	0	0
251	0	0	0
252	0	0	0
253	0	0	0
254	0	0	0
255	0	0	0
256	0	0	0
257	0	0	0
258	0	0	0
259	0	0	0
260	242	208	230
261	255	214	241
262	245	182	224
263	249	183	229
264	247	176	227
265	255	190	237
266	249	178	225
267	252	185	228
268	247	181	223
269	253	196	229
270	253	204	228
271	0	0	0
272	0	0	0
273	0	0	0
274	0	0	0
275	0	0	0
276	0	0	0
277	0	0	0
278	0	0	0
279	0	0	0
280	0	0	0
281	0	0	0
282	0	0	0
283	0	0	0
284	0	0	0
285	0	0	0
286	0	0	0
287	0	0	0
288	0	0	0
289	0	0	0
290	0	0	0
291	0	0	0
292	254	229	243
293	252	207	235
294	240	177	222
295	249	182	231
296	247	175	229
297	247	172	228
298	239	161	218
299	241	164	219
300	236	161	215
301	245	178	223
302	246	186	224
303	0	0	0
304	0	0	0
305	0	0	0
306	0	0	0
307	0	0	0
308	0	0	0
309	0	0	0
310	0	0	0
311	0	0	0
312	0	0	0
313	0	0	0
314	0	0	0
315	0	0	0
316	0	0	0
317	0	0	0
318	0	0	0
319	0	0	0
320	0	0	0
321	0	0	0
322	0	0	0
323	0	0	0
324	254	228	241
325	248	203	232
326	245	185	228
327	255	191	240
328	245	170	229
329	245	167	228
330	248	172	230
331	251	177	232
332	246	171	226
333	255	189	236
334	250	185	229
335	255	201	234
336	255	210	234
337	255	214	231
338	255	220	230
339	0	0	0
340	0	0	0
341	0	0	0
342	0	0	0
343	0	0	0
344	0	0	0
345	0	0	0
346	0	0	0
347	0	0	0
348	0	0	0
349	0	0	0
350	0	0	0
351	0	0	0
352	0	0	0
353	0	0	0
354	0	0	0
355	0	0	0
356	253	225	239
357	249	207	233
358	245	188	229
359	244	177	230
360	234	158	223
361	248	172	237
362	252	177	237
363	253	178	235
364	248	173	229
365	252	179	231
366	246	176	224
367	253	190	231
368	254	200	231
369	255	207	231
370	255	214	231
371	252	219	230
372	0	0	0
373	0	0	0
374	0	0	0
375	0	0	0
376	0	0	0
377	0	0	0
378	0	0	0
379	0	0	0
380	0	0	0
381	0	0	0
382	0	0	0
383	0	0	0
384	0	0	0
385	0	0	0
386	0	0	0
387	0	0	0
388	255	233	244
389	253	214	237
390	250	198	233
391	246	186	232
392	246	178	236
393	255	195	252
394	251	175	236
395	252	177	235
396	252	176	232
397	255	182	233
398	251	178	227
399	255	194	235
400	252	190	229
401	251	196	229
402	251	204	230
403	251	209	229
404	254	219	231
405	0	0	0
406	0	0	0
407	0	0	0
408	0	0	0
409	0	0	0
410	0	0	0
411	0	0	0
412	0	0	0
413	0	0	0
414	0	0	0
415	0	0	0
416	0	0	0
417	0	0	0
418	0	0	0
419	0	0	0
420	0	0	0
421	252	220	237
422	248	204	231
423	253	201	237
424	254	194	239
425	254	186	239
426	244	168	227
427	250	174	231
428	251	175	229
429	253	178	229
430	249	175	224
431	251	178	225
432	245	176	223
433	248	186	227
434	249	194	229
435	250	202	230
436	253	210	230
437	251	213	229
438	0	0	0
439	0	0	0
440	0	0	0
441	0	0	0
442	0	0	0
443	0	0	0
444	0	0	0
445	0	0	0
446	0	0	0
447	0	0	0
448	0	0	0
449	0	0	0
450	0	0	0
451	0	0	0
452	0	0	0
453	0	0	0
454	247	214	234
455	255	214	241
456	247	188	230
457	248	180	230
458	250	178	232
459	255	185	237
460	255	183	234
461	255	187	236
462	250	172	223
463	251	176	226
464	248	175	226
465	253	187	233
466	254	194	234
467	255	201	234
468	253	205	230
469	249	206	227
470	251	216	230
471	0	0	0
472	0	0	0
473	0	0	0
474	0	0	0
475	0	0	0
476	0	0	0
477	0	0	0
478	0	0	0
479	0	0	0
480	0	0	0
481	0	0	0
482	0	0	0
483	0	0	0
484	0	0	0
485	0	0	0
486	252	228	243
487	249	207	235
488	240	181	224
489	251	188	235
490	254	187	236
491	255	190	239
492	255	189	238
493	255	182	234
494	248	167	223
495	250	172	226
496	248	172	227
497	253	182	232
498	254	188	233
499	255	195	233
500	253	199	230
501	253	208	231
502	254	216	233
503	255	228	237
504	0	0	0
505	0	0	0
506	0	0	0
507	0	0	0
508	0	0	0
509	0	0	0
510	0	0	0
511	0	0	0
512	0	0	0
513	0	0	0
514	0	0	0
515	0	0	0
516	0	0	0
517	0	0	0
518	252	232	245
519	247	209	235
520	244	192	230
521	255	200	240
522	254	189	235
523	255	193	240
524	255	180	233
525	254	174	230
526	241	154	217
527	243	160	222
528	252	175	232
529	255	185	237
530	255	186	234
531	255	194	235
532	251	191	229
533	252	200	230
534	251	206	230
535	255	217	233
536	252	222	231
537	0	0	0
538	0	0	0
539	0	0	0
540	0	0	0
541	0	0	0
542	0	0	0
543	0	0	0
544	0	0	0
545	0	0	0
546	0	0	0
547	0	0	0
548	0	0	0
549	0	0	0
550	253	236	246
551	249	218	239
552	246	201	231
553	253	198	235
554	251	187	232
555	251	180	231
556	247	168	226
557	243	157	221
558	231	139	211
559	247	163	228
560	255	178	236
561	255	181	235
562	255	183	233
563	253	184	231
564	247	181	226
565	248	189	228
566	247	195	228
567	248	202	229
568	244	206	225
569	0	0	0
570	0	0	0
571	0	0	0
572	0	0	0
573	0	0	0
574	0	0	0
575	0	0	0
576	0	0	0
577	0	0	0
578	0	0	0
579	0	0	0
580	0	0	0
581	0	0	0
582	253	241	247
583	245	221	238
584	246	209	234
585	255	209	240
586	252	189	232
587	253	183	232
588	252	175	232
589	247	165	229
590	241	153	224
591	255	178	242
592	251	169	232
593	252	173	232
594	254	178	233
595	252	179	231
596	251	183	232
597	253	192	235
598	251	196	234
599	250	203	233
600	244	204	228
601	0	0	0
602	0	0	0
603	0	0	0
604	0	0	0
605	0	0	0
606	0	0	0
607	0	0	0
608	0	0	0
609	0	0	0
610	0	0	0
611	0	0	0
612	0	0	0
613	0	0	0
614	0	0	0
615	246	229	239
616	247	217	237
617	251	206	235
618	246	186	227
619	252	184	232
620	253	178	235
621	250	171	234
622	243	159	229
623	246	161	231
624	240	154	221
625	247	164	227
626	250	171	231
627	253	178	234
628	253	183	234
629	254	189	235
630	251	193	232
631	244	195	228
632	240	197	225
633	246	211	232
634	0	0	0
635	0	0	0
636	0	0	0
637	0	0	0
638	0	0	0
639	0	0	0
640	0	0	0
641	0	0	0
642	0	0	0
643	0	0	0
644	0	0	0
645	0	0	0
646	0	0	0
647	0	0	0
648	249	227	241
649	252	214	239
650	241	185	224
651	250	185	232
652	253	182	236
653	251	175	235
654	253	175	238
655	255	177	240
656	247	165	229
657	255	177	237
658	254	175	236
659	255	183	241
660	251	176	233
661	251	182	233
662	253	194	234
663	246	195	230
664	245	202	232
665	253	217	239
666	245	213	231
667	0	0	0
668	0	0	0
669	0	0	0
670	0	0	0
671	0	0	0
672	0	0	0
673	0	0	0
674	0	0	0
675	0	0	0
676	0	0	0
677	0	0	0
678	0	0	0
679	0	0	0
680	0	0	0
681	242	209	232
682	232	181	221
683	249	188	235
684	252	185	237
685	255	189	242
686	255	190	243
687	255	184	240
688	252	172	232
689	255	178	237
690	255	177	238
691	254	175	237
692	247	169	230
693	254	184	236
694	255	195	237
695	248	197	233
696	248	204	235
697	247	205	234
698	240	202	227
699	0	0	0
700	0	0	0
701	0	0	0
702	0	0	0
703	0	0	0
704	0	0	0
705	0	0	0
706	0	0	0
707	0	0	0
708	0	0	0
709	0	0	0
710	0	0	0
711	0	0	0
712	0	0	0
713	0	0	0
714	241	203	234
715	255	212	249
716	247	182	232
717	254	187	237
718	255	190	241
719	255	184	238
720	245	162	226
721	251	168	233
722	253	171	235
723	252	170	234
724	249	169	231
725	255	185	238
726	253	190	235
727	247	192	231
728	253	208	240
729	250	209	238
730	240	201	228
731	0	0	0
732	0	0	0
733	0	0	0
734	0	0	0
735	0	0	0
736	0	0	0
737	0	0	0
738	0	0	0
739	0	0	0
740	0	0	0
741	0	0	0
742	0	0	0
743	0	0	0
744	0	0	0
745	0	0	0
746	251	224	245
747	250	204	239
748	237	175	223
749	251	185	234
750	255	190	240
751	249	171	231
752	237	150	221
753	246	160	231
754	248	163	231
755	251	169	233
756	248	168	229
757	253	179	233
758	251	185	233
759	253	197	237
760	255	212	245
761	252	207	238
762	241	200	229
763	245	214	234
764	0	0	0
765	0	0	0
766	0	0	0
767	0	0	0
768	0	0	0
769	0	0	0
770	0	0	0
771	0	0	0
772	0	0	0
773	0	0	0
774	0	0	0
775	0	0	0
776	0	0	0
777	0	0	0
778	253	231	246
779	248	208	237
780	242	188	229
781	255	200	244
782	255	191	241
783	249	173	232
784	246	164	232
785	255	175	241
786	251	168	236
787	255	174	238
788	245	163	227
789	249	174	231
790	251	183	234
791	255	197	240
792	255	202	240
793	247	197	232
794	247	202	233
795	255	218	242
796	247	215	236
797	0	0	0
798	0	0	0
799	0	0	0
800	0	0	0
801	0	0	0
802	0	0	0
803	0	0	0
804	0	0	0
805	0	0	0
806	0	0	0
807	0	0	0
808	0	0	0
809	0	0	0
810	0	0	0
811	247	216	238
812	242	197	233
813	252	196	240
814	251	187	237
815	251	181	237
816	248	172	233
817	248	170	234
818	245	164	230
819	244	162	229
820	236	152	221
821	246	169	231
822	248	178	234
823	250	185	234
824	249	190	232
825	246	194	231
826	247	200	233
827	247	203	233
828	240	199	228
829	0	0	0
830	0	0	0
831	0	0	0
832	0	0	0
833	0	0	0
834	0	0	0
835	0	0	0
836	0	0	0
837	0	0	0
838	0	0	0
839	0	0	0
840	0	0	0
841	0	0	0
842	0	0	0
843	0	0	0
844	246	212	239
845	255	213	247
846	250	189	236
847	250	184	236
848	250	181	236
849	250	179	236
850	250	178	237
851	252	177	238
852	250	174	236
853	255	191	248
854	252	181	237
855	253	188	238
856	253	195	238
857	251	199	237
858	247	199	235
859	246	201	235
860	237	195	228
861	0	0	0
862	0	0	0
863	0	0	0
864	0	0	0
865	0	0	0
866	0	0	0
867	0	0	0
868	0	0	0
869	0	0	0
870	0	0	0
871	0	0	0
872	0	0	0
873	0	0	0
874	0	0	0
875	0	0	0
876	0	0	0
877	250	210	238
878	242	188	228
879	252	193	237
880	254	191	240
881	255	191	242
882	255	190	243
883	255	191	244
884	255	187	241
885	254	185	239
886	246	176	231
887	252	188	238
888	254	197	241
889	247	195	238
890	243	195	235
891	241	195	233
892	232	190	225
893	0	0	0
894	0	0	0
895	0	0	0
896	0	0	0
897	0	0	0
898	0	0	0
899	0	0	0
900	0	0	0
901	0	0	0
902	0	0	0
903	0	0	0
904	0	0	0
905	0	0	0
906	0	0	0
907	0	0	0
908	0	0	0
909	0	0	0
910	247	203	234
911	255	211	245
912	249	189	233
913	250	189	235
914	255	196	242
915	255	196	242
916	250	187	235
917	248	184	234
918	247	184	234
919	255	198	244
920	251	195	241
921	245	194	238
922	246	201	239
923	244	201	237
924	237	194	230
925	0	0	0
926	0	0	0
927	0	0	0
928	0	0	0
929	0	0	0
930	0	0	0
931	0	0	0
932	0	0	0
933	0	0	0
934	0	0	0
935	0	0	0
936	0	0	0
937	0	0	0
938	0	0	0
939	0	0	0
940	0	0	0
941	0	0	0
942	0	0	0
943	250	205	235
944	238	183	221
945	250	195	232
946	255	203	240
947	253	196	237
948	247	188	232
949	248	190	235
950	247	189	236
951	249	192	238
952	245	190	236
953	249	200	241
954	251	206	242
955	245	202	237
956	239	196	233
957	248	208	240
958	248	212	235
959	246	217	233
960	0	0	0
961	0	0	0
962	0	0	0
963	0	0	0
964	0	0	0
965	0	0	0
966	0	0	0
967	0	0	0
968	0	0	0
969	0	0	0
970	0	0	0
971	0	0	0
972	0	0	0
973	0	0	0
974	0	0	0
975	0	0	0
976	246	204	231
977	255	219	245
978	252	198	233
979	248	191	231
980	251	196	235
981	250	197	238
982	246	192	237
983	246	194	238
984	252	202	243
985	255	215	252
986	246	194	235
987	237	188	230
988	242	198	238
989	248	209	243
990	244	207	235
991	246	214	235
992	245	218	234
993	0	0	0
994	0	0	0
995	0	0	0
996	0	0	0
997	0	0	0
998	0	0	0
999	0	0	0
1000	0	0	0
1001	0	0	0
1002	0	0	0
1003	0	0	0
1004	0	0	0
1005	0	0	0
1006	0	0	0
1007	0	0	0
1008	0	0	0
1009	251	209	236
1010	239	187	224
1011	245	195	232
1012	248	200	236
1013	245	197	236
1014	243	194	237
1015	252	205	246
1016	255	212	247
1017	245	194	234
1018	230	174	224
1019	237	187	233
1020	242	197	239
1021	242	200	239
1022	239	199	234
1023	240	206	234
1024	0	0	0
1025	0	0	0
1026	0	0	0
1027	0	0	0
1028	0	0	0
1029	0	0	0
1030	0	0	0
1031	0	0	0
1032	0	0	0
1033	0	0	0
1034	0	0	0
1035	0	0	0
1036	0	0	0
1037	0	0	0
1038	0	0	0
1039	0	0	0
1040	0	0	0
1041	0	0	0
1042	238	199	230
1043	243	206	238
1044	243	207	238
1045	244	206	239
1046	243	199	240
1047	255	214	253
1048	247	199	238
1049	224	175	219
1050	236	193	235
1051	252	211	250
1052	251	209	247
1053	252	213	247
1054	242	203	238
1055	0	0	0
1056	0	0	0
1057	0	0	0
1058	0	0	0
1059	0	0	0
1060	0	0	0
1061	0	0	0
1062	0	0	0
1063	0	0	0
1064	0	0	0
1065	0	0	0
1066	0	0	0
1067	0	0	0
1068	0	0	0
1069	0	0	0
1070	0	0	0
1071	0	0	0
1072	0	0	0
1073	0	0	0
1074	0	0	0
1075	241	213	241
1076	242	214	241
1077	242	208	240
1078	242	202	240
1079	243	196	240
1080	232	182	229
1081	236	197	236
1082	247	214	245
1083	252	216	246
1084	253	215	245
1085	249	210	241
1086	240	201	234
1087	0	0	0
1088	0	0	0
1089	0	0	0
1090	0	0	0
1091	0	0	0
1092	0	0	0
1093	0	0	0
1094	0	0	0
1095	0	0	0
1096	0	0	0
1097	0	0	0
1098	0	0	0
1099	0	0	0
1100	0	0	0
1101	0	0	0
1102	0	0	0
1103	0	0	0
1104	0	0	0
1105	0	0	0
1106	0	0	0
1107	0	0	0
1108	0	0	0
1109	249	218	244
1110	0	0	0
1111	0	0	0
1112	237	199	239
1113	251	219	252
1114	243	208	240
1115	246	209	238
1116	249	211	239
1117	244	206	235
1118	239	203	233
1119	0	0	0
1120	0	0	0
1121	0	0	0
1122	0	0	0
1123	0	0	0
1124	0	0	0
1125	0	0	0
1126	0	0	0
1127	0	0	0
1128	0	0	0
1129	0	0	0
1130	0	0	0
1131	0	0	0
1132	0	0	0
1133	0	0	0
1134	0	0	0
1135	0	0	0
1136	0	0	0
1137	0	0	0
1138	0	0	0
1139	0	0	0
1140	0	0	0
1141	0	0	0
1142	0	0	0
1143	0	0	0
1144	0	0	0
1145	245	212	244
1146	240	202	236
1147	246	209	240
1148	248	211	240
1149	244	209	236
1150	241	207	234
1151	247	216	239
1152	0	0	0
1153	0	0	0
1154	0	0	0
1155	0	0	0
1156	0	0	0
1157	0	0	0
1158	0	0	0
1159	0	0	0
1160	0	0	0
1161	0	0	0
1162	0	0	0
1163	0	0	0
1164	0	0	0
1165	0	0	0
1166	0	0	0
1167	0	0	0
1168	0	0	0
1169	0	0	0
1170	0	0	0
1171	0	0	0
1172	0	0	0
1173	0	0	0
1174	0	0	0
1175	0	0	0
1176	0	0	0
1177	0	0	0
1178	244	206	239
1179	248	211	243
1180	244	207	238
1181	240	205	234
1182	243	210	236
1183	253	221	243
1184	252	219	243
1185	0	0	0
1186	0	0	0
1187	0	0	0
1188	0	0	0
1189	0	0	0
1190	0	0	0
1191	0	0	0
1192	0	0	0
1193	0	0	0
1194	0	0	0
1195	0	0	0
1196	0	0	0
1197	0	0	0
1198	0	0	0
1199	0	0	0
1200	0	0	0
1201	0	0	0
1202	0	0	0
1203	0	0	0
1204	0	0	0
1205	0	0	0
1206	0	0	0
1207	0	0	0
1208	0	0	0
1209	0	0	0
1210	0	0	0
1211	0	0	0
1212	235	199	234
1213	241	207	238
1214	244	212	238
1215	248	214	238
1216	0	0	0
1217	0	0	0
1218	0	0	0
1219	0	0	0
1220	0	0	0
1221	0	0	0
1222	0	0	0
1223	0	0	0
1224	0	0	0
1225	0	0	0
1226	0	0	0
1227	0	0	0
1228	0	0	0
1229	0	0	0
1230	0	0	0
1231	0	0	0
1232	0	0	0
1233	0	0	0
1234	0	0	0
1235	0	0	0
1236	0	0	0
1237	0	0	0
1238	0	0	0
1239	0	0	0
1240	0	0	0
1241	0	0	0
1242	0	0	0
1243	0	0	0
1244	0	0	0
1245	252	223	249
1246	244	211	238
1247	0	0	0
1248	0	0	0
