 	R	G	B
1	0	0	0
2	0	0	0
3	0	0	0
4	0	0	0
5	0	0	0
6	0	0	0
7	0	0	0
8	0	0	0
9	0	0	0
10	0	0	0
11	0	0	0
12	0	0	0
13	0	0	0
14	0	0	0
15	0	0	0
16	0	0	0
17	0	0	0
18	0	0	0
19	0	0	0
20	0	0	0
21	0	0	0
22	0	0	0
23	0	0	0
24	0	0	0
25	0	0	0
26	0	0	0
27	0	0	0
28	0	0	0
29	0	0	0
30	255	241	242
31	255	235	240
32	0	0	0
33	0	0	0
34	0	0	0
35	0	0	0
36	0	0	0
37	0	0	0
38	0	0	0
39	0	0	0
40	0	0	0
41	0	0	0
42	0	0	0
43	0	0	0
44	0	0	0
45	0	0	0
46	0	0	0
47	0	0	0
48	0	0	0
49	0	0	0
50	0	0	0
51	0	0	0
52	0	0	0
53	0	0	0
54	0	0	0
55	0	0	0
56	0	0	0
57	0	0	0
58	0	0	0
59	0	0	0
60	0	0	0
61	0	0	0
62	0	0	0
63	0	0	0
64	0	0	0
65	0	0	0
66	0	0	0
67	0	0	0
68	0	0	0
69	0	0	0
70	255	252	248
71	255	243	244
72	247	220	230
73	239	205	223
74	0	0	0
75	0	0	0
76	0	0	0
77	0	0	0
78	0	0	0
79	0	0	0
80	0	0	0
81	0	0	0
82	0	0	0
83	0	0	0
84	0	0	0
85	0	0	0
86	0	0	0
87	0	0	0
88	0	0	0
89	0	0	0
90	0	0	0
91	0	0	0
92	0	0	0
93	0	0	0
94	0	0	0
95	0	0	0
96	0	0	0
97	0	0	0
98	0	0	0
99	0	0	0
100	0	0	0
101	0	0	0
102	0	0	0
103	0	0	0
104	0	0	0
105	0	0	0
106	0	0	0
107	0	0	0
108	0	0	0
109	0	0	0
110	0	0	0
111	255	250	244
112	251	228	233
113	239	206	222
114	246	213	231
115	250	216	236
116	0	0	0
117	0	0	0
118	0	0	0
119	0	0	0
120	0	0	0
121	0	0	0
122	0	0	0
123	0	0	0
124	0	0	0
125	0	0	0
126	0	0	0
127	0	0	0
128	0	0	0
129	0	0	0
130	0	0	0
131	0	0	0
132	0	0	0
133	0	0	0
134	0	0	0
135	0	0	0
136	0	0	0
137	0	0	0
138	0	0	0
139	0	0	0
140	0	0	0
141	0	0	0
142	0	0	0
143	0	0	0
144	0	0	0
145	0	0	0
146	0	0	0
147	0	0	0
148	0	0	0
149	0	0	0
150	0	0	0
151	255	249	240
152	255	244	239
153	244	220	226
154	240	209	225
155	252	218	237
156	249	213	234
157	0	0	0
158	0	0	0
159	0	0	0
160	0	0	0
161	0	0	0
162	0	0	0
163	0	0	0
164	0	0	0
165	0	0	0
166	0	0	0
167	0	0	0
168	0	0	0
169	0	0	0
170	0	0	0
171	0	0	0
172	0	0	0
173	0	0	0
174	0	0	0
175	0	0	0
176	0	0	0
177	0	0	0
178	0	0	0
179	0	0	0
180	0	0	0
181	0	0	0
182	0	0	0
183	0	0	0
184	0	0	0
185	0	0	0
186	0	0	0
187	0	0	0
188	0	0	0
189	0	0	0
190	0	0	0
191	255	253	245
192	255	244	239
193	254	237	235
194	244	222	227
195	241	210	227
196	250	215	236
197	247	209	233
198	0	0	0
199	0	0	0
200	0	0	0
201	0	0	0
202	0	0	0
203	0	0	0
204	0	0	0
205	0	0	0
206	0	0	0
207	0	0	0
208	0	0	0
209	0	0	0
210	0	0	0
211	0	0	0
212	0	0	0
213	0	0	0
214	0	0	0
215	0	0	0
216	0	0	0
217	0	0	0
218	0	0	0
219	0	0	0
220	0	0	0
221	0	0	0
222	0	0	0
223	0	0	0
224	0	0	0
225	0	0	0
226	0	0	0
227	0	0	0
228	0	0	0
229	0	0	0
230	0	0	0
231	0	0	0
232	255	246	243
233	248	235	234
234	244	227	229
235	236	212	222
236	243	216	230
237	253	220	239
238	248	210	235
239	250	216	239
240	0	0	0
241	0	0	0
242	0	0	0
243	0	0	0
244	0	0	0
245	0	0	0
246	0	0	0
247	0	0	0
248	0	0	0
249	0	0	0
250	0	0	0
251	0	0	0
252	0	0	0
253	0	0	0
254	0	0	0
255	0	0	0
256	0	0	0
257	0	0	0
258	0	0	0
259	0	0	0
260	0	0	0
261	0	0	0
262	0	0	0
263	0	0	0
264	0	0	0
265	0	0	0
266	0	0	0
267	0	0	0
268	0	0	0
269	0	0	0
270	0	0	0
271	0	0	0
272	253	243	242
273	253	240	240
274	247	231	234
275	245	224	231
276	245	223	232
277	251	224	237
278	252	219	237
279	246	209	234
280	248	215	237
281	0	0	0
282	0	0	0
283	0	0	0
284	0	0	0
285	0	0	0
286	0	0	0
287	0	0	0
288	0	0	0
289	0	0	0
290	0	0	0
291	0	0	0
292	0	0	0
293	0	0	0
294	0	0	0
295	0	0	0
296	0	0	0
297	0	0	0
298	0	0	0
299	0	0	0
300	0	0	0
301	0	0	0
302	0	0	0
303	0	0	0
304	0	0	0
305	0	0	0
306	0	0	0
307	0	0	0
308	0	0	0
309	0	0	0
310	0	0	0
311	0	0	0
312	254	246	242
313	255	243	241
314	251	232	235
315	247	224	231
316	246	219	230
317	247	218	232
318	251	221	234
319	247	212	231
320	246	213	234
321	247	218	237
322	0	0	0
323	0	0	0
324	0	0	0
325	0	0	0
326	0	0	0
327	0	0	0
328	0	0	0
329	0	0	0
330	0	0	0
331	0	0	0
332	0	0	0
333	0	0	0
334	0	0	0
335	0	0	0
336	0	0	0
337	0	0	0
338	0	0	0
339	0	0	0
340	0	0	0
341	0	0	0
342	0	0	0
343	0	0	0
344	0	0	0
345	0	0	0
346	0	0	0
347	0	0	0
348	0	0	0
349	0	0	0
350	0	0	0
351	0	0	0
352	255	248	243
353	255	247	240
354	254	235	233
355	249	224	228
356	246	218	227
357	245	213	227
358	249	216	231
359	250	217	233
360	249	217	233
361	247	217	235
362	0	0	0
363	0	0	0
364	0	0	0
365	0	0	0
366	0	0	0
367	0	0	0
368	0	0	0
369	0	0	0
370	0	0	0
371	0	0	0
372	0	0	0
373	0	0	0
374	0	0	0
375	0	0	0
376	0	0	0
377	0	0	0
378	0	0	0
379	0	0	0
380	0	0	0
381	0	0	0
382	0	0	0
383	0	0	0
384	0	0	0
385	0	0	0
386	0	0	0
387	0	0	0
388	0	0	0
389	0	0	0
390	0	0	0
391	0	0	0
392	255	242	240
393	255	241	239
394	254	232	232
395	247	219	223
396	249	219	227
397	246	213	225
398	248	216	229
399	252	218	233
400	248	215	231
401	243	212	229
402	0	0	0
403	0	0	0
404	0	0	0
405	0	0	0
406	0	0	0
407	0	0	0
408	0	0	0
409	0	0	0
410	0	0	0
411	0	0	0
412	0	0	0
413	0	0	0
414	0	0	0
415	0	0	0
416	0	0	0
417	0	0	0
418	0	0	0
419	0	0	0
420	0	0	0
421	0	0	0
422	0	0	0
423	0	0	0
424	0	0	0
425	0	0	0
426	0	0	0
427	0	0	0
428	0	0	0
429	0	0	0
430	0	0	0
431	0	0	0
432	252	233	233
433	255	234	234
434	250	225	228
435	247	217	225
436	248	216	226
437	248	215	227
438	249	216	229
439	251	217	232
440	252	218	234
441	247	213	231
442	247	220	234
443	250	229	238
444	246	225	234
445	0	0	0
446	249	230	238
447	253	235	240
448	253	234	239
449	252	232	237
450	255	235	240
451	0	0	0
452	0	0	0
453	0	0	0
454	0	0	0
455	0	0	0
456	0	0	0
457	0	0	0
458	0	0	0
459	0	0	0
460	0	0	0
461	0	0	0
462	0	0	0
463	0	0	0
464	0	0	0
465	0	0	0
466	0	0	0
467	0	0	0
468	0	0	0
469	0	0	0
470	0	0	0
471	0	0	0
472	0	0	0
473	0	0	0
474	254	230	234
475	248	220	228
476	247	215	228
477	248	214	229
478	252	219	232
479	252	219	233
480	249	215	232
481	251	216	233
482	245	210	228
483	244	217	231
484	244	224	233
485	238	220	228
486	244	228	235
487	254	237	242
488	248	226	234
489	245	223	231
490	247	225	232
491	252	230	236
492	250	230	237
493	0	0	0
494	0	0	0
495	0	0	0
496	0	0	0
497	0	0	0
498	0	0	0
499	0	0	0
500	0	0	0
501	0	0	0
502	0	0	0
503	0	0	0
504	0	0	0
505	0	0	0
506	0	0	0
507	0	0	0
508	0	0	0
509	0	0	0
510	0	0	0
511	0	0	0
512	0	0	0
513	0	0	0
514	0	0	0
515	0	0	0
516	246	216	230
517	0	0	0
518	248	216	232
519	252	221	234
520	251	217	232
521	249	213	232
522	250	214	233
523	244	208	226
524	247	218	231
525	249	226	236
526	248	229	236
527	253	237	241
528	250	228	235
529	243	217	228
530	243	219	229
531	245	221	230
532	249	224	233
533	0	0	0
534	0	0	0
535	0	0	0
536	0	0	0
537	0	0	0
538	0	0	0
539	0	0	0
540	0	0	0
541	0	0	0
542	0	0	0
543	0	0	0
544	0	0	0
545	0	0	0
546	0	0	0
547	0	0	0
548	0	0	0
549	0	0	0
550	0	0	0
551	0	0	0
552	0	0	0
553	0	0	0
554	0	0	0
555	0	0	0
556	0	0	0
557	0	0	0
558	0	0	0
559	250	223	236
560	255	226	237
561	255	225	238
562	249	210	231
563	247	209	230
564	254	220	234
565	255	232	242
566	253	220	234
567	251	224	235
568	254	230	238
569	248	219	230
570	246	218	229
571	245	219	230
572	246	222	232
573	0	0	0
574	0	0	0
575	0	0	0
576	0	0	0
577	0	0	0
578	0	0	0
579	0	0	0
580	0	0	0
581	0	0	0
582	0	0	0
583	0	0	0
584	0	0	0
585	0	0	0
586	0	0	0
587	0	0	0
588	0	0	0
589	0	0	0
590	0	0	0
591	0	0	0
592	0	0	0
593	0	0	0
594	0	0	0
595	0	0	0
596	0	0	0
597	0	0	0
598	252	227	238
599	253	227	238
600	251	226	237
601	255	231	240
602	255	220	235
603	247	205	228
604	255	218	237
605	255	229	240
606	255	220	232
607	247	209	225
608	249	215	230
609	253	222	235
610	251	220	233
611	249	219	230
612	250	223	233
613	250	225	235
614	0	0	0
615	0	0	0
616	0	0	0
617	0	0	0
618	0	0	0
619	0	0	0
620	0	0	0
621	0	0	0
622	0	0	0
623	0	0	0
624	0	0	0
625	0	0	0
626	0	0	0
627	0	0	0
628	0	0	0
629	0	0	0
630	0	0	0
631	0	0	0
632	0	0	0
633	0	0	0
634	0	0	0
635	0	0	0
636	0	0	0
637	0	0	0
638	250	226	236
639	253	227	237
640	250	223	234
641	247	222	232
642	254	228	237
643	252	217	233
644	247	206	228
645	255	220	238
646	255	221	234
647	247	210	224
648	249	213	228
649	254	221	234
650	251	218	233
651	248	216	230
652	250	219	231
653	255	226	237
654	0	0	0
655	0	0	0
656	0	0	0
657	0	0	0
658	0	0	0
659	0	0	0
660	0	0	0
661	0	0	0
662	0	0	0
663	0	0	0
664	0	0	0
665	0	0	0
666	0	0	0
667	0	0	0
668	0	0	0
669	0	0	0
670	0	0	0
671	0	0	0
672	0	0	0
673	0	0	0
674	0	0	0
675	0	0	0
676	0	0	0
677	0	0	0
678	0	0	0
679	251	226	237
680	250	223	235
681	247	219	230
682	248	222	231
683	254	227	236
684	253	218	232
685	248	208	229
686	253	213	233
687	252	214	230
688	253	217	230
689	255	220	234
690	251	217	232
691	248	214	229
692	250	217	231
693	254	221	235
694	252	216	233
695	0	0	0
696	0	0	0
697	0	0	0
698	0	0	0
699	0	0	0
700	0	0	0
701	0	0	0
702	0	0	0
703	0	0	0
704	0	0	0
705	0	0	0
706	0	0	0
707	0	0	0
708	0	0	0
709	0	0	0
710	0	0	0
711	0	0	0
712	0	0	0
713	0	0	0
714	0	0	0
715	0	0	0
716	0	0	0
717	0	0	0
718	0	0	0
719	0	0	0
720	252	230	240
721	250	227	237
722	245	219	230
723	250	224	233
724	251	221	232
725	248	211	227
726	251	211	230
727	255	218	235
728	254	214	230
729	255	217	232
730	249	210	227
731	242	205	223
732	250	216	231
733	255	223	237
734	253	215	233
735	246	206	229
736	0	0	0
737	0	0	0
738	0	0	0
739	0	0	0
740	0	0	0
741	0	0	0
742	0	0	0
743	0	0	0
744	0	0	0
745	0	0	0
746	0	0	0
747	0	0	0
748	0	0	0
749	0	0	0
750	0	0	0
751	0	0	0
752	0	0	0
753	0	0	0
754	0	0	0
755	0	0	0
756	0	0	0
757	0	0	0
758	0	0	0
759	0	0	0
760	0	0	0
761	253	234	241
762	249	227	236
763	246	219	230
764	248	217	230
765	249	215	231
766	254	216	233
767	255	215	232
768	255	214	231
769	254	211	228
770	252	208	226
771	245	201	222
772	248	210	228
773	255	222	237
774	255	215	234
775	250	207	231
776	249	210	233
777	0	0	0
778	0	0	0
779	0	0	0
780	0	0	0
781	0	0	0
782	0	0	0
783	0	0	0
784	0	0	0
785	0	0	0
786	0	0	0
787	0	0	0
788	0	0	0
789	0	0	0
790	0	0	0
791	0	0	0
792	0	0	0
793	0	0	0
794	0	0	0
795	0	0	0
796	0	0	0
797	0	0	0
798	0	0	0
799	0	0	0
800	0	0	0
801	0	0	0
802	253	234	240
803	253	229	237
804	250	220	230
805	250	217	230
806	254	218	234
807	255	220	236
808	253	210	227
809	251	208	225
810	253	209	228
811	254	207	228
812	251	203	225
813	255	214	233
814	255	214	234
815	248	204	228
816	249	207	231
817	250	211	234
818	0	0	0
819	0	0	0
820	0	0	0
821	0	0	0
822	0	0	0
823	0	0	0
824	0	0	0
825	0	0	0
826	0	0	0
827	0	0	0
828	0	0	0
829	0	0	0
830	0	0	0
831	0	0	0
832	0	0	0
833	0	0	0
834	0	0	0
835	0	0	0
836	0	0	0
837	0	0	0
838	0	0	0
839	0	0	0
840	0	0	0
841	0	0	0
842	254	236	238
843	255	236	239
844	254	228	234
845	250	219	229
846	252	218	230
847	255	219	233
848	255	213	230
849	249	204	222
850	249	205	224
851	252	207	229
852	255	208	231
853	253	203	226
854	254	206	229
855	253	206	231
856	252	207	232
857	251	209	234
858	0	0	0
859	0	0	0
860	0	0	0
861	0	0	0
862	0	0	0
863	0	0	0
864	0	0	0
865	0	0	0
866	0	0	0
867	0	0	0
868	0	0	0
869	0	0	0
870	0	0	0
871	0	0	0
872	0	0	0
873	0	0	0
874	0	0	0
875	0	0	0
876	0	0	0
877	0	0	0
878	0	0	0
879	0	0	0
880	0	0	0
881	0	0	0
882	254	235	237
883	255	236	238
884	252	224	231
885	245	213	224
886	252	221	230
887	253	220	230
888	253	217	230
889	254	212	228
890	248	202	222
891	248	204	225
892	252	208	232
893	255	209	234
894	249	197	225
895	250	199	227
896	252	202	231
897	252	205	232
898	251	208	232
899	0	0	0
900	0	0	0
901	249	220	234
902	0	0	0
903	0	0	0
904	0	0	0
905	0	0	0
906	0	0	0
907	0	0	0
908	0	0	0
909	0	0	0
910	0	0	0
911	0	0	0
912	0	0	0
913	0	0	0
914	0	0	0
915	0	0	0
916	0	0	0
917	0	0	0
918	0	0	0
919	0	0	0
920	0	0	0
921	0	0	0
922	251	233	236
923	255	233	237
924	252	224	231
925	245	212	223
926	249	217	228
927	254	224	233
928	252	219	230
929	252	216	228
930	253	211	227
931	247	202	223
932	248	204	227
933	252	208	233
934	250	201	231
935	245	190	225
936	250	196	230
937	251	199	231
938	253	205	233
939	251	207	229
940	248	212	228
941	250	220	234
942	247	218	233
943	240	214	231
944	0	0	0
945	0	0	0
946	0	0	0
947	0	0	0
948	0	0	0
949	0	0	0
950	0	0	0
951	0	0	0
952	0	0	0
953	0	0	0
954	0	0	0
955	0	0	0
956	0	0	0
957	0	0	0
958	0	0	0
959	0	0	0
960	0	0	0
961	0	0	0
962	251	236	239
963	255	239	241
964	252	225	233
965	246	214	225
966	250	219	228
967	254	225	232
968	251	220	230
969	250	215	227
970	252	215	227
971	251	209	225
972	243	197	220
973	243	199	224
974	250	207	232
975	250	200	231
976	248	193	229
977	254	199	234
978	251	198	231
979	252	203	231
980	248	204	226
981	247	210	227
982	247	214	231
983	243	212	230
984	242	216	233
985	0	0	0
986	0	0	0
987	0	0	0
988	0	0	0
989	0	0	0
990	0	0	0
991	0	0	0
992	0	0	0
993	0	0	0
994	0	0	0
995	0	0	0
996	0	0	0
997	0	0	0
998	0	0	0
999	0	0	0
1000	0	0	0
1001	0	0	0
1002	0	0	0
1003	253	240	241
1004	254	230	237
1005	248	217	229
1006	251	222	231
1007	254	226	232
1008	250	220	226
1009	248	215	225
1010	250	214	227
1011	253	214	228
1012	249	205	224
1013	242	193	219
1014	245	200	225
1015	252	207	231
1016	251	200	228
1017	248	193	226
1018	251	196	230
1019	248	194	227
1020	249	199	227
1021	246	200	225
1022	243	203	224
1023	242	207	227
1024	242	213	230
1025	241	217	233
1026	0	0	0
1027	0	0	0
1028	0	0	0
1029	0	0	0
1030	0	0	0
1031	0	0	0
1032	0	0	0
1033	0	0	0
1034	0	0	0
1035	0	0	0
1036	0	0	0
1037	0	0	0
1038	0	0	0
1039	0	0	0
1040	0	0	0
1041	0	0	0
1042	0	0	0
1043	0	0	0
1044	255	236	240
1045	254	227	235
1046	246	212	226
1047	246	216	227
1048	249	221	228
1049	246	215	223
1050	249	214	225
1051	252	214	227
1052	252	210	226
1053	248	201	222
1054	246	196	221
1055	253	204	229
1056	253	203	229
1057	249	195	224
1058	251	196	227
1059	253	198	230
1060	246	192	225
1061	248	197	228
1062	249	204	231
1063	245	206	229
1064	244	212	231
1065	243	216	232
1066	241	220	235
1067	0	0	0
1068	0	0	0
1069	0	0	0
1070	0	0	0
1071	0	0	0
1072	0	0	0
1073	0	0	0
1074	0	0	0
1075	0	0	0
1076	0	0	0
1077	0	0	0
1078	0	0	0
1079	0	0	0
1080	0	0	0
1081	0	0	0
1082	0	0	0
1083	0	0	0
1084	0	0	0
1085	251	230	236
1086	248	219	229
1087	239	204	219
1088	242	211	223
1089	247	217	226
1090	249	216	227
1091	252	216	228
1092	254	213	228
1093	255	210	227
1094	255	208	227
1095	254	203	225
1096	255	204	228
1097	255	203	230
1098	255	201	229
1099	254	200	229
1100	249	194	227
1101	244	189	226
1102	252	201	236
1103	253	208	238
1104	251	214	238
1105	248	218	236
1106	243	219	233
1107	0	0	0
1108	0	0	0
1109	0	0	0
1110	0	0	0
1111	0	0	0
1112	0	0	0
1113	0	0	0
1114	0	0	0
1115	0	0	0
1116	0	0	0
1117	0	0	0
1118	0	0	0
1119	0	0	0
1120	0	0	0
1121	0	0	0
1122	0	0	0
1123	0	0	0
1124	0	0	0
1125	0	0	0
1126	246	226	233
1127	242	215	224
1128	244	215	224
1129	250	223	230
1130	249	218	228
1131	253	218	230
1132	253	211	227
1133	255	209	227
1134	255	204	225
1135	255	201	225
1136	250	189	219
1137	252	190	222
1138	252	192	225
1139	249	189	223
1140	252	197	227
1141	244	190	223
1142	247	195	231
1143	255	209	243
1144	253	206	238
1145	252	212	238
1146	244	210	232
1147	0	0	0
1148	0	0	0
1149	0	0	0
1150	0	0	0
1151	0	0	0
1152	0	0	0
1153	0	0	0
1154	0	0	0
1155	0	0	0
1156	0	0	0
1157	0	0	0
1158	0	0	0
1159	0	0	0
1160	0	0	0
1161	0	0	0
1162	0	0	0
1163	0	0	0
1164	0	0	0
1165	0	0	0
1166	0	0	0
1167	0	0	0
1168	251	227	233
1169	253	227	231
1170	250	221	227
1171	251	217	228
1172	253	213	227
1173	254	207	225
1174	255	204	225
1175	255	198	223
1176	252	189	220
1177	247	178	218
1178	251	183	224
1179	250	183	223
1180	252	191	227
1181	255	199	232
1182	251	199	232
1183	252	202	236
1184	253	203	237
1185	248	200	231
1186	243	201	230
1187	0	0	0
1188	0	0	0
1189	0	0	0
1190	0	0	0
1191	0	0	0
1192	0	0	0
1193	0	0	0
1194	0	0	0
1195	0	0	0
1196	0	0	0
1197	0	0	0
1198	0	0	0
1199	0	0	0
1200	0	0	0
1201	0	0	0
1202	0	0	0
1203	0	0	0
1204	0	0	0
1205	0	0	0
1206	0	0	0
1207	0	0	0
1208	0	0	0
1209	253	227	234
1210	249	216	225
1211	246	211	221
1212	255	219	231
1213	255	216	232
1214	253	199	222
1215	255	195	222
1216	250	184	216
1217	246	175	214
1218	254	184	225
1219	255	188	231
1220	250	180	223
1221	252	187	227
1222	253	193	231
1223	250	194	231
1224	246	193	231
1225	243	192	229
1226	246	203	232
1227	240	203	230
1228	0	0	0
1229	0	0	0
1230	0	0	0
1231	0	0	0
1232	0	0	0
1233	0	0	0
1234	0	0	0
1235	0	0	0
1236	0	0	0
1237	0	0	0
1238	0	0	0
1239	0	0	0
1240	0	0	0
1241	0	0	0
1242	0	0	0
1243	0	0	0
1244	0	0	0
1245	0	0	0
1246	0	0	0
1247	0	0	0
1248	0	0	0
1249	0	0	0
1250	250	218	229
1251	248	209	224
1252	255	216	230
1253	255	224	237
1254	255	208	229
1255	253	191	221
1256	251	183	219
1257	246	172	214
1258	255	182	224
1259	255	189	230
1260	255	185	228
1261	251	177	223
1262	254	185	229
1263	254	191	233
1264	249	189	231
1265	243	187	229
1266	245	198	234
1267	246	208	237
1268	241	211	235
1269	0	0	0
1270	0	0	0
1271	0	0	0
1272	0	0	0
1273	0	0	0
1274	0	0	0
1275	0	0	0
1276	0	0	0
1277	0	0	0
1278	0	0	0
1279	0	0	0
1280	0	0	0
1281	0	0	0
1282	0	0	0
1283	0	0	0
1284	0	0	0
1285	0	0	0
1286	0	0	0
1287	0	0	0
1288	0	0	0
1289	0	0	0
1290	0	0	0
1291	254	218	230
1292	255	212	229
1293	255	220	237
1294	255	202	226
1295	248	185	217
1296	252	184	220
1297	250	177	219
1298	251	174	219
1299	255	183	228
1300	252	173	221
1301	249	168	219
1302	251	173	223
1303	255	181	229
1304	250	180	229
1305	243	177	226
1306	245	191	234
1307	244	199	237
1308	242	207	237
1309	0	0	0
1310	0	0	0
1311	0	0	0
1312	0	0	0
1313	0	0	0
1314	0	0	0
1315	0	0	0
1316	0	0	0
1317	0	0	0
1318	0	0	0
1319	0	0	0
1320	0	0	0
1321	0	0	0
1322	0	0	0
1323	0	0	0
1324	0	0	0
1325	0	0	0
1326	0	0	0
1327	0	0	0
1328	0	0	0
1329	0	0	0
1330	0	0	0
1331	0	0	0
1332	255	217	230
1333	255	212	230
1334	253	197	222
1335	244	179	213
1336	248	178	216
1337	251	178	221
1338	254	177	223
1339	253	172	220
1340	250	167	219
1341	244	157	217
1342	248	163	222
1343	249	166	223
1344	249	169	225
1345	245	169	224
1346	250	184	234
1347	251	196	242
1348	243	201	240
1349	0	0	0
1350	0	0	0
1351	0	0	0
1352	0	0	0
1353	0	0	0
1354	0	0	0
1355	0	0	0
1356	0	0	0
1357	0	0	0
1358	0	0	0
1359	0	0	0
1360	0	0	0
1361	0	0	0
1362	0	0	0
1363	0	0	0
1364	0	0	0
1365	0	0	0
1366	0	0	0
1367	0	0	0
1368	0	0	0
1369	0	0	0
1370	0	0	0
1371	0	0	0
1372	254	217	228
1373	255	215	229
1374	255	201	223
1375	248	185	216
1376	250	182	218
1377	254	182	222
1378	255	182	226
1379	255	180	228
1380	247	160	215
1381	244	154	214
1382	251	163	225
1383	254	169	230
1384	254	171	229
1385	253	173	229
1386	251	175	229
1387	255	191	240
1388	248	190	238
1389	0	0	0
1390	0	0	0
1391	0	0	0
1392	0	0	0
1393	0	0	0
1394	0	0	0
1395	0	0	0
1396	0	0	0
1397	0	0	0
1398	0	0	0
1399	0	0	0
1400	0	0	0
1401	0	0	0
1402	0	0	0
1403	0	0	0
1404	0	0	0
1405	0	0	0
1406	0	0	0
1407	0	0	0
1408	0	0	0
1409	0	0	0
1410	0	0	0
1411	0	0	0
1412	252	219	226
1413	255	214	227
1414	254	202	223
1415	250	189	218
1416	254	188	221
1417	255	184	221
1418	255	184	224
1419	255	183	227
1420	252	166	220
1421	241	148	212
1422	249	158	222
1423	253	165	229
1424	255	170	231
1425	254	172	230
1426	255	177	232
1427	254	178	230
1428	253	184	233
1429	243	183	231
1430	0	0	0
1431	0	0	0
1432	0	0	0
1433	0	0	0
1434	0	0	0
1435	0	0	0
1436	0	0	0
1437	0	0	0
1438	0	0	0
1439	0	0	0
1440	0	0	0
1441	0	0	0
1442	0	0	0
1443	0	0	0
1444	0	0	0
1445	0	0	0
1446	0	0	0
1447	0	0	0
1448	0	0	0
1449	0	0	0
1450	0	0	0
1451	0	0	0
1452	253	222	228
1453	255	217	227
1454	254	207	225
1455	251	194	220
1456	253	189	220
1457	255	188	223
1458	250	173	217
1459	252	172	219
1460	255	174	223
1461	247	157	216
1462	245	151	217
1463	252	162	228
1464	255	171	234
1465	255	175	234
1466	253	170	230
1467	255	175	232
1468	246	169	225
1469	246	174	227
1470	246	189	235
1471	0	0	0
1472	0	0	0
1473	0	0	0
1474	0	0	0
1475	0	0	0
1476	0	0	0
1477	0	0	0
1478	0	0	0
1479	0	0	0
1480	0	0	0
1481	0	0	0
1482	0	0	0
1483	0	0	0
1484	0	0	0
1485	0	0	0
1486	0	0	0
1487	0	0	0
1488	0	0	0
1489	0	0	0
1490	0	0	0
1491	0	0	0
1492	0	0	0
1493	250	216	226
1494	250	206	224
1495	249	196	221
1496	253	193	222
1497	254	186	219
1498	249	174	215
1499	243	160	213
1500	248	163	219
1501	252	165	223
1502	251	161	223
1503	248	154	221
1504	255	167	232
1505	255	177	238
1506	255	173	234
1507	252	168	230
1508	250	168	231
1509	242	162	228
1510	249	181	238
1511	247	194	239
1512	0	0	0
1513	0	0	0
1514	0	0	0
1515	0	0	0
1516	0	0	0
1517	0	0	0
1518	0	0	0
1519	0	0	0
1520	0	0	0
1521	0	0	0
1522	0	0	0
1523	0	0	0
1524	0	0	0
1525	0	0	0
1526	0	0	0
1527	0	0	0
1528	0	0	0
1529	0	0	0
1530	0	0	0
1531	0	0	0
1532	0	0	0
1533	0	0	0
1534	253	220	230
1535	254	211	228
1536	253	199	225
1537	255	195	227
1538	250	178	217
1539	245	166	213
1540	252	171	223
1541	255	173	229
1542	255	171	229
1543	255	167	229
1544	244	149	219
1545	252	162	229
1546	255	177	239
1547	255	174	236
1548	248	161	227
1549	246	160	229
1550	242	165	233
1551	244	181	239
1552	243	198	239
1553	0	0	0
1554	0	0	0
1555	0	0	0
1556	0	0	0
1557	0	0	0
1558	0	0	0
1559	0	0	0
1560	0	0	0
1561	0	0	0
1562	0	0	0
1563	0	0	0
1564	0	0	0
1565	0	0	0
1566	0	0	0
1567	0	0	0
1568	0	0	0
1569	0	0	0
1570	0	0	0
1571	0	0	0
1572	0	0	0
1573	0	0	0
1574	0	0	0
1575	255	223	232
1576	255	212	228
1577	255	199	226
1578	252	186	223
1579	246	170	217
1580	253	175	224
1581	255	178	228
1582	255	177	230
1583	255	175	230
1584	255	163	226
1585	242	145	218
1586	253	162	231
1587	255	177	240
1588	251	163	229
1589	239	149	220
1590	243	160	229
1591	238	164	230
1592	243	187	240
1593	243	204	240
1594	0	0	0
1595	0	0	0
1596	0	0	0
1597	0	0	0
1598	0	0	0
1599	0	0	0
1600	0	0	0
1601	0	0	0
1602	0	0	0
1603	0	0	0
1604	0	0	0
1605	0	0	0
1606	0	0	0
1607	0	0	0
1608	0	0	0
1609	0	0	0
1610	0	0	0
1611	0	0	0
1612	0	0	0
1613	0	0	0
1614	0	0	0
1615	255	228	234
1616	255	216	228
1617	255	204	224
1618	251	189	220
1619	246	175	217
1620	254	180	227
1621	255	185	233
1622	254	172	224
1623	255	170	224
1624	254	163	224
1625	247	152	220
1626	241	143	219
1627	250	160	231
1628	255	176	240
1629	248	161	229
1630	242	158	226
1631	243	167	232
1632	241	175	236
1633	250	199	247
1634	246	209	243
1635	0	0	0
1636	0	0	0
1637	0	0	0
1638	0	0	0
1639	0	0	0
1640	0	0	0
1641	0	0	0
1642	0	0	0
1643	0	0	0
1644	0	0	0
1645	0	0	0
1646	0	0	0
1647	0	0	0
1648	0	0	0
1649	0	0	0
1650	0	0	0
1651	0	0	0
1652	0	0	0
1653	0	0	0
1654	0	0	0
1655	255	234	234
1656	255	221	229
1657	255	209	225
1658	252	196	222
1659	247	181	217
1660	255	187	227
1661	255	191	234
1662	255	178	228
1663	250	164	220
1664	248	158	219
1665	246	151	220
1666	245	148	222
1667	238	140	218
1668	248	158	231
1669	255	173	239
1670	252	170	236
1671	245	166	233
1672	246	178	239
1673	242	184	239
1674	242	196	242
1675	0	0	0
1676	0	0	0
1677	0	0	0
1678	0	0	0
1679	0	0	0
1680	0	0	0
1681	0	0	0
1682	0	0	0
1683	0	0	0
1684	0	0	0
1685	0	0	0
1686	0	0	0
1687	0	0	0
1688	0	0	0
1689	0	0	0
1690	0	0	0
1691	0	0	0
1692	0	0	0
1693	0	0	0
1694	0	0	0
1695	0	0	0
1696	255	231	235
1697	255	217	228
1698	254	203	223
1699	250	190	220
1700	249	180	220
1701	255	186	229
1702	253	176	225
1703	247	163	219
1704	254	169	226
1705	251	162	226
1706	250	158	227
1707	248	154	228
1708	252	161	233
1709	255	178	245
1710	251	167	235
1711	246	164	231
1712	248	174	237
1713	249	185	243
1714	238	185	238
1715	0	0	0
1716	0	0	0
1717	0	0	0
1718	0	0	0
1719	0	0	0
1720	0	0	0
1721	0	0	0
1722	0	0	0
1723	0	0	0
1724	0	0	0
1725	0	0	0
1726	0	0	0
1727	0	0	0
1728	0	0	0
1729	0	0	0
1730	0	0	0
1731	0	0	0
1732	0	0	0
1733	0	0	0
1734	0	0	0
1735	0	0	0
1736	255	226	234
1737	255	229	236
1738	253	209	225
1739	250	195	220
1740	250	187	221
1741	248	177	221
1742	248	172	222
1743	244	162	219
1744	250	167	227
1745	255	173	233
1746	254	168	232
1747	251	162	231
1748	255	171	239
1749	255	178	241
1750	254	170	235
1751	243	159	228
1752	249	173	237
1753	250	182	241
1754	246	188	241
1755	236	188	239
1756	0	0	0
1757	0	0	0
1758	0	0	0
1759	0	0	0
1760	0	0	0
1761	0	0	0
1762	0	0	0
1763	0	0	0
1764	0	0	0
1765	0	0	0
1766	0	0	0
1767	0	0	0
1768	0	0	0
1769	0	0	0
1770	0	0	0
1771	0	0	0
1772	0	0	0
1773	0	0	0
1774	0	0	0
1775	0	0	0
1776	251	226	234
1777	255	228	237
1778	255	223	235
1779	250	203	222
1780	253	199	225
1781	254	191	226
1782	251	181	225
1783	251	174	225
1784	249	169	225
1785	253	174	232
1786	255	175	235
1787	254	169	234
1788	250	164	231
1789	255	172	237
1790	255	175	237
1791	249	167	232
1792	244	165	232
1793	250	179	241
1794	247	184	239
1795	242	189	239
1796	240	198	243
1797	0	0	0
1798	0	0	0
1799	0	0	0
1800	0	0	0
1801	0	0	0
1802	0	0	0
1803	0	0	0
1804	0	0	0
1805	0	0	0
1806	0	0	0
1807	0	0	0
1808	0	0	0
1809	0	0	0
1810	0	0	0
1811	0	0	0
1812	0	0	0
1813	0	0	0
1814	0	0	0
1815	0	0	0
1816	0	0	0
1817	246	221	229
1818	250	217	229
1819	254	214	229
1820	252	206	227
1821	255	202	229
1822	253	191	226
1823	250	180	223
1824	252	178	226
1825	250	172	224
1826	254	175	230
1827	255	177	236
1828	255	177	239
1829	254	170	234
1830	255	174	237
1831	255	178	239
1832	254	177	239
1833	249	174	237
1834	251	184	242
1835	245	188	239
1836	242	197	241
1837	0	0	0
1838	0	0	0
1839	0	0	0
1840	0	0	0
1841	0	0	0
1842	0	0	0
1843	0	0	0
1844	0	0	0
1845	0	0	0
1846	0	0	0
1847	0	0	0
1848	0	0	0
1849	0	0	0
1850	0	0	0
1851	0	0	0
1852	0	0	0
1853	0	0	0
1854	0	0	0
1855	0	0	0
1856	0	0	0
1857	0	0	0
1858	245	226	231
1859	251	222	231
1860	250	211	228
1861	250	205	228
1862	253	202	229
1863	250	190	224
1864	252	187	227
1865	255	186	230
1866	253	178	227
1867	255	182	234
1868	254	172	233
1869	255	171	235
1870	249	163	229
1871	251	167	232
1872	255	176	238
1873	252	175	237
1874	247	174	236
1875	247	183	240
1876	239	186	236
1877	0	0	0
1878	0	0	0
1879	0	0	0
1880	0	0	0
1881	0	0	0
1882	0	0	0
1883	0	0	0
1884	0	0	0
1885	0	0	0
1886	0	0	0
1887	0	0	0
1888	0	0	0
1889	0	0	0
1890	0	0	0
1891	0	0	0
1892	0	0	0
1893	0	0	0
1894	0	0	0
1895	0	0	0
1896	0	0	0
1897	0	0	0
1898	245	232	235
1899	249	232	235
1900	250	221	231
1901	250	211	230
1902	253	208	232
1903	255	204	230
1904	255	199	229
1905	255	196	232
1906	255	191	233
1907	255	184	233
1908	254	176	232
1909	249	165	227
1910	248	162	228
1911	243	155	223
1912	250	166	231
1913	253	174	235
1914	250	174	235
1915	245	174	236
1916	242	182	240
1917	234	185	237
1918	0	0	0
1919	0	0	0
1920	0	0	0
1921	0	0	0
1922	0	0	0
1923	0	0	0
1924	0	0	0
1925	0	0	0
1926	0	0	0
1927	0	0	0
1928	0	0	0
1929	0	0	0
1930	0	0	0
1931	0	0	0
1932	0	0	0
1933	0	0	0
1934	0	0	0
1935	0	0	0
1936	0	0	0
1937	0	0	0
1938	253	240	242
1939	252	236	239
1940	250	227	234
1941	249	215	229
1942	252	210	232
1943	255	208	233
1944	253	200	228
1945	250	193	225
1946	252	192	229
1947	252	187	230
1948	253	181	232
1949	251	173	232
1950	248	166	229
1951	248	163	230
1952	249	165	232
1953	255	176	239
1954	252	175	236
1955	249	175	235
1956	248	184	241
1957	243	191	243
1958	237	197	243
1959	0	0	0
1960	0	0	0
1961	0	0	0
1962	0	0	0
1963	0	0	0
1964	0	0	0
1965	0	0	0
1966	0	0	0
1967	0	0	0
1968	0	0	0
1969	0	0	0
1970	0	0	0
1971	0	0	0
1972	0	0	0
1973	0	0	0
1974	0	0	0
1975	0	0	0
1976	0	0	0
1977	0	0	0
1978	0	0	0
1979	251	239	242
1980	243	225	232
1981	242	217	228
1982	246	212	229
1983	248	206	229
1984	249	202	229
1985	248	195	225
1986	250	194	227
1987	252	192	231
1988	251	186	231
1989	250	179	232
1990	248	173	232
1991	245	166	231
1992	249	170	236
1993	250	171	238
1994	252	175	240
1995	247	173	236
1996	250	184	241
1997	246	190	241
1998	239	198	241
1999	0	0	0
2000	0	0	0
2001	0	0	0
2002	0	0	0
2003	0	0	0
2004	0	0	0
2005	0	0	0
2006	0	0	0
2007	0	0	0
2008	0	0	0
2009	0	0	0
2010	0	0	0
2011	0	0	0
2012	0	0	0
2013	0	0	0
2014	0	0	0
2015	0	0	0
2016	0	0	0
2017	0	0	0
2018	0	0	0
2019	0	0	0
2020	0	0	0
2021	236	224	229
2022	241	224	232
2023	248	221	235
2024	243	205	227
2025	242	200	226
2026	249	201	229
2027	255	204	236
2028	247	182	227
2029	243	174	225
2030	249	181	234
2031	245	174	232
2032	246	175	236
2033	251	179	242
2034	250	178	241
2035	251	181	243
2036	246	180	240
2037	246	190	243
2038	238	193	239
2039	0	0	0
2040	0	0	0
2041	0	0	0
2042	0	0	0
2043	0	0	0
2044	0	0	0
2045	0	0	0
2046	0	0	0
2047	0	0	0
2048	0	0	0
2049	0	0	0
2050	0	0	0
2051	0	0	0
2052	0	0	0
2053	0	0	0
2054	0	0	0
2055	0	0	0
2056	0	0	0
2057	0	0	0
2058	0	0	0
2059	0	0	0
2060	0	0	0
2061	0	0	0
2062	0	0	0
2063	246	233	238
2064	248	222	234
2065	243	207	227
2066	247	208	230
2067	254	210	236
2068	249	192	229
2069	238	170	222
2070	247	180	233
2071	251	186	237
2072	249	185	237
2073	249	185	241
2074	250	186	243
2075	248	184	241
2076	251	189	244
2077	246	188	241
2078	243	197	244
2079	237	201	243
2080	0	0	0
2081	0	0	0
2082	0	0	0
2083	0	0	0
2084	0	0	0
2085	0	0	0
2086	0	0	0
2087	0	0	0
2088	0	0	0
2089	0	0	0
2090	0	0	0
2091	0	0	0
2092	0	0	0
2093	0	0	0
2094	0	0	0
2095	0	0	0
2096	0	0	0
2097	0	0	0
2098	0	0	0
2099	0	0	0
2100	0	0	0
2101	0	0	0
2102	0	0	0
2103	0	0	0
2104	248	232	237
2105	249	220	233
2106	244	204	226
2107	250	206	231
2108	252	203	233
2109	241	182	224
2110	240	177	228
2111	251	188	240
2112	245	181	233
2113	241	178	231
2114	242	181	236
2115	241	181	237
2116	244	186	240
2117	247	191	243
2118	237	184	236
2119	233	191	238
2120	235	205	244
2121	0	0	0
2122	0	0	0
2123	0	0	0
2124	0	0	0
2125	0	0	0
2126	0	0	0
2127	0	0	0
2128	0	0	0
2129	0	0	0
2130	0	0	0
2131	0	0	0
2132	0	0	0
2133	0	0	0
2134	0	0	0
2135	0	0	0
2136	0	0	0
2137	0	0	0
2138	0	0	0
2139	0	0	0
2140	0	0	0
2141	0	0	0
2142	0	0	0
2143	0	0	0
2144	0	0	0
2145	249	230	237
2146	247	215	230
2147	242	199	224
2148	245	197	227
2149	245	194	228
2150	242	188	229
2151	241	182	232
2152	247	184	237
2153	240	177	229
2154	239	179	230
2155	240	182	236
2156	245	189	243
2157	248	194	246
2158	243	191	243
2159	230	182	235
2160	230	196	240
2161	0	0	0
2162	0	0	0
2163	0	0	0
2164	0	0	0
2165	0	0	0
2166	0	0	0
2167	0	0	0
2168	0	0	0
2169	0	0	0
2170	0	0	0
2171	0	0	0
2172	0	0	0
2173	0	0	0
2174	0	0	0
2175	0	0	0
2176	0	0	0
2177	0	0	0
2178	0	0	0
2179	0	0	0
2180	0	0	0
2181	0	0	0
2182	0	0	0
2183	0	0	0
2184	0	0	0
2185	247	231	237
2186	251	231	239
2187	246	215	231
2188	244	205	229
2189	247	203	232
2190	241	193	228
2191	237	186	228
2192	238	183	231
2193	245	186	236
2194	239	176	229
2195	237	179	231
2196	243	187	239
2197	252	195	247
2198	250	197	247
2199	238	189	240
2200	228	188	236
2201	0	0	0
2202	0	0	0
2203	0	0	0
2204	0	0	0
2205	0	0	0
2206	0	0	0
2207	0	0	0
2208	0	0	0
2209	0	0	0
2210	0	0	0
2211	0	0	0
2212	0	0	0
2213	0	0	0
2214	0	0	0
2215	0	0	0
2216	0	0	0
2217	0	0	0
2218	0	0	0
2219	0	0	0
2220	0	0	0
2221	0	0	0
2222	0	0	0
2223	0	0	0
2224	0	0	0
2225	0	0	0
2226	244	229	233
2227	249	230	237
2228	248	219	234
2229	247	210	232
2230	246	203	232
2231	240	192	229
2232	237	188	230
2233	236	183	229
2234	242	184	233
2235	237	176	231
2236	239	184	237
2237	243	190	242
2238	249	196	245
2239	245	195	241
2240	235	194	237
2241	0	0	0
2242	0	0	0
2243	0	0	0
2244	0	0	0
2245	0	0	0
2246	0	0	0
2247	0	0	0
2248	0	0	0
2249	0	0	0
2250	0	0	0
2251	0	0	0
2252	0	0	0
2253	0	0	0
2254	0	0	0
2255	0	0	0
2256	0	0	0
2257	0	0	0
2258	0	0	0
2259	0	0	0
2260	0	0	0
2261	0	0	0
2262	0	0	0
2263	0	0	0
2264	0	0	0
2265	0	0	0
2266	246	237	236
2267	240	229	231
2268	244	229	235
2269	246	219	233
2270	250	216	234
2271	252	210	236
2272	242	192	229
2273	238	188	229
2274	241	190	232
2275	245	190	236
2276	237	177	232
2277	237	184	238
2278	238	190	241
2279	238	192	240
2280	229	187	232
2281	0	0	0
2282	0	0	0
2283	0	0	0
2284	0	0	0
2285	0	0	0
2286	0	0	0
2287	0	0	0
2288	0	0	0
2289	0	0	0
2290	0	0	0
2291	0	0	0
2292	0	0	0
2293	0	0	0
2294	0	0	0
2295	0	0	0
2296	0	0	0
2297	0	0	0
2298	0	0	0
2299	0	0	0
2300	0	0	0
2301	0	0	0
2302	0	0	0
2303	0	0	0
2304	0	0	0
2305	0	0	0
2306	0	0	0
2307	0	0	0
2308	241	231	232
2309	244	230	234
2310	250	226	235
2311	255	222	236
2312	252	209	232
2313	243	192	227
2314	248	198	236
2315	251	200	239
2316	246	191	237
2317	236	178	232
2318	239	187	240
2319	238	192	241
2320	230	188	235
2321	0	0	0
2322	0	0	0
2323	0	0	0
2324	0	0	0
2325	0	0	0
2326	0	0	0
2327	0	0	0
2328	0	0	0
2329	0	0	0
2330	0	0	0
2331	0	0	0
2332	0	0	0
2333	0	0	0
2334	0	0	0
2335	0	0	0
2336	0	0	0
2337	0	0	0
2338	0	0	0
2339	0	0	0
2340	0	0	0
2341	0	0	0
2342	0	0	0
2343	0	0	0
2344	0	0	0
2345	0	0	0
2346	0	0	0
2347	0	0	0
2348	0	0	0
2349	0	0	0
2350	248	233	235
2351	254	229	235
2352	255	221	234
2353	251	207	230
2354	245	191	227
2355	255	200	240
2356	247	188	233
2357	234	174	226
2358	235	179	233
2359	243	191	244
2360	235	187	238
2361	0	0	0
2362	0	0	0
2363	0	0	0
2364	0	0	0
2365	0	0	0
2366	0	0	0
2367	0	0	0
2368	0	0	0
2369	0	0	0
2370	0	0	0
2371	0	0	0
2372	0	0	0
2373	0	0	0
2374	0	0	0
2375	0	0	0
2376	0	0	0
2377	0	0	0
2378	0	0	0
2379	0	0	0
2380	0	0	0
2381	0	0	0
2382	0	0	0
2383	0	0	0
2384	0	0	0
2385	0	0	0
2386	0	0	0
2387	0	0	0
2388	0	0	0
2389	0	0	0
2390	252	241	238
2391	255	241	241
2392	255	232	238
2393	255	224	236
2394	253	207	230
2395	247	191	230
2396	250	188	235
2397	240	174	227
2398	234	176	229
2399	235	180	237
2400	238	185	242
2401	229	180	235
2402	0	0	0
2403	0	0	0
2404	0	0	0
2405	0	0	0
2406	0	0	0
2407	0	0	0
2408	0	0	0
2409	0	0	0
2410	0	0	0
2411	0	0	0
2412	0	0	0
2413	0	0	0
2414	0	0	0
2415	0	0	0
2416	0	0	0
2417	0	0	0
2418	0	0	0
2419	0	0	0
2420	0	0	0
2421	0	0	0
2422	0	0	0
2423	0	0	0
2424	0	0	0
2425	0	0	0
2426	0	0	0
2427	0	0	0
2428	0	0	0
2429	0	0	0
2430	0	0	0
2431	251	234	235
2432	254	230	234
2433	255	220	232
2434	255	213	232
2435	248	196	227
2436	246	188	231
2437	246	183	234
2438	242	180	232
2439	239	182	235
2440	242	192	244
2441	240	194	246
2442	228	186	236
2443	0	0	0
2444	0	0	0
2445	0	0	0
2446	0	0	0
2447	0	0	0
2448	0	0	0
2449	0	0	0
2450	0	0	0
2451	0	0	0
2452	0	0	0
2453	0	0	0
2454	0	0	0
2455	0	0	0
2456	0	0	0
2457	0	0	0
2458	0	0	0
2459	0	0	0
2460	0	0	0
2461	0	0	0
2462	0	0	0
2463	0	0	0
2464	0	0	0
2465	0	0	0
2466	0	0	0
2467	0	0	0
2468	0	0	0
2469	0	0	0
2470	0	0	0
2471	0	0	0
2472	0	0	0
2473	251	219	229
2474	252	211	229
2475	254	205	233
2476	252	197	235
2477	247	187	235
2478	248	188	239
2479	243	184	236
2480	244	193	241
2481	245	201	245
2482	237	198	241
2483	0	0	0
2484	0	0	0
2485	0	0	0
2486	0	0	0
2487	0	0	0
2488	0	0	0
2489	0	0	0
2490	0	0	0
2491	0	0	0
2492	0	0	0
2493	0	0	0
2494	0	0	0
2495	0	0	0
2496	0	0	0
2497	0	0	0
2498	0	0	0
2499	0	0	0
2500	0	0	0
2501	0	0	0
2502	0	0	0
2503	0	0	0
2504	0	0	0
2505	0	0	0
2506	0	0	0
2507	0	0	0
2508	0	0	0
2509	0	0	0
2510	0	0	0
2511	0	0	0
2512	0	0	0
2513	0	0	0
2514	255	224	235
2515	255	215	233
2516	254	204	235
2517	253	196	237
2518	244	183	233
2519	239	181	233
2520	243	192	239
2521	246	201	244
2522	238	197	238
2523	228	192	233
2524	0	0	0
2525	0	0	0
2526	0	0	0
2527	0	0	0
2528	0	0	0
2529	0	0	0
2530	0	0	0
2531	0	0	0
2532	0	0	0
2533	0	0	0
2534	0	0	0
2535	0	0	0
2536	0	0	0
2537	0	0	0
2538	0	0	0
2539	0	0	0
2540	0	0	0
2541	0	0	0
2542	0	0	0
2543	0	0	0
2544	0	0	0
2545	0	0	0
2546	0	0	0
2547	0	0	0
2548	0	0	0
2549	0	0	0
2550	0	0	0
2551	0	0	0
2552	0	0	0
2553	0	0	0
2554	0	0	0
2555	255	227	237
2556	253	210	229
2557	250	198	230
2558	251	192	233
2559	240	178	227
2560	244	192	238
2561	246	201	242
2562	240	199	239
2563	232	195	236
2564	0	0	0
2565	0	0	0
2566	0	0	0
2567	0	0	0
2568	0	0	0
2569	0	0	0
2570	0	0	0
2571	0	0	0
2572	0	0	0
2573	0	0	0
2574	0	0	0
2575	0	0	0
2576	0	0	0
2577	0	0	0
2578	0	0	0
2579	0	0	0
2580	0	0	0
2581	0	0	0
2582	0	0	0
2583	0	0	0
2584	0	0	0
2585	0	0	0
2586	0	0	0
2587	0	0	0
2588	0	0	0
2589	0	0	0
2590	0	0	0
2591	0	0	0
2592	0	0	0
2593	0	0	0
2594	0	0	0
2595	0	0	0
2596	255	223	235
2597	251	206	226
2598	253	201	232
2599	253	195	235
2600	244	184	231
2601	246	196	241
2602	238	195	237
2603	228	190	231
2604	0	0	0
2605	0	0	0
2606	0	0	0
2607	0	0	0
2608	0	0	0
2609	0	0	0
2610	0	0	0
2611	0	0	0
2612	0	0	0
2613	0	0	0
2614	0	0	0
2615	0	0	0
2616	0	0	0
2617	0	0	0
2618	0	0	0
2619	0	0	0
2620	0	0	0
2621	0	0	0
2622	0	0	0
2623	0	0	0
2624	0	0	0
2625	0	0	0
2626	0	0	0
2627	0	0	0
2628	0	0	0
2629	0	0	0
2630	0	0	0
2631	0	0	0
2632	0	0	0
2633	0	0	0
2634	0	0	0
2635	0	0	0
2636	253	219	236
2637	255	220	235
2638	255	212	233
2639	255	206	237
2640	255	200	239
2641	244	188	235
2642	239	191	238
2643	232	190	237
2644	236	204	243
2645	238	215	243
2646	0	0	0
2647	0	0	0
2648	0	0	0
2649	0	0	0
2650	0	0	0
2651	0	0	0
2652	0	0	0
2653	0	0	0
2654	0	0	0
2655	0	0	0
2656	0	0	0
2657	0	0	0
2658	0	0	0
2659	0	0	0
2660	0	0	0
2661	0	0	0
2662	0	0	0
2663	0	0	0
2664	0	0	0
2665	0	0	0
2666	0	0	0
2667	0	0	0
2668	0	0	0
2669	0	0	0
2670	0	0	0
2671	0	0	0
2672	0	0	0
2673	0	0	0
2674	0	0	0
2675	0	0	0
2676	254	226	239
2677	255	228	243
2678	252	211	231
2679	249	202	229
2680	249	199	233
2681	243	190	233
2682	240	191	236
2683	237	194	240
2684	233	197	242
2685	241	213	249
2686	238	216	242
2687	0	0	0
2688	0	0	0
2689	0	0	0
2690	0	0	0
2691	0	0	0
2692	0	0	0
2693	0	0	0
2694	0	0	0
2695	0	0	0
2696	0	0	0
2697	0	0	0
2698	0	0	0
2699	0	0	0
2700	0	0	0
2701	0	0	0
2702	0	0	0
2703	0	0	0
2704	0	0	0
2705	0	0	0
2706	0	0	0
2707	0	0	0
2708	0	0	0
2709	0	0	0
2710	0	0	0
2711	0	0	0
2712	0	0	0
2713	0	0	0
2714	0	0	0
2715	0	0	0
2716	252	229	238
2717	255	233	242
2718	251	216	232
2719	244	199	225
2720	246	197	230
2721	243	193	232
2722	241	194	237
2723	237	194	239
2724	236	199	242
2725	232	200	241
2726	237	211	245
2727	0	0	0
2728	0	0	0
2729	0	0	0
2730	0	0	0
2731	0	0	0
2732	0	0	0
2733	0	0	0
2734	0	0	0
2735	0	0	0
2736	0	0	0
2737	0	0	0
2738	0	0	0
2739	0	0	0
2740	0	0	0
2741	0	0	0
2742	0	0	0
2743	0	0	0
2744	0	0	0
2745	0	0	0
2746	0	0	0
2747	0	0	0
2748	0	0	0
2749	0	0	0
2750	0	0	0
2751	0	0	0
2752	0	0	0
2753	0	0	0
2754	0	0	0
2755	0	0	0
2756	248	231	238
2757	255	234	241
2758	252	223	234
2759	242	205	224
2760	248	208	233
2761	251	206	238
2762	244	197	235
2763	0	0	0
2764	0	0	0
2765	0	0	0
2766	234	208	241
2767	0	0	0
2768	0	0	0
2769	0	0	0
2770	0	0	0
2771	0	0	0
2772	0	0	0
2773	0	0	0
2774	0	0	0
2775	0	0	0
2776	0	0	0
2777	0	0	0
2778	0	0	0
2779	0	0	0
2780	0	0	0
2781	0	0	0
2782	0	0	0
2783	0	0	0
2784	0	0	0
2785	0	0	0
2786	0	0	0
2787	0	0	0
2788	0	0	0
2789	0	0	0
2790	0	0	0
2791	0	0	0
2792	0	0	0
2793	0	0	0
2794	0	0	0
2795	0	0	0
2796	0	0	0
2797	251	235	240
2798	247	223	233
2799	242	212	226
2800	245	212	230
2801	251	215	239
2802	253	212	241
2803	243	201	234
2804	0	0	0
2805	0	0	0
2806	0	0	0
2807	0	0	0
2808	0	0	0
2809	0	0	0
2810	0	0	0
2811	0	0	0
2812	0	0	0
2813	0	0	0
2814	0	0	0
2815	0	0	0
2816	0	0	0
2817	0	0	0
2818	0	0	0
2819	0	0	0
2820	0	0	0
2821	0	0	0
2822	0	0	0
2823	0	0	0
2824	0	0	0
2825	0	0	0
2826	0	0	0
2827	0	0	0
2828	0	0	0
2829	0	0	0
2830	0	0	0
2831	0	0	0
2832	0	0	0
2833	0	0	0
2834	0	0	0
2835	0	0	0
2836	0	0	0
2837	0	0	0
2838	247	231	237
2839	240	217	228
2840	241	214	227
2841	244	215	232
2842	247	214	237
2843	248	209	238
2844	240	201	231
2845	0	0	0
2846	0	0	0
2847	0	0	0
2848	0	0	0
2849	0	0	0
2850	0	0	0
2851	0	0	0
2852	0	0	0
2853	0	0	0
2854	0	0	0
2855	0	0	0
2856	0	0	0
2857	0	0	0
2858	0	0	0
2859	0	0	0
2860	0	0	0
2861	0	0	0
2862	0	0	0
2863	0	0	0
2864	0	0	0
2865	0	0	0
2866	0	0	0
2867	0	0	0
2868	0	0	0
2869	0	0	0
2870	0	0	0
2871	0	0	0
2872	0	0	0
2873	0	0	0
2874	0	0	0
2875	0	0	0
2876	0	0	0
2877	0	0	0
2878	248	229	237
2879	249	230	238
2880	247	225	235
2881	247	222	234
2882	246	218	234
2883	246	214	237
2884	245	211	236
2885	0	0	0
2886	0	0	0
2887	0	0	0
2888	0	0	0
2889	0	0	0
2890	0	0	0
2891	0	0	0
2892	0	0	0
2893	0	0	0
2894	0	0	0
2895	0	0	0
2896	0	0	0
2897	0	0	0
2898	0	0	0
2899	0	0	0
2900	0	0	0
2901	0	0	0
2902	0	0	0
2903	0	0	0
2904	0	0	0
2905	0	0	0
2906	0	0	0
2907	0	0	0
2908	0	0	0
2909	0	0	0
2910	0	0	0
2911	0	0	0
2912	0	0	0
2913	0	0	0
2914	0	0	0
2915	0	0	0
2916	0	0	0
2917	0	0	0
2918	246	228	235
2919	252	231	239
2920	249	224	236
2921	247	219	234
2922	247	217	233
2923	244	211	231
2924	243	211	233
2925	0	0	0
2926	0	0	0
2927	0	0	0
2928	0	0	0
2929	0	0	0
2930	0	0	0
2931	0	0	0
2932	0	0	0
2933	0	0	0
2934	0	0	0
2935	0	0	0
2936	0	0	0
2937	0	0	0
2938	0	0	0
2939	0	0	0
2940	0	0	0
2941	0	0	0
2942	0	0	0
2943	0	0	0
2944	0	0	0
2945	0	0	0
2946	0	0	0
2947	0	0	0
2948	0	0	0
2949	0	0	0
2950	0	0	0
2951	0	0	0
2952	0	0	0
2953	0	0	0
2954	0	0	0
2955	0	0	0
2956	0	0	0
2957	0	0	0
2958	0	0	0
2959	246	227	235
2960	247	222	234
2961	244	214	231
2962	244	212	231
2963	243	210	232
2964	244	211	234
2965	241	209	232
2966	0	0	0
2967	0	0	0
2968	0	0	0
2969	0	0	0
2970	0	0	0
2971	0	0	0
2972	0	0	0
2973	0	0	0
2974	0	0	0
2975	0	0	0
2976	0	0	0
2977	0	0	0
2978	0	0	0
2979	0	0	0
2980	0	0	0
2981	0	0	0
2982	0	0	0
2983	0	0	0
2984	0	0	0
2985	0	0	0
2986	0	0	0
2987	0	0	0
2988	0	0	0
2989	0	0	0
2990	0	0	0
2991	0	0	0
2992	0	0	0
2993	0	0	0
2994	0	0	0
2995	0	0	0
2996	0	0	0
2997	0	0	0
2998	0	0	0
2999	0	0	0
3000	248	229	237
3001	248	223	236
3002	245	217	234
3003	243	214	233
3004	243	213	233
3005	245	214	234
3006	242	212	232
3007	0	0	0
3008	0	0	0
3009	0	0	0
3010	0	0	0
3011	0	0	0
3012	0	0	0
3013	0	0	0
3014	0	0	0
3015	0	0	0
3016	0	0	0
3017	0	0	0
3018	0	0	0
3019	0	0	0
3020	0	0	0
3021	0	0	0
3022	0	0	0
3023	0	0	0
3024	0	0	0
3025	0	0	0
3026	0	0	0
3027	0	0	0
3028	0	0	0
3029	0	0	0
3030	0	0	0
3031	0	0	0
3032	0	0	0
3033	0	0	0
3034	0	0	0
3035	0	0	0
3036	0	0	0
3037	0	0	0
3038	0	0	0
3039	0	0	0
3040	0	0	0
3041	0	0	0
3042	246	223	236
3043	243	217	234
3044	242	216	233
3045	242	214	231
3046	247	218	234
3047	0	0	0
3048	0	0	0
3049	0	0	0
3050	0	0	0
3051	0	0	0
3052	0	0	0
3053	0	0	0
3054	0	0	0
3055	0	0	0
3056	0	0	0
3057	0	0	0
3058	0	0	0
3059	0	0	0
3060	0	0	0
3061	0	0	0
3062	0	0	0
3063	0	0	0
3064	0	0	0
3065	0	0	0
3066	0	0	0
3067	0	0	0
3068	0	0	0
3069	0	0	0
3070	0	0	0
3071	0	0	0
3072	0	0	0
3073	0	0	0
3074	0	0	0
3075	0	0	0
3076	0	0	0
3077	0	0	0
3078	0	0	0
3079	0	0	0
3080	0	0	0
3081	0	0	0
3082	0	0	0
3083	243	224	235
3084	238	215	231
3085	239	215	231
3086	245	220	233
3087	253	225	238
3088	0	0	0
3089	0	0	0
3090	0	0	0
3091	0	0	0
3092	0	0	0
3093	0	0	0
3094	0	0	0
3095	0	0	0
3096	0	0	0
3097	0	0	0
3098	0	0	0
3099	0	0	0
3100	0	0	0
3101	0	0	0
3102	0	0	0
3103	0	0	0
3104	0	0	0
3105	0	0	0
3106	0	0	0
3107	0	0	0
3108	0	0	0
3109	0	0	0
3110	0	0	0
3111	0	0	0
3112	0	0	0
3113	0	0	0
3114	0	0	0
3115	0	0	0
3116	0	0	0
3117	0	0	0
3118	0	0	0
3119	0	0	0
3120	0	0	0
3121	0	0	0
3122	244	231	238
3123	249	234	240
3124	247	228	236
3125	243	219	233
3126	247	224	238
3127	253	229	241
3128	250	218	235
3129	243	205	230
3130	0	0	0
3131	0	0	0
3132	0	0	0
3133	0	0	0
3134	0	0	0
3135	0	0	0
3136	0	0	0
3137	0	0	0
3138	0	0	0
3139	0	0	0
3140	0	0	0
3141	0	0	0
3142	0	0	0
3143	0	0	0
3144	0	0	0
3145	0	0	0
3146	0	0	0
3147	0	0	0
3148	0	0	0
3149	0	0	0
3150	0	0	0
3151	0	0	0
3152	0	0	0
3153	0	0	0
3154	0	0	0
3155	0	0	0
3156	0	0	0
3157	0	0	0
3158	0	0	0
3159	0	0	0
3160	0	0	0
3161	0	0	0
3162	249	235	240
3163	255	241	247
3164	247	223	234
3165	244	216	230
3166	246	216	232
3167	251	221	237
3168	252	221	237
3169	244	208	230
3170	244	205	231
3171	0	0	0
3172	0	0	0
3173	0	0	0
3174	0	0	0
3175	0	0	0
3176	0	0	0
3177	0	0	0
3178	0	0	0
3179	0	0	0
3180	0	0	0
3181	0	0	0
3182	0	0	0
3183	0	0	0
3184	0	0	0
3185	0	0	0
3186	0	0	0
3187	0	0	0
3188	0	0	0
3189	0	0	0
3190	0	0	0
3191	0	0	0
3192	0	0	0
3193	0	0	0
3194	0	0	0
3195	0	0	0
3196	0	0	0
3197	0	0	0
3198	0	0	0
3199	0	0	0
3200	0	0	0
3201	0	0	0
3202	0	0	0
3203	254	241	243
3204	248	226	235
3205	238	209	225
3206	238	208	226
3207	239	208	226
3208	242	208	228
3209	244	209	230
3210	243	206	231
3211	0	0	0
3212	0	0	0
3213	0	0	0
3214	0	0	0
3215	0	0	0
3216	0	0	0
3217	0	0	0
3218	0	0	0
3219	0	0	0
3220	0	0	0
3221	0	0	0
3222	0	0	0
3223	0	0	0
3224	0	0	0
3225	0	0	0
3226	0	0	0
3227	0	0	0
3228	0	0	0
3229	0	0	0
3230	0	0	0
3231	0	0	0
3232	0	0	0
3233	0	0	0
3234	0	0	0
3235	0	0	0
3236	0	0	0
3237	0	0	0
3238	0	0	0
3239	0	0	0
3240	0	0	0
3241	0	0	0
3242	246	233	236
3243	246	233	236
3244	249	234	238
3245	242	219	230
3246	235	209	225
3247	229	206	223
3248	240	220	232
3249	248	223	236
3250	246	214	234
3251	246	212	235
3252	0	0	0
3253	0	0	0
3254	0	0	0
3255	0	0	0
3256	0	0	0
3257	0	0	0
3258	0	0	0
3259	0	0	0
3260	0	0	0
3261	0	0	0
3262	0	0	0
3263	0	0	0
3264	0	0	0
3265	0	0	0
3266	0	0	0
3267	0	0	0
3268	0	0	0
3269	0	0	0
3270	0	0	0
3271	0	0	0
3272	0	0	0
3273	0	0	0
3274	0	0	0
3275	0	0	0
3276	0	0	0
3277	0	0	0
3278	0	0	0
3279	0	0	0
3280	0	0	0
3281	0	0	0
3282	250	241	241
3283	243	228	232
3284	243	228	233
3285	245	229	236
3286	240	220	230
3287	231	210	224
3288	235	220	230
3289	245	233	238
3290	245	225	234
3291	244	216	231
3292	246	215	234
3293	0	0	0
3294	0	0	0
3295	0	0	0
3296	0	0	0
3297	0	0	0
3298	0	0	0
3299	0	0	0
3300	0	0	0
3301	0	0	0
3302	0	0	0
3303	0	0	0
3304	0	0	0
3305	0	0	0
3306	0	0	0
3307	0	0	0
3308	0	0	0
3309	0	0	0
3310	0	0	0
3311	0	0	0
3312	0	0	0
3313	0	0	0
3314	0	0	0
3315	0	0	0
3316	0	0	0
3317	0	0	0
3318	0	0	0
3319	0	0	0
3320	0	0	0
3321	0	0	0
3322	0	0	0
3323	247	236	239
3324	242	226	233
3325	243	227	234
3326	243	228	236
3327	231	215	226
3328	231	216	227
3329	242	230	236
3330	242	228	234
3331	235	216	226
3332	238	214	228
3333	246	215	233
3334	0	0	0
3335	0	0	0
3336	0	0	0
3337	0	0	0
3338	0	0	0
3339	0	0	0
3340	0	0	0
3341	0	0	0
3342	0	0	0
3343	0	0	0
3344	0	0	0
3345	0	0	0
3346	0	0	0
3347	0	0	0
3348	0	0	0
3349	0	0	0
3350	0	0	0
3351	0	0	0
3352	0	0	0
3353	0	0	0
3354	0	0	0
3355	0	0	0
3356	0	0	0
3357	0	0	0
3358	0	0	0
3359	0	0	0
3360	0	0	0
3361	0	0	0
3362	0	0	0
3363	0	0	0
3364	0	0	0
3365	239	222	233
3366	242	225	236
3367	240	225	235
3368	235	224	233
3369	234	224	233
3370	238	225	234
3371	240	224	233
3372	239	219	231
3373	241	217	232
3374	246	214	234
3375	239	204	229
3376	0	0	0
3377	0	0	0
3378	0	0	0
3379	0	0	0
3380	0	0	0
3381	0	0	0
3382	0	0	0
3383	0	0	0
3384	0	0	0
3385	0	0	0
3386	0	0	0
3387	0	0	0
3388	0	0	0
3389	0	0	0
3390	0	0	0
3391	0	0	0
3392	0	0	0
3393	0	0	0
3394	0	0	0
3395	0	0	0
3396	0	0	0
3397	0	0	0
3398	0	0	0
3399	0	0	0
3400	0	0	0
3401	0	0	0
3402	0	0	0
3403	0	0	0
3404	0	0	0
3405	0	0	0
3406	0	0	0
3407	0	0	0
3408	239	228	236
3409	237	227	234
3410	234	225	232
3411	236	224	232
3412	248	234	241
3413	255	234	244
3414	245	213	232
3415	241	206	230
3416	237	202	228
3417	0	0	0
3418	0	0	0
3419	0	0	0
3420	0	0	0
3421	0	0	0
3422	0	0	0
3423	0	0	0
3424	0	0	0
3425	0	0	0
3426	0	0	0
3427	0	0	0
3428	0	0	0
3429	0	0	0
3430	0	0	0
3431	0	0	0
3432	0	0	0
3433	0	0	0
3434	0	0	0
3435	0	0	0
3436	0	0	0
3437	0	0	0
3438	0	0	0
3439	0	0	0
3440	0	0	0
3441	0	0	0
3442	0	0	0
3443	0	0	0
3444	0	0	0
3445	0	0	0
3446	0	0	0
3447	0	0	0
3448	247	236	242
3449	244	233	238
3450	238	229	234
3451	236	227	231
3452	243	233	236
3453	255	243	246
3454	253	227	239
3455	242	206	228
3456	241	205	230
3457	237	201	228
3458	0	0	0
3459	0	0	0
3460	0	0	0
3461	0	0	0
3462	0	0	0
3463	0	0	0
3464	0	0	0
3465	0	0	0
3466	0	0	0
3467	0	0	0
3468	0	0	0
3469	0	0	0
3470	0	0	0
3471	0	0	0
3472	0	0	0
3473	0	0	0
3474	0	0	0
3475	0	0	0
3476	0	0	0
3477	0	0	0
3478	0	0	0
3479	0	0	0
3480	0	0	0
3481	0	0	0
3482	0	0	0
3483	0	0	0
3484	0	0	0
3485	0	0	0
3486	0	0	0
3487	0	0	0
3488	0	0	0
3489	0	0	0
3490	242	224	233
3491	233	218	227
3492	239	228	233
3493	248	235	239
3494	250	231	238
3495	243	212	229
3496	236	199	225
3497	237	200	228
3498	241	207	233
3499	249	215	240
3500	0	0	0
3501	0	0	0
3502	0	0	0
3503	0	0	0
3504	0	0	0
3505	0	0	0
3506	0	0	0
3507	0	0	0
3508	0	0	0
3509	0	0	0
3510	0	0	0
3511	0	0	0
3512	0	0	0
3513	0	0	0
3514	0	0	0
3515	0	0	0
3516	0	0	0
3517	0	0	0
3518	0	0	0
3519	0	0	0
3520	0	0	0
3521	0	0	0
3522	0	0	0
3523	0	0	0
3524	0	0	0
3525	0	0	0
3526	0	0	0
3527	0	0	0
3528	0	0	0
3529	0	0	0
3530	0	0	0
3531	236	214	228
3532	238	222	234
3533	245	232	239
3534	244	225	234
3535	245	220	233
3536	241	209	229
3537	235	197	227
3538	242	206	235
3539	245	212	238
3540	244	208	235
3541	231	196	227
3542	0	0	0
3543	0	0	0
3544	0	0	0
3545	0	0	0
3546	0	0	0
3547	0	0	0
3548	0	0	0
3549	0	0	0
3550	0	0	0
3551	0	0	0
3552	0	0	0
3553	0	0	0
3554	0	0	0
3555	0	0	0
3556	0	0	0
3557	0	0	0
3558	0	0	0
3559	0	0	0
3560	0	0	0
3561	0	0	0
3562	0	0	0
3563	0	0	0
3564	0	0	0
3565	0	0	0
3566	0	0	0
3567	0	0	0
3568	0	0	0
3569	0	0	0
3570	0	0	0
3571	0	0	0
3572	241	221	234
3573	249	234	244
3574	246	228	238
3575	243	219	233
3576	244	217	233
3577	241	206	229
3578	242	205	233
3579	249	214	241
3580	239	202	231
3581	232	196	227
3582	227	196	227
3583	0	0	0
3584	0	0	0
3585	0	0	0
3586	0	0	0
3587	0	0	0
3588	0	0	0
3589	0	0	0
3590	0	0	0
3591	0	0	0
3592	0	0	0
3593	0	0	0
3594	0	0	0
3595	0	0	0
3596	0	0	0
3597	0	0	0
3598	0	0	0
3599	0	0	0
3600	0	0	0
3601	0	0	0
3602	0	0	0
3603	0	0	0
3604	0	0	0
3605	0	0	0
3606	0	0	0
3607	0	0	0
3608	0	0	0
3609	0	0	0
3610	0	0	0
3611	0	0	0
3612	0	0	0
3613	0	0	0
3614	239	222	233
3615	237	217	230
3616	238	213	230
3617	240	211	231
3618	244	211	233
3619	245	209	232
3620	245	205	232
3621	234	193	225
3622	233	199	230
3623	0	0	0
3624	0	0	0
3625	0	0	0
3626	0	0	0
3627	0	0	0
3628	0	0	0
3629	0	0	0
3630	0	0	0
3631	0	0	0
3632	0	0	0
3633	0	0	0
3634	0	0	0
3635	0	0	0
3636	0	0	0
3637	0	0	0
3638	0	0	0
3639	0	0	0
3640	0	0	0
3641	0	0	0
3642	0	0	0
3643	0	0	0
3644	0	0	0
3645	0	0	0
3646	0	0	0
3647	0	0	0
3648	0	0	0
3649	0	0	0
3650	0	0	0
3651	0	0	0
3652	0	0	0
3653	0	0	0
3654	238	228	233
3655	237	224	232
3656	237	221	232
3657	238	218	232
3658	239	214	233
3659	244	215	235
3660	245	208	231
3661	249	207	233
3662	233	188	223
3663	0	0	0
3664	0	0	0
3665	0	0	0
3666	0	0	0
3667	0	0	0
3668	0	0	0
3669	0	0	0
3670	0	0	0
3671	0	0	0
3672	0	0	0
3673	0	0	0
3674	0	0	0
3675	0	0	0
3676	0	0	0
3677	0	0	0
3678	0	0	0
3679	0	0	0
3680	0	0	0
3681	0	0	0
3682	0	0	0
3683	0	0	0
3684	0	0	0
3685	0	0	0
3686	0	0	0
3687	0	0	0
3688	0	0	0
3689	0	0	0
3690	0	0	0
3691	0	0	0
3692	0	0	0
3693	0	0	0
3694	240	233	236
3695	241	233	237
3696	241	230	236
3697	241	227	235
3698	239	221	232
3699	240	217	233
3700	244	214	234
3701	245	208	232
3702	242	199	230
3703	228	180	221
3704	239	206	238
3705	0	0	0
3706	0	0	0
3707	0	0	0
3708	0	0	0
3709	0	0	0
3710	0	0	0
3711	0	0	0
3712	0	0	0
3713	0	0	0
3714	0	0	0
3715	0	0	0
3716	0	0	0
3717	0	0	0
3718	0	0	0
3719	0	0	0
3720	0	0	0
3721	0	0	0
3722	0	0	0
3723	0	0	0
3724	0	0	0
3725	0	0	0
3726	0	0	0
3727	0	0	0
3728	0	0	0
3729	0	0	0
3730	0	0	0
3731	0	0	0
3732	0	0	0
3733	0	0	0
3734	0	0	0
3735	240	233	236
3736	238	228	233
3737	240	226	233
3738	241	224	233
3739	237	217	229
3740	241	216	232
3741	248	215	237
3742	242	201	230
3743	230	187	223
3744	228	186	226
3745	248	216	247
3746	236	206	234
3747	0	0	0
3748	0	0	0
3749	0	0	0
3750	0	0	0
3751	0	0	0
3752	0	0	0
3753	0	0	0
3754	0	0	0
3755	0	0	0
3756	0	0	0
3757	0	0	0
3758	0	0	0
3759	0	0	0
3760	0	0	0
3761	0	0	0
3762	0	0	0
3763	0	0	0
3764	0	0	0
3765	0	0	0
3766	0	0	0
3767	0	0	0
3768	0	0	0
3769	0	0	0
3770	0	0	0
3771	0	0	0
3772	0	0	0
3773	0	0	0
3774	0	0	0
3775	0	0	0
3776	0	0	0
3777	237	224	231
3778	241	224	233
3779	241	221	232
3780	237	216	229
3781	241	216	234
3782	244	208	234
3783	237	194	228
3784	235	196	231
3785	233	195	232
3786	238	199	237
3787	227	190	227
3788	0	0	0
3789	0	0	0
3790	0	0	0
3791	0	0	0
3792	0	0	0
3793	0	0	0
3794	0	0	0
3795	0	0	0
3796	0	0	0
3797	0	0	0
3798	0	0	0
3799	0	0	0
3800	0	0	0
3801	0	0	0
3802	0	0	0
3803	0	0	0
3804	0	0	0
3805	0	0	0
3806	0	0	0
3807	0	0	0
3808	0	0	0
3809	0	0	0
3810	0	0	0
3811	0	0	0
3812	0	0	0
3813	0	0	0
3814	0	0	0
3815	0	0	0
3816	0	0	0
3817	0	0	0
3818	245	230	236
3819	245	228	236
3820	241	221	232
3821	238	216	230
3822	241	214	234
3823	241	205	233
3824	240	199	232
3825	243	203	237
3826	235	193	232
3827	236	196	235
3828	227	189	229
3829	0	0	0
3830	0	0	0
3831	0	0	0
3832	0	0	0
3833	0	0	0
3834	0	0	0
3835	0	0	0
3836	0	0	0
3837	0	0	0
3838	0	0	0
3839	0	0	0
3840	0	0	0
3841	0	0	0
3842	0	0	0
3843	0	0	0
3844	0	0	0
3845	0	0	0
3846	0	0	0
3847	0	0	0
3848	0	0	0
3849	0	0	0
3850	0	0	0
3851	0	0	0
3852	0	0	0
3853	0	0	0
3854	0	0	0
3855	0	0	0
3856	0	0	0
3857	0	0	0
3858	244	229	234
3859	246	232	236
3860	243	225	232
3861	241	219	231
3862	242	217	233
3863	243	214	234
3864	240	207	232
3865	237	200	230
3866	237	196	230
3867	231	187	227
3868	236	193	234
3869	226	187	229
3870	0	0	0
3871	0	0	0
3872	0	0	0
3873	0	0	0
3874	0	0	0
3875	0	0	0
3876	0	0	0
3877	0	0	0
3878	0	0	0
3879	0	0	0
3880	0	0	0
3881	0	0	0
3882	0	0	0
3883	0	0	0
3884	0	0	0
3885	0	0	0
3886	0	0	0
3887	0	0	0
3888	0	0	0
3889	0	0	0
3890	0	0	0
3891	0	0	0
3892	0	0	0
3893	0	0	0
3894	0	0	0
3895	0	0	0
3896	0	0	0
3897	0	0	0
3898	0	0	0
3899	238	227	232
3900	242	230	234
3901	241	225	231
3902	244	221	233
3903	250	222	238
3904	243	210	231
3905	230	197	223
3906	237	206	231
3907	240	204	234
3908	234	191	229
3909	242	200	239
3910	229	187	230
3911	0	0	0
3912	0	0	0
3913	0	0	0
3914	0	0	0
3915	0	0	0
3916	0	0	0
3917	0	0	0
3918	0	0	0
3919	0	0	0
3920	0	0	0
3921	0	0	0
3922	0	0	0
3923	0	0	0
3924	0	0	0
3925	0	0	0
3926	0	0	0
3927	0	0	0
3928	0	0	0
3929	0	0	0
3930	0	0	0
3931	0	0	0
3932	0	0	0
3933	0	0	0
3934	0	0	0
3935	0	0	0
3936	0	0	0
3937	0	0	0
3938	0	0	0
3939	238	225	232
3940	240	229	235
3941	243	233	236
3942	240	225	232
3943	242	221	233
3944	244	215	232
3945	238	203	226
3946	239	209	232
3947	246	218	239
3948	243	207	236
3949	238	195	233
3950	242	197	238
3951	228	184	229
3952	0	0	0
3953	0	0	0
3954	0	0	0
3955	0	0	0
3956	0	0	0
3957	0	0	0
3958	0	0	0
3959	0	0	0
3960	0	0	0
3961	0	0	0
3962	0	0	0
3963	0	0	0
3964	0	0	0
3965	0	0	0
3966	0	0	0
3967	0	0	0
3968	0	0	0
3969	0	0	0
3970	0	0	0
3971	0	0	0
3972	0	0	0
3973	0	0	0
3974	0	0	0
3975	0	0	0
3976	0	0	0
3977	0	0	0
3978	0	0	0
3979	0	0	0
3980	240	225	233
3981	244	231	237
3982	243	229	236
3983	235	219	228
3984	236	218	230
3985	234	209	227
3986	237	208	229
3987	250	220	241
3988	245	208	234
3989	238	195	229
3990	238	193	232
3991	241	195	236
3992	230	187	229
3993	0	0	0
3994	0	0	0
3995	0	0	0
3996	0	0	0
3997	0	0	0
3998	0	0	0
3999	0	0	0
4000	0	0	0
4001	0	0	0
4002	0	0	0
4003	0	0	0
4004	0	0	0
4005	0	0	0
4006	0	0	0
4007	0	0	0
4008	0	0	0
4009	0	0	0
4010	0	0	0
4011	0	0	0
4012	0	0	0
4013	0	0	0
4014	0	0	0
4015	0	0	0
4016	0	0	0
4017	0	0	0
4018	0	0	0
4019	0	0	0
4020	244	235	238
4021	237	222	230
4022	243	226	235
4023	242	225	236
4024	237	221	233
4025	237	219	232
4026	238	216	232
4027	243	216	237
4028	247	209	237
4029	242	197	231
4030	240	195	231
4031	238	192	231
4032	238	194	233
4033	227	185	225
4034	0	0	0
4035	0	0	0
4036	0	0	0
4037	0	0	0
4038	0	0	0
4039	0	0	0
4040	0	0	0
4041	0	0	0
4042	0	0	0
4043	0	0	0
4044	0	0	0
4045	0	0	0
4046	0	0	0
4047	0	0	0
4048	0	0	0
4049	0	0	0
4050	0	0	0
4051	0	0	0
4052	0	0	0
4053	0	0	0
4054	0	0	0
4055	0	0	0
4056	0	0	0
4057	0	0	0
4058	0	0	0
4059	0	0	0
4060	251	250	245
4061	243	237	237
4062	241	229	234
4063	251	236	242
4064	243	224	235
4065	237	219	232
4066	235	215	230
4067	240	214	232
4068	250	219	240
4069	252	212	240
4070	243	195	231
4071	240	193	231
4072	237	192	230
4073	233	192	229
4074	227	191	227
4075	0	0	0
4076	0	0	0
4077	0	0	0
4078	0	0	0
4079	0	0	0
4080	0	0	0
4081	0	0	0
4082	0	0	0
4083	0	0	0
4084	0	0	0
4085	0	0	0
4086	0	0	0
4087	0	0	0
4088	0	0	0
4089	0	0	0
4090	0	0	0
4091	0	0	0
4092	0	0	0
4093	0	0	0
4094	0	0	0
4095	0	0	0
4096	0	0	0
4097	0	0	0
4098	0	0	0
4099	0	0	0
4100	0	0	0
4101	251	253	243
4102	245	243	237
4103	245	236	237
4104	246	231	237
4105	239	218	230
4106	234	214	228
4107	235	212	229
4108	243	215	234
4109	252	219	239
4110	246	205	232
4111	237	189	225
4112	240	194	230
4113	236	193	230
4114	237	200	234
4115	232	200	232
4116	238	216	239
4117	0	0	0
4118	0	0	0
4119	0	0	0
4120	0	0	0
4121	0	0	0
4122	0	0	0
4123	0	0	0
4124	0	0	0
4125	0	0	0
4126	0	0	0
4127	0	0	0
4128	0	0	0
4129	0	0	0
4130	0	0	0
4131	0	0	0
4132	0	0	0
4133	0	0	0
4134	0	0	0
4135	0	0	0
4136	0	0	0
4137	0	0	0
4138	0	0	0
4139	0	0	0
4140	0	0	0
4141	0	0	0
4142	247	250	240
4143	243	240	235
4144	240	231	233
4145	239	224	231
4146	237	218	229
4147	236	216	229
4148	242	219	234
4149	250	222	239
4150	248	214	234
4151	236	196	224
4152	236	194	226
4153	242	201	235
4154	233	191	228
4155	234	197	232
4156	229	195	229
4157	239	213	237
4158	236	214	230
4159	0	0	0
4160	0	0	0
4161	0	0	0
4162	0	0	0
4163	0	0	0
4164	0	0	0
4165	0	0	0
4166	0	0	0
4167	0	0	0
4168	0	0	0
4169	0	0	0
4170	0	0	0
4171	0	0	0
4172	0	0	0
4173	0	0	0
4174	0	0	0
4175	0	0	0
4176	0	0	0
4177	0	0	0
4178	0	0	0
4179	0	0	0
4180	0	0	0
4181	0	0	0
4182	0	0	0
4183	0	0	0
4184	240	236	234
4185	236	226	231
4186	236	223	232
4187	235	218	230
4188	239	221	233
4189	243	222	234
4190	240	213	229
4191	236	204	225
4192	237	203	227
4193	238	201	230
4194	236	196	230
4195	228	187	225
4196	232	193	231
4197	229	191	227
4198	236	202	232
4199	233	203	227
4200	0	0	0
4201	0	0	0
4202	0	0	0
4203	0	0	0
4204	0	0	0
4205	0	0	0
4206	0	0	0
4207	0	0	0
4208	0	0	0
4209	0	0	0
4210	0	0	0
4211	0	0	0
4212	0	0	0
4213	0	0	0
4214	0	0	0
4215	0	0	0
4216	0	0	0
4217	0	0	0
4218	0	0	0
4219	0	0	0
4220	0	0	0
4221	0	0	0
4222	0	0	0
4223	0	0	0
4224	0	0	0
4225	0	0	0
4226	0	0	0
4227	0	0	0
4228	236	223	233
4229	241	226	236
4230	236	218	230
4231	226	205	220
4232	231	208	225
4233	240	212	232
4234	235	200	228
4235	231	194	227
4236	234	196	231
4237	245	206	241
4238	233	189	228
4239	238	199	232
4240	237	204	231
4241	0	0	0
4242	0	0	0
4243	0	0	0
4244	0	0	0
4245	0	0	0
4246	0	0	0
4247	0	0	0
4248	0	0	0
4249	0	0	0
4250	0	0	0
4251	0	0	0
4252	0	0	0
4253	0	0	0
4254	0	0	0
4255	0	0	0
4256	0	0	0
4257	0	0	0
4258	0	0	0
4259	0	0	0
4260	0	0	0
4261	0	0	0
4262	0	0	0
4263	0	0	0
4264	0	0	0
4265	0	0	0
4266	0	0	0
4267	0	0	0
4268	0	0	0
4269	0	0	0
4270	237	223	232
4271	232	215	229
4272	231	215	229
4273	237	219	232
4274	241	213	233
4275	237	202	230
4276	238	203	234
4277	242	204	237
4278	243	199	235
4279	233	183	225
4280	242	199	235
4281	240	205	234
4282	0	0	0
4283	0	0	0
4284	0	0	0
4285	0	0	0
4286	0	0	0
4287	0	0	0
4288	0	0	0
4289	0	0	0
4290	0	0	0
4291	0	0	0
4292	0	0	0
4293	0	0	0
4294	0	0	0
4295	0	0	0
4296	0	0	0
4297	0	0	0
4298	0	0	0
4299	0	0	0
4300	0	0	0
4301	0	0	0
4302	0	0	0
4303	0	0	0
4304	0	0	0
4305	0	0	0
4306	0	0	0
4307	0	0	0
4308	0	0	0
4309	0	0	0
4310	0	0	0
4311	0	0	0
4312	239	226	235
4313	243	228	239
4314	237	213	229
4315	239	206	228
4316	240	200	230
4317	241	201	233
4318	245	203	236
4319	244	196	233
4320	235	181	225
4321	246	199	237
4322	234	193	228
4323	0	0	0
4324	0	0	0
4325	0	0	0
4326	0	0	0
4327	0	0	0
4328	0	0	0
4329	0	0	0
4330	0	0	0
4331	0	0	0
4332	0	0	0
4333	0	0	0
4334	0	0	0
4335	0	0	0
4336	0	0	0
4337	0	0	0
4338	0	0	0
4339	0	0	0
4340	0	0	0
4341	0	0	0
4342	0	0	0
4343	0	0	0
4344	0	0	0
4345	0	0	0
4346	0	0	0
4347	0	0	0
4348	0	0	0
4349	0	0	0
4350	0	0	0
4351	0	0	0
4352	0	0	0
4353	250	238	242
4354	243	222	234
4355	237	207	228
4356	242	206	231
4357	242	200	229
4358	245	201	232
4359	249	203	236
4360	245	194	232
4361	236	179	224
4362	240	188	231
4363	228	182	222
4364	0	0	0
4365	0	0	0
4366	0	0	0
4367	0	0	0
4368	0	0	0
4369	0	0	0
4370	0	0	0
4371	0	0	0
4372	0	0	0
4373	0	0	0
4374	0	0	0
4375	0	0	0
4376	0	0	0
4377	0	0	0
4378	0	0	0
4379	0	0	0
4380	0	0	0
4381	0	0	0
4382	0	0	0
4383	0	0	0
4384	0	0	0
4385	0	0	0
4386	0	0	0
4387	0	0	0
4388	0	0	0
4389	0	0	0
4390	0	0	0
4391	0	0	0
4392	0	0	0
4393	0	0	0
4394	249	230	237
4395	242	215	230
4396	238	202	226
4397	239	199	228
4398	242	198	228
4399	248	201	233
4400	247	195	232
4401	242	185	228
4402	238	180	226
4403	242	188	233
4404	227	178	222
4405	0	0	0
4406	0	0	0
4407	0	0	0
4408	0	0	0
4409	0	0	0
4410	0	0	0
4411	0	0	0
4412	0	0	0
4413	0	0	0
4414	0	0	0
4415	0	0	0
4416	0	0	0
4417	0	0	0
4418	0	0	0
4419	0	0	0
4420	0	0	0
4421	0	0	0
4422	0	0	0
4423	0	0	0
4424	0	0	0
4425	0	0	0
4426	0	0	0
4427	0	0	0
4428	0	0	0
4429	0	0	0
4430	0	0	0
4431	0	0	0
4432	0	0	0
4433	0	0	0
4434	0	0	0
4435	243	220	231
4436	239	207	226
4437	234	194	223
4438	237	195	227
4439	240	194	228
4440	243	191	228
4441	242	185	227
4442	242	184	229
4443	239	179	227
4444	242	184	232
4445	228	174	222
4446	0	0	0
4447	0	0	0
4448	0	0	0
4449	0	0	0
4450	0	0	0
4451	0	0	0
4452	0	0	0
4453	0	0	0
4454	0	0	0
4455	0	0	0
4456	0	0	0
4457	0	0	0
4458	0	0	0
4459	0	0	0
4460	0	0	0
4461	0	0	0
4462	0	0	0
4463	0	0	0
4464	0	0	0
4465	0	0	0
4466	0	0	0
4467	0	0	0
4468	0	0	0
4469	0	0	0
4470	0	0	0
4471	0	0	0
4472	0	0	0
4473	0	0	0
4474	0	0	0
4475	242	226	233
4476	243	220	232
4477	238	207	227
4478	237	201	227
4479	240	202	230
4480	242	198	230
4481	246	195	232
4482	245	188	230
4483	245	187	232
4484	239	177	227
4485	245	184	233
4486	233	175	224
4487	0	0	0
4488	0	0	0
4489	0	0	0
4490	0	0	0
4491	0	0	0
4492	0	0	0
4493	0	0	0
4494	0	0	0
4495	0	0	0
4496	0	0	0
4497	0	0	0
4498	0	0	0
4499	0	0	0
4500	0	0	0
4501	0	0	0
4502	0	0	0
4503	0	0	0
4504	0	0	0
4505	0	0	0
4506	0	0	0
4507	0	0	0
4508	0	0	0
4509	0	0	0
4510	0	0	0
4511	0	0	0
4512	0	0	0
4513	0	0	0
4514	0	0	0
4515	239	231	237
4516	240	225	233
4517	240	218	230
4518	237	211	226
4519	236	204	225
4520	239	202	227
4521	244	201	229
4522	250	198	232
4523	249	192	231
4524	246	185	229
4525	240	175	225
4526	246	181	231
4527	234	171	222
4528	0	0	0
4529	0	0	0
4530	0	0	0
4531	0	0	0
4532	0	0	0
4533	0	0	0
4534	0	0	0
4535	0	0	0
4536	0	0	0
4537	0	0	0
4538	0	0	0
4539	0	0	0
4540	0	0	0
4541	0	0	0
4542	0	0	0
4543	0	0	0
4544	0	0	0
4545	0	0	0
4546	0	0	0
4547	0	0	0
4548	0	0	0
4549	0	0	0
4550	0	0	0
4551	0	0	0
4552	0	0	0
4553	0	0	0
4554	0	0	0
4555	0	0	0
4556	245	237	241
4557	242	228	236
4558	234	214	226
4559	226	204	220
4560	232	205	223
4561	243	208	228
4562	249	204	231
4563	255	202	234
4564	248	183	225
4565	244	177	224
4566	243	174	225
4567	248	180	231
4568	233	168	220
4569	232	184	225
4570	0	0	0
4571	0	0	0
4572	0	0	0
4573	0	0	0
4574	0	0	0
4575	0	0	0
4576	0	0	0
4577	0	0	0
4578	0	0	0
4579	0	0	0
4580	0	0	0
4581	0	0	0
4582	0	0	0
4583	0	0	0
4584	0	0	0
4585	0	0	0
4586	0	0	0
4587	0	0	0
4588	0	0	0
4589	0	0	0
4590	0	0	0
4591	0	0	0
4592	0	0	0
4593	0	0	0
4594	0	0	0
4595	0	0	0
4596	0	0	0
4597	246	239	243
4598	241	226	236
4599	232	212	227
4600	230	210	226
4601	236	212	228
4602	247	210	231
4603	254	207	233
4604	253	193	228
4605	244	174	219
4606	245	175	224
4607	244	172	225
4608	247	175	229
4609	233	164	219
4610	239	189	231
4611	242	207	235
4612	0	0	0
4613	0	0	0
4614	0	0	0
4615	0	0	0
4616	0	0	0
4617	0	0	0
4618	0	0	0
4619	0	0	0
4620	0	0	0
4621	0	0	0
4622	0	0	0
4623	0	0	0
4624	0	0	0
4625	0	0	0
4626	0	0	0
4627	0	0	0
4628	0	0	0
4629	0	0	0
4630	0	0	0
4631	0	0	0
4632	0	0	0
4633	0	0	0
4634	0	0	0
4635	0	0	0
4636	0	0	0
4637	0	0	0
4638	241	234	238
4639	238	223	233
4640	235	214	229
4641	234	213	229
4642	238	211	229
4643	250	209	232
4644	253	201	230
4645	248	185	223
4646	244	173	219
4647	246	175	224
4648	243	170	225
4649	246	173	229
4650	237	166	222
4651	250	194	237
4652	240	191	229
4653	0	0	0
4654	0	0	0
4655	0	0	0
4656	0	0	0
4657	0	0	0
4658	0	0	0
4659	0	0	0
4660	0	0	0
4661	0	0	0
4662	0	0	0
4663	0	0	0
4664	0	0	0
4665	0	0	0
4666	0	0	0
4667	0	0	0
4668	0	0	0
4669	0	0	0
4670	0	0	0
4671	0	0	0
4672	0	0	0
4673	0	0	0
4674	0	0	0
4675	0	0	0
4676	0	0	0
4677	0	0	0
4678	0	0	0
4679	0	0	0
4680	241	225	233
4681	237	215	228
4682	233	209	225
4683	238	207	228
4684	247	202	229
4685	249	192	224
4686	249	184	222
4687	245	173	218
4688	247	173	223
4689	245	169	226
4690	249	174	231
4691	241	167	223
4692	244	177	227
4693	235	175	221
4694	0	0	0
4695	0	0	0
4696	0	0	0
4697	0	0	0
4698	0	0	0
4699	0	0	0
4700	0	0	0
4701	0	0	0
4702	0	0	0
4703	0	0	0
4704	0	0	0
4705	0	0	0
4706	0	0	0
4707	0	0	0
4708	0	0	0
4709	0	0	0
4710	0	0	0
4711	0	0	0
4712	0	0	0
4713	0	0	0
4714	0	0	0
4715	0	0	0
4716	0	0	0
4717	0	0	0
4718	0	0	0
4719	0	0	0
4720	0	0	0
4721	0	0	0
4722	243	219	230
4723	237	212	227
4724	245	213	233
4725	252	207	233
4726	251	193	224
4727	252	185	222
4728	249	174	219
4729	252	175	225
4730	252	172	229
4731	255	177	235
4732	244	162	222
4733	247	172	227
4734	240	172	223
4735	0	0	0
4736	0	0	0
4737	0	0	0
4738	0	0	0
4739	0	0	0
4740	0	0	0
4741	0	0	0
4742	0	0	0
4743	0	0	0
4744	0	0	0
4745	0	0	0
4746	0	0	0
4747	0	0	0
4748	0	0	0
4749	0	0	0
4750	0	0	0
4751	0	0	0
4752	0	0	0
4753	0	0	0
4754	0	0	0
4755	0	0	0
4756	0	0	0
4757	0	0	0
4758	0	0	0
4759	0	0	0
4760	0	0	0
4761	0	0	0
4762	244	225	234
4763	244	220	232
4764	244	217	231
4765	251	218	234
4766	252	205	229
4767	251	191	222
4768	253	185	222
4769	250	174	219
4770	255	175	225
4771	255	171	229
4772	252	166	229
4773	241	153	220
4774	244	164	225
4775	237	165	219
4776	248	190	230
4777	248	206	232
4778	0	0	0
4779	0	0	0
4780	0	0	0
4781	0	0	0
4782	0	0	0
4783	0	0	0
4784	0	0	0
4785	0	0	0
4786	0	0	0
4787	0	0	0
4788	0	0	0
4789	0	0	0
4790	0	0	0
4791	0	0	0
4792	0	0	0
4793	0	0	0
4794	0	0	0
4795	0	0	0
4796	0	0	0
4797	0	0	0
4798	0	0	0
4799	0	0	0
4800	0	0	0
4801	0	0	0
4802	241	231	235
4803	240	226	233
4804	241	219	230
4805	248	220	233
4806	253	216	232
4807	251	202	225
4808	251	189	221
4809	254	184	223
4810	246	166	215
4811	250	167	221
4812	255	170	228
4813	253	166	228
4814	245	157	223
4815	247	168	228
4816	240	167	223
4817	252	193	235
4818	239	190	226
4819	236	202	226
4820	0	0	0
4821	0	0	0
4822	0	0	0
4823	0	0	0
4824	0	0	0
4825	0	0	0
4826	0	0	0
4827	0	0	0
4828	0	0	0
4829	0	0	0
4830	0	0	0
4831	0	0	0
4832	0	0	0
4833	0	0	0
4834	0	0	0
4835	0	0	0
4836	0	0	0
4837	0	0	0
4838	0	0	0
4839	0	0	0
4840	0	0	0
4841	0	0	0
4842	0	0	0
4843	244	234	237
4844	239	226	232
4845	240	220	230
4846	244	215	229
4847	250	212	229
4848	251	200	225
4849	251	188	222
4850	252	177	222
4851	244	160	215
4852	252	167	224
4853	255	170	229
4854	255	168	230
4855	248	159	223
4856	251	170	230
4857	245	170	226
4858	243	177	228
4859	230	174	221
4860	241	206	235
4861	255	243	250
4862	0	0	0
4863	0	0	0
4864	0	0	0
4865	0	0	0
4866	0	0	0
4867	0	0	0
4868	0	0	0
4869	0	0	0
4870	0	0	0
4871	0	0	0
4872	0	0	0
4873	0	0	0
4874	0	0	0
4875	0	0	0
4876	0	0	0
4877	0	0	0
4878	0	0	0
4879	0	0	0
4880	0	0	0
4881	0	0	0
4882	0	0	0
4883	0	0	0
4884	245	235	236
4885	241	226	232
4886	240	220	230
4887	241	213	227
4888	250	214	230
4889	255	204	228
4890	252	185	222
4891	252	175	222
4892	246	160	217
4893	254	168	226
4894	255	169	229
4895	255	167	228
4896	248	154	221
4897	255	167	230
4898	246	163	224
4899	241	169	225
4900	234	176	225
4901	243	207	238
4902	251	234	244
4903	0	0	0
4904	0	0	0
4905	0	0	0
4906	0	0	0
4907	0	0	0
4908	0	0	0
4909	0	0	0
4910	0	0	0
4911	0	0	0
4912	0	0	0
4913	0	0	0
4914	0	0	0
4915	0	0	0
4916	0	0	0
4917	0	0	0
4918	0	0	0
4919	0	0	0
4920	0	0	0
4921	0	0	0
4922	0	0	0
4923	0	0	0
4924	0	0	0
4925	245	234	236
4926	242	226	232
4927	241	219	230
4928	241	214	228
4929	249	215	229
4930	248	196	221
4931	245	178	216
4932	248	170	218
4933	243	157	214
4934	254	165	224
4935	255	168	226
4936	255	162	225
4937	248	151	221
4938	254	160	228
4939	243	155	219
4940	243	169	225
4941	236	177	226
4942	242	203	235
4943	250	229	240
4944	0	0	0
4945	0	0	0
4946	0	0	0
4947	0	0	0
4948	0	0	0
4949	0	0	0
4950	0	0	0
4951	0	0	0
4952	0	0	0
4953	0	0	0
4954	0	0	0
4955	0	0	0
4956	0	0	0
4957	0	0	0
4958	0	0	0
4959	0	0	0
4960	0	0	0
4961	0	0	0
4962	0	0	0
4963	0	0	0
4964	0	0	0
4965	0	0	0
4966	246	236	237
4967	244	228	234
4968	241	220	231
4969	240	215	227
4970	247	215	229
4971	245	196	221
4972	245	181	219
4973	249	175	221
4974	248	164	219
4975	255	174	230
4976	253	159	221
4977	252	155	221
4978	249	149	222
4979	254	158	230
4980	236	142	214
4981	234	156	219
4982	236	174	227
4983	246	202	237
4984	251	222	238
4985	0	0	0
4986	0	0	0
4987	0	0	0
4988	0	0	0
4989	0	0	0
4990	0	0	0
4991	0	0	0
4992	0	0	0
4993	0	0	0
4994	0	0	0
4995	0	0	0
4996	0	0	0
4997	0	0	0
4998	0	0	0
4999	0	0	0
5000	0	0	0
5001	0	0	0
5002	0	0	0
5003	0	0	0
5004	0	0	0
5005	0	0	0
5006	0	0	0
5007	0	0	0
5008	242	227	232
5009	240	220	229
5010	240	215	228
5011	248	216	231
5012	248	201	226
5013	247	186	223
5014	252	180	227
5015	252	171	226
5016	254	164	226
5017	247	150	217
5018	248	149	219
5019	244	143	219
5020	239	140	218
5021	222	125	207
5022	229	150	221
5023	232	169	227
5024	243	193	236
5025	248	213	236
5026	0	0	0
5027	0	0	0
5028	0	0	0
5029	0	0	0
5030	0	0	0
5031	0	0	0
5032	0	0	0
5033	0	0	0
5034	0	0	0
5035	0	0	0
5036	0	0	0
5037	0	0	0
5038	0	0	0
5039	0	0	0
5040	0	0	0
5041	0	0	0
5042	0	0	0
5043	0	0	0
5044	0	0	0
5045	0	0	0
5046	0	0	0
5047	0	0	0
5048	0	0	0
5049	0	0	0
5050	242	225	232
5051	246	223	233
5052	248	213	231
5053	246	197	225
5054	246	184	224
5055	252	180	227
5056	254	172	228
5057	255	166	228
5058	240	140	214
5059	238	139	216
5060	238	141	219
5061	232	137	218
5062	226	138	218
5063	235	165	233
5064	236	176	235
5065	250	202	243
5066	243	204	232
5067	0	0	0
5068	0	0	0
5069	0	0	0
5070	0	0	0
5071	0	0	0
5072	0	0	0
5073	0	0	0
5074	0	0	0
5075	0	0	0
5076	0	0	0
5077	0	0	0
5078	0	0	0
5079	0	0	0
5080	0	0	0
5081	0	0	0
5082	0	0	0
5083	0	0	0
5084	0	0	0
5085	0	0	0
5086	0	0	0
5087	0	0	0
5088	0	0	0
5089	0	0	0
5090	0	0	0
5091	0	0	0
5092	244	219	229
5093	246	210	229
5094	244	195	225
5095	245	183	223
5096	255	181	229
5097	255	173	227
5098	247	154	221
5099	233	131	214
5100	240	142	226
5101	239	143	227
5102	241	153	233
5103	236	154	231
5104	241	171	238
5105	242	182	239
5106	244	192	237
5107	238	194	227
5108	0	0	0
5109	0	0	0
5110	0	0	0
5111	0	0	0
5112	0	0	0
5113	0	0	0
5114	0	0	0
5115	0	0	0
5116	0	0	0
5117	0	0	0
5118	0	0	0
5119	0	0	0
5120	0	0	0
5121	0	0	0
5122	0	0	0
5123	0	0	0
5124	0	0	0
5125	0	0	0
5126	0	0	0
5127	0	0	0
5128	0	0	0
5129	0	0	0
5130	0	0	0
5131	0	0	0
5132	0	0	0
5133	242	216	227
5134	248	212	230
5135	244	196	225
5136	249	188	227
5137	255	188	235
5138	249	161	220
5139	238	141	213
5140	240	141	223
5141	249	152	237
5142	237	138	227
5143	240	147	232
5144	236	149	230
5145	244	168	239
5146	243	175	236
5147	240	182	231
5148	236	191	226
5149	0	0	0
5150	0	0	0
5151	0	0	0
5152	0	0	0
5153	0	0	0
5154	0	0	0
5155	0	0	0
5156	0	0	0
5157	0	0	0
5158	0	0	0
5159	0	0	0
5160	0	0	0
5161	0	0	0
5162	0	0	0
5163	0	0	0
5164	0	0	0
5165	0	0	0
5166	0	0	0
5167	0	0	0
5168	0	0	0
5169	0	0	0
5170	0	0	0
5171	0	0	0
5172	0	0	0
5173	0	0	0
5174	248	220	231
5175	252	214	231
5176	246	199	225
5177	250	191	226
5178	249	171	222
5179	237	145	211
5180	240	146	219
5181	241	145	225
5182	240	141	226
5183	226	126	216
5184	226	133	220
5185	225	137	222
5186	236	154	231
5187	236	162	228
5188	239	177	230
5189	235	187	226
5190	0	0	0
5191	0	0	0
5192	0	0	0
5193	0	0	0
5194	0	0	0
5195	0	0	0
5196	0	0	0
5197	0	0	0
5198	0	0	0
5199	0	0	0
5200	0	0	0
5201	0	0	0
5202	0	0	0
5203	0	0	0
5204	0	0	0
5205	0	0	0
5206	0	0	0
5207	0	0	0
5208	0	0	0
5209	0	0	0
5210	0	0	0
5211	0	0	0
5212	0	0	0
5213	0	0	0
5214	0	0	0
5215	251	219	232
5216	251	211	229
5217	244	195	223
5218	249	191	228
5219	245	170	222
5220	236	149	216
5221	240	151	224
5222	237	146	225
5223	236	142	225
5224	221	127	215
5225	217	133	218
5226	232	157	234
5227	250	178	247
5228	240	167	232
5229	243	183	235
5230	238	187	230
5231	0	0	0
5232	0	0	0
5233	0	0	0
5234	0	0	0
5235	0	0	0
5236	0	0	0
5237	0	0	0
5238	0	0	0
5239	0	0	0
5240	0	0	0
5241	0	0	0
5242	0	0	0
5243	0	0	0
5244	0	0	0
5245	0	0	0
5246	0	0	0
5247	0	0	0
5248	0	0	0
5249	0	0	0
5250	0	0	0
5251	0	0	0
5252	0	0	0
5253	0	0	0
5254	0	0	0
5255	0	0	0
5256	250	216	231
5257	252	208	231
5258	249	198	230
5259	252	193	235
5260	245	174	228
5261	234	152	220
5262	236	151	225
5263	234	146	225
5264	234	143	227
5265	220	129	217
5266	229	153	232
5267	243	176	245
5268	248	176	243
5269	239	166	231
5270	240	178	234
5271	236	184	231
5272	0	0	0
5273	0	0	0
5274	0	0	0
5275	0	0	0
5276	0	0	0
5277	0	0	0
5278	0	0	0
5279	0	0	0
5280	0	0	0
5281	0	0	0
5282	0	0	0
5283	0	0	0
5284	0	0	0
5285	0	0	0
5286	0	0	0
5287	0	0	0
5288	0	0	0
5289	0	0	0
5290	0	0	0
5291	0	0	0
5292	0	0	0
5293	0	0	0
5294	0	0	0
5295	0	0	0
5296	246	225	232
5297	253	219	234
5298	253	208	232
5299	251	198	232
5300	250	190	233
5301	237	167	223
5302	237	162	225
5303	242	163	231
5304	239	155	230
5305	240	153	232
5306	233	147	228
5307	246	173	244
5308	244	173	241
5309	245	171	237
5310	243	171	233
5311	244	184	237
5312	234	183	231
5313	0	0	0
5314	0	0	0
5315	0	0	0
5316	0	0	0
5317	0	0	0
5318	0	0	0
5319	0	0	0
5320	0	0	0
5321	0	0	0
5322	0	0	0
5323	0	0	0
5324	0	0	0
5325	0	0	0
5326	0	0	0
5327	0	0	0
5328	0	0	0
5329	0	0	0
5330	0	0	0
5331	0	0	0
5332	0	0	0
5333	0	0	0
5334	0	0	0
5335	0	0	0
5336	240	225	230
5337	245	226	234
5338	245	213	229
5339	245	201	226
5340	246	194	226
5341	245	185	226
5342	244	180	228
5343	245	176	232
5344	247	173	235
5345	244	165	232
5346	248	168	237
5347	243	162	232
5348	243	166	235
5349	242	168	235
5350	251	177	240
5351	246	177	235
5352	239	180	233
5353	230	179	228
5354	0	0	0
5355	0	0	0
5356	0	0	0
5357	0	0	0
5358	0	0	0
5359	0	0	0
5360	0	0	0
5361	0	0	0
5362	0	0	0
5363	0	0	0
5364	0	0	0
5365	0	0	0
5366	0	0	0
5367	0	0	0
5368	0	0	0
5369	0	0	0
5370	0	0	0
5371	0	0	0
5372	0	0	0
5373	0	0	0
5374	0	0	0
5375	0	0	0
5376	245	235	237
5377	243	232	235
5378	241	223	232
5379	235	207	224
5380	241	206	228
5381	246	201	229
5382	244	188	225
5383	247	184	229
5384	245	174	229
5385	246	170	232
5386	240	159	226
5387	241	160	229
5388	238	158	227
5389	240	163	230
5390	246	173	237
5391	254	182	244
5392	232	157	224
5393	223	160	221
5394	228	183	231
5395	0	0	0
5396	0	0	0
5397	0	0	0
5398	0	0	0
5399	0	0	0
5400	0	0	0
5401	0	0	0
5402	0	0	0
5403	0	0	0
5404	0	0	0
5405	0	0	0
5406	0	0	0
5407	0	0	0
5408	0	0	0
5409	0	0	0
5410	0	0	0
5411	0	0	0
5412	0	0	0
5413	0	0	0
5414	0	0	0
5415	0	0	0
5416	0	0	0
5417	0	0	0
5418	240	228	232
5419	237	220	229
5420	236	214	228
5421	242	213	232
5422	244	202	230
5423	243	190	226
5424	246	183	229
5425	244	173	229
5426	243	168	230
5427	237	156	226
5428	240	160	230
5429	237	158	228
5430	242	167	234
5431	248	176	239
5432	238	162	230
5433	216	138	216
5434	221	164	230
5435	0	0	0
5436	0	0	0
5437	0	0	0
5438	0	0	0
5439	0	0	0
5440	0	0	0
5441	0	0	0
5442	0	0	0
5443	0	0	0
5444	0	0	0
5445	0	0	0
5446	0	0	0
5447	0	0	0
5448	0	0	0
5449	0	0	0
5450	0	0	0
5451	0	0	0
5452	0	0	0
5453	0	0	0
5454	0	0	0
5455	0	0	0
5456	0	0	0
5457	0	0	0
5458	0	0	0
5459	0	0	0
5460	241	228	234
5461	240	222	233
5462	240	214	231
5463	240	202	228
5464	244	195	229
5465	248	189	233
5466	240	170	227
5467	239	165	229
5468	238	160	230
5469	242	165	235
5470	236	159	230
5471	240	168	235
5472	242	172	237
5473	231	157	228
5474	218	150	225
5475	222	174	237
5476	0	0	0
5477	0	0	0
5478	0	0	0
5479	0	0	0
5480	0	0	0
5481	0	0	0
5482	0	0	0
5483	0	0	0
5484	0	0	0
5485	0	0	0
5486	0	0	0
5487	0	0	0
5488	0	0	0
5489	0	0	0
5490	0	0	0
5491	0	0	0
5492	0	0	0
5493	0	0	0
5494	0	0	0
5495	0	0	0
5496	0	0	0
5497	0	0	0
5498	0	0	0
5499	0	0	0
5500	0	0	0
5501	0	0	0
5502	246	227	237
5503	245	218	233
5504	242	207	230
5505	244	199	231
5506	239	183	227
5507	232	165	224
5508	238	168	233
5509	235	162	231
5510	232	160	230
5511	226	153	225
5512	228	159	229
5513	231	164	232
5514	229	164	232
5515	215	155	224
5516	220	182	237
5517	0	0	0
5518	0	0	0
5519	0	0	0
5520	0	0	0
5521	0	0	0
5522	0	0	0
5523	0	0	0
5524	0	0	0
5525	0	0	0
5526	0	0	0
5527	0	0	0
5528	0	0	0
5529	0	0	0
5530	0	0	0
5531	0	0	0
5532	0	0	0
5533	0	0	0
5534	0	0	0
5535	0	0	0
5536	0	0	0
5537	0	0	0
5538	0	0	0
5539	0	0	0
5540	0	0	0
5541	0	0	0
5542	246	233	238
5543	252	228	238
5544	245	212	229
5545	235	197	221
5546	238	198	227
5547	231	181	223
5548	229	171	227
5549	238	175	238
5550	228	162	230
5551	218	156	225
5552	223	165	231
5553	230	173	237
5554	229	173	237
5555	223	171	234
5556	212	165	227
5557	224	195	242
5558	0	0	0
5559	0	0	0
5560	0	0	0
5561	0	0	0
5562	0	0	0
5563	0	0	0
5564	0	0	0
5565	0	0	0
5566	0	0	0
5567	0	0	0
5568	0	0	0
5569	0	0	0
5570	0	0	0
5571	0	0	0
5572	0	0	0
5573	0	0	0
5574	0	0	0
5575	0	0	0
5576	0	0	0
5577	0	0	0
5578	0	0	0
5579	0	0	0
5580	0	0	0
5581	0	0	0
5582	0	0	0
5583	245	230	236
5584	246	218	231
5585	241	203	222
5586	242	203	226
5587	244	204	232
5588	237	192	231
5589	232	180	231
5590	230	175	234
5591	220	162	229
5592	219	170	234
5593	225	179	238
5594	233	185	242
5595	231	184	241
5596	224	183	238
5597	214	178	233
5598	226	202	244
5599	233	219	244
5600	0	0	0
5601	0	0	0
5602	0	0	0
5603	0	0	0
5604	0	0	0
5605	0	0	0
5606	0	0	0
5607	0	0	0
5608	0	0	0
5609	0	0	0
5610	0	0	0
5611	0	0	0
5612	0	0	0
5613	0	0	0
5614	0	0	0
5615	0	0	0
5616	0	0	0
5617	0	0	0
5618	0	0	0
5619	0	0	0
5620	0	0	0
5621	0	0	0
5622	0	0	0
5623	0	0	0
5624	246	232	238
5625	243	218	231
5626	243	207	226
5627	253	212	235
5628	243	194	229
5629	231	179	225
5630	224	173	226
5631	214	163	224
5632	213	167	230
5633	218	177	238
5634	221	181	238
5635	232	187	242
5636	226	180	236
5637	217	179	232
5638	213	181	232
5639	228	207	244
5640	231	218	240
5641	0	0	0
5642	0	0	0
5643	0	0	0
5644	0	0	0
5645	0	0	0
5646	0	0	0
5647	0	0	0
5648	0	0	0
5649	0	0	0
5650	0	0	0
5651	0	0	0
5652	0	0	0
5653	0	0	0
5654	0	0	0
5655	0	0	0
5656	0	0	0
5657	0	0	0
5658	0	0	0
5659	0	0	0
5660	0	0	0
5661	0	0	0
5662	0	0	0
5663	0	0	0
5664	0	0	0
5665	244	232	237
5666	242	219	232
5667	242	208	229
5668	242	196	228
5669	232	179	223
5670	228	175	226
5671	219	167	225
5672	218	175	233
5673	218	178	237
5674	222	185	242
5675	226	188	243
5676	232	189	243
5677	226	182	236
5678	223	188	237
5679	219	190	236
5680	230	209	244
5681	235	220	243
5682	0	0	0
5683	0	0	0
5684	0	0	0
5685	0	0	0
5686	0	0	0
5687	0	0	0
5688	0	0	0
5689	0	0	0
5690	0	0	0
5691	0	0	0
5692	0	0	0
5693	0	0	0
5694	0	0	0
5695	0	0	0
5696	0	0	0
5697	0	0	0
5698	0	0	0
5699	0	0	0
5700	0	0	0
5701	0	0	0
5702	0	0	0
5703	0	0	0
5704	0	0	0
5705	0	0	0
5706	246	238	240
5707	244	225	236
5708	239	209	231
5709	235	195	228
5710	234	189	231
5711	233	188	236
5712	225	178	233
5713	227	187	242
5714	220	178	237
5715	226	185	243
5716	225	182	239
5717	223	179	236
5718	221	177	233
5719	225	187	237
5720	222	188	235
5721	230	205	242
5722	229	210	238
5723	0	0	0
5724	0	0	0
5725	0	0	0
5726	0	0	0
5727	0	0	0
5728	0	0	0
5729	0	0	0
5730	0	0	0
5731	0	0	0
5732	0	0	0
5733	0	0	0
5734	0	0	0
5735	0	0	0
5736	0	0	0
5737	0	0	0
5738	0	0	0
5739	0	0	0
5740	0	0	0
5741	0	0	0
5742	0	0	0
5743	0	0	0
5744	0	0	0
5745	0	0	0
5746	0	0	0
5747	0	0	0
5748	240	224	233
5749	234	207	228
5750	235	203	232
5751	234	198	235
5752	235	195	239
5753	227	186	235
5754	222	182	236
5755	217	174	235
5756	223	178	239
5757	220	174	234
5758	218	174	232
5759	217	174	232
5760	225	184	238
5761	223	186	235
5762	224	194	236
5763	222	200	233
5764	0	0	0
5765	0	0	0
5766	0	0	0
5767	0	0	0
5768	0	0	0
5769	0	0	0
5770	0	0	0
5771	0	0	0
5772	0	0	0
5773	0	0	0
5774	0	0	0
5775	0	0	0
5776	0	0	0
5777	0	0	0
5778	0	0	0
5779	0	0	0
5780	0	0	0
5781	0	0	0
5782	0	0	0
5783	0	0	0
5784	0	0	0
5785	0	0	0
5786	0	0	0
5787	0	0	0
5788	0	0	0
5789	0	0	0
5790	237	218	233
5791	239	215	237
5792	233	201	234
5793	233	198	238
5794	221	180	230
5795	216	177	231
5796	216	175	235
5797	224	180	241
5798	221	176	236
5799	216	176	233
5800	219	180	236
5801	232	192	245
5802	225	186	236
5803	222	192	235
5804	226	207	238
5805	0	0	0
5806	0	0	0
5807	0	0	0
5808	0	0	0
5809	0	0	0
5810	0	0	0
5811	0	0	0
5812	0	0	0
5813	0	0	0
5814	0	0	0
5815	0	0	0
5816	0	0	0
5817	0	0	0
5818	0	0	0
5819	0	0	0
5820	0	0	0
5821	0	0	0
5822	0	0	0
5823	0	0	0
5824	0	0	0
5825	0	0	0
5826	0	0	0
5827	0	0	0
5828	0	0	0
5829	0	0	0
5830	0	0	0
5831	242	230	239
5832	237	217	235
5833	232	204	233
5834	228	193	233
5835	218	177	228
5836	221	180	236
5837	221	178	238
5838	226	183	243
5839	220	178	236
5840	215	179	234
5841	217	183	237
5842	225	187	240
5843	218	180	231
5844	224	198	237
5845	229	214	240
5846	0	0	0
5847	0	0	0
5848	0	0	0
5849	0	0	0
5850	0	0	0
5851	0	0	0
5852	0	0	0
5853	0	0	0
5854	0	0	0
5855	0	0	0
5856	0	0	0
5857	0	0	0
5858	0	0	0
5859	0	0	0
5860	0	0	0
5861	0	0	0
5862	0	0	0
5863	0	0	0
5864	0	0	0
5865	0	0	0
5866	0	0	0
5867	0	0	0
5868	0	0	0
5869	0	0	0
5870	0	0	0
5871	0	0	0
5872	238	227	235
5873	232	212	229
5874	233	206	233
5875	231	197	235
5876	226	183	233
5877	234	190	244
5878	224	175	237
5879	222	175	238
5880	215	174	234
5881	207	174	231
5882	209	180	235
5883	213	182	236
5884	213	183	232
5885	225	204	240
5886	228	214	238
5887	0	0	0
5888	0	0	0
5889	0	0	0
5890	0	0	0
5891	0	0	0
5892	0	0	0
5893	0	0	0
5894	0	0	0
5895	0	0	0
5896	0	0	0
5897	0	0	0
5898	0	0	0
5899	0	0	0
5900	0	0	0
5901	0	0	0
5902	0	0	0
5903	0	0	0
5904	0	0	0
5905	0	0	0
5906	0	0	0
5907	0	0	0
5908	0	0	0
5909	0	0	0
5910	0	0	0
5911	0	0	0
5912	0	0	0
5913	236	225	234
5914	233	215	231
5915	234	209	234
5916	232	198	235
5917	228	185	233
5918	230	181	237
5919	219	166	230
5920	220	173	237
5921	213	172	235
5922	210	177	237
5923	210	182	240
5924	214	188	242
5925	215	190	240
5926	225	206	244
5927	229	215	240
5928	0	0	0
5929	0	0	0
5930	0	0	0
5931	0	0	0
5932	0	0	0
5933	0	0	0
5934	0	0	0
5935	0	0	0
5936	0	0	0
5937	0	0	0
5938	0	0	0
5939	0	0	0
5940	0	0	0
5941	0	0	0
5942	0	0	0
5943	0	0	0
5944	0	0	0
5945	0	0	0
5946	0	0	0
5947	0	0	0
5948	0	0	0
5949	0	0	0
5950	0	0	0
5951	0	0	0
5952	0	0	0
5953	0	0	0
5954	239	229	237
5955	236	220	234
5956	236	213	235
5957	234	202	235
5958	230	189	234
5959	230	184	238
5960	218	168	231
5961	221	176	239
5962	218	178	240
5963	219	185	244
5964	214	183	241
5965	214	187	242
5966	220	197	245
5967	232	214	250
5968	229	212	238
5969	0	0	0
5970	0	0	0
5971	0	0	0
5972	0	0	0
5973	0	0	0
5974	0	0	0
5975	0	0	0
5976	0	0	0
5977	0	0	0
5978	0	0	0
5979	0	0	0
5980	0	0	0
5981	0	0	0
5982	0	0	0
5983	0	0	0
5984	0	0	0
5985	0	0	0
5986	0	0	0
5987	0	0	0
5988	0	0	0
5989	0	0	0
5990	0	0	0
5991	0	0	0
5992	0	0	0
5993	0	0	0
5994	243	238	240
5995	240	232	237
5996	236	221	232
5997	236	214	233
5998	234	204	234
5999	231	192	234
6000	229	185	237
6001	219	170	232
6002	225	181	243
6003	223	182	241
6004	223	186	243
6005	219	184	243
6006	222	195	246
6007	226	204	247
6008	228	208	243
6009	226	208	236
6010	0	0	0
6011	0	0	0
6012	0	0	0
6013	0	0	0
6014	0	0	0
6015	0	0	0
6016	0	0	0
6017	0	0	0
6018	0	0	0
6019	0	0	0
6020	0	0	0
6021	0	0	0
6022	0	0	0
6023	0	0	0
6024	0	0	0
6025	0	0	0
6026	0	0	0
6027	0	0	0
6028	0	0	0
6029	0	0	0
6030	0	0	0
6031	0	0	0
6032	0	0	0
6033	0	0	0
6034	0	0	0
6035	0	0	0
6036	244	240	240
6037	240	229	236
6038	240	221	236
6039	239	211	237
6040	231	193	233
6041	230	186	236
6042	223	175	235
6043	231	186	246
6044	218	170	234
6045	220	174	238
6046	222	182	242
6047	224	192	245
6048	228	203	244
6049	226	205	239
6050	229	214	239
6051	0	0	0
6052	0	0	0
6053	0	0	0
6054	0	0	0
6055	0	0	0
6056	0	0	0
6057	0	0	0
6058	0	0	0
6059	0	0	0
6060	0	0	0
6061	0	0	0
6062	0	0	0
6063	0	0	0
6064	0	0	0
6065	0	0	0
6066	0	0	0
6067	0	0	0
6068	0	0	0
6069	0	0	0
6070	0	0	0
6071	0	0	0
6072	0	0	0
6073	0	0	0
6074	0	0	0
6075	0	0	0
6076	0	0	0
6077	252	250	248
6078	244	236	241
6079	244	228	241
6080	238	211	236
6081	230	193	230
6082	229	188	234
6083	223	176	232
6084	222	172	235
6085	212	158	230
6086	225	175	244
6087	225	181	244
6088	228	193	246
6089	230	204	244
6090	231	212	242
6091	0	0	0
6092	0	0	0
6093	0	0	0
6094	0	0	0
6095	0	0	0
6096	0	0	0
6097	0	0	0
6098	0	0	0
6099	0	0	0
6100	0	0	0
6101	0	0	0
6102	0	0	0
6103	0	0	0
6104	0	0	0
6105	0	0	0
6106	0	0	0
6107	0	0	0
6108	0	0	0
6109	0	0	0
6110	0	0	0
6111	0	0	0
6112	0	0	0
6113	0	0	0
6114	0	0	0
6115	0	0	0
6116	0	0	0
6117	0	0	0
6118	251	249	247
6119	242	233	239
6120	241	226	239
6121	234	208	233
6122	231	198	232
6123	231	193	236
6124	224	178	233
6125	226	175	238
6126	219	163	236
6127	231	180	249
6128	225	179	243
6129	228	191	245
6130	228	200	242
6131	228	208	239
6132	0	0	0
6133	0	0	0
6134	0	0	0
6135	0	0	0
6136	0	0	0
6137	0	0	0
6138	0	0	0
6139	0	0	0
6140	0	0	0
6141	0	0	0
6142	0	0	0
6143	0	0	0
6144	0	0	0
6145	0	0	0
6146	0	0	0
6147	0	0	0
6148	0	0	0
6149	0	0	0
6150	0	0	0
6151	0	0	0
6152	0	0	0
6153	0	0	0
6154	0	0	0
6155	0	0	0
6156	0	0	0
6157	0	0	0
6158	0	0	0
6159	0	0	0
6160	239	231	238
6161	237	223	236
6162	233	211	234
6163	230	200	233
6164	227	190	233
6165	222	176	233
6166	225	175	239
6167	216	161	231
6168	224	173	240
6169	219	173	236
6170	225	188	241
6171	228	198	243
6172	231	210	243
6173	237	224	244
6174	0	0	0
6175	0	0	0
6176	0	0	0
6177	0	0	0
6178	0	0	0
6179	0	0	0
6180	0	0	0
6181	0	0	0
6182	0	0	0
6183	0	0	0
6184	0	0	0
6185	0	0	0
6186	0	0	0
6187	0	0	0
6188	0	0	0
6189	0	0	0
6190	0	0	0
6191	0	0	0
6192	0	0	0
6193	0	0	0
6194	0	0	0
6195	0	0	0
6196	0	0	0
6197	0	0	0
6198	0	0	0
6199	0	0	0
6200	0	0	0
6201	0	0	0
6202	242	233	242
6203	235	219	237
6204	228	203	232
6205	227	193	233
6206	229	189	240
6207	232	188	246
6208	215	163	230
6209	219	173	238
6210	213	169	233
6211	225	188	242
6212	232	202	246
6213	236	215	247
6214	239	225	246
6215	0	0	0
6216	0	0	0
6217	0	0	0
6218	0	0	0
6219	0	0	0
6220	0	0	0
6221	0	0	0
6222	0	0	0
6223	0	0	0
6224	0	0	0
6225	0	0	0
6226	0	0	0
6227	0	0	0
6228	0	0	0
6229	0	0	0
6230	0	0	0
6231	0	0	0
6232	0	0	0
6233	0	0	0
6234	0	0	0
6235	0	0	0
6236	0	0	0
6237	0	0	0
6238	0	0	0
6239	0	0	0
6240	0	0	0
6241	0	0	0
6242	0	0	0
6243	248	244	248
6244	236	223	238
6245	230	208	233
6246	237	207	240
6247	239	202	244
6248	234	189	242
6249	216	165	231
6250	216	171	238
6251	209	167	234
6252	223	188	244
6253	229	201	243
6254	231	210	240
6255	0	0	0
6256	0	0	0
6257	0	0	0
6258	0	0	0
6259	0	0	0
6260	0	0	0
6261	0	0	0
6262	0	0	0
6263	0	0	0
6264	0	0	0
6265	0	0	0
6266	0	0	0
6267	0	0	0
6268	0	0	0
6269	0	0	0
6270	0	0	0
6271	0	0	0
6272	0	0	0
6273	0	0	0
6274	0	0	0
6275	0	0	0
6276	0	0	0
6277	0	0	0
6278	0	0	0
6279	0	0	0
6280	0	0	0
6281	0	0	0
6282	0	0	0
6283	0	0	0
6284	249	244	247
6285	239	225	238
6286	239	217	238
6287	248	217	245
6288	240	198	240
6289	234	184	238
6290	223	170	235
6291	221	175	242
6292	213	172	238
6293	223	192	246
6294	230	207	245
6295	0	0	0
6296	0	0	0
6297	0	0	0
6298	0	0	0
6299	0	0	0
6300	0	0	0
6301	0	0	0
6302	0	0	0
6303	0	0	0
6304	0	0	0
6305	0	0	0
6306	0	0	0
6307	0	0	0
6308	0	0	0
6309	0	0	0
6310	0	0	0
6311	0	0	0
6312	0	0	0
6313	0	0	0
6314	0	0	0
6315	0	0	0
6316	0	0	0
6317	0	0	0
6318	0	0	0
6319	0	0	0
6320	0	0	0
6321	0	0	0
6322	0	0	0
6323	0	0	0
6324	0	0	0
6325	0	0	0
6326	241	231	240
6327	241	222	238
6328	240	208	236
6329	234	190	232
6330	235	185	238
6331	225	172	235
6332	226	180	244
6333	216	176	238
6334	227	199	248
6335	233	215	249
6336	0	0	0
6337	0	0	0
6338	0	0	0
6339	0	0	0
6340	0	0	0
6341	0	0	0
6342	0	0	0
6343	0	0	0
6344	0	0	0
6345	0	0	0
6346	0	0	0
6347	0	0	0
6348	0	0	0
6349	0	0	0
6350	0	0	0
6351	0	0	0
6352	0	0	0
6353	0	0	0
6354	0	0	0
6355	0	0	0
6356	0	0	0
6357	0	0	0
6358	0	0	0
6359	0	0	0
6360	0	0	0
6361	0	0	0
6362	0	0	0
6363	0	0	0
6364	0	0	0
6365	0	0	0
6366	0	0	0
6367	0	0	0
6368	240	228	238
6369	238	213	236
6370	231	192	232
6371	235	190	239
6372	232	184	240
6373	238	195	250
6374	219	176	234
6375	227	198	244
6376	237	220	251
6377	0	0	0
6378	0	0	0
6379	0	0	0
6380	0	0	0
6381	0	0	0
6382	0	0	0
6383	0	0	0
6384	0	0	0
6385	0	0	0
6386	0	0	0
6387	0	0	0
6388	0	0	0
6389	0	0	0
6390	0	0	0
6391	0	0	0
6392	0	0	0
6393	0	0	0
6394	0	0	0
6395	0	0	0
6396	0	0	0
6397	0	0	0
6398	0	0	0
6399	0	0	0
6400	0	0	0
6401	0	0	0
6402	0	0	0
6403	0	0	0
6404	0	0	0
6405	0	0	0
6406	0	0	0
6407	0	0	0
6408	0	0	0
6409	246	239	244
6410	239	218	237
6411	233	198	234
6412	241	201	244
6413	238	195	241
6414	236	192	240
6415	219	174	228
6416	232	204	245
6417	241	226	253
6418	0	0	0
6419	0	0	0
6420	0	0	0
6421	0	0	0
6422	0	0	0
6423	0	0	0
6424	0	0	0
6425	0	0	0
6426	0	0	0
6427	0	0	0
6428	0	0	0
6429	0	0	0
6430	0	0	0
6431	0	0	0
6432	0	0	0
6433	0	0	0
6434	0	0	0
6435	0	0	0
6436	0	0	0
6437	0	0	0
6438	0	0	0
6439	0	0	0
6440	0	0	0
6441	0	0	0
6442	0	0	0
6443	0	0	0
6444	0	0	0
6445	0	0	0
6446	0	0	0
6447	0	0	0
6448	0	0	0
6449	0	0	0
6450	246	236	242
6451	237	214	233
6452	234	201	234
6453	240	203	242
6454	236	195	236
6455	236	192	237
6456	224	181	230
6457	237	210	247
6458	239	223	248
6459	0	0	0
6460	0	0	0
6461	0	0	0
6462	0	0	0
6463	0	0	0
6464	0	0	0
6465	0	0	0
6466	0	0	0
6467	0	0	0
6468	0	0	0
6469	0	0	0
6470	0	0	0
6471	0	0	0
6472	0	0	0
6473	0	0	0
6474	0	0	0
6475	0	0	0
6476	0	0	0
6477	0	0	0
6478	0	0	0
6479	0	0	0
6480	0	0	0
6481	0	0	0
6482	0	0	0
6483	0	0	0
6484	0	0	0
6485	0	0	0
6486	0	0	0
6487	0	0	0
6488	0	0	0
6489	0	0	0
6490	0	0	0
6491	244	234	240
6492	240	219	234
6493	236	204	233
6494	242	206	240
6495	239	198	237
6496	239	198	239
6497	226	187	231
6498	234	206	242
6499	236	219	245
6500	0	0	0
6501	0	0	0
6502	0	0	0
6503	0	0	0
6504	0	0	0
6505	0	0	0
6506	0	0	0
6507	0	0	0
6508	0	0	0
6509	0	0	0
6510	0	0	0
6511	0	0	0
6512	0	0	0
6513	0	0	0
6514	0	0	0
6515	0	0	0
6516	0	0	0
6517	0	0	0
6518	0	0	0
6519	0	0	0
6520	0	0	0
6521	0	0	0
6522	0	0	0
6523	0	0	0
6524	0	0	0
6525	0	0	0
6526	0	0	0
6527	0	0	0
6528	0	0	0
6529	0	0	0
6530	0	0	0
6531	0	0	0
6532	247	241	244
6533	244	226	239
6534	239	209	235
6535	249	212	244
6536	239	197	236
6537	232	193	234
6538	223	188	230
6539	234	210	243
6540	238	223	246
6541	0	0	0
6542	0	0	0
6543	0	0	0
6544	0	0	0
6545	0	0	0
6546	0	0	0
6547	0	0	0
6548	0	0	0
6549	0	0	0
6550	0	0	0
6551	0	0	0
6552	0	0	0
6553	0	0	0
6554	0	0	0
6555	0	0	0
6556	0	0	0
6557	0	0	0
6558	0	0	0
6559	0	0	0
6560	0	0	0
6561	0	0	0
6562	0	0	0
6563	0	0	0
6564	0	0	0
6565	0	0	0
6566	0	0	0
6567	0	0	0
6568	0	0	0
6569	0	0	0
6570	0	0	0
6571	0	0	0
6572	0	0	0
6573	252	250	249
6574	242	228	239
6575	238	212	236
6576	245	209	242
6577	235	193	233
6578	234	198	238
6579	226	193	233
6580	235	212	244
6581	0	0	0
6582	0	0	0
6583	0	0	0
6584	0	0	0
6585	0	0	0
6586	0	0	0
6587	0	0	0
6588	0	0	0
6589	0	0	0
6590	0	0	0
6591	0	0	0
6592	0	0	0
6593	0	0	0
6594	0	0	0
6595	0	0	0
6596	0	0	0
6597	0	0	0
6598	0	0	0
6599	0	0	0
6600	0	0	0
6601	0	0	0
6602	0	0	0
6603	0	0	0
6604	0	0	0
6605	0	0	0
6606	0	0	0
6607	0	0	0
6608	0	0	0
6609	0	0	0
6610	0	0	0
6611	0	0	0
6612	0	0	0
6613	0	0	0
6614	248	246	245
6615	232	221	232
6616	236	218	238
6617	242	215	244
6618	233	196	234
6619	239	205	243
6620	0	0	0
6621	0	0	0
6622	0	0	0
6623	0	0	0
6624	0	0	0
6625	0	0	0
6626	0	0	0
6627	0	0	0
6628	0	0	0
6629	0	0	0
6630	0	0	0
6631	0	0	0
6632	0	0	0
6633	0	0	0
6634	0	0	0
6635	0	0	0
6636	0	0	0
6637	0	0	0
6638	0	0	0
6639	0	0	0
6640	0	0	0
6641	0	0	0
6642	0	0	0
6643	0	0	0
6644	0	0	0
6645	0	0	0
6646	0	0	0
6647	0	0	0
6648	0	0	0
6649	0	0	0
6650	0	0	0
6651	0	0	0
6652	0	0	0
6653	0	0	0
6654	0	0	0
6655	0	0	0
6656	236	231	237
6657	238	226	240
6658	237	215	239
6659	229	197	232
6660	233	198	238
6661	0	0	0
6662	0	0	0
6663	0	0	0
6664	0	0	0
6665	0	0	0
6666	0	0	0
6667	0	0	0
6668	0	0	0
6669	0	0	0
6670	0	0	0
6671	0	0	0
6672	0	0	0
6673	0	0	0
6674	0	0	0
6675	0	0	0
6676	0	0	0
6677	0	0	0
6678	0	0	0
6679	0	0	0
6680	0	0	0
6681	0	0	0
6682	0	0	0
6683	0	0	0
6684	0	0	0
6685	0	0	0
6686	0	0	0
6687	0	0	0
6688	0	0	0
6689	0	0	0
6690	0	0	0
6691	0	0	0
6692	0	0	0
6693	0	0	0
6694	0	0	0
6695	0	0	0
6696	0	0	0
6697	0	0	0
6698	243	234	243
6699	240	221	240
6700	231	202	233
6701	234	204	239
6702	0	0	0
6703	0	0	0
6704	0	0	0
6705	0	0	0
6706	0	0	0
6707	0	0	0
6708	0	0	0
6709	0	0	0
6710	0	0	0
6711	0	0	0
6712	0	0	0
6713	0	0	0
6714	0	0	0
6715	0	0	0
6716	0	0	0
6717	0	0	0
6718	0	0	0
6719	0	0	0
6720	0	0	0
6721	0	0	0
6722	0	0	0
6723	0	0	0
6724	0	0	0
6725	0	0	0
6726	0	0	0
6727	0	0	0
6728	0	0	0
6729	0	0	0
6730	0	0	0
6731	0	0	0
6732	0	0	0
6733	0	0	0
6734	0	0	0
6735	0	0	0
6736	0	0	0
6737	0	0	0
6738	0	0	0
6739	249	244	247
6740	244	228	242
6741	235	209	235
6742	240	213	243
6743	0	0	0
6744	0	0	0
6745	0	0	0
6746	0	0	0
6747	0	0	0
6748	0	0	0
6749	0	0	0
6750	0	0	0
6751	0	0	0
6752	0	0	0
6753	0	0	0
6754	0	0	0
6755	0	0	0
6756	0	0	0
6757	0	0	0
6758	0	0	0
6759	0	0	0
6760	0	0	0
6761	0	0	0
6762	0	0	0
6763	0	0	0
6764	0	0	0
6765	0	0	0
6766	0	0	0
6767	0	0	0
6768	0	0	0
6769	0	0	0
6770	0	0	0
6771	0	0	0
6772	0	0	0
6773	0	0	0
6774	0	0	0
6775	0	0	0
6776	0	0	0
6777	0	0	0
6778	0	0	0
6779	0	0	0
6780	248	242	244
6781	245	228	240
6782	234	207	232
6783	0	0	0
6784	0	0	0
6785	0	0	0
6786	0	0	0
6787	0	0	0
6788	0	0	0
6789	0	0	0
6790	0	0	0
6791	0	0	0
6792	0	0	0
6793	0	0	0
6794	0	0	0
6795	0	0	0
6796	0	0	0
6797	0	0	0
6798	0	0	0
6799	0	0	0
6800	0	0	0
6801	0	0	0
6802	0	0	0
6803	0	0	0
6804	0	0	0
6805	0	0	0
6806	0	0	0
6807	0	0	0
6808	0	0	0
6809	0	0	0
6810	0	0	0
6811	0	0	0
6812	0	0	0
6813	0	0	0
6814	0	0	0
6815	0	0	0
6816	0	0	0
6817	0	0	0
6818	0	0	0
6819	0	0	0
6820	0	0	0
6821	0	0	0
6822	241	224	236
6823	0	0	0
6824	0	0	0
6825	0	0	0
6826	0	0	0
6827	0	0	0
6828	0	0	0
6829	0	0	0
6830	0	0	0
6831	0	0	0
6832	0	0	0
6833	0	0	0
6834	0	0	0
6835	0	0	0
6836	0	0	0
6837	0	0	0
6838	0	0	0
6839	0	0	0
6840	0	0	0
6841	0	0	0
6842	0	0	0
6843	0	0	0
6844	0	0	0
6845	0	0	0
6846	0	0	0
6847	0	0	0
