 	R	G	B
1	0	0	0
2	0	0	0
3	0	0	0
4	0	0	0
5	0	0	0
6	0	0	0
7	0	0	0
8	0	0	0
9	0	0	0
10	0	0	0
11	0	0	0
12	0	0	0
13	0	0	0
14	0	0	0
15	0	0	0
16	0	0	0
17	0	0	0
18	0	0	0
19	0	0	0
20	0	0	0
21	0	0	0
22	0	0	0
23	0	0	0
24	0	0	0
25	0	0	0
26	0	0	0
27	0	0	0
28	0	0	0
29	0	0	0
30	0	0	0
31	0	0	0
32	0	0	0
33	0	0	0
34	0	0	0
35	0	0	0
36	0	0	0
37	0	0	0
38	255	244	240
39	255	239	237
40	255	229	231
41	249	211	220
42	255	217	226
43	254	217	229
44	253	223	233
45	0	0	0
46	0	0	0
47	0	0	0
48	0	0	0
49	0	0	0
50	0	0	0
51	0	0	0
52	0	0	0
53	0	0	0
54	0	0	0
55	0	0	0
56	0	0	0
57	0	0	0
58	0	0	0
59	0	0	0
60	0	0	0
61	0	0	0
62	0	0	0
63	0	0	0
64	0	0	0
65	0	0	0
66	0	0	0
67	0	0	0
68	0	0	0
69	0	0	0
70	0	0	0
71	0	0	0
72	0	0	0
73	0	0	0
74	0	0	0
75	0	0	0
76	0	0	0
77	0	0	0
78	0	0	0
79	0	0	0
80	0	0	0
81	0	0	0
82	0	0	0
83	0	0	0
84	0	0	0
85	0	0	0
86	0	0	0
87	0	0	0
88	255	243	240
89	255	245	245
90	247	207	219
91	239	195	213
92	232	183	208
93	239	190	216
94	241	193	220
95	242	199	224
96	250	214	234
97	0	0	0
98	255	232	241
99	0	0	0
100	0	0	0
101	0	0	0
102	0	0	0
103	0	0	0
104	0	0	0
105	0	0	0
106	0	0	0
107	0	0	0
108	0	0	0
109	0	0	0
110	0	0	0
111	0	0	0
112	0	0	0
113	0	0	0
114	0	0	0
115	0	0	0
116	0	0	0
117	0	0	0
118	0	0	0
119	0	0	0
120	0	0	0
121	0	0	0
122	0	0	0
123	0	0	0
124	0	0	0
125	0	0	0
126	0	0	0
127	0	0	0
128	0	0	0
129	0	0	0
130	0	0	0
131	0	0	0
132	0	0	0
133	0	0	0
134	0	0	0
135	0	0	0
136	0	0	0
137	0	0	0
138	0	0	0
139	255	239	240
140	245	206	223
141	223	168	201
142	219	163	204
143	213	152	203
144	223	163	215
145	225	167	217
146	235	183	225
147	242	197	229
148	249	210	233
149	255	226	240
150	254	219	232
151	0	0	0
152	250	215	231
153	0	0	0
154	0	0	0
155	0	0	0
156	0	0	0
157	0	0	0
158	0	0	0
159	0	0	0
160	0	0	0
161	0	0	0
162	0	0	0
163	0	0	0
164	0	0	0
165	0	0	0
166	0	0	0
167	0	0	0
168	0	0	0
169	0	0	0
170	0	0	0
171	0	0	0
172	0	0	0
173	0	0	0
174	0	0	0
175	0	0	0
176	0	0	0
177	0	0	0
178	0	0	0
179	0	0	0
180	0	0	0
181	0	0	0
182	0	0	0
183	0	0	0
184	0	0	0
185	0	0	0
186	0	0	0
187	0	0	0
188	0	0	0
189	255	241	240
190	255	229	237
191	236	192	217
192	226	173	212
193	226	170	218
194	227	170	225
195	234	179	235
196	236	182	235
197	248	199	242
198	250	203	238
199	255	217	241
200	255	215	237
201	250	208	230
202	251	210	230
203	250	209	231
204	249	211	234
205	0	0	0
206	0	0	0
207	0	0	0
208	0	0	0
209	0	0	0
210	0	0	0
211	0	0	0
212	0	0	0
213	0	0	0
214	0	0	0
215	0	0	0
216	0	0	0
217	0	0	0
218	0	0	0
219	0	0	0
220	0	0	0
221	0	0	0
222	0	0	0
223	0	0	0
224	0	0	0
225	0	0	0
226	0	0	0
227	0	0	0
228	0	0	0
229	0	0	0
230	0	0	0
231	0	0	0
232	0	0	0
233	0	0	0
234	0	0	0
235	0	0	0
236	255	246	240
237	255	245	239
238	255	244	239
239	255	248	244
240	255	230	235
241	255	218	232
242	239	194	222
243	229	175	218
244	237	181	231
245	236	179	234
246	241	186	239
247	241	188	238
248	247	196	239
249	249	201	235
250	247	199	230
251	247	199	231
252	246	199	230
253	246	199	229
254	246	202	230
255	244	203	231
256	0	0	0
257	0	0	0
258	0	0	0
259	0	0	0
260	0	0	0
261	0	0	0
262	0	0	0
263	0	0	0
264	0	0	0
265	0	0	0
266	0	0	0
267	0	0	0
268	0	0	0
269	0	0	0
270	0	0	0
271	0	0	0
272	0	0	0
273	255	244	240
274	0	0	0
275	0	0	0
276	0	0	0
277	0	0	0
278	0	0	0
279	0	0	0
280	0	0	0
281	0	0	0
282	0	0	0
283	0	0	0
284	0	0	0
285	0	0	0
286	255	239	235
287	255	240	237
288	254	222	226
289	254	221	227
290	255	225	231
291	250	206	222
292	249	202	225
293	231	177	215
294	241	186	230
295	254	194	243
296	247	182	237
297	249	188	240
298	251	194	241
299	253	200	241
300	253	203	237
301	251	201	233
302	253	205	238
303	250	204	236
304	251	210	238
305	251	212	238
306	245	208	234
307	0	0	0
308	0	0	0
309	0	0	0
310	252	233	241
311	249	230	237
312	251	235	238
313	0	0	0
314	252	235	237
315	248	228	234
316	249	230	236
317	249	229	235
318	252	232	236
319	253	234	238
320	254	238	240
321	255	241	241
322	255	239	239
323	255	238	238
324	255	232	234
325	251	225	228
326	255	232	233
327	255	237	237
328	255	237	236
329	255	236	234
330	255	237	234
331	255	236	235
332	255	233	233
333	255	232	234
334	255	232	234
335	255	227	229
336	255	230	230
337	255	236	234
338	255	218	224
339	246	200	215
340	248	201	218
341	253	204	222
342	248	195	219
343	247	190	224
344	249	193	232
345	255	201	243
346	255	194	243
347	250	181	235
348	255	191	241
349	255	197	241
350	253	198	238
351	253	202	236
352	255	205	237
353	255	208	239
354	251	210	238
355	252	215	238
356	248	212	234
357	242	208	232
358	0	0	0
359	0	0	0
360	248	234	240
361	255	238	245
362	246	223	234
363	246	228	234
364	251	233	236
365	252	229	235
366	246	218	231
367	245	219	231
368	249	224	234
369	255	229	237
370	252	220	232
371	255	225	235
372	254	223	232
373	250	220	228
374	253	224	231
375	248	216	225
376	249	217	224
377	255	225	231
378	255	220	228
379	254	220	227
380	253	216	223
381	255	217	225
382	255	215	225
383	254	213	225
384	253	210	225
385	252	207	222
386	253	207	221
387	255	211	222
388	255	211	223
389	246	192	212
390	247	192	215
391	248	192	218
392	255	204	227
393	253	193	223
394	252	189	227
395	255	193	236
396	253	187	235
397	247	176	230
398	250	181	234
399	255	191	240
400	251	192	236
401	248	194	234
402	253	202	237
403	255	206	238
404	252	205	236
405	246	206	233
406	249	216	236
407	245	213	233
408	242	213	233
409	0	0	0
410	0	0	0
411	250	236	242
412	251	230	240
413	242	216	229
414	243	220	231
415	248	226	233
416	246	217	229
417	239	205	225
418	240	210	228
419	245	216	228
420	246	210	225
421	244	203	223
422	250	207	227
423	249	205	223
424	252	210	225
425	254	214	228
426	253	213	227
427	253	213	226
428	252	209	223
429	250	203	218
430	248	200	216
431	247	196	214
432	246	193	213
433	246	191	214
434	245	188	213
435	243	185	213
436	242	184	213
437	243	185	215
438	244	184	215
439	245	183	214
440	245	182	213
441	245	181	215
442	252	191	222
443	255	202	229
444	255	191	224
445	252	184	226
446	248	178	226
447	243	171	224
448	249	179	231
449	252	184	234
450	253	188	236
451	250	189	236
452	251	196	238
453	255	204	241
454	255	205	238
455	250	203	233
456	247	210	234
457	250	220	239
458	246	219	237
459	0	0	0
460	0	0	0
461	0	0	0
462	252	233	242
463	250	225	238
464	244	214	231
465	248	220	235
466	247	219	232
467	240	207	225
468	239	207	227
469	241	212	231
470	244	214	229
471	246	209	226
472	248	205	228
473	255	210	233
474	251	199	223
475	255	205	228
476	251	197	223
477	249	196	221
478	253	201	224
479	250	195	219
480	250	194	218
481	251	192	217
482	247	188	214
483	242	183	211
484	252	195	220
485	253	193	221
486	249	186	219
487	247	185	219
488	255	197	230
489	255	197	230
490	252	186	222
491	251	184	221
492	251	183	222
493	255	191	228
494	255	190	226
495	248	178	218
496	253	186	227
497	246	177	224
498	251	184	232
499	255	194	241
500	251	183	233
501	252	187	236
502	252	189	237
503	254	197	240
504	255	204	242
505	254	203	239
506	248	202	234
507	246	209	234
508	249	222	239
509	0	0	0
510	0	0	0
511	0	0	0
512	0	0	0
513	253	229	241
514	249	220	237
515	244	210	232
516	242	210	232
517	241	208	229
518	243	209	230
519	241	208	230
520	239	208	229
521	244	212	230
522	248	208	229
523	251	204	229
524	250	197	226
525	245	186	218
526	245	182	217
527	240	174	213
528	245	181	218
529	249	187	222
530	249	185	220
531	251	185	220
532	251	183	219
533	247	178	215
534	250	186	220
535	255	197	226
536	255	190	223
537	253	185	223
538	255	194	230
539	255	204	235
540	255	191	225
541	249	180	219
542	248	178	220
543	249	178	224
544	251	179	226
545	250	177	221
546	254	183	224
547	255	190	229
548	255	193	232
549	255	199	240
550	255	191	237
551	250	181	233
552	251	185	236
553	250	186	234
554	251	193	237
555	253	200	240
556	251	201	239
557	245	200	235
558	244	210	237
559	0	0	0
560	0	0	0
561	0	0	0
562	0	0	0
563	252	226	240
564	251	223	238
565	247	213	234
566	245	211	235
567	242	210	234
568	244	211	235
569	249	214	237
570	242	204	231
571	239	204	229
572	244	207	232
573	252	206	233
574	248	193	227
575	243	184	221
576	244	183	221
577	243	178	219
578	243	177	220
579	251	185	227
580	248	179	223
581	250	179	222
582	252	179	222
583	253	176	221
584	249	171	218
585	253	180	223
586	253	181	221
587	248	173	216
588	254	179	224
589	255	190	232
590	254	182	223
591	239	165	210
592	245	176	219
593	246	176	221
594	255	192	235
595	255	193	238
596	247	170	219
597	251	176	223
598	255	185	228
599	255	188	232
600	252	181	228
601	243	171	223
602	250	183	235
603	252	187	237
604	254	194	239
605	255	200	241
606	253	202	241
607	250	203	240
608	250	211	243
609	247	219	243
610	0	0	0
611	0	0	0
612	0	0	0
613	245	218	235
614	246	216	235
615	246	214	234
616	246	212	234
617	245	210	235
618	245	212	237
619	248	213	238
620	247	207	235
621	240	198	231
622	237	197	230
623	241	199	232
624	239	187	224
625	235	175	219
626	237	175	220
627	239	174	221
628	245	177	224
629	245	175	223
630	244	171	221
631	243	166	218
632	247	168	219
633	249	167	218
634	249	165	218
635	246	160	216
636	246	162	219
637	247	164	220
638	251	169	224
639	254	174	227
640	250	168	222
641	242	161	216
642	243	168	219
643	249	179	227
644	255	189	233
645	255	201	240
646	250	178	223
647	236	157	210
648	243	167	220
649	250	176	228
650	246	171	226
651	239	162	221
652	245	175	229
653	250	186	237
654	252	192	238
655	253	198	239
656	246	196	234
657	244	198	235
658	0	0	0
659	248	216	243
660	0	0	0
661	0	0	0
662	0	0	0
663	0	0	0
664	246	226	239
665	253	227	243
666	250	218	238
667	248	215	237
668	246	211	237
669	252	216	242
670	248	208	237
671	244	200	234
672	244	200	235
673	242	199	236
674	239	195	232
675	229	180	221
676	240	190	230
677	247	192	234
678	247	183	230
679	255	188	236
680	247	170	225
681	244	165	222
682	249	168	225
683	254	170	226
684	252	165	222
685	251	162	221
686	252	163	223
687	253	166	225
688	255	171	230
689	255	175	233
690	252	166	226
691	245	159	220
692	249	168	225
693	253	177	230
694	254	181	233
695	255	189	236
696	255	187	230
697	236	161	210
698	244	174	222
699	255	186	234
700	255	191	239
701	254	185	238
702	241	168	228
703	246	180	236
704	249	190	239
705	249	194	239
706	249	202	239
707	0	0	0
708	0	0	0
709	0	0	0
710	0	0	0
711	0	0	0
712	0	0	0
713	0	0	0
714	0	0	0
715	249	233	243
716	252	227	242
717	249	218	238
718	247	215	237
719	246	211	236
720	243	204	233
721	241	197	232
722	242	197	234
723	242	196	234
724	240	194	233
725	237	191	231
726	242	197	235
727	252	206	240
728	250	195	235
729	251	186	233
730	252	176	231
731	244	159	222
732	249	165	227
733	253	168	230
734	254	165	228
735	252	160	225
736	255	164	228
737	255	164	227
738	255	169	228
739	255	173	230
740	253	163	223
741	246	155	219
742	251	166	228
743	255	175	232
744	255	177	232
745	255	181	235
746	252	178	231
747	249	176	227
748	252	184	231
749	255	196	241
750	255	199	243
751	255	201	243
752	252	186	235
753	240	171	231
754	246	184	240
755	247	192	241
756	246	198	240
757	0	0	0
758	0	0	0
759	0	0	0
760	0	0	0
761	0	0	0
762	0	0	0
763	0	0	0
764	0	0	0
765	0	0	0
766	248	231	242
767	246	223	238
768	246	217	237
769	248	216	238
770	248	213	236
771	242	204	232
772	244	205	237
773	246	206	240
774	245	202	238
775	246	201	238
776	244	195	236
777	253	202	241
778	253	198	237
779	248	185	228
780	255	188	235
781	255	177	232
782	246	158	223
783	254	166	231
784	255	168	232
785	255	164	230
786	255	160	229
787	255	164	232
788	249	149	220
789	252	154	221
790	255	170	229
791	253	159	221
792	247	153	219
793	252	164	228
794	249	164	227
795	248	166	227
796	255	182	237
797	254	179	234
798	251	177	231
799	255	186	237
800	255	193	241
801	255	193	240
802	255	189	236
803	241	173	226
804	242	178	235
805	247	190	244
806	250	203	247
807	0	0	0
808	0	0	0
809	0	0	0
810	0	0	0
811	0	0	0
812	0	0	0
813	0	0	0
814	0	0	0
815	0	0	0
816	0	0	0
817	0	0	0
818	242	220	237
819	242	214	236
820	246	215	238
821	246	211	235
822	246	211	235
823	248	213	240
824	246	208	240
825	245	204	239
826	245	200	238
827	244	193	236
828	246	190	235
829	248	187	232
830	252	186	232
831	255	188	234
832	253	171	226
833	245	154	219
834	253	161	227
835	255	163	229
836	255	161	229
837	255	158	229
838	254	151	226
839	244	137	216
840	255	156	228
841	255	171	235
842	255	161	226
843	249	153	221
844	248	155	224
845	245	156	225
846	249	168	232
847	255	182	238
848	252	177	233
849	249	175	231
850	253	181	235
851	255	187	239
852	248	180	233
853	243	177	232
854	240	179	233
855	237	181	235
856	243	196	242
857	0	0	0
858	0	0	0
859	0	0	0
860	0	0	0
861	0	0	0
862	0	0	0
863	0	0	0
864	0	0	0
865	0	0	0
866	0	0	0
867	0	0	0
868	246	235	243
869	247	229	242
870	246	221	241
871	247	219	241
872	245	213	235
873	248	215	238
874	248	213	240
875	245	208	238
876	244	205	238
877	244	200	237
878	241	192	234
879	242	189	234
880	249	192	237
881	255	193	239
882	254	180	230
883	247	163	221
884	251	162	225
885	255	170	234
886	254	156	226
887	255	155	227
888	255	150	226
889	252	144	224
890	243	130	216
891	255	149	229
892	255	150	226
893	244	138	215
894	250	151	223
895	249	153	225
896	248	158	229
897	249	168	233
898	253	180	237
899	247	174	231
900	246	175	233
901	247	180	236
902	245	182	237
903	236	174	230
904	239	185	237
905	235	186	236
906	0	0	0
907	0	0	0
908	0	0	0
909	0	0	0
910	0	0	0
911	0	0	0
912	0	0	0
913	0	0	0
914	0	0	0
915	0	0	0
916	0	0	0
917	0	0	0
918	0	0	0
919	250	241	244
920	249	233	242
921	247	224	241
922	246	220	241
923	244	215	237
924	248	215	239
925	249	214	240
926	245	209	238
927	244	206	236
928	241	198	233
929	239	191	232
930	244	193	236
931	252	196	239
932	250	183	232
933	249	171	228
934	253	171	230
935	255	169	232
936	252	157	226
937	245	144	219
938	246	140	220
939	246	136	220
940	243	129	218
941	234	116	210
942	238	123	215
943	237	123	213
944	242	134	218
945	249	147	226
946	250	153	228
947	247	157	227
948	245	165	229
949	249	176	235
950	247	175	233
951	243	175	233
952	236	173	231
953	232	174	232
954	232	182	235
955	234	191	238
956	0	0	0
957	0	0	0
958	0	0	0
959	0	0	0
960	0	0	0
961	0	0	0
962	0	0	0
963	0	0	0
964	0	0	0
965	0	0	0
966	0	0	0
967	0	0	0
968	0	0	0
969	0	0	0
970	251	243	244
971	247	232	239
972	247	227	240
973	245	222	240
974	247	221	241
975	253	223	244
976	250	215	239
977	245	210	236
978	243	205	235
979	241	198	233
980	241	194	232
981	249	197	238
982	251	193	237
983	247	179	230
984	252	177	234
985	255	177	237
986	253	166	230
987	246	153	223
988	249	152	226
989	252	150	229
990	253	147	230
991	250	140	228
992	236	121	216
993	236	125	219
994	240	134	224
995	250	148	232
996	253	154	234
997	254	159	234
998	246	157	228
999	244	165	229
1000	253	182	239
1001	252	182	239
1002	242	177	234
1003	0	0	0
1004	0	0	0
1005	0	0	0
1006	0	0	0
1007	0	0	0
1008	0	0	0
1009	0	0	0
1010	0	0	0
1011	0	0	0
1012	0	0	0
1013	0	0	0
1014	0	0	0
1015	0	0	0
1016	0	0	0
1017	0	0	0
1018	0	0	0
1019	0	0	0
1020	0	0	0
1021	0	0	0
1022	247	235	240
1023	245	228	239
1024	246	226	240
1025	249	225	241
1026	251	220	239
1027	246	212	233
1028	241	206	231
1029	240	203	234
1030	240	198	234
1031	240	193	231
1032	244	191	232
1033	247	187	234
1034	249	183	234
1035	253	181	235
1036	251	171	230
1037	247	160	224
1038	250	160	228
1039	254	160	233
1040	255	158	236
1041	255	153	235
1042	246	138	226
1043	231	118	214
1044	235	129	222
1045	240	139	229
1046	249	149	235
1047	252	155	236
1048	251	157	234
1049	244	155	229
1050	246	169	234
1051	252	184	241
1052	246	179	235
1053	0	0	0
1054	0	0	0
1055	0	0	0
1056	0	0	0
1057	0	0	0
1058	0	0	0
1059	0	0	0
1060	0	0	0
1061	0	0	0
1062	0	0	0
1063	0	0	0
1064	0	0	0
1065	0	0	0
1066	0	0	0
1067	0	0	0
1068	0	0	0
1069	0	0	0
1070	0	0	0
1071	0	0	0
1072	0	0	0
1073	0	0	0
1074	248	236	242
1075	251	236	245
1076	249	226	241
1077	248	220	238
1078	247	216	234
1079	243	211	233
1080	245	212	240
1081	245	208	241
1082	243	199	235
1083	247	197	236
1084	246	188	234
1085	249	185	235
1086	253	184	236
1087	250	173	232
1088	250	165	230
1089	255	168	236
1090	254	156	233
1091	255	153	234
1092	251	145	229
1093	236	127	217
1094	238	133	223
1095	245	146	233
1096	253	158	241
1097	255	168	247
1098	252	156	236
1099	250	158	234
1100	247	163	234
1101	248	176	239
1102	246	183	239
1103	233	174	229
1104	0	0	0
1105	0	0	0
1106	0	0	0
1107	0	0	0
1108	0	0	0
1109	0	0	0
1110	0	0	0
1111	0	0	0
1112	0	0	0
1113	0	0	0
1114	0	0	0
1115	0	0	0
1116	0	0	0
1117	0	0	0
1118	0	0	0
1119	0	0	0
1120	0	0	0
1121	0	0	0
1122	0	0	0
1123	0	0	0
1124	0	0	0
1125	0	0	0
1126	248	234	242
1127	244	224	238
1128	245	222	238
1129	245	219	236
1130	246	218	238
1131	248	218	242
1132	245	210	240
1133	243	203	237
1134	244	195	235
1135	243	186	232
1136	249	187	237
1137	253	186	239
1138	251	177	235
1139	252	171	236
1140	254	162	236
1141	250	150	231
1142	253	149	233
1143	246	139	225
1144	248	146	229
1145	251	153	237
1146	255	163	243
1147	255	173	246
1148	255	165	239
1149	247	153	230
1150	251	163	235
1151	247	167	233
1152	244	174	234
1153	241	182	237
1154	0	0	0
1155	0	0	0
1156	0	0	0
1157	0	0	0
1158	0	0	0
1159	0	0	0
1160	0	0	0
1161	0	0	0
1162	0	0	0
1163	0	0	0
1164	0	0	0
1165	0	0	0
1166	0	0	0
1167	0	0	0
1168	0	0	0
1169	0	0	0
1170	0	0	0
1171	0	0	0
1172	0	0	0
1173	0	0	0
1174	0	0	0
1175	0	0	0
1176	0	0	0
1177	0	0	0
1178	0	0	0
1179	0	0	0
1180	250	232	244
1181	254	233	248
1182	247	218	241
1183	243	210	238
1184	248	212	243
1185	248	204	241
1186	245	192	236
1187	253	194	242
1188	248	181	236
1189	243	171	232
1190	252	174	241
1191	255	167	242
1192	246	146	232
1193	246	142	231
1194	233	126	218
1195	240	135	224
1196	254	159	241
1197	255	166	243
1198	255	170	242
1199	252	162	235
1200	248	158	231
1201	252	168	237
1202	248	173	235
1203	243	179	235
1204	242	188	239
1205	0	0	0
1206	0	0	0
1207	0	0	0
1208	0	0	0
1209	0	0	0
1210	0	0	0
1211	0	0	0
1212	0	0	0
1213	0	0	0
1214	0	0	0
1215	0	0	0
1216	0	0	0
1217	0	0	0
1218	0	0	0
1219	0	0	0
1220	0	0	0
1221	0	0	0
1222	0	0	0
1223	0	0	0
1224	0	0	0
1225	0	0	0
1226	0	0	0
1227	0	0	0
1228	0	0	0
1229	0	0	0
1230	0	0	0
1231	0	0	0
1232	249	230	243
1233	243	217	239
1234	244	216	241
1235	247	217	242
1236	240	201	234
1237	237	190	232
1238	238	181	232
1239	234	169	228
1240	240	170	234
1241	249	174	242
1242	241	154	233
1243	231	132	222
1244	226	124	220
1245	217	109	211
1246	240	140	232
1247	254	162	243
1248	252	164	239
1249	255	169	241
1250	253	167	238
1251	248	162	234
1252	248	171	237
1253	243	175	235
1254	242	185	237
1255	240	194	239
1256	241	205	240
1257	0	0	0
1258	0	0	0
1259	0	0	0
1260	0	0	0
1261	0	0	0
1262	0	0	0
1263	0	0	0
1264	0	0	0
1265	0	0	0
1266	0	0	0
1267	0	0	0
1268	0	0	0
1269	0	0	0
1270	0	0	0
1271	0	0	0
1272	0	0	0
1273	0	0	0
1274	0	0	0
1275	0	0	0
1276	0	0	0
1277	0	0	0
1278	0	0	0
1279	0	0	0
1280	0	0	0
1281	0	0	0
1282	0	0	0
1283	0	0	0
1284	0	0	0
1285	0	0	0
1286	0	0	0
1287	0	0	0
1288	237	203	237
1289	237	193	236
1290	240	187	238
1291	253	193	249
1292	249	180	245
1293	235	156	233
1294	236	153	234
1295	233	146	233
1296	229	137	231
1297	255	169	252
1298	255	172	247
1299	255	174	243
1300	253	171	241
1301	251	169	239
1302	246	169	236
1303	241	174	235
1304	241	184	238
1305	244	197	243
1306	239	199	239
1307	0	0	0
1308	0	0	0
1309	0	0	0
1310	0	0	0
1311	0	0	0
1312	0	0	0
1313	0	0	0
1314	0	0	0
1315	0	0	0
1316	0	0	0
1317	0	0	0
1318	0	0	0
1319	0	0	0
1320	0	0	0
1321	0	0	0
1322	0	0	0
1323	0	0	0
1324	0	0	0
1325	0	0	0
1326	0	0	0
1327	0	0	0
1328	0	0	0
1329	0	0	0
1330	0	0	0
1331	0	0	0
1332	0	0	0
1333	0	0	0
1334	0	0	0
1335	0	0	0
1336	0	0	0
1337	0	0	0
1338	0	0	0
1339	0	0	0
1340	238	206	239
1341	242	201	241
1342	244	191	242
1343	241	177	238
1344	239	174	239
1345	239	170	240
1346	238	166	241
1347	234	157	239
1348	250	172	249
1349	252	175	242
1350	250	172	237
1351	248	170	237
1352	250	175	240
1353	244	174	235
1354	243	185	238
1355	243	196	242
1356	242	202	243
1357	0	0	0
1358	0	0	0
1359	0	0	0
1360	0	0	0
1361	0	0	0
1362	0	0	0
1363	0	0	0
1364	0	0	0
1365	0	0	0
1366	0	0	0
1367	0	0	0
1368	0	0	0
1369	0	0	0
1370	0	0	0
1371	0	0	0
1372	0	0	0
1373	0	0	0
1374	0	0	0
1375	0	0	0
1376	0	0	0
1377	0	0	0
1378	0	0	0
1379	0	0	0
1380	0	0	0
1381	0	0	0
1382	0	0	0
1383	0	0	0
1384	0	0	0
1385	0	0	0
1386	0	0	0
1387	0	0	0
1388	0	0	0
1389	0	0	0
1390	0	0	0
1391	0	0	0
1392	245	214	245
1393	243	201	243
1394	238	187	239
1395	239	184	242
1396	240	182	242
1397	239	178	242
1398	239	172	242
1399	253	186	252
1400	247	176	239
1401	247	174	236
1402	247	176	239
1403	246	179	239
1404	245	185	238
1405	249	198	243
1406	241	196	239
1407	0	0	0
1408	0	0	0
1409	0	0	0
1410	0	0	0
1411	0	0	0
1412	0	0	0
1413	0	0	0
1414	0	0	0
1415	0	0	0
1416	0	0	0
1417	0	0	0
1418	0	0	0
1419	0	0	0
1420	0	0	0
1421	0	0	0
1422	0	0	0
1423	0	0	0
1424	0	0	0
1425	0	0	0
1426	0	0	0
1427	0	0	0
1428	0	0	0
1429	0	0	0
1430	0	0	0
1431	0	0	0
1432	0	0	0
1433	0	0	0
1434	0	0	0
1435	0	0	0
1436	0	0	0
1437	0	0	0
1438	0	0	0
1439	0	0	0
1440	0	0	0
1441	0	0	0
1442	0	0	0
1443	0	0	0
1444	241	210	244
1445	235	196	240
1446	239	196	245
1447	240	193	244
1448	241	190	244
1449	240	184	242
1450	242	181	242
1451	237	172	235
1452	243	178	238
1453	243	180	238
1454	245	188	241
1455	245	195	239
1456	247	200	240
1457	240	199	237
1458	0	0	0
1459	0	0	0
1460	0	0	0
1461	0	0	0
1462	0	0	0
1463	0	0	0
1464	0	0	0
1465	0	0	0
1466	0	0	0
1467	0	0	0
1468	0	0	0
1469	0	0	0
1470	0	0	0
1471	0	0	0
1472	0	0	0
1473	0	0	0
1474	0	0	0
1475	0	0	0
1476	0	0	0
1477	0	0	0
1478	0	0	0
1479	0	0	0
1480	0	0	0
1481	0	0	0
1482	0	0	0
1483	0	0	0
1484	0	0	0
1485	0	0	0
1486	0	0	0
1487	0	0	0
1488	0	0	0
1489	0	0	0
1490	0	0	0
1491	0	0	0
1492	0	0	0
1493	0	0	0
1494	0	0	0
1495	0	0	0
1496	241	217	246
1497	247	219	252
1498	240	203	244
1499	241	200	245
1500	240	194	242
1501	239	190	241
1502	238	187	239
1503	245	194	244
1504	245	195	242
1505	249	204	245
1506	245	202	240
1507	250	209	243
1508	240	199	235
1509	0	0	0
1510	0	0	0
1511	0	0	0
1512	0	0	0
1513	0	0	0
1514	0	0	0
1515	0	0	0
1516	0	0	0
1517	0	0	0
1518	0	0	0
1519	0	0	0
1520	0	0	0
1521	0	0	0
1522	0	0	0
1523	0	0	0
1524	0	0	0
1525	0	0	0
1526	0	0	0
1527	0	0	0
1528	0	0	0
1529	0	0	0
1530	0	0	0
1531	0	0	0
1532	0	0	0
1533	0	0	0
1534	0	0	0
1535	0	0	0
1536	0	0	0
1537	0	0	0
1538	0	0	0
1539	0	0	0
1540	0	0	0
1541	0	0	0
1542	0	0	0
1543	0	0	0
1544	0	0	0
1545	0	0	0
1546	0	0	0
1547	0	0	0
1548	249	229	250
1549	241	213	245
1550	240	209	245
1551	238	203	241
1552	237	201	240
1553	0	0	0
1554	0	0	0
1555	247	209	242
1556	247	210	241
1557	246	208	239
1558	247	208	239
1559	0	0	0
1560	0	0	0
1561	0	0	0
1562	0	0	0
1563	0	0	0
1564	0	0	0
1565	0	0	0
1566	0	0	0
1567	0	0	0
1568	0	0	0
1569	0	0	0
1570	0	0	0
1571	0	0	0
1572	0	0	0
1573	0	0	0
1574	0	0	0
1575	0	0	0
1576	0	0	0
1577	0	0	0
1578	0	0	0
1579	0	0	0
1580	0	0	0
1581	0	0	0
1582	0	0	0
1583	0	0	0
1584	0	0	0
1585	0	0	0
1586	0	0	0
1587	0	0	0
1588	0	0	0
1589	0	0	0
1590	0	0	0
1591	0	0	0
1592	0	0	0
1593	0	0	0
1594	0	0	0
1595	0	0	0
1596	0	0	0
1597	0	0	0
1598	0	0	0
1599	0	0	0
1600	0	0	0
1601	0	0	0
1602	0	0	0
1603	0	0	0
1604	0	0	0
1605	0	0	0
1606	248	216	240
1607	251	219	242
1608	243	206	235
1609	0	0	0
1610	0	0	0
1611	0	0	0
1612	0	0	0
1613	0	0	0
1614	0	0	0
1615	0	0	0
1616	0	0	0
1617	0	0	0
1618	0	0	0
1619	0	0	0
1620	0	0	0
1621	0	0	0
1622	0	0	0
1623	0	0	0
1624	0	0	0
1625	0	0	0
1626	0	0	0
1627	0	0	0
1628	0	0	0
1629	0	0	0
1630	0	0	0
1631	0	0	0
1632	0	0	0
1633	0	0	0
1634	0	0	0
1635	0	0	0
1636	0	0	0
1637	0	0	0
1638	0	0	0
1639	0	0	0
1640	0	0	0
1641	0	0	0
1642	0	0	0
1643	0	0	0
1644	0	0	0
1645	0	0	0
1646	0	0	0
1647	0	0	0
1648	0	0	0
1649	0	0	0
1650	0	0	0
1651	0	0	0
1652	0	0	0
1653	0	0	0
1654	0	0	0
1655	0	0	0
1656	0	0	0
1657	249	224	242
1658	245	215	237
1659	238	204	232
1660	0	0	0
1661	0	0	0
1662	0	0	0
1663	0	0	0
1664	0	0	0
1665	0	0	0
1666	0	0	0
1667	0	0	0
1668	0	0	0
1669	0	0	0
1670	0	0	0
1671	0	0	0
1672	0	0	0
1673	0	0	0
1674	0	0	0
1675	0	0	0
1676	0	0	0
1677	0	0	0
1678	0	0	0
1679	0	0	0
1680	0	0	0
1681	0	0	0
1682	0	0	0
1683	0	0	0
1684	0	0	0
1685	0	0	0
1686	0	0	0
1687	0	0	0
1688	0	0	0
1689	0	0	0
1690	0	0	0
1691	0	0	0
1692	0	0	0
1693	0	0	0
1694	0	0	0
1695	0	0	0
1696	0	0	0
1697	0	0	0
1698	0	0	0
1699	0	0	0
1700	0	0	0
1701	0	0	0
1702	0	0	0
1703	0	0	0
1704	0	0	0
1705	0	0	0
1706	0	0	0
1707	0	0	0
1708	249	228	242
1709	243	219	237
1710	238	209	234
1711	0	0	0
1712	0	0	0
1713	0	0	0
1714	0	0	0
1715	0	0	0
1716	0	0	0
1717	0	0	0
1718	0	0	0
1719	0	0	0
1720	0	0	0
1721	0	0	0
1722	0	0	0
1723	0	0	0
1724	0	0	0
1725	0	0	0
1726	0	0	0
1727	0	0	0
1728	0	0	0
1729	0	0	0
1730	0	0	0
1731	0	0	0
1732	0	0	0
1733	0	0	0
1734	0	0	0
1735	0	0	0
1736	0	0	0
1737	0	0	0
1738	0	0	0
1739	0	0	0
1740	0	0	0
1741	0	0	0
1742	0	0	0
1743	0	0	0
1744	0	0	0
1745	0	0	0
1746	0	0	0
1747	0	0	0
1748	0	0	0
1749	0	0	0
1750	0	0	0
1751	0	0	0
1752	0	0	0
1753	0	0	0
1754	0	0	0
1755	0	0	0
1756	0	0	0
1757	0	0	0
1758	0	0	0
1759	0	0	0
1760	244	224	239
1761	0	0	0
1762	0	0	0
1763	0	0	0
1764	0	0	0
1765	0	0	0
1766	0	0	0
1767	0	0	0
1768	0	0	0
1769	0	0	0
1770	0	0	0
1771	0	0	0
1772	0	0	0
1773	0	0	0
1774	0	0	0
1775	0	0	0
1776	0	0	0
1777	0	0	0
1778	0	0	0
1779	0	0	0
1780	0	0	0
1781	0	0	0
1782	0	0	0
1783	0	0	0
1784	0	0	0
1785	0	0	0
