 	R	G	B
1	0	0	0
2	0	0	0
3	0	0	0
4	0	0	0
5	0	0	0
6	237	195	212
7	0	0	0
8	0	0	0
9	0	0	0
10	0	0	0
11	255	226	227
12	255	228	233
13	255	234	237
14	255	233	231
15	255	242	235
16	0	0	0
17	0	0	0
18	0	0	0
19	0	0	0
20	0	0	0
21	0	0	0
22	0	0	0
23	0	0	0
24	0	0	0
25	0	0	0
26	0	0	0
27	0	0	0
28	0	0	0
29	0	0	0
30	0	0	0
31	0	0	0
32	0	0	0
33	0	0	0
34	0	0	0
35	0	0	0
36	0	0	0
37	0	0	0
38	0	0	0
39	0	0	0
40	0	0	0
41	0	0	0
42	0	0	0
43	245	208	215
44	248	210	222
45	255	229	237
46	0	0	0
47	0	0	0
48	255	222	222
49	255	227	228
50	252	214	224
51	255	220	230
52	252	217	224
53	255	226	228
54	252	225	225
55	0	0	0
56	0	0	0
57	0	0	0
58	0	0	0
59	0	0	0
60	0	0	0
61	0	0	0
62	0	0	0
63	0	0	0
64	0	0	0
65	0	0	0
66	0	0	0
67	0	0	0
68	0	0	0
69	0	0	0
70	0	0	0
71	0	0	0
72	0	0	0
73	0	0	0
74	0	0	0
75	0	0	0
76	0	0	0
77	0	0	0
78	0	0	0
79	0	0	0
80	253	220	222
81	255	221	223
82	255	223	225
83	255	221	225
84	253	215	220
85	255	220	223
86	255	224	226
87	252	211	219
88	243	198	214
89	246	203	220
90	244	202	218
91	245	204	219
92	241	203	216
93	0	0	0
94	0	0	0
95	0	0	0
96	0	0	0
97	0	0	0
98	0	0	0
99	0	0	0
100	0	0	0
101	0	0	0
102	0	0	0
103	0	0	0
104	0	0	0
105	0	0	0
106	0	0	0
107	0	0	0
108	0	0	0
109	0	0	0
110	0	0	0
111	0	0	0
112	0	0	0
113	0	0	0
114	0	0	0
115	0	0	0
116	0	0	0
117	255	227	226
118	255	225	223
119	255	226	224
120	255	219	219
121	255	218	220
122	250	209	217
123	255	215	222
124	255	218	224
125	250	205	217
126	250	204	219
127	254	209	225
128	253	209	226
129	253	212	227
130	247	208	221
131	0	0	0
132	0	0	0
133	0	0	0
134	0	0	0
135	0	0	0
136	0	0	0
137	0	0	0
138	0	0	0
139	0	0	0
140	0	0	0
141	0	0	0
142	0	0	0
143	0	0	0
144	0	0	0
145	0	0	0
146	0	0	0
147	0	0	0
148	0	0	0
149	0	0	0
150	0	0	0
151	0	0	0
152	0	0	0
153	0	0	0
154	0	0	0
155	255	230	226
156	255	227	220
157	254	221	215
158	252	215	216
159	250	209	216
160	245	202	214
161	250	206	219
162	253	209	222
163	254	209	222
164	253	207	221
165	255	211	225
166	255	211	225
167	255	213	225
168	250	209	218
169	0	0	0
170	0	0	0
171	0	0	0
172	0	0	0
173	0	0	0
174	0	0	0
175	0	0	0
176	0	0	0
177	0	0	0
178	0	0	0
179	0	0	0
180	0	0	0
181	0	0	0
182	0	0	0
183	0	0	0
184	0	0	0
185	0	0	0
186	0	0	0
187	0	0	0
188	0	0	0
189	0	0	0
190	0	0	0
191	0	0	0
192	255	234	229
193	255	232	226
194	253	222	216
195	250	215	213
196	255	220	221
197	253	214	222
198	253	212	222
199	255	217	228
200	255	213	227
201	255	213	228
202	250	200	218
203	254	205	222
204	252	202	221
205	252	205	222
206	0	0	0
207	0	0	0
208	0	0	0
209	0	0	0
210	0	0	0
211	0	0	0
212	0	0	0
213	0	0	0
214	0	0	0
215	0	0	0
216	255	230	231
217	255	231	232
218	0	0	0
219	0	0	0
220	0	0	0
221	0	0	0
222	0	0	0
223	0	0	0
224	0	0	0
225	0	0	0
226	0	0	0
227	0	0	0
228	0	0	0
229	0	0	0
230	255	236	229
231	255	227	224
232	251	219	221
233	254	221	225
234	255	224	228
235	255	221	227
236	255	218	225
237	255	215	225
238	255	213	226
239	253	205	223
240	246	193	216
241	250	197	221
242	249	195	223
243	253	203	228
244	253	205	227
245	254	209	226
246	0	0	0
247	0	0	0
248	0	0	0
249	0	0	0
250	0	0	0
251	0	0	0
252	0	0	0
253	254	221	225
254	255	228	231
255	253	220	226
256	246	212	218
257	0	0	0
258	0	0	0
259	0	0	0
260	0	0	0
261	0	0	0
262	0	0	0
263	0	0	0
264	0	0	0
265	0	0	0
266	0	0	0
267	0	0	0
268	255	237	230
269	255	227	226
270	251	219	223
271	255	222	227
272	255	229	232
273	255	226	230
274	252	213	221
275	253	211	221
276	255	219	230
277	255	211	228
278	246	192	218
279	252	196	224
280	252	197	227
281	255	204	231
282	255	208	231
283	255	212	231
284	251	202	222
285	0	0	0
286	255	214	224
287	0	0	0
288	0	0	0
289	0	0	0
290	255	218	224
291	255	225	229
292	255	219	226
293	249	211	219
294	255	222	225
295	0	0	0
296	0	0	0
297	0	0	0
298	0	0	0
299	0	0	0
300	0	0	0
301	0	0	0
302	0	0	0
303	0	0	0
304	0	0	0
305	255	235	228
306	255	237	232
307	255	228	227
308	250	219	220
309	255	226	226
310	255	234	233
311	255	221	225
312	249	209	219
313	255	215	224
314	255	222	231
315	254	205	223
316	243	187	216
317	249	193	223
318	249	192	221
319	253	198	223
320	255	202	221
321	252	197	218
322	246	190	216
323	255	205	225
324	255	216	229
325	255	216	227
326	255	221	230
327	255	222	230
328	255	223	228
329	255	217	224
330	252	211	220
331	255	221	226
332	255	230	228
333	0	0	0
334	0	0	0
335	0	0	0
336	0	0	0
337	0	0	0
338	0	0	0
339	0	0	0
340	0	0	0
341	0	0	0
342	0	0	0
343	255	232	226
344	255	235	232
345	254	226	227
346	251	221	221
347	255	228	226
348	0	0	0
349	250	215	220
350	255	220	226
351	255	225	232
352	255	216	227
353	249	199	219
354	246	191	220
355	252	197	227
356	255	201	226
357	255	208	228
358	254	198	219
359	252	195	217
360	247	188	216
361	255	203	227
362	255	206	226
363	255	207	224
364	255	215	228
365	255	215	227
366	254	208	221
367	249	202	216
368	253	208	220
369	255	218	225
370	255	214	218
371	0	0	0
372	0	0	0
373	0	0	0
374	0	0	0
375	0	0	0
376	0	0	0
377	0	0	0
378	0	0	0
379	0	0	0
380	0	0	0
381	254	230	227
382	255	233	233
383	255	229	231
384	253	224	226
385	0	0	0
386	0	0	0
387	255	224	226
388	255	230	233
389	255	219	228
390	253	209	224
391	251	202	223
392	248	194	223
393	255	203	230
394	255	208	230
395	255	201	225
396	251	192	220
397	250	189	219
398	244	182	213
399	250	191	220
400	252	196	223
401	255	202	225
402	255	209	226
403	253	201	219
404	248	195	216
405	253	201	220
406	255	206	222
407	252	204	219
408	248	200	214
409	255	213	223
410	255	226	233
411	255	230	235
412	0	0	0
413	0	0	0
414	0	0	0
415	0	0	0
416	0	0	0
417	0	0	0
418	0	0	0
419	0	0	0
420	254	228	230
421	0	0	0
422	0	0	0
423	0	0	0
424	0	0	0
425	0	0	0
426	255	229	230
427	255	218	225
428	252	209	223
429	250	202	221
430	255	206	227
431	255	214	233
432	255	207	226
433	255	201	223
434	251	191	220
435	251	189	221
436	254	192	222
437	255	202	228
438	253	192	223
439	255	199	226
440	255	204	224
441	253	196	217
442	252	195	217
443	255	202	222
444	255	206	222
445	254	203	219
446	253	204	219
447	255	216	228
448	255	213	226
449	255	217	227
450	254	218	226
451	0	0	0
452	0	0	0
453	0	0	0
454	0	0	0
455	0	0	0
456	0	0	0
457	0	0	0
458	0	0	0
459	0	0	0
460	0	0	0
461	0	0	0
462	0	0	0
463	0	0	0
464	255	228	225
465	253	216	219
466	250	207	217
467	255	212	223
468	255	215	225
469	255	209	220
470	254	202	215
471	251	195	214
472	247	186	215
473	255	196	224
474	255	200	225
475	255	193	220
476	248	184	214
477	254	192	220
478	255	198	220
479	255	196	217
480	254	194	215
481	255	200	218
482	255	203	217
483	255	204	217
484	255	205	220
485	253	203	220
486	249	200	219
487	249	203	221
488	247	205	221
489	0	0	0
490	0	0	0
491	0	0	0
492	0	0	0
493	0	0	0
494	0	0	0
495	0	0	0
496	0	0	0
497	0	0	0
498	0	0	0
499	0	0	0
500	0	0	0
501	0	0	0
502	255	229	222
503	253	217	216
504	251	211	218
505	255	217	224
506	255	215	220
507	255	209	215
508	255	207	216
509	255	200	216
510	248	187	214
511	255	197	224
512	255	194	221
513	253	188	216
514	252	185	215
515	255	194	222
516	254	189	217
517	252	187	215
518	254	190	215
519	255	195	217
520	250	189	210
521	249	189	210
522	255	202	220
523	254	201	220
524	253	202	221
525	253	206	223
526	253	210	225
527	0	0	0
528	0	0	0
529	0	0	0
530	0	0	0
531	0	0	0
532	0	0	0
533	0	0	0
534	0	0	0
535	0	0	0
536	0	0	0
537	0	0	0
538	0	0	0
539	0	0	0
540	255	230	220
541	255	223	219
542	255	218	224
543	255	219	227
544	255	217	221
545	255	215	219
546	255	214	223
547	255	200	218
548	248	186	213
549	252	189	218
550	252	186	216
551	253	187	216
552	253	185	216
553	252	183	216
554	249	179	215
555	253	184	220
556	255	187	221
557	250	182	216
558	244	176	210
559	251	189	218
560	255	201	226
561	255	202	224
562	255	203	222
563	255	211	225
564	0	0	0
565	0	0	0
566	0	0	0
567	0	0	0
568	0	0	0
569	0	0	0
570	0	0	0
571	0	0	0
572	0	0	0
573	0	0	0
574	0	0	0
575	0	0	0
576	0	0	0
577	0	0	0
578	255	229	218
579	254	221	217
580	255	218	223
581	255	220	226
582	255	215	220
583	255	212	219
584	252	200	216
585	245	187	210
586	255	200	223
587	255	203	227
588	246	178	210
589	249	179	212
590	255	191	221
591	255	189	222
592	249	174	215
593	253	180	221
594	255	185	222
595	251	180	217
596	253	185	220
597	255	198	227
598	255	197	225
599	255	199	224
600	253	196	218
601	255	203	221
602	246	195	212
603	0	0	0
604	0	0	0
605	0	0	0
606	0	0	0
607	0	0	0
608	0	0	0
609	0	0	0
610	0	0	0
611	0	0	0
612	0	0	0
613	0	0	0
614	0	0	0
615	0	0	0
616	0	0	0
617	254	222	219
618	253	218	219
619	253	214	219
620	252	210	217
621	246	197	211
622	241	186	208
623	251	197	219
624	255	210	229
625	251	188	215
626	236	164	200
627	252	182	216
628	255	195	226
629	255	183	220
630	246	168	213
631	252	177	218
632	254	180	215
633	255	185	215
634	255	190	220
635	255	191	220
636	254	190	219
637	250	188	216
638	247	185	213
639	243	183	210
640	234	175	202
641	248	199	216
642	0	0	0
643	0	0	0
644	0	0	0
645	0	0	0
646	0	0	0
647	0	0	0
648	0	0	0
649	0	0	0
650	0	0	0
651	0	0	0
652	0	0	0
653	0	0	0
654	0	0	0
655	0	0	0
656	255	225	222
657	255	221	221
658	255	216	222
659	250	204	216
660	251	202	218
661	255	213	227
662	255	216	231
663	253	194	217
664	247	179	211
665	255	198	227
666	255	183	218
667	250	172	213
668	247	167	213
669	254	176	219
670	254	179	214
671	255	183	214
672	255	187	217
673	255	187	217
674	255	192	217
675	253	190	215
676	255	196	220
677	252	193	218
678	248	192	215
679	255	216	229
680	255	216	224
681	0	0	0
682	0	0	0
683	0	0	0
684	0	0	0
685	0	0	0
686	0	0	0
687	0	0	0
688	0	0	0
689	0	0	0
690	0	0	0
691	0	0	0
692	0	0	0
693	0	0	0
694	255	233	227
695	255	225	224
696	255	221	225
697	255	219	225
698	255	215	222
699	255	216	223
700	255	219	229
701	255	204	222
702	253	190	215
703	252	182	213
704	244	167	204
705	248	169	210
706	247	165	211
707	254	175	218
708	255	179	218
709	255	183	219
710	255	186	220
711	255	193	222
712	255	196	218
713	255	199	217
714	255	205	223
715	255	206	223
716	255	204	219
717	255	209	219
718	252	209	214
719	0	0	0
720	0	0	0
721	0	0	0
722	0	0	0
723	0	0	0
724	0	0	0
725	0	0	0
726	0	0	0
727	0	0	0
728	0	0	0
729	0	0	0
730	0	0	0
731	0	0	0
732	255	232	227
733	255	223	223
734	252	214	220
735	253	213	219
736	255	217	219
737	255	217	220
738	255	215	223
739	254	200	216
740	255	195	216
741	254	187	214
742	249	173	207
743	254	176	214
744	246	162	209
745	254	173	219
746	255	178	222
747	255	183	223
748	254	177	218
749	255	184	219
750	250	177	208
751	249	179	206
752	255	200	220
753	255	201	219
754	249	191	209
755	249	197	210
756	252	208	213
757	0	0	0
758	0	0	0
759	0	0	0
760	0	0	0
761	0	0	0
762	0	0	0
763	0	0	0
764	0	0	0
765	0	0	0
766	0	0	0
767	0	0	0
768	0	0	0
769	0	0	0
770	0	0	0
771	253	221	222
772	249	211	217
773	255	218	222
774	255	222	223
775	255	215	218
776	255	213	221
777	255	203	217
778	255	198	215
779	254	187	211
780	248	174	205
781	248	168	207
782	242	157	206
783	253	170	219
784	255	175	221
785	253	172	218
786	249	167	214
787	249	168	213
788	243	163	207
789	255	183	218
790	255	203	228
791	255	192	217
792	246	183	209
793	254	200	218
794	0	0	0
795	0	0	0
796	0	0	0
797	0	0	0
798	0	0	0
799	0	0	0
800	0	0	0
801	0	0	0
802	0	0	0
803	0	0	0
804	0	0	0
805	0	0	0
806	0	0	0
807	0	0	0
808	0	0	0
809	0	0	0
810	255	226	226
811	255	231	230
812	253	215	217
813	249	207	211
814	255	220	224
815	255	211	219
816	255	204	217
817	255	194	214
818	246	172	203
819	246	167	206
820	254	173	218
821	255	186	231
822	250	165	215
823	249	164	214
824	255	176	223
825	255	177	223
826	245	160	210
827	255	181	221
828	255	190	222
829	249	179	210
830	250	186	214
831	255	202	225
832	252	200	219
833	0	0	0
834	0	0	0
835	0	0	0
836	0	0	0
837	0	0	0
838	0	0	0
839	0	0	0
840	0	0	0
841	0	0	0
842	0	0	0
843	0	0	0
844	0	0	0
845	0	0	0
846	250	220	218
847	255	230	226
848	255	240	234
849	255	224	222
850	247	207	211
851	255	216	217
852	255	228	226
853	255	215	218
854	255	209	219
855	254	192	213
856	244	170	204
857	254	180	217
858	255	185	225
859	252	170	216
860	239	150	203
861	254	168	217
862	255	181	226
863	255	170	218
864	241	152	204
865	249	166	210
866	252	175	212
867	251	179	211
868	253	186	218
869	253	190	220
870	246	187	215
871	0	0	0
872	0	0	0
873	0	0	0
874	0	0	0
875	0	0	0
876	0	0	0
877	0	0	0
878	0	0	0
879	0	0	0
880	0	0	0
881	0	0	0
882	0	0	0
883	251	225	218
884	252	223	220
885	255	233	229
886	255	228	225
887	248	212	213
888	249	211	213
889	255	219	219
890	255	230	226
891	255	216	217
892	255	210	219
893	253	192	213
894	244	174	207
895	255	183	219
896	255	187	222
897	252	172	214
898	248	163	211
899	255	181	227
900	254	165	217
901	246	154	209
902	241	149	205
903	249	163	212
904	255	179	217
905	255	183	216
906	255	187	219
907	254	190	221
908	247	186	217
909	0	0	0
910	0	0	0
911	0	0	0
912	0	0	0
913	0	0	0
914	0	0	0
915	0	0	0
916	0	0	0
917	0	0	0
918	0	0	0
919	0	0	0
920	0	0	0
921	255	230	228
922	255	227	226
923	253	222	223
924	250	217	219
925	251	217	218
926	252	215	217
927	255	224	223
928	255	235	231
929	255	220	222
930	255	212	218
931	252	194	211
932	244	176	208
933	253	183	217
934	255	186	218
935	255	178	215
936	253	170	214
937	248	159	211
938	239	144	204
939	240	146	208
940	237	142	207
941	251	165	219
942	255	180	221
943	253	179	214
944	252	182	214
945	248	182	213
946	243	179	213
947	0	0	0
948	0	0	0
949	0	0	0
950	0	0	0
951	0	0	0
952	0	0	0
953	0	0	0
954	0	0	0
955	0	0	0
956	0	0	0
957	0	0	0
958	255	235	231
959	255	232	228
960	255	230	228
961	254	224	226
962	253	222	223
963	254	222	223
964	254	219	221
965	255	227	226
966	255	229	228
967	255	213	218
968	255	207	215
969	247	189	207
970	252	189	214
971	255	196	222
972	255	188	217
973	255	181	215
974	250	168	211
975	246	157	209
976	250	161	215
977	253	164	220
978	250	161	219
979	255	183	232
980	255	176	219
981	251	176	213
982	255	191	219
983	255	191	217
984	249	187	215
985	0	0	0
986	0	0	0
987	0	0	0
988	0	0	0
989	0	0	0
990	0	0	0
991	0	0	0
992	0	0	0
993	0	0	0
994	0	0	0
995	0	0	0
996	0	0	0
997	253	230	220
998	254	229	225
999	254	226	226
1000	253	224	224
1001	254	223	224
1002	254	221	224
1003	255	222	224
1004	255	223	223
1005	254	212	217
1006	255	207	217
1007	255	204	218
1008	255	202	219
1009	255	196	218
1010	255	190	217
1011	252	177	213
1012	246	164	209
1013	255	172	219
1014	255	175	222
1015	255	176	223
1016	255	173	219
1017	254	173	218
1018	248	169	212
1019	255	186	221
1020	255	201	225
1021	255	198	219
1022	253	193	214
1023	0	0	0
1024	0	0	0
1025	0	0	0
1026	0	0	0
1027	0	0	0
1028	0	0	0
1029	0	0	0
1030	0	0	0
1031	0	0	0
1032	0	0	0
1033	0	0	0
1034	0	0	0
1035	0	0	0
1036	0	0	0
1037	0	0	0
1038	255	233	231
1039	255	233	231
1040	254	222	224
1041	255	222	225
1042	255	218	221
1043	251	208	215
1044	255	211	219
1045	255	207	219
1046	255	201	216
1047	255	195	216
1048	255	190	218
1049	251	178	214
1050	249	170	212
1051	255	178	220
1052	250	167	212
1053	251	168	212
1054	255	177	216
1055	255	178	217
1056	249	170	213
1057	255	188	224
1058	255	187	217
1059	251	184	210
1060	248	185	208
1061	0	0	0
1062	0	0	0
1063	0	0	0
1064	0	0	0
1065	0	0	0
1066	0	0	0
1067	0	0	0
1068	0	0	0
1069	0	0	0
1070	0	0	0
1071	0	0	0
1072	0	0	0
1073	0	0	0
1074	0	0	0
1075	0	0	0
1076	0	0	0
1077	255	230	229
1078	250	218	220
1079	250	215	219
1080	250	212	219
1081	252	212	218
1082	255	213	218
1083	254	206	216
1084	254	201	217
1085	255	196	218
1086	255	191	220
1087	253	183	217
1088	249	174	212
1089	248	169	210
1090	241	159	202
1091	252	172	212
1092	255	182	217
1093	254	176	214
1094	247	169	212
1095	248	172	214
1096	245	171	208
1097	247	178	210
1098	0	0	0
1099	0	0	0
1100	0	0	0
1101	0	0	0
1102	0	0	0
1103	0	0	0
1104	0	0	0
1105	0	0	0
1106	0	0	0
1107	0	0	0
1108	0	0	0
1109	0	0	0
1110	0	0	0
1111	0	0	0
1112	0	0	0
1113	0	0	0
1114	0	0	0
1115	0	0	0
1116	0	0	0
1117	0	0	0
1118	0	0	0
1119	0	0	0
1120	255	222	223
1121	255	215	220
1122	252	201	217
1123	252	195	217
1124	255	197	221
1125	253	188	217
1126	253	183	216
1127	252	178	213
1128	249	173	211
1129	255	187	221
1130	253	177	212
1131	248	171	209
1132	254	180	217
1133	255	184	220
1134	255	188	220
1135	255	195	224
1136	0	0	0
1137	0	0	0
1138	0	0	0
1139	0	0	0
1140	0	0	0
1141	0	0	0
1142	0	0	0
1143	0	0	0
1144	0	0	0
1145	0	0	0
1146	0	0	0
1147	0	0	0
1148	0	0	0
1149	0	0	0
1150	0	0	0
1151	0	0	0
1152	0	0	0
1153	0	0	0
1154	0	0	0
1155	0	0	0
1156	0	0	0
1157	0	0	0
1158	255	231	227
1159	255	214	218
1160	249	199	214
1161	253	200	218
1162	255	200	218
1163	255	195	216
1164	255	191	218
1165	255	189	220
1166	255	185	218
1167	252	179	215
1168	245	169	207
1169	254	181	215
1170	255	189	219
1171	255	196	222
1172	255	201	225
1173	255	191	220
1174	0	0	0
1175	0	0	0
1176	0	0	0
1177	0	0	0
1178	0	0	0
1179	0	0	0
1180	0	0	0
1181	0	0	0
1182	0	0	0
1183	0	0	0
1184	0	0	0
1185	0	0	0
1186	0	0	0
1187	0	0	0
1188	0	0	0
1189	0	0	0
1190	0	0	0
1191	0	0	0
1192	0	0	0
1193	0	0	0
1194	0	0	0
1195	0	0	0
1196	255	228	224
1197	252	211	215
1198	250	204	215
1199	254	204	218
1200	255	206	217
1201	255	200	214
1202	255	196	216
1203	255	195	218
1204	255	193	220
1205	255	188	217
1206	251	180	213
1207	255	192	222
1208	252	180	211
1209	255	187	213
1210	255	188	214
1211	247	178	210
1212	0	0	0
1213	0	0	0
1214	0	0	0
1215	0	0	0
1216	0	0	0
1217	0	0	0
1218	0	0	0
1219	0	0	0
1220	0	0	0
1221	0	0	0
1222	0	0	0
1223	0	0	0
1224	0	0	0
1225	0	0	0
1226	0	0	0
1227	0	0	0
1228	0	0	0
1229	0	0	0
1230	0	0	0
1231	0	0	0
1232	0	0	0
1233	255	228	227
1234	255	229	225
1235	255	219	218
1236	254	211	218
1237	255	213	220
1238	255	214	219
1239	255	207	214
1240	255	202	213
1241	255	202	216
1242	255	201	218
1243	255	194	216
1244	253	186	214
1245	250	180	211
1246	242	169	202
1247	245	174	205
1248	245	175	205
1249	250	183	212
1250	253	190	222
1251	255	197	227
1252	0	0	0
1253	0	0	0
1254	0	0	0
1255	0	0	0
1256	0	0	0
1257	0	0	0
1258	0	0	0
1259	0	0	0
1260	0	0	0
1261	0	0	0
1262	0	0	0
1263	0	0	0
1264	0	0	0
1265	0	0	0
1266	0	0	0
1267	0	0	0
1268	0	0	0
1269	0	0	0
1270	255	231	229
1271	255	232	232
1272	254	220	221
1273	249	209	213
1274	253	213	218
1275	255	214	218
1276	255	217	218
1277	255	210	212
1278	254	203	210
1279	255	203	214
1280	253	195	211
1281	251	189	210
1282	255	194	216
1283	253	188	214
1284	252	186	213
1285	255	191	217
1286	249	183	211
1287	254	192	218
1288	254	192	221
1289	255	200	225
1290	247	193	215
1291	0	0	0
1292	0	0	0
1293	0	0	0
1294	0	0	0
1295	0	0	0
1296	0	0	0
1297	0	0	0
1298	0	0	0
1299	0	0	0
1300	0	0	0
1301	0	0	0
1302	0	0	0
1303	0	0	0
1304	0	0	0
1305	0	0	0
1306	0	0	0
1307	0	0	0
1308	0	0	0
1309	253	223	225
1310	248	212	220
1311	252	215	222
1312	255	217	222
1313	255	220	221
1314	255	223	220
1315	255	214	214
1316	255	208	213
1317	254	202	213
1318	251	194	212
1319	255	199	218
1320	255	202	220
1321	255	199	217
1322	255	197	218
1323	253	192	216
1324	248	186	212
1325	251	190	216
1326	249	189	215
1327	248	191	214
1328	240	184	205
1329	249	202	215
1330	0	0	0
1331	0	0	0
1332	0	0	0
1333	0	0	0
1334	0	0	0
1335	0	0	0
1336	0	0	0
1337	0	0	0
1338	0	0	0
1339	0	0	0
1340	0	0	0
1341	0	0	0
1342	0	0	0
1343	0	0	0
1344	0	0	0
1345	0	0	0
1346	0	0	0
1347	0	0	0
1348	253	221	227
1349	255	224	229
1350	254	219	222
1351	255	221	221
1352	255	223	220
1353	255	214	215
1354	254	207	213
1355	252	201	213
1356	251	198	214
1357	255	202	219
1358	254	200	216
1359	252	196	212
1360	255	206	219
1361	255	201	218
1362	255	199	219
1363	255	204	224
1364	255	201	220
1365	255	203	220
1366	247	194	211
1367	255	212	222
1368	255	215	223
1369	0	0	0
1370	0	0	0
1371	0	0	0
1372	0	0	0
1373	0	0	0
1374	0	0	0
1375	0	0	0
1376	0	0	0
1377	0	0	0
1378	0	0	0
1379	0	0	0
1380	0	0	0
1381	0	0	0
1382	0	0	0
1383	0	0	0
1384	0	0	0
1385	0	0	0
1386	0	0	0
1387	255	225	227
1388	253	220	220
1389	255	222	221
1390	255	225	224
1391	255	216	219
1392	253	208	214
1393	252	204	213
1394	251	200	214
1395	253	202	217
1396	252	200	215
1397	255	210	220
1398	255	219	224
1399	255	214	221
1400	255	212	225
1401	255	214	228
1402	255	212	226
1403	255	210	225
1404	253	202	216
1405	255	212	222
1406	255	215	221
1407	0	0	0
1408	0	0	0
1409	0	0	0
1410	0	0	0
1411	0	0	0
1412	0	0	0
1413	0	0	0
1414	0	0	0
1415	0	0	0
1416	0	0	0
1417	0	0	0
1418	0	0	0
1419	0	0	0
1420	0	0	0
1421	0	0	0
1422	0	0	0
1423	0	0	0
1424	0	0	0
1425	0	0	0
1426	255	226	221
1427	255	227	223
1428	255	222	223
1429	253	213	219
1430	252	210	215
1431	251	205	214
1432	255	213	222
1433	255	215	225
1434	250	199	214
1435	255	208	218
1436	255	215	219
1437	255	210	214
1438	255	208	218
1439	255	211	222
1440	254	201	217
1441	253	201	218
1442	248	195	213
1443	254	206	219
1444	252	209	218
1445	0	0	0
1446	0	0	0
1447	0	0	0
1448	0	0	0
1449	0	0	0
1450	0	0	0
1451	0	0	0
1452	0	0	0
1453	0	0	0
1454	0	0	0
1455	0	0	0
1456	0	0	0
1457	0	0	0
1458	0	0	0
1459	0	0	0
1460	0	0	0
1461	0	0	0
1462	0	0	0
1463	0	0	0
1464	255	230	219
1465	254	223	217
1466	253	218	219
1467	254	216	221
1468	253	213	220
1469	255	221	227
1470	255	228	234
1471	255	216	227
1472	248	199	212
1473	254	207	216
1474	255	214	218
1475	254	208	212
1476	253	205	211
1477	250	199	209
1478	245	190	208
1479	248	193	213
1480	244	189	211
1481	250	199	218
1482	248	202	217
1483	0	0	0
1484	0	0	0
1485	0	0	0
1486	0	0	0
1487	0	0	0
1488	0	0	0
1489	0	0	0
1490	0	0	0
1491	0	0	0
1492	0	0	0
1493	0	0	0
1494	0	0	0
1495	0	0	0
1496	0	0	0
1497	0	0	0
1498	0	0	0
1499	0	0	0
1500	0	0	0
1501	0	0	0
1502	0	0	0
1503	252	221	216
1504	255	222	222
1505	255	220	224
1506	255	220	224
1507	255	227	230
1508	255	217	225
1509	251	204	218
1510	246	197	212
1511	252	206	217
1512	255	220	223
1513	255	214	216
1514	255	211	214
1515	253	204	212
1516	250	198	214
1517	253	201	220
1518	250	197	218
1519	255	207	224
1520	249	202	217
1521	0	0	0
1522	0	0	0
1523	0	0	0
1524	0	0	0
1525	0	0	0
1526	0	0	0
1527	0	0	0
1528	0	0	0
1529	0	0	0
1530	0	0	0
1531	0	0	0
1532	0	0	0
1533	0	0	0
1534	0	0	0
1535	0	0	0
1536	0	0	0
1537	0	0	0
1538	0	0	0
1539	0	0	0
1540	0	0	0
1541	0	0	0
1542	0	0	0
1543	0	0	0
1544	255	227	225
1545	253	214	217
1546	248	204	213
1547	248	202	215
1548	245	197	215
1549	255	213	226
1550	255	226	230
1551	255	219	222
1552	255	216	219
1553	255	210	218
1554	253	204	219
1555	252	202	220
1556	248	197	215
1557	249	199	215
1558	243	195	210
1559	0	0	0
1560	0	0	0
1561	0	0	0
1562	0	0	0
1563	0	0	0
1564	0	0	0
1565	0	0	0
1566	0	0	0
1567	0	0	0
1568	0	0	0
1569	0	0	0
1570	0	0	0
1571	0	0	0
1572	0	0	0
1573	0	0	0
1574	0	0	0
1575	0	0	0
1576	0	0	0
1577	0	0	0
1578	0	0	0
1579	0	0	0
1580	0	0	0
1581	0	0	0
1582	0	0	0
1583	247	208	211
1584	254	214	218
1585	254	212	221
1586	250	205	221
1587	255	221	232
1588	255	222	227
1589	255	214	219
1590	255	213	219
1591	252	206	217
1592	252	205	218
1593	251	203	217
1594	255	214	223
1595	255	217	224
1596	245	199	211
1597	0	0	0
1598	0	0	0
1599	0	0	0
1600	0	0	0
1601	0	0	0
1602	0	0	0
1603	0	0	0
1604	0	0	0
1605	0	0	0
1606	0	0	0
1607	0	0	0
1608	0	0	0
1609	0	0	0
1610	0	0	0
1611	0	0	0
1612	0	0	0
1613	0	0	0
1614	0	0	0
1615	0	0	0
1616	0	0	0
1617	0	0	0
1618	0	0	0
1619	0	0	0
1620	249	214	218
1621	254	218	222
1622	255	223	225
1623	255	216	223
1624	251	210	223
1625	255	215	226
1626	255	215	220
1627	253	212	217
1628	255	212	221
1629	254	210	220
1630	251	207	216
1631	255	218	221
1632	255	229	228
1633	255	218	221
1634	245	202	209
1635	0	0	0
1636	0	0	0
1637	0	0	0
1638	0	0	0
1639	0	0	0
1640	0	0	0
1641	0	0	0
1642	0	0	0
1643	0	0	0
1644	0	0	0
1645	0	0	0
1646	0	0	0
1647	0	0	0
1648	0	0	0
1649	0	0	0
1650	0	0	0
1651	0	0	0
1652	0	0	0
1653	0	0	0
1654	0	0	0
1655	0	0	0
1656	0	0	0
1657	0	0	0
1658	0	0	0
1659	255	229	229
1660	254	221	222
1661	250	214	218
1662	255	222	228
1663	255	228	232
1664	250	210	216
1665	249	207	215
1666	255	215	224
1667	254	212	221
1668	253	212	216
1669	255	223	221
1670	255	226	223
1671	255	215	216
1672	242	198	207
1673	0	0	0
1674	0	0	0
1675	0	0	0
1676	0	0	0
1677	0	0	0
1678	0	0	0
1679	0	0	0
1680	0	0	0
1681	0	0	0
1682	0	0	0
1683	0	0	0
1684	0	0	0
1685	0	0	0
1686	0	0	0
1687	0	0	0
1688	0	0	0
1689	0	0	0
1690	0	0	0
1691	0	0	0
1692	0	0	0
1693	0	0	0
1694	0	0	0
1695	0	0	0
1696	0	0	0
1697	254	225	222
1698	249	217	216
1699	255	224	221
1700	255	232	227
1701	254	218	219
1702	244	202	211
1703	250	210	219
1704	255	217	224
1705	255	219	223
1706	255	219	219
1707	255	222	220
1708	255	226	224
1709	253	213	217
1710	0	0	0
1711	0	0	0
1712	0	0	0
1713	0	0	0
1714	0	0	0
1715	0	0	0
1716	0	0	0
1717	0	0	0
1718	0	0	0
1719	0	0	0
1720	0	0	0
1721	0	0	0
1722	0	0	0
1723	0	0	0
1724	0	0	0
1725	0	0	0
1726	0	0	0
1727	0	0	0
1728	0	0	0
1729	0	0	0
1730	0	0	0
1731	0	0	0
1732	0	0	0
1733	0	0	0
1734	0	0	0
1735	0	0	0
1736	255	228	221
1737	255	236	228
1738	255	227	221
1739	248	212	214
1740	249	211	218
1741	255	220	225
1742	255	224	227
1743	255	226	226
1744	255	218	218
1745	255	222	221
1746	254	215	219
1747	0	0	0
1748	0	0	0
1749	0	0	0
1750	0	0	0
1751	0	0	0
1752	0	0	0
1753	0	0	0
1754	0	0	0
1755	0	0	0
1756	0	0	0
1757	0	0	0
1758	0	0	0
1759	0	0	0
1760	0	0	0
1761	0	0	0
1762	0	0	0
1763	0	0	0
1764	0	0	0
1765	0	0	0
1766	0	0	0
1767	0	0	0
1768	0	0	0
1769	0	0	0
1770	0	0	0
1771	0	0	0
1772	0	0	0
1773	0	0	0
1774	0	0	0
1775	255	231	223
1776	252	222	221
1777	253	222	223
1778	252	219	221
1779	255	224	224
1780	255	229	227
1781	255	223	223
1782	252	216	217
1783	0	0	0
1784	0	0	0
1785	0	0	0
1786	0	0	0
1787	0	0	0
1788	0	0	0
1789	0	0	0
1790	0	0	0
1791	0	0	0
1792	0	0	0
1793	0	0	0
1794	0	0	0
1795	0	0	0
1796	0	0	0
1797	0	0	0
1798	0	0	0
1799	0	0	0
1800	0	0	0
1801	0	0	0
1802	0	0	0
1803	0	0	0
1804	0	0	0
1805	0	0	0
1806	0	0	0
1807	0	0	0
1808	0	0	0
1809	0	0	0
1810	0	0	0
1811	0	0	0
1812	0	0	0
1813	0	0	0
1814	255	232	229
1815	255	232	230
1816	251	222	221
1817	255	227	224
1818	255	236	231
1819	0	0	0
1820	0	0	0
1821	0	0	0
1822	0	0	0
1823	0	0	0
1824	0	0	0
1825	0	0	0
1826	0	0	0
1827	0	0	0
1828	0	0	0
1829	0	0	0
1830	0	0	0
1831	0	0	0
1832	0	0	0
1833	0	0	0
1834	0	0	0
1835	0	0	0
1836	0	0	0
1837	0	0	0
1838	0	0	0
1839	0	0	0
1840	0	0	0
1841	0	0	0
1842	0	0	0
1843	0	0	0
1844	0	0	0
1845	0	0	0
1846	0	0	0
1847	0	0	0
1848	0	0	0
1849	0	0	0
1850	0	0	0
1851	0	0	0
1852	255	241	234
1853	255	236	232
1854	253	226	222
1855	255	233	227
1856	0	0	0
1857	0	0	0
1858	0	0	0
1859	0	0	0
1860	0	0	0
1861	0	0	0
1862	0	0	0
1863	0	0	0
1864	0	0	0
1865	0	0	0
1866	0	0	0
1867	0	0	0
1868	0	0	0
1869	0	0	0
1870	0	0	0
1871	0	0	0
1872	0	0	0
1873	0	0	0
1874	0	0	0
1875	0	0	0
1876	0	0	0
1877	0	0	0
1878	0	0	0
1879	0	0	0
1880	0	0	0
1881	0	0	0
1882	0	0	0
1883	0	0	0
1884	0	0	0
1885	0	0	0
1886	0	0	0
1887	0	0	0
1888	0	0	0
1889	0	0	0
1890	255	241	231
1891	255	236	229
1892	248	222	218
1893	0	0	0
1894	0	0	0
1895	0	0	0
1896	0	0	0
1897	0	0	0
1898	0	0	0
1899	0	0	0
1900	0	0	0
1901	0	0	0
1902	0	0	0
1903	0	0	0
1904	0	0	0
1905	0	0	0
1906	0	0	0
1907	0	0	0
1908	0	0	0
1909	0	0	0
1910	0	0	0
1911	0	0	0
1912	0	0	0
1913	0	0	0
1914	0	0	0
1915	0	0	0
1916	0	0	0
1917	0	0	0
1918	0	0	0
1919	0	0	0
1920	0	0	0
1921	0	0	0
1922	0	0	0
1923	0	0	0
1924	0	0	0
1925	0	0	0
1926	0	0	0
1927	0	0	0
1928	0	0	0
1929	252	231	222
1930	0	0	0
1931	0	0	0
1932	0	0	0
1933	0	0	0
1934	0	0	0
1935	0	0	0
1936	0	0	0
1937	0	0	0
1938	0	0	0
