 	R	G	B
1	0	0	0
2	0	0	0
3	0	0	0
4	0	0	0
5	0	0	0
6	0	0	0
7	0	0	0
8	0	0	0
9	0	0	0
10	0	0	0
11	0	0	0
12	0	0	0
13	0	0	0
14	0	0	0
15	0	0	0
16	0	0	0
17	0	0	0
18	0	0	0
19	0	0	0
20	0	0	0
21	0	0	0
22	0	0	0
23	0	0	0
24	0	0	0
25	0	0	0
26	0	0	0
27	0	0	0
28	0	0	0
29	255	243	243
30	255	229	233
31	255	229	234
32	255	226	233
33	255	224	233
34	255	222	233
35	255	223	234
36	0	0	0
37	255	218	235
38	0	0	0
39	0	0	0
40	0	0	0
41	0	0	0
42	249	199	229
43	0	0	0
44	0	0	0
45	0	0	0
46	0	0	0
47	0	0	0
48	0	0	0
49	0	0	0
50	0	0	0
51	0	0	0
52	0	0	0
53	0	0	0
54	0	0	0
55	0	0	0
56	0	0	0
57	0	0	0
58	0	0	0
59	0	0	0
60	0	0	0
61	0	0	0
62	0	0	0
63	0	0	0
64	0	0	0
65	0	0	0
66	0	0	0
67	0	0	0
68	0	0	0
69	0	0	0
70	0	0	0
71	0	0	0
72	255	238	239
73	255	229	234
74	249	212	224
75	253	214	227
76	253	212	228
77	253	210	228
78	253	210	228
79	253	210	229
80	255	216	236
81	255	208	232
82	248	196	226
83	0	0	0
84	0	0	0
85	255	204	234
86	247	194	228
87	242	189	227
88	0	0	0
89	0	0	0
90	0	0	0
91	0	0	0
92	0	0	0
93	0	0	0
94	0	0	0
95	0	0	0
96	0	0	0
97	0	0	0
98	0	0	0
99	0	0	0
100	0	0	0
101	0	0	0
102	0	0	0
103	0	0	0
104	0	0	0
105	0	0	0
106	0	0	0
107	0	0	0
108	0	0	0
109	0	0	0
110	0	0	0
111	0	0	0
112	0	0	0
113	0	0	0
114	0	0	0
115	255	238	238
116	255	224	231
117	252	213	226
118	245	198	221
119	250	200	225
120	249	197	224
121	250	198	226
122	250	198	226
123	250	199	228
124	255	205	233
125	249	194	227
126	242	183	220
127	253	197	231
128	255	211	240
129	253	198	232
130	245	187	228
131	251	201	238
132	254	210	243
133	0	0	0
134	0	0	0
135	0	0	0
136	0	0	0
137	0	0	0
138	0	0	0
139	0	0	0
140	0	0	0
141	0	0	0
142	0	0	0
143	0	0	0
144	0	0	0
145	0	0	0
146	0	0	0
147	0	0	0
148	0	0	0
149	0	0	0
150	0	0	0
151	0	0	0
152	0	0	0
153	0	0	0
154	0	0	0
155	0	0	0
156	0	0	0
157	0	0	0
158	255	237	237
159	255	226	232
160	250	209	224
161	246	197	221
162	251	198	228
163	255	200	233
164	250	192	226
165	252	193	228
166	252	194	230
167	252	195	231
168	255	202	237
169	251	191	230
170	249	187	229
171	255	201	239
172	253	193	231
173	242	180	222
174	250	195	234
175	255	207	242
176	249	208	239
177	0	0	0
178	0	0	0
179	0	0	0
180	0	0	0
181	0	0	0
182	0	0	0
183	0	0	0
184	0	0	0
185	0	0	0
186	0	0	0
187	0	0	0
188	0	0	0
189	0	0	0
190	0	0	0
191	0	0	0
192	0	0	0
193	0	0	0
194	0	0	0
195	0	0	0
196	0	0	0
197	0	0	0
198	0	0	0
199	0	0	0
200	0	0	0
201	255	237	235
202	255	223	231
203	250	208	226
204	242	191	217
205	245	191	221
206	247	191	227
207	244	185	226
208	239	176	219
209	248	184	227
210	251	186	232
211	254	192	236
212	255	199	239
213	255	194	236
214	255	189	236
215	251	184	233
216	242	176	225
217	248	189	232
218	254	202	239
219	254	207	240
220	0	0	0
221	0	0	0
222	0	0	0
223	0	0	0
224	0	0	0
225	0	0	0
226	0	0	0
227	0	0	0
228	0	0	0
229	0	0	0
230	0	0	0
231	0	0	0
232	0	0	0
233	0	0	0
234	0	0	0
235	0	0	0
236	0	0	0
237	0	0	0
238	0	0	0
239	0	0	0
240	0	0	0
241	0	0	0
242	0	0	0
243	0	0	0
244	255	245	240
245	255	230	233
246	248	207	223
247	241	191	218
248	246	195	223
249	247	194	227
250	248	195	232
251	238	185	226
252	238	181	225
253	255	193	237
254	255	187	237
255	255	193	241
256	255	187	235
257	251	181	232
258	251	181	235
259	247	176	231
260	247	182	233
261	249	193	237
262	247	197	236
263	0	0	0
264	0	0	0
265	0	0	0
266	0	0	0
267	0	0	0
268	0	0	0
269	0	0	0
270	0	0	0
271	0	0	0
272	0	0	0
273	0	0	0
274	0	0	0
275	0	0	0
276	0	0	0
277	0	0	0
278	0	0	0
279	0	0	0
280	0	0	0
281	0	0	0
282	0	0	0
283	0	0	0
284	0	0	0
285	0	0	0
286	0	0	0
287	255	240	237
288	255	238	239
289	254	215	226
290	242	190	214
291	249	196	223
292	254	200	232
293	255	201	236
294	254	201	238
295	246	193	234
296	246	189	234
297	255	190	238
298	254	183	234
299	250	177	231
300	246	171	228
301	246	171	230
302	246	171	233
303	251	181	239
304	250	186	238
305	244	189	235
306	240	192	235
307	0	0	0
308	0	0	0
309	0	0	0
310	0	0	0
311	0	0	0
312	0	0	0
313	0	0	0
314	0	0	0
315	0	0	0
316	0	0	0
317	0	0	0
318	0	0	0
319	0	0	0
320	0	0	0
321	0	0	0
322	0	0	0
323	0	0	0
324	0	0	0
325	0	0	0
326	0	0	0
327	255	245	241
328	0	0	0
329	0	0	0
330	255	238	234
331	255	233	234
332	255	219	229
333	246	195	218
334	246	189	217
335	253	195	227
336	252	191	229
337	253	191	232
338	255	196	236
339	253	190	235
340	250	183	234
341	251	179	234
342	252	179	234
343	249	173	231
344	252	178	236
345	252	177	237
346	249	176	237
347	253	185	242
348	252	191	242
349	246	193	238
350	246	203	243
351	0	0	0
352	0	0	0
353	0	0	0
354	0	0	0
355	0	0	0
356	0	0	0
357	0	0	0
358	0	0	0
359	0	0	0
360	0	0	0
361	0	0	0
362	0	0	0
363	0	0	0
364	0	0	0
365	0	0	0
366	0	0	0
367	255	242	241
368	255	242	239
369	255	240	238
370	255	236	236
371	255	231	233
372	251	223	227
373	0	0	0
374	255	232	236
375	253	214	226
376	248	198	219
377	249	193	221
378	249	187	223
379	250	185	226
380	247	179	225
381	252	184	230
382	255	189	233
383	252	181	230
384	249	174	230
385	252	176	235
386	252	176	237
387	255	179	240
388	255	182	242
389	255	182	241
390	250	178	236
391	255	189	242
392	253	195	244
393	251	204	245
394	0	0	0
395	0	0	0
396	0	0	0
397	0	0	0
398	0	0	0
399	0	0	0
400	0	0	0
401	0	0	0
402	0	0	0
403	0	0	0
404	0	0	0
405	0	0	0
406	0	0	0
407	0	0	0
408	0	0	0
409	0	0	0
410	252	240	240
411	255	243	243
412	253	231	233
413	255	229	233
414	253	223	230
415	251	218	227
416	253	219	227
417	255	222	230
418	255	227	236
419	254	208	226
420	250	194	220
421	251	189	223
422	250	184	226
423	250	181	227
424	254	186	232
425	255	190	236
426	255	185	233
427	253	178	231
428	249	171	230
429	251	172	235
430	255	178	240
431	255	180	242
432	254	178	240
433	251	176	237
434	250	179	236
435	253	189	240
436	248	192	238
437	0	0	0
438	0	0	0
439	0	0	0
440	0	0	0
441	0	0	0
442	0	0	0
443	0	0	0
444	0	0	0
445	0	0	0
446	0	0	0
447	0	0	0
448	0	0	0
449	0	0	0
450	0	0	0
451	0	0	0
452	0	0	0
453	255	246	245
454	255	240	242
455	254	231	237
456	249	220	230
457	250	216	229
458	247	209	224
459	250	211	224
460	252	212	224
461	253	212	224
462	255	218	231
463	254	202	223
464	249	189	219
465	250	186	223
466	249	180	226
467	255	187	234
468	255	191	238
469	255	185	235
470	254	180	232
471	253	175	232
472	249	167	231
473	252	173	236
474	253	177	238
475	251	175	236
476	249	172	235
477	249	177	237
478	248	180	235
479	249	187	236
480	244	189	232
481	0	0	0
482	0	0	0
483	0	0	0
484	0	0	0
485	0	0	0
486	0	0	0
487	0	0	0
488	0	0	0
489	0	0	0
490	0	0	0
491	0	0	0
492	0	0	0
493	0	0	0
494	0	0	0
495	0	0	0
496	0	0	0
497	255	239	242
498	254	232	238
499	251	223	233
500	251	218	233
501	252	214	231
502	250	209	227
503	253	211	228
504	252	209	225
505	253	209	225
506	255	210	227
507	251	194	221
508	249	185	220
509	250	181	223
510	253	183	231
511	255	190	239
512	255	187	237
513	255	180	233
514	253	176	233
515	251	170	232
516	247	166	232
517	246	169	234
518	249	175	236
519	249	174	235
520	250	178	238
521	248	181	238
522	250	189	239
523	253	196	240
524	248	196	234
525	0	0	0
526	0	0	0
527	0	0	0
528	0	0	0
529	0	0	0
530	0	0	0
531	0	0	0
532	0	0	0
533	0	0	0
534	0	0	0
535	0	0	0
536	0	0	0
537	0	0	0
538	0	0	0
539	253	238	238
540	255	237	240
541	255	231	239
542	254	226	236
543	254	220	234
544	252	215	232
545	251	210	230
546	249	206	227
547	252	206	228
548	252	204	228
549	253	203	228
550	255	203	228
551	253	192	223
552	251	183	224
553	255	187	232
554	255	187	237
555	255	185	237
556	255	181	234
557	251	174	231
558	249	170	231
559	248	168	232
560	243	162	230
561	245	169	234
562	248	175	238
563	253	181	241
564	252	183	240
565	248	188	239
566	249	195	240
567	251	200	240
568	0	0	0
569	0	0	0
570	0	0	0
571	0	0	0
572	0	0	0
573	0	0	0
574	0	0	0
575	0	0	0
576	0	0	0
577	0	0	0
578	0	0	0
579	0	0	0
580	0	0	0
581	0	0	0
582	255	242	239
583	255	242	241
584	254	231	237
585	255	226	236
586	252	217	232
587	251	212	230
588	252	211	231
589	248	205	228
590	252	207	231
591	255	209	235
592	255	201	231
593	255	200	231
594	255	194	227
595	250	183	222
596	254	185	228
597	255	188	235
598	251	175	230
599	246	171	229
600	249	175	231
601	246	169	229
602	246	169	233
603	242	165	232
604	241	164	232
605	249	174	240
606	251	179	242
607	251	181	242
608	246	181	237
609	241	185	234
610	250	204	243
611	251	209	242
612	0	0	0
613	0	0	0
614	0	0	0
615	0	0	0
616	0	0	0
617	0	0	0
618	0	0	0
619	0	0	0
620	0	0	0
621	0	0	0
622	0	0	0
623	0	0	0
624	0	0	0
625	255	245	242
626	255	245	242
627	255	234	237
628	253	223	233
629	252	217	231
630	249	208	226
631	252	209	229
632	253	208	230
633	252	207	231
634	255	210	236
635	255	204	234
636	255	196	230
637	255	192	229
638	253	186	227
639	254	185	227
640	255	186	230
641	250	175	226
642	242	162	222
643	244	167	228
644	248	172	234
645	249	171	235
646	248	170	236
647	245	170	237
648	244	169	239
649	248	175	242
650	248	178	241
651	245	179	238
652	240	179	235
653	246	197	241
654	253	215	246
655	249	214	240
656	0	0	0
657	0	0	0
658	0	0	0
659	0	0	0
660	0	0	0
661	0	0	0
662	0	0	0
663	0	0	0
664	0	0	0
665	0	0	0
666	0	0	0
667	0	0	0
668	0	0	0
669	0	0	0
670	255	237	238
671	255	226	232
672	254	219	231
673	252	212	228
674	252	207	227
675	255	208	230
676	255	206	231
677	255	207	234
678	255	206	236
679	255	199	234
680	254	188	229
681	253	184	228
682	248	176	225
683	247	174	224
684	255	186	233
685	249	174	227
686	243	163	225
687	249	169	233
688	255	177	241
689	255	175	242
690	251	170	238
691	249	170	240
692	244	168	239
693	240	169	237
694	243	180	240
695	242	182	237
696	248	196	244
697	255	215	251
698	250	214	242
699	0	0	0
700	0	0	0
701	0	0	0
702	0	0	0
703	0	0	0
704	0	0	0
705	0	0	0
706	0	0	0
707	0	0	0
708	0	0	0
709	255	247	243
710	255	250	246
711	0	0	0
712	255	239	238
713	255	234	235
714	255	231	234
715	255	223	231
716	255	215	229
717	255	212	229
718	255	208	229
719	255	207	231
720	255	205	234
721	255	204	237
722	255	202	237
723	255	190	231
724	252	180	228
725	250	175	227
726	244	165	222
727	249	175	229
728	255	187	237
729	248	173	229
730	242	162	226
731	249	170	236
732	255	177	243
733	254	172	242
734	249	166	237
735	246	166	237
736	239	163	234
737	241	175	239
738	243	186	242
739	251	200	247
740	255	213	251
741	0	0	0
742	0	0	0
743	0	0	0
744	0	0	0
745	0	0	0
746	0	0	0
747	0	0	0
748	0	0	0
749	0	0	0
750	0	0	0
751	0	0	0
752	255	241	239
753	255	245	243
754	255	236	238
755	252	229	233
756	255	232	235
757	255	227	233
758	255	221	231
759	253	212	228
760	251	206	225
761	251	202	225
762	255	206	230
763	255	205	232
764	255	198	232
765	255	196	235
766	253	185	230
767	247	174	224
768	255	183	233
769	255	177	232
770	246	166	226
771	249	174	232
772	252	180	235
773	244	167	227
774	245	167	231
775	251	174	239
776	251	174	242
777	250	170	240
778	248	168	238
779	241	166	235
780	239	170	236
781	246	184	244
782	246	190	243
783	248	202	246
784	244	203	241
785	0	0	0
786	0	0	0
787	0	0	0
788	0	0	0
789	0	0	0
790	0	0	0
791	0	0	0
792	0	0	0
793	0	0	0
794	0	0	0
795	0	0	0
796	0	0	0
797	250	227	233
798	246	218	227
799	250	220	229
800	255	224	234
801	253	217	231
802	252	211	230
803	250	204	227
804	247	197	223
805	253	201	227
806	255	204	232
807	255	197	229
808	253	189	228
809	250	180	226
810	246	170	225
811	253	177	232
812	255	184	236
813	255	176	231
814	247	165	226
815	249	171	232
816	252	177	236
817	250	174	235
818	250	174	237
819	249	172	239
820	249	171	241
821	252	174	243
822	248	171	238
823	241	173	236
824	239	175	237
825	243	185	242
826	241	190	239
827	237	192	236
828	0	0	0
829	0	0	0
830	0	0	0
831	0	0	0
832	0	0	0
833	0	0	0
834	0	0	0
835	0	0	0
836	0	0	0
837	0	0	0
838	0	0	0
839	0	0	0
840	0	0	0
841	249	227	235
842	248	220	230
843	255	224	235
844	255	223	236
845	255	215	234
846	252	207	231
847	249	199	228
848	253	202	230
849	255	206	234
850	255	198	231
851	254	190	228
852	253	184	228
853	250	174	226
854	250	172	229
855	255	179	236
856	255	181	235
857	254	171	229
858	247	160	225
859	251	168	232
860	254	174	237
861	250	170	234
862	252	175	238
863	250	172	238
864	250	173	241
865	253	175	243
866	245	170	235
867	238	171	232
868	241	184	240
869	241	191	242
870	237	193	238
871	0	0	0
872	0	0	0
873	0	0	0
874	0	0	0
875	0	0	0
876	0	0	0
877	0	0	0
878	0	0	0
879	0	0	0
880	0	0	0
881	0	0	0
882	0	0	0
883	0	0	0
884	253	235	241
885	252	228	238
886	251	221	234
887	255	220	234
888	255	217	235
889	253	209	231
890	249	200	227
891	254	203	231
892	255	205	234
893	255	198	231
894	255	190	229
895	253	183	227
896	251	176	227
897	252	174	228
898	251	171	228
899	255	174	231
900	255	176	232
901	251	165	226
902	244	154	221
903	250	163	229
904	253	169	235
905	253	172	236
906	254	176	237
907	251	174	236
908	250	174	238
909	249	173	237
910	242	170	233
911	245	183	239
912	246	194	244
913	239	195	240
914	0	0	0
915	0	0	0
916	0	0	0
917	0	0	0
918	0	0	0
919	0	0	0
920	0	0	0
921	0	0	0
922	0	0	0
923	0	0	0
924	0	0	0
925	0	0	0
926	0	0	0
927	255	231	240
928	255	232	241
929	253	223	235
930	255	221	236
931	255	219	236
932	255	213	234
933	252	204	230
934	253	202	231
935	255	205	235
936	255	196	231
937	253	188	228
938	255	188	230
939	253	181	229
940	253	176	229
941	253	173	229
942	255	174	229
943	255	176	231
944	254	169	228
945	247	159	222
946	251	164	228
947	255	172	235
948	255	174	238
949	255	176	239
950	255	176	236
951	252	174	234
952	249	173	234
953	243	170	232
954	246	180	237
955	253	195	246
956	245	195	241
957	0	0	0
958	0	0	0
959	0	0	0
960	0	0	0
961	0	0	0
962	0	0	0
963	0	0	0
964	0	0	0
965	0	0	0
966	0	0	0
967	0	0	0
968	0	0	0
969	0	0	0
970	0	0	0
971	253	224	238
972	254	224	234
973	254	220	232
974	255	219	236
975	255	215	237
976	255	210	235
977	255	206	235
978	255	204	235
979	254	195	231
980	251	186	228
981	254	186	229
982	255	185	231
983	255	181	231
984	255	176	230
985	255	176	231
986	255	176	230
987	252	168	224
988	249	161	221
989	255	170	229
990	255	175	235
991	255	176	236
992	255	176	237
993	255	175	235
994	254	175	235
995	253	175	235
996	247	172	233
997	247	181	237
998	248	189	240
999	245	192	238
1000	0	0	0
1001	0	0	0
1002	0	0	0
1003	0	0	0
1004	0	0	0
1005	0	0	0
1006	0	0	0
1007	0	0	0
1008	0	0	0
1009	0	0	0
1010	0	0	0
1011	0	0	0
1012	0	0	0
1013	0	0	0
1014	254	228	245
1015	255	228	243
1016	253	221	234
1017	253	218	232
1018	253	212	233
1019	255	209	235
1020	251	200	232
1021	249	196	231
1022	253	197	233
1023	251	188	229
1024	255	189	233
1025	255	188	235
1026	253	177	229
1027	253	173	229
1028	249	166	225
1029	251	166	225
1030	255	179	231
1031	255	171	226
1032	251	164	224
1033	255	172	233
1034	250	162	227
1035	249	163	227
1036	255	177	236
1037	254	174	234
1038	255	180	237
1039	254	179	237
1040	246	175	234
1041	244	182	237
1042	242	191	237
1043	0	0	0
1044	0	0	0
1045	0	0	0
1046	0	0	0
1047	0	0	0
1048	0	0	0
1049	0	0	0
1050	0	0	0
1051	0	0	0
1052	0	0	0
1053	0	0	0
1054	0	0	0
1055	0	0	0
1056	0	0	0
1057	0	0	0
1058	0	0	0
1059	250	221	240
1060	249	215	233
1061	248	209	230
1062	248	204	230
1063	248	197	230
1064	244	188	227
1065	245	188	229
1066	248	188	230
1067	252	187	231
1068	255	188	234
1069	253	178	231
1070	249	168	226
1071	250	166	227
1072	246	158	223
1073	255	172	231
1074	255	184	236
1075	255	174	230
1076	255	167	231
1077	252	163	231
1078	244	153	224
1079	253	167	233
1080	255	180	240
1081	255	181	238
1082	255	184	240
1083	254	182	238
1084	245	177	234
1085	244	188	239
1086	0	0	0
1087	0	0	0
1088	0	0	0
1089	0	0	0
1090	0	0	0
1091	0	0	0
1092	0	0	0
1093	0	0	0
1094	0	0	0
1095	0	0	0
1096	0	0	0
1097	0	0	0
1098	0	0	0
1099	0	0	0
1100	0	0	0
1101	0	0	0
1102	254	235	248
1103	255	232	247
1104	252	218	237
1105	253	214	235
1106	253	207	235
1107	251	200	234
1108	247	190	230
1109	248	190	232
1110	253	194	235
1111	255	193	236
1112	255	191	238
1113	255	182	236
1114	249	166	228
1115	251	164	230
1116	249	159	226
1117	255	171	233
1118	255	174	231
1119	252	164	225
1120	253	164	230
1121	250	159	229
1122	249	160	230
1123	255	174	239
1124	255	176	237
1125	253	176	234
1126	255	184	238
1127	250	180	234
1128	249	187	238
1129	0	0	0
1130	0	0	0
1131	0	0	0
1132	0	0	0
1133	0	0	0
1134	0	0	0
1135	0	0	0
1136	0	0	0
1137	0	0	0
1138	0	0	0
1139	0	0	0
1140	0	0	0
1141	0	0	0
1142	0	0	0
1143	0	0	0
1144	0	0	0
1145	251	242	245
1146	254	240	247
1147	250	227	240
1148	246	215	233
1149	250	211	234
1150	250	205	233
1151	250	199	232
1152	246	189	228
1153	250	193	231
1154	255	197	234
1155	255	192	233
1156	255	191	237
1157	253	176	231
1158	247	160	226
1159	251	162	231
1160	248	157	226
1161	251	161	227
1162	253	164	228
1163	251	161	225
1164	250	159	225
1165	252	163	229
1166	252	165	231
1167	253	169	233
1168	251	171	232
1169	254	179	234
1170	255	186	236
1171	253	191	237
1172	0	0	0
1173	0	0	0
1174	0	0	0
1175	0	0	0
1176	0	0	0
1177	0	0	0
1178	0	0	0
1179	0	0	0
1180	0	0	0
1181	0	0	0
1182	0	0	0
1183	0	0	0
1184	0	0	0
1185	0	0	0
1186	0	0	0
1187	0	0	0
1188	0	0	0
1189	0	0	0
1190	248	236	240
1191	241	222	233
1192	245	220	235
1193	251	217	237
1194	250	207	233
1195	251	201	233
1196	247	190	229
1197	252	195	233
1198	255	201	236
1199	255	196	235
1200	255	184	233
1201	250	170	228
1202	251	166	231
1203	255	168	236
1204	246	153	225
1205	249	157	227
1206	255	175	237
1207	255	170	234
1208	245	154	222
1209	247	158	225
1210	255	174	237
1211	255	177	238
1212	248	168	230
1213	250	175	232
1214	253	186	235
1215	0	0	0
1216	0	0	0
1217	0	0	0
1218	0	0	0
1219	0	0	0
1220	0	0	0
1221	0	0	0
1222	0	0	0
1223	0	0	0
1224	0	0	0
1225	0	0	0
1226	0	0	0
1227	0	0	0
1228	0	0	0
1229	0	0	0
1230	0	0	0
1231	0	0	0
1232	0	0	0
1233	0	0	0
1234	0	0	0
1235	247	230	238
1236	252	229	239
1237	254	221	238
1238	253	210	235
1239	252	203	235
1240	248	193	232
1241	255	200	239
1242	255	206	242
1243	255	190	234
1244	253	179	232
1245	255	175	234
1246	255	171	234
1247	251	162	231
1248	242	147	224
1249	255	166	237
1250	255	182	244
1251	253	165	230
1252	241	149	221
1253	252	166	233
1254	255	181	242
1255	252	172	234
1256	242	163	227
1257	250	179	236
1258	252	189	237
1259	0	0	0
1260	0	0	0
1261	0	0	0
1262	0	0	0
1263	0	0	0
1264	0	0	0
1265	0	0	0
1266	0	0	0
1267	0	0	0
1268	0	0	0
1269	0	0	0
1270	0	0	0
1271	0	0	0
1272	0	0	0
1273	0	0	0
1274	0	0	0
1275	0	0	0
1276	0	0	0
1277	0	0	0
1278	251	241	242
1279	255	240	245
1280	253	224	237
1281	253	215	235
1282	249	203	231
1283	245	194	229
1284	252	199	236
1285	255	208	245
1286	255	194	236
1287	249	179	228
1288	255	182	235
1289	255	178	237
1290	252	167	231
1291	248	158	229
1292	248	155	231
1293	255	174	244
1294	255	174	238
1295	246	156	224
1296	248	160	229
1297	255	177	241
1298	255	183	241
1299	250	173	232
1300	250	177	235
1301	255	193	245
1302	251	191	237
1303	0	0	0
1304	0	0	0
1305	0	0	0
1306	0	0	0
1307	0	0	0
1308	0	0	0
1309	0	0	0
1310	0	0	0
1311	0	0	0
1312	0	0	0
1313	0	0	0
1314	0	0	0
1315	0	0	0
1316	0	0	0
1317	0	0	0
1318	0	0	0
1319	0	0	0
1320	0	0	0
1321	0	0	0
1322	255	248	247
1323	254	232	240
1324	250	217	233
1325	250	209	233
1326	245	197	229
1327	250	201	234
1328	255	205	239
1329	253	193	233
1330	248	180	226
1331	252	181	230
1332	255	184	236
1333	254	174	233
1334	249	163	229
1335	253	166	234
1336	252	162	234
1337	254	165	235
1338	253	165	233
1339	254	169	235
1340	254	172	236
1341	255	178	237
1342	255	182	236
1343	252	182	233
1344	252	186	236
1345	252	191	238
1346	245	189	231
1347	0	0	0
1348	0	0	0
1349	0	0	0
1350	0	0	0
1351	0	0	0
1352	0	0	0
1353	0	0	0
1354	0	0	0
1355	0	0	0
1356	0	0	0
1357	0	0	0
1358	0	0	0
1359	0	0	0
1360	0	0	0
1361	0	0	0
1362	0	0	0
1363	0	0	0
1364	0	0	0
1365	0	0	0
1366	255	245	245
1367	252	229	237
1368	249	216	233
1369	248	208	232
1370	243	197	229
1371	251	202	236
1372	255	205	239
1373	252	192	232
1374	251	185	230
1375	255	187	235
1376	255	188	238
1377	255	177	234
1378	248	161	227
1379	251	163	232
1380	252	165	233
1381	254	167	234
1382	254	168	234
1383	255	171	236
1384	251	170	234
1385	250	174	233
1386	252	185	234
1387	0	0	0
1388	255	202	242
1389	255	206	243
1390	244	195	232
1391	0	0	0
1392	0	0	0
1393	0	0	0
1394	0	0	0
1395	0	0	0
1396	0	0	0
1397	0	0	0
1398	0	0	0
1399	0	0	0
1400	0	0	0
1401	0	0	0
1402	0	0	0
1403	0	0	0
1404	0	0	0
1405	0	0	0
1406	0	0	0
1407	0	0	0
1408	0	0	0
1409	0	0	0
1410	252	240	240
1411	249	227	234
1412	246	214	230
1413	246	207	230
1414	242	197	229
1415	252	203	237
1416	255	206	239
1417	255	199	237
1418	255	193	237
1419	255	192	239
1420	255	192	239
1421	254	175	231
1422	245	159	225
1423	250	164	231
1424	250	164	230
1425	253	168	232
1426	252	168	232
1427	252	171	233
1428	248	169	232
1429	248	178	234
1430	0	0	0
1431	0	0	0
1432	0	0	0
1433	251	207	237
1434	0	0	0
1435	0	0	0
1436	0	0	0
1437	0	0	0
1438	0	0	0
1439	0	0	0
1440	0	0	0
1441	0	0	0
1442	0	0	0
1443	0	0	0
1444	0	0	0
1445	0	0	0
1446	0	0	0
1447	0	0	0
1448	0	0	0
1449	0	0	0
1450	0	0	0
1451	0	0	0
1452	0	0	0
1453	0	0	0
1454	255	246	244
1455	249	231	236
1456	243	213	228
1457	246	209	231
1458	248	203	234
1459	255	209	242
1460	254	199	236
1461	254	191	233
1462	255	188	235
1463	255	187	236
1464	255	181	233
1465	246	164	224
1466	248	165	229
1467	252	170	234
1468	255	176	237
1469	255	179	239
1470	247	164	228
1471	247	166	229
1472	250	177	234
1473	0	0	0
1474	0	0	0
1475	0	0	0
1476	0	0	0
1477	0	0	0
1478	0	0	0
1479	0	0	0
1480	0	0	0
1481	0	0	0
1482	0	0	0
1483	0	0	0
1484	0	0	0
1485	0	0	0
1486	0	0	0
1487	0	0	0
1488	0	0	0
1489	0	0	0
1490	0	0	0
1491	0	0	0
1492	0	0	0
1493	0	0	0
1494	0	0	0
1495	0	0	0
1496	0	0	0
1497	0	0	0
1498	255	253	250
1499	251	234	239
1500	245	216	231
1501	253	216	237
1502	255	210	238
1503	253	202	237
1504	251	192	234
1505	255	190	236
1506	255	186	236
1507	254	180	234
1508	252	175	233
1509	253	174	233
1510	253	174	234
1511	255	181	240
1512	255	187	243
1513	253	174	235
1514	242	159	226
1515	252	177	237
1516	254	186	237
1517	0	0	0
1518	0	0	0
1519	0	0	0
1520	0	0	0
1521	0	0	0
1522	0	0	0
1523	0	0	0
1524	0	0	0
1525	0	0	0
1526	0	0	0
1527	0	0	0
1528	0	0	0
1529	0	0	0
1530	0	0	0
1531	0	0	0
1532	0	0	0
1533	0	0	0
1534	0	0	0
1535	0	0	0
1536	0	0	0
1537	0	0	0
1538	0	0	0
1539	0	0	0
1540	0	0	0
1541	0	0	0
1542	255	246	246
1543	249	227	236
1544	243	210	229
1545	251	210	234
1546	252	203	235
1547	249	194	232
1548	254	194	237
1549	255	193	240
1550	251	178	233
1551	249	172	231
1552	252	175	235
1553	252	174	234
1554	255	181	238
1555	255	187	243
1556	255	178	236
1557	243	164	227
1558	249	174	235
1559	255	192	246
1560	249	182	234
1561	255	202	242
1562	0	0	0
1563	0	0	0
1564	0	0	0
1565	0	0	0
1566	0	0	0
1567	0	0	0
1568	0	0	0
1569	0	0	0
1570	0	0	0
1571	0	0	0
1572	0	0	0
1573	0	0	0
1574	0	0	0
1575	0	0	0
1576	0	0	0
1577	0	0	0
1578	0	0	0
1579	0	0	0
1580	0	0	0
1581	0	0	0
1582	0	0	0
1583	0	0	0
1584	0	0	0
1585	0	0	0
1586	255	242	244
1587	248	223	235
1588	243	206	228
1589	250	205	233
1590	250	198	233
1591	252	197	235
1592	255	196	238
1593	251	183	233
1594	245	169	229
1595	251	174	235
1596	253	176	237
1597	255	183	241
1598	255	190	245
1599	255	181	239
1600	249	171	232
1601	252	180	238
1602	255	189	244
1603	249	184	238
1604	240	175	230
1605	246	189	235
1606	0	0	0
1607	0	0	0
1608	0	0	0
1609	0	0	0
1610	0	0	0
1611	0	0	0
1612	0	0	0
1613	0	0	0
1614	0	0	0
1615	0	0	0
1616	0	0	0
1617	0	0	0
1618	0	0	0
1619	0	0	0
1620	0	0	0
1621	0	0	0
1622	0	0	0
1623	0	0	0
1624	0	0	0
1625	0	0	0
1626	0	0	0
1627	0	0	0
1628	0	0	0
1629	0	0	0
1630	255	235	242
1631	246	215	232
1632	244	205	230
1633	251	204	236
1634	248	193	233
1635	248	191	234
1636	248	186	233
1637	244	173	229
1638	249	175	235
1639	254	180	242
1640	252	175	238
1641	255	182	242
1642	255	185	244
1643	253	176	237
1644	246	169	231
1645	249	178	236
1646	255	192	244
1647	244	185	237
1648	241	187	237
1649	0	0	0
1650	0	0	0
1651	0	0	0
1652	0	0	0
1653	0	0	0
1654	0	0	0
1655	0	0	0
1656	0	0	0
1657	0	0	0
1658	0	0	0
1659	0	0	0
1660	0	0	0
1661	0	0	0
1662	0	0	0
1663	0	0	0
1664	0	0	0
1665	0	0	0
1666	0	0	0
1667	0	0	0
1668	0	0	0
1669	0	0	0
1670	0	0	0
1671	0	0	0
1672	0	0	0
1673	0	0	0
1674	0	0	0
1675	249	216	235
1676	248	205	234
1677	249	199	235
1678	246	189	234
1679	246	185	236
1680	246	180	236
1681	250	181	241
1682	254	182	244
1683	254	180	243
1684	251	175	239
1685	255	179	242
1686	255	182	244
1687	251	176	238
1688	243	168	231
1689	252	185	241
1690	255	198	248
1691	247	196	242
1692	0	0	0
1693	0	0	0
1694	0	0	0
1695	0	0	0
1696	0	0	0
1697	0	0	0
1698	0	0	0
1699	0	0	0
1700	0	0	0
1701	0	0	0
1702	0	0	0
1703	0	0	0
1704	0	0	0
1705	0	0	0
1706	0	0	0
1707	0	0	0
1708	0	0	0
1709	0	0	0
1710	0	0	0
1711	0	0	0
1712	0	0	0
1713	0	0	0
1714	0	0	0
1715	0	0	0
1716	0	0	0
1717	0	0	0
1718	251	227	239
1719	255	222	243
1720	244	195	230
1721	242	187	230
1722	249	191	238
1723	252	189	242
1724	245	175	237
1725	248	175	241
1726	254	183	246
1727	254	180	245
1728	249	172	239
1729	254	176	243
1730	253	178	242
1731	241	168	233
1732	245	177	238
1733	255	195	249
1734	248	190	241
1735	0	0	0
1736	0	0	0
1737	0	0	0
1738	0	0	0
1739	0	0	0
1740	0	0	0
1741	0	0	0
1742	0	0	0
1743	0	0	0
1744	0	0	0
1745	0	0	0
1746	0	0	0
1747	0	0	0
1748	0	0	0
1749	0	0	0
1750	0	0	0
1751	0	0	0
1752	0	0	0
1753	0	0	0
1754	0	0	0
1755	0	0	0
1756	0	0	0
1757	0	0	0
1758	0	0	0
1759	0	0	0
1760	0	0	0
1761	0	0	0
1762	0	0	0
1763	242	205	231
1764	231	179	221
1765	242	188	233
1766	250	192	239
1767	250	183	238
1768	244	169	236
1769	252	178	246
1770	255	185	250
1771	249	175	243
1772	243	166	237
1773	248	171	240
1774	245	170	237
1775	242	175	237
1776	245	185	244
1777	245	186	243
1778	0	0	0
1779	0	0	0
1780	0	0	0
1781	0	0	0
1782	0	0	0
1783	0	0	0
1784	0	0	0
1785	0	0	0
1786	0	0	0
1787	0	0	0
1788	0	0	0
1789	0	0	0
1790	0	0	0
1791	0	0	0
1792	0	0	0
1793	0	0	0
1794	0	0	0
1795	0	0	0
1796	0	0	0
1797	0	0	0
1798	0	0	0
1799	0	0	0
1800	0	0	0
1801	0	0	0
1802	0	0	0
1803	0	0	0
1804	0	0	0
1805	0	0	0
1806	0	0	0
1807	0	0	0
1808	235	192	231
1809	254	205	248
1810	249	187	238
1811	249	178	237
1812	248	171	238
1813	255	180	248
1814	254	181	248
1815	242	168	238
1816	243	172	241
1817	247	176	243
1818	244	177	240
1819	0	0	0
1820	0	0	0
1821	0	0	0
1822	0	0	0
1823	0	0	0
1824	0	0	0
1825	0	0	0
1826	0	0	0
1827	0	0	0
1828	0	0	0
1829	0	0	0
1830	0	0	0
1831	0	0	0
1832	0	0	0
1833	0	0	0
1834	0	0	0
1835	0	0	0
1836	0	0	0
1837	0	0	0
1838	0	0	0
1839	0	0	0
1840	0	0	0
1841	0	0	0
1842	0	0	0
1843	0	0	0
1844	0	0	0
1845	0	0	0
1846	0	0	0
1847	0	0	0
1848	0	0	0
1849	0	0	0
1850	0	0	0
1851	0	0	0
1852	243	206	241
1853	245	195	242
1854	241	178	235
1855	247	176	238
1856	243	168	234
1857	245	171	237
1858	243	171	238
1859	240	172	239
1860	241	176	243
1861	243	180	244
1862	239	181	239
1863	0	0	0
1864	0	0	0
1865	0	0	0
1866	0	0	0
1867	0	0	0
1868	0	0	0
1869	0	0	0
1870	0	0	0
1871	0	0	0
1872	0	0	0
1873	0	0	0
1874	0	0	0
1875	0	0	0
1876	0	0	0
1877	0	0	0
1878	0	0	0
1879	0	0	0
1880	0	0	0
1881	0	0	0
1882	0	0	0
1883	0	0	0
1884	0	0	0
1885	0	0	0
1886	0	0	0
1887	0	0	0
1888	0	0	0
1889	0	0	0
1890	0	0	0
1891	0	0	0
1892	0	0	0
1893	0	0	0
1894	0	0	0
1895	0	0	0
1896	240	203	240
1897	235	188	238
1898	233	175	235
1899	240	174	239
1900	237	168	234
1901	236	169	234
1902	235	171	236
1903	236	174	238
1904	240	185	246
1905	237	186	244
1906	0	0	0
1907	0	0	0
1908	0	0	0
1909	0	0	0
1910	0	0	0
1911	0	0	0
1912	0	0	0
1913	0	0	0
1914	0	0	0
1915	0	0	0
1916	0	0	0
1917	0	0	0
1918	0	0	0
1919	0	0	0
1920	0	0	0
1921	0	0	0
1922	0	0	0
1923	0	0	0
1924	0	0	0
1925	0	0	0
1926	0	0	0
1927	0	0	0
1928	0	0	0
1929	0	0	0
1930	0	0	0
1931	0	0	0
1932	0	0	0
1933	0	0	0
1934	0	0	0
1935	0	0	0
1936	0	0	0
1937	0	0	0
1938	0	0	0
1939	0	0	0
1940	237	199	240
1941	233	186	239
1942	228	172	237
1943	234	174	241
1944	231	168	236
1945	231	170	236
1946	230	172	237
1947	239	185	245
1948	242	194	248
1949	236	193	244
1950	0	0	0
1951	0	0	0
1952	0	0	0
1953	0	0	0
1954	0	0	0
1955	0	0	0
1956	0	0	0
1957	0	0	0
1958	0	0	0
1959	0	0	0
1960	0	0	0
1961	0	0	0
1962	0	0	0
1963	0	0	0
1964	0	0	0
1965	0	0	0
1966	0	0	0
1967	0	0	0
1968	0	0	0
1969	0	0	0
1970	0	0	0
1971	0	0	0
1972	0	0	0
1973	0	0	0
1974	0	0	0
1975	0	0	0
1976	0	0	0
1977	0	0	0
1978	0	0	0
1979	0	0	0
1980	0	0	0
1981	0	0	0
1982	0	0	0
1983	0	0	0
1984	238	203	244
1985	236	191	243
1986	226	172	237
1987	226	171	238
1988	236	183	245
1989	238	187	247
1990	235	183	244
1991	242	195	250
1992	235	189	241
1993	0	0	0
1994	0	0	0
1995	0	0	0
1996	0	0	0
1997	0	0	0
1998	0	0	0
1999	0	0	0
2000	0	0	0
2001	0	0	0
2002	0	0	0
2003	0	0	0
2004	0	0	0
2005	0	0	0
2006	0	0	0
2007	0	0	0
2008	0	0	0
2009	0	0	0
2010	0	0	0
2011	0	0	0
2012	0	0	0
2013	0	0	0
2014	0	0	0
2015	0	0	0
2016	0	0	0
2017	0	0	0
2018	0	0	0
2019	0	0	0
2020	0	0	0
2021	0	0	0
2022	0	0	0
2023	0	0	0
2024	0	0	0
2025	0	0	0
2026	0	0	0
2027	0	0	0
2028	239	206	246
2029	231	188	240
2030	220	169	232
2031	232	184	244
2032	241	196	252
2033	240	194	249
2034	236	189	245
2035	233	188	244
2036	228	184	238
2037	0	0	0
2038	0	0	0
2039	0	0	0
2040	0	0	0
2041	0	0	0
2042	0	0	0
2043	0	0	0
2044	0	0	0
2045	0	0	0
2046	0	0	0
2047	0	0	0
2048	0	0	0
2049	0	0	0
2050	0	0	0
2051	0	0	0
2052	0	0	0
2053	0	0	0
2054	0	0	0
2055	0	0	0
2056	0	0	0
2057	0	0	0
2058	0	0	0
2059	0	0	0
2060	0	0	0
2061	0	0	0
2062	0	0	0
2063	0	0	0
2064	0	0	0
2065	0	0	0
2066	0	0	0
2067	0	0	0
2068	0	0	0
2069	0	0	0
2070	0	0	0
2071	0	0	0
2072	0	0	0
2073	222	180	231
2074	232	191	243
2075	247	208	255
2076	244	203	251
2077	240	199	247
2078	239	199	247
2079	237	199	245
2080	0	0	0
2081	0	0	0
2082	0	0	0
2083	0	0	0
2084	0	0	0
2085	0	0	0
2086	0	0	0
2087	0	0	0
2088	0	0	0
2089	0	0	0
2090	0	0	0
2091	0	0	0
2092	0	0	0
2093	0	0	0
2094	0	0	0
2095	0	0	0
2096	0	0	0
2097	0	0	0
2098	0	0	0
2099	0	0	0
2100	0	0	0
2101	0	0	0
2102	0	0	0
2103	0	0	0
2104	0	0	0
2105	0	0	0
2106	0	0	0
2107	0	0	0
2108	0	0	0
2109	0	0	0
2110	0	0	0
2111	0	0	0
2112	0	0	0
2113	0	0	0
2114	0	0	0
2115	0	0	0
2116	0	0	0
2117	0	0	0
2118	0	0	0
2119	250	215	253
2120	0	0	0
2121	0	0	0
2122	0	0	0
2123	0	0	0
2124	0	0	0
2125	0	0	0
2126	0	0	0
2127	0	0	0
2128	0	0	0
2129	0	0	0
2130	0	0	0
2131	0	0	0
2132	0	0	0
2133	0	0	0
2134	0	0	0
2135	0	0	0
2136	0	0	0
2137	0	0	0
2138	0	0	0
2139	0	0	0
2140	0	0	0
2141	0	0	0
2142	0	0	0
2143	0	0	0
2144	0	0	0
2145	0	0	0
2146	0	0	0
2147	0	0	0
2148	0	0	0
2149	0	0	0
2150	0	0	0
2151	0	0	0
2152	0	0	0
2153	0	0	0
2154	0	0	0
2155	0	0	0
2156	0	0	0
