 	R	G	B
1	0	0	0
2	0	0	0
3	0	0	0
4	0	0	0
5	0	0	0
6	0	0	0
7	0	0	0
8	0	0	0
9	0	0	0
10	0	0	0
11	0	0	0
12	0	0	0
13	0	0	0
14	0	0	0
15	0	0	0
16	0	0	0
17	0	0	0
18	250	229	231
19	0	0	0
20	0	0	0
21	0	0	0
22	0	0	0
23	250	229	232
24	0	0	0
25	0	0	0
26	0	0	0
27	0	0	0
28	0	0	0
29	0	0	0
30	0	0	0
31	0	0	0
32	0	0	0
33	0	0	0
34	0	0	0
35	0	0	0
36	0	0	0
37	0	0	0
38	0	0	0
39	0	0	0
40	0	0	0
41	0	0	0
42	0	0	0
43	0	0	0
44	0	0	0
45	0	0	0
46	0	0	0
47	0	0	0
48	0	0	0
49	0	0	0
50	0	0	0
51	0	0	0
52	0	0	0
53	0	0	0
54	0	0	0
55	0	0	0
56	0	0	0
57	0	0	0
58	0	0	0
59	0	0	0
60	0	0	0
61	0	0	0
62	0	0	0
63	0	0	0
64	0	0	0
65	0	0	0
66	0	0	0
67	0	0	0
68	0	0	0
69	0	0	0
70	0	0	0
71	0	0	0
72	0	0	0
73	0	0	0
74	0	0	0
75	0	0	0
76	0	0	0
77	0	0	0
78	0	0	0
79	0	0	0
80	0	0	0
81	0	0	0
82	0	0	0
83	0	0	0
84	0	0	0
85	0	0	0
86	0	0	0
87	0	0	0
88	0	0	0
89	0	0	0
90	255	230	239
91	253	227	236
92	254	228	237
93	0	0	0
94	0	0	0
95	0	0	0
96	0	0	0
97	0	0	0
98	0	0	0
99	0	0	0
100	0	0	0
101	255	240	240
102	255	235	237
103	253	230	236
104	0	0	0
105	0	0	0
106	250	223	230
107	244	217	225
108	251	231	234
109	255	245	242
110	255	242	239
111	255	239	237
112	255	242	238
113	0	0	0
114	0	0	0
115	0	0	0
116	0	0	0
117	0	0	0
118	0	0	0
119	0	0	0
120	0	0	0
121	0	0	0
122	0	0	0
123	0	0	0
124	0	0	0
125	0	0	0
126	0	0	0
127	0	0	0
128	0	0	0
129	0	0	0
130	0	0	0
131	0	0	0
132	0	0	0
133	0	0	0
134	0	0	0
135	0	0	0
136	0	0	0
137	0	0	0
138	0	0	0
139	0	0	0
140	0	0	0
141	0	0	0
142	0	0	0
143	0	0	0
144	0	0	0
145	0	0	0
146	0	0	0
147	0	0	0
148	0	0	0
149	0	0	0
150	0	0	0
151	0	0	0
152	0	0	0
153	0	0	0
154	0	0	0
155	0	0	0
156	0	0	0
157	0	0	0
158	0	0	0
159	0	0	0
160	0	0	0
161	0	0	0
162	0	0	0
163	0	0	0
164	0	0	0
165	0	0	0
166	0	0	0
167	0	0	0
168	0	0	0
169	0	0	0
170	0	0	0
171	0	0	0
172	0	0	0
173	255	230	240
174	255	228	238
175	254	223	235
176	255	224	235
177	252	223	234
178	0	0	0
179	0	0	0
180	0	0	0
181	0	0	0
182	0	0	0
183	0	0	0
184	0	0	0
185	254	232	236
186	252	227	233
187	251	224	232
188	0	0	0
189	255	231	235
190	255	229	233
191	247	218	226
192	255	233	237
193	254	232	235
194	253	229	231
195	255	231	232
196	255	235	233
197	252	231	230
198	0	0	0
199	0	0	0
200	0	0	0
201	0	0	0
202	0	0	0
203	0	0	0
204	0	0	0
205	0	0	0
206	0	0	0
207	0	0	0
208	0	0	0
209	0	0	0
210	0	0	0
211	0	0	0
212	0	0	0
213	0	0	0
214	0	0	0
215	0	0	0
216	0	0	0
217	0	0	0
218	0	0	0
219	0	0	0
220	0	0	0
221	0	0	0
222	0	0	0
223	0	0	0
224	0	0	0
225	0	0	0
226	0	0	0
227	0	0	0
228	0	0	0
229	0	0	0
230	0	0	0
231	0	0	0
232	0	0	0
233	0	0	0
234	0	0	0
235	0	0	0
236	0	0	0
237	0	0	0
238	0	0	0
239	0	0	0
240	0	0	0
241	0	0	0
242	0	0	0
243	0	0	0
244	0	0	0
245	0	0	0
246	0	0	0
247	0	0	0
248	0	0	0
249	0	0	0
250	0	0	0
251	0	0	0
252	0	0	0
253	0	0	0
254	0	0	0
255	0	0	0
256	0	0	0
257	255	226	235
258	254	221	231
259	252	218	230
260	254	220	233
261	252	219	232
262	254	227	236
263	255	236	241
264	255	235	241
265	255	235	240
266	255	237	240
267	255	238	239
268	255	233	235
269	255	229	234
270	255	226	234
271	253	223	232
272	255	231	236
273	255	239	238
274	255	229	231
275	251	220	227
276	252	221	230
277	250	220	230
278	253	223	231
279	254	225	229
280	253	223	226
281	249	219	224
282	253	229	230
283	255	238	236
284	255	238	235
285	255	238	233
286	255	237	232
287	0	0	0
288	0	0	0
289	0	0	0
290	0	0	0
291	0	0	0
292	0	0	0
293	0	0	0
294	0	0	0
295	0	0	0
296	0	0	0
297	0	0	0
298	0	0	0
299	0	0	0
300	0	0	0
301	0	0	0
302	0	0	0
303	0	0	0
304	0	0	0
305	0	0	0
306	0	0	0
307	0	0	0
308	0	0	0
309	0	0	0
310	0	0	0
311	0	0	0
312	0	0	0
313	0	0	0
314	0	0	0
315	0	0	0
316	0	0	0
317	0	0	0
318	0	0	0
319	0	0	0
320	0	0	0
321	0	0	0
322	0	0	0
323	0	0	0
324	0	0	0
325	0	0	0
326	0	0	0
327	0	0	0
328	0	0	0
329	0	0	0
330	0	0	0
331	0	0	0
332	0	0	0
333	0	0	0
334	0	0	0
335	0	0	0
336	0	0	0
337	0	0	0
338	0	0	0
339	0	0	0
340	250	219	232
341	255	227	234
342	255	223	232
343	251	213	227
344	253	216	230
345	255	219	232
346	255	228	238
347	255	226	235
348	255	225	234
349	255	221	231
350	255	223	232
351	255	226	232
352	255	221	228
353	254	219	229
354	253	216	229
355	254	217	229
356	255	225	233
357	255	223	227
358	251	214	220
359	251	214	224
360	254	216	228
361	255	219	231
362	255	221	231
363	255	222	229
364	255	221	226
365	253	217	224
366	255	227	232
367	255	223	228
368	254	222	225
369	255	227	226
370	252	225	224
371	252	229	228
372	0	0	0
373	0	0	0
374	0	0	0
375	0	0	0
376	0	0	0
377	0	0	0
378	0	0	0
379	0	0	0
380	0	0	0
381	0	0	0
382	0	0	0
383	0	0	0
384	0	0	0
385	0	0	0
386	0	0	0
387	0	0	0
388	0	0	0
389	0	0	0
390	0	0	0
391	0	0	0
392	0	0	0
393	0	0	0
394	0	0	0
395	0	0	0
396	0	0	0
397	0	0	0
398	0	0	0
399	0	0	0
400	0	0	0
401	0	0	0
402	0	0	0
403	0	0	0
404	0	0	0
405	0	0	0
406	0	0	0
407	0	0	0
408	0	0	0
409	0	0	0
410	0	0	0
411	0	0	0
412	0	0	0
413	0	0	0
414	0	0	0
415	0	0	0
416	0	0	0
417	0	0	0
418	0	0	0
419	0	0	0
420	0	0	0
421	0	0	0
422	0	0	0
423	0	0	0
424	253	221	233
425	255	229	237
426	253	218	229
427	248	208	224
428	254	215	230
429	255	218	231
430	255	218	230
431	254	214	226
432	252	211	223
433	250	208	224
434	253	212	227
435	255	215	228
436	253	212	225
437	253	211	225
438	255	213	228
439	255	213	228
440	255	212	226
441	253	211	223
442	253	209	222
443	253	209	224
444	255	214	227
445	255	216	227
446	255	217	226
447	255	219	226
448	255	217	226
449	255	214	225
450	255	214	225
451	252	210	221
452	255	217	223
453	255	221	223
454	255	224	225
455	255	228	230
456	255	234	234
457	255	241	238
458	255	236	235
459	255	232	233
460	255	238	237
461	0	0	0
462	0	0	0
463	0	0	0
464	0	0	0
465	0	0	0
466	0	0	0
467	0	0	0
468	0	0	0
469	0	0	0
470	0	0	0
471	0	0	0
472	0	0	0
473	0	0	0
474	0	0	0
475	0	0	0
476	0	0	0
477	0	0	0
478	0	0	0
479	0	0	0
480	0	0	0
481	0	0	0
482	0	0	0
483	0	0	0
484	0	0	0
485	0	0	0
486	0	0	0
487	0	0	0
488	0	0	0
489	0	0	0
490	0	0	0
491	0	0	0
492	0	0	0
493	0	0	0
494	0	0	0
495	0	0	0
496	0	0	0
497	0	0	0
498	0	0	0
499	0	0	0
500	0	0	0
501	0	0	0
502	0	0	0
503	0	0	0
504	0	0	0
505	0	0	0
506	0	0	0
507	0	0	0
508	253	216	232
509	255	225	235
510	252	213	227
511	253	213	228
512	255	220	234
513	255	214	230
514	255	213	229
515	250	205	221
516	248	202	219
517	254	210	227
518	255	214	231
519	253	208	225
520	250	205	223
521	254	208	226
522	255	210	228
523	253	204	224
524	251	203	222
525	255	209	226
526	255	208	225
527	251	201	220
528	253	204	221
529	255	212	224
530	255	213	224
531	255	209	222
532	255	207	222
533	255	206	223
534	255	207	223
535	249	197	216
536	253	203	219
537	255	210	220
538	255	214	221
539	253	210	221
540	255	217	226
541	255	220	228
542	253	214	223
543	253	216	224
544	255	221	227
545	254	223	225
546	0	0	0
547	0	0	0
548	0	0	0
549	0	0	0
550	0	0	0
551	0	0	0
552	0	0	0
553	0	0	0
554	0	0	0
555	0	0	0
556	0	0	0
557	0	0	0
558	0	0	0
559	0	0	0
560	0	0	0
561	0	0	0
562	0	0	0
563	0	0	0
564	0	0	0
565	0	0	0
566	0	0	0
567	0	0	0
568	0	0	0
569	0	0	0
570	0	0	0
571	0	0	0
572	0	0	0
573	0	0	0
574	0	0	0
575	0	0	0
576	0	0	0
577	0	0	0
578	0	0	0
579	0	0	0
580	0	0	0
581	0	0	0
582	0	0	0
583	0	0	0
584	0	0	0
585	0	0	0
586	0	0	0
587	0	0	0
588	0	0	0
589	0	0	0
590	0	0	0
591	242	200	224
592	251	211	231
593	255	219	234
594	255	217	231
595	255	216	230
596	255	212	228
597	252	207	226
598	249	201	223
599	244	193	217
600	250	202	223
601	255	209	228
602	253	205	225
603	249	198	220
604	250	201	223
605	255	205	228
606	253	201	225
607	249	194	219
608	254	201	224
609	255	208	229
610	255	202	224
611	249	193	215
612	254	200	219
613	255	209	224
614	255	203	220
615	254	199	219
616	255	199	221
617	255	198	220
618	250	191	216
619	244	182	212
620	250	192	218
621	253	198	217
622	249	194	212
623	245	190	210
624	249	195	215
625	250	199	216
626	250	200	217
627	250	202	216
628	251	206	218
629	250	208	219
630	254	221	226
631	255	235	235
632	255	237	235
633	255	242	239
634	255	245	242
635	0	0	0
636	0	0	0
637	0	0	0
638	0	0	0
639	0	0	0
640	0	0	0
641	0	0	0
642	0	0	0
643	0	0	0
644	0	0	0
645	0	0	0
646	0	0	0
647	0	0	0
648	0	0	0
649	0	0	0
650	0	0	0
651	0	0	0
652	0	0	0
653	0	0	0
654	0	0	0
655	0	0	0
656	0	0	0
657	0	0	0
658	0	0	0
659	0	0	0
660	0	0	0
661	0	0	0
662	0	0	0
663	0	0	0
664	0	0	0
665	0	0	0
666	0	0	0
667	0	0	0
668	0	0	0
669	0	0	0
670	0	0	0
671	0	0	0
672	0	0	0
673	0	0	0
674	0	0	0
675	0	0	0
676	255	221	239
677	255	218	235
678	255	216	232
679	255	214	231
680	255	210	229
681	252	204	227
682	250	199	225
683	253	203	228
684	255	211	234
685	255	207	229
686	255	202	226
687	246	189	219
688	248	192	221
689	255	206	232
690	255	202	228
691	250	190	218
692	255	198	224
693	255	196	225
694	252	189	220
695	248	185	214
696	253	193	218
697	255	205	226
698	255	199	222
699	251	188	217
700	252	189	218
701	255	191	220
702	250	184	216
703	249	182	218
704	255	192	224
705	255	196	222
706	253	192	216
707	252	191	217
708	255	196	221
709	249	188	215
710	250	190	216
711	253	197	219
712	254	201	220
713	250	199	218
714	255	213	227
715	255	215	227
716	255	217	226
717	254	217	226
718	255	219	227
719	251	215	224
720	0	0	0
721	0	0	0
722	0	0	0
723	0	0	0
724	0	0	0
725	0	0	0
726	0	0	0
727	0	0	0
728	0	0	0
729	0	0	0
730	0	0	0
731	0	0	0
732	0	0	0
733	0	0	0
734	0	0	0
735	0	0	0
736	0	0	0
737	0	0	0
738	0	0	0
739	0	0	0
740	0	0	0
741	0	0	0
742	0	0	0
743	0	0	0
744	0	0	0
745	0	0	0
746	0	0	0
747	0	0	0
748	0	0	0
749	0	0	0
750	0	0	0
751	0	0	0
752	0	0	0
753	0	0	0
754	0	0	0
755	0	0	0
756	0	0	0
757	0	0	0
758	0	0	0
759	249	213	231
760	252	214	231
761	252	212	229
762	254	212	230
763	255	211	231
764	253	206	230
765	250	199	227
766	254	204	231
767	255	208	235
768	255	204	232
769	253	199	227
770	246	188	220
771	239	177	216
772	249	190	225
773	255	203	232
774	254	193	223
775	247	181	214
776	249	182	216
777	249	181	219
778	250	181	220
779	247	177	216
780	254	189	222
781	255	200	228
782	253	186	218
783	246	175	211
784	249	179	216
785	252	181	219
786	251	180	219
787	249	178	218
788	253	184	221
789	255	188	220
790	253	186	217
791	252	185	219
792	249	180	217
793	242	171	211
794	248	181	218
795	252	188	221
796	249	187	218
797	245	184	214
798	247	189	215
799	246	192	216
800	243	190	215
801	243	191	216
802	241	190	214
803	237	187	211
804	250	207	222
805	255	224	228
806	255	226	226
807	255	230	230
808	255	235	235
809	255	240	240
810	255	238	239
811	255	239	240
812	255	238	238
813	0	0	0
814	0	0	0
815	0	0	0
816	0	0	0
817	0	0	0
818	0	0	0
819	0	0	0
820	0	0	0
821	0	0	0
822	0	0	0
823	0	0	0
824	0	0	0
825	0	0	0
826	0	0	0
827	0	0	0
828	0	0	0
829	0	0	0
830	0	0	0
831	0	0	0
832	0	0	0
833	0	0	0
834	0	0	0
835	0	0	0
836	0	0	0
837	0	0	0
838	0	0	0
839	0	0	0
840	0	0	0
841	0	0	0
842	0	0	0
843	254	225	236
844	255	227	238
845	253	213	230
846	255	213	232
847	255	212	234
848	255	207	233
849	248	196	226
850	252	201	231
851	255	209	238
852	255	204	235
853	251	195	227
854	243	184	219
855	255	199	232
856	255	213	241
857	255	199	229
858	253	189	221
859	250	183	217
860	252	184	220
861	254	184	224
862	255	184	226
863	250	178	221
864	255	189	228
865	255	192	228
866	251	178	218
867	250	176	217
868	253	180	221
869	253	179	222
870	252	178	221
871	252	178	221
872	255	184	224
873	255	188	224
874	255	186	222
875	252	180	220
876	249	175	219
877	250	177	221
878	255	187	227
879	254	186	225
880	251	184	222
881	253	189	222
882	255	194	223
883	253	194	222
884	251	194	222
885	255	201	227
886	255	201	226
887	249	195	221
888	255	215	232
889	255	212	224
890	255	213	222
891	254	214	222
892	255	218	226
893	255	219	228
894	252	218	227
895	255	227	233
896	250	224	229
897	251	229	230
898	0	0	0
899	0	0	0
900	0	0	0
901	0	0	0
902	0	0	0
903	0	0	0
904	0	0	0
905	0	0	0
906	0	0	0
907	0	0	0
908	0	0	0
909	0	0	0
910	0	0	0
911	0	0	0
912	0	0	0
913	0	0	0
914	0	0	0
915	0	0	0
916	0	0	0
917	0	0	0
918	0	0	0
919	0	0	0
920	0	0	0
921	0	0	0
922	0	0	0
923	0	0	0
924	0	0	0
925	0	0	0
926	255	237	242
927	255	238	242
928	255	226	236
929	252	212	229
930	253	211	231
931	254	210	233
932	249	200	228
933	242	189	222
934	249	197	229
935	255	205	236
936	252	198	231
937	246	189	225
938	255	204	234
939	255	217	240
940	255	202	227
941	251	189	217
942	251	185	216
943	249	180	217
944	249	180	220
945	249	179	221
946	249	176	220
947	246	171	216
948	250	175	220
949	252	179	222
950	250	175	220
951	249	172	219
952	248	172	219
953	248	171	218
954	249	173	219
955	249	174	219
956	252	178	222
957	255	184	226
958	251	177	221
959	247	170	218
960	249	173	220
961	250	175	221
962	250	176	222
963	249	176	220
964	253	183	223
965	254	188	223
966	253	188	220
967	252	189	220
968	255	196	224
969	255	203	226
970	255	200	223
971	253	195	222
972	255	199	225
973	253	198	220
974	252	199	219
975	251	199	218
976	250	201	219
977	249	201	220
978	252	210	224
979	255	219	228
980	253	221	227
981	254	226	229
982	255	236	236
983	0	0	0
984	0	0	0
985	0	0	0
986	0	0	0
987	0	0	0
988	0	0	0
989	0	0	0
990	0	0	0
991	0	0	0
992	0	0	0
993	0	0	0
994	0	0	0
995	0	0	0
996	0	0	0
997	0	0	0
998	0	0	0
999	0	0	0
1000	0	0	0
1001	0	0	0
1002	0	0	0
1003	0	0	0
1004	0	0	0
1005	0	0	0
1006	0	0	0
1007	0	0	0
1008	0	0	0
1009	254	235	240
1010	255	236	241
1011	255	228	236
1012	250	215	228
1013	252	214	230
1014	254	213	233
1015	255	211	234
1016	249	201	229
1017	250	202	230
1018	255	210	237
1019	255	217	242
1020	255	210	238
1021	248	191	226
1022	255	207	236
1023	255	204	230
1024	249	189	217
1025	254	192	220
1026	254	189	221
1027	246	177	218
1028	244	175	219
1029	251	184	225
1030	253	184	226
1031	253	179	225
1032	255	184	229
1033	253	178	224
1034	251	174	222
1035	255	181	226
1036	253	179	224
1037	251	177	224
1038	254	179	226
1039	254	180	225
1040	255	185	228
1041	254	181	227
1042	251	174	223
1043	250	174	223
1044	252	177	225
1045	255	182	227
1046	255	183	227
1047	252	178	224
1048	255	186	228
1049	253	184	223
1050	252	184	220
1051	255	195	224
1052	255	201	227
1053	255	191	219
1054	253	189	218
1055	253	189	219
1056	255	194	223
1057	251	189	219
1058	252	190	220
1059	254	195	222
1060	253	197	222
1061	248	193	219
1062	249	200	222
1063	254	212	227
1064	255	216	227
1065	253	216	225
1066	255	224	230
1067	255	227	231
1068	0	0	0
1069	0	0	0
1070	0	0	0
1071	0	0	0
1072	0	0	0
1073	0	0	0
1074	0	0	0
1075	0	0	0
1076	0	0	0
1077	0	0	0
1078	0	0	0
1079	0	0	0
1080	0	0	0
1081	0	0	0
1082	0	0	0
1083	0	0	0
1084	0	0	0
1085	0	0	0
1086	0	0	0
1087	0	0	0
1088	0	0	0
1089	0	0	0
1090	0	0	0
1091	0	0	0
1092	0	0	0
1093	0	0	0
1094	251	226	236
1095	249	218	231
1096	252	218	232
1097	253	216	232
1098	253	214	233
1099	253	212	235
1100	255	214	237
1101	255	214	236
1102	255	219	239
1103	255	225	242
1104	255	206	229
1105	244	188	220
1106	246	189	222
1107	247	189	221
1108	249	189	222
1109	254	193	227
1110	251	185	224
1111	242	172	218
1112	247	181	225
1113	255	191	232
1114	255	188	232
1115	255	184	232
1116	255	180	229
1117	250	173	222
1118	255	180	225
1119	255	187	229
1120	255	183	226
1121	254	181	228
1122	255	183	230
1123	255	183	229
1124	252	178	225
1125	249	174	223
1126	251	175	225
1127	251	174	226
1128	254	179	228
1129	255	183	227
1130	252	178	222
1131	249	175	220
1132	251	178	223
1133	249	177	220
1134	255	188	224
1135	255	197	225
1136	254	187	216
1137	248	179	215
1138	250	180	218
1139	249	179	215
1140	247	176	213
1141	243	172	211
1142	249	181	218
1143	252	186	221
1144	249	185	220
1145	244	182	216
1146	248	193	222
1147	254	205	228
1148	252	205	224
1149	250	204	221
1150	253	209	223
1151	253	212	224
1152	255	220	229
1153	255	227	233
1154	255	231	234
1155	255	235	237
1156	255	240	240
1157	0	0	0
1158	0	0	0
1159	0	0	0
1160	0	0	0
1161	0	0	0
1162	0	0	0
1163	0	0	0
1164	0	0	0
1165	0	0	0
1166	0	0	0
1167	0	0	0
1168	0	0	0
1169	0	0	0
1170	0	0	0
1171	0	0	0
1172	0	0	0
1173	0	0	0
1174	0	0	0
1175	0	0	0
1176	0	0	0
1177	0	0	0
1178	0	0	0
1179	255	228	239
1180	255	228	241
1181	248	211	231
1182	0	0	0
1183	255	219	239
1184	255	221	241
1185	255	214	236
1186	255	220	238
1187	255	215	234
1188	247	197	222
1189	248	197	224
1190	249	197	226
1191	255	206	233
1192	255	207	236
1193	254	196	231
1194	251	187	227
1195	251	185	228
1196	255	196	237
1197	255	189	232
1198	255	185	231
1199	255	184	233
1200	254	180	231
1201	249	172	224
1202	254	179	227
1203	255	183	227
1204	253	179	224
1205	254	181	229
1206	255	182	230
1207	255	186	230
1208	254	180	226
1209	251	176	224
1210	251	176	226
1211	255	182	230
1212	255	187	231
1213	255	185	226
1214	252	181	222
1215	255	186	228
1216	255	189	231
1217	251	178	222
1218	255	190	227
1219	255	193	223
1220	252	183	216
1221	252	180	220
1222	254	182	223
1223	255	187	223
1224	255	184	221
1225	253	181	221
1226	255	189	228
1227	252	182	222
1228	250	181	221
1229	255	191	225
1230	255	204	232
1231	255	199	228
1232	252	198	224
1233	254	203	224
1234	255	209	227
1235	251	200	221
1236	255	208	226
1237	255	211	226
1238	254	214	226
1239	253	216	227
1240	255	221	231
1241	252	221	230
1242	0	0	0
1243	0	0	0
1244	0	0	0
1245	0	0	0
1246	0	0	0
1247	0	0	0
1248	0	0	0
1249	0	0	0
1250	0	0	0
1251	0	0	0
1252	0	0	0
1253	0	0	0
1254	0	0	0
1255	0	0	0
1256	0	0	0
1257	0	0	0
1258	0	0	0
1259	0	0	0
1260	0	0	0
1261	0	0	0
1262	0	0	0
1263	0	0	0
1264	251	221	235
1265	0	0	0
1266	0	0	0
1267	0	0	0
1268	254	219	237
1269	251	213	234
1270	249	209	232
1271	249	206	231
1272	252	206	232
1273	252	205	231
1274	255	212	236
1275	255	220	242
1276	255	208	235
1277	253	197	230
1278	255	196	232
1279	255	194	232
1280	255	191	231
1281	252	184	227
1282	253	183	229
1283	253	182	231
1284	252	178	231
1285	247	171	227
1286	251	176	229
1287	253	179	228
1288	250	177	225
1289	251	178	226
1290	253	181	228
1291	255	184	227
1292	250	178	222
1293	247	174	221
1294	253	182	226
1295	255	187	229
1296	255	188	228
1297	255	187	225
1298	255	190	228
1299	255	196	233
1300	255	187	227
1301	249	176	217
1302	253	182	221
1303	255	187	224
1304	254	183	222
1305	252	179	220
1306	255	187	227
1307	255	193	230
1308	255	190	229
1309	255	186	227
1310	255	183	227
1311	251	176	221
1312	255	187	227
1313	255	196	230
1314	255	192	224
1315	250	187	222
1316	250	192	223
1317	253	198	224
1318	247	190	217
1319	241	181	212
1320	244	187	216
1321	244	190	215
1322	244	192	216
1323	244	194	218
1324	246	199	221
1325	243	199	219
1326	0	0	0
1327	0	0	0
1328	253	228	232
1329	0	0	0
1330	0	0	0
1331	0	0	0
1332	0	0	0
1333	0	0	0
1334	0	0	0
1335	0	0	0
1336	0	0	0
1337	0	0	0
1338	0	0	0
1339	0	0	0
1340	0	0	0
1341	0	0	0
1342	0	0	0
1343	0	0	0
1344	0	0	0
1345	0	0	0
1346	0	0	0
1347	0	0	0
1348	0	0	0
1349	0	0	0
1350	0	0	0
1351	0	0	0
1352	0	0	0
1353	252	219	236
1354	249	215	235
1355	254	218	239
1356	255	220	241
1357	255	212	234
1358	255	219	239
1359	255	212	236
1360	251	199	228
1361	253	200	232
1362	255	199	233
1363	255	199	233
1364	255	195	232
1365	251	184	227
1366	252	184	229
1367	252	183	232
1368	251	179	232
1369	252	179	233
1370	255	184	236
1371	255	185	232
1372	252	182	228
1373	255	188	232
1374	255	191	233
1375	254	186	226
1376	247	179	220
1377	255	189	228
1378	255	197	235
1379	255	186	226
1380	255	187	226
1381	251	181	221
1382	254	184	223
1383	255	195	232
1384	255	187	226
1385	250	177	217
1386	255	185	222
1387	255	190	228
1388	255	186	226
1389	255	180	223
1390	255	188	229
1391	255	183	226
1392	255	180	225
1393	253	173	221
1394	250	169	219
1395	249	170	220
1396	255	181	226
1397	255	185	225
1398	250	181	219
1399	253	187	224
1400	252	192	226
1401	254	196	226
1402	249	189	220
1403	249	191	221
1404	252	197	225
1405	248	194	223
1406	250	198	225
1407	250	199	225
1408	252	203	228
1409	246	199	223
1410	254	214	231
1411	255	222	233
1412	255	220	231
1413	248	216	227
1414	0	0	0
1415	0	0	0
1416	0	0	0
1417	0	0	0
1418	0	0	0
1419	0	0	0
1420	0	0	0
1421	0	0	0
1422	0	0	0
1423	0	0	0
1424	0	0	0
1425	0	0	0
1426	0	0	0
1427	0	0	0
1428	0	0	0
1429	0	0	0
1430	0	0	0
1431	0	0	0
1432	0	0	0
1433	0	0	0
1434	0	0	0
1435	0	0	0
1436	253	229	240
1437	251	224	237
1438	253	225	239
1439	255	229	242
1440	255	224	239
1441	255	216	233
1442	252	210	229
1443	250	203	228
1444	252	203	231
1445	255	204	235
1446	255	204	236
1447	255	203	235
1448	254	193	230
1449	248	183	225
1450	249	182	229
1451	250	181	232
1452	254	184	236
1453	254	184	235
1454	255	188	235
1455	255	188	232
1456	255	190	231
1457	255	196	234
1458	255	193	231
1459	254	189	226
1460	255	197	231
1461	255	206	238
1462	255	195	231
1463	253	185	225
1464	251	181	223
1465	247	175	218
1466	254	185	225
1467	255	196	232
1468	255	189	228
1469	255	181	221
1470	255	189	226
1471	255	194	229
1472	255	188	227
1473	255	184	227
1474	255	180	227
1475	255	175	226
1476	253	169	222
1477	247	160	216
1478	248	162	217
1479	247	163	219
1480	248	169	221
1481	249	173	221
1482	251	179	223
1483	253	186	226
1484	252	188	226
1485	254	194	228
1486	255	196	227
1487	255	197	225
1488	251	195	224
1489	250	194	227
1490	252	197	230
1491	251	197	226
1492	247	195	223
1493	243	192	220
1494	251	203	227
1495	254	210	228
1496	252	209	225
1497	243	203	219
1498	246	218	226
1499	255	237	238
1500	253	234	236
1501	251	231	234
1502	252	236	237
1503	255	242	241
1504	255	244	243
1505	255	246	245
1506	254	243	242
1507	253	243	242
1508	0	0	0
1509	0	0	0
1510	0	0	0
1511	0	0	0
1512	0	0	0
1513	0	0	0
1514	0	0	0
1515	0	0	0
1516	0	0	0
1517	0	0	0
1518	0	0	0
1519	0	0	0
1520	0	0	0
1521	253	232	240
1522	255	235	243
1523	255	229	240
1524	253	222	235
1525	251	216	231
1526	250	211	229
1527	254	212	233
1528	255	213	236
1529	255	209	236
1530	255	208	237
1531	255	202	233
1532	251	192	228
1533	251	189	229
1534	253	190	232
1535	255	192	237
1536	255	194	239
1537	252	184	231
1538	254	187	232
1539	253	189	230
1540	252	191	229
1541	255	198	234
1542	255	196	232
1543	251	186	224
1544	255	195	229
1545	255	196	231
1546	251	185	223
1547	255	190	228
1548	255	187	227
1549	252	183	224
1550	255	194	231
1551	255	190	229
1552	255	184	224
1553	251	173	217
1554	255	181	223
1555	254	175	218
1556	252	171	217
1557	255	174	223
1558	255	170	224
1559	252	164	222
1560	249	158	219
1561	245	155	216
1562	246	157	217
1563	255	174	228
1564	255	178	230
1565	254	178	228
1566	255	183	229
1567	255	189	230
1568	255	192	231
1569	254	189	228
1570	255	191	228
1571	255	193	225
1572	252	192	224
1573	249	189	228
1574	251	193	231
1575	250	194	227
1576	245	191	223
1577	243	190	224
1578	254	203	232
1579	251	201	226
1580	247	198	221
1581	241	195	217
1582	247	212	226
1583	253	224	233
1584	250	221	229
1585	247	215	226
1586	252	221	231
1587	255	230	237
1588	255	229	235
1589	253	229	235
1590	250	228	234
1591	254	234	239
1592	254	234	239
1593	0	0	0
1594	0	0	0
1595	0	0	0
1596	0	0	0
1597	0	0	0
1598	0	0	0
1599	0	0	0
1600	0	0	0
1601	0	0	0
1602	0	0	0
1603	0	0	0
1604	0	0	0
1605	0	0	0
1606	254	234	241
1607	252	227	238
1608	249	221	234
1609	248	216	231
1610	251	217	233
1611	255	218	235
1612	255	215	234
1613	254	210	233
1614	251	204	230
1615	250	198	229
1616	252	197	231
1617	253	195	231
1618	255	198	235
1619	255	200	237
1620	255	192	232
1621	247	182	224
1622	251	187	228
1623	250	189	226
1624	251	193	228
1625	255	202	237
1626	254	193	232
1627	247	182	222
1628	250	185	224
1629	251	186	226
1630	253	189	227
1631	255	194	229
1632	255	190	226
1633	253	186	223
1634	251	182	221
1635	251	179	221
1636	248	171	217
1637	243	161	210
1638	245	160	211
1639	243	156	210
1640	248	160	216
1641	251	162	220
1642	247	156	216
1643	243	149	212
1644	241	147	211
1645	239	144	211
1646	251	163	224
1647	255	178	230
1648	255	177	228
1649	253	178	229
1650	254	182	230
1651	255	187	228
1652	252	183	224
1653	249	181	225
1654	253	186	228
1655	253	189	226
1656	248	184	222
1657	244	181	224
1658	246	186	228
1659	246	188	227
1660	242	187	224
1661	241	186	225
1662	245	189	227
1663	243	187	222
1664	242	189	221
1665	238	187	219
1666	242	198	224
1667	249	211	229
1668	245	204	223
1669	242	199	221
1670	248	209	227
1671	251	216	229
1672	247	213	225
1673	246	214	226
1674	250	219	231
1675	253	226	236
1676	253	227	235
1677	0	0	0
1678	0	0	0
1679	0	0	0
1680	0	0	0
1681	0	0	0
1682	0	0	0
1683	0	0	0
1684	0	0	0
1685	0	0	0
1686	0	0	0
1687	0	0	0
1688	0	0	0
1689	0	0	0
1690	0	0	0
1691	0	0	0
1692	0	0	0
1693	0	0	0
1694	0	0	0
1695	255	225	237
1696	255	222	237
1697	252	213	231
1698	248	205	228
1699	254	210	235
1700	255	210	238
1701	252	197	231
1702	255	200	233
1703	255	201	233
1704	253	193	228
1705	250	189	226
1706	253	194	229
1707	253	196	229
1708	255	202	233
1709	255	203	237
1710	252	194	231
1711	253	193	229
1712	255	196	232
1713	253	192	230
1714	255	195	231
1715	255	199	230
1716	255	195	226
1717	254	190	223
1718	253	186	223
1719	255	193	231
1720	255	186	228
1721	248	167	216
1722	251	168	220
1723	251	164	222
1724	255	168	228
1725	249	157	222
1726	245	150	217
1727	249	157	220
1728	245	153	217
1729	251	163	226
1730	255	182	237
1731	250	168	224
1732	247	167	221
1733	255	188	235
1734	255	193	236
1735	255	189	228
1736	253	186	225
1737	253	186	228
1738	255	192	233
1739	249	185	226
1740	244	180	223
1741	242	180	226
1742	243	185	228
1743	245	190	230
1744	245	191	230
1745	243	187	230
1746	244	189	230
1747	242	186	225
1748	244	189	227
1749	240	186	225
1750	244	198	229
1751	252	211	233
1752	253	206	229
1753	247	199	226
1754	246	205	228
1755	247	209	227
1756	244	208	224
1757	249	214	229
1758	253	220	234
1759	252	221	234
1760	0	0	0
1761	0	0	0
1762	0	0	0
1763	0	0	0
1764	0	0	0
1765	0	0	0
1766	0	0	0
1767	0	0	0
1768	0	0	0
1769	0	0	0
1770	0	0	0
1771	0	0	0
1772	0	0	0
1773	0	0	0
1774	0	0	0
1775	0	0	0
1776	0	0	0
1777	0	0	0
1778	0	0	0
1779	255	234	242
1780	255	227	240
1781	252	217	233
1782	253	217	234
1783	255	222	239
1784	255	212	236
1785	251	200	231
1786	255	204	235
1787	255	204	233
1788	255	201	230
1789	254	197	230
1790	255	201	233
1791	255	204	234
1792	255	202	233
1793	255	203	234
1794	255	202	234
1795	255	202	233
1796	255	199	232
1797	254	196	232
1798	255	200	233
1799	255	203	230
1800	254	196	224
1801	253	193	224
1802	255	196	228
1803	255	202	234
1804	254	183	224
1805	245	165	215
1806	248	165	220
1807	249	162	222
1808	247	155	222
1809	240	145	217
1810	246	153	223
1811	249	159	226
1812	252	166	228
1813	255	175	231
1814	248	165	224
1815	237	153	216
1816	252	176	229
1817	255	196	238
1818	255	191	230
1819	255	189	226
1820	255	189	226
1821	255	189	227
1822	250	183	225
1823	244	178	225
1824	242	179	227
1825	239	178	226
1826	241	184	229
1827	244	190	230
1828	242	186	227
1829	239	182	226
1830	236	180	225
1831	234	178	223
1832	238	182	225
1833	234	179	223
1834	241	192	228
1835	249	204	230
1836	247	198	224
1837	242	191	223
1838	242	197	226
1839	244	202	227
1840	247	207	228
1841	251	213	232
1842	253	215	233
1843	251	216	232
1844	252	220	234
1845	0	0	0
1846	0	0	0
1847	0	0	0
1848	0	0	0
1849	0	0	0
1850	0	0	0
1851	0	0	0
1852	0	0	0
1853	0	0	0
1854	0	0	0
1855	0	0	0
1856	0	0	0
1857	0	0	0
1858	0	0	0
1859	0	0	0
1860	0	0	0
1861	0	0	0
1862	0	0	0
1863	255	234	241
1864	254	226	239
1865	249	217	232
1866	251	218	233
1867	255	223	237
1868	254	213	233
1869	252	204	232
1870	255	209	238
1871	251	197	226
1872	249	194	224
1873	253	200	230
1874	255	203	233
1875	255	208	235
1876	255	206	234
1877	254	203	231
1878	255	203	231
1879	254	199	229
1880	252	196	228
1881	254	198	231
1882	255	202	233
1883	254	200	227
1884	249	192	220
1885	255	203	230
1886	255	206	234
1887	255	202	232
1888	251	183	222
1889	252	179	224
1890	255	179	229
1891	254	172	228
1892	252	165	227
1893	244	154	223
1894	250	162	229
1895	255	175	234
1896	255	182	235
1897	255	186	235
1898	252	177	228
1899	250	174	229
1900	255	197	243
1901	255	195	235
1902	255	190	228
1903	253	184	224
1904	253	185	224
1905	255	189	226
1906	250	184	224
1907	249	184	229
1908	247	185	231
1909	245	185	231
1910	246	191	234
1911	240	185	227
1912	237	181	224
1913	239	186	228
1914	234	183	226
1915	237	187	229
1916	242	191	233
1917	235	181	227
1918	242	195	232
1919	244	199	228
1920	238	190	221
1921	241	192	226
1922	248	202	234
1923	250	205	233
1924	255	211	235
1925	254	210	233
1926	253	211	232
1927	249	208	231
1928	252	215	234
1929	254	220	236
1930	0	0	0
1931	0	0	0
1932	0	0	0
1933	0	0	0
1934	0	0	0
1935	0	0	0
1936	0	0	0
1937	0	0	0
1938	0	0	0
1939	0	0	0
1940	0	0	0
1941	0	0	0
1942	0	0	0
1943	0	0	0
1944	0	0	0
1945	0	0	0
1946	0	0	0
1947	0	0	0
1948	253	228	239
1949	248	219	234
1950	251	221	235
1951	255	225	237
1952	252	214	231
1953	250	205	230
1954	250	200	229
1955	244	189	222
1956	252	199	230
1957	255	204	233
1958	255	208	234
1959	255	213	237
1960	255	207	233
1961	254	204	230
1962	252	200	228
1963	250	197	226
1964	252	198	228
1965	253	200	231
1966	252	199	230
1967	251	198	227
1968	255	206	232
1969	255	215	239
1970	255	208	235
1971	255	204	232
1972	255	194	228
1973	255	190	232
1974	255	183	230
1975	252	175	224
1976	251	169	223
1977	244	159	220
1978	255	176	232
1979	255	188	237
1980	255	191	235
1981	255	196	236
1982	255	192	232
1983	255	190	233
1984	255	192	234
1985	255	190	229
1986	253	185	225
1987	250	180	224
1988	253	185	228
1989	255	188	227
1990	254	188	226
1991	251	187	228
1992	248	188	229
1993	247	189	231
1994	243	185	229
1995	238	180	226
1996	242	186	230
1997	243	191	233
1998	238	190	231
1999	239	193	233
2000	236	187	229
2001	230	178	224
2002	234	185	227
2003	236	189	227
2004	237	190	226
2005	240	193	230
2006	248	200	235
2007	251	203	234
2008	249	201	230
2009	248	201	229
2010	246	199	228
2011	245	198	229
2012	250	207	234
2013	251	211	233
2014	0	0	0
2015	0	0	0
2016	0	0	0
2017	0	0	0
2018	0	0	0
2019	0	0	0
2020	0	0	0
2021	0	0	0
2022	0	0	0
2023	0	0	0
2024	0	0	0
2025	0	0	0
2026	0	0	0
2027	0	0	0
2028	0	0	0
2029	0	0	0
2030	0	0	0
2031	0	0	0
2032	0	0	0
2033	0	0	0
2034	0	0	0
2035	255	230	240
2036	250	217	231
2037	252	214	234
2038	254	210	235
2039	250	200	231
2040	255	211	240
2041	250	199	230
2042	252	203	231
2043	255	212	236
2044	255	207	231
2045	254	205	230
2046	253	202	229
2047	253	202	229
2048	253	203	230
2049	255	210	235
2050	255	209	235
2051	255	205	232
2052	255	212	238
2053	255	208	234
2054	255	200	229
2055	252	194	225
2056	247	184	220
2057	255	201	237
2058	255	194	235
2059	249	175	223
2060	246	169	221
2061	247	169	224
2062	255	187	235
2063	255	187	231
2064	255	190	229
2065	255	190	227
2066	253	187	224
2067	255	197	234
2068	255	199	236
2069	255	190	228
2070	253	185	225
2071	254	187	229
2072	255	192	233
2073	255	191	230
2074	255	190	229
2075	245	179	223
2076	241	180	223
2077	245	188	230
2078	246	186	231
2079	245	185	231
2080	248	191	236
2081	242	187	232
2082	235	185	229
2083	237	191	231
2084	233	184	227
2085	232	184	228
2086	235	191	232
2087	238	195	232
2088	242	197	234
2089	246	199	236
2090	255	207	242
2091	246	196	231
2092	240	192	225
2093	252	210	236
2094	255	211	237
2095	253	207	236
2096	255	215	241
2097	251	212	235
2098	0	0	0
2099	0	0	0
2100	0	0	0
2101	0	0	0
2102	0	0	0
2103	0	0	0
2104	0	0	0
2105	0	0	0
2106	0	0	0
2107	0	0	0
2108	0	0	0
2109	0	0	0
2110	0	0	0
2111	0	0	0
2112	0	0	0
2113	0	0	0
2114	0	0	0
2115	0	0	0
2116	0	0	0
2117	0	0	0
2118	0	0	0
2119	255	233	243
2120	254	226	239
2121	255	222	239
2122	252	214	236
2123	249	205	232
2124	247	200	231
2125	240	189	224
2126	249	201	232
2127	255	211	235
2128	254	208	232
2129	254	207	231
2130	255	209	234
2131	255	209	236
2132	255	215	239
2133	255	220	241
2134	255	214	236
2135	255	209	234
2136	253	203	231
2137	251	199	228
2138	248	193	225
2139	246	188	222
2140	255	199	231
2141	255	214	244
2142	255	195	233
2143	246	177	225
2144	250	180	231
2145	250	180	231
2146	254	186	233
2147	253	186	227
2148	253	188	225
2149	253	189	224
2150	255	197	230
2151	255	207	239
2152	255	198	233
2153	254	190	226
2154	255	191	227
2155	255	191	228
2156	255	190	229
2157	255	191	231
2158	249	182	227
2159	239	172	221
2160	238	177	225
2161	242	185	230
2162	244	184	231
2163	243	182	231
2164	239	181	230
2165	234	178	227
2166	234	183	229
2167	235	189	232
2168	236	190	232
2169	235	190	231
2170	236	194	232
2171	239	198	234
2172	242	198	234
2173	245	199	235
2174	244	194	232
2175	236	185	224
2176	244	200	232
2177	255	217	240
2178	255	213	235
2179	252	208	231
2180	252	209	233
2181	249	208	232
2182	252	216	237
2183	0	0	0
2184	0	0	0
2185	0	0	0
2186	0	0	0
2187	0	0	0
2188	0	0	0
2189	0	0	0
2190	0	0	0
2191	0	0	0
2192	0	0	0
2193	0	0	0
2194	0	0	0
2195	0	0	0
2196	0	0	0
2197	0	0	0
2198	0	0	0
2199	0	0	0
2200	0	0	0
2201	0	0	0
2202	0	0	0
2203	255	237	245
2204	255	231	243
2205	252	225	239
2206	244	214	233
2207	246	213	235
2208	249	210	236
2209	249	208	236
2210	255	219	243
2211	254	214	237
2212	255	213	236
2213	252	206	231
2214	254	207	233
2215	254	207	234
2216	255	213	237
2217	255	213	235
2218	252	206	229
2219	255	212	235
2220	254	207	232
2221	255	210	235
2222	254	204	232
2223	252	200	230
2224	255	211	239
2225	255	208	238
2226	248	187	225
2227	250	188	230
2228	253	191	235
2229	255	198	240
2230	255	204	243
2231	251	187	227
2232	252	190	225
2233	255	197	229
2234	255	205	235
2235	255	197	231
2236	251	188	225
2237	254	192	227
2238	255	193	227
2239	253	189	224
2240	252	188	225
2241	255	195	233
2242	250	186	231
2243	243	181	228
2244	244	187	233
2245	244	191	234
2246	242	189	232
2247	239	187	232
2248	234	184	230
2249	234	186	232
2250	240	195	239
2251	233	186	232
2252	232	186	230
2253	237	194	233
2254	242	199	235
2255	244	201	236
2256	243	199	235
2257	243	199	234
2258	238	192	230
2259	241	197	233
2260	255	216	244
2261	252	213	236
2262	246	206	228
2263	249	208	229
2264	252	211	233
2265	254	213	236
2266	255	221	241
2267	254	218	237
2268	0	0	0
2269	0	0	0
2270	0	0	0
2271	0	0	0
2272	0	0	0
2273	0	0	0
2274	0	0	0
2275	0	0	0
2276	0	0	0
2277	0	0	0
2278	0	0	0
2279	0	0	0
2280	0	0	0
2281	0	0	0
2282	0	0	0
2283	0	0	0
2284	0	0	0
2285	0	0	0
2286	0	0	0
2287	255	242	246
2288	253	235	242
2289	249	228	239
2290	246	224	237
2291	248	224	240
2292	252	224	241
2293	252	221	239
2294	249	216	236
2295	248	211	234
2296	249	207	233
2297	245	200	227
2298	247	202	228
2299	248	202	228
2300	251	206	232
2301	252	207	233
2302	255	213	236
2303	255	218	239
2304	255	217	236
2305	255	219	238
2306	255	213	235
2307	255	208	234
2308	255	206	234
2309	255	203	233
2310	255	202	233
2311	255	201	233
2312	255	208	238
2313	255	215	244
2314	255	202	236
2315	248	187	224
2316	255	196	229
2317	255	204	232
2318	253	194	226
2319	248	186	223
2320	253	191	228
2321	255	194	228
2322	253	190	225
2323	250	186	221
2324	253	191	226
2325	255	197	234
2326	253	193	233
2327	247	188	230
2328	246	192	232
2329	246	195	233
2330	243	193	231
2331	239	191	231
2332	236	191	232
2333	236	194	236
2334	234	189	235
2335	227	179	229
2336	231	187	233
2337	236	195	233
2338	239	196	232
2339	242	199	234
2340	241	199	234
2341	241	199	235
2342	244	204	239
2343	247	208	241
2344	250	210	239
2345	247	207	232
2346	244	206	229
2347	247	209	232
2348	251	211	234
2349	252	212	233
2350	250	211	231
2351	246	208	227
2352	245	211	228
2353	0	0	0
2354	0	0	0
2355	0	0	0
2356	0	0	0
2357	0	0	0
2358	0	0	0
2359	0	0	0
2360	0	0	0
2361	0	0	0
2362	0	0	0
2363	0	0	0
2364	0	0	0
2365	0	0	0
2366	0	0	0
2367	0	0	0
2368	0	0	0
2369	0	0	0
2370	0	0	0
2371	0	0	0
2372	244	231	237
2373	0	0	0
2374	0	0	0
2375	0	0	0
2376	0	0	0
2377	0	0	0
2378	0	0	0
2379	0	0	0
2380	0	0	0
2381	0	0	0
2382	0	0	0
2383	253	214	236
2384	255	219	240
2385	250	206	232
2386	254	212	235
2387	255	216	236
2388	254	214	232
2389	255	216	234
2390	250	209	229
2391	254	213	234
2392	255	212	236
2393	254	207	234
2394	254	205	233
2395	255	208	234
2396	255	215	239
2397	255	204	233
2398	248	192	226
2399	251	195	228
2400	255	204	234
2401	255	205	233
2402	253	196	227
2403	253	194	229
2404	255	199	233
2405	254	194	229
2406	252	191	225
2407	254	194	226
2408	255	198	230
2409	255	199	234
2410	253	195	232
2411	247	189	229
2412	245	193	230
2413	248	199	233
2414	246	197	232
2415	245	198	233
2416	244	199	236
2417	243	201	239
2418	236	193	236
2419	232	189	234
2420	236	197	238
2421	239	204	237
2422	241	205	235
2423	245	208	237
2424	247	209	239
2425	248	209	240
2426	251	214	244
2427	248	209	239
2428	250	210	238
2429	247	207	232
2430	243	206	229
2431	250	216	236
2432	253	218	237
2433	253	218	234
2434	251	216	232
2435	246	212	229
2436	0	0	0
2437	0	0	0
2438	0	0	0
2439	0	0	0
2440	0	0	0
2441	0	0	0
2442	0	0	0
2443	0	0	0
2444	0	0	0
2445	0	0	0
2446	0	0	0
2447	0	0	0
2448	0	0	0
2449	0	0	0
2450	0	0	0
2451	0	0	0
2452	0	0	0
2453	0	0	0
2454	0	0	0
2455	0	0	0
2456	0	0	0
2457	0	0	0
2458	0	0	0
2459	0	0	0
2460	0	0	0
2461	0	0	0
2462	0	0	0
2463	0	0	0
2464	0	0	0
2465	0	0	0
2466	0	0	0
2467	254	221	239
2468	249	211	232
2469	240	198	222
2470	247	206	228
2471	250	211	230
2472	252	214	231
2473	253	217	234
2474	255	218	235
2475	255	221	237
2476	255	216	235
2477	254	210	233
2478	255	213	236
2479	255	217	238
2480	254	206	232
2481	248	196	228
2482	253	201	233
2483	255	203	232
2484	255	204	232
2485	255	206	234
2486	255	202	232
2487	254	199	231
2488	254	197	231
2489	251	193	229
2490	252	196	229
2491	254	199	229
2492	254	198	229
2493	255	199	233
2494	251	195	231
2495	245	189	227
2496	248	196	232
2497	250	203	235
2498	250	203	235
2499	249	204	234
2500	245	202	233
2501	244	204	236
2502	241	201	236
2503	236	197	235
2504	240	206	240
2505	244	213	240
2506	247	214	238
2507	249	216	239
2508	250	216	238
2509	250	215	237
2510	247	210	234
2511	244	206	233
2512	247	207	234
2513	244	205	230
2514	248	214	234
2515	254	223	239
2516	255	224	238
2517	255	224	236
2518	249	219	232
2519	0	0	0
2520	0	0	0
2521	0	0	0
2522	0	0	0
2523	0	0	0
2524	0	0	0
2525	0	0	0
2526	0	0	0
2527	0	0	0
2528	0	0	0
2529	0	0	0
2530	0	0	0
2531	0	0	0
2532	0	0	0
2533	0	0	0
2534	0	0	0
2535	0	0	0
2536	0	0	0
2537	0	0	0
2538	0	0	0
2539	0	0	0
2540	0	0	0
2541	0	0	0
2542	0	0	0
2543	0	0	0
2544	0	0	0
2545	0	0	0
2546	0	0	0
2547	0	0	0
2548	0	0	0
2549	0	0	0
2550	251	227	240
2551	255	230	243
2552	250	220	236
2553	250	217	234
2554	255	226	239
2555	255	221	236
2556	255	225	239
2557	254	220	236
2558	255	222	237
2559	255	218	234
2560	250	210	229
2561	252	213	233
2562	254	216	236
2563	255	218	238
2564	252	208	233
2565	253	206	235
2566	255	212	240
2567	253	204	232
2568	255	205	233
2569	255	209	236
2570	255	204	234
2571	253	199	231
2572	252	197	231
2573	252	198	232
2574	250	199	231
2575	251	203	231
2576	254	204	231
2577	254	202	233
2578	249	198	230
2579	250	201	233
2580	255	210	239
2581	248	199	232
2582	246	199	231
2583	247	205	233
2584	243	202	230
2585	246	209	236
2586	245	207	236
2587	240	201	234
2588	243	210	238
2589	0	0	0
2590	0	0	0
2591	0	0	0
2592	243	210	230
2593	247	215	232
2594	246	211	231
2595	247	212	234
2596	249	213	236
2597	250	215	235
2598	255	225	240
2599	251	218	235
2600	251	218	234
2601	249	217	231
2602	0	0	0
2603	0	0	0
2604	0	0	0
2605	0	0	0
2606	0	0	0
2607	0	0	0
2608	0	0	0
2609	0	0	0
2610	0	0	0
2611	0	0	0
2612	0	0	0
2613	0	0	0
2614	0	0	0
2615	0	0	0
2616	0	0	0
2617	0	0	0
2618	0	0	0
2619	0	0	0
2620	0	0	0
2621	0	0	0
2622	0	0	0
2623	0	0	0
2624	0	0	0
2625	0	0	0
2626	0	0	0
2627	0	0	0
2628	0	0	0
2629	0	0	0
2630	0	0	0
2631	0	0	0
2632	0	0	0
2633	0	0	0
2634	0	0	0
2635	255	237	245
2636	255	236	244
2637	255	234	243
2638	255	231	241
2639	253	227	238
2640	250	221	235
2641	248	217	231
2642	250	216	232
2643	249	212	230
2644	249	214	232
2645	250	216	234
2646	253	218	237
2647	255	220	239
2648	254	216	236
2649	254	214	237
2650	253	209	235
2651	249	202	232
2652	254	207	235
2653	255	210	237
2654	253	204	233
2655	250	199	230
2656	253	202	233
2657	252	202	233
2658	249	204	232
2659	251	207	233
2660	254	207	233
2661	253	205	232
2662	252	207	232
2663	252	210	234
2664	245	200	229
2665	238	191	225
2666	244	200	232
2667	0	0	0
2668	0	0	0
2669	249	216	239
2670	249	213	236
2671	0	0	0
2672	0	0	0
2673	0	0	0
2674	0	0	0
2675	0	0	0
2676	0	0	0
2677	0	0	0
2678	0	0	0
2679	0	0	0
2680	255	223	240
2681	255	224	237
2682	251	217	232
2683	247	212	232
2684	250	215	234
2685	247	215	231
2686	0	0	0
2687	0	0	0
2688	0	0	0
2689	0	0	0
2690	0	0	0
2691	0	0	0
2692	0	0	0
2693	0	0	0
2694	0	0	0
2695	0	0	0
2696	0	0	0
2697	0	0	0
2698	0	0	0
2699	0	0	0
2700	0	0	0
2701	0	0	0
2702	0	0	0
2703	0	0	0
2704	0	0	0
2705	0	0	0
2706	0	0	0
2707	0	0	0
2708	0	0	0
2709	0	0	0
2710	0	0	0
2711	0	0	0
2712	0	0	0
2713	0	0	0
2714	0	0	0
2715	0	0	0
2716	0	0	0
2717	0	0	0
2718	0	0	0
2719	0	0	0
2720	0	0	0
2721	0	0	0
2722	0	0	0
2723	0	0	0
2724	0	0	0
2725	0	0	0
2726	255	228	239
2727	249	218	234
2728	0	0	0
2729	253	226	240
2730	255	228	243
2731	251	218	236
2732	246	212	231
2733	255	225	241
2734	255	223	241
2735	251	209	235
2736	255	214	240
2737	255	214	239
2738	253	208	234
2739	254	208	235
2740	255	210	237
2741	253	209	235
2742	254	212	236
2743	254	213	236
2744	254	211	234
2745	253	211	233
2746	252	212	234
2747	246	208	230
2748	0	0	0
2749	0	0	0
2750	0	0	0
2751	0	0	0
2752	0	0	0
2753	0	0	0
2754	0	0	0
2755	0	0	0
2756	0	0	0
2757	0	0	0
2758	0	0	0
2759	0	0	0
2760	0	0	0
2761	0	0	0
2762	0	0	0
2763	0	0	0
2764	0	0	0
2765	250	215	230
2766	0	0	0
2767	253	222	238
2768	255	226	243
2769	250	217	234
2770	0	0	0
2771	0	0	0
2772	0	0	0
2773	0	0	0
2774	0	0	0
2775	0	0	0
2776	0	0	0
2777	0	0	0
2778	0	0	0
2779	0	0	0
2780	0	0	0
2781	0	0	0
2782	0	0	0
2783	0	0	0
2784	0	0	0
2785	0	0	0
2786	0	0	0
2787	0	0	0
2788	0	0	0
2789	0	0	0
2790	0	0	0
2791	0	0	0
2792	0	0	0
2793	0	0	0
2794	0	0	0
2795	0	0	0
2796	0	0	0
2797	0	0	0
2798	0	0	0
2799	0	0	0
2800	0	0	0
2801	0	0	0
2802	0	0	0
2803	0	0	0
2804	0	0	0
2805	0	0	0
2806	0	0	0
2807	0	0	0
2808	0	0	0
2809	0	0	0
2810	0	0	0
2811	0	0	0
2812	0	0	0
2813	0	0	0
2814	253	226	240
2815	247	216	233
2816	255	229	241
2817	255	242	249
2818	255	228	241
2819	253	215	236
2820	255	218	240
2821	255	219	240
2822	255	217	238
2823	255	217	238
2824	255	217	238
2825	255	216	237
2826	255	217	238
2827	255	217	238
2828	252	215	235
2829	251	215	234
2830	249	212	232
2831	0	0	0
2832	0	0	0
2833	0	0	0
2834	0	0	0
2835	0	0	0
2836	0	0	0
2837	0	0	0
2838	0	0	0
2839	0	0	0
2840	0	0	0
2841	0	0	0
2842	0	0	0
2843	0	0	0
2844	0	0	0
2845	0	0	0
2846	0	0	0
2847	0	0	0
2848	0	0	0
2849	0	0	0
2850	0	0	0
2851	0	0	0
2852	254	224	238
2853	0	0	0
2854	0	0	0
2855	0	0	0
2856	0	0	0
2857	0	0	0
2858	0	0	0
2859	0	0	0
2860	0	0	0
2861	0	0	0
2862	0	0	0
2863	0	0	0
2864	0	0	0
2865	0	0	0
2866	0	0	0
2867	0	0	0
2868	0	0	0
2869	0	0	0
2870	0	0	0
2871	0	0	0
2872	0	0	0
2873	0	0	0
2874	0	0	0
2875	0	0	0
2876	0	0	0
2877	0	0	0
2878	0	0	0
2879	0	0	0
2880	0	0	0
2881	0	0	0
2882	0	0	0
2883	0	0	0
2884	0	0	0
2885	0	0	0
2886	0	0	0
2887	0	0	0
2888	0	0	0
2889	0	0	0
2890	0	0	0
2891	0	0	0
2892	0	0	0
2893	0	0	0
2894	0	0	0
2895	0	0	0
2896	0	0	0
2897	0	0	0
2898	0	0	0
2899	250	224	237
2900	255	239	248
2901	255	229	240
2902	248	213	230
2903	251	215	235
2904	254	218	239
2905	255	218	238
2906	254	217	237
2907	255	218	237
2908	255	217	237
2909	251	214	235
2910	251	215	235
2911	252	219	237
2912	0	0	0
2913	0	0	0
2914	0	0	0
2915	0	0	0
2916	0	0	0
2917	0	0	0
2918	0	0	0
2919	0	0	0
2920	0	0	0
2921	0	0	0
2922	0	0	0
2923	0	0	0
2924	0	0	0
2925	0	0	0
2926	0	0	0
2927	0	0	0
2928	0	0	0
2929	0	0	0
2930	0	0	0
2931	0	0	0
2932	0	0	0
2933	0	0	0
2934	0	0	0
2935	0	0	0
2936	0	0	0
2937	0	0	0
2938	0	0	0
2939	0	0	0
2940	0	0	0
2941	0	0	0
2942	0	0	0
2943	0	0	0
2944	0	0	0
2945	0	0	0
2946	0	0	0
2947	0	0	0
2948	0	0	0
2949	0	0	0
2950	0	0	0
2951	0	0	0
2952	0	0	0
2953	0	0	0
2954	0	0	0
2955	0	0	0
2956	0	0	0
2957	0	0	0
2958	0	0	0
2959	0	0	0
2960	0	0	0
2961	0	0	0
2962	0	0	0
2963	0	0	0
2964	0	0	0
2965	0	0	0
2966	0	0	0
2967	0	0	0
2968	0	0	0
2969	0	0	0
2970	0	0	0
2971	0	0	0
2972	0	0	0
2973	0	0	0
2974	0	0	0
2975	0	0	0
2976	0	0	0
2977	0	0	0
2978	0	0	0
2979	0	0	0
2980	0	0	0
2981	0	0	0
2982	0	0	0
2983	0	0	0
2984	253	226	240
2985	249	217	235
2986	250	217	236
2987	251	218	238
2988	251	218	239
2989	251	218	238
2990	252	218	239
2991	253	219	239
2992	252	217	238
2993	249	214	237
2994	255	222	241
2995	254	225	240
2996	0	0	0
2997	0	0	0
2998	0	0	0
2999	0	0	0
3000	0	0	0
3001	0	0	0
3002	0	0	0
3003	0	0	0
3004	0	0	0
3005	0	0	0
3006	0	0	0
3007	0	0	0
3008	0	0	0
3009	0	0	0
3010	0	0	0
3011	0	0	0
3012	0	0	0
3013	0	0	0
3014	0	0	0
3015	0	0	0
3016	0	0	0
3017	0	0	0
3018	0	0	0
3019	0	0	0
3020	0	0	0
3021	0	0	0
3022	0	0	0
3023	0	0	0
3024	0	0	0
3025	0	0	0
3026	0	0	0
3027	0	0	0
3028	0	0	0
3029	0	0	0
3030	0	0	0
3031	0	0	0
3032	0	0	0
3033	0	0	0
3034	0	0	0
3035	0	0	0
3036	0	0	0
3037	0	0	0
3038	0	0	0
3039	0	0	0
3040	0	0	0
3041	0	0	0
3042	0	0	0
3043	0	0	0
3044	0	0	0
3045	0	0	0
3046	0	0	0
3047	0	0	0
3048	0	0	0
3049	0	0	0
3050	0	0	0
3051	0	0	0
3052	0	0	0
3053	0	0	0
3054	0	0	0
3055	0	0	0
3056	0	0	0
3057	0	0	0
3058	0	0	0
3059	0	0	0
3060	0	0	0
3061	0	0	0
3062	0	0	0
3063	0	0	0
3064	0	0	0
3065	0	0	0
3066	0	0	0
3067	0	0	0
3068	0	0	0
3069	0	0	0
3070	0	0	0
3071	254	225	242
3072	251	224	241
3073	249	222	240
3074	0	0	0
3075	255	228	245
3076	255	226	244
3077	251	219	240
3078	255	227	244
3079	250	222	237
3080	0	0	0
3081	0	0	0
3082	0	0	0
3083	0	0	0
3084	0	0	0
3085	0	0	0
3086	0	0	0
3087	0	0	0
3088	0	0	0
3089	0	0	0
3090	0	0	0
3091	0	0	0
3092	0	0	0
3093	0	0	0
3094	0	0	0
3095	0	0	0
3096	0	0	0
3097	0	0	0
3098	0	0	0
3099	0	0	0
3100	0	0	0
3101	0	0	0
3102	0	0	0
3103	0	0	0
3104	0	0	0
3105	0	0	0
3106	0	0	0
3107	0	0	0
3108	0	0	0
3109	0	0	0
3110	0	0	0
3111	0	0	0
3112	0	0	0
3113	0	0	0
3114	0	0	0
3115	0	0	0
3116	0	0	0
3117	0	0	0
3118	0	0	0
3119	0	0	0
3120	0	0	0
3121	0	0	0
3122	0	0	0
3123	0	0	0
3124	0	0	0
3125	0	0	0
3126	0	0	0
3127	0	0	0
3128	0	0	0
3129	0	0	0
3130	0	0	0
3131	0	0	0
3132	0	0	0
3133	0	0	0
3134	0	0	0
3135	0	0	0
3136	0	0	0
3137	0	0	0
3138	0	0	0
3139	0	0	0
3140	0	0	0
3141	0	0	0
3142	0	0	0
3143	0	0	0
3144	0	0	0
3145	0	0	0
3146	0	0	0
3147	0	0	0
3148	0	0	0
3149	0	0	0
3150	0	0	0
3151	0	0	0
3152	0	0	0
3153	0	0	0
3154	0	0	0
3155	0	0	0
3156	249	227	240
3157	0	0	0
3158	0	0	0
3159	0	0	0
3160	254	229	242
3161	250	222	237
3162	250	222	237
3163	0	0	0
3164	0	0	0
3165	0	0	0
3166	0	0	0
3167	0	0	0
3168	0	0	0
3169	0	0	0
3170	0	0	0
3171	0	0	0
3172	0	0	0
3173	0	0	0
3174	0	0	0
3175	0	0	0
3176	0	0	0
3177	0	0	0
3178	0	0	0
3179	0	0	0
3180	0	0	0
3181	0	0	0
3182	0	0	0
3183	0	0	0
3184	0	0	0
3185	0	0	0
3186	0	0	0
3187	0	0	0
3188	0	0	0
3189	0	0	0
3190	0	0	0
3191	0	0	0
3192	0	0	0
