 	R	G	B
1	0	0	0
2	0	0	0
3	0	0	0
4	0	0	0
5	0	0	0
6	0	0	0
7	0	0	0
8	0	0	0
9	0	0	0
10	0	0	0
11	0	0	0
12	0	0	0
13	0	0	0
14	0	0	0
15	0	0	0
16	0	0	0
17	0	0	0
18	0	0	0
19	0	0	0
20	0	0	0
21	0	0	0
22	0	0	0
23	0	0	0
24	0	0	0
25	0	0	0
26	0	0	0
27	250	202	218
28	255	212	226
29	254	201	218
30	0	0	0
31	0	0	0
32	0	0	0
33	0	0	0
34	0	0	0
35	0	0	0
36	0	0	0
37	0	0	0
38	0	0	0
39	0	0	0
40	0	0	0
41	0	0	0
42	0	0	0
43	0	0	0
44	0	0	0
45	0	0	0
46	0	0	0
47	0	0	0
48	0	0	0
49	0	0	0
50	0	0	0
51	0	0	0
52	0	0	0
53	0	0	0
54	0	0	0
55	0	0	0
56	0	0	0
57	0	0	0
58	0	0	0
59	0	0	0
60	0	0	0
61	0	0	0
62	0	0	0
63	0	0	0
64	0	0	0
65	0	0	0
66	0	0	0
67	0	0	0
68	0	0	0
69	0	0	0
70	0	0	0
71	0	0	0
72	0	0	0
73	255	206	224
74	254	199	221
75	255	195	221
76	251	186	216
77	251	182	215
78	245	171	207
79	249	175	209
80	249	174	205
81	246	170	201
82	244	167	200
83	243	165	199
84	239	160	198
85	0	0	0
86	0	0	0
87	0	0	0
88	0	0	0
89	0	0	0
90	0	0	0
91	0	0	0
92	0	0	0
93	0	0	0
94	0	0	0
95	0	0	0
96	0	0	0
97	0	0	0
98	0	0	0
99	0	0	0
100	0	0	0
101	0	0	0
102	0	0	0
103	0	0	0
104	0	0	0
105	0	0	0
106	0	0	0
107	0	0	0
108	0	0	0
109	0	0	0
110	0	0	0
111	0	0	0
112	0	0	0
113	0	0	0
114	0	0	0
115	0	0	0
116	0	0	0
117	0	0	0
118	0	0	0
119	255	206	224
120	255	204	227
121	254	189	220
122	255	186	221
123	252	175	217
124	253	172	217
125	249	162	212
126	254	167	215
127	251	163	210
128	250	160	207
129	251	161	208
130	250	159	207
131	249	158	208
132	252	163	212
133	0	0	0
134	0	0	0
135	0	0	0
136	0	0	0
137	0	0	0
138	0	0	0
139	0	0	0
140	0	0	0
141	0	0	0
142	0	0	0
143	0	0	0
144	0	0	0
145	0	0	0
146	0	0	0
147	0	0	0
148	0	0	0
149	0	0	0
150	0	0	0
151	0	0	0
152	0	0	0
153	0	0	0
154	0	0	0
155	0	0	0
156	0	0	0
157	0	0	0
158	0	0	0
159	0	0	0
160	0	0	0
161	255	253	239
162	255	252	240
163	255	243	239
164	255	230	234
165	255	218	231
166	255	208	229
167	255	194	225
168	254	179	219
169	252	171	217
170	248	160	212
171	247	153	209
172	243	144	206
173	247	146	210
174	246	143	208
175	249	146	210
176	250	147	209
177	249	146	208
178	247	144	208
179	0	0	0
180	0	0	0
181	0	0	0
182	0	0	0
183	0	0	0
184	0	0	0
185	0	0	0
186	0	0	0
187	0	0	0
188	0	0	0
189	0	0	0
190	0	0	0
191	0	0	0
192	0	0	0
193	0	0	0
194	0	0	0
195	0	0	0
196	0	0	0
197	0	0	0
198	0	0	0
199	0	0	0
200	0	0	0
201	0	0	0
202	0	0	0
203	0	0	0
204	0	0	0
205	0	0	0
206	0	0	0
207	255	238	230
208	255	242	236
209	255	225	228
210	255	209	222
211	255	203	221
212	253	191	218
213	254	185	219
214	250	172	215
215	253	169	219
216	252	160	217
217	250	152	214
218	248	146	211
219	254	150	217
220	255	151	220
221	249	138	214
222	253	141	217
223	251	139	213
224	250	138	211
225	250	139	212
226	0	0	0
227	0	0	0
228	0	0	0
229	0	0	0
230	0	0	0
231	0	0	0
232	0	0	0
233	0	0	0
234	0	0	0
235	0	0	0
236	0	0	0
237	0	0	0
238	0	0	0
239	0	0	0
240	0	0	0
241	0	0	0
242	0	0	0
243	0	0	0
244	0	0	0
245	0	0	0
246	0	0	0
247	0	0	0
248	0	0	0
249	0	0	0
250	0	0	0
251	255	246	238
252	255	251	240
253	255	240	235
254	255	229	229
255	255	214	223
256	251	198	219
257	251	190	219
258	251	182	217
259	249	173	214
260	250	167	215
261	250	162	216
262	253	158	219
263	252	152	218
264	250	144	216
265	254	147	219
266	255	150	222
267	251	137	214
268	243	123	208
269	246	126	212
270	245	124	210
271	248	128	212
272	247	128	211
273	255	142	217
274	0	0	0
275	0	0	0
276	0	0	0
277	0	0	0
278	0	0	0
279	0	0	0
280	0	0	0
281	0	0	0
282	0	0	0
283	0	0	0
284	0	0	0
285	0	0	0
286	0	0	0
287	0	0	0
288	0	0	0
289	0	0	0
290	0	0	0
291	0	0	0
292	0	0	0
293	0	0	0
294	0	0	0
295	0	0	0
296	0	0	0
297	255	234	230
298	255	243	238
299	255	225	228
300	255	214	223
301	255	207	222
302	252	192	218
303	247	177	215
304	247	169	216
305	251	170	219
306	247	159	214
307	255	165	221
308	255	158	221
309	252	149	219
310	250	142	218
311	249	137	217
312	253	139	221
313	255	140	221
314	247	127	213
315	249	127	215
316	252	129	220
317	251	127	219
318	253	130	220
319	250	128	215
320	255	141	221
321	252	137	214
322	0	0	0
323	0	0	0
324	0	0	0
325	0	0	0
326	0	0	0
327	0	0	0
328	0	0	0
329	0	0	0
330	0	0	0
331	0	0	0
332	0	0	0
333	0	0	0
334	0	0	0
335	0	0	0
336	0	0	0
337	0	0	0
338	0	0	0
339	0	0	0
340	0	0	0
341	255	251	241
342	255	250	242
343	255	246	242
344	255	234	234
345	255	218	225
346	253	200	217
347	251	191	216
348	252	185	217
349	244	167	211
350	239	151	209
351	243	153	215
352	246	152	217
353	250	154	219
354	255	158	224
355	250	145	218
356	246	135	214
357	244	130	213
358	243	124	213
359	245	125	215
360	246	125	216
361	247	124	216
362	248	123	217
363	249	124	219
364	248	122	219
365	250	124	219
366	246	121	213
367	244	120	210
368	0	0	0
369	0	0	0
370	0	0	0
371	0	0	0
372	0	0	0
373	0	0	0
374	0	0	0
375	0	0	0
376	0	0	0
377	0	0	0
378	0	0	0
379	0	0	0
380	0	0	0
381	0	0	0
382	0	0	0
383	0	0	0
384	0	0	0
385	0	0	0
386	0	0	0
387	255	234	231
388	255	235	233
389	255	216	226
390	255	209	225
391	254	200	220
392	247	183	212
393	248	179	214
394	247	170	214
395	251	170	218
396	241	151	210
397	249	157	222
398	253	157	226
399	251	151	224
400	253	151	225
401	255	151	226
402	248	138	218
403	247	134	217
404	245	128	216
405	254	139	226
406	255	138	226
407	255	137	225
408	255	135	225
409	254	131	224
410	254	131	225
411	252	127	224
412	253	128	224
413	249	125	217
414	247	124	215
415	249	129	218
416	0	0	0
417	0	0	0
418	0	0	0
419	0	0	0
420	0	0	0
421	0	0	0
422	0	0	0
423	0	0	0
424	0	0	0
425	0	0	0
426	0	0	0
427	0	0	0
428	0	0	0
429	0	0	0
430	0	0	0
431	0	0	0
432	255	247	241
433	255	233	232
434	255	219	224
435	251	201	217
436	243	183	213
437	242	174	213
438	240	166	211
439	239	159	211
440	240	154	214
441	241	151	214
442	242	148	214
443	244	149	216
444	250	153	223
445	248	146	222
446	245	140	221
447	246	138	222
448	247	137	223
449	244	131	219
450	243	127	216
451	251	137	223
452	255	147	230
453	255	144	228
454	255	142	226
455	255	138	225
456	254	135	225
457	251	129	222
458	247	123	218
459	245	122	216
460	242	119	211
461	244	125	214
462	245	129	216
463	247	136	218
464	247	139	216
465	246	142	215
466	0	0	0
467	0	0	0
468	0	0	0
469	0	0	0
470	0	0	0
471	0	0	0
472	0	0	0
473	0	0	0
474	0	0	0
475	0	0	0
476	0	0	0
477	0	0	0
478	255	223	230
479	255	218	227
480	254	205	220
481	248	189	215
482	240	171	209
483	249	177	221
484	246	167	221
485	250	169	225
486	248	161	224
487	250	159	227
488	248	154	225
489	253	160	228
490	254	158	227
491	255	161	230
492	253	153	228
493	251	147	228
494	251	144	228
495	255	151	233
496	253	144	229
497	249	138	225
498	255	147	231
499	255	148	230
500	255	145	228
501	248	132	220
502	246	128	219
503	251	135	224
504	248	129	220
505	252	136	225
506	250	134	223
507	249	135	221
508	251	141	223
509	254	148	226
510	255	154	228
511	252	152	225
512	251	155	226
513	248	155	225
514	0	0	0
515	0	0	0
516	0	0	0
517	0	0	0
518	0	0	0
519	255	240	240
520	255	238	241
521	255	231	237
522	255	223	232
523	252	210	225
524	245	197	217
525	245	192	216
526	247	189	217
527	237	169	208
528	231	153	205
529	237	157	214
530	244	161	221
531	246	160	223
532	249	160	226
533	249	157	226
534	248	153	226
535	253	159	230
536	255	163	230
537	255	162	229
538	255	163	232
539	254	155	228
540	251	148	227
541	253	152	230
542	255	156	232
543	252	148	227
544	249	142	226
545	251	144	227
546	251	143	225
547	242	130	216
548	235	118	214
549	241	126	221
550	244	130	221
551	248	137	224
552	253	144	229
553	253	146	229
554	251	146	227
555	254	153	229
556	255	160	230
557	251	157	226
558	248	155	225
559	246	157	226
560	242	156	224
561	248	170	230
562	251	181	229
563	252	187	228
564	0	0	0
565	254	225	233
566	255	224	234
567	253	215	231
568	251	208	227
569	252	205	226
570	247	193	219
571	249	191	221
572	249	187	221
573	252	187	226
574	242	167	217
575	248	170	227
576	253	173	233
577	252	167	231
578	252	165	231
579	252	162	231
580	251	158	229
581	251	156	230
582	255	160	232
583	255	162	230
584	255	159	228
585	253	156	227
586	248	148	223
587	250	151	226
588	252	153	228
589	255	162	233
590	252	153	228
591	253	155	232
592	255	156	233
593	254	155	229
594	245	141	221
595	251	148	232
596	255	154	238
597	252	149	231
598	255	155	234
599	249	149	230
600	248	150	229
601	253	160	232
602	255	167	234
603	253	167	231
604	249	165	228
605	253	174	235
606	252	176	235
607	250	178	234
608	255	192	238
609	255	198	235
610	255	205	234
611	255	208	234
612	0	0	0
613	238	193	220
614	235	184	216
615	238	183	218
616	240	181	218
617	241	178	218
618	242	176	219
619	243	173	219
620	246	173	224
621	248	173	227
622	252	174	232
623	251	169	231
624	249	163	229
625	247	159	227
626	247	156	226
627	248	155	227
628	247	152	227
629	251	156	230
630	252	158	230
631	248	152	225
632	246	148	223
633	248	151	224
634	248	152	225
635	252	159	229
636	255	168	237
637	255	165	235
638	255	165	235
639	253	162	231
640	252	160	227
641	253	162	227
642	255	167	233
643	251	162	230
644	247	157	229
645	242	151	225
646	235	144	221
647	241	155	226
648	244	164	227
649	241	164	224
650	240	165	223
651	245	175	228
652	249	185	234
653	249	189	234
654	247	191	231
655	251	202	235
656	253	210	235
657	254	215	235
658	0	0	0
659	0	0	0
660	0	0	0
661	0	0	0
662	252	198	236
663	247	187	230
664	247	184	229
665	251	187	231
666	250	182	230
667	253	183	234
668	254	182	236
669	253	177	235
670	251	172	232
671	248	165	229
672	0	0	0
673	255	176	237
674	255	174	239
675	246	153	228
676	249	157	232
677	254	163	234
678	249	156	228
679	250	159	230
680	251	160	230
681	251	162	230
682	254	168	233
683	255	173	238
684	252	169	234
685	255	174	236
686	252	171	232
687	253	173	229
688	252	173	228
689	249	172	228
690	0	0	0
691	0	0	0
692	0	0	0
693	0	0	0
694	0	0	0
695	0	0	0
696	0	0	0
697	0	0	0
698	0	0	0
699	0	0	0
700	0	0	0
701	0	0	0
702	0	0	0
703	0	0	0
704	0	0	0
705	0	0	0
706	0	0	0
707	0	0	0
708	0	0	0
709	0	0	0
710	0	0	0
711	245	183	231
712	247	184	230
713	247	182	229
714	249	181	232
715	248	177	232
716	247	173	231
717	246	168	228
718	0	0	0
719	0	0	0
720	0	0	0
721	248	165	226
722	235	144	221
723	242	153	229
724	245	158	229
725	245	158	227
726	246	161	229
727	248	165	231
728	248	166	230
729	248	169	230
730	249	173	231
731	248	174	231
732	249	178	232
733	246	178	229
734	246	179	228
735	244	178	226
736	0	0	0
737	0	0	0
738	0	0	0
739	0	0	0
740	0	0	0
741	0	0	0
742	0	0	0
743	0	0	0
744	0	0	0
745	0	0	0
746	0	0	0
747	0	0	0
748	0	0	0
749	0	0	0
750	0	0	0
751	0	0	0
752	0	0	0
753	0	0	0
754	0	0	0
755	0	0	0
756	0	0	0
757	0	0	0
758	0	0	0
759	0	0	0
760	0	0	0
761	0	0	0
762	0	0	0
763	0	0	0
764	0	0	0
765	0	0	0
766	0	0	0
767	0	0	0
768	0	0	0
769	0	0	0
770	0	0	0
771	0	0	0
772	0	0	0
773	0	0	0
774	0	0	0
775	250	180	235
776	250	183	234
777	255	196	240
778	255	196	238
779	249	193	234
780	0	0	0
781	0	0	0
782	0	0	0
783	0	0	0
784	0	0	0
785	0	0	0
786	0	0	0
787	0	0	0
788	0	0	0
789	0	0	0
790	0	0	0
791	0	0	0
792	0	0	0
793	0	0	0
794	0	0	0
795	0	0	0
796	0	0	0
797	0	0	0
798	0	0	0
799	0	0	0
800	0	0	0
801	0	0	0
802	0	0	0
803	0	0	0
804	0	0	0
805	0	0	0
806	0	0	0
807	0	0	0
808	0	0	0
809	0	0	0
810	0	0	0
811	0	0	0
812	0	0	0
813	0	0	0
814	0	0	0
815	0	0	0
816	0	0	0
817	0	0	0
818	0	0	0
819	0	0	0
820	0	0	0
821	0	0	0
822	0	0	0
823	250	199	237
824	255	211	240
825	252	209	236
826	0	0	0
827	0	0	0
828	0	0	0
829	0	0	0
830	0	0	0
831	0	0	0
832	0	0	0
833	0	0	0
834	0	0	0
835	0	0	0
836	0	0	0
837	0	0	0
838	0	0	0
839	0	0	0
840	0	0	0
841	0	0	0
842	0	0	0
843	0	0	0
844	0	0	0
845	0	0	0
846	0	0	0
