 	R	G	B
1	0	0	0
2	0	0	0
3	0	0	0
4	255	234	237
5	249	220	227
6	255	229	235
7	255	232	236
8	255	236	239
9	255	236	238
10	255	243	242
11	0	0	0
12	0	0	0
13	0	0	0
14	0	0	0
15	0	0	0
16	0	0	0
17	0	0	0
18	0	0	0
19	0	0	0
20	0	0	0
21	0	0	0
22	0	0	0
23	0	0	0
24	0	0	0
25	0	0	0
26	0	0	0
27	0	0	0
28	0	0	0
29	0	0	0
30	0	0	0
31	0	0	0
32	0	0	0
33	0	0	0
34	0	0	0
35	0	0	0
36	0	0	0
37	0	0	0
38	0	0	0
39	0	0	0
40	255	235	239
41	255	226	234
42	248	210	225
43	255	220	233
44	250	209	226
45	253	214	228
46	253	215	226
47	255	223	231
48	255	225	232
49	0	0	0
50	0	0	0
51	0	0	0
52	0	0	0
53	0	0	0
54	0	0	0
55	0	0	0
56	0	0	0
57	0	0	0
58	0	0	0
59	0	0	0
60	0	0	0
61	0	0	0
62	0	0	0
63	0	0	0
64	0	0	0
65	0	0	0
66	0	0	0
67	0	0	0
68	0	0	0
69	0	0	0
70	0	0	0
71	0	0	0
72	0	0	0
73	0	0	0
74	0	0	0
75	0	0	0
76	253	232	239
77	253	223	235
78	251	213	231
79	245	198	224
80	247	197	225
81	241	187	218
82	249	196	224
83	249	198	222
84	252	204	224
85	249	205	221
86	255	224	232
87	255	245	245
88	255	249	246
89	0	0	0
90	0	0	0
91	0	0	0
92	0	0	0
93	0	0	0
94	0	0	0
95	0	0	0
96	0	0	0
97	0	0	0
98	0	0	0
99	0	0	0
100	0	0	0
101	0	0	0
102	0	0	0
103	0	0	0
104	0	0	0
105	0	0	0
106	0	0	0
107	0	0	0
108	0	0	0
109	0	0	0
110	0	0	0
111	0	0	0
112	255	238	241
113	255	232	241
114	254	219	235
115	253	210	233
116	250	198	230
117	253	197	233
118	248	187	227
119	255	197	234
120	248	185	223
121	251	191	224
122	248	191	219
123	255	210	229
124	255	216	230
125	255	219	229
126	255	223	231
127	0	0	0
128	0	0	0
129	0	0	0
130	0	0	0
131	0	0	0
132	0	0	0
133	0	0	0
134	0	0	0
135	0	0	0
136	0	0	0
137	0	0	0
138	0	0	0
139	0	0	0
140	0	0	0
141	0	0	0
142	0	0	0
143	0	0	0
144	0	0	0
145	0	0	0
146	0	0	0
147	0	0	0
148	0	0	0
149	255	236	241
150	255	223	237
151	251	210	230
152	249	201	228
153	246	190	227
154	249	186	230
155	244	177	225
156	242	172	223
157	235	161	215
158	243	171	220
159	242	173	216
160	249	185	221
161	249	189	217
162	250	195	218
163	251	201	222
164	255	221	233
165	0	0	0
166	0	0	0
167	0	0	0
168	0	0	0
169	0	0	0
170	0	0	0
171	0	0	0
172	0	0	0
173	0	0	0
174	0	0	0
175	0	0	0
176	0	0	0
177	0	0	0
178	0	0	0
179	0	0	0
180	0	0	0
181	0	0	0
182	0	0	0
183	0	0	0
184	0	0	0
185	0	0	0
186	255	231	240
187	254	219	236
188	251	207	231
189	249	198	229
190	250	193	233
191	254	190	236
192	248	179	231
193	245	174	229
194	250	178	233
195	255	192	243
196	249	172	226
197	255	184	231
198	248	175	219
199	249	182	220
200	250	187	221
201	255	205	230
202	255	208	225
203	0	0	0
204	0	0	0
205	0	0	0
206	0	0	0
207	0	0	0
208	0	0	0
209	0	0	0
210	0	0	0
211	0	0	0
212	0	0	0
213	0	0	0
214	0	0	0
215	0	0	0
216	0	0	0
217	0	0	0
218	0	0	0
219	0	0	0
220	0	0	0
221	0	0	0
222	0	0	0
223	248	222	234
224	250	213	234
225	249	202	232
226	251	199	236
227	252	194	237
228	253	188	237
229	247	176	232
230	252	183	238
231	255	187	242
232	252	175	236
233	241	157	223
234	244	159	224
235	237	151	215
236	240	160	218
237	240	164	217
238	241	171	216
239	238	173	210
240	248	192	219
241	255	210	228
242	255	221	232
243	0	0	0
244	0	0	0
245	0	0	0
246	0	0	0
247	0	0	0
248	0	0	0
249	0	0	0
250	0	0	0
251	0	0	0
252	0	0	0
253	0	0	0
254	0	0	0
255	0	0	0
256	0	0	0
257	0	0	0
258	0	0	0
259	0	0	0
260	0	0	0
261	255	226	245
262	250	203	236
263	253	200	240
264	252	192	239
265	252	186	238
266	246	174	234
267	253	182	242
268	251	177	239
269	243	164	231
270	243	159	230
271	249	163	235
272	244	156	229
273	248	165	231
274	251	175	232
275	253	182	231
276	245	174	222
277	255	194	231
278	253	194	225
279	255	203	225
280	255	209	225
281	0	0	0
282	0	0	0
283	0	0	0
284	0	0	0
285	0	0	0
286	0	0	0
287	0	0	0
288	0	0	0
289	0	0	0
290	0	0	0
291	0	0	0
292	0	0	0
293	0	0	0
294	0	0	0
295	0	0	0
296	0	0	0
297	0	0	0
298	0	0	0
299	238	193	230
300	243	191	234
301	242	184	232
302	243	177	233
303	240	168	233
304	245	170	239
305	244	165	237
306	244	162	236
307	244	158	235
308	248	160	237
309	244	153	232
310	251	167	237
311	254	176	235
312	250	172	229
313	244	167	227
314	248	173	228
315	243	172	219
316	244	179	217
317	244	185	215
318	250	198	221
319	0	0	0
320	0	0	0
321	0	0	0
322	255	229	233
323	255	231	234
324	255	238	239
325	0	0	0
326	0	0	0
327	0	0	0
328	0	0	0
329	0	0	0
330	0	0	0
331	0	0	0
332	0	0	0
333	0	0	0
334	0	0	0
335	0	0	0
336	237	203	235
337	241	201	240
338	238	189	235
339	242	185	238
340	244	178	242
341	254	182	251
342	246	164	240
343	248	162	240
344	247	157	238
345	249	157	238
346	247	155	236
347	255	169	242
348	255	171	235
349	251	168	231
350	249	166	233
351	252	172	235
352	254	180	232
353	255	189	231
354	250	183	222
355	255	196	228
356	252	197	227
357	0	0	0
358	255	222	234
359	255	220	229
360	252	218	228
361	255	224	232
362	253	227	232
363	0	0	0
364	0	0	0
365	0	0	0
366	0	0	0
367	0	0	0
368	0	0	0
369	0	0	0
370	0	0	0
371	0	0	0
372	0	0	0
373	238	214	240
374	240	206	241
375	239	195	239
376	244	191	243
377	246	184	245
378	246	173	243
379	239	154	234
380	243	155	236
381	243	150	233
382	249	156	237
383	247	153	234
384	252	160	237
385	252	163	232
386	250	161	230
387	249	160	232
388	255	173	239
389	255	181	238
390	255	179	231
391	249	175	225
392	248	178	225
393	244	179	223
394	252	196	231
395	255	214	236
396	252	208	227
397	248	205	225
398	249	210	226
399	247	213	225
400	0	0	0
401	0	0	0
402	0	0	0
403	0	0	0
404	0	0	0
405	0	0	0
406	0	0	0
407	0	0	0
408	0	0	0
409	0	0	0
410	243	223	243
411	250	218	247
412	248	203	244
413	250	198	248
414	242	178	241
415	240	166	239
416	240	158	237
417	246	160	241
418	250	160	242
419	255	166	247
420	243	144	231
421	246	151	233
422	249	157	234
423	250	156	232
424	253	161	237
425	255	174	244
426	253	167	233
427	248	165	228
428	250	171	230
429	250	175	230
430	253	186	234
431	255	203	241
432	255	202	234
433	249	196	225
434	254	207	231
435	254	212	232
436	251	213	229
437	255	228	237
438	0	0	0
439	0	0	0
440	0	0	0
441	0	0	0
442	0	0	0
443	0	0	0
444	0	0	0
445	0	0	0
446	0	0	0
447	249	233	247
448	249	219	244
449	247	204	241
450	243	189	239
451	236	170	235
452	242	169	242
453	242	162	242
454	250	165	247
455	254	165	248
456	246	150	238
457	232	128	223
458	240	140	232
459	245	148	236
460	250	154	238
461	252	157	237
462	249	155	233
463	242	149	226
464	246	158	230
465	248	165	233
466	252	175	236
467	255	185	236
468	252	186	232
469	249	186	227
470	253	196	230
471	255	207	234
472	255	211	234
473	255	211	233
474	255	217	234
475	255	224	234
476	255	228	234
477	0	0	0
478	0	0	0
479	0	0	0
480	0	0	0
481	0	0	0
482	0	0	0
483	0	0	0
484	254	241	251
485	250	225	246
486	246	208	242
487	246	194	242
488	240	175	239
489	248	175	247
490	248	168	246
491	255	170	250
492	255	171	252
493	249	155	242
494	242	143	236
495	254	158	248
496	254	157	246
497	255	161	247
498	254	159	241
499	251	157	238
500	245	150	233
501	250	160	239
502	252	168	241
503	255	178	242
504	255	186	241
505	255	187	236
506	250	183	231
507	255	195	235
508	255	202	236
509	255	205	235
510	246	195	227
511	246	201	228
512	255	227	240
513	255	230	239
514	254	226	236
515	0	0	0
516	0	0	0
517	0	0	0
518	0	0	0
519	0	0	0
520	0	0	0
521	255	251	255
522	248	226	245
523	245	210	243
524	246	196	244
525	241	177	239
526	250	179	247
527	250	171	244
528	254	172	247
529	255	173	250
530	251	162	245
531	246	152	242
532	255	159	249
533	253	157	245
534	253	157	243
535	251	156	239
536	245	150	235
537	240	145	234
538	247	157	241
539	249	164	241
540	252	172	241
541	254	181	239
542	250	178	233
543	245	175	229
544	250	184	233
545	253	192	234
546	246	186	228
547	236	176	221
548	252	204	236
549	255	230	247
550	255	222	236
551	251	218	231
552	252	222	233
553	255	228	236
554	255	230	237
555	0	0	0
556	0	0	0
557	0	0	0
558	255	250	255
559	243	225	242
560	247	218	246
561	250	205	248
562	243	181	240
563	252	182	248
564	249	171	243
565	251	171	244
566	255	178	252
567	252	167	248
568	251	162	249
569	255	170	255
570	250	153	243
571	250	154	242
572	251	158	243
573	244	152	238
574	246	157	244
575	255	170	251
576	255	179	251
577	255	188	251
578	253	179	240
579	248	176	235
580	252	185	239
581	255	195	245
582	255	192	240
583	249	187	235
584	244	184	232
585	255	213	248
586	255	219	244
587	252	210	232
588	255	217	234
589	255	222	236
590	254	220	234
591	254	222	235
592	252	220	233
593	0	0	0
594	0	0	0
595	255	253	255
596	250	236	248
597	252	227	250
598	248	206	245
599	240	181	239
600	245	179	245
601	241	168	240
602	247	174	246
603	252	179	252
604	245	169	246
605	243	162	246
606	239	152	242
607	229	137	231
608	232	143	235
609	234	148	237
610	237	154	240
611	241	160	242
612	253	175	251
613	255	184	250
614	251	177	241
615	244	170	233
616	248	178	238
617	253	188	243
618	250	186	241
619	247	183	238
620	247	185	239
621	242	182	235
622	247	193	238
623	248	201	236
624	249	205	233
625	253	213	234
626	252	212	232
627	250	210	230
628	250	211	231
629	247	209	228
630	0	0	0
631	0	0	0
632	255	252	255
633	249	233	246
634	250	225	247
635	242	201	239
636	237	186	239
637	239	181	243
638	240	181	246
639	248	187	253
640	247	186	253
641	237	174	245
642	239	177	250
643	233	166	245
644	226	157	241
645	227	163	244
646	233	172	249
647	243	182	255
648	247	181	253
649	255	197	255
650	250	180	246
651	244	175	239
652	250	185	244
653	255	195	250
654	255	195	249
655	252	193	246
656	251	193	246
657	251	196	247
658	247	193	243
659	251	204	247
660	252	209	244
661	255	216	243
662	255	217	240
663	255	216	238
664	252	209	234
665	252	211	235
666	250	210	233
667	0	0	0
668	0	0	0
669	255	249	254
670	248	232	246
671	247	223	246
672	239	205	241
673	232	189	239
674	236	191	245
675	238	190	247
676	243	193	252
677	242	192	252
678	238	190	251
679	238	191	254
680	232	184	250
681	225	175	244
682	228	184	250
683	236	193	255
684	241	195	255
685	245	194	255
686	241	183	247
687	231	168	235
688	240	181	243
689	247	192	249
690	248	193	247
691	246	193	244
692	246	194	242
693	246	195	242
694	249	200	245
695	247	199	245
696	249	207	247
697	251	213	246
698	253	213	243
699	255	215	241
700	252	210	237
701	248	203	234
702	249	206	236
703	0	0	0
704	0	0	0
705	0	0	0
706	255	250	254
707	247	233	246
708	242	223	244
709	230	202	235
710	237	210	247
711	243	213	253
712	245	210	254
713	250	213	255
714	240	197	250
715	235	195	249
716	237	202	254
717	229	193	248
718	0	0	0
719	0	0	0
720	0	0	0
721	0	0	0
722	0	0	0
723	0	0	0
724	0	0	0
725	0	0	0
726	0	0	0
727	0	0	0
728	0	0	0
729	243	206	245
730	242	202	242
731	252	210	249
732	246	202	245
733	249	210	248
734	251	215	246
735	254	217	245
736	253	214	242
737	250	209	238
738	248	205	237
739	0	0	0
740	0	0	0
741	0	0	0
742	0	0	0
743	0	0	0
744	248	237	247
745	242	226	244
746	242	228	248
747	248	234	255
748	249	231	255
749	250	228	255
750	244	215	252
751	0	0	0
752	0	0	0
753	0	0	0
754	0	0	0
755	0	0	0
756	0	0	0
757	0	0	0
758	0	0	0
759	0	0	0
760	0	0	0
761	0	0	0
762	0	0	0
763	0	0	0
764	0	0	0
765	243	215	247
766	243	214	246
767	243	211	245
768	247	210	247
769	243	202	243
770	246	209	246
771	249	214	244
772	249	212	240
773	250	211	239
774	250	209	240
775	248	206	239
776	0	0	0
777	0	0	0
778	0	0	0
779	0	0	0
780	0	0	0
781	0	0	0
782	0	0	0
783	0	0	0
784	0	0	0
785	0	0	0
786	0	0	0
787	0	0	0
788	0	0	0
789	0	0	0
790	0	0	0
791	0	0	0
792	0	0	0
793	0	0	0
794	0	0	0
795	0	0	0
796	0	0	0
797	0	0	0
798	0	0	0
799	0	0	0
800	0	0	0
801	0	0	0
802	250	228	252
803	252	228	253
804	241	209	243
805	240	206	242
806	246	212	248
807	252	221	252
808	246	212	243
809	246	210	240
810	251	213	243
811	252	212	244
812	249	207	241
813	0	0	0
814	0	0	0
815	0	0	0
816	0	0	0
817	0	0	0
818	0	0	0
819	0	0	0
820	0	0	0
821	0	0	0
822	0	0	0
823	0	0	0
824	0	0	0
825	0	0	0
826	0	0	0
827	0	0	0
828	0	0	0
829	0	0	0
830	0	0	0
831	0	0	0
832	0	0	0
833	0	0	0
834	0	0	0
835	0	0	0
836	0	0	0
837	0	0	0
838	0	0	0
839	0	0	0
840	243	220	245
841	232	202	237
842	241	213	246
843	246	219	249
844	243	213	244
845	239	205	240
846	244	209	244
847	248	211	246
848	249	210	244
849	0	0	0
850	0	0	0
851	0	0	0
852	0	0	0
853	0	0	0
854	0	0	0
855	0	0	0
856	0	0	0
857	0	0	0
858	0	0	0
859	0	0	0
860	0	0	0
861	0	0	0
862	0	0	0
863	0	0	0
864	0	0	0
865	0	0	0
866	0	0	0
867	0	0	0
868	0	0	0
869	0	0	0
870	0	0	0
871	0	0	0
872	0	0	0
873	0	0	0
874	0	0	0
875	0	0	0
876	0	0	0
877	0	0	0
878	242	223	247
879	252	235	255
880	246	224	249
881	243	218	245
882	246	219	249
883	252	224	254
884	252	220	251
885	251	218	249
886	251	215	247
887	0	0	0
888	0	0	0
889	0	0	0
890	0	0	0
891	0	0	0
892	0	0	0
893	0	0	0
894	0	0	0
895	0	0	0
896	0	0	0
897	0	0	0
898	0	0	0
899	0	0	0
900	0	0	0
901	0	0	0
902	0	0	0
903	0	0	0
904	0	0	0
905	0	0	0
906	0	0	0
907	0	0	0
908	0	0	0
909	0	0	0
910	0	0	0
911	0	0	0
912	0	0	0
913	0	0	0
914	0	0	0
915	0	0	0
916	247	235	249
917	241	225	244
918	244	226	247
919	246	226	250
920	248	225	250
921	246	221	246
922	245	218	244
923	0	0	0
924	0	0	0
925	0	0	0
