 	R	G	B
1	0	0	0
2	0	0	0
3	0	0	0
4	0	0	0
5	0	0	0
6	0	0	0
7	0	0	0
8	0	0	0
9	0	0	0
10	0	0	0
11	0	0	0
12	0	0	0
13	0	0	0
14	0	0	0
15	0	0	0
16	0	0	0
17	0	0	0
18	0	0	0
19	0	0	0
20	0	0	0
21	0	0	0
22	0	0	0
23	0	0	0
24	0	0	0
25	0	0	0
26	0	0	0
27	0	0	0
28	0	0	0
29	0	0	0
30	0	0	0
31	255	243	244
32	255	242	245
33	255	234	245
34	0	0	0
35	0	0	0
36	0	0	0
37	0	0	0
38	0	0	0
39	0	0	0
40	0	0	0
41	0	0	0
42	0	0	0
43	0	0	0
44	0	0	0
45	0	0	0
46	0	0	0
47	0	0	0
48	0	0	0
49	0	0	0
50	0	0	0
51	0	0	0
52	0	0	0
53	0	0	0
54	0	0	0
55	0	0	0
56	0	0	0
57	0	0	0
58	0	0	0
59	0	0	0
60	0	0	0
61	0	0	0
62	0	0	0
63	0	0	0
64	255	239	241
65	255	238	243
66	255	226	239
67	253	216	237
68	239	195	226
69	0	0	0
70	0	0	0
71	0	0	0
72	0	0	0
73	0	0	0
74	0	0	0
75	0	0	0
76	0	0	0
77	0	0	0
78	0	0	0
79	0	0	0
80	0	0	0
81	0	0	0
82	0	0	0
83	0	0	0
84	0	0	0
85	0	0	0
86	0	0	0
87	0	0	0
88	0	0	0
89	0	0	0
90	0	0	0
91	0	0	0
92	0	0	0
93	255	250	244
94	255	252	247
95	255	248	246
96	255	242	242
97	255	239	242
98	255	236	241
99	255	222	235
100	251	210	233
101	245	195	230
102	228	174	221
103	0	0	0
104	0	0	0
105	0	0	0
106	0	0	0
107	0	0	0
108	0	0	0
109	0	0	0
110	0	0	0
111	0	0	0
112	0	0	0
113	0	0	0
114	0	0	0
115	0	0	0
116	0	0	0
117	0	0	0
118	0	0	0
119	0	0	0
120	0	0	0
121	0	0	0
122	0	0	0
123	0	0	0
124	0	0	0
125	0	0	0
126	253	240	238
127	255	243	242
128	255	237	239
129	255	234	239
130	255	223	234
131	255	220	235
132	253	212	231
133	245	197	225
134	246	195	229
135	238	179	225
136	235	183	231
137	0	0	0
138	0	0	0
139	0	0	0
140	0	0	0
141	0	0	0
142	0	0	0
143	0	0	0
144	0	0	0
145	0	0	0
146	0	0	0
147	0	0	0
148	0	0	0
149	0	0	0
150	0	0	0
151	0	0	0
152	0	0	0
153	0	0	0
154	0	0	0
155	0	0	0
156	0	0	0
157	0	0	0
158	0	0	0
159	0	0	0
160	0	0	0
161	255	230	235
162	255	224	233
163	255	215	231
164	251	205	229
165	250	198	229
166	245	190	226
167	242	184	225
168	240	180	228
169	244	188	235
170	238	188	234
171	0	0	0
172	0	0	0
173	0	0	0
174	0	0	0
175	0	0	0
176	0	0	0
177	0	0	0
178	0	0	0
179	0	0	0
180	0	0	0
181	0	0	0
182	0	0	0
183	0	0	0
184	0	0	0
185	0	0	0
186	0	0	0
187	0	0	0
188	0	0	0
189	0	0	0
190	0	0	0
191	0	0	0
192	0	0	0
193	0	0	0
194	255	227	233
195	255	225	234
196	254	210	228
197	252	201	227
198	249	191	228
199	247	185	229
200	248	186	231
201	242	178	228
202	243	183	234
203	242	187	236
204	242	197	238
205	0	0	0
206	0	0	0
207	0	0	0
208	0	0	0
209	0	0	0
210	0	0	0
211	0	0	0
212	0	0	0
213	0	0	0
214	0	0	0
215	0	0	0
216	0	0	0
217	0	0	0
218	0	0	0
219	0	0	0
220	0	0	0
221	0	0	0
222	0	0	0
223	0	0	0
224	0	0	0
225	255	244	237
226	255	240	241
227	255	233	239
228	255	223	234
229	255	209	227
230	250	195	223
231	247	184	223
232	242	174	224
233	243	175	229
234	242	174	230
235	245	181	234
236	244	184	236
237	248	198	243
238	248	208	244
239	0	0	0
240	0	0	0
241	0	0	0
242	0	0	0
243	0	0	0
244	0	0	0
245	0	0	0
246	0	0	0
247	0	0	0
248	0	0	0
249	0	0	0
250	0	0	0
251	0	0	0
252	0	0	0
253	0	0	0
254	0	0	0
255	0	0	0
256	0	0	0
257	0	0	0
258	254	238	232
259	255	238	237
260	255	218	230
261	254	210	229
262	254	204	228
263	247	188	221
264	251	188	226
265	247	178	225
266	246	175	230
267	241	173	231
268	247	184	238
269	252	191	242
270	246	187	237
271	250	201	243
272	250	212	245
273	0	0	0
274	0	0	0
275	0	0	0
276	0	0	0
277	0	0	0
278	0	0	0
279	0	0	0
280	0	0	0
281	0	0	0
282	0	0	0
283	0	0	0
284	0	0	0
285	0	0	0
286	0	0	0
287	0	0	0
288	0	0	0
289	0	0	0
290	0	0	0
291	255	239	237
292	255	236	237
293	255	219	230
294	250	198	221
295	250	192	223
296	250	187	227
297	251	184	229
298	252	182	231
299	252	180	232
300	248	175	231
301	250	184	238
302	255	194	245
303	252	193	242
304	244	188	235
305	248	202	240
306	0	0	0
307	0	0	0
308	0	0	0
309	0	0	0
310	0	0	0
311	0	0	0
312	0	0	0
313	0	0	0
314	0	0	0
315	0	0	0
316	0	0	0
317	0	0	0
318	0	0	0
319	0	0	0
320	0	0	0
321	0	0	0
322	0	0	0
323	0	0	0
324	255	234	237
325	255	231	238
326	253	208	227
327	246	188	218
328	247	183	219
329	246	177	221
330	250	177	229
331	249	173	231
332	254	178	235
333	251	174	234
334	245	169	229
335	248	178	236
336	249	186	239
337	242	182	234
338	244	194	237
339	0	0	0
340	0	0	0
341	0	0	0
342	0	0	0
343	0	0	0
344	0	0	0
345	0	0	0
346	0	0	0
347	0	0	0
348	0	0	0
349	0	0	0
350	0	0	0
351	0	0	0
352	0	0	0
353	0	0	0
354	0	0	0
355	253	235	236
356	253	227	230
357	255	224	231
358	255	221	234
359	250	198	223
360	239	175	214
361	240	170	217
362	240	165	219
363	242	164	223
364	243	162	225
365	247	167	232
366	251	171	236
367	248	168	233
368	241	161	228
369	244	171	234
370	243	177	236
371	244	189	239
372	246	201	242
373	0	0	0
374	0	0	0
375	0	0	0
376	0	0	0
377	0	0	0
378	0	0	0
379	0	0	0
380	0	0	0
381	0	0	0
382	0	0	0
383	0	0	0
384	0	0	0
385	0	0	0
386	0	0	0
387	0	0	0
388	252	234	235
389	255	231	236
390	252	217	228
391	255	214	229
392	255	206	230
393	246	183	221
394	246	176	223
395	247	171	226
396	253	177	234
397	252	174	235
398	251	171	235
399	254	175	240
400	251	170	238
401	247	166	235
402	249	173	238
403	251	181	242
404	248	187	241
405	247	197	243
406	245	207	243
407	0	0	0
408	0	0	0
409	0	0	0
410	0	0	0
411	0	0	0
412	0	0	0
413	0	0	0
414	0	0	0
415	0	0	0
416	0	0	0
417	0	0	0
418	0	0	0
419	0	0	0
420	0	0	0
421	253	238	234
422	254	229	233
423	255	221	233
424	253	207	225
425	251	198	223
426	252	191	228
427	252	184	230
428	251	176	230
429	255	183	238
430	255	186	244
431	255	181	242
432	255	177	240
433	250	170	236
434	246	164	235
435	250	173	241
436	250	178	241
437	248	185	240
438	243	189	238
439	242	199	239
440	0	0	0
441	0	0	0
442	0	0	0
443	0	0	0
444	0	0	0
445	0	0	0
446	0	0	0
447	0	0	0
448	0	0	0
449	0	0	0
450	0	0	0
451	0	0	0
452	0	0	0
453	0	0	0
454	254	243	237
455	255	236	236
456	250	211	226
457	252	203	227
458	249	190	222
459	247	181	221
460	252	183	231
461	251	174	231
462	251	170	231
463	255	175	237
464	250	164	232
465	245	157	228
466	255	177	240
467	249	168	234
468	252	176	241
469	255	184	247
470	247	182	239
471	0	0	0
472	0	0	0
473	0	0	0
474	0	0	0
475	0	0	0
476	0	0	0
477	0	0	0
478	0	0	0
479	0	0	0
480	0	0	0
481	0	0	0
482	0	0	0
483	0	0	0
484	0	0	0
485	0	0	0
486	0	0	0
487	253	239	238
488	255	241	240
489	253	217	230
490	245	193	222
491	245	183	223
492	242	172	222
493	246	172	227
494	248	170	229
495	248	166	228
496	246	161	228
497	242	153	226
498	235	142	221
499	248	162	235
500	255	180	243
501	255	182	241
502	255	187	245
503	253	189	243
504	243	185	236
505	0	0	0
506	0	0	0
507	0	0	0
508	0	0	0
509	0	0	0
510	0	0	0
511	0	0	0
512	0	0	0
513	0	0	0
514	0	0	0
515	0	0	0
516	0	0	0
517	0	0	0
518	0	0	0
519	0	0	0
520	255	241	239
521	255	245	247
522	254	216	231
523	243	190	219
524	248	187	226
525	245	177	226
526	251	180	235
527	254	179	238
528	245	165	230
529	242	159	228
530	243	158	230
531	238	150	226
532	238	150	229
533	253	171	243
534	253	175	239
535	249	176	235
536	250	184	239
537	243	183	234
538	242	194	237
539	0	0	0
540	0	0	0
541	0	0	0
542	0	0	0
543	0	0	0
544	0	0	0
545	0	0	0
546	0	0	0
547	0	0	0
548	0	0	0
549	0	0	0
550	0	0	0
551	0	0	0
552	0	0	0
553	255	246	241
554	255	243	243
555	253	215	231
556	241	187	219
557	246	185	225
558	248	181	229
559	252	182	234
560	255	182	236
561	247	168	230
562	239	155	227
563	240	156	231
564	238	153	231
565	240	156	233
566	239	154	232
567	245	164	236
568	244	168	234
569	244	175	234
570	242	182	235
571	239	191	236
572	0	0	0
573	0	0	0
574	0	0	0
575	0	0	0
576	0	0	0
577	0	0	0
578	0	0	0
579	0	0	0
580	0	0	0
581	0	0	0
582	0	0	0
583	0	0	0
584	0	0	0
585	0	0	0
586	254	241	237
587	255	239	240
588	255	223	234
589	243	194	221
590	244	185	225
591	248	183	232
592	246	176	231
593	250	176	234
594	253	177	234
595	244	163	227
596	248	166	237
597	248	166	241
598	242	158	236
599	242	159	237
600	243	163	237
601	246	171	240
602	243	174	237
603	240	180	236
604	238	189	236
605	0	0	0
606	0	0	0
607	0	0	0
608	0	0	0
609	0	0	0
610	0	0	0
611	0	0	0
612	0	0	0
613	0	0	0
614	0	0	0
615	0	0	0
616	0	0	0
617	0	0	0
618	0	0	0
619	0	0	0
620	253	234	235
621	250	217	229
622	247	201	224
623	248	193	227
624	247	184	230
625	245	177	231
626	243	168	231
627	249	172	236
628	251	173	234
629	251	172	235
630	254	175	243
631	250	169	242
632	243	161	237
633	246	167	241
634	247	171	242
635	248	177	243
636	243	179	241
637	241	190	241
638	0	0	0
639	0	0	0
640	0	0	0
641	0	0	0
642	0	0	0
643	0	0	0
644	0	0	0
645	0	0	0
646	0	0	0
647	0	0	0
648	0	0	0
649	0	0	0
650	0	0	0
651	0	0	0
652	0	0	0
653	255	235	238
654	255	226	235
655	247	207	227
656	247	196	227
657	251	189	231
658	245	175	229
659	240	166	228
660	251	178	241
661	255	182	245
662	252	172	237
663	248	170	235
664	246	167	237
665	244	162	237
666	244	162	237
667	246	168	240
668	251	180	245
669	254	186	247
670	245	185	241
671	0	0	0
672	0	0	0
673	0	0	0
674	0	0	0
675	0	0	0
676	0	0	0
677	0	0	0
678	0	0	0
679	0	0	0
680	0	0	0
681	0	0	0
682	0	0	0
683	0	0	0
684	0	0	0
685	0	0	0
686	0	0	0
687	251	223	233
688	251	215	232
689	246	201	228
690	245	190	230
691	245	179	230
692	239	164	227
693	248	175	238
694	255	186	247
695	255	180	244
696	250	170	237
697	242	163	233
698	239	159	234
699	243	163	238
700	242	163	238
701	247	175	243
702	249	184	244
703	247	187	240
704	0	0	0
705	0	0	0
706	0	0	0
707	0	0	0
708	0	0	0
709	0	0	0
710	0	0	0
711	0	0	0
712	0	0	0
713	0	0	0
714	0	0	0
715	0	0	0
716	0	0	0
717	0	0	0
718	0	0	0
719	0	0	0
720	246	226	234
721	249	218	233
722	248	207	230
723	244	193	229
724	243	185	231
725	237	171	228
726	247	179	238
727	255	193	251
728	255	184	246
729	253	175	241
730	245	165	235
731	237	158	232
732	245	172	243
733	247	175	245
734	244	174	243
735	246	184	245
736	242	187	240
737	0	0	0
738	0	0	0
739	0	0	0
740	0	0	0
741	0	0	0
742	0	0	0
743	0	0	0
744	0	0	0
745	0	0	0
746	0	0	0
747	0	0	0
748	0	0	0
749	0	0	0
750	0	0	0
751	0	0	0
752	0	0	0
753	0	0	0
754	241	218	231
755	243	208	230
756	241	195	227
757	238	187	227
758	236	178	229
759	244	185	238
760	252	192	243
761	252	184	241
762	249	176	239
763	244	168	236
764	236	157	231
765	242	170	240
766	247	182	248
767	244	182	246
768	239	179	241
769	238	185	240
770	0	0	0
771	0	0	0
772	0	0	0
773	0	0	0
774	0	0	0
775	0	0	0
776	0	0	0
777	0	0	0
778	0	0	0
779	0	0	0
780	0	0	0
781	0	0	0
782	0	0	0
783	0	0	0
784	0	0	0
785	0	0	0
786	0	0	0
787	0	0	0
788	242	216	233
789	241	205	232
790	235	191	228
791	230	181	226
792	233	182	233
793	243	190	241
794	243	186	239
795	241	177	235
796	240	173	235
797	233	164	232
798	236	169	238
799	245	183	248
800	241	184	246
801	231	179	238
802	0	0	0
803	0	0	0
804	0	0	0
805	0	0	0
806	0	0	0
807	0	0	0
808	0	0	0
809	0	0	0
810	0	0	0
811	0	0	0
812	0	0	0
813	0	0	0
814	0	0	0
815	0	0	0
816	0	0	0
817	0	0	0
818	0	0	0
819	250	239	240
820	246	228	236
821	245	222	236
822	245	216	237
823	239	202	234
824	232	189	232
825	233	189	237
826	234	187	238
827	237	186	240
828	238	183	239
829	234	175	234
830	231	170	233
831	235	176	240
832	239	181	246
833	244	189	251
834	239	188	244
835	235	194	243
836	0	0	0
837	0	0	0
838	0	0	0
839	0	0	0
840	0	0	0
841	0	0	0
842	0	0	0
843	0	0	0
844	0	0	0
845	0	0	0
846	0	0	0
847	0	0	0
848	0	0	0
849	0	0	0
850	0	0	0
851	0	0	0
852	255	245	246
853	249	233	240
854	244	219	235
855	246	214	237
856	242	205	234
857	229	187	227
858	234	193	237
859	236	194	242
860	230	183	237
861	233	181	238
862	239	189	243
863	230	179	235
864	237	187	241
865	244	195	249
866	240	188	248
867	244	195	252
868	236	188	241
869	0	0	0
870	0	0	0
871	0	0	0
872	0	0	0
873	0	0	0
874	0	0	0
875	0	0	0
876	0	0	0
877	0	0	0
878	0	0	0
879	0	0	0
880	0	0	0
881	0	0	0
882	0	0	0
883	0	0	0
884	0	0	0
885	0	0	0
886	249	235	240
887	242	220	234
888	238	207	231
889	239	201	232
890	234	191	230
891	234	194	234
892	237	198	240
893	232	188	238
894	228	179	237
895	241	192	248
896	244	198	248
897	241	199	244
898	245	207	247
899	244	201	246
900	240	194	246
901	241	196	249
902	233	190	241
903	0	0	0
904	0	0	0
905	0	0	0
906	0	0	0
907	0	0	0
908	0	0	0
909	0	0	0
910	0	0	0
911	0	0	0
912	0	0	0
913	0	0	0
914	0	0	0
915	0	0	0
916	0	0	0
917	0	0	0
918	0	0	0
919	0	0	0
920	249	233	240
921	242	218	235
922	236	205	232
923	233	198	233
924	234	196	236
925	238	200	242
926	238	198	241
927	232	187	237
928	232	184	242
929	245	196	252
930	239	191	242
931	234	191	237
932	240	202	242
933	239	196	240
934	235	191	240
935	233	190	242
936	230	193	241
937	0	0	0
938	0	0	0
939	0	0	0
940	0	0	0
941	0	0	0
942	0	0	0
943	0	0	0
944	0	0	0
945	0	0	0
946	0	0	0
947	0	0	0
948	0	0	0
949	0	0	0
950	0	0	0
951	0	0	0
952	0	0	0
953	0	0	0
954	247	229	238
955	241	216	234
956	234	202	231
957	236	203	238
958	237	202	242
959	238	200	244
960	237	196	242
961	234	190	241
962	233	186	243
963	239	190	247
964	233	185	238
965	234	192	239
966	239	203	245
967	233	194	239
968	227	187	235
969	228	193	238
970	0	0	0
971	0	0	0
972	0	0	0
973	0	0	0
974	0	0	0
975	0	0	0
976	0	0	0
977	0	0	0
978	0	0	0
979	0	0	0
980	0	0	0
981	0	0	0
982	0	0	0
983	0	0	0
984	0	0	0
985	0	0	0
986	0	0	0
987	0	0	0
988	242	222	236
989	235	208	232
990	231	199	232
991	236	200	239
992	237	199	243
993	236	196	243
994	237	197	243
995	234	191	242
996	235	191	246
997	237	193	248
998	232	189	241
999	236	198	245
1000	231	195	242
1001	0	0	0
1002	0	0	0
1003	0	0	0
1004	0	0	0
1005	0	0	0
1006	0	0	0
1007	0	0	0
1008	0	0	0
1009	0	0	0
1010	0	0	0
1011	0	0	0
1012	0	0	0
1013	0	0	0
1014	0	0	0
1015	0	0	0
1016	0	0	0
1017	0	0	0
1018	0	0	0
1019	0	0	0
1020	0	0	0
1021	0	0	0
1022	237	214	235
1023	235	206	236
1024	231	196	236
1025	234	197	241
1026	234	195	243
1027	237	197	245
1028	237	197	244
1029	237	197	245
1030	236	196	248
1031	232	193	246
1032	227	189	240
1033	227	189	239
1034	0	0	0
1035	0	0	0
1036	0	0	0
1037	0	0	0
1038	0	0	0
1039	0	0	0
1040	0	0	0
1041	0	0	0
1042	0	0	0
1043	0	0	0
1044	0	0	0
1045	0	0	0
1046	0	0	0
1047	0	0	0
1048	0	0	0
1049	0	0	0
1050	0	0	0
1051	0	0	0
1052	0	0	0
1053	0	0	0
1054	0	0	0
1055	237	219	235
1056	241	219	240
1057	242	213	242
1058	236	201	241
1059	235	199	244
1060	238	203	248
1061	241	205	250
1062	233	193	242
1063	232	192	243
1064	230	193	244
1065	223	188	239
1066	228	197	243
1067	229	198	243
1068	0	0	0
1069	0	0	0
1070	0	0	0
1071	0	0	0
1072	0	0	0
1073	0	0	0
1074	0	0	0
1075	0	0	0
1076	0	0	0
1077	0	0	0
1078	0	0	0
1079	0	0	0
1080	0	0	0
1081	0	0	0
1082	0	0	0
1083	0	0	0
1084	0	0	0
1085	0	0	0
1086	0	0	0
1087	0	0	0
1088	0	0	0
1089	240	224	238
1090	241	222	239
1091	239	212	238
1092	234	200	237
1093	237	205	245
1094	239	207	247
1095	233	197	241
1096	226	186	237
1097	230	191	243
1098	227	191	241
1099	226	197	243
1100	231	207	248
1101	237	213	251
1102	0	0	0
1103	0	0	0
1104	0	0	0
1105	0	0	0
1106	0	0	0
1107	0	0	0
1108	0	0	0
1109	0	0	0
1110	0	0	0
1111	0	0	0
1112	0	0	0
1113	0	0	0
1114	0	0	0
1115	0	0	0
1116	0	0	0
1117	0	0	0
1118	0	0	0
1119	0	0	0
1120	0	0	0
1121	0	0	0
1122	0	0	0
1123	240	223	239
1124	240	222	238
1125	234	210	234
1126	231	202	236
1127	237	208	244
1128	239	210	245
1129	230	198	238
1130	234	200	244
1131	241	207	251
1132	236	203	246
1133	234	208	246
1134	237	216	249
1135	243	221	251
1136	0	0	0
1137	0	0	0
1138	0	0	0
1139	0	0	0
1140	0	0	0
1141	0	0	0
1142	0	0	0
1143	0	0	0
1144	0	0	0
1145	0	0	0
1146	0	0	0
1147	0	0	0
1148	0	0	0
1149	0	0	0
1150	0	0	0
1151	0	0	0
1152	0	0	0
1153	0	0	0
1154	0	0	0
1155	0	0	0
1156	0	0	0
1157	242	226	241
1158	243	224	241
1159	238	215	239
1160	233	207	239
1161	238	212	245
1162	239	213	243
1163	239	212	242
1164	242	214	246
1165	242	214	248
1166	237	209	243
1167	236	215	244
1168	239	222	245
1169	0	0	0
1170	0	0	0
1171	0	0	0
1172	0	0	0
1173	0	0	0
1174	0	0	0
1175	0	0	0
1176	0	0	0
1177	0	0	0
1178	0	0	0
1179	0	0	0
1180	0	0	0
1181	0	0	0
1182	0	0	0
1183	0	0	0
1184	0	0	0
1185	0	0	0
1186	0	0	0
1187	0	0	0
1188	0	0	0
1189	0	0	0
1190	0	0	0
1191	248	232	245
1192	247	226	244
1193	240	216	240
1194	237	212	241
1195	240	215	245
1196	237	211	239
1197	239	211	239
1198	242	216	242
1199	237	212	239
1200	234	213	239
1201	0	0	0
1202	0	0	0
1203	0	0	0
1204	0	0	0
1205	0	0	0
1206	0	0	0
1207	0	0	0
1208	0	0	0
1209	0	0	0
1210	0	0	0
1211	0	0	0
1212	0	0	0
1213	0	0	0
1214	0	0	0
1215	0	0	0
1216	0	0	0
1217	0	0	0
1218	0	0	0
1219	0	0	0
1220	0	0	0
1221	0	0	0
1222	0	0	0
1223	0	0	0
1224	0	0	0
1225	0	0	0
1226	244	224	242
1227	241	219	242
1228	238	214	241
1229	236	212	241
1230	233	208	237
1231	240	215	241
1232	242	218	241
1233	239	219	239
1234	0	0	0
1235	0	0	0
1236	0	0	0
1237	0	0	0
1238	0	0	0
1239	0	0	0
1240	0	0	0
1241	0	0	0
1242	0	0	0
1243	0	0	0
1244	0	0	0
1245	0	0	0
1246	0	0	0
1247	0	0	0
1248	0	0	0
1249	0	0	0
1250	0	0	0
1251	0	0	0
1252	0	0	0
1253	0	0	0
1254	0	0	0
1255	0	0	0
1256	0	0	0
1257	0	0	0
1258	0	0	0
1259	0	0	0
1260	0	0	0
1261	0	0	0
1262	0	0	0
1263	0	0	0
1264	234	214	238
1265	0	0	0
1266	0	0	0
1267	0	0	0
1268	0	0	0
1269	0	0	0
1270	0	0	0
1271	0	0	0
1272	0	0	0
1273	0	0	0
1274	0	0	0
1275	0	0	0
1276	0	0	0
1277	0	0	0
1278	0	0	0
1279	0	0	0
1280	0	0	0
1281	0	0	0
1282	0	0	0
1283	0	0	0
1284	0	0	0
1285	0	0	0
1286	0	0	0
1287	0	0	0
1288	0	0	0
1289	0	0	0
1290	0	0	0
1291	0	0	0
1292	0	0	0
