 	R	G	B
1	0	0	0
2	0	0	0
3	0	0	0
4	0	0	0
5	0	0	0
6	243	207	226
7	239	205	224
8	240	214	228
9	0	0	0
10	0	0	0
11	0	0	0
12	0	0	0
13	0	0	0
14	0	0	0
15	0	0	0
16	0	0	0
17	0	0	0
18	0	0	0
19	0	0	0
20	0	0	0
21	0	0	0
22	0	0	0
23	0	0	0
24	0	0	0
25	0	0	0
26	0	0	0
27	0	0	0
28	0	0	0
29	0	0	0
30	0	0	0
31	0	0	0
32	0	0	0
33	0	0	0
34	0	0	0
35	0	0	0
36	0	0	0
37	0	0	0
38	0	0	0
39	0	0	0
40	0	0	0
41	0	0	0
42	0	0	0
43	0	0	0
44	246	207	229
45	251	211	233
46	241	200	224
47	242	209	228
48	239	210	224
49	0	0	0
50	0	0	0
51	0	0	0
52	0	0	0
53	0	0	0
54	0	0	0
55	0	0	0
56	0	0	0
57	0	0	0
58	0	0	0
59	0	0	0
60	0	0	0
61	0	0	0
62	0	0	0
63	0	0	0
64	0	0	0
65	0	0	0
66	0	0	0
67	0	0	0
68	0	0	0
69	0	0	0
70	0	0	0
71	0	0	0
72	0	0	0
73	0	0	0
74	0	0	0
75	0	0	0
76	0	0	0
77	0	0	0
78	0	0	0
79	0	0	0
80	0	0	0
81	0	0	0
82	0	0	0
83	243	202	226
84	243	198	225
85	235	188	218
86	238	196	222
87	237	198	221
88	244	209	226
89	246	215	227
90	248	221	229
91	252	229	235
92	0	0	0
93	0	0	0
94	0	0	0
95	0	0	0
96	0	0	0
97	0	0	0
98	0	0	0
99	0	0	0
100	0	0	0
101	0	0	0
102	0	0	0
103	0	0	0
104	0	0	0
105	0	0	0
106	0	0	0
107	0	0	0
108	0	0	0
109	0	0	0
110	0	0	0
111	0	0	0
112	0	0	0
113	0	0	0
114	0	0	0
115	0	0	0
116	0	0	0
117	0	0	0
118	0	0	0
119	0	0	0
120	0	0	0
121	0	0	0
122	244	208	230
123	246	205	230
124	240	193	223
125	248	204	231
126	242	194	224
127	252	206	230
128	251	205	225
129	255	213	229
130	248	207	225
131	239	200	219
132	0	0	0
133	0	0	0
134	0	0	0
135	0	0	0
136	0	0	0
137	0	0	0
138	0	0	0
139	0	0	0
140	0	0	0
141	0	0	0
142	0	0	0
143	0	0	0
144	0	0	0
145	0	0	0
146	0	0	0
147	0	0	0
148	0	0	0
149	0	0	0
150	0	0	0
151	0	0	0
152	0	0	0
153	0	0	0
154	0	0	0
155	0	0	0
156	0	0	0
157	0	0	0
158	0	0	0
159	0	0	0
160	242	207	229
161	248	213	233
162	244	204	228
163	240	193	223
164	239	189	223
165	235	180	217
166	242	186	221
167	242	186	216
168	243	185	214
169	237	181	212
170	242	191	219
171	249	202	226
172	0	0	0
173	0	0	0
174	250	201	220
175	255	207	221
176	0	0	0
177	0	0	0
178	246	201	218
179	253	210	224
180	255	207	224
181	255	202	222
182	255	202	222
183	252	199	219
184	253	202	222
185	253	205	224
186	254	211	228
187	255	220	234
188	255	220	233
189	255	219	232
190	254	212	228
191	0	0	0
192	0	0	0
193	0	0	0
194	0	0	0
195	0	0	0
196	0	0	0
197	0	0	0
198	243	209	232
199	248	214	235
200	244	206	229
201	240	196	224
202	242	194	225
203	240	190	225
204	241	188	225
205	247	194	229
206	243	186	222
207	244	187	222
208	238	175	216
209	248	189	226
210	247	187	224
211	246	184	221
212	245	182	218
213	249	188	219
214	250	189	216
215	248	184	213
216	243	177	211
217	244	184	216
218	246	184	217
219	249	181	217
220	250	178	216
221	249	178	216
222	242	170	210
223	244	174	213
224	245	178	218
225	247	185	222
226	249	188	223
227	252	189	223
228	248	184	219
229	239	174	212
230	236	178	214
231	0	0	0
232	0	0	0
233	0	0	0
234	0	0	0
235	0	0	0
236	0	0	0
237	244	211	233
238	242	205	230
239	240	198	227
240	243	197	228
241	243	195	227
242	242	193	227
243	242	192	228
244	240	186	226
245	237	180	224
246	236	172	221
247	230	162	214
248	235	164	217
249	234	161	215
250	234	161	213
251	234	160	210
252	236	162	210
253	238	163	210
254	236	159	209
255	233	153	208
256	231	152	210
257	232	152	210
258	235	150	210
259	234	147	208
260	229	141	204
261	223	133	200
262	228	142	207
263	230	146	210
264	227	146	209
265	229	148	209
266	229	145	207
267	225	140	204
268	227	148	209
269	223	152	207
270	231	173	217
271	237	192	224
272	242	206	229
273	0	0	0
274	0	0	0
275	244	216	234
276	245	212	233
277	244	207	231
278	241	198	229
279	245	198	231
280	242	193	228
281	240	191	227
282	238	187	227
283	235	182	226
284	240	184	232
285	242	179	231
286	243	175	228
287	247	177	230
288	244	173	227
289	242	172	225
290	244	174	225
291	248	177	227
292	246	169	223
293	248	166	224
294	248	163	226
295	248	164	228
296	247	163	228
297	245	159	225
298	241	154	223
299	234	147	218
300	235	149	221
301	243	158	229
302	236	151	223
303	233	150	221
304	244	167	231
305	241	162	228
306	238	159	227
307	241	167	231
308	232	162	223
309	241	184	232
310	239	186	228
311	249	203	235
312	240	199	228
313	234	212	225
314	239	212	227
315	241	209	225
316	240	202	224
317	238	194	225
318	240	193	229
319	238	188	226
320	237	186	226
321	235	183	226
322	234	182	228
323	239	184	234
324	241	181	233
325	242	177	228
326	243	176	227
327	242	172	225
328	242	174	226
329	246	177	228
330	243	169	224
331	240	161	221
332	244	160	224
333	243	157	225
334	242	156	225
335	241	155	223
336	237	150	220
337	233	146	219
338	233	147	222
339	234	149	224
340	234	147	224
341	228	140	219
342	236	155	227
343	245	171	235
344	240	165	230
345	235	161	229
346	229	159	227
347	220	153	219
348	219	158	218
349	218	161	217
350	219	163	215
351	0	0	0
352	238	225	232
353	247	227	236
354	241	211	226
355	240	204	225
356	239	198	228
357	240	196	231
358	242	196	232
359	245	196	234
360	243	191	233
361	240	189	234
362	238	186	235
363	235	180	232
364	237	180	229
365	240	180	228
366	242	178	228
367	246	182	231
368	249	182	233
369	246	174	230
370	243	166	228
371	243	164	229
372	239	158	228
373	237	157	227
374	239	161	228
375	237	157	226
376	241	162	232
377	244	165	236
378	239	157	232
379	239	155	231
380	237	154	231
381	246	170	240
382	244	172	237
383	234	163	229
384	232	166	231
385	224	163	228
386	0	0	0
387	0	0	0
388	0	0	0
389	0	0	0
390	0	0	0
391	0	0	0
392	242	225	234
393	236	209	226
394	238	205	228
395	236	199	229
396	239	200	233
397	241	199	231
398	243	197	232
399	242	192	231
400	237	188	230
401	233	184	232
402	230	181	231
403	230	180	229
404	230	177	225
405	231	174	223
406	231	171	221
407	233	171	223
408	229	162	220
409	226	155	219
410	224	152	221
411	220	147	220
412	222	152	224
413	225	155	225
414	230	160	228
415	235	165	234
416	232	158	231
417	228	151	226
418	231	154	230
419	228	153	228
420	227	156	227
421	225	158	225
422	221	159	224
423	218	160	224
424	0	0	0
425	0	0	0
426	0	0	0
427	0	0	0
428	0	0	0
429	0	0	0
430	0	0	0
431	0	0	0
432	0	0	0
433	0	0	0
434	0	0	0
435	241	209	236
436	236	197	229
437	235	193	227
438	240	198	232
439	238	194	233
440	235	192	235
441	230	189	233
442	232	195	235
443	229	189	230
444	234	196	234
445	232	192	231
446	231	190	231
447	225	180	227
448	230	184	234
449	231	183	237
450	227	177	236
451	229	182	240
452	226	177	236
453	233	182	240
454	233	180	239
455	230	173	236
456	229	171	235
457	231	174	238
458	227	173	236
459	224	174	234
460	0	0	0
461	0	0	0
462	0	0	0
463	0	0	0
464	0	0	0
465	0	0	0
466	0	0	0
467	0	0	0
468	0	0	0
469	0	0	0
470	0	0	0
471	0	0	0
472	0	0	0
473	0	0	0
474	0	0	0
475	233	198	230
476	236	201	234
477	239	205	236
478	237	201	235
479	233	197	234
480	232	201	236
481	233	206	238
482	235	210	238
483	239	217	242
484	234	211	237
485	233	209	238
486	233	208	239
487	236	211	244
488	234	206	242
489	230	200	241
490	227	196	240
491	225	192	238
492	226	190	238
493	226	188	236
494	227	186	236
495	226	184	236
496	227	187	238
497	224	187	238
498	0	0	0
499	0	0	0
500	0	0	0
501	0	0	0
502	0	0	0
503	0	0	0
504	0	0	0
505	0	0	0
506	0	0	0
507	0	0	0
508	0	0	0
509	0	0	0
510	0	0	0
511	0	0	0
512	0	0	0
513	0	0	0
514	0	0	0
515	0	0	0
516	0	0	0
517	0	0	0
518	0	0	0
519	0	0	0
520	0	0	0
521	0	0	0
522	0	0	0
523	0	0	0
524	0	0	0
525	0	0	0
526	236	222	240
527	0	0	0
528	0	0	0
529	0	0	0
530	0	0	0
531	0	0	0
532	0	0	0
533	0	0	0
534	0	0	0
535	0	0	0
536	0	0	0
537	0	0	0
538	0	0	0
539	0	0	0
540	0	0	0
541	0	0	0
542	0	0	0
543	0	0	0
544	0	0	0
545	0	0	0
546	0	0	0
