 	R	G	B
1	0	0	0
2	0	0	0
3	0	0	0
4	0	0	0
5	0	0	0
6	0	0	0
7	0	0	0
8	0	0	0
9	0	0	0
10	0	0	0
11	0	0	0
12	0	0	0
13	0	0	0
14	0	0	0
15	0	0	0
16	0	0	0
17	0	0	0
18	0	0	0
19	0	0	0
20	0	0	0
21	0	0	0
22	254	217	237
23	0	0	0
24	0	0	0
25	0	0	0
26	0	0	0
27	0	0	0
28	0	0	0
29	0	0	0
30	0	0	0
31	0	0	0
32	0	0	0
33	0	0	0
34	0	0	0
35	0	0	0
36	0	0	0
37	0	0	0
38	0	0	0
39	0	0	0
40	0	0	0
41	0	0	0
42	0	0	0
43	0	0	0
44	0	0	0
45	251	223	237
46	249	212	235
47	253	211	237
48	248	203	232
49	0	0	0
50	0	0	0
51	0	0	0
52	0	0	0
53	0	0	0
54	0	0	0
55	0	0	0
56	0	0	0
57	0	0	0
58	0	0	0
59	0	0	0
60	0	0	0
61	0	0	0
62	0	0	0
63	0	0	0
64	0	0	0
65	0	0	0
66	0	0	0
67	0	0	0
68	0	0	0
69	246	223	235
70	250	217	237
71	249	207	236
72	251	204	237
73	245	195	231
74	253	207	240
75	0	0	0
76	0	0	0
77	0	0	0
78	0	0	0
79	0	0	0
80	0	0	0
81	0	0	0
82	0	0	0
83	0	0	0
84	0	0	0
85	0	0	0
86	0	0	0
87	0	0	0
88	0	0	0
89	0	0	0
90	0	0	0
91	0	0	0
92	0	0	0
93	0	0	0
94	252	224	238
95	255	217	241
96	247	199	235
97	247	195	235
98	250	199	237
99	255	211	246
100	251	203	241
101	0	0	0
102	0	0	0
103	0	0	0
104	0	0	0
105	0	0	0
106	0	0	0
107	0	0	0
108	0	0	0
109	0	0	0
110	0	0	0
111	0	0	0
112	0	0	0
113	0	0	0
114	0	0	0
115	0	0	0
116	0	0	0
117	0	0	0
118	255	232	239
119	255	224	241
120	253	210	238
121	244	191	231
122	252	200	241
123	254	203	244
124	252	200	242
125	242	191	236
126	0	0	0
127	0	0	0
128	0	0	0
129	0	0	0
130	0	0	0
131	0	0	0
132	0	0	0
133	0	0	0
134	0	0	0
135	0	0	0
136	0	0	0
137	0	0	0
138	0	0	0
139	0	0	0
140	0	0	0
141	0	0	0
142	255	234	240
143	255	225	238
144	253	213	235
145	247	197	231
146	248	194	235
147	255	202	246
148	253	199	244
149	249	195	241
150	242	193	238
151	0	0	0
152	0	0	0
153	0	0	0
154	0	0	0
155	0	0	0
156	0	0	0
157	0	0	0
158	0	0	0
159	0	0	0
160	0	0	0
161	0	0	0
162	0	0	0
163	0	0	0
164	0	0	0
165	0	0	0
166	0	0	0
167	254	227	239
168	254	216	237
169	250	203	233
170	252	202	237
171	252	197	240
172	254	198	245
173	251	195	244
174	251	199	246
175	242	195	240
176	0	0	0
177	0	0	0
178	0	0	0
179	0	0	0
180	0	0	0
181	0	0	0
182	0	0	0
183	0	0	0
184	0	0	0
185	0	0	0
186	0	0	0
187	0	0	0
188	0	0	0
189	0	0	0
190	0	0	0
191	0	0	0
192	252	219	237
193	252	208	236
194	247	195	232
195	246	192	235
196	246	191	237
197	250	192	241
198	250	194	244
199	247	196	243
200	242	200	240
201	0	0	0
202	0	0	0
203	0	0	0
204	0	0	0
205	0	0	0
206	0	0	0
207	0	0	0
208	0	0	0
209	0	0	0
210	0	0	0
211	0	0	0
212	0	0	0
213	0	0	0
214	0	0	0
215	0	0	0
216	0	0	0
217	248	209	233
218	248	200	234
219	242	186	230
220	242	187	235
221	242	184	235
222	250	193	242
223	249	194	241
224	248	200	242
225	0	0	0
226	0	0	0
227	0	0	0
228	0	0	0
229	0	0	0
230	0	0	0
231	0	0	0
232	0	0	0
233	0	0	0
234	0	0	0
235	0	0	0
236	0	0	0
237	0	0	0
238	0	0	0
239	0	0	0
240	0	0	0
241	0	0	0
242	253	212	238
243	251	202	238
244	243	186	234
245	242	186	237
246	242	186	238
247	250	194	243
248	243	189	237
249	0	0	0
250	0	0	0
251	0	0	0
252	0	0	0
253	0	0	0
254	0	0	0
255	0	0	0
256	0	0	0
257	0	0	0
258	0	0	0
259	0	0	0
260	0	0	0
261	0	0	0
262	0	0	0
263	0	0	0
264	0	0	0
265	0	0	0
266	255	222	242
267	255	215	243
268	255	204	242
269	245	188	237
270	246	190	242
271	244	189	240
272	246	190	241
273	239	185	237
274	0	0	0
275	0	0	0
276	0	0	0
277	0	0	0
278	0	0	0
279	0	0	0
280	0	0	0
281	0	0	0
282	0	0	0
283	0	0	0
284	0	0	0
285	0	0	0
286	0	0	0
287	0	0	0
288	0	0	0
289	0	0	0
290	249	218	235
291	254	214	239
292	249	197	234
293	244	185	232
294	245	184	235
295	247	186	240
296	247	189	241
297	244	188	240
298	240	192	240
299	0	0	0
300	0	0	0
301	0	0	0
302	0	0	0
303	0	0	0
304	0	0	0
305	0	0	0
306	0	0	0
307	0	0	0
308	0	0	0
309	0	0	0
310	0	0	0
311	0	0	0
312	0	0	0
313	0	0	0
314	0	0	0
315	250	212	236
316	247	199	234
317	240	181	228
318	245	183	233
319	244	179	232
320	248	186	238
321	249	190	242
322	251	199	246
323	244	200	241
324	0	0	0
325	0	0	0
326	0	0	0
327	0	0	0
328	0	0	0
329	0	0	0
330	0	0	0
331	0	0	0
332	0	0	0
333	0	0	0
334	0	0	0
335	0	0	0
336	0	0	0
337	0	0	0
338	0	0	0
339	251	217	234
340	252	208	237
341	249	194	235
342	245	184	234
343	248	184	237
344	248	185	237
345	251	190	241
346	249	190	242
347	251	199	246
348	241	196	237
349	0	0	0
350	0	0	0
351	0	0	0
352	0	0	0
353	0	0	0
354	0	0	0
355	0	0	0
356	0	0	0
357	0	0	0
358	0	0	0
359	0	0	0
360	0	0	0
361	0	0	0
362	0	0	0
363	251	221	233
364	253	213	234
365	254	204	236
366	255	198	239
367	251	187	238
368	255	193	245
369	255	193	245
370	255	194	245
371	251	193	244
372	251	198	245
373	241	195	238
374	0	0	0
375	0	0	0
376	0	0	0
377	0	0	0
378	0	0	0
379	0	0	0
380	0	0	0
381	0	0	0
382	0	0	0
383	0	0	0
384	0	0	0
385	0	0	0
386	0	0	0
387	0	0	0
388	254	219	235
389	255	211	236
390	249	193	231
391	250	187	233
392	249	181	235
393	254	186	242
394	253	186	240
395	251	186	240
396	250	190	242
397	251	195	244
398	243	196	240
399	0	0	0
400	0	0	0
401	0	0	0
402	0	0	0
403	0	0	0
404	0	0	0
405	0	0	0
406	0	0	0
407	0	0	0
408	0	0	0
409	0	0	0
410	0	0	0
411	0	0	0
412	255	229	239
413	255	217	236
414	252	201	232
415	245	182	226
416	249	182	232
417	248	176	233
418	252	180	237
419	249	179	234
420	251	185	237
421	249	188	240
422	248	194	243
423	240	195	239
424	0	0	0
425	0	0	0
426	0	0	0
427	0	0	0
428	0	0	0
429	0	0	0
430	0	0	0
431	0	0	0
432	0	0	0
433	0	0	0
434	0	0	0
435	0	0	0
436	255	239	244
437	255	226	240
438	252	205	232
439	247	188	227
440	249	185	231
441	252	183	235
442	245	170	230
443	248	174	234
444	253	183	238
445	255	188	241
446	243	180	234
447	235	183	233
448	0	0	0
449	0	0	0
450	0	0	0
451	0	0	0
452	0	0	0
453	0	0	0
454	0	0	0
455	0	0	0
456	0	0	0
457	0	0	0
458	0	0	0
459	0	0	0
460	255	238	244
461	255	237	242
462	255	215	233
463	250	196	232
464	253	192	237
465	253	187	238
466	248	176	233
467	239	161	226
468	249	175	236
469	254	183	242
470	251	182	240
471	237	173	231
472	0	0	0
473	0	0	0
474	0	0	0
475	0	0	0
476	0	0	0
477	0	0	0
478	0	0	0
479	0	0	0
480	0	0	0
481	0	0	0
482	0	0	0
483	0	0	0
484	255	241	246
485	255	240	248
486	252	211	229
487	243	189	219
488	248	188	231
489	250	184	236
490	255	188	240
491	248	176	234
492	250	178	238
493	255	191	249
494	254	185	244
495	250	183	241
496	240	178	234
497	0	0	0
498	0	0	0
499	0	0	0
500	0	0	0
501	0	0	0
502	0	0	0
503	0	0	0
504	0	0	0
505	0	0	0
506	0	0	0
507	0	0	0
508	0	0	0
509	255	238	246
510	250	211	232
511	238	184	217
512	245	185	225
513	248	182	232
514	254	188	240
515	255	192	243
516	255	193	246
517	255	195	251
518	255	191	249
519	251	183	240
520	249	185	239
521	238	181	233
522	0	0	0
523	0	0	0
524	0	0	0
525	0	0	0
526	0	0	0
527	0	0	0
528	0	0	0
529	0	0	0
530	0	0	0
531	0	0	0
532	0	0	0
533	0	0	0
534	255	234	246
535	252	208	233
536	245	188	227
537	251	188	235
538	247	179	234
539	252	183	239
540	255	187	241
541	255	188	243
542	252	181	240
543	246	176	236
544	249	185	239
545	244	186	236
546	241	193	237
547	0	0	0
548	0	0	0
549	0	0	0
550	0	0	0
551	0	0	0
552	0	0	0
553	0	0	0
554	0	0	0
555	0	0	0
556	0	0	0
557	254	230	239
558	254	227	239
559	255	231	247
560	255	208	238
561	246	187	232
562	246	181	234
563	241	171	231
564	248	178	238
565	250	180	237
566	247	175	233
567	239	166	228
568	245	179	235
569	248	188	239
570	248	198	241
571	0	0	0
572	0	0	0
573	0	0	0
574	0	0	0
575	0	0	0
576	0	0	0
577	0	0	0
578	0	0	0
579	0	0	0
580	0	0	0
581	255	232	241
582	255	226	238
583	255	224	239
584	255	217	239
585	246	192	229
586	247	188	234
587	245	181	234
588	254	191	244
589	255	197	250
590	246	178	236
591	242	172	231
592	243	177	233
593	248	188	239
594	245	193	238
595	246	203	241
596	246	214	243
597	0	0	0
598	0	0	0
599	0	0	0
600	0	0	0
601	0	0	0
602	0	0	0
603	0	0	0
604	0	0	0
605	0	0	0
606	253	224	237
607	253	218	234
608	251	209	230
609	251	202	230
610	250	195	231
611	249	190	235
612	255	201	246
613	255	209	251
614	253	191	240
615	241	174	232
616	247	183	240
617	247	186	239
618	246	193	239
619	242	197	238
620	248	211	244
621	249	223	246
622	0	0	0
623	0	0	0
624	0	0	0
625	0	0	0
626	0	0	0
627	0	0	0
628	0	0	0
629	0	0	0
630	254	232	241
631	255	230	241
632	254	215	233
633	251	205	230
634	252	202	232
635	250	195	232
636	253	196	237
637	255	206	247
638	255	197	240
639	244	179	229
640	246	183	237
641	253	192	245
642	249	193	240
643	244	197	237
644	242	204	238
645	250	220	245
646	247	224	243
647	0	0	0
648	0	0	0
649	0	0	0
650	0	0	0
651	0	0	0
652	0	0	0
653	0	0	0
654	0	0	0
655	255	236	242
656	255	222	236
657	251	208	230
658	254	207	234
659	255	204	236
660	255	205	240
661	255	204	243
662	255	198	241
663	253	190	237
664	255	193	241
665	255	195	244
666	255	203	248
667	254	203	242
668	250	208	240
669	247	214	240
670	247	220	240
671	246	225	240
672	0	0	0
673	0	0	0
674	0	0	0
675	0	0	0
676	0	0	0
677	0	0	0
678	0	0	0
679	0	0	0
680	255	236	242
681	255	223	237
682	252	207	231
683	255	206	236
684	252	198	234
685	255	198	237
686	254	195	237
687	250	188	234
688	252	189	238
689	255	192	242
690	251	188	238
691	252	194	239
692	249	197	236
693	248	204	236
694	250	216	239
695	248	221	238
696	0	0	0
697	0	0	0
698	0	0	0
699	0	0	0
700	0	0	0
701	0	0	0
702	0	0	0
703	0	0	0
704	0	0	0
705	254	233	240
706	250	216	232
707	245	200	229
708	244	195	230
709	242	187	227
710	247	188	231
711	247	184	230
712	249	186	234
713	251	187	239
714	251	186	240
715	245	181	235
716	246	188	237
717	244	192	234
718	249	206	238
719	251	218	240
720	0	0	0
721	0	0	0
722	0	0	0
723	0	0	0
724	0	0	0
725	0	0	0
726	0	0	0
727	0	0	0
728	0	0	0
729	0	0	0
730	248	230	238
731	244	214	230
732	243	207	233
733	240	200	234
734	241	195	234
735	253	199	240
736	249	188	235
737	251	189	237
738	255	194	244
739	254	193	244
740	247	188	239
741	245	193	239
742	247	204	242
743	255	220	248
744	245	211	236
745	0	0	0
746	0	0	0
747	0	0	0
748	0	0	0
749	0	0	0
750	0	0	0
751	0	0	0
752	0	0	0
753	0	0	0
754	242	224	236
755	252	234	242
756	251	225	238
757	250	217	240
758	246	211	240
759	247	206	242
760	251	201	243
761	247	189	236
762	252	194	241
763	254	198	244
764	254	198	244
765	248	193	239
766	251	206	245
767	254	216	249
768	247	211	242
769	237	203	231
770	249	222	240
771	0	0	0
772	0	0	0
773	0	0	0
774	0	0	0
775	0	0	0
776	0	0	0
777	0	0	0
778	244	227	239
779	255	241	250
780	253	227	239
781	247	215	233
782	249	213	237
783	247	207	238
784	246	201	238
785	244	193	236
786	250	198	241
787	254	202	245
788	251	198	240
789	250	197	240
790	247	195	236
791	253	209	245
792	250	211	244
793	240	204	236
794	242	212	237
795	255	232	248
796	252	232	243
797	0	0	0
798	0	0	0
799	0	0	0
800	0	0	0
801	0	0	0
802	0	0	0
803	252	239	246
804	252	229	241
805	247	215	232
806	248	214	234
807	250	211	236
808	249	206	236
809	246	199	235
810	251	205	242
811	255	209	247
812	254	205	244
813	250	200	240
814	250	200	239
815	247	198	236
816	249	204	238
817	246	206	238
818	247	214	240
819	249	222	243
820	249	225	242
821	0	0	0
822	0	0	0
823	0	0	0
824	0	0	0
825	0	0	0
826	0	0	0
827	0	0	0
828	252	237	245
829	245	224	237
830	236	204	226
831	242	205	232
832	244	202	233
833	244	197	233
834	243	194	232
835	245	198	237
836	248	201	240
837	246	197	237
838	248	199	237
839	248	200	236
840	249	203	237
841	251	209	240
842	247	206	237
843	251	217	242
844	249	219	240
845	0	0	0
846	0	0	0
847	0	0	0
848	0	0	0
849	0	0	0
850	0	0	0
851	0	0	0
852	253	236	246
853	255	238	248
854	241	215	235
855	231	196	226
856	237	196	232
857	239	193	234
858	241	193	236
859	240	189	235
860	243	194	237
861	245	196	237
862	247	199	237
863	249	201	237
864	253	207	240
865	254	211	241
866	254	211	241
867	250	209	239
868	249	213	239
869	245	214	235
870	0	0	0
871	0	0	0
872	0	0	0
873	0	0	0
874	0	0	0
875	0	0	0
876	253	233	243
877	255	235	247
878	253	227	243
879	239	206	231
880	242	207	237
881	244	205	241
882	242	200	241
883	243	198	241
884	245	199	241
885	252	206	245
886	246	197	237
887	248	199	237
888	250	202	237
889	253	207	240
890	250	203	237
891	252	204	238
892	250	207	238
893	243	208	235
894	243	216	235
895	0	0	0
896	0	0	0
897	0	0	0
898	0	0	0
899	0	0	0
900	0	0	0
901	0	0	0
902	241	217	234
903	239	210	232
904	241	210	235
905	245	211	239
906	245	208	241
907	244	203	241
908	248	207	244
909	250	207	241
910	249	202	237
911	246	195	236
912	253	203	242
913	255	205	242
914	253	202	240
915	251	199	239
916	255	208	245
917	253	208	241
918	246	213	238
919	0	0	0
920	0	0	0
921	0	0	0
922	0	0	0
923	0	0	0
924	0	0	0
925	0	0	0
926	0	0	0
927	0	0	0
928	239	221	237
929	244	222	242
930	239	208	235
931	241	206	238
932	244	204	240
933	251	209	244
934	247	201	235
935	243	194	230
936	247	195	236
937	255	205	246
938	252	195	238
939	249	192	236
940	251	195	239
941	255	203	244
942	246	199	234
943	0	0	0
944	0	0	0
945	0	0	0
946	0	0	0
947	0	0	0
948	0	0	0
949	0	0	0
950	0	0	0
951	0	0	0
952	247	237	244
953	247	235	244
954	240	220	238
955	233	206	232
956	236	204	235
957	239	202	236
958	244	200	236
959	242	193	232
960	242	193	232
961	246	194	236
962	250	192	237
963	245	184	231
964	247	188	234
965	247	189	235
966	250	195	238
967	240	190	229
968	0	0	0
969	0	0	0
970	0	0	0
971	0	0	0
972	0	0	0
973	0	0	0
974	0	0	0
975	0	0	0
976	252	242	247
977	252	238	245
978	243	223	236
979	230	205	227
980	233	209	234
981	233	206	235
982	236	204	235
983	243	204	237
984	246	202	238
985	247	202	239
986	246	195	237
987	252	195	240
988	245	182	232
989	243	185	234
990	241	185	234
991	244	191	236
992	237	190	229
993	0	0	0
994	0	0	0
995	0	0	0
996	0	0	0
997	0	0	0
998	0	0	0
999	0	0	0
1000	0	0	0
1001	250	238	245
1002	242	223	235
1003	234	209	228
1004	234	211	232
1005	237	215	239
1006	237	212	238
1007	239	209	237
1008	245	210	238
1009	247	207	237
1010	243	199	234
1011	244	194	234
1012	249	190	237
1013	241	178	231
1014	244	184	238
1015	242	186	238
1016	246	194	242
1017	238	192	233
1018	0	0	0
1019	0	0	0
1020	0	0	0
1021	0	0	0
1022	0	0	0
1023	0	0	0
1024	0	0	0
1025	0	0	0
1026	0	0	0
1027	236	219	232
1028	238	219	234
1029	244	224	241
1030	245	222	243
1031	246	219	244
1032	242	210	237
1033	243	207	235
1034	243	204	234
1035	243	199	233
1036	249	201	240
1037	252	196	242
1038	237	171	230
1039	245	181	241
1040	242	181	240
1041	241	186	240
1042	234	186	232
1043	0	0	0
1044	0	0	0
1045	0	0	0
1046	0	0	0
1047	0	0	0
1048	0	0	0
1049	0	0	0
1050	0	0	0
1051	0	0	0
1052	244	231	240
1053	245	231	242
1054	245	227	241
1055	247	224	243
1056	246	217	241
1057	242	208	235
1058	241	205	235
1059	242	203	235
1060	248	204	239
1061	254	206	244
1062	244	185	237
1063	231	162	229
1064	242	174	242
1065	237	172	238
1066	234	178	236
1067	229	179	231
1068	0	0	0
1069	0	0	0
1070	0	0	0
1071	0	0	0
1072	0	0	0
1073	0	0	0
1074	0	0	0
1075	0	0	0
1076	0	0	0
1077	242	227	237
1078	248	234	243
1079	246	228	240
1080	248	226	241
1081	246	219	239
1082	242	210	235
1083	243	209	236
1084	247	209	240
1085	255	212	246
1086	255	203	244
1087	243	182	235
1088	241	176	240
1089	251	188	253
1090	236	172	239
1091	231	178	238
1092	231	184	237
1093	0	0	0
1094	0	0	0
1095	0	0	0
1096	0	0	0
1097	0	0	0
1098	0	0	0
1099	0	0	0
1100	0	0	0
1101	0	0	0
1102	0	0	0
1103	253	239	247
1104	248	232	241
1105	249	229	239
1106	248	221	237
1107	245	213	235
1108	245	212	237
1109	249	213	240
1110	249	204	239
1111	248	196	239
1112	249	192	243
1113	247	185	243
1114	247	184	246
1115	232	170	236
1116	231	180	240
1117	229	185	238
1118	236	198	240
1119	0	0	0
1120	0	0	0
1121	0	0	0
1122	0	0	0
1123	0	0	0
1124	0	0	0
1125	0	0	0
1126	0	0	0
1127	0	0	0
1128	0	0	0
1129	241	223	234
1130	250	232	240
1131	253	227	239
1132	246	212	234
1133	244	210	236
1134	249	215	241
1135	245	204	238
1136	245	197	240
1137	248	195	245
1138	238	177	236
1139	239	176	240
1140	230	168	236
1141	229	179	241
1142	226	186	238
1143	0	0	0
1144	0	0	0
1145	0	0	0
1146	0	0	0
1147	0	0	0
1148	0	0	0
1149	0	0	0
1150	0	0	0
1151	0	0	0
1152	0	0	0
1153	0	0	0
1154	0	0	0
1155	0	0	0
1156	251	224	238
1157	244	210	235
1158	246	214	240
1159	249	217	242
1160	243	205	237
1161	242	198	239
1162	236	185	237
1163	226	167	231
1164	232	173	240
1165	224	166	236
1166	228	181	243
1167	225	188	240
1168	0	0	0
1169	0	0	0
1170	0	0	0
1171	0	0	0
1172	0	0	0
1173	0	0	0
1174	0	0	0
1175	0	0	0
1176	0	0	0
1177	0	0	0
1178	0	0	0
1179	0	0	0
1180	0	0	0
1181	0	0	0
1182	246	218	239
1183	251	223	246
1184	247	216	242
1185	240	204	236
1186	242	204	242
1187	233	189	239
1188	222	171	234
1189	226	176	243
1190	213	161	232
1191	223	178	241
1192	230	198	246
1193	0	0	0
1194	0	0	0
1195	0	0	0
1196	0	0	0
1197	0	0	0
1198	0	0	0
1199	0	0	0
1200	0	0	0
1201	0	0	0
1202	0	0	0
1203	0	0	0
1204	0	0	0
1205	0	0	0
1206	0	0	0
1207	251	228	244
1208	245	219	240
1209	242	213	239
1210	241	208	239
1211	242	207	242
1212	229	189	236
1213	216	171	233
1214	214	169	236
1215	201	153	225
1216	222	183	242
1217	0	0	0
1218	0	0	0
1219	0	0	0
1220	0	0	0
1221	0	0	0
1222	0	0	0
1223	0	0	0
1224	0	0	0
1225	0	0	0
1226	0	0	0
1227	0	0	0
1228	0	0	0
1229	0	0	0
1230	0	0	0
1231	0	0	0
1232	0	0	0
1233	241	216	235
1234	246	222	244
1235	246	218	245
1236	246	216	247
1237	233	198	241
1238	220	180	237
1239	217	177	240
1240	207	167	231
1241	0	0	0
1242	0	0	0
1243	0	0	0
1244	0	0	0
1245	0	0	0
1246	0	0	0
1247	0	0	0
1248	0	0	0
1249	0	0	0
1250	0	0	0
1251	0	0	0
1252	0	0	0
1253	0	0	0
1254	0	0	0
1255	0	0	0
1256	0	0	0
1257	0	0	0
1258	0	0	0
1259	254	233	250
1260	249	226	248
1261	249	224	251
1262	232	203	242
1263	218	184	237
1264	218	187	243
1265	0	0	0
1266	0	0	0
1267	0	0	0
1268	0	0	0
1269	0	0	0
1270	0	0	0
1271	0	0	0
1272	0	0	0
1273	0	0	0
1274	0	0	0
1275	0	0	0
1276	0	0	0
1277	0	0	0
1278	0	0	0
1279	0	0	0
1280	0	0	0
1281	0	0	0
1282	0	0	0
1283	0	0	0
1284	0	0	0
1285	0	0	0
1286	247	228	250
1287	0	0	0
1288	0	0	0
1289	0	0	0
1290	0	0	0
1291	0	0	0
1292	0	0	0
1293	0	0	0
1294	0	0	0
1295	0	0	0
1296	0	0	0
1297	0	0	0
1298	0	0	0
1299	0	0	0
1300	0	0	0
