 	R	G	B
1	0	0	0
2	0	0	0
3	0	0	0
4	0	0	0
5	0	0	0
6	0	0	0
7	0	0	0
8	0	0	0
9	0	0	0
10	0	0	0
11	0	0	0
12	0	0	0
13	0	0	0
14	0	0	0
15	0	0	0
16	0	0	0
17	0	0	0
18	0	0	0
19	0	0	0
20	0	0	0
21	0	0	0
22	0	0	0
23	0	0	0
24	0	0	0
25	0	0	0
26	0	0	0
27	255	241	244
28	0	0	0
29	0	0	0
30	0	0	0
31	0	0	0
32	0	0	0
33	0	0	0
34	0	0	0
35	0	0	0
36	0	0	0
37	0	0	0
38	0	0	0
39	0	0	0
40	0	0	0
41	0	0	0
42	0	0	0
43	0	0	0
44	0	0	0
45	0	0	0
46	0	0	0
47	0	0	0
48	0	0	0
49	0	0	0
50	0	0	0
51	0	0	0
52	0	0	0
53	0	0	0
54	0	0	0
55	0	0	0
56	0	0	0
57	0	0	0
58	255	240	243
59	255	245	248
60	255	231	241
61	0	0	0
62	0	0	0
63	0	0	0
64	0	0	0
65	0	0	0
66	0	0	0
67	0	0	0
68	0	0	0
69	0	0	0
70	0	0	0
71	0	0	0
72	0	0	0
73	0	0	0
74	0	0	0
75	0	0	0
76	0	0	0
77	0	0	0
78	0	0	0
79	0	0	0
80	0	0	0
81	0	0	0
82	0	0	0
83	0	0	0
84	0	0	0
85	0	0	0
86	0	0	0
87	0	0	0
88	0	0	0
89	255	247	247
90	255	244	245
91	255	230	239
92	250	216	233
93	249	209	233
94	0	0	0
95	0	0	0
96	0	0	0
97	0	0	0
98	0	0	0
99	0	0	0
100	0	0	0
101	0	0	0
102	0	0	0
103	0	0	0
104	0	0	0
105	0	0	0
106	0	0	0
107	0	0	0
108	0	0	0
109	0	0	0
110	0	0	0
111	0	0	0
112	0	0	0
113	0	0	0
114	0	0	0
115	0	0	0
116	0	0	0
117	0	0	0
118	0	0	0
119	0	0	0
120	255	246	246
121	255	242	244
122	255	229	236
123	249	215	230
124	251	213	233
125	250	206	234
126	0	0	0
127	255	207	245
128	0	0	0
129	0	0	0
130	0	0	0
131	0	0	0
132	0	0	0
133	0	0	0
134	0	0	0
135	0	0	0
136	0	0	0
137	0	0	0
138	0	0	0
139	0	0	0
140	0	0	0
141	0	0	0
142	0	0	0
143	0	0	0
144	0	0	0
145	0	0	0
146	0	0	0
147	0	0	0
148	0	0	0
149	0	0	0
150	0	0	0
151	0	0	0
152	255	238	242
153	253	227	236
154	248	214	228
155	250	213	231
156	252	210	235
157	255	213	241
158	255	214	246
159	252	205	243
160	234	187	232
161	0	0	0
162	0	0	0
163	0	0	0
164	0	0	0
165	0	0	0
166	0	0	0
167	0	0	0
168	0	0	0
169	0	0	0
170	0	0	0
171	0	0	0
172	0	0	0
173	0	0	0
174	0	0	0
175	0	0	0
176	0	0	0
177	0	0	0
178	0	0	0
179	0	0	0
180	0	0	0
181	0	0	0
182	0	0	0
183	0	0	0
184	255	237	243
185	255	226	239
186	249	211	230
187	251	209	233
188	252	206	235
189	255	208	240
190	252	204	241
191	242	193	235
192	234	192	234
193	0	0	0
194	0	0	0
195	0	0	0
196	0	0	0
197	0	0	0
198	0	0	0
199	0	0	0
200	0	0	0
201	0	0	0
202	0	0	0
203	0	0	0
204	0	0	0
205	0	0	0
206	0	0	0
207	0	0	0
208	0	0	0
209	0	0	0
210	0	0	0
211	0	0	0
212	0	0	0
213	0	0	0
214	0	0	0
215	255	241	244
216	255	234	241
217	255	222	237
218	250	208	234
219	253	207	238
220	252	203	237
221	253	202	239
222	249	198	241
223	247	202	244
224	237	200	239
225	0	0	0
226	0	0	0
227	0	0	0
228	0	0	0
229	0	0	0
230	0	0	0
231	0	0	0
232	0	0	0
233	0	0	0
234	0	0	0
235	0	0	0
236	0	0	0
237	0	0	0
238	0	0	0
239	0	0	0
240	0	0	0
241	0	0	0
242	0	0	0
243	0	0	0
244	0	0	0
245	0	0	0
246	255	249	248
247	255	243	247
248	252	221	234
249	248	208	230
250	252	207	236
251	255	206	240
252	254	203	239
253	254	201	241
254	247	195	240
255	242	198	242
256	235	200	239
257	0	0	0
258	0	0	0
259	0	0	0
260	0	0	0
261	0	0	0
262	0	0	0
263	0	0	0
264	0	0	0
265	0	0	0
266	0	0	0
267	0	0	0
268	0	0	0
269	0	0	0
270	0	0	0
271	0	0	0
272	0	0	0
273	0	0	0
274	0	0	0
275	0	0	0
276	0	0	0
277	0	0	0
278	255	251	252
279	253	229	239
280	243	206	225
281	250	208	231
282	253	206	236
283	255	206	240
284	254	202	240
285	253	200	241
286	244	192	237
287	239	199	240
288	0	0	0
289	0	0	0
290	0	0	0
291	0	0	0
292	0	0	0
293	0	0	0
294	0	0	0
295	0	0	0
296	0	0	0
297	0	0	0
298	0	0	0
299	0	0	0
300	0	0	0
301	0	0	0
302	0	0	0
303	0	0	0
304	0	0	0
305	0	0	0
306	0	0	0
307	0	0	0
308	0	0	0
309	255	250	251
310	255	243	249
311	248	219	234
312	249	212	231
313	255	215	238
314	251	200	234
315	252	198	237
316	250	195	236
317	247	192	235
318	241	193	236
319	0	0	0
320	0	0	0
321	0	0	0
322	0	0	0
323	0	0	0
324	0	0	0
325	0	0	0
326	0	0	0
327	0	0	0
328	0	0	0
329	0	0	0
330	0	0	0
331	0	0	0
332	0	0	0
333	0	0	0
334	0	0	0
335	0	0	0
336	0	0	0
337	0	0	0
338	0	0	0
339	0	0	0
340	0	0	0
341	255	240	244
342	255	234	243
343	255	227	241
344	255	220	239
345	255	210	237
346	250	195	233
347	253	197	238
348	250	193	237
349	252	199	241
350	245	198	240
351	0	0	0
352	0	0	0
353	0	0	0
354	0	0	0
355	0	0	0
356	0	0	0
357	0	0	0
358	0	0	0
359	0	0	0
360	0	0	0
361	0	0	0
362	0	0	0
363	0	0	0
364	0	0	0
365	0	0	0
366	0	0	0
367	0	0	0
368	0	0	0
369	0	0	0
370	0	0	0
371	0	0	0
372	255	248	247
373	255	240	244
374	253	224	238
375	255	219	238
376	254	208	234
377	252	197	232
378	247	186	230
379	251	189	236
380	251	190	236
381	252	195	240
382	245	194	238
383	0	0	0
384	0	0	0
385	0	0	0
386	0	0	0
387	0	0	0
388	0	0	0
389	0	0	0
390	0	0	0
391	0	0	0
392	0	0	0
393	0	0	0
394	0	0	0
395	0	0	0
396	0	0	0
397	0	0	0
398	0	0	0
399	0	0	0
400	0	0	0
401	0	0	0
402	0	0	0
403	0	0	0
404	255	249	248
405	254	231	240
406	249	215	234
407	252	208	235
408	251	198	232
409	250	191	232
410	246	179	230
411	255	190	240
412	254	190	239
413	254	196	242
414	245	194	239
415	0	0	0
416	0	0	0
417	0	0	0
418	0	0	0
419	0	0	0
420	0	0	0
421	0	0	0
422	0	0	0
423	0	0	0
424	0	0	0
425	0	0	0
426	0	0	0
427	0	0	0
428	0	0	0
429	0	0	0
430	0	0	0
431	0	0	0
432	0	0	0
433	0	0	0
434	0	0	0
435	0	0	0
436	255	245	247
437	255	227	239
438	252	213	235
439	255	206	237
440	250	192	232
441	250	184	232
442	251	181	235
443	255	192	246
444	245	174	233
445	241	177	234
446	232	180	231
447	0	0	0
448	0	0	0
449	0	0	0
450	0	0	0
451	0	0	0
452	0	0	0
453	0	0	0
454	0	0	0
455	0	0	0
456	0	0	0
457	0	0	0
458	0	0	0
459	0	0	0
460	0	0	0
461	0	0	0
462	0	0	0
463	0	0	0
464	0	0	0
465	0	0	0
466	0	0	0
467	255	245	243
468	255	241	245
469	255	226	240
470	255	211	236
471	252	198	232
472	247	183	228
473	251	183	234
474	251	179	238
475	247	172	237
476	228	153	225
477	223	162	229
478	0	0	0
479	0	0	0
480	0	0	0
481	0	0	0
482	0	0	0
483	0	0	0
484	0	0	0
485	0	0	0
486	0	0	0
487	0	0	0
488	0	0	0
489	0	0	0
490	0	0	0
491	0	0	0
492	0	0	0
493	0	0	0
494	0	0	0
495	0	0	0
496	0	0	0
497	0	0	0
498	255	251	246
499	255	245	244
500	255	226	236
501	253	211	232
502	251	200	230
503	248	187	227
504	253	188	233
505	255	187	240
506	250	178	240
507	239	168	238
508	218	151	227
509	0	0	0
510	0	0	0
511	0	0	0
512	0	0	0
513	0	0	0
514	0	0	0
515	0	0	0
516	0	0	0
517	0	0	0
518	0	0	0
519	0	0	0
520	0	0	0
521	0	0	0
522	0	0	0
523	0	0	0
524	0	0	0
525	0	0	0
526	0	0	0
527	0	0	0
528	0	0	0
529	0	0	0
530	255	249	244
531	255	229	235
532	250	210	227
533	251	202	228
534	250	192	228
535	255	193	235
536	255	193	240
537	255	186	241
538	249	176	242
539	234	167	239
540	209	148	226
541	0	0	0
542	0	0	0
543	0	0	0
544	0	0	0
545	0	0	0
546	0	0	0
547	0	0	0
548	0	0	0
549	0	0	0
550	0	0	0
551	0	0	0
552	0	0	0
553	0	0	0
554	0	0	0
555	0	0	0
556	0	0	0
557	0	0	0
558	0	0	0
559	0	0	0
560	0	0	0
561	0	0	0
562	255	246	244
563	255	227	236
564	247	200	224
565	250	193	228
566	251	187	229
567	255	187	235
568	255	184	238
569	252	175	238
570	244	170	240
571	223	157	232
572	213	161	233
573	0	0	0
574	0	0	0
575	0	0	0
576	0	0	0
577	0	0	0
578	0	0	0
579	0	0	0
580	0	0	0
581	0	0	0
582	0	0	0
583	0	0	0
584	0	0	0
585	0	0	0
586	0	0	0
587	0	0	0
588	0	0	0
589	0	0	0
590	0	0	0
591	0	0	0
592	0	0	0
593	255	244	245
594	255	243	247
595	255	218	236
596	247	192	227
597	255	193	236
598	254	185	235
599	255	182	239
600	254	178	242
601	253	175	244
602	241	166	240
603	228	170	241
604	0	0	0
605	0	0	0
606	0	0	0
607	0	0	0
608	0	0	0
609	0	0	0
610	0	0	0
611	0	0	0
612	0	0	0
613	0	0	0
614	0	0	0
615	0	0	0
616	0	0	0
617	0	0	0
618	0	0	0
619	0	0	0
620	0	0	0
621	0	0	0
622	0	0	0
623	0	0	0
624	255	251	249
625	255	249	252
626	255	228	242
627	253	203	232
628	244	180	226
629	251	180	235
630	249	171	233
631	248	167	235
632	248	167	240
633	243	162	239
634	237	166	241
635	0	0	0
636	0	0	0
637	0	0	0
638	0	0	0
639	0	0	0
640	0	0	0
641	0	0	0
642	0	0	0
643	0	0	0
644	0	0	0
645	0	0	0
646	0	0	0
647	0	0	0
648	0	0	0
649	0	0	0
650	0	0	0
651	0	0	0
652	0	0	0
653	0	0	0
654	0	0	0
655	0	0	0
656	0	0	0
657	255	230	240
658	254	210	233
659	247	189	228
660	239	166	224
661	244	165	232
662	239	154	228
663	239	155	231
664	237	153	233
665	240	163	240
666	232	165	239
667	227	181	244
668	0	0	0
669	0	0	0
670	0	0	0
671	0	0	0
672	0	0	0
673	0	0	0
674	0	0	0
675	0	0	0
676	0	0	0
677	0	0	0
678	0	0	0
679	0	0	0
680	0	0	0
681	0	0	0
682	0	0	0
683	0	0	0
684	0	0	0
685	0	0	0
686	0	0	0
687	0	0	0
688	255	247	250
689	255	225	240
690	251	200	229
691	244	178	225
692	246	171	231
693	249	169	238
694	240	155	232
695	236	154	234
696	243	168	244
697	244	176	248
698	233	176	244
699	0	0	0
700	0	0	0
701	0	0	0
702	0	0	0
703	0	0	0
704	0	0	0
705	0	0	0
706	0	0	0
707	0	0	0
708	0	0	0
709	0	0	0
710	0	0	0
711	0	0	0
712	0	0	0
713	0	0	0
714	0	0	0
715	0	0	0
716	0	0	0
717	0	0	0
718	0	0	0
719	255	242	245
720	255	241	249
721	254	213	235
722	244	187	223
723	248	181	228
724	248	173	233
725	249	169	238
726	240	155	235
727	249	173	249
728	252	185	255
729	247	189	253
730	235	188	247
731	0	0	0
732	0	0	0
733	0	0	0
734	0	0	0
735	0	0	0
736	0	0	0
737	0	0	0
738	0	0	0
739	0	0	0
740	0	0	0
741	0	0	0
742	0	0	0
743	0	0	0
744	0	0	0
745	0	0	0
746	0	0	0
747	0	0	0
748	0	0	0
749	0	0	0
750	255	250	248
751	255	245	247
752	255	227	240
753	245	197	226
754	242	183	224
755	248	179	230
756	250	173	235
757	251	168	239
758	244	159	237
759	253	176	251
760	246	178	248
761	234	177	242
762	231	190	244
763	0	0	0
764	0	0	0
765	0	0	0
766	0	0	0
767	0	0	0
768	0	0	0
769	0	0	0
770	0	0	0
771	0	0	0
772	0	0	0
773	0	0	0
774	0	0	0
775	0	0	0
776	0	0	0
777	0	0	0
778	0	0	0
779	0	0	0
780	0	0	0
781	0	0	0
782	255	250	246
783	255	230	236
784	254	212	230
785	250	199	229
786	249	187	233
787	255	186	242
788	255	177	243
789	254	173	244
790	244	161	238
791	248	172	245
792	239	172	242
793	231	182	242
794	0	0	0
795	0	0	0
796	0	0	0
797	0	0	0
798	0	0	0
799	0	0	0
800	0	0	0
801	0	0	0
802	0	0	0
803	0	0	0
804	0	0	0
805	0	0	0
806	0	0	0
807	0	0	0
808	0	0	0
809	0	0	0
810	0	0	0
811	0	0	0
812	0	0	0
813	0	0	0
814	255	238	241
815	255	219	232
816	247	196	224
817	247	185	227
818	252	181	236
819	255	177	243
820	246	162	237
821	238	154	234
822	238	159	236
823	240	168	241
824	231	171	238
825	0	0	0
826	0	0	0
827	0	0	0
828	0	0	0
829	0	0	0
830	0	0	0
831	0	0	0
832	0	0	0
833	0	0	0
834	0	0	0
835	0	0	0
836	0	0	0
837	0	0	0
838	0	0	0
839	0	0	0
840	0	0	0
841	0	0	0
842	0	0	0
843	0	0	0
844	0	0	0
845	255	236	242
846	255	228	239
847	251	205	232
848	245	184	228
849	251	181	237
850	252	175	240
851	247	164	239
852	235	146	231
853	237	155	238
854	233	158	238
855	231	168	240
856	0	0	0
857	0	0	0
858	0	0	0
859	0	0	0
860	0	0	0
861	0	0	0
862	0	0	0
863	0	0	0
864	0	0	0
865	0	0	0
866	0	0	0
867	0	0	0
868	0	0	0
869	0	0	0
870	0	0	0
871	0	0	0
872	0	0	0
873	0	0	0
874	0	0	0
875	0	0	0
876	255	251	249
877	255	243	249
878	251	208	232
879	244	187	227
880	253	188	239
881	255	184	246
882	246	166	238
883	236	151	233
884	237	156	239
885	240	165	246
886	232	166	243
887	0	0	0
888	0	0	0
889	0	0	0
890	0	0	0
891	0	0	0
892	0	0	0
893	0	0	0
894	0	0	0
895	0	0	0
896	0	0	0
897	0	0	0
898	0	0	0
899	0	0	0
900	0	0	0
901	0	0	0
902	0	0	0
903	0	0	0
904	0	0	0
905	0	0	0
906	0	0	0
907	0	0	0
908	255	251	249
909	253	218	233
910	239	185	222
911	248	188	234
912	253	187	241
913	245	170	236
914	232	150	228
915	235	158	237
916	236	162	242
917	239	173	248
918	230	173	243
919	0	0	0
920	0	0	0
921	0	0	0
922	0	0	0
923	0	0	0
924	0	0	0
925	0	0	0
926	0	0	0
927	0	0	0
928	0	0	0
929	0	0	0
930	0	0	0
931	0	0	0
932	0	0	0
933	0	0	0
934	0	0	0
935	0	0	0
936	0	0	0
937	0	0	0
938	0	0	0
939	255	253	250
940	255	240	243
941	246	204	226
942	240	185	226
943	249	187	239
944	248	182	240
945	235	162	231
946	231	158	233
947	234	165	241
948	235	172	246
949	239	182	250
950	228	178	242
951	0	0	0
952	0	0	0
953	0	0	0
954	0	0	0
955	0	0	0
956	0	0	0
957	0	0	0
958	0	0	0
959	0	0	0
960	0	0	0
961	0	0	0
962	0	0	0
963	0	0	0
964	0	0	0
965	0	0	0
966	0	0	0
967	0	0	0
968	0	0	0
969	0	0	0
970	255	254	249
971	255	239	241
972	255	226	235
973	250	206	231
974	244	186	231
975	250	187	242
976	247	180	242
977	243	177	243
978	238	172	243
979	242	182	251
980	241	186	253
981	235	187	249
982	0	0	0
983	0	0	0
984	0	0	0
985	0	0	0
986	0	0	0
987	0	0	0
988	0	0	0
989	0	0	0
990	0	0	0
991	0	0	0
992	0	0	0
993	0	0	0
994	0	0	0
995	0	0	0
996	0	0	0
997	0	0	0
998	0	0	0
999	0	0	0
1000	0	0	0
1001	0	0	0
1002	255	252	249
1003	255	233	239
1004	255	217	234
1005	249	198	230
1006	242	179	229
1007	246	178	239
1008	243	174	240
1009	238	169	240
1010	239	173	245
1011	245	183	252
1012	236	181	246
1013	0	0	0
1014	0	0	0
1015	0	0	0
1016	0	0	0
1017	0	0	0
1018	0	0	0
1019	0	0	0
1020	0	0	0
1021	0	0	0
1022	0	0	0
1023	0	0	0
1024	0	0	0
1025	0	0	0
1026	0	0	0
1027	0	0	0
1028	0	0	0
1029	0	0	0
1030	0	0	0
1031	0	0	0
1032	0	0	0
1033	0	0	0
1034	255	246	247
1035	255	226	237
1036	255	211	234
1037	247	192	230
1038	236	170	226
1039	238	171	235
1040	235	165	237
1041	239	173	246
1042	239	175	248
1043	238	180	248
1044	0	0	0
1045	0	0	0
1046	0	0	0
1047	0	0	0
1048	0	0	0
1049	0	0	0
1050	0	0	0
1051	0	0	0
1052	0	0	0
1053	0	0	0
1054	0	0	0
1055	0	0	0
1056	0	0	0
1057	0	0	0
1058	0	0	0
1059	0	0	0
1060	0	0	0
1061	0	0	0
1062	0	0	0
1063	0	0	0
1064	0	0	0
1065	0	0	0
1066	255	234	241
1067	255	215	234
1068	251	199	232
1069	239	179	227
1070	232	168	227
1071	229	165	232
1072	234	173	243
1073	243	182	254
1074	232	172	245
1075	0	0	0
1076	0	0	0
1077	0	0	0
1078	0	0	0
1079	0	0	0
1080	0	0	0
1081	0	0	0
1082	0	0	0
1083	0	0	0
1084	0	0	0
1085	0	0	0
1086	0	0	0
1087	0	0	0
1088	0	0	0
1089	0	0	0
1090	0	0	0
1091	0	0	0
1092	0	0	0
1093	0	0	0
1094	0	0	0
1095	0	0	0
1096	0	0	0
1097	255	235	241
1098	255	222	235
1099	254	206	232
1100	248	190	232
1101	241	181	234
1102	232	168	232
1103	234	176	241
1104	237	182	249
1105	237	180	249
1106	224	168	239
1107	0	0	0
1108	0	0	0
1109	0	0	0
1110	0	0	0
1111	0	0	0
1112	0	0	0
1113	0	0	0
1114	0	0	0
1115	0	0	0
1116	0	0	0
1117	0	0	0
1118	0	0	0
1119	0	0	0
1120	0	0	0
1121	0	0	0
1122	0	0	0
1123	0	0	0
1124	0	0	0
1125	0	0	0
1126	0	0	0
1127	0	0	0
1128	255	242	245
1129	255	228	239
1130	250	205	229
1131	246	189	227
1132	248	187	235
1133	237	175	234
1134	232	171	236
1135	237	180	246
1136	233	179	246
1137	225	172	240
1138	221	175	239
1139	0	0	0
1140	0	0	0
1141	0	0	0
1142	0	0	0
1143	0	0	0
1144	0	0	0
1145	0	0	0
1146	0	0	0
1147	0	0	0
1148	0	0	0
1149	0	0	0
1150	0	0	0
1151	0	0	0
1152	0	0	0
1153	0	0	0
1154	0	0	0
1155	0	0	0
1156	0	0	0
1157	0	0	0
1158	0	0	0
1159	255	240	243
1160	255	233	241
1161	250	209	231
1162	242	188	226
1163	251	190	236
1164	249	185	236
1165	242	181	238
1166	237	176	241
1167	237	180	247
1168	231	177	246
1169	229	184	247
1170	224	186	242
1171	0	0	0
1172	0	0	0
1173	0	0	0
1174	0	0	0
1175	0	0	0
1176	0	0	0
1177	0	0	0
1178	0	0	0
1179	0	0	0
1180	0	0	0
1181	0	0	0
1182	0	0	0
1183	0	0	0
1184	0	0	0
1185	0	0	0
1186	0	0	0
1187	0	0	0
1188	0	0	0
1189	0	0	0
1190	255	248	247
1191	255	238	243
1192	255	221	236
1193	246	198	227
1194	251	195	236
1195	255	196	245
1196	246	177	233
1197	240	173	234
1198	240	177	243
1199	237	178	247
1200	233	181	246
1201	229	187	245
1202	230	199	246
1203	0	0	0
1204	0	0	0
1205	0	0	0
1206	0	0	0
1207	0	0	0
1208	0	0	0
1209	0	0	0
1210	0	0	0
1211	0	0	0
1212	0	0	0
1213	0	0	0
1214	0	0	0
1215	0	0	0
1216	0	0	0
1217	0	0	0
1218	0	0	0
1219	0	0	0
1220	0	0	0
1221	255	244	244
1222	255	243	246
1223	255	224	236
1224	250	208	229
1225	253	203	233
1226	255	199	240
1227	254	188	240
1228	241	168	230
1229	244	176	240
1230	243	179	246
1231	243	187	251
1232	236	188	248
1233	236	201	250
1234	0	0	0
1235	0	0	0
1236	0	0	0
1237	0	0	0
1238	0	0	0
1239	0	0	0
1240	0	0	0
1241	0	0	0
1242	0	0	0
1243	0	0	0
1244	0	0	0
1245	0	0	0
1246	0	0	0
1247	0	0	0
1248	0	0	0
1249	0	0	0
1250	0	0	0
1251	0	0	0
1252	0	0	0
1253	255	246	247
1254	255	235	242
1255	252	215	232
1256	253	208	233
1257	255	203	237
1258	253	191	236
1259	247	178	234
1260	241	168	233
1261	245	176	243
1262	244	181	248
1263	242	187	250
1264	229	181	239
1265	0	0	0
1266	0	0	0
1267	0	0	0
1268	0	0	0
1269	0	0	0
1270	0	0	0
1271	0	0	0
1272	0	0	0
1273	0	0	0
1274	0	0	0
1275	0	0	0
1276	0	0	0
1277	0	0	0
1278	0	0	0
1279	0	0	0
1280	0	0	0
1281	0	0	0
1282	0	0	0
1283	255	244	246
1284	255	252	251
1285	255	237	243
1286	255	226	237
1287	255	215	235
1288	255	208	238
1289	254	196	237
1290	249	183	234
1291	248	178	237
1292	241	168	235
1293	246	179	245
1294	242	181	246
1295	233	180	242
1296	0	0	0
1297	0	0	0
1298	0	0	0
1299	0	0	0
1300	0	0	0
1301	0	0	0
1302	0	0	0
1303	0	0	0
1304	0	0	0
1305	0	0	0
1306	0	0	0
1307	0	0	0
1308	0	0	0
1309	0	0	0
1310	0	0	0
1311	0	0	0
1312	0	0	0
1313	0	0	0
1314	254	241	245
1315	255	250	253
1316	255	235	243
1317	251	219	233
1318	254	216	234
1319	251	206	233
1320	255	203	239
1321	252	192	238
1322	251	186	237
1323	248	179	238
1324	239	169	236
1325	243	178	245
1326	234	178	242
1327	0	0	0
1328	0	0	0
1329	0	0	0
1330	0	0	0
1331	0	0	0
1332	0	0	0
1333	0	0	0
1334	0	0	0
1335	0	0	0
1336	0	0	0
1337	0	0	0
1338	0	0	0
1339	0	0	0
1340	0	0	0
1341	0	0	0
1342	0	0	0
1343	0	0	0
1344	0	0	0
1345	251	239	243
1346	255	242	246
1347	251	228	238
1348	246	214	231
1349	247	209	230
1350	250	207	233
1351	251	202	235
1352	254	199	240
1353	255	195	242
1354	254	188	239
1355	248	181	238
1356	239	170	237
1357	241	179	245
1358	231	177	241
1359	0	0	0
1360	0	0	0
1361	0	0	0
1362	0	0	0
1363	0	0	0
1364	0	0	0
1365	0	0	0
1366	0	0	0
1367	0	0	0
1368	0	0	0
1369	0	0	0
1370	0	0	0
1371	0	0	0
1372	0	0	0
1373	0	0	0
1374	0	0	0
1375	0	0	0
1376	0	0	0
1377	255	248	250
1378	255	241	246
1379	252	225	237
1380	251	219	235
1381	253	215	237
1382	255	213	240
1383	255	208	241
1384	252	194	238
1385	254	189	239
1386	249	181	234
1387	243	173	232
1388	241	174	239
1389	240	181	246
1390	232	182	243
1391	0	0	0
1392	0	0	0
1393	0	0	0
1394	0	0	0
1395	0	0	0
1396	0	0	0
1397	0	0	0
1398	0	0	0
1399	0	0	0
1400	0	0	0
1401	0	0	0
1402	0	0	0
1403	0	0	0
1404	0	0	0
1405	0	0	0
1406	0	0	0
1407	0	0	0
1408	0	0	0
1409	0	0	0
1410	255	234	240
1411	251	225	236
1412	251	218	235
1413	252	214	236
1414	255	212	238
1415	251	198	234
1416	245	184	229
1417	248	182	232
1418	244	174	228
1419	248	179	236
1420	244	178	241
1421	243	187	247
1422	234	188	244
1423	0	0	0
1424	0	0	0
1425	0	0	0
1426	0	0	0
1427	0	0	0
1428	0	0	0
1429	0	0	0
1430	0	0	0
1431	0	0	0
1432	0	0	0
1433	0	0	0
1434	0	0	0
1435	0	0	0
1436	0	0	0
1437	0	0	0
1438	0	0	0
1439	0	0	0
1440	0	0	0
1441	0	0	0
1442	0	0	0
1443	246	220	232
1444	254	226	239
1445	255	222	240
1446	255	217	241
1447	253	203	236
1448	248	189	233
1449	251	187	236
1450	249	181	234
1451	254	187	242
1452	241	175	237
1453	237	182	241
1454	235	193	244
1455	0	0	0
1456	0	0	0
1457	0	0	0
1458	0	0	0
1459	0	0	0
1460	0	0	0
1461	0	0	0
1462	0	0	0
1463	0	0	0
1464	0	0	0
1465	0	0	0
1466	0	0	0
1467	0	0	0
1468	0	0	0
1469	0	0	0
1470	0	0	0
1471	0	0	0
1472	0	0	0
1473	0	0	0
1474	0	0	0
1475	251	229	239
1476	255	235	245
1477	255	226	242
1478	255	221	242
1479	255	207	239
1480	250	193	237
1481	253	192	241
1482	250	185	238
1483	250	183	240
1484	237	171	234
1485	243	191	247
1486	240	202	248
1487	0	0	0
1488	0	0	0
1489	0	0	0
1490	0	0	0
1491	0	0	0
1492	0	0	0
1493	0	0	0
1494	0	0	0
1495	0	0	0
1496	0	0	0
1497	0	0	0
1498	0	0	0
1499	0	0	0
1500	0	0	0
1501	0	0	0
1502	0	0	0
1503	0	0	0
1504	0	0	0
1505	0	0	0
1506	247	228	238
1507	255	233	243
1508	255	229	242
1509	254	220	239
1510	255	216	239
1511	251	202	235
1512	251	196	239
1513	252	194	242
1514	248	186	238
1515	247	183	240
1516	242	180	240
1517	250	201	253
1518	241	203	247
1519	0	0	0
1520	0	0	0
1521	0	0	0
1522	0	0	0
1523	0	0	0
1524	0	0	0
1525	0	0	0
1526	0	0	0
1527	0	0	0
1528	0	0	0
1529	0	0	0
1530	0	0	0
1531	0	0	0
1532	0	0	0
1533	0	0	0
1534	0	0	0
1535	0	0	0
1536	0	0	0
1537	0	0	0
1538	0	0	0
1539	250	226	240
1540	252	222	241
1541	252	216	240
1542	254	212	239
1543	254	207	239
1544	253	200	240
1545	251	195	241
1546	247	188	239
1547	252	194	247
1548	246	189	244
1549	245	199	248
1550	0	0	0
1551	0	0	0
1552	0	0	0
1553	0	0	0
1554	0	0	0
1555	0	0	0
1556	0	0	0
1557	0	0	0
1558	0	0	0
1559	0	0	0
1560	0	0	0
1561	0	0	0
1562	0	0	0
1563	0	0	0
1564	0	0	0
1565	0	0	0
1566	0	0	0
1567	0	0	0
1568	0	0	0
1569	0	0	0
1570	0	0	0
1571	0	0	0
1572	255	226	244
1573	253	219	242
1574	255	218	244
1575	255	212	243
1576	251	199	237
1577	249	194	238
1578	249	193	242
1579	254	198	249
1580	241	186	239
1581	0	0	0
1582	0	0	0
1583	0	0	0
1584	0	0	0
1585	0	0	0
1586	0	0	0
1587	0	0	0
1588	0	0	0
1589	0	0	0
1590	0	0	0
1591	0	0	0
1592	0	0	0
1593	0	0	0
1594	0	0	0
1595	0	0	0
1596	0	0	0
1597	0	0	0
1598	0	0	0
1599	0	0	0
1600	0	0	0
1601	0	0	0
1602	0	0	0
1603	0	0	0
1604	0	0	0
1605	255	226	245
1606	255	225	248
1607	255	213	242
1608	249	198	235
1609	253	201	242
1610	253	200	246
1611	254	200	249
1612	240	188	239
1613	0	0	0
1614	0	0	0
1615	0	0	0
1616	0	0	0
1617	0	0	0
1618	0	0	0
1619	0	0	0
1620	0	0	0
1621	0	0	0
1622	0	0	0
1623	0	0	0
1624	0	0	0
1625	0	0	0
1626	0	0	0
1627	0	0	0
1628	0	0	0
1629	0	0	0
1630	0	0	0
1631	0	0	0
1632	0	0	0
1633	0	0	0
1634	0	0	0
1635	0	0	0
1636	253	224	241
1637	255	224	244
1638	254	215	241
1639	249	202	235
1640	252	203	238
1641	255	205	244
1642	251	197	243
1643	251	197	246
1644	241	190	239
1645	0	0	0
1646	0	0	0
1647	0	0	0
1648	0	0	0
1649	0	0	0
1650	0	0	0
1651	0	0	0
1652	0	0	0
1653	0	0	0
1654	0	0	0
1655	0	0	0
1656	0	0	0
1657	0	0	0
1658	0	0	0
1659	0	0	0
1660	0	0	0
1661	0	0	0
1662	0	0	0
1663	0	0	0
1664	0	0	0
1665	0	0	0
1666	0	0	0
1667	0	0	0
1668	251	221	239
1669	252	216	240
1670	249	207	238
1671	254	209	242
1672	255	210	244
1673	254	203	242
1674	249	194	239
1675	252	200	245
1676	241	193	239
1677	0	0	0
1678	0	0	0
1679	0	0	0
1680	0	0	0
1681	0	0	0
1682	0	0	0
1683	0	0	0
1684	0	0	0
1685	0	0	0
1686	0	0	0
1687	0	0	0
1688	0	0	0
1689	0	0	0
1690	0	0	0
1691	0	0	0
1692	0	0	0
1693	0	0	0
1694	0	0	0
1695	0	0	0
1696	0	0	0
1697	0	0	0
1698	0	0	0
1699	0	0	0
1700	253	224	242
1701	253	219	243
1702	251	210	241
1703	255	212	245
1704	255	208	243
1705	251	201	240
1706	249	198	241
1707	251	202	245
1708	242	197	240
1709	0	0	0
1710	0	0	0
1711	0	0	0
1712	0	0	0
1713	0	0	0
1714	0	0	0
1715	0	0	0
1716	0	0	0
1717	0	0	0
1718	0	0	0
1719	0	0	0
1720	0	0	0
1721	0	0	0
1722	0	0	0
1723	0	0	0
1724	0	0	0
1725	0	0	0
1726	0	0	0
1727	0	0	0
1728	0	0	0
1729	0	0	0
1730	0	0	0
1731	0	0	0
1732	252	225	242
1733	254	220	244
1734	250	210	241
1735	252	209	242
1736	251	205	240
1737	253	205	243
1738	251	202	243
1739	252	205	246
1740	243	200	240
1741	0	0	0
1742	0	0	0
1743	0	0	0
1744	0	0	0
1745	0	0	0
1746	0	0	0
1747	0	0	0
1748	0	0	0
1749	0	0	0
1750	0	0	0
1751	0	0	0
1752	0	0	0
1753	0	0	0
1754	0	0	0
1755	0	0	0
1756	0	0	0
1757	0	0	0
1758	0	0	0
1759	0	0	0
1760	0	0	0
1761	0	0	0
1762	0	0	0
1763	0	0	0
1764	255	231	245
1765	255	226	247
1766	250	212	240
1767	252	210	241
1768	254	210	244
1769	255	211	246
1770	248	200	241
1771	249	204	244
1772	0	0	0
1773	0	0	0
1774	0	0	0
1775	0	0	0
1776	0	0	0
1777	0	0	0
1778	0	0	0
1779	0	0	0
1780	0	0	0
1781	0	0	0
1782	0	0	0
1783	0	0	0
1784	0	0	0
1785	0	0	0
1786	0	0	0
1787	0	0	0
1788	0	0	0
1789	0	0	0
1790	0	0	0
1791	0	0	0
1792	0	0	0
1793	0	0	0
1794	0	0	0
1795	0	0	0
1796	255	237	248
1797	255	226	244
1798	248	211	236
1799	252	214	241
1800	255	214	245
1801	250	207	243
1802	243	197	237
1803	0	0	0
1804	0	0	0
1805	0	0	0
1806	0	0	0
1807	0	0	0
1808	0	0	0
1809	0	0	0
1810	0	0	0
1811	0	0	0
1812	0	0	0
1813	0	0	0
1814	0	0	0
1815	0	0	0
1816	0	0	0
1817	0	0	0
1818	0	0	0
1819	0	0	0
1820	0	0	0
1821	0	0	0
1822	0	0	0
1823	0	0	0
1824	0	0	0
1825	0	0	0
1826	0	0	0
1827	0	0	0
1828	0	0	0
1829	249	221	239
1830	0	0	0
1831	0	0	0
1832	0	0	0
1833	0	0	0
1834	0	0	0
1835	0	0	0
1836	0	0	0
1837	0	0	0
1838	0	0	0
1839	0	0	0
1840	0	0	0
1841	0	0	0
1842	0	0	0
1843	0	0	0
1844	0	0	0
1845	0	0	0
1846	0	0	0
1847	0	0	0
1848	0	0	0
1849	0	0	0
1850	0	0	0
1851	0	0	0
1852	0	0	0
1853	0	0	0
1854	0	0	0
1855	0	0	0
1856	0	0	0
