 	R	G	B
1	0	0	0
2	0	0	0
3	0	0	0
4	0	0	0
5	0	0	0
6	0	0	0
7	0	0	0
8	0	0	0
9	0	0	0
10	0	0	0
11	0	0	0
12	0	0	0
13	0	0	0
14	0	0	0
15	0	0	0
16	0	0	0
17	0	0	0
18	0	0	0
19	245	226	232
20	251	231	236
21	0	0	0
22	0	0	0
23	0	0	0
24	0	0	0
25	0	0	0
26	0	0	0
27	0	0	0
28	0	0	0
29	0	0	0
30	0	0	0
31	0	0	0
32	0	0	0
33	0	0	0
34	0	0	0
35	0	0	0
36	0	0	0
37	0	0	0
38	0	0	0
39	0	0	0
40	0	0	0
41	0	0	0
42	0	0	0
43	0	0	0
44	0	0	0
45	0	0	0
46	0	0	0
47	0	0	0
48	0	0	0
49	0	0	0
50	0	0	0
51	0	0	0
52	0	0	0
53	0	0	0
54	0	0	0
55	0	0	0
56	0	0	0
57	0	0	0
58	0	0	0
59	243	218	231
60	248	226	235
61	250	225	233
62	249	223	230
63	0	0	0
64	0	0	0
65	0	0	0
66	0	0	0
67	0	0	0
68	0	0	0
69	0	0	0
70	0	0	0
71	0	0	0
72	0	0	0
73	0	0	0
74	0	0	0
75	0	0	0
76	0	0	0
77	0	0	0
78	0	0	0
79	0	0	0
80	0	0	0
81	0	0	0
82	0	0	0
83	0	0	0
84	0	0	0
85	0	0	0
86	0	0	0
87	0	0	0
88	0	0	0
89	0	0	0
90	0	0	0
91	0	0	0
92	0	0	0
93	0	0	0
94	0	0	0
95	0	0	0
96	0	0	0
97	0	0	0
98	0	0	0
99	245	217	229
100	255	230	240
101	251	221	233
102	247	217	228
103	246	218	227
104	0	0	0
105	0	0	0
106	0	0	0
107	0	0	0
108	0	0	0
109	0	0	0
110	0	0	0
111	0	0	0
112	0	0	0
113	0	0	0
114	0	0	0
115	0	0	0
116	0	0	0
117	0	0	0
118	0	0	0
119	0	0	0
120	0	0	0
121	0	0	0
122	0	0	0
123	0	0	0
124	0	0	0
125	0	0	0
126	0	0	0
127	0	0	0
128	0	0	0
129	0	0	0
130	0	0	0
131	0	0	0
132	0	0	0
133	0	0	0
134	0	0	0
135	0	0	0
136	0	0	0
137	0	0	0
138	0	0	0
139	0	0	0
140	248	221	230
141	252	219	229
142	247	210	223
143	249	214	227
144	247	216	228
145	0	0	0
146	0	0	0
147	0	0	0
148	0	0	0
149	0	0	0
150	0	0	0
151	0	0	0
152	0	0	0
153	0	0	0
154	0	0	0
155	0	0	0
156	0	0	0
157	0	0	0
158	0	0	0
159	0	0	0
160	0	0	0
161	0	0	0
162	0	0	0
163	0	0	0
164	0	0	0
165	0	0	0
166	0	0	0
167	0	0	0
168	0	0	0
169	0	0	0
170	0	0	0
171	0	0	0
172	0	0	0
173	0	0	0
174	0	0	0
175	0	0	0
176	0	0	0
177	0	0	0
178	0	0	0
179	0	0	0
180	0	0	0
181	248	222	229
182	253	219	228
183	251	212	225
184	255	218	231
185	249	213	227
186	0	0	0
187	0	0	0
188	0	0	0
189	0	0	0
190	0	0	0
191	0	0	0
192	0	0	0
193	0	0	0
194	0	0	0
195	0	0	0
196	0	0	0
197	0	0	0
198	0	0	0
199	0	0	0
200	0	0	0
201	0	0	0
202	0	0	0
203	0	0	0
204	0	0	0
205	0	0	0
206	0	0	0
207	0	0	0
208	0	0	0
209	0	0	0
210	0	0	0
211	0	0	0
212	0	0	0
213	0	0	0
214	0	0	0
215	0	0	0
216	0	0	0
217	0	0	0
218	0	0	0
219	0	0	0
220	0	0	0
221	247	220	229
222	253	225	232
223	255	222	231
224	255	214	227
225	255	214	228
226	247	208	224
227	0	0	0
228	253	227	234
229	0	0	0
230	0	0	0
231	243	216	224
232	0	0	0
233	0	0	0
234	0	0	0
235	0	0	0
236	0	0	0
237	0	0	0
238	0	0	0
239	0	0	0
240	0	0	0
241	0	0	0
242	0	0	0
243	0	0	0
244	0	0	0
245	0	0	0
246	0	0	0
247	0	0	0
248	0	0	0
249	0	0	0
250	0	0	0
251	0	0	0
252	0	0	0
253	0	0	0
254	0	0	0
255	0	0	0
256	0	0	0
257	0	0	0
258	0	0	0
259	0	0	0
260	0	0	0
261	248	223	231
262	255	230	236
263	254	218	228
264	254	212	226
265	247	201	220
266	244	200	219
267	246	208	224
268	249	217	229
269	252	223	232
270	246	212	223
271	247	215	224
272	253	227	232
273	242	218	225
274	0	0	0
275	0	0	0
276	0	0	0
277	0	0	0
278	0	0	0
279	0	0	0
280	0	0	0
281	0	0	0
282	0	0	0
283	0	0	0
284	0	0	0
285	0	0	0
286	0	0	0
287	0	0	0
288	0	0	0
289	0	0	0
290	0	0	0
291	0	0	0
292	0	0	0
293	0	0	0
294	0	0	0
295	0	0	0
296	0	0	0
297	0	0	0
298	0	0	0
299	0	0	0
300	249	226	233
301	248	226	232
302	252	228	233
303	252	218	228
304	248	206	221
305	247	200	219
306	239	189	214
307	244	200	222
308	246	208	225
309	247	213	225
310	250	219	227
311	255	223	229
312	255	227	232
313	254	223	230
314	242	213	222
315	0	0	0
316	0	0	0
317	0	0	0
318	0	0	0
319	0	0	0
320	0	0	0
321	0	0	0
322	0	0	0
323	0	0	0
324	0	0	0
325	0	0	0
326	0	0	0
327	0	0	0
328	0	0	0
329	0	0	0
330	0	0	0
331	0	0	0
332	0	0	0
333	0	0	0
334	0	0	0
335	0	0	0
336	0	0	0
337	0	0	0
338	0	0	0
339	247	222	230
340	254	228	235
341	253	227	234
342	251	226	233
343	248	220	228
344	245	209	222
345	248	207	223
346	249	202	222
347	245	196	221
348	250	207	228
349	248	210	226
350	247	214	226
351	248	214	224
352	255	221	230
353	253	212	225
354	248	208	222
355	244	210	221
356	0	0	0
357	0	0	0
358	0	0	0
359	0	0	0
360	0	0	0
361	0	0	0
362	0	0	0
363	0	0	0
364	0	0	0
365	0	0	0
366	0	0	0
367	0	0	0
368	0	0	0
369	0	0	0
370	0	0	0
371	0	0	0
372	0	0	0
373	0	0	0
374	0	0	0
375	0	0	0
376	0	0	0
377	0	0	0
378	0	0	0
379	249	233	235
380	244	220	225
381	251	224	230
382	251	224	230
383	242	214	224
384	239	209	223
385	242	208	225
386	246	207	225
387	250	207	227
388	246	200	223
389	245	206	225
390	243	208	223
391	241	207	221
392	243	208	221
393	244	202	220
394	241	194	217
395	248	204	225
396	244	206	222
397	0	0	0
398	0	0	0
399	0	0	0
400	0	0	0
401	0	0	0
402	0	0	0
403	0	0	0
404	0	0	0
405	0	0	0
406	0	0	0
407	0	0	0
408	0	0	0
409	0	0	0
410	0	0	0
411	0	0	0
412	0	0	0
413	0	0	0
414	0	0	0
415	0	0	0
416	0	0	0
417	0	0	0
418	0	0	0
419	250	244	241
420	244	232	233
421	237	217	222
422	244	222	226
423	242	219	225
424	234	209	220
425	240	216	228
426	243	216	230
427	241	206	225
428	247	207	227
429	239	196	220
430	235	199	219
431	237	207	221
432	239	208	221
433	238	205	221
434	236	197	218
435	241	200	223
436	253	212	232
437	243	205	222
438	0	0	0
439	0	0	0
440	0	0	0
441	0	0	0
442	0	0	0
443	0	0	0
444	0	0	0
445	0	0	0
446	0	0	0
447	0	0	0
448	0	0	0
449	0	0	0
450	0	0	0
451	0	0	0
452	0	0	0
453	0	0	0
454	0	0	0
455	0	0	0
456	0	0	0
457	0	0	0
458	0	0	0
459	0	0	0
460	252	247	244
461	248	235	237
462	240	220	226
463	244	221	229
464	242	218	227
465	242	221	230
466	246	227	234
467	240	215	227
468	237	206	223
469	240	203	224
470	232	192	216
471	235	202	222
472	239	210	225
473	237	206	221
474	237	203	221
475	240	205	224
476	244	206	226
477	248	209	228
478	240	203	219
479	0	0	0
480	0	0	0
481	0	0	0
482	0	0	0
483	0	0	0
484	0	0	0
485	0	0	0
486	0	0	0
487	0	0	0
488	0	0	0
489	0	0	0
490	0	0	0
491	0	0	0
492	0	0	0
493	0	0	0
494	0	0	0
495	0	0	0
496	0	0	0
497	0	0	0
498	0	0	0
499	0	0	0
500	0	0	0
501	255	246	244
502	253	236	240
503	242	215	227
504	243	216	228
505	245	219	230
506	246	222	231
507	241	217	227
508	232	204	219
509	233	203	221
510	231	198	219
511	230	194	218
512	243	209	229
513	239	204	223
514	233	197	217
515	237	201	220
516	243	204	224
517	242	202	222
518	240	202	221
519	239	204	219
520	0	0	0
521	0	0	0
522	0	0	0
523	0	0	0
524	0	0	0
525	0	0	0
526	0	0	0
527	0	0	0
528	0	0	0
529	0	0	0
530	0	0	0
531	0	0	0
532	0	0	0
533	0	0	0
534	0	0	0
535	0	0	0
536	0	0	0
537	0	0	0
538	0	0	0
539	0	0	0
540	0	0	0
541	0	0	0
542	252	242	239
543	248	227	233
544	238	207	223
545	242	214	228
546	243	217	227
547	240	212	224
548	237	208	222
549	234	205	222
550	233	203	223
551	232	200	222
552	230	196	220
553	234	197	221
554	233	194	217
555	235	197	218
556	239	200	219
557	244	203	222
558	243	201	221
559	243	206	222
560	0	0	0
561	0	0	0
562	0	0	0
563	0	0	0
564	0	0	0
565	0	0	0
566	0	0	0
567	0	0	0
568	0	0	0
569	0	0	0
570	0	0	0
571	0	0	0
572	0	0	0
573	0	0	0
574	0	0	0
575	0	0	0
576	0	0	0
577	0	0	0
578	0	0	0
579	0	0	0
580	0	0	0
581	0	0	0
582	0	0	0
583	248	239	236
584	244	224	230
585	238	211	225
586	241	217	230
587	240	215	226
588	240	213	224
589	236	205	222
590	234	203	222
591	233	201	223
592	232	199	223
593	226	191	218
594	224	189	216
595	230	194	218
596	240	201	223
597	240	196	219
598	243	197	219
599	238	191	216
600	237	195	217
601	239	199	218
602	0	0	0
603	0	0	0
604	0	0	0
605	0	0	0
606	0	0	0
607	0	0	0
608	0	0	0
609	0	0	0
610	0	0	0
611	0	0	0
612	0	0	0
613	0	0	0
614	0	0	0
615	0	0	0
616	0	0	0
617	0	0	0
618	0	0	0
619	0	0	0
620	0	0	0
621	0	0	0
622	0	0	0
623	0	0	0
624	246	236	235
625	245	227	232
626	238	214	225
627	237	214	226
628	236	213	225
629	234	206	221
630	231	199	218
631	234	201	221
632	234	200	222
633	230	194	220
634	225	187	218
635	229	193	222
636	233	197	223
637	237	194	221
638	238	190	218
639	239	188	218
640	233	181	214
641	234	188	216
642	236	192	216
643	0	0	0
644	0	0	0
645	0	0	0
646	0	0	0
647	0	0	0
648	0	0	0
649	0	0	0
650	0	0	0
651	0	0	0
652	0	0	0
653	0	0	0
654	0	0	0
655	0	0	0
656	0	0	0
657	0	0	0
658	0	0	0
659	0	0	0
660	0	0	0
661	0	0	0
662	0	0	0
663	0	0	0
664	0	0	0
665	241	232	232
666	241	223	229
667	239	216	226
668	239	217	227
669	235	213	225
670	230	205	220
671	233	206	223
672	242	211	230
673	229	189	217
674	223	183	214
675	232	194	225
676	241	202	231
677	230	185	218
678	227	179	213
679	239	192	222
680	243	192	224
681	235	181	217
682	236	187	220
683	239	192	220
684	247	202	224
685	0	0	0
686	0	0	0
687	0	0	0
688	0	0	0
689	0	0	0
690	0	0	0
691	0	0	0
692	0	0	0
693	0	0	0
694	0	0	0
695	0	0	0
696	0	0	0
697	0	0	0
698	0	0	0
699	0	0	0
700	0	0	0
701	0	0	0
702	0	0	0
703	0	0	0
704	0	0	0
705	0	0	0
706	240	230	229
707	245	228	232
708	243	221	229
709	241	219	228
710	238	215	226
711	237	214	226
712	240	214	230
713	232	197	222
714	219	176	212
715	227	187	222
716	234	197	227
717	228	184	218
718	218	168	208
719	228	181	216
720	240	193	223
721	238	186	219
722	232	176	215
723	237	185	222
724	239	190	222
725	244	196	223
726	237	192	214
727	0	0	0
728	0	0	0
729	0	0	0
730	0	0	0
731	0	0	0
732	0	0	0
733	0	0	0
734	0	0	0
735	0	0	0
736	0	0	0
737	0	0	0
738	0	0	0
739	0	0	0
740	0	0	0
741	0	0	0
742	0	0	0
743	0	0	0
744	0	0	0
745	0	0	0
746	0	0	0
747	240	227	228
748	247	226	232
749	244	217	228
750	239	214	226
751	241	214	227
752	245	216	230
753	236	203	224
754	217	180	210
755	222	186	220
756	234	199	232
757	228	190	223
758	217	175	211
759	223	179	217
760	238	195	228
761	238	190	223
762	234	181	216
763	238	183	221
764	247	194	229
765	239	186	221
766	238	189	220
767	234	189	214
768	0	0	0
769	0	0	0
770	0	0	0
771	0	0	0
772	0	0	0
773	0	0	0
774	0	0	0
775	0	0	0
776	0	0	0
777	0	0	0
778	0	0	0
779	0	0	0
780	0	0	0
781	0	0	0
782	0	0	0
783	0	0	0
784	0	0	0
785	0	0	0
786	0	0	0
787	0	0	0
788	239	224	226
789	244	221	228
790	240	212	224
791	238	211	225
792	239	211	227
793	233	200	221
794	223	187	213
795	224	191	218
796	228	196	226
797	226	192	224
798	221	183	219
799	223	186	221
800	228	190	224
801	232	189	224
802	233	185	222
803	236	186	223
804	240	188	223
805	241	186	222
806	235	178	215
807	237	185	218
808	235	186	215
809	0	0	0
810	0	0	0
811	0	0	0
812	0	0	0
813	0	0	0
814	0	0	0
815	0	0	0
816	0	0	0
817	0	0	0
818	0	0	0
819	0	0	0
820	0	0	0
821	0	0	0
822	0	0	0
823	0	0	0
824	0	0	0
825	0	0	0
826	0	0	0
827	0	0	0
828	0	0	0
829	240	224	227
830	241	219	227
831	238	213	225
832	240	214	228
833	237	211	227
834	223	195	217
835	220	191	216
836	230	201	226
837	225	191	222
838	220	184	218
839	221	184	221
840	225	189	225
841	223	184	221
842	225	181	220
843	230	184	223
844	233	185	223
845	235	184	220
846	239	184	220
847	239	181	218
848	243	189	223
849	236	181	215
850	0	0	0
851	0	0	0
852	0	0	0
853	0	0	0
854	0	0	0
855	0	0	0
856	0	0	0
857	0	0	0
858	0	0	0
859	0	0	0
860	0	0	0
861	0	0	0
862	0	0	0
863	0	0	0
864	0	0	0
865	0	0	0
866	0	0	0
867	0	0	0
868	0	0	0
869	249	237	235
870	244	227	230
871	240	220	228
872	237	214	226
873	239	214	229
874	236	210	226
875	226	202	221
876	224	199	221
877	226	195	221
878	221	186	218
879	222	187	221
880	224	188	224
881	222	184	223
882	219	177	219
883	224	181	221
884	228	183	223
885	228	181	220
886	231	180	219
887	237	182	220
888	239	180	220
889	241	181	220
890	235	173	213
891	248	194	225
892	0	0	0
893	0	0	0
894	0	0	0
895	0	0	0
896	0	0	0
897	0	0	0
898	0	0	0
899	0	0	0
900	0	0	0
901	0	0	0
902	0	0	0
903	0	0	0
904	0	0	0
905	0	0	0
906	0	0	0
907	0	0	0
908	0	0	0
909	252	246	240
910	253	238	237
911	241	219	226
912	231	209	220
913	234	214	226
914	239	215	230
915	234	207	225
916	228	201	222
917	224	196	220
918	221	188	218
919	221	186	220
920	226	189	225
921	226	188	225
922	222	182	222
923	218	176	219
924	222	179	221
925	231	189	227
926	232	188	225
927	231	181	220
928	235	182	220
929	243	186	224
930	251	190	228
931	239	171	215
932	250	191	226
933	241	190	217
934	0	0	0
935	0	0	0
936	0	0	0
937	0	0	0
938	0	0	0
939	0	0	0
940	0	0	0
941	0	0	0
942	0	0	0
943	0	0	0
944	0	0	0
945	0	0	0
946	0	0	0
947	0	0	0
948	0	0	0
949	0	0	0
950	252	243	237
951	248	229	230
952	237	211	220
953	237	214	224
954	241	219	231
955	239	213	230
956	233	204	224
957	225	196	220
958	221	190	218
959	220	187	220
960	220	185	222
961	225	187	226
962	225	185	222
963	220	179	219
964	217	175	218
965	226	185	225
966	235	195	230
967	234	188	224
968	232	181	219
969	236	184	221
970	243	188	224
971	241	177	217
972	230	159	207
973	240	176	217
974	233	177	212
975	0	0	0
976	0	0	0
977	0	0	0
978	0	0	0
979	0	0	0
980	0	0	0
981	0	0	0
982	0	0	0
983	0	0	0
984	0	0	0
985	0	0	0
986	0	0	0
987	0	0	0
988	0	0	0
989	0	0	0
990	0	0	0
991	252	240	236
992	243	223	226
993	238	211	221
994	247	219	230
995	248	218	233
996	242	209	230
997	231	198	222
998	218	188	215
999	220	192	220
1000	221	191	223
1001	222	189	226
1002	227	191	229
1003	222	182	220
1004	217	177	215
1005	223	182	222
1006	234	194	231
1007	237	192	229
1008	235	185	223
1009	234	181	219
1010	236	183	220
1011	238	184	219
1012	231	171	211
1013	231	168	211
1014	246	187	225
1015	238	180	215
1016	0	0	0
1017	0	0	0
1018	0	0	0
1019	0	0	0
1020	0	0	0
1021	0	0	0
1022	0	0	0
1023	0	0	0
1024	0	0	0
1025	0	0	0
1026	0	0	0
1027	0	0	0
1028	0	0	0
1029	0	0	0
1030	0	0	0
1031	252	242	237
1032	249	235	233
1033	242	222	227
1034	238	210	222
1035	245	213	229
1036	246	211	230
1037	239	202	225
1038	228	191	218
1039	225	194	221
1040	227	198	225
1041	226	196	226
1042	225	192	228
1043	223	187	225
1044	219	179	217
1045	224	185	221
1046	230	190	227
1047	234	190	228
1048	236	189	228
1049	237	185	224
1050	235	180	219
1051	236	181	218
1052	238	182	219
1053	238	181	218
1054	238	179	218
1055	248	187	224
1056	0	0	0
1057	0	0	0
1058	0	0	0
1059	0	0	0
1060	0	0	0
1061	0	0	0
1062	0	0	0
1063	0	0	0
1064	0	0	0
1065	0	0	0
1066	0	0	0
1067	0	0	0
1068	0	0	0
1069	0	0	0
1070	0	0	0
1071	255	254	243
1072	251	243	236
1073	245	231	231
1074	240	219	226
1075	240	215	226
1076	246	216	231
1077	245	211	230
1078	238	202	225
1079	237	201	225
1080	241	207	232
1081	230	193	224
1082	223	187	221
1083	221	186	223
1084	215	179	218
1085	221	185	221
1086	234	194	228
1087	232	186	225
1088	233	184	225
1089	238	188	229
1090	237	184	224
1091	239	184	221
1092	243	186	222
1093	241	181	219
1094	243	181	220
1095	245	179	220
1096	253	187	226
1097	0	0	0
1098	0	0	0
1099	0	0	0
1100	0	0	0
1101	0	0	0
1102	0	0	0
1103	0	0	0
1104	0	0	0
1105	0	0	0
1106	0	0	0
1107	0	0	0
1108	0	0	0
1109	0	0	0
1110	0	0	0
1111	254	251	244
1112	255	255	244
1113	249	241	233
1114	244	229	229
1115	245	225	230
1116	245	220	230
1117	246	216	230
1118	244	211	228
1119	243	209	228
1120	244	209	230
1121	238	199	226
1122	228	185	219
1123	226	185	222
1124	225	185	225
1125	228	190	229
1126	233	195	229
1127	234	189	226
1128	232	181	225
1129	237	185	228
1130	240	188	229
1131	238	185	224
1132	240	185	221
1133	240	181	218
1134	240	177	216
1135	245	178	219
1136	247	177	220
1137	247	173	219
1138	234	158	206
1139	247	181	220
1140	0	0	0
1141	0	0	0
1142	0	0	0
1143	0	0	0
1144	0	0	0
1145	0	0	0
1146	0	0	0
1147	0	0	0
1148	0	0	0
1149	0	0	0
1150	0	0	0
1151	0	0	0
1152	255	255	248
1153	254	247	239
1154	241	230	226
1155	238	221	224
1156	242	219	227
1157	245	218	229
1158	242	212	226
1159	243	212	227
1160	244	211	229
1161	239	202	226
1162	232	191	221
1163	231	187	221
1164	235	191	227
1165	236	189	229
1166	243	197	235
1167	240	190	229
1168	233	180	221
1169	236	182	225
1170	241	187	229
1171	240	186	225
1172	235	182	219
1173	241	188	221
1174	243	185	219
1175	248	185	221
1176	255	188	226
1177	248	173	218
1178	245	169	217
1179	240	163	214
1180	255	189	230
1181	247	186	220
1182	0	0	0
1183	0	0	0
1184	0	0	0
1185	0	0	0
1186	0	0	0
1187	0	0	0
1188	0	0	0
1189	0	0	0
1190	0	0	0
1191	0	0	0
1192	0	0	0
1193	251	245	240
1194	248	237	234
1195	241	226	228
1196	238	217	225
1197	245	219	230
1198	246	217	230
1199	243	214	228
1200	244	213	229
1201	239	204	226
1202	235	195	222
1203	234	193	223
1204	234	189	222
1205	241	192	227
1206	242	190	228
1207	241	186	226
1208	238	181	224
1209	238	182	224
1210	240	183	224
1211	246	188	226
1212	246	188	224
1213	247	192	223
1214	252	198	226
1215	254	195	225
1216	255	195	229
1217	254	183	222
1218	245	167	212
1219	246	169	215
1220	242	164	215
1221	249	176	223
1222	240	174	213
1223	0	0	0
1224	0	0	0
1225	0	0	0
1226	0	0	0
1227	0	0	0
1228	0	0	0
1229	0	0	0
1230	0	0	0
1231	0	0	0
1232	0	0	0
1233	255	255	246
1234	254	250	242
1235	247	234	234
1236	246	226	232
1237	244	219	229
1238	246	218	231
1239	242	212	227
1240	237	207	224
1241	243	214	230
1242	240	206	226
1243	236	197	224
1244	234	194	224
1245	234	188	221
1246	246	193	227
1247	244	186	224
1248	237	178	219
1249	243	187	227
1250	245	189	228
1251	247	187	226
1252	255	194	229
1253	253	186	222
1254	255	190	223
1255	253	186	220
1256	253	182	217
1257	255	190	224
1258	250	175	215
1259	243	163	209
1260	247	167	215
1261	243	165	216
1262	245	174	221
1263	238	172	214
1264	0	0	0
1265	0	0	0
1266	0	0	0
1267	0	0	0
1268	0	0	0
1269	0	0	0
1270	0	0	0
1271	0	0	0
1272	0	0	0
1273	0	0	0
1274	255	255	244
1275	250	244	238
1276	245	229	232
1277	249	226	234
1278	246	218	229
1279	243	213	226
1280	239	207	225
1281	243	213	230
1282	248	219	232
1283	243	209	227
1284	239	201	226
1285	236	194	224
1286	237	188	223
1287	247	188	226
1288	244	181	222
1289	246	188	225
1290	251	196	229
1291	248	191	225
1292	251	190	226
1293	255	187	225
1294	253	179	218
1295	252	176	215
1296	250	172	213
1297	255	178	217
1298	255	185	219
1299	251	172	211
1300	244	161	210
1301	246	165	216
1302	241	162	213
1303	242	170	217
1304	238	171	214
1305	254	195	227
1306	0	0	0
1307	0	0	0
1308	0	0	0
1309	0	0	0
1310	0	0	0
1311	0	0	0
1312	0	0	0
1313	0	0	0
1314	0	0	0
1315	255	254	242
1316	243	233	230
1317	244	227	231
1318	250	224	233
1319	247	216	227
1320	243	210	224
1321	249	217	232
1322	255	225	239
1323	245	208	226
1324	235	195	218
1325	240	198	225
1326	241	193	226
1327	242	188	224
1328	246	185	224
1329	244	181	221
1330	251	189	226
1331	251	191	224
1332	246	185	218
1333	254	192	225
1334	255	188	224
1335	252	176	216
1336	252	175	215
1337	255	178	218
1338	255	184	221
1339	255	177	215
1340	249	165	209
1341	244	159	211
1342	241	160	213
1343	245	170	218
1344	251	180	224
1345	243	171	218
1346	255	196	231
1347	251	193	218
1348	0	0	0
1349	0	0	0
1350	0	0	0
1351	0	0	0
1352	0	0	0
1353	0	0	0
1354	0	0	0
1355	0	0	0
1356	251	244	236
1357	246	233	230
1358	246	226	229
1359	250	223	231
1360	247	215	227
1361	252	220	231
1362	255	226	236
1363	251	212	229
1364	241	196	220
1365	242	198	225
1366	247	200	230
1367	246	194	228
1368	245	187	224
1369	244	183	222
1370	243	179	220
1371	250	185	223
1372	252	187	220
1373	254	190	220
1374	255	196	225
1375	255	186	220
1376	252	175	215
1377	255	179	218
1378	255	181	218
1379	255	175	215
1380	254	170	215
1381	251	165	215
1382	245	158	213
1383	248	169	221
1384	252	178	225
1385	248	174	221
1386	241	165	215
1387	248	176	220
1388	241	175	209
1389	0	0	0
1390	0	0	0
1391	0	0	0
1392	0	0	0
1393	0	0	0
1394	0	0	0
1395	0	0	0
1396	0	0	0
1397	255	244	238
1398	251	234	232
1399	247	224	228
1400	247	218	228
1401	249	216	228
1402	255	224	235
1403	255	218	230
1404	245	201	221
1405	246	199	225
1406	253	203	233
1407	245	190	226
1408	239	181	220
1409	244	187	223
1410	241	181	220
1411	247	185	224
1412	255	194	229
1413	254	185	219
1414	255	189	220
1415	255	182	216
1416	249	170	209
1417	254	176	216
1418	255	179	219
1419	255	175	214
1420	253	169	212
1421	254	169	216
1422	251	163	216
1423	253	168	220
1424	255	180	229
1425	255	179	225
1426	249	173	220
1427	247	171	221
1428	254	183	227
1429	0	0	0
1430	0	0	0
1431	252	208	224
1432	0	0	0
1433	0	0	0
1434	0	0	0
1435	0	0	0
1436	0	0	0
1437	254	243	239
1438	255	243	238
1439	254	233	233
1440	251	224	230
1441	252	222	232
1442	252	219	233
1443	251	213	229
1444	247	206	222
1445	243	200	220
1446	245	197	223
1447	241	187	221
1448	234	174	215
1449	239	181	221
1450	244	186	225
1451	244	187	224
1452	250	191	226
1453	254	187	224
1454	252	179	216
1455	248	172	211
1456	245	166	208
1457	251	171	213
1458	255	177	219
1459	255	176	219
1460	255	172	215
1461	255	172	217
1462	255	170	219
1463	255	175	223
1464	255	179	225
1465	255	179	223
1466	255	178	221
1467	254	177	221
1468	251	175	224
1469	247	174	223
1470	236	165	210
1471	246	186	218
1472	248	198	219
1473	255	216	226
1474	0	0	0
1475	0	0	0
1476	0	0	0
1477	255	250	244
1478	255	249	243
1479	253	234	234
1480	251	225	230
1481	250	219	229
1482	252	218	231
1483	252	216	232
1484	244	207	225
1485	242	205	223
1486	240	199	220
1487	240	196	222
1488	234	185	217
1489	235	183	220
1490	245	192	228
1491	245	191	226
1492	247	192	226
1493	252	193	227
1494	255	189	224
1495	252	179	217
1496	245	171	211
1497	248	172	214
1498	255	180	222
1499	255	178	222
1500	255	176	222
1501	249	159	211
1502	250	159	212
1503	250	159	212
1504	253	163	214
1505	255	173	219
1506	255	173	217
1507	255	172	215
1508	254	172	217
1509	247	168	218
1510	237	164	214
1511	245	182	222
1512	255	206	234
1513	247	191	218
1514	255	210	225
1515	255	219	227
1516	0	0	0
1517	0	0	0
1518	255	254	244
1519	254	240	236
1520	250	227	230
1521	252	222	231
1522	250	215	229
1523	252	215	231
1524	250	213	229
1525	244	208	225
1526	243	207	227
1527	242	203	226
1528	240	198	223
1529	238	195	224
1530	241	194	227
1531	248	197	232
1532	250	196	228
1533	252	195	226
1534	255	196	228
1535	255	187	222
1536	250	178	215
1537	249	176	215
1538	252	178	219
1539	255	177	222
1540	255	174	221
1541	249	159	212
1542	240	143	206
1543	247	150	212
1544	244	148	206
1545	252	160	211
1546	255	171	218
1547	255	169	215
1548	254	168	213
1549	252	167	214
1550	245	162	214
1551	249	180	224
1552	255	198	231
1553	254	192	224
1554	242	179	213
1555	250	196	222
1556	250	205	223
1557	0	0	0
1558	0	0	0
1559	255	244	238
1560	250	231	231
1561	249	222	229
1562	250	217	230
1563	250	213	231
1564	250	212	230
1565	248	211	228
1566	245	207	226
1567	245	206	229
1568	243	201	228
1569	239	194	222
1570	236	191	221
1571	240	191	227
1572	249	196	231
1573	249	190	225
1574	253	190	225
1575	252	185	223
1576	246	174	215
1577	253	181	219
1578	255	183	221
1579	255	179	221
1580	255	176	220
1581	255	175	220
1582	251	161	213
1583	252	158	217
1584	255	165	224
1585	244	146	207
1586	251	158	212
1587	255	173	221
1588	255	171	218
1589	249	160	209
1590	247	158	209
1591	251	169	218
1592	255	188	230
1593	255	189	225
1594	249	181	218
1595	246	180	218
1596	254	197	227
1597	247	197	222
1598	0	0	0
1599	0	0	0
1600	0	0	0
1601	247	224	229
1602	245	214	226
1603	248	213	229
1604	247	208	228
1605	246	208	228
1606	246	208	228
1607	245	205	227
1608	245	203	228
1609	243	198	227
1610	238	192	222
1611	239	191	224
1612	242	191	228
1613	244	188	228
1614	244	182	223
1615	246	179	221
1616	246	175	221
1617	251	180	224
1618	255	187	228
1619	255	182	223
1620	255	178	220
1621	255	176	219
1622	255	175	218
1623	255	170	216
1624	255	167	219
1625	251	155	215
1626	239	139	205
1627	252	158	217
1628	255	172	221
1629	253	161	212
1630	244	151	206
1631	252	164	216
1632	255	174	222
1633	252	175	220
1634	250	176	219
1635	249	177	218
1636	245	176	217
1637	246	184	220
1638	241	186	217
1639	249	206	226
1640	0	0	0
1641	0	0	0
1642	0	0	0
1643	249	222	232
1644	251	220	233
1645	247	211	229
1646	247	211	230
1647	252	216	234
1648	253	214	234
1649	249	206	231
1650	246	201	229
1651	241	192	225
1652	245	193	228
1653	246	192	230
1654	244	186	227
1655	248	188	228
1656	249	184	226
1657	252	185	229
1658	255	191	233
1659	255	184	227
1660	255	178	221
1661	255	179	221
1662	255	177	219
1663	251	164	210
1664	249	159	208
1665	254	163	215
1666	247	152	211
1667	252	158	219
1668	255	177	232
1669	255	166	221
1670	250	156	211
1671	246	152	209
1672	253	165	218
1673	255	176	224
1674	254	176	222
1675	253	179	222
1676	251	180	222
1677	249	181	221
1678	250	189	225
1679	248	192	224
1680	255	215	236
1681	251	211	227
1682	0	0	0
1683	248	226	232
1684	255	231	236
1685	253	224	234
1686	250	215	231
1687	254	220	236
1688	255	225	239
1689	253	215	234
1690	249	207	231
1691	244	199	228
1692	240	190	225
1693	245	192	229
1694	245	190	229
1695	246	190	229
1696	249	191	230
1697	251	190	229
1698	254	190	229
1699	253	184	225
1700	252	178	221
1701	255	179	222
1702	255	179	222
1703	252	167	215
1704	245	154	208
1705	249	159	213
1706	254	164	219
1707	255	169	224
1708	255	174	227
1709	255	168	224
1710	253	159	218
1711	251	157	217
1712	246	152	212
1713	251	164	218
1714	255	175	225
1715	255	177	224
1716	254	179	223
1717	255	184	225
1718	252	185	224
1719	252	191	227
1720	251	194	226
1721	251	197	227
1722	244	195	222
1723	0	0	0
1724	0	0	0
1725	250	223	232
1726	250	216	229
1727	254	217	233
1728	255	222	238
1729	255	217	234
1730	245	204	226
1731	246	205	230
1732	242	198	228
1733	238	189	226
1734	241	190	229
1735	242	189	228
1736	244	189	228
1737	247	192	229
1738	249	190	227
1739	253	190	227
1740	254	185	225
1741	255	183	224
1742	255	184	226
1743	251	169	217
1744	245	157	211
1745	252	164	218
1746	255	168	224
1747	255	168	225
1748	255	173	229
1749	255	167	223
1750	255	161	220
1751	248	151	216
1752	246	149	216
1753	249	158	218
1754	254	169	223
1755	255	184	232
1756	255	186	231
1757	253	177	223
1758	255	182	226
1759	248	177	221
1760	249	183	224
1761	252	193	229
1762	251	197	229
1763	247	196	227
1764	0	0	0
1765	0	0	0
1766	0	0	0
1767	249	216	233
1768	252	216	233
1769	247	210	229
1770	243	205	225
1771	242	203	226
1772	244	204	232
1773	240	196	230
1774	236	188	227
1775	239	189	229
1776	239	187	227
1777	245	191	229
1778	248	193	229
1779	249	191	227
1780	254	192	230
1781	255	188	228
1782	255	184	225
1783	249	170	216
1784	241	155	209
1785	249	164	218
1786	255	171	226
1787	255	172	228
1788	255	171	229
1789	255	167	227
1790	254	161	222
1791	250	154	219
1792	243	143	214
1793	249	155	222
1794	252	163	225
1795	255	175	229
1796	255	189	234
1797	255	179	224
1798	250	172	220
1799	248	171	221
1800	242	166	217
1801	249	180	226
1802	252	190	230
1803	248	191	228
1804	0	0	0
1805	0	0	0
1806	0	0	0
1807	0	0	0
1808	250	222	238
1809	245	215	232
1810	235	206	224
1811	238	209	227
1812	244	212	232
1813	244	206	233
1814	240	198	231
1815	241	197	232
1816	243	197	234
1817	242	193	231
1818	250	198	234
1819	248	192	229
1820	248	189	227
1821	255	194	233
1822	255	190	230
1823	255	184	225
1824	248	169	216
1825	247	166	217
1826	255	174	226
1827	255	177	231
1828	255	178	232
1829	255	171	229
1830	255	167	228
1831	250	155	221
1832	246	147	217
1833	244	146	218
1834	249	157	225
1835	255	171	232
1836	255	184	236
1837	255	185	231
1838	252	175	221
1839	252	177	224
1840	251	177	225
1841	253	181	228
1842	255	196	238
1843	251	188	230
1844	0	0	0
1845	0	0	0
1846	0	0	0
1847	0	0	0
1848	0	0	0
1849	0	0	0
1850	241	215	231
1851	238	214	230
1852	241	218	234
1853	242	212	232
1854	241	206	230
1855	242	205	231
1856	242	203	232
1857	241	199	230
1858	241	195	230
1859	243	192	230
1860	243	187	227
1861	249	191	230
1862	255	196	235
1863	255	189	231
1864	255	184	226
1865	253	179	224
1866	252	175	224
1867	255	179	229
1868	255	181	232
1869	255	173	228
1870	254	167	225
1871	249	157	220
1872	241	144	214
1873	243	147	217
1874	240	145	218
1875	249	162	228
1876	255	175	233
1877	255	178	232
1878	255	181	230
1879	255	181	228
1880	255	182	227
1881	255	187	230
1882	255	192	233
1883	255	188	230
1884	246	181	224
1885	0	0	0
1886	0	0	0
1887	0	0	0
1888	0	0	0
1889	0	0	0
1890	0	0	0
1891	244	220	234
1892	244	222	236
1893	240	216	233
1894	236	207	228
1895	238	208	230
1896	238	206	229
1897	239	204	229
1898	239	200	228
1899	242	201	232
1900	241	197	231
1901	242	192	230
1902	251	198	235
1903	255	196	235
1904	255	189	232
1905	253	182	226
1906	251	177	223
1907	254	180	228
1908	255	184	232
1909	255	180	230
1910	253	172	225
1911	255	171	226
1912	249	160	222
1913	244	153	219
1914	244	155	223
1915	250	166	230
1916	255	183	241
1917	255	181	237
1918	255	185	236
1919	255	181	232
1920	255	181	230
1921	251	178	226
1922	254	183	229
1923	253	185	229
1924	247	180	225
1925	248	185	228
1926	0	0	0
1927	0	0	0
1928	0	0	0
1929	0	0	0
1930	0	0	0
1931	0	0	0
1932	248	227	238
1933	240	218	233
1934	237	212	231
1935	239	213	234
1936	240	212	232
1937	237	208	230
1938	239	207	230
1939	242	207	232
1940	244	207	233
1941	243	202	232
1942	245	199	234
1943	253	199	237
1944	255	197	236
1945	255	190	232
1946	253	182	227
1947	255	184	229
1948	255	187	232
1949	255	181	230
1950	254	177	227
1951	254	174	226
1952	255	173	226
1953	252	168	225
1954	247	161	224
1955	254	174	235
1956	255	185	242
1957	255	184	240
1958	255	183	237
1959	255	181	234
1960	252	178	231
1961	249	176	229
1962	246	173	227
1963	248	177	230
1964	247	179	230
1965	247	183	231
1966	0	0	0
1967	0	0	0
1968	0	0	0
1969	0	0	0
1970	0	0	0
1971	0	0	0
1972	0	0	0
1973	0	0	0
1974	230	206	224
1975	237	215	233
1976	242	218	237
1977	237	209	230
1978	232	204	225
1979	238	210	231
1980	243	211	233
1981	243	206	230
1982	242	202	230
1983	244	196	231
1984	254	198	236
1985	255	192	233
1986	252	184	227
1987	254	185	229
1988	255	186	231
1989	255	187	232
1990	254	181	230
1991	255	181	232
1992	255	178	230
1993	252	173	226
1994	248	167	224
1995	250	170	229
1996	255	184	240
1997	255	187	241
1998	255	187	239
1999	255	189	240
2000	255	187	238
2001	250	178	232
2002	246	175	230
2003	247	180	233
2004	251	184	237
2005	249	185	237
2006	248	190	238
2007	0	0	0
2008	0	0	0
2009	0	0	0
2010	0	0	0
2011	0	0	0
2012	0	0	0
2013	0	0	0
2014	0	0	0
2015	0	0	0
2016	240	221	236
2017	238	214	232
2018	234	206	228
2019	237	210	230
2020	242	216	233
2021	242	210	230
2022	242	205	229
2023	241	198	228
2024	242	192	228
2025	248	191	230
2026	250	185	228
2027	252	186	229
2028	253	186	229
2029	254	186	229
2030	255	187	231
2031	255	186	233
2032	255	187	238
2033	255	182	236
2034	252	176	229
2035	252	178	231
2036	254	180	236
2037	255	187	241
2038	255	190	241
2039	255	190	240
2040	255	193	241
2041	252	183	234
2042	244	174	229
2043	244	179	233
2044	246	183	235
2045	251	189	239
2046	250	190	239
2047	249	194	241
2048	0	0	0
2049	0	0	0
2050	0	0	0
2051	0	0	0
2052	0	0	0
2053	0	0	0
2054	0	0	0
2055	0	0	0
2056	0	0	0
2057	0	0	0
2058	234	210	227
2059	239	214	233
2060	249	222	239
2061	250	221	237
2062	244	212	231
2063	239	202	228
2064	240	196	228
2065	241	192	229
2066	244	188	229
2067	250	191	232
2068	254	193	234
2069	249	185	229
2070	248	184	227
2071	255	192	234
2072	255	192	236
2073	255	185	236
2074	252	180	234
2075	252	181	232
2076	253	183	234
2077	255	187	239
2078	255	193	244
2079	255	189	239
2080	255	191	239
2081	255	192	239
2082	243	180	230
2083	244	184	236
2084	248	190	241
2085	247	189	240
2086	255	196	245
2087	250	192	242
2088	246	195	242
2089	248	202	245
2090	0	0	0
2091	0	0	0
2092	0	0	0
2093	0	0	0
2094	0	0	0
2095	0	0	0
2096	0	0	0
2097	0	0	0
2098	0	0	0
2099	238	217	232
2100	243	221	236
2101	252	224	239
2102	253	222	237
2103	238	205	226
2104	232	195	225
2105	233	191	226
2106	233	186	227
2107	240	191	232
2108	246	194	235
2109	247	190	233
2110	243	183	228
2111	248	190	232
2112	255	198	237
2113	252	189	232
2114	249	181	231
2115	252	185	234
2116	252	186	234
2117	254	189	237
2118	255	193	240
2119	253	190	238
2120	249	185	235
2121	0	0	0
2122	0	0	0
2123	0	0	0
2124	0	0	0
2125	241	190	240
2126	241	189	240
2127	244	190	242
2128	240	186	238
2129	238	191	239
2130	0	0	0
2131	0	0	0
2132	0	0	0
2133	0	0	0
2134	0	0	0
2135	0	0	0
2136	0	0	0
2137	0	0	0
2138	0	0	0
2139	0	0	0
2140	0	0	0
2141	242	221	235
2142	252	224	238
2143	249	218	234
2144	231	200	222
2145	234	206	230
2146	233	201	231
2147	233	197	232
2148	241	203	239
2149	246	203	239
2150	247	199	238
2151	242	189	232
2152	250	197	238
2153	255	202	239
2154	250	192	233
2155	248	186	231
2156	251	190	234
2157	255	195	238
2158	255	199	242
2159	254	195	241
2160	248	190	238
2161	247	193	238
2162	243	192	236
2163	0	0	0
2164	0	0	0
2165	0	0	0
2166	0	0	0
2167	0	0	0
2168	0	0	0
2169	0	0	0
2170	0	0	0
2171	0	0	0
2172	0	0	0
2173	0	0	0
2174	0	0	0
2175	0	0	0
2176	0	0	0
2177	0	0	0
2178	0	0	0
2179	0	0	0
2180	0	0	0
2181	240	221	233
2182	243	223	235
2183	248	221	236
2184	245	215	233
2185	240	215	232
2186	241	219	237
2187	237	214	235
2188	237	210	236
2189	243	211	241
2190	247	211	241
2191	245	203	237
2192	240	193	233
2193	245	198	238
2194	251	204	241
2195	252	199	238
2196	249	193	234
2197	254	199	238
2198	255	203	240
2199	251	198	237
2200	246	194	238
2201	243	195	240
2202	242	197	240
2203	0	0	0
2204	0	0	0
2205	0	0	0
2206	0	0	0
2207	0	0	0
2208	0	0	0
2209	0	0	0
2210	0	0	0
2211	0	0	0
2212	0	0	0
2213	0	0	0
2214	0	0	0
2215	0	0	0
2216	0	0	0
2217	0	0	0
2218	0	0	0
2219	0	0	0
2220	0	0	0
2221	244	226	237
2222	244	226	237
2223	241	219	233
2224	240	214	231
2225	242	215	234
2226	241	217	235
2227	237	214	232
2228	232	207	228
2229	237	211	235
2230	243	213	239
2231	242	207	235
2232	237	198	231
2233	239	199	235
2234	243	204	240
2235	249	208	243
2236	253	206	242
2237	249	197	236
2238	253	203	240
2239	247	199	235
2240	0	0	0
2241	0	0	0
2242	0	0	0
2243	0	0	0
2244	0	0	0
2245	0	0	0
2246	0	0	0
2247	0	0	0
2248	0	0	0
2249	0	0	0
2250	0	0	0
2251	0	0	0
2252	0	0	0
2253	0	0	0
2254	0	0	0
2255	0	0	0
2256	0	0	0
2257	0	0	0
2258	0	0	0
2259	0	0	0
2260	0	0	0
2261	0	0	0
2262	0	0	0
2263	242	220	233
2264	238	214	231
2265	240	215	233
2266	241	216	236
2267	240	214	235
2268	237	211	233
2269	238	213	235
2270	242	217	239
2271	243	212	238
2272	240	206	234
2273	242	207	237
2274	243	209	241
2275	242	209	242
2276	246	212	242
2277	247	206	240
2278	243	198	236
2279	241	197	236
2280	0	0	0
2281	0	0	0
2282	0	0	0
2283	0	0	0
2284	0	0	0
2285	0	0	0
2286	0	0	0
2287	0	0	0
2288	0	0	0
2289	0	0	0
2290	0	0	0
2291	0	0	0
2292	0	0	0
2293	0	0	0
2294	0	0	0
2295	0	0	0
2296	0	0	0
2297	0	0	0
2298	0	0	0
2299	0	0	0
2300	0	0	0
2301	0	0	0
2302	0	0	0
2303	0	0	0
2304	0	0	0
2305	0	0	0
2306	0	0	0
2307	245	224	241
2308	247	223	241
2309	243	216	238
2310	246	219	241
2311	246	216	240
2312	243	210	237
2313	241	207	235
2314	241	207	237
2315	242	210	241
2316	239	209	241
2317	241	212	241
2318	236	203	235
2319	233	200	235
2320	0	0	0
2321	0	0	0
2322	0	0	0
2323	0	0	0
2324	0	0	0
2325	0	0	0
2326	0	0	0
2327	0	0	0
2328	0	0	0
2329	0	0	0
2330	0	0	0
2331	0	0	0
2332	0	0	0
2333	0	0	0
2334	0	0	0
2335	0	0	0
2336	0	0	0
2337	0	0	0
2338	0	0	0
2339	0	0	0
2340	0	0	0
2341	0	0	0
2342	0	0	0
2343	0	0	0
2344	0	0	0
2345	0	0	0
2346	0	0	0
2347	0	0	0
2348	0	0	0
2349	245	222	238
2350	243	216	236
2351	245	216	239
2352	244	213	239
2353	243	210	239
2354	239	207	237
2355	239	208	238
2356	237	209	239
2357	235	210	239
2358	236	212	240
2359	232	208	238
2360	0	0	0
2361	0	0	0
2362	0	0	0
2363	0	0	0
2364	0	0	0
2365	0	0	0
2366	0	0	0
2367	0	0	0
2368	0	0	0
2369	0	0	0
2370	0	0	0
2371	0	0	0
2372	0	0	0
2373	0	0	0
2374	0	0	0
2375	0	0	0
2376	0	0	0
2377	0	0	0
2378	0	0	0
2379	0	0	0
2380	0	0	0
2381	0	0	0
2382	0	0	0
2383	0	0	0
2384	0	0	0
2385	0	0	0
2386	0	0	0
2387	0	0	0
2388	0	0	0
2389	0	0	0
2390	0	0	0
2391	245	223	240
2392	249	224	244
2393	242	213	239
2394	238	209	237
2395	240	214	241
2396	239	215	241
2397	237	216	241
2398	235	217	241
2399	234	218	242
2400	0	0	0
2401	0	0	0
2402	0	0	0
2403	0	0	0
2404	0	0	0
2405	0	0	0
2406	0	0	0
2407	0	0	0
2408	0	0	0
2409	0	0	0
2410	0	0	0
2411	0	0	0
2412	0	0	0
2413	0	0	0
2414	0	0	0
2415	0	0	0
2416	0	0	0
2417	0	0	0
2418	0	0	0
2419	0	0	0
2420	0	0	0
2421	0	0	0
2422	0	0	0
2423	0	0	0
2424	0	0	0
2425	0	0	0
2426	0	0	0
2427	0	0	0
2428	0	0	0
2429	0	0	0
2430	0	0	0
2431	0	0	0
2432	251	233	246
2433	247	224	242
2434	239	211	236
2435	240	217	240
2436	0	0	0
2437	240	222	242
2438	238	223	241
2439	236	223	241
2440	0	0	0
2441	0	0	0
2442	0	0	0
2443	0	0	0
2444	0	0	0
2445	0	0	0
2446	0	0	0
2447	0	0	0
2448	0	0	0
2449	0	0	0
2450	0	0	0
2451	0	0	0
2452	0	0	0
2453	0	0	0
2454	0	0	0
2455	0	0	0
2456	0	0	0
2457	0	0	0
2458	0	0	0
2459	0	0	0
2460	0	0	0
2461	0	0	0
2462	0	0	0
2463	0	0	0
2464	0	0	0
2465	0	0	0
2466	0	0	0
2467	0	0	0
2468	0	0	0
2469	0	0	0
2470	0	0	0
2471	0	0	0
2472	0	0	0
2473	0	0	0
2474	246	223	241
2475	239	215	238
2476	0	0	0
2477	0	0	0
2478	0	0	0
2479	0	0	0
2480	0	0	0
2481	0	0	0
2482	0	0	0
2483	0	0	0
2484	0	0	0
2485	0	0	0
2486	0	0	0
2487	0	0	0
2488	0	0	0
2489	0	0	0
2490	0	0	0
2491	0	0	0
2492	0	0	0
2493	0	0	0
2494	0	0	0
2495	0	0	0
2496	0	0	0
2497	0	0	0
2498	0	0	0
2499	0	0	0
2500	0	0	0
2501	0	0	0
