 	R	G	B
1	0	0	0
2	0	0	0
3	0	0	0
4	0	0	0
5	0	0	0
6	0	0	0
7	0	0	0
8	0	0	0
9	0	0	0
10	0	0	0
11	0	0	0
12	255	244	234
13	0	0	0
14	0	0	0
15	0	0	0
16	0	0	0
17	0	0	0
18	0	0	0
19	0	0	0
20	0	0	0
21	0	0	0
22	0	0	0
23	0	0	0
24	0	0	0
25	0	0	0
26	0	0	0
27	0	0	0
28	0	0	0
29	0	0	0
30	0	0	0
31	0	0	0
32	0	0	0
33	0	0	0
34	0	0	0
35	0	0	0
36	0	0	0
37	0	0	0
38	0	0	0
39	0	0	0
40	0	0	0
41	0	0	0
42	0	0	0
43	0	0	0
44	0	0	0
45	0	0	0
46	0	0	0
47	0	0	0
48	0	0	0
49	0	0	0
50	0	0	0
51	0	0	0
52	251	231	226
53	255	237	230
54	252	235	226
55	0	0	0
56	0	0	0
57	0	0	0
58	0	0	0
59	0	0	0
60	0	0	0
61	0	0	0
62	0	0	0
63	0	0	0
64	0	0	0
65	0	0	0
66	0	0	0
67	0	0	0
68	0	0	0
69	0	0	0
70	0	0	0
71	0	0	0
72	0	0	0
73	0	0	0
74	0	0	0
75	0	0	0
76	0	0	0
77	0	0	0
78	0	0	0
79	0	0	0
80	0	0	0
81	0	0	0
82	0	0	0
83	0	0	0
84	0	0	0
85	0	0	0
86	0	0	0
87	0	0	0
88	0	0	0
89	0	0	0
90	0	0	0
91	252	217	224
92	250	221	223
93	252	226	226
94	254	229	227
95	250	227	223
96	253	239	229
97	0	0	0
98	0	0	0
99	0	0	0
100	0	0	0
101	0	0	0
102	0	0	0
103	0	0	0
104	0	0	0
105	0	0	0
106	0	0	0
107	0	0	0
108	0	0	0
109	0	0	0
110	0	0	0
111	0	0	0
112	0	0	0
113	0	0	0
114	0	0	0
115	0	0	0
116	0	0	0
117	0	0	0
118	0	0	0
119	0	0	0
120	0	0	0
121	0	0	0
122	0	0	0
123	0	0	0
124	0	0	0
125	0	0	0
126	0	0	0
127	0	0	0
128	0	0	0
129	0	0	0
130	0	0	0
131	255	221	233
132	253	214	224
133	255	220	227
134	252	218	225
135	252	219	224
136	253	225	224
137	255	238	231
138	255	240	231
139	0	0	0
140	0	0	0
141	0	0	0
142	0	0	0
143	0	0	0
144	0	0	0
145	0	0	0
146	0	0	0
147	0	0	0
148	0	0	0
149	0	0	0
150	0	0	0
151	0	0	0
152	0	0	0
153	0	0	0
154	0	0	0
155	0	0	0
156	0	0	0
157	0	0	0
158	0	0	0
159	0	0	0
160	0	0	0
161	0	0	0
162	0	0	0
163	0	0	0
164	0	0	0
165	0	0	0
166	0	0	0
167	0	0	0
168	0	0	0
169	0	0	0
170	0	0	0
171	0	0	0
172	254	212	227
173	250	206	221
174	251	208	222
175	248	206	220
176	252	214	224
177	252	220	222
178	250	221	219
179	249	223	220
180	255	235	227
181	0	0	0
182	0	0	0
183	0	0	0
184	0	0	0
185	0	0	0
186	0	0	0
187	0	0	0
188	0	0	0
189	0	0	0
190	0	0	0
191	0	0	0
192	0	0	0
193	0	0	0
194	0	0	0
195	0	0	0
196	0	0	0
197	0	0	0
198	0	0	0
199	0	0	0
200	0	0	0
201	0	0	0
202	0	0	0
203	0	0	0
204	0	0	0
205	0	0	0
206	0	0	0
207	0	0	0
208	0	0	0
209	0	0	0
210	0	0	0
211	0	0	0
212	255	215	231
213	255	214	229
214	251	204	221
215	252	207	223
216	250	205	222
217	253	214	224
218	254	220	223
219	250	220	220
220	250	223	221
221	255	236	230
222	253	235	224
223	0	0	0
224	0	0	0
225	0	0	0
226	0	0	0
227	0	0	0
228	0	0	0
229	0	0	0
230	0	0	0
231	0	0	0
232	0	0	0
233	0	0	0
234	0	0	0
235	0	0	0
236	0	0	0
237	0	0	0
238	0	0	0
239	0	0	0
240	0	0	0
241	0	0	0
242	0	0	0
243	0	0	0
244	0	0	0
245	0	0	0
246	0	0	0
247	0	0	0
248	0	0	0
249	0	0	0
250	0	0	0
251	0	0	0
252	255	213	232
253	255	216	233
254	254	208	226
255	248	199	219
256	251	203	221
257	249	202	218
258	255	213	225
259	255	220	226
260	252	221	224
261	252	223	224
262	255	227	225
263	251	226	220
264	0	0	0
265	0	0	0
266	0	0	0
267	0	0	0
268	0	0	0
269	0	0	0
270	0	0	0
271	0	0	0
272	0	0	0
273	0	0	0
274	0	0	0
275	0	0	0
276	0	0	0
277	0	0	0
278	0	0	0
279	0	0	0
280	0	0	0
281	0	0	0
282	0	0	0
283	0	0	0
284	0	0	0
285	0	0	0
286	0	0	0
287	0	0	0
288	0	0	0
289	0	0	0
290	0	0	0
291	0	0	0
292	250	205	228
293	253	209	230
294	255	211	231
295	252	204	225
296	252	202	222
297	254	206	224
298	249	200	219
299	255	212	226
300	253	211	223
301	249	211	220
302	252	219	224
303	255	223	225
304	251	221	219
305	0	0	0
306	0	0	0
307	0	0	0
308	0	0	0
309	0	0	0
310	0	0	0
311	0	0	0
312	0	0	0
313	0	0	0
314	0	0	0
315	0	0	0
316	0	0	0
317	0	0	0
318	0	0	0
319	0	0	0
320	0	0	0
321	0	0	0
322	0	0	0
323	0	0	0
324	0	0	0
325	0	0	0
326	0	0	0
327	0	0	0
328	0	0	0
329	0	0	0
330	0	0	0
331	0	0	0
332	0	0	0
333	244	197	221
334	250	203	228
335	254	206	230
336	255	207	229
337	255	205	225
338	252	202	223
339	248	196	220
340	253	202	224
341	249	201	220
342	248	207	220
343	252	215	222
344	254	217	221
345	250	215	217
346	0	0	0
347	0	0	0
348	0	0	0
349	0	0	0
350	0	0	0
351	0	0	0
352	0	0	0
353	0	0	0
354	0	0	0
355	0	0	0
356	0	0	0
357	0	0	0
358	0	0	0
359	0	0	0
360	0	0	0
361	0	0	0
362	0	0	0
363	0	0	0
364	0	0	0
365	0	0	0
366	0	0	0
367	0	0	0
368	0	0	0
369	0	0	0
370	0	0	0
371	0	0	0
372	0	0	0
373	0	0	0
374	252	208	230
375	255	216	237
376	251	200	227
377	252	200	226
378	253	202	225
379	251	199	222
380	251	197	223
381	255	204	228
382	247	196	219
383	248	203	220
384	253	212	222
385	255	214	220
386	251	212	216
387	254	224	221
388	0	0	0
389	0	0	0
390	0	0	0
391	0	0	0
392	0	0	0
393	0	0	0
394	0	0	0
395	0	0	0
396	0	0	0
397	0	0	0
398	0	0	0
399	0	0	0
400	0	0	0
401	0	0	0
402	0	0	0
403	0	0	0
404	0	0	0
405	0	0	0
406	0	0	0
407	0	0	0
408	0	0	0
409	0	0	0
410	0	0	0
411	0	0	0
412	0	0	0
413	0	0	0
414	0	0	0
415	255	219	239
416	255	207	231
417	245	191	221
418	251	197	226
419	254	201	226
420	254	200	225
421	253	198	223
422	253	197	224
423	247	191	220
424	251	201	224
425	255	210	225
426	255	213	222
427	254	211	217
428	254	216	218
429	255	222	222
430	255	230	226
431	0	0	0
432	0	0	0
433	0	0	0
434	0	0	0
435	0	0	0
436	0	0	0
437	0	0	0
438	0	0	0
439	0	0	0
440	0	0	0
441	0	0	0
442	0	0	0
443	0	0	0
444	0	0	0
445	0	0	0
446	0	0	0
447	0	0	0
448	0	0	0
449	0	0	0
450	0	0	0
451	0	0	0
452	0	0	0
453	0	0	0
454	0	0	0
455	0	0	0
456	255	215	236
457	252	202	229
458	249	195	225
459	255	203	231
460	255	198	227
461	255	198	227
462	251	189	221
463	251	189	221
464	251	189	222
465	255	200	227
466	255	204	224
467	255	205	221
468	252	200	213
469	255	207	216
470	254	208	217
471	255	215	220
472	253	214	213
473	0	0	0
474	0	0	0
475	0	0	0
476	0	0	0
477	0	0	0
478	0	0	0
479	0	0	0
480	0	0	0
481	0	0	0
482	0	0	0
483	0	0	0
484	0	0	0
485	0	0	0
486	0	0	0
487	0	0	0
488	0	0	0
489	0	0	0
490	0	0	0
491	0	0	0
492	0	0	0
493	0	0	0
494	247	219	236
495	250	217	237
496	253	215	237
497	255	212	237
498	255	205	233
499	252	198	228
500	255	197	229
501	254	193	225
502	250	186	222
503	246	179	218
504	251	184	222
505	250	184	221
506	252	190	222
507	253	194	220
508	252	191	215
509	248	187	209
510	250	190	210
511	248	191	210
512	247	193	208
513	244	193	203
514	252	209	210
515	0	0	0
516	0	0	0
517	0	0	0
518	0	0	0
519	0	0	0
520	0	0	0
521	0	0	0
522	0	0	0
523	0	0	0
524	0	0	0
525	0	0	0
526	0	0	0
527	0	0	0
528	0	0	0
529	0	0	0
530	0	0	0
531	0	0	0
532	0	0	0
533	0	0	0
534	242	222	237
535	255	228	245
536	252	215	238
537	254	213	238
538	255	208	236
539	251	200	231
540	250	195	229
541	255	196	230
542	252	189	225
543	248	183	221
544	253	188	226
545	255	194	231
546	252	185	222
547	255	191	224
548	255	193	223
549	255	191	219
550	251	185	213
551	254	190	215
552	250	188	212
553	248	189	210
554	250	196	210
555	255	213	218
556	255	210	211
557	0	0	0
558	0	0	0
559	0	0	0
560	0	0	0
561	0	0	0
562	0	0	0
563	0	0	0
564	0	0	0
565	0	0	0
566	0	0	0
567	0	0	0
568	0	0	0
569	0	0	0
570	0	0	0
571	0	0	0
572	0	0	0
573	0	0	0
574	0	0	0
575	0	0	0
576	243	216	236
577	242	205	232
578	245	203	233
579	244	198	228
580	246	196	228
581	248	193	229
582	254	193	231
583	252	187	225
584	255	193	230
585	255	199	234
586	255	195	232
587	255	187	224
588	255	189	224
589	255	192	225
590	255	186	220
591	252	181	216
592	252	183	216
593	248	181	211
594	250	189	213
595	254	197	216
596	255	199	215
597	0	0	0
598	0	0	0
599	0	0	0
600	0	0	0
601	0	0	0
602	0	0	0
603	0	0	0
604	0	0	0
605	0	0	0
606	0	0	0
607	0	0	0
608	0	0	0
609	0	0	0
610	0	0	0
611	0	0	0
612	0	0	0
613	0	0	0
614	0	0	0
615	0	0	0
616	0	0	0
617	0	0	0
618	244	220	241
619	248	219	243
620	243	204	233
621	249	205	237
622	246	191	232
623	254	192	235
624	252	184	227
625	255	191	232
626	254	181	225
627	254	177	223
628	249	170	217
629	250	173	218
630	255	187	225
631	255	181	220
632	252	176	216
633	252	178	216
634	251	180	213
635	255	190	217
636	255	198	221
637	255	199	220
638	248	185	206
639	0	0	0
640	0	0	0
641	0	0	0
642	0	0	0
643	0	0	0
644	0	0	0
645	0	0	0
646	0	0	0
647	0	0	0
648	0	0	0
649	0	0	0
650	0	0	0
651	0	0	0
652	0	0	0
653	0	0	0
654	0	0	0
655	0	0	0
656	0	0	0
657	0	0	0
658	0	0	0
659	246	233	245
660	239	218	238
661	236	205	233
662	0	0	0
663	235	182	228
664	244	182	231
665	243	174	223
666	244	169	221
667	241	160	216
668	243	159	217
669	240	154	213
670	249	168	221
671	255	181	226
672	255	176	221
673	252	172	216
674	255	178	219
675	255	181	217
676	255	190	220
677	255	197	222
678	255	185	212
679	244	172	202
680	252	186	211
681	255	198	214
682	255	198	210
683	253	197	207
684	255	208	211
685	0	0	0
686	0	0	0
687	0	0	0
688	0	0	0
689	0	0	0
690	0	0	0
691	0	0	0
692	0	0	0
693	0	0	0
694	0	0	0
695	0	0	0
696	0	0	0
697	0	0	0
698	0	0	0
699	0	0	0
700	243	236	244
701	234	220	235
702	233	211	236
703	0	0	0
704	0	0	0
705	245	194	240
706	241	179	230
707	246	177	231
708	239	160	222
709	242	160	224
710	247	165	226
711	255	179	234
712	254	174	226
713	253	169	221
714	252	167	218
715	255	174	220
716	255	173	216
717	255	181	218
718	254	176	211
719	245	165	202
720	254	178	211
721	255	194	220
722	255	186	212
723	254	187	210
724	253	189	209
725	255	199	212
726	251	195	202
727	0	0	0
728	0	0	0
729	0	0	0
730	0	0	0
731	0	0	0
732	0	0	0
733	0	0	0
734	0	0	0
735	0	0	0
736	0	0	0
737	0	0	0
738	0	0	0
739	0	0	0
740	0	0	0
741	0	0	0
742	235	226	237
743	0	0	0
744	0	0	0
745	0	0	0
746	234	189	235
747	231	175	229
748	232	166	227
749	226	150	219
750	238	162	229
751	244	167	228
752	246	166	226
753	245	162	222
754	251	164	223
755	252	162	219
756	251	162	216
757	250	161	211
758	248	159	207
759	245	156	202
760	254	170	210
761	255	182	216
762	255	177	210
763	250	171	206
764	251	175	208
765	250	177	206
766	249	178	204
767	243	175	198
768	251	191	205
769	0	0	0
770	0	0	0
771	0	0	0
772	0	0	0
773	0	0	0
774	0	0	0
775	0	0	0
776	0	0	0
777	0	0	0
778	0	0	0
779	0	0	0
780	0	0	0
781	0	0	0
782	0	0	0
783	0	0	0
784	0	0	0
785	0	0	0
786	230	204	238
787	232	196	239
788	224	177	232
789	222	166	229
790	225	164	231
791	241	177	241
792	238	166	230
793	242	166	229
794	242	158	225
795	251	162	228
796	250	156	221
797	249	156	217
798	255	164	219
799	255	163	216
800	248	155	208
801	255	169	215
802	255	169	212
803	251	164	206
804	252	168	209
805	253	172	212
806	249	169	207
807	250	171	207
808	251	176	208
809	255	192	215
810	255	195	211
811	0	0	0
812	0	0	0
813	0	0	0
814	0	0	0
815	0	0	0
816	0	0	0
817	0	0	0
818	0	0	0
819	0	0	0
820	0	0	0
821	0	0	0
822	0	0	0
823	0	0	0
824	0	0	0
825	0	0	0
826	0	0	0
827	229	210	241
828	225	195	239
829	217	176	234
830	223	178	240
831	227	175	240
832	233	172	240
833	231	162	231
834	233	156	227
835	234	149	223
836	245	152	226
837	245	147	219
838	251	156	222
839	255	165	226
840	255	158	219
841	248	149	210
842	251	154	211
843	250	155	210
844	251	158	210
845	252	162	211
846	249	160	209
847	246	157	206
848	251	167	211
849	253	173	211
850	253	177	210
851	251	180	207
852	255	191	211
853	0	0	0
854	0	0	0
855	0	0	0
856	0	0	0
857	0	0	0
858	0	0	0
859	0	0	0
860	0	0	0
861	0	0	0
862	0	0	0
863	0	0	0
864	0	0	0
865	0	0	0
866	0	0	0
867	0	0	0
868	230	216	242
869	223	199	239
870	218	186	239
871	227	189	247
872	231	184	246
873	239	183	248
874	233	163	236
875	232	157	232
876	240	158	233
877	254	163	237
878	249	149	224
879	255	158	229
880	255	159	228
881	253	153	221
882	252	150	216
883	255	155	218
884	252	152	216
885	254	156	216
886	255	161	216
887	253	160	213
888	248	155	209
889	253	164	214
890	255	171	216
891	255	176	215
892	250	172	208
893	255	183	211
894	254	189	210
895	0	0	0
896	255	202	214
897	0	0	0
898	0	0	0
899	0	0	0
900	0	0	0
901	0	0	0
902	0	0	0
903	0	0	0
904	0	0	0
905	0	0	0
906	0	0	0
907	0	0	0
908	0	0	0
909	234	222	241
910	228	209	241
911	223	196	242
912	226	193	247
913	229	188	246
914	229	174	241
915	224	157	233
916	231	159	236
917	239	160	235
918	246	155	231
919	242	141	219
920	246	145	221
921	248	147	222
922	252	149	223
923	251	147	220
924	252	147	219
925	250	146	217
926	255	153	220
927	255	157	218
928	253	154	214
929	248	150	209
930	251	157	213
931	254	165	217
932	250	163	212
933	244	159	203
934	247	167	205
935	247	172	203
936	254	189	210
937	255	207	219
938	255	207	216
939	0	0	0
940	0	0	0
941	0	0	0
942	0	0	0
943	0	0	0
944	0	0	0
945	0	0	0
946	0	0	0
947	0	0	0
948	0	0	0
949	0	0	0
950	239	229	243
951	237	218	244
952	225	197	240
953	222	191	243
954	223	187	243
955	221	173	238
956	230	172	243
957	242	178	250
958	243	168	242
959	248	161	237
960	246	151	228
961	250	155	231
962	251	151	229
963	255	155	231
964	249	142	221
965	250	143	220
966	255	150	224
967	255	158	227
968	252	147	216
969	249	144	211
970	250	149	213
971	252	157	216
972	255	165	220
973	252	163	215
974	251	165	212
975	255	174	214
976	252	175	210
977	255	191	217
978	255	194	214
979	253	194	210
980	255	205	216
981	255	210	218
982	0	0	0
983	0	0	0
984	0	0	0
985	0	0	0
986	0	0	0
987	0	0	0
988	0	0	0
989	0	0	0
990	0	0	0
991	246	237	248
992	238	219	243
993	225	197	238
994	220	193	242
995	221	189	245
996	226	187	247
997	233	185	248
998	234	176	245
999	237	167	241
1000	245	164	241
1001	243	154	233
1002	244	151	231
1003	245	148	230
1004	246	142	225
1005	239	130	214
1006	247	140	219
1007	254	148	223
1008	250	142	218
1009	242	132	208
1010	250	143	215
1011	252	148	217
1012	253	156	219
1013	255	164	221
1014	255	167	219
1015	255	168	217
1016	255	173	217
1017	254	174	216
1018	254	179	215
1019	252	182	211
1020	255	190	213
1021	255	201	216
1022	255	199	213
1023	254	200	214
1024	253	202	216
1025	0	0	0
1026	0	0	0
1027	0	0	0
1028	0	0	0
1029	0	0	0
1030	0	0	0
1031	0	0	0
1032	243	235	244
1033	233	214	238
1034	225	201	238
1035	222	198	243
1036	223	196	247
1037	227	193	248
1038	234	195	251
1039	231	184	245
1040	238	180	248
1041	250	179	251
1042	246	164	240
1043	248	163	239
1044	250	160	238
1045	251	155	234
1046	244	141	223
1047	254	152	230
1048	255	158	232
1049	255	152	227
1050	244	132	213
1051	253	144	220
1052	252	146	220
1053	254	154	222
1054	255	161	223
1055	255	163	221
1056	249	156	212
1057	249	160	213
1058	254	171	220
1059	255	177	221
1060	253	178	216
1061	255	187	217
1062	255	192	215
1063	252	190	211
1064	253	194	214
1065	253	197	216
1066	254	202	221
1067	0	0	0
1068	0	0	0
1069	0	0	0
1070	0	0	0
1071	0	0	0
1072	0	0	0
1073	241	233	242
1074	231	218	237
1075	224	204	237
1076	222	203	242
1077	223	200	245
1078	228	202	249
1079	234	203	250
1080	232	194	246
1081	0	0	0
1082	243	182	248
1083	239	167	237
1084	243	167	238
1085	246	164	236
1086	247	157	233
1087	243	146	228
1088	254	155	235
1089	255	161	237
1090	253	147	227
1091	242	129	214
1092	250	139	222
1093	249	141	220
1094	251	147	221
1095	254	155	224
1096	247	148	217
1097	239	140	208
1098	246	154	215
1099	251	165	222
1100	251	168	221
1101	249	170	217
1102	250	175	216
1103	251	180	214
1104	250	183	212
1105	249	186	210
1106	250	190	213
1107	0	0	0
1108	0	0	0
1109	0	0	0
1110	0	0	0
1111	0	0	0
1112	0	0	0
1113	0	0	0
1114	0	0	0
1115	227	218	234
1116	0	0	0
1117	0	0	0
1118	0	0	0
1119	0	0	0
1120	0	0	0
1121	0	0	0
1122	0	0	0
1123	0	0	0
1124	239	181	242
1125	243	181	244
1126	239	166	235
1127	243	161	235
1128	250	161	239
1129	255	172	247
1130	255	161	239
1131	253	148	231
1132	240	128	218
1133	249	139	225
1134	251	143	225
1135	253	150	226
1136	255	160	231
1137	251	153	223
1138	248	152	220
1139	255	167	228
1140	255	169	227
1141	254	171	226
1142	251	172	222
1143	252	177	222
1144	255	184	223
1145	254	187	220
1146	251	187	215
1147	251	191	216
1148	0	0	0
1149	0	0	0
1150	0	0	0
1151	0	0	0
1152	0	0	0
1153	0	0	0
1154	0	0	0
1155	0	0	0
1156	0	0	0
1157	0	0	0
1158	0	0	0
1159	0	0	0
1160	0	0	0
1161	0	0	0
1162	0	0	0
1163	0	0	0
1164	0	0	0
1165	0	0	0
1166	232	178	238
1167	229	164	234
1168	242	169	242
1169	248	169	241
1170	246	160	235
1171	244	150	231
1172	239	137	225
1173	228	118	213
1174	243	134	225
1175	246	140	225
1176	252	151	228
1177	255	160	230
1178	254	159	227
1179	252	159	225
1180	254	165	227
1181	253	167	225
1182	251	168	222
1183	248	169	219
1184	252	176	222
1185	255	185	226
1186	255	187	225
1187	253	187	221
1188	255	196	223
1189	0	0	0
1190	0	0	0
1191	0	0	0
1192	0	0	0
1193	0	0	0
1194	0	0	0
1195	0	0	0
1196	0	0	0
1197	0	0	0
1198	0	0	0
1199	0	0	0
1200	0	0	0
1201	0	0	0
1202	0	0	0
1203	0	0	0
1204	0	0	0
1205	0	0	0
1206	0	0	0
1207	0	0	0
1208	240	191	249
1209	255	198	255
1210	249	182	245
1211	241	171	238
1212	240	162	238
1213	239	151	235
1214	236	139	228
1215	254	157	242
1216	252	152	235
1217	255	163	238
1218	255	159	230
1219	253	160	227
1220	251	159	226
1221	254	165	227
1222	255	170	227
1223	252	171	224
1224	250	172	221
1225	255	181	226
1226	255	185	229
1227	255	187	229
1228	250	181	222
1229	0	0	0
1230	0	0	0
1231	0	0	0
1232	0	0	0
1233	0	0	0
1234	0	0	0
1235	0	0	0
1236	0	0	0
1237	0	0	0
1238	0	0	0
1239	0	0	0
1240	0	0	0
1241	0	0	0
1242	0	0	0
1243	0	0	0
1244	0	0	0
1245	0	0	0
1246	0	0	0
1247	0	0	0
1248	0	0	0
1249	248	214	254
1250	250	205	252
1251	245	190	244
1252	239	180	241
1253	239	173	244
1254	241	166	244
1255	238	153	236
1256	247	157	239
1257	246	153	232
1258	250	156	232
1259	248	154	226
1260	251	158	228
1261	250	159	227
1262	254	167	230
1263	255	172	228
1264	253	173	226
1265	252	175	225
1266	254	178	226
1267	255	181	226
1268	249	176	223
1269	244	171	220
1270	249	182	226
1271	0	0	0
1272	0	0	0
1273	0	0	0
1274	0	0	0
1275	0	0	0
1276	0	0	0
1277	0	0	0
1278	0	0	0
1279	0	0	0
1280	0	0	0
1281	0	0	0
1282	0	0	0
1283	0	0	0
1284	0	0	0
1285	0	0	0
1286	0	0	0
1287	0	0	0
1288	0	0	0
1289	0	0	0
1290	248	225	252
1291	247	213	249
1292	241	197	242
1293	239	189	243
1294	242	186	248
1295	244	179	248
1296	243	170	243
1297	248	173	245
1298	251	172	242
1299	255	178	245
1300	252	162	232
1301	255	168	236
1302	249	158	229
1303	250	165	230
1304	252	171	230
1305	253	174	229
1306	251	172	227
1307	252	175	227
1308	255	182	230
1309	249	177	227
1310	249	181	230
1311	253	191	236
1312	247	190	231
1313	0	0	0
1314	0	0	0
1315	0	0	0
1316	0	0	0
1317	0	0	0
1318	0	0	0
1319	0	0	0
1320	0	0	0
1321	0	0	0
1322	0	0	0
1323	0	0	0
1324	0	0	0
1325	0	0	0
1326	0	0	0
1327	0	0	0
1328	0	0	0
1329	0	0	0
1330	0	0	0
1331	0	0	0
1332	245	222	247
1333	240	206	244
1334	241	202	247
1335	243	197	247
1336	244	192	248
1337	242	183	244
1338	246	185	246
1339	250	185	245
1340	250	175	239
1341	244	161	229
1342	246	159	230
1343	238	151	224
1344	244	161	230
1345	247	168	232
1346	248	169	230
1347	246	167	227
1348	248	173	230
1349	250	179	233
1350	246	179	231
1351	244	181	231
1352	241	183	229
1353	0	0	0
1354	0	0	0
1355	0	0	0
1356	0	0	0
1357	0	0	0
1358	0	0	0
1359	0	0	0
1360	0	0	0
1361	0	0	0
1362	0	0	0
1363	0	0	0
1364	0	0	0
1365	0	0	0
1366	0	0	0
1367	0	0	0
1368	0	0	0
1369	0	0	0
1370	0	0	0
1371	0	0	0
1372	0	0	0
1373	0	0	0
1374	243	220	247
1375	244	215	250
1376	240	205	246
1377	238	198	244
1378	236	191	243
1379	240	193	246
1380	245	192	246
1381	246	184	243
1382	243	171	237
1383	245	171	238
1384	244	167	236
1385	254	181	244
1386	247	171	236
1387	248	171	235
1388	251	177	237
1389	249	181	238
1390	245	183	236
1391	0	0	0
1392	0	0	0
1393	0	0	0
1394	0	0	0
1395	0	0	0
1396	0	0	0
1397	0	0	0
1398	0	0	0
1399	0	0	0
1400	0	0	0
1401	0	0	0
1402	0	0	0
1403	0	0	0
1404	0	0	0
1405	0	0	0
1406	0	0	0
1407	0	0	0
1408	0	0	0
1409	0	0	0
1410	0	0	0
1411	0	0	0
1412	0	0	0
1413	0	0	0
1414	0	0	0
1415	0	0	0
1416	244	226	250
1417	239	215	248
1418	237	208	247
1419	233	201	245
1420	233	198	245
1421	238	197	248
1422	237	188	245
1423	234	177	240
1424	244	183	246
1425	243	179	241
1426	242	175	238
1427	237	166	231
1428	245	175	237
1429	247	180	239
1430	243	182	237
1431	0	0	0
1432	0	0	0
1433	0	0	0
1434	0	0	0
1435	0	0	0
1436	0	0	0
1437	0	0	0
1438	0	0	0
1439	0	0	0
1440	0	0	0
1441	0	0	0
1442	0	0	0
1443	0	0	0
1444	0	0	0
1445	0	0	0
1446	0	0	0
1447	0	0	0
1448	0	0	0
1449	0	0	0
1450	0	0	0
1451	0	0	0
1452	0	0	0
1453	0	0	0
1454	0	0	0
1455	0	0	0
1456	0	0	0
1457	0	0	0
1458	0	0	0
1459	0	0	0
1460	0	0	0
1461	0	0	0
1462	243	219	255
1463	237	208	254
1464	233	193	249
1465	246	202	255
1466	229	173	236
1467	227	167	232
1468	235	176	238
1469	243	185	243
1470	244	189	243
1471	242	191	241
1472	241	199	242
1473	0	0	0
1474	0	0	0
1475	0	0	0
1476	0	0	0
1477	0	0	0
1478	0	0	0
1479	0	0	0
1480	0	0	0
1481	0	0	0
1482	0	0	0
1483	0	0	0
1484	0	0	0
1485	0	0	0
1486	0	0	0
1487	0	0	0
1488	0	0	0
1489	0	0	0
1490	0	0	0
1491	0	0	0
1492	0	0	0
1493	0	0	0
1494	0	0	0
1495	0	0	0
1496	0	0	0
1497	0	0	0
1498	0	0	0
1499	0	0	0
1500	0	0	0
1501	0	0	0
1502	0	0	0
1503	0	0	0
1504	229	217	249
1505	221	201	247
1506	214	182	239
1507	199	154	221
1508	215	170	233
1509	225	180	239
1510	233	188	243
1511	235	192	241
1512	240	203	245
1513	0	0	0
1514	0	0	0
1515	0	0	0
1516	0	0	0
1517	0	0	0
