 	R	G	B
1	0	0	0
2	0	0	0
3	0	0	0
4	0	0	0
5	0	0	0
6	255	223	227
7	255	230	231
8	255	215	221
9	248	199	212
10	252	202	217
11	0	0	0
12	0	0	0
13	0	0	0
14	254	225	227
15	0	0	0
16	0	0	0
17	0	0	0
18	0	0	0
19	0	0	0
20	0	0	0
21	0	0	0
22	0	0	0
23	0	0	0
24	0	0	0
25	0	0	0
26	0	0	0
27	0	0	0
28	0	0	0
29	0	0	0
30	0	0	0
31	0	0	0
32	0	0	0
33	0	0	0
34	0	0	0
35	0	0	0
36	249	207	221
37	255	216	227
38	255	211	223
39	249	196	212
40	246	188	208
41	250	191	213
42	245	184	211
43	0	0	0
44	248	200	216
45	255	217	225
46	255	232	234
47	0	0	0
48	0	0	0
49	0	0	0
50	0	0	0
51	0	0	0
52	0	0	0
53	0	0	0
54	0	0	0
55	0	0	0
56	0	0	0
57	0	0	0
58	0	0	0
59	0	0	0
60	0	0	0
61	0	0	0
62	0	0	0
63	0	0	0
64	0	0	0
65	0	0	0
66	0	0	0
67	237	190	213
68	244	190	215
69	244	185	210
70	243	180	207
71	241	172	202
72	242	173	204
73	237	166	202
74	246	182	214
75	247	191	217
76	254	207	225
77	255	221	231
78	255	230	233
79	0	0	0
80	0	0	0
81	0	0	0
82	0	0	0
83	0	0	0
84	0	0	0
85	0	0	0
86	0	0	0
87	0	0	0
88	0	0	0
89	0	0	0
90	0	0	0
91	0	0	0
92	0	0	0
93	0	0	0
94	0	0	0
95	0	0	0
96	0	0	0
97	0	0	0
98	245	201	225
99	255	205	230
100	249	187	218
101	249	182	216
102	247	176	212
103	248	176	214
104	243	170	211
105	253	186	223
106	250	188	221
107	255	203	228
108	255	212	229
109	255	223	232
110	255	229	233
111	0	0	0
112	0	0	0
113	0	0	0
114	0	0	0
115	0	0	0
116	0	0	0
117	0	0	0
118	0	0	0
119	0	0	0
120	0	0	0
121	0	0	0
122	0	0	0
123	0	0	0
124	0	0	0
125	0	0	0
126	0	0	0
127	0	0	0
128	0	0	0
129	244	203	228
130	250	195	228
131	244	178	217
132	248	178	220
133	246	172	219
134	249	173	221
135	243	166	216
136	249	177	222
137	246	178	219
138	251	192	223
139	252	201	223
140	251	207	222
141	249	212	223
142	252	226	229
143	0	0	0
144	0	0	0
145	0	0	0
146	0	0	0
147	0	0	0
148	0	0	0
149	0	0	0
150	0	0	0
151	0	0	0
152	0	0	0
153	0	0	0
154	0	0	0
155	0	0	0
156	0	0	0
157	0	0	0
158	0	0	0
159	0	0	0
160	249	211	235
161	255	203	235
162	245	180	221
163	250	180	225
164	254	182	230
165	255	183	232
166	246	169	222
167	252	180	227
168	252	184	225
169	255	198	229
170	252	196	223
171	252	203	222
172	252	211	224
173	255	225	230
174	255	232	232
175	0	0	0
176	0	0	0
177	0	0	0
178	0	0	0
179	0	0	0
180	0	0	0
181	0	0	0
182	0	0	0
183	0	0	0
184	0	0	0
185	0	0	0
186	0	0	0
187	0	0	0
188	0	0	0
189	0	0	0
190	0	0	0
191	249	214	237
192	250	200	233
193	241	176	218
194	253	185	228
195	255	187	231
196	252	179	227
197	244	166	219
198	250	177	225
199	250	181	221
200	252	187	222
201	249	188	220
202	255	202	226
203	255	210	226
204	254	217	226
205	254	224	229
206	255	236	235
207	0	0	0
208	0	0	0
209	0	0	0
210	0	0	0
211	0	0	0
212	0	0	0
213	0	0	0
214	0	0	0
215	0	0	0
216	0	0	0
217	0	0	0
218	0	0	0
219	0	0	0
220	0	0	0
221	0	0	0
222	251	221	240
223	253	207	236
224	247	187	224
225	255	196	234
226	248	176	223
227	244	169	219
228	252	181	227
229	255	192	232
230	254	186	223
231	255	193	225
232	252	188	221
233	255	203	228
234	255	203	222
235	255	210	223
236	254	216	225
237	0	0	0
238	0	0	0
239	0	0	0
240	0	0	0
241	0	0	0
242	0	0	0
243	0	0	0
244	0	0	0
245	0	0	0
246	0	0	0
247	0	0	0
248	0	0	0
249	0	0	0
250	0	0	0
251	0	0	0
252	0	0	0
253	0	0	0
254	253	212	234
255	247	192	224
256	247	183	223
257	238	165	215
258	252	182	229
259	255	194	232
260	255	193	228
261	255	188	220
262	255	190	221
263	253	186	217
264	255	194	221
265	254	195	217
266	255	204	219
267	255	209	218
268	255	218	220
269	0	0	0
270	0	0	0
271	0	0	0
272	0	0	0
273	0	0	0
274	0	0	0
275	0	0	0
276	0	0	0
277	0	0	0
278	0	0	0
279	0	0	0
280	0	0	0
281	0	0	0
282	0	0	0
283	0	0	0
284	0	0	0
285	0	0	0
286	250	202	227
287	252	194	228
288	245	177	223
289	255	197	238
290	255	194	230
291	255	194	225
292	252	180	215
293	255	184	217
294	251	178	213
295	255	186	217
296	249	182	212
297	253	192	215
298	254	199	214
299	255	209	216
300	254	213	216
301	0	0	0
302	0	0	0
303	0	0	0
304	0	0	0
305	0	0	0
306	0	0	0
307	0	0	0
308	0	0	0
309	0	0	0
310	0	0	0
311	0	0	0
312	0	0	0
313	0	0	0
314	0	0	0
315	0	0	0
316	0	0	0
317	255	214	232
318	255	205	232
319	253	190	229
320	255	198	237
321	255	196	229
322	255	186	219
323	250	174	212
324	251	174	213
325	247	168	209
326	247	171	210
327	243	168	207
328	251	181	215
329	253	190	216
330	255	197	217
331	252	200	213
332	0	0	0
333	0	0	0
334	0	0	0
335	0	0	0
336	0	0	0
337	0	0	0
338	0	0	0
339	0	0	0
340	0	0	0
341	0	0	0
342	0	0	0
343	0	0	0
344	0	0	0
345	0	0	0
346	0	0	0
347	0	0	0
348	255	214	229
349	255	204	228
350	254	191	227
351	255	200	235
352	255	183	219
353	251	174	212
354	250	171	214
355	252	171	216
356	253	173	216
357	255	176	216
358	253	176	215
359	255	190	223
360	254	184	216
361	255	191	217
362	249	188	209
363	0	0	0
364	0	0	0
365	0	0	0
366	0	0	0
367	0	0	0
368	0	0	0
369	0	0	0
370	0	0	0
371	0	0	0
372	0	0	0
373	0	0	0
374	0	0	0
375	0	0	0
376	0	0	0
377	0	0	0
378	255	232	240
379	255	224	237
380	255	213	233
381	255	199	229
382	255	190	225
383	251	174	213
384	253	173	215
385	253	170	218
386	255	176	225
387	255	178	223
388	255	180	221
389	255	179	214
390	255	176	210
391	249	171	207
392	252	177	210
393	246	176	205
394	254	196	214
395	255	213	223
396	255	217	223
397	0	0	0
398	0	0	0
399	0	0	0
400	0	0	0
401	0	0	0
402	0	0	0
403	0	0	0
404	0	0	0
405	0	0	0
406	0	0	0
407	255	247	245
408	255	227	234
409	255	218	229
410	255	205	224
411	254	193	220
412	252	182	217
413	250	173	214
414	250	168	212
415	252	166	215
416	253	165	218
417	255	171	224
418	253	163	217
419	254	166	214
420	253	166	208
421	250	164	204
422	253	169	209
423	255	177	214
424	251	172	207
425	255	193	218
426	253	186	211
427	250	188	210
428	254	202	216
429	0	0	0
430	255	223	228
431	0	0	0
432	0	0	0
433	0	0	0
434	0	0	0
435	0	0	0
436	0	0	0
437	255	252	245
438	255	236	236
439	255	216	223
440	255	203	218
441	252	191	217
442	250	181	215
443	247	169	210
444	247	165	210
445	248	161	211
446	250	161	215
447	250	157	214
448	249	154	214
449	244	147	210
450	247	151	211
451	247	153	208
452	252	160	210
453	255	166	213
454	255	168	213
455	252	164	205
456	251	165	205
457	242	159	200
458	247	174	207
459	250	186	211
460	254	201	217
461	255	217	226
462	255	229	232
463	0	0	0
464	0	0	0
465	0	0	0
466	0	0	0
467	255	247	239
468	255	234	233
469	255	215	223
470	250	198	214
471	248	186	211
472	252	183	216
473	249	172	214
474	250	169	215
475	249	164	215
476	253	165	220
477	255	165	223
478	249	154	215
479	249	151	215
480	251	153	218
481	254	158	220
482	255	161	220
483	255	168	223
484	255	162	217
485	255	166	218
486	248	149	204
487	248	151	205
488	244	150	204
489	247	165	210
490	254	184	216
491	255	198	221
492	252	199	219
493	251	211	224
494	254	227	234
495	0	0	0
496	0	0	0
497	255	245	237
498	255	229	226
499	255	217	221
500	253	201	216
501	249	185	214
502	252	182	218
503	252	177	220
504	252	172	219
505	251	168	220
506	248	164	221
507	251	164	226
508	248	156	222
509	243	145	214
510	250	151	219
511	251	153	220
512	255	157	222
513	255	162	224
514	255	157	221
515	252	151	217
516	246	142	210
517	236	127	199
518	245	139	208
519	240	138	206
520	251	161	217
521	255	180	222
522	251	180	216
523	244	181	214
524	247	197	222
525	249	211	230
526	0	0	0
527	0	0	0
528	0	0	0
529	251	207	216
530	252	199	215
531	248	184	213
532	246	173	214
533	247	168	218
534	248	167	220
535	245	160	217
536	254	173	228
537	248	167	226
538	249	167	229
539	248	159	227
540	254	162	230
541	255	169	235
542	248	148	220
543	251	153	222
544	255	166	231
545	255	163	230
546	249	145	219
547	239	134	212
548	236	130	210
549	249	144	221
550	237	128	208
551	250	152	220
552	253	167	222
553	243	165	213
554	246	179	219
555	251	196	227
556	248	203	228
557	0	0	0
558	0	0	0
559	0	0	0
560	0	0	0
561	243	178	211
562	242	168	212
563	237	155	213
564	240	156	218
565	240	153	218
566	248	163	225
567	255	175	232
568	245	167	226
569	245	165	228
570	249	167	232
571	255	171	236
572	248	155	227
573	236	136	213
574	248	151	223
575	255	164	231
576	251	149	222
577	239	131	213
578	233	129	213
579	231	126	212
580	234	123	212
581	222	107	200
582	235	131	212
583	240	146	215
584	243	160	217
585	246	174	219
586	247	185	222
587	242	191	221
588	0	0	0
589	0	0	0
590	0	0	0
591	0	0	0
592	252	186	225
593	249	174	224
594	243	161	222
595	244	160	226
596	252	171	235
597	255	180	240
598	255	182	239
599	249	174	232
600	249	174	234
601	248	174	235
602	251	174	238
603	244	159	229
604	245	156	229
605	255	173	241
606	255	164	234
607	248	148	225
608	236	131	217
609	231	129	218
610	232	129	218
611	236	127	219
612	233	123	215
613	244	146	226
614	246	156	227
615	255	174	233
616	249	172	224
617	246	181	223
618	237	183	219
619	0	0	0
620	0	0	0
621	0	0	0
622	0	0	0
623	0	0	0
624	249	174	227
625	243	161	225
626	253	175	238
627	255	184	244
628	254	182	241
629	254	184	241
630	250	181	238
631	247	179	237
632	240	174	233
633	242	175	236
634	244	172	237
635	248	170	238
636	251	164	236
637	249	156	230
638	239	141	222
639	227	124	215
640	226	126	219
641	227	125	219
642	239	134	226
643	236	130	220
644	240	145	225
645	244	156	227
646	250	164	228
647	244	163	222
648	241	172	223
649	232	175	220
650	0	0	0
651	0	0	0
652	0	0	0
653	0	0	0
654	0	0	0
655	0	0	0
656	0	0	0
657	0	0	0
658	251	179	242
659	242	174	236
660	251	191	247
661	248	188	244
662	241	182	237
663	232	176	232
664	242	187	243
665	245	185	245
666	246	176	241
667	252	173	241
668	253	166	238
669	243	151	230
670	235	139	227
671	234	141	232
672	229	131	226
673	241	140	232
674	239	139	227
675	244	154	231
676	248	162	233
677	255	171	237
678	242	158	224
679	238	167	226
680	233	177	226
681	0	0	0
682	0	0	0
683	0	0	0
684	0	0	0
685	0	0	0
686	0	0	0
687	0	0	0
688	0	0	0
689	0	0	0
690	235	178	239
691	244	194	249
692	238	188	242
693	232	182	236
694	236	190	241
695	246	202	251
696	242	190	246
697	243	181	243
698	248	176	243
699	248	170	238
700	242	159	234
701	237	148	233
702	235	145	236
703	230	135	231
704	241	145	238
705	240	144	232
706	245	155	235
707	249	163	236
708	247	160	232
709	234	149	222
710	236	166	230
711	232	175	229
712	0	0	0
713	0	0	0
714	0	0	0
715	0	0	0
716	0	0	0
717	0	0	0
718	0	0	0
719	0	0	0
720	0	0	0
721	0	0	0
722	0	0	0
723	0	0	0
724	240	205	249
725	251	216	255
726	244	201	249
727	238	188	242
728	245	191	248
729	246	184	246
730	242	173	239
731	238	163	236
732	239	158	239
733	244	158	245
734	235	142	237
735	241	149	240
736	251	163	245
737	255	177	251
738	248	159	236
739	237	152	229
740	234	155	230
741	241	176	241
742	239	183	238
743	255	214	250
744	0	0	0
745	0	0	0
746	0	0	0
747	0	0	0
748	0	0	0
749	0	0	0
750	0	0	0
751	0	0	0
752	0	0	0
753	0	0	0
754	0	0	0
755	0	0	0
756	237	207	246
757	231	193	239
758	235	193	241
759	240	195	245
760	235	182	240
761	231	172	237
762	230	166	238
763	231	161	240
764	235	156	241
765	226	140	230
766	239	158	240
767	250	172	245
768	246	161	236
769	232	144	225
770	232	152	231
771	229	156	233
772	236	173	241
773	235	180	238
774	242	195	240
775	238	202	234
776	0	0	0
777	0	0	0
778	0	0	0
779	0	0	0
780	0	0	0
781	0	0	0
782	0	0	0
783	0	0	0
784	0	0	0
785	0	0	0
786	0	0	0
787	0	0	0
788	0	0	0
789	0	0	0
790	0	0	0
791	0	0	0
792	234	193	247
793	232	187	248
794	226	173	244
795	228	167	243
796	222	154	235
797	238	174	248
798	240	174	244
799	235	162	235
800	234	160	235
801	238	171	244
802	234	171	242
803	240	187	250
804	234	185	241
805	241	200	244
806	242	211	242
807	0	0	0
808	0	0	0
809	0	0	0
810	0	0	0
811	0	0	0
812	0	0	0
813	0	0	0
814	0	0	0
815	0	0	0
816	0	0	0
817	0	0	0
818	0	0	0
819	0	0	0
820	0	0	0
821	0	0	0
822	0	0	0
823	0	0	0
824	227	195	246
825	220	181	243
826	219	175	243
827	213	163	237
828	221	169	242
829	225	171	242
830	232	174	244
831	232	171	240
832	235	178	244
833	231	177	242
834	232	183	244
835	0	0	0
836	236	200	244
837	0	0	0
838	0	0	0
839	0	0	0
840	0	0	0
841	0	0	0
842	0	0	0
843	0	0	0
844	0	0	0
845	0	0	0
846	0	0	0
847	0	0	0
848	0	0	0
849	0	0	0
850	0	0	0
851	0	0	0
852	0	0	0
853	0	0	0
854	0	0	0
855	0	0	0
856	0	0	0
857	0	0	0
858	0	0	0
859	0	0	0
860	224	187	249
861	233	191	253
862	229	181	243
863	234	189	247
864	229	184	243
865	0	0	0
866	0	0	0
867	0	0	0
868	0	0	0
869	0	0	0
870	0	0	0
871	0	0	0
872	0	0	0
873	0	0	0
874	0	0	0
875	0	0	0
876	0	0	0
877	0	0	0
878	0	0	0
879	0	0	0
880	0	0	0
881	0	0	0
882	0	0	0
883	0	0	0
884	0	0	0
885	0	0	0
886	0	0	0
887	0	0	0
888	0	0	0
889	0	0	0
890	0	0	0
891	0	0	0
892	224	195	248
893	221	185	241
894	225	188	243
895	0	0	0
896	0	0	0
897	0	0	0
898	0	0	0
899	0	0	0
