 	R	G	B
1	0	0	0
2	0	0	0
3	0	0	0
4	0	0	0
5	0	0	0
6	253	217	226
7	0	0	0
8	0	0	0
9	0	0	0
10	0	0	0
11	0	0	0
12	0	0	0
13	0	0	0
14	0	0	0
15	0	0	0
16	0	0	0
17	0	0	0
18	0	0	0
19	0	0	0
20	0	0	0
21	0	0	0
22	0	0	0
23	0	0	0
24	0	0	0
25	0	0	0
26	0	0	0
27	0	0	0
28	0	0	0
29	0	0	0
30	0	0	0
31	0	0	0
32	0	0	0
33	0	0	0
34	0	0	0
35	0	0	0
36	0	0	0
37	0	0	0
38	0	0	0
39	0	0	0
40	0	0	0
41	0	0	0
42	0	0	0
43	0	0	0
44	0	0	0
45	0	0	0
46	0	0	0
47	0	0	0
48	0	0	0
49	0	0	0
50	255	217	227
51	255	217	228
52	243	198	215
53	0	0	0
54	0	0	0
55	0	0	0
56	0	0	0
57	0	0	0
58	0	0	0
59	0	0	0
60	0	0	0
61	0	0	0
62	0	0	0
63	0	0	0
64	0	0	0
65	0	0	0
66	0	0	0
67	0	0	0
68	0	0	0
69	0	0	0
70	0	0	0
71	0	0	0
72	0	0	0
73	0	0	0
74	0	0	0
75	0	0	0
76	0	0	0
77	0	0	0
78	0	0	0
79	0	0	0
80	0	0	0
81	0	0	0
82	0	0	0
83	0	0	0
84	0	0	0
85	0	0	0
86	0	0	0
87	0	0	0
88	0	0	0
89	0	0	0
90	0	0	0
91	0	0	0
92	0	0	0
93	0	0	0
94	0	0	0
95	254	211	222
96	249	200	215
97	236	183	204
98	245	203	216
99	252	217	221
100	253	221	221
101	0	0	0
102	0	0	0
103	0	0	0
104	0	0	0
105	0	0	0
106	0	0	0
107	0	0	0
108	0	0	0
109	0	0	0
110	0	0	0
111	0	0	0
112	0	0	0
113	0	0	0
114	0	0	0
115	0	0	0
116	0	0	0
117	0	0	0
118	0	0	0
119	0	0	0
120	0	0	0
121	0	0	0
122	0	0	0
123	0	0	0
124	0	0	0
125	0	0	0
126	0	0	0
127	0	0	0
128	0	0	0
129	0	0	0
130	0	0	0
131	0	0	0
132	0	0	0
133	0	0	0
134	0	0	0
135	0	0	0
136	0	0	0
137	0	0	0
138	250	206	224
139	253	209	225
140	252	205	221
141	249	195	215
142	242	186	210
143	252	207	223
144	248	204	218
145	251	209	218
146	249	208	215
147	0	0	0
148	0	0	0
149	0	0	0
150	0	0	0
151	0	0	0
152	0	0	0
153	0	0	0
154	0	0	0
155	0	0	0
156	0	0	0
157	0	0	0
158	0	0	0
159	0	0	0
160	0	0	0
161	0	0	0
162	0	0	0
163	0	0	0
164	0	0	0
165	0	0	0
166	0	0	0
167	0	0	0
168	0	0	0
169	0	0	0
170	0	0	0
171	0	0	0
172	0	0	0
173	0	0	0
174	0	0	0
175	0	0	0
176	0	0	0
177	0	0	0
178	0	0	0
179	0	0	0
180	0	0	0
181	0	0	0
182	251	209	228
183	248	201	224
184	247	199	223
185	248	196	221
186	250	194	220
187	243	184	214
188	241	188	215
189	238	186	211
190	246	192	214
191	245	192	209
192	251	203	214
193	255	211	215
194	0	0	0
195	0	0	0
196	0	0	0
197	0	0	0
198	0	0	0
199	0	0	0
200	0	0	0
201	0	0	0
202	0	0	0
203	0	0	0
204	0	0	0
205	0	0	0
206	0	0	0
207	0	0	0
208	0	0	0
209	0	0	0
210	0	0	0
211	0	0	0
212	0	0	0
213	0	0	0
214	0	0	0
215	0	0	0
216	0	0	0
217	0	0	0
218	0	0	0
219	0	0	0
220	0	0	0
221	0	0	0
222	0	0	0
223	0	0	0
224	0	0	0
225	0	0	0
226	254	218	233
227	255	216	235
228	250	202	227
229	249	200	225
230	254	203	227
231	255	201	227
232	248	189	221
233	247	193	223
234	244	188	218
235	254	196	223
236	246	184	211
237	253	195	215
238	251	196	210
239	253	201	211
240	0	0	0
241	0	0	0
242	0	0	0
243	0	0	0
244	0	0	0
245	0	0	0
246	0	0	0
247	0	0	0
248	0	0	0
249	0	0	0
250	0	0	0
251	0	0	0
252	0	0	0
253	0	0	0
254	0	0	0
255	0	0	0
256	0	0	0
257	0	0	0
258	0	0	0
259	0	0	0
260	0	0	0
261	0	0	0
262	0	0	0
263	0	0	0
264	0	0	0
265	0	0	0
266	0	0	0
267	0	0	0
268	0	0	0
269	0	0	0
270	0	0	0
271	0	0	0
272	248	208	227
273	243	196	220
274	250	202	225
275	254	204	224
276	252	197	221
277	246	187	219
278	243	184	219
279	242	181	217
280	245	178	216
281	238	167	205
282	242	173	207
283	242	175	204
284	244	178	205
285	0	0	0
286	0	0	0
287	0	0	0
288	0	0	0
289	0	0	0
290	0	0	0
291	0	0	0
292	0	0	0
293	0	0	0
294	0	0	0
295	0	0	0
296	0	0	0
297	0	0	0
298	0	0	0
299	0	0	0
300	0	0	0
301	0	0	0
302	0	0	0
303	0	0	0
304	0	0	0
305	0	0	0
306	0	0	0
307	0	0	0
308	0	0	0
309	0	0	0
310	0	0	0
311	0	0	0
312	0	0	0
313	0	0	0
314	0	0	0
315	0	0	0
316	0	0	0
317	0	0	0
318	246	208	227
319	255	217	235
320	249	199	222
321	245	190	217
322	247	189	222
323	249	189	225
324	250	186	225
325	252	184	224
326	245	172	215
327	250	180	218
328	251	182	217
329	255	186	219
330	242	171	208
331	0	0	0
332	0	0	0
333	0	0	0
334	0	0	0
335	0	0	0
336	0	0	0
337	0	0	0
338	0	0	0
339	0	0	0
340	0	0	0
341	0	0	0
342	0	0	0
343	0	0	0
344	0	0	0
345	0	0	0
346	0	0	0
347	0	0	0
348	0	0	0
349	0	0	0
350	0	0	0
351	0	0	0
352	0	0	0
353	0	0	0
354	0	0	0
355	0	0	0
356	0	0	0
357	0	0	0
358	0	0	0
359	0	0	0
360	0	0	0
361	0	0	0
362	0	0	0
363	0	0	0
364	251	208	231
365	243	191	222
366	243	189	223
367	245	188	224
368	249	187	227
369	250	185	226
370	250	180	224
371	243	169	217
372	245	173	218
373	246	176	217
374	244	169	211
375	233	155	202
376	239	167	209
377	240	173	210
378	249	185	212
379	252	191	207
380	249	189	201
381	246	188	199
382	255	205	210
383	0	0	0
384	0	0	0
385	0	0	0
386	0	0	0
387	0	0	0
388	0	0	0
389	0	0	0
390	0	0	0
391	0	0	0
392	0	0	0
393	0	0	0
394	0	0	0
395	0	0	0
396	0	0	0
397	0	0	0
398	0	0	0
399	0	0	0
400	0	0	0
401	0	0	0
402	0	0	0
403	0	0	0
404	0	0	0
405	0	0	0
406	0	0	0
407	0	0	0
408	0	0	0
409	0	0	0
410	0	0	0
411	0	0	0
412	254	201	233
413	255	202	236
414	253	186	228
415	249	180	225
416	243	171	221
417	243	175	223
418	246	180	224
419	245	173	219
420	243	167	215
421	255	184	228
422	248	170	217
423	255	181	220
424	254	182	210
425	252	181	204
426	246	175	199
427	255	192	209
428	251	188	203
429	0	0	0
430	0	0	0
431	0	0	0
432	0	0	0
433	0	0	0
434	0	0	0
435	0	0	0
436	0	0	0
437	0	0	0
438	0	0	0
439	0	0	0
440	0	0	0
441	0	0	0
442	0	0	0
443	0	0	0
444	0	0	0
445	0	0	0
446	0	0	0
447	0	0	0
448	0	0	0
449	0	0	0
450	0	0	0
451	0	0	0
452	0	0	0
453	0	0	0
454	0	0	0
455	0	0	0
456	0	0	0
457	255	210	234
458	255	197	229
459	248	182	222
460	246	178	223
461	240	171	222
462	243	176	228
463	248	182	233
464	247	177	228
465	245	170	220
466	243	163	214
467	235	150	206
468	243	159	210
469	245	162	205
470	242	159	199
471	238	153	194
472	242	159	197
473	237	157	191
474	244	171	198
475	246	180	199
476	249	190	202
477	252	200	206
478	255	211	211
479	0	0	0
480	0	0	0
481	0	0	0
482	0	0	0
483	0	0	0
484	0	0	0
485	0	0	0
486	0	0	0
487	0	0	0
488	0	0	0
489	0	0	0
490	0	0	0
491	0	0	0
492	0	0	0
493	0	0	0
494	0	0	0
495	0	0	0
496	0	0	0
497	0	0	0
498	0	0	0
499	0	0	0
500	0	0	0
501	0	0	0
502	253	206	229
503	248	192	223
504	246	185	222
505	246	183	226
506	244	179	227
507	251	187	236
508	253	186	237
509	252	180	232
510	249	174	225
511	242	165	217
512	240	159	216
513	253	172	224
514	249	165	214
515	249	164	211
516	249	162	209
517	254	169	213
518	242	155	201
519	247	169	207
520	236	159	195
521	238	169	197
522	244	182	201
523	251	194	206
524	251	197	205
525	0	0	0
526	0	0	0
527	0	0	0
528	0	0	0
529	0	0	0
530	0	0	0
531	0	0	0
532	0	0	0
533	0	0	0
534	0	0	0
535	0	0	0
536	0	0	0
537	0	0	0
538	0	0	0
539	0	0	0
540	0	0	0
541	0	0	0
542	0	0	0
543	0	0	0
544	0	0	0
545	0	0	0
546	0	0	0
547	248	202	227
548	248	196	226
549	246	189	225
550	247	188	228
551	247	184	229
552	251	185	232
553	252	184	232
554	252	180	230
555	250	176	226
556	244	169	222
557	243	165	223
558	248	165	222
559	246	159	213
560	251	162	213
561	252	161	213
562	248	155	209
563	237	143	198
564	232	141	196
565	221	132	188
566	229	149	197
567	235	162	200
568	238	167	199
569	238	170	197
570	247	187	202
571	253	201	204
572	255	213	208
573	0	0	0
574	0	0	0
575	0	0	0
576	0	0	0
577	0	0	0
578	0	0	0
579	0	0	0
580	0	0	0
581	0	0	0
582	0	0	0
583	0	0	0
584	0	0	0
585	0	0	0
586	0	0	0
587	0	0	0
588	0	0	0
589	0	0	0
590	0	0	0
591	0	0	0
592	247	205	230
593	249	201	229
594	245	191	227
595	246	189	229
596	248	187	231
597	254	189	234
598	253	183	231
599	252	179	228
600	255	183	231
601	251	177	229
602	248	169	226
603	253	169	227
604	255	169	223
605	255	173	225
606	246	147	208
607	242	142	205
608	244	147	209
609	241	147	209
610	231	137	201
611	239	155	211
612	240	160	211
613	240	165	209
614	237	165	204
615	244	181	207
616	243	182	199
617	254	196	205
618	248	190	199
619	0	0	0
620	0	0	0
621	0	0	0
622	0	0	0
623	0	0	0
624	0	0	0
625	0	0	0
626	0	0	0
627	0	0	0
628	0	0	0
629	0	0	0
630	0	0	0
631	0	0	0
632	0	0	0
633	0	0	0
634	0	0	0
635	0	0	0
636	0	0	0
637	0	0	0
638	246	200	229
639	243	191	229
640	245	190	232
641	247	188	232
642	250	186	232
643	249	180	228
644	253	184	231
645	255	187	234
646	248	176	226
647	246	167	223
648	255	171	227
649	255	172	225
650	250	151	212
651	235	128	200
652	243	139	210
653	247	146	215
654	240	140	210
655	229	130	201
656	236	143	209
657	238	150	210
658	238	153	210
659	236	154	207
660	235	159	206
661	236	162	202
662	238	162	199
663	232	156	191
664	243	177	202
665	250	195	211
666	253	208	216
667	255	222	223
668	0	0	0
669	0	0	0
670	0	0	0
671	0	0	0
672	0	0	0
673	0	0	0
674	0	0	0
675	0	0	0
676	0	0	0
677	0	0	0
678	0	0	0
679	0	0	0
680	0	0	0
681	0	0	0
682	0	0	0
683	0	0	0
684	248	202	236
685	252	202	240
686	248	193	234
687	248	189	233
688	247	184	230
689	251	187	233
690	250	184	231
691	244	173	224
692	250	175	227
693	255	180	233
694	255	167	224
695	247	147	213
696	246	140	213
697	255	153	225
698	252	147	220
699	244	141	214
700	242	141	213
701	253	157	223
702	245	148	215
703	248	153	217
704	255	165	223
705	254	170	223
706	246	163	216
707	245	162	212
708	240	160	206
709	248	180	214
710	241	179	207
711	247	192	211
712	248	201	212
713	253	214	218
714	0	0	0
715	0	0	0
716	0	0	0
717	0	0	0
718	0	0	0
719	0	0	0
720	0	0	0
721	0	0	0
722	0	0	0
723	0	0	0
724	0	0	0
725	0	0	0
726	0	0	0
727	0	0	0
728	0	0	0
729	0	0	0
730	247	203	235
731	244	194	231
732	246	191	232
733	245	186	231
734	249	186	233
735	249	183	231
736	251	183	232
737	255	184	233
738	251	170	225
739	248	158	220
740	249	152	220
741	248	145	218
742	252	146	220
743	246	140	214
744	246	144	215
745	247	146	217
746	246	144	216
747	240	135	209
748	252	151	218
749	255	164	223
750	250	156	215
751	244	150	212
752	247	157	216
753	242	156	210
754	238	159	208
755	232	158	203
756	238	171	208
757	240	180	209
758	247	193	214
759	253	207	218
760	254	213	220
761	0	0	0
762	0	0	0
763	0	0	0
764	0	0	0
765	0	0	0
766	0	0	0
767	0	0	0
768	0	0	0
769	0	0	0
770	0	0	0
771	0	0	0
772	0	0	0
773	0	0	0
774	0	0	0
775	0	0	0
776	0	0	0
777	0	0	0
778	252	198	237
779	255	199	241
780	254	187	234
781	255	186	234
782	253	181	230
783	241	163	219
784	247	166	226
785	253	163	229
786	250	152	224
787	252	152	225
788	247	145	219
789	249	150	222
790	241	139	216
791	241	137	214
792	242	139	214
793	255	156	223
794	255	165	225
795	255	158	219
796	250	151	217
797	255	159	223
798	250	157	217
799	248	162	218
800	240	158	214
801	243	170	218
802	245	179	219
803	253	193	223
804	252	195	218
805	255	202	220
806	249	198	216
807	0	0	0
808	0	0	0
809	0	0	0
810	0	0	0
811	0	0	0
812	0	0	0
813	0	0	0
814	0	0	0
815	0	0	0
816	0	0	0
817	0	0	0
818	0	0	0
819	0	0	0
820	0	0	0
821	0	0	0
822	0	0	0
823	0	0	0
824	249	192	231
825	245	180	225
826	249	179	227
827	246	174	224
828	243	171	224
829	248	174	232
830	249	165	231
831	246	154	227
832	246	151	227
833	242	145	222
834	237	138	218
835	230	128	211
836	237	136	217
837	239	138	215
838	251	150	221
839	255	160	223
840	252	152	216
841	248	145	214
842	249	149	217
843	245	147	213
844	241	147	212
845	234	145	212
846	239	159	219
847	242	169	219
848	243	173	217
849	244	175	212
850	242	174	208
851	236	171	204
852	244	187	212
853	0	0	0
854	0	0	0
855	0	0	0
856	0	0	0
857	0	0	0
858	0	0	0
859	0	0	0
860	0	0	0
861	0	0	0
862	0	0	0
863	0	0	0
864	0	0	0
865	0	0	0
866	0	0	0
867	0	0	0
868	0	0	0
869	0	0	0
870	245	191	231
871	254	194	237
872	244	177	227
873	240	173	227
874	242	174	233
875	242	164	231
876	243	160	231
877	242	157	231
878	243	156	232
879	241	151	229
880	235	141	224
881	240	148	228
882	237	142	221
883	249	155	227
884	255	162	227
885	252	154	221
886	248	148	217
887	250	151	220
888	251	155	223
889	248	156	223
890	249	162	229
891	255	178	238
892	250	172	228
893	251	176	226
894	251	179	223
895	249	178	219
896	248	180	218
897	255	197	227
898	247	188	216
899	251	203	222
900	0	0	0
901	0	0	0
902	0	0	0
903	0	0	0
904	0	0	0
905	0	0	0
906	0	0	0
907	0	0	0
908	0	0	0
909	0	0	0
910	0	0	0
911	0	0	0
912	0	0	0
913	0	0	0
914	0	0	0
915	0	0	0
916	245	191	237
917	234	173	227
918	230	169	227
919	233	169	231
920	239	168	234
921	238	163	233
922	236	161	233
923	236	160	234
924	232	152	230
925	228	143	225
926	232	145	226
927	229	139	220
928	240	149	226
929	247	157	228
930	243	150	221
931	240	143	216
932	248	153	224
933	251	159	229
934	253	165	233
935	253	171	236
936	249	168	232
937	244	164	225
938	246	169	225
939	247	172	222
940	249	175	222
941	249	178	223
942	245	176	219
943	234	168	208
944	238	181	213
945	241	192	216
946	0	0	0
947	0	0	0
948	0	0	0
949	0	0	0
950	0	0	0
951	0	0	0
952	0	0	0
953	0	0	0
954	0	0	0
955	0	0	0
956	0	0	0
957	0	0	0
958	0	0	0
959	0	0	0
960	0	0	0
961	0	0	0
962	0	0	0
963	0	0	0
964	241	191	245
965	249	191	249
966	239	174	239
967	232	169	236
968	231	170	239
969	225	162	234
970	229	162	236
971	241	168	243
972	233	151	231
973	240	159	235
974	242	161	233
975	237	154	226
976	238	152	225
977	250	164	234
978	250	163	235
979	253	170	238
980	249	168	235
981	244	166	230
982	249	174	233
983	253	180	235
984	251	177	230
985	254	182	232
986	254	183	231
987	248	181	226
988	243	180	223
989	248	194	228
990	246	196	225
991	0	0	0
992	0	0	0
993	0	0	0
994	0	0	0
995	0	0	0
996	0	0	0
997	0	0	0
998	0	0	0
999	0	0	0
1000	0	0	0
1001	0	0	0
1002	0	0	0
1003	0	0	0
1004	0	0	0
1005	0	0	0
1006	0	0	0
1007	0	0	0
1008	233	199	243
1009	242	205	250
1010	240	193	245
1011	229	176	235
1012	226	177	237
1013	226	178	240
1014	226	177	241
1015	231	177	244
1016	230	167	239
1017	222	150	229
1018	229	157	233
1019	231	159	232
1020	230	158	230
1021	232	157	230
1022	240	161	234
1023	240	160	232
1024	240	161	231
1025	238	161	230
1026	242	169	232
1027	247	177	234
1028	247	176	232
1029	247	175	231
1030	251	180	233
1031	249	180	230
1032	244	181	227
1033	242	183	227
1034	243	188	229
1035	0	0	0
1036	0	0	0
1037	0	0	0
1038	0	0	0
1039	0	0	0
1040	0	0	0
1041	0	0	0
1042	0	0	0
1043	0	0	0
1044	0	0	0
1045	0	0	0
1046	0	0	0
1047	0	0	0
1048	0	0	0
1049	0	0	0
1050	0	0	0
1051	0	0	0
1052	0	0	0
1053	0	0	0
1054	240	218	249
1055	232	202	241
1056	225	191	238
1057	227	194	243
1058	229	195	247
1059	234	196	251
1060	230	187	246
1061	219	171	237
1062	224	173	240
1063	238	184	251
1064	231	170	239
1065	229	168	237
1066	234	173	241
1067	241	177	244
1068	241	174	240
1069	243	176	240
1070	243	177	240
1071	247	185	243
1072	248	187	240
1073	249	186	239
1074	247	182	237
1075	251	186	239
1076	247	184	232
1077	0	0	0
1078	0	0	0
1079	0	0	0
1080	0	0	0
1081	0	0	0
1082	0	0	0
1083	0	0	0
1084	0	0	0
1085	0	0	0
1086	0	0	0
1087	0	0	0
1088	0	0	0
1089	0	0	0
1090	0	0	0
1091	0	0	0
1092	0	0	0
1093	0	0	0
1094	0	0	0
1095	0	0	0
1096	0	0	0
1097	0	0	0
1098	0	0	0
1099	0	0	0
1100	237	221	243
1101	231	210	244
1102	231	210	249
1103	234	211	253
1104	233	203	251
1105	228	194	245
1106	225	191	245
1107	229	194	250
1108	231	187	248
1109	222	172	238
1110	224	176	241
1111	229	182	244
1112	236	184	245
1113	236	181	241
1114	238	183	241
1115	239	184	241
1116	240	187	242
1117	242	189	240
1118	240	184	237
1119	239	180	235
1120	244	186	238
1121	0	0	0
1122	0	0	0
1123	0	0	0
1124	0	0	0
1125	0	0	0
