 	R	G	B
1	0	0	0
2	0	0	0
3	0	0	0
4	0	0	0
5	0	0	0
6	0	0	0
7	0	0	0
8	0	0	0
9	0	0	0
10	0	0	0
11	0	0	0
12	0	0	0
13	0	0	0
14	0	0	0
15	0	0	0
16	0	0	0
17	0	0	0
18	0	0	0
19	0	0	0
20	0	0	0
21	0	0	0
22	240	223	227
23	0	0	0
24	0	0	0
25	0	0	0
26	0	0	0
27	0	0	0
28	0	0	0
29	0	0	0
30	0	0	0
31	0	0	0
32	0	0	0
33	0	0	0
34	0	0	0
35	0	0	0
36	0	0	0
37	0	0	0
38	0	0	0
39	0	0	0
40	0	0	0
41	0	0	0
42	0	0	0
43	0	0	0
44	0	0	0
45	0	0	0
46	0	0	0
47	0	0	0
48	0	0	0
49	0	0	0
50	0	0	0
51	0	0	0
52	0	0	0
53	0	0	0
54	0	0	0
55	0	0	0
56	238	218	223
57	241	221	227
58	240	218	227
59	0	0	0
60	0	0	0
61	0	0	0
62	0	0	0
63	0	0	0
64	0	0	0
65	0	0	0
66	0	0	0
67	0	0	0
68	0	0	0
69	0	0	0
70	0	0	0
71	0	0	0
72	0	0	0
73	0	0	0
74	0	0	0
75	0	0	0
76	0	0	0
77	0	0	0
78	0	0	0
79	0	0	0
80	0	0	0
81	0	0	0
82	0	0	0
83	0	0	0
84	0	0	0
85	0	0	0
86	0	0	0
87	0	0	0
88	0	0	0
89	0	0	0
90	239	212	222
91	241	219	227
92	240	216	226
93	238	213	226
94	242	218	230
95	243	221	231
96	244	225	232
97	0	0	0
98	0	0	0
99	0	0	0
100	0	0	0
101	0	0	0
102	0	0	0
103	0	0	0
104	0	0	0
105	0	0	0
106	0	0	0
107	0	0	0
108	0	0	0
109	0	0	0
110	0	0	0
111	0	0	0
112	0	0	0
113	0	0	0
114	0	0	0
115	0	0	0
116	0	0	0
117	0	0	0
118	0	0	0
119	0	0	0
120	0	0	0
121	0	0	0
122	0	0	0
123	0	0	0
124	0	0	0
125	247	214	226
126	243	212	225
127	235	205	221
128	237	210	226
129	243	216	231
130	242	215	228
131	242	218	229
132	240	216	227
133	0	0	0
134	0	0	0
135	0	0	0
136	0	0	0
137	0	0	0
138	0	0	0
139	0	0	0
140	0	0	0
141	0	0	0
142	0	0	0
143	0	0	0
144	0	0	0
145	0	0	0
146	0	0	0
147	0	0	0
148	0	0	0
149	0	0	0
150	0	0	0
151	0	0	0
152	0	0	0
153	241	201	222
154	242	200	223
155	242	199	223
156	243	198	223
157	241	196	221
158	244	201	223
159	245	205	222
160	245	205	221
161	241	204	222
162	236	204	223
163	238	209	227
164	241	209	228
165	240	207	224
166	237	206	223
167	0	0	0
168	0	0	0
169	0	0	0
170	0	0	0
171	0	0	0
172	0	0	0
173	0	0	0
174	0	0	0
175	0	0	0
176	0	0	0
177	0	0	0
178	0	0	0
179	0	0	0
180	0	0	0
181	0	0	0
182	0	0	0
183	0	0	0
184	0	0	0
185	0	0	0
186	0	0	0
187	241	206	226
188	240	198	221
189	243	199	223
190	244	199	223
191	241	197	222
192	242	198	225
193	251	207	230
194	244	198	220
195	242	197	219
196	244	203	224
197	239	203	224
198	243	210	229
199	246	211	230
200	242	206	225
201	0	0	0
202	0	0	0
203	0	0	0
204	0	0	0
205	0	0	0
206	0	0	0
207	0	0	0
208	0	0	0
209	0	0	0
210	0	0	0
211	0	0	0
212	0	0	0
213	0	0	0
214	0	0	0
215	0	0	0
216	0	0	0
217	0	0	0
218	0	0	0
219	0	0	0
220	0	0	0
221	0	0	0
222	0	0	0
223	239	195	221
224	249	201	227
225	250	202	226
226	249	202	226
227	251	204	229
228	248	199	227
229	244	192	222
230	250	200	227
231	250	205	228
232	246	206	227
233	249	213	231
234	248	209	228
235	244	204	225
236	245	210	228
237	0	0	0
238	0	0	0
239	0	0	0
240	0	0	0
241	0	0	0
242	0	0	0
243	0	0	0
244	0	0	0
245	0	0	0
246	0	0	0
247	0	0	0
248	0	0	0
249	0	0	0
250	0	0	0
251	0	0	0
252	0	0	0
253	0	0	0
254	0	0	0
255	0	0	0
256	0	0	0
257	243	203	227
258	245	197	225
259	255	205	232
260	251	193	222
261	253	195	224
262	250	192	224
263	242	184	219
264	246	190	225
265	255	200	232
266	247	192	223
267	244	194	221
268	249	205	227
269	244	199	222
270	245	201	224
271	249	209	229
272	0	0	0
273	0	0	0
274	0	0	0
275	0	0	0
276	0	0	0
277	0	0	0
278	0	0	0
279	0	0	0
280	0	0	0
281	0	0	0
282	0	0	0
283	0	0	0
284	0	0	0
285	0	0	0
286	0	0	0
287	0	0	0
288	0	0	0
289	0	0	0
290	0	0	0
291	238	202	220
292	241	199	222
293	244	195	224
294	247	190	223
295	243	178	214
296	246	179	216
297	244	177	217
298	245	182	221
299	247	187	224
300	244	183	221
301	238	176	216
302	243	187	221
303	247	196	225
304	243	195	221
305	245	198	224
306	244	196	223
307	239	193	219
308	0	0	0
309	0	0	0
310	0	0	0
311	0	0	0
312	0	0	0
313	0	0	0
314	0	0	0
315	0	0	0
316	0	0	0
317	0	0	0
318	0	0	0
319	0	0	0
320	0	0	0
321	0	0	0
322	0	0	0
323	0	0	0
324	0	0	0
325	0	0	0
326	234	200	218
327	237	197	221
328	237	189	221
329	240	184	221
330	240	179	217
331	245	181	220
332	248	182	223
333	253	190	229
334	244	180	221
335	235	172	214
336	241	184	223
337	250	197	231
338	242	188	222
339	238	187	218
340	247	201	227
341	247	199	225
342	247	198	225
343	253	208	233
344	0	0	0
345	0	0	0
346	0	0	0
347	0	0	0
348	0	0	0
349	0	0	0
350	0	0	0
351	0	0	0
352	0	0	0
353	0	0	0
354	0	0	0
355	0	0	0
356	0	0	0
357	0	0	0
358	0	0	0
359	0	0	0
360	0	0	0
361	230	196	217
362	235	193	222
363	235	185	223
364	240	185	226
365	240	180	222
366	245	183	224
367	248	184	225
368	248	181	223
369	240	171	216
370	246	184	225
371	252	195	232
372	246	189	226
373	238	181	221
374	243	191	225
375	250	203	230
376	250	201	226
377	249	200	226
378	0	0	0
379	0	0	0
380	0	0	0
381	0	0	0
382	0	0	0
383	0	0	0
384	0	0	0
385	0	0	0
386	0	0	0
387	0	0	0
388	0	0	0
389	0	0	0
390	0	0	0
391	0	0	0
392	0	0	0
393	0	0	0
394	0	0	0
395	0	0	0
396	234	202	223
397	245	203	231
398	239	185	224
399	240	183	226
400	240	180	225
401	244	183	227
402	245	180	225
403	246	177	223
404	245	172	220
405	255	188	231
406	247	178	222
407	235	168	214
408	245	187	226
409	251	198	232
410	245	193	224
411	243	189	220
412	246	197	225
413	0	0	0
414	0	0	0
415	0	0	0
416	0	0	0
417	0	0	0
418	0	0	0
419	0	0	0
420	0	0	0
421	0	0	0
422	0	0	0
423	0	0	0
424	0	0	0
425	0	0	0
426	0	0	0
427	0	0	0
428	0	0	0
429	0	0	0
430	0	0	0
431	238	207	226
432	243	197	226
433	236	179	218
434	239	180	223
435	239	179	226
436	241	178	228
437	242	176	225
438	245	174	224
439	244	169	219
440	242	165	216
441	233	156	209
442	243	175	221
443	252	192	229
444	245	187	223
445	241	184	221
446	247	193	227
447	248	199	230
448	0	0	0
449	0	0	0
450	0	0	0
451	0	0	0
452	0	0	0
453	0	0	0
454	0	0	0
455	0	0	0
456	0	0	0
457	0	0	0
458	0	0	0
459	0	0	0
460	0	0	0
461	0	0	0
462	0	0	0
463	0	0	0
464	0	0	0
465	0	0	0
466	237	204	223
467	239	192	222
468	238	182	218
469	240	184	224
470	240	180	227
471	244	181	230
472	242	175	226
473	243	172	224
474	242	168	220
475	238	163	216
476	242	170	220
477	255	192	234
478	248	182	223
479	240	176	216
480	245	186	225
481	252	195	233
482	244	190	226
483	0	0	0
484	0	0	0
485	0	0	0
486	0	0	0
487	0	0	0
488	0	0	0
489	0	0	0
490	0	0	0
491	0	0	0
492	0	0	0
493	0	0	0
494	0	0	0
495	0	0	0
496	0	0	0
497	0	0	0
498	0	0	0
499	0	0	0
500	242	218	229
501	241	204	224
502	248	200	227
503	246	191	223
504	248	189	226
505	247	185	228
506	247	181	228
507	245	175	224
508	247	174	226
509	246	171	225
510	249	178	229
511	253	184	230
512	250	179	225
513	242	171	217
514	243	178	221
515	246	186	226
516	244	185	225
517	234	180	220
518	0	0	0
519	0	0	0
520	0	0	0
521	0	0	0
522	0	0	0
523	0	0	0
524	0	0	0
525	0	0	0
526	0	0	0
527	0	0	0
528	0	0	0
529	0	0	0
530	0	0	0
531	0	0	0
532	0	0	0
533	0	0	0
534	242	229	233
535	248	218	231
536	242	194	221
537	246	190	222
538	246	183	220
539	251	183	223
540	247	175	221
541	243	168	219
542	244	167	220
543	248	168	223
544	246	165	222
545	247	171	225
546	249	176	225
547	246	171	221
548	244	170	220
549	243	177	225
550	236	175	221
551	228	171	216
552	232	185	223
553	0	0	0
554	0	0	0
555	0	0	0
556	0	0	0
557	0	0	0
558	0	0	0
559	0	0	0
560	0	0	0
561	0	0	0
562	0	0	0
563	0	0	0
564	0	0	0
565	0	0	0
566	0	0	0
567	0	0	0
568	0	0	0
569	247	228	234
570	248	210	229
571	242	187	220
572	245	183	222
573	245	176	220
574	246	171	218
575	243	162	215
576	243	161	216
577	244	160	219
578	248	163	222
579	245	159	217
580	248	166	220
581	251	172	224
582	253	175	227
583	250	173	228
584	243	173	227
585	235	170	223
586	236	182	228
587	237	194	230
588	0	0	0
589	0	0	0
590	0	0	0
591	0	0	0
592	0	0	0
593	0	0	0
594	0	0	0
595	0	0	0
596	0	0	0
597	0	0	0
598	0	0	0
599	0	0	0
600	0	0	0
601	0	0	0
602	0	0	0
603	0	0	0
604	247	218	230
605	246	198	224
606	242	180	218
607	242	176	220
608	243	172	220
609	243	166	218
610	244	163	217
611	249	165	221
612	253	167	225
613	255	168	227
614	247	157	217
615	252	165	222
616	253	166	224
617	253	168	227
618	243	158	221
619	237	157	220
620	243	176	231
621	243	187	234
622	238	194	230
623	0	0	0
624	0	0	0
625	0	0	0
626	0	0	0
627	0	0	0
628	0	0	0
629	0	0	0
630	0	0	0
631	0	0	0
632	0	0	0
633	0	0	0
634	0	0	0
635	0	0	0
636	0	0	0
637	0	0	0
638	248	223	232
639	249	210	228
640	249	195	224
641	243	176	217
642	242	173	220
643	243	170	222
644	245	168	223
645	246	165	220
646	252	167	223
647	255	168	226
648	252	161	223
649	245	151	216
650	247	156	220
651	246	156	220
652	240	149	217
653	229	138	209
654	240	161	223
655	245	178	232
656	238	183	228
657	0	0	0
658	0	0	0
659	0	0	0
660	0	0	0
661	0	0	0
662	0	0	0
663	0	0	0
664	0	0	0
665	0	0	0
666	0	0	0
667	0	0	0
668	0	0	0
669	0	0	0
670	0	0	0
671	0	0	0
672	250	229	233
673	252	216	229
674	248	196	221
675	245	180	216
676	242	170	215
677	240	166	217
678	245	171	223
679	246	168	224
680	243	160	219
681	249	162	221
682	253	164	224
683	248	157	221
684	242	149	217
685	242	152	220
686	235	145	216
687	226	137	211
688	224	138	211
689	239	162	226
690	239	175	229
691	0	0	0
692	0	0	0
693	0	0	0
694	0	0	0
695	0	0	0
696	0	0	0
697	0	0	0
698	0	0	0
699	0	0	0
700	0	0	0
701	0	0	0
702	0	0	0
703	0	0	0
704	0	0	0
705	0	0	0
706	243	224	227
707	249	220	226
708	247	201	219
709	243	181	213
710	247	177	217
711	244	167	216
712	245	169	220
713	248	172	224
714	245	164	221
715	243	157	218
716	247	159	222
717	250	160	224
718	244	152	219
719	236	142	214
720	230	139	213
721	223	132	211
722	224	137	215
723	221	138	216
724	237	163	231
725	235	174	228
726	0	0	0
727	0	0	0
728	0	0	0
729	0	0	0
730	0	0	0
731	0	0	0
732	0	0	0
733	0	0	0
734	0	0	0
735	0	0	0
736	0	0	0
737	0	0	0
738	0	0	0
739	0	0	0
740	241	231	231
741	249	227	232
742	241	201	217
743	237	181	209
744	239	172	210
745	244	168	216
746	241	160	214
747	242	162	218
748	249	170	224
749	247	162	221
750	245	156	220
751	247	157	222
752	249	161	226
753	242	152	220
754	234	143	215
755	228	139	214
756	229	144	219
757	234	151	226
758	234	154	228
759	246	176	240
760	233	175	227
761	0	0	0
762	0	0	0
763	0	0	0
764	0	0	0
765	0	0	0
766	0	0	0
767	0	0	0
768	0	0	0
769	0	0	0
770	0	0	0
771	0	0	0
772	0	0	0
773	0	0	0
774	0	0	0
775	243	230	232
776	241	208	222
777	234	183	210
778	239	177	214
779	241	168	217
780	245	165	220
781	240	154	216
782	243	160	220
783	249	167	225
784	246	159	221
785	243	152	218
786	246	157	223
787	249	161	227
788	242	154	222
789	235	145	216
790	238	152	222
791	239	156	226
792	244	165	233
793	241	166	232
794	242	176	234
795	230	175	225
796	0	0	0
797	0	0	0
798	0	0	0
799	0	0	0
800	0	0	0
801	0	0	0
802	0	0	0
803	0	0	0
804	0	0	0
805	0	0	0
806	0	0	0
807	0	0	0
808	0	0	0
809	0	0	0
810	245	224	231
811	242	202	222
812	237	177	213
813	244	173	219
814	239	157	216
815	238	151	216
816	241	155	219
817	244	160	222
818	248	166	226
819	243	156	220
820	243	155	220
821	247	160	225
822	245	157	224
823	241	151	221
824	234	141	215
825	241	150	222
826	242	155	225
827	242	161	228
828	233	157	222
829	231	165	223
830	229	179	225
831	0	0	0
832	0	0	0
833	0	0	0
834	0	0	0
835	0	0	0
836	0	0	0
837	0	0	0
838	0	0	0
839	0	0	0
840	0	0	0
841	0	0	0
842	0	0	0
843	0	0	0
844	239	221	227
845	245	216	229
846	242	193	222
847	237	169	214
848	240	160	217
849	233	143	211
850	239	151	218
851	241	154	218
852	243	158	220
853	248	164	226
854	247	161	224
855	247	160	223
856	244	156	220
857	242	153	219
858	238	146	217
859	234	138	215
860	247	152	227
861	247	156	228
862	242	158	226
863	231	153	220
864	233	172	227
865	0	0	0
866	0	0	0
867	0	0	0
868	0	0	0
869	0	0	0
870	0	0	0
871	0	0	0
872	0	0	0
873	0	0	0
874	0	0	0
875	0	0	0
876	0	0	0
877	0	0	0
878	246	231	233
879	246	221	230
880	240	200	222
881	235	176	215
882	234	162	215
883	237	153	217
884	237	147	217
885	243	154	222
886	243	156	221
887	245	159	222
888	251	166	227
889	251	164	225
890	249	159	221
891	246	155	219
892	250	159	223
893	243	151	221
894	235	138	216
895	249	153	229
896	246	151	225
897	240	152	223
898	226	146	216
899	227	165	222
900	0	0	0
901	0	0	0
902	0	0	0
903	0	0	0
904	0	0	0
905	0	0	0
906	0	0	0
907	0	0	0
908	0	0	0
909	0	0	0
910	0	0	0
911	0	0	0
912	0	0	0
913	248	228	233
914	241	206	224
915	236	185	216
916	238	172	217
917	236	157	217
918	243	158	224
919	242	151	222
920	247	158	226
921	248	159	226
922	251	164	227
923	255	169	227
924	250	161	220
925	248	156	218
926	250	159	221
927	253	163	225
928	239	147	217
929	231	133	212
930	242	143	222
931	239	142	219
932	235	146	219
933	221	140	213
934	234	176	230
935	243	206	237
936	0	0	0
937	0	0	0
938	0	0	0
939	0	0	0
940	0	0	0
941	0	0	0
942	0	0	0
943	0	0	0
944	0	0	0
945	0	0	0
946	0	0	0
947	0	0	0
948	247	220	231
949	243	199	223
950	238	177	216
951	240	165	217
952	241	156	219
953	244	154	223
954	247	155	225
955	254	162	231
956	249	154	225
957	251	158	225
958	249	158	220
959	241	148	211
960	249	160	220
961	251	162	223
962	248	159	222
963	236	144	214
964	239	147	220
965	247	156	229
966	235	141	218
967	233	146	220
968	227	150	219
969	240	186	235
970	238	201	233
971	0	0	0
972	0	0	0
973	0	0	0
974	0	0	0
975	0	0	0
976	0	0	0
977	0	0	0
978	0	0	0
979	0	0	0
980	0	0	0
981	0	0	0
982	0	0	0
983	241	207	224
984	239	188	219
985	235	166	213
986	244	164	220
987	243	153	218
988	250	159	226
989	252	159	228
990	252	156	227
991	246	148	221
992	248	151	222
993	247	151	220
994	250	158	222
995	255	169	228
996	252	162	224
997	249	159	223
998	248	160	226
999	250	162	230
1000	245	155	227
1001	233	141	218
1002	238	156	227
1003	231	158	223
1004	234	180	229
1005	233	197	230
1006	0	0	0
1007	0	0	0
1008	0	0	0
1009	0	0	0
1010	0	0	0
1011	0	0	0
1012	0	0	0
1013	0	0	0
1014	0	0	0
1015	0	0	0
1016	0	0	0
1017	0	0	0
1018	237	199	221
1019	234	178	216
1020	233	163	214
1021	241	160	221
1022	243	153	220
1023	252	159	228
1024	247	149	222
1025	243	144	220
1026	239	138	217
1027	242	142	219
1028	243	145	220
1029	248	153	223
1030	255	164	227
1031	250	157	221
1032	246	153	220
1033	245	154	222
1034	245	154	224
1035	240	147	221
1036	235	145	220
1037	238	158	227
1038	225	155	219
1039	228	176	225
1040	237	205	235
1041	0	0	0
1042	0	0	0
1043	0	0	0
1044	0	0	0
1045	0	0	0
1046	0	0	0
1047	0	0	0
1048	0	0	0
1049	0	0	0
1050	0	0	0
1051	0	0	0
1052	241	213	227
1053	237	192	221
1054	237	178	220
1055	235	162	219
1056	241	159	224
1057	242	150	223
1058	242	145	221
1059	235	133	212
1060	231	129	210
1061	228	125	209
1062	233	132	215
1063	234	135	217
1064	240	145	221
1065	246	155	223
1066	240	148	216
1067	238	145	214
1068	242	149	219
1069	241	149	221
1070	241	151	222
1071	234	146	218
1072	231	153	221
1073	220	151	216
1074	232	184	232
1075	241	213	239
1076	0	0	0
1077	0	0	0
1078	0	0	0
1079	0	0	0
1080	0	0	0
1081	0	0	0
1082	0	0	0
1083	0	0	0
1084	0	0	0
1085	0	0	0
1086	245	223	233
1087	236	198	222
1088	233	180	218
1089	235	166	218
1090	241	163	225
1091	242	157	226
1092	241	152	226
1093	238	144	222
1094	236	141	218
1095	233	137	216
1096	232	137	217
1097	237	144	223
1098	241	151	227
1099	246	160	231
1100	244	160	226
1101	236	151	218
1102	242	157	223
1103	251	164	230
1104	231	136	212
1105	224	134	210
1106	229	151	218
1107	229	158	222
1108	227	165	224
1109	243	200	241
1110	244	215	239
1111	0	0	0
1112	0	0	0
1113	0	0	0
1114	0	0	0
1115	0	0	0
1116	0	0	0
1117	0	0	0
1118	0	0	0
1119	0	0	0
1120	0	0	0
1121	234	203	223
1122	230	184	218
1123	227	166	215
1124	239	167	225
1125	243	163	229
1126	244	159	230
1127	241	152	227
1128	241	150	227
1129	239	147	224
1130	238	148	223
1131	236	146	221
1132	243	156	227
1133	245	162	231
1134	240	160	227
1135	237	159	224
1136	235	159	222
1137	242	164	227
1138	232	144	215
1139	212	117	197
1140	223	140	213
1141	229	157	222
1142	234	170	228
1143	232	177	229
1144	241	198	236
1145	243	214	235
1146	0	0	0
1147	0	0	0
1148	0	0	0
1149	0	0	0
1150	0	0	0
1151	0	0	0
1152	0	0	0
1153	0	0	0
1154	0	0	0
1155	0	0	0
1156	236	206	228
1157	235	189	225
1158	233	171	223
1159	242	171	231
1160	245	165	231
1161	247	161	232
1162	245	155	228
1163	245	153	227
1164	245	154	228
1165	243	154	226
1166	243	155	224
1167	251	165	231
1168	244	162	227
1169	232	155	220
1170	235	166	227
1171	237	167	227
1172	237	166	227
1173	222	143	211
1174	221	141	211
1175	239	168	231
1176	229	159	223
1177	232	171	227
1178	233	182	228
1179	243	204	236
1180	239	210	230
1181	0	0	0
1182	0	0	0
1183	0	0	0
1184	0	0	0
1185	0	0	0
1186	0	0	0
1187	0	0	0
1188	0	0	0
1189	0	0	0
1190	0	0	0
1191	232	205	227
1192	234	189	225
1193	231	171	222
1194	241	171	230
1195	244	165	230
1196	247	163	230
1197	245	156	225
1198	248	159	227
1199	248	160	228
1200	247	161	227
1201	247	162	227
1202	250	165	229
1203	242	161	224
1204	236	165	224
1205	241	177	233
1206	238	172	230
1207	238	170	229
1208	236	168	228
1209	233	165	225
1210	236	167	227
1211	227	159	221
1212	235	177	229
1213	236	187	229
1214	238	198	228
1215	236	206	225
1216	0	0	0
1217	0	0	0
1218	0	0	0
1219	0	0	0
1220	0	0	0
1221	0	0	0
1222	0	0	0
1223	0	0	0
1224	0	0	0
1225	0	0	0
1226	228	204	226
1227	229	188	224
1228	230	173	223
1229	243	175	232
1230	242	164	229
1231	243	160	228
1232	243	157	224
1233	246	161	226
1234	243	157	223
1235	242	158	223
1236	247	166	228
1237	249	168	230
1238	234	154	218
1239	232	160	221
1240	242	178	232
1241	241	173	229
1242	241	172	230
1243	237	169	227
1244	234	167	224
1245	236	169	226
1246	231	165	224
1247	241	184	233
1248	240	191	230
1249	240	201	228
1250	235	204	224
1251	0	0	0
1252	0	0	0
1253	0	0	0
1254	0	0	0
1255	0	0	0
1256	0	0	0
1257	0	0	0
1258	0	0	0
1259	0	0	0
1260	0	0	0
1261	226	203	226
1262	230	192	227
1263	230	176	224
1264	237	172	229
1265	237	161	228
1266	240	162	230
1267	240	158	226
1268	242	158	225
1269	238	155	222
1270	242	162	226
1271	246	169	229
1272	238	159	222
1273	227	147	215
1274	236	164	226
1275	246	181	233
1276	245	178	230
1277	245	177	231
1278	240	174	229
1279	239	173	228
1280	241	176	231
1281	236	172	228
1282	242	186	233
1283	241	193	230
1284	237	197	225
1285	234	202	222
1286	0	0	0
1287	0	0	0
1288	0	0	0
1289	0	0	0
1290	0	0	0
1291	0	0	0
1292	0	0	0
1293	0	0	0
1294	0	0	0
1295	0	0	0
1296	232	211	232
1297	236	200	234
1298	226	172	222
1299	229	166	225
1300	237	170	233
1301	242	171	235
1302	241	166	231
1303	243	166	231
1304	239	161	226
1305	243	169	230
1306	243	170	229
1307	234	159	221
1308	237	164	226
1309	251	184	240
1310	243	174	228
1311	240	169	223
1312	243	174	228
1313	239	171	226
1314	244	180	233
1315	247	183	236
1316	233	167	224
1317	237	180	228
1318	241	195	231
1319	238	200	227
1320	235	203	223
1321	0	0	0
1322	0	0	0
1323	0	0	0
1324	0	0	0
1325	0	0	0
1326	0	0	0
1327	0	0	0
1328	0	0	0
1329	0	0	0
1330	0	0	0
1331	0	0	0
1332	231	194	229
1333	220	167	221
1334	233	176	234
1335	239	179	237
1336	241	176	236
1337	240	172	233
1338	240	170	232
1339	238	165	229
1340	241	169	231
1341	241	170	230
1342	240	173	230
1343	242	177	231
1344	240	172	228
1345	234	163	221
1346	238	168	225
1347	240	172	227
1348	242	178	230
1349	246	185	235
1350	238	174	228
1351	225	159	218
1352	235	181	229
1353	240	196	232
1354	236	198	226
1355	235	202	223
1356	0	0	0
1357	0	0	0
1358	0	0	0
1359	0	0	0
1360	0	0	0
1361	0	0	0
1362	0	0	0
1363	0	0	0
1364	0	0	0
1365	0	0	0
1366	0	0	0
1367	0	0	0
1368	227	181	229
1369	240	190	242
1370	236	180	235
1371	235	176	233
1372	238	177	233
1373	240	176	234
1374	242	175	234
1375	246	179	237
1376	242	175	232
1377	241	177	231
1378	238	175	229
1379	234	169	224
1380	232	167	224
1381	236	173	229
1382	235	172	227
1383	239	178	231
1384	240	181	231
1385	227	169	222
1386	225	169	223
1387	242	193	238
1388	242	199	234
1389	237	201	227
1390	241	208	228
1391	250	217	232
1392	0	0	0
1393	0	0	0
1394	0	0	0
1395	0	0	0
1396	0	0	0
1397	0	0	0
1398	0	0	0
1399	0	0	0
1400	0	0	0
1401	0	0	0
1402	0	0	0
1403	0	0	0
1404	234	189	236
1405	231	180	232
1406	237	183	236
1407	239	183	236
1408	241	183	236
1409	242	182	237
1410	245	182	237
1411	242	178	232
1412	239	177	231
1413	237	176	229
1414	235	174	228
1415	232	171	227
1416	232	172	228
1417	232	172	228
1418	238	179	232
1419	238	181	232
1420	233	181	231
1421	231	181	232
1422	240	193	237
1423	240	199	232
1424	238	201	227
1425	244	209	230
1426	244	205	226
1427	235	194	217
1428	241	212	226
1429	0	0	0
1430	0	0	0
1431	0	0	0
1432	0	0	0
1433	0	0	0
1434	0	0	0
1435	0	0	0
1436	0	0	0
1437	0	0	0
1438	0	0	0
1439	0	0	0
1440	233	189	236
1441	242	194	243
1442	236	183	235
1443	233	180	232
1444	236	182	235
1445	241	184	236
1446	241	181	233
1447	241	181	232
1448	238	178	231
1449	234	175	229
1450	232	173	228
1451	233	175	230
1452	238	182	235
1453	244	188	239
1454	233	175	228
1455	228	175	227
1456	234	187	235
1457	241	197	238
1458	241	200	232
1459	241	205	230
1460	245	209	231
1461	245	204	227
1462	241	199	223
1463	250	218	235
1464	239	210	225
1465	0	0	0
1466	0	0	0
1467	0	0	0
1468	0	0	0
1469	0	0	0
1470	0	0	0
1471	0	0	0
1472	0	0	0
1473	0	0	0
1474	0	0	0
1475	0	0	0
1476	235	191	238
1477	229	179	231
1478	229	181	232
1479	232	183	235
1480	239	185	237
1481	239	183	233
1482	240	182	232
1483	238	180	231
1484	236	179	231
1485	233	176	231
1486	237	183	234
1487	241	188	236
1488	234	178	227
1489	224	165	220
1490	233	181	230
1491	238	192	236
1492	241	198	236
1493	241	202	232
1494	240	202	228
1495	243	206	230
1496	242	203	228
1497	238	198	223
1498	235	196	221
1499	226	189	214
1500	0	0	0
1501	0	0	0
1502	0	0	0
1503	0	0	0
1504	0	0	0
1505	0	0	0
1506	0	0	0
1507	0	0	0
1508	0	0	0
1509	0	0	0
1510	0	0	0
1511	0	0	0
1512	231	193	236
1513	235	197	241
1514	233	190	238
1515	239	191	239
1516	238	186	234
1517	241	186	234
1518	239	181	232
1519	238	181	233
1520	235	178	231
1521	237	183	233
1522	238	188	233
1523	228	176	222
1524	231	180	226
1525	245	199	240
1526	240	192	233
1527	240	196	232
1528	241	201	232
1529	241	203	231
1530	240	204	231
1531	235	199	225
1532	234	199	224
1533	233	199	223
1534	232	197	222
1535	246	217	235
1536	0	0	0
1537	0	0	0
1538	0	0	0
1539	0	0	0
1540	0	0	0
1541	0	0	0
1542	0	0	0
1543	0	0	0
1544	0	0	0
1545	0	0	0
1546	0	0	0
1547	0	0	0
1548	232	199	236
1549	230	192	233
1550	233	189	233
1551	232	184	230
1552	234	182	231
1553	232	178	229
1554	232	177	229
1555	228	174	225
1556	232	181	228
1557	235	188	230
1558	236	191	230
1559	238	194	230
1560	239	192	228
1561	233	186	223
1562	236	193	227
1563	239	199	231
1564	235	198	229
1565	233	198	227
1566	229	197	224
1567	229	198	223
1568	233	201	224
1569	234	200	223
1570	240	205	226
1571	239	204	223
1572	0	0	0
1573	0	0	0
1574	0	0	0
1575	0	0	0
1576	0	0	0
1577	0	0	0
1578	0	0	0
1579	0	0	0
1580	0	0	0
1581	0	0	0
1582	0	0	0
1583	0	0	0
1584	0	0	0
1585	234	198	234
1586	231	191	231
1587	230	188	232
1588	228	184	230
1589	227	183	230
1590	230	187	230
1591	237	196	234
1592	236	193	231
1593	242	199	234
1594	232	186	223
1595	227	181	218
1596	234	193	225
1597	242	203	233
1598	241	205	234
1599	232	201	229
1600	232	205	230
1601	231	205	228
1602	234	207	228
1603	240	211	231
1604	232	195	222
1605	237	200	225
1606	245	209	230
1607	248	214	232
1608	0	0	0
1609	0	0	0
1610	0	0	0
1611	0	0	0
1612	0	0	0
1613	0	0	0
1614	0	0	0
1615	0	0	0
1616	0	0	0
1617	0	0	0
1618	0	0	0
1619	0	0	0
1620	0	0	0
1621	231	197	232
1622	231	195	233
1623	228	191	232
1624	233	198	237
1625	236	202	238
1626	237	200	235
1627	237	197	232
1628	237	192	229
1629	229	181	224
1630	235	194	231
1631	241	205	236
1632	245	208	236
1633	242	209	234
1634	233	207	229
1635	233	212	231
1636	233	211	229
1637	237	213	229
1638	234	201	224
1639	227	187	220
1640	239	201	231
1641	247	210	233
1642	244	205	228
1643	0	0	0
1644	0	0	0
1645	0	0	0
1646	0	0	0
1647	0	0	0
1648	0	0	0
1649	0	0	0
1650	0	0	0
1651	0	0	0
1652	0	0	0
1653	0	0	0
1654	0	0	0
1655	0	0	0
1656	0	0	0
1657	0	0	0
1658	232	200	235
1659	237	207	240
1660	233	199	233
1661	234	197	230
1662	237	197	230
1663	237	192	229
1664	236	189	230
1665	242	202	239
1666	238	200	233
1667	237	201	230
1668	236	205	229
1669	231	205	226
1670	237	217	233
1671	238	216	231
1672	240	216	230
1673	237	205	226
1674	237	200	230
1675	248	213	240
1676	247	210	234
1677	247	206	231
1678	242	199	228
1679	0	0	0
1680	0	0	0
1681	0	0	0
1682	0	0	0
1683	0	0	0
1684	0	0	0
1685	0	0	0
1686	0	0	0
1687	0	0	0
1688	0	0	0
1689	0	0	0
1690	0	0	0
1691	0	0	0
1692	0	0	0
1693	0	0	0
1694	230	200	231
1695	226	193	226
1696	231	194	228
1697	236	196	229
1698	242	199	233
1699	241	195	232
1700	239	197	233
1701	235	196	230
1702	237	201	231
1703	236	206	231
1704	235	212	231
1705	241	223	236
1706	240	219	231
1707	243	219	231
1708	244	215	232
1709	243	209	233
1710	242	207	232
1711	241	204	228
1712	242	201	226
1713	238	194	225
1714	234	197	227
1715	0	0	0
1716	0	0	0
1717	0	0	0
1718	0	0	0
1719	0	0	0
1720	0	0	0
1721	0	0	0
1722	0	0	0
1723	0	0	0
1724	0	0	0
1725	0	0	0
1726	0	0	0
1727	0	0	0
1728	0	0	0
1729	0	0	0
1730	231	205	230
1731	239	208	235
1732	239	202	232
1733	248	206	238
1734	237	188	227
1735	235	190	228
1736	239	199	233
1737	241	205	235
1738	237	207	232
1739	234	212	230
1740	239	222	233
1741	238	217	228
1742	237	211	225
1743	238	207	226
1744	242	209	231
1745	240	206	231
1746	241	206	229
1747	241	202	228
1748	238	200	229
1749	237	203	231
1750	232	203	229
1751	0	0	0
1752	0	0	0
1753	0	0	0
1754	0	0	0
1755	0	0	0
1756	0	0	0
1757	0	0	0
1758	0	0	0
1759	0	0	0
1760	0	0	0
1761	0	0	0
1762	0	0	0
1763	0	0	0
1764	0	0	0
1765	237	216	233
1766	238	211	231
1767	239	204	229
1768	239	195	228
1769	230	179	221
1770	238	193	232
1771	241	202	235
1772	242	206	235
1773	239	208	232
1774	239	214	233
1775	245	225	235
1776	242	217	229
1777	240	211	227
1778	240	209	229
1779	241	210	233
1780	238	207	231
1781	239	207	232
1782	239	205	232
1783	235	201	229
1784	234	205	230
1785	0	0	0
1786	0	0	0
1787	0	0	0
1788	0	0	0
1789	0	0	0
1790	0	0	0
1791	0	0	0
1792	0	0	0
1793	0	0	0
1794	0	0	0
1795	0	0	0
1796	0	0	0
1797	0	0	0
1798	0	0	0
1799	0	0	0
1800	235	216	230
1801	235	210	228
1802	234	201	225
1803	232	192	223
1804	235	191	227
1805	247	207	240
1806	245	205	236
1807	244	209	235
1808	242	209	233
1809	246	218	236
1810	246	217	232
1811	246	211	229
1812	240	202	225
1813	231	196	222
1814	240	214	234
1815	237	211	233
1816	238	212	235
1817	236	209	233
1818	233	207	230
1819	0	0	0
1820	0	0	0
1821	0	0	0
1822	0	0	0
1823	0	0	0
1824	0	0	0
1825	0	0	0
1826	0	0	0
1827	0	0	0
1828	0	0	0
1829	0	0	0
1830	0	0	0
1831	0	0	0
1832	0	0	0
1833	0	0	0
1834	0	0	0
1835	0	0	0
1836	233	208	227
1837	231	199	224
1838	235	201	228
1839	237	200	229
1840	245	207	235
1841	244	206	233
1842	241	206	231
1843	241	208	230
1844	239	205	227
1845	241	205	227
1846	239	199	225
1847	232	191	220
1848	235	204	229
1849	242	220	237
1850	237	216	233
1851	237	217	234
1852	234	215	233
1853	0	0	0
1854	0	0	0
1855	0	0	0
1856	0	0	0
1857	0	0	0
1858	0	0	0
1859	0	0	0
1860	0	0	0
1861	0	0	0
1862	0	0	0
1863	0	0	0
1864	0	0	0
1865	0	0	0
1866	0	0	0
1867	0	0	0
1868	0	0	0
1869	0	0	0
1870	0	0	0
1871	0	0	0
1872	233	205	227
1873	236	207	230
1874	236	203	228
1875	244	210	234
1876	239	202	230
1877	237	203	229
1878	240	209	231
1879	241	207	230
1880	238	203	227
1881	230	194	222
1882	230	199	226
1883	238	214	236
1884	236	216	233
1885	0	0	0
1886	0	0	0
1887	0	0	0
1888	0	0	0
1889	0	0	0
1890	0	0	0
1891	0	0	0
1892	0	0	0
1893	0	0	0
1894	0	0	0
1895	0	0	0
1896	0	0	0
1897	0	0	0
1898	0	0	0
1899	0	0	0
1900	0	0	0
1901	0	0	0
1902	0	0	0
1903	0	0	0
1904	0	0	0
1905	0	0	0
1906	0	0	0
1907	0	0	0
1908	236	211	231
1909	236	208	232
1910	240	206	233
1911	236	199	229
1912	236	203	231
1913	240	209	233
1914	240	205	230
1915	235	200	226
1916	233	204	228
1917	233	208	231
1918	231	210	231
1919	0	0	0
1920	0	0	0
1921	0	0	0
1922	0	0	0
1923	0	0	0
1924	0	0	0
1925	0	0	0
1926	0	0	0
1927	0	0	0
1928	0	0	0
1929	0	0	0
1930	0	0	0
1931	0	0	0
1932	0	0	0
1933	0	0	0
1934	0	0	0
1935	0	0	0
1936	0	0	0
1937	0	0	0
1938	0	0	0
1939	0	0	0
1940	0	0	0
1941	0	0	0
1942	0	0	0
1943	0	0	0
1944	234	207	231
1945	238	206	234
1946	236	203	232
1947	239	207	235
1948	241	211	236
1949	240	207	232
1950	237	204	229
1951	237	209	232
1952	236	213	234
1953	0	0	0
1954	0	0	0
1955	0	0	0
1956	0	0	0
1957	0	0	0
1958	0	0	0
1959	0	0	0
1960	0	0	0
1961	0	0	0
1962	0	0	0
1963	0	0	0
1964	0	0	0
1965	0	0	0
1966	0	0	0
1967	0	0	0
1968	0	0	0
1969	0	0	0
1970	0	0	0
1971	0	0	0
1972	0	0	0
1973	0	0	0
1974	0	0	0
1975	0	0	0
1976	0	0	0
1977	0	0	0
1978	0	0	0
1979	234	208	230
1980	238	209	234
1981	237	205	233
1982	238	208	234
1983	240	211	235
1984	238	209	233
1985	235	205	230
1986	235	211	232
1987	0	0	0
1988	0	0	0
1989	0	0	0
1990	0	0	0
1991	0	0	0
1992	0	0	0
1993	0	0	0
1994	0	0	0
1995	0	0	0
1996	0	0	0
1997	0	0	0
1998	0	0	0
1999	0	0	0
2000	0	0	0
2001	0	0	0
2002	0	0	0
2003	0	0	0
2004	0	0	0
2005	0	0	0
2006	0	0	0
2007	0	0	0
2008	0	0	0
2009	0	0	0
2010	0	0	0
2011	0	0	0
2012	0	0	0
2013	0	0	0
2014	0	0	0
2015	241	213	236
2016	235	203	231
2017	234	206	233
2018	235	209	233
2019	229	204	228
2020	0	0	0
2021	0	0	0
2022	0	0	0
2023	0	0	0
2024	0	0	0
2025	0	0	0
2026	0	0	0
2027	0	0	0
2028	0	0	0
2029	0	0	0
2030	0	0	0
2031	0	0	0
2032	0	0	0
2033	0	0	0
2034	0	0	0
2035	0	0	0
2036	0	0	0
2037	0	0	0
2038	0	0	0
2039	0	0	0
2040	0	0	0
2041	0	0	0
2042	0	0	0
2043	0	0	0
2044	0	0	0
2045	0	0	0
2046	0	0	0
2047	0	0	0
2048	0	0	0
2049	0	0	0
2050	0	0	0
2051	228	198	227
2052	230	204	231
2053	0	0	0
2054	0	0	0
2055	0	0	0
2056	0	0	0
2057	0	0	0
2058	0	0	0
2059	0	0	0
2060	0	0	0
2061	0	0	0
2062	0	0	0
2063	0	0	0
2064	0	0	0
2065	0	0	0
