 	R	G	B
1	0	0	0
2	0	0	0
3	0	0	0
4	255	204	228
5	0	0	0
6	0	0	0
7	0	0	0
8	0	0	0
9	0	0	0
10	0	0	0
11	0	0	0
12	0	0	0
13	0	0	0
14	0	0	0
15	0	0	0
16	0	0	0
17	0	0	0
18	0	0	0
19	0	0	0
20	0	0	0
21	0	0	0
22	0	0	0
23	0	0	0
24	0	0	0
25	0	0	0
26	0	0	0
27	0	0	0
28	0	0	0
29	0	0	0
30	255	212	232
31	250	194	224
32	255	197	229
33	248	185	223
34	0	0	0
35	0	0	0
36	0	0	0
37	0	0	0
38	0	0	0
39	0	0	0
40	0	0	0
41	0	0	0
42	0	0	0
43	0	0	0
44	0	0	0
45	0	0	0
46	0	0	0
47	0	0	0
48	0	0	0
49	0	0	0
50	0	0	0
51	0	0	0
52	0	0	0
53	0	0	0
54	0	0	0
55	0	0	0
56	0	0	0
57	249	206	226
58	250	197	225
59	243	180	219
60	245	177	221
61	239	164	214
62	0	0	0
63	0	0	0
64	255	189	226
65	0	0	0
66	0	0	0
67	0	0	0
68	0	0	0
69	0	0	0
70	0	0	0
71	0	0	0
72	0	0	0
73	0	0	0
74	0	0	0
75	0	0	0
76	0	0	0
77	0	0	0
78	0	0	0
79	0	0	0
80	0	0	0
81	0	0	0
82	0	0	0
83	0	0	0
84	0	0	0
85	252	207	231
86	254	199	231
87	245	178	223
88	249	176	226
89	244	166	223
90	254	178	231
91	254	179	227
92	255	186	228
93	248	176	217
94	0	0	0
95	0	0	0
96	0	0	0
97	0	0	0
98	0	0	0
99	0	0	0
100	0	0	0
101	0	0	0
102	0	0	0
103	0	0	0
104	0	0	0
105	0	0	0
106	0	0	0
107	0	0	0
108	0	0	0
109	0	0	0
110	0	0	0
111	0	0	0
112	0	0	0
113	0	0	0
114	248	189	230
115	240	168	220
116	246	170	227
117	243	161	225
118	254	173	234
119	254	174	230
120	251	169	224
121	242	160	214
122	255	181	225
123	255	197	230
124	255	198	225
125	0	0	0
126	0	0	0
127	0	0	0
128	0	0	0
129	0	0	0
130	0	0	0
131	0	0	0
132	0	0	0
133	0	0	0
134	0	0	0
135	0	0	0
136	0	0	0
137	0	0	0
138	0	0	0
139	0	0	0
140	0	0	0
141	0	0	0
142	0	0	0
143	248	180	231
144	255	182	238
145	250	168	233
146	255	179	243
147	248	160	227
148	246	157	222
149	248	161	221
150	255	182	232
151	255	180	225
152	254	182	220
153	253	187	217
154	0	0	0
155	0	0	0
156	0	0	0
157	0	0	0
158	0	0	0
159	0	0	0
160	0	0	0
161	0	0	0
162	0	0	0
163	0	0	0
164	0	0	0
165	0	0	0
166	0	0	0
167	0	0	0
168	0	0	0
169	0	0	0
170	0	0	0
171	252	187	236
172	253	179	237
173	247	164	229
174	244	155	226
175	235	139	217
176	245	152	225
177	246	155	219
178	250	162	221
179	247	161	217
180	251	171	220
181	251	176	217
182	255	188	219
183	255	202	224
184	255	209	226
185	255	220	234
186	0	0	0
187	250	206	217
188	255	220	223
189	0	0	0
190	0	0	0
191	0	0	0
192	0	0	0
193	0	0	0
194	0	0	0
195	0	0	0
196	0	0	0
197	0	0	0
198	0	0	0
199	255	192	238
200	255	185	239
201	247	166	229
202	246	158	228
203	250	159	232
204	255	173	242
205	251	158	226
206	255	166	228
207	245	150	217
208	250	161	220
209	253	172	220
210	255	184	223
211	255	187	219
212	255	194	221
213	255	202	225
214	249	194	217
215	255	208	222
216	255	221	227
217	255	218	222
218	0	0	0
219	0	0	0
220	0	0	0
221	0	0	0
222	0	0	0
223	0	0	0
224	0	0	0
225	0	0	0
226	0	0	0
227	250	192	232
228	247	177	229
229	240	160	223
230	251	168	233
231	254	169	234
232	253	163	231
233	246	151	222
234	244	145	219
235	234	132	209
236	247	152	220
237	251	163	220
238	252	169	219
239	250	173	217
240	251	179	218
241	252	186	220
242	255	198	224
243	255	211	228
244	253	206	220
245	0	0	0
246	0	0	0
247	0	0	0
248	0	0	0
249	0	0	0
250	0	0	0
251	0	0	0
252	0	0	0
253	0	0	0
254	0	0	0
255	255	206	238
256	252	192	234
257	247	175	230
258	255	184	241
259	255	172	234
260	255	167	233
261	250	155	227
262	250	152	227
263	244	142	220
264	255	164	233
265	255	162	226
266	255	169	225
267	248	162	217
268	249	169	217
269	255	187	225
270	255	198	227
271	255	201	224
272	0	0	0
273	0	0	0
274	0	0	0
275	0	0	0
276	0	0	0
277	0	0	0
278	0	0	0
279	0	0	0
280	0	0	0
281	0	0	0
282	0	0	0
283	255	215	242
284	252	200	237
285	248	183	231
286	253	181	236
287	251	171	233
288	252	165	232
289	248	154	227
290	252	154	230
291	247	146	224
292	255	156	231
293	253	156	226
294	251	155	221
295	243	149	213
296	254	170	223
297	255	187	227
298	255	191	224
299	255	194	222
300	255	207	227
301	255	222	233
302	255	221	229
303	0	0	0
304	0	0	0
305	0	0	0
306	0	0	0
307	0	0	0
308	0	0	0
309	0	0	0
310	0	0	0
311	255	231	248
312	255	216	243
313	251	197	236
314	255	196	242
315	251	175	234
316	253	170	236
317	251	159	231
318	255	161	235
319	249	147	227
320	255	158	234
321	247	143	222
322	246	144	219
323	249	152	220
324	255	173	229
325	255	175	223
326	255	178	219
327	249	177	214
328	254	190	219
329	255	207	224
330	254	205	219
331	255	214	223
332	0	0	0
333	0	0	0
334	0	0	0
335	0	0	0
336	0	0	0
337	0	0	0
338	0	0	0
339	0	0	0
340	254	225	243
341	0	0	0
342	247	189	233
343	241	169	228
344	247	167	233
345	246	157	229
346	248	152	228
347	242	139	221
348	243	136	221
349	234	124	210
350	246	141	220
351	249	149	220
352	252	157	220
353	250	160	216
354	247	161	212
355	241	159	207
356	250	178	215
357	255	194	218
358	253	198	214
359	254	206	217
360	0	0	0
361	0	0	0
362	0	0	0
363	0	0	0
364	0	0	0
365	0	0	0
366	0	0	0
367	0	0	0
368	0	0	0
369	0	0	0
370	0	0	0
371	250	193	239
372	255	192	247
373	250	169	235
374	253	165	236
375	245	146	227
376	248	145	228
377	246	140	224
378	255	159	235
379	251	149	223
380	255	158	225
381	251	157	219
382	250	159	217
383	249	165	217
384	255	183	223
385	255	187	218
386	252	191	214
387	255	202	218
388	0	0	0
389	0	0	0
390	0	0	0
391	0	0	0
392	0	0	0
393	0	0	0
394	0	0	0
395	0	0	0
396	0	0	0
397	0	0	0
398	0	0	0
399	0	0	0
400	249	190	237
401	241	168	228
402	243	159	229
403	238	143	222
404	248	150	231
405	248	147	228
406	252	149	229
407	245	141	219
408	250	149	222
409	248	150	219
410	252	159	222
411	252	165	221
412	253	173	221
413	251	177	216
414	253	187	217
415	255	198	221
416	255	205	221
417	0	0	0
418	0	0	0
419	0	0	0
420	0	0	0
421	0	0	0
422	0	0	0
423	0	0	0
424	0	0	0
425	0	0	0
426	0	0	0
427	253	222	243
428	244	200	235
429	247	191	237
430	254	185	241
431	251	169	235
432	255	177	245
433	250	153	230
434	255	157	234
435	247	144	224
436	254	153	230
437	246	144	220
438	250	154	223
439	255	167	226
440	255	174	225
441	251	173	219
442	254	184	221
443	255	199	226
444	255	204	225
445	253	201	218
446	0	0	0
447	0	0	0
448	0	0	0
449	0	0	0
450	0	0	0
451	0	0	0
452	0	0	0
453	0	0	0
454	0	0	0
455	0	0	0
456	251	223	243
457	254	214	244
458	255	203	244
459	255	187	237
460	254	173	234
461	243	151	224
462	247	149	228
463	241	138	221
464	244	140	223
465	237	131	216
466	250	152	227
467	255	164	228
468	253	167	223
469	248	167	217
470	254	181	223
471	255	196	229
472	253	192	221
473	248	189	214
474	252	200	219
475	0	0	0
476	0	0	0
477	0	0	0
478	0	0	0
479	0	0	0
480	0	0	0
481	0	0	0
482	0	0	0
483	0	0	0
484	0	0	0
485	255	228	248
486	255	216	247
487	252	190	233
488	250	176	230
489	247	163	229
490	253	164	236
491	248	151	230
492	252	154	234
493	247	147	229
494	255	168	240
495	251	158	226
496	250	162	223
497	250	167	221
498	255	183	226
499	255	192	227
500	253	188	220
501	254	193	221
502	255	204	227
503	253	201	224
504	0	0	0
505	0	0	0
506	0	0	0
507	0	0	0
508	0	0	0
509	0	0	0
510	0	0	0
511	0	0	0
512	0	0	0
513	0	0	0
514	251	215	241
515	242	189	228
516	244	180	229
517	243	167	227
518	249	166	233
519	245	155	229
520	251	159	235
521	247	152	229
522	248	152	227
523	240	145	218
524	247	157	223
525	248	163	221
526	251	174	221
527	253	182	220
528	253	186	219
529	255	194	225
530	252	193	224
531	247	189	218
532	0	0	0
533	0	0	0
534	0	0	0
535	0	0	0
536	0	0	0
537	0	0	0
538	0	0	0
539	0	0	0
540	0	0	0
541	0	0	0
542	0	0	0
543	0	0	0
544	0	0	0
545	252	191	238
546	255	190	243
547	247	166	232
548	255	171	238
549	248	159	230
550	251	161	231
551	250	161	230
552	255	175	237
553	250	166	225
554	254	177	226
555	255	184	224
556	255	189	224
557	255	193	228
558	254	192	226
559	251	191	224
560	255	203	228
561	0	0	0
562	0	0	0
563	0	0	0
564	0	0	0
565	0	0	0
566	0	0	0
567	0	0	0
568	0	0	0
569	0	0	0
570	0	0	0
571	0	0	0
572	255	229	248
573	255	211	242
574	253	194	236
575	243	170	225
576	248	170	231
577	244	160	227
578	253	170	236
579	254	171	234
580	252	169	231
581	244	162	220
582	250	173	225
583	254	183	228
584	254	185	227
585	253	188	226
586	252	189	225
587	251	190	226
588	0	0	0
589	0	0	0
590	0	0	0
591	0	0	0
592	0	0	0
593	0	0	0
594	0	0	0
595	0	0	0
596	0	0	0
597	0	0	0
598	0	0	0
599	0	0	0
600	0	0	0
601	255	224	243
602	255	207	238
603	249	188	231
604	255	189	238
605	249	174	232
606	255	184	242
607	251	172	232
608	251	172	230
609	251	174	229
610	255	187	235
611	255	188	234
612	255	191	234
613	254	189	228
614	0	0	0
615	0	0	0
616	0	0	0
617	0	0	0
618	0	0	0
619	0	0	0
620	0	0	0
621	0	0	0
622	0	0	0
623	0	0	0
624	0	0	0
625	0	0	0
626	0	0	0
627	0	0	0
628	0	0	0
629	0	0	0
630	255	224	244
631	254	206	238
632	255	199	240
633	250	184	232
634	253	182	235
635	247	171	228
636	255	182	235
637	255	185	236
638	255	188	236
639	255	189	235
640	255	190	234
641	255	189	232
642	255	195	234
643	0	0	0
644	0	0	0
645	0	0	0
646	0	0	0
647	0	0	0
648	0	0	0
649	0	0	0
650	0	0	0
651	0	0	0
652	0	0	0
653	0	0	0
654	0	0	0
655	0	0	0
656	0	0	0
657	0	0	0
658	0	0	0
659	254	218	241
660	255	212	243
661	247	187	229
662	251	186	232
663	249	179	229
664	255	190	238
665	253	183	232
666	255	186	232
667	255	190	233
668	255	191	234
669	251	185	229
670	254	190	231
671	0	0	0
672	0	0	0
673	0	0	0
674	0	0	0
675	0	0	0
676	0	0	0
677	0	0	0
678	0	0	0
679	0	0	0
680	0	0	0
681	0	0	0
682	0	0	0
683	0	0	0
684	0	0	0
685	0	0	0
686	0	0	0
687	0	0	0
688	253	212	237
689	242	188	225
690	247	188	229
691	0	0	0
692	249	183	228
693	244	176	222
694	250	182	226
695	252	186	226
696	247	181	222
697	242	175	218
698	0	0	0
699	0	0	0
700	0	0	0
