 	R	G	B
1	0	0	0
2	0	0	0
3	0	0	0
4	0	0	0
5	0	0	0
6	0	0	0
7	0	0	0
8	0	0	0
9	0	0	0
10	0	0	0
11	0	0	0
12	241	203	205
13	237	193	199
14	246	203	205
15	252	209	206
16	252	206	204
17	247	198	201
18	252	210	209
19	255	218	215
20	251	214	213
21	0	0	0
22	0	0	0
23	0	0	0
24	0	0	0
25	0	0	0
26	0	0	0
27	0	0	0
28	0	0	0
29	0	0	0
30	0	0	0
31	0	0	0
32	0	0	0
33	0	0	0
34	0	0	0
35	0	0	0
36	0	0	0
37	241	205	209
38	239	195	204
39	242	192	204
40	235	176	196
41	246	188	204
42	244	182	198
43	246	179	196
44	244	173	194
45	254	186	204
46	248	180	198
47	242	175	195
48	237	178	196
49	0	0	0
50	0	0	0
51	0	0	0
52	0	0	0
53	0	0	0
54	0	0	0
55	0	0	0
56	0	0	0
57	0	0	0
58	0	0	0
59	0	0	0
60	234	220	219
61	242	223	224
62	244	213	218
63	241	200	208
64	238	190	203
65	236	182	202
66	235	172	200
67	227	157	193
68	230	157	196
69	228	152	193
70	229	149	191
71	226	143	186
72	229	143	187
73	226	139	183
74	235	152	192
75	231	154	191
76	239	180	205
77	0	0	0
78	0	0	0
79	0	0	0
80	0	0	0
81	0	0	0
82	0	0	0
83	0	0	0
84	0	0	0
85	0	0	0
86	240	217	220
87	245	218	222
88	242	207	216
89	236	193	207
90	236	187	204
91	236	180	203
92	230	166	200
93	225	155	198
94	219	144	194
95	220	145	198
96	208	129	189
97	203	124	185
98	209	131	188
99	212	132	189
100	209	123	184
101	223	138	195
102	215	128	184
103	235	158	201
104	246	188	214
105	0	0	0
106	0	0	0
107	0	0	0
108	0	0	0
109	0	0	0
110	0	0	0
111	0	0	0
112	0	0	0
113	0	0	0
114	240	198	210
115	236	187	204
116	234	181	204
117	235	176	205
118	231	163	202
119	223	148	197
120	217	139	196
121	210	128	192
122	201	117	189
123	188	100	180
124	189	107	184
125	194	114	186
126	191	107	182
127	186	98	177
128	189	100	178
129	183	91	166
130	221	137	195
131	236	167	208
132	0	0	0
133	0	0	0
134	0	0	0
135	0	0	0
136	0	0	0
137	0	0	0
138	0	0	0
139	0	0	0
140	239	200	212
141	238	191	209
142	234	177	204
143	237	173	207
144	236	166	209
145	231	152	205
146	228	147	205
147	221	136	202
148	210	122	196
149	201	111	192
150	200	113	196
151	203	120	201
152	206	127	203
153	201	119	198
154	185	101	185
155	176	98	181
156	177	100	179
157	220	149	210
158	221	150	203
159	235	175	213
160	0	0	0
161	0	0	0
162	0	0	0
163	0	0	0
164	0	0	0
165	0	0	0
166	0	0	0
167	240	193	214
168	236	179	210
169	232	165	207
170	232	159	209
171	229	150	208
172	226	143	206
173	222	136	203
174	211	121	195
175	201	107	190
176	206	114	197
177	207	116	200
178	210	124	205
179	214	131	209
180	205	119	201
181	185	99	187
182	177	104	187
183	176	107	187
184	198	127	199
185	202	128	192
186	231	163	212
187	241	189	224
188	0	0	0
189	0	0	0
190	0	0	0
191	0	0	0
192	0	0	0
193	239	190	215
194	246	193	221
195	245	180	218
196	239	165	215
197	233	156	214
198	225	144	209
199	217	134	204
200	219	135	206
201	211	122	199
202	209	116	199
203	219	125	209
204	221	125	209
205	227	133	215
206	221	126	209
207	211	114	202
208	194	100	192
209	184	106	193
210	183	112	196
211	196	128	204
212	188	111	186
213	224	150	210
214	0	0	0
215	0	0	0
216	0	0	0
217	0	0	0
218	236	190	217
219	235	184	214
220	237	183	216
221	244	186	221
222	238	169	214
223	230	154	209
224	222	142	205
225	213	130	201
226	214	132	205
227	217	134	208
228	219	131	209
229	219	126	209
230	227	130	215
231	228	130	213
232	223	121	207
233	217	113	201
234	209	106	197
235	193	93	190
236	185	102	194
237	182	109	195
238	178	105	191
239	169	90	176
240	218	144	211
241	236	178	225
242	0	0	0
243	0	0	0
244	233	200	222
245	242	200	226
246	239	188	222
247	241	186	224
248	238	178	221
249	226	158	210
250	224	154	211
251	218	144	209
252	218	141	211
253	222	144	217
254	216	130	209
255	221	128	212
256	221	122	211
257	225	124	213
258	222	118	208
259	216	109	202
260	218	115	205
261	208	106	199
262	204	110	203
263	202	122	210
264	187	112	200
265	177	106	194
266	167	91	180
267	215	145	215
268	229	173	224
269	0	0	0
270	0	0	0
271	235	206	225
272	234	193	222
273	231	182	221
274	227	172	219
275	223	164	217
276	219	157	215
277	218	153	215
278	218	150	217
279	219	147	218
280	213	134	213
281	208	119	206
282	213	117	208
283	213	110	206
284	213	108	206
285	210	102	202
286	217	112	208
287	219	117	211
288	216	120	212
289	213	124	213
290	200	117	208
291	185	107	199
292	170	100	191
293	159	86	178
294	206	139	213
295	222	167	222
296	0	0	0
297	0	0	0
298	0	0	0
299	222	185	215
300	231	193	228
301	225	183	226
302	222	174	225
303	223	170	227
304	223	165	228
305	222	162	228
306	216	147	221
307	214	135	216
308	217	133	219
309	218	129	219
310	221	127	220
311	222	126	220
312	215	114	212
313	222	123	219
314	214	114	211
315	213	118	212
316	216	129	218
317	206	124	214
318	186	108	202
319	168	100	193
320	164	99	189
321	212	152	224
322	210	153	215
323	0	0	0
324	0	0	0
325	0	0	0
326	230	199	225
327	235	205	233
328	223	190	227
329	220	182	229
330	220	176	231
331	220	171	232
332	211	155	224
333	205	140	218
334	211	140	221
335	214	137	221
336	217	136	222
337	218	134	224
338	212	125	218
339	204	112	209
340	205	112	209
341	199	104	203
342	209	118	213
343	214	130	219
344	199	118	210
345	181	104	201
346	171	108	201
347	167	107	195
348	195	134	212
349	195	136	205
350	224	181	226
351	0	0	0
352	0	0	0
353	0	0	0
354	230	199	226
355	214	182	218
356	221	192	232
357	219	184	233
358	219	180	236
359	211	165	230
360	209	157	229
361	211	154	230
362	216	154	231
363	224	155	234
364	220	149	232
365	206	135	222
366	194	120	212
367	196	120	213
368	197	118	213
369	213	135	225
370	208	131	220
371	193	118	209
372	190	123	214
373	185	130	217
374	168	109	199
375	191	134	213
376	192	133	207
377	231	185	233
378	0	0	0
379	0	0	0
380	0	0	0
381	0	0	0
382	225	198	227
383	228	205	236
384	219	193	232
385	216	188	235
386	206	174	231
387	201	165	230
388	203	164	233
389	209	165	236
390	218	164	238
391	216	157	233
392	199	140	222
393	188	126	216
394	189	127	219
395	190	124	216
396	199	128	219
397	196	125	215
398	194	129	217
399	192	135	219
400	176	121	209
401	160	102	195
402	177	121	207
403	181	123	201
404	226	174	229
405	246	210	237
406	0	0	0
407	0	0	0
408	0	0	0
409	0	0	0
410	223	200	228
411	210	186	221
412	208	191	228
413	187	171	219
414	195	184	234
415	199	184	240
416	205	182	243
417	217	182	247
418	214	170	239
419	205	157	233
420	196	146	229
421	192	143	229
422	194	144	229
423	203	148	232
424	199	142	227
425	198	147	229
426	190	142	224
427	179	132	216
428	169	118	208
429	182	137	218
430	186	136	212
431	238	191	244
432	239	194	231
433	0	0	0
434	0	0	0
435	0	0	0
436	0	0	0
437	0	0	0
438	221	203	229
439	216	205	233
440	206	205	235
441	210	216	250
442	201	204	246
443	204	200	248
444	205	188	245
445	203	177	241
446	200	168	238
447	192	156	233
448	189	156	233
449	191	157	234
450	198	157	236
451	195	151	232
452	186	146	227
453	180	141	223
454	176	136	220
455	167	124	210
456	175	135	216
457	181	136	212
458	215	163	227
459	0	0	0
460	0	0	0
461	0	0	0
462	0	0	0
463	0	0	0
464	0	0	0
465	0	0	0
466	216	202	227
467	0	0	0
468	0	0	0
469	0	0	0
470	0	0	0
471	0	0	0
472	0	0	0
473	190	181	239
474	192	179	240
475	195	183	245
476	196	178	243
477	200	178	244
478	201	177	244
479	193	171	240
480	187	164	236
481	185	160	234
482	181	152	228
483	192	166	236
484	190	154	225
485	219	180	238
486	220	173	225
487	0	0	0
488	0	0	0
489	0	0	0
490	0	0	0
491	0	0	0
492	0	0	0
493	0	0	0
494	0	0	0
495	0	0	0
496	0	0	0
497	0	0	0
498	0	0	0
499	0	0	0
500	0	0	0
501	198	206	247
502	198	202	247
503	197	197	247
504	200	198	248
505	198	195	245
506	188	186	239
507	186	181	240
508	191	181	243
509	190	174	238
510	193	172	236
511	191	162	228
512	208	171	231
513	210	167	219
514	0	0	0
515	0	0	0
516	0	0	0
517	0	0	0
518	0	0	0
519	0	0	0
520	0	0	0
521	0	0	0
522	0	0	0
523	0	0	0
524	0	0	0
525	0	0	0
526	0	0	0
527	0	0	0
528	0	0	0
529	0	0	0
530	0	0	0
531	0	0	0
532	0	0	0
533	0	0	0
534	186	199	242
535	197	202	249
536	194	186	240
537	203	188	243
538	201	176	236
539	214	184	239
540	0	0	0
541	0	0	0
542	0	0	0
543	0	0	0
544	0	0	0
545	0	0	0
546	0	0	0
547	0	0	0
548	0	0	0
549	0	0	0
550	0	0	0
551	0	0	0
552	0	0	0
553	0	0	0
554	0	0	0
555	0	0	0
556	0	0	0
557	0	0	0
558	0	0	0
559	0	0	0
560	0	0	0
561	0	0	0
562	199	212	243
563	198	198	240
564	203	193	242
565	0	0	0
566	0	0	0
567	0	0	0
