 	R	G	B
1	0	0	0
2	0	0	0
3	0	0	0
4	0	0	0
5	0	0	0
6	0	0	0
7	0	0	0
8	0	0	0
9	0	0	0
10	0	0	0
11	0	0	0
12	0	0	0
13	0	0	0
14	0	0	0
15	255	215	224
16	255	221	226
17	255	216	222
18	0	0	0
19	255	220	222
20	0	0	0
21	0	0	0
22	0	0	0
23	0	0	0
24	0	0	0
25	0	0	0
26	0	0	0
27	0	0	0
28	0	0	0
29	0	0	0
30	0	0	0
31	0	0	0
32	0	0	0
33	0	0	0
34	255	209	217
35	252	198	210
36	255	203	215
37	255	199	213
38	253	196	211
39	255	199	213
40	255	207	218
41	255	201	213
42	252	196	209
43	255	202	213
44	255	209	217
45	254	204	211
46	0	0	0
47	0	0	0
48	0	0	0
49	0	0	0
50	0	0	0
51	0	0	0
52	0	0	0
53	0	0	0
54	0	0	0
55	255	225	230
56	255	225	230
57	255	219	226
58	255	212	219
59	255	203	214
60	255	193	209
61	255	193	212
62	255	190	213
63	255	195	216
64	255	197	215
65	255	191	209
66	252	186	207
67	255	192	211
68	255	196	213
69	255	193	211
70	251	189	211
71	255	202	220
72	0	0	0
73	0	0	0
74	0	0	0
75	0	0	0
76	0	0	0
77	0	0	0
78	0	0	0
79	255	216	226
80	255	218	228
81	254	199	217
82	255	194	214
83	252	187	208
84	250	179	204
85	253	180	207
86	255	180	210
87	251	173	208
88	255	178	211
89	255	180	209
90	251	174	203
91	254	178	206
92	255	184	211
93	254	181	208
94	250	177	207
95	254	183	215
96	255	196	223
97	255	194	217
98	0	0	0
99	0	0	0
100	0	0	0
101	0	0	0
102	0	0	0
103	255	213	227
104	255	207	222
105	251	191	214
106	243	173	206
107	246	170	207
108	244	164	203
109	251	168	208
110	255	170	212
111	254	166	212
112	249	158	207
113	253	163	209
114	255	166	209
115	255	169	208
116	255	172	208
117	252	168	204
118	250	165	205
119	252	170	209
120	253	174	211
121	251	174	210
122	248	172	207
123	253	184	212
124	0	0	0
125	0	0	0
126	0	0	0
127	255	212	230
128	255	208	228
129	255	195	220
130	249	180	212
131	250	174	213
132	254	173	216
133	253	164	213
134	255	169	218
135	251	153	211
136	251	150	210
137	248	145	207
138	252	150	210
139	254	154	211
140	254	156	209
141	253	157	205
142	249	153	201
143	254	162	210
144	255	167	214
145	255	169	213
146	253	168	211
147	246	162	206
148	250	173	211
149	255	187	217
150	0	0	0
151	0	0	0
152	254	203	228
153	252	192	222
154	249	180	216
155	252	176	216
156	253	170	214
157	255	165	215
158	253	157	213
159	250	146	209
160	242	131	201
161	246	133	205
162	244	129	205
163	247	134	208
164	249	138	209
165	249	140	208
166	248	141	205
167	253	150	209
168	255	158	213
169	255	159	213
170	255	162	215
171	250	157	211
172	242	150	206
173	249	165	214
174	254	178	217
175	252	183	216
176	255	211	236
177	255	200	230
178	254	190	226
179	253	179	221
180	255	175	222
181	252	161	213
182	254	157	214
183	254	149	215
184	251	139	212
185	248	130	208
186	251	132	212
187	246	125	208
188	250	131	212
189	255	147	221
190	255	148	220
191	250	136	210
192	255	145	214
193	254	146	211
194	251	146	210
195	254	153	216
196	247	147	212
197	248	153	214
198	255	168	222
199	251	171	218
200	0	0	0
201	253	202	233
202	251	191	226
203	251	182	224
204	251	172	221
205	251	163	218
206	247	149	210
207	251	145	213
208	251	139	216
209	252	135	217
210	249	125	211
211	249	124	211
212	244	116	207
213	255	134	219
214	255	150	226
215	255	138	217
216	248	126	209
217	251	131	212
218	249	131	209
219	249	136	211
220	250	142	216
221	249	146	216
222	249	151	217
223	247	156	217
224	244	159	215
225	0	0	0
226	0	0	0
227	253	192	231
228	254	183	229
229	255	174	227
230	255	166	226
231	249	145	215
232	252	141	218
233	251	133	218
234	252	128	218
235	249	120	213
236	249	118	212
237	250	119	213
238	255	137	224
239	255	132	218
240	249	121	209
241	250	123	212
242	253	127	215
243	248	126	211
244	248	130	212
245	252	142	219
246	250	145	218
247	255	161	224
248	253	165	222
249	250	170	221
250	0	0	0
251	0	0	0
252	0	0	0
253	255	182	232
254	255	172	228
255	252	155	222
256	245	136	217
257	249	133	220
258	246	122	214
259	248	119	214
260	245	111	211
261	251	117	215
262	252	118	216
263	253	118	215
264	248	113	209
265	249	115	210
266	249	116	210
267	246	116	208
268	242	115	205
269	246	127	212
270	250	138	218
271	255	154	224
272	255	169	226
273	255	172	222
274	252	175	218
275	0	0	0
276	0	0	0
277	255	194	238
278	255	188	240
279	252	165	227
280	249	150	223
281	251	142	226
282	255	138	228
283	248	122	216
284	249	118	215
285	252	118	218
286	255	124	223
287	255	119	219
288	255	119	219
289	247	106	210
290	248	108	210
291	251	117	214
292	247	116	211
293	251	127	215
294	255	139	221
295	255	146	223
296	255	161	228
297	253	159	219
298	248	162	213
299	252	178	217
300	255	192	222
301	0	0	0
302	255	195	239
303	252	177	233
304	246	156	224
305	251	151	228
306	252	142	229
307	251	132	224
308	244	116	214
309	252	121	219
310	255	121	220
311	255	121	222
312	255	116	218
313	253	110	215
314	244	98	208
315	251	110	216
316	254	118	220
317	255	130	225
318	255	140	226
319	255	148	228
320	255	153	227
321	253	152	221
322	246	151	217
323	250	166	221
324	253	182	222
325	0	0	0
326	0	0	0
327	255	200	242
328	255	182	237
329	248	159	229
330	254	154	233
331	248	138	227
332	247	127	222
333	254	130	226
334	255	136	231
335	250	112	217
336	253	112	219
337	250	105	215
338	247	98	211
339	242	93	208
340	249	105	216
341	255	118	223
342	255	129	227
343	252	127	220
344	252	134	219
345	251	142	218
346	0	0	0
347	253	163	224
348	0	0	0
349	0	0	0
350	0	0	0
351	0	0	0
352	255	200	240
353	252	179	234
354	245	156	228
355	246	146	228
356	241	129	223
357	251	135	230
358	255	139	233
359	250	119	222
360	236	95	208
361	235	91	208
362	233	85	205
363	237	86	207
364	232	81	202
365	244	100	213
366	250	113	220
367	249	116	218
368	243	114	212
369	245	125	214
370	244	132	213
371	0	0	0
372	0	0	0
373	0	0	0
374	0	0	0
375	0	0	0
376	0	0	0
377	255	204	240
378	252	183	235
379	246	161	230
380	247	151	232
381	251	147	234
382	255	153	242
383	255	141	235
384	249	122	224
385	236	102	214
386	231	96	212
387	244	111	224
388	253	116	228
389	245	103	217
390	255	121	227
391	253	120	224
392	252	123	223
393	246	119	215
394	248	130	218
395	249	142	219
396	0	0	0
397	0	0	0
398	0	0	0
399	0	0	0
400	0	0	0
401	0	0	0
402	253	204	238
403	250	184	234
404	244	163	231
405	254	165	241
406	255	161	240
407	255	151	237
408	253	139	231
409	247	125	225
410	234	105	216
411	241	119	226
412	252	133	235
413	255	128	232
414	249	116	222
415	250	120	224
416	248	119	221
417	249	122	220
418	243	118	212
419	251	137	220
420	251	148	221
421	0	0	0
422	0	0	0
423	0	0	0
424	0	0	0
425	0	0	0
426	0	0	0
427	255	220	246
428	255	200	243
429	246	171	234
430	255	173	243
431	255	163	240
432	255	154	237
433	249	138	229
434	242	124	223
435	242	123	226
436	250	137	236
437	250	135	233
438	249	128	228
439	243	117	221
440	246	122	224
441	248	125	224
442	250	129	224
443	247	128	219
444	255	147	227
445	245	145	218
446	0	0	0
447	0	0	0
448	0	0	0
449	0	0	0
450	0	0	0
451	0	0	0
452	255	236	254
453	253	204	241
454	242	174	231
455	248	170	237
456	249	161	237
457	248	151	234
458	241	135	226
459	245	138	231
460	244	136	232
461	244	137	233
462	244	135	231
463	243	127	228
464	238	117	222
465	243	124	226
466	244	127	225
467	248	134	228
468	245	134	225
469	247	143	227
470	237	140	218
471	0	0	0
472	0	0	0
473	0	0	0
474	0	0	0
475	0	0	0
476	0	0	0
477	255	234	248
478	243	200	232
479	248	193	238
480	254	189	245
481	252	176	243
482	254	166	242
483	246	150	233
484	245	150	235
485	242	148	235
486	244	148	237
487	239	138	232
488	240	131	229
489	246	137	235
490	252	145	239
491	248	141	234
492	249	146	236
493	240	139	229
494	245	148	232
495	241	155	228
496	0	0	0
497	0	0	0
498	0	0	0
499	0	0	0
500	0	0	0
501	0	0	0
502	0	0	0
503	255	224	245
504	255	216	250
505	255	203	249
506	255	189	245
507	255	180	245
508	247	163	237
509	244	161	237
510	242	158	237
511	238	149	234
512	234	139	231
513	245	148	239
514	250	153	241
515	249	152	239
516	244	148	234
517	234	141	228
518	225	133	222
519	234	151	231
520	0	0	0
521	0	0	0
522	0	0	0
523	0	0	0
524	0	0	0
525	0	0	0
526	0	0	0
527	255	241	248
528	255	227	245
529	254	214	245
530	250	199	242
531	250	190	241
532	247	179	239
533	243	169	237
534	242	168	239
535	243	167	240
536	239	159	237
537	239	154	238
538	248	162	245
539	249	163	243
540	245	160	239
541	242	162	237
542	230	154	230
543	231	164	236
544	0	0	0
545	0	0	0
546	0	0	0
547	0	0	0
548	0	0	0
549	0	0	0
550	0	0	0
551	0	0	0
552	0	0	0
553	252	228	244
554	250	213	242
555	249	204	242
556	248	195	242
557	248	188	244
558	244	179	243
559	244	179	245
560	243	176	243
561	239	169	239
562	237	164	240
563	243	169	243
564	241	168	239
565	239	169	236
566	236	171	235
567	237	183	240
568	0	0	0
569	0	0	0
570	0	0	0
571	0	0	0
572	0	0	0
573	0	0	0
574	0	0	0
575	0	0	0
576	0	0	0
577	0	0	0
578	0	0	0
579	250	222	244
580	250	213	245
581	250	205	245
582	251	198	247
583	249	192	248
584	248	190	250
585	242	185	244
586	0	0	0
587	0	0	0
588	245	189	249
589	240	185	242
590	0	0	0
591	0	0	0
592	0	0	0
593	0	0	0
594	0	0	0
595	0	0	0
596	0	0	0
597	0	0	0
598	0	0	0
599	0	0	0
600	0	0	0
601	0	0	0
602	0	0	0
603	0	0	0
604	0	0	0
605	253	224	248
606	251	214	247
607	250	208	248
608	247	199	246
609	246	198	247
610	0	0	0
611	0	0	0
612	0	0	0
613	0	0	0
614	0	0	0
615	0	0	0
616	0	0	0
617	0	0	0
618	0	0	0
619	0	0	0
620	0	0	0
621	0	0	0
622	0	0	0
623	0	0	0
624	0	0	0
625	0	0	0
