 	R	G	B
1	0	0	0
2	0	0	0
3	0	0	0
4	0	0	0
5	254	225	232
6	249	218	228
7	0	0	0
8	255	232	237
9	255	231	235
10	255	229	233
11	0	0	0
12	0	0	0
13	255	222	232
14	255	219	229
15	255	220	229
16	255	218	226
17	255	218	228
18	0	0	0
19	0	0	0
20	0	0	0
21	0	0	0
22	0	0	0
23	0	0	0
24	0	0	0
25	0	0	0
26	0	0	0
27	0	0	0
28	0	0	0
29	0	0	0
30	0	0	0
31	0	0	0
32	0	0	0
33	255	231	236
34	255	228	235
35	248	213	227
36	254	221	233
37	255	227	235
38	255	225	233
39	255	219	228
40	254	217	227
41	255	220	229
42	255	218	229
43	255	213	225
44	255	214	226
45	253	208	223
46	254	209	225
47	248	202	222
48	0	0	0
49	0	0	0
50	0	0	0
51	0	0	0
52	0	0	0
53	0	0	0
54	0	0	0
55	0	0	0
56	0	0	0
57	0	0	0
58	0	0	0
59	0	0	0
60	0	0	0
61	0	0	0
62	255	232	237
63	254	221	231
64	246	207	225
65	252	215	231
66	255	220	232
67	253	214	226
68	251	210	223
69	254	213	224
70	255	215	225
71	255	211	222
72	253	206	221
73	253	203	221
74	250	198	221
75	249	196	222
76	244	189	219
77	251	202	227
78	255	210	230
79	255	214	230
80	0	0	0
81	0	0	0
82	0	0	0
83	0	0	0
84	0	0	0
85	0	0	0
86	0	0	0
87	0	0	0
88	0	0	0
89	0	0	0
90	0	0	0
91	255	230	235
92	253	219	229
93	247	207	225
94	254	216	232
95	255	222	233
96	255	216	228
97	252	210	224
98	255	213	226
99	255	209	223
100	254	205	221
101	254	203	221
102	254	200	222
103	253	196	223
104	252	194	225
105	251	193	225
106	255	206	233
107	254	202	228
108	254	206	228
109	251	206	224
110	0	0	0
111	0	0	0
112	0	0	0
113	0	0	0
114	0	0	0
115	0	0	0
116	0	0	0
117	0	0	0
118	0	0	0
119	0	0	0
120	255	227	231
121	252	216	226
122	246	204	222
123	255	215	230
124	255	221	232
125	255	213	225
126	252	207	223
127	253	205	223
128	253	202	222
129	255	201	223
130	255	199	222
131	255	197	223
132	254	192	223
133	255	195	226
134	255	194	226
135	255	195	226
136	251	192	223
137	252	196	224
138	249	197	221
139	255	210	228
140	255	220	232
141	255	227	234
142	0	0	0
143	0	0	0
144	0	0	0
145	0	0	0
146	0	0	0
147	0	0	0
148	0	0	0
149	255	225	230
150	251	214	225
151	252	211	226
152	255	220	233
153	255	215	227
154	252	208	222
155	255	211	226
156	255	209	227
157	255	203	225
158	255	203	227
159	253	191	220
160	254	189	221
161	250	182	219
162	254	185	222
163	253	185	222
164	252	185	223
165	251	185	222
166	252	190	224
167	250	192	224
168	255	205	230
169	254	209	229
170	254	216	231
171	255	224	236
172	0	0	0
173	0	0	0
174	0	0	0
175	0	0	0
176	0	0	0
177	252	222	230
178	255	224	233
179	255	220	231
180	255	216	230
181	255	214	229
182	254	209	225
183	255	210	226
184	255	213	229
185	255	206	226
186	255	201	225
187	253	191	222
188	248	180	216
189	249	177	217
190	246	171	215
191	250	175	220
192	250	175	222
193	251	178	223
194	249	177	220
195	250	182	223
196	249	185	226
197	251	192	229
198	249	195	226
199	250	202	228
200	0	0	0
201	0	0	0
202	0	0	0
203	0	0	0
204	0	0	0
205	0	0	0
206	255	223	232
207	254	219	231
208	255	215	229
209	255	216	230
210	255	213	228
211	253	206	223
212	255	208	225
213	255	210	227
214	255	202	224
215	255	197	223
216	253	188	220
217	254	185	221
218	255	183	223
219	249	171	217
220	253	175	223
221	253	175	224
222	254	177	226
223	251	176	223
224	252	181	225
225	254	188	231
226	255	195	235
227	251	194	230
228	0	0	0
229	0	0	0
230	0	0	0
231	0	0	0
232	0	0	0
233	0	0	0
234	255	224	232
235	255	220	230
236	254	216	230
237	255	217	231
238	255	217	231
239	255	210	225
240	251	202	220
241	255	204	222
242	255	205	226
243	255	198	223
244	255	193	221
245	255	190	222
246	255	187	223
247	255	179	221
248	248	167	213
249	251	169	218
250	251	169	221
251	253	173	224
252	250	172	220
253	253	180	224
254	255	185	228
255	253	188	228
256	249	188	227
257	0	0	0
258	0	0	0
259	0	0	0
260	0	0	0
261	0	0	0
262	255	225	234
263	252	216	228
264	251	213	226
265	253	212	227
266	255	212	228
267	255	214	228
268	253	206	223
269	253	203	221
270	255	205	224
271	255	202	225
272	255	195	222
273	254	189	219
274	255	186	220
275	255	180	219
276	251	172	217
277	248	165	215
278	251	168	220
279	253	170	224
280	255	174	226
281	248	167	219
282	251	174	222
283	254	183	226
284	252	185	227
285	253	191	230
286	255	206	237
287	0	0	0
288	0	0	0
289	0	0	0
290	0	0	0
291	0	0	0
292	248	209	225
293	250	209	225
294	250	207	223
295	252	208	223
296	255	210	226
297	254	206	224
298	254	204	224
299	255	200	223
300	255	197	222
301	254	191	220
302	252	184	217
303	252	178	216
304	251	173	216
305	251	169	218
306	249	163	219
307	253	168	226
308	254	169	227
309	250	166	224
310	244	159	217
311	249	170	222
312	253	179	227
313	254	186	229
314	254	191	230
315	0	0	0
316	0	0	0
317	0	0	0
318	0	0	0
319	0	0	0
320	252	217	231
321	254	215	230
322	255	214	230
323	254	210	225
324	255	211	226
325	255	209	226
326	255	206	225
327	255	204	225
328	255	200	224
329	255	198	224
330	255	192	222
331	250	179	217
332	250	173	216
333	255	177	221
334	254	172	223
335	249	162	222
336	253	167	228
337	255	172	230
338	252	168	226
339	249	167	223
340	254	178	229
341	255	185	232
342	255	191	234
343	251	186	227
344	0	0	0
345	0	0	0
346	0	0	0
347	0	0	0
348	0	0	0
349	253	219	232
350	253	216	228
351	254	214	227
352	253	210	226
353	254	209	226
354	254	207	225
355	255	205	225
356	255	202	224
357	255	198	222
358	255	197	223
359	252	184	218
360	247	172	217
361	254	177	225
362	255	179	227
363	253	170	224
364	247	159	222
365	253	168	230
366	255	172	229
367	253	171	227
368	251	170	225
369	255	179	230
370	255	186	232
371	251	182	226
372	244	177	220
373	0	0	0
374	0	0	0
375	0	0	0
376	0	0	0
377	0	0	0
378	250	220	233
379	250	216	227
380	252	215	226
381	252	211	226
382	254	210	227
383	253	205	225
384	255	204	225
385	255	200	222
386	255	196	221
387	255	197	223
388	252	184	219
389	251	176	222
390	255	181	230
391	255	176	227
392	251	167	223
393	249	163	225
394	255	171	232
395	253	170	227
396	251	169	224
397	254	176	228
398	255	185	232
399	254	183	228
400	248	180	223
401	251	189	226
402	0	0	0
403	0	0	0
404	0	0	0
405	0	0	0
406	0	0	0
407	0	0	0
408	247	216	229
409	252	216	229
410	252	211	227
411	252	207	225
412	252	203	224
413	252	200	223
414	252	195	220
415	253	194	219
416	255	195	222
417	253	185	219
418	250	177	220
419	253	176	224
420	252	171	223
421	252	169	225
422	250	165	226
423	251	168	228
424	249	166	224
425	252	174	227
426	255	181	229
427	253	180	226
428	248	178	223
429	253	190	228
430	255	199	229
431	0	0	0
432	0	0	0
433	0	0	0
434	0	0	0
435	0	0	0
436	0	0	0
437	248	222	233
438	255	223	236
439	252	209	225
440	250	205	223
441	253	205	226
442	253	202	224
443	255	201	223
444	255	199	223
445	255	199	225
446	255	189	222
447	252	179	220
448	254	178	224
449	252	173	224
450	252	171	225
451	252	171	227
452	253	172	228
453	253	175	227
454	255	182	230
455	255	186	230
456	254	185	228
457	248	181	223
458	253	193	228
459	255	204	230
460	251	209	229
461	250	217	231
462	247	220	231
463	0	0	0
464	0	0	0
465	0	0	0
466	249	226	234
467	252	218	231
468	247	204	221
469	251	206	223
470	253	207	226
471	255	207	227
472	255	206	227
473	255	204	227
474	255	203	230
475	255	194	226
476	254	183	223
477	255	180	225
478	253	175	224
479	254	176	227
480	253	175	227
481	255	179	229
482	255	182	228
483	255	186	229
484	255	190	232
485	255	189	230
486	249	185	224
487	255	201	231
488	255	212	235
489	252	216	232
490	251	223	231
491	249	226	230
492	248	230	231
493	0	0	0
494	0	0	0
495	0	0	0
496	249	218	229
497	248	208	224
498	254	212	228
499	252	205	225
500	253	205	225
501	255	204	226
502	255	203	227
503	255	198	228
504	255	187	224
505	250	178	220
506	250	174	221
507	254	179	226
508	255	179	228
509	251	175	224
510	253	179	225
511	255	187	228
512	255	190	228
513	255	190	229
514	252	189	227
515	250	192	225
516	255	207	233
517	255	212	232
518	251	217	231
519	250	221	229
520	250	226	229
521	248	229	228
522	0	0	0
523	0	0	0
524	0	0	0
525	254	224	234
526	255	217	232
527	255	215	233
528	255	208	230
529	255	209	231
530	255	208	231
531	255	201	229
532	255	197	230
533	255	186	227
534	250	176	224
535	254	181	228
536	255	184	230
537	254	181	227
538	250	176	223
539	255	186	228
540	255	193	229
541	255	192	226
542	254	191	225
543	254	196	227
544	253	199	225
545	254	206	227
546	252	211	227
547	248	214	226
548	249	221	228
549	254	229	231
550	252	232	230
551	249	237	231
552	0	0	0
553	0	0	0
554	255	223	233
555	252	209	228
556	255	207	230
557	255	200	227
558	255	202	229
559	255	195	226
560	252	187	223
561	255	188	228
562	249	177	223
563	252	179	227
564	255	183	231
565	255	185	230
566	253	180	226
567	253	182	227
568	255	191	232
569	253	186	224
570	250	185	220
571	252	192	224
572	253	197	225
573	252	201	224
574	253	208	225
575	253	215	227
576	250	219	227
577	253	226	231
578	255	234	235
579	251	226	227
580	0	0	0
581	0	0	0
582	248	224	230
583	252	215	228
584	249	201	224
585	255	201	229
586	255	196	227
587	255	192	227
588	253	185	227
589	253	184	228
590	255	184	230
591	255	185	232
592	255	186	234
593	255	189	235
594	255	189	235
595	255	188	233
596	255	189	234
597	253	185	229
598	247	180	222
599	250	187	225
600	252	194	228
601	252	199	228
602	251	203	226
603	253	211	227
604	254	219	228
605	0	0	0
606	0	0	0
607	0	0	0
608	0	0	0
609	0	0	0
610	0	0	0
611	247	220	229
612	250	211	228
613	247	193	223
614	255	195	230
615	250	181	223
616	250	177	224
617	251	176	227
618	249	174	227
619	254	181	232
620	255	181	233
621	252	175	229
622	252	176	229
623	253	179	230
624	249	177	227
625	255	189	235
626	250	185	230
627	253	192	231
628	255	199	233
629	255	203	233
630	255	208	233
631	250	205	228
632	253	214	230
633	0	0	0
634	0	0	0
635	0	0	0
636	0	0	0
637	0	0	0
638	0	0	0
639	0	0	0
640	249	217	231
641	249	203	229
642	245	186	225
643	247	179	227
644	242	164	221
645	248	168	226
646	247	167	225
647	249	171	228
648	253	177	234
649	250	172	231
650	246	165	228
651	247	169	229
652	246	171	227
653	251	181	232
654	255	193	238
655	255	196	236
656	255	202	237
657	254	204	233
658	253	207	231
659	248	205	227
660	245	205	228
661	0	0	0
662	0	0	0
663	0	0	0
664	0	0	0
665	0	0	0
666	0	0	0
667	0	0	0
668	0	0	0
669	252	213	233
670	252	200	232
671	249	184	229
672	247	175	229
673	248	170	230
674	255	174	235
675	248	165	227
676	247	168	229
677	251	174	235
678	248	169	233
679	245	165	230
680	244	167	230
681	252	181	236
682	255	192	241
683	253	189	235
684	250	191	232
685	253	204	235
686	0	0	0
687	0	0	0
688	0	0	0
689	0	0	0
690	0	0	0
691	0	0	0
692	0	0	0
693	0	0	0
694	0	0	0
695	0	0	0
696	0	0	0
697	0	0	0
698	0	0	0
699	246	189	228
700	242	174	225
701	246	173	229
702	245	166	227
703	245	164	226
704	238	154	220
705	241	160	225
706	244	167	232
707	243	165	231
708	239	160	226
709	247	176	235
710	255	189	241
711	252	187	236
712	244	183	229
713	242	190	228
714	0	0	0
715	0	0	0
716	0	0	0
717	0	0	0
718	0	0	0
719	0	0	0
720	0	0	0
721	0	0	0
722	0	0	0
723	0	0	0
724	0	0	0
725	0	0	0
726	0	0	0
727	0	0	0
728	0	0	0
729	249	188	234
730	254	187	239
731	244	169	228
732	241	164	226
733	243	167	228
734	249	175	235
735	245	171	234
736	241	168	232
737	239	167	230
738	251	183	240
739	250	184	237
740	243	180	230
741	242	191	232
742	0	0	0
743	0	0	0
744	0	0	0
745	0	0	0
746	0	0	0
747	0	0	0
748	0	0	0
749	0	0	0
750	0	0	0
751	0	0	0
752	0	0	0
753	0	0	0
754	0	0	0
755	0	0	0
756	0	0	0
757	0	0	0
758	249	195	237
759	247	183	235
760	239	166	227
761	245	173	234
762	247	176	234
763	248	176	235
764	245	172	233
765	243	173	234
766	241	172	235
767	246	179	238
768	242	178	233
769	243	190	234
770	0	0	0
771	0	0	0
772	0	0	0
773	0	0	0
774	0	0	0
775	0	0	0
776	0	0	0
777	0	0	0
778	0	0	0
779	0	0	0
780	0	0	0
781	0	0	0
782	0	0	0
783	0	0	0
784	0	0	0
785	0	0	0
786	0	0	0
787	246	204	238
788	248	193	237
789	243	177	233
790	252	187	242
791	251	183	238
792	252	182	237
793	249	177	234
794	250	180	238
795	248	180	238
796	248	184	239
797	242	185	233
798	0	0	0
799	0	0	0
800	0	0	0
801	0	0	0
802	0	0	0
803	0	0	0
804	0	0	0
805	0	0	0
806	0	0	0
807	0	0	0
808	0	0	0
809	0	0	0
810	0	0	0
811	0	0	0
812	0	0	0
813	0	0	0
814	0	0	0
815	0	0	0
816	0	0	0
817	239	193	228
818	235	178	226
819	245	184	235
820	246	182	234
821	248	182	235
822	246	177	230
823	250	182	234
824	246	181	232
825	247	189	235
826	0	0	0
827	0	0	0
828	0	0	0
829	0	0	0
830	0	0	0
831	0	0	0
832	0	0	0
833	0	0	0
834	0	0	0
835	0	0	0
836	0	0	0
837	0	0	0
838	0	0	0
839	0	0	0
840	0	0	0
841	0	0	0
842	0	0	0
843	0	0	0
844	0	0	0
845	0	0	0
846	0	0	0
847	240	201	233
848	253	209	245
849	247	193	236
850	249	193	238
851	245	185	232
852	251	190	236
853	244	185	230
854	0	0	0
855	0	0	0
856	0	0	0
857	0	0	0
858	0	0	0
859	0	0	0
860	0	0	0
861	0	0	0
862	0	0	0
863	0	0	0
864	0	0	0
865	0	0	0
866	0	0	0
867	0	0	0
868	0	0	0
869	0	0	0
870	0	0	0
871	0	0	0
872	0	0	0
873	0	0	0
874	0	0	0
875	0	0	0
876	0	0	0
877	249	215	240
878	244	200	233
879	245	197	234
880	242	189	232
881	247	193	236
882	0	0	0
883	0	0	0
884	0	0	0
885	0	0	0
886	0	0	0
887	0	0	0
888	0	0	0
889	0	0	0
890	0	0	0
891	0	0	0
892	0	0	0
893	0	0	0
894	0	0	0
895	0	0	0
896	0	0	0
897	0	0	0
898	0	0	0
899	0	0	0
