 	R	G	B
1	0	0	0
2	0	0	0
3	0	0	0
4	0	0	0
5	0	0	0
6	0	0	0
7	0	0	0
8	0	0	0
9	0	0	0
10	0	0	0
11	0	0	0
12	0	0	0
13	252	230	236
14	0	0	0
15	0	0	0
16	0	0	0
17	0	0	0
18	0	0	0
19	0	0	0
20	0	0	0
21	0	0	0
22	0	0	0
23	0	0	0
24	0	0	0
25	0	0	0
26	0	0	0
27	0	0	0
28	0	0	0
29	0	0	0
30	0	0	0
31	0	0	0
32	0	0	0
33	0	0	0
34	0	0	0
35	0	0	0
36	0	0	0
37	0	0	0
38	0	0	0
39	0	0	0
40	0	0	0
41	0	0	0
42	0	0	0
43	0	0	0
44	0	0	0
45	0	0	0
46	0	0	0
47	0	0	0
48	0	0	0
49	0	0	0
50	0	0	0
51	0	0	0
52	0	0	0
53	0	0	0
54	0	0	0
55	0	0	0
56	0	0	0
57	0	0	0
58	0	0	0
59	0	0	0
60	0	0	0
61	0	0	0
62	0	0	0
63	0	0	0
64	0	0	0
65	0	0	0
66	0	0	0
67	0	0	0
68	0	0	0
69	0	0	0
70	0	0	0
71	0	0	0
72	0	0	0
73	0	0	0
74	0	0	0
75	0	0	0
76	0	0	0
77	0	0	0
78	0	0	0
79	0	0	0
80	0	0	0
81	0	0	0
82	0	0	0
83	0	0	0
84	0	0	0
85	0	0	0
86	0	0	0
87	0	0	0
88	0	0	0
89	0	0	0
90	0	0	0
91	0	0	0
92	0	0	0
93	0	0	0
94	0	0	0
95	0	0	0
96	0	0	0
97	0	0	0
98	0	0	0
99	0	0	0
100	0	0	0
101	0	0	0
102	0	0	0
103	0	0	0
104	0	0	0
105	0	0	0
106	0	0	0
107	0	0	0
108	0	0	0
109	0	0	0
110	0	0	0
111	0	0	0
112	0	0	0
113	0	0	0
114	0	0	0
115	0	0	0
116	0	0	0
117	0	0	0
118	0	0	0
119	0	0	0
120	0	0	0
121	0	0	0
122	0	0	0
123	0	0	0
124	0	0	0
125	0	0	0
126	0	0	0
127	0	0	0
128	0	0	0
129	0	0	0
130	0	0	0
131	0	0	0
132	0	0	0
133	0	0	0
134	0	0	0
135	0	0	0
136	0	0	0
137	245	215	226
138	239	209	222
139	248	224	232
140	254	237	239
141	253	239	239
142	255	245	244
143	255	243	242
144	0	0	0
145	0	0	0
146	0	0	0
147	0	0	0
148	0	0	0
149	0	0	0
150	0	0	0
151	0	0	0
152	0	0	0
153	0	0	0
154	0	0	0
155	0	0	0
156	0	0	0
157	0	0	0
158	0	0	0
159	0	0	0
160	0	0	0
161	0	0	0
162	0	0	0
163	0	0	0
164	0	0	0
165	0	0	0
166	0	0	0
167	0	0	0
168	0	0	0
169	0	0	0
170	0	0	0
171	0	0	0
172	0	0	0
173	0	0	0
174	0	0	0
175	0	0	0
176	0	0	0
177	0	0	0
178	0	0	0
179	0	0	0
180	0	0	0
181	0	0	0
182	0	0	0
183	0	0	0
184	0	0	0
185	0	0	0
186	0	0	0
187	0	0	0
188	0	0	0
189	0	0	0
190	0	0	0
191	0	0	0
192	0	0	0
193	0	0	0
194	0	0	0
195	0	0	0
196	0	0	0
197	0	0	0
198	0	0	0
199	0	0	0
200	0	0	0
201	0	0	0
202	0	0	0
203	0	0	0
204	0	0	0
205	0	0	0
206	0	0	0
207	0	0	0
208	0	0	0
209	0	0	0
210	0	0	0
211	0	0	0
212	0	0	0
213	0	0	0
214	0	0	0
215	0	0	0
216	0	0	0
217	0	0	0
218	0	0	0
219	0	0	0
220	0	0	0
221	0	0	0
222	0	0	0
223	0	0	0
224	0	0	0
225	0	0	0
226	0	0	0
227	0	0	0
228	0	0	0
229	0	0	0
230	0	0	0
231	0	0	0
232	0	0	0
233	0	0	0
234	0	0	0
235	0	0	0
236	0	0	0
237	0	0	0
238	0	0	0
239	0	0	0
240	0	0	0
241	0	0	0
242	0	0	0
243	0	0	0
244	0	0	0
245	0	0	0
246	0	0	0
247	0	0	0
248	0	0	0
249	0	0	0
250	0	0	0
251	0	0	0
252	0	0	0
253	0	0	0
254	0	0	0
255	0	0	0
256	0	0	0
257	0	0	0
258	0	0	0
259	0	0	0
260	0	0	0
261	244	215	228
262	238	209	223
263	242	217	228
264	255	234	240
265	251	228	236
266	253	233	238
267	255	235	239
268	251	231	236
269	248	230	233
270	0	0	0
271	0	0	0
272	0	0	0
273	0	0	0
274	0	0	0
275	0	0	0
276	0	0	0
277	0	0	0
278	0	0	0
279	0	0	0
280	0	0	0
281	0	0	0
282	0	0	0
283	0	0	0
284	0	0	0
285	0	0	0
286	0	0	0
287	0	0	0
288	0	0	0
289	0	0	0
290	0	0	0
291	0	0	0
292	0	0	0
293	0	0	0
294	0	0	0
295	0	0	0
296	0	0	0
297	0	0	0
298	0	0	0
299	0	0	0
300	0	0	0
301	0	0	0
302	0	0	0
303	0	0	0
304	0	0	0
305	0	0	0
306	0	0	0
307	0	0	0
308	0	0	0
309	0	0	0
310	0	0	0
311	0	0	0
312	0	0	0
313	0	0	0
314	0	0	0
315	0	0	0
316	0	0	0
317	0	0	0
318	0	0	0
319	0	0	0
320	0	0	0
321	0	0	0
322	0	0	0
323	0	0	0
324	0	0	0
325	0	0	0
326	0	0	0
327	0	0	0
328	0	0	0
329	0	0	0
330	0	0	0
331	0	0	0
332	0	0	0
333	0	0	0
334	0	0	0
335	0	0	0
336	0	0	0
337	0	0	0
338	0	0	0
339	0	0	0
340	0	0	0
341	0	0	0
342	0	0	0
343	0	0	0
344	0	0	0
345	0	0	0
346	0	0	0
347	0	0	0
348	0	0	0
349	0	0	0
350	0	0	0
351	0	0	0
352	0	0	0
353	0	0	0
354	0	0	0
355	0	0	0
356	0	0	0
357	0	0	0
358	0	0	0
359	0	0	0
360	0	0	0
361	0	0	0
362	0	0	0
363	0	0	0
364	0	0	0
365	0	0	0
366	0	0	0
367	0	0	0
368	0	0	0
369	0	0	0
370	0	0	0
371	0	0	0
372	0	0	0
373	0	0	0
374	0	0	0
375	0	0	0
376	0	0	0
377	0	0	0
378	0	0	0
379	0	0	0
380	0	0	0
381	0	0	0
382	0	0	0
383	0	0	0
384	0	0	0
385	246	213	231
386	241	209	228
387	245	218	232
388	250	225	236
389	251	224	235
390	248	218	231
391	249	221	232
392	250	224	232
393	250	224	231
394	247	222	230
395	0	0	0
396	0	0	0
397	0	0	0
398	0	0	0
399	0	0	0
400	0	0	0
401	0	0	0
402	0	0	0
403	0	0	0
404	0	0	0
405	0	0	0
406	0	0	0
407	0	0	0
408	0	0	0
409	0	0	0
410	0	0	0
411	0	0	0
412	0	0	0
413	0	0	0
414	0	0	0
415	0	0	0
416	0	0	0
417	0	0	0
418	0	0	0
419	0	0	0
420	0	0	0
421	0	0	0
422	0	0	0
423	0	0	0
424	0	0	0
425	0	0	0
426	0	0	0
427	0	0	0
428	0	0	0
429	0	0	0
430	0	0	0
431	0	0	0
432	0	0	0
433	0	0	0
434	0	0	0
435	0	0	0
436	0	0	0
437	0	0	0
438	0	0	0
439	0	0	0
440	0	0	0
441	0	0	0
442	0	0	0
443	0	0	0
444	0	0	0
445	0	0	0
446	0	0	0
447	0	0	0
448	0	0	0
449	0	0	0
450	0	0	0
451	0	0	0
452	0	0	0
453	0	0	0
454	0	0	0
455	0	0	0
456	0	0	0
457	0	0	0
458	0	0	0
459	0	0	0
460	0	0	0
461	0	0	0
462	0	0	0
463	0	0	0
464	0	0	0
465	0	0	0
466	0	0	0
467	0	0	0
468	0	0	0
469	0	0	0
470	0	0	0
471	0	0	0
472	0	0	0
473	0	0	0
474	0	0	0
475	0	0	0
476	0	0	0
477	0	0	0
478	0	0	0
479	0	0	0
480	0	0	0
481	0	0	0
482	0	0	0
483	0	0	0
484	0	0	0
485	0	0	0
486	0	0	0
487	0	0	0
488	0	0	0
489	0	0	0
490	0	0	0
491	0	0	0
492	0	0	0
493	0	0	0
494	0	0	0
495	0	0	0
496	0	0	0
497	0	0	0
498	0	0	0
499	0	0	0
500	0	0	0
501	0	0	0
502	0	0	0
503	0	0	0
504	0	0	0
505	0	0	0
506	0	0	0
507	0	0	0
508	0	0	0
509	0	0	0
510	243	208	228
511	248	216	234
512	255	226	241
513	252	219	234
514	253	217	233
515	250	215	231
516	247	215	230
517	251	222	232
518	253	224	233
519	248	217	229
520	0	0	0
521	253	233	236
522	0	0	0
523	0	0	0
524	0	0	0
525	0	0	0
526	0	0	0
527	0	0	0
528	0	0	0
529	0	0	0
530	0	0	0
531	0	0	0
532	0	0	0
533	0	0	0
534	0	0	0
535	0	0	0
536	0	0	0
537	0	0	0
538	0	0	0
539	0	0	0
540	0	0	0
541	0	0	0
542	0	0	0
543	0	0	0
544	0	0	0
545	0	0	0
546	0	0	0
547	0	0	0
548	0	0	0
549	0	0	0
550	0	0	0
551	0	0	0
552	0	0	0
553	0	0	0
554	0	0	0
555	0	0	0
556	0	0	0
557	0	0	0
558	0	0	0
559	0	0	0
560	0	0	0
561	0	0	0
562	0	0	0
563	0	0	0
564	0	0	0
565	0	0	0
566	0	0	0
567	0	0	0
568	0	0	0
569	0	0	0
570	0	0	0
571	0	0	0
572	0	0	0
573	0	0	0
574	0	0	0
575	0	0	0
576	0	0	0
577	0	0	0
578	0	0	0
579	0	0	0
580	0	0	0
581	0	0	0
582	0	0	0
583	0	0	0
584	0	0	0
585	0	0	0
586	0	0	0
587	0	0	0
588	0	0	0
589	0	0	0
590	0	0	0
591	0	0	0
592	0	0	0
593	0	0	0
594	0	0	0
595	0	0	0
596	0	0	0
597	0	0	0
598	0	0	0
599	0	0	0
600	0	0	0
601	0	0	0
602	0	0	0
603	0	0	0
604	0	0	0
605	0	0	0
606	0	0	0
607	0	0	0
608	0	0	0
609	0	0	0
610	0	0	0
611	0	0	0
612	0	0	0
613	0	0	0
614	0	0	0
615	0	0	0
616	0	0	0
617	0	0	0
618	0	0	0
619	0	0	0
620	0	0	0
621	0	0	0
622	0	0	0
623	0	0	0
624	0	0	0
625	0	0	0
626	0	0	0
627	0	0	0
628	0	0	0
629	0	0	0
630	0	0	0
631	0	0	0
632	0	0	0
633	251	215	233
634	240	199	220
635	243	208	226
636	249	218	235
637	247	212	232
638	244	206	227
639	249	208	230
640	247	206	227
641	248	212	229
642	252	219	232
643	252	217	230
644	246	210	225
645	249	219	229
646	251	225	232
647	250	225	230
648	250	226	229
649	253	230	232
650	0	0	0
651	0	0	0
652	0	0	0
653	0	0	0
654	0	0	0
655	249	239	234
656	0	0	0
657	0	0	0
658	0	0	0
659	0	0	0
660	0	0	0
661	0	0	0
662	0	0	0
663	0	0	0
664	0	0	0
665	0	0	0
666	0	0	0
667	0	0	0
668	0	0	0
669	0	0	0
670	0	0	0
671	0	0	0
672	0	0	0
673	0	0	0
674	0	0	0
675	0	0	0
676	0	0	0
677	0	0	0
678	0	0	0
679	0	0	0
680	0	0	0
681	0	0	0
682	0	0	0
683	0	0	0
684	0	0	0
685	0	0	0
686	0	0	0
687	0	0	0
688	0	0	0
689	0	0	0
690	0	0	0
691	0	0	0
692	0	0	0
693	0	0	0
694	0	0	0
695	0	0	0
696	0	0	0
697	0	0	0
698	0	0	0
699	0	0	0
700	0	0	0
701	0	0	0
702	0	0	0
703	0	0	0
704	0	0	0
705	0	0	0
706	0	0	0
707	0	0	0
708	0	0	0
709	0	0	0
710	0	0	0
711	0	0	0
712	0	0	0
713	0	0	0
714	0	0	0
715	0	0	0
716	0	0	0
717	0	0	0
718	0	0	0
719	0	0	0
720	0	0	0
721	0	0	0
722	0	0	0
723	0	0	0
724	0	0	0
725	0	0	0
726	0	0	0
727	0	0	0
728	0	0	0
729	0	0	0
730	0	0	0
731	0	0	0
732	0	0	0
733	0	0	0
734	0	0	0
735	0	0	0
736	0	0	0
737	0	0	0
738	0	0	0
739	0	0	0
740	0	0	0
741	0	0	0
742	0	0	0
743	0	0	0
744	0	0	0
745	0	0	0
746	0	0	0
747	0	0	0
748	0	0	0
749	0	0	0
750	0	0	0
751	0	0	0
752	0	0	0
753	0	0	0
754	0	0	0
755	0	0	0
756	0	0	0
757	254	226	241
758	244	211	229
759	241	207	224
760	249	218	232
761	248	218	234
762	245	211	231
763	247	211	231
764	254	215	234
765	253	213	232
766	255	221	237
767	253	214	232
768	250	211	229
769	249	209	227
770	254	219	233
771	251	218	231
772	245	216	226
773	248	221	228
774	255	226	232
775	248	219	227
776	0	0	0
777	0	0	0
778	0	0	0
779	244	229	230
780	248	236	234
781	245	233	232
782	0	0	0
783	0	0	0
784	0	0	0
785	0	0	0
786	0	0	0
787	0	0	0
788	0	0	0
789	0	0	0
790	0	0	0
791	0	0	0
792	0	0	0
793	0	0	0
794	0	0	0
795	0	0	0
796	0	0	0
797	0	0	0
798	0	0	0
799	0	0	0
800	0	0	0
801	0	0	0
802	0	0	0
803	0	0	0
804	0	0	0
805	0	0	0
806	0	0	0
807	0	0	0
808	0	0	0
809	0	0	0
810	0	0	0
811	0	0	0
812	0	0	0
813	0	0	0
814	0	0	0
815	0	0	0
816	0	0	0
817	0	0	0
818	0	0	0
819	0	0	0
820	0	0	0
821	0	0	0
822	0	0	0
823	0	0	0
824	0	0	0
825	0	0	0
826	0	0	0
827	0	0	0
828	0	0	0
829	0	0	0
830	0	0	0
831	0	0	0
832	0	0	0
833	0	0	0
834	0	0	0
835	0	0	0
836	0	0	0
837	0	0	0
838	0	0	0
839	0	0	0
840	0	0	0
841	0	0	0
842	0	0	0
843	0	0	0
844	0	0	0
845	0	0	0
846	0	0	0
847	0	0	0
848	0	0	0
849	0	0	0
850	0	0	0
851	0	0	0
852	0	0	0
853	0	0	0
854	0	0	0
855	0	0	0
856	0	0	0
857	0	0	0
858	0	0	0
859	0	0	0
860	0	0	0
861	0	0	0
862	0	0	0
863	0	0	0
864	0	0	0
865	0	0	0
866	0	0	0
867	0	0	0
868	0	0	0
869	0	0	0
870	0	0	0
871	0	0	0
872	0	0	0
873	0	0	0
874	0	0	0
875	0	0	0
876	0	0	0
877	0	0	0
878	0	0	0
879	0	0	0
880	0	0	0
881	250	218	237
882	255	227	240
883	251	222	235
884	249	218	232
885	247	217	231
886	247	216	233
887	249	217	234
888	251	216	232
889	254	216	233
890	253	215	232
891	250	210	229
892	247	204	227
893	248	206	228
894	247	204	226
895	247	207	228
896	244	207	227
897	243	209	226
898	246	214	226
899	246	211	224
900	239	203	218
901	0	0	0
902	0	0	0
903	243	222	230
904	245	228	231
905	243	226	229
906	239	223	226
907	241	229	230
908	247	238	236
909	250	237	237
910	0	0	0
911	0	0	0
912	0	0	0
913	0	0	0
914	0	0	0
915	0	0	0
916	0	0	0
917	0	0	0
918	0	0	0
919	0	0	0
920	0	0	0
921	0	0	0
922	0	0	0
923	0	0	0
924	0	0	0
925	0	0	0
926	0	0	0
927	0	0	0
928	0	0	0
929	0	0	0
930	0	0	0
931	0	0	0
932	0	0	0
933	0	0	0
934	0	0	0
935	0	0	0
936	0	0	0
937	0	0	0
938	0	0	0
939	0	0	0
940	0	0	0
941	0	0	0
942	0	0	0
943	0	0	0
944	0	0	0
945	0	0	0
946	0	0	0
947	0	0	0
948	0	0	0
949	0	0	0
950	0	0	0
951	0	0	0
952	0	0	0
953	0	0	0
954	0	0	0
955	0	0	0
956	0	0	0
957	0	0	0
958	0	0	0
959	0	0	0
960	0	0	0
961	0	0	0
962	0	0	0
963	0	0	0
964	0	0	0
965	0	0	0
966	0	0	0
967	0	0	0
968	0	0	0
969	0	0	0
970	0	0	0
971	0	0	0
972	0	0	0
973	0	0	0
974	0	0	0
975	0	0	0
976	0	0	0
977	0	0	0
978	0	0	0
979	0	0	0
980	0	0	0
981	0	0	0
982	0	0	0
983	0	0	0
984	0	0	0
985	0	0	0
986	0	0	0
987	0	0	0
988	0	0	0
989	0	0	0
990	0	0	0
991	0	0	0
992	0	0	0
993	0	0	0
994	0	0	0
995	0	0	0
996	0	0	0
997	0	0	0
998	0	0	0
999	0	0	0
1000	0	0	0
1001	0	0	0
1002	0	0	0
1003	0	0	0
1004	0	0	0
1005	251	218	237
1006	255	231	246
1007	253	220	237
1008	250	216	232
1009	250	217	232
1010	246	215	230
1011	254	223	237
1012	255	225	239
1013	251	213	229
1014	248	210	227
1015	247	209	227
1016	246	206	226
1017	249	208	230
1018	253	211	234
1019	247	204	228
1020	245	206	229
1021	247	210	232
1022	252	216	235
1023	251	216	232
1024	246	210	225
1025	239	203	220
1026	0	0	0
1027	246	219	232
1028	251	226	236
1029	242	216	227
1030	235	212	222
1031	235	216	224
1032	238	223	228
1033	242	227	231
1034	248	228	233
1035	240	217	224
1036	0	0	0
1037	0	0	0
1038	0	0	0
1039	0	0	0
1040	0	0	0
1041	0	0	0
1042	0	0	0
1043	0	0	0
1044	0	0	0
1045	0	0	0
1046	0	0	0
1047	0	0	0
1048	0	0	0
1049	0	0	0
1050	0	0	0
1051	0	0	0
1052	0	0	0
1053	0	0	0
1054	0	0	0
1055	0	0	0
1056	0	0	0
1057	0	0	0
1058	0	0	0
1059	0	0	0
1060	0	0	0
1061	0	0	0
1062	0	0	0
1063	0	0	0
1064	0	0	0
1065	0	0	0
1066	0	0	0
1067	0	0	0
1068	0	0	0
1069	0	0	0
1070	0	0	0
1071	0	0	0
1072	0	0	0
1073	0	0	0
1074	0	0	0
1075	0	0	0
1076	0	0	0
1077	0	0	0
1078	0	0	0
1079	0	0	0
1080	0	0	0
1081	0	0	0
1082	0	0	0
1083	0	0	0
1084	0	0	0
1085	0	0	0
1086	0	0	0
1087	0	0	0
1088	0	0	0
1089	0	0	0
1090	0	0	0
1091	0	0	0
1092	0	0	0
1093	0	0	0
1094	0	0	0
1095	0	0	0
1096	0	0	0
1097	0	0	0
1098	0	0	0
1099	0	0	0
1100	0	0	0
1101	0	0	0
1102	0	0	0
1103	0	0	0
1104	0	0	0
1105	0	0	0
1106	0	0	0
1107	0	0	0
1108	0	0	0
1109	0	0	0
1110	0	0	0
1111	0	0	0
1112	0	0	0
1113	0	0	0
1114	0	0	0
1115	0	0	0
1116	0	0	0
1117	0	0	0
1118	0	0	0
1119	0	0	0
1120	0	0	0
1121	0	0	0
1122	0	0	0
1123	0	0	0
1124	0	0	0
1125	0	0	0
1126	0	0	0
1127	0	0	0
1128	0	0	0
1129	0	0	0
1130	0	0	0
1131	250	218	235
1132	244	209	229
1133	250	214	234
1134	250	216	233
1135	250	220	233
1136	255	228	237
1137	254	219	231
1138	247	207	223
1139	243	205	222
1140	243	205	225
1141	248	208	229
1142	251	210	230
1143	248	206	228
1144	243	200	224
1145	243	204	228
1146	245	208	232
1147	249	211	234
1148	249	212	230
1149	242	205	224
1150	236	200	221
1151	244	211	229
1152	248	218	231
1153	243	210	225
1154	234	201	220
1155	234	207	223
1156	234	211	224
1157	232	211	222
1158	236	215	225
1159	239	212	224
1160	231	202	217
1161	235	216	224
1162	245	233	232
1163	242	226	227
1164	237	219	224
1165	239	225	228
1166	242	231	231
1167	245	235	233
1168	0	0	0
1169	0	0	0
1170	0	0	0
1171	0	0	0
1172	0	0	0
1173	0	0	0
1174	0	0	0
1175	0	0	0
1176	0	0	0
1177	0	0	0
1178	0	0	0
1179	0	0	0
1180	0	0	0
1181	0	0	0
1182	0	0	0
1183	0	0	0
1184	0	0	0
1185	0	0	0
1186	0	0	0
1187	0	0	0
1188	0	0	0
1189	0	0	0
1190	0	0	0
1191	0	0	0
1192	0	0	0
1193	0	0	0
1194	0	0	0
1195	0	0	0
1196	0	0	0
1197	0	0	0
1198	0	0	0
1199	0	0	0
1200	0	0	0
1201	0	0	0
1202	0	0	0
1203	0	0	0
1204	0	0	0
1205	0	0	0
1206	0	0	0
1207	0	0	0
1208	0	0	0
1209	0	0	0
1210	0	0	0
1211	0	0	0
1212	0	0	0
1213	0	0	0
1214	0	0	0
1215	0	0	0
1216	0	0	0
1217	0	0	0
1218	0	0	0
1219	0	0	0
1220	0	0	0
1221	0	0	0
1222	0	0	0
1223	0	0	0
1224	0	0	0
1225	0	0	0
1226	0	0	0
1227	0	0	0
1228	0	0	0
1229	0	0	0
1230	0	0	0
1231	0	0	0
1232	0	0	0
1233	0	0	0
1234	0	0	0
1235	0	0	0
1236	0	0	0
1237	0	0	0
1238	0	0	0
1239	0	0	0
1240	0	0	0
1241	0	0	0
1242	0	0	0
1243	0	0	0
1244	0	0	0
1245	0	0	0
1246	0	0	0
1247	0	0	0
1248	0	0	0
1249	0	0	0
1250	0	0	0
1251	0	0	0
1252	0	0	0
1253	0	0	0
1254	0	0	0
1255	0	0	0
1256	243	215	229
1257	251	222	237
1258	255	230	244
1259	249	215	232
1260	247	218	232
1261	248	220	231
1262	244	210	223
1263	246	210	225
1264	245	209	225
1265	248	212	230
1266	255	217	235
1267	251	210	229
1268	246	204	225
1269	248	209	230
1270	251	215	235
1271	244	206	232
1272	246	209	232
1273	246	210	229
1274	239	204	223
1275	241	205	227
1276	254	219	237
1277	246	208	227
1278	235	198	219
1279	235	201	223
1280	241	210	230
1281	235	205	225
1282	231	205	223
1283	234	210	225
1284	232	204	222
1285	227	198	218
1286	237	216	230
1287	232	212	224
1288	223	202	215
1289	226	206	219
1290	231	215	224
1291	233	217	225
1292	240	223	229
1293	238	218	226
1294	0	0	0
1295	0	0	0
1296	0	0	0
1297	0	0	0
1298	0	0	0
1299	0	0	0
1300	0	0	0
1301	0	0	0
1302	0	0	0
1303	0	0	0
1304	0	0	0
1305	0	0	0
1306	0	0	0
1307	0	0	0
1308	0	0	0
1309	0	0	0
1310	0	0	0
1311	0	0	0
1312	0	0	0
1313	0	0	0
1314	0	0	0
1315	0	0	0
1316	0	0	0
1317	0	0	0
1318	0	0	0
1319	0	0	0
1320	0	0	0
1321	0	0	0
1322	0	0	0
1323	0	0	0
1324	0	0	0
1325	0	0	0
1326	0	0	0
1327	0	0	0
1328	0	0	0
1329	0	0	0
1330	0	0	0
1331	0	0	0
1332	0	0	0
1333	0	0	0
1334	0	0	0
1335	0	0	0
1336	0	0	0
1337	0	0	0
1338	0	0	0
1339	0	0	0
1340	0	0	0
1341	0	0	0
1342	0	0	0
1343	0	0	0
1344	0	0	0
1345	0	0	0
1346	0	0	0
1347	0	0	0
1348	0	0	0
1349	0	0	0
1350	0	0	0
1351	0	0	0
1352	0	0	0
1353	0	0	0
1354	0	0	0
1355	0	0	0
1356	0	0	0
1357	0	0	0
1358	0	0	0
1359	0	0	0
1360	0	0	0
1361	0	0	0
1362	0	0	0
1363	0	0	0
1364	0	0	0
1365	0	0	0
1366	0	0	0
1367	0	0	0
1368	0	0	0
1369	0	0	0
1370	0	0	0
1371	0	0	0
1372	0	0	0
1373	0	0	0
1374	0	0	0
1375	0	0	0
1376	0	0	0
1377	0	0	0
1378	0	0	0
1379	0	0	0
1380	246	225	235
1381	252	230	238
1382	255	236	242
1383	254	225	236
1384	244	212	228
1385	242	212	228
1386	243	214	229
1387	248	215	231
1388	250	215	231
1389	252	217	233
1390	255	219	234
1391	255	216	233
1392	251	209	229
1393	251	212	230
1394	252	217	234
1395	244	208	228
1396	238	201	225
1397	242	206	229
1398	242	208	226
1399	241	207	224
1400	243	208	228
1401	243	203	226
1402	236	193	220
1403	232	194	219
1404	231	195	220
1405	230	195	220
1406	225	192	219
1407	225	195	221
1408	226	200	222
1409	223	195	219
1410	218	189	216
1411	218	190	218
1412	214	188	215
1413	216	193	217
1414	218	197	218
1415	222	201	219
1416	225	204	219
1417	222	199	215
1418	221	194	212
1419	229	201	217
1420	231	204	218
1421	233	208	220
1422	234	212	222
1423	237	218	225
1424	241	224	227
1425	242	227	227
1426	244	230	228
1427	0	0	0
1428	0	0	0
1429	0	0	0
1430	0	0	0
1431	0	0	0
1432	0	0	0
1433	0	0	0
1434	0	0	0
1435	0	0	0
1436	0	0	0
1437	0	0	0
1438	0	0	0
1439	0	0	0
1440	0	0	0
1441	0	0	0
1442	0	0	0
1443	0	0	0
1444	0	0	0
1445	0	0	0
1446	0	0	0
1447	0	0	0
1448	0	0	0
1449	0	0	0
1450	0	0	0
1451	0	0	0
1452	0	0	0
1453	0	0	0
1454	0	0	0
1455	0	0	0
1456	0	0	0
1457	0	0	0
1458	0	0	0
1459	0	0	0
1460	0	0	0
1461	0	0	0
1462	0	0	0
1463	0	0	0
1464	0	0	0
1465	0	0	0
1466	0	0	0
1467	0	0	0
1468	0	0	0
1469	0	0	0
1470	0	0	0
1471	0	0	0
1472	0	0	0
1473	0	0	0
1474	0	0	0
1475	0	0	0
1476	0	0	0
1477	0	0	0
1478	0	0	0
1479	0	0	0
1480	0	0	0
1481	0	0	0
1482	0	0	0
1483	0	0	0
1484	0	0	0
1485	0	0	0
1486	0	0	0
1487	0	0	0
1488	0	0	0
1489	0	0	0
1490	0	0	0
1491	0	0	0
1492	0	0	0
1493	0	0	0
1494	0	0	0
1495	0	0	0
1496	0	0	0
1497	0	0	0
1498	0	0	0
1499	0	0	0
1500	0	0	0
1501	0	0	0
1502	0	0	0
1503	0	0	0
1504	0	0	0
1505	247	228	235
1506	255	234	240
1507	253	228	234
1508	243	215	225
1509	244	215	229
1510	246	219	233
1511	249	220	235
1512	255	222	237
1513	254	217	234
1514	255	219	236
1515	255	214	232
1516	251	208	228
1517	250	208	227
1518	249	211	229
1519	248	214	230
1520	239	205	224
1521	240	207	227
1522	245	212	232
1523	242	208	227
1524	244	209	228
1525	238	200	224
1526	233	192	220
1527	238	201	226
1528	238	204	228
1529	227	193	220
1530	223	191	218
1531	226	198	225
1532	228	204	229
1533	221	197	223
1534	217	192	220
1535	215	192	221
1536	215	193	223
1537	213	191	222
1538	219	198	227
1539	214	191	220
1540	219	196	222
1541	220	198	221
1542	213	191	215
1543	215	191	216
1544	226	200	223
1545	220	191	216
1546	218	193	216
1547	218	196	216
1548	222	202	219
1549	227	208	221
1550	232	212	223
1551	234	212	222
1552	242	220	227
1553	0	0	0
1554	0	0	0
1555	0	0	0
1556	0	0	0
1557	0	0	0
1558	0	0	0
1559	0	0	0
1560	0	0	0
1561	0	0	0
1562	0	0	0
1563	0	0	0
1564	0	0	0
1565	0	0	0
1566	0	0	0
1567	0	0	0
1568	0	0	0
1569	0	0	0
1570	0	0	0
1571	0	0	0
1572	0	0	0
1573	0	0	0
1574	0	0	0
1575	0	0	0
1576	0	0	0
1577	0	0	0
1578	0	0	0
1579	0	0	0
1580	0	0	0
1581	0	0	0
1582	0	0	0
1583	0	0	0
1584	0	0	0
1585	0	0	0
1586	0	0	0
1587	0	0	0
1588	0	0	0
1589	0	0	0
1590	0	0	0
1591	0	0	0
1592	0	0	0
1593	0	0	0
1594	0	0	0
1595	0	0	0
1596	0	0	0
1597	0	0	0
1598	0	0	0
1599	0	0	0
1600	0	0	0
1601	0	0	0
1602	0	0	0
1603	0	0	0
1604	0	0	0
1605	0	0	0
1606	0	0	0
1607	0	0	0
1608	0	0	0
1609	0	0	0
1610	0	0	0
1611	0	0	0
1612	0	0	0
1613	0	0	0
1614	0	0	0
1615	0	0	0
1616	0	0	0
1617	0	0	0
1618	0	0	0
1619	0	0	0
1620	0	0	0
1621	0	0	0
1622	0	0	0
1623	0	0	0
1624	0	0	0
1625	0	0	0
1626	0	0	0
1627	0	0	0
1628	0	0	0
1629	0	0	0
1630	251	232	237
1631	254	230	235
1632	252	224	232
1633	251	223	233
1634	251	224	236
1635	251	224	236
1636	253	225	237
1637	254	220	234
1638	253	215	232
1639	252	211	230
1640	249	207	227
1641	248	206	226
1642	245	205	225
1643	244	208	226
1644	244	212	228
1645	243	212	227
1646	243	213	229
1647	242	209	228
1648	241	206	227
1649	236	198	224
1650	231	190	222
1651	236	199	228
1652	239	206	229
1653	231	197	222
1654	222	189	217
1655	225	196	223
1656	226	202	227
1657	220	197	223
1658	214	191	220
1659	212	190	220
1660	211	190	221
1661	209	190	222
1662	207	187	221
1663	206	185	220
1664	204	180	218
1665	210	186	223
1666	211	188	221
1667	206	186	218
1668	207	186	219
1669	206	181	217
1670	201	172	212
1671	204	177	215
1672	205	181	216
1673	211	189	220
1674	216	195	220
1675	217	193	217
1676	220	192	216
1677	225	193	216
1678	226	192	214
1679	234	201	218
1680	240	209	221
1681	243	212	221
1682	248	217	224
1683	251	220	224
1684	252	222	224
1685	254	227	226
1686	255	235	232
1687	255	229	227
1688	251	224	224
1689	252	225	224
1690	250	224	221
1691	254	233	226
1692	255	243	233
1693	255	239	230
1694	255	238	232
1695	255	239	232
1696	255	239	228
1697	255	239	223
1698	0	0	0
1699	255	243	224
1700	255	248	232
1701	255	244	232
1702	255	241	229
1703	255	237	227
1704	254	228	219
1705	251	229	218
1706	248	229	218
1707	0	0	0
1708	0	0	0
1709	0	0	0
1710	0	0	0
1711	0	0	0
1712	0	0	0
1713	0	0	0
1714	0	0	0
1715	0	0	0
1716	0	0	0
1717	0	0	0
1718	0	0	0
1719	0	0	0
1720	0	0	0
1721	0	0	0
1722	0	0	0
1723	0	0	0
1724	0	0	0
1725	0	0	0
1726	0	0	0
1727	0	0	0
1728	0	0	0
1729	0	0	0
1730	0	0	0
1731	0	0	0
1732	0	0	0
1733	0	0	0
1734	0	0	0
1735	0	0	0
1736	0	0	0
1737	0	0	0
1738	0	0	0
1739	0	0	0
1740	0	0	0
1741	0	0	0
1742	0	0	0
1743	0	0	0
1744	0	0	0
1745	0	0	0
1746	0	0	0
1747	0	0	0
1748	0	0	0
1749	0	0	0
1750	0	0	0
1751	0	0	0
1752	0	0	0
1753	0	0	0
1754	0	0	0
1755	253	230	237
1756	255	227	234
1757	252	220	231
1758	253	221	233
1759	251	218	233
1760	248	217	232
1761	253	224	236
1762	252	218	232
1763	249	212	230
1764	248	209	228
1765	249	212	230
1766	246	211	228
1767	243	210	227
1768	243	213	228
1769	241	212	227
1770	244	214	229
1771	241	209	227
1772	239	205	225
1773	242	208	228
1774	237	200	224
1775	239	202	229
1776	243	210	234
1777	235	202	225
1778	227	194	219
1779	227	195	223
1780	232	205	231
1781	220	192	222
1782	211	186	217
1783	212	191	222
1784	211	191	223
1785	209	191	223
1786	209	191	224
1787	202	183	220
1788	199	180	220
1789	201	181	224
1790	208	188	231
1791	197	175	220
1792	192	173	217
1793	190	173	217
1794	186	166	213
1795	198	179	223
1796	208	189	231
1797	202	178	223
1798	209	187	228
1799	206	182	221
1800	204	179	216
1801	209	183	218
1802	211	183	217
1803	217	186	217
1804	229	197	224
1805	232	196	221
1806	238	200	221
1807	243	203	222
1808	247	206	222
1809	246	204	219
1810	249	209	220
1811	249	209	221
1812	245	203	216
1813	252	212	221
1814	254	213	221
1815	253	212	219
1816	255	221	224
1817	253	219	220
1818	245	213	214
1819	253	226	225
1820	254	226	224
1821	254	227	221
1822	252	227	217
1823	253	229	217
1824	255	232	220
1825	255	228	220
1826	254	225	220
1827	255	224	222
1828	254	219	219
1829	242	205	206
1830	236	204	204
1831	239	212	210
1832	243	218	217
1833	0	0	0
1834	0	0	0
1835	0	0	0
1836	0	0	0
1837	0	0	0
1838	0	0	0
1839	0	0	0
1840	0	0	0
1841	0	0	0
1842	0	0	0
1843	0	0	0
1844	0	0	0
1845	0	0	0
1846	0	0	0
1847	0	0	0
1848	0	0	0
1849	0	0	0
1850	0	0	0
1851	0	0	0
1852	0	0	0
1853	0	0	0
1854	0	0	0
1855	0	0	0
1856	0	0	0
1857	0	0	0
1858	0	0	0
1859	0	0	0
1860	0	0	0
1861	0	0	0
1862	0	0	0
1863	0	0	0
1864	0	0	0
1865	0	0	0
1866	0	0	0
1867	0	0	0
1868	0	0	0
1869	0	0	0
1870	0	0	0
1871	0	0	0
1872	0	0	0
1873	0	0	0
1874	0	0	0
1875	0	0	0
1876	0	0	0
1877	0	0	0
1878	0	0	0
1879	254	231	241
1880	255	231	241
1881	254	224	236
1882	251	217	231
1883	253	217	232
1884	250	214	232
1885	249	217	233
1886	253	224	237
1887	251	217	232
1888	248	211	229
1889	251	216	233
1890	251	218	233
1891	246	215	229
1892	243	214	227
1893	242	213	227
1894	242	213	228
1895	243	211	229
1896	242	207	228
1897	242	208	229
1898	243	209	227
1899	243	210	227
1900	243	211	228
1901	236	204	224
1902	230	198	221
1903	229	198	223
1904	228	199	226
1905	221	190	223
1906	211	180	217
1907	210	184	221
1908	209	189	224
1909	206	188	222
1910	204	187	220
1911	199	181	218
1912	193	174	217
1913	194	176	222
1914	194	177	225
1915	190	169	222
1916	180	157	214
1917	178	159	216
1918	177	159	216
1919	186	172	225
1920	198	186	233
1921	197	179	228
1922	193	169	222
1923	195	169	223
1924	192	166	219
1925	195	169	221
1926	200	174	223
1927	205	178	223
1928	211	180	222
1929	217	181	222
1930	223	182	221
1931	232	186	223
1932	236	188	219
1933	237	186	216
1934	237	185	215
1935	239	186	215
1936	241	186	214
1937	246	193	217
1938	253	201	220
1939	253	201	218
1940	253	200	216
1941	251	199	214
1942	247	197	210
1943	251	208	215
1944	255	219	222
1945	255	221	222
1946	255	223	221
1947	255	223	221
1948	255	226	224
1949	255	220	221
1950	254	214	217
1951	253	211	216
1952	254	210	218
1953	245	199	212
1954	233	184	201
1955	234	193	206
1956	239	201	214
1957	241	203	217
1958	241	204	218
1959	248	215	225
1960	0	0	0
1961	0	0	0
1962	0	0	0
1963	243	220	224
1964	242	223	226
1965	242	226	228
1966	0	0	0
1967	0	0	0
1968	0	0	0
1969	0	0	0
1970	0	0	0
1971	251	244	234
1972	0	0	0
1973	0	0	0
1974	0	0	0
1975	0	0	0
1976	0	0	0
1977	0	0	0
1978	0	0	0
1979	0	0	0
1980	0	0	0
1981	0	0	0
1982	0	0	0
1983	0	0	0
1984	0	0	0
1985	0	0	0
1986	0	0	0
1987	0	0	0
1988	0	0	0
1989	0	0	0
1990	0	0	0
1991	0	0	0
1992	0	0	0
1993	0	0	0
1994	0	0	0
1995	0	0	0
1996	0	0	0
1997	0	0	0
1998	0	0	0
1999	0	0	0
2000	0	0	0
2001	0	0	0
2002	0	0	0
2003	0	0	0
2004	0	0	0
2005	254	222	237
2006	247	212	230
2007	252	218	234
2008	255	219	236
2009	250	213	233
2010	248	215	232
2011	255	228	239
2012	254	221	235
2013	249	212	230
2014	251	216	233
2015	249	217	232
2016	243	214	228
2017	246	219	230
2018	248	219	231
2019	246	214	230
2020	246	212	231
2021	243	207	230
2022	243	207	229
2023	243	209	228
2024	243	209	226
2025	240	207	223
2026	233	200	219
2027	231	199	222
2028	228	199	224
2029	228	200	227
2030	221	192	225
2031	217	190	225
2032	216	195	230
2033	209	191	227
2034	205	190	225
2035	203	189	223
2036	197	183	220
2037	190	175	220
2038	192	178	227
2039	185	170	224
2040	178	161	220
2041	177	162	221
2042	180	166	225
2043	177	161	223
2044	188	175	233
2045	187	172	229
2046	183	163	222
2047	180	156	219
2048	182	157	220
2049	187	162	223
2050	191	167	226
2051	195	170	227
2052	204	175	230
2053	206	171	224
2054	208	171	222
2055	217	174	225
2056	231	181	229
2057	230	174	219
2058	226	170	213
2059	227	169	214
2060	234	172	217
2061	239	177	218
2062	245	183	220
2063	246	184	217
2064	246	183	214
2065	247	185	213
2066	244	184	210
2067	250	193	214
2068	255	205	221
2069	253	199	214
2070	252	200	214
2071	253	202	215
2072	254	203	217
2073	254	203	219
2074	250	196	214
2075	253	200	215
2076	251	196	213
2077	250	196	216
2078	239	184	209
2079	234	180	207
2080	243	192	216
2081	248	200	223
2082	247	200	222
2083	242	193	217
2084	249	204	224
2085	238	192	212
2086	0	0	0
2087	243	209	221
2088	243	212	223
2089	240	210	222
2090	240	213	224
2091	235	211	222
2092	0	0	0
2093	0	0	0
2094	248	236	230
2095	248	234	229
2096	249	233	230
2097	248	230	229
2098	0	0	0
2099	0	0	0
2100	0	0	0
2101	0	0	0
2102	0	0	0
2103	0	0	0
2104	0	0	0
2105	0	0	0
2106	0	0	0
2107	0	0	0
2108	0	0	0
2109	0	0	0
2110	0	0	0
2111	0	0	0
2112	0	0	0
2113	0	0	0
2114	0	0	0
2115	0	0	0
2116	0	0	0
2117	0	0	0
2118	0	0	0
2119	0	0	0
2120	0	0	0
2121	0	0	0
2122	0	0	0
2123	0	0	0
2124	0	0	0
2125	0	0	0
2126	0	0	0
2127	0	0	0
2128	0	0	0
2129	255	227	241
2130	255	216	235
2131	255	222	241
2132	255	227	245
2133	255	220	240
2134	250	213	235
2135	249	219	236
2136	255	231	240
2137	252	220	232
2138	247	212	228
2139	248	215	232
2140	248	217	234
2141	247	220	235
2142	250	224	236
2143	247	217	231
2144	245	211	229
2145	246	209	230
2146	242	204	228
2147	242	207	230
2148	242	208	230
2149	237	204	226
2150	235	202	223
2151	234	201	223
2152	232	200	224
2153	231	202	227
2154	230	203	230
2155	224	199	229
2156	219	196	227
2157	214	194	227
2158	209	192	226
2159	205	190	226
2160	202	190	225
2161	194	181	221
2162	188	173	222
2163	184	168	224
2164	176	160	221
2165	174	161	223
2166	173	161	222
2167	171	158	221
2168	168	153	219
2169	169	153	220
2170	168	150	218
2171	166	145	215
2172	164	139	211
2173	173	149	218
2174	177	153	218
2175	179	155	218
2176	184	158	221
2177	191	159	222
2178	193	156	218
2179	196	156	217
2180	205	159	220
2181	214	158	219
2182	214	152	213
2183	212	149	210
2184	215	149	211
2185	227	157	217
2186	232	161	217
2187	233	162	214
2188	235	163	213
2189	237	165	212
2190	238	167	210
2191	243	174	213
2192	249	183	216
2193	245	178	210
2194	241	173	204
2195	244	176	207
2196	246	179	211
2197	244	176	210
2198	243	175	209
2199	246	178	211
2200	248	182	211
2201	246	180	210
2202	244	179	212
2203	235	174	210
2204	232	170	210
2205	240	182	218
2206	244	188	217
2207	236	180	210
2208	231	174	208
2209	227	168	206
2210	217	157	198
2211	230	180	212
2212	242	201	223
2213	237	197	219
2214	233	195	218
2215	233	197	219
2216	228	196	216
2217	236	214	224
2218	249	233	234
2219	245	227	227
2220	244	223	225
2221	240	218	223
2222	238	215	225
2223	234	210	223
2224	0	0	0
2225	0	0	0
2226	0	0	0
2227	0	0	0
2228	0	0	0
2229	0	0	0
2230	0	0	0
2231	0	0	0
2232	0	0	0
2233	0	0	0
2234	0	0	0
2235	0	0	0
2236	0	0	0
2237	0	0	0
2238	0	0	0
2239	0	0	0
2240	0	0	0
2241	0	0	0
2242	0	0	0
2243	0	0	0
2244	0	0	0
2245	0	0	0
2246	0	0	0
2247	0	0	0
2248	0	0	0
2249	0	0	0
2250	0	0	0
2251	0	0	0
2252	0	0	0
2253	255	219	239
2254	255	213	237
2255	243	193	226
2256	250	201	234
2257	251	206	235
2258	239	194	225
2259	247	212	236
2260	247	219	236
2261	252	227	238
2262	247	217	230
2263	249	217	231
2264	251	221	236
2265	247	217	235
2266	249	220	237
2267	248	220	234
2268	242	212	228
2269	245	213	231
2270	248	212	233
2271	242	204	229
2272	240	205	230
2273	237	206	229
2274	231	201	224
2275	237	211	230
2276	239	212	231
2277	232	200	225
2278	234	203	229
2279	228	198	228
2280	216	190	221
2281	219	201	227
2282	219	201	229
2283	206	186	223
2284	202	185	224
2285	203	190	227
2286	196	182	225
2287	193	177	227
2288	188	173	229
2289	178	162	225
2290	175	162	227
2291	176	166	227
2292	172	163	225
2293	167	157	222
2294	165	155	222
2295	166	155	223
2296	166	152	222
2297	167	148	220
2298	178	159	227
2299	177	156	222
2300	177	157	221
2301	176	151	219
2302	181	151	219
2303	189	155	221
2304	195	157	221
2305	202	157	222
2306	207	154	220
2307	214	157	222
2308	218	157	223
2309	220	153	222
2310	233	162	228
2311	238	165	226
2312	238	164	223
2313	239	164	221
2314	242	167	220
2315	249	176	223
2316	255	184	226
2317	252	180	220
2318	246	174	214
2319	250	179	216
2320	255	183	220
2321	252	178	219
2322	248	175	216
2323	252	180	219
2324	255	184	221
2325	250	177	215
2326	247	174	214
2327	248	179	218
2328	238	173	215
2329	234	171	217
2330	241	181	222
2331	238	179	215
2332	230	171	208
2333	231	172	212
2334	226	167	210
2335	225	167	212
2336	241	192	228
2337	240	194	224
2338	232	189	218
2339	225	183	215
2340	224	185	215
2341	233	199	223
2342	251	222	236
2343	243	212	225
2344	230	200	214
2345	237	213	223
2346	230	206	218
2347	230	210	223
2348	0	0	0
2349	0	0	0
2350	0	0	0
2351	0	0	0
2352	0	0	0
2353	0	0	0
2354	0	0	0
2355	0	0	0
2356	0	0	0
2357	0	0	0
2358	0	0	0
2359	0	0	0
2360	0	0	0
2361	0	0	0
2362	0	0	0
2363	0	0	0
2364	0	0	0
2365	0	0	0
2366	0	0	0
2367	0	0	0
2368	0	0	0
2369	0	0	0
2370	0	0	0
2371	0	0	0
2372	0	0	0
2373	0	0	0
2374	0	0	0
2375	0	0	0
2376	0	0	0
2377	253	217	240
2378	245	201	233
2379	234	185	226
2380	222	165	215
2381	233	178	225
2382	234	182	224
2383	240	197	230
2384	250	216	240
2385	251	221	240
2386	255	230	243
2387	255	229	242
2388	255	228	242
2389	250	221	236
2390	246	216	234
2391	246	217	234
2392	246	217	232
2393	245	215	231
2394	247	216	234
2395	244	210	232
2396	238	201	228
2397	237	204	230
2398	235	204	229
2399	238	212	233
2400	244	221	238
2401	236	208	229
2402	229	197	224
2403	231	197	226
2404	224	192	223
2405	223	199	226
2406	226	209	231
2407	214	194	223
2408	203	180	219
2409	204	186	226
2410	205	190	231
2411	198	182	227
2412	193	177	226
2413	183	168	223
2414	174	157	222
2415	176	165	229
2416	177	169	231
2417	173	164	227
2418	168	158	224
2419	167	158	225
2420	168	159	226
2421	169	156	225
2422	169	153	224
2423	173	154	225
2424	172	152	220
2425	166	144	214
2426	166	139	213
2427	177	146	219
2428	185	150	219
2429	190	150	217
2430	196	151	218
2431	203	153	219
2432	211	155	221
2433	214	152	220
2434	217	148	219
2435	229	156	225
2436	233	158	224
2437	229	155	217
2438	231	155	216
2439	242	166	221
2440	250	175	223
2441	249	172	219
2442	246	169	217
2443	245	170	216
2444	249	175	218
2445	247	169	213
2446	243	163	209
2447	246	169	212
2448	250	175	216
2449	245	168	212
2450	241	162	209
2451	242	166	212
2452	242	170	215
2453	236	168	214
2454	233	166	214
2455	235	169	216
2456	234	168	213
2457	234	169	214
2458	234	170	218
2459	233	172	219
2460	231	171	217
2461	236	179	221
2462	235	181	218
2463	228	177	215
2464	222	172	214
2465	229	187	223
2466	240	202	229
2467	243	199	225
2468	234	188	217
2469	232	196	219
2470	236	208	226
2471	231	207	223
2472	229	209	224
2473	0	0	0
2474	0	0	0
2475	0	0	0
2476	0	0	0
2477	0	0	0
2478	0	0	0
2479	0	0	0
2480	0	0	0
2481	0	0	0
2482	0	0	0
2483	0	0	0
2484	0	0	0
2485	0	0	0
2486	0	0	0
2487	0	0	0
2488	0	0	0
2489	0	0	0
2490	0	0	0
2491	0	0	0
2492	0	0	0
2493	0	0	0
2494	0	0	0
2495	0	0	0
2496	0	0	0
2497	0	0	0
2498	0	0	0
2499	0	0	0
2500	0	0	0
2501	253	231	245
2502	253	220	244
2503	238	195	234
2504	222	177	225
2505	221	177	228
2506	233	190	237
2507	234	191	233
2508	248	210	242
2509	255	226	249
2510	255	232	250
2511	253	218	239
2512	250	215	236
2513	249	217	236
2514	240	208	228
2515	249	223	238
2516	252	225	240
2517	246	215	233
2518	247	215	233
2519	248	217	235
2520	238	207	228
2521	238	209	231
2522	241	213	235
2523	238	208	231
2524	245	217	237
2525	239	211	232
2526	225	194	220
2527	231	203	228
2528	233	203	230
2529	228	198	226
2530	233	208	233
2531	225	201	228
2532	209	184	217
2533	210	189	226
2534	214	195	235
2535	204	185	230
2536	194	176	225
2537	191	177	226
2538	180	166	222
2539	175	162	225
2540	179	170	233
2541	176	167	229
2542	174	163	227
2543	176	163	229
2544	177	165	231
2545	172	156	225
2546	170	153	224
2547	173	156	226
2548	173	155	225
2549	170	150	219
2550	167	144	216
2551	177	151	224
2552	190	160	231
2553	189	151	222
2554	192	150	219
2555	198	151	220
2556	206	153	221
2557	215	158	224
2558	217	154	222
2559	217	148	220
2560	227	154	225
2561	228	155	222
2562	222	150	214
2563	239	171	227
2564	255	185	234
2565	248	169	220
2566	245	165	216
2567	243	164	217
2568	244	167	218
2569	250	177	222
2570	245	169	215
2571	247	171	215
2572	254	179	220
2573	251	175	217
2574	244	167	212
2575	246	172	217
2576	246	175	219
2577	245	176	219
2578	244	175	220
2579	242	172	220
2580	245	175	222
2581	246	175	222
2582	251	178	225
2583	246	172	223
2584	241	172	221
2585	240	174	221
2586	244	182	225
2587	241	180	222
2588	235	177	219
2589	227	169	216
2590	236	185	227
2591	244	195	230
2592	244	190	225
2593	235	181	217
2594	231	188	220
2595	236	202	227
2596	233	201	224
2597	233	206	225
2598	0	0	0
2599	0	0	0
2600	0	0	0
2601	0	0	0
2602	0	0	0
2603	0	0	0
2604	0	0	0
2605	0	0	0
2606	0	0	0
2607	0	0	0
2608	0	0	0
2609	0	0	0
2610	0	0	0
2611	0	0	0
2612	0	0	0
2613	0	0	0
2614	0	0	0
2615	0	0	0
2616	0	0	0
2617	0	0	0
2618	0	0	0
2619	0	0	0
2620	0	0	0
2621	0	0	0
2622	0	0	0
2623	0	0	0
2624	0	0	0
2625	0	0	0
2626	0	0	0
2627	236	203	232
2628	221	179	223
2629	218	181	229
2630	0	0	0
2631	224	189	236
2632	226	191	232
2633	243	209	241
2634	254	224	245
2635	245	209	233
2636	236	197	225
2637	238	201	228
2638	237	202	226
2639	241	213	232
2640	251	228	240
2641	246	219	233
2642	241	210	229
2643	246	215	233
2644	246	216	233
2645	241	214	231
2646	241	216	233
2647	240	213	232
2648	237	207	228
2649	236	204	228
2650	232	199	226
2651	231	203	229
2652	235	210	233
2653	231	204	228
2654	228	199	226
2655	228	197	227
2656	223	193	227
2657	217	192	228
2658	215	195	230
2659	206	184	225
2660	196	174	223
2661	193	175	226
2662	190	176	230
2663	183	171	228
2664	177	166	227
2665	178	166	229
2666	175	163	226
2667	177	164	227
2668	178	164	228
2669	172	155	223
2670	166	146	218
2671	169	150	221
2672	171	153	222
2673	166	148	217
2674	165	144	214
2675	173	151	220
2676	182	157	226
2677	186	153	225
2678	186	146	219
2679	190	147	219
2680	196	148	219
2681	205	152	221
2682	214	156	222
2683	213	149	217
2684	212	142	215
2685	222	149	221
2686	224	151	221
2687	234	167	228
2688	252	188	237
2689	250	175	226
2690	243	160	216
2691	242	159	215
2692	241	158	215
2693	248	169	222
2694	253	178	226
2695	250	177	222
2696	253	180	223
2697	254	178	222
2698	252	174	219
2699	255	179	223
2700	255	184	226
2701	252	182	224
2702	252	182	224
2703	250	178	222
2704	248	175	222
2705	245	172	219
2706	246	172	217
2707	248	169	216
2708	243	164	212
2709	243	168	215
2710	243	172	218
2711	244	173	219
2712	241	173	218
2713	233	166	214
2714	225	159	212
2715	234	172	221
2716	240	182	225
2717	236	176	219
2718	226	166	210
2719	227	179	217
2720	233	194	225
2721	235	199	227
2722	234	203	227
2723	234	208	228
2724	0	0	0
2725	0	0	0
2726	0	0	0
2727	0	0	0
2728	0	0	0
2729	0	0	0
2730	0	0	0
2731	0	0	0
2732	0	0	0
2733	0	0	0
2734	0	0	0
2735	0	0	0
2736	0	0	0
2737	0	0	0
2738	0	0	0
2739	0	0	0
2740	0	0	0
2741	0	0	0
2742	0	0	0
2743	0	0	0
2744	0	0	0
2745	0	0	0
2746	0	0	0
2747	0	0	0
2748	0	0	0
2749	0	0	0
2750	0	0	0
2751	0	0	0
2752	0	0	0
2753	0	0	0
2754	0	0	0
2755	0	0	0
2756	0	0	0
2757	236	213	243
2758	252	232	252
2759	250	226	243
2760	238	211	230
2761	242	215	235
2762	245	220	240
2763	240	215	234
2764	248	228	241
2765	248	228	238
2766	242	218	231
2767	241	215	232
2768	245	219	236
2769	243	217	234
2770	242	217	233
2771	239	214	231
2772	238	210	229
2773	239	210	230
2774	238	206	229
2775	238	207	233
2776	239	212	237
2777	233	206	231
2778	224	198	223
2779	232	208	231
2780	236	208	234
2781	224	193	229
2782	219	192	230
2783	215	195	229
2784	201	182	221
2785	200	185	228
2786	199	187	234
2787	195	183	235
2788	189	178	233
2789	186	174	232
2790	190	176	235
2791	181	165	227
2792	177	162	226
2793	174	161	225
2794	166	151	219
2795	170	156	223
2796	174	161	227
2797	172	157	223
2798	168	153	219
2799	171	153	220
2800	182	162	228
2801	183	156	224
2802	184	150	221
2803	186	147	219
2804	191	149	221
2805	199	152	223
2806	209	157	225
2807	215	157	222
2808	213	150	217
2809	218	151	220
2810	227	158	226
2811	230	159	226
2812	247	179	237
2813	248	175	229
2814	243	160	216
2815	249	166	220
2816	248	165	219
2817	252	170	224
2818	255	182	232
2819	253	172	222
2820	247	169	217
2821	254	179	223
2822	255	177	222
2823	254	171	219
2824	255	178	224
2825	254	174	220
2826	252	172	218
2827	251	172	218
2828	248	167	216
2829	252	176	222
2830	244	170	216
2831	248	177	218
2832	250	175	217
2833	249	171	215
2834	255	179	222
2835	249	173	219
2836	248	173	220
2837	245	172	218
2838	237	167	215
2839	235	166	218
2840	244	180	228
2841	235	172	220
2842	224	162	211
2843	223	168	213
2844	231	185	223
2845	230	188	224
2846	230	192	225
2847	226	191	222
2848	226	197	223
2849	231	209	227
2850	0	0	0
2851	0	0	0
2852	0	0	0
2853	0	0	0
2854	0	0	0
2855	0	0	0
2856	0	0	0
2857	0	0	0
2858	0	0	0
2859	0	0	0
2860	0	0	0
2861	0	0	0
2862	0	0	0
2863	0	0	0
2864	0	0	0
2865	0	0	0
2866	0	0	0
2867	0	0	0
2868	0	0	0
2869	0	0	0
2870	0	0	0
2871	0	0	0
2872	0	0	0
2873	0	0	0
2874	0	0	0
2875	0	0	0
2876	0	0	0
2877	0	0	0
2878	0	0	0
2879	0	0	0
2880	0	0	0
2881	0	0	0
2882	0	0	0
2883	246	230	243
2884	245	227	238
2885	250	231	241
2886	254	235	246
2887	251	232	245
2888	246	227	241
2889	245	226	239
2890	244	226	236
2891	241	221	233
2892	240	218	234
2893	241	219	236
2894	240	218	236
2895	239	215	233
2896	237	211	230
2897	239	212	232
2898	239	212	232
2899	239	212	234
2900	239	212	235
2901	236	208	233
2902	231	203	229
2903	231	208	231
2904	238	217	236
2905	231	203	229
2906	220	187	223
2907	220	193	229
2908	217	196	228
2909	211	195	228
2910	210	197	234
2911	204	192	234
2912	200	188	237
2913	195	183	235
2914	193	179	234
2915	190	172	231
2916	181	160	224
2917	174	157	223
2918	170	155	223
2919	174	161	227
2920	177	166	229
2921	176	164	227
2922	174	160	225
2923	173	159	224
2924	176	159	225
2925	179	156	224
2926	179	149	219
2927	182	148	219
2928	186	146	219
2929	195	152	224
2930	203	155	225
2931	210	157	224
2932	214	157	221
2933	217	156	220
2934	221	157	221
2935	229	161	224
2936	233	163	225
2937	238	162	224
2938	239	159	219
2939	246	165	220
2940	251	170	220
2941	254	173	221
2942	255	178	225
2943	255	171	220
2944	247	161	211
2945	249	168	214
2946	255	178	220
2947	255	174	219
2948	254	169	218
2949	254	168	219
2950	251	163	215
2951	248	162	213
2952	247	162	214
2953	252	169	218
2954	254	177	220
2955	250	178	218
2956	255	185	222
2957	255	182	221
2958	255	179	220
2959	253	174	218
2960	248	168	214
2961	245	167	214
2962	242	166	213
2963	239	166	214
2964	237	166	216
2965	236	165	216
2966	227	158	209
2967	224	164	212
2968	224	171	215
2969	225	176	218
2970	225	179	218
2971	223	180	218
2972	221	180	219
2973	227	194	226
2974	230	205	228
2975	228	210	226
2976	0	0	0
2977	0	0	0
2978	0	0	0
2979	0	0	0
2980	0	0	0
2981	0	0	0
2982	0	0	0
2983	0	0	0
2984	0	0	0
2985	0	0	0
2986	0	0	0
2987	0	0	0
2988	0	0	0
2989	0	0	0
2990	0	0	0
2991	0	0	0
2992	0	0	0
2993	0	0	0
2994	0	0	0
2995	0	0	0
2996	0	0	0
2997	0	0	0
2998	0	0	0
2999	0	0	0
3000	0	0	0
3001	0	0	0
3002	0	0	0
3003	0	0	0
3004	0	0	0
3005	0	0	0
3006	0	0	0
3007	0	0	0
3008	0	0	0
3009	248	233	240
3010	255	241	248
3011	252	227	239
3012	246	222	237
3013	247	226	240
3014	0	0	0
3015	247	231	239
3016	242	225	234
3017	239	222	235
3018	0	0	0
3019	0	0	0
3020	0	0	0
3021	242	218	235
3022	241	218	236
3023	233	207	230
3024	232	207	230
3025	237	214	234
3026	237	212	233
3027	235	209	232
3028	239	215	236
3029	237	214	233
3030	224	196	221
3031	227	200	229
3032	231	208	236
3033	219	195	228
3034	216	195	229
3035	212	195	231
3036	205	189	230
3037	205	190	235
3038	201	185	235
3039	202	185	236
3040	196	176	231
3041	191	173	230
3042	184	169	229
3043	182	169	233
3044	189	177	239
3045	185	171	232
3046	180	167	228
3047	176	161	226
3048	177	161	227
3049	182	165	230
3050	183	159	226
3051	183	154	222
3052	186	153	222
3053	193	154	225
3054	206	162	231
3055	207	157	226
3056	210	156	223
3057	218	162	225
3058	221	162	223
3059	223	158	221
3060	232	164	225
3061	239	168	227
3062	241	167	226
3063	236	156	217
3064	239	160	217
3065	247	168	219
3066	255	173	221
3067	254	169	218
3068	249	162	213
3069	252	167	215
3070	255	176	221
3071	255	178	221
3072	255	173	220
3073	250	160	214
3074	250	158	215
3075	252	164	217
3076	248	161	214
3077	246	162	215
3078	249	169	217
3079	255	180	220
3080	255	184	221
3081	254	179	219
3082	253	175	216
3083	254	175	215
3084	249	168	211
3085	249	170	214
3086	246	170	214
3087	246	172	216
3088	245	173	218
3089	240	167	216
3090	237	165	216
3091	230	160	211
3092	230	168	216
3093	224	168	215
3094	224	172	217
3095	226	178	219
3096	226	181	221
3097	227	184	224
3098	232	198	232
3099	225	196	225
3100	222	200	221
3101	0	0	0
3102	0	0	0
3103	0	0	0
3104	0	0	0
3105	0	0	0
3106	0	0	0
3107	0	0	0
3108	0	0	0
3109	0	0	0
3110	0	0	0
3111	0	0	0
3112	0	0	0
3113	0	0	0
3114	0	0	0
3115	0	0	0
3116	0	0	0
3117	0	0	0
3118	0	0	0
3119	0	0	0
3120	0	0	0
3121	0	0	0
3122	0	0	0
3123	0	0	0
3124	0	0	0
3125	0	0	0
3126	0	0	0
3127	0	0	0
3128	0	0	0
3129	0	0	0
3130	0	0	0
3131	0	0	0
3132	0	0	0
3133	0	0	0
3134	0	0	0
3135	251	229	239
3136	0	0	0
3137	0	0	0
3138	0	0	0
3139	0	0	0
3140	0	0	0
3141	244	230	237
3142	0	0	0
3143	0	0	0
3144	0	0	0
3145	0	0	0
3146	0	0	0
3147	236	212	231
3148	228	203	228
3149	235	212	234
3150	239	218	235
3151	238	215	232
3152	236	212	233
3153	235	211	232
3154	233	209	229
3155	233	210	230
3156	236	213	234
3157	228	203	229
3158	218	192	224
3159	214	191	226
3160	211	191	228
3161	209	190	230
3162	209	191	234
3163	207	190	235
3164	207	190	236
3165	205	188	235
3166	200	184	234
3167	194	181	234
3168	194	182	240
3169	194	179	240
3170	189	173	233
3171	182	166	229
3172	178	161	227
3173	183	166	232
3174	188	169	233
3175	188	164	230
3176	189	159	227
3177	192	159	227
3178	198	160	227
3179	203	158	226
3180	204	152	222
3181	214	160	226
3182	222	167	228
3183	224	164	226
3184	227	161	226
3185	237	167	230
3186	243	171	229
3187	238	162	221
3188	233	152	215
3189	238	159	219
3190	246	168	222
3191	248	164	219
3192	248	160	216
3193	252	166	219
3194	255	172	221
3195	255	175	222
3196	255	176	221
3197	254	164	216
3198	245	151	212
3199	253	161	220
3200	255	166	221
3201	249	163	216
3202	247	164	216
3203	254	175	222
3204	255	187	225
3205	255	179	218
3206	254	174	218
3207	255	174	217
3208	253	172	212
3209	252	173	210
3210	252	174	213
3211	252	177	217
3212	252	179	219
3213	245	171	215
3214	239	165	213
3215	238	164	215
3216	231	159	211
3217	228	163	214
3218	224	163	215
3219	227	171	220
3220	227	177	221
3221	228	181	222
3222	226	183	223
3223	223	185	222
3224	218	185	219
3225	227	203	226
3226	238	222	233
3227	0	0	0
3228	0	0	0
3229	0	0	0
3230	0	0	0
3231	0	0	0
3232	0	0	0
3233	0	0	0
3234	0	0	0
3235	0	0	0
3236	0	0	0
3237	0	0	0
3238	0	0	0
3239	0	0	0
3240	0	0	0
3241	0	0	0
3242	0	0	0
3243	0	0	0
3244	0	0	0
3245	0	0	0
3246	0	0	0
3247	0	0	0
3248	0	0	0
3249	0	0	0
3250	0	0	0
3251	0	0	0
3252	0	0	0
3253	0	0	0
3254	0	0	0
3255	0	0	0
3256	0	0	0
3257	0	0	0
3258	0	0	0
3259	0	0	0
3260	0	0	0
3261	0	0	0
3262	0	0	0
3263	0	0	0
3264	0	0	0
3265	0	0	0
3266	0	0	0
3267	0	0	0
3268	0	0	0
3269	0	0	0
3270	0	0	0
3271	0	0	0
3272	0	0	0
3273	238	215	236
3274	247	225	244
3275	241	218	235
3276	234	212	229
3277	231	209	229
3278	0	0	0
3279	234	215	232
3280	241	219	235
3281	234	209	229
3282	223	197	222
3283	222	200	228
3284	218	199	229
3285	216	199	230
3286	217	200	234
3287	212	193	232
3288	208	191	232
3289	204	187	230
3290	202	185	231
3291	198	181	229
3292	197	180	231
3293	202	188	241
3294	199	183	240
3295	194	177	235
3296	189	171	232
3297	189	172	234
3298	193	176	237
3299	190	167	232
3300	193	164	230
3301	199	168	232
3302	201	167	231
3303	203	165	229
3304	205	161	226
3305	211	163	227
3306	222	173	233
3307	224	168	228
3308	229	166	228
3309	231	163	227
3310	238	168	230
3311	241	168	226
3312	238	160	219
3313	238	157	219
3314	244	165	224
3315	251	174	228
3316	250	169	223
3317	252	169	222
3318	255	176	226
3319	255	170	222
3320	255	174	224
3321	253	163	216
3322	242	150	208
3323	233	136	204
3324	243	147	213
3325	252	161	219
3326	247	158	213
3327	255	175	223
3328	255	187	230
3329	255	175	218
3330	250	166	211
3331	255	175	219
3332	255	174	217
3333	254	172	210
3334	253	173	209
3335	254	174	212
3336	255	177	217
3337	250	171	213
3338	240	161	208
3339	244	169	216
3340	243	169	218
3341	234	160	213
3342	232	164	216
3343	227	162	216
3344	231	171	222
3345	229	174	221
3346	226	177	220
3347	222	178	218
3348	218	180	218
3349	223	191	223
3350	238	212	235
3351	232	208	226
3352	0	0	0
3353	0	0	0
3354	0	0	0
3355	0	0	0
3356	0	0	0
3357	0	0	0
3358	0	0	0
3359	0	0	0
3360	0	0	0
3361	0	0	0
3362	0	0	0
3363	0	0	0
3364	0	0	0
3365	0	0	0
3366	0	0	0
3367	0	0	0
3368	0	0	0
3369	0	0	0
3370	0	0	0
3371	0	0	0
3372	0	0	0
3373	0	0	0
3374	0	0	0
3375	0	0	0
3376	0	0	0
3377	0	0	0
3378	0	0	0
3379	0	0	0
3380	0	0	0
3381	0	0	0
3382	0	0	0
3383	0	0	0
3384	0	0	0
3385	0	0	0
3386	0	0	0
3387	0	0	0
3388	0	0	0
3389	0	0	0
3390	0	0	0
3391	0	0	0
3392	0	0	0
3393	0	0	0
3394	0	0	0
3395	0	0	0
3396	0	0	0
3397	0	0	0
3398	0	0	0
3399	242	220	237
3400	238	214	232
3401	234	212	230
3402	0	0	0
3403	0	0	0
3404	0	0	0
3405	234	212	229
3406	229	203	225
3407	228	205	228
3408	228	208	231
3409	224	207	230
3410	222	206	229
3411	217	199	227
3412	213	193	228
3413	208	190	229
3414	204	186	228
3415	201	183	228
3416	198	179	227
3417	203	186	233
3418	207	192	238
3419	202	186	235
3420	199	181	235
3421	199	181	236
3422	199	181	236
3423	194	172	231
3424	191	164	228
3425	200	171	233
3426	205	173	231
3427	206	171	229
3428	208	169	231
3429	214	172	234
3430	219	174	232
3431	221	170	228
3432	223	165	224
3433	227	164	224
3434	229	160	223
3435	235	162	224
3436	238	163	223
3437	241	163	222
3438	241	159	221
3439	246	168	225
3440	253	177	228
3441	253	174	223
3442	255	174	222
3443	253	168	218
3444	251	164	217
3445	247	155	213
3446	239	144	206
3447	224	129	196
3448	213	114	189
3449	232	137	206
3450	243	152	215
3451	253	167	221
3452	255	183	227
3453	255	172	217
3454	250	162	211
3455	255	169	216
3456	255	176	219
3457	254	173	213
3458	253	173	210
3459	255	174	211
3460	255	175	215
3461	254	170	213
3462	247	163	209
3463	247	168	213
3464	250	175	221
3465	243	167	217
3466	234	159	212
3467	232	161	214
3468	226	158	212
3469	229	166	216
3470	228	170	217
3471	226	174	218
3472	222	176	218
3473	225	187	223
3474	231	198	227
3475	234	200	227
3476	228	196	222
3477	223	200	221
3478	0	0	0
3479	0	0	0
3480	0	0	0
3481	0	0	0
3482	0	0	0
3483	0	0	0
3484	0	0	0
3485	0	0	0
3486	0	0	0
3487	0	0	0
3488	0	0	0
3489	0	0	0
3490	0	0	0
3491	0	0	0
3492	0	0	0
3493	0	0	0
3494	0	0	0
3495	0	0	0
3496	0	0	0
3497	0	0	0
3498	0	0	0
3499	0	0	0
3500	0	0	0
3501	0	0	0
3502	0	0	0
3503	0	0	0
3504	0	0	0
3505	0	0	0
3506	0	0	0
3507	0	0	0
3508	0	0	0
3509	0	0	0
3510	0	0	0
3511	0	0	0
3512	0	0	0
3513	0	0	0
3514	0	0	0
3515	0	0	0
3516	0	0	0
3517	0	0	0
3518	0	0	0
3519	0	0	0
3520	0	0	0
3521	0	0	0
3522	0	0	0
3523	0	0	0
3524	0	0	0
3525	0	0	0
3526	0	0	0
3527	0	0	0
3528	0	0	0
3529	0	0	0
3530	0	0	0
3531	233	214	231
3532	236	218	236
3533	230	210	230
3534	230	210	230
3535	227	208	228
3536	218	199	223
3537	220	203	230
3538	218	201	233
3539	210	192	231
3540	205	188	229
3541	206	191	232
3542	211	198	238
3543	204	188	232
3544	200	182	229
3545	202	184	234
3546	205	185	236
3547	207	186	236
3548	203	178	232
3549	201	172	231
3550	207	177	234
3551	210	178	231
3552	211	176	229
3553	212	171	230
3554	219	175	233
3555	227	182	235
3556	227	177	230
3557	223	165	223
3558	226	163	223
3559	237	172	228
3560	244	175	231
3561	239	164	222
3562	242	163	223
3563	246	168	225
3564	251	175	228
3565	255	181	228
3566	255	179	224
3567	255	179	222
3568	255	173	219
3569	255	171	222
3570	252	162	219
3571	244	154	214
3572	225	137	203
3573	227	143	208
3574	247	166	225
3575	248	164	222
3576	255	182	231
3577	255	181	225
3578	255	170	216
3579	251	161	213
3580	255	170	219
3581	255	174	218
3582	248	168	209
3583	250	171	209
3584	255	174	213
3585	252	166	212
3586	248	160	209
3587	249	164	211
3588	251	169	215
3589	248	169	216
3590	240	161	211
3591	238	163	214
3592	236	165	216
3593	228	158	211
3594	230	166	216
3595	230	170	218
3596	231	176	221
3597	225	172	217
3598	229	184	223
3599	234	192	225
3600	234	192	223
3601	229	189	220
3602	0	0	0
3603	0	0	0
3604	0	0	0
3605	0	0	0
3606	0	0	0
3607	0	0	0
3608	0	0	0
3609	0	0	0
3610	0	0	0
3611	0	0	0
3612	0	0	0
3613	0	0	0
3614	0	0	0
3615	0	0	0
3616	0	0	0
3617	0	0	0
3618	0	0	0
3619	0	0	0
3620	0	0	0
3621	0	0	0
3622	0	0	0
3623	0	0	0
3624	0	0	0
3625	0	0	0
3626	0	0	0
3627	0	0	0
3628	0	0	0
3629	0	0	0
3630	0	0	0
3631	0	0	0
3632	0	0	0
3633	0	0	0
3634	0	0	0
3635	0	0	0
3636	0	0	0
3637	0	0	0
3638	0	0	0
3639	0	0	0
3640	0	0	0
3641	0	0	0
3642	0	0	0
3643	0	0	0
3644	0	0	0
3645	0	0	0
3646	0	0	0
3647	0	0	0
3648	0	0	0
3649	0	0	0
3650	0	0	0
3651	0	0	0
3652	0	0	0
3653	0	0	0
3654	0	0	0
3655	0	0	0
3656	241	227	238
3657	235	219	234
3658	230	212	231
3659	233	213	233
3660	230	211	231
3661	227	211	230
3662	228	214	234
3663	222	205	232
3664	215	197	231
3665	216	201	235
3666	216	203	234
3667	211	195	230
3668	206	187	230
3669	209	190	235
3670	211	191	237
3671	213	192	238
3672	215	192	238
3673	213	186	235
3674	210	180	232
3675	214	183	234
3676	217	185	234
3677	219	181	231
3678	219	175	230
3679	229	184	236
3680	236	192	238
3681	229	178	228
3682	225	167	226
3683	235	176	233
3684	244	184	234
3685	242	174	226
3686	238	163	219
3687	247	171	225
3688	251	175	227
3689	254	180	227
3690	255	187	228
3691	255	182	221
3692	255	181	218
3693	255	175	216
3694	255	173	221
3695	255	169	223
3696	248	161	219
3697	243	165	222
3698	245	170	226
3699	252	175	230
3700	254	174	227
3701	255	179	229
3702	255	181	226
3703	255	174	221
3704	255	165	218
3705	255	175	225
3706	255	179	224
3707	250	170	214
3708	250	171	213
3709	245	160	207
3710	242	152	206
3711	246	158	211
3712	247	162	210
3713	246	162	209
3714	244	162	210
3715	244	165	213
3716	243	168	216
3717	237	164	214
3718	229	158	212
3719	232	165	217
3720	231	169	219
3721	228	168	217
3722	223	165	215
3723	228	176	220
3724	231	184	222
3725	228	182	218
3726	224	179	217
3727	232	195	226
3728	235	208	229
3729	236	216	229
3730	0	0	0
3731	0	0	0
3732	0	0	0
3733	0	0	0
3734	0	0	0
3735	0	0	0
3736	0	0	0
3737	0	0	0
3738	0	0	0
3739	0	0	0
3740	0	0	0
3741	0	0	0
3742	0	0	0
3743	0	0	0
3744	0	0	0
3745	0	0	0
3746	0	0	0
3747	0	0	0
3748	0	0	0
3749	0	0	0
3750	0	0	0
3751	0	0	0
3752	0	0	0
3753	0	0	0
3754	0	0	0
3755	0	0	0
3756	0	0	0
3757	0	0	0
3758	0	0	0
3759	0	0	0
3760	0	0	0
3761	0	0	0
3762	0	0	0
3763	0	0	0
3764	0	0	0
3765	0	0	0
3766	0	0	0
3767	0	0	0
3768	0	0	0
3769	0	0	0
3770	0	0	0
3771	0	0	0
3772	0	0	0
3773	0	0	0
3774	0	0	0
3775	0	0	0
3776	0	0	0
3777	0	0	0
3778	0	0	0
3779	0	0	0
3780	0	0	0
3781	241	226	236
3782	232	215	229
3783	233	216	232
3784	234	217	234
3785	229	210	229
3786	229	211	230
3787	228	211	231
3788	221	202	226
3789	224	206	233
3790	227	211	238
3791	222	205	233
3792	216	197	229
3793	216	195	234
3794	221	199	241
3795	216	190	235
3796	216	189	235
3797	215	187	233
3798	212	181	229
3799	213	181	230
3800	217	185	232
3801	221	184	231
3802	224	181	231
3803	225	176	229
3804	232	184	234
3805	232	182	230
3806	226	169	221
3807	233	176	231
3808	240	184	237
3809	239	178	230
3810	237	168	222
3811	240	166	221
3812	249	175	227
3813	250	175	225
3814	254	180	225
3815	255	183	223
3816	252	177	216
3817	255	186	219
3818	255	180	218
3819	255	175	220
3820	254	170	222
3821	253	169	223
3822	254	176	228
3823	253	175	228
3824	255	180	232
3825	255	174	227
3826	255	179	230
3827	253	161	218
3828	250	156	215
3829	245	147	210
3830	253	157	218
3831	251	158	215
3832	240	150	205
3833	255	177	220
3834	244	162	209
3835	245	163	213
3836	250	170	219
3837	249	169	215
3838	249	169	214
3839	243	161	209
3840	244	165	213
3841	241	163	213
3842	235	160	212
3843	231	157	212
3844	233	164	218
3845	231	166	217
3846	227	165	216
3847	226	166	217
3848	231	177	224
3849	226	176	218
3850	218	171	213
3851	225	182	221
3852	241	203	233
3853	235	199	226
3854	232	206	225
3855	233	215	226
3856	0	0	0
3857	0	0	0
3858	0	0	0
3859	0	0	0
3860	0	0	0
3861	0	0	0
3862	0	0	0
3863	0	0	0
3864	0	0	0
3865	0	0	0
3866	0	0	0
3867	0	0	0
3868	0	0	0
3869	0	0	0
3870	0	0	0
3871	0	0	0
3872	0	0	0
3873	0	0	0
3874	0	0	0
3875	0	0	0
3876	0	0	0
3877	0	0	0
3878	0	0	0
3879	0	0	0
3880	0	0	0
3881	0	0	0
3882	0	0	0
3883	0	0	0
3884	0	0	0
3885	0	0	0
3886	0	0	0
3887	0	0	0
3888	0	0	0
3889	0	0	0
3890	0	0	0
3891	0	0	0
3892	0	0	0
3893	0	0	0
3894	0	0	0
3895	0	0	0
3896	0	0	0
3897	0	0	0
3898	0	0	0
3899	0	0	0
3900	0	0	0
3901	0	0	0
3902	0	0	0
3903	0	0	0
3904	0	0	0
3905	0	0	0
3906	0	0	0
3907	235	221	231
3908	235	221	233
3909	232	215	231
3910	228	209	228
3911	229	210	230
3912	229	211	230
3913	230	213	232
3914	233	216	234
3915	230	211	233
3916	227	207	232
3917	223	202	231
3918	222	199	233
3919	220	193	232
3920	216	185	230
3921	216	184	231
3922	215	182	229
3923	214	181	229
3924	216	182	229
3925	217	181	228
3926	220	180	227
3927	225	178	227
3928	226	174	226
3929	230	176	228
3930	230	175	226
3931	236	180	229
3932	241	185	234
3933	238	179	230
3934	238	174	229
3935	241	173	229
3936	243	171	227
3937	249	175	228
3938	250	175	224
3939	253	179	223
3940	255	182	222
3941	255	188	223
3942	255	196	228
3943	255	187	223
3944	255	181	224
3945	255	182	228
3946	255	180	227
3947	255	179	226
3948	255	179	227
3949	255	173	224
3950	253	168	221
3951	243	153	213
3952	232	137	205
3953	233	135	208
3954	228	126	203
3955	236	135	209
3956	235	136	207
3957	249	159	217
3958	255	186	229
3959	255	177	219
3960	254	177	221
3961	255	178	222
3962	255	177	220
3963	248	167	213
3964	242	160	210
3965	242	161	213
3966	239	159	211
3967	236	159	213
3968	231	157	214
3969	230	160	216
3970	228	162	215
3971	229	166	217
3972	227	166	218
3973	226	170	220
3974	221	169	217
3975	221	176	219
3976	227	186	224
3977	232	190	226
3978	228	188	221
3979	227	196	222
3980	228	204	224
3981	0	0	0
3982	0	0	0
3983	0	0	0
3984	0	0	0
3985	0	0	0
3986	0	0	0
3987	0	0	0
3988	0	0	0
3989	0	0	0
3990	0	0	0
3991	0	0	0
3992	0	0	0
3993	0	0	0
3994	0	0	0
3995	0	0	0
3996	0	0	0
3997	0	0	0
3998	0	0	0
3999	0	0	0
4000	0	0	0
4001	0	0	0
4002	0	0	0
4003	0	0	0
4004	0	0	0
4005	0	0	0
4006	0	0	0
4007	0	0	0
4008	0	0	0
4009	0	0	0
4010	0	0	0
4011	0	0	0
4012	0	0	0
4013	0	0	0
4014	0	0	0
4015	0	0	0
4016	0	0	0
4017	0	0	0
4018	0	0	0
4019	0	0	0
4020	0	0	0
4021	0	0	0
4022	0	0	0
4023	0	0	0
4024	0	0	0
4025	0	0	0
4026	0	0	0
4027	0	0	0
4028	0	0	0
4029	0	0	0
4030	0	0	0
4031	0	0	0
4032	0	0	0
4033	0	0	0
4034	237	222	234
4035	235	218	233
4036	235	219	235
4037	233	216	233
4038	236	219	235
4039	233	214	231
4040	230	209	228
4041	232	211	233
4042	226	205	232
4043	224	202	232
4044	223	196	231
4045	229	201	236
4046	232	201	239
4047	223	190	233
4048	220	188	231
4049	226	196	236
4050	229	196	235
4051	229	189	232
4052	231	186	231
4053	234	184	231
4054	241	188	236
4055	238	179	230
4056	240	183	232
4057	240	182	231
4058	239	176	228
4059	244	180	233
4060	247	179	233
4061	246	175	229
4062	250	178	229
4063	252	180	226
4064	255	184	226
4065	255	181	222
4066	255	187	224
4067	255	186	223
4068	253	175	217
4069	254	175	221
4070	255	176	223
4071	252	169	218
4072	251	169	218
4073	255	180	226
4074	253	173	221
4075	251	171	222
4076	237	156	215
4077	221	133	205
4078	223	132	209
4079	224	131	210
4080	231	139	214
4081	232	139	213
4082	253	166	226
4083	255	181	229
4084	254	172	217
4085	253	168	216
4086	255	169	217
4087	253	168	215
4088	242	158	208
4089	244	163	214
4090	245	165	218
4091	234	151	209
4092	232	153	212
4093	225	149	210
4094	222	151	211
4095	230	165	219
4096	234	171	224
4097	218	152	211
4098	214	153	212
4099	220	167	220
4100	223	177	224
4101	222	179	221
4102	223	180	219
4103	227	189	224
4104	229	199	227
4105	225	198	222
4106	0	0	0
4107	0	0	0
4108	0	0	0
4109	0	0	0
4110	0	0	0
4111	0	0	0
4112	0	0	0
4113	0	0	0
4114	0	0	0
4115	0	0	0
4116	0	0	0
4117	0	0	0
4118	0	0	0
4119	0	0	0
4120	0	0	0
4121	0	0	0
4122	0	0	0
4123	0	0	0
4124	0	0	0
4125	0	0	0
4126	0	0	0
4127	0	0	0
4128	0	0	0
4129	0	0	0
4130	0	0	0
4131	0	0	0
4132	0	0	0
4133	0	0	0
4134	0	0	0
4135	0	0	0
4136	0	0	0
4137	0	0	0
4138	0	0	0
4139	0	0	0
4140	0	0	0
4141	0	0	0
4142	0	0	0
4143	0	0	0
4144	0	0	0
4145	0	0	0
4146	0	0	0
4147	0	0	0
4148	0	0	0
4149	0	0	0
4150	0	0	0
4151	0	0	0
4152	0	0	0
4153	0	0	0
4154	0	0	0
4155	0	0	0
4156	0	0	0
4157	0	0	0
4158	0	0	0
4159	0	0	0
4160	240	225	236
4161	239	223	235
4162	237	221	234
4163	234	216	232
4164	231	212	229
4165	233	214	231
4166	234	215	234
4167	231	211	233
4168	230	208	235
4169	233	210	237
4170	237	213	236
4171	233	204	231
4172	226	193	229
4173	227	199	234
4174	233	207	237
4175	235	202	235
4176	235	197	234
4177	235	193	234
4178	238	190	234
4179	241	187	233
4180	238	179	228
4181	235	177	227
4182	236	176	228
4183	240	179	230
4184	245	181	232
4185	245	179	229
4186	244	175	226
4187	249	179	227
4188	251	181	224
4189	252	180	222
4190	252	178	221
4191	252	176	220
4192	252	175	219
4193	250	172	217
4194	251	172	220
4195	249	167	218
4196	245	160	214
4197	253	172	222
4198	255	182	226
4199	253	174	221
4200	249	173	223
4201	224	145	207
4202	207	121	197
4203	215	129	207
4204	216	129	206
4205	224	136	212
4206	227	137	213
4207	245	156	222
4208	255	171	224
4209	246	160	212
4210	245	157	210
4211	249	159	212
4212	248	158	210
4213	245	160	211
4214	247	165	217
4215	239	155	213
4216	228	142	206
4217	226	144	210
4218	219	140	208
4219	224	154	216
4220	231	167	224
4221	220	153	214
4222	205	135	203
4223	213	153	216
4224	219	167	224
4225	220	172	224
4226	220	174	221
4227	229	186	226
4228	233	195	229
4229	227	194	224
4230	0	0	0
4231	0	0	0
4232	0	0	0
4233	0	0	0
4234	0	0	0
4235	0	0	0
4236	0	0	0
4237	0	0	0
4238	0	0	0
4239	0	0	0
4240	0	0	0
4241	0	0	0
4242	0	0	0
4243	0	0	0
4244	0	0	0
4245	0	0	0
4246	0	0	0
4247	0	0	0
4248	0	0	0
4249	0	0	0
4250	0	0	0
4251	0	0	0
4252	0	0	0
4253	0	0	0
4254	0	0	0
4255	0	0	0
4256	0	0	0
4257	0	0	0
4258	0	0	0
4259	0	0	0
4260	0	0	0
4261	0	0	0
4262	0	0	0
4263	0	0	0
4264	0	0	0
4265	0	0	0
4266	0	0	0
4267	0	0	0
4268	0	0	0
4269	0	0	0
4270	0	0	0
4271	0	0	0
4272	0	0	0
4273	0	0	0
4274	0	0	0
4275	0	0	0
4276	0	0	0
4277	0	0	0
4278	0	0	0
4279	0	0	0
4280	0	0	0
4281	0	0	0
4282	0	0	0
4283	0	0	0
4284	0	0	0
4285	0	0	0
4286	0	0	0
4287	238	222	234
4288	0	0	0
4289	236	223	235
4290	239	224	237
4291	234	215	232
4292	234	213	233
4293	233	211	236
4294	234	212	235
4295	236	213	231
4296	230	203	225
4297	229	201	230
4298	231	207	236
4299	231	205	233
4300	236	202	233
4301	239	200	234
4302	237	196	233
4303	240	195	234
4304	243	192	234
4305	239	183	230
4306	236	181	229
4307	242	189	235
4308	247	192	236
4309	245	187	232
4310	244	184	229
4311	247	185	228
4312	252	190	230
4313	248	180	223
4314	251	181	223
4315	255	183	226
4316	255	182	225
4317	254	179	223
4318	252	175	221
4319	255	182	226
4320	255	177	224
4321	251	171	221
4322	255	182	228
4323	255	182	226
4324	255	176	222
4325	251	175	225
4326	222	145	207
4327	219	143	211
4328	228	151	221
4329	224	142	215
4330	236	152	222
4331	237	149	222
4332	251	166	230
4333	255	179	230
4334	248	167	217
4335	248	165	217
4336	255	169	220
4337	252	164	216
4338	252	167	219
4339	248	164	218
4340	236	152	212
4341	230	147	211
4342	230	149	216
4343	223	146	214
4344	229	160	223
4345	223	157	219
4346	208	140	208
4347	208	144	212
4348	220	165	228
4349	212	158	222
4350	213	163	222
4351	218	169	223
4352	231	184	230
4353	228	181	223
4354	222	179	217
4355	230	194	224
4356	239	205	229
4357	0	0	0
4358	0	0	0
4359	0	0	0
4360	0	0	0
4361	0	0	0
4362	0	0	0
4363	0	0	0
4364	0	0	0
4365	0	0	0
4366	0	0	0
4367	0	0	0
4368	0	0	0
4369	0	0	0
4370	0	0	0
4371	0	0	0
4372	0	0	0
4373	0	0	0
4374	0	0	0
4375	0	0	0
4376	0	0	0
4377	0	0	0
4378	0	0	0
4379	0	0	0
4380	0	0	0
4381	0	0	0
4382	0	0	0
4383	0	0	0
4384	0	0	0
4385	0	0	0
4386	0	0	0
4387	0	0	0
4388	0	0	0
4389	0	0	0
4390	0	0	0
4391	0	0	0
4392	0	0	0
4393	0	0	0
4394	0	0	0
4395	0	0	0
4396	0	0	0
4397	0	0	0
4398	0	0	0
4399	0	0	0
4400	0	0	0
4401	0	0	0
4402	0	0	0
4403	0	0	0
4404	0	0	0
4405	0	0	0
4406	0	0	0
4407	0	0	0
4408	0	0	0
4409	0	0	0
4410	0	0	0
4411	0	0	0
4412	0	0	0
4413	0	0	0
4414	244	235	241
4415	240	226	235
4416	236	217	233
4417	237	217	236
4418	237	215	237
4419	240	218	239
4420	241	218	236
4421	239	215	234
4422	237	213	236
4423	232	209	235
4424	233	207	235
4425	240	207	236
4426	240	203	233
4427	238	200	231
4428	240	199	232
4429	240	193	231
4430	236	185	229
4431	242	193	235
4432	246	199	237
4433	244	194	232
4434	242	189	228
4435	242	189	227
4436	246	191	226
4437	246	185	224
4438	244	178	222
4439	251	183	227
4440	255	185	227
4441	254	182	224
4442	252	179	221
4443	255	184	224
4444	255	191	229
4445	255	183	224
4446	253	177	222
4447	254	178	224
4448	255	179	224
4449	253	175	222
4450	250	174	223
4451	238	166	219
4452	235	163	224
4453	231	158	223
4454	227	149	218
4455	239	156	225
4456	240	154	223
4457	254	171	231
4458	255	184	231
4459	253	174	220
4460	254	173	221
4461	255	171	222
4462	253	166	219
4463	250	163	217
4464	246	161	217
4465	238	155	215
4466	232	149	214
4467	231	152	217
4468	224	148	214
4469	219	148	214
4470	213	145	213
4471	212	149	217
4472	211	153	220
4473	206	150	218
4474	200	144	214
4475	205	153	220
4476	211	161	221
4477	216	164	221
4478	213	161	215
4479	219	175	219
4480	227	189	225
4481	230	192	223
4482	233	195	222
4483	0	0	0
4484	0	0	0
4485	0	0	0
4486	0	0	0
4487	0	0	0
4488	0	0	0
4489	0	0	0
4490	0	0	0
4491	0	0	0
4492	0	0	0
4493	0	0	0
4494	0	0	0
4495	0	0	0
4496	0	0	0
4497	0	0	0
4498	0	0	0
4499	0	0	0
4500	0	0	0
4501	0	0	0
4502	0	0	0
4503	0	0	0
4504	0	0	0
4505	0	0	0
4506	0	0	0
4507	0	0	0
4508	0	0	0
4509	0	0	0
4510	0	0	0
4511	0	0	0
4512	0	0	0
4513	0	0	0
4514	0	0	0
4515	0	0	0
4516	0	0	0
4517	0	0	0
4518	0	0	0
4519	0	0	0
4520	0	0	0
4521	0	0	0
4522	0	0	0
4523	0	0	0
4524	0	0	0
4525	0	0	0
4526	0	0	0
4527	0	0	0
4528	0	0	0
4529	0	0	0
4530	0	0	0
4531	0	0	0
4532	0	0	0
4533	0	0	0
4534	0	0	0
4535	0	0	0
4536	0	0	0
4537	0	0	0
4538	0	0	0
4539	247	237	242
4540	244	228	237
4541	241	221	235
4542	239	219	236
4543	243	221	241
4544	249	226	245
4545	240	214	235
4546	234	209	230
4547	239	217	237
4548	239	216	237
4549	240	214	239
4550	241	211	237
4551	238	204	231
4552	237	201	228
4553	239	203	231
4554	236	196	229
4555	242	201	235
4556	251	211	243
4557	244	200	232
4558	239	193	226
4559	241	196	229
4560	240	196	227
4561	246	199	228
4562	251	196	229
4563	247	183	225
4564	252	187	230
4565	255	189	228
4566	255	186	226
4567	250	179	221
4568	254	184	224
4569	255	189	226
4570	253	182	221
4571	255	183	223
4572	255	184	225
4573	255	184	226
4574	254	179	223
4575	255	184	227
4576	253	180	227
4577	245	171	226
4578	234	161	221
4579	242	169	228
4580	255	178	236
4581	250	165	227
4582	255	183	235
4583	255	179	226
4584	253	171	217
4585	255	175	222
4586	255	172	222
4587	254	167	220
4588	250	164	218
4589	245	159	216
4590	239	154	215
4591	232	149	214
4592	230	151	217
4593	222	146	214
4594	215	145	213
4595	206	138	211
4596	206	144	216
4597	207	151	219
4598	201	147	216
4599	202	152	221
4600	209	162	228
4601	204	157	222
4602	203	158	219
4603	205	162	218
4604	214	177	225
4605	216	180	222
4606	218	183	221
4607	225	188	222
4608	234	196	227
4609	0	0	0
4610	0	0	0
4611	0	0	0
4612	0	0	0
4613	0	0	0
4614	0	0	0
4615	0	0	0
4616	0	0	0
4617	0	0	0
4618	0	0	0
4619	0	0	0
4620	0	0	0
4621	0	0	0
4622	0	0	0
4623	0	0	0
4624	0	0	0
4625	0	0	0
4626	0	0	0
4627	0	0	0
4628	0	0	0
4629	0	0	0
4630	0	0	0
4631	0	0	0
4632	0	0	0
4633	0	0	0
4634	0	0	0
4635	0	0	0
4636	0	0	0
4637	0	0	0
4638	0	0	0
4639	0	0	0
4640	0	0	0
4641	0	0	0
4642	0	0	0
4643	0	0	0
4644	0	0	0
4645	0	0	0
4646	0	0	0
4647	0	0	0
4648	0	0	0
4649	0	0	0
4650	0	0	0
4651	0	0	0
4652	0	0	0
4653	0	0	0
4654	0	0	0
4655	0	0	0
4656	0	0	0
4657	0	0	0
4658	0	0	0
4659	0	0	0
4660	0	0	0
4661	0	0	0
4662	0	0	0
4663	0	0	0
4664	0	0	0
4665	247	231	240
4666	242	224	236
4667	240	223	236
4668	243	225	241
4669	243	219	239
4670	0	0	0
4671	237	215	235
4672	241	222	237
4673	239	217	233
4674	241	217	235
4675	239	212	233
4676	236	206	229
4677	239	209	231
4678	242	211	234
4679	245	213	236
4680	249	217	239
4681	247	210	235
4682	241	200	228
4683	243	204	231
4684	246	208	235
4685	246	207	234
4686	250	209	234
4687	247	196	227
4688	242	183	222
4689	249	188	228
4690	252	189	227
4691	251	185	225
4692	249	179	224
4693	254	186	229
4694	255	191	229
4695	255	191	228
4696	255	191	228
4697	255	190	228
4698	255	190	228
4699	255	193	230
4700	255	197	234
4701	255	188	230
4702	254	179	227
4703	254	184	232
4704	255	192	238
4705	255	186	235
4706	255	173	226
4707	255	176	226
4708	255	173	220
4709	255	173	219
4710	255	177	224
4711	255	173	222
4712	255	168	221
4713	249	163	218
4714	243	158	215
4715	235	152	213
4716	229	146	213
4717	226	146	215
4718	218	141	213
4719	207	135	210
4720	197	129	208
4721	200	139	215
4722	201	146	217
4723	201	151	219
4724	202	156	224
4725	198	153	222
4726	192	148	218
4727	195	155	219
4728	196	159	218
4729	201	165	219
4730	204	169	220
4731	209	175	222
4732	216	180	223
4733	223	184	225
4734	227	186	223
4735	234	195	227
4736	0	0	0
4737	0	0	0
4738	0	0	0
4739	0	0	0
4740	0	0	0
4741	244	221	226
4742	0	0	0
4743	0	0	0
4744	0	0	0
4745	0	0	0
4746	0	0	0
4747	0	0	0
4748	0	0	0
4749	0	0	0
4750	0	0	0
4751	0	0	0
4752	0	0	0
4753	0	0	0
4754	0	0	0
4755	0	0	0
4756	0	0	0
4757	0	0	0
4758	0	0	0
4759	0	0	0
4760	0	0	0
4761	0	0	0
4762	0	0	0
4763	0	0	0
4764	0	0	0
4765	0	0	0
4766	0	0	0
4767	0	0	0
4768	0	0	0
4769	0	0	0
4770	0	0	0
4771	0	0	0
4772	0	0	0
4773	0	0	0
4774	0	0	0
4775	0	0	0
4776	0	0	0
4777	0	0	0
4778	0	0	0
4779	0	0	0
4780	0	0	0
4781	0	0	0
4782	0	0	0
4783	0	0	0
4784	0	0	0
4785	0	0	0
4786	0	0	0
4787	0	0	0
4788	0	0	0
4789	0	0	0
4790	0	0	0
4791	0	0	0
4792	0	0	0
4793	0	0	0
4794	0	0	0
4795	0	0	0
4796	0	0	0
4797	241	224	236
4798	0	0	0
4799	242	225	236
4800	0	0	0
4801	239	213	231
4802	243	216	234
4803	244	216	234
4804	247	218	237
4805	244	212	232
4806	238	203	226
4807	241	205	229
4808	248	212	235
4809	247	209	235
4810	248	209	235
4811	248	207	233
4812	238	190	221
4813	249	200	231
4814	255	208	238
4815	250	190	226
4816	249	185	224
4817	252	188	229
4818	255	196	235
4819	255	191	230
4820	255	190	228
4821	253	184	223
4822	253	184	223
4823	255	187	226
4824	255	189	227
4825	255	187	225
4826	251	177	219
4827	254	180	223
4828	255	189	231
4829	255	184	228
4830	255	175	223
4831	252	169	219
4832	255	172	221
4833	254	169	218
4834	255	171	219
4835	255	174	222
4836	255	169	220
4837	251	162	217
4838	244	157	215
4839	239	154	215
4840	230	148	212
4841	227	148	215
4842	226	149	218
4843	216	142	214
4844	205	135	211
4845	205	144	219
4846	207	153	225
4847	200	149	219
4848	202	155	223
4849	196	151	221
4850	189	147	218
4851	192	156	223
4852	196	163	227
4853	199	168	226
4854	206	176	229
4855	205	172	226
4856	211	178	229
4857	211	177	227
4858	213	179	225
4859	218	182	224
4860	231	194	230
4861	233	194	227
4862	0	0	0
4863	0	0	0
4864	0	0	0
4865	241	215	227
4866	244	221	229
4867	244	220	227
4868	0	0	0
4869	0	0	0
4870	0	0	0
4871	0	0	0
4872	0	0	0
4873	0	0	0
4874	0	0	0
4875	0	0	0
4876	0	0	0
4877	0	0	0
4878	0	0	0
4879	0	0	0
4880	0	0	0
4881	0	0	0
4882	0	0	0
4883	0	0	0
4884	0	0	0
4885	0	0	0
4886	0	0	0
4887	0	0	0
4888	0	0	0
4889	0	0	0
4890	0	0	0
4891	0	0	0
4892	0	0	0
4893	0	0	0
4894	0	0	0
4895	0	0	0
4896	0	0	0
4897	0	0	0
4898	0	0	0
4899	0	0	0
4900	0	0	0
4901	0	0	0
4902	0	0	0
4903	0	0	0
4904	0	0	0
4905	0	0	0
4906	0	0	0
4907	0	0	0
4908	0	0	0
4909	0	0	0
4910	0	0	0
4911	0	0	0
4912	0	0	0
4913	0	0	0
4914	0	0	0
4915	0	0	0
4916	0	0	0
4917	0	0	0
4918	0	0	0
4919	0	0	0
4920	0	0	0
4921	0	0	0
4922	0	0	0
4923	0	0	0
4924	0	0	0
4925	0	0	0
4926	0	0	0
4927	246	222	236
4928	246	221	235
4929	241	214	230
4930	0	0	0
4931	239	210	231
4932	242	212	231
4933	244	210	232
4934	244	208	232
4935	244	206	233
4936	244	205	231
4937	249	210	234
4938	255	219	240
4939	252	203	231
4940	244	187	222
4941	249	191	227
4942	252	192	229
4943	253	191	229
4944	253	188	227
4945	251	184	225
4946	248	178	221
4947	252	183	224
4948	255	186	226
4949	254	183	224
4950	253	182	223
4951	254	182	223
4952	255	184	225
4953	255	180	223
4954	253	175	220
4955	251	170	218
4956	249	165	217
4957	249	165	217
4958	249	164	216
4959	251	166	217
4960	253	168	219
4961	248	160	214
4962	242	153	212
4963	238	152	214
4964	233	149	215
4965	227	148	216
4966	224	148	218
4967	218	144	216
4968	208	136	211
4969	208	146	217
4970	208	153	223
4971	199	149	219
4972	193	145	215
4973	191	146	217
4974	186	143	216
4975	190	154	223
4976	193	163	229
4977	196	169	231
4978	200	175	231
4979	203	174	229
4980	202	170	226
4981	203	171	226
4982	203	171	225
4983	204	173	223
4984	209	176	222
4985	215	178	221
4986	219	179	220
4987	229	191	226
4988	0	0	0
4989	0	0	0
4990	243	215	231
4991	240	213	227
4992	240	212	227
4993	249	223	233
4994	0	0	0
4995	0	0	0
4996	0	0	0
4997	0	0	0
4998	0	0	0
4999	0	0	0
5000	0	0	0
5001	0	0	0
5002	0	0	0
5003	0	0	0
5004	0	0	0
5005	0	0	0
5006	0	0	0
5007	0	0	0
5008	0	0	0
5009	0	0	0
5010	0	0	0
5011	0	0	0
5012	0	0	0
5013	0	0	0
5014	0	0	0
5015	0	0	0
5016	0	0	0
5017	0	0	0
5018	0	0	0
5019	0	0	0
5020	0	0	0
5021	0	0	0
5022	0	0	0
5023	0	0	0
5024	0	0	0
5025	0	0	0
5026	0	0	0
5027	0	0	0
5028	0	0	0
5029	0	0	0
5030	0	0	0
5031	0	0	0
5032	0	0	0
5033	0	0	0
5034	0	0	0
5035	0	0	0
5036	0	0	0
5037	0	0	0
5038	0	0	0
5039	0	0	0
5040	0	0	0
5041	0	0	0
5042	0	0	0
5043	0	0	0
5044	0	0	0
5045	0	0	0
5046	0	0	0
5047	0	0	0
5048	0	0	0
5049	0	0	0
5050	0	0	0
5051	0	0	0
5052	0	0	0
5053	245	221	233
5054	0	0	0
5055	0	0	0
5056	0	0	0
5057	243	218	234
5058	245	217	234
5059	242	211	233
5060	240	209	232
5061	244	211	235
5062	253	219	241
5063	250	211	233
5064	239	193	221
5065	245	197	227
5066	252	203	234
5067	251	197	231
5068	252	195	231
5069	252	191	230
5070	252	188	229
5071	252	186	228
5072	255	191	231
5073	254	186	227
5074	253	183	225
5075	253	184	226
5076	255	185	226
5077	255	189	227
5078	255	184	224
5079	251	174	219
5080	247	169	217
5081	251	174	222
5082	254	175	224
5083	253	172	223
5084	255	174	225
5085	253	171	221
5086	244	162	215
5087	243	162	219
5088	239	161	222
5089	230	151	218
5090	228	152	221
5091	224	152	222
5092	212	145	217
5093	205	142	215
5094	208	153	223
5095	202	152	221
5096	194	148	217
5097	196	156	222
5098	193	156	224
5099	184	147	218
5100	190	159	227
5101	190	162	228
5102	193	169	231
5103	196	171	230
5104	200	171	230
5105	196	165	225
5106	194	164	223
5107	196	168	225
5108	201	171	225
5109	210	183	228
5110	212	183	225
5111	216	183	226
5112	233	199	236
5113	236	199	229
5114	246	209	233
5115	246	210	231
5116	236	203	224
5117	241	212	229
5118	252	224	237
5119	246	220	229
5120	0	0	0
5121	0	0	0
5122	0	0	0
5123	0	0	0
5124	0	0	0
5125	0	0	0
5126	0	0	0
5127	0	0	0
5128	0	0	0
5129	0	0	0
5130	0	0	0
5131	0	0	0
5132	0	0	0
5133	0	0	0
5134	0	0	0
5135	0	0	0
5136	0	0	0
5137	0	0	0
5138	0	0	0
5139	0	0	0
5140	0	0	0
5141	0	0	0
5142	0	0	0
5143	0	0	0
5144	0	0	0
5145	0	0	0
5146	0	0	0
5147	0	0	0
5148	0	0	0
5149	0	0	0
5150	0	0	0
5151	0	0	0
5152	0	0	0
5153	0	0	0
5154	0	0	0
5155	0	0	0
5156	0	0	0
5157	0	0	0
5158	0	0	0
5159	0	0	0
5160	0	0	0
5161	0	0	0
5162	0	0	0
5163	0	0	0
5164	0	0	0
5165	0	0	0
5166	0	0	0
5167	0	0	0
5168	0	0	0
5169	0	0	0
5170	0	0	0
5171	0	0	0
5172	0	0	0
5173	0	0	0
5174	0	0	0
5175	0	0	0
5176	0	0	0
5177	0	0	0
5178	0	0	0
5179	0	0	0
5180	0	0	0
5181	0	0	0
5182	0	0	0
5183	242	218	233
5184	239	213	232
5185	242	216	236
5186	246	218	239
5187	246	213	237
5188	243	205	231
5189	244	206	231
5190	249	209	234
5191	248	204	233
5192	247	199	232
5193	246	195	231
5194	247	191	230
5195	250	191	230
5196	251	189	228
5197	252	187	228
5198	251	183	226
5199	252	185	228
5200	253	186	229
5201	255	190	231
5202	255	193	231
5203	255	184	225
5204	250	175	222
5205	254	180	227
5206	255	184	228
5207	255	180	226
5208	254	177	226
5209	252	174	224
5210	248	171	219
5211	245	168	218
5212	244	170	224
5213	237	162	223
5214	229	153	221
5215	228	155	225
5216	222	155	224
5217	213	152	222
5218	205	149	221
5219	205	153	224
5220	200	153	223
5221	199	159	226
5222	200	166	231
5223	189	156	224
5224	179	147	218
5225	181	153	222
5226	181	156	221
5227	184	160	223
5228	188	164	226
5229	191	163	227
5230	188	157	223
5231	188	160	224
5232	192	165	227
5233	203	177	232
5234	211	187	232
5235	209	184	226
5236	214	186	229
5237	225	190	232
5238	229	190	226
5239	239	197	227
5240	240	199	225
5241	239	204	226
5242	243	212	231
5243	245	213	230
5244	0	0	0
5245	0	0	0
5246	0	0	0
5247	0	0	0
5248	0	0	0
5249	0	0	0
5250	0	0	0
5251	0	0	0
5252	0	0	0
5253	0	0	0
5254	0	0	0
5255	0	0	0
5256	0	0	0
5257	0	0	0
5258	0	0	0
5259	0	0	0
5260	0	0	0
5261	0	0	0
5262	0	0	0
5263	0	0	0
5264	0	0	0
5265	0	0	0
5266	0	0	0
5267	0	0	0
5268	0	0	0
5269	0	0	0
5270	0	0	0
5271	0	0	0
5272	0	0	0
5273	0	0	0
5274	0	0	0
5275	0	0	0
5276	0	0	0
5277	0	0	0
5278	0	0	0
5279	0	0	0
5280	0	0	0
5281	0	0	0
5282	0	0	0
5283	0	0	0
5284	0	0	0
5285	0	0	0
5286	0	0	0
5287	0	0	0
5288	0	0	0
5289	0	0	0
5290	0	0	0
5291	0	0	0
5292	0	0	0
5293	0	0	0
5294	0	0	0
5295	0	0	0
5296	0	0	0
5297	0	0	0
5298	0	0	0
5299	0	0	0
5300	0	0	0
5301	0	0	0
5302	0	0	0
5303	0	0	0
5304	0	0	0
5305	0	0	0
5306	0	0	0
5307	0	0	0
5308	0	0	0
5309	245	225	238
5310	252	230	244
5311	246	219	239
5312	242	211	235
5313	243	210	234
5314	245	212	235
5315	247	212	236
5316	245	207	233
5317	245	204	234
5318	244	199	232
5319	251	205	236
5320	255	207	238
5321	254	196	232
5322	255	194	231
5323	254	191	230
5324	255	193	233
5325	255	190	232
5326	255	194	234
5327	255	191	230
5328	252	181	223
5329	253	180	227
5330	255	186	233
5331	252	178	225
5332	248	173	221
5333	252	180	228
5334	247	175	224
5335	245	174	222
5336	245	174	223
5337	246	173	227
5338	241	166	227
5339	234	159	227
5340	230	160	229
5341	224	161	228
5342	214	158	226
5343	203	150	222
5344	202	153	225
5345	202	159	228
5346	204	166	232
5347	199	165	231
5348	184	153	221
5349	184	160	225
5350	185	166	228
5351	183	164	225
5352	188	170	230
5353	184	162	226
5354	184	160	226
5355	182	156	223
5356	188	162	227
5357	204	181	240
5358	215	194	244
5359	210	185	231
5360	206	181	225
5361	216	191	233
5362	224	193	235
5363	228	195	231
5364	237	201	232
5365	232	191	223
5366	238	200	228
5367	241	206	230
5368	0	0	0
5369	0	0	0
5370	0	0	0
5371	0	0	0
5372	0	0	0
5373	0	0	0
5374	0	0	0
5375	0	0	0
5376	0	0	0
5377	0	0	0
5378	0	0	0
5379	0	0	0
5380	0	0	0
5381	0	0	0
5382	0	0	0
5383	0	0	0
5384	0	0	0
5385	0	0	0
5386	0	0	0
5387	0	0	0
5388	0	0	0
5389	0	0	0
5390	0	0	0
5391	0	0	0
5392	0	0	0
5393	0	0	0
5394	0	0	0
5395	0	0	0
5396	0	0	0
5397	0	0	0
5398	0	0	0
5399	0	0	0
5400	0	0	0
5401	0	0	0
5402	0	0	0
5403	0	0	0
5404	0	0	0
5405	0	0	0
5406	0	0	0
5407	0	0	0
5408	0	0	0
5409	0	0	0
5410	0	0	0
5411	0	0	0
5412	0	0	0
5413	0	0	0
5414	0	0	0
5415	0	0	0
5416	0	0	0
5417	0	0	0
5418	0	0	0
5419	0	0	0
5420	0	0	0
5421	0	0	0
5422	0	0	0
5423	0	0	0
5424	0	0	0
5425	0	0	0
5426	0	0	0
5427	0	0	0
5428	0	0	0
5429	0	0	0
5430	0	0	0
5431	0	0	0
5432	0	0	0
5433	0	0	0
5434	0	0	0
5435	244	224	236
5436	239	213	232
5437	241	214	234
5438	241	213	233
5439	241	213	234
5440	243	214	236
5441	243	211	235
5442	243	208	233
5443	0	0	0
5444	255	218	240
5445	253	208	234
5446	250	199	230
5447	251	197	229
5448	250	193	226
5449	250	191	226
5450	0	0	0
5451	251	187	228
5452	250	184	225
5453	248	181	224
5454	249	180	225
5455	247	176	224
5456	242	169	220
5457	247	176	225
5458	249	181	228
5459	243	177	225
5460	243	178	228
5461	244	176	229
5462	244	174	228
5463	238	167	226
5464	230	159	226
5465	225	161	228
5466	220	162	226
5467	209	154	222
5468	199	147	220
5469	200	155	226
5470	200	161	228
5471	201	164	230
5472	196	163	229
5473	194	169	231
5474	193	175	232
5475	186	171	229
5476	185	171	230
5477	183	166	228
5478	178	157	222
5479	180	159	225
5480	180	156	226
5481	198	178	240
5482	212	196	248
5483	210	189	239
5484	206	182	232
5485	211	187	233
5486	219	196	236
5487	222	194	233
5488	228	199	233
5489	226	191	228
5490	223	183	223
5491	234	194	230
5492	238	199	230
5493	244	208	232
5494	0	0	0
5495	0	0	0
5496	0	0	0
5497	250	225	236
5498	0	0	0
5499	0	0	0
5500	0	0	0
5501	0	0	0
5502	0	0	0
5503	0	0	0
5504	0	0	0
5505	0	0	0
5506	0	0	0
5507	0	0	0
5508	0	0	0
5509	0	0	0
5510	0	0	0
5511	0	0	0
5512	0	0	0
5513	0	0	0
5514	0	0	0
5515	0	0	0
5516	0	0	0
5517	0	0	0
5518	0	0	0
5519	0	0	0
5520	0	0	0
5521	0	0	0
5522	0	0	0
5523	0	0	0
5524	0	0	0
5525	0	0	0
5526	0	0	0
5527	0	0	0
5528	0	0	0
5529	0	0	0
5530	0	0	0
5531	0	0	0
5532	0	0	0
5533	0	0	0
5534	0	0	0
5535	0	0	0
5536	0	0	0
5537	0	0	0
5538	0	0	0
5539	0	0	0
5540	0	0	0
5541	0	0	0
5542	0	0	0
5543	0	0	0
5544	0	0	0
5545	0	0	0
5546	0	0	0
5547	0	0	0
5548	0	0	0
5549	0	0	0
5550	0	0	0
5551	0	0	0
5552	0	0	0
5553	0	0	0
5554	0	0	0
5555	0	0	0
5556	0	0	0
5557	0	0	0
5558	0	0	0
5559	0	0	0
5560	0	0	0
5561	0	0	0
5562	0	0	0
5563	0	0	0
5564	0	0	0
5565	0	0	0
5566	0	0	0
5567	0	0	0
5568	0	0	0
5569	0	0	0
5570	0	0	0
5571	0	0	0
5572	0	0	0
5573	0	0	0
5574	0	0	0
5575	0	0	0
5576	0	0	0
5577	0	0	0
5578	0	0	0
5579	250	190	230
5580	247	185	228
5581	247	183	229
5582	253	191	235
5583	246	184	229
5584	240	180	226
5585	244	185	233
5586	247	184	235
5587	241	176	229
5588	229	166	223
5589	226	168	228
5590	222	170	231
5591	218	169	229
5592	214	166	228
5593	208	162	228
5594	206	168	233
5595	203	169	233
5596	204	172	235
5597	194	162	227
5598	197	170	231
5599	197	176	233
5600	189	173	229
5601	189	176	234
5602	184	169	231
5603	174	154	221
5604	179	158	226
5605	179	157	227
5606	196	178	240
5607	199	181	237
5608	196	173	229
5609	202	179	232
5610	210	187	236
5611	216	192	234
5612	217	189	230
5613	223	193	232
5614	220	186	228
5615	225	187	230
5616	236	199	238
5617	234	194	231
5618	242	204	234
5619	242	207	231
5620	0	0	0
5621	246	219	235
5622	254	228	241
5623	246	220	233
5624	0	0	0
5625	0	0	0
5626	0	0	0
5627	0	0	0
5628	0	0	0
5629	0	0	0
5630	0	0	0
5631	0	0	0
5632	0	0	0
5633	0	0	0
5634	0	0	0
5635	0	0	0
5636	0	0	0
5637	0	0	0
5638	0	0	0
5639	0	0	0
5640	0	0	0
5641	0	0	0
5642	0	0	0
5643	0	0	0
5644	0	0	0
5645	0	0	0
5646	0	0	0
5647	0	0	0
5648	0	0	0
5649	0	0	0
5650	0	0	0
5651	0	0	0
5652	0	0	0
5653	0	0	0
5654	0	0	0
5655	0	0	0
5656	0	0	0
5657	0	0	0
5658	0	0	0
5659	0	0	0
5660	0	0	0
5661	0	0	0
5662	0	0	0
5663	0	0	0
5664	0	0	0
5665	0	0	0
5666	0	0	0
5667	0	0	0
5668	0	0	0
5669	0	0	0
5670	0	0	0
5671	0	0	0
5672	0	0	0
5673	0	0	0
5674	0	0	0
5675	0	0	0
5676	0	0	0
5677	0	0	0
5678	0	0	0
5679	0	0	0
5680	0	0	0
5681	0	0	0
5682	0	0	0
5683	0	0	0
5684	0	0	0
5685	0	0	0
5686	0	0	0
5687	0	0	0
5688	0	0	0
5689	0	0	0
5690	0	0	0
5691	0	0	0
5692	0	0	0
5693	0	0	0
5694	0	0	0
5695	0	0	0
5696	0	0	0
5697	0	0	0
5698	0	0	0
5699	0	0	0
5700	0	0	0
5701	0	0	0
5702	0	0	0
5703	0	0	0
5704	0	0	0
5705	0	0	0
5706	250	195	233
5707	248	191	232
5708	243	185	228
5709	242	187	230
5710	245	191	234
5711	242	184	231
5712	236	177	227
5713	233	178	230
5714	230	180	235
5715	224	179	236
5716	221	179	235
5717	219	177	234
5718	212	172	231
5719	207	174	233
5720	205	175	234
5721	198	168	229
5722	190	159	223
5723	199	171	232
5724	200	178	236
5725	192	176	233
5726	191	178	236
5727	178	162	225
5728	168	148	218
5729	173	153	224
5730	173	152	223
5731	181	161	228
5732	185	165	228
5733	191	171	229
5734	198	177	233
5735	204	181	234
5736	210	186	233
5737	211	185	230
5738	217	187	233
5739	222	189	235
5740	225	189	233
5741	228	189	233
5742	227	186	230
5743	235	194	232
5744	235	197	227
5745	238	206	229
5746	247	219	235
5747	245	215	232
5748	240	208	227
5749	248	223	237
5750	0	0	0
5751	0	0	0
5752	0	0	0
5753	0	0	0
5754	0	0	0
5755	0	0	0
5756	0	0	0
5757	0	0	0
5758	0	0	0
5759	0	0	0
5760	0	0	0
5761	0	0	0
5762	0	0	0
5763	0	0	0
5764	0	0	0
5765	0	0	0
5766	0	0	0
5767	0	0	0
5768	0	0	0
5769	0	0	0
5770	0	0	0
5771	0	0	0
5772	0	0	0
5773	0	0	0
5774	0	0	0
5775	0	0	0
5776	0	0	0
5777	0	0	0
5778	0	0	0
5779	0	0	0
5780	0	0	0
5781	0	0	0
5782	0	0	0
5783	0	0	0
5784	0	0	0
5785	0	0	0
5786	0	0	0
5787	0	0	0
5788	0	0	0
5789	0	0	0
5790	0	0	0
5791	0	0	0
5792	0	0	0
5793	0	0	0
5794	0	0	0
5795	0	0	0
5796	0	0	0
5797	0	0	0
5798	0	0	0
5799	0	0	0
5800	0	0	0
5801	0	0	0
5802	0	0	0
5803	0	0	0
5804	0	0	0
5805	0	0	0
5806	0	0	0
5807	0	0	0
5808	0	0	0
5809	0	0	0
5810	0	0	0
5811	0	0	0
5812	0	0	0
5813	0	0	0
5814	0	0	0
5815	0	0	0
5816	0	0	0
5817	0	0	0
5818	0	0	0
5819	0	0	0
5820	0	0	0
5821	0	0	0
5822	0	0	0
5823	0	0	0
5824	0	0	0
5825	0	0	0
5826	0	0	0
5827	0	0	0
5828	0	0	0
5829	0	0	0
5830	0	0	0
5831	250	201	234
5832	250	198	234
5833	247	193	231
5834	249	197	235
5835	243	191	233
5836	233	180	226
5837	238	189	232
5838	242	194	238
5839	234	185	236
5840	227	183	236
5841	222	182	235
5842	215	178	231
5843	214	181	233
5844	213	184	237
5845	201	171	229
5846	193	164	224
5847	202	177	234
5848	212	191	245
5849	194	169	231
5850	185	166	228
5851	192	181	238
5852	181	167	228
5853	179	164	229
5854	181	168	233
5855	178	164	230
5856	186	174	237
5857	181	164	228
5858	187	170	231
5859	194	176	234
5860	200	181	235
5861	206	187	235
5862	207	186	232
5863	218	193	239
5864	228	196	242
5865	225	189	235
5866	224	186	232
5867	228	190	235
5868	236	199	238
5869	239	203	234
5870	246	215	237
5871	244	212	233
5872	238	205	227
5873	243	212	233
5874	255	230	245
5875	247	223	235
5876	0	0	0
5877	0	0	0
5878	0	0	0
5879	0	0	0
5880	0	0	0
5881	0	0	0
5882	0	0	0
5883	0	0	0
5884	0	0	0
5885	0	0	0
5886	0	0	0
5887	0	0	0
5888	0	0	0
5889	0	0	0
5890	0	0	0
5891	0	0	0
5892	0	0	0
5893	0	0	0
5894	0	0	0
5895	0	0	0
5896	0	0	0
5897	0	0	0
5898	0	0	0
5899	0	0	0
5900	0	0	0
5901	0	0	0
5902	0	0	0
5903	0	0	0
5904	0	0	0
5905	0	0	0
5906	0	0	0
5907	0	0	0
5908	0	0	0
5909	0	0	0
5910	0	0	0
5911	0	0	0
5912	0	0	0
5913	0	0	0
5914	0	0	0
5915	0	0	0
5916	0	0	0
5917	0	0	0
5918	0	0	0
5919	0	0	0
5920	0	0	0
5921	0	0	0
5922	0	0	0
5923	0	0	0
5924	0	0	0
5925	0	0	0
5926	0	0	0
5927	0	0	0
5928	0	0	0
5929	0	0	0
5930	0	0	0
5931	0	0	0
5932	0	0	0
5933	0	0	0
5934	0	0	0
5935	0	0	0
5936	0	0	0
5937	0	0	0
5938	0	0	0
5939	0	0	0
5940	0	0	0
5941	0	0	0
5942	0	0	0
5943	0	0	0
5944	0	0	0
5945	0	0	0
5946	0	0	0
5947	0	0	0
5948	0	0	0
5949	0	0	0
5950	0	0	0
5951	0	0	0
5952	0	0	0
5953	0	0	0
5954	0	0	0
5955	0	0	0
5956	0	0	0
5957	247	202	233
5958	244	196	229
5959	244	195	231
5960	240	190	232
5961	239	195	235
5962	242	202	237
5963	238	194	233
5964	231	185	232
5965	227	186	235
5966	222	185	234
5967	218	186	234
5968	218	189	236
5969	207	178	229
5970	196	166	223
5971	203	180	233
5972	210	192	240
5973	198	175	230
5974	182	155	221
5975	190	172	234
5976	199	187	243
5977	193	181	239
5978	190	178	238
5979	187	176	238
5980	184	173	234
5981	181	167	231
5982	176	158	225
5983	185	168	232
5984	191	174	233
5985	199	182	237
5986	206	190	240
5987	207	191	237
5988	217	194	239
5989	220	190	235
5990	220	183	231
5991	223	187	233
5992	226	190	234
5993	235	199	237
5994	239	204	234
5995	240	203	231
5996	239	202	230
5997	242	209	234
5998	247	215	237
5999	248	215	235
6000	239	208	227
6001	0	0	0
6002	0	0	0
6003	0	0	0
6004	0	0	0
6005	0	0	0
6006	0	0	0
6007	0	0	0
6008	0	0	0
6009	0	0	0
6010	0	0	0
6011	0	0	0
6012	0	0	0
6013	0	0	0
6014	0	0	0
6015	0	0	0
6016	0	0	0
6017	0	0	0
6018	0	0	0
6019	0	0	0
6020	0	0	0
6021	0	0	0
6022	0	0	0
6023	0	0	0
6024	0	0	0
6025	0	0	0
6026	0	0	0
6027	0	0	0
6028	0	0	0
6029	0	0	0
6030	0	0	0
6031	0	0	0
6032	0	0	0
6033	0	0	0
6034	0	0	0
6035	0	0	0
6036	0	0	0
6037	0	0	0
6038	0	0	0
6039	0	0	0
6040	0	0	0
6041	0	0	0
6042	0	0	0
6043	0	0	0
6044	0	0	0
6045	0	0	0
6046	0	0	0
6047	0	0	0
6048	0	0	0
6049	0	0	0
6050	0	0	0
6051	0	0	0
6052	0	0	0
6053	0	0	0
6054	0	0	0
6055	0	0	0
6056	0	0	0
6057	0	0	0
6058	0	0	0
6059	0	0	0
6060	0	0	0
6061	0	0	0
6062	0	0	0
6063	0	0	0
6064	0	0	0
6065	0	0	0
6066	0	0	0
6067	0	0	0
6068	0	0	0
6069	0	0	0
6070	0	0	0
6071	0	0	0
6072	0	0	0
6073	0	0	0
6074	0	0	0
6075	0	0	0
6076	0	0	0
6077	0	0	0
6078	0	0	0
6079	0	0	0
6080	0	0	0
6081	0	0	0
6082	0	0	0
6083	244	207	233
6084	247	207	236
6085	240	197	233
6086	241	202	237
6087	238	202	234
6088	231	193	228
6089	232	194	232
6090	231	196	236
6091	224	192	234
6092	222	194	235
6093	221	197	237
6094	211	186	230
6095	205	180	229
6096	214	195	241
6097	208	190	236
6098	189	170	223
6099	190	170	230
6100	208	192	250
6101	200	182	241
6102	190	174	234
6103	196	184	241
6104	196	184	241
6105	191	177	237
6106	187	171	234
6107	191	175	238
6108	200	186	245
6109	197	180	239
6110	205	189	243
6111	204	186	240
6112	201	185	235
6113	212	191	236
6114	214	186	231
6115	222	192	235
6116	229	198	238
6117	230	196	237
6118	238	205	240
6119	238	203	233
6120	240	203	232
6121	240	201	232
6122	245	209	237
6123	247	213	237
6124	245	211	233
6125	0	0	0
6126	0	0	0
6127	0	0	0
6128	0	0	0
6129	0	0	0
6130	0	0	0
6131	0	0	0
6132	0	0	0
6133	0	0	0
6134	0	0	0
6135	0	0	0
6136	0	0	0
6137	0	0	0
6138	0	0	0
6139	0	0	0
6140	0	0	0
6141	0	0	0
6142	0	0	0
6143	0	0	0
6144	0	0	0
6145	0	0	0
6146	0	0	0
6147	0	0	0
6148	0	0	0
6149	0	0	0
6150	0	0	0
6151	0	0	0
6152	0	0	0
6153	0	0	0
6154	0	0	0
6155	0	0	0
6156	0	0	0
6157	0	0	0
6158	0	0	0
6159	0	0	0
6160	0	0	0
6161	0	0	0
6162	0	0	0
6163	0	0	0
6164	0	0	0
6165	0	0	0
6166	0	0	0
6167	0	0	0
6168	0	0	0
6169	0	0	0
6170	0	0	0
6171	0	0	0
6172	0	0	0
6173	0	0	0
6174	0	0	0
6175	0	0	0
6176	0	0	0
6177	0	0	0
6178	0	0	0
6179	0	0	0
6180	0	0	0
6181	0	0	0
6182	0	0	0
6183	0	0	0
6184	0	0	0
6185	0	0	0
6186	0	0	0
6187	0	0	0
6188	0	0	0
6189	0	0	0
6190	0	0	0
6191	0	0	0
6192	0	0	0
6193	0	0	0
6194	0	0	0
6195	0	0	0
6196	0	0	0
6197	0	0	0
6198	0	0	0
6199	0	0	0
6200	0	0	0
6201	0	0	0
6202	0	0	0
6203	0	0	0
6204	0	0	0
6205	0	0	0
6206	0	0	0
6207	0	0	0
6208	0	0	0
6209	245	211	234
6210	238	200	229
6211	235	201	230
6212	235	203	233
6213	235	204	234
6214	234	204	234
6215	232	203	233
6216	227	199	231
6217	227	202	234
6218	227	206	238
6219	219	199	235
6220	213	193	234
6221	211	191	235
6222	205	187	232
6223	197	182	231
6224	198	183	237
6225	203	182	241
6226	195	173	235
6227	198	181	239
6228	202	190	243
6229	197	183	238
6230	193	178	237
6231	197	184	242
6232	200	187	245
6233	200	185	243
6234	197	179	237
6235	200	181	238
6236	198	179	235
6237	201	184	236
6238	208	188	235
6239	216	194	236
6240	224	199	236
6241	229	201	236
6242	232	200	237
6243	234	200	236
6244	235	200	232
6245	239	200	232
6246	238	197	231
6247	243	204	235
6248	246	209	234
6249	0	0	0
6250	0	0	0
6251	0	0	0
6252	0	0	0
6253	0	0	0
6254	0	0	0
6255	0	0	0
6256	0	0	0
6257	0	0	0
6258	0	0	0
6259	0	0	0
6260	0	0	0
6261	0	0	0
6262	0	0	0
6263	0	0	0
6264	0	0	0
6265	0	0	0
6266	0	0	0
6267	0	0	0
6268	0	0	0
6269	0	0	0
6270	0	0	0
6271	0	0	0
6272	0	0	0
6273	0	0	0
6274	0	0	0
6275	0	0	0
6276	0	0	0
6277	0	0	0
6278	0	0	0
6279	0	0	0
6280	0	0	0
6281	0	0	0
6282	0	0	0
6283	0	0	0
6284	0	0	0
6285	0	0	0
6286	0	0	0
6287	0	0	0
6288	0	0	0
6289	0	0	0
6290	0	0	0
6291	0	0	0
6292	0	0	0
6293	0	0	0
6294	0	0	0
6295	0	0	0
6296	0	0	0
6297	0	0	0
6298	0	0	0
6299	0	0	0
6300	0	0	0
6301	0	0	0
6302	0	0	0
6303	0	0	0
6304	0	0	0
6305	0	0	0
6306	0	0	0
6307	0	0	0
6308	0	0	0
6309	0	0	0
6310	0	0	0
6311	0	0	0
6312	0	0	0
6313	0	0	0
6314	0	0	0
6315	0	0	0
6316	0	0	0
6317	0	0	0
6318	0	0	0
6319	0	0	0
6320	0	0	0
6321	0	0	0
6322	0	0	0
6323	0	0	0
6324	0	0	0
6325	0	0	0
6326	0	0	0
6327	0	0	0
6328	0	0	0
6329	0	0	0
6330	0	0	0
6331	0	0	0
6332	0	0	0
6333	0	0	0
6334	0	0	0
6335	0	0	0
6336	0	0	0
6337	237	212	235
6338	237	213	237
6339	231	205	230
6340	229	203	229
6341	229	204	231
6342	232	208	235
6343	226	202	232
6344	217	194	228
6345	216	197	233
6346	0	0	0
6347	0	0	0
6348	0	0	0
6349	0	0	0
6350	208	190	242
6351	204	184	240
6352	209	194	247
6353	202	187	240
6354	193	178	233
6355	198	186	240
6356	202	192	245
6357	199	187	242
6358	200	185	241
6359	198	181	238
6360	200	183	239
6361	205	188	242
6362	211	197	245
6363	210	191	237
6364	214	195	236
6365	221	200	236
6366	230	203	238
6367	228	195	234
6368	230	195	233
6369	239	204	238
6370	244	205	239
6371	240	198	233
6372	243	203	235
6373	0	0	0
6374	0	0	0
6375	0	0	0
6376	0	0	0
6377	0	0	0
6378	0	0	0
6379	0	0	0
6380	0	0	0
6381	0	0	0
6382	0	0	0
6383	0	0	0
6384	0	0	0
6385	0	0	0
6386	0	0	0
6387	0	0	0
6388	0	0	0
6389	0	0	0
6390	0	0	0
6391	0	0	0
6392	0	0	0
6393	0	0	0
6394	0	0	0
6395	0	0	0
6396	0	0	0
6397	0	0	0
6398	0	0	0
6399	0	0	0
6400	0	0	0
6401	0	0	0
6402	0	0	0
6403	0	0	0
6404	0	0	0
6405	0	0	0
6406	0	0	0
6407	0	0	0
6408	0	0	0
6409	0	0	0
6410	0	0	0
6411	0	0	0
6412	0	0	0
6413	0	0	0
6414	0	0	0
6415	0	0	0
6416	0	0	0
6417	0	0	0
6418	0	0	0
6419	0	0	0
6420	0	0	0
6421	0	0	0
6422	0	0	0
6423	0	0	0
6424	0	0	0
6425	0	0	0
6426	0	0	0
6427	0	0	0
6428	0	0	0
6429	0	0	0
6430	0	0	0
6431	0	0	0
6432	0	0	0
6433	0	0	0
6434	0	0	0
6435	0	0	0
6436	0	0	0
6437	0	0	0
6438	0	0	0
6439	0	0	0
6440	0	0	0
6441	0	0	0
6442	0	0	0
6443	0	0	0
6444	0	0	0
6445	0	0	0
6446	0	0	0
6447	0	0	0
6448	0	0	0
6449	0	0	0
6450	0	0	0
6451	0	0	0
6452	0	0	0
6453	0	0	0
6454	0	0	0
6455	0	0	0
6456	0	0	0
6457	0	0	0
6458	0	0	0
6459	0	0	0
6460	0	0	0
6461	0	0	0
6462	0	0	0
6463	233	212	231
6464	0	0	0
6465	0	0	0
6466	232	209	233
6467	228	204	230
6468	0	0	0
6469	0	0	0
6470	0	0	0
6471	0	0	0
6472	0	0	0
6473	0	0	0
6474	0	0	0
6475	0	0	0
6476	209	191	240
6477	205	188	240
6478	0	0	0
6479	0	0	0
6480	204	195	244
6481	199	189	239
6482	198	185	238
6483	199	184	239
6484	198	181	237
6485	207	191	244
6486	213	197	247
6487	214	196	245
6488	211	193	236
6489	214	196	237
6490	221	201	240
6491	224	196	236
6492	222	188	231
6493	228	195	236
6494	237	203	240
6495	238	199	236
6496	0	0	0
6497	0	0	0
6498	0	0	0
6499	0	0	0
6500	0	0	0
6501	0	0	0
6502	0	0	0
6503	0	0	0
6504	0	0	0
6505	0	0	0
6506	0	0	0
6507	0	0	0
6508	0	0	0
6509	0	0	0
6510	0	0	0
6511	0	0	0
6512	0	0	0
6513	0	0	0
6514	0	0	0
6515	0	0	0
6516	0	0	0
6517	0	0	0
6518	0	0	0
6519	0	0	0
6520	0	0	0
6521	0	0	0
6522	0	0	0
6523	0	0	0
6524	0	0	0
6525	0	0	0
6526	0	0	0
6527	0	0	0
6528	0	0	0
6529	0	0	0
6530	0	0	0
6531	0	0	0
6532	0	0	0
6533	0	0	0
6534	0	0	0
6535	0	0	0
6536	0	0	0
6537	0	0	0
6538	0	0	0
6539	0	0	0
6540	0	0	0
6541	0	0	0
6542	0	0	0
6543	0	0	0
6544	0	0	0
6545	0	0	0
6546	0	0	0
6547	0	0	0
6548	0	0	0
6549	0	0	0
6550	0	0	0
6551	0	0	0
6552	0	0	0
6553	0	0	0
6554	0	0	0
6555	0	0	0
6556	0	0	0
6557	0	0	0
6558	0	0	0
6559	0	0	0
6560	0	0	0
6561	0	0	0
6562	0	0	0
6563	0	0	0
6564	0	0	0
6565	0	0	0
6566	0	0	0
6567	0	0	0
6568	0	0	0
6569	0	0	0
6570	0	0	0
6571	0	0	0
6572	0	0	0
6573	0	0	0
6574	0	0	0
6575	0	0	0
6576	0	0	0
6577	0	0	0
6578	0	0	0
6579	0	0	0
6580	0	0	0
6581	0	0	0
6582	0	0	0
6583	0	0	0
6584	0	0	0
6585	0	0	0
6586	0	0	0
6587	0	0	0
6588	0	0	0
6589	0	0	0
6590	0	0	0
6591	0	0	0
6592	0	0	0
6593	0	0	0
6594	0	0	0
6595	0	0	0
6596	0	0	0
6597	0	0	0
6598	0	0	0
6599	0	0	0
6600	0	0	0
6601	0	0	0
6602	0	0	0
6603	0	0	0
6604	0	0	0
6605	0	0	0
6606	0	0	0
6607	0	0	0
6608	0	0	0
6609	0	0	0
6610	220	204	252
6611	217	197	247
6612	218	197	244
6613	219	202	241
6614	221	205	242
6615	223	204	241
6616	223	197	237
6617	229	201	240
6618	234	208	245
6619	229	199	237
6620	0	0	0
6621	0	0	0
6622	0	0	0
6623	0	0	0
6624	0	0	0
6625	0	0	0
6626	0	0	0
6627	0	0	0
6628	0	0	0
6629	0	0	0
6630	0	0	0
6631	0	0	0
6632	0	0	0
6633	0	0	0
6634	0	0	0
6635	0	0	0
6636	0	0	0
6637	0	0	0
6638	0	0	0
6639	0	0	0
6640	0	0	0
6641	0	0	0
6642	0	0	0
6643	0	0	0
6644	0	0	0
6645	0	0	0
6646	0	0	0
6647	0	0	0
6648	0	0	0
6649	0	0	0
6650	0	0	0
6651	0	0	0
6652	0	0	0
6653	0	0	0
6654	0	0	0
6655	0	0	0
6656	0	0	0
6657	0	0	0
6658	0	0	0
6659	0	0	0
6660	0	0	0
6661	0	0	0
6662	0	0	0
6663	0	0	0
6664	0	0	0
6665	0	0	0
6666	0	0	0
6667	0	0	0
6668	0	0	0
6669	0	0	0
6670	0	0	0
6671	0	0	0
6672	0	0	0
6673	0	0	0
6674	0	0	0
6675	0	0	0
6676	0	0	0
6677	0	0	0
6678	0	0	0
6679	0	0	0
6680	0	0	0
6681	0	0	0
6682	0	0	0
6683	0	0	0
6684	0	0	0
6685	0	0	0
6686	0	0	0
6687	0	0	0
6688	0	0	0
6689	0	0	0
6690	0	0	0
6691	0	0	0
6692	0	0	0
6693	0	0	0
6694	0	0	0
6695	0	0	0
6696	0	0	0
6697	0	0	0
6698	0	0	0
6699	0	0	0
6700	0	0	0
6701	0	0	0
6702	0	0	0
6703	0	0	0
6704	0	0	0
6705	0	0	0
6706	0	0	0
6707	0	0	0
6708	0	0	0
6709	0	0	0
6710	0	0	0
6711	0	0	0
6712	0	0	0
6713	0	0	0
6714	0	0	0
6715	0	0	0
6716	0	0	0
6717	0	0	0
6718	0	0	0
6719	0	0	0
6720	0	0	0
6721	0	0	0
6722	0	0	0
6723	0	0	0
6724	0	0	0
6725	0	0	0
6726	0	0	0
6727	0	0	0
6728	0	0	0
6729	0	0	0
6730	0	0	0
6731	0	0	0
6732	0	0	0
6733	0	0	0
6734	0	0	0
6735	0	0	0
6736	213	191	238
6737	219	198	241
6738	224	208	242
6739	223	205	239
6740	224	204	236
6741	230	208	239
6742	235	212	243
6743	229	203	238
6744	225	194	233
6745	237	208	242
6746	0	0	0
6747	0	0	0
6748	0	0	0
6749	0	0	0
6750	0	0	0
6751	0	0	0
6752	0	0	0
6753	0	0	0
6754	0	0	0
6755	0	0	0
6756	0	0	0
6757	0	0	0
6758	0	0	0
6759	0	0	0
6760	0	0	0
6761	0	0	0
6762	0	0	0
6763	0	0	0
6764	0	0	0
6765	0	0	0
6766	0	0	0
6767	0	0	0
6768	0	0	0
6769	0	0	0
6770	0	0	0
6771	0	0	0
6772	0	0	0
6773	0	0	0
6774	0	0	0
6775	0	0	0
6776	0	0	0
6777	0	0	0
6778	0	0	0
6779	0	0	0
6780	0	0	0
6781	0	0	0
6782	0	0	0
6783	0	0	0
6784	0	0	0
6785	0	0	0
6786	0	0	0
6787	0	0	0
6788	0	0	0
6789	0	0	0
6790	0	0	0
6791	0	0	0
6792	0	0	0
6793	0	0	0
6794	0	0	0
6795	0	0	0
6796	0	0	0
6797	0	0	0
6798	0	0	0
6799	0	0	0
6800	0	0	0
6801	0	0	0
6802	0	0	0
6803	0	0	0
6804	0	0	0
6805	0	0	0
6806	0	0	0
6807	0	0	0
6808	0	0	0
6809	0	0	0
6810	0	0	0
6811	0	0	0
6812	0	0	0
6813	0	0	0
6814	0	0	0
6815	0	0	0
6816	0	0	0
6817	0	0	0
6818	0	0	0
6819	0	0	0
6820	0	0	0
6821	0	0	0
6822	0	0	0
6823	0	0	0
6824	0	0	0
6825	0	0	0
6826	0	0	0
6827	0	0	0
6828	0	0	0
6829	0	0	0
6830	0	0	0
6831	0	0	0
6832	0	0	0
6833	0	0	0
6834	0	0	0
6835	0	0	0
6836	0	0	0
6837	0	0	0
6838	0	0	0
6839	0	0	0
6840	0	0	0
6841	0	0	0
6842	0	0	0
6843	0	0	0
6844	0	0	0
6845	0	0	0
6846	0	0	0
6847	0	0	0
6848	0	0	0
6849	0	0	0
6850	0	0	0
6851	0	0	0
6852	0	0	0
6853	0	0	0
6854	0	0	0
6855	0	0	0
6856	0	0	0
6857	0	0	0
6858	0	0	0
6859	0	0	0
6860	0	0	0
6861	0	0	0
6862	225	211	244
6863	225	210	240
6864	227	209	237
6865	226	205	233
6866	230	208	236
6867	236	213	240
6868	232	206	237
6869	234	205	239
6870	245	218	248
6871	239	209	239
6872	0	0	0
6873	0	0	0
6874	0	0	0
6875	0	0	0
6876	0	0	0
6877	0	0	0
6878	0	0	0
6879	0	0	0
6880	0	0	0
6881	0	0	0
6882	0	0	0
6883	0	0	0
6884	0	0	0
6885	0	0	0
6886	0	0	0
6887	0	0	0
6888	0	0	0
6889	0	0	0
6890	0	0	0
6891	0	0	0
6892	0	0	0
6893	0	0	0
6894	0	0	0
6895	0	0	0
6896	0	0	0
6897	0	0	0
6898	0	0	0
6899	0	0	0
6900	0	0	0
6901	0	0	0
6902	0	0	0
6903	0	0	0
6904	0	0	0
6905	0	0	0
6906	0	0	0
6907	0	0	0
6908	0	0	0
6909	0	0	0
6910	0	0	0
6911	0	0	0
6912	0	0	0
6913	0	0	0
6914	0	0	0
6915	0	0	0
6916	0	0	0
6917	0	0	0
6918	0	0	0
6919	0	0	0
6920	0	0	0
6921	0	0	0
6922	0	0	0
6923	0	0	0
6924	0	0	0
6925	0	0	0
6926	0	0	0
6927	0	0	0
6928	0	0	0
6929	0	0	0
6930	0	0	0
6931	0	0	0
6932	0	0	0
6933	0	0	0
6934	0	0	0
6935	0	0	0
6936	0	0	0
6937	0	0	0
6938	0	0	0
6939	0	0	0
6940	0	0	0
6941	0	0	0
6942	0	0	0
6943	0	0	0
6944	0	0	0
6945	0	0	0
6946	0	0	0
6947	0	0	0
6948	0	0	0
6949	0	0	0
6950	0	0	0
6951	0	0	0
6952	0	0	0
6953	0	0	0
6954	0	0	0
6955	0	0	0
6956	0	0	0
6957	0	0	0
6958	0	0	0
6959	0	0	0
6960	0	0	0
6961	0	0	0
6962	0	0	0
6963	0	0	0
6964	0	0	0
6965	0	0	0
6966	0	0	0
6967	0	0	0
6968	0	0	0
6969	0	0	0
6970	0	0	0
6971	0	0	0
6972	0	0	0
6973	0	0	0
6974	0	0	0
6975	0	0	0
6976	0	0	0
6977	0	0	0
6978	0	0	0
6979	0	0	0
6980	0	0	0
6981	0	0	0
6982	0	0	0
6983	0	0	0
6984	0	0	0
6985	0	0	0
6986	227	216	241
6987	229	216	241
6988	224	208	234
6989	227	208	233
6990	226	204	230
6991	231	209	233
6992	235	213	238
6993	236	212	237
6994	236	210	237
6995	232	204	234
6996	228	197	230
6997	0	0	0
6998	0	0	0
6999	0	0	0
7000	0	0	0
7001	0	0	0
7002	0	0	0
7003	0	0	0
7004	0	0	0
7005	0	0	0
7006	0	0	0
7007	0	0	0
7008	0	0	0
7009	0	0	0
7010	0	0	0
7011	0	0	0
7012	0	0	0
7013	0	0	0
7014	0	0	0
7015	0	0	0
7016	0	0	0
7017	0	0	0
7018	0	0	0
7019	0	0	0
7020	0	0	0
7021	0	0	0
7022	0	0	0
7023	0	0	0
7024	0	0	0
7025	0	0	0
7026	0	0	0
7027	0	0	0
7028	0	0	0
7029	0	0	0
7030	0	0	0
7031	0	0	0
7032	0	0	0
7033	0	0	0
7034	0	0	0
7035	0	0	0
7036	0	0	0
7037	0	0	0
7038	0	0	0
7039	0	0	0
7040	0	0	0
7041	0	0	0
7042	0	0	0
7043	0	0	0
7044	0	0	0
7045	0	0	0
7046	0	0	0
7047	0	0	0
7048	0	0	0
7049	0	0	0
7050	0	0	0
7051	0	0	0
7052	0	0	0
7053	0	0	0
7054	0	0	0
7055	0	0	0
7056	0	0	0
7057	0	0	0
7058	0	0	0
7059	0	0	0
7060	0	0	0
7061	0	0	0
7062	0	0	0
7063	0	0	0
7064	0	0	0
7065	0	0	0
7066	0	0	0
7067	0	0	0
7068	0	0	0
7069	0	0	0
7070	0	0	0
7071	0	0	0
7072	0	0	0
7073	0	0	0
7074	0	0	0
7075	0	0	0
7076	0	0	0
7077	0	0	0
7078	0	0	0
7079	0	0	0
7080	0	0	0
7081	0	0	0
7082	0	0	0
7083	0	0	0
7084	0	0	0
7085	0	0	0
7086	0	0	0
7087	0	0	0
7088	0	0	0
7089	0	0	0
7090	0	0	0
7091	0	0	0
7092	0	0	0
7093	0	0	0
7094	0	0	0
7095	0	0	0
7096	0	0	0
7097	0	0	0
7098	0	0	0
7099	0	0	0
7100	0	0	0
7101	0	0	0
7102	0	0	0
7103	0	0	0
7104	0	0	0
7105	0	0	0
7106	0	0	0
7107	0	0	0
7108	0	0	0
7109	0	0	0
7110	0	0	0
7111	235	223	241
7112	237	223	242
7113	232	216	237
7114	234	215	236
7115	233	212	234
7116	236	216	237
7117	234	214	235
7118	232	211	233
7119	236	216	237
7120	231	210	234
7121	0	0	0
7122	0	0	0
7123	0	0	0
7124	0	0	0
7125	0	0	0
7126	0	0	0
7127	0	0	0
7128	0	0	0
7129	0	0	0
7130	0	0	0
7131	0	0	0
7132	0	0	0
7133	0	0	0
7134	0	0	0
7135	0	0	0
7136	0	0	0
7137	0	0	0
7138	0	0	0
7139	0	0	0
7140	0	0	0
7141	0	0	0
7142	0	0	0
7143	0	0	0
7144	0	0	0
7145	0	0	0
7146	0	0	0
7147	0	0	0
7148	0	0	0
7149	0	0	0
7150	0	0	0
7151	0	0	0
7152	0	0	0
7153	0	0	0
7154	0	0	0
7155	0	0	0
7156	0	0	0
7157	0	0	0
7158	0	0	0
7159	0	0	0
7160	0	0	0
7161	0	0	0
7162	0	0	0
7163	0	0	0
7164	0	0	0
7165	0	0	0
7166	0	0	0
7167	0	0	0
7168	0	0	0
7169	0	0	0
7170	0	0	0
7171	0	0	0
7172	0	0	0
7173	0	0	0
7174	0	0	0
7175	0	0	0
7176	0	0	0
7177	0	0	0
7178	0	0	0
7179	0	0	0
7180	0	0	0
7181	0	0	0
7182	0	0	0
7183	0	0	0
7184	0	0	0
7185	0	0	0
7186	0	0	0
7187	0	0	0
7188	0	0	0
7189	0	0	0
7190	0	0	0
7191	0	0	0
7192	0	0	0
7193	0	0	0
7194	0	0	0
7195	0	0	0
7196	0	0	0
7197	0	0	0
7198	0	0	0
7199	0	0	0
7200	0	0	0
7201	0	0	0
7202	0	0	0
7203	0	0	0
7204	0	0	0
7205	0	0	0
7206	0	0	0
7207	0	0	0
7208	0	0	0
7209	0	0	0
7210	0	0	0
7211	0	0	0
7212	0	0	0
7213	0	0	0
7214	0	0	0
7215	0	0	0
7216	0	0	0
7217	0	0	0
7218	0	0	0
7219	0	0	0
7220	0	0	0
7221	0	0	0
7222	0	0	0
7223	0	0	0
7224	0	0	0
7225	0	0	0
7226	0	0	0
7227	0	0	0
7228	0	0	0
7229	0	0	0
7230	0	0	0
7231	0	0	0
7232	0	0	0
7233	0	0	0
7234	0	0	0
7235	0	0	0
7236	0	0	0
7237	236	220	237
7238	235	221	236
7239	236	220	236
7240	235	217	234
7241	235	216	234
7242	0	0	0
7243	0	0	0
7244	0	0	0
7245	0	0	0
7246	0	0	0
7247	0	0	0
7248	0	0	0
7249	0	0	0
7250	0	0	0
