 	R	G	B
1	0	0	0
2	0	0	0
3	249	223	232
4	0	0	0
5	0	0	0
6	0	0	0
7	0	0	0
8	0	0	0
9	0	0	0
10	0	0	0
11	0	0	0
12	0	0	0
13	0	0	0
14	0	0	0
15	253	221	233
16	245	211	229
17	255	235	245
18	0	0	0
19	0	0	0
20	0	0	0
21	0	0	0
22	0	0	0
23	0	0	0
24	0	0	0
25	0	0	0
26	0	0	0
27	0	0	0
28	255	218	235
29	240	197	224
30	254	221	240
31	255	234	245
32	0	0	0
33	0	0	0
34	0	0	0
35	0	0	0
36	0	0	0
37	0	0	0
38	0	0	0
39	0	0	0
40	0	0	0
41	248	202	228
42	233	181	216
43	248	206	234
44	252	219	239
45	0	0	0
46	0	0	0
47	0	0	0
48	0	0	0
49	0	0	0
50	0	0	0
51	0	0	0
52	0	0	0
53	0	0	0
54	253	204	232
55	237	180	219
56	253	205	238
57	252	212	238
58	0	0	0
59	0	0	0
60	0	0	0
61	0	0	0
62	0	0	0
63	0	0	0
64	0	0	0
65	0	0	0
66	0	0	0
67	252	198	229
68	237	176	219
69	249	196	234
70	247	201	232
71	0	0	0
72	0	0	0
73	0	0	0
74	0	0	0
75	0	0	0
76	0	0	0
77	0	0	0
78	0	0	0
79	0	0	0
80	250	191	227
81	236	170	219
82	245	189	233
83	241	191	229
84	0	0	0
85	0	0	0
86	0	0	0
87	0	0	0
88	0	0	0
89	0	0	0
90	0	0	0
91	0	0	0
92	0	0	0
93	246	182	225
94	233	162	217
95	242	181	233
96	0	0	0
97	0	0	0
98	0	0	0
99	0	0	0
100	0	0	0
101	0	0	0
102	0	0	0
103	0	0	0
104	0	0	0
105	0	0	0
106	253	190	234
107	235	161	220
108	246	181	237
109	0	0	0
110	0	0	0
111	0	0	0
112	0	0	0
113	0	0	0
114	0	0	0
115	0	0	0
116	0	0	0
117	0	0	0
118	248	193	229
119	248	181	230
120	231	154	216
121	244	172	233
122	0	0	0
123	0	0	0
124	0	0	0
125	0	0	0
126	0	0	0
127	0	0	0
128	0	0	0
129	0	0	0
130	0	0	0
131	248	195	230
132	248	183	232
133	240	164	225
134	255	185	245
135	238	162	229
136	0	0	0
137	0	0	0
138	0	0	0
139	0	0	0
140	0	0	0
141	0	0	0
142	0	0	0
143	0	0	0
144	248	195	229
145	251	188	235
146	244	170	229
147	247	169	235
148	230	147	222
149	242	170	237
150	0	0	0
151	255	208	245
152	0	0	0
153	0	0	0
154	0	0	0
155	0	0	0
156	0	0	0
157	251	199	232
158	255	194	239
159	245	170	231
160	249	169	237
161	229	143	224
162	242	167	240
163	235	166	232
164	255	200	247
165	255	220	246
166	0	0	0
167	0	0	0
168	0	0	0
169	0	0	0
170	252	203	234
171	250	187	233
172	240	164	226
173	237	155	228
174	220	131	217
175	229	148	230
176	223	147	224
177	246	182	242
178	252	203	244
179	0	0	0
180	0	0	0
181	0	0	0
182	0	0	0
183	0	0	0
184	243	181	228
185	238	166	226
186	236	158	229
187	232	150	231
188	244	169	247
189	224	148	227
190	241	180	244
191	240	187	240
192	0	0	0
193	0	0	0
194	0	0	0
195	0	0	0
196	238	190	225
197	244	185	232
198	241	170	230
199	249	175	241
200	246	168	242
201	242	164	242
202	220	142	223
203	227	161	233
204	225	169	231
205	0	0	0
206	0	0	0
207	0	0	0
208	0	0	0
209	244	205	234
210	255	205	246
211	244	169	230
212	253	173	242
213	246	161	238
214	242	157	238
215	228	146	227
216	230	164	237
217	220	161	230
218	0	0	0
219	0	0	0
220	0	0	0
221	0	0	0
222	251	221	242
223	251	196	237
224	237	161	225
225	244	161	235
226	239	150	232
227	246	157	239
228	233	147	230
229	228	156	234
230	218	154	230
231	248	201	253
232	0	0	0
233	0	0	0
234	0	0	0
235	0	0	0
236	242	193	232
237	228	157	222
238	237	159	233
239	243	159	238
240	255	169	250
241	234	142	229
242	231	152	234
243	224	153	232
244	253	199	255
245	254	216	249
246	0	0	0
247	0	0	0
248	0	0	0
249	0	0	0
250	221	154	219
251	239	166	239
252	246	166	243
253	247	157	241
254	228	131	224
255	232	147	233
256	224	148	228
257	241	179	242
258	243	197	240
259	0	0	0
260	0	0	0
261	0	0	0
262	0	0	0
263	228	166	227
264	250	181	250
265	242	159	239
266	239	148	235
267	230	135	229
268	239	154	241
269	224	143	228
270	237	172	240
271	233	183	235
272	0	0	0
273	0	0	0
274	0	0	0
275	0	0	0
276	228	172	228
277	239	168	238
278	232	147	230
279	236	147	236
280	229	135	230
281	233	143	237
282	219	133	225
283	227	157	235
284	223	168	232
285	0	0	0
286	0	0	0
287	0	0	0
288	0	0	0
289	232	185	233
290	244	182	244
291	233	151	233
292	239	153	241
293	233	140	235
294	240	150	243
295	228	143	234
296	232	165	243
297	220	164	234
298	0	0	0
299	0	0	0
300	0	0	0
301	0	0	0
302	231	194	234
303	235	177	236
304	224	147	227
305	233	150	238
306	228	138	233
307	239	150	242
308	228	143	232
309	224	154	234
310	215	155	229
311	0	0	0
312	0	0	0
313	0	0	0
314	0	0	0
315	233	206	237
316	234	187	238
317	220	153	228
318	231	157	241
319	224	141	234
320	237	154	243
321	231	149	235
322	232	164	240
323	224	162	236
324	0	0	0
325	0	0	0
326	0	0	0
327	0	0	0
328	239	221	241
329	230	191	235
330	218	158	229
331	229	159	243
332	223	143	235
333	236	156	245
334	231	152	236
335	231	162	238
336	223	160	234
337	0	0	0
338	0	0	0
339	0	0	0
340	0	0	0
341	240	224	240
342	229	193	232
343	223	168	234
344	237	171	250
345	226	148	238
346	236	160	246
347	228	152	236
348	229	162	239
349	222	160	234
350	0	0	0
351	0	0	0
352	0	0	0
353	0	0	0
354	245	231	243
355	234	202	235
356	227	176	235
357	237	172	246
358	227	150	236
359	235	158	245
360	228	152	236
361	230	161	240
362	224	160	237
363	235	184	245
364	0	0	0
365	0	0	0
366	0	0	0
367	250	239	247
368	237	208	237
369	228	179	234
370	241	177	246
371	235	158	240
372	243	167	249
373	235	157	240
374	240	169	247
375	234	167	243
376	241	189	250
377	231	184	234
378	0	0	0
379	0	0	0
380	0	0	0
381	235	209	236
382	226	180	232
383	240	180	245
384	233	161	236
385	237	164	241
386	233	157	237
387	242	168	246
388	237	167	241
389	233	173	240
390	224	171	230
391	0	0	0
392	0	0	0
393	0	0	0
394	0	0	0
395	232	196	239
396	244	195	251
397	224	157	229
398	229	161	236
399	236	166	242
400	253	182	255
401	240	165	240
402	235	172	241
403	223	166	232
404	0	0	0
405	0	0	0
406	0	0	0
407	0	0	0
408	239	212	244
409	234	190	241
410	217	155	227
411	235	172	246
412	243	177	251
413	249	175	251
414	237	159	237
415	231	163	236
416	218	157	229
417	0	0	0
418	0	0	0
419	0	0	0
420	0	0	0
421	240	219	243
422	232	195	239
423	217	161	230
424	241	182	253
425	238	169	246
426	242	166	246
427	234	156	237
428	229	161	236
429	0	0	0
430	0	0	0
431	0	0	0
432	0	0	0
433	0	0	0
434	246	229	248
435	230	198	238
436	217	166	229
437	233	171	245
438	231	158	240
439	238	162	245
440	231	153	238
441	236	171	245
442	235	180	243
443	0	0	0
444	0	0	0
445	0	0	0
446	0	0	0
447	248	232	249
448	228	198	235
449	221	174	233
450	241	182	252
451	233	159	241
452	236	160	244
453	232	159	242
454	240	177	250
455	237	182	244
456	0	0	0
457	0	0	0
458	0	0	0
459	0	0	0
460	250	236	249
461	230	204	236
462	222	179	234
463	234	175	244
464	224	152	234
465	235	164	245
466	232	162	242
467	239	177	249
468	238	184	246
469	0	0	0
470	0	0	0
471	0	0	0
472	0	0	0
473	250	239	249
474	232	208	237
475	226	188	237
476	231	180	244
477	223	160	237
478	237	174	250
479	233	167	244
480	243	184	252
481	240	184	247
482	0	0	0
483	0	0	0
484	0	0	0
485	0	0	0
486	252	244	251
487	237	217	240
488	228	195	238
489	227	184	243
490	218	164	237
491	227	171	245
492	225	165	239
493	235	177	245
494	234	179	241
495	0	0	0
496	0	0	0
497	0	0	0
498	0	0	0
499	253	248	252
500	236	220	240
501	223	194	234
502	219	182	237
503	218	177	241
504	224	182	248
505	222	174	241
506	238	190	252
507	0	0	0
508	0	0	0
509	0	0	0
510	0	0	0
511	0	0	0
512	0	0	0
513	236	223	240
514	0	0	0
515	0	0	0
516	224	192	246
517	229	194	252
518	228	187	247
519	238	195	253
520	0	0	0
521	0	0	0
522	0	0	0
523	0	0	0
524	0	0	0
525	0	0	0
526	0	0	0
527	0	0	0
528	0	0	0
529	0	0	0
530	242	206	255
531	233	189	247
532	0	0	0
533	0	0	0
