 	R	G	B
1	0	0	0
2	0	0	0
3	0	0	0
4	0	0	0
5	0	0	0
6	249	206	235
7	248	202	235
8	254	209	241
9	0	0	0
10	0	0	0
11	0	0	0
12	0	0	0
13	0	0	0
14	0	0	0
15	0	0	0
16	0	0	0
17	0	0	0
18	0	0	0
19	0	0	0
20	0	0	0
21	0	0	0
22	0	0	0
23	0	0	0
24	255	217	242
25	255	219	247
26	246	191	231
27	250	197	237
28	239	188	228
29	0	0	0
30	0	0	0
31	0	0	0
32	0	0	0
33	0	0	0
34	0	0	0
35	0	0	0
36	0	0	0
37	0	0	0
38	0	0	0
39	0	0	0
40	0	0	0
41	0	0	0
42	252	214	242
43	255	230	253
44	255	206	240
45	240	179	226
46	244	184	233
47	234	176	227
48	0	0	0
49	0	0	0
50	0	0	0
51	0	0	0
52	0	0	0
53	0	0	0
54	0	0	0
55	0	0	0
56	0	0	0
57	0	0	0
58	0	0	0
59	0	0	0
60	239	204	231
61	255	227	253
62	255	205	240
63	240	180	226
64	243	180	231
65	248	186	239
66	236	176	231
67	0	0	0
68	0	0	0
69	0	0	0
70	0	0	0
71	0	0	0
72	0	0	0
73	0	0	0
74	0	0	0
75	0	0	0
76	0	0	0
77	0	0	0
78	0	0	0
79	243	211	236
80	247	199	235
81	239	178	227
82	244	182	233
83	246	182	235
84	246	183	237
85	236	173	229
86	246	196	241
87	0	0	0
88	0	0	0
89	0	0	0
90	0	0	0
91	0	0	0
92	0	0	0
93	0	0	0
94	0	0	0
95	0	0	0
96	0	0	0
97	0	0	0
98	241	208	234
99	245	196	234
100	242	181	232
101	250	186	240
102	247	180	236
103	246	180	236
104	246	183	236
105	255	207	250
106	248	201	237
107	0	0	0
108	0	0	0
109	0	0	0
110	0	0	0
111	0	0	0
112	0	0	0
113	0	0	0
114	0	0	0
115	0	0	0
116	0	0	0
117	244	208	235
118	247	197	236
119	244	181	233
120	250	184	240
121	247	178	235
122	255	189	242
123	254	191	240
124	254	195	240
125	245	190	232
126	255	214	242
127	0	0	0
128	0	0	0
129	0	0	0
130	0	0	0
131	0	0	0
132	0	0	0
133	0	0	0
134	0	0	0
135	0	0	0
136	252	209	238
137	250	194	235
138	248	184	235
139	254	186	242
140	251	179	238
141	255	190	244
142	249	179	232
143	248	182	232
144	244	184	230
145	255	210	243
146	255	221	239
147	0	0	0
148	0	0	0
149	0	0	0
150	0	0	0
151	0	0	0
152	0	0	0
153	0	0	0
154	252	208	234
155	255	210	240
156	255	198	238
157	253	187	237
158	255	187	242
159	253	179	238
160	251	175	235
161	240	164	224
162	243	173	228
163	240	175	227
164	250	196	236
165	249	207	234
166	0	0	0
167	0	0	0
168	0	0	0
169	0	0	0
170	0	0	0
171	0	0	0
172	249	208	235
173	255	209	239
174	255	199	236
175	251	187	233
176	251	181	235
177	254	180	240
178	248	170	235
179	245	166	231
180	249	175	234
181	252	184	239
182	239	173	230
183	248	193	238
184	247	204	236
185	0	0	0
186	0	0	0
187	0	0	0
188	0	0	0
189	0	0	0
190	0	0	0
191	245	204	237
192	248	196	235
193	247	186	232
194	247	180	232
195	247	174	235
196	249	171	238
197	244	162	233
198	254	176	242
199	255	185	243
200	250	179	237
201	238	169	231
202	246	189	240
203	245	200	237
204	0	0	0
205	0	0	0
206	0	0	0
207	0	0	0
208	0	0	0
209	0	0	0
210	244	208	241
211	250	201	241
212	250	190	237
213	249	184	238
214	252	182	242
215	255	179	246
216	246	163	236
217	255	178	246
218	254	178	241
219	248	173	235
220	245	176	237
221	252	195	246
222	249	202	239
223	0	0	0
224	0	0	0
225	0	0	0
226	0	0	0
227	0	0	0
228	0	0	0
229	240	206	237
230	249	201	240
231	249	191	238
232	252	189	241
233	254	186	244
234	253	177	242
235	244	161	233
236	250	168	239
237	249	169	236
238	252	177	239
239	249	179	239
240	252	194	242
241	249	201	235
242	0	0	0
243	0	0	0
244	0	0	0
245	0	0	0
246	0	0	0
247	0	0	0
248	243	211	239
249	253	207	243
250	249	191	238
251	253	189	242
252	255	187	244
253	252	177	241
254	245	163	235
255	251	171	241
256	252	173	240
257	255	182	243
258	251	181	239
259	255	197	243
260	245	193	230
261	0	0	0
262	0	0	0
263	0	0	0
264	0	0	0
265	0	0	0
266	0	0	0
267	244	214	240
268	250	205	242
269	248	190	239
270	254	191	244
271	255	188	245
272	252	177	241
273	245	165	236
274	252	174	244
275	252	175	241
276	253	179	241
277	248	179	237
278	246	184	235
279	237	182	226
280	0	0	0
281	0	0	0
282	0	0	0
283	0	0	0
284	0	0	0
285	0	0	0
286	0	0	0
287	249	208	244
288	243	187	238
289	251	188	244
290	254	186	243
291	250	176	239
292	250	173	241
293	255	181	248
294	250	176	241
295	250	180	241
296	247	182	238
297	246	187	237
298	243	192	234
299	0	0	0
300	0	0	0
301	0	0	0
302	0	0	0
303	0	0	0
304	0	0	0
305	0	0	0
306	0	0	0
307	232	179	233
308	245	185	242
309	247	181	240
310	247	179	240
311	247	176	240
312	248	177	242
313	244	172	237
314	246	179	240
315	245	182	237
316	250	194	241
317	248	199	238
318	251	212	242
319	0	0	0
320	0	0	0
321	0	0	0
322	0	0	0
323	0	0	0
324	0	0	0
325	0	0	0
326	231	190	238
327	249	198	251
328	242	182	240
329	237	177	237
330	241	182	241
331	248	185	245
332	248	183	243
333	251	190	245
334	251	192	243
335	255	206	249
336	249	198	237
337	253	211	242
338	245	208	236
339	0	0	0
340	0	0	0
341	0	0	0
342	0	0	0
343	0	0	0
344	0	0	0
345	230	198	239
346	240	196	246
347	235	181	240
348	239	188	246
349	243	192	249
350	250	195	250
351	250	193	246
352	254	198	247
353	255	202	247
354	255	200	244
355	246	192	235
356	245	197	235
357	238	195	231
358	0	0	0
359	0	0	0
360	0	0	0
361	0	0	0
362	0	0	0
363	0	0	0
364	231	207	240
365	238	203	246
366	235	191	243
367	244	200	253
368	239	190	247
369	242	191	246
370	247	193	244
371	255	202	249
372	254	197	245
373	250	195	241
374	244	191	235
375	244	196	237
376	239	199	236
377	0	0	0
378	0	0	0
379	0	0	0
380	0	0	0
381	0	0	0
382	0	0	0
383	235	217	242
384	242	213	247
385	238	200	243
386	240	198	247
387	236	189	244
388	242	194	248
389	247	197	248
390	250	195	245
391	247	191	241
392	246	191	240
393	241	188	236
394	243	197	240
395	239	200	237
396	247	219	243
397	0	0	0
398	0	0	0
399	0	0	0
400	0	0	0
401	0	0	0
402	240	223	243
403	247	219	248
404	235	195	238
405	235	192	241
406	235	188	242
407	243	196	248
408	250	201	249
409	248	197	245
410	246	194	242
411	247	196	243
412	242	192	239
413	246	203	243
414	246	207	240
415	255	229	250
416	251	225	241
417	0	0	0
418	0	0	0
419	0	0	0
420	0	0	0
421	245	230	246
422	240	212	241
423	227	187	233
424	231	190	239
425	231	186	238
426	246	199	248
427	251	204	248
428	249	201	243
429	247	199	241
430	246	198	241
431	242	195	239
432	246	205	242
433	247	209	238
434	250	213	236
435	244	210	230
436	0	0	0
437	0	0	0
438	0	0	0
439	0	0	0
440	244	230	244
441	233	208	237
442	229	197	237
443	233	200	245
444	237	198	245
445	255	213	255
446	245	194	241
447	242	190	236
448	248	201	241
449	246	199	240
450	241	195	237
451	245	205	241
452	247	210	237
453	252	214	237
454	243	206	230
455	0	0	0
456	0	0	0
457	0	0	0
458	0	0	0
459	243	230	246
460	239	219	244
461	233	207	242
462	238	209	248
463	243	208	250
464	246	200	248
465	237	182	238
466	247	196	245
467	253	205	246
468	248	201	240
469	243	196	237
470	247	205	241
471	250	211	240
472	248	208	236
473	240	199	229
474	0	0	0
475	0	0	0
476	0	0	0
477	0	0	0
478	247	239	250
479	245	229	249
480	236	210	242
481	242	213	248
482	246	212	250
483	247	202	248
484	244	192	244
485	255	207	255
486	253	202	246
487	247	198	239
488	251	203	243
489	255	214	249
490	250	205	239
491	242	199	233
492	242	204	234
493	0	0	0
494	0	0	0
495	0	0	0
496	0	0	0
497	0	0	0
498	242	228	244
499	235	211	240
500	242	214	247
501	245	212	246
502	246	205	243
503	243	195	241
504	248	198	245
505	246	195	242
506	249	201	243
507	252	206	245
508	252	203	242
509	244	195	235
510	245	202	238
511	245	208	238
512	252	222	245
513	0	0	0
514	0	0	0
515	0	0	0
516	0	0	0
517	0	0	0
518	241	225	246
519	251	229	254
520	242	210	242
521	240	203	238
522	242	200	240
523	247	204	245
524	246	202	245
525	250	208	248
526	249	207	244
527	249	203	241
528	247	200	239
529	251	210	244
530	252	215	244
531	255	230	250
532	253	226	242
533	0	0	0
534	0	0	0
535	0	0	0
536	0	0	0
537	0	0	0
538	243	224	244
539	236	207	237
540	0	0	0
541	242	206	242
542	249	210	247
543	248	207	246
544	246	206	244
545	246	205	242
546	249	207	242
547	248	204	239
548	255	215	245
549	255	219	243
550	252	219	240
551	0	0	0
552	0	0	0
553	0	0	0
554	0	0	0
555	0	0	0
556	0	0	0
557	0	0	0
558	0	0	0
559	0	0	0
560	243	212	244
561	254	218	250
562	247	206	243
563	243	204	240
564	249	213	245
565	254	215	246
566	250	208	240
567	255	219	246
568	248	209	236
569	0	0	0
570	0	0	0
571	0	0	0
572	0	0	0
573	0	0	0
574	0	0	0
575	0	0	0
576	0	0	0
577	0	0	0
578	0	0	0
579	244	217	244
580	250	214	246
581	244	203	239
582	249	213	245
583	255	222	250
584	255	217	245
585	252	211	239
586	249	207	237
587	241	199	233
588	0	0	0
589	0	0	0
590	0	0	0
591	0	0	0
592	0	0	0
593	0	0	0
594	0	0	0
595	0	0	0
596	0	0	0
597	0	0	0
598	246	222	245
599	251	219	246
600	246	207	240
601	255	219	248
602	255	217	247
603	253	212	242
604	251	210	239
605	248	206	237
606	249	210	243
607	255	229	255
608	0	0	0
609	0	0	0
610	0	0	0
611	0	0	0
612	0	0	0
613	0	0	0
614	0	0	0
615	0	0	0
616	0	0	0
617	250	229	245
618	252	222	245
619	248	210	240
620	252	214	245
621	252	213	244
622	253	212	244
623	250	209	241
624	250	212	243
625	251	215	244
626	0	0	0
627	0	0	0
628	0	0	0
629	0	0	0
630	0	0	0
631	0	0	0
632	0	0	0
633	0	0	0
634	0	0	0
635	0	0	0
636	253	231	245
637	254	223	244
638	250	213	240
639	254	216	245
640	253	214	244
641	253	213	244
642	251	212	243
643	0	0	0
644	0	0	0
645	0	0	0
646	0	0	0
647	0	0	0
648	0	0	0
649	0	0	0
650	0	0	0
651	0	0	0
652	0	0	0
653	0	0	0
654	0	0	0
655	0	0	0
656	251	223	242
657	247	212	237
658	251	214	240
659	250	212	239
660	253	216	242
661	251	215	241
662	0	0	0
663	0	0	0
664	0	0	0
665	0	0	0
666	0	0	0
667	0	0	0
668	0	0	0
669	0	0	0
670	0	0	0
671	0	0	0
672	0	0	0
673	0	0	0
674	0	0	0
675	0	0	0
676	250	222	241
677	255	224	245
678	251	216	240
679	254	220	244
680	0	0	0
681	0	0	0
682	0	0	0
683	0	0	0
684	0	0	0
685	0	0	0
686	0	0	0
687	0	0	0
688	0	0	0
689	0	0	0
690	0	0	0
691	0	0	0
692	0	0	0
693	0	0	0
694	0	0	0
695	0	0	0
696	253	226	244
697	0	0	0
698	0	0	0
699	0	0	0
700	0	0	0
701	0	0	0
702	0	0	0
703	0	0	0
