 	R	G	B
1	0	0	0
2	0	0	0
3	0	0	0
4	0	0	0
5	0	0	0
6	0	0	0
7	0	0	0
8	0	0	0
9	0	0	0
10	0	0	0
11	0	0	0
12	0	0	0
13	0	0	0
14	0	0	0
15	0	0	0
16	0	0	0
17	0	0	0
18	0	0	0
19	0	0	0
20	0	0	0
21	0	0	0
22	0	0	0
23	0	0	0
24	0	0	0
25	0	0	0
26	0	0	0
27	0	0	0
28	0	0	0
29	0	0	0
30	0	0	0
31	0	0	0
32	0	0	0
33	0	0	0
34	0	0	0
35	0	0	0
36	246	226	225
37	0	0	0
38	0	0	0
39	0	0	0
40	0	0	0
41	0	0	0
42	0	0	0
43	0	0	0
44	0	0	0
45	0	0	0
46	0	0	0
47	0	0	0
48	0	0	0
49	0	0	0
50	0	0	0
51	0	0	0
52	0	0	0
53	0	0	0
54	0	0	0
55	0	0	0
56	0	0	0
57	0	0	0
58	0	0	0
59	0	0	0
60	0	0	0
61	0	0	0
62	0	0	0
63	0	0	0
64	0	0	0
65	0	0	0
66	0	0	0
67	0	0	0
68	0	0	0
69	0	0	0
70	0	0	0
71	0	0	0
72	0	0	0
73	0	0	0
74	0	0	0
75	0	0	0
76	0	0	0
77	0	0	0
78	0	0	0
79	0	0	0
80	0	0	0
81	0	0	0
82	0	0	0
83	0	0	0
84	246	220	223
85	246	222	224
86	247	224	225
87	0	0	0
88	0	0	0
89	0	0	0
90	0	0	0
91	0	0	0
92	0	0	0
93	0	0	0
94	0	0	0
95	0	0	0
96	0	0	0
97	0	0	0
98	0	0	0
99	0	0	0
100	0	0	0
101	0	0	0
102	0	0	0
103	0	0	0
104	0	0	0
105	0	0	0
106	0	0	0
107	0	0	0
108	0	0	0
109	0	0	0
110	0	0	0
111	0	0	0
112	0	0	0
113	0	0	0
114	0	0	0
115	0	0	0
116	0	0	0
117	244	232	230
118	250	236	234
119	0	0	0
120	0	0	0
121	0	0	0
122	0	0	0
123	0	0	0
124	0	0	0
125	0	0	0
126	0	0	0
127	0	0	0
128	0	0	0
129	0	0	0
130	0	0	0
131	0	0	0
132	0	0	0
133	245	222	224
134	249	226	227
135	245	219	223
136	0	0	0
137	0	0	0
138	0	0	0
139	0	0	0
140	0	0	0
141	0	0	0
142	0	0	0
143	0	0	0
144	0	0	0
145	0	0	0
146	0	0	0
147	0	0	0
148	0	0	0
149	0	0	0
150	0	0	0
151	0	0	0
152	0	0	0
153	0	0	0
154	0	0	0
155	0	0	0
156	0	0	0
157	0	0	0
158	0	0	0
159	0	0	0
160	0	0	0
161	0	0	0
162	0	0	0
163	0	0	0
164	0	0	0
165	243	233	228
166	245	234	231
167	246	230	231
168	241	222	224
169	245	229	227
170	0	0	0
171	0	0	0
172	0	0	0
173	0	0	0
174	0	0	0
175	0	0	0
176	0	0	0
177	0	0	0
178	0	0	0
179	249	226	227
180	250	228	229
181	248	227	228
182	248	226	228
183	247	222	225
184	243	216	221
185	247	222	225
186	249	226	227
187	248	228	227
188	0	0	0
189	0	0	0
190	0	0	0
191	0	0	0
192	0	0	0
193	0	0	0
194	0	0	0
195	0	0	0
196	0	0	0
197	0	0	0
198	0	0	0
199	0	0	0
200	0	0	0
201	0	0	0
202	0	0	0
203	0	0	0
204	0	0	0
205	0	0	0
206	0	0	0
207	0	0	0
208	0	0	0
209	0	0	0
210	0	0	0
211	0	0	0
212	0	0	0
213	0	0	0
214	0	0	0
215	242	229	229
216	242	225	228
217	242	222	225
218	250	232	231
219	249	229	227
220	0	0	0
221	0	0	0
222	0	0	0
223	0	0	0
224	0	0	0
225	0	0	0
226	0	0	0
227	248	221	225
228	252	224	228
229	247	218	224
230	244	216	222
231	249	223	226
232	246	218	222
233	243	214	221
234	248	220	226
235	247	219	223
236	248	221	223
237	253	229	229
238	0	0	0
239	0	0	0
240	0	0	0
241	0	0	0
242	0	0	0
243	0	0	0
244	0	0	0
245	0	0	0
246	0	0	0
247	0	0	0
248	0	0	0
249	0	0	0
250	0	0	0
251	0	0	0
252	0	0	0
253	0	0	0
254	0	0	0
255	0	0	0
256	0	0	0
257	0	0	0
258	0	0	0
259	246	235	231
260	244	231	227
261	249	234	230
262	250	234	231
263	246	231	229
264	245	229	230
265	244	226	229
266	244	224	227
267	246	223	227
268	246	220	224
269	249	224	226
270	253	229	228
271	251	227	225
272	251	227	225
273	0	0	0
274	250	221	224
275	250	220	225
276	250	219	224
277	248	215	223
278	244	209	219
279	245	214	222
280	249	220	223
281	245	215	219
282	244	211	220
283	247	214	224
284	246	213	222
285	249	219	224
286	253	225	227
287	249	219	222
288	244	213	220
289	248	222	226
290	251	229	228
291	246	226	225
292	0	0	0
293	0	0	0
294	0	0	0
295	0	0	0
296	0	0	0
297	0	0	0
298	0	0	0
299	0	0	0
300	0	0	0
301	0	0	0
302	0	0	0
303	0	0	0
304	0	0	0
305	0	0	0
306	0	0	0
307	250	236	230
308	251	233	230
309	249	227	227
310	253	230	229
311	251	227	227
312	248	223	225
313	246	223	226
314	242	219	224
315	244	221	226
316	246	219	225
317	245	216	223
318	247	220	224
319	248	220	221
320	249	219	220
321	251	219	221
322	251	217	221
323	255	220	225
324	255	219	225
325	252	215	223
326	248	210	221
327	248	210	222
328	249	216	224
329	250	219	222
330	246	213	218
331	247	212	221
332	251	216	226
333	249	214	224
334	250	218	226
335	251	220	225
336	250	215	222
337	248	213	221
338	250	220	225
339	249	222	224
340	246	220	222
341	251	226	228
342	0	0	0
343	0	0	0
344	0	0	0
345	0	0	0
346	0	0	0
347	0	0	0
348	0	0	0
349	0	0	0
350	0	0	0
351	0	0	0
352	0	0	0
353	0	0	0
354	0	0	0
355	250	234	230
356	251	232	228
357	251	227	225
358	249	221	223
359	250	220	222
360	249	218	220
361	248	217	220
362	247	217	221
363	244	216	221
364	246	219	223
365	248	217	224
366	246	213	220
367	245	213	220
368	246	214	219
369	248	213	219
370	249	213	220
371	254	216	223
372	255	219	224
373	251	212	220
374	248	208	219
375	251	211	222
376	250	211	223
377	249	213	223
378	250	216	222
379	248	213	219
380	249	212	220
381	251	213	223
382	248	210	221
383	245	210	221
384	247	214	224
385	248	213	223
386	245	209	218
387	243	211	219
388	245	214	221
389	249	219	225
390	252	224	228
391	0	0	0
392	0	0	0
393	0	0	0
394	0	0	0
395	0	0	0
396	0	0	0
397	0	0	0
398	0	0	0
399	0	0	0
400	0	0	0
401	0	0	0
402	0	0	0
403	246	229	228
404	247	228	227
405	247	223	222
406	247	219	219
407	245	213	217
408	244	211	217
409	250	218	221
410	252	219	222
411	246	210	217
412	244	210	217
413	252	220	225
414	253	218	225
415	247	209	219
416	248	210	219
417	252	216	222
418	250	213	220
419	250	211	220
420	255	215	224
421	250	209	219
422	241	200	212
423	248	210	220
424	254	215	225
425	251	210	222
426	250	212	221
427	251	215	221
428	250	212	219
429	251	212	220
430	252	212	221
431	250	213	221
432	245	212	221
433	247	216	225
434	245	214	224
435	242	211	220
436	242	214	221
437	248	220	226
438	255	227	231
439	252	221	226
440	0	0	0
441	0	0	0
442	0	0	0
443	0	0	0
444	0	0	0
445	0	0	0
446	0	0	0
447	0	0	0
448	0	0	0
449	0	0	0
450	0	0	0
451	244	222	221
452	245	224	223
453	242	218	219
454	241	214	217
455	242	210	215
456	240	204	214
457	248	213	221
458	254	219	225
459	249	212	221
460	244	204	215
461	250	212	221
462	255	222	227
463	253	214	221
464	248	205	217
465	253	211	221
466	255	216	222
467	250	211	218
468	251	210	220
469	253	208	222
470	248	203	219
471	249	208	222
472	254	217	227
473	255	214	225
474	252	209	220
475	252	211	220
476	254	215	221
477	255	215	221
478	254	213	220
479	254	214	221
480	251	214	220
481	249	216	221
482	250	219	225
483	248	219	226
484	245	217	225
485	245	219	225
486	250	224	227
487	253	222	225
488	249	217	221
489	248	222	224
490	0	0	0
491	0	0	0
492	0	0	0
493	0	0	0
494	0	0	0
495	0	0	0
496	0	0	0
497	0	0	0
498	0	0	0
499	245	220	222
500	248	222	224
501	244	217	221
502	237	209	214
503	243	217	220
504	245	213	219
505	245	208	218
506	255	218	226
507	253	213	223
508	247	204	217
509	248	206	219
510	255	215	225
511	255	214	222
512	250	205	216
513	246	199	214
514	250	205	217
515	255	214	221
516	254	210	217
517	255	210	220
518	255	208	222
519	251	201	219
520	254	208	224
521	255	211	225
522	253	206	220
523	252	205	218
524	253	209	219
525	254	211	220
526	254	209	219
527	250	205	216
528	247	204	214
529	252	214	219
530	253	218	222
531	248	213	221
532	247	212	222
533	249	217	226
534	246	218	225
535	248	222	225
536	249	219	223
537	249	218	222
538	252	225	227
539	248	222	225
540	0	0	0
541	0	0	0
542	0	0	0
543	0	0	0
544	0	0	0
545	0	0	0
546	0	0	0
547	248	221	225
548	249	219	225
549	248	216	224
550	244	211	221
551	243	214	222
552	248	220	226
553	248	215	222
554	249	210	220
555	253	209	221
556	251	204	216
557	250	205	218
558	252	208	222
559	253	207	221
560	252	205	217
561	248	199	213
562	245	193	212
563	253	205	219
564	255	214	220
565	255	210	216
566	255	209	218
567	254	202	216
568	249	196	213
569	253	201	219
570	254	204	220
571	254	204	220
572	253	203	218
573	253	204	218
574	253	205	218
575	250	202	216
576	246	197	214
577	249	207	219
578	255	216	222
579	250	211	218
580	246	206	219
581	249	212	224
582	249	217	224
583	247	218	224
584	249	222	227
585	249	221	227
586	249	220	225
587	247	217	223
588	243	214	222
589	0	0	0
590	0	0	0
591	0	0	0
592	0	0	0
593	0	0	0
594	0	0	0
595	248	221	226
596	254	222	229
597	250	213	224
598	248	209	222
599	249	212	224
600	249	216	225
601	248	215	224
602	247	209	220
603	252	210	221
604	255	209	221
605	251	200	215
606	251	202	217
607	253	204	221
608	253	203	220
609	253	203	217
610	248	196	212
611	250	198	216
612	255	211	225
613	255	204	216
614	252	199	211
615	254	201	214
616	248	193	210
617	253	201	217
618	255	207	223
619	253	198	218
620	252	198	218
621	254	202	219
622	252	202	218
623	252	203	218
624	248	199	215
625	248	201	218
626	255	212	225
627	255	214	223
628	251	208	218
629	249	208	221
630	247	212	222
631	246	214	221
632	248	218	223
633	250	222	227
634	246	218	225
635	248	221	226
636	247	219	226
637	0	0	0
638	0	0	0
639	0	0	0
640	0	0	0
641	0	0	0
642	0	0	0
643	247	219	223
644	250	219	226
645	249	212	223
646	246	203	218
647	251	210	222
648	253	213	222
649	250	211	221
650	250	211	223
651	251	209	223
652	254	209	222
653	254	203	219
654	249	195	214
655	249	196	216
656	250	199	219
657	250	198	218
658	251	198	215
659	253	200	216
660	255	202	219
661	254	199	218
662	251	193	214
663	252	195	215
664	252	195	215
665	253	199	216
666	255	206	222
667	255	200	219
668	251	192	215
669	254	197	219
670	255	201	219
671	253	200	217
672	253	202	217
673	252	203	218
674	251	205	221
675	252	207	222
676	253	210	222
677	254	211	222
678	251	210	221
679	247	211	220
680	246	214	222
681	249	218	224
682	249	220	224
683	245	219	223
684	247	222	228
685	251	225	231
686	247	224	229
687	0	0	0
688	0	0	0
689	0	0	0
690	253	225	231
691	247	216	224
692	246	212	221
693	249	215	225
694	245	206	220
695	247	205	220
696	255	214	227
697	253	207	220
698	252	206	220
699	252	205	223
700	250	202	222
701	251	202	221
702	248	195	217
703	246	191	215
704	247	193	216
705	251	200	220
706	250	199	218
707	253	202	219
708	255	206	222
709	252	195	215
710	250	190	213
711	255	198	220
712	255	199	222
713	253	194	216
714	254	198	217
715	255	206	223
716	255	199	220
717	249	186	214
718	253	192	218
719	255	200	220
720	255	199	217
721	254	200	217
722	252	201	218
723	249	200	218
724	248	202	219
725	252	209	222
726	254	210	223
727	250	207	218
728	248	209	218
729	248	214	222
730	248	216	223
731	246	218	221
732	241	216	219
733	243	219	225
734	249	223	230
735	245	221	227
736	0	0	0
737	0	0	0
738	249	222	229
739	246	214	224
740	241	205	218
741	245	208	221
742	247	210	224
743	244	206	222
744	246	205	222
745	247	201	220
746	244	195	215
747	245	194	215
748	245	194	217
749	245	193	219
750	246	194	221
751	247	192	221
752	244	188	217
753	250	196	221
754	254	203	223
755	255	204	222
756	255	207	225
757	255	198	219
758	249	187	212
759	254	194	218
760	255	200	222
761	255	197	220
762	253	192	215
763	255	199	219
764	255	207	226
765	255	194	219
766	248	182	214
767	255	192	221
768	255	198	220
769	255	198	216
770	254	198	216
771	252	198	217
772	249	197	217
773	250	202	221
774	253	208	224
775	251	206	220
776	248	203	215
777	249	208	218
778	249	213	222
779	247	214	221
780	245	216	221
781	241	215	220
782	243	217	222
783	247	221	226
784	244	219	223
785	0	0	0
786	0	0	0
787	250	223	230
788	244	214	224
789	245	212	224
790	252	216	229
791	250	213	226
792	245	208	223
793	247	210	225
794	246	205	222
795	246	203	222
796	248	203	223
797	248	201	223
798	250	202	226
799	251	200	227
800	251	198	227
801	249	193	223
802	255	202	228
803	255	201	224
804	255	202	223
805	255	196	221
806	249	185	213
807	252	189	215
808	255	196	220
809	255	196	221
810	255	192	218
811	253	188	214
812	255	195	219
813	255	191	217
814	246	178	210
815	252	186	218
816	255	196	224
817	255	193	218
818	253	192	215
819	255	197	218
820	254	197	218
821	252	198	219
822	253	203	222
823	254	207	223
824	249	203	218
825	250	207	219
826	255	214	224
827	249	210	220
828	242	209	218
829	251	224	227
830	252	226	228
831	246	217	223
832	246	218	224
833	245	219	224
834	0	0	0
835	245	223	228
836	245	220	226
837	245	217	224
838	247	216	225
839	250	215	227
840	248	211	225
841	246	211	224
842	248	214	226
843	251	213	227
844	252	212	228
845	252	210	228
846	252	208	227
847	252	205	226
848	252	203	226
849	251	199	224
850	250	194	224
851	254	196	225
852	253	194	220
853	248	186	214
854	246	181	214
855	251	186	217
856	252	189	214
857	253	189	214
858	255	190	219
859	253	187	217
860	250	182	212
861	248	178	209
862	245	173	208
863	251	182	215
864	255	189	218
865	254	188	216
866	251	187	215
867	252	189	216
868	254	194	220
869	254	196	220
870	252	196	219
871	253	200	221
872	253	204	221
873	250	205	220
874	253	210	224
875	253	210	224
876	246	205	218
877	245	215	221
878	253	230	230
879	248	221	224
880	242	211	220
881	242	215	223
882	0	0	0
883	242	227	228
884	241	224	226
885	241	220	224
886	244	219	224
887	246	218	226
888	249	217	226
889	248	215	225
890	247	215	225
891	248	213	224
892	254	214	227
893	253	209	226
894	252	206	225
895	249	202	223
896	247	199	221
897	252	204	224
898	251	200	223
899	250	196	224
900	254	197	225
901	255	200	224
902	253	193	219
903	254	192	222
904	255	198	225
905	254	190	216
906	255	190	217
907	254	187	219
908	252	184	218
909	254	186	218
910	252	182	215
911	250	178	215
912	255	187	221
913	252	183	215
914	250	182	213
915	252	187	217
916	252	190	219
917	255	199	225
918	255	200	224
919	250	194	219
920	252	199	221
921	251	203	221
922	249	205	220
923	253	212	226
924	253	211	225
925	249	210	222
926	248	220	225
927	249	226	227
928	241	215	220
929	240	216	222
930	0	0	0
931	0	0	0
932	0	0	0
933	239	224	226
934	238	220	222
935	242	220	224
936	246	221	226
937	250	221	228
938	250	218	227
939	247	214	224
940	248	212	224
941	251	209	224
942	249	202	220
943	245	198	218
944	243	195	217
945	247	200	222
946	251	205	224
947	246	198	220
948	246	194	221
949	254	200	226
950	255	203	225
951	255	200	221
952	255	198	221
953	255	194	220
954	253	188	217
955	252	186	217
956	250	181	216
957	252	183	219
958	255	186	222
959	252	182	219
960	249	178	215
961	247	176	213
962	244	173	210
963	248	180	214
964	250	185	217
965	254	194	222
966	255	202	226
967	252	196	221
968	247	191	217
969	249	197	220
970	249	201	222
971	248	205	222
972	250	210	224
973	252	213	224
974	247	213	222
975	241	214	221
976	0	0	0
977	0	0	0
978	0	0	0
979	0	0	0
980	0	0	0
981	0	0	0
982	0	0	0
983	241	227	227
984	245	227	227
985	247	224	227
986	254	225	231
987	251	217	226
988	248	213	223
989	253	217	228
990	253	212	226
991	247	204	221
992	242	199	218
993	245	202	222
994	252	209	228
995	248	205	223
996	239	195	216
997	248	203	225
998	255	212	232
999	255	200	222
1000	252	196	217
1001	255	198	220
1002	255	195	220
1003	254	191	220
1004	254	188	221
1005	250	183	217
1006	253	185	220
1007	255	191	226
1008	254	187	223
1009	252	185	219
1010	249	183	217
1011	252	188	221
1012	255	196	226
1013	253	190	221
1014	255	199	226
1015	254	197	222
1016	247	190	217
1017	252	200	224
1018	254	206	228
1019	251	207	227
1020	248	209	226
1021	247	212	225
1022	248	214	224
1023	244	215	222
1024	0	0	0
1025	0	0	0
1026	0	0	0
1027	0	0	0
1028	0	0	0
1029	0	0	0
1030	0	0	0
1031	0	0	0
1032	244	234	232
1033	243	228	227
1034	245	224	226
1035	247	219	225
1036	244	211	222
1037	244	212	222
1038	247	216	224
1039	245	208	220
1040	240	200	219
1041	240	203	222
1042	243	206	224
1043	244	205	223
1044	241	200	218
1045	241	203	220
1046	248	211	226
1047	248	203	222
1048	244	191	214
1049	249	195	218
1050	253	199	222
1051	252	194	220
1052	251	189	218
1053	251	186	218
1054	248	181	215
1055	253	188	220
1056	255	193	225
1057	255	192	223
1058	253	191	220
1059	255	196	223
1060	255	201	227
1061	255	197	224
1062	251	191	219
1063	249	190	218
1064	246	188	216
1065	252	199	224
1066	255	208	231
1067	254	209	230
1068	250	209	227
1069	246	210	225
1070	245	213	226
1071	246	217	226
1072	242	217	221
1073	0	0	0
1074	0	0	0
1075	0	0	0
1076	0	0	0
1077	0	0	0
1078	0	0	0
1079	0	0	0
1080	0	0	0
1081	0	0	0
1082	238	225	225
1083	243	227	228
1084	0	0	0
1085	0	0	0
1086	0	0	0
1087	0	0	0
1088	0	0	0
1089	0	0	0
1090	0	0	0
1091	0	0	0
1092	0	0	0
1093	241	209	221
1094	246	215	226
1095	246	213	224
1096	238	200	216
1097	243	201	218
1098	255	210	227
1099	254	203	224
1100	249	196	220
1101	251	196	221
1102	254	194	222
1103	253	190	219
1104	255	196	224
1105	254	193	222
1106	251	191	220
1107	254	196	222
1108	255	202	226
1109	253	195	221
1110	251	191	219
1111	251	194	220
1112	246	191	217
1113	252	202	224
1114	255	215	234
1115	249	200	224
1116	242	198	220
1117	249	215	228
1118	247	217	227
1119	244	216	226
1120	244	219	226
1121	240	220	222
1122	0	0	0
1123	0	0	0
1124	0	0	0
1125	0	0	0
1126	0	0	0
1127	0	0	0
1128	0	0	0
1129	0	0	0
1130	0	0	0
1131	0	0	0
1132	0	0	0
1133	0	0	0
1134	0	0	0
1135	0	0	0
1136	0	0	0
1137	0	0	0
1138	0	0	0
1139	0	0	0
1140	0	0	0
1141	0	0	0
1142	0	0	0
1143	249	220	227
1144	249	218	226
1145	246	215	224
1146	250	215	227
1147	254	212	227
1148	252	205	223
1149	252	203	223
1150	254	203	225
1151	255	200	224
1152	253	195	220
1153	251	193	218
1154	248	190	217
1155	251	195	220
1156	254	200	222
1157	251	195	219
1158	247	188	218
1159	250	193	221
1160	250	196	221
1161	253	204	223
1162	255	213	227
1163	248	201	219
1164	0	0	0
1165	245	205	223
1166	252	222	229
1167	244	218	223
1168	241	217	223
1169	243	222	226
1170	0	0	0
1171	0	0	0
1172	0	0	0
1173	0	0	0
1174	0	0	0
1175	0	0	0
1176	0	0	0
1177	0	0	0
1178	0	0	0
1179	0	0	0
1180	0	0	0
1181	0	0	0
1182	0	0	0
1183	0	0	0
1184	0	0	0
1185	0	0	0
1186	0	0	0
1187	0	0	0
1188	0	0	0
1189	0	0	0
1190	0	0	0
1191	250	218	224
1192	249	216	223
1193	253	220	227
1194	252	218	226
1195	251	214	226
1196	250	207	223
1197	252	207	224
1198	254	207	225
1199	252	202	223
1200	249	197	219
1201	253	203	221
1202	248	199	218
1203	248	199	219
1204	255	207	226
1205	254	204	223
1206	251	198	220
1207	248	194	220
1208	248	198	222
1209	253	207	226
1210	255	218	231
1211	253	210	222
1212	0	0	0
1213	0	0	0
1214	0	0	0
1215	252	222	227
1216	0	0	0
1217	0	0	0
1218	0	0	0
1219	0	0	0
1220	0	0	0
1221	0	0	0
1222	0	0	0
1223	0	0	0
1224	0	0	0
1225	0	0	0
1226	0	0	0
1227	0	0	0
1228	0	0	0
1229	0	0	0
1230	0	0	0
1231	0	0	0
1232	0	0	0
1233	0	0	0
1234	0	0	0
1235	0	0	0
1236	0	0	0
1237	0	0	0
1238	0	0	0
1239	0	0	0
1240	0	0	0
1241	245	214	221
1242	249	218	224
1243	248	214	223
1244	248	210	224
1245	250	210	226
1246	251	209	227
1247	248	203	224
1248	245	197	220
1249	250	204	222
1250	0	0	0
1251	0	0	0
1252	248	207	221
1253	249	206	223
1254	249	204	222
1255	250	203	222
1256	246	198	218
1257	250	207	224
1258	255	216	228
1259	254	213	225
1260	247	206	219
1261	0	0	0
1262	0	0	0
1263	0	0	0
1264	0	0	0
1265	0	0	0
1266	0	0	0
1267	0	0	0
1268	0	0	0
1269	0	0	0
1270	0	0	0
1271	0	0	0
1272	0	0	0
1273	0	0	0
1274	0	0	0
1275	0	0	0
1276	0	0	0
1277	0	0	0
1278	0	0	0
1279	0	0	0
1280	0	0	0
1281	0	0	0
1282	0	0	0
1283	0	0	0
1284	0	0	0
1285	0	0	0
1286	0	0	0
1287	0	0	0
1288	0	0	0
1289	0	0	0
1290	0	0	0
1291	245	222	226
1292	247	219	227
1293	246	213	227
1294	249	213	229
1295	249	213	229
1296	243	205	222
1297	246	210	225
1298	252	217	228
1299	0	0	0
1300	0	0	0
1301	0	0	0
1302	0	0	0
1303	249	212	226
1304	251	212	226
1305	245	202	218
1306	251	213	225
1307	252	216	227
1308	246	209	222
1309	241	204	219
1310	0	0	0
1311	0	0	0
1312	0	0	0
1313	0	0	0
1314	0	0	0
1315	0	0	0
1316	0	0	0
1317	0	0	0
1318	0	0	0
1319	0	0	0
1320	0	0	0
1321	0	0	0
1322	0	0	0
1323	0	0	0
1324	0	0	0
1325	0	0	0
1326	0	0	0
1327	0	0	0
1328	0	0	0
1329	0	0	0
1330	0	0	0
1331	0	0	0
1332	0	0	0
1333	0	0	0
1334	0	0	0
1335	0	0	0
1336	0	0	0
1337	0	0	0
1338	0	0	0
1339	0	0	0
1340	0	0	0
1341	242	220	227
1342	240	213	227
1343	246	216	230
1344	246	215	227
1345	246	218	227
1346	249	223	231
1347	0	0	0
1348	0	0	0
1349	0	0	0
1350	0	0	0
1351	0	0	0
1352	0	0	0
1353	247	213	226
1354	242	205	219
1355	249	212	225
1356	249	215	226
1357	242	209	222
1358	0	0	0
1359	0	0	0
1360	0	0	0
1361	0	0	0
1362	0	0	0
1363	0	0	0
1364	0	0	0
1365	0	0	0
1366	0	0	0
1367	0	0	0
1368	0	0	0
1369	0	0	0
1370	0	0	0
1371	0	0	0
1372	0	0	0
1373	0	0	0
1374	0	0	0
1375	0	0	0
1376	0	0	0
1377	0	0	0
1378	0	0	0
1379	0	0	0
1380	0	0	0
1381	0	0	0
1382	0	0	0
1383	0	0	0
1384	0	0	0
1385	0	0	0
1386	0	0	0
1387	0	0	0
1388	0	0	0
1389	0	0	0
1390	0	0	0
1391	241	224	231
1392	247	228	235
1393	241	217	224
1394	0	0	0
1395	0	0	0
1396	0	0	0
1397	0	0	0
1398	0	0	0
1399	0	0	0
1400	0	0	0
1401	0	0	0
1402	0	0	0
1403	246	217	226
1404	255	226	233
1405	248	216	225
1406	0	0	0
1407	0	0	0
1408	0	0	0
1409	0	0	0
1410	0	0	0
1411	0	0	0
1412	0	0	0
1413	0	0	0
1414	0	0	0
1415	0	0	0
1416	0	0	0
1417	0	0	0
1418	0	0	0
1419	0	0	0
1420	0	0	0
1421	0	0	0
1422	0	0	0
1423	0	0	0
1424	0	0	0
1425	0	0	0
1426	0	0	0
1427	0	0	0
1428	0	0	0
1429	0	0	0
1430	0	0	0
1431	0	0	0
1432	0	0	0
1433	0	0	0
1434	0	0	0
1435	0	0	0
1436	0	0	0
1437	0	0	0
1438	0	0	0
1439	0	0	0
1440	0	0	0
1441	243	229	230
1442	0	0	0
1443	0	0	0
1444	0	0	0
1445	0	0	0
1446	0	0	0
1447	0	0	0
1448	0	0	0
1449	0	0	0
1450	0	0	0
1451	0	0	0
1452	0	0	0
1453	250	224	228
1454	0	0	0
1455	0	0	0
1456	0	0	0
1457	0	0	0
1458	0	0	0
1459	0	0	0
1460	0	0	0
1461	0	0	0
1462	0	0	0
1463	0	0	0
1464	0	0	0
1465	0	0	0
1466	0	0	0
1467	0	0	0
1468	0	0	0
1469	0	0	0
1470	0	0	0
