 	R	G	B
1	0	0	0
2	0	0	0
3	0	0	0
4	0	0	0
5	0	0	0
6	0	0	0
7	0	0	0
8	0	0	0
9	0	0	0
10	0	0	0
11	0	0	0
12	0	0	0
13	0	0	0
14	0	0	0
15	0	0	0
16	0	0	0
17	250	226	220
18	248	219	216
19	246	214	216
20	242	208	216
21	247	215	224
22	247	216	223
23	245	217	224
24	0	0	0
25	0	0	0
26	0	0	0
27	0	0	0
28	0	0	0
29	0	0	0
30	0	0	0
31	0	0	0
32	0	0	0
33	0	0	0
34	0	0	0
35	0	0	0
36	0	0	0
37	0	0	0
38	0	0	0
39	0	0	0
40	0	0	0
41	0	0	0
42	0	0	0
43	0	0	0
44	248	222	219
45	252	219	218
46	247	207	212
47	245	203	212
48	247	203	216
49	254	210	225
50	248	202	220
51	246	203	221
52	244	207	223
53	0	0	0
54	0	0	0
55	0	0	0
56	0	0	0
57	0	0	0
58	0	0	0
59	0	0	0
60	0	0	0
61	0	0	0
62	0	0	0
63	0	0	0
64	0	0	0
65	0	0	0
66	0	0	0
67	0	0	0
68	0	0	0
69	0	0	0
70	0	0	0
71	252	227	225
72	251	218	220
73	250	208	215
74	245	196	211
75	245	195	212
76	245	192	212
77	244	189	212
78	238	181	210
79	240	188	216
80	235	191	217
81	0	0	0
82	0	0	0
83	0	0	0
84	0	0	0
85	0	0	0
86	0	0	0
87	0	0	0
88	0	0	0
89	0	0	0
90	0	0	0
91	0	0	0
92	0	0	0
93	0	0	0
94	239	218	215
95	243	225	219
96	243	223	215
97	244	221	214
98	254	225	222
99	255	219	222
100	251	204	214
101	242	190	207
102	248	196	214
103	249	196	216
104	247	193	215
105	244	187	214
106	240	186	216
107	239	192	220
108	237	200	222
109	0	0	0
110	0	0	0
111	0	0	0
112	0	0	0
113	0	0	0
114	0	0	0
115	0	0	0
116	0	0	0
117	0	0	0
118	0	0	0
119	243	221	217
120	240	212	212
121	243	216	216
122	244	216	217
123	246	216	218
124	248	216	217
125	251	216	218
126	255	219	222
127	253	203	213
128	246	188	206
129	248	192	211
130	252	197	216
131	250	194	216
132	247	190	216
133	243	189	217
134	238	187	217
135	242	200	224
136	239	206	223
137	0	0	0
138	0	0	0
139	0	0	0
140	0	0	0
141	0	0	0
142	0	0	0
143	0	0	0
144	0	0	0
145	0	0	0
146	246	226	221
147	252	224	223
148	241	202	209
149	244	206	213
150	249	210	217
151	255	212	221
152	253	204	216
153	254	202	216
154	255	202	216
155	243	183	204
156	247	188	210
157	253	193	216
158	253	193	216
159	250	189	215
160	242	184	214
161	233	179	211
162	242	199	223
163	251	214	231
164	237	204	219
165	0	0	0
166	0	0	0
167	0	0	0
168	0	0	0
169	0	0	0
170	0	0	0
171	0	0	0
172	0	0	0
173	243	223	218
174	252	228	224
175	251	213	218
176	240	191	204
177	245	196	210
178	251	200	215
179	251	194	213
180	247	185	208
181	247	184	208
182	247	183	209
183	244	182	209
184	248	186	214
185	251	187	216
186	249	185	214
187	245	183	214
188	237	178	213
189	242	195	223
190	249	212	229
191	244	208	223
192	233	200	214
193	0	0	0
194	0	0	0
195	0	0	0
196	0	0	0
197	0	0	0
198	0	0	0
199	0	0	0
200	243	221	219
201	250	224	222
202	251	214	219
203	248	199	212
204	244	186	206
205	249	191	212
206	253	195	216
207	250	187	213
208	245	178	209
209	242	176	208
210	248	186	215
211	248	186	216
212	252	191	220
213	252	190	220
214	245	183	214
215	238	178	212
216	240	186	219
217	249	206	230
218	242	203	222
219	232	196	212
220	235	206	217
221	244	223	227
222	0	0	0
223	0	0	0
224	0	0	0
225	0	0	0
226	0	0	0
227	0	0	0
228	247	220	221
229	245	209	216
230	245	198	212
231	247	190	211
232	243	178	206
233	248	183	212
234	250	185	215
235	246	177	211
236	240	169	208
237	246	179	215
238	251	188	220
239	250	189	220
240	253	193	222
241	248	186	217
242	242	179	213
243	245	189	220
244	245	195	222
245	243	196	221
246	237	196	217
247	238	204	220
248	241	214	221
249	243	220	223
250	243	225	225
251	0	0	0
252	0	0	0
253	0	0	0
254	0	0	0
255	244	217	221
256	251	217	223
257	247	204	216
258	247	195	214
259	248	187	213
260	250	183	214
261	255	187	220
262	248	178	214
263	242	170	210
264	249	180	218
265	255	190	226
266	250	184	219
267	248	185	218
268	251	191	220
269	245	183	214
270	249	190	220
271	255	201	228
272	246	193	220
273	241	193	217
274	245	205	224
275	249	216	228
276	243	214	221
277	240	217	219
278	239	221	220
279	0	0	0
280	0	0	0
281	0	0	0
282	0	0	0
283	242	209	219
284	248	208	219
285	244	196	212
286	242	187	210
287	245	184	212
288	245	178	212
289	244	173	212
290	238	165	208
291	246	176	215
292	252	185	219
293	250	182	217
294	244	176	213
295	245	181	216
296	247	187	218
297	251	193	221
298	254	199	223
299	252	197	222
300	244	190	217
301	248	203	223
302	251	213	228
303	249	215	225
304	243	213	218
305	238	215	216
306	237	219	219
307	0	0	0
308	0	0	0
309	0	0	0
310	240	217	223
311	250	219	227
312	247	206	219
313	242	194	212
314	244	191	214
315	244	186	214
316	247	188	218
317	246	182	217
318	242	176	215
319	252	188	223
320	252	187	219
321	250	184	217
322	243	177	213
323	242	181	215
324	252	197	223
325	255	203	226
326	249	193	217
327	246	190	214
328	245	192	216
329	249	205	224
330	244	204	220
331	242	205	217
332	239	209	216
333	235	211	215
334	234	215	217
335	0	0	0
336	0	0	0
337	235	218	219
338	241	221	221
339	239	209	216
340	236	197	213
341	237	193	214
342	238	190	215
343	241	191	216
344	243	191	218
345	242	186	216
346	239	180	215
347	246	186	220
348	248	186	217
349	249	184	217
350	243	178	214
351	250	194	224
352	255	208	227
353	252	198	218
354	245	189	213
355	248	194	217
356	247	196	217
357	245	198	217
358	241	198	215
359	244	206	218
360	242	210	219
361	238	213	218
362	235	216	219
363	0	0	0
364	0	0	0
365	0	0	0
366	237	222	221
367	233	208	214
368	237	207	218
369	237	203	219
370	239	203	221
371	242	203	222
372	240	198	218
373	238	193	216
374	243	194	220
375	252	201	226
376	247	189	217
377	250	188	218
378	248	185	217
379	255	201	227
380	249	194	216
381	241	184	208
382	244	188	213
383	248	195	218
384	243	191	213
385	243	195	214
386	242	196	215
387	247	204	220
388	242	203	217
389	237	204	216
390	235	211	218
391	0	0	0
392	0	0	0
393	0	0	0
394	0	0	0
395	236	219	222
396	0	0	0
397	241	216	224
398	242	215	225
399	239	210	221
400	238	205	218
401	242	207	220
402	246	207	222
403	242	197	216
404	239	186	211
405	248	190	216
406	246	186	212
407	243	184	210
408	238	180	207
409	242	185	211
410	245	190	215
411	246	191	216
412	242	188	213
413	241	191	213
414	240	192	215
415	242	195	216
416	238	194	215
417	239	202	218
418	237	208	219
419	236	215	221
420	0	0	0
421	0	0	0
422	0	0	0
423	0	0	0
424	0	0	0
425	0	0	0
426	243	221	225
427	236	213	219
428	238	213	221
429	246	216	225
430	242	207	217
431	233	193	208
432	240	196	213
433	252	203	220
434	247	191	212
435	246	191	212
436	243	187	211
437	247	193	217
438	243	187	214
439	247	190	217
440	238	180	210
441	233	181	209
442	234	186	213
443	236	189	215
444	238	193	217
445	242	203	222
446	239	205	220
447	239	212	221
448	238	218	222
449	0	0	0
450	0	0	0
451	0	0	0
452	0	0	0
453	0	0	0
454	0	0	0
455	235	220	221
456	238	221	225
457	241	216	223
458	238	206	214
459	240	207	214
460	245	209	218
461	249	205	217
462	246	195	212
463	246	194	212
464	244	190	211
465	243	187	212
466	241	182	212
467	243	182	215
468	234	173	209
469	235	180	214
470	235	185	216
471	237	189	218
472	239	193	220
473	242	199	222
474	239	201	219
475	236	205	218
476	0	0	0
477	0	0	0
478	0	0	0
479	0	0	0
480	0	0	0
481	0	0	0
482	0	0	0
483	0	0	0
484	239	229	228
485	241	223	226
486	239	213	217
487	247	217	221
488	242	205	214
489	240	197	211
490	239	191	208
491	243	192	210
492	246	192	213
493	249	191	216
494	240	177	211
495	237	174	213
496	229	164	208
497	236	175	217
498	237	179	218
499	233	181	216
500	235	187	219
501	240	194	222
502	235	193	216
503	230	197	214
504	0	0	0
505	0	0	0
506	0	0	0
507	0	0	0
508	0	0	0
509	0	0	0
510	0	0	0
511	0	0	0
512	0	0	0
513	241	229	226
514	240	219	221
515	240	210	218
516	235	198	211
517	235	194	209
518	234	188	206
519	244	192	212
520	249	193	216
521	245	182	214
522	236	167	209
523	231	162	210
524	225	153	207
525	236	167	219
526	237	172	218
527	236	178	219
528	238	184	222
529	241	190	224
530	235	189	217
531	238	206	223
532	0	0	0
533	0	0	0
534	0	0	0
535	0	0	0
536	0	0	0
537	0	0	0
538	0	0	0
539	0	0	0
540	0	0	0
541	0	0	0
542	240	224	223
543	238	215	219
544	238	208	217
545	239	205	216
546	237	194	210
547	252	201	219
548	249	189	215
549	242	176	211
550	241	171	214
551	239	168	216
552	241	169	221
553	252	184	232
554	242	171	220
555	244	179	224
556	238	176	221
557	238	179	220
558	235	185	218
559	237	201	222
560	0	0	0
561	0	0	0
562	0	0	0
563	0	0	0
564	0	0	0
565	0	0	0
566	0	0	0
567	0	0	0
568	0	0	0
569	0	0	0
570	245	234	226
571	242	225	221
572	243	219	220
573	241	209	216
574	242	200	213
575	248	193	213
576	245	181	208
577	247	179	212
578	247	176	216
579	252	180	223
580	253	180	224
581	250	175	222
582	240	164	214
583	238	165	215
584	231	161	213
585	237	175	220
586	234	181	220
587	238	198	224
588	241	215	227
589	0	0	0
590	0	0	0
591	0	0	0
592	0	0	0
593	0	0	0
594	0	0	0
595	0	0	0
596	0	0	0
597	0	0	0
598	242	230	223
599	238	221	216
600	241	216	217
601	245	210	216
602	246	199	214
603	247	190	211
604	248	183	209
605	254	183	214
606	250	173	213
607	255	178	220
608	251	171	215
609	246	165	213
610	240	161	212
611	235	161	213
612	231	162	215
613	238	176	223
614	239	185	225
615	247	204	232
616	242	210	226
617	0	0	0
618	0	0	0
619	0	0	0
620	0	0	0
621	0	0	0
622	0	0	0
623	0	0	0
624	0	0	0
625	0	0	0
626	0	0	0
627	235	218	215
628	238	214	215
629	240	204	213
630	241	194	211
631	244	188	211
632	246	182	208
633	249	176	207
634	247	165	204
635	250	166	209
636	247	161	208
637	247	162	211
638	241	159	211
639	240	164	217
640	237	165	219
641	244	180	228
642	243	188	228
643	241	195	225
644	235	200	219
645	0	0	0
646	0	0	0
647	0	0	0
648	0	0	0
649	0	0	0
650	0	0	0
651	0	0	0
652	0	0	0
653	0	0	0
654	0	0	0
655	0	0	0
656	241	221	220
657	239	209	215
658	239	198	213
659	244	194	214
660	249	190	213
661	254	185	213
662	250	170	207
663	255	172	213
664	246	157	206
665	247	159	210
666	246	160	214
667	249	168	222
668	240	160	218
669	244	174	225
670	242	183	225
671	233	186	218
672	234	202	220
673	0	0	0
674	0	0	0
675	0	0	0
676	0	0	0
677	0	0	0
678	0	0	0
679	0	0	0
680	0	0	0
681	0	0	0
682	0	0	0
683	0	0	0
684	0	0	0
685	237	212	216
686	238	201	213
687	247	200	217
688	254	198	219
689	255	188	216
690	253	174	211
691	253	167	212
692	245	153	207
693	251	160	215
694	251	162	217
695	249	162	218
696	239	154	213
697	244	170	222
698	241	179	221
699	238	192	223
700	240	208	226
701	0	0	0
702	0	0	0
703	0	0	0
704	0	0	0
705	0	0	0
706	0	0	0
707	0	0	0
708	0	0	0
709	0	0	0
710	0	0	0
711	0	0	0
712	0	0	0
713	239	218	219
714	243	211	218
715	254	211	223
716	255	198	219
717	255	188	217
718	250	168	210
719	250	162	211
720	248	154	211
721	255	163	221
722	247	151	214
723	243	150	213
724	238	150	212
725	242	166	219
726	239	175	220
727	242	191	224
728	240	204	225
729	0	0	0
730	0	0	0
731	0	0	0
732	0	0	0
733	0	0	0
734	0	0	0
735	0	0	0
736	0	0	0
737	0	0	0
738	0	0	0
739	0	0	0
740	0	0	0
741	243	227	223
742	246	219	222
743	249	206	218
744	250	193	213
745	249	178	209
746	244	160	205
747	250	160	213
748	249	153	211
749	251	151	215
750	243	140	210
751	245	148	217
752	239	148	213
753	242	163	220
754	239	172	220
755	241	187	223
756	239	199	223
757	0	0	0
758	0	0	0
759	0	0	0
760	0	0	0
761	0	0	0
762	0	0	0
763	0	0	0
764	0	0	0
765	0	0	0
766	0	0	0
767	0	0	0
768	0	0	0
769	234	217	214
770	245	222	222
771	246	209	217
772	251	199	215
773	253	186	212
774	252	171	212
775	255	172	220
776	248	150	211
777	251	149	216
778	245	141	213
779	248	149	220
780	245	153	219
781	249	168	226
782	242	172	222
783	240	184	223
784	242	201	225
785	0	0	0
786	0	0	0
787	0	0	0
788	0	0	0
789	0	0	0
790	0	0	0
791	0	0	0
792	0	0	0
793	0	0	0
794	0	0	0
795	0	0	0
796	0	0	0
797	0	0	0
798	247	228	225
799	249	216	220
800	255	206	218
801	255	193	214
802	255	177	210
803	253	164	210
804	244	144	207
805	251	147	216
806	243	138	211
807	249	150	220
808	246	154	221
809	246	164	224
810	240	168	220
811	240	184	223
812	242	201	225
813	0	0	0
814	0	0	0
815	0	0	0
816	0	0	0
817	0	0	0
818	0	0	0
819	0	0	0
820	0	0	0
821	0	0	0
822	0	0	0
823	0	0	0
824	0	0	0
825	0	0	0
826	245	227	223
827	250	216	220
828	255	207	218
829	255	193	213
830	252	172	206
831	250	160	207
832	246	146	209
833	251	149	218
834	239	134	209
835	244	146	218
836	238	146	218
837	240	157	221
838	244	174	225
839	247	192	229
840	241	198	223
841	0	0	0
842	0	0	0
843	0	0	0
844	0	0	0
845	0	0	0
846	0	0	0
847	0	0	0
848	0	0	0
849	0	0	0
850	0	0	0
851	0	0	0
852	0	0	0
853	236	227	218
854	243	227	221
855	246	214	217
856	252	205	215
857	250	185	209
858	247	167	206
859	250	160	210
860	245	145	208
861	246	142	213
862	234	128	207
863	237	138	216
864	232	139	216
865	242	163	227
866	245	179	229
867	242	187	225
868	236	193	219
869	0	0	0
870	0	0	0
871	0	0	0
872	0	0	0
873	0	0	0
874	0	0	0
875	0	0	0
876	0	0	0
877	0	0	0
878	0	0	0
879	0	0	0
880	0	0	0
881	235	226	217
882	245	232	224
883	244	217	217
884	251	211	218
885	252	194	214
886	251	176	212
887	255	169	217
888	247	150	211
889	250	149	217
890	241	138	215
891	244	148	224
892	241	153	225
893	248	175	236
894	237	172	225
895	234	180	221
896	238	201	224
897	0	0	0
898	0	0	0
899	0	0	0
900	0	0	0
901	0	0	0
902	0	0	0
903	0	0	0
904	0	0	0
905	0	0	0
906	0	0	0
907	0	0	0
908	0	0	0
909	0	0	0
910	249	240	229
911	243	223	219
912	251	218	221
913	254	201	218
914	253	182	214
915	254	171	216
916	247	154	212
917	252	155	220
918	244	144	217
919	249	158	227
920	244	162	226
921	238	165	224
922	227	163	220
923	234	186	228
924	238	206	229
925	0	0	0
926	0	0	0
927	0	0	0
928	0	0	0
929	0	0	0
930	0	0	0
931	0	0	0
932	0	0	0
933	0	0	0
934	0	0	0
935	0	0	0
936	0	0	0
937	0	0	0
938	0	0	0
939	231	215	211
940	246	220	221
941	253	204	220
942	251	184	213
943	250	171	214
944	242	151	210
945	248	153	219
946	240	143	215
947	246	157	225
948	240	159	222
949	234	162	221
950	230	172	226
951	233	193	231
952	0	0	0
953	0	0	0
954	0	0	0
955	0	0	0
956	0	0	0
957	0	0	0
958	0	0	0
959	0	0	0
960	0	0	0
961	0	0	0
962	0	0	0
963	0	0	0
964	0	0	0
965	0	0	0
966	0	0	0
967	0	0	0
968	246	224	225
969	249	204	220
970	247	183	212
971	245	169	212
972	238	150	211
973	245	154	222
974	237	144	218
975	242	155	227
976	236	157	224
977	235	170	227
978	230	178	227
979	232	199	231
980	0	0	0
981	0	0	0
982	0	0	0
983	0	0	0
984	0	0	0
985	0	0	0
986	0	0	0
987	0	0	0
988	0	0	0
989	0	0	0
990	0	0	0
991	0	0	0
992	0	0	0
993	0	0	0
994	0	0	0
995	0	0	0
996	242	224	225
997	240	201	216
998	247	192	217
999	249	180	220
1000	236	152	213
1001	242	155	223
1002	241	153	225
1003	246	165	233
1004	232	158	224
1005	226	168	224
1006	231	191	230
1007	0	0	0
1008	0	0	0
1009	0	0	0
1010	0	0	0
1011	0	0	0
1012	0	0	0
1013	0	0	0
1014	0	0	0
1015	0	0	0
1016	0	0	0
1017	0	0	0
1018	0	0	0
1019	0	0	0
1020	0	0	0
1021	0	0	0
1022	0	0	0
1023	0	0	0
1024	240	224	225
1025	239	208	220
1026	244	198	220
1027	237	175	213
1028	225	146	206
1029	238	158	222
1030	236	156	221
1031	236	160	224
1032	222	153	216
1033	227	179	227
1034	233	202	230
1035	0	0	0
1036	0	0	0
1037	0	0	0
1038	0	0	0
1039	0	0	0
1040	0	0	0
1041	0	0	0
1042	0	0	0
1043	0	0	0
1044	0	0	0
1045	0	0	0
1046	0	0	0
1047	0	0	0
1048	0	0	0
1049	0	0	0
1050	0	0	0
1051	0	0	0
1052	241	228	227
1053	233	208	218
1054	240	206	222
1055	231	181	214
1056	224	160	210
1057	238	173	227
1058	230	162	221
1059	229	166	223
1060	222	166	220
1061	232	195	233
1062	233	209	230
1063	0	0	0
1064	0	0	0
1065	0	0	0
1066	0	0	0
1067	0	0	0
1068	0	0	0
1069	0	0	0
1070	0	0	0
1071	0	0	0
1072	0	0	0
1073	0	0	0
1074	0	0	0
1075	0	0	0
1076	0	0	0
1077	0	0	0
1078	0	0	0
1079	0	0	0
1080	0	0	0
1081	237	220	223
1082	240	216	225
1083	231	194	217
1084	223	173	213
1085	233	178	225
1086	227	168	223
1087	230	179	230
1088	223	179	223
1089	230	199	230
1090	0	0	0
1091	0	0	0
1092	0	0	0
1093	0	0	0
1094	0	0	0
1095	0	0	0
1096	0	0	0
1097	0	0	0
1098	0	0	0
1099	0	0	0
1100	0	0	0
1101	0	0	0
1102	0	0	0
1103	0	0	0
1104	0	0	0
1105	0	0	0
1106	0	0	0
1107	0	0	0
1108	0	0	0
1109	0	0	0
1110	239	221	226
1111	225	196	214
1112	226	189	218
1113	240	195	232
1114	228	177	225
1115	229	187	231
1116	225	191	226
1117	0	0	0
1118	0	0	0
1119	0	0	0
1120	0	0	0
1121	0	0	0
1122	0	0	0
1123	0	0	0
1124	0	0	0
1125	0	0	0
1126	0	0	0
1127	0	0	0
1128	0	0	0
1129	0	0	0
1130	0	0	0
1131	0	0	0
1132	0	0	0
1133	0	0	0
1134	0	0	0
1135	0	0	0
1136	0	0	0
1137	0	0	0
1138	0	0	0
1139	232	215	224
1140	232	206	225
1141	234	199	227
1142	221	180	218
1143	225	193	226
1144	0	0	0
1145	0	0	0
1146	0	0	0
1147	0	0	0
1148	0	0	0
