 	R	G	B
1	0	0	0
2	0	0	0
3	0	0	0
4	0	0	0
5	0	0	0
6	0	0	0
7	0	0	0
8	0	0	0
9	254	226	225
10	255	240	231
11	0	0	0
12	0	0	0
13	0	0	0
14	0	0	0
15	0	0	0
16	0	0	0
17	0	0	0
18	0	0	0
19	0	0	0
20	0	0	0
21	0	0	0
22	0	0	0
23	0	0	0
24	0	0	0
25	0	0	0
26	0	0	0
27	0	0	0
28	0	0	0
29	0	0	0
30	0	0	0
31	0	0	0
32	0	0	0
33	0	0	0
34	0	0	0
35	0	0	0
36	0	0	0
37	0	0	0
38	0	0	0
39	0	0	0
40	0	0	0
41	0	0	0
42	0	0	0
43	0	0	0
44	0	0	0
45	0	0	0
46	0	0	0
47	0	0	0
48	0	0	0
49	0	0	0
50	0	0	0
51	0	0	0
52	0	0	0
53	0	0	0
54	0	0	0
55	0	0	0
56	0	0	0
57	0	0	0
58	0	0	0
59	0	0	0
60	0	0	0
61	0	0	0
62	0	0	0
63	0	0	0
64	0	0	0
65	0	0	0
66	0	0	0
67	0	0	0
68	0	0	0
69	0	0	0
70	0	0	0
71	0	0	0
72	0	0	0
73	0	0	0
74	0	0	0
75	0	0	0
76	0	0	0
77	0	0	0
78	0	0	0
79	0	0	0
80	251	206	216
81	249	204	211
82	255	219	219
83	255	231	226
84	255	230	224
85	255	228	218
86	255	234	220
87	255	246	230
88	255	239	227
89	255	235	225
90	255	228	222
91	0	0	0
92	0	0	0
93	0	0	0
94	0	0	0
95	0	0	0
96	0	0	0
97	0	0	0
98	0	0	0
99	0	0	0
100	0	0	0
101	0	0	0
102	0	0	0
103	0	0	0
104	0	0	0
105	0	0	0
106	0	0	0
107	0	0	0
108	0	0	0
109	0	0	0
110	0	0	0
111	0	0	0
112	0	0	0
113	0	0	0
114	0	0	0
115	0	0	0
116	0	0	0
117	0	0	0
118	0	0	0
119	0	0	0
120	0	0	0
121	0	0	0
122	0	0	0
123	0	0	0
124	0	0	0
125	0	0	0
126	0	0	0
127	0	0	0
128	0	0	0
129	0	0	0
130	0	0	0
131	0	0	0
132	0	0	0
133	0	0	0
134	0	0	0
135	0	0	0
136	0	0	0
137	0	0	0
138	0	0	0
139	0	0	0
140	0	0	0
141	0	0	0
142	0	0	0
143	0	0	0
144	0	0	0
145	0	0	0
146	0	0	0
147	0	0	0
148	0	0	0
149	0	0	0
150	0	0	0
151	0	0	0
152	0	0	0
153	253	206	219
154	255	211	221
155	249	198	209
156	255	213	217
157	254	209	214
158	252	208	210
159	255	216	213
160	255	224	217
161	255	225	217
162	255	217	212
163	255	222	217
164	255	214	214
165	247	201	209
166	0	0	0
167	0	0	0
168	0	0	0
169	0	0	0
170	255	221	223
171	0	0	0
172	0	0	0
173	0	0	0
174	0	0	0
175	0	0	0
176	0	0	0
177	0	0	0
178	0	0	0
179	0	0	0
180	0	0	0
181	0	0	0
182	0	0	0
183	0	0	0
184	0	0	0
185	0	0	0
186	0	0	0
187	0	0	0
188	0	0	0
189	0	0	0
190	0	0	0
191	0	0	0
192	0	0	0
193	0	0	0
194	0	0	0
195	0	0	0
196	0	0	0
197	0	0	0
198	0	0	0
199	0	0	0
200	0	0	0
201	0	0	0
202	0	0	0
203	0	0	0
204	0	0	0
205	0	0	0
206	0	0	0
207	0	0	0
208	0	0	0
209	0	0	0
210	0	0	0
211	0	0	0
212	0	0	0
213	0	0	0
214	0	0	0
215	0	0	0
216	0	0	0
217	0	0	0
218	0	0	0
219	0	0	0
220	0	0	0
221	0	0	0
222	0	0	0
223	0	0	0
224	0	0	0
225	0	0	0
226	254	210	224
227	255	208	221
228	254	201	216
229	246	189	206
230	248	191	207
231	244	187	203
232	251	198	209
233	255	207	211
234	254	206	209
235	254	207	210
236	255	207	210
237	255	210	212
238	249	197	205
239	240	185	202
240	251	203	216
241	255	218	223
242	255	221	223
243	255	225	225
244	254	214	218
245	248	204	213
246	0	0	0
247	0	0	0
248	0	0	0
249	0	0	0
250	0	0	0
251	0	0	0
252	0	0	0
253	0	0	0
254	0	0	0
255	0	0	0
256	0	0	0
257	0	0	0
258	0	0	0
259	0	0	0
260	0	0	0
261	0	0	0
262	0	0	0
263	0	0	0
264	0	0	0
265	0	0	0
266	0	0	0
267	0	0	0
268	0	0	0
269	0	0	0
270	0	0	0
271	0	0	0
272	0	0	0
273	0	0	0
274	0	0	0
275	0	0	0
276	0	0	0
277	0	0	0
278	0	0	0
279	0	0	0
280	0	0	0
281	0	0	0
282	0	0	0
283	0	0	0
284	0	0	0
285	0	0	0
286	0	0	0
287	0	0	0
288	0	0	0
289	0	0	0
290	0	0	0
291	0	0	0
292	0	0	0
293	0	0	0
294	0	0	0
295	0	0	0
296	0	0	0
297	0	0	0
298	0	0	0
299	250	210	224
300	255	215	229
301	251	197	216
302	249	191	212
303	252	192	213
304	254	195	215
305	250	189	210
306	255	201	216
307	255	198	211
308	254	198	209
309	255	200	210
310	255	200	210
311	252	196	205
312	242	181	197
313	251	194	211
314	255	212	225
315	255	207	216
316	255	208	214
317	255	213	216
318	248	201	208
319	253	208	216
320	0	0	0
321	0	0	0
322	0	0	0
323	0	0	0
324	0	0	0
325	0	0	0
326	0	0	0
327	0	0	0
328	0	0	0
329	0	0	0
330	0	0	0
331	0	0	0
332	0	0	0
333	0	0	0
334	0	0	0
335	0	0	0
336	0	0	0
337	0	0	0
338	0	0	0
339	0	0	0
340	0	0	0
341	0	0	0
342	0	0	0
343	0	0	0
344	0	0	0
345	0	0	0
346	0	0	0
347	0	0	0
348	0	0	0
349	0	0	0
350	0	0	0
351	0	0	0
352	0	0	0
353	0	0	0
354	0	0	0
355	0	0	0
356	0	0	0
357	0	0	0
358	0	0	0
359	0	0	0
360	0	0	0
361	0	0	0
362	0	0	0
363	0	0	0
364	0	0	0
365	0	0	0
366	0	0	0
367	0	0	0
368	0	0	0
369	0	0	0
370	0	0	0
371	0	0	0
372	0	0	0
373	251	211	223
374	251	200	219
375	244	183	210
376	252	190	217
377	254	192	217
378	254	190	215
379	250	185	210
380	251	186	209
381	249	184	206
382	251	186	206
383	251	188	207
384	248	183	203
385	245	179	199
386	250	189	206
387	255	199	216
388	255	198	214
389	250	193	205
390	253	198	207
391	255	203	209
392	255	207	211
393	255	213	217
394	255	208	213
395	249	200	204
396	253	207	209
397	0	0	0
398	0	0	0
399	0	0	0
400	0	0	0
401	0	0	0
402	0	0	0
403	0	0	0
404	0	0	0
405	0	0	0
406	0	0	0
407	0	0	0
408	0	0	0
409	0	0	0
410	0	0	0
411	0	0	0
412	0	0	0
413	0	0	0
414	0	0	0
415	0	0	0
416	0	0	0
417	0	0	0
418	0	0	0
419	0	0	0
420	0	0	0
421	0	0	0
422	0	0	0
423	0	0	0
424	0	0	0
425	0	0	0
426	0	0	0
427	0	0	0
428	0	0	0
429	0	0	0
430	0	0	0
431	0	0	0
432	0	0	0
433	0	0	0
434	0	0	0
435	0	0	0
436	0	0	0
437	0	0	0
438	0	0	0
439	0	0	0
440	0	0	0
441	0	0	0
442	0	0	0
443	0	0	0
444	0	0	0
445	0	0	0
446	0	0	0
447	255	214	226
448	253	203	221
449	248	188	215
450	255	196	223
451	253	187	217
452	253	185	215
453	252	184	213
454	254	186	213
455	254	185	211
456	255	187	212
457	251	181	209
458	247	177	205
459	250	184	207
460	255	193	213
461	255	196	216
462	255	194	214
463	251	190	207
464	255	196	209
465	253	194	206
466	254	198	209
467	254	199	209
468	249	193	203
469	253	201	207
470	255	209	212
471	251	203	210
472	0	0	0
473	0	0	0
474	0	0	0
475	0	0	0
476	0	0	0
477	0	0	0
478	0	0	0
479	0	0	0
480	0	0	0
481	0	0	0
482	0	0	0
483	0	0	0
484	0	0	0
485	0	0	0
486	0	0	0
487	0	0	0
488	0	0	0
489	0	0	0
490	0	0	0
491	0	0	0
492	0	0	0
493	0	0	0
494	0	0	0
495	0	0	0
496	0	0	0
497	0	0	0
498	0	0	0
499	0	0	0
500	0	0	0
501	0	0	0
502	0	0	0
503	0	0	0
504	0	0	0
505	0	0	0
506	0	0	0
507	0	0	0
508	0	0	0
509	0	0	0
510	0	0	0
511	0	0	0
512	0	0	0
513	0	0	0
514	0	0	0
515	0	0	0
516	0	0	0
517	0	0	0
518	0	0	0
519	0	0	0
520	0	0	0
521	255	216	227
522	254	204	222
523	248	189	215
524	250	185	216
525	246	177	212
526	250	180	215
527	250	178	213
528	251	180	212
529	251	179	210
530	247	174	207
531	244	169	207
532	250	179	214
533	253	186	214
534	254	188	214
535	255	192	217
536	254	188	215
537	250	184	209
538	250	184	207
539	248	183	205
540	248	185	205
541	248	186	204
542	252	193	207
543	255	202	211
544	252	197	207
545	246	192	204
546	254	205	214
547	0	0	0
548	0	0	0
549	0	0	0
550	255	219	217
551	0	0	0
552	0	0	0
553	0	0	0
554	0	0	0
555	0	0	0
556	0	0	0
557	0	0	0
558	0	0	0
559	0	0	0
560	0	0	0
561	0	0	0
562	0	0	0
563	0	0	0
564	0	0	0
565	0	0	0
566	0	0	0
567	0	0	0
568	0	0	0
569	0	0	0
570	0	0	0
571	0	0	0
572	0	0	0
573	0	0	0
574	0	0	0
575	0	0	0
576	0	0	0
577	0	0	0
578	0	0	0
579	0	0	0
580	0	0	0
581	0	0	0
582	0	0	0
583	0	0	0
584	0	0	0
585	0	0	0
586	0	0	0
587	0	0	0
588	0	0	0
589	0	0	0
590	0	0	0
591	0	0	0
592	0	0	0
593	0	0	0
594	0	0	0
595	253	211	224
596	249	198	218
597	248	190	216
598	251	188	218
599	255	190	221
600	255	192	225
601	249	176	213
602	249	177	213
603	253	182	216
604	250	178	214
605	252	179	217
606	255	189	223
607	253	183	216
608	254	186	216
609	255	190	220
610	255	187	217
611	253	186	213
612	253	186	212
613	255	191	214
614	255	192	214
615	251	187	208
616	255	195	211
617	255	202	215
618	255	198	211
619	250	193	207
620	255	207	217
621	253	201	212
622	0	0	0
623	255	214	218
624	255	212	215
625	246	202	206
626	0	0	0
627	0	0	0
628	0	0	0
629	0	0	0
630	0	0	0
631	0	0	0
632	0	0	0
633	0	0	0
634	0	0	0
635	0	0	0
636	0	0	0
637	0	0	0
638	0	0	0
639	0	0	0
640	0	0	0
641	0	0	0
642	0	0	0
643	0	0	0
644	0	0	0
645	0	0	0
646	0	0	0
647	0	0	0
648	0	0	0
649	0	0	0
650	0	0	0
651	0	0	0
652	0	0	0
653	0	0	0
654	0	0	0
655	0	0	0
656	0	0	0
657	0	0	0
658	0	0	0
659	0	0	0
660	0	0	0
661	0	0	0
662	0	0	0
663	0	0	0
664	0	0	0
665	0	0	0
666	0	0	0
667	0	0	0
668	0	0	0
669	0	0	0
670	251	201	221
671	250	193	218
672	255	199	225
673	255	199	225
674	254	185	217
675	243	170	209
676	248	177	216
677	253	183	222
678	255	184	222
679	255	184	219
680	254	183	217
681	250	178	213
682	253	183	216
683	255	187	218
684	255	186	216
685	254	185	213
686	255	190	215
687	255	194	215
688	255	190	210
689	250	185	206
690	254	192	211
691	255	201	219
692	255	196	214
693	250	190	206
694	248	187	203
695	243	183	202
696	251	196	212
697	255	207	218
698	252	200	212
699	243	190	205
700	249	204	214
701	255	218	222
702	255	220	221
703	255	224	220
704	0	0	0
705	0	0	0
706	0	0	0
707	0	0	0
708	0	0	0
709	0	0	0
710	0	0	0
711	0	0	0
712	0	0	0
713	0	0	0
714	0	0	0
715	0	0	0
716	0	0	0
717	0	0	0
718	0	0	0
719	0	0	0
720	0	0	0
721	0	0	0
722	0	0	0
723	0	0	0
724	0	0	0
725	0	0	0
726	0	0	0
727	0	0	0
728	0	0	0
729	0	0	0
730	0	0	0
731	0	0	0
732	0	0	0
733	0	0	0
734	0	0	0
735	0	0	0
736	0	0	0
737	0	0	0
738	0	0	0
739	0	0	0
740	0	0	0
741	0	0	0
742	0	0	0
743	255	212	226
744	255	206	225
745	249	189	218
746	255	194	224
747	251	184	216
748	240	169	206
749	248	180	217
750	255	188	225
751	255	188	227
752	255	189	226
753	255	187	221
754	255	186	218
755	251	177	213
756	254	182	216
757	255	186	217
758	255	185	215
759	255	187	215
760	255	192	217
761	251	181	207
762	247	177	202
763	255	192	212
764	255	200	218
765	255	193	216
766	251	188	211
767	255	195	211
768	254	193	209
769	251	189	210
770	255	203	221
771	255	199	217
772	249	191	211
773	249	194	213
774	255	208	221
775	253	211	220
776	252	212	217
777	252	216	215
778	245	212	210
779	0	0	0
780	0	0	0
781	0	0	0
782	0	0	0
783	0	0	0
784	0	0	0
785	0	0	0
786	0	0	0
787	0	0	0
788	0	0	0
789	0	0	0
790	0	0	0
791	0	0	0
792	0	0	0
793	0	0	0
794	0	0	0
795	0	0	0
796	0	0	0
797	0	0	0
798	0	0	0
799	0	0	0
800	0	0	0
801	0	0	0
802	0	0	0
803	0	0	0
804	0	0	0
805	0	0	0
806	0	0	0
807	0	0	0
808	0	0	0
809	0	0	0
810	0	0	0
811	0	0	0
812	0	0	0
813	0	0	0
814	0	0	0
815	0	0	0
816	0	0	0
817	255	213	226
818	253	200	223
819	246	184	218
820	245	179	219
821	239	169	212
822	247	181	220
823	255	191	228
824	254	190	227
825	253	189	225
826	253	187	223
827	253	186	219
828	252	181	216
829	248	173	211
830	255	181	217
831	255	185	217
832	255	187	216
833	255	189	216
834	254	181	210
835	246	172	203
836	255	187	213
837	255	202	221
838	255	193	215
839	252	185	211
840	255	192	215
841	255	201	218
842	255	195	213
843	253	190	211
844	251	188	211
845	247	185	209
846	250	190	213
847	250	193	215
848	250	199	217
849	249	201	217
850	250	206	217
851	250	210	217
852	251	217	218
853	254	225	221
854	0	0	0
855	0	0	0
856	0	0	0
857	0	0	0
858	0	0	0
859	0	0	0
860	0	0	0
861	0	0	0
862	0	0	0
863	0	0	0
864	0	0	0
865	0	0	0
866	0	0	0
867	0	0	0
868	0	0	0
869	0	0	0
870	0	0	0
871	0	0	0
872	0	0	0
873	0	0	0
874	0	0	0
875	0	0	0
876	0	0	0
877	0	0	0
878	0	0	0
879	0	0	0
880	0	0	0
881	0	0	0
882	0	0	0
883	0	0	0
884	0	0	0
885	0	0	0
886	0	0	0
887	0	0	0
888	0	0	0
889	0	0	0
890	0	0	0
891	253	214	226
892	253	202	224
893	246	187	220
894	241	179	219
895	245	184	223
896	255	198	233
897	255	193	229
898	251	190	226
899	246	186	221
900	244	183	218
901	251	190	222
902	252	187	221
903	245	171	212
904	255	181	219
905	255	180	215
906	255	181	213
907	254	178	211
908	248	170	205
909	252	177	210
910	255	193	220
911	255	189	213
912	250	179	205
913	253	183	211
914	255	191	216
915	255	198	217
916	255	191	211
917	252	187	210
918	250	186	209
919	254	193	214
920	255	198	219
921	254	197	218
922	255	202	221
923	250	200	218
924	250	204	218
925	253	211	220
926	255	219	222
927	251	216	215
928	0	0	0
929	0	0	0
930	0	0	0
931	0	0	0
932	0	0	0
933	0	0	0
934	0	0	0
935	0	0	0
936	0	0	0
937	0	0	0
938	0	0	0
939	0	0	0
940	0	0	0
941	0	0	0
942	0	0	0
943	0	0	0
944	0	0	0
945	0	0	0
946	0	0	0
947	0	0	0
948	0	0	0
949	0	0	0
950	0	0	0
951	0	0	0
952	0	0	0
953	0	0	0
954	0	0	0
955	0	0	0
956	0	0	0
957	0	0	0
958	0	0	0
959	0	0	0
960	0	0	0
961	0	0	0
962	0	0	0
963	0	0	0
964	253	220	230
965	255	217	230
966	250	202	223
967	242	185	215
968	246	192	222
969	251	197	227
970	255	199	230
971	254	194	228
972	250	190	225
973	246	186	222
974	249	191	225
975	255	199	230
976	244	181	218
977	236	165	210
978	248	172	215
979	249	171	210
980	248	169	207
981	248	167	208
982	254	176	214
983	255	182	216
984	255	180	211
985	251	176	203
986	253	180	206
987	255	184	211
988	255	189	214
989	255	195	215
990	254	188	209
991	251	184	208
992	255	192	213
993	255	198	215
994	255	197	215
995	254	196	217
996	254	197	218
997	249	195	215
998	252	203	218
999	254	210	219
1000	253	209	216
1001	247	206	209
1002	247	213	213
1003	0	0	0
1004	0	0	0
1005	0	0	0
1006	0	0	0
1007	0	0	0
1008	0	0	0
1009	0	0	0
1010	0	0	0
1011	0	0	0
1012	0	0	0
1013	0	0	0
1014	0	0	0
1015	0	0	0
1016	0	0	0
1017	0	0	0
1018	0	0	0
1019	0	0	0
1020	0	0	0
1021	0	0	0
1022	0	0	0
1023	0	0	0
1024	0	0	0
1025	0	0	0
1026	0	0	0
1027	0	0	0
1028	0	0	0
1029	0	0	0
1030	0	0	0
1031	0	0	0
1032	0	0	0
1033	0	0	0
1034	0	0	0
1035	0	0	0
1036	0	0	0
1037	253	224	233
1038	255	221	234
1039	250	208	226
1040	236	188	213
1041	241	193	219
1042	253	204	229
1043	252	198	226
1044	255	199	229
1045	249	187	224
1046	245	184	222
1047	246	186	223
1048	253	193	228
1049	250	191	226
1050	230	168	210
1051	236	173	215
1052	251	182	223
1053	252	177	217
1054	254	177	215
1055	251	171	213
1056	255	180	219
1057	255	177	215
1058	253	174	209
1059	253	176	205
1060	255	180	207
1061	250	174	205
1062	253	180	208
1063	255	193	215
1064	254	186	208
1065	252	186	208
1066	255	192	212
1067	255	197	213
1068	255	196	212
1069	255	197	215
1070	255	199	218
1071	254	197	216
1072	255	206	221
1073	255	205	217
1074	252	204	214
1075	251	206	212
1076	254	215	218
1077	252	215	219
1078	0	0	0
1079	0	0	0
1080	0	0	0
1081	0	0	0
1082	0	0	0
1083	0	0	0
1084	0	0	0
1085	0	0	0
1086	0	0	0
1087	0	0	0
1088	0	0	0
1089	0	0	0
1090	0	0	0
1091	0	0	0
1092	0	0	0
1093	0	0	0
1094	0	0	0
1095	0	0	0
1096	0	0	0
1097	0	0	0
1098	0	0	0
1099	0	0	0
1100	0	0	0
1101	0	0	0
1102	0	0	0
1103	0	0	0
1104	0	0	0
1105	0	0	0
1106	0	0	0
1107	0	0	0
1108	0	0	0
1109	0	0	0
1110	0	0	0
1111	0	0	0
1112	249	211	228
1113	242	198	221
1114	243	201	224
1115	248	207	230
1116	251	204	230
1117	250	197	225
1118	248	188	222
1119	242	178	221
1120	242	182	225
1121	243	183	223
1122	248	185	224
1123	245	183	222
1124	236	179	217
1125	242	184	222
1126	253	186	225
1127	255	183	223
1128	255	178	220
1129	252	171	214
1130	254	173	214
1131	253	170	212
1132	254	173	211
1133	255	175	208
1134	250	170	203
1135	245	164	200
1136	255	180	211
1137	255	195	219
1138	255	191	214
1139	255	189	210
1140	255	194	211
1141	255	199	214
1142	255	199	215
1143	255	198	215
1144	255	198	215
1145	255	198	216
1146	255	199	216
1147	254	199	215
1148	255	203	216
1149	255	206	216
1150	251	204	214
1151	248	204	214
1152	254	215	221
1153	0	0	0
1154	0	0	0
1155	0	0	0
1156	252	223	223
1157	0	0	0
1158	0	0	0
1159	0	0	0
1160	0	0	0
1161	0	0	0
1162	0	0	0
1163	0	0	0
1164	0	0	0
1165	0	0	0
1166	0	0	0
1167	0	0	0
1168	0	0	0
1169	0	0	0
1170	0	0	0
1171	0	0	0
1172	0	0	0
1173	0	0	0
1174	0	0	0
1175	0	0	0
1176	0	0	0
1177	0	0	0
1178	0	0	0
1179	0	0	0
1180	0	0	0
1181	0	0	0
1182	0	0	0
1183	0	0	0
1184	0	0	0
1185	0	0	0
1186	0	0	0
1187	245	208	228
1188	251	214	234
1189	247	205	231
1190	247	200	228
1191	248	197	225
1192	245	189	222
1193	249	191	230
1194	249	195	234
1195	240	182	224
1196	245	184	225
1197	242	180	221
1198	236	178	217
1199	243	184	222
1200	255	186	225
1201	255	180	224
1202	255	176	220
1203	251	168	214
1204	253	169	214
1205	250	165	211
1206	252	168	211
1207	255	176	213
1208	253	171	207
1209	249	167	206
1210	255	183	217
1211	255	183	213
1212	254	180	207
1213	254	183	205
1214	255	188	207
1215	255	195	212
1216	255	194	213
1217	249	184	205
1218	246	182	204
1219	255	198	216
1220	255	200	218
1221	254	195	215
1222	255	200	217
1223	254	200	216
1224	251	199	214
1225	253	205	217
1226	255	217	225
1227	253	211	218
1228	0	0	0
1229	253	219	223
1230	255	223	225
1231	252	219	219
1232	0	0	0
1233	0	0	0
1234	0	0	0
1235	0	0	0
1236	0	0	0
1237	0	0	0
1238	0	0	0
1239	0	0	0
1240	0	0	0
1241	0	0	0
1242	0	0	0
1243	0	0	0
1244	0	0	0
1245	0	0	0
1246	0	0	0
1247	0	0	0
1248	0	0	0
1249	0	0	0
1250	0	0	0
1251	0	0	0
1252	0	0	0
1253	0	0	0
1254	0	0	0
1255	0	0	0
1256	0	0	0
1257	0	0	0
1258	0	0	0
1259	0	0	0
1260	247	219	234
1261	247	216	232
1262	244	208	229
1263	242	201	228
1264	245	200	229
1265	246	198	226
1266	253	201	230
1267	255	203	232
1268	246	191	227
1269	240	180	225
1270	247	184	230
1271	245	181	225
1272	243	181	223
1273	249	186	226
1274	255	183	225
1275	255	177	221
1276	254	172	219
1277	250	165	215
1278	249	162	213
1279	246	157	209
1280	251	166	213
1281	255	175	215
1282	254	171	211
1283	251	168	210
1284	255	172	213
1285	252	171	205
1286	254	176	205
1287	255	180	205
1288	255	185	207
1289	255	191	212
1290	252	182	206
1291	244	172	202
1292	251	186	212
1293	255	201	222
1294	255	196	218
1295	253	192	215
1296	254	194	216
1297	253	195	216
1298	255	201	220
1299	255	206	222
1300	254	203	218
1301	247	197	212
1302	250	207	217
1303	255	220	226
1304	255	216	221
1305	250	211	215
1306	0	0	0
1307	0	0	0
1308	0	0	0
1309	0	0	0
1310	0	0	0
1311	0	0	0
1312	0	0	0
1313	0	0	0
1314	0	0	0
1315	0	0	0
1316	0	0	0
1317	0	0	0
1318	0	0	0
1319	0	0	0
1320	0	0	0
1321	0	0	0
1322	0	0	0
1323	0	0	0
1324	0	0	0
1325	0	0	0
1326	0	0	0
1327	0	0	0
1328	0	0	0
1329	0	0	0
1330	0	0	0
1331	0	0	0
1332	0	0	0
1333	244	227	236
1334	247	225	237
1335	242	214	230
1336	239	206	226
1337	245	209	232
1338	248	209	234
1339	247	201	229
1340	255	207	234
1341	251	194	226
1342	241	183	221
1343	242	179	226
1344	252	184	234
1345	252	182	230
1346	251	183	227
1347	252	182	225
1348	252	176	221
1349	252	171	219
1350	251	166	217
1351	246	158	213
1352	246	156	211
1353	255	171	220
1354	255	179	223
1355	255	174	216
1356	254	170	212
1357	255	174	217
1358	255	179	219
1359	249	163	202
1360	252	169	203
1361	255	177	206
1362	255	181	208
1363	255	182	208
1364	249	173	202
1365	253	181	210
1366	255	196	220
1367	255	192	216
1368	251	186	210
1369	255	195	218
1370	255	197	220
1371	255	194	219
1372	255	200	222
1373	255	199	220
1374	252	196	216
1375	248	194	213
1376	251	204	218
1377	255	214	223
1378	252	209	218
1379	249	207	214
1380	0	0	0
1381	0	0	0
1382	0	0	0
1383	0	0	0
1384	0	0	0
1385	0	0	0
1386	0	0	0
1387	0	0	0
1388	0	0	0
1389	0	0	0
1390	0	0	0
1391	0	0	0
1392	0	0	0
1393	0	0	0
1394	0	0	0
1395	0	0	0
1396	0	0	0
1397	0	0	0
1398	0	0	0
1399	0	0	0
1400	0	0	0
1401	0	0	0
1402	0	0	0
1403	0	0	0
1404	0	0	0
1405	0	0	0
1406	0	0	0
1407	244	231	238
1408	242	222	235
1409	237	212	229
1410	239	213	230
1411	243	214	231
1412	244	208	228
1413	245	202	227
1414	248	195	227
1415	244	185	223
1416	240	178	222
1417	240	174	225
1418	250	179	231
1419	249	176	226
1420	247	174	221
1421	247	173	220
1422	248	169	218
1423	249	165	219
1424	247	160	217
1425	243	152	211
1426	254	168	221
1427	255	182	227
1428	255	175	220
1429	254	170	214
1430	255	173	215
1431	255	176	217
1432	254	167	210
1433	244	153	198
1434	252	166	206
1435	255	174	210
1436	255	173	207
1437	254	174	206
1438	255	182	210
1439	255	190	214
1440	255	187	211
1441	254	183	206
1442	255	190	211
1443	255	200	219
1444	255	196	218
1445	255	192	218
1446	253	190	216
1447	251	188	214
1448	250	190	214
1449	247	188	212
1450	250	198	217
1451	254	208	221
1452	250	205	217
1453	247	203	215
1454	252	212	221
1455	0	0	0
1456	0	0	0
1457	0	0	0
1458	0	0	0
1459	0	0	0
1460	0	0	0
1461	0	0	0
1462	0	0	0
1463	0	0	0
1464	0	0	0
1465	0	0	0
1466	0	0	0
1467	0	0	0
1468	0	0	0
1469	0	0	0
1470	0	0	0
1471	0	0	0
1472	0	0	0
1473	0	0	0
1474	0	0	0
1475	0	0	0
1476	0	0	0
1477	0	0	0
1478	0	0	0
1479	0	0	0
1480	0	0	0
1481	245	236	240
1482	242	226	237
1483	237	217	231
1484	236	216	230
1485	241	219	231
1486	243	214	229
1487	243	203	227
1488	246	197	227
1489	247	192	228
1490	247	188	229
1491	251	189	233
1492	255	191	237
1493	247	176	225
1494	243	174	222
1495	245	172	221
1496	250	170	222
1497	253	169	224
1498	251	164	221
1499	247	157	215
1500	255	173	224
1501	255	180	225
1502	255	173	217
1503	254	170	215
1504	255	174	217
1505	255	174	216
1506	254	165	211
1507	244	150	201
1508	254	164	210
1509	255	169	211
1510	254	169	208
1511	254	171	207
1512	255	179	210
1513	255	179	208
1514	254	176	204
1515	253	177	203
1516	255	186	209
1517	255	185	210
1518	251	180	209
1519	253	185	215
1520	250	183	213
1521	255	197	221
1522	255	198	220
1523	249	188	214
1524	254	199	220
1525	254	205	221
1526	248	201	216
1527	251	206	220
1528	255	217	228
1529	253	209	220
1530	0	0	0
1531	0	0	0
1532	0	0	0
1533	0	0	0
1534	0	0	0
1535	0	0	0
1536	0	0	0
1537	0	0	0
1538	0	0	0
1539	0	0	0
1540	0	0	0
1541	0	0	0
1542	0	0	0
1543	0	0	0
1544	0	0	0
1545	0	0	0
1546	0	0	0
1547	0	0	0
1548	0	0	0
1549	0	0	0
1550	0	0	0
1551	0	0	0
1552	0	0	0
1553	0	0	0
1554	0	0	0
1555	246	240	243
1556	243	231	239
1557	237	220	232
1558	237	222	233
1559	243	226	235
1560	244	216	231
1561	243	205	228
1562	249	203	231
1563	249	197	229
1564	249	195	228
1565	253	196	230
1566	249	186	227
1567	242	173	221
1568	240	172	223
1569	242	170	223
1570	249	171	224
1571	250	167	221
1572	249	164	217
1573	245	157	211
1574	252	167	217
1575	255	175	220
1576	255	172	216
1577	254	170	214
1578	254	168	213
1579	255	169	216
1580	249	157	209
1581	240	143	201
1582	249	155	209
1583	252	160	208
1584	254	165	208
1585	255	168	208
1586	255	170	208
1587	255	171	206
1588	255	175	208
1589	255	177	207
1590	255	176	207
1591	253	175	208
1592	252	177	211
1593	253	181	216
1594	255	192	221
1595	255	204	226
1596	255	194	217
1597	247	185	211
1598	253	195	219
1599	255	202	222
1600	252	204	221
1601	255	209	224
1602	253	205	221
1603	247	197	214
1604	0	0	0
1605	0	0	0
1606	0	0	0
1607	0	0	0
1608	0	0	0
1609	0	0	0
1610	0	0	0
1611	0	0	0
1612	0	0	0
1613	0	0	0
1614	0	0	0
1615	0	0	0
1616	0	0	0
1617	0	0	0
1618	0	0	0
1619	0	0	0
1620	0	0	0
1621	0	0	0
1622	0	0	0
1623	0	0	0
1624	0	0	0
1625	0	0	0
1626	0	0	0
1627	0	0	0
1628	0	0	0
1629	249	245	244
1630	242	234	239
1631	239	227	235
1632	243	230	238
1633	248	230	239
1634	248	220	235
1635	245	205	229
1636	249	203	230
1637	243	191	223
1638	237	187	219
1639	249	199	227
1640	249	191	226
1641	242	175	221
1642	241	174	225
1643	247	178	229
1644	251	177	228
1645	250	172	222
1646	247	168	217
1647	251	171	219
1648	255	183	226
1649	255	179	222
1650	255	176	219
1651	253	168	213
1652	253	167	213
1653	255	173	219
1654	252	161	213
1655	250	156	212
1656	255	169	220
1657	253	160	210
1658	255	165	211
1659	255	166	211
1660	255	169	212
1661	254	162	205
1662	255	166	207
1663	249	157	200
1664	246	156	200
1665	253	170	210
1666	250	171	211
1667	255	182	218
1668	255	191	222
1669	255	199	222
1670	252	189	214
1671	251	188	215
1672	255	199	222
1673	255	203	224
1674	255	206	224
1675	255	204	221
1676	251	198	217
1677	251	200	216
1678	254	209	220
1679	255	215	222
1680	255	217	223
1681	0	0	0
1682	0	0	0
1683	0	0	0
1684	0	0	0
1685	0	0	0
1686	0	0	0
1687	0	0	0
1688	0	0	0
1689	0	0	0
1690	0	0	0
1691	0	0	0
1692	0	0	0
1693	0	0	0
1694	0	0	0
1695	0	0	0
1696	0	0	0
1697	0	0	0
1698	0	0	0
1699	0	0	0
1700	0	0	0
1701	0	0	0
1702	0	0	0
1703	0	0	0
1704	245	241	240
1705	241	233	238
1706	241	230	238
1707	246	230	239
1708	243	215	231
1709	238	199	222
1710	242	197	224
1711	238	187	220
1712	245	198	228
1713	255	209	235
1714	249	192	226
1715	241	175	220
1716	245	181	227
1717	249	183	229
1718	249	180	227
1719	249	177	224
1720	255	182	228
1721	255	187	229
1722	255	185	227
1723	255	181	223
1724	255	173	218
1725	251	166	214
1726	255	170	216
1727	255	174	218
1728	255	169	214
1729	255	165	215
1730	255	162	215
1731	250	154	208
1732	254	159	211
1733	255	161	212
1734	255	157	209
1735	249	150	202
1736	246	146	199
1737	239	137	194
1738	246	151	204
1739	252	164	214
1740	254	173	217
1741	255	182	218
1742	255	187	217
1743	255	196	221
1744	255	192	218
1745	254	192	219
1746	255	196	221
1747	255	200	221
1748	254	198	216
1749	251	196	214
1750	253	199	215
1751	252	200	214
1752	254	207	217
1753	255	214	222
1754	250	204	216
1755	244	196	213
1756	249	205	219
1757	0	0	0
1758	0	0	0
1759	0	0	0
1760	0	0	0
1761	0	0	0
1762	0	0	0
1763	0	0	0
1764	0	0	0
1765	0	0	0
1766	0	0	0
1767	0	0	0
1768	0	0	0
1769	0	0	0
1770	0	0	0
1771	0	0	0
1772	0	0	0
1773	0	0	0
1774	0	0	0
1775	0	0	0
1776	0	0	0
1777	0	0	0
1778	0	0	0
1779	0	0	0
1780	0	0	0
1781	248	238	244
1782	243	222	235
1783	235	203	224
1784	240	201	226
1785	242	197	228
1786	255	212	241
1787	253	200	231
1788	241	179	217
1789	249	188	226
1790	255	193	233
1791	243	177	222
1792	239	172	219
1793	250	183	228
1794	255	192	235
1795	255	180	225
1796	255	177	222
1797	255	175	219
1798	251	167	214
1799	254	170	217
1800	255	174	219
1801	255	172	215
1802	253	166	211
1803	255	168	215
1804	255	166	216
1805	253	157	211
1806	255	164	218
1807	253	151	211
1808	252	149	208
1809	249	144	204
1810	245	140	201
1811	242	139	201
1812	249	152	210
1813	255	171	221
1814	255	180	222
1815	255	179	216
1816	255	185	217
1817	254	186	217
1818	248	182	213
1819	255	198	224
1820	255	202	225
1821	255	200	220
1822	253	197	216
1823	252	196	215
1824	255	201	217
1825	254	201	215
1826	255	208	220
1827	252	203	218
1828	243	193	211
1829	250	205	220
1830	255	215	227
1831	251	207	219
1832	0	0	0
1833	0	0	0
1834	0	0	0
1835	0	0	0
1836	0	0	0
1837	0	0	0
1838	0	0	0
1839	0	0	0
1840	0	0	0
1841	0	0	0
1842	0	0	0
1843	0	0	0
1844	0	0	0
1845	0	0	0
1846	0	0	0
1847	0	0	0
1848	0	0	0
1849	0	0	0
1850	0	0	0
1851	0	0	0
1852	0	0	0
1853	0	0	0
1854	0	0	0
1855	0	0	0
1856	242	226	238
1857	233	207	229
1858	235	204	231
1859	238	199	229
1860	243	195	229
1861	241	185	221
1862	251	193	228
1863	255	200	232
1864	250	188	225
1865	241	174	219
1866	249	185	229
1867	255	195	236
1868	255	185	229
1869	250	173	221
1870	249	170	217
1871	249	167	215
1872	252	171	216
1873	255	173	216
1874	255	171	215
1875	255	170	215
1876	255	169	214
1877	255	170	214
1878	253	161	210
1879	250	154	209
1880	248	146	207
1881	241	134	201
1882	242	134	202
1883	240	130	199
1884	241	134	201
1885	238	132	200
1886	249	153	212
1887	255	172	218
1888	254	171	214
1889	252	173	214
1890	252	177	215
1891	250	178	215
1892	255	192	223
1893	255	207	228
1894	255	199	220
1895	254	197	218
1896	251	195	216
1897	250	195	216
1898	253	198	219
1899	252	199	218
1900	249	196	216
1901	244	192	214
1902	250	202	220
1903	255	213	224
1904	251	206	218
1905	246	198	215
1906	252	207	221
1907	255	213	223
1908	254	212	221
1909	0	0	0
1910	0	0	0
1911	0	0	0
1912	0	0	0
1913	0	0	0
1914	249	231	228
1915	251	237	231
1916	252	241	232
1917	0	0	0
1918	0	0	0
1919	0	0	0
1920	0	0	0
1921	0	0	0
1922	0	0	0
1923	0	0	0
1924	0	0	0
1925	0	0	0
1926	0	0	0
1927	0	0	0
1928	0	0	0
1929	0	0	0
1930	0	0	0
1931	0	0	0
1932	0	0	0
1933	235	208	232
1934	0	0	0
1935	246	199	230
1936	255	212	240
1937	253	192	225
1938	243	179	216
1939	251	187	228
1940	255	200	240
1941	255	186	231
1942	248	173	221
1943	255	181	226
1944	254	178	223
1945	255	177	221
1946	255	180	221
1947	254	173	216
1948	254	172	215
1949	255	171	217
1950	255	170	216
1951	255	173	216
1952	254	164	212
1953	255	162	216
1954	253	155	215
1955	246	142	209
1956	247	142	210
1957	249	145	212
1958	251	149	214
1959	247	147	212
1960	255	169	222
1961	255	178	223
1962	255	178	218
1963	255	178	219
1964	255	182	221
1965	250	176	215
1966	255	190	222
1967	255	194	220
1968	245	185	210
1969	254	201	221
1970	251	199	219
1971	250	198	220
1972	253	202	223
1973	252	199	221
1974	248	196	220
1975	246	194	219
1976	253	205	225
1977	254	208	223
1978	248	200	215
1979	250	203	220
1980	255	212	227
1981	255	208	222
1982	253	207	220
1983	245	202	213
1984	0	0	0
1985	0	0	0
1986	0	0	0
1987	252	229	227
1988	255	239	234
1989	249	224	224
1990	249	227	224
1991	252	235	229
1992	0	0	0
1993	0	0	0
1994	0	0	0
1995	0	0	0
1996	0	0	0
1997	0	0	0
1998	0	0	0
1999	0	0	0
2000	0	0	0
2001	0	0	0
2002	0	0	0
2003	0	0	0
2004	0	0	0
2005	0	0	0
2006	0	0	0
2007	0	0	0
2008	0	0	0
2009	251	212	235
2010	255	203	233
2011	246	184	219
2012	251	191	225
2013	255	198	234
2014	250	185	226
2015	241	171	217
2016	249	179	223
2017	255	187	230
2018	255	186	228
2019	255	184	223
2020	255	178	219
2021	253	173	218
2022	255	174	220
2023	255	172	219
2024	255	174	220
2025	255	177	222
2026	255	170	218
2027	255	167	221
2028	253	156	217
2029	245	143	210
2030	251	152	217
2031	254	155	219
2032	255	161	223
2033	254	159	219
2034	255	173	225
2035	255	184	228
2036	255	181	222
2037	255	181	220
2038	253	176	215
2039	246	170	209
2040	249	177	212
2041	249	182	215
2042	253	194	220
2043	255	209	229
2044	255	204	224
2045	253	202	223
2046	251	200	223
2047	250	197	222
2048	247	196	222
2049	245	193	222
2050	249	200	225
2051	252	204	223
2052	252	205	222
2053	254	207	224
2054	254	205	223
2055	251	200	219
2056	249	200	217
2057	242	196	211
2058	246	210	218
2059	253	225	227
2060	255	229	228
2061	255	235	229
2062	253	223	222
2063	243	209	215
2064	245	216	220
2065	248	223	223
2066	251	229	226
2067	0	0	0
2068	0	0	0
2069	0	0	0
2070	0	0	0
2071	0	0	0
2072	0	0	0
2073	0	0	0
2074	0	0	0
2075	0	0	0
2076	0	0	0
2077	0	0	0
2078	0	0	0
2079	0	0	0
2080	0	0	0
2081	0	0	0
2082	0	0	0
2083	251	212	235
2084	251	201	232
2085	239	179	218
2086	246	188	226
2087	251	195	231
2088	237	178	219
2089	240	179	221
2090	252	190	230
2091	254	188	229
2092	255	187	228
2093	255	184	223
2094	254	179	220
2095	253	175	220
2096	255	175	222
2097	253	171	219
2098	255	172	220
2099	255	177	223
2100	255	169	219
2101	255	169	222
2102	251	158	217
2103	250	155	216
2104	255	162	223
2105	251	156	219
2106	255	162	223
2107	251	158	217
2108	255	172	224
2109	255	175	223
2110	255	173	218
2111	253	173	215
2112	248	169	210
2113	251	177	213
2114	254	184	217
2115	255	190	221
2116	255	202	229
2117	255	204	227
2118	254	199	222
2119	253	198	221
2120	248	194	219
2121	254	203	226
2122	251	202	226
2123	248	198	225
2124	251	204	228
2125	252	205	226
2126	255	207	226
2127	252	201	221
2128	250	198	219
2129	249	199	219
2130	246	198	217
2131	246	202	218
2132	255	219	228
2133	254	217	223
2134	255	220	223
2135	255	222	222
2136	245	208	213
2137	246	211	219
2138	249	219	224
2139	252	226	226
2140	255	232	229
2141	252	228	225
2142	0	0	0
2143	0	0	0
2144	0	0	0
2145	0	0	0
2146	0	0	0
2147	0	0	0
2148	0	0	0
2149	0	0	0
2150	0	0	0
2151	0	0	0
2152	0	0	0
2153	0	0	0
2154	0	0	0
2155	0	0	0
2156	0	0	0
2157	0	0	0
2158	237	191	225
2159	227	171	215
2160	240	185	227
2161	245	192	231
2162	242	190	229
2163	244	191	230
2164	247	190	229
2165	249	187	225
2166	253	186	226
2167	255	185	227
2168	255	181	224
2169	252	175	220
2170	252	173	220
2171	250	169	218
2172	254	173	220
2173	255	177	222
2174	255	174	221
2175	255	173	223
2176	255	169	222
2177	255	166	222
2178	253	162	222
2179	248	155	219
2180	251	158	220
2181	246	154	213
2182	248	159	213
2183	249	162	214
2184	249	164	214
2185	248	166	212
2186	252	175	215
2187	255	183	218
2188	255	187	218
2189	255	192	221
2190	254	193	220
2191	254	195	222
2192	252	194	220
2193	250	193	218
2194	253	201	222
2195	255	209	228
2196	252	204	224
2197	249	200	222
2198	248	201	223
2199	249	202	222
2200	249	198	219
2201	247	192	217
2202	251	197	221
2203	250	197	221
2204	248	202	222
2205	250	206	223
2206	252	207	221
2207	247	203	213
2208	245	204	211
2209	247	207	215
2210	249	210	219
2211	249	213	222
2212	250	219	225
2213	253	226	227
2214	252	224	224
2215	248	220	220
2216	0	0	0
2217	0	0	0
2218	0	0	0
2219	0	0	0
2220	0	0	0
2221	0	0	0
2222	0	0	0
2223	0	0	0
2224	0	0	0
2225	0	0	0
2226	0	0	0
2227	0	0	0
2228	0	0	0
2229	0	0	0
2230	0	0	0
2231	0	0	0
2232	0	0	0
2233	239	199	231
2234	255	215	246
2235	248	199	235
2236	248	199	235
2237	248	197	234
2238	246	193	230
2239	248	192	226
2240	255	192	228
2241	255	190	229
2242	255	185	227
2243	251	174	220
2244	250	172	220
2245	254	177	225
2246	255	181	227
2247	255	178	224
2248	255	174	221
2249	251	166	218
2250	249	162	216
2251	255	177	227
2252	255	174	227
2253	248	156	219
2254	249	159	220
2255	254	167	221
2256	255	172	221
2257	255	173	221
2258	255	176	222
2259	251	171	216
2260	255	180	220
2261	254	183	218
2262	254	187	218
2263	255	192	220
2264	253	193	220
2265	255	200	225
2266	254	199	224
2267	252	196	220
2268	255	205	225
2269	255	203	222
2270	248	197	217
2271	250	203	222
2272	249	204	222
2273	250	204	222
2274	250	200	221
2275	252	198	221
2276	255	204	227
2277	249	194	218
2278	247	198	219
2279	255	210	227
2280	255	211	225
2281	246	201	213
2282	241	200	210
2283	248	212	221
2284	255	218	226
2285	251	214	222
2286	249	218	223
2287	250	222	224
2288	251	221	223
2289	246	216	218
2290	0	0	0
2291	0	0	0
2292	0	0	0
2293	0	0	0
2294	0	0	0
2295	0	0	0
2296	0	0	0
2297	0	0	0
2298	0	0	0
2299	0	0	0
2300	0	0	0
2301	0	0	0
2302	0	0	0
2303	0	0	0
2304	0	0	0
2305	0	0	0
2306	0	0	0
2307	246	221	238
2308	246	212	235
2309	241	198	229
2310	247	201	235
2311	249	200	236
2312	251	200	235
2313	253	199	229
2314	255	195	226
2315	255	193	226
2316	254	183	222
2317	248	173	218
2318	252	179	224
2319	255	184	230
2320	254	179	227
2321	252	175	224
2322	249	168	220
2323	245	161	216
2324	255	175	225
2325	255	188	232
2326	255	172	222
2327	246	156	216
2328	255	170	227
2329	255	179	227
2330	255	178	223
2331	255	179	222
2332	254	176	219
2333	249	172	215
2334	252	178	218
2335	251	181	216
2336	252	187	218
2337	253	192	222
2338	255	198	225
2339	255	203	227
2340	250	198	221
2341	249	196	219
2342	251	197	220
2343	249	195	218
2344	252	202	222
2345	255	208	225
2346	251	205	222
2347	251	205	223
2348	252	202	222
2349	253	201	222
2350	251	196	218
2351	241	184	209
2352	244	195	215
2353	253	209	224
2354	253	206	223
2355	246	198	215
2356	248	208	220
2357	255	219	227
2358	255	217	224
2359	251	213	219
2360	246	213	217
2361	248	217	220
2362	249	217	222
2363	245	213	219
2364	250	224	227
2365	0	0	0
2366	0	0	0
2367	0	0	0
2368	0	0	0
2369	0	0	0
2370	0	0	0
2371	0	0	0
2372	0	0	0
2373	0	0	0
2374	0	0	0
2375	0	0	0
2376	0	0	0
2377	0	0	0
2378	0	0	0
2379	0	0	0
2380	0	0	0
2381	242	227	235
2382	241	216	230
2383	238	203	227
2384	249	209	237
2385	254	208	240
2386	255	211	242
2387	248	189	223
2388	247	184	218
2389	255	196	226
2390	254	187	223
2391	246	174	219
2392	249	179	225
2393	255	192	235
2394	255	186	231
2395	255	187	232
2396	254	181	227
2397	252	175	224
2398	255	188	233
2399	255	183	227
2400	249	166	217
2401	247	161	218
2402	255	175	229
2403	254	173	221
2404	252	172	217
2405	255	180	221
2406	251	176	218
2407	250	177	218
2408	254	185	222
2409	254	188	221
2410	254	193	222
2411	255	197	225
2412	255	203	228
2413	254	201	223
2414	244	193	216
2415	252	206	225
2416	255	208	227
2417	251	199	220
2418	255	208	225
2419	255	206	222
2420	252	203	219
2421	255	207	223
2422	252	203	221
2423	255	208	224
2424	252	201	220
2425	239	186	209
2426	242	197	215
2427	255	216	228
2428	255	214	228
2429	249	198	218
2430	255	210	226
2431	251	207	221
2432	246	202	215
2433	253	214	220
2434	251	217	220
2435	249	216	221
2436	248	215	221
2437	247	214	223
2438	254	227	231
2439	253	228	230
2440	0	0	0
2441	0	0	0
2442	0	0	0
2443	0	0	0
2444	0	0	0
2445	0	0	0
2446	0	0	0
2447	0	0	0
2448	0	0	0
2449	0	0	0
2450	0	0	0
2451	0	0	0
2452	0	0	0
2453	0	0	0
2454	0	0	0
2455	247	240	242
2456	242	225	233
2457	239	212	228
2458	249	214	235
2459	255	213	238
2460	251	198	230
2461	240	178	217
2462	250	190	225
2463	255	201	233
2464	253	189	225
2465	245	177	221
2466	254	190	232
2467	255	200	238
2468	255	197	235
2469	255	198	236
2470	255	192	232
2471	255	186	227
2472	254	181	224
2473	252	176	222
2474	247	169	219
2475	244	162	217
2476	248	166	220
2477	245	165	215
2478	250	173	218
2479	254	181	223
2480	254	183	223
2481	253	183	222
2482	255	191	226
2483	255	194	224
2484	254	196	223
2485	255	199	225
2486	255	200	225
2487	251	198	220
2488	251	206	223
2489	255	220	234
2490	255	211	227
2491	252	202	220
2492	255	204	221
2493	254	202	217
2494	254	204	217
2495	255	208	220
2496	255	210	222
2497	255	215	227
2498	253	204	221
2499	241	191	214
2500	250	208	226
2501	255	225	235
2502	255	210	224
2503	247	194	216
2504	248	196	218
2505	244	193	214
2506	250	205	220
2507	255	217	225
2508	250	213	220
2509	247	211	218
2510	246	212	219
2511	245	212	223
2512	247	216	226
2513	0	0	0
2514	0	0	0
2515	0	0	0
2516	0	0	0
2517	0	0	0
2518	0	0	0
2519	0	0	0
2520	0	0	0
2521	0	0	0
2522	0	0	0
2523	0	0	0
2524	0	0	0
2525	0	0	0
2526	0	0	0
2527	0	0	0
2528	0	0	0
2529	248	239	241
2530	239	222	230
2531	239	213	228
2532	248	216	234
2533	250	209	233
2534	245	194	226
2535	246	191	227
2536	255	203	236
2537	254	197	230
2538	245	184	221
2539	247	185	225
2540	255	198	236
2541	253	194	232
2542	249	189	228
2543	254	195	231
2544	255	190	228
2545	254	186	225
2546	249	180	221
2547	255	187	228
2548	250	180	225
2549	253	181	227
2550	255	186	230
2551	252	178	222
2552	255	187	227
2553	255	188	227
2554	255	190	228
2555	253	185	223
2556	255	193	226
2557	253	190	222
2558	250	192	220
2559	255	201	226
2560	255	202	225
2561	250	197	219
2562	253	206	224
2563	255	215	230
2564	251	205	222
2565	253	204	221
2566	255	206	221
2567	250	197	214
2568	249	199	214
2569	252	205	218
2570	255	208	221
2571	254	205	220
2572	245	194	214
2573	248	198	220
2574	255	217	234
2575	255	214	229
2576	249	197	216
2577	251	199	219
2578	252	200	221
2579	249	199	219
2580	255	212	227
2581	255	217	227
2582	248	212	221
2583	246	212	220
2584	246	213	222
2585	247	215	227
2586	249	219	229
2587	0	0	0
2588	0	0	0
2589	0	0	0
2590	0	0	0
2591	0	0	0
2592	0	0	0
2593	0	0	0
2594	0	0	0
2595	0	0	0
2596	0	0	0
2597	0	0	0
2598	0	0	0
2599	0	0	0
2600	0	0	0
2601	0	0	0
2602	0	0	0
2603	0	0	0
2604	243	227	236
2605	241	217	232
2606	242	212	231
2607	243	205	230
2608	246	203	232
2609	248	200	232
2610	250	197	231
2611	247	191	225
2612	248	192	225
2613	249	192	226
2614	249	191	228
2615	247	188	228
2616	250	193	232
2617	254	197	233
2618	253	192	228
2619	251	188	225
2620	252	191	227
2621	255	198	232
2622	255	200	234
2623	255	201	236
2624	255	197	232
2625	255	189	225
2626	255	193	227
2627	255	195	229
2628	255	191	226
2629	253	186	223
2630	255	190	224
2631	251	188	221
2632	252	196	223
2633	255	205	228
2634	252	201	224
2635	249	197	221
2636	255	206	226
2637	255	213	228
2638	255	209	224
2639	255	209	224
2640	251	200	218
2641	244	192	213
2642	248	199	218
2643	252	205	221
2644	250	201	219
2645	248	197	218
2646	250	200	220
2647	251	203	221
2648	253	203	221
2649	251	201	220
2650	248	199	219
2651	249	199	219
2652	249	201	219
2653	247	199	217
2654	253	208	223
2655	254	214	225
2656	249	212	223
2657	247	213	225
2658	248	216	228
2659	248	218	230
2660	250	223	233
2661	0	0	0
2662	0	0	0
2663	0	0	0
2664	0	0	0
2665	0	0	0
2666	0	0	0
2667	0	0	0
2668	0	0	0
2669	0	0	0
2670	0	0	0
2671	0	0	0
2672	0	0	0
2673	0	0	0
2674	0	0	0
2675	0	0	0
2676	0	0	0
2677	248	242	244
2678	248	233	241
2679	240	217	231
2680	234	207	226
2681	239	210	231
2682	243	208	233
2683	246	206	234
2684	250	205	234
2685	250	200	231
2686	254	202	232
2687	251	198	227
2688	249	196	227
2689	251	196	233
2690	255	204	240
2691	249	191	228
2692	240	181	218
2693	250	197	228
2694	254	202	231
2695	252	196	228
2696	255	199	231
2697	255	193	226
2698	253	188	221
2699	255	190	222
2700	255	195	226
2701	255	190	225
2702	253	187	223
2703	255	190	224
2704	255	193	225
2705	253	192	222
2706	255	200	226
2707	253	201	225
2708	246	195	220
2709	254	205	228
2710	255	216	235
2711	251	197	220
2712	248	193	216
2713	255	206	224
2714	245	195	216
2715	250	202	222
2716	255	211	229
2717	251	202	222
2718	248	197	218
2719	254	205	224
2720	255	209	226
2721	249	200	218
2722	247	198	217
2723	244	196	218
2724	239	193	216
2725	247	206	222
2726	249	208	223
2727	248	205	221
2728	255	215	228
2729	253	213	225
2730	248	211	223
2731	247	213	226
2732	247	215	229
2733	246	216	229
2734	0	0	0
2735	0	0	0
2736	0	0	0
2737	0	0	0
2738	0	0	0
2739	0	0	0
2740	0	0	0
2741	0	0	0
2742	0	0	0
2743	0	0	0
2744	0	0	0
2745	0	0	0
2746	0	0	0
2747	0	0	0
2748	0	0	0
2749	0	0	0
2750	0	0	0
2751	0	0	0
2752	246	232	239
2753	238	215	229
2754	236	215	230
2755	240	217	235
2756	242	214	235
2757	245	212	234
2758	248	210	235
2759	249	205	233
2760	248	203	230
2761	246	199	223
2762	247	198	225
2763	251	200	232
2764	254	197	233
2765	244	184	221
2766	250	198	227
2767	255	212	235
2768	255	206	231
2769	255	201	231
2770	255	197	228
2771	253	190	221
2772	255	193	222
2773	255	195	225
2774	255	193	226
2775	255	190	227
2776	255	193	229
2777	255	195	225
2778	254	193	221
2779	252	193	220
2780	252	196	222
2781	251	197	222
2782	252	203	226
2783	255	213	233
2784	252	197	224
2785	240	179	211
2786	250	193	220
2787	255	204	226
2788	249	204	222
2789	252	210	226
2790	252	205	223
2791	248	197	217
2792	254	206	224
2793	255	213	228
2794	250	203	221
2795	244	195	217
2796	243	195	218
2797	239	193	219
2798	243	204	225
2799	251	217	230
2800	250	214	227
2801	251	211	227
2802	255	214	229
2803	252	211	223
2804	249	211	223
2805	247	213	226
2806	245	213	226
2807	0	0	0
2808	0	0	0
2809	0	0	0
2810	0	0	0
2811	0	0	0
2812	0	0	0
2813	0	0	0
2814	0	0	0
2815	0	0	0
2816	0	0	0
2817	0	0	0
2818	0	0	0
2819	0	0	0
2820	0	0	0
2821	0	0	0
2822	0	0	0
2823	0	0	0
2824	0	0	0
2825	0	0	0
2826	0	0	0
2827	0	0	0
2828	0	0	0
2829	245	228	240
2830	247	226	240
2831	245	217	235
2832	246	214	233
2833	246	211	232
2834	242	207	228
2835	245	209	227
2836	252	212	232
2837	249	201	230
2838	253	198	231
2839	249	190	224
2840	255	205	231
2841	253	203	229
2842	252	197	226
2843	250	191	225
2844	247	185	219
2845	255	194	224
2846	255	199	227
2847	253	187	221
2848	252	184	221
2849	255	189	227
2850	255	192	228
2851	253	191	222
2852	247	189	217
2853	252	198	223
2854	255	203	227
2855	253	198	222
2856	255	205	227
2857	255	205	228
2858	245	188	218
2859	248	191	221
2860	255	205	230
2861	251	202	225
2862	241	199	219
2863	249	211	226
2864	252	207	224
2865	248	197	218
2866	254	205	225
2867	251	204	222
2868	241	193	214
2869	245	201	222
2870	244	201	223
2871	243	202	224
2872	250	215	232
2873	252	217	230
2874	251	214	227
2875	252	212	228
2876	255	214	230
2877	249	206	221
2878	247	206	221
2879	248	212	225
2880	0	0	0
2881	0	0	0
2882	0	0	0
2883	0	0	0
2884	0	0	0
2885	0	0	0
2886	0	0	0
2887	0	0	0
2888	0	0	0
2889	0	0	0
2890	0	0	0
2891	0	0	0
2892	0	0	0
2893	0	0	0
2894	0	0	0
2895	0	0	0
2896	0	0	0
2897	0	0	0
2898	0	0	0
2899	0	0	0
2900	0	0	0
2901	0	0	0
2902	0	0	0
2903	250	240	244
2904	248	231	240
2905	245	223	235
2906	248	223	236
2907	246	220	232
2908	245	219	231
2909	251	224	236
2910	251	213	233
2911	249	201	229
2912	254	202	231
2913	250	194	224
2914	246	192	221
2915	247	192	225
2916	249	189	225
2917	246	183	220
2918	251	191	224
2919	255	201	229
2920	253	190	222
2921	246	177	217
2922	250	183	222
2923	251	186	223
2924	253	189	224
2925	250	189	221
2926	249	195	223
2927	254	203	228
2928	254	200	225
2929	251	195	218
2930	249	194	218
2931	250	195	221
2932	251	197	223
2933	252	199	224
2934	253	201	224
2935	247	197	221
2936	244	202	222
2937	252	214	230
2938	251	205	224
2939	246	195	218
2940	247	196	219
2941	244	195	218
2942	248	203	224
2943	252	211	230
2944	251	212	229
2945	250	212	229
2946	251	215	229
2947	252	217	229
2948	250	212	225
2949	250	210	226
2950	247	205	223
2951	241	197	216
2952	245	205	221
2953	0	0	0
2954	0	0	0
2955	0	0	0
2956	0	0	0
2957	0	0	0
2958	0	0	0
2959	0	0	0
2960	0	0	0
2961	0	0	0
2962	0	0	0
2963	0	0	0
2964	0	0	0
2965	0	0	0
2966	0	0	0
2967	0	0	0
2968	0	0	0
2969	0	0	0
2970	0	0	0
2971	0	0	0
2972	0	0	0
2973	0	0	0
2974	0	0	0
2975	0	0	0
2976	0	0	0
2977	246	239	241
2978	245	232	237
2979	243	223	234
2980	245	223	234
2981	242	217	228
2982	244	219	229
2983	254	226	239
2984	255	216	236
2985	247	198	226
2986	247	196	226
2987	247	196	225
2988	248	196	225
2989	253	199	231
2990	255	197	232
2991	249	186	223
2992	254	194	227
2993	255	202	231
2994	254	190	224
2995	248	182	221
2996	249	186	224
2997	251	191	226
2998	253	194	227
2999	248	190	223
3000	247	195	225
3001	251	203	227
3002	250	199	223
3003	251	199	222
3004	252	200	222
3005	248	194	220
3006	247	195	220
3007	252	203	224
3008	254	204	224
3009	251	203	224
3010	254	211	229
3011	255	217	232
3012	252	205	224
3013	251	203	223
3014	251	204	224
3015	249	202	225
3016	255	212	233
3017	253	207	228
3018	250	207	226
3019	250	209	226
3020	250	211	225
3021	253	216	227
3022	248	211	223
3023	246	208	224
3024	241	202	221
3025	242	206	222
3026	248	214	228
3027	0	0	0
3028	0	0	0
3029	0	0	0
3030	0	0	0
3031	0	0	0
3032	0	0	0
3033	0	0	0
3034	0	0	0
3035	0	0	0
3036	0	0	0
3037	0	0	0
3038	0	0	0
3039	0	0	0
3040	0	0	0
3041	0	0	0
3042	0	0	0
3043	0	0	0
3044	0	0	0
3045	0	0	0
3046	0	0	0
3047	0	0	0
3048	0	0	0
3049	0	0	0
3050	0	0	0
3051	0	0	0
3052	242	232	236
3053	240	224	234
3054	240	221	233
3055	238	216	228
3056	242	219	231
3057	251	225	239
3058	244	208	230
3059	236	190	219
3060	241	194	223
3061	244	196	227
3062	249	199	231
3063	253	201	233
3064	252	194	228
3065	246	184	221
3066	252	193	227
3067	255	201	232
3068	251	191	224
3069	244	182	219
3070	248	189	225
3071	252	195	230
3072	252	195	230
3073	248	191	226
3074	248	197	227
3075	251	203	228
3076	251	202	225
3077	253	203	227
3078	248	197	222
3079	243	191	218
3080	248	199	223
3081	253	207	226
3082	255	209	226
3083	254	207	224
3084	254	211	225
3085	255	216	229
3086	254	212	225
3087	253	209	224
3088	251	208	224
3089	250	206	227
3090	251	205	227
3091	246	199	222
3092	245	201	222
3093	246	204	223
3094	252	211	226
3095	254	216	227
3096	247	210	222
3097	243	207	223
3098	242	210	225
3099	244	214	227
3100	0	0	0
3101	0	0	0
3102	0	0	0
3103	0	0	0
3104	0	0	0
3105	0	0	0
3106	0	0	0
3107	0	0	0
3108	0	0	0
3109	0	0	0
3110	0	0	0
3111	0	0	0
3112	0	0	0
3113	0	0	0
3114	0	0	0
3115	0	0	0
3116	0	0	0
3117	0	0	0
3118	0	0	0
3119	0	0	0
3120	0	0	0
3121	0	0	0
3122	0	0	0
3123	0	0	0
3124	0	0	0
3125	0	0	0
3126	0	0	0
3127	0	0	0
3128	0	0	0
3129	239	224	233
3130	0	0	0
3131	0	0	0
3132	0	0	0
3133	0	0	0
3134	0	0	0
3135	247	204	232
3136	252	208	236
3137	249	200	230
3138	245	191	224
3139	248	193	226
3140	255	203	234
3141	250	195	227
3142	238	183	218
3143	243	189	223
3144	254	200	233
3145	252	196	231
3146	252	195	231
3147	251	196	230
3148	253	202	232
3149	251	202	229
3150	250	200	226
3151	252	205	228
3152	243	196	221
3153	247	203	225
3154	255	214	232
3155	254	208	227
3156	254	207	226
3157	248	201	221
3158	249	205	222
3159	253	213	226
3160	249	207	221
3161	249	209	223
3162	248	207	223
3163	247	206	225
3164	245	203	224
3165	246	206	225
3166	247	209	226
3167	250	212	228
3168	255	222	234
3169	252	211	225
3170	242	204	218
3171	241	208	222
3172	238	210	223
3173	245	220	229
3174	0	0	0
3175	0	0	0
3176	0	0	0
3177	0	0	0
3178	0	0	0
3179	0	0	0
3180	0	0	0
3181	0	0	0
3182	0	0	0
3183	0	0	0
3184	0	0	0
3185	0	0	0
3186	0	0	0
3187	0	0	0
3188	0	0	0
3189	0	0	0
3190	0	0	0
3191	0	0	0
3192	0	0	0
3193	0	0	0
3194	0	0	0
3195	0	0	0
3196	0	0	0
3197	0	0	0
3198	0	0	0
3199	0	0	0
3200	0	0	0
3201	0	0	0
3202	0	0	0
3203	0	0	0
3204	0	0	0
3205	0	0	0
3206	0	0	0
3207	0	0	0
3208	0	0	0
3209	244	208	230
3210	249	206	232
3211	247	199	228
3212	249	201	230
3213	251	203	231
3214	247	196	227
3215	240	188	221
3216	241	193	226
3217	247	200	232
3218	248	197	231
3219	245	191	226
3220	246	192	226
3221	246	194	228
3222	247	196	228
3223	246	196	226
3224	246	200	227
3225	247	203	226
3226	245	206	225
3227	250	213	229
3228	250	209	226
3229	247	203	223
3230	244	198	222
3231	239	193	220
3232	244	202	224
3233	247	209	225
3234	245	208	222
3235	245	209	223
3236	243	206	222
3237	242	205	223
3238	248	211	228
3239	251	215	230
3240	252	217	230
3241	255	221	231
3242	255	216	229
3243	248	206	223
3244	244	209	224
3245	242	213	225
3246	247	221	229
3247	0	0	0
3248	0	0	0
3249	0	0	0
3250	0	0	0
3251	0	0	0
3252	0	0	0
3253	0	0	0
3254	0	0	0
3255	0	0	0
3256	0	0	0
3257	0	0	0
3258	0	0	0
3259	0	0	0
3260	0	0	0
3261	0	0	0
3262	0	0	0
3263	0	0	0
3264	0	0	0
3265	0	0	0
3266	0	0	0
3267	0	0	0
3268	0	0	0
3269	0	0	0
3270	0	0	0
3271	0	0	0
3272	0	0	0
3273	0	0	0
3274	0	0	0
3275	0	0	0
3276	0	0	0
3277	0	0	0
3278	0	0	0
3279	0	0	0
3280	0	0	0
3281	0	0	0
3282	0	0	0
3283	243	213	231
3284	252	214	235
3285	243	195	225
3286	245	197	228
3287	247	202	230
3288	239	193	222
3289	239	194	224
3290	247	203	232
3291	243	196	231
3292	240	191	227
3293	243	196	227
3294	242	197	226
3295	245	201	229
3296	247	204	231
3297	246	205	230
3298	246	208	230
3299	243	207	226
3300	243	211	226
3301	246	214	227
3302	245	209	225
3303	244	206	225
3304	241	203	224
3305	243	207	228
3306	247	215	233
3307	244	213	228
3308	243	212	226
3309	239	208	223
3310	235	205	221
3311	242	213	227
3312	252	221	234
3313	248	211	227
3314	254	216	229
3315	254	215	227
3316	250	207	223
3317	244	204	222
3318	240	207	223
3319	244	215	226
3320	255	227	234
3321	0	0	0
3322	0	0	0
3323	0	0	0
3324	0	0	0
3325	0	0	0
3326	0	0	0
3327	0	0	0
3328	0	0	0
3329	0	0	0
3330	0	0	0
3331	0	0	0
3332	0	0	0
3333	0	0	0
3334	0	0	0
3335	0	0	0
3336	0	0	0
3337	0	0	0
3338	0	0	0
3339	0	0	0
3340	0	0	0
3341	0	0	0
3342	0	0	0
3343	0	0	0
3344	0	0	0
3345	0	0	0
3346	0	0	0
3347	0	0	0
3348	0	0	0
3349	0	0	0
3350	0	0	0
3351	0	0	0
3352	0	0	0
3353	0	0	0
3354	0	0	0
3355	0	0	0
3356	0	0	0
3357	242	218	232
3358	239	203	226
3359	230	185	219
3360	238	195	228
3361	240	200	228
3362	236	197	223
3363	238	199	225
3364	242	198	228
3365	240	192	227
3366	245	201	233
3367	248	207	233
3368	249	210	233
3369	251	213	234
3370	253	216	235
3371	251	216	234
3372	244	213	228
3373	241	212	225
3374	241	213	225
3375	244	217	228
3376	242	213	226
3377	241	210	226
3378	244	214	229
3379	245	217	230
3380	245	217	230
3381	244	217	231
3382	243	215	230
3383	240	211	227
3384	243	217	230
3385	250	224	235
3386	246	215	229
3387	243	206	223
3388	250	209	226
3389	251	208	224
3390	248	206	223
3391	243	203	221
3392	245	211	225
3393	250	219	229
3394	254	218	228
3395	249	212	223
3396	245	212	222
3397	246	216	226
3398	0	0	0
3399	247	217	227
3400	248	217	226
3401	0	0	0
3402	0	0	0
3403	0	0	0
3404	0	0	0
3405	0	0	0
3406	0	0	0
3407	0	0	0
3408	0	0	0
3409	0	0	0
3410	0	0	0
3411	0	0	0
3412	0	0	0
3413	0	0	0
3414	0	0	0
3415	0	0	0
3416	0	0	0
3417	0	0	0
3418	0	0	0
3419	0	0	0
3420	0	0	0
3421	0	0	0
3422	0	0	0
3423	0	0	0
3424	0	0	0
3425	0	0	0
3426	0	0	0
3427	0	0	0
3428	0	0	0
3429	0	0	0
3430	0	0	0
3431	240	220	231
3432	228	201	221
3433	228	196	225
3434	240	209	237
3435	235	202	228
3436	231	200	224
3437	238	206	228
3438	247	207	233
3439	243	196	229
3440	249	205	235
3441	249	206	232
3442	251	210	232
3443	246	202	227
3444	245	204	226
3445	247	212	229
3446	236	206	221
3447	238	214	224
3448	242	217	227
3449	241	215	227
3450	236	210	224
3451	241	217	229
3452	245	222	232
3453	245	220	229
3454	248	222	232
3455	247	218	232
3456	245	215	231
3457	246	217	231
3458	254	225	236
3459	252	222	232
3460	242	210	222
3461	248	214	228
3462	255	218	233
3463	251	208	225
3464	247	206	223
3465	249	210	227
3466	255	222	235
3467	252	212	227
3468	250	208	223
3469	251	211	223
3470	250	213	224
3471	250	215	227
3472	251	216	228
3473	247	215	225
3474	237	209	219
3475	235	215	220
3476	0	0	0
3477	0	0	0
3478	0	0	0
3479	0	0	0
3480	0	0	0
3481	0	0	0
3482	0	0	0
3483	0	0	0
3484	0	0	0
3485	0	0	0
3486	0	0	0
3487	0	0	0
3488	0	0	0
3489	0	0	0
3490	0	0	0
3491	0	0	0
3492	0	0	0
3493	0	0	0
3494	0	0	0
3495	0	0	0
3496	0	0	0
3497	0	0	0
3498	0	0	0
3499	0	0	0
3500	0	0	0
3501	0	0	0
3502	0	0	0
3503	0	0	0
3504	0	0	0
3505	237	221	230
3506	232	214	228
3507	230	209	231
3508	234	210	235
3509	232	205	230
3510	238	211	233
3511	247	218	237
3512	250	211	235
3513	246	200	231
3514	247	202	231
3515	246	203	228
3516	242	197	223
3517	237	190	220
3518	244	202	227
3519	245	210	228
3520	237	211	224
3521	241	219	231
3522	242	218	231
3523	240	215	229
3524	241	220	231
3525	244	226	233
3526	242	223	230
3527	243	222	230
3528	244	218	230
3529	0	0	0
3530	245	217	230
3531	248	219	228
3532	251	220	227
3533	250	218	224
3534	248	218	224
3535	254	222	232
3536	255	218	232
3537	249	208	224
3538	251	212	228
3539	255	217	233
3540	251	210	229
3541	245	200	222
3542	249	205	223
3543	250	207	222
3544	248	208	221
3545	249	210	223
3546	251	214	226
3547	246	213	221
3548	242	218	222
3549	240	224	225
3550	0	0	0
3551	0	0	0
3552	0	0	0
3553	0	0	0
3554	0	0	0
3555	0	0	0
3556	0	0	0
3557	0	0	0
3558	0	0	0
3559	0	0	0
3560	0	0	0
3561	0	0	0
3562	0	0	0
3563	0	0	0
3564	0	0	0
3565	0	0	0
3566	0	0	0
3567	0	0	0
3568	0	0	0
3569	0	0	0
3570	0	0	0
3571	0	0	0
3572	0	0	0
3573	0	0	0
3574	0	0	0
3575	0	0	0
3576	0	0	0
3577	0	0	0
3578	0	0	0
3579	239	228	234
3580	237	223	233
3581	232	214	232
3582	233	213	234
3583	237	214	235
3584	252	225	244
3585	243	204	230
3586	241	195	225
3587	247	201	231
3588	247	203	231
3589	245	204	228
3590	237	196	222
3591	235	195	222
3592	245	208	231
3593	245	212	229
3594	241	215	228
3595	246	224	235
3596	243	221	233
3597	242	221	233
3598	243	225	235
3599	240	224	231
3600	237	220	227
3601	0	0	0
3602	0	0	0
3603	0	0	0
3604	250	227	235
3605	247	219	227
3606	248	219	225
3607	247	216	222
3608	251	219	225
3609	253	219	229
3610	250	211	226
3611	248	207	223
3612	253	213	229
3613	253	214	231
3614	245	204	225
3615	247	206	227
3616	254	213	230
3617	253	213	227
3618	251	213	225
3619	249	211	224
3620	251	214	226
3621	245	210	220
3622	247	219	224
3623	244	222	223
3624	0	0	0
3625	0	0	0
3626	0	0	0
3627	0	0	0
3628	0	0	0
3629	0	0	0
3630	0	0	0
3631	0	0	0
3632	0	0	0
3633	0	0	0
3634	0	0	0
3635	0	0	0
3636	0	0	0
3637	0	0	0
3638	0	0	0
3639	0	0	0
3640	0	0	0
3641	0	0	0
3642	0	0	0
3643	0	0	0
3644	0	0	0
3645	0	0	0
3646	0	0	0
3647	0	0	0
3648	0	0	0
3649	0	0	0
3650	0	0	0
3651	0	0	0
3652	0	0	0
3653	243	237	240
3654	239	228	236
3655	234	218	232
3656	234	217	233
3657	238	218	234
3658	234	202	227
3659	227	183	217
3660	240	195	228
3661	244	200	231
3662	244	202	230
3663	243	204	229
3664	240	202	227
3665	237	200	225
3666	245	210	231
3667	245	215	231
3668	245	220	231
3669	248	228	236
3670	244	225	234
3671	243	225	235
3672	241	224	234
3673	238	222	230
3674	0	0	0
3675	0	0	0
3676	0	0	0
3677	245	229	236
3678	247	226	234
3679	245	219	228
3680	245	218	226
3681	246	215	224
3682	248	215	225
3683	250	214	227
3684	249	211	226
3685	247	207	222
3686	249	209	224
3687	249	209	224
3688	248	210	226
3689	250	212	230
3690	251	214	230
3691	251	214	226
3692	248	210	223
3693	246	209	224
3694	246	209	224
3695	242	206	219
3696	246	215	222
3697	243	217	218
3698	0	0	0
3699	0	0	0
3700	0	0	0
3701	0	0	0
3702	0	0	0
3703	0	0	0
3704	0	0	0
3705	0	0	0
3706	0	0	0
3707	0	0	0
3708	0	0	0
3709	0	0	0
3710	0	0	0
3711	0	0	0
3712	0	0	0
3713	0	0	0
3714	0	0	0
3715	0	0	0
3716	0	0	0
3717	0	0	0
3718	0	0	0
3719	0	0	0
3720	0	0	0
3721	0	0	0
3722	0	0	0
3723	0	0	0
3724	0	0	0
3725	0	0	0
3726	0	0	0
3727	242	238	239
3728	238	229	236
3729	238	225	236
3730	240	226	238
3731	240	222	235
3732	228	203	224
3733	230	199	226
3734	0	0	0
3735	0	0	0
3736	0	0	0
3737	0	0	0
3738	247	211	233
3739	239	201	224
3740	243	209	228
3741	242	212	228
3742	242	217	229
3743	247	228	235
3744	0	0	0
3745	0	0	0
3746	0	0	0
3747	0	0	0
3748	0	0	0
3749	0	0	0
3750	0	0	0
3751	244	230	235
3752	245	226	233
3753	245	223	230
3754	248	222	230
3755	248	219	229
3756	248	218	228
3757	249	216	228
3758	250	214	227
3759	250	213	226
3760	250	213	226
3761	248	210	224
3762	251	213	228
3763	247	209	227
3764	242	207	223
3765	250	220	229
3766	250	218	227
3767	248	215	227
3768	247	216	228
3769	241	209	221
3770	246	218	225
3771	240	214	217
3772	0	0	0
3773	0	0	0
3774	0	0	0
3775	0	0	0
3776	0	0	0
3777	0	0	0
3778	0	0	0
3779	0	0	0
3780	0	0	0
3781	0	0	0
3782	0	0	0
3783	0	0	0
3784	0	0	0
3785	0	0	0
3786	0	0	0
3787	0	0	0
3788	0	0	0
3789	0	0	0
3790	0	0	0
3791	0	0	0
3792	0	0	0
3793	0	0	0
3794	0	0	0
3795	0	0	0
3796	0	0	0
3797	0	0	0
3798	0	0	0
3799	0	0	0
3800	0	0	0
3801	0	0	0
3802	241	236	238
3803	241	232	239
3804	241	229	238
3805	239	225	235
3806	235	219	232
3807	0	0	0
3808	0	0	0
3809	0	0	0
3810	0	0	0
3811	0	0	0
3812	241	207	228
3813	234	197	218
3814	237	205	222
3815	238	209	223
3816	244	220	230
3817	249	231	237
3818	0	0	0
3819	0	0	0
3820	0	0	0
3821	0	0	0
3822	0	0	0
3823	0	0	0
3824	0	0	0
3825	0	0	0
3826	245	229	233
3827	245	225	230
3828	248	224	230
3829	249	222	230
3830	251	222	232
3831	251	219	229
3832	251	218	228
3833	250	216	227
3834	246	212	224
3835	245	210	224
3836	245	208	225
3837	241	204	222
3838	247	216	229
3839	254	229	234
3840	251	224	229
3841	250	221	228
3842	247	217	226
3843	242	211	221
3844	242	213	222
3845	237	210	217
3846	245	222	224
3847	0	0	0
3848	0	0	0
3849	0	0	0
3850	0	0	0
3851	0	0	0
3852	0	0	0
3853	0	0	0
3854	0	0	0
3855	0	0	0
3856	0	0	0
3857	0	0	0
3858	0	0	0
3859	0	0	0
3860	0	0	0
3861	0	0	0
3862	0	0	0
3863	0	0	0
3864	0	0	0
3865	0	0	0
3866	0	0	0
3867	0	0	0
3868	0	0	0
3869	0	0	0
3870	0	0	0
3871	0	0	0
3872	0	0	0
3873	0	0	0
3874	0	0	0
3875	0	0	0
3876	0	0	0
3877	243	238	241
3878	241	234	240
3879	235	224	233
3880	232	219	231
3881	226	210	227
3882	0	0	0
3883	0	0	0
3884	0	0	0
3885	0	0	0
3886	237	208	227
3887	229	198	218
3888	234	207	222
3889	239	214	226
3890	249	227	235
3891	245	225	233
3892	0	0	0
3893	0	0	0
3894	0	0	0
3895	0	0	0
3896	0	0	0
3897	0	0	0
3898	0	0	0
3899	0	0	0
3900	0	0	0
3901	248	231	233
3902	250	230	234
3903	247	219	230
3904	252	220	233
3905	247	213	226
3906	244	210	223
3907	248	217	227
3908	244	213	225
3909	246	216	227
3910	243	213	225
3911	244	214	227
3912	255	229	237
3913	251	222	229
3914	244	215	222
3915	246	217	224
3916	248	216	224
3917	247	216	224
3918	244	217	224
3919	240	213	222
3920	249	226	229
3921	245	220	221
3922	0	0	0
3923	0	0	0
3924	0	0	0
3925	0	0	0
3926	0	0	0
3927	0	0	0
3928	0	0	0
3929	0	0	0
3930	0	0	0
3931	0	0	0
3932	0	0	0
3933	0	0	0
3934	0	0	0
3935	0	0	0
3936	0	0	0
3937	0	0	0
3938	0	0	0
3939	0	0	0
3940	0	0	0
3941	0	0	0
3942	0	0	0
3943	0	0	0
3944	0	0	0
3945	0	0	0
3946	0	0	0
3947	0	0	0
3948	0	0	0
3949	0	0	0
3950	0	0	0
3951	0	0	0
3952	239	234	239
3953	233	224	234
3954	228	217	231
3955	0	0	0
3956	0	0	0
3957	0	0	0
3958	0	0	0
3959	0	0	0
3960	0	0	0
3961	230	202	223
3962	238	213	230
3963	242	220	231
3964	243	220	230
3965	0	0	0
3966	0	0	0
3967	0	0	0
3968	0	0	0
3969	0	0	0
3970	0	0	0
3971	0	0	0
3972	0	0	0
3973	0	0	0
3974	0	0	0
3975	0	0	0
3976	243	223	230
3977	239	212	226
3978	241	209	226
3979	0	0	0
3980	241	210	225
3981	245	217	229
3982	248	221	231
3983	249	223	229
3984	247	222	227
3985	249	223	230
3986	250	221	229
3987	246	215	223
3988	246	216	223
3989	248	218	226
3990	252	220	228
3991	250	220	225
3992	244	216	222
3993	241	214	222
3994	240	212	221
3995	238	208	216
3996	248	216	222
3997	0	0	0
3998	0	0	0
3999	0	0	0
4000	0	0	0
4001	0	0	0
4002	0	0	0
4003	0	0	0
4004	0	0	0
4005	0	0	0
4006	0	0	0
4007	0	0	0
4008	0	0	0
4009	0	0	0
4010	0	0	0
4011	0	0	0
4012	0	0	0
4013	0	0	0
4014	0	0	0
4015	0	0	0
4016	0	0	0
4017	0	0	0
4018	0	0	0
4019	0	0	0
4020	0	0	0
4021	0	0	0
4022	0	0	0
4023	0	0	0
4024	0	0	0
4025	0	0	0
4026	0	0	0
4027	0	0	0
4028	0	0	0
4029	0	0	0
4030	0	0	0
4031	0	0	0
4032	0	0	0
4033	0	0	0
4034	0	0	0
4035	232	206	228
4036	243	219	236
4037	241	217	230
4038	0	0	0
4039	0	0	0
4040	0	0	0
4041	0	0	0
4042	0	0	0
4043	0	0	0
4044	0	0	0
4045	0	0	0
4046	0	0	0
4047	0	0	0
4048	0	0	0
4049	0	0	0
4050	0	0	0
4051	0	0	0
4052	0	0	0
4053	0	0	0
4054	249	229	238
4055	246	223	233
4056	252	227	235
4057	246	219	226
4058	245	219	225
4059	250	225	231
4060	249	221	229
4061	248	216	225
4062	252	219	228
4063	253	219	228
4064	250	218	226
4065	247	216	222
4066	244	214	221
4067	243	213	223
4068	241	211	222
4069	246	215	224
4070	0	0	0
4071	0	0	0
4072	0	0	0
4073	0	0	0
4074	0	0	0
4075	0	0	0
4076	0	0	0
4077	0	0	0
4078	0	0	0
4079	0	0	0
4080	0	0	0
4081	0	0	0
4082	0	0	0
4083	0	0	0
4084	0	0	0
4085	0	0	0
4086	0	0	0
4087	0	0	0
4088	0	0	0
4089	0	0	0
4090	0	0	0
4091	0	0	0
4092	0	0	0
4093	0	0	0
4094	0	0	0
4095	0	0	0
4096	0	0	0
4097	0	0	0
4098	0	0	0
4099	0	0	0
4100	0	0	0
4101	0	0	0
4102	0	0	0
4103	0	0	0
4104	0	0	0
4105	0	0	0
4106	0	0	0
4107	0	0	0
4108	0	0	0
4109	234	209	229
4110	244	217	235
4111	241	216	229
4112	0	0	0
4113	0	0	0
4114	0	0	0
4115	0	0	0
4116	0	0	0
4117	0	0	0
4118	0	0	0
4119	0	0	0
4120	0	0	0
4121	0	0	0
4122	0	0	0
4123	0	0	0
4124	0	0	0
4125	0	0	0
4126	0	0	0
4127	0	0	0
4128	0	0	0
4129	244	224	232
4130	245	221	230
4131	242	215	226
4132	244	219	229
4133	249	225	232
4134	250	222	230
4135	250	217	227
4136	253	218	229
4137	252	217	227
4138	248	215	224
4139	246	214	222
4140	247	214	223
4141	246	213	226
4142	249	217	228
4143	252	221	227
4144	0	0	0
4145	0	0	0
4146	0	0	0
4147	0	0	0
4148	0	0	0
4149	0	0	0
4150	0	0	0
4151	0	0	0
4152	0	0	0
4153	0	0	0
4154	0	0	0
4155	0	0	0
4156	0	0	0
4157	0	0	0
4158	0	0	0
4159	0	0	0
4160	0	0	0
4161	0	0	0
4162	0	0	0
4163	0	0	0
4164	0	0	0
4165	0	0	0
4166	0	0	0
4167	0	0	0
4168	0	0	0
4169	0	0	0
4170	0	0	0
4171	0	0	0
4172	0	0	0
4173	0	0	0
4174	0	0	0
4175	0	0	0
4176	0	0	0
4177	0	0	0
4178	0	0	0
4179	0	0	0
4180	0	0	0
4181	0	0	0
4182	0	0	0
4183	0	0	0
4184	253	226	240
4185	0	0	0
4186	0	0	0
4187	0	0	0
4188	0	0	0
4189	0	0	0
4190	0	0	0
4191	0	0	0
4192	0	0	0
4193	0	0	0
4194	0	0	0
4195	0	0	0
4196	0	0	0
4197	0	0	0
4198	0	0	0
4199	0	0	0
4200	0	0	0
4201	0	0	0
4202	0	0	0
4203	0	0	0
4204	0	0	0
4205	245	224	233
4206	246	228	235
4207	247	224	232
4208	254	224	234
4209	250	215	228
4210	249	214	226
4211	250	217	227
4212	249	216	226
4213	251	217	227
4214	255	219	230
4215	249	209	225
4216	252	214	228
4217	0	0	0
4218	0	0	0
4219	0	0	0
4220	0	0	0
4221	0	0	0
4222	0	0	0
4223	0	0	0
4224	0	0	0
4225	0	0	0
4226	0	0	0
4227	0	0	0
4228	0	0	0
4229	0	0	0
4230	0	0	0
4231	0	0	0
4232	0	0	0
4233	0	0	0
4234	0	0	0
4235	0	0	0
4236	0	0	0
4237	0	0	0
4238	0	0	0
4239	0	0	0
4240	0	0	0
4241	0	0	0
4242	0	0	0
4243	0	0	0
4244	0	0	0
4245	0	0	0
4246	0	0	0
4247	0	0	0
4248	0	0	0
4249	0	0	0
4250	0	0	0
4251	0	0	0
4252	0	0	0
4253	0	0	0
4254	0	0	0
4255	0	0	0
4256	0	0	0
4257	0	0	0
4258	0	0	0
4259	0	0	0
4260	0	0	0
4261	0	0	0
4262	0	0	0
4263	0	0	0
4264	0	0	0
4265	0	0	0
4266	0	0	0
4267	0	0	0
4268	0	0	0
4269	0	0	0
4270	0	0	0
4271	0	0	0
4272	0	0	0
4273	0	0	0
4274	0	0	0
4275	0	0	0
4276	0	0	0
4277	0	0	0
4278	0	0	0
4279	0	0	0
4280	0	0	0
4281	0	0	0
4282	244	215	227
4283	241	206	222
4284	244	211	225
4285	247	215	227
4286	248	216	227
4287	251	217	228
4288	0	0	0
4289	0	0	0
4290	0	0	0
4291	0	0	0
4292	0	0	0
