 	R	G	B
1	0	0	0
2	0	0	0
3	0	0	0
4	0	0	0
5	0	0	0
6	0	0	0
7	0	0	0
8	0	0	0
9	254	218	224
10	0	0	0
11	0	0	0
12	0	0	0
13	0	0	0
14	0	0	0
15	0	0	0
16	0	0	0
17	0	0	0
18	0	0	0
19	0	0	0
20	0	0	0
21	251	191	222
22	0	0	0
23	0	0	0
24	0	0	0
25	0	0	0
26	244	182	212
27	251	197	219
28	254	209	222
29	253	215	221
30	0	0	0
31	0	0	0
32	0	0	0
33	0	0	0
34	0	0	0
35	0	0	0
36	0	0	0
37	0	0	0
38	0	0	0
39	252	204	222
40	255	201	226
41	246	180	216
42	255	191	226
43	251	183	219
44	253	187	221
45	246	179	216
46	255	195	224
47	253	200	219
48	250	205	216
49	250	214	219
50	0	0	0
51	0	0	0
52	0	0	0
53	0	0	0
54	0	0	0
55	0	0	0
56	0	0	0
57	0	0	0
58	253	211	223
59	253	199	220
60	244	179	213
61	249	181	219
62	246	175	215
63	247	175	216
64	242	168	211
65	250	182	218
66	249	188	214
67	251	198	216
68	252	207	220
69	255	218	225
70	0	0	0
71	0	0	0
72	0	0	0
73	0	0	0
74	0	0	0
75	0	0	0
76	0	0	0
77	253	214	223
78	253	201	220
79	246	183	215
80	252	186	221
81	253	184	222
82	255	185	224
83	246	171	214
84	255	186	222
85	253	186	217
86	255	198	222
87	251	194	218
88	255	206	222
89	255	215	223
90	0	0	0
91	0	0	0
92	0	0	0
93	0	0	0
94	0	0	0
95	0	0	0
96	0	0	0
97	250	202	219
98	244	184	214
99	252	188	221
100	253	186	220
101	250	178	215
102	242	165	207
103	249	175	214
104	249	177	212
105	249	180	214
106	245	178	212
107	250	190	218
108	251	198	216
109	0	0	0
110	0	0	0
111	0	0	0
112	0	0	0
113	0	0	0
114	0	0	0
115	0	0	0
116	0	0	0
117	247	195	218
118	255	200	226
119	254	190	219
120	252	183	215
121	249	176	212
122	255	188	221
123	252	179	215
124	254	182	218
125	250	179	217
126	255	192	223
127	253	195	218
128	0	0	0
129	0	0	0
130	0	0	0
131	0	0	0
132	0	0	0
133	0	0	0
134	0	0	0
135	0	0	0
136	249	204	218
137	255	203	222
138	255	193	217
139	255	191	217
140	254	184	215
141	254	182	215
142	249	174	211
143	252	178	216
144	249	176	215
145	255	186	220
146	253	190	216
147	255	201	218
148	255	211	222
149	255	214	223
150	0	0	0
151	0	0	0
152	0	0	0
153	0	0	0
154	0	0	0
155	250	210	219
156	255	210	224
157	248	185	209
158	250	183	211
159	255	186	215
160	255	184	217
161	251	175	213
162	255	180	219
163	250	173	214
164	255	184	220
165	253	185	216
166	255	196	220
167	253	194	217
168	252	196	217
169	251	203	219
170	0	0	0
171	0	0	0
172	0	0	0
173	0	0	0
174	253	218	223
175	252	201	216
176	243	177	204
177	253	186	215
178	255	190	221
179	255	184	220
180	253	176	217
181	255	175	219
182	250	169	215
183	253	176	219
184	252	177	216
185	248	176	213
186	244	174	211
187	248	185	216
188	246	190	214
189	0	0	0
190	0	0	0
191	0	0	0
192	0	0	0
193	253	219	223
194	252	201	215
195	248	184	210
196	255	194	222
197	253	179	217
198	253	175	218
199	252	170	218
200	254	171	220
201	250	165	216
202	254	173	220
203	254	177	220
204	251	176	217
205	252	182	221
206	255	192	225
207	249	192	218
208	0	0	0
209	0	0	0
210	0	0	0
211	0	0	0
212	253	220	224
213	253	204	218
214	248	187	211
215	248	179	212
216	243	166	210
217	250	168	218
218	250	165	220
219	254	167	223
220	249	161	216
221	254	170	220
222	255	175	221
223	255	181	223
224	255	186	224
225	255	190	224
226	250	190	219
227	0	0	0
228	0	0	0
229	0	0	0
230	0	0	0
231	255	223	226
232	253	207	219
233	250	192	214
234	251	185	216
235	251	176	218
236	255	180	228
237	249	160	219
238	253	163	223
239	247	155	215
240	253	164	220
241	254	168	219
242	255	174	221
243	250	172	217
244	249	177	216
245	253	192	221
246	255	205	225
247	0	0	0
248	0	0	0
249	0	0	0
250	255	227	228
251	254	211	220
252	252	197	215
253	254	190	217
254	254	181	218
255	250	167	215
256	240	148	207
257	245	151	214
258	242	145	212
259	249	156	220
260	249	160	218
261	249	162	216
262	244	161	213
263	254	181	223
264	255	195	225
265	0	0	0
266	0	0	0
267	0	0	0
268	0	0	0
269	253	224	225
270	249	207	216
271	251	199	215
272	255	193	218
273	253	180	215
274	248	166	212
275	250	163	216
276	255	167	225
277	247	152	217
278	255	163	226
279	253	162	222
280	252	164	222
281	249	165	219
282	255	184	229
283	250	183	218
284	0	0	0
285	0	0	0
286	0	0	0
287	0	0	0
288	249	221	222
289	249	210	217
290	252	201	216
291	253	191	214
292	250	178	211
293	255	179	219
294	255	176	224
295	255	168	223
296	247	153	213
297	252	159	219
298	251	159	220
299	254	165	224
300	251	165	222
301	252	172	222
302	243	171	212
303	249	193	220
304	0	0	0
305	0	0	0
306	0	0	0
307	251	228	227
308	254	217	223
309	253	204	217
310	253	193	214
311	250	180	213
312	255	181	221
313	252	167	218
314	249	159	216
315	248	155	213
316	254	162	220
317	251	158	219
318	254	164	225
319	251	164	222
320	251	171	222
321	248	175	218
322	255	200	230
323	255	206	228
324	0	0	0
325	0	0	0
326	0	0	0
327	250	217	222
328	249	203	213
329	248	190	210
330	248	179	212
331	249	171	216
332	243	156	211
333	250	161	219
334	250	158	218
335	252	159	220
336	249	155	219
337	253	162	223
338	250	162	219
339	253	172	223
340	252	178	223
341	255	189	226
342	252	194	221
343	0	0	0
344	0	0	0
345	0	0	0
346	0	0	0
347	0	0	0
348	0	0	0
349	255	193	220
350	255	185	223
351	247	165	216
352	255	170	224
353	253	163	220
354	255	164	223
355	251	158	220
356	255	165	226
357	249	159	218
358	253	170	223
359	253	176	224
360	255	186	226
361	252	191	220
362	0	0	0
363	0	0	0
364	0	0	0
365	0	0	0
366	0	0	0
367	0	0	0
368	255	201	219
369	255	187	217
370	248	168	214
371	254	171	222
372	252	165	218
373	254	164	220
374	251	158	218
375	252	160	220
376	246	155	215
377	251	165	220
378	250	170	220
379	253	181	223
380	250	186	219
381	0	0	0
382	0	0	0
383	0	0	0
384	0	0	0
385	0	0	0
386	0	0	0
387	254	201	216
388	252	187	214
389	248	172	214
390	255	175	223
391	251	164	217
392	254	164	219
393	246	153	213
394	248	155	216
395	254	165	223
396	255	175	228
397	250	169	219
398	253	180	223
399	249	184	219
400	0	0	0
401	0	0	0
402	0	0	0
403	0	0	0
404	0	0	0
405	0	0	0
406	249	201	217
407	249	188	216
408	246	173	215
409	250	170	220
410	246	160	214
411	247	156	214
412	240	145	208
413	252	162	220
414	255	172	225
415	253	169	221
416	245	163	214
417	251	177	222
418	248	182	220
419	0	0	0
420	0	0	0
421	0	0	0
422	0	0	0
423	0	0	0
424	0	0	0
425	251	215	225
426	255	205	226
427	250	182	219
428	253	180	223
429	252	171	220
430	254	168	221
431	244	152	211
432	255	168	223
433	255	172	224
434	251	169	220
435	251	172	221
436	255	187	230
437	248	178	221
438	0	0	0
439	0	0	0
440	0	0	0
441	0	0	0
442	0	0	0
443	0	0	0
444	0	0	0
445	254	209	225
446	248	187	215
447	252	184	220
448	253	178	221
449	253	171	221
450	244	155	212
451	254	168	222
452	254	171	222
453	255	176	224
454	255	180	227
455	253	179	226
456	244	171	218
457	0	0	0
458	0	0	0
459	0	0	0
460	0	0	0
461	0	0	0
462	0	0	0
463	0	0	0
464	0	0	0
465	250	198	218
466	255	197	224
467	251	179	218
468	251	173	219
469	248	164	216
470	255	177	227
471	250	167	220
472	252	172	223
473	255	179	226
474	252	178	224
475	249	178	223
476	0	0	0
477	0	0	0
478	0	0	0
479	0	0	0
480	0	0	0
481	0	0	0
482	0	0	0
483	0	0	0
484	0	0	0
485	251	195	218
486	246	178	212
487	252	178	218
488	249	170	215
489	254	172	222
490	247	162	219
491	252	173	226
492	254	179	226
493	252	180	223
494	249	180	220
495	0	0	0
496	0	0	0
497	0	0	0
498	0	0	0
499	0	0	0
500	0	0	0
501	0	0	0
502	0	0	0
503	0	0	0
504	0	0	0
505	251	193	217
506	255	194	224
507	249	172	215
508	254	174	222
509	243	158	217
510	250	169	225
511	255	183	228
512	253	183	224
513	249	182	221
514	0	0	0
515	0	0	0
516	0	0	0
517	0	0	0
518	0	0	0
519	0	0	0
520	0	0	0
521	0	0	0
522	0	0	0
523	0	0	0
524	0	0	0
525	254	191	218
526	0	0	0
527	246	165	215
528	235	149	209
529	251	173	226
530	255	187	230
531	255	188	228
532	252	188	227
533	0	0	0
534	0	0	0
535	0	0	0
536	0	0	0
537	0	0	0
538	0	0	0
539	0	0	0
540	0	0	0
541	0	0	0
542	0	0	0
543	0	0	0
544	0	0	0
545	0	0	0
546	253	178	222
547	243	162	215
548	255	185	233
549	255	182	227
550	254	184	226
551	247	182	224
552	0	0	0
553	0	0	0
554	0	0	0
555	0	0	0
556	0	0	0
557	0	0	0
558	0	0	0
559	0	0	0
560	0	0	0
561	0	0	0
562	0	0	0
563	0	0	0
564	0	0	0
565	0	0	0
566	247	171	218
567	254	179	227
568	250	175	223
569	250	178	224
570	0	0	0
571	0	0	0
572	0	0	0
573	0	0	0
574	0	0	0
575	0	0	0
576	0	0	0
577	0	0	0
578	0	0	0
579	0	0	0
580	0	0	0
581	0	0	0
582	0	0	0
583	0	0	0
584	0	0	0
585	249	175	220
586	255	183	229
587	246	172	220
588	0	0	0
589	0	0	0
590	0	0	0
591	0	0	0
592	0	0	0
593	0	0	0
594	0	0	0
595	0	0	0
596	0	0	0
597	0	0	0
598	0	0	0
599	0	0	0
600	0	0	0
601	0	0	0
602	0	0	0
603	0	0	0
604	0	0	0
605	251	177	223
606	0	0	0
607	0	0	0
608	0	0	0
