 	R	G	B
1	0	0	0
2	0	0	0
3	0	0	0
4	0	0	0
5	0	0	0
6	253	238	247
7	255	241	250
8	254	237	247
9	0	0	0
10	0	0	0
11	0	0	0
12	0	0	0
13	0	0	0
14	0	0	0
15	0	0	0
16	0	0	0
17	0	0	0
18	0	0	0
19	0	0	0
20	0	0	0
21	0	0	0
22	0	0	0
23	0	0	0
24	0	0	0
25	0	0	0
26	0	0	0
27	0	0	0
28	0	0	0
29	0	0	0
30	0	0	0
31	0	0	0
32	0	0	0
33	0	0	0
34	0	0	0
35	0	0	0
36	0	0	0
37	252	233	245
38	250	229	242
39	252	229	242
40	249	225	239
41	252	231	243
42	0	0	0
43	0	0	0
44	0	0	0
45	0	0	0
46	0	0	0
47	0	0	0
48	0	0	0
49	0	0	0
50	0	0	0
51	0	0	0
52	0	0	0
53	0	0	0
54	0	0	0
55	0	0	0
56	0	0	0
57	0	0	0
58	0	0	0
59	0	0	0
60	0	0	0
61	0	0	0
62	0	0	0
63	0	0	0
64	0	0	0
65	0	0	0
66	0	0	0
67	0	0	0
68	253	235	246
69	255	237	250
70	252	226	243
71	254	227	243
72	249	220	238
73	0	0	0
74	0	0	0
75	0	0	0
76	0	0	0
77	0	0	0
78	0	0	0
79	0	0	0
80	0	0	0
81	0	0	0
82	0	0	0
83	0	0	0
84	0	0	0
85	0	0	0
86	0	0	0
87	0	0	0
88	0	0	0
89	0	0	0
90	0	0	0
91	0	0	0
92	0	0	0
93	0	0	0
94	0	0	0
95	0	0	0
96	0	0	0
97	0	0	0
98	0	0	0
99	255	246	254
100	255	240	251
101	255	234	249
102	254	223	244
103	254	221	243
104	250	215	238
105	255	225	244
106	255	230	246
107	255	233	247
108	0	0	0
109	0	0	0
110	0	0	0
111	0	0	0
112	0	0	0
113	0	0	0
114	0	0	0
115	0	0	0
116	0	0	0
117	0	0	0
118	0	0	0
119	0	0	0
120	0	0	0
121	0	0	0
122	0	0	0
123	0	0	0
124	0	0	0
125	0	0	0
126	0	0	0
127	0	0	0
128	0	0	0
129	0	0	0
130	255	241	251
131	255	238	251
132	252	222	242
133	251	216	240
134	251	213	241
135	251	212	241
136	252	213	241
137	255	222	247
138	251	213	238
139	251	216	238
140	251	220	238
141	0	0	0
142	0	0	0
143	0	0	0
144	0	0	0
145	0	0	0
146	0	0	0
147	0	0	0
148	0	0	0
149	0	0	0
150	0	0	0
151	0	0	0
152	0	0	0
153	0	0	0
154	0	0	0
155	0	0	0
156	0	0	0
157	0	0	0
158	0	0	0
159	0	0	0
160	0	0	0
161	255	248	255
162	252	230	247
163	250	221	244
164	244	205	235
165	248	207	239
166	248	204	240
167	252	208	244
168	254	210	244
169	250	204	239
170	242	195	231
171	247	204	237
172	248	209	238
173	255	224	244
174	255	237	247
175	255	239	246
176	0	0	0
177	0	0	0
178	0	0	0
179	0	0	0
180	0	0	0
181	0	0	0
182	0	0	0
183	0	0	0
184	0	0	0
185	0	0	0
186	0	0	0
187	0	0	0
188	0	0	0
189	0	0	0
190	0	0	0
191	0	0	0
192	0	0	0
193	255	243	254
194	250	224	247
195	250	216	246
196	245	202	239
197	250	204	243
198	249	200	242
199	253	204	246
200	255	208	247
201	252	203	242
202	249	200	238
203	255	210	244
204	253	210	243
205	255	225	248
206	255	224	241
207	254	226	239
208	255	232	244
209	0	0	0
210	0	0	0
211	0	0	0
212	0	0	0
213	0	0	0
214	0	0	0
215	0	0	0
216	0	0	0
217	0	0	0
218	0	0	0
219	0	0	0
220	0	0	0
221	0	0	0
222	0	0	0
223	0	0	0
224	0	0	0
225	0	0	0
226	241	211	240
227	242	203	241
228	238	191	235
229	244	194	240
230	243	190	240
231	251	199	245
232	254	203	245
233	255	203	242
234	252	200	238
235	255	207	242
236	255	207	240
237	255	212	241
238	253	212	236
239	252	216	236
240	253	221	239
241	255	235	247
242	255	250	255
243	0	0	0
244	0	0	0
245	0	0	0
246	0	0	0
247	0	0	0
248	0	0	0
249	0	0	0
250	0	0	0
251	0	0	0
252	0	0	0
253	0	0	0
254	0	0	0
255	0	0	0
256	0	0	0
257	0	0	0
258	251	227	252
259	254	221	254
260	250	207	249
261	255	210	254
262	250	198	248
263	255	207	253
264	255	200	245
265	255	201	243
266	251	193	236
267	255	201	241
268	250	193	234
269	251	198	236
270	251	202	234
271	250	205	234
272	254	216	239
273	255	229	246
274	255	237	249
275	248	223	238
276	0	0	0
277	0	0	0
278	0	0	0
279	0	0	0
280	0	0	0
281	0	0	0
282	0	0	0
283	0	0	0
284	0	0	0
285	0	0	0
286	0	0	0
287	0	0	0
288	0	0	0
289	0	0	0
290	254	237	255
291	252	226	254
292	248	212	249
293	248	206	249
294	244	195	244
295	251	197	247
296	249	193	240
297	251	191	239
298	248	185	236
299	249	185	237
300	243	178	232
301	248	186	235
302	247	190	233
303	251	201	236
304	254	211	240
305	254	217	240
306	255	225	245
307	255	234	249
308	255	248	255
309	0	0	0
310	0	0	0
311	0	0	0
312	0	0	0
313	0	0	0
314	0	0	0
315	0	0	0
316	0	0	0
317	0	0	0
318	0	0	0
319	0	0	0
320	0	0	0
321	0	0	0
322	255	246	255
323	250	232	254
324	243	216	248
325	244	211	249
326	249	209	253
327	255	216	255
328	252	194	243
329	255	194	244
330	250	183	240
331	252	184	242
332	247	179	238
333	252	187	242
334	251	191	239
335	255	203	242
336	255	207	240
337	254	213	241
338	255	221	245
339	255	230	248
340	255	236	246
341	0	0	0
342	0	0	0
343	0	0	0
344	0	0	0
345	0	0	0
346	0	0	0
347	0	0	0
348	0	0	0
349	0	0	0
350	0	0	0
351	0	0	0
352	0	0	0
353	0	0	0
354	0	0	0
355	250	238	253
356	0	0	0
357	247	222	253
358	254	222	255
359	255	210	255
360	248	190	241
361	251	186	242
362	246	176	238
363	250	178	241
364	245	173	236
365	251	183	241
366	252	188	241
367	253	195	241
368	253	200	238
369	255	208	240
370	255	216	241
371	255	221	241
372	255	227	242
373	255	227	240
374	0	0	0
375	0	0	0
376	0	0	0
377	0	0	0
378	0	0	0
379	0	0	0
380	0	0	0
381	0	0	0
382	0	0	0
383	0	0	0
384	0	0	0
385	0	0	0
386	0	0	0
387	0	0	0
388	0	0	0
389	0	0	0
390	255	227	255
391	255	214	255
392	245	185	239
393	249	183	242
394	250	180	243
395	254	182	247
396	247	173	239
397	253	184	244
398	254	189	244
399	255	196	244
400	255	202	242
401	255	211	243
402	253	206	236
403	253	211	236
404	254	217	238
405	0	0	0
406	0	0	0
407	0	0	0
408	0	0	0
409	0	0	0
410	0	0	0
411	0	0	0
412	0	0	0
413	0	0	0
414	0	0	0
415	0	0	0
416	0	0	0
417	0	0	0
418	0	0	0
419	0	0	0
420	0	0	0
421	0	0	0
422	255	226	255
423	250	203	247
424	238	176	235
425	249	183	245
426	250	180	245
427	251	178	245
428	246	170	240
429	254	183	247
430	255	188	245
431	255	197	246
432	255	204	245
433	255	201	239
434	250	196	232
435	252	203	236
436	253	210	240
437	0	0	0
438	0	0	0
439	0	0	0
440	0	0	0
441	0	0	0
442	0	0	0
443	0	0	0
444	0	0	0
445	0	0	0
446	0	0	0
447	0	0	0
448	0	0	0
449	0	0	0
450	0	0	0
451	0	0	0
452	0	0	0
453	0	0	0
454	255	229	255
455	251	207	249
456	244	186	242
457	255	194	254
458	249	179	246
459	251	178	246
460	251	176	246
461	255	190	254
462	252	180	243
463	255	189	245
464	255	189	239
465	250	186	233
466	251	191	233
467	253	199	237
468	254	206	241
469	255	219	246
470	0	0	0
471	0	0	0
472	0	0	0
473	0	0	0
474	0	0	0
475	0	0	0
476	0	0	0
477	0	0	0
478	0	0	0
479	0	0	0
480	0	0	0
481	0	0	0
482	0	0	0
483	0	0	0
484	0	0	0
485	0	0	0
486	255	232	255
487	251	211	249
488	243	189	243
489	250	187	249
490	244	173	242
491	252	180	249
492	251	178	247
493	249	174	244
494	243	166	238
495	249	173	240
496	247	174	234
497	250	181	235
498	251	186	236
499	254	195	238
500	254	201	238
501	255	211	240
502	255	220	241
503	0	0	0
504	0	0	0
505	0	0	0
506	0	0	0
507	0	0	0
508	0	0	0
509	0	0	0
510	0	0	0
511	0	0	0
512	0	0	0
513	0	0	0
514	0	0	0
515	0	0	0
516	0	0	0
517	0	0	0
518	255	241	255
519	252	219	252
520	251	204	251
521	255	203	255
522	244	175	244
523	251	182	252
524	247	176	246
525	246	173	244
526	250	176	248
527	255	185	253
528	247	169	237
529	250	177	238
530	252	184	240
531	255	193	241
532	250	192	236
533	254	202	238
534	254	209	237
535	250	210	236
536	255	226	248
537	0	0	0
538	0	0	0
539	0	0	0
540	0	0	0
541	0	0	0
542	0	0	0
543	0	0	0
544	0	0	0
545	0	0	0
546	0	0	0
547	0	0	0
548	0	0	0
549	0	0	0
550	0	0	0
551	255	231	255
552	255	216	255
553	255	200	254
554	240	173	241
555	245	176	248
556	243	172	246
557	250	179	251
558	254	181	251
559	252	174	246
560	241	159	234
561	247	170	240
562	249	178	241
563	248	180	238
564	245	181	233
565	250	193	238
566	251	200	239
567	255	213	245
568	255	227	254
569	255	223	248
570	0	0	0
571	0	0	0
572	0	0	0
573	0	0	0
574	0	0	0
575	0	0	0
576	0	0	0
577	0	0	0
578	0	0	0
579	0	0	0
580	0	0	0
581	0	0	0
582	0	0	0
583	255	240	255
584	254	216	253
585	252	200	251
586	242	179	243
587	248	183	251
588	247	177	251
589	255	186	255
590	254	177	249
591	249	168	243
592	244	162	238
593	250	174	244
594	255	188	250
595	255	192	249
596	251	186	241
597	255	198	246
598	252	196	242
599	255	210	249
600	255	211	247
601	0	0	0
602	0	0	0
603	0	0	0
604	0	0	0
605	0	0	0
606	0	0	0
607	0	0	0
608	0	0	0
609	0	0	0
610	0	0	0
611	0	0	0
612	0	0	0
613	0	0	0
614	255	254	255
615	255	240	255
616	251	215	250
617	249	201	249
618	240	180	241
619	246	182	249
620	247	178	249
621	252	177	252
622	249	168	246
623	251	169	246
624	245	163	238
625	255	181	247
626	255	196	253
627	255	192	249
628	254	187	243
629	251	188	242
630	248	188	240
631	249	193	241
632	247	194	238
633	255	213	248
634	0	0	0
635	0	0	0
636	0	0	0
637	0	0	0
638	0	0	0
639	0	0	0
640	0	0	0
641	0	0	0
642	0	0	0
643	0	0	0
644	0	0	0
645	0	0	0
646	0	0	0
647	252	233	250
648	252	222	252
649	249	207	250
650	247	195	248
651	255	199	255
652	254	187	255
653	255	185	255
654	247	165	245
655	249	167	246
656	250	169	244
657	255	187	254
658	255	183	247
659	253	180	243
660	247	174	239
661	244	176	238
662	254	194	247
663	255	199	247
664	250	194	241
665	255	213	251
666	255	218	252
667	0	0	0
668	0	0	0
669	0	0	0
670	0	0	0
671	0	0	0
672	0	0	0
673	0	0	0
674	0	0	0
675	0	0	0
676	0	0	0
677	0	0	0
678	0	0	0
679	0	0	0
680	255	231	255
681	253	219	254
682	252	207	252
683	255	201	255
684	254	190	253
685	253	180	251
686	242	160	240
687	252	172	250
688	255	175	252
689	255	174	251
690	250	170	245
691	247	167	242
692	241	163	238
693	251	182	247
694	255	198	251
695	254	194	244
696	248	190	240
697	252	199	244
698	251	203	243
699	0	0	0
700	0	0	0
701	0	0	0
702	0	0	0
703	0	0	0
704	0	0	0
705	0	0	0
706	0	0	0
707	0	0	0
708	0	0	0
709	0	0	0
710	0	0	0
711	0	0	0
712	255	239	255
713	255	226	255
714	254	214	254
715	255	209	255
716	253	191	252
717	253	182	251
718	241	159	240
719	253	172	252
720	254	173	253
721	254	173	253
722	250	168	248
723	248	166	246
724	253	175	251
725	255	195	255
726	255	188	248
727	246	183	240
728	246	186	242
729	250	196	246
730	248	198	243
731	250	207	246
732	0	0	0
733	0	0	0
734	0	0	0
735	0	0	0
736	0	0	0
737	0	0	0
738	0	0	0
739	0	0	0
740	0	0	0
741	0	0	0
742	0	0	0
743	0	0	0
744	255	251	255
745	255	234	255
746	255	222	255
747	253	206	253
748	248	188	248
749	245	175	245
750	234	153	234
751	244	163	244
752	246	164	246
753	246	163	246
754	242	159	241
755	250	171	249
756	255	180	254
757	253	179	252
758	244	173	243
759	239	175	241
760	238	179	242
761	245	188	247
762	244	191	244
763	253	209	252
764	255	224	255
765	0	0	0
766	0	0	0
767	0	0	0
768	0	0	0
769	0	0	0
770	0	0	0
771	0	0	0
772	0	0	0
773	0	0	0
774	0	0	0
775	0	0	0
776	255	252	255
777	255	238	255
778	255	225	255
779	251	208	251
780	252	199	252
781	250	186	250
782	243	169	243
783	254	179	254
784	251	174	252
785	250	173	251
786	247	170	248
787	254	182	255
788	252	180	254
789	253	180	253
790	248	181	251
791	240	182	249
792	238	184	248
793	247	196	254
794	244	192	248
795	255	210	255
796	255	217	255
797	0	0	0
798	0	0	0
799	0	0	0
800	0	0	0
801	0	0	0
802	0	0	0
803	0	0	0
804	0	0	0
805	0	0	0
806	0	0	0
807	0	0	0
808	0	0	0
809	255	241	255
810	254	227	253
811	252	215	252
812	253	206	253
813	251	194	251
814	244	178	244
815	251	181	251
816	249	176	249
817	252	179	253
818	249	177	251
819	249	178	252
820	248	177	251
821	255	186	255
822	252	187	254
823	244	188	251
824	242	190	252
825	244	193	253
826	240	188	246
827	250	202	252
828	253	210	252
829	0	0	0
830	0	0	0
831	0	0	0
832	0	0	0
833	0	0	0
834	0	0	0
835	0	0	0
836	0	0	0
837	0	0	0
838	0	0	0
839	0	0	0
840	0	0	0
841	0	0	0
842	255	243	255
843	255	231	255
844	254	214	254
845	251	203	252
846	249	193	250
847	255	197	255
848	252	186	252
849	255	191	255
850	251	182	253
851	251	183	254
852	253	186	255
853	255	196	255
854	250	180	250
855	246	184	250
856	242	185	250
857	237	183	247
858	239	189	247
859	251	204	255
860	249	203	250
861	0	0	0
862	0	0	0
863	0	0	0
864	0	0	0
865	0	0	0
866	0	0	0
867	0	0	0
868	0	0	0
869	0	0	0
870	0	0	0
871	0	0	0
872	0	0	0
873	0	0	0
874	255	252	255
875	255	243	255
876	255	226	255
877	255	219	255
878	255	210	255
879	255	204	255
880	253	193	253
881	255	192	255
882	251	185	252
883	254	190	255
884	255	192	255
885	253	183	253
886	240	168	242
887	239	173	245
888	236	175	245
889	239	184	249
890	242	190	250
891	247	196	252
892	245	195	248
893	255	210	254
894	0	0	0
895	0	0	0
896	0	0	0
897	0	0	0
898	0	0	0
899	0	0	0
900	0	0	0
901	0	0	0
902	0	0	0
903	0	0	0
904	0	0	0
905	0	0	0
906	255	254	255
907	255	242	255
908	250	222	250
909	252	216	252
910	254	212	254
911	254	206	254
912	255	201	255
913	255	201	255
914	251	187	251
915	255	194	255
916	254	189	255
917	247	179	248
918	246	180	250
919	245	185	253
920	243	185	253
921	253	199	255
922	246	190	253
923	248	194	254
924	245	192	250
925	255	208	255
926	255	215	253
927	0	0	0
928	0	0	0
929	0	0	0
930	0	0	0
931	0	0	0
932	0	0	0
933	0	0	0
934	0	0	0
935	0	0	0
936	0	0	0
937	0	0	0
938	0	0	0
939	255	242	254
940	246	222	246
941	250	219	250
942	253	216	253
943	255	214	255
944	255	210	255
945	254	200	254
946	248	187	248
947	251	188	251
948	249	184	250
949	251	188	254
950	251	191	255
951	250	193	255
952	248	194	255
953	247	191	255
954	240	183	249
955	241	186	250
956	238	184	245
957	245	197	250
958	0	0	0
959	0	0	0
960	0	0	0
961	0	0	0
962	0	0	0
963	0	0	0
964	0	0	0
965	0	0	0
966	0	0	0
967	0	0	0
968	0	0	0
969	0	0	0
970	0	0	0
971	0	0	0
972	0	0	0
973	255	241	255
974	255	226	255
975	255	223	255
976	252	207	252
977	250	199	250
978	253	199	253
979	255	200	255
980	253	192	254
981	255	197	255
982	252	195	255
983	255	199	255
984	243	185	252
985	236	180	248
986	235	183	249
987	236	186	250
988	231	184	245
989	238	196	249
990	244	205	251
991	0	0	0
992	0	0	0
993	0	0	0
994	0	0	0
995	0	0	0
996	0	0	0
997	0	0	0
998	0	0	0
999	0	0	0
1000	0	0	0
1001	0	0	0
1002	0	0	0
1003	0	0	0
1004	0	0	0
1005	0	0	0
1006	255	234	255
1007	249	218	250
1008	242	202	243
1009	250	206	251
1010	254	206	255
1011	252	201	254
1012	246	193	250
1013	244	192	251
1014	242	190	251
1015	238	183	248
1016	227	169	240
1017	228	177	245
1018	227	180	246
1019	227	182	246
1020	224	180	242
1021	233	195	249
1022	240	205	251
1023	0	0	0
1024	0	0	0
1025	0	0	0
1026	0	0	0
1027	0	0	0
1028	0	0	0
1029	0	0	0
1030	0	0	0
1031	0	0	0
1032	0	0	0
1033	0	0	0
1034	0	0	0
1035	0	0	0
1036	0	0	0
1037	0	0	0
1038	0	0	0
1039	0	0	0
1040	253	224	254
1041	255	229	255
1042	249	209	251
1043	240	200	248
1044	238	201	250
1045	237	201	252
1046	236	198	252
1047	233	192	250
1048	228	184	247
1049	233	193	254
1050	222	181	245
1051	224	185	246
1052	231	195	251
1053	241	210	255
1054	238	204	251
1055	0	0	0
1056	0	0	0
1057	0	0	0
1058	0	0	0
1059	0	0	0
1060	0	0	0
1061	0	0	0
1062	0	0	0
1063	0	0	0
1064	0	0	0
1065	0	0	0
1066	0	0	0
1067	0	0	0
1068	0	0	0
1069	0	0	0
1070	0	0	0
1071	0	0	0
1072	0	0	0
1073	253	227	255
1074	237	205	242
1075	235	207	246
1076	234	208	249
1077	232	206	249
1078	232	204	251
1079	233	201	252
1080	229	194	250
1081	222	188	246
1082	213	176	238
1083	226	194	250
1084	235	205	255
1085	239	206	255
1086	237	201	249
1087	0	0	0
1088	0	0	0
1089	0	0	0
1090	0	0	0
1091	0	0	0
1092	0	0	0
1093	0	0	0
1094	0	0	0
1095	0	0	0
1096	0	0	0
1097	0	0	0
1098	0	0	0
1099	0	0	0
1100	0	0	0
1101	0	0	0
1102	0	0	0
1103	0	0	0
1104	0	0	0
1105	0	0	0
1106	0	0	0
1107	245	231	255
1108	240	224	254
1109	238	221	255
1110	236	216	254
1111	238	213	255
1112	232	203	252
1113	224	196	248
1114	219	191	245
1115	234	210	255
1116	235	205	255
1117	244	209	255
1118	242	200	250
1119	0	0	0
1120	0	0	0
1121	0	0	0
1122	0	0	0
1123	0	0	0
1124	0	0	0
1125	0	0	0
1126	0	0	0
1127	0	0	0
1128	0	0	0
1129	0	0	0
1130	0	0	0
1131	0	0	0
1132	0	0	0
1133	0	0	0
1134	0	0	0
1135	0	0	0
1136	0	0	0
1137	0	0	0
1138	0	0	0
1139	0	0	0
1140	246	238	255
1141	240	229	254
1142	236	222	252
1143	233	214	250
1144	226	204	246
1145	222	202	246
1146	218	198	245
1147	226	202	250
1148	228	198	248
1149	237	200	251
1150	236	193	244
1151	0	0	0
1152	0	0	0
1153	0	0	0
1154	0	0	0
1155	0	0	0
1156	0	0	0
1157	0	0	0
1158	0	0	0
1159	0	0	0
1160	0	0	0
1161	0	0	0
1162	0	0	0
1163	0	0	0
1164	0	0	0
1165	0	0	0
1166	0	0	0
1167	0	0	0
1168	0	0	0
1169	0	0	0
1170	0	0	0
1171	0	0	0
1172	0	0	0
1173	0	0	0
1174	0	0	0
1175	0	0	0
1176	0	0	0
1177	0	0	0
1178	224	214	251
1179	238	221	255
1180	231	203	249
1181	235	203	250
1182	235	198	247
1183	252	216	255
1184	0	0	0
1185	0	0	0
1186	0	0	0
1187	0	0	0
1188	0	0	0
1189	0	0	0
1190	0	0	0
1191	0	0	0
1192	0	0	0
1193	0	0	0
1194	0	0	0
1195	0	0	0
1196	0	0	0
1197	0	0	0
1198	0	0	0
1199	0	0	0
1200	0	0	0
1201	0	0	0
1202	0	0	0
1203	0	0	0
1204	0	0	0
1205	0	0	0
1206	0	0	0
1207	0	0	0
1208	0	0	0
1209	0	0	0
1210	231	226	254
1211	229	214	250
1212	221	197	240
1213	228	201	245
1214	229	197	243
1215	237	203	248
1216	236	200	244
1217	0	0	0
1218	0	0	0
1219	0	0	0
1220	0	0	0
1221	0	0	0
1222	0	0	0
1223	0	0	0
1224	0	0	0
1225	0	0	0
1226	0	0	0
1227	0	0	0
1228	0	0	0
1229	0	0	0
1230	0	0	0
1231	0	0	0
1232	0	0	0
1233	0	0	0
1234	0	0	0
1235	0	0	0
1236	0	0	0
1237	0	0	0
1238	0	0	0
1239	0	0	0
1240	0	0	0
1241	0	0	0
1242	0	0	0
1243	228	221	248
1244	223	212	245
1245	236	220	254
1246	231	207	247
1247	233	210	249
1248	0	0	0
1249	0	0	0
1250	0	0	0
1251	0	0	0
1252	0	0	0
1253	0	0	0
1254	0	0	0
1255	0	0	0
1256	0	0	0
1257	0	0	0
1258	0	0	0
1259	0	0	0
1260	0	0	0
1261	0	0	0
1262	0	0	0
1263	0	0	0
1264	0	0	0
1265	0	0	0
1266	0	0	0
1267	0	0	0
1268	0	0	0
1269	0	0	0
1270	0	0	0
1271	0	0	0
1272	0	0	0
1273	0	0	0
1274	0	0	0
1275	0	0	0
1276	230	226	249
1277	234	223	251
1278	228	210	244
1279	0	0	0
1280	0	0	0
