 	R	G	B
1	0	0	0
2	0	0	0
3	0	0	0
4	0	0	0
5	0	0	0
6	0	0	0
7	0	0	0
8	0	0	0
9	0	0	0
10	0	0	0
11	255	255	251
12	255	255	251
13	255	255	252
14	255	255	252
15	255	255	251
16	255	255	251
17	255	254	253
18	255	254	253
19	0	0	0
20	255	253	254
21	255	253	254
22	0	0	0
23	0	0	0
24	255	251	255
25	255	254	254
26	255	253	254
27	255	253	254
28	0	0	0
29	0	0	0
30	0	0	0
31	0	0	0
32	0	0	0
33	0	0	0
34	0	0	0
35	0	0	0
36	0	0	0
37	0	0	0
38	0	0	0
39	0	0	0
40	0	0	0
41	0	0	0
42	0	0	0
43	0	0	0
44	0	0	0
45	0	0	0
46	0	0	0
47	0	0	0
48	0	0	0
49	0	0	0
50	0	0	0
51	0	0	0
52	0	0	0
53	0	0	0
54	0	0	0
55	0	0	0
56	0	0	0
57	0	0	0
58	0	0	0
59	0	0	0
60	0	0	0
61	0	0	0
62	0	0	0
63	0	0	0
64	0	0	0
65	0	0	0
66	0	0	0
67	0	0	0
68	0	0	0
69	0	0	0
70	0	0	0
71	0	0	0
72	0	0	0
73	0	0	0
74	0	0	0
75	0	0	0
76	0	0	0
77	255	238	246
78	255	239	247
79	255	241	249
80	255	241	249
81	255	240	248
82	255	243	248
83	255	238	245
84	255	243	249
85	255	245	251
86	255	245	252
87	255	242	252
88	252	229	244
89	248	222	240
90	255	234	246
91	255	242	250
92	255	240	248
93	254	235	243
94	255	242	247
95	255	241	248
96	0	0	0
97	0	0	0
98	0	0	0
99	0	0	0
100	0	0	0
101	0	0	0
102	0	0	0
103	0	0	0
104	0	0	0
105	0	0	0
106	0	0	0
107	0	0	0
108	0	0	0
109	0	0	0
110	0	0	0
111	0	0	0
112	0	0	0
113	0	0	0
114	0	0	0
115	0	0	0
116	0	0	0
117	0	0	0
118	0	0	0
119	0	0	0
120	0	0	0
121	0	0	0
122	0	0	0
123	0	0	0
124	0	0	0
125	0	0	0
126	0	0	0
127	0	0	0
128	0	0	0
129	0	0	0
130	0	0	0
131	0	0	0
132	0	0	0
133	0	0	0
134	0	0	0
135	0	0	0
136	0	0	0
137	0	0	0
138	251	223	245
139	254	228	247
140	0	0	0
141	0	0	0
142	0	0	0
143	246	216	237
144	247	218	239
145	249	219	240
146	249	219	240
147	248	218	238
148	249	220	238
149	251	224	240
150	254	227	242
151	255	232	245
152	255	231	245
153	255	231	246
154	251	218	240
155	243	206	236
156	253	219	245
157	255	228	247
158	254	225	240
159	251	222	236
160	253	226	238
161	255	233	243
162	251	224	238
163	0	0	0
164	0	0	0
165	0	0	0
166	0	0	0
167	0	0	0
168	0	0	0
169	0	0	0
170	0	0	0
171	0	0	0
172	0	0	0
173	0	0	0
174	0	0	0
175	0	0	0
176	255	251	254
177	255	254	253
178	255	254	253
179	0	0	0
180	0	0	0
181	255	255	252
182	255	255	252
183	255	255	252
184	255	255	252
185	0	0	0
186	0	0	0
187	0	0	0
188	0	0	0
189	0	0	0
190	0	0	0
191	0	0	0
192	0	0	0
193	0	0	0
194	0	0	0
195	0	0	0
196	0	0	0
197	0	0	0
198	0	0	0
199	0	0	0
200	0	0	0
201	0	0	0
202	0	0	0
203	0	0	0
204	248	210	244
205	253	216	248
206	254	218	247
207	252	215	244
208	0	0	0
209	0	0	0
210	255	221	248
211	255	223	250
212	250	211	243
213	251	212	243
214	252	214	242
215	253	216	242
216	255	222	245
217	255	226	247
218	253	215	240
219	253	214	240
220	254	215	241
221	246	202	236
222	247	202	240
223	255	215	249
224	254	215	242
225	249	210	234
226	252	216	236
227	255	221	238
228	255	223	240
229	249	215	234
230	255	224	244
231	255	235	253
232	0	0	0
233	0	0	0
234	0	0	0
235	0	0	0
236	0	0	0
237	0	0	0
238	255	232	241
239	0	0	0
240	0	0	0
241	0	0	0
242	255	239	247
243	255	249	254
244	255	242	248
245	254	240	246
246	255	243	249
247	255	245	250
248	255	246	250
249	255	245	249
250	255	244	249
251	254	242	248
252	255	243	249
253	0	0	0
254	0	0	0
255	0	0	0
256	0	0	0
257	0	0	0
258	0	0	0
259	0	0	0
260	0	0	0
261	0	0	0
262	0	0	0
263	0	0	0
264	0	0	0
265	0	0	0
266	0	0	0
267	0	0	0
268	0	0	0
269	0	0	0
270	238	193	237
271	239	193	237
272	244	198	242
273	246	201	243
274	247	202	243
275	247	202	241
276	254	211	247
277	255	220	254
278	253	208	246
279	245	197	240
280	250	203	244
281	250	204	242
282	254	210	243
283	255	215	246
284	251	205	239
285	244	194	233
286	244	194	234
287	245	194	233
288	243	191	233
289	243	190	235
290	245	194	237
291	244	195	233
292	247	201	234
293	251	207	236
294	252	210	237
295	254	213	239
296	255	222	245
297	255	231	251
298	255	223	246
299	253	213	241
300	255	219	244
301	255	223	240
302	255	224	239
303	255	226	242
304	255	230	246
305	255	234	247
306	255	230	243
307	255	227	241
308	255	233	245
309	255	241	250
310	255	232	243
311	249	225	237
312	250	227	239
313	252	230	242
314	252	231	243
315	251	230	241
316	249	228	239
317	249	228	241
318	250	230	242
319	250	231	243
320	254	237	246
321	255	241	249
322	255	240	247
323	255	239	247
324	254	239	247
325	253	239	248
326	255	247	253
327	255	253	254
328	255	252	253
329	255	252	254
330	255	249	253
331	0	0	0
332	0	0	0
333	0	0	0
334	0	0	0
335	0	0	0
336	251	210	250
337	255	214	254
338	250	205	249
339	255	211	254
340	252	206	251
341	254	208	252
342	250	202	247
343	255	212	253
344	254	206	248
345	246	194	241
346	252	202	248
347	255	208	252
348	250	197	242
349	254	204	245
350	255	207	247
351	249	195	240
352	247	192	239
353	247	191	239
354	255	207	247
355	255	204	245
356	249	194	240
357	251	198	242
358	255	206	245
359	255	212	246
360	255	211	243
361	255	214	244
362	255	208	240
363	255	217	246
364	255	210	240
365	251	202	236
366	248	196	236
367	253	204	240
368	255	215	241
369	255	216	239
370	249	202	232
371	252	207	236
372	255	219	242
373	254	214	237
374	252	214	235
375	255	220	239
376	255	226	243
377	249	217	235
378	255	229	243
379	255	231	244
380	255	230	245
381	255	230	245
382	252	227	240
383	249	224	238
384	255	234	247
385	255	236	249
386	255	231	246
387	255	236	250
388	253	229	243
389	252	228	242
390	254	231	246
391	253	231	246
392	252	231	245
393	255	239	249
394	255	239	248
395	254	237	246
396	255	240	249
397	253	236	247
398	255	240	250
399	0	0	0
400	0	0	0
401	0	0	0
402	0	0	0
403	0	0	0
404	249	211	249
405	245	203	245
406	245	200	245
407	243	196	242
408	244	195	243
409	242	190	240
410	242	188	240
411	239	183	236
412	245	191	241
413	251	198	246
414	247	191	241
415	241	182	235
416	246	187	239
417	249	191	242
418	246	187	240
419	244	184	239
420	255	199	248
421	255	213	254
422	255	203	245
423	250	193	240
424	255	204	247
425	255	212	250
426	255	211	247
427	255	210	244
428	255	204	239
429	252	198	236
430	249	193	233
431	246	187	231
432	244	184	231
433	241	178	230
434	251	193	240
435	255	205	244
436	249	191	232
437	238	178	223
438	249	193	233
439	255	205	238
440	253	204	234
441	251	203	231
442	253	209	235
443	255	215	242
444	255	225	247
445	255	236	251
446	255	231	246
447	255	229	246
448	255	225	243
449	252	221	238
450	255	229	242
451	255	238	249
452	255	233	247
453	255	227	247
454	252	222	243
455	246	214	236
456	248	217	238
457	251	221	243
458	250	221	242
459	248	220	239
460	250	223	241
461	251	225	244
462	252	227	246
463	253	229	246
464	255	232	247
465	0	0	0
466	0	0	0
467	0	0	0
468	0	0	0
469	0	0	0
470	0	0	0
471	0	0	0
472	0	0	0
473	254	218	254
474	254	215	254
475	255	215	255
476	252	205	251
477	253	205	252
478	249	197	248
479	255	205	253
480	255	207	254
481	254	200	249
482	250	193	246
483	255	198	251
484	253	194	249
485	250	190	246
486	255	197	250
487	255	212	255
488	255	203	249
489	251	192	241
490	249	189	240
491	255	201	248
492	255	203	247
493	255	202	244
494	255	198	240
495	252	193	237
496	254	195	239
497	252	190	237
498	254	191	240
499	253	188	240
500	251	185	239
501	255	200	249
502	255	197	245
503	250	184	235
504	248	182	233
505	255	197	243
506	254	194	237
507	251	192	233
508	250	194	231
509	252	200	235
510	255	205	242
511	255	214	247
512	255	215	241
513	251	209	234
514	254	216	240
515	251	212	237
516	255	221	241
517	255	229	245
518	255	225	244
519	253	219	241
520	253	217	243
521	249	212	240
522	253	218	242
523	254	221	244
524	254	221	246
525	254	222	246
526	255	227	248
527	0	0	0
528	0	0	0
529	0	0	0
530	0	0	0
531	0	0	0
532	0	0	0
533	0	0	0
534	0	0	0
535	0	0	0
536	0	0	0
537	0	0	0
538	0	0	0
539	0	0	0
540	0	0	0
541	255	226	255
542	255	220	255
543	252	211	252
544	255	210	254
545	251	203	250
546	255	208	255
547	255	211	255
548	255	203	253
549	253	197	251
550	253	195	251
551	250	191	248
552	255	199	252
553	255	204	252
554	253	196	246
555	249	190	243
556	247	187	243
557	246	184	243
558	251	190	247
559	253	192	246
560	251	189	242
561	250	186	240
562	252	188	241
563	255	190	243
564	255	191	245
565	255	192	245
566	255	190	244
567	255	187	241
568	255	185	240
569	254	184	238
570	253	183	237
571	252	181	236
572	250	179	235
573	246	176	231
574	246	178	230
575	245	180	230
576	248	187	234
577	250	192	239
578	249	194	239
579	248	195	235
580	248	199	235
581	252	206	241
582	255	213	244
583	255	221	245
584	255	215	240
585	253	212	242
586	251	210	242
587	249	207	241
588	253	213	244
589	255	219	248
590	255	219	247
591	255	219	246
592	255	226	251
593	255	232	254
594	255	224	248
595	0	0	0
596	0	0	0
597	0	0	0
598	252	217	246
599	252	219	248
600	254	223	250
601	255	228	254
602	0	0	0
603	0	0	0
604	0	0	0
605	0	0	0
606	0	0	0
607	0	0	0
608	255	237	255
609	255	230	255
610	251	214	250
611	254	214	253
612	250	205	249
613	255	211	255
614	253	204	252
615	251	198	249
616	254	200	253
617	254	199	254
618	252	196	252
619	255	203	255
620	247	191	243
621	240	183	237
622	248	193	248
623	249	192	249
624	251	193	252
625	255	200	255
626	254	192	250
627	253	189	247
628	253	188	246
629	255	190	248
630	254	184	244
631	255	185	245
632	252	179	241
633	252	177	240
634	253	178	241
635	253	177	240
636	254	179	240
637	254	178	240
638	245	167	232
639	243	165	230
640	255	185	242
641	255	188	243
642	252	185	240
643	255	192	244
644	251	187	242
645	251	190	242
646	253	196	242
647	254	200	242
648	255	203	244
649	255	211	247
650	255	211	243
651	251	204	238
652	255	212	247
653	254	209	247
654	250	205	244
655	253	210	247
656	255	219	252
657	255	218	250
658	253	213	246
659	255	220	251
660	255	216	247
661	250	208	241
662	251	210	243
663	252	211	245
664	251	211	246
665	251	212	247
666	255	219	251
667	255	223	253
668	255	224	254
669	255	223	253
670	0	0	0
671	0	0	0
672	0	0	0
673	0	0	0
674	0	0	0
675	0	0	0
676	252	229	252
677	245	213	245
678	245	208	244
679	242	199	241
680	243	197	242
681	241	191	240
682	247	196	246
683	250	199	250
684	252	199	252
685	250	195	250
686	243	187	244
687	234	176	235
688	239	184	240
689	246	193	248
690	246	192	248
691	249	193	250
692	250	189	249
693	247	182	244
694	247	181	242
695	248	180	240
696	246	175	238
697	244	168	235
698	245	167	236
699	243	162	234
700	247	166	240
701	249	168	242
702	250	169	243
703	251	169	241
704	243	159	233
705	234	148	226
706	247	169	238
707	255	188	248
708	253	183	241
709	250	180	239
710	248	178	239
711	244	174	236
712	249	184	242
713	253	191	243
714	252	194	242
715	252	196	241
716	251	197	241
717	251	199	240
718	253	203	243
719	255	209	248
720	253	205	246
721	249	201	245
722	254	208	250
723	255	216	254
724	252	209	248
725	249	205	246
726	246	201	243
727	243	196	238
728	245	198	240
729	247	201	243
730	247	202	243
731	246	201	243
732	250	208	247
733	252	214	248
734	252	215	248
735	253	218	251
736	252	217	251
737	0	0	0
738	0	0	0
739	0	0	0
740	0	0	0
741	0	0	0
742	0	0	0
743	0	0	0
744	0	0	0
745	0	0	0
746	255	226	255
747	255	224	255
748	249	208	249
749	255	213	255
750	254	209	254
751	255	208	255
752	251	202	252
753	247	195	248
754	249	197	250
755	255	206	255
756	255	210	255
757	255	208	255
758	252	201	254
759	254	198	254
760	251	190	249
761	252	189	248
762	255	194	252
763	255	189	250
764	249	175	242
765	250	173	243
766	251	171	245
767	255	176	251
768	250	167	246
769	250	167	247
770	252	171	247
771	244	160	239
772	248	167	243
773	255	188	255
774	255	188	250
775	253	183	243
776	255	187	247
777	253	185	245
778	251	183	244
779	255	193	250
780	255	193	248
781	255	196	247
782	253	194	243
783	252	195	243
784	255	201	247
785	255	205	250
786	255	204	247
787	249	198	243
788	252	204	249
789	255	212	255
790	255	216	255
791	253	209	251
792	255	213	254
793	253	209	252
794	253	208	250
795	255	211	252
796	255	211	252
797	254	211	252
798	255	212	253
799	255	220	255
800	255	218	252
801	255	219	252
802	253	217	252
803	252	216	251
804	0	0	0
805	0	0	0
806	0	0	0
807	0	0	0
808	0	0	0
809	0	0	0
810	0	0	0
811	0	0	0
812	0	0	0
813	0	0	0
814	255	232	255
815	248	216	248
816	250	215	250
817	248	210	249
818	246	205	247
819	0	0	0
820	0	0	0
821	254	210	254
822	255	217	255
823	255	222	255
824	255	213	255
825	254	207	255
826	252	200	252
827	250	192	248
828	253	195	251
829	255	200	255
830	252	186	249
831	244	171	240
832	248	172	244
833	248	170	244
834	244	163	241
835	238	153	235
836	242	158	240
837	244	162	242
838	249	171	246
839	252	177	248
840	253	180	248
841	252	182	247
842	254	186	248
843	255	190	249
844	254	187	246
845	252	185	244
846	253	188	246
847	252	188	247
848	253	190	248
849	251	189	244
850	254	195	246
851	255	200	251
852	255	199	249
853	251	197	246
854	251	200	247
855	252	205	250
856	251	207	251
857	253	211	253
858	254	212	253
859	255	215	255
860	255	214	254
861	255	213	254
862	255	215	255
863	255	215	254
864	255	219	255
865	255	221	255
866	255	221	255
867	255	220	255
868	255	218	253
869	252	215	251
870	254	219	253
871	255	226	255
872	0	0	0
873	0	0	0
874	0	0	0
875	0	0	0
876	0	0	0
877	0	0	0
878	0	0	0
879	0	0	0
880	0	0	0
881	0	0	0
882	0	0	0
883	0	0	0
884	0	0	0
885	0	0	0
886	0	0	0
887	0	0	0
888	0	0	0
889	255	229	255
890	253	213	253
891	248	205	249
892	251	207	252
893	249	200	249
894	254	205	254
895	255	208	255
896	255	206	255
897	253	192	252
898	247	181	246
899	251	182	249
900	252	181	250
901	249	174	247
902	248	173	247
903	252	178	251
904	253	180	252
905	255	189	255
906	254	184	251
907	255	188	252
908	255	190	253
909	255	194	255
910	251	185	246
911	249	183	243
912	255	196	252
913	255	198	254
914	250	185	246
915	251	187	248
916	255	195	250
917	255	201	253
918	253	194	249
919	251	193	248
920	250	195	247
921	250	198	248
922	253	208	253
923	249	208	251
924	252	214	255
925	254	216	255
926	254	215	254
927	251	213	252
928	249	210	251
929	250	212	252
930	249	209	249
931	253	214	252
932	251	209	250
933	253	211	251
934	251	209	249
935	247	206	246
936	252	215	251
937	253	219	252
938	255	227	255
939	0	0	0
940	0	0	0
941	0	0	0
942	0	0	0
943	0	0	0
944	0	0	0
945	0	0	0
946	0	0	0
947	0	0	0
948	0	0	0
949	0	0	0
950	0	0	0
951	0	0	0
952	0	0	0
953	0	0	0
954	0	0	0
955	0	0	0
956	0	0	0
957	235	197	236
958	238	200	239
959	242	202	243
960	247	206	247
961	252	211	252
962	251	207	251
963	253	205	252
964	248	194	248
965	243	183	242
966	248	186	247
967	250	186	249
968	252	187	251
969	252	185	251
970	255	190	255
971	255	192	255
972	255	191	254
973	252	188	251
974	255	192	253
975	255	194	255
976	251	186	249
977	243	177	241
978	252	190	249
979	255	203	255
980	250	188	247
981	239	173	236
982	244	182	242
983	249	191	246
984	244	185	242
985	239	179	238
986	244	186	244
987	244	188	244
988	249	200	250
989	253	210	255
990	248	211	253
991	251	217	255
992	251	215	254
993	251	215	253
994	245	209	249
995	242	205	247
996	239	202	244
997	237	199	242
998	237	196	239
999	235	191	236
1000	235	191	236
1001	233	190	234
1002	238	199	239
1003	243	208	244
1004	246	215	247
1005	251	222	252
1006	0	0	0
1007	0	0	0
1008	0	0	0
1009	0	0	0
1010	0	0	0
1011	0	0	0
1012	0	0	0
1013	0	0	0
1014	0	0	0
1015	0	0	0
1016	0	0	0
1017	0	0	0
1018	0	0	0
1019	0	0	0
1020	0	0	0
1021	0	0	0
1022	0	0	0
1023	0	0	0
1024	0	0	0
1025	0	0	0
1026	0	0	0
1027	0	0	0
1028	0	0	0
1029	0	0	0
1030	255	222	255
1031	253	211	253
1032	249	201	249
1033	254	203	254
1034	252	199	252
1035	254	200	254
1036	252	195	251
1037	255	200	255
1038	255	198	254
1039	255	198	254
1040	252	193	251
1041	255	198	255
1042	252	193	251
1043	247	186	246
1044	250	191	249
1045	255	204	255
1046	255	202	255
1047	246	187	245
1048	247	190	246
1049	250	199	251
1050	250	202	252
1051	245	196	248
1052	243	193	247
1053	250	201	253
1054	244	194	247
1055	250	206	253
1056	251	211	255
1057	247	213	253
1058	247	215	253
1059	247	213	250
1060	251	220	255
1061	247	215	251
1062	244	213	250
1063	239	209	246
1064	244	216	251
1065	243	213	249
1066	245	214	249
1067	244	213	248
1068	0	0	0
1069	0	0	0
1070	255	232	255
1071	255	239	255
1072	252	228	252
1073	0	0	0
1074	0	0	0
1075	0	0	0
1076	0	0	0
1077	0	0	0
1078	0	0	0
1079	0	0	0
1080	0	0	0
1081	0	0	0
1082	0	0	0
1083	0	0	0
1084	0	0	0
1085	0	0	0
1086	0	0	0
1087	0	0	0
1088	0	0	0
1089	0	0	0
1090	0	0	0
1091	0	0	0
1092	0	0	0
1093	0	0	0
1094	0	0	0
1095	0	0	0
1096	0	0	0
1097	0	0	0
1098	254	224	254
1099	249	213	249
1100	249	210	249
1101	247	205	247
1102	245	201	246
1103	243	197	243
1104	244	197	244
1105	244	195	244
1106	242	192	242
1107	239	187	239
1108	237	184	238
1109	234	180	235
1110	240	188	241
1111	245	194	246
1112	246	194	246
1113	244	192	244
1114	247	197	248
1115	249	202	251
1116	248	204	251
1117	248	207	252
1118	243	203	249
1119	241	199	247
1120	238	195	244
1121	231	188	237
1122	234	195	240
1123	235	200	241
1124	233	201	239
1125	234	204	240
1126	238	209	243
1127	243	216	247
1128	241	214	245
1129	0	0	0
1130	0	0	0
1131	0	0	0
1132	0	0	0
1133	0	0	0
1134	0	0	0
1135	0	0	0
1136	0	0	0
1137	0	0	0
1138	255	239	255
1139	0	0	0
1140	0	0	0
1141	0	0	0
1142	0	0	0
1143	0	0	0
1144	0	0	0
1145	0	0	0
1146	0	0	0
1147	0	0	0
1148	0	0	0
1149	0	0	0
1150	0	0	0
1151	0	0	0
1152	0	0	0
1153	0	0	0
1154	0	0	0
1155	0	0	0
1156	0	0	0
1157	0	0	0
1158	0	0	0
1159	0	0	0
1160	0	0	0
1161	0	0	0
1162	0	0	0
1163	0	0	0
1164	0	0	0
1165	0	0	0
1166	0	0	0
1167	0	0	0
1168	0	0	0
1169	0	0	0
1170	0	0	0
1171	0	0	0
1172	0	0	0
1173	0	0	0
1174	0	0	0
1175	0	0	0
1176	0	0	0
1177	0	0	0
1178	0	0	0
1179	0	0	0
1180	247	206	248
1181	252	213	253
1182	255	222	255
1183	255	226	255
1184	253	218	255
1185	246	213	251
1186	245	214	251
1187	0	0	0
1188	0	0	0
1189	0	0	0
1190	0	0	0
1191	0	0	0
1192	0	0	0
1193	0	0	0
1194	0	0	0
1195	0	0	0
1196	0	0	0
1197	0	0	0
1198	0	0	0
1199	0	0	0
1200	0	0	0
1201	0	0	0
1202	0	0	0
1203	0	0	0
1204	0	0	0
1205	0	0	0
1206	0	0	0
1207	0	0	0
1208	0	0	0
1209	0	0	0
1210	0	0	0
1211	0	0	0
1212	0	0	0
1213	0	0	0
1214	0	0	0
1215	0	0	0
1216	0	0	0
1217	0	0	0
1218	0	0	0
1219	0	0	0
1220	0	0	0
1221	0	0	0
1222	0	0	0
1223	0	0	0
1224	0	0	0
1225	0	0	0
1226	0	0	0
1227	0	0	0
1228	0	0	0
1229	0	0	0
1230	0	0	0
1231	0	0	0
1232	0	0	0
1233	0	0	0
1234	0	0	0
1235	0	0	0
1236	0	0	0
1237	0	0	0
1238	0	0	0
1239	0	0	0
1240	0	0	0
1241	0	0	0
1242	0	0	0
1243	0	0	0
1244	0	0	0
1245	0	0	0
1246	0	0	0
1247	0	0	0
1248	255	231	255
1249	255	240	255
1250	255	235	255
1251	255	228	255
1252	0	0	0
1253	0	0	0
1254	0	0	0
1255	0	0	0
1256	0	0	0
1257	0	0	0
1258	0	0	0
1259	0	0	0
1260	0	0	0
1261	0	0	0
1262	0	0	0
1263	0	0	0
1264	0	0	0
1265	0	0	0
1266	0	0	0
1267	0	0	0
1268	0	0	0
1269	0	0	0
1270	0	0	0
1271	0	0	0
1272	0	0	0
1273	0	0	0
1274	0	0	0
1275	0	0	0
1276	0	0	0
1277	0	0	0
1278	0	0	0
1279	0	0	0
1280	0	0	0
1281	0	0	0
1282	0	0	0
1283	0	0	0
1284	0	0	0
1285	0	0	0
1286	0	0	0
1287	0	0	0
1288	0	0	0
1289	0	0	0
1290	0	0	0
1291	0	0	0
1292	0	0	0
1293	0	0	0
1294	0	0	0
1295	0	0	0
1296	0	0	0
1297	0	0	0
1298	0	0	0
1299	0	0	0
1300	0	0	0
1301	0	0	0
1302	0	0	0
1303	0	0	0
1304	0	0	0
1305	0	0	0
1306	0	0	0
1307	0	0	0
1308	0	0	0
1309	0	0	0
1310	0	0	0
1311	0	0	0
1312	0	0	0
1313	0	0	0
1314	0	0	0
1315	0	0	0
1316	254	233	255
1317	250	227	251
1318	0	0	0
1319	0	0	0
1320	0	0	0
1321	0	0	0
1322	0	0	0
1323	0	0	0
1324	0	0	0
1325	0	0	0
1326	0	0	0
1327	0	0	0
1328	0	0	0
1329	0	0	0
1330	0	0	0
1331	0	0	0
1332	0	0	0
1333	0	0	0
1334	0	0	0
1335	0	0	0
1336	0	0	0
1337	0	0	0
1338	0	0	0
1339	0	0	0
1340	0	0	0
