 	R	G	B
1	0	0	0
2	0	0	0
3	0	0	0
4	0	0	0
5	0	0	0
6	0	0	0
7	0	0	0
8	0	0	0
9	0	0	0
10	0	0	0
11	0	0	0
12	255	246	234
13	255	244	235
14	255	241	233
15	255	235	228
16	255	229	225
17	255	224	225
18	255	225	226
19	255	221	219
20	255	221	219
21	255	221	223
22	255	223	224
23	255	223	222
24	255	223	222
25	0	0	0
26	0	0	0
27	0	0	0
28	0	0	0
29	0	0	0
30	0	0	0
31	0	0	0
32	0	0	0
33	0	0	0
34	0	0	0
35	0	0	0
36	255	218	220
37	255	222	223
38	251	200	211
39	251	197	209
40	255	202	211
41	252	196	208
42	255	200	214
43	255	200	214
44	251	192	205
45	251	193	206
46	255	203	217
47	255	204	218
48	253	200	211
49	252	200	210
50	253	203	215
51	0	0	0
52	0	0	0
53	0	0	0
54	0	0	0
55	0	0	0
56	0	0	0
57	0	0	0
58	255	245	238
59	255	233	232
60	255	220	228
61	255	201	216
62	251	186	209
63	240	166	199
64	247	173	206
65	251	178	208
66	252	178	208
67	255	182	212
68	252	177	209
69	246	170	203
70	251	179	210
71	255	188	216
72	252	183	212
73	247	179	207
74	246	180	207
75	247	183	212
76	0	0	0
77	0	0	0
78	0	0	0
79	0	0	0
80	0	0	0
81	0	0	0
82	255	231	231
83	255	223	229
84	251	191	212
85	250	181	210
86	245	165	204
87	240	151	199
88	246	156	206
89	252	163	212
90	252	162	211
91	252	162	210
92	254	166	212
93	250	160	209
94	246	156	206
95	251	164	212
96	254	172	215
97	248	166	210
98	247	167	210
99	244	167	209
100	249	180	217
101	0	0	0
102	0	0	0
103	0	0	0
104	255	251	243
105	255	251	240
106	255	235	236
107	255	208	219
108	246	180	205
109	233	150	193
110	233	140	195
111	229	126	195
112	240	136	206
113	244	138	206
114	244	138	205
115	244	138	206
116	246	141	208
117	247	143	208
118	243	139	204
119	239	135	200
120	240	140	203
121	243	147	207
122	239	146	205
123	237	147	207
124	242	159	213
125	245	169	215
126	0	0	0
127	0	0	0
128	255	241	239
129	255	249	245
130	255	224	230
131	252	198	216
132	249	180	210
133	239	153	200
134	245	151	207
135	245	141	210
136	246	135	215
137	255	143	224
138	248	132	212
139	247	131	210
140	255	142	220
141	255	144	221
142	246	132	211
143	241	127	206
144	249	142	214
145	250	147	215
146	254	158	221
147	249	156	218
148	250	163	222
149	253	173	225
150	252	180	223
151	0	0	0
152	255	242	241
153	255	237	240
154	254	210	225
155	243	184	210
156	240	166	205
157	239	151	206
158	246	150	214
159	251	146	219
160	254	143	222
161	252	133	221
162	251	129	220
163	244	118	211
164	250	128	217
165	255	137	224
166	246	124	215
167	236	112	207
168	246	129	217
169	253	143	221
170	255	152	223
171	255	162	228
172	255	166	225
173	255	170	223
174	254	176	222
175	253	183	221
176	0	0	0
177	0	0	0
178	255	217	234
179	249	192	220
180	249	180	217
181	246	162	215
182	248	153	219
183	254	150	226
184	252	139	223
185	253	133	224
186	244	116	215
187	243	111	214
188	246	116	218
189	253	125	224
190	253	128	224
191	242	114	214
192	252	131	226
193	255	148	235
194	249	136	221
195	250	144	221
196	253	155	224
197	249	157	220
198	254	171	223
199	253	177	221
200	0	0	0
201	0	0	0
202	245	199	222
203	247	191	222
204	246	178	219
205	246	167	219
206	248	156	220
207	247	144	220
208	247	135	221
209	243	122	216
210	238	108	211
211	229	91	204
212	236	100	212
213	240	104	216
214	242	109	218
215	242	111	218
216	251	127	226
217	255	143	234
218	249	132	223
219	237	121	212
220	241	133	216
221	0	0	0
222	246	156	218
223	251	171	224
224	0	0	0
225	0	0	0
226	255	217	234
227	255	210	234
228	254	195	230
229	253	181	227
230	254	171	228
231	254	159	229
232	248	141	224
233	247	131	223
234	250	128	224
235	243	113	218
236	244	111	221
237	251	120	229
238	255	127	233
239	255	131	234
240	246	118	224
241	255	134	231
242	255	140	230
243	244	129	219
244	248	139	226
245	0	0	0
246	0	0	0
247	0	0	0
248	0	0	0
249	0	0	0
250	0	0	0
251	255	221	238
252	255	206	234
253	254	191	231
254	255	181	231
255	255	169	230
256	250	152	226
257	244	133	222
258	249	133	227
259	250	128	227
260	252	128	229
261	251	125	229
262	255	134	236
263	255	140	237
264	251	128	227
265	241	116	218
266	245	126	222
267	247	133	222
268	249	142	225
269	0	0	0
270	0	0	0
271	0	0	0
272	0	0	0
273	0	0	0
274	0	0	0
275	0	0	0
276	255	218	236
277	255	203	233
278	254	187	230
279	255	177	231
280	249	159	225
281	243	141	220
282	252	145	230
283	255	143	234
284	249	130	228
285	250	128	228
286	253	133	231
287	255	141	236
288	253	135	229
289	244	124	220
290	252	138	229
291	255	149	235
292	249	143	227
293	0	0	0
294	0	0	0
295	0	0	0
296	0	0	0
297	0	0	0
298	0	0	0
299	0	0	0
300	0	0	0
301	255	215	232
302	255	198	228
303	252	182	227
304	248	165	224
305	242	147	219
306	251	152	228
307	255	153	233
308	253	143	230
309	246	130	226
310	253	138	232
311	255	141	232
312	251	137	227
313	246	131	223
314	255	146	233
315	255	160	241
316	255	156	235
317	0	0	0
318	0	0	0
319	0	0	0
320	0	0	0
321	0	0	0
322	0	0	0
323	0	0	0
324	0	0	0
325	0	0	0
326	255	210	230
327	252	193	226
328	247	174	224
329	242	157	221
330	253	163	231
331	255	167	238
332	250	147	227
333	246	136	223
334	251	141	231
335	255	148	237
336	252	142	229
337	247	137	224
338	251	144	229
339	255	160	239
340	255	156	233
341	0	0	0
342	0	0	0
343	0	0	0
344	0	0	0
345	0	0	0
346	0	0	0
347	0	0	0
348	0	0	0
349	0	0	0
350	0	0	0
351	255	206	232
352	248	185	225
353	242	165	223
354	253	173	236
355	255	178	240
356	253	160	230
357	243	141	223
358	253	149	234
359	255	152	239
360	253	149	235
361	249	144	230
362	253	151	232
363	255	156	232
364	253	157	231
365	248	153	228
366	0	0	0
367	0	0	0
368	0	0	0
369	0	0	0
370	0	0	0
371	0	0	0
372	0	0	0
373	0	0	0
374	0	0	0
375	0	0	0
376	255	205	235
377	247	183	227
378	249	177	233
379	255	184	244
380	255	172	237
381	246	154	226
382	249	153	231
383	255	160	241
384	248	146	232
385	244	142	228
386	255	162	239
387	255	168	241
388	250	156	229
389	248	156	227
390	248	162	230
391	0	0	0
392	0	0	0
393	0	0	0
394	0	0	0
395	0	0	0
396	0	0	0
397	0	0	0
398	0	0	0
399	0	0	0
400	0	0	0
401	255	204	238
402	254	194	237
403	253	186	237
404	253	177	238
405	250	167	237
406	253	166	239
407	253	162	236
408	246	152	229
409	236	137	221
410	248	156	233
411	255	175	242
412	250	163	232
413	241	152	225
414	247	163	231
415	0	0	0
416	0	0	0
417	0	0	0
418	0	0	0
419	0	0	0
420	0	0	0
421	0	0	0
422	0	0	0
423	0	0	0
424	0	0	0
425	0	0	0
426	0	0	0
427	253	195	237
428	254	189	238
429	251	180	237
430	252	175	242
431	255	174	245
432	251	166	236
433	243	154	227
434	245	158	231
435	0	0	0
436	0	0	0
437	0	0	0
438	0	0	0
439	0	0	0
440	0	0	0
441	0	0	0
442	0	0	0
443	0	0	0
444	0	0	0
445	0	0	0
446	0	0	0
447	0	0	0
448	0	0	0
449	0	0	0
450	0	0	0
451	0	0	0
452	0	0	0
453	254	193	239
454	253	187	240
455	252	180	241
456	251	176	241
457	0	0	0
458	0	0	0
459	0	0	0
460	0	0	0
461	0	0	0
462	0	0	0
463	0	0	0
464	0	0	0
465	0	0	0
466	0	0	0
467	0	0	0
468	0	0	0
469	0	0	0
470	0	0	0
471	0	0	0
472	0	0	0
473	0	0	0
474	0	0	0
475	0	0	0
476	0	0	0
477	0	0	0
478	255	201	242
479	254	193	241
480	252	186	239
481	0	0	0
482	0	0	0
483	0	0	0
484	0	0	0
485	0	0	0
486	0	0	0
487	0	0	0
488	0	0	0
489	0	0	0
490	0	0	0
491	0	0	0
492	0	0	0
493	0	0	0
494	0	0	0
495	0	0	0
496	0	0	0
497	0	0	0
498	0	0	0
499	0	0	0
500	0	0	0
501	0	0	0
502	0	0	0
503	0	0	0
504	254	200	240
505	0	0	0
506	0	0	0
507	0	0	0
508	0	0	0
509	0	0	0
510	0	0	0
511	0	0	0
512	0	0	0
513	0	0	0
514	0	0	0
515	0	0	0
516	0	0	0
517	0	0	0
518	0	0	0
519	0	0	0
520	0	0	0
521	0	0	0
522	0	0	0
523	0	0	0
524	0	0	0
525	0	0	0
