 	R	G	B
1	0	0	0
2	0	0	0
3	0	0	0
4	0	0	0
5	0	0	0
6	0	0	0
7	0	0	0
8	0	0	0
9	0	0	0
10	0	0	0
11	0	0	0
12	255	244	236
13	255	241	236
14	255	236	236
15	0	0	0
16	0	0	0
17	0	0	0
18	0	0	0
19	0	0	0
20	0	0	0
21	0	0	0
22	0	0	0
23	0	0	0
24	0	0	0
25	0	0	0
26	0	0	0
27	0	0	0
28	0	0	0
29	0	0	0
30	0	0	0
31	0	0	0
32	0	0	0
33	0	0	0
34	0	0	0
35	0	0	0
36	0	0	0
37	0	0	0
38	0	0	0
39	0	0	0
40	0	0	0
41	0	0	0
42	0	0	0
43	0	0	0
44	0	0	0
45	0	0	0
46	0	0	0
47	0	0	0
48	0	0	0
49	0	0	0
50	0	0	0
51	0	0	0
52	0	0	0
53	0	0	0
54	0	0	0
55	0	0	0
56	0	0	0
57	0	0	0
58	0	0	0
59	0	0	0
60	0	0	0
61	0	0	0
62	0	0	0
63	0	0	0
64	0	0	0
65	0	0	0
66	0	0	0
67	0	0	0
68	0	0	0
69	0	0	0
70	0	0	0
71	255	243	234
72	255	240	235
73	255	232	233
74	254	227	232
75	248	218	227
76	0	0	0
77	0	0	0
78	0	0	0
79	0	0	0
80	0	0	0
81	0	0	0
82	0	0	0
83	0	0	0
84	0	0	0
85	0	0	0
86	0	0	0
87	0	0	0
88	0	0	0
89	0	0	0
90	0	0	0
91	0	0	0
92	0	0	0
93	0	0	0
94	0	0	0
95	0	0	0
96	0	0	0
97	0	0	0
98	0	0	0
99	0	0	0
100	0	0	0
101	0	0	0
102	0	0	0
103	0	0	0
104	0	0	0
105	0	0	0
106	0	0	0
107	0	0	0
108	0	0	0
109	0	0	0
110	0	0	0
111	0	0	0
112	0	0	0
113	0	0	0
114	0	0	0
115	0	0	0
116	0	0	0
117	0	0	0
118	0	0	0
119	0	0	0
120	0	0	0
121	0	0	0
122	0	0	0
123	0	0	0
124	0	0	0
125	244	216	229
126	255	233	241
127	255	243	241
128	255	244	237
129	255	249	241
130	255	245	238
131	255	244	236
132	255	233	230
133	254	224	229
134	251	217	226
135	245	209	221
136	0	0	0
137	0	0	0
138	0	0	0
139	0	0	0
140	0	0	0
141	0	0	0
142	0	0	0
143	0	0	0
144	0	0	0
145	0	0	0
146	0	0	0
147	0	0	0
148	0	0	0
149	0	0	0
150	0	0	0
151	0	0	0
152	0	0	0
153	0	0	0
154	0	0	0
155	0	0	0
156	0	0	0
157	0	0	0
158	0	0	0
159	0	0	0
160	0	0	0
161	0	0	0
162	0	0	0
163	0	0	0
164	0	0	0
165	0	0	0
166	0	0	0
167	0	0	0
168	0	0	0
169	0	0	0
170	0	0	0
171	0	0	0
172	0	0	0
173	0	0	0
174	0	0	0
175	0	0	0
176	0	0	0
177	0	0	0
178	0	0	0
179	0	0	0
180	0	0	0
181	0	0	0
182	0	0	0
183	0	0	0
184	252	226	232
185	250	218	233
186	255	236	245
187	255	226	232
188	255	229	230
189	255	231	231
190	255	227	229
191	255	224	227
192	248	211	220
193	252	216	226
194	249	209	223
195	254	217	227
196	0	0	0
197	0	0	0
198	0	0	0
199	0	0	0
200	0	0	0
201	0	0	0
202	0	0	0
203	0	0	0
204	0	0	0
205	0	0	0
206	0	0	0
207	0	0	0
208	0	0	0
209	0	0	0
210	0	0	0
211	0	0	0
212	0	0	0
213	0	0	0
214	0	0	0
215	0	0	0
216	0	0	0
217	0	0	0
218	0	0	0
219	0	0	0
220	0	0	0
221	0	0	0
222	0	0	0
223	0	0	0
224	0	0	0
225	0	0	0
226	0	0	0
227	0	0	0
228	0	0	0
229	0	0	0
230	0	0	0
231	0	0	0
232	0	0	0
233	0	0	0
234	0	0	0
235	0	0	0
236	0	0	0
237	0	0	0
238	0	0	0
239	0	0	0
240	0	0	0
241	0	0	0
242	0	0	0
243	254	230	236
244	255	226	236
245	253	218	233
246	254	217	233
247	249	210	224
248	251	212	224
249	252	213	222
250	249	208	220
251	249	206	223
252	250	207	225
253	252	210	227
254	255	216	230
255	255	223	233
256	255	216	228
257	0	0	0
258	0	0	0
259	0	0	0
260	0	0	0
261	0	0	0
262	0	0	0
263	0	0	0
264	0	0	0
265	0	0	0
266	0	0	0
267	0	0	0
268	0	0	0
269	0	0	0
270	0	0	0
271	0	0	0
272	0	0	0
273	0	0	0
274	0	0	0
275	0	0	0
276	0	0	0
277	0	0	0
278	0	0	0
279	0	0	0
280	0	0	0
281	0	0	0
282	0	0	0
283	0	0	0
284	0	0	0
285	0	0	0
286	0	0	0
287	0	0	0
288	0	0	0
289	0	0	0
290	0	0	0
291	0	0	0
292	0	0	0
293	0	0	0
294	0	0	0
295	0	0	0
296	0	0	0
297	0	0	0
298	0	0	0
299	0	0	0
300	0	0	0
301	0	0	0
302	255	235	243
303	254	223	234
304	254	218	232
305	253	213	230
306	255	212	230
307	252	207	228
308	255	210	230
309	251	204	223
310	248	198	220
311	252	204	226
312	251	204	227
313	255	212	232
314	255	217	234
315	255	214	230
316	253	207	225
317	248	201	222
318	0	0	0
319	255	214	228
320	255	218	229
321	0	0	0
322	0	0	0
323	0	0	0
324	0	0	0
325	0	0	0
326	0	0	0
327	0	0	0
328	0	0	0
329	0	0	0
330	0	0	0
331	0	0	0
332	0	0	0
333	0	0	0
334	0	0	0
335	0	0	0
336	0	0	0
337	0	0	0
338	0	0	0
339	0	0	0
340	0	0	0
341	0	0	0
342	0	0	0
343	0	0	0
344	0	0	0
345	0	0	0
346	0	0	0
347	0	0	0
348	0	0	0
349	0	0	0
350	0	0	0
351	0	0	0
352	0	0	0
353	0	0	0
354	0	0	0
355	0	0	0
356	0	0	0
357	0	0	0
358	0	0	0
359	0	0	0
360	0	0	0
361	0	0	0
362	0	0	0
363	248	211	226
364	251	210	227
365	250	205	224
366	252	204	226
367	251	200	228
368	249	196	227
369	245	190	223
370	247	194	224
371	249	197	224
372	253	204	228
373	255	212	234
374	254	207	230
375	253	205	228
376	251	200	225
377	246	194	219
378	252	204	225
379	255	214	231
380	251	205	224
381	240	193	214
382	0	0	0
383	0	0	0
384	251	224	229
385	0	0	0
386	0	0	0
387	0	0	0
388	0	0	0
389	0	0	0
390	0	0	0
391	0	0	0
392	0	0	0
393	0	0	0
394	0	0	0
395	0	0	0
396	0	0	0
397	0	0	0
398	0	0	0
399	0	0	0
400	0	0	0
401	0	0	0
402	0	0	0
403	0	0	0
404	0	0	0
405	0	0	0
406	0	0	0
407	0	0	0
408	0	0	0
409	0	0	0
410	0	0	0
411	0	0	0
412	0	0	0
413	0	0	0
414	0	0	0
415	0	0	0
416	0	0	0
417	0	0	0
418	0	0	0
419	0	0	0
420	0	0	0
421	0	0	0
422	253	222	234
423	252	214	231
424	255	214	233
425	248	199	224
426	250	198	226
427	248	193	227
428	245	189	227
429	249	195	231
430	251	198	231
431	251	199	227
432	255	206	230
433	255	207	232
434	253	203	229
435	255	206	232
436	254	202	228
437	250	197	223
438	255	207	229
439	255	207	229
440	249	199	222
441	251	204	226
442	255	220	235
443	254	214	227
444	255	219	228
445	250	215	225
446	0	0	0
447	0	0	0
448	0	0	0
449	0	0	0
450	0	0	0
451	0	0	0
452	0	0	0
453	0	0	0
454	0	0	0
455	0	0	0
456	0	0	0
457	0	0	0
458	0	0	0
459	0	0	0
460	0	0	0
461	0	0	0
462	0	0	0
463	0	0	0
464	0	0	0
465	0	0	0
466	0	0	0
467	0	0	0
468	0	0	0
469	0	0	0
470	0	0	0
471	0	0	0
472	0	0	0
473	0	0	0
474	0	0	0
475	0	0	0
476	0	0	0
477	0	0	0
478	0	0	0
479	0	0	0
480	0	0	0
481	0	0	0
482	253	221	235
483	252	213	233
484	248	202	228
485	241	188	222
486	239	184	222
487	236	178	219
488	241	185	225
489	245	191	228
490	248	195	229
491	248	196	225
492	249	197	224
493	251	199	226
494	253	201	228
495	255	205	230
496	254	202	227
497	251	197	223
498	252	199	224
499	251	199	224
500	255	205	228
501	255	211	232
502	255	208	228
503	249	203	220
504	249	204	220
505	244	201	218
506	252	217	227
507	255	232	232
508	255	235	230
509	0	0	0
510	0	0	0
511	0	0	0
512	0	0	0
513	0	0	0
514	0	0	0
515	0	0	0
516	0	0	0
517	0	0	0
518	0	0	0
519	0	0	0
520	0	0	0
521	0	0	0
522	0	0	0
523	0	0	0
524	0	0	0
525	0	0	0
526	0	0	0
527	0	0	0
528	0	0	0
529	0	0	0
530	0	0	0
531	0	0	0
532	0	0	0
533	0	0	0
534	0	0	0
535	0	0	0
536	0	0	0
537	0	0	0
538	0	0	0
539	0	0	0
540	0	0	0
541	254	230	238
542	253	222	236
543	251	212	233
544	247	201	230
545	244	195	228
546	241	191	228
547	242	193	230
548	246	200	235
549	246	198	232
550	252	204	234
551	252	202	230
552	253	203	229
553	255	204	229
554	255	207	231
555	254	201	226
556	251	197	223
557	252	198	225
558	254	201	227
559	252	198	224
560	255	204	227
561	255	210	230
562	255	207	226
563	251	203	222
564	252	204	223
565	246	199	219
566	255	217	228
567	255	226	228
568	251	227	224
569	250	230	226
570	0	0	0
571	0	0	0
572	0	0	0
573	0	0	0
574	0	0	0
575	0	0	0
576	0	0	0
577	0	0	0
578	0	0	0
579	0	0	0
580	0	0	0
581	0	0	0
582	0	0	0
583	0	0	0
584	0	0	0
585	0	0	0
586	0	0	0
587	0	0	0
588	0	0	0
589	0	0	0
590	0	0	0
591	0	0	0
592	0	0	0
593	0	0	0
594	0	0	0
595	0	0	0
596	0	0	0
597	0	0	0
598	0	0	0
599	0	0	0
600	0	0	0
601	0	0	0
602	250	219	234
603	247	209	232
604	248	205	232
605	243	197	228
606	244	201	232
607	245	203	235
608	246	204	235
609	246	202	233
610	251	204	234
611	252	203	232
612	254	204	231
613	254	204	228
614	252	199	223
615	248	193	220
616	251	197	225
617	253	199	228
618	253	199	228
619	250	195	223
620	252	200	223
621	254	204	222
622	250	200	218
623	248	198	218
624	248	198	219
625	242	193	214
626	250	209	221
627	252	218	220
628	249	220	218
629	250	224	223
630	255	235	232
631	0	0	0
632	0	0	0
633	0	0	0
634	0	0	0
635	0	0	0
636	0	0	0
637	0	0	0
638	0	0	0
639	0	0	0
640	0	0	0
641	0	0	0
642	0	0	0
643	0	0	0
644	0	0	0
645	0	0	0
646	0	0	0
647	0	0	0
648	0	0	0
649	0	0	0
650	0	0	0
651	0	0	0
652	0	0	0
653	0	0	0
654	0	0	0
655	0	0	0
656	0	0	0
657	0	0	0
658	0	0	0
659	0	0	0
660	0	0	0
661	0	0	0
662	0	0	0
663	253	219	238
664	253	214	238
665	248	207	233
666	247	209	235
667	249	213	238
668	254	215	241
669	253	210	236
670	255	211	237
671	255	207	234
672	255	208	233
673	255	207	230
674	253	202	225
675	250	197	224
676	254	201	229
677	254	201	230
678	253	200	230
679	254	202	228
680	255	206	227
681	255	207	223
682	252	203	220
683	251	202	221
684	249	202	222
685	246	200	219
686	255	216	226
687	254	219	220
688	255	223	221
689	249	214	218
690	255	224	226
691	252	225	224
692	0	0	0
693	0	0	0
694	0	0	0
695	0	0	0
696	0	0	0
697	0	0	0
698	0	0	0
699	0	0	0
700	0	0	0
701	0	0	0
702	0	0	0
703	0	0	0
704	0	0	0
705	0	0	0
706	0	0	0
707	0	0	0
708	0	0	0
709	0	0	0
710	0	0	0
711	0	0	0
712	0	0	0
713	0	0	0
714	0	0	0
715	0	0	0
716	0	0	0
717	0	0	0
718	0	0	0
719	0	0	0
720	0	0	0
721	0	0	0
722	0	0	0
723	0	0	0
724	253	221	240
725	247	213	233
726	246	215	234
727	250	219	238
728	253	217	238
729	252	213	234
730	254	211	234
731	252	207	231
732	253	208	232
733	255	209	232
734	253	205	230
735	250	200	227
736	252	201	228
737	251	199	227
738	253	203	228
739	254	205	228
740	255	207	227
741	255	209	227
742	255	207	226
743	252	204	223
744	251	206	223
745	247	205	220
746	252	212	222
747	253	216	219
748	250	210	214
749	245	203	211
750	250	211	218
751	0	0	0
752	0	0	0
753	0	0	0
754	0	0	0
755	0	0	0
756	0	0	0
757	0	0	0
758	0	0	0
759	0	0	0
760	0	0	0
761	0	0	0
762	0	0	0
763	0	0	0
764	0	0	0
765	0	0	0
766	0	0	0
767	0	0	0
768	0	0	0
769	0	0	0
770	0	0	0
771	0	0	0
772	0	0	0
773	0	0	0
774	0	0	0
775	0	0	0
776	0	0	0
777	0	0	0
778	0	0	0
779	0	0	0
780	0	0	0
781	0	0	0
782	0	0	0
783	0	0	0
784	246	223	237
785	246	223	236
786	249	227	238
787	249	223	237
788	250	221	236
789	251	216	234
790	253	216	235
791	249	207	229
792	249	208	230
793	254	212	235
794	254	210	233
795	251	204	228
796	251	204	228
797	250	202	227
798	254	207	230
799	254	206	229
800	255	209	230
801	255	208	229
802	255	207	227
803	252	205	224
804	250	206	224
805	246	203	221
806	251	211	224
807	250	209	219
808	249	205	216
809	243	194	211
810	247	202	218
811	241	199	212
812	0	0	0
813	0	0	0
814	0	0	0
815	0	0	0
816	0	0	0
817	0	0	0
818	0	0	0
819	0	0	0
820	0	0	0
821	0	0	0
822	0	0	0
823	0	0	0
824	0	0	0
825	0	0	0
826	0	0	0
827	0	0	0
828	0	0	0
829	0	0	0
830	0	0	0
831	0	0	0
832	0	0	0
833	0	0	0
834	0	0	0
835	0	0	0
836	0	0	0
837	0	0	0
838	0	0	0
839	0	0	0
840	0	0	0
841	0	0	0
842	0	0	0
843	0	0	0
844	0	0	0
845	250	235	242
846	246	230	238
847	245	226	234
848	247	223	234
849	248	219	234
850	247	214	232
851	244	206	229
852	249	212	233
853	254	216	235
854	254	213	232
855	251	207	227
856	250	206	227
857	250	206	229
858	255	210	234
859	255	210	234
860	253	208	232
861	253	208	229
862	253	207	227
863	250	204	225
864	245	202	223
865	242	200	221
866	242	200	220
867	242	198	217
868	239	191	214
869	233	181	211
870	235	186	213
871	229	182	206
872	240	199	214
873	246	212	218
874	251	220	222
875	254	226	226
876	255	237	232
877	0	0	0
878	0	0	0
879	0	0	0
880	0	0	0
881	0	0	0
882	0	0	0
883	0	0	0
884	0	0	0
885	0	0	0
886	0	0	0
887	0	0	0
888	0	0	0
889	0	0	0
890	0	0	0
891	0	0	0
892	0	0	0
893	0	0	0
894	0	0	0
895	0	0	0
896	0	0	0
897	0	0	0
898	0	0	0
899	0	0	0
900	0	0	0
901	0	0	0
902	0	0	0
903	0	0	0
904	0	0	0
905	0	0	0
906	0	0	0
907	0	0	0
908	0	0	0
909	0	0	0
910	0	0	0
911	248	219	236
912	255	227	243
913	252	214	232
914	250	210	228
915	249	208	226
916	248	207	226
917	251	209	230
918	255	214	237
919	251	204	230
920	246	201	227
921	252	211	231
922	251	210	229
923	245	203	224
924	241	202	223
925	238	199	222
926	239	200	223
927	240	199	221
928	236	191	218
929	231	184	216
930	231	188	218
931	230	186	213
932	249	208	225
933	250	206	219
934	255	216	224
935	254	207	218
936	255	218	224
937	253	215	218
938	0	0	0
939	0	0	0
940	0	0	0
941	0	0	0
942	0	0	0
943	0	0	0
944	0	0	0
945	0	0	0
946	0	0	0
947	0	0	0
948	0	0	0
949	0	0	0
950	0	0	0
951	0	0	0
952	0	0	0
953	0	0	0
954	0	0	0
955	0	0	0
956	0	0	0
957	0	0	0
958	0	0	0
959	0	0	0
960	0	0	0
961	0	0	0
962	0	0	0
963	0	0	0
964	0	0	0
965	0	0	0
966	0	0	0
967	0	0	0
968	0	0	0
969	0	0	0
970	0	0	0
971	254	231	240
972	254	224	238
973	249	212	228
974	252	213	229
975	252	212	231
976	250	211	230
977	251	211	229
978	251	206	227
979	244	195	222
980	249	206	229
981	253	216	234
982	246	208	226
983	239	201	222
984	235	199	221
985	232	196	220
986	232	196	220
987	233	195	220
988	230	190	218
989	226	183	215
990	229	187	219
991	232	188	218
992	242	193	220
993	244	191	213
994	243	186	208
995	238	178	200
996	245	185	206
997	240	184	204
998	247	203	214
999	255	227	226
1000	255	231	226
1001	255	234	225
1002	0	0	0
1003	0	0	0
1004	0	0	0
1005	0	0	0
1006	0	0	0
1007	0	0	0
1008	0	0	0
1009	0	0	0
1010	0	0	0
1011	0	0	0
1012	0	0	0
1013	0	0	0
1014	0	0	0
1015	0	0	0
1016	0	0	0
1017	0	0	0
1018	0	0	0
1019	0	0	0
1020	0	0	0
1021	0	0	0
1022	0	0	0
1023	0	0	0
1024	0	0	0
1025	0	0	0
1026	0	0	0
1027	0	0	0
1028	0	0	0
1029	0	0	0
1030	0	0	0
1031	253	232	239
1032	253	225	237
1033	246	209	226
1034	252	212	230
1035	255	215	233
1036	253	214	232
1037	253	214	230
1038	248	206	226
1039	240	195	222
1040	249	208	231
1041	247	210	229
1042	235	199	220
1043	234	201	221
1044	234	201	222
1045	229	195	219
1046	226	192	219
1047	226	192	220
1048	224	188	218
1049	223	182	217
1050	236	191	225
1051	238	187	222
1052	246	192	224
1053	244	187	216
1054	235	179	208
1055	231	170	203
1056	243	181	212
1057	238	174	207
1058	250	196	217
1059	255	207	218
1060	255	210	215
1061	252	200	205
1062	252	205	206
1063	0	0	0
1064	0	0	0
1065	0	0	0
1066	0	0	0
1067	0	0	0
1068	0	0	0
1069	0	0	0
1070	0	0	0
1071	0	0	0
1072	0	0	0
1073	0	0	0
1074	0	0	0
1075	0	0	0
1076	0	0	0
1077	0	0	0
1078	0	0	0
1079	0	0	0
1080	0	0	0
1081	0	0	0
1082	0	0	0
1083	0	0	0
1084	0	0	0
1085	0	0	0
1086	0	0	0
1087	0	0	0
1088	0	0	0
1089	0	0	0
1090	0	0	0
1091	0	0	0
1092	243	217	231
1093	237	203	223
1094	248	211	230
1095	251	213	230
1096	250	212	229
1097	249	213	228
1098	239	201	221
1099	232	192	219
1100	240	201	228
1101	240	203	227
1102	238	203	225
1103	237	204	225
1104	233	200	223
1105	228	194	221
1106	226	194	223
1107	226	193	225
1108	219	185	220
1109	221	180	220
1110	234	184	226
1111	237	181	222
1112	241	181	221
1113	237	176	214
1114	223	163	204
1115	220	157	204
1116	230	162	210
1117	227	156	203
1118	239	172	210
1119	248	184	211
1120	247	179	204
1121	240	171	193
1122	248	185	201
1123	254	196	207
1124	255	205	211
1125	255	215	215
1126	255	222	217
1127	255	230	220
1128	255	226	218
1129	0	0	0
1130	0	0	0
1131	0	0	0
1132	0	0	0
1133	0	0	0
1134	0	0	0
1135	0	0	0
1136	0	0	0
1137	0	0	0
1138	0	0	0
1139	0	0	0
1140	0	0	0
1141	0	0	0
1142	0	0	0
1143	0	0	0
1144	0	0	0
1145	0	0	0
1146	0	0	0
1147	0	0	0
1148	0	0	0
1149	0	0	0
1150	0	0	0
1151	0	0	0
1152	0	0	0
1153	238	216	230
1154	251	226	239
1155	247	216	231
1156	247	216	230
1157	243	213	227
1158	231	201	219
1159	235	206	226
1160	246	217	237
1161	239	203	228
1162	244	207	231
1163	240	202	226
1164	230	194	221
1165	222	185	218
1166	223	187	221
1167	225	191	226
1168	217	181	220
1169	228	189	230
1170	244	195	238
1171	235	174	223
1172	236	172	220
1173	235	174	217
1174	221	162	208
1175	224	164	215
1176	232	168	220
1177	231	161	213
1178	248	181	223
1179	248	175	215
1180	250	173	210
1181	246	165	202
1182	254	179	209
1183	252	179	206
1184	255	187	208
1185	255	191	207
1186	255	198	209
1187	254	197	207
1188	248	193	205
1189	247	197	209
1190	0	0	0
1191	0	0	0
1192	0	0	0
1193	0	0	0
1194	0	0	0
1195	0	0	0
1196	0	0	0
1197	0	0	0
1198	0	0	0
1199	0	0	0
1200	0	0	0
1201	0	0	0
1202	0	0	0
1203	0	0	0
1204	0	0	0
1205	0	0	0
1206	0	0	0
1207	0	0	0
1208	0	0	0
1209	0	0	0
1210	0	0	0
1211	0	0	0
1212	0	0	0
1213	246	233	239
1214	245	227	236
1215	241	218	231
1216	245	219	232
1217	243	217	229
1218	239	217	228
1219	242	221	233
1220	238	209	228
1221	233	197	223
1222	239	200	228
1223	235	195	222
1224	222	184	215
1225	215	176	213
1226	224	184	222
1227	228	190	226
1228	227	191	228
1229	236	198	236
1230	234	182	230
1231	225	162	218
1232	229	166	220
1233	230	167	217
1234	225	165	213
1235	228	167	218
1236	232	166	218
1237	233	161	215
1238	239	160	214
1239	241	156	210
1240	248	158	212
1241	245	151	205
1242	246	156	206
1243	244	156	203
1244	244	159	202
1245	244	163	200
1246	243	164	199
1247	241	165	200
1248	243	172	205
1249	241	175	207
1250	250	195	217
1251	255	213	225
1252	255	220	225
1253	255	228	225
1254	255	226	221
1255	0	0	0
1256	0	0	0
1257	0	0	0
1258	0	0	0
1259	0	0	0
1260	0	0	0
1261	0	0	0
1262	0	0	0
1263	0	0	0
1264	0	0	0
1265	0	0	0
1266	0	0	0
1267	0	0	0
1268	0	0	0
1269	0	0	0
1270	0	0	0
1271	0	0	0
1272	250	237	240
1273	245	230	236
1274	234	218	227
1275	239	223	232
1276	249	228	238
1277	243	217	230
1278	243	219	231
1279	242	217	230
1280	233	204	222
1281	233	201	226
1282	238	203	231
1283	225	186	218
1284	215	177	213
1285	223	185	223
1286	237	197	234
1287	236	193	231
1288	235	194	232
1289	223	176	223
1290	212	156	212
1291	223	167	222
1292	231	173	226
1293	233	173	223
1294	235	173	222
1295	239	172	223
1296	246	173	225
1297	252	172	226
1298	255	172	226
1299	254	161	221
1300	255	162	223
1301	244	141	208
1302	247	146	209
1303	254	159	216
1304	254	164	214
1305	255	168	213
1306	255	170	214
1307	249	162	210
1308	251	169	215
1309	243	164	210
1310	253	185	220
1311	255	195	222
1312	254	199	219
1313	252	202	215
1314	247	199	210
1315	250	210	217
1316	0	0	0
1317	0	0	0
1318	0	0	0
1319	0	0	0
1320	0	0	0
1321	0	0	0
1322	0	0	0
1323	0	0	0
1324	0	0	0
1325	0	0	0
1326	0	0	0
1327	0	0	0
1328	0	0	0
1329	0	0	0
1330	0	0	0
1331	249	237	239
1332	249	235	238
1333	243	228	234
1334	239	228	233
1335	242	231	236
1336	241	223	232
1337	237	213	228
1338	239	214	230
1339	239	213	229
1340	236	207	227
1341	235	205	229
1342	227	192	223
1343	215	175	215
1344	221	184	224
1345	228	192	231
1346	234	192	232
1347	231	187	227
1348	215	167	213
1349	203	150	206
1350	213	162	217
1351	223	172	223
1352	229	174	225
1353	234	175	224
1354	236	172	223
1355	242	172	224
1356	252	174	227
1357	255	174	225
1358	255	164	220
1359	252	154	217
1360	245	140	210
1361	231	119	197
1362	245	138	208
1363	253	152	214
1364	252	155	212
1365	255	160	212
1366	248	152	206
1367	241	145	204
1368	239	147	206
1369	231	142	200
1370	239	159	209
1371	242	169	213
1372	239	170	210
1373	236	172	207
1374	234	178	207
1375	236	189	212
1376	236	195	215
1377	0	0	0
1378	0	0	0
1379	0	0	0
1380	0	0	0
1381	0	0	0
1382	0	0	0
1383	0	0	0
1384	0	0	0
1385	0	0	0
1386	0	0	0
1387	0	0	0
1388	0	0	0
1389	0	0	0
1390	250	245	244
1391	246	236	237
1392	244	232	235
1393	242	229	234
1394	242	231	235
1395	239	228	232
1396	230	215	224
1397	239	224	234
1398	246	228	239
1399	239	214	231
1400	239	210	230
1401	239	210	233
1402	228	195	226
1403	222	187	225
1404	231	198	236
1405	228	192	233
1406	226	187	229
1407	221	181	223
1408	203	160	209
1409	210	168	219
1410	225	183	232
1411	223	174	224
1412	229	175	225
1413	233	175	225
1414	237	172	224
1415	243	173	225
1416	251	174	226
1417	250	164	219
1418	249	155	215
1419	245	144	212
1420	238	130	206
1421	241	133	209
1422	255	154	223
1423	255	152	218
1424	255	155	215
1425	255	164	218
1426	252	155	212
1427	248	153	213
1428	245	155	215
1429	233	145	207
1430	242	162	217
1431	238	162	216
1432	236	164	215
1433	240	179	221
1434	233	182	218
1435	239	197	225
1436	247	208	231
1437	231	190	217
1438	0	0	0
1439	0	0	0
1440	0	0	0
1441	0	0	0
1442	0	0	0
1443	0	0	0
1444	0	0	0
1445	0	0	0
1446	0	0	0
1447	0	0	0
1448	0	0	0
1449	0	0	0
1450	0	0	0
1451	245	236	237
1452	248	236	238
1453	246	233	236
1454	244	232	236
1455	241	229	234
1456	241	232	235
1457	248	240	242
1458	243	226	235
1459	236	213	229
1460	238	212	231
1461	238	211	232
1462	233	203	230
1463	227	195	228
1464	226	192	230
1465	222	187	228
1466	223	184	229
1467	219	179	226
1468	217	182	227
1469	222	188	231
1470	221	181	227
1471	219	172	222
1472	225	172	224
1473	231	172	224
1474	237	172	225
1475	243	172	224
1476	242	162	218
1477	241	153	214
1478	240	144	211
1479	237	133	209
1480	246	142	217
1481	248	143	217
1482	253	148	218
1483	253	148	217
1484	255	156	220
1485	255	164	221
1486	255	159	217
1487	252	157	217
1488	242	149	213
1489	230	139	207
1490	228	144	211
1491	223	144	210
1492	234	163	220
1493	239	179	226
1494	236	186	225
1495	242	201	231
1496	232	188	221
1497	0	0	0
1498	0	0	0
1499	0	0	0
1500	0	0	0
1501	0	0	0
1502	0	0	0
1503	0	0	0
1504	0	0	0
1505	0	0	0
1506	0	0	0
1507	0	0	0
1508	0	0	0
1509	0	0	0
1510	0	0	0
1511	250	242	241
1512	255	245	246
1513	249	231	236
1514	246	228	234
1515	247	232	236
1516	248	236	238
1517	246	233	236
1518	236	216	226
1519	237	217	230
1520	236	215	232
1521	238	216	234
1522	236	210	234
1523	222	190	224
1524	216	185	224
1525	221	189	230
1526	230	191	235
1527	225	182	230
1528	223	184	231
1529	217	179	226
1530	210	169	219
1531	217	174	224
1532	225	175	226
1533	234	178	229
1534	244	180	231
1535	244	171	225
1536	240	160	218
1537	245	159	220
1538	245	150	218
1539	243	141	217
1540	252	150	225
1541	239	131	209
1542	241	135	210
1543	253	150	220
1544	255	160	225
1545	249	144	212
1546	245	140	208
1547	252	153	217
1548	244	147	214
1549	239	149	216
1550	229	149	216
1551	221	148	214
1552	233	168	226
1553	244	188	234
1554	251	200	239
1555	246	200	234
1556	221	179	216
1557	0	0	0
1558	0	0	0
1559	0	0	0
1560	0	0	0
1561	0	0	0
1562	0	0	0
1563	0	0	0
1564	0	0	0
1565	0	0	0
1566	0	0	0
1567	0	0	0
1568	0	0	0
1569	0	0	0
1570	0	0	0
1571	0	0	0
1572	255	240	242
1573	248	226	232
1574	249	230	235
1575	250	234	237
1576	247	230	233
1577	244	227	230
1578	241	224	229
1579	241	224	234
1580	237	220	233
1581	237	220	234
1582	226	201	225
1583	214	182	219
1584	216	187	226
1585	222	191	232
1586	227	189	233
1587	222	178	226
1588	219	176	225
1589	215	171	225
1590	216	174	227
1591	221	179	230
1592	228	180	231
1593	236	182	232
1594	240	176	228
1595	241	167	223
1596	241	162	220
1597	246	161	223
1598	245	152	220
1599	243	143	218
1600	240	135	215
1601	227	117	201
1602	240	134	212
1603	250	149	219
1604	240	134	208
1605	230	120	200
1606	239	135	210
1607	247	148	217
1608	250	153	219
1609	245	155	220
1610	232	153	217
1611	223	151	214
1612	236	173	228
1613	247	192	237
1614	243	190	231
1615	237	189	226
1616	216	180	215
1617	208	176	214
1618	0	0	0
1619	0	0	0
1620	0	0	0
1621	0	0	0
1622	0	0	0
1623	0	0	0
1624	0	0	0
1625	0	0	0
1626	0	0	0
1627	0	0	0
1628	0	0	0
1629	0	0	0
1630	0	0	0
1631	0	0	0
1632	0	0	0
1633	247	227	233
1634	249	232	236
1635	245	228	233
1636	243	224	230
1637	245	228	231
1638	243	225	230
1639	241	225	233
1640	235	220	232
1641	231	215	229
1642	215	195	218
1643	222	201	229
1644	233	211	242
1645	224	192	233
1646	222	185	230
1647	222	181	227
1648	223	181	228
1649	221	176	229
1650	223	180	233
1651	232	190	237
1652	236	189	236
1653	234	178	229
1654	235	170	225
1655	237	164	221
1656	240	161	221
1657	251	168	228
1658	247	158	223
1659	244	147	219
1660	242	140	218
1661	231	123	208
1662	244	141	219
1663	245	146	218
1664	232	130	206
1665	235	134	212
1666	245	149	223
1667	243	146	218
1668	251	154	223
1669	248	155	221
1670	236	153	218
1671	224	147	213
1672	236	169	226
1673	241	185	231
1674	229	178	219
1675	235	199	229
1676	220	193	221
1677	219	197	225
1678	240	226	243
1679	0	0	0
1680	0	0	0
1681	0	0	0
1682	0	0	0
1683	0	0	0
1684	0	0	0
1685	0	0	0
1686	0	0	0
1687	0	0	0
1688	0	0	0
1689	0	0	0
1690	0	0	0
1691	0	0	0
1692	0	0	0
1693	0	0	0
1694	247	227	234
1695	244	224	234
1696	249	229	238
1697	250	232	237
1698	245	228	234
1699	243	227	235
1700	235	219	231
1701	230	215	229
1702	228	214	230
1703	233	220	235
1704	226	203	230
1705	217	185	226
1706	217	184	229
1707	217	181	225
1708	223	181	227
1709	221	177	227
1710	227	186	233
1711	235	195	237
1712	231	182	228
1713	229	173	226
1714	232	167	225
1715	234	162	222
1716	245	168	227
1717	254	174	230
1718	244	158	219
1719	239	147	215
1720	236	137	213
1721	227	122	207
1722	234	133	215
1723	235	137	214
1724	234	138	213
1725	235	142	217
1726	232	140	215
1727	232	138	213
1728	245	148	220
1729	243	149	219
1730	232	147	215
1731	222	142	213
1732	235	166	226
1733	238	180	228
1734	241	197	231
1735	248	219	240
1736	238	216	233
1737	236	220	234
1738	232	216	230
1739	225	208	219
1740	0	0	0
1741	0	0	0
1742	0	0	0
1743	0	0	0
1744	0	0	0
1745	0	0	0
1746	0	0	0
1747	0	0	0
1748	0	0	0
1749	0	0	0
1750	0	0	0
1751	0	0	0
1752	0	0	0
1753	0	0	0
1754	0	0	0
1755	0	0	0
1756	0	0	0
1757	246	222	233
1758	238	216	227
1759	246	230	237
1760	240	223	233
1761	238	222	233
1762	236	221	233
1763	233	219	231
1764	219	198	221
1765	215	191	226
1766	217	191	230
1767	224	195	232
1768	235	199	237
1769	224	180	227
1770	226	187	231
1771	230	192	232
1772	228	180	225
1773	233	179	230
1774	236	174	230
1775	241	173	230
1776	251	178	233
1777	247	168	225
1778	235	151	212
1779	239	154	217
1780	237	145	216
1781	230	134	213
1782	237	144	222
1783	238	147	219
1784	240	150	220
1785	239	151	222
1786	233	148	219
1787	236	151	222
1788	249	161	230
1789	239	149	219
1790	231	148	217
1791	229	152	221
1792	242	175	234
1793	237	177	226
1794	243	195	231
1795	246	208	234
1796	242	208	229
1797	240	213	229
1798	225	204	219
1799	224	209	219
1800	0	0	0
1801	0	0	0
1802	0	0	0
1803	0	0	0
1804	0	0	0
1805	0	0	0
1806	0	0	0
1807	0	0	0
1808	0	0	0
1809	0	0	0
1810	0	0	0
1811	0	0	0
1812	0	0	0
1813	0	0	0
1814	0	0	0
1815	0	0	0
1816	0	0	0
1817	239	211	225
1818	246	224	234
1819	254	238	243
1820	250	233	239
1821	247	231	238
1822	240	224	233
1823	237	221	232
1824	227	210	227
1825	223	202	228
1826	228	207	236
1827	236	212	241
1828	235	200	235
1829	225	182	225
1830	225	186	228
1831	228	191	231
1832	226	184	227
1833	230	181	228
1834	238	180	230
1835	244	179	231
1836	243	171	226
1837	240	162	221
1838	241	162	221
1839	244	164	224
1840	239	154	219
1841	231	142	216
1842	236	149	221
1843	239	153	220
1844	245	158	223
1845	246	161	227
1846	244	162	229
1847	244	164	231
1848	239	155	226
1849	228	142	216
1850	228	150	220
1851	227	153	222
1852	233	166	227
1853	230	169	220
1854	235	183	224
1855	242	197	231
1856	244	204	232
1857	241	208	230
1858	227	206	222
1859	0	0	0
1860	0	0	0
1861	0	0	0
1862	0	0	0
1863	0	0	0
1864	0	0	0
1865	0	0	0
1866	0	0	0
1867	0	0	0
1868	0	0	0
1869	0	0	0
1870	0	0	0
1871	0	0	0
1872	0	0	0
1873	0	0	0
1874	0	0	0
1875	0	0	0
1876	246	223	231
1877	243	217	229
1878	255	234	242
1879	253	230	239
1880	247	223	234
1881	243	222	232
1882	234	214	226
1883	243	228	237
1884	238	219	234
1885	230	205	229
1886	235	210	236
1887	232	202	233
1888	224	186	224
1889	229	191	228
1890	234	197	235
1891	225	187	230
1892	216	176	222
1893	226	184	227
1894	237	186	231
1895	241	181	230
1896	239	172	225
1897	245	174	228
1898	251	176	231
1899	245	165	223
1900	235	152	216
1901	235	152	219
1902	240	160	224
1903	246	165	225
1904	255	173	231
1905	252	162	226
1906	252	165	231
1907	242	157	226
1908	223	141	214
1909	225	152	221
1910	230	162	227
1911	227	161	225
1912	234	175	231
1913	223	165	218
1914	230	180	223
1915	237	194	230
1916	240	200	231
1917	231	196	224
1918	0	0	0
1919	0	0	0
1920	0	0	0
1921	0	0	0
1922	0	0	0
1923	0	0	0
1924	0	0	0
1925	0	0	0
1926	0	0	0
1927	0	0	0
1928	0	0	0
1929	0	0	0
1930	0	0	0
1931	0	0	0
1932	0	0	0
1933	0	0	0
1934	0	0	0
1935	250	233	235
1936	246	227	232
1937	245	222	231
1938	251	224	236
1939	249	220	234
1940	245	219	233
1941	241	217	231
1942	243	224	235
1943	252	238	246
1944	240	220	235
1945	231	206	229
1946	227	199	228
1947	222	189	225
1948	227	194	229
1949	231	199	232
1950	229	192	230
1951	221	182	228
1952	221	185	231
1953	229	193	234
1954	236	189	233
1955	240	185	233
1956	242	184	232
1957	247	184	233
1958	246	175	227
1959	241	165	221
1960	243	166	224
1961	243	166	225
1962	246	171	228
1963	252	177	230
1964	251	167	224
1965	243	154	217
1966	240	151	218
1967	230	144	215
1968	229	154	221
1969	232	166	229
1970	233	169	230
1971	231	169	227
1972	228	168	225
1973	220	160	217
1974	228	176	224
1975	233	188	227
1976	230	188	223
1977	224	187	221
1978	238	216	236
1979	255	247	249
1980	0	0	0
1981	0	0	0
1982	0	0	0
1983	0	0	0
1984	0	0	0
1985	0	0	0
1986	0	0	0
1987	0	0	0
1988	0	0	0
1989	0	0	0
1990	0	0	0
1991	0	0	0
1992	0	0	0
1993	0	0	0
1994	0	0	0
1995	0	0	0
1996	240	219	225
1997	248	228	234
1998	255	230	239
1999	248	219	233
2000	242	217	232
2001	240	217	231
2002	245	225	237
2003	245	228	239
2004	230	208	226
2005	235	216	234
2006	228	207	232
2007	218	192	225
2008	224	198	230
2009	229	202	232
2010	230	197	231
2011	226	189	232
2012	228	195	237
2013	231	195	235
2014	233	189	232
2015	236	186	232
2016	236	184	231
2017	237	180	228
2018	234	169	221
2019	241	173	224
2020	250	178	230
2021	247	171	227
2022	250	175	229
2023	252	178	229
2024	242	164	219
2025	236	157	216
2026	233	154	216
2027	236	162	224
2028	246	178	236
2029	244	178	235
2030	244	180	235
2031	238	172	229
2032	236	172	229
2033	232	171	227
2034	239	186	234
2035	236	189	229
2036	228	187	222
2037	233	197	229
2038	255	233	251
2039	255	231	240
2040	245	224	229
2041	0	0	0
2042	0	0	0
2043	0	0	0
2044	0	0	0
2045	0	0	0
2046	0	0	0
2047	0	0	0
2048	0	0	0
2049	0	0	0
2050	0	0	0
2051	0	0	0
2052	0	0	0
2053	0	0	0
2054	0	0	0
2055	0	0	0
2056	246	228	231
2057	255	236	239
2058	254	228	237
2059	246	217	230
2060	241	216	230
2061	239	217	230
2062	239	218	231
2063	240	221	234
2064	239	222	235
2065	243	229	241
2066	230	212	232
2067	220	197	226
2068	226	204	233
2069	231	208	235
2070	228	200	230
2071	224	191	227
2072	224	192	229
2073	226	193	231
2074	226	188	229
2075	227	184	228
2076	228	180	228
2077	228	177	225
2078	233	179	226
2079	240	182	227
2080	247	180	228
2081	246	173	227
2082	251	179	231
2083	252	181	230
2084	243	172	223
2085	236	164	221
2086	240	173	228
2087	245	180	234
2088	246	182	235
2089	245	182	232
2090	241	177	229
2091	236	170	226
2092	235	173	228
2093	232	172	226
2094	235	181	229
2095	234	185	227
2096	236	194	229
2097	240	203	232
2098	246	210	233
2099	241	208	224
2100	239	214	223
2101	0	0	0
2102	0	0	0
2103	0	0	0
2104	0	0	0
2105	0	0	0
2106	0	0	0
2107	0	0	0
2108	0	0	0
2109	0	0	0
2110	0	0	0
2111	0	0	0
2112	0	0	0
2113	0	0	0
2114	0	0	0
2115	0	0	0
2116	253	233	236
2117	254	230	236
2118	249	220	230
2119	246	218	230
2120	242	218	230
2121	242	222	233
2122	242	223	233
2123	244	226	237
2124	244	228	238
2125	241	224	236
2126	228	207	226
2127	227	206	230
2128	234	212	237
2129	232	210	234
2130	224	199	226
2131	225	200	228
2132	227	202	231
2133	222	195	229
2134	216	187	225
2135	224	194	231
2136	229	193	233
2137	225	182	227
2138	229	184	228
2139	234	184	227
2140	239	181	227
2141	241	176	228
2142	250	183	234
2143	244	174	226
2144	235	164	218
2145	236	169	223
2146	241	178	230
2147	239	178	231
2148	237	178	229
2149	235	177	227
2150	232	173	225
2151	228	169	224
2152	227	171	225
2153	235	184	231
2154	243	195	236
2155	248	202	238
2156	255	215	244
2157	244	202	232
2158	240	204	229
2159	232	202	221
2160	0	0	0
2161	0	0	0
2162	0	0	0
2163	0	0	0
2164	0	0	0
2165	0	0	0
2166	0	0	0
2167	0	0	0
2168	0	0	0
2169	0	0	0
2170	0	0	0
2171	0	0	0
2172	0	0	0
2173	0	0	0
2174	0	0	0
2175	0	0	0
2176	249	226	233
2177	248	222	231
2178	249	222	231
2179	0	0	0
2180	246	223	234
2181	247	228	237
2182	244	227	236
2183	245	229	237
2184	241	224	233
2185	238	220	232
2186	234	215	231
2187	233	213	232
2188	234	213	234
2189	231	211	233
2190	229	209	231
2191	229	209	231
2192	225	204	229
2193	219	196	227
2194	220	200	230
2195	228	207	235
2196	230	199	232
2197	227	188	228
2198	229	189	230
2199	232	189	232
2200	233	182	229
2201	233	176	227
2202	234	171	225
2203	230	163	219
2204	232	168	222
2205	234	172	224
2206	233	173	224
2207	231	174	226
2208	228	173	226
2209	226	172	226
2210	226	172	227
2211	223	168	226
2212	230	182	232
2213	237	194	234
2214	245	203	237
2215	0	0	0
2216	0	0	0
2217	0	0	0
2218	232	195	224
2219	0	0	0
2220	0	0	0
2221	0	0	0
2222	0	0	0
2223	0	0	0
2224	0	0	0
2225	0	0	0
2226	0	0	0
2227	0	0	0
2228	0	0	0
2229	0	0	0
2230	0	0	0
2231	0	0	0
2232	0	0	0
2233	0	0	0
2234	0	0	0
2235	0	0	0
2236	0	0	0
2237	244	219	230
2238	0	0	0
2239	0	0	0
2240	0	0	0
2241	0	0	0
2242	238	222	231
2243	243	230	236
2244	240	225	233
2245	238	221	232
2246	233	216	229
2247	233	216	231
2248	232	215	231
2249	231	214	231
2250	229	213	231
2251	228	212	230
2252	223	205	227
2253	222	204	229
2254	224	209	232
2255	228	209	232
2256	233	203	232
2257	233	195	230
2258	232	193	232
2259	230	191	232
2260	226	182	227
2261	231	186	231
2262	230	180	229
2263	230	178	227
2264	237	185	232
2265	237	185	230
2266	235	185	230
2267	235	187	233
2268	230	185	233
2269	225	180	230
2270	225	179	231
2271	230	187	236
2272	241	202	242
2273	0	0	0
2274	0	0	0
2275	0	0	0
2276	0	0	0
2277	0	0	0
2278	0	0	0
2279	0	0	0
2280	0	0	0
2281	0	0	0
2282	0	0	0
2283	0	0	0
2284	0	0	0
2285	0	0	0
2286	0	0	0
2287	0	0	0
2288	0	0	0
2289	0	0	0
2290	0	0	0
2291	0	0	0
2292	0	0	0
2293	0	0	0
2294	0	0	0
2295	0	0	0
2296	0	0	0
2297	0	0	0
2298	0	0	0
2299	0	0	0
2300	0	0	0
2301	0	0	0
2302	0	0	0
2303	248	235	240
2304	244	228	235
2305	240	224	233
2306	238	223	232
2307	237	223	233
2308	236	222	233
2309	235	220	233
2310	233	219	233
2311	232	218	233
2312	229	215	231
2313	228	214	232
2314	227	211	231
2315	231	211	231
2316	235	206	231
2317	233	197	229
2318	229	193	228
2319	227	191	228
2320	231	194	232
2321	235	198	237
2322	234	195	235
2323	233	192	232
2324	236	193	232
2325	236	193	231
2326	237	195	232
2327	236	197	235
2328	228	190	232
2329	224	186	230
2330	0	0	0
2331	239	206	241
2332	0	0	0
2333	0	0	0
2334	0	0	0
2335	0	0	0
2336	0	0	0
2337	0	0	0
2338	0	0	0
2339	0	0	0
2340	0	0	0
2341	0	0	0
2342	0	0	0
2343	0	0	0
2344	0	0	0
2345	0	0	0
2346	0	0	0
2347	0	0	0
2348	0	0	0
2349	0	0	0
2350	0	0	0
2351	0	0	0
2352	0	0	0
2353	0	0	0
2354	0	0	0
2355	0	0	0
2356	0	0	0
2357	0	0	0
2358	0	0	0
2359	0	0	0
2360	0	0	0
2361	0	0	0
2362	0	0	0
2363	0	0	0
2364	242	223	232
2365	245	228	235
2366	243	227	234
2367	240	223	233
2368	238	222	233
2369	238	222	233
2370	236	220	232
2371	233	218	231
2372	229	215	229
2373	237	224	236
2374	241	224	238
2375	236	212	231
2376	230	201	226
2377	229	200	226
2378	226	197	226
2379	231	201	231
2380	239	207	238
2381	237	201	236
2382	232	195	232
2383	232	196	231
2384	232	196	229
2385	241	208	235
2386	244	211	238
2387	0	0	0
2388	0	0	0
2389	0	0	0
2390	0	0	0
2391	0	0	0
2392	0	0	0
2393	0	0	0
2394	0	0	0
2395	0	0	0
2396	0	0	0
2397	0	0	0
2398	0	0	0
2399	0	0	0
2400	0	0	0
2401	0	0	0
2402	0	0	0
2403	0	0	0
2404	0	0	0
2405	0	0	0
2406	0	0	0
2407	0	0	0
2408	0	0	0
2409	0	0	0
2410	0	0	0
2411	0	0	0
2412	0	0	0
2413	0	0	0
2414	0	0	0
2415	0	0	0
2416	0	0	0
2417	0	0	0
2418	0	0	0
2419	0	0	0
2420	0	0	0
2421	0	0	0
2422	0	0	0
2423	0	0	0
2424	247	228	236
2425	249	233	238
2426	244	227	234
2427	241	224	235
2428	241	225	236
2429	240	225	235
2430	236	222	232
2431	234	220	230
2432	240	227	235
2433	249	236	242
2434	244	224	236
2435	238	212	232
2436	235	210	232
2437	232	207	230
2438	233	209	231
2439	238	213	235
2440	238	208	233
2441	235	201	231
2442	234	203	233
2443	0	0	0
2444	0	0	0
2445	0	0	0
2446	0	0	0
2447	0	0	0
2448	0	0	0
2449	0	0	0
2450	0	0	0
2451	0	0	0
2452	0	0	0
2453	0	0	0
2454	0	0	0
2455	0	0	0
2456	0	0	0
2457	0	0	0
2458	0	0	0
2459	0	0	0
2460	0	0	0
2461	0	0	0
2462	0	0	0
2463	0	0	0
2464	0	0	0
2465	0	0	0
2466	0	0	0
2467	0	0	0
2468	0	0	0
2469	0	0	0
2470	0	0	0
2471	0	0	0
2472	0	0	0
2473	0	0	0
2474	0	0	0
2475	0	0	0
2476	0	0	0
2477	0	0	0
2478	0	0	0
2479	0	0	0
2480	0	0	0
2481	0	0	0
2482	0	0	0
2483	0	0	0
2484	0	0	0
2485	250	234	238
2486	245	229	235
2487	242	225	235
2488	240	225	235
2489	238	226	234
2490	234	223	230
2491	235	222	230
2492	249	234	239
2493	249	230	238
2494	236	213	227
2495	236	212	231
2496	237	213	233
2497	235	209	231
2498	0	0	0
2499	241	218	236
2500	0	0	0
2501	0	0	0
2502	0	0	0
2503	0	0	0
2504	0	0	0
2505	0	0	0
2506	0	0	0
2507	0	0	0
2508	0	0	0
2509	0	0	0
2510	0	0	0
2511	0	0	0
2512	0	0	0
2513	0	0	0
2514	0	0	0
2515	0	0	0
2516	0	0	0
2517	0	0	0
2518	0	0	0
2519	0	0	0
2520	0	0	0
2521	0	0	0
2522	0	0	0
2523	0	0	0
2524	0	0	0
2525	0	0	0
2526	0	0	0
2527	0	0	0
2528	0	0	0
2529	0	0	0
2530	0	0	0
2531	0	0	0
2532	0	0	0
2533	0	0	0
2534	0	0	0
2535	0	0	0
2536	0	0	0
2537	0	0	0
2538	0	0	0
2539	0	0	0
2540	0	0	0
2541	0	0	0
2542	0	0	0
2543	253	235	241
2544	251	235	239
2545	252	238	240
2546	248	232	237
2547	243	228	236
2548	241	228	236
2549	239	228	233
2550	235	225	229
2551	237	225	230
2552	241	224	232
2553	241	220	232
2554	237	216	230
2555	236	214	230
2556	237	214	232
2557	0	0	0
2558	0	0	0
2559	0	0	0
2560	0	0	0
2561	0	0	0
2562	0	0	0
2563	0	0	0
2564	0	0	0
2565	0	0	0
2566	0	0	0
2567	0	0	0
2568	0	0	0
2569	0	0	0
2570	0	0	0
2571	0	0	0
2572	0	0	0
2573	0	0	0
2574	0	0	0
2575	0	0	0
2576	0	0	0
2577	0	0	0
2578	0	0	0
2579	0	0	0
2580	0	0	0
2581	0	0	0
2582	0	0	0
2583	0	0	0
2584	0	0	0
2585	0	0	0
2586	0	0	0
2587	0	0	0
2588	0	0	0
2589	0	0	0
2590	0	0	0
2591	0	0	0
2592	0	0	0
2593	0	0	0
2594	0	0	0
2595	0	0	0
2596	0	0	0
2597	0	0	0
2598	0	0	0
2599	0	0	0
2600	0	0	0
2601	0	0	0
2602	254	235	242
2603	250	229	236
2604	247	228	234
2605	248	231	236
2606	244	226	233
2607	244	228	236
2608	0	0	0
2609	240	231	233
2610	238	229	231
2611	0	0	0
2612	0	0	0
2613	0	0	0
2614	0	0	0
2615	0	0	0
2616	0	0	0
2617	0	0	0
2618	0	0	0
2619	0	0	0
2620	0	0	0
2621	0	0	0
2622	0	0	0
2623	0	0	0
2624	0	0	0
2625	0	0	0
2626	0	0	0
2627	0	0	0
2628	0	0	0
2629	0	0	0
2630	0	0	0
2631	0	0	0
2632	0	0	0
2633	0	0	0
2634	0	0	0
2635	0	0	0
2636	0	0	0
2637	0	0	0
2638	0	0	0
2639	0	0	0
2640	0	0	0
2641	0	0	0
2642	0	0	0
2643	0	0	0
2644	0	0	0
2645	0	0	0
2646	0	0	0
2647	0	0	0
2648	0	0	0
2649	0	0	0
2650	0	0	0
2651	0	0	0
2652	0	0	0
2653	0	0	0
2654	0	0	0
2655	0	0	0
2656	0	0	0
2657	0	0	0
2658	0	0	0
2659	0	0	0
2660	0	0	0
2661	0	0	0
2662	0	0	0
2663	241	219	227
2664	240	221	228
2665	243	225	233
2666	244	227	236
2667	0	0	0
2668	0	0	0
2669	0	0	0
2670	0	0	0
2671	0	0	0
2672	0	0	0
2673	0	0	0
2674	0	0	0
2675	0	0	0
2676	0	0	0
2677	0	0	0
2678	0	0	0
2679	0	0	0
2680	0	0	0
2681	0	0	0
2682	0	0	0
2683	0	0	0
2684	0	0	0
2685	0	0	0
2686	0	0	0
2687	0	0	0
2688	0	0	0
2689	0	0	0
2690	0	0	0
2691	0	0	0
2692	0	0	0
2693	0	0	0
2694	0	0	0
2695	0	0	0
2696	0	0	0
2697	0	0	0
2698	0	0	0
2699	0	0	0
2700	0	0	0
