 	R	G	B
1	0	0	0
2	0	0	0
3	0	0	0
4	0	0	0
5	0	0	0
6	0	0	0
7	0	0	0
8	0	0	0
9	0	0	0
10	255	218	233
11	0	0	0
12	0	0	0
13	0	0	0
14	0	0	0
15	0	0	0
16	0	0	0
17	0	0	0
18	0	0	0
19	0	0	0
20	0	0	0
21	0	0	0
22	0	0	0
23	0	0	0
24	0	0	0
25	0	0	0
26	0	0	0
27	0	0	0
28	0	0	0
29	0	0	0
30	0	0	0
31	0	0	0
32	0	0	0
33	0	0	0
34	0	0	0
35	0	0	0
36	0	0	0
37	0	0	0
38	0	0	0
39	0	0	0
40	0	0	0
41	0	0	0
42	0	0	0
43	0	0	0
44	0	0	0
45	0	0	0
46	0	0	0
47	0	0	0
48	0	0	0
49	0	0	0
50	0	0	0
51	0	0	0
52	0	0	0
53	0	0	0
54	0	0	0
55	0	0	0
56	0	0	0
57	0	0	0
58	0	0	0
59	0	0	0
60	0	0	0
61	0	0	0
62	0	0	0
63	0	0	0
64	0	0	0
65	0	0	0
66	0	0	0
67	0	0	0
68	0	0	0
69	0	0	0
70	0	0	0
71	0	0	0
72	0	0	0
73	0	0	0
74	0	0	0
75	0	0	0
76	0	0	0
77	0	0	0
78	0	0	0
79	0	0	0
80	0	0	0
81	0	0	0
82	0	0	0
83	0	0	0
84	0	0	0
85	0	0	0
86	0	0	0
87	0	0	0
88	0	0	0
89	0	0	0
90	0	0	0
91	0	0	0
92	0	0	0
93	0	0	0
94	0	0	0
95	0	0	0
96	0	0	0
97	0	0	0
98	0	0	0
99	0	0	0
100	251	209	229
101	255	215	233
102	252	208	226
103	0	0	0
104	0	0	0
105	0	0	0
106	0	0	0
107	0	0	0
108	0	0	0
109	0	0	0
110	0	0	0
111	0	0	0
112	0	0	0
113	0	0	0
114	0	0	0
115	0	0	0
116	0	0	0
117	0	0	0
118	0	0	0
119	0	0	0
120	0	0	0
121	0	0	0
122	0	0	0
123	0	0	0
124	0	0	0
125	0	0	0
126	0	0	0
127	0	0	0
128	0	0	0
129	0	0	0
130	0	0	0
131	0	0	0
132	0	0	0
133	0	0	0
134	0	0	0
135	0	0	0
136	0	0	0
137	0	0	0
138	0	0	0
139	0	0	0
140	0	0	0
141	0	0	0
142	0	0	0
143	0	0	0
144	0	0	0
145	0	0	0
146	0	0	0
147	0	0	0
148	0	0	0
149	0	0	0
150	0	0	0
151	0	0	0
152	0	0	0
153	0	0	0
154	0	0	0
155	0	0	0
156	0	0	0
157	0	0	0
158	0	0	0
159	0	0	0
160	0	0	0
161	0	0	0
162	0	0	0
163	0	0	0
164	0	0	0
165	0	0	0
166	0	0	0
167	0	0	0
168	0	0	0
169	0	0	0
170	0	0	0
171	0	0	0
172	0	0	0
173	0	0	0
174	0	0	0
175	0	0	0
176	0	0	0
177	0	0	0
178	0	0	0
179	0	0	0
180	0	0	0
181	0	0	0
182	0	0	0
183	0	0	0
184	0	0	0
185	0	0	0
186	0	0	0
187	0	0	0
188	0	0	0
189	0	0	0
190	0	0	0
191	245	199	222
192	247	199	223
193	243	194	217
194	252	206	223
195	255	213	224
196	255	219	225
197	255	224	225
198	255	221	224
199	254	220	225
200	255	226	230
201	255	227	229
202	255	239	234
203	255	252	240
204	255	245	234
205	255	237	230
206	255	241	234
207	0	0	0
208	0	0	0
209	0	0	0
210	0	0	0
211	0	0	0
212	0	0	0
213	0	0	0
214	0	0	0
215	0	0	0
216	0	0	0
217	0	0	0
218	0	0	0
219	0	0	0
220	0	0	0
221	0	0	0
222	0	0	0
223	0	0	0
224	0	0	0
225	0	0	0
226	0	0	0
227	0	0	0
228	0	0	0
229	0	0	0
230	0	0	0
231	0	0	0
232	0	0	0
233	0	0	0
234	254	239	234
235	249	230	229
236	255	236	236
237	0	0	0
238	0	0	0
239	0	0	0
240	0	0	0
241	0	0	0
242	0	0	0
243	0	0	0
244	0	0	0
245	0	0	0
246	0	0	0
247	0	0	0
248	0	0	0
249	0	0	0
250	0	0	0
251	0	0	0
252	0	0	0
253	0	0	0
254	0	0	0
255	0	0	0
256	0	0	0
257	0	0	0
258	0	0	0
259	0	0	0
260	0	0	0
261	0	0	0
262	0	0	0
263	0	0	0
264	0	0	0
265	0	0	0
266	0	0	0
267	0	0	0
268	0	0	0
269	0	0	0
270	0	0	0
271	0	0	0
272	0	0	0
273	0	0	0
274	0	0	0
275	0	0	0
276	0	0	0
277	0	0	0
278	0	0	0
279	0	0	0
280	0	0	0
281	0	0	0
282	249	208	228
283	255	210	231
284	250	199	223
285	255	212	230
286	254	204	220
287	255	210	222
288	253	206	216
289	250	205	217
290	254	211	225
291	255	216	229
292	252	211	222
293	255	224	229
294	255	226	226
295	248	215	217
296	251	221	224
297	252	225	228
298	254	231	233
299	0	0	0
300	0	0	0
301	0	0	0
302	252	237	232
303	0	0	0
304	0	0	0
305	0	0	0
306	0	0	0
307	0	0	0
308	0	0	0
309	0	0	0
310	0	0	0
311	0	0	0
312	0	0	0
313	0	0	0
314	0	0	0
315	0	0	0
316	0	0	0
317	0	0	0
318	0	0	0
319	0	0	0
320	0	0	0
321	0	0	0
322	0	0	0
323	0	0	0
324	255	238	234
325	254	230	230
326	252	223	229
327	255	228	234
328	247	217	226
329	0	0	0
330	0	0	0
331	0	0	0
332	0	0	0
333	0	0	0
334	0	0	0
335	0	0	0
336	0	0	0
337	0	0	0
338	0	0	0
339	0	0	0
340	0	0	0
341	0	0	0
342	0	0	0
343	0	0	0
344	0	0	0
345	0	0	0
346	0	0	0
347	0	0	0
348	0	0	0
349	0	0	0
350	0	0	0
351	0	0	0
352	0	0	0
353	0	0	0
354	0	0	0
355	0	0	0
356	0	0	0
357	0	0	0
358	0	0	0
359	0	0	0
360	0	0	0
361	0	0	0
362	0	0	0
363	0	0	0
364	0	0	0
365	0	0	0
366	0	0	0
367	0	0	0
368	0	0	0
369	0	0	0
370	0	0	0
371	247	206	223
372	253	213	230
373	255	218	236
374	255	212	233
375	253	201	225
376	253	198	223
377	249	192	217
378	249	192	217
379	247	190	214
380	250	196	218
381	254	201	224
382	251	199	222
383	246	194	218
384	248	199	219
385	247	201	217
386	248	205	219
387	251	212	224
388	252	216	227
389	253	220	229
390	254	225	230
391	255	230	232
392	254	230	231
393	253	232	234
394	248	229	232
395	0	0	0
396	0	0	0
397	0	0	0
398	0	0	0
399	0	0	0
400	0	0	0
401	0	0	0
402	0	0	0
403	0	0	0
404	0	0	0
405	0	0	0
406	0	0	0
407	0	0	0
408	0	0	0
409	0	0	0
410	0	0	0
411	0	0	0
412	0	0	0
413	0	0	0
414	252	224	228
415	255	229	232
416	255	222	229
417	253	217	229
418	253	214	230
419	243	204	222
420	0	0	0
421	0	0	0
422	0	0	0
423	0	0	0
424	0	0	0
425	0	0	0
426	0	0	0
427	0	0	0
428	0	0	0
429	0	0	0
430	0	0	0
431	0	0	0
432	0	0	0
433	0	0	0
434	0	0	0
435	0	0	0
436	0	0	0
437	0	0	0
438	0	0	0
439	0	0	0
440	0	0	0
441	0	0	0
442	0	0	0
443	0	0	0
444	0	0	0
445	0	0	0
446	0	0	0
447	0	0	0
448	0	0	0
449	0	0	0
450	0	0	0
451	0	0	0
452	0	0	0
453	0	0	0
454	0	0	0
455	0	0	0
456	0	0	0
457	0	0	0
458	0	0	0
459	0	0	0
460	0	0	0
461	246	208	222
462	250	207	224
463	255	217	235
464	252	201	227
465	245	191	221
466	251	197	224
467	254	197	224
468	255	195	224
469	255	197	225
470	252	190	219
471	255	197	224
472	255	194	223
473	252	192	222
474	255	197	225
475	255	202	227
476	250	194	220
477	252	199	223
478	255	210	228
479	255	213	228
480	252	211	225
481	252	214	225
482	255	224	230
483	255	224	230
484	254	225	232
485	246	220	228
486	253	231	235
487	0	0	0
488	0	0	0
489	0	0	0
490	0	0	0
491	0	0	0
492	0	0	0
493	0	0	0
494	0	0	0
495	0	0	0
496	0	0	0
497	0	0	0
498	0	0	0
499	0	0	0
500	0	0	0
501	0	0	0
502	0	0	0
503	0	0	0
504	255	224	231
505	255	230	236
506	253	215	226
507	248	206	222
508	252	211	228
509	253	208	228
510	244	199	221
511	0	0	0
512	0	0	0
513	0	0	0
514	0	0	0
515	0	0	0
516	0	0	0
517	0	0	0
518	0	0	0
519	255	232	233
520	0	0	0
521	0	0	0
522	0	0	0
523	0	0	0
524	0	0	0
525	0	0	0
526	0	0	0
527	0	0	0
528	0	0	0
529	0	0	0
530	0	0	0
531	0	0	0
532	0	0	0
533	0	0	0
534	0	0	0
535	0	0	0
536	0	0	0
537	0	0	0
538	0	0	0
539	0	0	0
540	0	0	0
541	0	0	0
542	0	0	0
543	0	0	0
544	0	0	0
545	0	0	0
546	0	0	0
547	0	0	0
548	0	0	0
549	0	0	0
550	0	0	0
551	0	0	0
552	248	209	227
553	252	207	226
554	250	197	222
555	242	182	217
556	247	190	224
557	253	196	226
558	255	198	227
559	255	196	226
560	255	192	222
561	253	185	216
562	254	186	218
563	252	184	219
564	255	191	224
565	255	196	224
566	253	190	219
567	248	183	218
568	255	195	226
569	255	204	226
570	253	200	219
571	249	198	217
572	251	206	221
573	255	215	225
574	252	214	223
575	249	215	224
576	249	220	227
577	255	231	234
578	254	225	229
579	248	217	223
580	250	220	225
581	251	223	226
582	253	228	230
583	0	0	0
584	0	0	0
585	0	0	0
586	0	0	0
587	0	0	0
588	0	0	0
589	0	0	0
590	255	219	226
591	252	217	224
592	254	221	227
593	255	227	234
594	255	229	236
595	255	228	235
596	255	213	225
597	246	199	218
598	248	201	222
599	250	204	226
600	247	199	222
601	241	191	215
602	249	203	223
603	255	212	228
604	255	212	228
605	253	213	229
606	249	213	228
607	247	214	228
608	255	225	234
609	255	236	239
610	255	228	232
611	252	220	228
612	255	228	233
613	0	0	0
614	0	0	0
615	0	0	0
616	0	0	0
617	0	0	0
618	0	0	0
619	0	0	0
620	0	0	0
621	0	0	0
622	0	0	0
623	0	0	0
624	0	0	0
625	0	0	0
626	0	0	0
627	0	0	0
628	0	0	0
629	0	0	0
630	0	0	0
631	0	0	0
632	0	0	0
633	0	0	0
634	0	0	0
635	0	0	0
636	0	0	0
637	0	0	0
638	0	0	0
639	0	0	0
640	0	0	0
641	0	0	0
642	245	215	231
643	255	218	236
644	250	203	226
645	246	192	221
646	248	189	225
647	255	199	234
648	253	190	226
649	255	190	226
650	251	181	219
651	250	177	216
652	253	180	218
653	255	181	220
654	251	175	218
655	255	182	222
656	255	183	219
657	248	177	214
658	251	182	222
659	255	194	230
660	252	188	218
661	246	184	211
662	255	204	222
663	255	211	225
664	253	209	222
665	248	207	220
666	254	219	228
667	255	225	232
668	255	227	232
669	254	221	228
670	250	214	224
671	254	219	229
672	255	222	231
673	255	227	235
674	254	219	229
675	0	0	0
676	0	0	0
677	0	0	0
678	0	0	0
679	0	0	0
680	255	218	227
681	255	220	228
682	251	209	221
683	255	214	225
684	255	216	229
685	255	216	231
686	251	201	220
687	239	185	209
688	248	198	222
689	251	202	227
690	245	194	222
691	238	187	216
692	244	193	219
693	255	208	230
694	252	198	222
695	251	197	221
696	252	202	225
697	249	203	225
698	249	205	227
699	255	216	232
700	255	219	230
701	249	208	220
702	248	210	222
703	253	219	228
704	255	226	230
705	0	0	0
706	0	0	0
707	0	0	0
708	0	0	0
709	0	0	0
710	0	0	0
711	255	233	234
712	255	236	235
713	0	0	0
714	0	0	0
715	0	0	0
716	0	0	0
717	0	0	0
718	0	0	0
719	0	0	0
720	0	0	0
721	0	0	0
722	0	0	0
723	0	0	0
724	0	0	0
725	0	0	0
726	0	0	0
727	0	0	0
728	0	0	0
729	0	0	0
730	241	230	230
731	0	0	0
732	247	227	236
733	251	223	237
734	250	211	233
735	246	196	226
736	249	196	229
737	250	192	228
738	252	189	228
739	250	181	224
740	250	176	222
741	246	167	218
742	251	173	222
743	255	176	224
744	250	170	219
745	246	163	215
746	251	169	219
747	251	171	217
748	252	174	218
749	254	179	223
750	251	178	221
751	245	172	213
752	253	191	220
753	255	208	225
754	255	205	219
755	251	203	219
756	250	210	223
757	255	222	232
758	251	218	228
759	253	220	230
760	250	213	226
761	247	206	222
762	251	211	226
763	253	213	226
764	250	207	222
765	245	201	219
766	251	208	225
767	254	213	227
768	255	214	227
769	255	216	227
770	255	217	228
771	255	220	232
772	255	210	226
773	250	200	220
774	252	200	221
775	254	201	223
776	247	189	216
777	236	174	208
778	241	186	216
779	249	198	225
780	245	191	222
781	239	184	218
782	242	189	222
783	249	196	226
784	249	190	222
785	243	179	213
786	248	186	218
787	250	191	221
788	247	192	221
789	248	195	223
790	252	200	224
791	252	202	221
792	249	201	218
793	248	203	221
794	250	208	224
795	254	215	227
796	253	213	225
797	0	0	0
798	0	0	0
799	0	0	0
800	0	0	0
801	255	227	227
802	255	229	228
803	255	232	231
804	255	233	232
805	0	0	0
806	0	0	0
807	0	0	0
808	0	0	0
809	0	0	0
810	0	0	0
811	0	0	0
812	0	0	0
813	0	0	0
814	0	0	0
815	0	0	0
816	0	0	0
817	0	0	0
818	0	0	0
819	0	0	0
820	251	243	240
821	252	242	241
822	249	232	237
823	250	227	237
824	250	218	234
825	248	205	230
826	248	199	230
827	248	197	231
828	246	188	227
829	252	187	229
830	254	182	229
831	254	177	229
832	247	163	221
833	253	169	226
834	255	179	232
835	255	171	225
836	252	167	221
837	255	173	226
838	249	162	216
839	251	166	218
840	255	178	225
841	253	176	222
842	245	170	216
843	253	187	222
844	255	198	221
845	253	196	216
846	246	192	214
847	239	196	216
848	253	222	232
849	254	220	231
850	255	225	234
851	254	216	229
852	251	211	226
853	255	217	230
854	255	215	228
855	254	210	226
856	249	201	223
857	255	210	230
858	255	206	226
859	255	207	226
860	254	204	223
861	255	206	225
862	255	207	227
863	251	197	221
864	255	201	225
865	255	202	227
866	255	200	226
867	249	186	219
868	243	180	218
869	248	191	226
870	244	189	223
871	238	181	218
872	238	181	220
873	247	189	227
874	247	187	225
875	240	177	217
876	240	175	215
877	249	185	222
878	250	187	222
879	246	187	221
880	250	193	225
881	255	199	228
882	252	194	220
883	249	193	217
884	255	204	224
885	255	209	226
886	252	208	224
887	251	206	223
888	254	212	226
889	255	214	225
890	254	214	221
891	255	219	224
892	251	213	218
893	251	215	219
894	255	225	227
895	253	226	227
896	0	0	0
897	0	0	0
898	0	0	0
899	0	0	0
900	0	0	0
901	0	0	0
902	0	0	0
903	0	0	0
904	0	0	0
905	0	0	0
906	0	0	0
907	0	0	0
908	0	0	0
909	0	0	0
910	0	0	0
911	255	250	245
912	249	237	238
913	245	227	233
914	245	218	231
915	245	210	230
916	248	206	231
917	246	198	227
918	242	191	225
919	242	184	225
920	248	182	229
921	250	177	228
922	245	166	223
923	238	152	215
924	250	166	226
925	255	176	230
926	255	171	225
927	253	166	222
928	250	160	219
929	242	150	212
930	251	163	219
931	255	173	223
932	249	168	217
933	242	163	214
934	248	178	221
935	253	190	222
936	253	190	220
937	245	186	216
938	249	205	226
939	255	229	240
940	255	225	234
941	255	228	236
942	255	218	228
943	252	212	224
944	253	212	225
945	255	212	227
946	252	205	225
947	248	196	221
948	250	197	223
949	248	193	220
950	246	190	218
951	245	188	217
952	250	191	220
953	252	193	221
954	255	196	223
955	255	201	226
956	255	197	225
957	255	195	227
958	253	189	226
959	247	183	225
960	245	183	225
961	241	181	222
962	236	177	219
963	236	176	220
964	238	175	221
965	238	174	219
966	235	170	216
967	235	168	215
968	245	177	221
969	246	178	221
970	246	182	222
971	250	188	226
972	251	188	224
973	249	184	219
974	255	196	223
975	255	205	226
976	255	203	222
977	253	202	223
978	255	206	224
979	255	211	224
980	252	209	220
981	251	209	217
982	251	206	217
983	246	201	215
984	253	212	222
985	255	221	225
986	0	0	0
987	0	0	0
988	0	0	0
989	0	0	0
990	0	0	0
991	0	0	0
992	0	0	0
993	0	0	0
994	0	0	0
995	0	0	0
996	0	0	0
997	0	0	0
998	0	0	0
999	0	0	0
1000	0	0	0
1001	0	0	0
1002	0	0	0
1003	246	236	237
1004	243	226	233
1005	242	218	231
1006	244	213	232
1007	247	209	233
1008	241	194	225
1009	238	187	224
1010	238	181	226
1011	245	179	230
1012	246	174	229
1013	238	162	221
1014	239	160	222
1015	252	174	233
1016	247	165	224
1017	248	162	222
1018	251	162	223
1019	247	155	219
1020	246	153	217
1021	255	166	225
1022	254	170	223
1023	246	164	217
1024	246	169	221
1025	255	185	230
1026	255	186	225
1027	253	185	222
1028	249	184	219
1029	255	205	230
1030	255	213	231
1031	249	205	221
1032	255	228	235
1033	255	218	227
1034	253	212	223
1035	253	212	225
1036	255	213	230
1037	255	207	229
1038	250	197	223
1039	251	197	225
1040	251	197	225
1041	247	194	223
1042	252	197	227
1043	255	203	232
1044	251	188	222
1045	253	191	223
1046	255	191	223
1047	255	188	223
1048	251	182	222
1049	243	175	219
1050	246	180	226
1051	250	183	230
1052	243	176	224
1053	236	171	220
1054	236	174	223
1055	235	172	221
1056	242	181	226
1057	242	179	224
1058	243	177	224
1059	251	185	230
1060	244	173	221
1061	247	179	224
1062	250	183	226
1063	248	180	222
1064	248	181	221
1065	255	193	227
1066	253	190	220
1067	251	188	217
1068	254	195	223
1069	254	199	223
1070	251	201	219
1071	243	197	213
1072	244	199	214
1073	247	199	215
1074	245	196	216
1075	252	208	223
1076	255	217	224
1077	0	0	0
1078	0	0	0
1079	0	0	0
1080	0	0	0
1081	0	0	0
1082	0	0	0
1083	0	0	0
1084	0	0	0
1085	0	0	0
1086	0	0	0
1087	0	0	0
1088	0	0	0
1089	0	0	0
1090	0	0	0
1091	0	0	0
1092	0	0	0
1093	0	0	0
1094	0	0	0
1095	241	227	235
1096	243	221	235
1097	244	216	233
1098	242	204	229
1099	237	190	226
1100	236	184	228
1101	236	177	229
1102	240	176	231
1103	240	170	227
1104	240	169	227
1105	240	167	226
1106	236	159	221
1107	232	151	216
1108	238	152	219
1109	241	152	220
1110	245	154	221
1111	244	152	218
1112	251	161	223
1113	251	166	223
1114	248	168	223
1115	249	173	225
1116	251	176	226
1117	250	177	222
1118	248	177	217
1119	243	175	211
1120	248	186	216
1121	249	195	220
1122	253	208	225
1123	255	229	236
1124	255	216	225
1125	252	212	225
1126	252	211	227
1127	255	212	232
1128	251	202	228
1129	245	192	220
1130	250	196	224
1131	250	196	225
1132	252	198	227
1133	255	203	231
1134	253	192	225
1135	244	177	216
1136	244	177	217
1137	245	179	219
1138	245	175	219
1139	241	168	215
1140	241	172	220
1141	246	178	227
1142	248	175	229
1143	242	169	225
1144	238	171	225
1145	236	173	226
1146	240	180	228
1147	246	188	231
1148	246	184	227
1149	248	183	229
1150	245	174	224
1151	238	163	217
1152	244	170	222
1153	246	174	223
1154	246	175	222
1155	246	176	221
1156	247	176	219
1157	244	173	215
1158	249	181	219
1159	253	188	225
1160	253	191	225
1161	250	193	221
1162	243	190	216
1163	243	192	217
1164	244	192	217
1165	242	189	216
1166	251	203	224
1167	255	212	225
1168	0	0	0
1169	0	0	0
1170	0	0	0
1171	0	0	0
1172	0	0	0
1173	0	0	0
1174	0	0	0
1175	0	0	0
1176	0	0	0
1177	0	0	0
1178	0	0	0
1179	0	0	0
1180	0	0	0
1181	0	0	0
1182	0	0	0
1183	0	0	0
1184	0	0	0
1185	0	0	0
1186	238	225	233
1187	240	220	234
1188	240	212	231
1189	239	201	228
1190	237	191	229
1191	240	187	233
1192	237	179	232
1193	237	174	231
1194	239	173	230
1195	243	174	231
1196	235	163	224
1197	225	152	217
1198	230	158	223
1199	235	159	226
1200	234	152	221
1201	240	155	223
1202	242	154	221
1203	253	166	228
1204	245	158	220
1205	240	159	219
1206	242	165	222
1207	246	170	224
1208	249	176	223
1209	244	174	217
1210	245	180	216
1211	253	193	222
1212	251	196	222
1213	255	209	227
1214	255	224	233
1215	250	210	222
1216	255	219	230
1217	255	218	233
1218	253	211	232
1219	245	199	226
1220	247	199	226
1221	255	205	232
1222	249	193	226
1223	253	197	229
1224	255	196	230
1225	249	184	223
1226	248	181	222
1227	244	181	223
1228	242	178	223
1229	242	174	222
1230	240	170	220
1231	245	175	225
1232	246	174	228
1233	247	171	229
1234	242	167	227
1235	237	168	227
1236	233	167	225
1237	237	174	227
1238	238	175	224
1239	240	173	221
1240	245	177	225
1241	240	168	220
1242	243	169	223
1243	250	177	229
1244	246	172	223
1245	247	173	222
1246	247	174	222
1247	248	174	221
1248	248	175	221
1249	252	182	225
1250	253	186	227
1251	255	190	228
1252	255	192	226
1253	250	191	222
1254	248	192	222
1255	243	189	218
1256	246	194	221
1257	255	209	229
1258	255	210	225
1259	255	216	226
1260	0	0	0
1261	0	0	0
1262	0	0	0
1263	0	0	0
1264	0	0	0
1265	0	0	0
1266	0	0	0
1267	0	0	0
1268	0	0	0
1269	0	0	0
1270	0	0	0
1271	0	0	0
1272	0	0	0
1273	0	0	0
1274	0	0	0
1275	0	0	0
1276	0	0	0
1277	0	0	0
1278	239	217	231
1279	240	211	232
1280	238	200	230
1281	236	189	229
1282	236	184	231
1283	233	175	229
1284	236	176	232
1285	237	175	231
1286	237	169	229
1287	231	159	222
1288	233	163	226
1289	237	168	232
1290	233	161	227
1291	230	153	221
1292	237	156	223
1293	240	156	223
1294	243	155	223
1295	237	148	216
1296	237	154	219
1297	239	159	222
1298	243	167	224
1299	246	173	223
1300	244	177	220
1301	246	182	220
1302	251	190	223
1303	248	193	222
1304	247	201	223
1305	253	216	229
1306	250	215	226
1307	255	222	232
1308	246	210	225
1309	242	203	224
1310	243	202	226
1311	245	202	227
1312	243	192	224
1313	238	182	220
1314	243	184	225
1315	245	184	224
1316	247	183	225
1317	244	180	223
1318	237	174	220
1319	235	172	221
1320	238	172	223
1321	238	168	220
1322	239	167	221
1323	239	165	223
1324	242	166	227
1325	240	163	226
1326	237	164	226
1327	234	163	225
1328	232	164	224
1329	233	165	223
1330	238	168	222
1331	242	171	222
1332	244	172	223
1333	247	174	226
1334	247	171	224
1335	244	166	219
1336	246	169	219
1337	247	170	219
1338	248	173	220
1339	248	174	222
1340	250	178	224
1341	251	181	224
1342	254	185	226
1343	255	188	225
1344	254	189	223
1345	251	190	221
1346	249	193	221
1347	251	198	222
1348	255	204	224
1349	254	205	220
1350	255	210	221
1351	255	216	225
1352	255	220	228
1353	0	0	0
1354	0	0	0
1355	0	0	0
1356	0	0	0
1357	0	0	0
1358	0	0	0
1359	0	0	0
1360	0	0	0
1361	0	0	0
1362	0	0	0
1363	0	0	0
1364	0	0	0
1365	0	0	0
1366	0	0	0
1367	0	0	0
1368	244	228	234
1369	245	221	234
1370	244	212	235
1371	240	200	232
1372	239	195	233
1373	236	188	232
1374	227	173	226
1375	232	175	231
1376	231	170	229
1377	231	163	226
1378	232	161	225
1379	241	169	233
1380	236	161	228
1381	229	152	221
1382	233	156	223
1383	237	157	224
1384	235	151	221
1385	236	150	220
1386	240	153	221
1387	247	163	228
1388	240	158	222
1389	237	161	220
1390	249	182	228
1391	252	188	228
1392	247	184	224
1393	250	191	226
1394	247	195	223
1395	0	0	0
1396	254	226	236
1397	254	226	234
1398	250	223	230
1399	236	207	220
1400	0	0	0
1401	0	0	0
1402	249	211	233
1403	242	200	228
1404	246	199	231
1405	253	204	237
1406	246	189	229
1407	246	188	229
1408	243	184	226
1409	237	179	223
1410	238	179	227
1411	244	180	230
1412	241	172	225
1413	240	170	224
1414	236	164	223
1415	238	164	226
1416	237	160	225
1417	244	167	231
1418	244	167	230
1419	239	165	227
1420	241	171	230
1421	241	171	228
1422	237	164	220
1423	241	166	221
1424	243	165	221
1425	243	162	219
1426	248	167	220
1427	252	171	223
1428	247	165	218
1429	245	166	218
1430	245	168	220
1431	247	173	222
1432	250	177	224
1433	253	181	224
1434	253	181	222
1435	252	182	221
1436	252	185	220
1437	251	189	219
1438	254	197	222
1439	255	202	223
1440	253	199	217
1441	254	204	219
1442	255	211	223
1443	255	215	226
1444	252	213	225
1445	0	0	0
1446	0	0	0
1447	0	0	0
1448	0	0	0
1449	0	0	0
1450	0	0	0
1451	0	0	0
1452	0	0	0
1453	0	0	0
1454	0	0	0
1455	0	0	0
1456	0	0	0
1457	0	0	0
1458	0	0	0
1459	249	232	237
1460	246	221	234
1461	244	210	234
1462	243	205	235
1463	241	200	235
1464	234	187	230
1465	227	173	227
1466	232	173	232
1467	230	168	230
1468	230	165	228
1469	232	162	227
1470	236	159	226
1471	232	151	220
1472	232	153	221
1473	236	157	224
1474	234	151	221
1475	230	144	216
1476	233	149	218
1477	237	153	220
1478	243	157	223
1479	237	152	218
1480	247	173	228
1481	255	193	235
1482	252	188	228
1483	248	184	226
1484	248	191	227
1485	242	194	221
1486	0	0	0
1487	0	0	0
1488	249	225	232
1489	246	223	230
1490	0	0	0
1491	0	0	0
1492	0	0	0
1493	0	0	0
1494	0	0	0
1495	249	211	233
1496	243	198	227
1497	236	185	223
1498	237	184	225
1499	234	180	221
1500	231	177	220
1501	232	177	223
1502	234	173	222
1503	232	166	218
1504	236	166	221
1505	234	160	222
1506	234	160	226
1507	234	157	225
1508	242	164	230
1509	243	164	227
1510	244	168	229
1511	247	174	232
1512	240	166	226
1513	236	160	221
1514	237	158	220
1515	239	157	220
1516	246	162	223
1517	251	167	223
1518	249	162	220
1519	243	156	216
1520	239	158	216
1521	238	160	216
1522	243	166	220
1523	247	171	222
1524	249	172	221
1525	249	173	221
1526	251	178	221
1527	251	181	218
1528	255	189	220
1529	255	198	224
1530	255	198	223
1531	254	194	218
1532	254	199	220
1533	255	205	223
1534	251	202	220
1535	246	200	219
1536	0	0	0
1537	0	0	0
1538	0	0	0
1539	0	0	0
1540	0	0	0
1541	0	0	0
1542	0	0	0
1543	0	0	0
1544	0	0	0
1545	0	0	0
1546	0	0	0
1547	0	0	0
1548	0	0	0
1549	245	231	236
1550	246	227	235
1551	241	214	229
1552	240	208	230
1553	238	202	231
1554	238	198	232
1555	235	187	230
1556	234	178	232
1557	241	179	238
1558	233	167	230
1559	226	160	225
1560	230	160	225
1561	238	159	226
1562	237	154	222
1563	236	155	222
1564	244	165	229
1565	244	160	226
1566	239	154	221
1567	236	157	222
1568	235	155	220
1569	243	160	224
1570	241	156	221
1571	254	179	233
1572	250	178	225
1573	242	170	216
1574	250	188	228
1575	246	192	226
1576	245	205	226
1577	0	0	0
1578	0	0	0
1579	0	0	0
1580	0	0	0
1581	0	0	0
1582	0	0	0
1583	0	0	0
1584	0	0	0
1585	0	0	0
1586	0	0	0
1587	0	0	0
1588	241	203	231
1589	244	204	234
1590	242	199	231
1591	241	198	231
1592	237	191	229
1593	232	183	226
1594	233	177	224
1595	247	183	234
1596	236	160	224
1597	234	159	226
1598	232	156	225
1599	235	160	227
1600	235	157	223
1601	242	165	228
1602	244	165	228
1603	238	157	222
1604	238	157	222
1605	238	155	221
1606	245	161	226
1607	255	168	230
1608	254	166	224
1609	248	160	218
1610	248	164	222
1611	243	165	222
1612	241	164	221
1613	248	171	225
1614	249	172	223
1615	251	174	223
1616	252	176	223
1617	253	181	223
1618	249	177	217
1619	255	187	223
1620	254	185	219
1621	253	184	218
1622	249	183	215
1623	249	188	217
1624	255	207	227
1625	255	204	222
1626	251	202	221
1627	0	0	0
1628	0	0	0
1629	0	0	0
1630	0	0	0
1631	0	0	0
1632	0	0	0
1633	0	0	0
1634	0	0	0
1635	0	0	0
1636	0	0	0
1637	0	0	0
1638	0	0	0
1639	0	0	0
1640	243	228	236
1641	243	223	233
1642	241	215	230
1643	240	208	229
1644	238	202	230
1645	239	197	232
1646	236	187	230
1647	235	179	230
1648	237	173	231
1649	229	160	224
1650	226	158	223
1651	230	159	226
1652	243	162	231
1653	243	157	226
1654	245	163	227
1655	252	173	231
1656	252	168	227
1657	247	163	224
1658	240	160	223
1659	238	158	223
1660	244	161	227
1661	241	156	221
1662	244	162	223
1663	241	162	218
1664	248	178	224
1665	252	193	230
1666	249	202	229
1667	0	0	0
1668	0	0	0
1669	0	0	0
1670	0	0	0
1671	0	0	0
1672	0	0	0
1673	0	0	0
1674	0	0	0
1675	0	0	0
1676	0	0	0
1677	0	0	0
1678	0	0	0
1679	0	0	0
1680	250	220	239
1681	249	216	237
1682	245	208	234
1683	241	202	233
1684	231	189	227
1685	233	184	228
1686	238	173	227
1687	227	150	214
1688	227	152	218
1689	223	148	217
1690	225	150	219
1691	226	148	220
1692	232	151	223
1693	234	151	221
1694	235	150	219
1695	235	150	218
1696	239	154	220
1697	246	161	225
1698	251	163	225
1699	250	160	219
1700	252	165	220
1701	253	170	223
1702	250	170	225
1703	249	171	226
1704	252	173	227
1705	251	173	223
1706	253	174	221
1707	253	176	219
1708	249	173	216
1709	246	170	216
1710	246	170	216
1711	244	168	212
1712	245	170	213
1713	242	170	212
1714	254	190	222
1715	255	209	229
1716	255	204	222
1717	253	203	220
1718	255	213	226
1719	255	221	228
1720	255	224	228
1721	0	0	0
1722	0	0	0
1723	0	0	0
1724	0	0	0
1725	0	0	0
1726	0	0	0
1727	0	0	0
1728	0	0	0
1729	0	0	0
1730	0	0	0
1731	0	0	0
1732	239	220	232
1733	239	213	229
1734	241	208	229
1735	242	203	231
1736	240	195	231
1737	232	182	227
1738	234	181	230
1739	234	175	230
1740	227	160	223
1741	229	161	226
1742	235	161	229
1743	247	164	233
1744	245	156	226
1745	248	162	226
1746	255	173	228
1747	254	168	223
1748	253	167	224
1749	249	165	226
1750	241	157	224
1751	240	157	224
1752	240	157	222
1753	246	165	225
1754	241	162	220
1755	246	177	224
1756	255	201	232
1757	0	0	0
1758	0	0	0
1759	0	0	0
1760	0	0	0
1761	0	0	0
1762	0	0	0
1763	0	0	0
1764	0	0	0
1765	0	0	0
1766	0	0	0
1767	0	0	0
1768	0	0	0
1769	0	0	0
1770	0	0	0
1771	0	0	0
1772	246	215	232
1773	242	207	229
1774	245	211	235
1775	238	200	232
1776	237	191	232
1777	238	178	229
1778	232	163	222
1779	231	165	225
1780	223	153	218
1781	229	157	223
1782	234	160	229
1783	238	162	231
1784	237	157	226
1785	241	158	225
1786	243	159	224
1787	247	164	226
1788	250	166	227
1789	249	165	224
1790	246	160	218
1791	251	166	221
1792	249	161	218
1793	254	166	223
1794	250	161	221
1795	248	160	220
1796	250	167	221
1797	251	168	219
1798	252	172	217
1799	249	170	215
1800	248	171	218
1801	246	169	217
1802	251	177	221
1803	253	181	223
1804	246	173	217
1805	255	194	228
1806	255	199	224
1807	251	193	215
1808	254	201	220
1809	255	212	226
1810	255	210	222
1811	254	212	222
1812	255	219	227
1813	0	0	0
1814	0	0	0
1815	0	0	0
1816	0	0	0
1817	0	0	0
1818	0	0	0
1819	0	0	0
1820	0	0	0
1821	0	0	0
1822	0	0	0
1823	239	218	233
1824	236	211	229
1825	237	205	227
1826	242	201	230
1827	242	194	233
1828	242	192	236
1829	242	189	235
1830	233	174	228
1831	227	160	224
1832	231	162	229
1833	237	161	230
1834	245	161	231
1835	243	153	224
1836	252	164	228
1837	255	175	229
1838	255	171	223
1839	255	169	223
1840	246	160	218
1841	238	152	218
1842	241	158	224
1843	241	158	222
1844	246	164	225
1845	240	161	219
1846	0	0	0
1847	0	0	0
1848	0	0	0
1849	0	0	0
1850	0	0	0
1851	0	0	0
1852	0	0	0
1853	0	0	0
1854	0	0	0
1855	0	0	0
1856	0	0	0
1857	0	0	0
1858	0	0	0
1859	0	0	0
1860	0	0	0
1861	0	0	0
1862	0	0	0
1863	0	0	0
1864	245	217	232
1865	250	221	238
1866	240	205	232
1867	239	196	233
1868	239	186	232
1869	232	171	225
1870	225	163	221
1871	219	153	215
1872	231	163	225
1873	236	166	230
1874	237	164	230
1875	238	160	227
1876	248	167	232
1877	252	168	231
1878	251	168	228
1879	252	169	226
1880	249	165	222
1881	248	162	221
1882	248	159	220
1883	246	153	216
1884	247	151	215
1885	243	146	211
1886	245	152	215
1887	248	159	220
1888	249	164	220
1889	251	168	219
1890	250	168	217
1891	248	167	217
1892	251	176	221
1893	255	185	226
1894	252	179	222
1895	246	172	217
1896	253	183	223
1897	253	188	219
1898	253	194	220
1899	255	202	224
1900	255	202	223
1901	251	200	219
1902	251	205	220
1903	0	0	0
1904	0	0	0
1905	0	0	0
1906	0	0	0
1907	0	0	0
1908	0	0	0
1909	0	0	0
1910	0	0	0
1911	0	0	0
1912	0	0	0
1913	0	0	0
1914	0	0	0
1915	229	204	224
1916	237	211	230
1917	246	208	234
1918	240	189	231
1919	245	189	237
1920	241	180	230
1921	228	162	221
1922	233	167	229
1923	237	168	234
1924	234	159	228
1925	238	157	227
1926	243	156	225
1927	255	171	232
1928	255	168	225
1929	253	163	218
1930	254	168	220
1931	241	157	214
1932	244	162	223
1933	252	171	233
1934	240	154	220
1935	242	158	221
1936	245	171	224
1937	0	0	0
1938	0	0	0
1939	0	0	0
1940	0	0	0
1941	0	0	0
1942	0	0	0
1943	0	0	0
1944	0	0	0
1945	0	0	0
1946	0	0	0
1947	0	0	0
1948	0	0	0
1949	0	0	0
1950	0	0	0
1951	0	0	0
1952	0	0	0
1953	0	0	0
1954	0	0	0
1955	0	0	0
1956	246	219	235
1957	239	205	229
1958	240	202	234
1959	235	188	230
1960	231	179	226
1961	228	173	225
1962	231	173	227
1963	244	184	238
1964	234	164	227
1965	234	162	227
1966	239	161	227
1967	254	170	234
1968	253	166	229
1969	249	163	223
1970	254	170	225
1971	253	167	223
1972	251	161	223
1973	253	159	224
1974	246	149	216
1975	243	145	212
1976	255	164	223
1977	255	171	227
1978	254	166	225
1979	255	170	226
1980	255	174	225
1981	255	173	222
1982	248	166	217
1983	252	175	222
1984	253	178	223
1985	250	173	219
1986	251	177	221
1987	255	187	226
1988	246	179	217
1989	250	187	220
1990	253	194	223
1991	251	193	221
1992	249	195	220
1993	0	0	0
1994	0	0	0
1995	0	0	0
1996	0	0	0
1997	0	0	0
1998	0	0	0
1999	0	0	0
2000	0	0	0
2001	0	0	0
2002	0	0	0
2003	0	0	0
2004	0	0	0
2005	0	0	0
2006	238	214	233
2007	244	219	235
2008	240	200	227
2009	235	180	225
2010	238	177	229
2011	235	169	224
2012	238	172	228
2013	242	176	234
2014	237	166	229
2015	233	157	225
2016	241	161	228
2017	245	160	225
2018	252	163	226
2019	252	161	223
2020	255	167	225
2021	255	172	225
2022	248	168	221
2023	250	172	229
2024	248	164	227
2025	236	147	217
2026	249	170	229
2027	249	181	227
2028	0	0	0
2029	0	0	0
2030	0	0	0
2031	0	0	0
2032	0	0	0
2033	0	0	0
2034	0	0	0
2035	0	0	0
2036	0	0	0
2037	0	0	0
2038	0	0	0
2039	0	0	0
2040	0	0	0
2041	0	0	0
2042	0	0	0
2043	0	0	0
2044	0	0	0
2045	0	0	0
2046	0	0	0
2047	0	0	0
2048	242	212	233
2049	243	208	235
2050	235	196	230
2051	231	187	228
2052	236	189	232
2053	240	189	235
2054	236	176	231
2055	225	156	221
2056	226	158	224
2057	231	157	223
2058	247	164	228
2059	249	160	223
2060	252	166	224
2061	255	174	229
2062	255	166	224
2063	253	159	223
2064	253	155	223
2065	246	145	214
2066	255	165	226
2067	255	183	235
2068	255	174	226
2069	255	168	223
2070	255	171	224
2071	255	175	224
2072	250	167	217
2073	244	160	215
2074	247	166	219
2075	248	169	221
2076	253	175	223
2077	253	178	221
2078	247	174	217
2079	240	168	214
2080	245	178	220
2081	248	184	222
2082	251	189	224
2083	250	192	224
2084	253	203	228
2085	0	0	0
2086	0	0	0
2087	0	0	0
2088	0	0	0
2089	0	0	0
2090	0	0	0
2091	0	0	0
2092	0	0	0
2093	0	0	0
2094	0	0	0
2095	0	0	0
2096	246	212	235
2097	239	210	231
2098	243	213	233
2099	236	191	223
2100	237	184	227
2101	237	179	229
2102	237	174	227
2103	248	181	234
2104	248	177	233
2105	239	166	226
2106	243	167	229
2107	252	172	234
2108	251	165	227
2109	255	166	227
2110	254	164	226
2111	255	170	229
2112	255	169	224
2113	246	165	220
2114	248	169	225
2115	244	160	223
2116	237	153	219
2117	248	174	230
2118	247	187	225
2119	0	0	0
2120	0	0	0
2121	0	0	0
2122	0	0	0
2123	0	0	0
2124	0	0	0
2125	0	0	0
2126	0	0	0
2127	0	0	0
2128	0	0	0
2129	0	0	0
2130	0	0	0
2131	0	0	0
2132	0	0	0
2133	0	0	0
2134	0	0	0
2135	0	0	0
2136	0	0	0
2137	0	0	0
2138	0	0	0
2139	0	0	0
2140	0	0	0
2141	0	0	0
2142	238	202	233
2143	248	206	241
2144	242	193	236
2145	233	177	230
2146	222	163	225
2147	219	162	226
2148	218	155	220
2149	239	164	228
2150	243	158	221
2151	253	167	226
2152	255	172	229
2153	255	163	224
2154	249	150	218
2155	248	146	217
2156	246	142	214
2157	255	162	226
2158	255	165	223
2159	248	155	212
2160	255	174	225
2161	255	177	226
2162	255	174	222
2163	248	166	216
2164	251	171	222
2165	255	178	228
2166	252	173	224
2167	255	180	226
2168	253	177	221
2169	249	174	218
2170	248	174	221
2171	251	183	227
2172	249	183	224
2173	254	189	226
2174	250	188	224
2175	252	198	227
2176	255	213	231
2177	0	0	0
2178	0	0	0
2179	0	0	0
2180	0	0	0
2181	0	0	0
2182	0	0	0
2183	0	0	0
2184	0	0	0
2185	0	0	0
2186	0	0	0
2187	0	0	0
2188	238	203	228
2189	244	208	233
2190	246	200	233
2191	244	191	233
2192	240	185	231
2193	241	179	230
2194	248	180	231
2195	249	175	228
2196	248	174	228
2197	252	176	232
2198	255	175	233
2199	255	168	228
2200	255	171	230
2201	255	168	229
2202	255	172	230
2203	255	171	226
2204	250	167	222
2205	250	170	227
2206	248	168	227
2207	240	160	222
2208	252	184	233
2209	250	196	227
2210	0	0	0
2211	0	0	0
2212	0	0	0
2213	0	0	0
2214	0	0	0
2215	0	0	0
2216	0	0	0
2217	0	0	0
2218	0	0	0
2219	0	0	0
2220	0	0	0
2221	0	0	0
2222	0	0	0
2223	0	0	0
2224	0	0	0
2225	0	0	0
2226	0	0	0
2227	0	0	0
2228	0	0	0
2229	0	0	0
2230	0	0	0
2231	0	0	0
2232	0	0	0
2233	243	216	238
2234	240	203	233
2235	234	189	228
2236	227	178	227
2237	217	165	225
2238	209	158	223
2239	210	151	220
2240	231	159	227
2241	237	154	221
2242	250	162	225
2243	255	166	225
2244	246	149	213
2245	239	137	210
2246	243	140	215
2247	241	137	212
2248	249	148	218
2249	249	151	216
2250	255	166	222
2251	255	184	231
2252	255	178	225
2253	255	175	224
2254	255	178	225
2255	255	183	227
2256	255	179	225
2257	252	175	222
2258	252	175	222
2259	251	174	220
2260	251	176	221
2261	249	176	221
2262	248	179	221
2263	247	179	219
2264	249	181	220
2265	245	180	217
2266	253	197	225
2267	255	212	230
2268	255	217	229
2269	0	0	0
2270	0	0	0
2271	0	0	0
2272	0	0	0
2273	0	0	0
2274	0	0	0
2275	0	0	0
2276	0	0	0
2277	0	0	0
2278	0	0	0
2279	247	213	235
2280	246	205	234
2281	247	197	234
2282	240	182	227
2283	236	175	224
2284	246	186	232
2285	251	184	231
2286	254	181	229
2287	255	183	231
2288	255	177	230
2289	255	175	231
2290	255	165	226
2291	255	169	230
2292	245	147	214
2293	248	151	216
2294	255	167	225
2295	252	165	223
2296	251	168	225
2297	242	162	221
2298	236	160	219
2299	251	186	232
2300	250	197	225
2301	0	0	0
2302	0	0	0
2303	0	0	0
2304	0	0	0
2305	0	0	0
2306	0	0	0
2307	0	0	0
2308	0	0	0
2309	0	0	0
2310	0	0	0
2311	0	0	0
2312	0	0	0
2313	0	0	0
2314	0	0	0
2315	0	0	0
2316	0	0	0
2317	0	0	0
2318	0	0	0
2319	0	0	0
2320	0	0	0
2321	0	0	0
2322	0	0	0
2323	239	219	234
2324	241	221	236
2325	232	205	228
2326	232	200	229
2327	228	191	230
2328	224	183	233
2329	220	179	235
2330	213	159	225
2331	234	167	234
2332	239	160	227
2333	253	168	231
2334	250	159	222
2335	238	141	209
2336	248	154	221
2337	250	156	225
2338	243	143	217
2339	254	156	226
2340	248	148	217
2341	255	164	223
2342	255	177	226
2343	255	170	219
2344	253	169	219
2345	253	172	221
2346	255	179	223
2347	254	175	220
2348	249	170	218
2349	248	170	220
2350	248	171	221
2351	248	173	221
2352	246	172	219
2353	249	177	221
2354	246	174	217
2355	244	175	216
2356	250	188	223
2357	255	206	232
2358	255	205	226
2359	255	210	225
2360	0	0	0
2361	0	0	0
2362	0	0	0
2363	0	0	0
2364	0	0	0
2365	0	0	0
2366	0	0	0
2367	0	0	0
2368	0	0	0
2369	0	0	0
2370	245	207	231
2371	245	199	232
2372	243	189	230
2373	236	173	223
2374	244	184	230
2375	253	193	235
2376	255	190	232
2377	255	189	232
2378	255	182	228
2379	255	176	225
2380	252	167	222
2381	250	159	221
2382	243	145	215
2383	229	123	198
2384	245	145	214
2385	253	161	223
2386	249	161	221
2387	247	164	222
2388	242	164	221
2389	236	162	219
2390	251	188	231
2391	251	200	227
2392	0	0	0
2393	0	0	0
2394	0	0	0
2395	0	0	0
2396	0	0	0
2397	0	0	0
2398	0	0	0
2399	0	0	0
2400	0	0	0
2401	0	0	0
2402	0	0	0
2403	0	0	0
2404	0	0	0
2405	0	0	0
2406	0	0	0
2407	0	0	0
2408	0	0	0
2409	0	0	0
2410	0	0	0
2411	0	0	0
2412	0	0	0
2413	0	0	0
2414	0	0	0
2415	245	231	238
2416	238	219	232
2417	237	214	233
2418	235	206	233
2419	231	198	235
2420	216	176	226
2421	210	158	220
2422	226	161	228
2423	231	155	222
2424	239	153	221
2425	237	145	215
2426	243	154	220
2427	253	166	228
2428	246	154	220
2429	239	143	215
2430	245	146	218
2431	239	139	209
2432	250	155	217
2433	255	169	223
2434	252	164	216
2435	249	163	215
2436	252	169	218
2437	255	176	221
2438	253	171	220
2439	249	166	220
2440	250	170	225
2441	250	172	226
2442	248	172	225
2443	247	171	222
2444	248	172	222
2445	245	170	219
2446	253	185	227
2447	255	197	231
2448	255	199	228
2449	254	199	223
2450	255	207	224
2451	255	217	228
2452	0	0	0
2453	0	0	0
2454	0	0	0
2455	0	0	0
2456	0	0	0
2457	0	0	0
2458	0	0	0
2459	0	0	0
2460	246	215	233
2461	246	207	231
2462	248	201	233
2463	245	190	230
2464	241	179	227
2465	249	189	234
2466	252	191	232
2467	253	187	228
2468	254	184	227
2469	252	177	223
2470	255	181	226
2471	255	173	224
2472	255	169	227
2473	250	155	221
2474	241	140	211
2475	255	162	227
2476	249	157	221
2477	238	153	215
2478	247	172	226
2479	250	177	228
2480	241	169	221
2481	254	193	233
2482	252	202	227
2483	0	0	0
2484	0	0	0
2485	0	0	0
2486	0	0	0
2487	0	0	0
2488	0	0	0
2489	0	0	0
2490	0	0	0
2491	0	0	0
2492	0	0	0
2493	0	0	0
2494	0	0	0
2495	0	0	0
2496	0	0	0
2497	0	0	0
2498	0	0	0
2499	0	0	0
2500	0	0	0
2501	0	0	0
2502	0	0	0
2503	0	0	0
2504	0	0	0
2505	0	0	0
2506	0	0	0
2507	0	0	0
2508	242	223	235
2509	243	216	236
2510	238	204	234
2511	222	183	224
2512	228	184	233
2513	239	186	240
2514	234	166	227
2515	242	165	228
2516	244	161	226
2517	252	172	232
2518	255	176	233
2519	253	166	226
2520	251	159	224
2521	254	161	227
2522	246	150	217
2523	255	168	227
2524	255	169	224
2525	251	164	217
2526	255	173	223
2527	255	180	226
2528	255	174	220
2529	252	169	219
2530	253	169	224
2531	255	174	230
2532	251	169	227
2533	250	169	226
2534	250	170	225
2535	249	170	224
2536	252	175	226
2537	255	191	235
2538	249	181	222
2539	246	182	218
2540	253	195	223
2541	255	205	226
2542	253	206	222
2543	242	197	213
2544	255	220	228
2545	0	0	0
2546	0	0	0
2547	0	0	0
2548	0	0	0
2549	0	0	0
2550	249	223	236
2551	250	217	235
2552	250	210	234
2553	251	203	233
2554	249	195	231
2555	244	183	228
2556	247	187	231
2557	250	189	231
2558	252	186	228
2559	253	183	226
2560	255	186	229
2561	255	189	231
2562	255	181	226
2563	255	175	227
2564	255	165	224
2565	246	151	218
2566	250	155	222
2567	240	149	214
2568	243	164	221
2569	253	183	232
2570	254	183	231
2571	244	174	222
2572	250	192	229
2573	247	201	223
2574	0	0	0
2575	0	0	0
2576	0	0	0
2577	0	0	0
2578	0	0	0
2579	0	0	0
2580	0	0	0
2581	0	0	0
2582	0	0	0
2583	0	0	0
2584	0	0	0
2585	0	0	0
2586	0	0	0
2587	0	0	0
2588	0	0	0
2589	0	0	0
2590	0	0	0
2591	0	0	0
2592	0	0	0
2593	0	0	0
2594	0	0	0
2595	0	0	0
2596	0	0	0
2597	0	0	0
2598	0	0	0
2599	0	0	0
2600	244	220	235
2601	0	0	0
2602	237	206	235
2603	242	207	240
2604	238	191	234
2605	233	173	226
2606	245	178	233
2607	248	175	229
2608	254	180	233
2609	255	185	237
2610	255	177	231
2611	253	168	225
2612	251	164	223
2613	245	154	217
2614	249	160	221
2615	249	162	218
2616	255	171	222
2617	255	181	228
2618	255	175	223
2619	252	169	217
2620	253	169	219
2621	253	169	223
2622	253	168	225
2623	250	164	223
2624	250	166	225
2625	249	167	225
2626	253	173	228
2627	254	178	230
2628	248	171	223
2629	237	162	212
2630	244	177	219
2631	251	190	223
2632	251	194	223
2633	249	196	220
2634	255	213	228
2635	255	234	240
2636	255	221	229
2637	0	0	0
2638	0	0	0
2639	0	0	0
2640	252	227	237
2641	255	224	238
2642	250	210	232
2643	247	200	228
2644	249	199	229
2645	246	190	226
2646	245	186	228
2647	248	189	231
2648	252	192	232
2649	255	189	230
2650	255	185	228
2651	255	188	231
2652	255	178	223
2653	249	168	217
2654	255	172	223
2655	251	162	220
2656	251	160	222
2657	253	164	225
2658	252	167	224
2659	255	185	234
2660	255	183	231
2661	253	180	228
2662	242	174	219
2663	243	189	223
2664	244	204	223
2665	0	0	0
2666	0	0	0
2667	0	0	0
2668	0	0	0
2669	0	0	0
2670	0	0	0
2671	0	0	0
2672	0	0	0
2673	0	0	0
2674	0	0	0
2675	0	0	0
2676	0	0	0
2677	0	0	0
2678	0	0	0
2679	0	0	0
2680	0	0	0
2681	0	0	0
2682	0	0	0
2683	0	0	0
2684	0	0	0
2685	0	0	0
2686	0	0	0
2687	0	0	0
2688	0	0	0
2689	0	0	0
2690	0	0	0
2691	0	0	0
2692	0	0	0
2693	244	220	238
2694	241	210	235
2695	236	194	230
2696	234	180	227
2697	247	186	236
2698	247	179	229
2699	255	186	233
2700	255	185	234
2701	247	173	225
2702	245	170	222
2703	247	167	222
2704	244	162	220
2705	248	168	224
2706	253	174	225
2707	255	186	232
2708	255	177	225
2709	253	171	220
2710	253	172	220
2711	255	173	223
2712	249	162	221
2713	249	161	223
2714	252	165	225
2715	252	167	226
2716	252	170	227
2717	255	176	230
2718	252	175	228
2719	246	169	222
2720	249	176	224
2721	255	192	231
2722	254	192	227
2723	253	196	225
2724	251	197	223
2725	255	215	232
2726	255	218	231
2727	242	202	217
2728	0	0	0
2729	0	0	0
2730	0	0	0
2731	0	0	0
2732	247	211	229
2733	243	198	225
2734	248	199	229
2735	250	198	230
2736	251	196	231
2737	250	191	231
2738	251	193	232
2739	255	195	232
2740	255	190	229
2741	255	186	229
2742	254	178	225
2743	248	168	218
2744	251	172	222
2745	255	176	228
2746	255	176	229
2747	255	173	228
2748	255	181	233
2749	255	185	232
2750	255	183	229
2751	255	181	228
2752	255	183	229
2753	243	176	219
2754	245	194	224
2755	246	210	227
2756	0	0	0
2757	0	0	0
2758	0	0	0
2759	0	0	0
2760	0	0	0
2761	0	0	0
2762	0	0	0
2763	0	0	0
2764	0	0	0
2765	0	0	0
2766	0	0	0
2767	0	0	0
2768	0	0	0
2769	0	0	0
2770	0	0	0
2771	0	0	0
2772	0	0	0
2773	0	0	0
2774	0	0	0
2775	0	0	0
2776	0	0	0
2777	0	0	0
2778	0	0	0
2779	0	0	0
2780	0	0	0
2781	0	0	0
2782	0	0	0
2783	0	0	0
2784	245	226	237
2785	243	216	235
2786	238	202	232
2787	235	188	230
2788	241	188	233
2789	242	181	226
2790	252	186	230
2791	253	184	231
2792	246	179	227
2793	247	177	227
2794	250	176	228
2795	247	171	224
2796	253	179	230
2797	255	185	232
2798	255	179	227
2799	252	171	221
2800	252	171	222
2801	253	173	224
2802	246	163	221
2803	240	153	219
2804	246	159	225
2805	247	161	224
2806	246	163	222
2807	245	166	221
2808	243	166	221
2809	243	167	222
2810	252	178	228
2811	255	186	229
2812	255	190	228
2813	254	191	225
2814	254	195	225
2815	252	197	223
2816	252	201	223
2817	250	204	223
2818	248	208	225
2819	0	0	0
2820	0	0	0
2821	0	0	0
2822	0	0	0
2823	0	0	0
2824	247	208	231
2825	255	212	239
2826	248	192	229
2827	249	190	230
2828	252	192	231
2829	255	194	233
2830	255	195	232
2831	255	188	227
2832	255	187	229
2833	253	178	226
2834	249	170	221
2835	252	174	226
2836	244	163	220
2837	240	159	218
2838	244	163	220
2839	254	173	226
2840	255	175	224
2841	251	173	221
2842	251	177	224
2843	251	179	226
2844	242	176	218
2845	247	195	226
2846	247	210	228
2847	0	0	0
2848	0	0	0
2849	0	0	0
2850	0	0	0
2851	0	0	0
2852	0	0	0
2853	0	0	0
2854	0	0	0
2855	0	0	0
2856	0	0	0
2857	0	0	0
2858	0	0	0
2859	0	0	0
2860	0	0	0
2861	0	0	0
2862	0	0	0
2863	0	0	0
2864	0	0	0
2865	0	0	0
2866	0	0	0
2867	0	0	0
2868	0	0	0
2869	0	0	0
2870	0	0	0
2871	0	0	0
2872	0	0	0
2873	0	0	0
2874	0	0	0
2875	0	0	0
2876	238	215	231
2877	234	202	228
2878	238	201	233
2879	239	198	234
2880	241	191	229
2881	255	199	237
2882	249	185	228
2883	245	181	227
2884	249	184	231
2885	252	183	231
2886	250	177	227
2887	255	185	233
2888	255	181	229
2889	250	173	223
2890	248	170	222
2891	249	172	224
2892	247	169	223
2893	239	158	219
2894	238	157	223
2895	243	163	228
2896	245	168	226
2897	242	169	223
2898	241	171	222
2899	238	171	222
2900	238	169	223
2901	253	185	233
2902	253	183	228
2903	255	187	227
2904	250	182	221
2905	251	187	221
2906	251	192	222
2907	250	196	223
2908	251	202	224
2909	0	0	0
2910	0	0	0
2911	0	0	0
2912	0	0	0
2913	0	0	0
2914	0	0	0
2915	249	216	235
2916	246	201	232
2917	239	183	224
2918	249	190	232
2919	252	191	231
2920	255	193	232
2921	255	194	232
2922	255	189	229
2923	255	187	230
2924	254	179	227
2925	250	171	224
2926	242	162	219
2927	233	150	212
2928	236	156	218
2929	240	159	220
2930	248	166	224
2931	249	168	221
2932	247	169	220
2933	245	171	221
2934	245	175	222
2935	238	173	218
2936	246	195	228
2937	247	210	229
2938	0	0	0
2939	0	0	0
2940	0	0	0
2941	0	0	0
2942	0	0	0
2943	0	0	0
2944	0	0	0
2945	0	0	0
2946	0	0	0
2947	0	0	0
2948	0	0	0
2949	0	0	0
2950	0	0	0
2951	0	0	0
2952	0	0	0
2953	0	0	0
2954	0	0	0
2955	0	0	0
2956	0	0	0
2957	0	0	0
2958	0	0	0
2959	0	0	0
2960	0	0	0
2961	0	0	0
2962	0	0	0
2963	0	0	0
2964	0	0	0
2965	0	0	0
2966	0	0	0
2967	0	0	0
2968	242	217	236
2969	244	215	237
2970	240	207	233
2971	240	201	231
2972	243	193	229
2973	238	180	223
2974	244	185	228
2975	249	188	230
2976	251	185	230
2977	249	179	227
2978	247	176	225
2979	245	171	222
2980	244	169	221
2981	244	167	222
2982	243	165	223
2983	240	162	219
2984	239	162	221
2985	238	161	224
2986	248	172	231
2987	249	177	228
2988	246	178	225
2989	246	181	228
2990	239	176	225
2991	239	174	227
2992	246	178	230
2993	248	177	228
2994	248	176	225
2995	243	171	217
2996	246	179	220
2997	247	185	222
2998	250	193	225
2999	250	198	225
3000	255	208	229
3001	0	0	0
3002	0	0	0
3003	0	0	0
3004	0	0	0
3005	0	0	0
3006	247	217	235
3007	241	200	228
3008	242	193	230
3009	255	203	240
3010	251	190	230
3011	255	193	232
3012	255	189	229
3013	253	183	226
3014	255	187	230
3015	255	179	227
3016	252	174	227
3017	243	164	222
3018	242	163	223
3019	249	171	229
3020	245	165	225
3021	249	170	227
3022	254	178	228
3023	251	180	227
3024	245	176	222
3025	242	178	222
3026	244	188	225
3027	255	211	237
3028	251	214	232
3029	0	0	0
3030	0	0	0
3031	0	0	0
3032	0	0	0
3033	0	0	0
3034	0	0	0
3035	0	0	0
3036	0	0	0
3037	0	0	0
3038	0	0	0
3039	0	0	0
3040	0	0	0
3041	0	0	0
3042	0	0	0
3043	0	0	0
3044	0	0	0
3045	0	0	0
3046	0	0	0
3047	0	0	0
3048	0	0	0
3049	0	0	0
3050	0	0	0
3051	0	0	0
3052	0	0	0
3053	0	0	0
3054	0	0	0
3055	0	0	0
3056	0	0	0
3057	0	0	0
3058	0	0	0
3059	0	0	0
3060	246	222	237
3061	241	214	233
3062	239	207	231
3063	235	196	226
3064	237	192	227
3065	249	200	236
3066	248	192	230
3067	250	190	230
3068	246	183	227
3069	243	179	225
3070	250	186	231
3071	253	186	233
3072	254	183	233
3073	253	181	234
3074	244	168	225
3075	243	168	226
3076	243	168	228
3077	255	180	235
3078	251	176	227
3079	250	178	226
3080	248	179	228
3081	242	174	225
3082	249	185	235
3083	251	186	236
3084	251	184	234
3085	252	184	232
3086	246	176	222
3087	247	184	225
3088	249	190	228
3089	254	199	232
3090	248	194	224
3091	253	204	228
3092	255	213	233
3093	0	0	0
3094	0	0	0
3095	0	0	0
3096	0	0	0
3097	250	221	237
3098	247	212	233
3099	247	204	233
3100	248	197	232
3101	245	186	226
3102	249	185	228
3103	250	182	226
3104	254	185	228
3105	255	188	230
3106	255	181	227
3107	253	176	226
3108	249	173	226
3109	248	173	226
3110	248	171	226
3111	244	164	222
3112	253	178	230
3113	255	187	231
3114	254	186	228
3115	248	182	225
3116	254	196	232
3117	254	205	231
3118	252	209	229
3119	0	0	0
3120	0	0	0
3121	0	0	0
3122	0	0	0
3123	0	0	0
3124	0	0	0
3125	0	0	0
3126	0	0	0
3127	0	0	0
3128	0	0	0
3129	0	0	0
3130	0	0	0
3131	0	0	0
3132	0	0	0
3133	0	0	0
3134	0	0	0
3135	0	0	0
3136	0	0	0
3137	0	0	0
3138	0	0	0
3139	0	0	0
3140	0	0	0
3141	0	0	0
3142	0	0	0
3143	0	0	0
3144	0	0	0
3145	0	0	0
3146	0	0	0
3147	0	0	0
3148	0	0	0
3149	0	0	0
3150	0	0	0
3151	0	0	0
3152	243	221	234
3153	240	214	231
3154	237	208	230
3155	239	204	231
3156	243	201	232
3157	242	193	226
3158	245	191	227
3159	243	185	226
3160	249	193	233
3161	255	200	239
3162	255	196	237
3163	255	192	235
3164	248	181	230
3165	241	169	227
3166	242	170	230
3167	242	169	227
3168	247	172	228
3169	246	169	225
3170	246	172	226
3171	243	172	226
3172	244	180	230
3173	249	190	236
3174	248	186	232
3175	248	184	230
3176	247	181	226
3177	240	174	218
3178	242	181	221
3179	244	187	225
3180	245	188	224
3181	241	185	219
3182	250	198	226
3183	253	207	228
3184	0	0	0
3185	0	0	0
3186	0	0	0
3187	0	0	0
3188	250	219	236
3189	247	210	232
3190	238	194	225
3191	235	185	222
3192	246	194	231
3193	252	195	234
3194	249	184	228
3195	255	188	232
3196	255	186	229
3197	253	178	223
3198	251	176	224
3199	249	174	224
3200	253	180	228
3201	253	178	227
3202	250	175	226
3203	255	188	234
3204	251	181	225
3205	249	180	223
3206	244	176	220
3207	254	192	228
3208	248	195	222
3209	0	0	0
3210	0	0	0
3211	0	0	0
3212	0	0	0
3213	0	0	0
3214	0	0	0
3215	0	0	0
3216	0	0	0
3217	0	0	0
3218	0	0	0
3219	0	0	0
3220	0	0	0
3221	0	0	0
3222	0	0	0
3223	0	0	0
3224	0	0	0
3225	0	0	0
3226	0	0	0
3227	0	0	0
3228	0	0	0
3229	0	0	0
3230	0	0	0
3231	0	0	0
3232	0	0	0
3233	0	0	0
3234	0	0	0
3235	0	0	0
3236	0	0	0
3237	0	0	0
3238	0	0	0
3239	0	0	0
3240	0	0	0
3241	0	0	0
3242	0	0	0
3243	0	0	0
3244	0	0	0
3245	0	0	0
3246	0	0	0
3247	0	0	0
3248	242	202	230
3249	245	200	231
3250	242	191	228
3251	252	201	238
3252	249	193	233
3253	245	187	228
3254	248	190	229
3255	241	179	224
3256	241	178	231
3257	244	180	235
3258	246	181	234
3259	251	183	235
3260	248	178	232
3261	247	180	233
3262	238	174	227
3263	236	181	229
3264	240	188	232
3265	242	187	229
3266	246	189	230
3267	246	186	227
3268	247	188	226
3269	248	195	230
3270	244	192	228
3271	244	193	228
3272	245	193	227
3273	255	208	235
3274	255	208	230
3275	0	0	0
3276	0	0	0
3277	0	0	0
3278	0	0	0
3279	251	218	236
3280	242	202	228
3281	235	188	224
3282	245	198	234
3283	253	205	239
3284	250	195	233
3285	248	184	229
3286	254	186	231
3287	255	184	227
3288	255	182	225
3289	254	180	224
3290	255	187	230
3291	255	193	234
3292	255	192	234
3293	255	190	233
3294	255	186	231
3295	251	179	223
3296	249	178	221
3297	244	173	218
3298	251	186	225
3299	244	188	219
3300	0	0	0
3301	0	0	0
3302	0	0	0
3303	0	0	0
3304	0	0	0
3305	0	0	0
3306	0	0	0
3307	0	0	0
3308	0	0	0
3309	0	0	0
3310	0	0	0
3311	0	0	0
3312	0	0	0
3313	0	0	0
3314	0	0	0
3315	0	0	0
3316	0	0	0
3317	0	0	0
3318	0	0	0
3319	0	0	0
3320	0	0	0
3321	0	0	0
3322	0	0	0
3323	0	0	0
3324	0	0	0
3325	0	0	0
3326	0	0	0
3327	0	0	0
3328	0	0	0
3329	0	0	0
3330	0	0	0
3331	0	0	0
3332	0	0	0
3333	0	0	0
3334	0	0	0
3335	0	0	0
3336	0	0	0
3337	0	0	0
3338	0	0	0
3339	0	0	0
3340	245	205	233
3341	241	195	229
3342	240	190	228
3343	237	183	225
3344	242	188	228
3345	245	191	228
3346	243	188	228
3347	244	186	232
3348	246	188	237
3349	248	189	238
3350	245	185	235
3351	242	180	231
3352	238	178	229
3353	230	172	224
3354	230	179	227
3355	234	187	230
3356	240	190	231
3357	245	193	231
3358	251	198	233
3359	252	200	234
3360	246	196	230
3361	241	193	227
3362	242	195	228
3363	243	195	228
3364	251	202	231
3365	251	204	229
3366	0	0	0
3367	0	0	0
3368	0	0	0
3369	0	0	0
3370	0	0	0
3371	238	196	224
3372	245	201	233
3373	255	213	246
3374	251	197	234
3375	243	184	226
3376	249	187	230
3377	255	189	233
3378	252	181	225
3379	252	179	223
3380	255	180	225
3381	255	189	231
3382	255	180	224
3383	254	177	223
3384	255	180	227
3385	255	178	226
3386	248	170	218
3387	245	168	216
3388	245	172	218
3389	247	182	222
3390	241	187	219
3391	0	0	0
3392	0	0	0
3393	0	0	0
3394	0	0	0
3395	0	0	0
3396	0	0	0
3397	0	0	0
3398	0	0	0
3399	0	0	0
3400	0	0	0
3401	0	0	0
3402	0	0	0
3403	0	0	0
3404	0	0	0
3405	0	0	0
3406	0	0	0
3407	0	0	0
3408	0	0	0
3409	0	0	0
3410	0	0	0
3411	0	0	0
3412	0	0	0
3413	0	0	0
3414	0	0	0
3415	0	0	0
3416	0	0	0
3417	0	0	0
3418	0	0	0
3419	0	0	0
3420	0	0	0
3421	0	0	0
3422	0	0	0
3423	0	0	0
3424	0	0	0
3425	0	0	0
3426	0	0	0
3427	0	0	0
3428	0	0	0
3429	0	0	0
3430	0	0	0
3431	0	0	0
3432	250	211	237
3433	244	203	233
3434	242	199	233
3435	251	205	239
3436	248	199	233
3437	247	196	231
3438	245	192	233
3439	248	194	237
3440	248	197	239
3441	239	188	232
3442	244	197	237
3443	245	198	238
3444	241	194	233
3445	245	202	238
3446	241	199	236
3447	244	200	236
3448	247	202	234
3449	255	208	237
3450	252	203	234
3451	247	200	232
3452	245	201	231
3453	243	201	231
3454	246	206	233
3455	255	214	238
3456	253	209	233
3457	0	0	0
3458	0	0	0
3459	0	0	0
3460	0	0	0
3461	0	0	0
3462	248	209	234
3463	253	212	236
3464	249	200	231
3465	243	186	226
3466	248	189	231
3467	251	191	232
3468	250	184	228
3469	247	177	223
3470	251	179	226
3471	253	180	228
3472	250	174	224
3473	244	165	216
3474	248	169	219
3475	251	172	224
3476	247	167	221
3477	241	159	214
3478	246	167	218
3479	244	170	217
3480	246	182	222
3481	0	0	0
3482	0	0	0
3483	0	0	0
3484	0	0	0
3485	0	0	0
3486	0	0	0
3487	0	0	0
3488	0	0	0
3489	0	0	0
3490	0	0	0
3491	0	0	0
3492	0	0	0
3493	0	0	0
3494	0	0	0
3495	0	0	0
3496	0	0	0
3497	0	0	0
3498	0	0	0
3499	0	0	0
3500	0	0	0
3501	0	0	0
3502	0	0	0
3503	0	0	0
3504	0	0	0
3505	0	0	0
3506	0	0	0
3507	0	0	0
3508	0	0	0
3509	0	0	0
3510	0	0	0
3511	0	0	0
3512	0	0	0
3513	0	0	0
3514	0	0	0
3515	0	0	0
3516	0	0	0
3517	0	0	0
3518	0	0	0
3519	0	0	0
3520	0	0	0
3521	0	0	0
3522	0	0	0
3523	0	0	0
3524	250	217	237
3525	248	212	237
3526	249	209	237
3527	247	203	233
3528	247	201	232
3529	246	197	233
3530	252	204	239
3531	252	206	240
3532	249	210	240
3533	253	218	244
3534	251	215	240
3535	248	210	234
3536	247	209	234
3537	244	206	235
3538	243	206	234
3539	245	208	232
3540	248	206	231
3541	246	202	229
3542	244	203	230
3543	242	204	230
3544	244	208	232
3545	248	212	233
3546	252	213	234
3547	250	209	230
3548	250	211	230
3549	0	0	0
3550	0	0	0
3551	247	212	232
3552	250	212	235
3553	254	216	239
3554	247	203	230
3555	237	188	221
3556	245	194	232
3557	255	201	240
3558	251	188	231
3559	246	180	225
3560	248	181	227
3561	252	184	231
3562	246	176	226
3563	238	167	220
3564	239	168	219
3565	248	175	226
3566	245	167	222
3567	239	161	218
3568	240	162	218
3569	249	172	224
3570	247	174	222
3571	0	0	0
3572	0	0	0
3573	0	0	0
3574	0	0	0
3575	0	0	0
3576	0	0	0
3577	0	0	0
3578	0	0	0
3579	0	0	0
3580	0	0	0
3581	0	0	0
3582	0	0	0
3583	0	0	0
3584	0	0	0
3585	0	0	0
3586	0	0	0
3587	0	0	0
3588	0	0	0
3589	0	0	0
3590	0	0	0
3591	0	0	0
3592	0	0	0
3593	0	0	0
3594	0	0	0
3595	0	0	0
3596	0	0	0
3597	0	0	0
3598	0	0	0
3599	0	0	0
3600	0	0	0
3601	0	0	0
3602	0	0	0
3603	0	0	0
3604	0	0	0
3605	0	0	0
3606	0	0	0
3607	0	0	0
3608	0	0	0
3609	0	0	0
3610	0	0	0
3611	0	0	0
3612	0	0	0
3613	0	0	0
3614	0	0	0
3615	0	0	0
3616	249	218	236
3617	247	213	234
3618	248	212	235
3619	249	210	235
3620	247	204	233
3621	254	211	239
3622	252	209	236
3623	253	215	238
3624	252	217	238
3625	244	211	230
3626	246	213	230
3627	251	215	232
3628	247	210	232
3629	0	0	0
3630	0	0	0
3631	250	217	233
3632	243	208	228
3633	239	208	228
3634	245	217	234
3635	253	225	240
3636	247	215	233
3637	249	214	232
3638	251	216	232
3639	253	219	235
3640	249	217	233
3641	242	215	231
3642	247	216	234
3643	250	215	235
3644	248	207	232
3645	242	196	229
3646	241	196	231
3647	247	200	236
3648	249	193	234
3649	243	181	228
3650	242	182	229
3651	244	183	230
3652	243	178	227
3653	238	170	223
3654	239	172	225
3655	242	174	227
3656	244	170	226
3657	240	162	220
3658	240	164	222
3659	241	166	224
3660	249	176	230
3661	248	178	227
3662	0	0	0
3663	0	0	0
3664	0	0	0
3665	0	0	0
3666	0	0	0
3667	0	0	0
3668	0	0	0
3669	0	0	0
3670	0	0	0
3671	0	0	0
3672	0	0	0
3673	0	0	0
3674	0	0	0
3675	0	0	0
3676	0	0	0
3677	0	0	0
3678	0	0	0
3679	0	0	0
3680	0	0	0
3681	0	0	0
3682	0	0	0
3683	0	0	0
3684	0	0	0
3685	0	0	0
3686	0	0	0
3687	0	0	0
3688	0	0	0
3689	0	0	0
3690	0	0	0
3691	0	0	0
3692	0	0	0
3693	0	0	0
3694	0	0	0
3695	0	0	0
3696	0	0	0
3697	0	0	0
3698	0	0	0
3699	0	0	0
3700	0	0	0
3701	0	0	0
3702	0	0	0
3703	0	0	0
3704	0	0	0
3705	0	0	0
3706	0	0	0
3707	0	0	0
3708	248	222	235
3709	249	221	236
3710	248	216	234
3711	245	208	231
3712	250	212	234
3713	0	0	0
3714	250	215	233
3715	249	217	232
3716	245	216	230
3717	248	220	232
3718	252	220	234
3719	0	0	0
3720	0	0	0
3721	0	0	0
3722	0	0	0
3723	0	0	0
3724	247	225	233
3725	253	234	240
3726	249	225	235
3727	0	0	0
3728	249	219	234
3729	250	221	234
3730	249	221	233
3731	0	0	0
3732	241	222	234
3733	246	223	238
3734	241	210	231
3735	244	204	231
3736	246	203	234
3737	244	203	235
3738	245	203	236
3739	243	193	232
3740	237	184	229
3741	237	185	230
3742	241	189	232
3743	240	184	230
3744	234	169	224
3745	245	177	233
3746	245	172	231
3747	242	166	226
3748	238	160	221
3749	238	162	222
3750	236	162	223
3751	241	170	227
3752	244	179	227
3753	0	0	0
3754	0	0	0
3755	0	0	0
3756	0	0	0
3757	0	0	0
3758	0	0	0
3759	0	0	0
3760	0	0	0
3761	0	0	0
3762	0	0	0
3763	0	0	0
3764	0	0	0
3765	0	0	0
3766	0	0	0
3767	0	0	0
3768	0	0	0
3769	0	0	0
3770	0	0	0
3771	0	0	0
3772	0	0	0
3773	0	0	0
3774	0	0	0
3775	0	0	0
3776	0	0	0
3777	0	0	0
3778	0	0	0
3779	0	0	0
3780	0	0	0
3781	0	0	0
3782	0	0	0
3783	0	0	0
3784	0	0	0
3785	0	0	0
3786	0	0	0
3787	0	0	0
3788	0	0	0
3789	0	0	0
3790	0	0	0
3791	0	0	0
3792	0	0	0
3793	0	0	0
3794	0	0	0
3795	0	0	0
3796	0	0	0
3797	0	0	0
3798	0	0	0
3799	0	0	0
3800	0	0	0
3801	0	0	0
3802	0	0	0
3803	0	0	0
3804	0	0	0
3805	0	0	0
3806	0	0	0
3807	0	0	0
3808	0	0	0
3809	0	0	0
3810	0	0	0
3811	0	0	0
3812	0	0	0
3813	0	0	0
3814	0	0	0
3815	0	0	0
3816	251	227	234
3817	0	0	0
3818	0	0	0
3819	0	0	0
3820	0	0	0
3821	0	0	0
3822	0	0	0
3823	248	233	241
3824	240	218	233
3825	236	206	230
3826	245	209	236
3827	246	207	234
3828	246	206	234
3829	248	207	237
3830	246	200	235
3831	240	191	233
3832	242	194	236
3833	246	198	237
3834	237	181	228
3835	233	169	226
3836	242	171	233
3837	240	165	229
3838	238	161	225
3839	232	155	219
3840	227	154	217
3841	225	153	217
3842	238	171	228
3843	242	181	228
3844	253	201	234
3845	0	0	0
3846	0	0	0
3847	0	0	0
3848	0	0	0
3849	0	0	0
3850	0	0	0
3851	0	0	0
3852	0	0	0
3853	0	0	0
3854	0	0	0
3855	0	0	0
3856	0	0	0
3857	0	0	0
3858	0	0	0
3859	0	0	0
3860	0	0	0
3861	0	0	0
3862	0	0	0
3863	0	0	0
3864	0	0	0
3865	0	0	0
3866	0	0	0
3867	0	0	0
3868	0	0	0
3869	0	0	0
3870	0	0	0
3871	0	0	0
3872	0	0	0
3873	0	0	0
3874	0	0	0
3875	0	0	0
3876	0	0	0
3877	0	0	0
3878	0	0	0
3879	0	0	0
3880	0	0	0
3881	0	0	0
3882	0	0	0
3883	0	0	0
3884	0	0	0
3885	0	0	0
3886	0	0	0
3887	0	0	0
3888	0	0	0
3889	0	0	0
3890	0	0	0
3891	0	0	0
3892	0	0	0
3893	0	0	0
3894	0	0	0
3895	0	0	0
3896	0	0	0
3897	0	0	0
3898	0	0	0
3899	0	0	0
3900	0	0	0
3901	0	0	0
3902	0	0	0
3903	0	0	0
3904	0	0	0
3905	0	0	0
3906	0	0	0
3907	0	0	0
3908	0	0	0
3909	0	0	0
3910	0	0	0
3911	0	0	0
3912	0	0	0
3913	0	0	0
3914	0	0	0
3915	239	214	230
3916	241	212	234
3917	244	212	237
3918	248	214	236
3919	254	216	240
3920	247	201	233
3921	243	193	231
3922	240	188	232
3923	245	193	236
3924	247	194	235
3925	236	176	225
3926	239	175	231
3927	244	175	237
3928	235	161	227
3929	231	156	223
3930	234	166	226
3931	227	164	222
3932	235	175	230
3933	252	196	244
3934	243	185	231
3935	253	205	237
3936	245	201	224
3937	0	0	0
3938	0	0	0
3939	0	0	0
3940	0	0	0
3941	0	0	0
3942	0	0	0
3943	0	0	0
3944	0	0	0
3945	0	0	0
3946	0	0	0
3947	0	0	0
3948	0	0	0
3949	0	0	0
3950	0	0	0
3951	0	0	0
3952	0	0	0
3953	0	0	0
3954	0	0	0
3955	0	0	0
3956	0	0	0
3957	0	0	0
3958	0	0	0
3959	0	0	0
3960	0	0	0
3961	0	0	0
3962	0	0	0
3963	0	0	0
3964	0	0	0
3965	0	0	0
3966	0	0	0
3967	0	0	0
3968	0	0	0
3969	0	0	0
3970	0	0	0
3971	0	0	0
3972	0	0	0
3973	0	0	0
3974	0	0	0
3975	0	0	0
3976	0	0	0
3977	0	0	0
3978	0	0	0
3979	0	0	0
3980	0	0	0
3981	0	0	0
3982	0	0	0
3983	0	0	0
3984	0	0	0
3985	0	0	0
3986	0	0	0
3987	0	0	0
3988	0	0	0
3989	0	0	0
3990	0	0	0
3991	0	0	0
3992	0	0	0
3993	0	0	0
3994	0	0	0
3995	0	0	0
3996	0	0	0
3997	0	0	0
3998	0	0	0
3999	0	0	0
4000	0	0	0
4001	0	0	0
4002	0	0	0
4003	0	0	0
4004	0	0	0
4005	0	0	0
4006	0	0	0
4007	0	0	0
4008	249	220	239
4009	254	222	241
4010	251	209	235
4011	242	193	229
4012	238	187	228
4013	235	182	228
4014	241	185	232
4015	243	187	230
4016	242	182	228
4017	243	180	232
4018	238	170	229
4019	228	155	222
4020	237	170	232
4021	240	179	234
4022	241	187	235
4023	247	197	240
4024	246	193	236
4025	236	181	225
4026	231	182	221
4027	0	0	0
4028	0	0	0
4029	0	0	0
4030	0	0	0
4031	0	0	0
4032	0	0	0
4033	0	0	0
4034	0	0	0
4035	0	0	0
4036	0	0	0
4037	0	0	0
4038	0	0	0
4039	0	0	0
4040	0	0	0
4041	0	0	0
4042	0	0	0
4043	0	0	0
4044	0	0	0
4045	0	0	0
4046	0	0	0
4047	0	0	0
4048	0	0	0
4049	0	0	0
4050	0	0	0
4051	0	0	0
4052	0	0	0
4053	0	0	0
4054	0	0	0
4055	0	0	0
4056	0	0	0
4057	0	0	0
4058	0	0	0
4059	0	0	0
4060	0	0	0
4061	0	0	0
4062	0	0	0
4063	0	0	0
4064	0	0	0
4065	0	0	0
4066	0	0	0
4067	0	0	0
4068	0	0	0
4069	0	0	0
4070	0	0	0
4071	0	0	0
4072	0	0	0
4073	0	0	0
4074	0	0	0
4075	0	0	0
4076	0	0	0
4077	0	0	0
4078	0	0	0
4079	0	0	0
4080	0	0	0
4081	0	0	0
4082	0	0	0
4083	0	0	0
4084	0	0	0
4085	0	0	0
4086	0	0	0
4087	0	0	0
4088	0	0	0
4089	0	0	0
4090	0	0	0
4091	0	0	0
4092	0	0	0
4093	0	0	0
4094	0	0	0
4095	0	0	0
4096	0	0	0
4097	0	0	0
4098	0	0	0
4099	252	222	239
4100	254	219	238
4101	249	205	232
4102	242	194	229
4103	234	187	228
4104	239	193	234
4105	245	197	238
4106	239	183	229
4107	242	181	230
4108	239	175	229
4109	229	162	222
4110	228	161	225
4111	238	176	235
4112	240	181	233
4113	246	191	236
4114	244	191	233
4115	235	182	224
4116	233	187	225
4117	0	0	0
4118	0	0	0
4119	0	0	0
4120	0	0	0
4121	0	0	0
4122	0	0	0
4123	0	0	0
4124	0	0	0
4125	0	0	0
4126	0	0	0
4127	0	0	0
4128	0	0	0
4129	0	0	0
4130	0	0	0
4131	0	0	0
4132	0	0	0
4133	0	0	0
4134	0	0	0
4135	0	0	0
4136	0	0	0
4137	0	0	0
4138	0	0	0
4139	0	0	0
4140	0	0	0
4141	0	0	0
4142	0	0	0
4143	0	0	0
4144	0	0	0
4145	0	0	0
4146	0	0	0
4147	0	0	0
4148	0	0	0
4149	0	0	0
4150	0	0	0
4151	0	0	0
4152	0	0	0
4153	0	0	0
4154	0	0	0
4155	0	0	0
4156	0	0	0
4157	0	0	0
4158	0	0	0
4159	0	0	0
4160	0	0	0
4161	0	0	0
4162	0	0	0
4163	0	0	0
4164	0	0	0
4165	0	0	0
4166	0	0	0
4167	0	0	0
4168	0	0	0
4169	0	0	0
4170	0	0	0
4171	0	0	0
4172	0	0	0
4173	0	0	0
4174	0	0	0
4175	0	0	0
4176	0	0	0
4177	0	0	0
4178	0	0	0
4179	0	0	0
4180	0	0	0
4181	0	0	0
4182	0	0	0
4183	0	0	0
4184	0	0	0
4185	0	0	0
4186	0	0	0
4187	0	0	0
4188	251	229	240
4189	251	223	238
4190	253	220	237
4191	254	217	235
4192	251	207	231
4193	244	196	229
4194	241	198	233
4195	244	203	237
4196	239	191	232
4197	236	179	229
4198	241	178	233
4199	237	171	229
4200	233	170	229
4201	230	168	229
4202	236	178	234
4203	238	182	231
4204	240	185	230
4205	239	185	228
4206	241	193	230
4207	238	198	229
4208	0	0	0
4209	0	0	0
4210	0	0	0
4211	0	0	0
4212	0	0	0
4213	0	0	0
4214	0	0	0
4215	0	0	0
4216	0	0	0
4217	0	0	0
4218	0	0	0
4219	0	0	0
4220	0	0	0
4221	0	0	0
4222	0	0	0
4223	0	0	0
4224	0	0	0
4225	0	0	0
4226	0	0	0
4227	0	0	0
4228	0	0	0
4229	0	0	0
4230	0	0	0
4231	0	0	0
4232	0	0	0
4233	0	0	0
4234	0	0	0
4235	0	0	0
4236	0	0	0
4237	0	0	0
4238	0	0	0
4239	0	0	0
4240	0	0	0
4241	0	0	0
4242	0	0	0
4243	0	0	0
4244	0	0	0
4245	0	0	0
4246	0	0	0
4247	0	0	0
4248	0	0	0
4249	0	0	0
4250	0	0	0
4251	0	0	0
4252	0	0	0
4253	0	0	0
4254	0	0	0
4255	0	0	0
4256	0	0	0
4257	0	0	0
4258	0	0	0
4259	0	0	0
4260	0	0	0
4261	0	0	0
4262	0	0	0
4263	0	0	0
4264	0	0	0
4265	0	0	0
4266	0	0	0
4267	0	0	0
4268	0	0	0
4269	0	0	0
4270	0	0	0
4271	0	0	0
4272	0	0	0
4273	0	0	0
4274	0	0	0
4275	0	0	0
4276	0	0	0
4277	0	0	0
4278	253	239	244
4279	255	235	244
4280	248	215	234
4281	249	212	233
4282	252	212	232
4283	248	201	227
4284	246	198	229
4285	245	201	233
4286	246	203	234
4287	240	190	229
4288	239	183	232
4289	245	183	237
4290	239	174	231
4291	235	173	230
4292	232	173	231
4293	233	180	234
4294	227	174	225
4295	230	177	224
4296	235	184	226
4297	242	194	231
4298	238	196	227
4299	0	0	0
4300	0	0	0
4301	0	0	0
4302	0	0	0
4303	0	0	0
4304	0	0	0
4305	0	0	0
4306	0	0	0
4307	0	0	0
4308	0	0	0
4309	0	0	0
4310	0	0	0
4311	0	0	0
4312	0	0	0
4313	0	0	0
4314	0	0	0
4315	0	0	0
4316	0	0	0
4317	0	0	0
4318	0	0	0
4319	0	0	0
4320	0	0	0
4321	0	0	0
4322	0	0	0
4323	0	0	0
4324	0	0	0
4325	0	0	0
4326	0	0	0
4327	0	0	0
4328	0	0	0
4329	0	0	0
4330	0	0	0
4331	0	0	0
4332	0	0	0
4333	0	0	0
4334	0	0	0
4335	0	0	0
4336	0	0	0
4337	0	0	0
4338	0	0	0
4339	0	0	0
4340	0	0	0
4341	0	0	0
4342	0	0	0
4343	0	0	0
4344	0	0	0
4345	0	0	0
4346	0	0	0
4347	0	0	0
4348	0	0	0
4349	0	0	0
4350	0	0	0
4351	0	0	0
4352	0	0	0
4353	0	0	0
4354	0	0	0
4355	0	0	0
4356	0	0	0
4357	0	0	0
4358	0	0	0
4359	0	0	0
4360	0	0	0
4361	0	0	0
4362	0	0	0
4363	0	0	0
4364	0	0	0
4365	0	0	0
4366	0	0	0
4367	0	0	0
4368	0	0	0
4369	0	0	0
4370	247	222	235
4371	238	203	225
4372	245	206	230
4373	249	207	233
4374	251	206	234
4375	248	201	231
4376	245	201	231
4377	246	203	231
4378	241	192	227
4379	240	185	231
4380	244	184	235
4381	237	174	228
4382	236	177	230
4383	232	177	231
4384	226	174	228
4385	222	169	223
4386	230	179	228
4387	235	185	229
4388	239	192	231
4389	237	194	229
4390	0	0	0
4391	0	0	0
4392	0	0	0
4393	0	0	0
4394	0	0	0
4395	0	0	0
4396	0	0	0
4397	0	0	0
4398	0	0	0
4399	0	0	0
4400	0	0	0
4401	0	0	0
4402	0	0	0
4403	0	0	0
4404	0	0	0
4405	0	0	0
4406	0	0	0
4407	0	0	0
4408	0	0	0
4409	0	0	0
4410	0	0	0
4411	0	0	0
4412	0	0	0
4413	0	0	0
4414	0	0	0
4415	0	0	0
4416	0	0	0
4417	0	0	0
4418	0	0	0
4419	0	0	0
4420	0	0	0
4421	0	0	0
4422	0	0	0
4423	0	0	0
4424	0	0	0
4425	0	0	0
4426	0	0	0
4427	0	0	0
4428	0	0	0
4429	0	0	0
4430	0	0	0
4431	0	0	0
4432	0	0	0
4433	0	0	0
4434	0	0	0
4435	0	0	0
4436	0	0	0
4437	0	0	0
4438	0	0	0
4439	0	0	0
4440	0	0	0
4441	0	0	0
4442	0	0	0
4443	0	0	0
4444	0	0	0
4445	0	0	0
4446	0	0	0
4447	0	0	0
4448	0	0	0
4449	0	0	0
4450	0	0	0
4451	0	0	0
4452	0	0	0
4453	0	0	0
4454	0	0	0
4455	0	0	0
4456	0	0	0
4457	0	0	0
4458	0	0	0
4459	0	0	0
4460	0	0	0
4461	0	0	0
4462	241	215	232
4463	253	221	241
4464	249	209	235
4465	251	207	235
4466	249	202	232
4467	247	203	232
4468	245	200	230
4469	238	188	225
4470	239	186	231
4471	241	184	233
4472	232	172	225
4473	231	175	228
4474	227	173	228
4475	224	171	227
4476	232	182	233
4477	242	192	239
4478	239	190	233
4479	239	194	232
4480	238	198	232
4481	0	0	0
4482	0	0	0
4483	0	0	0
4484	0	0	0
4485	0	0	0
4486	0	0	0
4487	0	0	0
4488	0	0	0
4489	0	0	0
4490	0	0	0
4491	0	0	0
4492	0	0	0
4493	0	0	0
4494	0	0	0
4495	0	0	0
4496	0	0	0
4497	0	0	0
4498	0	0	0
4499	0	0	0
4500	0	0	0
4501	0	0	0
4502	0	0	0
4503	0	0	0
4504	0	0	0
4505	0	0	0
4506	0	0	0
4507	0	0	0
4508	0	0	0
4509	0	0	0
4510	0	0	0
4511	0	0	0
4512	0	0	0
4513	0	0	0
4514	0	0	0
4515	0	0	0
4516	0	0	0
4517	0	0	0
4518	0	0	0
4519	0	0	0
4520	0	0	0
4521	0	0	0
4522	0	0	0
4523	0	0	0
4524	0	0	0
4525	0	0	0
4526	0	0	0
4527	0	0	0
4528	0	0	0
4529	0	0	0
4530	0	0	0
4531	0	0	0
4532	0	0	0
4533	0	0	0
4534	0	0	0
4535	0	0	0
4536	0	0	0
4537	0	0	0
4538	0	0	0
4539	0	0	0
4540	0	0	0
4541	0	0	0
4542	0	0	0
4543	0	0	0
4544	0	0	0
4545	0	0	0
4546	0	0	0
4547	0	0	0
4548	0	0	0
4549	0	0	0
4550	0	0	0
4551	0	0	0
4552	0	0	0
4553	248	228	241
4554	249	219	238
4555	244	206	231
4556	247	205	232
4557	245	201	230
4558	244	199	231
4559	243	197	233
4560	241	193	233
4561	239	189	233
4562	236	182	231
4563	228	171	226
4564	228	173	229
4565	225	171	229
4566	231	181	235
4567	239	191	239
4568	243	194	239
4569	240	191	232
4570	240	198	233
4571	238	202	231
4572	0	0	0
4573	0	0	0
4574	0	0	0
4575	0	0	0
4576	0	0	0
4577	0	0	0
4578	0	0	0
4579	0	0	0
4580	0	0	0
4581	0	0	0
4582	0	0	0
4583	0	0	0
4584	0	0	0
4585	0	0	0
4586	0	0	0
4587	0	0	0
4588	0	0	0
4589	0	0	0
4590	0	0	0
4591	0	0	0
4592	0	0	0
4593	0	0	0
4594	0	0	0
4595	0	0	0
4596	0	0	0
4597	0	0	0
4598	0	0	0
4599	0	0	0
4600	0	0	0
4601	0	0	0
4602	0	0	0
4603	0	0	0
4604	0	0	0
4605	0	0	0
4606	0	0	0
4607	0	0	0
4608	0	0	0
4609	0	0	0
4610	0	0	0
4611	0	0	0
4612	0	0	0
4613	0	0	0
4614	0	0	0
4615	0	0	0
4616	0	0	0
4617	0	0	0
4618	0	0	0
4619	0	0	0
4620	0	0	0
4621	0	0	0
4622	0	0	0
4623	0	0	0
4624	0	0	0
4625	0	0	0
4626	0	0	0
4627	0	0	0
4628	0	0	0
4629	0	0	0
4630	0	0	0
4631	0	0	0
4632	0	0	0
4633	0	0	0
4634	0	0	0
4635	0	0	0
4636	0	0	0
4637	0	0	0
4638	0	0	0
4639	0	0	0
4640	0	0	0
4641	0	0	0
4642	0	0	0
4643	0	0	0
4644	247	227	239
4645	244	216	234
4646	243	208	231
4647	245	207	232
4648	244	205	232
4649	244	203	234
4650	239	194	232
4651	237	190	232
4652	233	184	229
4653	227	175	225
4654	228	176	229
4655	233	180	235
4656	234	181	236
4657	238	190	240
4658	242	196	240
4659	245	198	239
4660	240	192	232
4661	241	200	233
4662	242	207	232
4663	0	0	0
4664	0	0	0
4665	0	0	0
4666	0	0	0
4667	0	0	0
4668	0	0	0
4669	0	0	0
4670	0	0	0
4671	0	0	0
4672	0	0	0
4673	0	0	0
4674	0	0	0
4675	0	0	0
4676	0	0	0
4677	0	0	0
4678	0	0	0
4679	0	0	0
4680	0	0	0
4681	0	0	0
4682	0	0	0
4683	0	0	0
4684	0	0	0
4685	0	0	0
4686	0	0	0
4687	0	0	0
4688	0	0	0
4689	0	0	0
4690	0	0	0
4691	0	0	0
4692	0	0	0
4693	0	0	0
4694	0	0	0
4695	0	0	0
4696	0	0	0
4697	0	0	0
4698	0	0	0
4699	0	0	0
4700	0	0	0
4701	0	0	0
4702	0	0	0
4703	0	0	0
4704	0	0	0
4705	0	0	0
4706	0	0	0
4707	0	0	0
4708	0	0	0
4709	0	0	0
4710	0	0	0
4711	0	0	0
4712	0	0	0
4713	0	0	0
4714	0	0	0
4715	0	0	0
4716	0	0	0
4717	0	0	0
4718	0	0	0
4719	0	0	0
4720	0	0	0
4721	0	0	0
4722	0	0	0
4723	0	0	0
4724	0	0	0
4725	0	0	0
4726	0	0	0
4727	0	0	0
4728	0	0	0
4729	0	0	0
4730	0	0	0
4731	0	0	0
4732	0	0	0
4733	0	0	0
4734	0	0	0
4735	248	227	237
4736	249	221	237
4737	246	213	234
4738	247	212	236
4739	247	210	236
4740	242	200	231
4741	237	191	227
4742	238	189	229
4743	234	183	229
4744	234	184	233
4745	235	185	235
4746	242	191	241
4747	242	191	240
4748	244	197	241
4749	246	202	240
4750	244	198	235
4751	238	193	230
4752	241	202	232
4753	0	0	0
4754	0	0	0
4755	0	0	0
4756	0	0	0
4757	0	0	0
4758	0	0	0
4759	0	0	0
4760	0	0	0
4761	0	0	0
4762	0	0	0
4763	0	0	0
4764	0	0	0
4765	0	0	0
4766	0	0	0
4767	0	0	0
4768	0	0	0
4769	0	0	0
4770	0	0	0
4771	0	0	0
4772	0	0	0
4773	0	0	0
4774	0	0	0
4775	0	0	0
4776	0	0	0
4777	0	0	0
4778	0	0	0
4779	0	0	0
4780	0	0	0
4781	0	0	0
4782	0	0	0
4783	0	0	0
4784	0	0	0
4785	0	0	0
4786	0	0	0
4787	0	0	0
4788	0	0	0
4789	0	0	0
4790	0	0	0
4791	0	0	0
4792	0	0	0
4793	0	0	0
4794	0	0	0
4795	0	0	0
4796	0	0	0
4797	0	0	0
4798	0	0	0
4799	0	0	0
4800	0	0	0
4801	0	0	0
4802	0	0	0
4803	0	0	0
4804	0	0	0
4805	0	0	0
4806	0	0	0
4807	0	0	0
4808	0	0	0
4809	0	0	0
4810	0	0	0
4811	0	0	0
4812	0	0	0
4813	0	0	0
4814	0	0	0
4815	0	0	0
4816	0	0	0
4817	0	0	0
4818	0	0	0
4819	0	0	0
4820	0	0	0
4821	0	0	0
4822	0	0	0
4823	0	0	0
4824	0	0	0
4825	0	0	0
4826	253	230	238
4827	254	225	239
4828	247	211	233
4829	245	208	233
4830	248	210	236
4831	243	201	232
4832	243	195	230
4833	246	194	233
4834	242	186	232
4835	242	187	236
4836	239	184	235
4837	242	188	239
4838	239	186	235
4839	241	191	236
4840	240	193	233
4841	233	187	226
4842	236	196	229
4843	0	0	0
4844	0	0	0
4845	0	0	0
4846	0	0	0
4847	0	0	0
4848	0	0	0
4849	0	0	0
4850	0	0	0
4851	0	0	0
4852	0	0	0
4853	0	0	0
4854	0	0	0
4855	0	0	0
4856	0	0	0
4857	0	0	0
4858	0	0	0
4859	0	0	0
4860	0	0	0
4861	0	0	0
4862	0	0	0
4863	0	0	0
4864	0	0	0
4865	0	0	0
4866	0	0	0
4867	0	0	0
4868	0	0	0
4869	0	0	0
4870	0	0	0
4871	0	0	0
4872	0	0	0
4873	0	0	0
4874	0	0	0
4875	0	0	0
4876	0	0	0
4877	0	0	0
4878	0	0	0
4879	0	0	0
4880	0	0	0
4881	0	0	0
4882	0	0	0
4883	0	0	0
4884	0	0	0
4885	0	0	0
4886	0	0	0
4887	0	0	0
4888	0	0	0
4889	0	0	0
4890	0	0	0
4891	0	0	0
4892	0	0	0
4893	0	0	0
4894	0	0	0
4895	0	0	0
4896	0	0	0
4897	0	0	0
4898	0	0	0
4899	0	0	0
4900	0	0	0
4901	0	0	0
4902	0	0	0
4903	0	0	0
4904	0	0	0
4905	0	0	0
4906	0	0	0
4907	0	0	0
4908	0	0	0
4909	0	0	0
4910	0	0	0
4911	0	0	0
4912	0	0	0
4913	0	0	0
4914	0	0	0
4915	0	0	0
4916	0	0	0
4917	0	0	0
4918	248	218	233
4919	241	204	228
4920	243	206	232
4921	246	208	237
4922	244	201	234
4923	244	196	231
4924	246	192	232
4925	242	184	230
4926	246	187	236
4927	243	184	236
4928	241	185	237
4929	237	182	234
4930	239	186	235
4931	238	188	232
4932	240	197	234
4933	242	204	235
4934	0	0	0
4935	0	0	0
4936	0	0	0
4937	0	0	0
4938	0	0	0
4939	0	0	0
4940	0	0	0
4941	0	0	0
4942	0	0	0
4943	0	0	0
4944	0	0	0
4945	0	0	0
4946	0	0	0
4947	0	0	0
4948	0	0	0
4949	0	0	0
4950	0	0	0
4951	0	0	0
4952	0	0	0
4953	0	0	0
4954	0	0	0
4955	0	0	0
4956	0	0	0
4957	0	0	0
4958	0	0	0
4959	0	0	0
4960	0	0	0
4961	0	0	0
4962	0	0	0
4963	0	0	0
4964	0	0	0
4965	0	0	0
4966	0	0	0
4967	0	0	0
4968	0	0	0
4969	0	0	0
4970	0	0	0
4971	0	0	0
4972	0	0	0
4973	0	0	0
4974	0	0	0
4975	0	0	0
4976	0	0	0
4977	0	0	0
4978	0	0	0
4979	0	0	0
4980	0	0	0
4981	0	0	0
4982	0	0	0
4983	0	0	0
4984	0	0	0
4985	0	0	0
4986	0	0	0
4987	0	0	0
4988	0	0	0
4989	0	0	0
4990	0	0	0
4991	0	0	0
4992	0	0	0
4993	0	0	0
4994	0	0	0
4995	0	0	0
4996	0	0	0
4997	0	0	0
4998	0	0	0
4999	0	0	0
5000	0	0	0
5001	0	0	0
5002	0	0	0
5003	0	0	0
5004	0	0	0
5005	0	0	0
5006	0	0	0
5007	0	0	0
5008	0	0	0
5009	0	0	0
5010	244	214	234
5011	248	216	239
5012	248	213	240
5013	246	206	237
5014	244	200	234
5015	243	195	234
5016	237	180	228
5017	247	187	237
5018	242	180	234
5019	236	178	233
5020	235	181	234
5021	239	186	236
5022	242	193	236
5023	247	202	239
5024	243	204	235
5025	0	0	0
5026	0	0	0
5027	0	0	0
5028	0	0	0
5029	0	0	0
5030	0	0	0
5031	0	0	0
5032	0	0	0
5033	0	0	0
5034	0	0	0
5035	0	0	0
5036	0	0	0
5037	0	0	0
5038	0	0	0
5039	0	0	0
5040	0	0	0
5041	0	0	0
5042	0	0	0
5043	0	0	0
5044	0	0	0
5045	0	0	0
5046	0	0	0
5047	0	0	0
5048	0	0	0
5049	0	0	0
5050	0	0	0
5051	0	0	0
5052	0	0	0
5053	0	0	0
5054	0	0	0
5055	0	0	0
5056	0	0	0
5057	0	0	0
5058	0	0	0
5059	0	0	0
5060	0	0	0
5061	0	0	0
5062	0	0	0
5063	0	0	0
5064	0	0	0
5065	0	0	0
5066	0	0	0
5067	0	0	0
5068	0	0	0
5069	0	0	0
5070	0	0	0
5071	0	0	0
5072	0	0	0
5073	0	0	0
5074	0	0	0
5075	0	0	0
5076	0	0	0
5077	0	0	0
5078	0	0	0
5079	0	0	0
5080	0	0	0
5081	0	0	0
5082	0	0	0
5083	0	0	0
5084	0	0	0
5085	0	0	0
5086	0	0	0
5087	0	0	0
5088	0	0	0
5089	0	0	0
5090	0	0	0
5091	0	0	0
5092	0	0	0
5093	0	0	0
5094	0	0	0
5095	0	0	0
5096	0	0	0
5097	0	0	0
5098	0	0	0
5099	0	0	0
5100	0	0	0
5101	0	0	0
5102	248	220	239
5103	247	215	238
5104	243	208	235
5105	242	202	234
5106	235	189	230
5107	230	175	227
5108	240	179	235
5109	235	172	229
5110	232	176	231
5111	231	178	232
5112	237	187	235
5113	240	193	234
5114	243	198	234
5115	0	0	0
5116	0	0	0
5117	0	0	0
5118	0	0	0
5119	0	0	0
5120	0	0	0
5121	0	0	0
5122	0	0	0
5123	0	0	0
5124	0	0	0
5125	0	0	0
5126	0	0	0
5127	0	0	0
5128	0	0	0
5129	0	0	0
5130	0	0	0
5131	0	0	0
5132	0	0	0
5133	0	0	0
5134	0	0	0
5135	0	0	0
5136	0	0	0
5137	0	0	0
5138	0	0	0
5139	0	0	0
5140	0	0	0
5141	0	0	0
5142	0	0	0
5143	0	0	0
5144	0	0	0
5145	0	0	0
5146	0	0	0
5147	0	0	0
5148	0	0	0
5149	0	0	0
5150	0	0	0
5151	0	0	0
5152	0	0	0
5153	0	0	0
5154	0	0	0
5155	0	0	0
5156	0	0	0
5157	0	0	0
5158	0	0	0
5159	0	0	0
5160	0	0	0
5161	0	0	0
5162	0	0	0
5163	0	0	0
5164	0	0	0
5165	0	0	0
5166	0	0	0
5167	0	0	0
5168	0	0	0
5169	0	0	0
5170	0	0	0
5171	0	0	0
5172	0	0	0
5173	0	0	0
5174	0	0	0
5175	0	0	0
5176	0	0	0
5177	0	0	0
5178	0	0	0
5179	0	0	0
5180	0	0	0
5181	0	0	0
5182	0	0	0
5183	0	0	0
5184	0	0	0
5185	0	0	0
5186	0	0	0
5187	0	0	0
5188	0	0	0
5189	0	0	0
5190	0	0	0
5191	0	0	0
5192	0	0	0
5193	0	0	0
5194	245	219	237
5195	239	210	233
5196	236	201	232
5197	233	190	230
5198	236	187	236
5199	244	190	242
5200	233	174	231
5201	232	179	233
5202	230	182	233
5203	234	189	234
5204	243	203	238
5205	247	210	238
5206	0	0	0
5207	0	0	0
5208	0	0	0
5209	0	0	0
5210	0	0	0
5211	0	0	0
5212	0	0	0
5213	0	0	0
5214	0	0	0
5215	0	0	0
5216	0	0	0
5217	0	0	0
5218	0	0	0
5219	0	0	0
5220	0	0	0
5221	0	0	0
5222	0	0	0
5223	0	0	0
5224	0	0	0
5225	0	0	0
5226	0	0	0
5227	0	0	0
5228	0	0	0
5229	0	0	0
5230	0	0	0
5231	0	0	0
5232	0	0	0
5233	0	0	0
5234	0	0	0
5235	0	0	0
5236	0	0	0
5237	0	0	0
5238	0	0	0
5239	0	0	0
5240	0	0	0
5241	0	0	0
5242	0	0	0
5243	0	0	0
5244	0	0	0
5245	0	0	0
5246	0	0	0
5247	0	0	0
5248	0	0	0
5249	0	0	0
5250	0	0	0
5251	0	0	0
5252	0	0	0
5253	0	0	0
5254	0	0	0
5255	0	0	0
5256	0	0	0
5257	0	0	0
5258	0	0	0
5259	0	0	0
5260	0	0	0
5261	0	0	0
5262	0	0	0
5263	0	0	0
5264	0	0	0
5265	0	0	0
5266	0	0	0
5267	0	0	0
5268	0	0	0
5269	0	0	0
5270	0	0	0
5271	0	0	0
5272	0	0	0
5273	0	0	0
5274	0	0	0
5275	0	0	0
5276	0	0	0
5277	0	0	0
5278	0	0	0
5279	0	0	0
5280	0	0	0
5281	0	0	0
5282	0	0	0
5283	0	0	0
5284	246	223	238
5285	251	227	242
5286	242	214	235
5287	238	204	234
5288	239	201	237
5289	242	198	241
5290	240	189	239
5291	230	174	231
5292	232	182	236
5293	231	185	233
5294	241	201	239
5295	248	215	242
5296	248	217	238
5297	0	0	0
5298	0	0	0
5299	0	0	0
5300	0	0	0
5301	0	0	0
5302	0	0	0
5303	0	0	0
5304	0	0	0
5305	0	0	0
5306	0	0	0
5307	0	0	0
5308	0	0	0
5309	0	0	0
5310	0	0	0
5311	0	0	0
5312	0	0	0
5313	0	0	0
5314	0	0	0
5315	0	0	0
5316	0	0	0
5317	0	0	0
5318	0	0	0
5319	0	0	0
5320	0	0	0
5321	0	0	0
5322	0	0	0
5323	0	0	0
5324	0	0	0
5325	0	0	0
5326	0	0	0
5327	0	0	0
5328	0	0	0
5329	0	0	0
5330	0	0	0
5331	0	0	0
5332	0	0	0
5333	0	0	0
5334	0	0	0
5335	0	0	0
5336	0	0	0
5337	0	0	0
5338	0	0	0
5339	0	0	0
5340	0	0	0
5341	0	0	0
5342	0	0	0
5343	0	0	0
5344	0	0	0
5345	0	0	0
5346	0	0	0
5347	0	0	0
5348	0	0	0
5349	0	0	0
5350	0	0	0
5351	0	0	0
5352	0	0	0
5353	0	0	0
5354	0	0	0
5355	0	0	0
5356	0	0	0
5357	0	0	0
5358	0	0	0
5359	0	0	0
5360	0	0	0
5361	0	0	0
5362	0	0	0
5363	0	0	0
5364	0	0	0
5365	0	0	0
5366	0	0	0
5367	0	0	0
5368	0	0	0
5369	0	0	0
5370	0	0	0
5371	0	0	0
5372	0	0	0
5373	0	0	0
5374	243	225	238
5375	253	230	243
5376	250	221	239
5377	244	208	233
5378	245	207	236
5379	241	201	236
5380	242	199	239
5381	239	190	237
5382	236	185	237
5383	240	193	241
5384	240	198	238
5385	251	215	245
5386	249	216	239
5387	0	0	0
5388	0	0	0
5389	0	0	0
5390	0	0	0
5391	0	0	0
5392	0	0	0
5393	0	0	0
5394	0	0	0
5395	0	0	0
5396	0	0	0
5397	0	0	0
5398	0	0	0
5399	0	0	0
5400	0	0	0
5401	0	0	0
5402	0	0	0
5403	0	0	0
5404	0	0	0
5405	0	0	0
5406	0	0	0
5407	0	0	0
5408	0	0	0
5409	0	0	0
5410	0	0	0
5411	0	0	0
5412	0	0	0
5413	0	0	0
5414	0	0	0
5415	0	0	0
5416	0	0	0
5417	0	0	0
5418	0	0	0
5419	0	0	0
5420	0	0	0
5421	0	0	0
5422	0	0	0
5423	0	0	0
5424	0	0	0
5425	0	0	0
5426	0	0	0
5427	0	0	0
5428	0	0	0
5429	0	0	0
5430	0	0	0
5431	0	0	0
5432	0	0	0
5433	0	0	0
5434	0	0	0
5435	0	0	0
5436	0	0	0
5437	0	0	0
5438	0	0	0
5439	0	0	0
5440	0	0	0
5441	0	0	0
5442	0	0	0
5443	0	0	0
5444	0	0	0
5445	0	0	0
5446	0	0	0
5447	0	0	0
5448	0	0	0
5449	0	0	0
5450	0	0	0
5451	0	0	0
5452	0	0	0
5453	0	0	0
5454	0	0	0
5455	0	0	0
5456	0	0	0
5457	0	0	0
5458	0	0	0
5459	0	0	0
5460	0	0	0
5461	0	0	0
5462	0	0	0
5463	0	0	0
5464	0	0	0
5465	0	0	0
5466	244	219	235
5467	242	210	232
5468	245	209	235
5469	246	207	237
5470	242	203	237
5471	241	200	237
5472	243	200	241
5473	240	195	240
5474	244	203	243
5475	245	207	238
5476	251	214	239
5477	250	217	237
5478	0	0	0
5479	0	0	0
5480	0	0	0
5481	0	0	0
5482	0	0	0
5483	0	0	0
5484	0	0	0
5485	0	0	0
5486	0	0	0
5487	0	0	0
5488	0	0	0
5489	0	0	0
5490	0	0	0
5491	0	0	0
5492	0	0	0
5493	0	0	0
5494	0	0	0
5495	0	0	0
5496	0	0	0
5497	0	0	0
5498	0	0	0
5499	0	0	0
5500	0	0	0
5501	0	0	0
5502	0	0	0
5503	0	0	0
5504	0	0	0
5505	0	0	0
5506	0	0	0
5507	0	0	0
5508	0	0	0
5509	0	0	0
5510	0	0	0
5511	0	0	0
5512	0	0	0
5513	0	0	0
5514	0	0	0
5515	0	0	0
5516	0	0	0
5517	0	0	0
5518	0	0	0
5519	0	0	0
5520	0	0	0
5521	0	0	0
5522	0	0	0
5523	0	0	0
5524	0	0	0
5525	0	0	0
5526	0	0	0
5527	0	0	0
5528	0	0	0
5529	0	0	0
5530	0	0	0
5531	0	0	0
5532	0	0	0
5533	0	0	0
5534	0	0	0
5535	0	0	0
5536	0	0	0
5537	0	0	0
5538	0	0	0
5539	0	0	0
5540	0	0	0
5541	0	0	0
5542	0	0	0
5543	0	0	0
5544	0	0	0
5545	0	0	0
5546	0	0	0
5547	0	0	0
5548	0	0	0
5549	0	0	0
5550	0	0	0
5551	0	0	0
5552	0	0	0
5553	0	0	0
5554	0	0	0
5555	0	0	0
5556	0	0	0
5557	0	0	0
5558	0	0	0
5559	249	219	242
5560	244	209	237
5561	240	205	236
5562	233	195	232
5563	235	194	234
5564	235	194	236
5565	0	0	0
5566	247	214	238
5567	255	222	240
5568	249	215	234
5569	0	0	0
5570	0	0	0
5571	0	0	0
5572	0	0	0
5573	0	0	0
5574	0	0	0
5575	0	0	0
5576	0	0	0
5577	0	0	0
5578	0	0	0
5579	0	0	0
5580	0	0	0
5581	0	0	0
5582	0	0	0
5583	0	0	0
5584	0	0	0
5585	0	0	0
5586	0	0	0
5587	0	0	0
5588	0	0	0
5589	0	0	0
5590	0	0	0
5591	0	0	0
5592	0	0	0
5593	0	0	0
5594	0	0	0
5595	0	0	0
5596	0	0	0
5597	0	0	0
5598	0	0	0
5599	0	0	0
5600	0	0	0
5601	0	0	0
5602	0	0	0
5603	0	0	0
5604	0	0	0
5605	0	0	0
5606	0	0	0
5607	0	0	0
5608	0	0	0
5609	0	0	0
5610	0	0	0
5611	0	0	0
5612	0	0	0
5613	0	0	0
5614	0	0	0
5615	0	0	0
5616	0	0	0
5617	0	0	0
5618	0	0	0
5619	0	0	0
5620	0	0	0
5621	0	0	0
5622	0	0	0
5623	0	0	0
5624	0	0	0
5625	0	0	0
5626	0	0	0
5627	0	0	0
5628	0	0	0
5629	0	0	0
5630	0	0	0
5631	0	0	0
5632	0	0	0
5633	0	0	0
5634	0	0	0
5635	0	0	0
5636	0	0	0
5637	0	0	0
5638	0	0	0
5639	0	0	0
5640	0	0	0
5641	0	0	0
5642	0	0	0
5643	0	0	0
5644	0	0	0
5645	0	0	0
5646	0	0	0
5647	0	0	0
5648	0	0	0
5649	0	0	0
5650	0	0	0
5651	244	212	237
5652	237	203	234
5653	230	193	230
5654	234	197	236
5655	0	0	0
5656	0	0	0
5657	0	0	0
5658	248	216	233
5659	0	0	0
5660	0	0	0
5661	0	0	0
5662	0	0	0
5663	0	0	0
5664	0	0	0
5665	0	0	0
5666	0	0	0
5667	0	0	0
5668	0	0	0
5669	0	0	0
5670	0	0	0
5671	0	0	0
5672	0	0	0
5673	0	0	0
5674	0	0	0
5675	0	0	0
5676	0	0	0
5677	0	0	0
5678	0	0	0
5679	0	0	0
5680	0	0	0
5681	0	0	0
5682	0	0	0
5683	0	0	0
5684	0	0	0
5685	0	0	0
5686	0	0	0
5687	0	0	0
5688	0	0	0
5689	0	0	0
5690	0	0	0
5691	0	0	0
5692	0	0	0
5693	0	0	0
5694	0	0	0
5695	0	0	0
5696	0	0	0
5697	0	0	0
5698	0	0	0
5699	0	0	0
5700	0	0	0
5701	0	0	0
5702	0	0	0
5703	0	0	0
5704	0	0	0
5705	0	0	0
5706	0	0	0
5707	0	0	0
5708	0	0	0
5709	0	0	0
5710	0	0	0
5711	0	0	0
5712	0	0	0
5713	0	0	0
5714	0	0	0
5715	0	0	0
5716	0	0	0
5717	0	0	0
5718	0	0	0
5719	0	0	0
5720	0	0	0
5721	0	0	0
5722	0	0	0
5723	0	0	0
5724	0	0	0
5725	0	0	0
5726	0	0	0
5727	0	0	0
5728	0	0	0
5729	0	0	0
5730	0	0	0
5731	0	0	0
5732	0	0	0
5733	0	0	0
