 	R	G	B
1	0	0	0
2	0	0	0
3	0	0	0
4	251	214	221
5	0	0	0
6	0	0	0
7	0	0	0
8	0	0	0
9	0	0	0
10	0	0	0
11	0	0	0
12	0	0	0
13	0	0	0
14	0	0	0
15	0	0	0
16	0	0	0
17	0	0	0
18	0	0	0
19	0	0	0
20	0	0	0
21	0	0	0
22	0	0	0
23	0	0	0
24	0	0	0
25	0	0	0
26	0	0	0
27	0	0	0
28	0	0	0
29	0	0	0
30	0	0	0
31	0	0	0
32	242	213	225
33	235	196	214
34	255	216	227
35	251	209	215
36	0	0	0
37	0	0	0
38	0	0	0
39	0	0	0
40	0	0	0
41	0	0	0
42	0	0	0
43	0	0	0
44	0	0	0
45	0	0	0
46	0	0	0
47	0	0	0
48	0	0	0
49	0	0	0
50	0	0	0
51	0	0	0
52	0	0	0
53	0	0	0
54	0	0	0
55	0	0	0
56	0	0	0
57	0	0	0
58	0	0	0
59	0	0	0
60	0	0	0
61	234	212	223
62	236	204	222
63	231	189	212
64	246	199	218
65	242	192	205
66	251	206	210
67	0	0	0
68	0	0	0
69	0	0	0
70	0	0	0
71	0	0	0
72	0	0	0
73	0	0	0
74	0	0	0
75	0	0	0
76	0	0	0
77	0	0	0
78	0	0	0
79	0	0	0
80	0	0	0
81	0	0	0
82	0	0	0
83	0	0	0
84	0	0	0
85	0	0	0
86	0	0	0
87	0	0	0
88	0	0	0
89	0	0	0
90	0	0	0
91	241	224	230
92	247	220	233
93	242	201	223
94	255	211	230
95	245	190	209
96	255	206	215
97	251	204	209
98	0	0	0
99	0	0	0
100	0	0	0
101	0	0	0
102	0	0	0
103	0	0	0
104	0	0	0
105	0	0	0
106	0	0	0
107	0	0	0
108	0	0	0
109	0	0	0
110	0	0	0
111	0	0	0
112	0	0	0
113	0	0	0
114	0	0	0
115	0	0	0
116	0	0	0
117	0	0	0
118	0	0	0
119	0	0	0
120	0	0	0
121	251	237	237
122	252	224	235
123	247	206	224
124	252	201	223
125	242	183	209
126	249	192	213
127	246	190	207
128	0	0	0
129	0	0	0
130	0	0	0
131	0	0	0
132	0	0	0
133	0	0	0
134	0	0	0
135	0	0	0
136	0	0	0
137	0	0	0
138	0	0	0
139	0	0	0
140	0	0	0
141	0	0	0
142	0	0	0
143	0	0	0
144	0	0	0
145	0	0	0
146	0	0	0
147	0	0	0
148	0	0	0
149	0	0	0
150	0	0	0
151	255	238	238
152	255	225	235
153	248	202	222
154	251	198	223
155	246	185	215
156	255	196	222
157	249	188	212
158	255	202	217
159	0	0	0
160	0	0	0
161	0	0	0
162	0	0	0
163	0	0	0
164	0	0	0
165	0	0	0
166	0	0	0
167	0	0	0
168	0	0	0
169	0	0	0
170	0	0	0
171	0	0	0
172	0	0	0
173	0	0	0
174	0	0	0
175	0	0	0
176	0	0	0
177	0	0	0
178	0	0	0
179	0	0	0
180	0	0	0
181	255	240	243
182	254	219	232
183	246	197	221
184	250	194	222
185	245	182	215
186	250	185	217
187	246	179	211
188	0	0	0
189	0	0	0
190	0	0	0
191	0	0	0
192	0	0	0
193	0	0	0
194	0	0	0
195	0	0	0
196	0	0	0
197	0	0	0
198	0	0	0
199	0	0	0
200	0	0	0
201	0	0	0
202	0	0	0
203	0	0	0
204	0	0	0
205	0	0	0
206	0	0	0
207	0	0	0
208	0	0	0
209	0	0	0
210	0	0	0
211	255	245	247
212	255	223	235
213	247	198	222
214	252	196	225
215	251	189	221
216	255	193	224
217	251	181	215
218	255	187	217
219	0	0	0
220	0	0	0
221	0	0	0
222	0	0	0
223	0	0	0
224	0	0	0
225	0	0	0
226	0	0	0
227	0	0	0
228	0	0	0
229	0	0	0
230	0	0	0
231	0	0	0
232	0	0	0
233	0	0	0
234	0	0	0
235	0	0	0
236	0	0	0
237	0	0	0
238	0	0	0
239	0	0	0
240	0	0	0
241	0	0	0
242	250	219	229
243	241	195	219
244	251	197	225
245	251	190	219
246	254	187	217
247	249	176	211
248	249	174	209
249	241	164	198
250	251	178	206
251	0	0	0
252	255	193	208
253	0	0	0
254	0	0	0
255	0	0	0
256	0	0	0
257	0	0	0
258	0	0	0
259	0	0	0
260	0	0	0
261	0	0	0
262	0	0	0
263	0	0	0
264	0	0	0
265	0	0	0
266	0	0	0
267	0	0	0
268	0	0	0
269	0	0	0
270	0	0	0
271	0	0	0
272	0	0	0
273	246	208	226
274	255	213	234
275	253	191	219
276	255	188	218
277	248	173	209
278	250	172	209
279	249	170	206
280	255	185	215
281	252	177	207
282	255	184	208
283	253	187	204
284	0	0	0
285	0	0	0
286	0	0	0
287	0	0	0
288	0	0	0
289	0	0	0
290	0	0	0
291	0	0	0
292	0	0	0
293	0	0	0
294	0	0	0
295	0	0	0
296	0	0	0
297	0	0	0
298	0	0	0
299	0	0	0
300	0	0	0
301	0	0	0
302	0	0	0
303	255	223	234
304	255	210	230
305	252	190	219
306	253	184	218
307	247	169	209
308	253	175	213
309	253	173	211
310	252	171	210
311	245	164	204
312	249	172	207
313	250	176	205
314	254	186	208
315	0	0	0
316	0	0	0
317	0	0	0
318	0	0	0
319	0	0	0
320	0	0	0
321	0	0	0
322	0	0	0
323	0	0	0
324	0	0	0
325	0	0	0
326	0	0	0
327	0	0	0
328	0	0	0
329	0	0	0
330	0	0	0
331	0	0	0
332	0	0	0
333	255	226	235
334	255	211	229
335	246	181	214
336	249	176	216
337	247	168	211
338	254	174	216
339	250	167	211
340	249	165	210
341	251	169	212
342	255	178	217
343	255	177	212
344	255	187	215
345	246	174	200
346	0	0	0
347	0	0	0
348	0	0	0
349	0	0	0
350	0	0	0
351	0	0	0
352	0	0	0
353	0	0	0
354	0	0	0
355	0	0	0
356	0	0	0
357	0	0	0
358	0	0	0
359	0	0	0
360	0	0	0
361	0	0	0
362	0	0	0
363	255	226	233
364	250	199	219
365	238	170	208
366	247	173	217
367	246	165	214
368	249	165	215
369	245	159	210
370	252	167	216
371	254	170	216
372	255	174	217
373	255	174	213
374	250	168	206
375	237	156	192
376	250	181	205
377	0	0	0
378	0	0	0
379	0	0	0
380	0	0	0
381	0	0	0
382	0	0	0
383	0	0	0
384	0	0	0
385	0	0	0
386	0	0	0
387	0	0	0
388	0	0	0
389	0	0	0
390	0	0	0
391	0	0	0
392	0	0	0
393	255	227	231
394	250	201	219
395	247	182	216
396	255	185	227
397	248	168	219
398	251	168	221
399	253	168	220
400	255	176	225
401	250	161	214
402	255	167	216
403	253	165	211
404	247	159	204
405	244	161	200
406	255	187	213
407	255	192	212
408	0	0	0
409	0	0	0
410	0	0	0
411	0	0	0
412	0	0	0
413	0	0	0
414	0	0	0
415	0	0	0
416	0	0	0
417	0	0	0
418	0	0	0
419	0	0	0
420	0	0	0
421	0	0	0
422	0	0	0
423	255	230	232
424	255	211	223
425	252	191	220
426	252	182	223
427	245	166	217
428	253	172	225
429	255	172	223
430	251	163	217
431	243	150	208
432	247	154	211
433	245	152	206
434	249	160	208
435	247	163	204
436	251	174	207
437	251	180	208
438	255	194	213
439	0	0	0
440	0	0	0
441	0	0	0
442	0	0	0
443	0	0	0
444	0	0	0
445	0	0	0
446	0	0	0
447	0	0	0
448	0	0	0
449	0	0	0
450	0	0	0
451	0	0	0
452	0	0	0
453	255	227	230
454	252	205	219
455	250	190	218
456	249	181	220
457	248	174	222
458	255	181	230
459	252	170	222
460	251	163	219
461	247	154	214
462	249	158	216
463	245	153	209
464	251	162	213
465	250	164	209
466	254	175	212
467	253	178	211
468	255	193	216
469	253	195	211
470	0	0	0
471	0	0	0
472	0	0	0
473	0	0	0
474	0	0	0
475	0	0	0
476	0	0	0
477	0	0	0
478	0	0	0
479	0	0	0
480	0	0	0
481	0	0	0
482	0	0	0
483	255	222	228
484	252	206	222
485	247	190	219
486	248	186	222
487	247	179	222
488	247	173	221
489	244	164	217
490	246	160	217
491	242	151	210
492	246	155	213
493	243	150	209
494	246	158	212
495	245	160	209
496	250	168	211
497	249	171	209
498	249	178	209
499	246	182	206
500	252	200	214
501	255	222	224
502	0	0	0
503	0	0	0
504	0	0	0
505	0	0	0
506	0	0	0
507	0	0	0
508	0	0	0
509	0	0	0
510	0	0	0
511	0	0	0
512	0	0	0
513	252	222	229
514	249	207	224
515	243	192	219
516	240	185	219
517	243	184	221
518	247	181	224
519	242	166	218
520	241	161	216
521	245	161	215
522	255	168	222
523	242	149	210
524	240	153	210
525	245	163	214
526	255	175	218
527	255	177	215
528	255	184	214
529	252	187	212
530	255	207	221
531	255	212	219
532	253	209	213
533	0	0	0
534	0	0	0
535	0	0	0
536	0	0	0
537	0	0	0
538	0	0	0
539	0	0	0
540	0	0	0
541	0	0	0
542	0	0	0
543	252	224	234
544	250	212	229
545	243	196	222
546	241	193	223
547	245	192	225
548	246	183	223
549	243	170	219
550	251	175	225
551	255	175	224
552	254	165	219
553	241	148	209
554	246	161	218
555	252	171	222
556	255	179	224
557	255	181	218
558	255	187	217
559	255	191	214
560	255	197	215
561	255	202	215
562	0	0	0
563	0	0	0
564	0	0	0
565	0	0	0
566	0	0	0
567	0	0	0
568	0	0	0
569	0	0	0
570	0	0	0
571	0	0	0
572	0	0	0
573	0	0	0
574	247	209	228
575	243	198	223
576	243	196	224
577	242	189	222
578	242	179	219
579	246	173	222
580	255	182	232
581	244	153	210
582	237	141	202
583	251	158	216
584	255	175	228
585	253	163	217
586	254	168	217
587	252	169	212
588	254	176	211
589	255	183	210
590	255	189	211
591	250	191	210
592	0	0	0
593	0	0	0
594	0	0	0
595	0	0	0
596	0	0	0
597	0	0	0
598	0	0	0
599	0	0	0
600	0	0	0
601	0	0	0
602	0	0	0
603	246	218	229
604	248	211	229
605	245	201	225
606	244	196	225
607	244	189	223
608	249	185	225
609	253	180	227
610	248	161	219
611	231	132	200
612	246	152	214
613	255	168	221
614	254	161	214
615	246	150	205
616	246	155	207
617	245	157	207
618	250	168	210
619	250	174	205
620	249	178	204
621	245	181	206
622	0	0	0
623	0	0	0
624	0	0	0
625	0	0	0
626	0	0	0
627	0	0	0
628	0	0	0
629	0	0	0
630	0	0	0
631	0	0	0
632	0	0	0
633	248	222	231
634	248	214	230
635	248	206	228
636	251	202	230
637	242	180	219
638	247	177	222
639	247	166	220
640	237	144	209
641	234	137	206
642	247	157	219
643	242	150	208
644	240	144	201
645	247	153	207
646	249	159	211
647	250	163	213
648	255	173	217
649	250	172	208
650	249	176	207
651	248	182	211
652	0	0	0
653	0	0	0
654	0	0	0
655	0	0	0
656	0	0	0
657	0	0	0
658	0	0	0
659	0	0	0
660	0	0	0
661	0	0	0
662	0	0	0
663	251	227	236
664	247	215	230
665	248	207	227
666	243	188	220
667	237	168	213
668	241	162	216
669	240	151	213
670	242	149	215
671	238	141	210
672	237	140	209
673	233	135	203
674	246	150	212
675	252	159	215
676	252	162	215
677	252	165	216
678	252	168	216
679	249	168	212
680	250	176	213
681	248	181	214
682	255	197	220
683	0	0	0
684	0	0	0
685	0	0	0
686	0	0	0
687	0	0	0
688	0	0	0
689	0	0	0
690	0	0	0
691	0	0	0
692	0	0	0
693	251	226	236
694	244	213	229
695	248	208	228
696	249	192	224
697	246	175	221
698	251	169	224
699	247	157	219
700	249	155	221
701	248	150	218
702	251	151	220
703	248	147	216
704	255	159	223
705	249	151	212
706	246	153	210
707	248	160	213
708	251	164	214
709	254	173	218
710	252	179	218
711	250	183	217
712	255	199	224
713	250	197	214
714	0	0	0
715	0	0	0
716	0	0	0
717	0	0	0
718	0	0	0
719	0	0	0
720	0	0	0
721	0	0	0
722	0	0	0
723	249	224	236
724	245	213	231
725	250	209	232
726	253	196	229
727	251	178	223
728	253	171	225
729	250	159	221
730	254	159	225
731	254	155	224
732	255	157	226
733	255	152	221
734	253	150	218
735	245	142	209
736	246	150	211
737	248	156	212
738	255	168	218
739	255	176	219
740	252	178	217
741	251	183	217
742	251	186	217
743	243	184	210
744	0	0	0
745	0	0	0
746	0	0	0
747	0	0	0
748	0	0	0
749	0	0	0
750	0	0	0
751	0	0	0
752	0	0	0
753	255	237	245
754	255	229	242
755	252	209	234
756	254	194	231
757	248	173	221
758	250	166	222
759	250	158	221
760	255	159	226
761	253	152	223
762	255	153	224
763	253	147	218
764	253	146	217
765	249	144	213
766	252	153	216
767	254	159	216
768	255	169	219
769	249	163	211
770	245	165	209
771	255	187	221
772	255	191	220
773	251	194	219
774	0	0	0
775	0	0	0
776	0	0	0
777	0	0	0
778	0	0	0
779	0	0	0
780	0	0	0
781	0	0	0
782	0	0	0
783	0	0	0
784	250	222	235
785	247	203	229
786	248	187	227
787	243	166	219
788	249	165	224
789	249	156	222
790	253	155	224
791	252	149	220
792	254	148	220
793	250	142	214
794	255	147	218
795	253	145	217
796	255	156	221
797	255	161	218
798	251	156	211
799	242	150	206
800	250	171	217
801	255	193	227
802	255	196	224
803	255	199	221
804	255	209	223
805	255	220	225
806	255	224	224
807	0	0	0
808	0	0	0
809	0	0	0
810	0	0	0
811	0	0	0
812	0	0	0
813	0	0	0
814	0	0	0
815	250	213	236
816	253	198	235
817	245	172	225
818	252	171	231
819	250	159	226
820	255	159	228
821	252	148	220
822	254	148	220
823	252	141	214
824	255	146	218
825	245	131	209
826	250	142	213
827	255	155	215
828	247	150	207
829	249	159	213
830	255	180	225
831	255	191	225
832	254	192	220
833	251	195	217
834	255	207	222
835	255	211	222
836	255	216	221
837	253	219	217
838	0	0	0
839	0	0	0
840	0	0	0
841	0	0	0
842	0	0	0
843	0	0	0
844	0	0	0
845	0	0	0
846	248	198	232
847	241	172	224
848	247	168	228
849	245	156	224
850	249	153	224
851	246	142	216
852	250	143	216
853	248	137	211
854	243	127	204
855	232	113	195
856	246	134	209
857	251	147	211
858	254	158	213
859	255	166	216
860	255	179	221
861	255	189	221
862	251	188	215
863	250	192	216
864	251	197	218
865	251	202	218
866	253	208	219
867	250	212	216
868	0	0	0
869	0	0	0
870	0	0	0
871	0	0	0
872	0	0	0
873	0	0	0
874	0	0	0
875	0	0	0
876	0	0	0
877	0	0	0
878	0	0	0
879	252	171	231
880	255	168	233
881	244	143	217
882	250	144	218
883	248	138	212
884	243	129	206
885	249	138	212
886	255	159	226
887	250	144	210
888	253	155	213
889	255	164	215
890	255	176	218
891	255	181	214
892	247	181	208
893	255	201	222
894	255	207	226
895	251	199	219
896	252	205	220
897	251	211	218
898	0	0	0
899	0	0	0
900	0	0	0
901	0	0	0
902	0	0	0
903	0	0	0
904	0	0	0
905	0	0	0
906	0	0	0
907	0	0	0
908	255	194	236
909	255	181	233
910	250	163	226
911	240	140	216
912	246	142	219
913	244	136	212
914	255	149	220
915	255	157	224
916	255	152	219
917	245	139	206
918	253	154	214
919	255	163	218
920	255	170	216
921	252	175	209
922	255	189	214
923	255	209	226
924	255	202	221
925	250	194	218
926	253	204	223
927	252	210	220
928	0	0	0
929	0	0	0
930	0	0	0
931	0	0	0
932	0	0	0
933	0	0	0
934	0	0	0
935	0	0	0
936	0	0	0
937	254	206	234
938	255	196	235
939	251	176	226
940	246	158	220
941	247	153	223
942	253	155	227
943	251	149	221
944	255	163	230
945	251	143	215
946	248	139	210
947	247	141	209
948	255	157	218
949	252	157	215
950	252	165	214
951	255	177	214
952	255	192	219
953	255	196	219
954	250	187	212
955	252	195	219
956	255	206	225
957	253	207	219
958	0	0	0
959	0	0	0
960	0	0	0
961	0	0	0
962	0	0	0
963	0	0	0
964	0	0	0
965	0	0	0
966	0	0	0
967	249	206	234
968	248	189	229
969	242	168	218
970	248	167	222
971	249	161	223
972	254	162	227
973	254	157	226
974	249	145	219
975	237	127	205
976	246	137	211
977	247	140	210
978	250	148	212
979	246	148	209
980	254	165	216
981	255	179	221
982	255	181	217
983	253	184	215
984	252	187	214
985	254	195	219
986	254	200	219
987	250	201	213
988	0	0	0
989	0	0	0
990	0	0	0
991	0	0	0
992	0	0	0
993	0	0	0
994	0	0	0
995	0	0	0
996	0	0	0
997	247	216	238
998	250	201	236
999	247	183	227
1000	253	181	230
1001	250	169	225
1002	255	171	230
1003	255	163	229
1004	251	152	223
1005	246	142	217
1006	255	153	224
1007	250	146	215
1008	253	153	217
1009	250	153	213
1010	255	170	222
1011	254	171	219
1012	251	173	215
1013	255	187	220
1014	255	191	218
1015	255	198	221
1016	255	203	220
1017	249	198	211
1018	0	0	0
1019	0	0	0
1020	0	0	0
1021	0	0	0
1022	0	0	0
1023	0	0	0
1024	0	0	0
1025	0	0	0
1026	0	0	0
1027	252	230	246
1028	251	213	240
1029	248	195	233
1030	252	189	233
1031	251	177	228
1032	255	174	230
1033	255	167	229
1034	255	162	228
1035	251	152	224
1036	253	153	224
1037	247	145	212
1038	250	151	214
1039	248	151	213
1040	248	156	213
1041	244	158	208
1042	251	173	214
1043	255	187	220
1044	255	194	221
1045	255	200	221
1046	255	198	216
1047	0	0	0
1048	0	0	0
1049	0	0	0
1050	0	0	0
1051	0	0	0
1052	0	0	0
1053	0	0	0
1054	0	0	0
1055	0	0	0
1056	0	0	0
1057	252	234	245
1058	242	212	235
1059	247	206	236
1060	255	202	239
1061	252	183	231
1062	255	181	233
1063	249	164	223
1064	249	158	222
1065	254	162	228
1066	255	163	229
1067	247	148	215
1068	251	155	217
1069	252	160	218
1070	252	165	218
1071	253	172	219
1072	255	188	226
1073	255	185	220
1074	255	192	222
1075	252	188	215
1076	0	0	0
1077	0	0	0
1078	0	0	0
1079	0	0	0
1080	0	0	0
1081	0	0	0
1082	0	0	0
1083	0	0	0
1084	0	0	0
1085	0	0	0
1086	0	0	0
1087	0	0	0
1088	244	225	239
1089	247	217	238
1090	250	203	236
1091	249	187	231
1092	250	177	229
1093	242	159	215
1094	252	167	223
1095	255	171	231
1096	255	165	228
1097	247	151	217
1098	254	162	222
1099	254	165	219
1100	255	175	223
1101	255	185	227
1102	255	184	225
1103	254	182	221
1104	252	181	219
1105	246	178	215
1106	0	0	0
1107	0	0	0
1108	0	0	0
1109	0	0	0
1110	0	0	0
1111	0	0	0
1112	0	0	0
1113	0	0	0
1114	0	0	0
1115	0	0	0
1116	0	0	0
1117	0	0	0
1118	0	0	0
1119	246	227	240
1120	251	214	239
1121	251	197	235
1122	254	189	234
1123	249	172	222
1124	255	180	230
1125	253	167	225
1126	251	160	223
1127	249	157	221
1128	255	167	226
1129	253	166	219
1130	255	178	223
1131	255	181	225
1132	255	181	224
1133	254	180	222
1134	252	181	222
1135	251	182	221
1136	0	0	0
1137	0	0	0
1138	0	0	0
1139	0	0	0
1140	0	0	0
1141	0	0	0
1142	0	0	0
1143	0	0	0
1144	0	0	0
1145	0	0	0
1146	0	0	0
1147	0	0	0
1148	0	0	0
1149	0	0	0
1150	250	222	240
1151	248	204	235
1152	251	194	233
1153	248	180	226
1154	251	175	227
1155	245	161	219
1156	250	164	224
1157	249	161	222
1158	252	167	224
1159	251	167	221
1160	254	173	222
1161	255	177	222
1162	254	178	221
1163	252	177	220
1164	252	181	221
1165	250	183	220
1166	0	0	0
1167	0	0	0
1168	0	0	0
1169	0	0	0
1170	0	0	0
1171	0	0	0
1172	0	0	0
1173	0	0	0
1174	0	0	0
1175	0	0	0
1176	0	0	0
1177	0	0	0
1178	0	0	0
1179	0	0	0
1180	0	0	0
1181	246	215	237
1182	248	205	236
1183	245	187	230
1184	253	185	234
1185	246	167	224
1186	251	171	227
1187	251	169	224
1188	254	174	227
1189	253	174	226
1190	255	182	229
1191	255	178	224
1192	255	179	223
1193	247	172	217
1194	246	176	217
1195	254	190	224
1196	255	202	230
1197	0	0	0
1198	0	0	0
1199	0	0	0
1200	0	0	0
1201	0	0	0
1202	0	0	0
1203	0	0	0
1204	0	0	0
1205	0	0	0
1206	0	0	0
1207	0	0	0
1208	0	0	0
1209	0	0	0
1210	0	0	0
1211	254	233	245
1212	247	212	237
1213	244	195	234
1214	249	187	235
1215	243	170	225
1216	250	176	229
1217	249	174	224
1218	254	178	227
1219	255	179	228
1220	255	180	228
1221	252	175	222
1222	247	172	218
1223	241	166	215
1224	251	184	225
1225	255	197	229
1226	253	191	222
1227	241	180	215
1228	245	200	224
1229	0	0	0
1230	0	0	0
1231	0	0	0
1232	0	0	0
1233	0	0	0
1234	0	0	0
1235	0	0	0
1236	0	0	0
1237	0	0	0
1238	0	0	0
1239	0	0	0
1240	0	0	0
1241	255	235	244
1242	245	212	233
1243	247	204	237
1244	249	195	237
1245	245	183	230
1246	252	189	235
1247	246	177	225
1248	255	184	230
1249	252	177	226
1250	250	176	224
1251	248	175	220
1252	241	171	216
1253	245	177	222
1254	255	198	235
1255	255	189	225
1256	246	181	216
1257	253	194	227
1258	255	218	240
1259	252	206	225
1260	0	0	0
1261	0	0	0
1262	0	0	0
1263	0	0	0
1264	0	0	0
1265	0	0	0
1266	0	0	0
1267	0	0	0
1268	0	0	0
1269	0	0	0
1270	0	0	0
1271	255	238	244
1272	251	224	238
1273	251	215	237
1274	251	207	236
1275	247	194	230
1276	246	188	229
1277	243	179	225
1278	252	181	229
1279	248	173	223
1280	247	175	222
1281	244	175	218
1282	245	180	220
1283	249	186	224
1284	253	186	225
1285	249	180	221
1286	255	193	228
1287	255	204	231
1288	255	199	225
1289	242	189	213
1290	0	0	0
1291	0	0	0
1292	0	0	0
1293	0	0	0
1294	0	0	0
1295	0	0	0
1296	0	0	0
1297	0	0	0
1298	0	0	0
1299	0	0	0
1300	0	0	0
1301	254	240	243
1302	251	227	237
1303	248	215	234
1304	246	206	231
1305	244	198	228
1306	242	192	228
1307	241	182	227
1308	254	186	234
1309	249	176	224
1310	246	177	222
1311	245	179	221
1312	249	186	224
1313	248	183	222
1314	249	182	222
1315	252	185	225
1316	255	199	232
1317	255	198	226
1318	248	192	218
1319	243	190	216
1320	0	0	0
1321	0	0	0
1322	0	0	0
1323	0	0	0
1324	0	0	0
1325	0	0	0
1326	0	0	0
1327	0	0	0
1328	0	0	0
1329	0	0	0
1330	0	0	0
1331	0	0	0
1332	246	228	236
1333	244	217	234
1334	247	213	235
1335	246	204	230
1336	243	195	228
1337	243	186	229
1338	253	188	234
1339	249	178	225
1340	249	183	226
1341	250	186	227
1342	250	185	227
1343	249	182	226
1344	253	188	229
1345	253	190	226
1346	249	190	222
1347	248	190	220
1348	249	194	221
1349	245	193	220
1350	0	0	0
1351	0	0	0
1352	0	0	0
1353	0	0	0
1354	0	0	0
1355	0	0	0
1356	0	0	0
1357	0	0	0
1358	0	0	0
1359	0	0	0
1360	0	0	0
1361	0	0	0
1362	0	0	0
1363	246	230	241
1364	255	228	245
1365	246	205	231
1366	247	198	231
1367	247	189	231
1368	252	189	234
1369	250	181	227
1370	255	189	232
1371	250	181	226
1372	249	180	225
1373	249	180	227
1374	249	184	227
1375	245	182	221
1376	241	182	217
1377	246	191	221
1378	252	197	225
1379	252	199	226
1380	255	217	236
1381	0	0	0
1382	0	0	0
1383	0	0	0
1384	0	0	0
1385	0	0	0
1386	0	0	0
1387	0	0	0
1388	0	0	0
1389	0	0	0
1390	0	0	0
1391	0	0	0
1392	0	0	0
1393	254	245	249
1394	250	225	240
1395	243	204	231
1396	248	199	233
1397	245	189	229
1398	246	186	229
1399	245	180	225
1400	248	178	226
1401	244	171	219
1402	248	175	223
1403	247	176	225
1404	248	180	227
1405	244	179	222
1406	247	187	225
1407	251	196	228
1408	252	198	227
1409	252	199	226
1410	0	0	0
1411	0	0	0
1412	0	0	0
1413	0	0	0
1414	0	0	0
1415	0	0	0
1416	0	0	0
1417	0	0	0
1418	0	0	0
1419	0	0	0
1420	0	0	0
1421	0	0	0
1422	0	0	0
1423	249	241	244
1424	243	220	235
1425	246	211	236
1426	250	207	238
1427	246	196	232
1428	243	191	229
1429	245	188	229
1430	253	190	233
1431	250	180	226
1432	254	184	230
1433	251	180	228
1434	255	186	233
1435	249	179	226
1436	253	188	229
1437	250	190	226
1438	0	0	0
1439	0	0	0
1440	0	0	0
1441	0	0	0
1442	0	0	0
1443	0	0	0
1444	0	0	0
1445	0	0	0
1446	0	0	0
1447	0	0	0
1448	0	0	0
1449	0	0	0
1450	0	0	0
1451	0	0	0
1452	0	0	0
1453	0	0	0
1454	244	225	237
1455	246	216	239
1456	250	212	241
1457	245	201	232
1458	243	198	230
1459	245	195	231
1460	255	195	234
1461	253	186	230
1462	252	184	229
1463	249	179	227
1464	249	177	227
1465	244	171	222
1466	248	179	225
1467	244	180	220
1468	0	0	0
1469	0	0	0
1470	0	0	0
1471	0	0	0
1472	0	0	0
1473	0	0	0
1474	0	0	0
1475	0	0	0
1476	0	0	0
1477	0	0	0
1478	0	0	0
1479	0	0	0
1480	0	0	0
1481	0	0	0
1482	0	0	0
1483	0	0	0
1484	0	0	0
1485	251	231	245
1486	253	226	246
1487	243	206	232
1488	243	204	232
1489	242	193	229
1490	253	193	233
1491	250	183	229
1492	248	181	228
1493	248	182	229
1494	246	179	227
1495	246	181	228
1496	251	189	231
1497	245	184	223
1498	0	0	0
1499	0	0	0
1500	0	0	0
1501	0	0	0
1502	0	0	0
1503	0	0	0
1504	0	0	0
1505	0	0	0
1506	0	0	0
1507	0	0	0
1508	0	0	0
1509	0	0	0
1510	0	0	0
1511	0	0	0
1512	0	0	0
1513	0	0	0
1514	0	0	0
1515	255	248	251
1516	252	229	242
1517	241	209	230
1518	236	198	227
1519	235	188	226
1520	247	189	232
1521	243	178	225
1522	244	181	228
1523	244	182	229
1524	247	186	231
1525	248	188	230
1526	248	189	229
1527	245	186	224
1528	0	0	0
1529	0	0	0
1530	0	0	0
1531	0	0	0
1532	0	0	0
1533	0	0	0
1534	0	0	0
1535	0	0	0
1536	0	0	0
1537	0	0	0
1538	0	0	0
1539	0	0	0
1540	0	0	0
1541	0	0	0
1542	0	0	0
1543	0	0	0
1544	0	0	0
1545	0	0	0
1546	248	226	236
1547	0	0	0
1548	0	0	0
1549	238	199	232
1550	250	201	239
1551	241	182	227
1552	241	185	229
1553	243	188	230
1554	248	193	233
1555	247	191	229
1556	248	193	228
1557	0	0	0
1558	0	0	0
1559	0	0	0
1560	0	0	0
1561	0	0	0
1562	0	0	0
1563	0	0	0
1564	0	0	0
1565	0	0	0
1566	0	0	0
1567	0	0	0
1568	0	0	0
1569	0	0	0
1570	0	0	0
1571	0	0	0
1572	0	0	0
1573	0	0	0
1574	0	0	0
1575	0	0	0
1576	0	0	0
1577	0	0	0
1578	0	0	0
1579	244	211	236
1580	249	203	237
1581	240	185	227
1582	242	190	231
1583	244	194	233
1584	250	198	235
1585	250	196	230
1586	255	202	233
1587	255	204	233
1588	0	0	0
1589	0	0	0
1590	0	0	0
1591	0	0	0
1592	0	0	0
1593	0	0	0
1594	0	0	0
1595	0	0	0
1596	0	0	0
1597	0	0	0
1598	0	0	0
1599	0	0	0
1600	0	0	0
1601	0	0	0
1602	0	0	0
1603	0	0	0
1604	0	0	0
1605	0	0	0
1606	0	0	0
1607	0	0	0
1608	0	0	0
1609	250	215	237
1610	251	205	235
1611	245	193	229
1612	248	199	235
1613	251	201	236
1614	255	206	239
1615	249	192	228
1616	254	198	231
1617	252	197	228
1618	248	193	223
1619	0	0	0
1620	0	0	0
1621	0	0	0
1622	0	0	0
1623	0	0	0
1624	0	0	0
1625	0	0	0
1626	0	0	0
1627	0	0	0
1628	0	0	0
1629	0	0	0
1630	0	0	0
1631	0	0	0
1632	0	0	0
1633	0	0	0
1634	0	0	0
1635	0	0	0
1636	0	0	0
1637	0	0	0
1638	0	0	0
1639	0	0	0
1640	253	211	236
1641	248	199	231
1642	253	205	236
1643	255	208	238
1644	253	199	233
1645	245	187	225
1646	247	188	226
1647	245	187	222
1648	0	0	0
1649	0	0	0
1650	0	0	0
1651	0	0	0
1652	0	0	0
1653	0	0	0
1654	0	0	0
1655	0	0	0
1656	0	0	0
1657	0	0	0
1658	0	0	0
1659	0	0	0
1660	0	0	0
1661	0	0	0
1662	0	0	0
1663	0	0	0
1664	0	0	0
1665	0	0	0
1666	0	0	0
1667	0	0	0
1668	0	0	0
1669	0	0	0
1670	254	216	235
1671	252	207	233
1672	255	214	240
1673	255	205	233
1674	250	196	229
1675	0	0	0
1676	0	0	0
1677	0	0	0
1678	0	0	0
1679	0	0	0
1680	0	0	0
1681	0	0	0
1682	0	0	0
1683	0	0	0
1684	0	0	0
1685	0	0	0
1686	0	0	0
1687	0	0	0
1688	0	0	0
1689	0	0	0
1690	0	0	0
1691	0	0	0
1692	0	0	0
1693	0	0	0
1694	0	0	0
1695	0	0	0
1696	0	0	0
1697	0	0	0
1698	0	0	0
1699	255	230	239
1700	255	223	238
1701	255	214	235
1702	254	209	233
1703	250	201	226
1704	252	201	228
1705	0	0	0
1706	0	0	0
1707	0	0	0
1708	0	0	0
1709	0	0	0
1710	0	0	0
1711	0	0	0
1712	0	0	0
1713	0	0	0
1714	0	0	0
1715	0	0	0
1716	0	0	0
1717	0	0	0
1718	0	0	0
1719	0	0	0
1720	0	0	0
1721	0	0	0
1722	0	0	0
1723	0	0	0
1724	0	0	0
1725	0	0	0
1726	0	0	0
1727	0	0	0
1728	0	0	0
1729	255	231	239
1730	255	223	236
1731	251	213	231
1732	250	208	229
1733	253	208	229
1734	255	210	233
1735	0	0	0
1736	0	0	0
1737	0	0	0
1738	0	0	0
1739	0	0	0
1740	0	0	0
1741	0	0	0
1742	0	0	0
1743	0	0	0
1744	0	0	0
1745	0	0	0
1746	0	0	0
1747	0	0	0
1748	0	0	0
1749	0	0	0
1750	0	0	0
1751	0	0	0
1752	0	0	0
1753	0	0	0
1754	0	0	0
1755	0	0	0
1756	0	0	0
1757	0	0	0
1758	0	0	0
1759	0	0	0
1760	252	223	235
1761	247	212	229
1762	0	0	0
1763	255	216	235
1764	0	0	0
1765	0	0	0
1766	0	0	0
1767	0	0	0
1768	0	0	0
1769	0	0	0
1770	0	0	0
