 	R	G	B
1	0	0	0
2	0	0	0
3	0	0	0
4	0	0	0
5	0	0	0
6	0	0	0
7	0	0	0
8	0	0	0
9	0	0	0
10	0	0	0
11	0	0	0
12	0	0	0
13	0	0	0
14	0	0	0
15	0	0	0
16	0	0	0
17	0	0	0
18	255	211	223
19	0	0	0
20	0	0	0
21	0	0	0
22	0	0	0
23	0	0	0
24	0	0	0
25	0	0	0
26	0	0	0
27	0	0	0
28	0	0	0
29	0	0	0
30	0	0	0
31	0	0	0
32	0	0	0
33	0	0	0
34	0	0	0
35	0	0	0
36	0	0	0
37	0	0	0
38	0	0	0
39	0	0	0
40	0	0	0
41	0	0	0
42	0	0	0
43	0	0	0
44	0	0	0
45	0	0	0
46	255	220	228
47	255	210	222
48	241	186	207
49	0	0	0
50	0	0	0
51	0	0	0
52	0	0	0
53	0	0	0
54	0	0	0
55	0	0	0
56	0	0	0
57	0	0	0
58	0	0	0
59	0	0	0
60	0	0	0
61	0	0	0
62	0	0	0
63	0	0	0
64	0	0	0
65	0	0	0
66	0	0	0
67	0	0	0
68	0	0	0
69	0	0	0
70	0	0	0
71	0	0	0
72	0	0	0
73	0	0	0
74	0	0	0
75	255	218	226
76	251	202	217
77	237	179	204
78	0	0	0
79	0	0	0
80	0	0	0
81	0	0	0
82	0	0	0
83	0	0	0
84	0	0	0
85	0	0	0
86	0	0	0
87	0	0	0
88	0	0	0
89	0	0	0
90	0	0	0
91	0	0	0
92	0	0	0
93	0	0	0
94	0	0	0
95	0	0	0
96	0	0	0
97	0	0	0
98	0	0	0
99	0	0	0
100	0	0	0
101	0	0	0
102	0	0	0
103	0	0	0
104	255	212	222
105	248	196	213
106	242	183	208
107	0	0	0
108	0	0	0
109	0	0	0
110	0	0	0
111	0	0	0
112	0	0	0
113	0	0	0
114	0	0	0
115	0	0	0
116	0	0	0
117	0	0	0
118	0	0	0
119	0	0	0
120	0	0	0
121	0	0	0
122	0	0	0
123	0	0	0
124	0	0	0
125	0	0	0
126	0	0	0
127	0	0	0
128	0	0	0
129	0	0	0
130	0	0	0
131	0	0	0
132	0	0	0
133	253	206	218
134	252	200	216
135	245	187	210
136	0	0	0
137	0	0	0
138	0	0	0
139	0	0	0
140	0	0	0
141	0	0	0
142	0	0	0
143	0	0	0
144	0	0	0
145	0	0	0
146	0	0	0
147	0	0	0
148	0	0	0
149	0	0	0
150	0	0	0
151	0	0	0
152	0	0	0
153	0	0	0
154	0	0	0
155	0	0	0
156	0	0	0
157	0	0	0
158	0	0	0
159	0	0	0
160	0	0	0
161	0	0	0
162	254	206	219
163	254	200	217
164	243	183	207
165	0	0	0
166	0	0	0
167	0	0	0
168	0	0	0
169	0	0	0
170	0	0	0
171	0	0	0
172	0	0	0
173	0	0	0
174	0	0	0
175	0	0	0
176	0	0	0
177	0	0	0
178	0	0	0
179	0	0	0
180	0	0	0
181	0	0	0
182	0	0	0
183	0	0	0
184	0	0	0
185	0	0	0
186	0	0	0
187	0	0	0
188	0	0	0
189	0	0	0
190	255	219	229
191	255	207	222
192	255	199	218
193	244	182	209
194	251	191	219
195	0	0	0
196	0	0	0
197	0	0	0
198	0	0	0
199	0	0	0
200	0	0	0
201	0	0	0
202	0	0	0
203	0	0	0
204	0	0	0
205	0	0	0
206	0	0	0
207	0	0	0
208	0	0	0
209	0	0	0
210	0	0	0
211	0	0	0
212	0	0	0
213	0	0	0
214	0	0	0
215	0	0	0
216	0	0	0
217	0	0	0
218	255	227	231
219	255	218	228
220	248	190	212
221	246	182	210
222	246	180	210
223	255	201	227
224	250	191	216
225	0	0	0
226	0	0	0
227	0	0	0
228	0	0	0
229	0	0	0
230	0	0	0
231	0	0	0
232	0	0	0
233	0	0	0
234	0	0	0
235	0	0	0
236	0	0	0
237	0	0	0
238	0	0	0
239	0	0	0
240	0	0	0
241	0	0	0
242	0	0	0
243	0	0	0
244	0	0	0
245	0	0	0
246	0	0	0
247	255	223	226
248	253	201	216
249	240	175	205
250	249	182	214
251	248	179	213
252	252	187	217
253	241	177	208
254	0	0	0
255	0	0	0
256	0	0	0
257	0	0	0
258	0	0	0
259	0	0	0
260	0	0	0
261	0	0	0
262	0	0	0
263	0	0	0
264	0	0	0
265	0	0	0
266	0	0	0
267	0	0	0
268	0	0	0
269	0	0	0
270	0	0	0
271	0	0	0
272	0	0	0
273	0	0	0
274	0	0	0
275	255	236	235
276	255	212	220
277	248	190	210
278	242	173	207
279	250	180	217
280	250	179	216
281	247	178	213
282	243	177	211
283	0	0	0
284	0	0	0
285	0	0	0
286	0	0	0
287	0	0	0
288	0	0	0
289	0	0	0
290	0	0	0
291	0	0	0
292	0	0	0
293	0	0	0
294	0	0	0
295	0	0	0
296	0	0	0
297	0	0	0
298	0	0	0
299	0	0	0
300	0	0	0
301	0	0	0
302	0	0	0
303	255	246	240
304	255	223	227
305	252	201	215
306	251	189	213
307	244	172	209
308	250	178	217
309	249	177	216
310	247	176	214
311	242	175	213
312	0	0	0
313	0	0	0
314	0	0	0
315	0	0	0
316	0	0	0
317	0	0	0
318	0	0	0
319	0	0	0
320	0	0	0
321	0	0	0
322	0	0	0
323	0	0	0
324	0	0	0
325	0	0	0
326	0	0	0
327	0	0	0
328	0	0	0
329	0	0	0
330	0	0	0
331	0	0	0
332	255	240	236
333	255	217	224
334	246	187	209
335	245	176	208
336	244	171	210
337	250	176	216
338	253	182	219
339	251	181	220
340	249	185	220
341	0	0	0
342	0	0	0
343	0	0	0
344	0	0	0
345	0	0	0
346	0	0	0
347	0	0	0
348	0	0	0
349	0	0	0
350	0	0	0
351	0	0	0
352	0	0	0
353	0	0	0
354	0	0	0
355	0	0	0
356	0	0	0
357	0	0	0
358	0	0	0
359	0	0	0
360	0	0	0
361	255	234	232
362	254	205	217
363	240	175	204
364	248	178	213
365	247	172	212
366	255	183	221
367	255	188	222
368	255	193	227
369	255	196	225
370	0	0	0
371	0	0	0
372	0	0	0
373	0	0	0
374	0	0	0
375	0	0	0
376	0	0	0
377	0	0	0
378	0	0	0
379	0	0	0
380	0	0	0
381	0	0	0
382	0	0	0
383	0	0	0
384	0	0	0
385	0	0	0
386	0	0	0
387	0	0	0
388	0	0	0
389	0	0	0
390	255	224	227
391	250	195	212
392	241	172	205
393	248	175	213
394	249	174	213
395	255	183	220
396	252	179	216
397	255	187	223
398	247	182	214
399	0	0	0
400	0	0	0
401	0	0	0
402	0	0	0
403	0	0	0
404	0	0	0
405	0	0	0
406	0	0	0
407	0	0	0
408	0	0	0
409	0	0	0
410	0	0	0
411	0	0	0
412	0	0	0
413	0	0	0
414	0	0	0
415	0	0	0
416	0	0	0
417	0	0	0
418	254	216	221
419	255	214	222
420	251	192	212
421	242	170	207
422	252	178	217
423	251	175	212
424	254	178	215
425	250	175	214
426	249	177	217
427	241	173	211
428	0	0	0
429	0	0	0
430	0	0	0
431	0	0	0
432	0	0	0
433	0	0	0
434	0	0	0
435	0	0	0
436	0	0	0
437	0	0	0
438	0	0	0
439	0	0	0
440	0	0	0
441	0	0	0
442	0	0	0
443	0	0	0
444	0	0	0
445	0	0	0
446	255	228	229
447	255	226	231
448	252	199	215
449	244	177	206
450	248	175	213
451	255	182	221
452	249	170	209
453	251	172	211
454	249	171	213
455	251	177	217
456	249	182	217
457	0	0	0
458	0	0	0
459	0	0	0
460	0	0	0
461	0	0	0
462	0	0	0
463	0	0	0
464	0	0	0
465	0	0	0
466	0	0	0
467	0	0	0
468	0	0	0
469	0	0	0
470	0	0	0
471	0	0	0
472	0	0	0
473	0	0	0
474	0	0	0
475	255	233	232
476	254	208	221
477	244	183	210
478	252	185	219
479	255	182	222
480	255	177	219
481	247	165	207
482	250	169	210
483	248	167	211
484	255	183	218
485	254	188	218
486	0	0	0
487	0	0	0
488	0	0	0
489	0	0	0
490	0	0	0
491	0	0	0
492	0	0	0
493	0	0	0
494	0	0	0
495	0	0	0
496	0	0	0
497	0	0	0
498	0	0	0
499	0	0	0
500	0	0	0
501	0	0	0
502	0	0	0
503	0	0	0
504	255	230	231
505	254	205	219
506	248	185	213
507	255	188	222
508	251	173	216
509	250	168	214
510	252	170	212
511	255	173	215
512	245	162	208
513	254	179	215
514	251	182	213
515	0	0	0
516	0	0	0
517	0	0	0
518	0	0	0
519	0	0	0
520	0	0	0
521	0	0	0
522	0	0	0
523	0	0	0
524	0	0	0
525	0	0	0
526	0	0	0
527	0	0	0
528	0	0	0
529	0	0	0
530	0	0	0
531	0	0	0
532	0	0	0
533	255	228	229
534	255	206	217
535	249	185	207
536	251	179	210
537	247	165	208
538	255	173	217
539	255	174	217
540	253	168	213
541	242	156	206
542	252	174	214
543	0	0	0
544	0	0	0
545	0	0	0
546	0	0	0
547	0	0	0
548	0	0	0
549	0	0	0
550	0	0	0
551	0	0	0
552	0	0	0
553	0	0	0
554	0	0	0
555	0	0	0
556	0	0	0
557	0	0	0
558	0	0	0
559	0	0	0
560	0	0	0
561	0	0	0
562	255	225	228
563	255	204	216
564	242	172	198
565	244	166	202
566	250	168	212
567	255	175	221
568	250	163	212
569	245	156	207
570	246	160	210
571	250	171	213
572	0	0	0
573	0	0	0
574	0	0	0
575	0	0	0
576	0	0	0
577	0	0	0
578	0	0	0
579	0	0	0
580	0	0	0
581	0	0	0
582	0	0	0
583	0	0	0
584	0	0	0
585	0	0	0
586	0	0	0
587	0	0	0
588	0	0	0
589	0	0	0
590	255	221	224
591	255	223	226
592	250	192	210
593	237	161	196
594	249	170	211
595	254	170	218
596	252	164	217
597	243	151	207
598	248	160	211
599	249	163	211
600	253	173	214
601	255	184	216
602	0	0	0
603	0	0	0
604	0	0	0
605	0	0	0
606	0	0	0
607	0	0	0
608	0	0	0
609	0	0	0
610	0	0	0
611	0	0	0
612	0	0	0
613	0	0	0
614	0	0	0
615	0	0	0
616	0	0	0
617	0	0	0
618	255	229	229
619	255	229	230
620	255	210	220
621	244	179	203
622	249	175	210
623	255	183	224
624	247	159	213
625	245	152	211
626	251	161	215
627	255	169	219
628	251	167	213
629	255	179	219
630	254	181	215
631	0	0	0
632	0	0	0
633	0	0	0
634	0	0	0
635	0	0	0
636	0	0	0
637	0	0	0
638	0	0	0
639	0	0	0
640	0	0	0
641	0	0	0
642	0	0	0
643	0	0	0
644	0	0	0
645	0	0	0
646	0	0	0
647	255	236	235
648	255	217	225
649	252	198	214
650	255	193	216
651	255	189	221
652	252	170	215
653	238	145	204
654	252	162	218
655	255	170	221
656	255	173	220
657	254	170	215
658	255	176	217
659	253	177	213
660	0	0	0
661	0	0	0
662	0	0	0
663	0	0	0
664	0	0	0
665	0	0	0
666	0	0	0
667	0	0	0
668	0	0	0
669	0	0	0
670	0	0	0
671	0	0	0
672	0	0	0
673	0	0	0
674	0	0	0
675	0	0	0
676	255	230	232
677	254	209	221
678	252	195	214
679	255	191	216
680	254	179	214
681	245	159	206
682	247	158	210
683	255	174	224
684	255	167	217
685	255	169	217
686	250	163	211
687	255	175	217
688	250	172	212
689	0	0	0
690	0	0	0
691	0	0	0
692	0	0	0
693	0	0	0
694	0	0	0
695	0	0	0
696	0	0	0
697	0	0	0
698	0	0	0
699	0	0	0
700	0	0	0
701	0	0	0
702	0	0	0
703	0	0	0
704	0	0	0
705	255	221	226
706	254	206	219
707	252	193	213
708	254	185	213
709	251	172	210
710	255	174	215
711	255	171	214
712	255	169	214
713	253	163	211
714	252	161	211
715	246	156	206
716	253	169	215
717	248	168	212
718	0	0	0
719	0	0	0
720	0	0	0
721	0	0	0
722	0	0	0
723	0	0	0
724	0	0	0
725	0	0	0
726	0	0	0
727	0	0	0
728	0	0	0
729	0	0	0
730	0	0	0
731	0	0	0
732	0	0	0
733	0	0	0
734	255	225	229
735	255	212	224
736	250	187	212
737	253	179	213
738	247	163	206
739	252	164	210
740	254	164	208
741	253	162	207
742	251	158	207
743	250	157	208
744	252	163	213
745	250	164	213
746	252	172	215
747	0	0	0
748	0	0	0
749	0	0	0
750	0	0	0
751	0	0	0
752	0	0	0
753	0	0	0
754	0	0	0
755	0	0	0
756	0	0	0
757	0	0	0
758	0	0	0
759	0	0	0
760	0	0	0
761	0	0	0
762	0	0	0
763	255	231	233
764	255	207	222
765	250	182	213
766	253	174	215
767	246	157	208
768	255	165	215
769	255	164	211
770	255	162	209
771	253	158	210
772	255	165	215
773	255	171	220
774	254	168	216
775	255	175	217
776	0	0	0
777	0	0	0
778	0	0	0
779	0	0	0
780	0	0	0
781	0	0	0
782	0	0	0
783	0	0	0
784	0	0	0
785	0	0	0
786	0	0	0
787	0	0	0
788	0	0	0
789	0	0	0
790	0	0	0
791	0	0	0
792	255	220	227
793	254	195	217
794	248	174	211
795	250	166	214
796	248	155	211
797	255	162	218
798	248	148	206
799	247	145	203
800	248	149	205
801	251	156	209
802	255	170	218
803	255	173	220
804	253	172	214
805	255	181	215
806	0	0	0
807	0	0	0
808	0	0	0
809	0	0	0
810	0	0	0
811	0	0	0
812	0	0	0
813	0	0	0
814	0	0	0
815	0	0	0
816	0	0	0
817	0	0	0
818	0	0	0
819	0	0	0
820	0	0	0
821	254	205	218
822	249	185	212
823	244	164	208
824	250	162	214
825	246	150	210
826	244	142	207
827	236	129	198
828	243	138	204
829	243	141	202
830	251	155	209
831	255	168	216
832	255	169	217
833	251	168	211
834	253	177	212
835	251	183	209
836	0	0	0
837	0	0	0
838	0	0	0
839	0	0	0
840	0	0	0
841	0	0	0
842	0	0	0
843	0	0	0
844	0	0	0
845	0	0	0
846	0	0	0
847	0	0	0
848	0	0	0
849	0	0	0
850	255	210	223
851	255	191	219
852	246	164	210
853	252	161	216
854	248	150	210
855	244	142	207
856	250	148	214
857	255	157	220
858	248	147	207
859	255	160	212
860	255	170	217
861	255	167	215
862	251	168	212
863	254	177	213
864	253	183	210
865	0	0	0
866	0	0	0
867	0	0	0
868	0	0	0
869	0	0	0
870	0	0	0
871	0	0	0
872	0	0	0
873	0	0	0
874	0	0	0
875	0	0	0
876	0	0	0
877	0	0	0
878	255	221	226
879	255	216	229
880	255	192	221
881	249	164	211
882	255	163	217
883	250	151	211
884	255	158	218
885	255	164	226
886	255	159	221
887	249	149	208
888	255	161	213
889	255	170	216
890	255	167	215
891	252	167	212
892	254	177	214
893	254	184	212
894	0	0	0
895	0	0	0
896	0	0	0
897	0	0	0
898	0	0	0
899	0	0	0
900	0	0	0
901	0	0	0
902	0	0	0
903	0	0	0
904	0	0	0
905	0	0	0
906	255	235	234
907	255	225	231
908	255	198	219
909	249	173	210
910	245	155	206
911	250	153	212
912	242	139	203
913	249	146	210
914	255	160	222
915	254	155	217
916	250	151	210
917	255	163	216
918	253	161	211
919	253	164	213
920	250	164	212
921	253	175	214
922	254	184	214
923	0	0	0
924	0	0	0
925	0	0	0
926	0	0	0
927	0	0	0
928	0	0	0
929	0	0	0
930	0	0	0
931	0	0	0
932	0	0	0
933	0	0	0
934	255	237	235
935	255	238	238
936	255	207	221
937	248	180	209
938	246	165	207
939	241	146	204
940	245	143	208
941	237	129	200
942	249	145	212
943	255	158	220
944	254	155	215
945	251	152	212
946	250	153	211
947	245	151	208
948	248	158	210
949	246	160	211
950	252	174	218
951	253	182	216
952	0	0	0
953	252	199	220
954	0	0	0
955	0	0	0
956	0	0	0
957	0	0	0
958	0	0	0
959	0	0	0
960	0	0	0
961	0	0	0
962	255	237	235
963	255	236	236
964	255	221	229
965	247	190	212
966	252	183	214
967	250	167	212
968	244	148	208
969	246	144	212
970	243	137	208
971	255	153	219
972	255	155	217
973	251	151	211
974	255	160	216
975	254	161	216
976	250	158	213
977	255	168	217
978	249	165	215
979	255	179	222
980	255	186	220
981	252	193	219
982	251	199	221
983	249	204	221
984	0	0	0
985	0	0	0
986	0	0	0
987	0	0	0
988	0	0	0
989	0	0	0
990	0	0	0
991	255	234	232
992	255	218	226
993	253	204	221
994	254	193	219
995	255	186	221
996	251	167	215
997	243	146	209
998	247	147	215
999	244	140	210
1000	250	148	215
1001	249	149	211
1002	254	157	214
1003	255	165	216
1004	255	164	214
1005	251	161	213
1006	255	170	219
1007	248	166	214
1008	254	179	219
1009	254	187	220
1010	250	193	218
1011	249	199	219
1012	254	214	226
1013	0	0	0
1014	0	0	0
1015	0	0	0
1016	0	0	0
1017	0	0	0
1018	0	0	0
1019	0	0	0
1020	255	234	233
1021	255	218	226
1022	250	195	217
1023	250	184	215
1024	254	181	218
1025	246	160	210
1026	247	155	215
1027	251	156	220
1028	251	153	219
1029	255	160	222
1030	252	154	215
1031	255	162	217
1032	255	163	214
1033	252	162	211
1034	254	168	214
1035	252	169	216
1036	252	174	216
1037	255	186	221
1038	252	188	218
1039	250	194	219
1040	251	204	222
1041	255	219	228
1042	0	0	0
1043	0	0	0
1044	0	0	0
1045	0	0	0
1046	0	0	0
1047	0	0	0
1048	255	234	231
1049	255	231	231
1050	253	206	218
1051	245	183	211
1052	249	181	214
1053	251	175	212
1054	251	169	213
1055	253	165	220
1056	255	167	226
1057	255	164	224
1058	255	164	223
1059	252	158	217
1060	255	162	218
1061	254	163	216
1062	255	170	217
1063	255	174	216
1064	255	177	220
1065	255	182	217
1066	255	186	217
1067	251	188	216
1068	255	201	222
1069	255	211	226
1070	254	216	226
1071	255	225	229
1072	0	0	0
1073	0	0	0
1074	0	0	0
1075	0	0	0
1076	255	243	236
1077	255	237	234
1078	255	220	224
1079	247	195	212
1080	250	189	215
1081	254	185	218
1082	250	175	211
1083	250	168	211
1084	255	173	223
1085	255	174	229
1086	253	162	220
1087	254	162	220
1088	252	159	217
1089	255	164	219
1090	253	164	217
1091	255	170	218
1092	253	171	213
1093	252	172	216
1094	255	182	217
1095	254	186	217
1096	253	191	219
1097	255	205	226
1098	255	207	225
1099	253	213	226
1100	252	217	226
1101	240	207	216
1102	0	0	0
1103	0	0	0
1104	255	243	234
1105	255	246	238
1106	255	227	227
1107	253	211	220
1108	255	203	219
1109	255	195	219
1110	255	188	220
1111	254	178	218
1112	255	182	225
1113	255	185	230
1114	255	174	225
1115	252	162	217
1116	255	164	219
1117	253	162	218
1118	254	165	219
1119	252	164	216
1120	252	168	216
1121	251	170	214
1122	249	172	216
1123	253	182	220
1124	255	189	222
1125	255	194	224
1126	255	199	226
1127	253	203	225
1128	251	206	225
1129	250	212	225
1130	250	218	226
1131	255	228	231
1132	0	0	0
1133	255	246	238
1134	255	235	232
1135	251	215	220
1136	251	205	218
1137	252	197	218
1138	252	188	217
1139	251	180	217
1140	251	175	218
1141	255	178	224
1142	255	174	221
1143	251	163	215
1144	251	161	215
1145	253	163	218
1146	252	162	217
1147	253	165	218
1148	251	165	216
1149	251	168	217
1150	253	176	220
1151	255	185	226
1152	255	193	229
1153	255	200	232
1154	251	189	222
1155	252	195	224
1156	255	208	230
1157	255	212	231
1158	255	215	230
1159	255	223	232
1160	253	219	225
1161	255	245	237
1162	255	233	230
1163	254	222	225
1164	251	210	220
1165	251	201	218
1166	250	191	217
1167	249	182	219
1168	250	178	221
1169	249	171	219
1170	250	168	218
1171	248	163	213
1172	251	164	215
1173	252	163	216
1174	253	164	217
1175	251	162	215
1176	250	164	216
1177	249	164	216
1178	253	174	221
1179	255	181	223
1180	255	193	229
1181	255	201	234
1182	255	193	226
1183	244	182	216
1184	0	0	0
1185	255	209	230
1186	255	210	229
1187	255	213	229
1188	254	212	226
1189	0	0	0
1190	255	242	236
1191	255	231	231
1192	251	213	222
1193	247	201	217
1194	254	204	222
1195	252	194	221
1196	252	187	224
1197	253	182	225
1198	254	180	226
1199	255	177	224
1200	253	170	219
1201	255	170	220
1202	248	160	213
1203	249	161	214
1204	254	169	218
1205	253	170	219
1206	253	173	222
1207	255	183	227
1208	255	186	225
1209	255	193	227
1210	255	199	231
1211	252	191	223
1212	246	189	219
1213	0	0	0
1214	255	218	234
1215	255	219	234
1216	249	206	224
1217	0	0	0
1218	0	0	0
1219	255	239	234
1220	252	221	225
1221	246	203	218
1222	251	205	223
1223	255	206	226
1224	254	197	223
1225	253	189	224
1226	255	188	227
1227	255	186	227
1228	255	181	225
1229	254	174	223
1230	251	166	219
1231	243	155	211
1232	251	167	218
1233	255	174	222
1234	255	180	225
1235	255	183	228
1236	255	188	229
1237	255	191	224
1238	255	192	224
1239	255	197	227
1240	253	196	224
1241	0	0	0
1242	0	0	0
1243	0	0	0
1244	252	210	224
1245	0	0	0
1246	0	0	0
1247	0	0	0
1248	255	237	234
1249	252	218	224
1250	247	203	220
1251	251	204	225
1252	255	205	227
1253	253	195	222
1254	254	192	224
1255	255	190	226
1256	255	184	224
1257	254	178	222
1258	252	173	222
1259	248	165	218
1260	250	169	220
1261	255	180	227
1262	252	173	220
1263	255	179	224
1264	252	178	222
1265	252	182	222
1266	255	194	223
1267	255	201	228
1268	254	197	223
1269	0	0	0
1270	0	0	0
1271	0	0	0
1272	0	0	0
1273	0	0	0
1274	0	0	0
1275	0	0	0
1276	0	0	0
1277	255	231	230
1278	251	215	223
1279	245	200	218
1280	251	203	225
1281	254	204	228
1282	254	199	225
1283	254	194	223
1284	253	188	221
1285	252	182	221
1286	251	177	222
1287	249	172	220
1288	255	179	226
1289	255	182	227
1290	255	179	225
1291	250	173	221
1292	251	176	221
1293	247	173	215
1294	254	188	221
1295	255	201	227
1296	255	201	223
1297	253	198	219
1298	0	0	0
1299	0	0	0
1300	0	0	0
1301	0	0	0
1302	0	0	0
1303	0	0	0
1304	0	0	0
1305	0	0	0
1306	0	0	0
1307	251	215	224
1308	250	207	224
1309	255	210	231
1310	254	204	228
1311	253	197	224
1312	255	198	224
1313	254	191	223
1314	251	183	223
1315	251	179	224
1316	255	182	226
1317	255	189	231
1318	252	176	222
1319	250	173	221
1320	252	176	223
1321	253	179	223
1322	252	181	220
1323	255	196	226
1324	254	193	222
1325	250	193	217
1326	252	199	219
1327	0	0	0
1328	0	0	0
1329	0	0	0
1330	0	0	0
1331	0	0	0
1332	0	0	0
1333	0	0	0
1334	0	0	0
1335	0	0	0
1336	0	0	0
1337	250	210	229
1338	253	208	231
1339	251	201	226
1340	254	201	227
1341	255	202	228
1342	254	193	225
1343	251	185	225
1344	254	188	230
1345	255	190	230
1346	251	180	223
1347	243	167	217
1348	249	174	223
1349	250	177	223
1350	254	184	226
1351	255	188	225
1352	253	187	222
1353	248	185	218
1354	255	199	226
1355	0	0	0
1356	0	0	0
1357	0	0	0
1358	0	0	0
1359	0	0	0
1360	0	0	0
1361	0	0	0
1362	0	0	0
1363	0	0	0
1364	0	0	0
1365	0	0	0
1366	251	218	233
1367	255	216	236
1368	250	202	227
1369	253	202	227
1370	255	204	230
1371	254	196	226
1372	249	188	225
1373	252	190	228
1374	255	200	234
1375	255	190	228
1376	246	175	221
1377	249	182	227
1378	250	183	226
1379	255	191	230
1380	255	190	227
1381	253	190	225
1382	255	195	226
1383	0	0	0
1384	0	0	0
1385	0	0	0
1386	0	0	0
1387	0	0	0
1388	0	0	0
1389	0	0	0
1390	0	0	0
1391	0	0	0
1392	0	0	0
1393	0	0	0
1394	0	0	0
1395	0	0	0
1396	249	212	229
1397	244	198	223
1398	250	202	227
1399	255	205	229
1400	254	199	227
1401	249	191	223
1402	255	201	231
1403	255	212	238
1404	255	197	230
1405	247	182	223
1406	249	187	228
1407	250	188	228
1408	253	191	228
1409	252	190	225
1410	0	0	0
1411	0	0	0
1412	0	0	0
1413	0	0	0
1414	0	0	0
1415	0	0	0
1416	0	0	0
1417	0	0	0
1418	0	0	0
1419	0	0	0
1420	0	0	0
1421	0	0	0
1422	0	0	0
1423	0	0	0
1424	0	0	0
1425	0	0	0
1426	0	0	0
1427	255	223	240
1428	255	211	233
1429	255	205	230
1430	247	190	221
1431	255	201	229
1432	255	206	232
1433	251	191	223
1434	248	186	224
1435	251	191	229
1436	255	197	233
1437	255	198	233
1438	253	193	226
1439	255	201	229
1440	0	0	0
1441	0	0	0
1442	0	0	0
1443	0	0	0
1444	0	0	0
1445	0	0	0
1446	0	0	0
1447	0	0	0
1448	0	0	0
1449	0	0	0
1450	0	0	0
1451	0	0	0
1452	0	0	0
1453	0	0	0
1454	0	0	0
1455	0	0	0
1456	0	0	0
1457	0	0	0
1458	252	204	229
1459	243	189	219
1460	249	196	224
1461	253	200	228
1462	248	193	224
1463	244	186	222
1464	245	191	227
1465	250	198	232
1466	249	195	228
1467	246	190	221
1468	0	0	0
1469	0	0	0
1470	0	0	0
1471	0	0	0
1472	0	0	0
1473	0	0	0
1474	0	0	0
1475	0	0	0
1476	0	0	0
1477	0	0	0
1478	0	0	0
1479	0	0	0
1480	0	0	0
1481	0	0	0
1482	0	0	0
1483	0	0	0
1484	0	0	0
1485	0	0	0
1486	0	0	0
1487	0	0	0
1488	250	201	227
1489	255	207	233
1490	254	206	231
1491	245	196	225
1492	246	201	229
1493	244	204	231
1494	0	0	0
1495	0	0	0
1496	0	0	0
1497	0	0	0
1498	0	0	0
1499	0	0	0
1500	0	0	0
1501	0	0	0
1502	0	0	0
1503	0	0	0
1504	0	0	0
1505	0	0	0
1506	0	0	0
1507	0	0	0
1508	0	0	0
1509	0	0	0
1510	0	0	0
1511	0	0	0
1512	0	0	0
1513	0	0	0
1514	0	0	0
1515	0	0	0
1516	0	0	0
1517	0	0	0
1518	252	210	233
1519	248	207	230
1520	248	210	232
1521	248	215	236
1522	0	0	0
1523	0	0	0
1524	0	0	0
1525	0	0	0
1526	0	0	0
1527	0	0	0
1528	0	0	0
1529	0	0	0
1530	0	0	0
1531	0	0	0
1532	0	0	0
1533	0	0	0
1534	0	0	0
1535	0	0	0
1536	0	0	0
1537	0	0	0
