 	R	G	B
1	0	0	0
2	0	0	0
3	0	0	0
4	0	0	0
5	0	0	0
6	0	0	0
7	0	0	0
8	0	0	0
9	0	0	0
10	0	0	0
11	0	0	0
12	0	0	0
13	0	0	0
14	0	0	0
15	0	0	0
16	0	0	0
17	0	0	0
18	0	0	0
19	0	0	0
20	0	0	0
21	0	0	0
22	0	0	0
23	0	0	0
24	0	0	0
25	0	0	0
26	0	0	0
27	0	0	0
28	250	235	225
29	0	0	0
30	0	0	0
31	0	0	0
32	0	0	0
33	0	0	0
34	0	0	0
35	0	0	0
36	0	0	0
37	0	0	0
38	0	0	0
39	0	0	0
40	0	0	0
41	0	0	0
42	0	0	0
43	0	0	0
44	0	0	0
45	0	0	0
46	0	0	0
47	0	0	0
48	0	0	0
49	0	0	0
50	0	0	0
51	0	0	0
52	0	0	0
53	0	0	0
54	0	0	0
55	0	0	0
56	0	0	0
57	0	0	0
58	0	0	0
59	0	0	0
60	0	0	0
61	255	245	230
62	254	234	224
63	254	238	230
64	0	0	0
65	0	0	0
66	0	0	0
67	0	0	0
68	0	0	0
69	0	0	0
70	0	0	0
71	0	0	0
72	0	0	0
73	0	0	0
74	0	0	0
75	0	0	0
76	0	0	0
77	0	0	0
78	0	0	0
79	0	0	0
80	0	0	0
81	0	0	0
82	0	0	0
83	0	0	0
84	0	0	0
85	0	0	0
86	0	0	0
87	0	0	0
88	0	0	0
89	0	0	0
90	0	0	0
91	0	0	0
92	0	0	0
93	0	0	0
94	0	0	0
95	255	226	216
96	246	214	210
97	247	218	217
98	249	228	227
99	0	0	0
100	0	0	0
101	0	0	0
102	0	0	0
103	0	0	0
104	0	0	0
105	0	0	0
106	0	0	0
107	0	0	0
108	0	0	0
109	0	0	0
110	0	0	0
111	0	0	0
112	0	0	0
113	0	0	0
114	0	0	0
115	0	0	0
116	0	0	0
117	0	0	0
118	0	0	0
119	0	0	0
120	0	0	0
121	0	0	0
122	0	0	0
123	0	0	0
124	0	0	0
125	255	225	219
126	255	226	221
127	255	226	221
128	255	222	215
129	252	211	207
130	242	199	201
131	248	212	212
132	248	220	221
133	0	0	0
134	0	0	0
135	0	0	0
136	0	0	0
137	0	0	0
138	0	0	0
139	0	0	0
140	0	0	0
141	0	0	0
142	0	0	0
143	0	0	0
144	0	0	0
145	0	0	0
146	0	0	0
147	0	0	0
148	0	0	0
149	0	0	0
150	0	0	0
151	0	0	0
152	0	0	0
153	0	0	0
154	250	232	224
155	0	0	0
156	0	0	0
157	0	0	0
158	255	222	220
159	255	224	221
160	255	212	214
161	255	211	214
162	250	200	205
163	243	190	197
164	245	196	202
165	250	208	212
166	247	213	218
167	0	0	0
168	0	0	0
169	0	0	0
170	0	0	0
171	0	0	0
172	0	0	0
173	0	0	0
174	0	0	0
175	0	0	0
176	0	0	0
177	0	0	0
178	0	0	0
179	0	0	0
180	0	0	0
181	0	0	0
182	0	0	0
183	0	0	0
184	0	0	0
185	0	0	0
186	0	0	0
187	252	237	225
188	254	234	227
189	254	223	223
190	0	0	0
191	255	215	219
192	255	218	218
193	255	207	211
194	249	195	204
195	246	188	201
196	240	178	197
197	249	190	205
198	249	194	205
199	251	204	213
200	247	209	219
201	0	0	0
202	0	0	0
203	0	0	0
204	0	0	0
205	0	0	0
206	0	0	0
207	0	0	0
208	0	0	0
209	0	0	0
210	0	0	0
211	0	0	0
212	0	0	0
213	0	0	0
214	0	0	0
215	0	0	0
216	0	0	0
217	0	0	0
218	0	0	0
219	0	0	0
220	255	242	226
221	255	238	226
222	254	225	223
223	251	214	219
224	255	212	219
225	255	221	225
226	254	202	211
227	251	192	205
228	249	187	204
229	245	180	201
230	249	184	206
231	255	195	214
232	245	182	201
233	244	190	207
234	246	204	218
235	0	0	0
236	0	0	0
237	0	0	0
238	0	0	0
239	0	0	0
240	0	0	0
241	0	0	0
242	0	0	0
243	0	0	0
244	0	0	0
245	0	0	0
246	0	0	0
247	0	0	0
248	0	0	0
249	0	0	0
250	0	0	0
251	0	0	0
252	0	0	0
253	0	0	0
254	255	242	228
255	255	228	220
256	251	215	216
257	255	216	220
258	255	214	219
259	250	197	209
260	241	180	199
261	242	178	201
262	242	173	202
263	248	180	208
264	251	182	208
265	247	178	204
266	234	165	193
267	240	184	206
268	240	196	215
269	0	0	0
270	0	0	0
271	0	0	0
272	0	0	0
273	0	0	0
274	0	0	0
275	0	0	0
276	0	0	0
277	0	0	0
278	0	0	0
279	0	0	0
280	0	0	0
281	0	0	0
282	0	0	0
283	0	0	0
284	0	0	0
285	0	0	0
286	0	0	0
287	0	0	0
288	255	237	227
289	255	222	218
290	249	207	213
291	254	208	217
292	255	208	217
293	245	190	207
294	242	182	205
295	242	180	208
296	243	177	211
297	252	185	217
298	249	179	210
299	245	174	205
300	234	166	200
301	238	184	211
302	237	198	218
303	0	0	0
304	0	0	0
305	0	0	0
306	0	0	0
307	0	0	0
308	0	0	0
309	0	0	0
310	0	0	0
311	0	0	0
312	0	0	0
313	0	0	0
314	0	0	0
315	0	0	0
316	0	0	0
317	0	0	0
318	0	0	0
319	0	0	0
320	0	0	0
321	255	233	225
322	255	232	226
323	253	215	217
324	246	200	211
325	250	200	214
326	253	200	218
327	245	189	212
328	238	179	208
329	237	176	209
330	239	175	213
331	247	178	217
332	245	172	210
333	245	174	211
334	235	168	207
335	242	189	221
336	240	201	223
337	0	0	0
338	0	0	0
339	0	0	0
340	0	0	0
341	0	0	0
342	0	0	0
343	0	0	0
344	0	0	0
345	0	0	0
346	0	0	0
347	0	0	0
348	0	0	0
349	0	0	0
350	0	0	0
351	0	0	0
352	0	0	0
353	0	0	0
354	255	230	222
355	255	228	223
356	255	220	219
357	247	203	211
358	249	203	214
359	253	203	217
360	255	206	223
361	246	194	216
362	236	181	209
363	234	177	210
364	251	194	226
365	255	198	232
366	242	167	208
367	242	169	210
368	243	178	217
369	252	201	230
370	241	197	222
371	0	0	0
372	0	0	0
373	0	0	0
374	0	0	0
375	0	0	0
376	0	0	0
377	0	0	0
378	0	0	0
379	0	0	0
380	0	0	0
381	0	0	0
382	0	0	0
383	0	0	0
384	0	0	0
385	0	0	0
386	0	0	0
387	0	0	0
388	253	224	219
389	251	215	215
390	247	205	210
391	247	204	211
392	250	204	214
393	255	208	220
394	255	210	222
395	247	196	215
396	239	185	211
397	250	198	224
398	255	214	236
399	255	191	223
400	237	161	204
401	249	179	217
402	250	187	219
403	247	192	220
404	238	189	216
405	0	0	0
406	0	0	0
407	0	0	0
408	0	0	0
409	0	0	0
410	0	0	0
411	0	0	0
412	0	0	0
413	0	0	0
414	0	0	0
415	0	0	0
416	0	0	0
417	0	0	0
418	0	0	0
419	0	0	0
420	0	0	0
421	0	0	0
422	255	225	221
423	255	217	217
424	249	206	210
425	243	201	208
426	248	205	214
427	255	211	221
428	252	199	213
429	240	185	205
430	245	190	214
431	255	205	228
432	255	198	223
433	245	173	209
434	238	161	205
435	249	179	219
436	244	179	213
437	242	184	213
438	239	190	215
439	0	0	0
440	0	0	0
441	0	0	0
442	0	0	0
443	0	0	0
444	0	0	0
445	0	0	0
446	0	0	0
447	0	0	0
448	0	0	0
449	0	0	0
450	0	0	0
451	0	0	0
452	0	0	0
453	0	0	0
454	0	0	0
455	255	232	224
456	255	227	222
457	255	219	218
458	251	208	210
459	248	207	210
460	253	211	218
461	253	202	215
462	247	190	207
463	248	193	210
464	253	197	218
465	253	192	217
466	250	184	214
467	244	174	210
468	236	161	207
469	242	171	215
470	238	171	210
471	241	184	215
472	237	188	213
473	0	0	0
474	0	0	0
475	0	0	0
476	0	0	0
477	0	0	0
478	0	0	0
479	0	0	0
480	0	0	0
481	0	0	0
482	0	0	0
483	0	0	0
484	0	0	0
485	0	0	0
486	0	0	0
487	0	0	0
488	255	233	226
489	255	227	222
490	249	207	209
491	245	197	203
492	252	205	209
493	254	207	213
494	252	203	215
495	245	191	208
496	246	190	208
497	252	196	213
498	251	191	214
499	248	184	213
500	240	171	207
501	229	158	201
502	233	165	209
503	243	177	219
504	241	177	215
505	242	188	219
506	232	186	211
507	0	0	0
508	0	0	0
509	0	0	0
510	0	0	0
511	0	0	0
512	0	0	0
513	0	0	0
514	0	0	0
515	0	0	0
516	0	0	0
517	0	0	0
518	0	0	0
519	0	0	0
520	0	0	0
521	255	226	222
522	255	227	222
523	247	206	208
524	236	185	196
525	246	196	205
526	254	205	213
527	253	200	213
528	250	195	214
529	248	194	214
530	249	193	212
531	253	191	214
532	253	187	215
533	245	175	211
534	236	163	207
535	236	169	212
536	239	174	217
537	246	182	222
538	244	182	219
539	242	188	219
540	233	186	214
541	0	0	0
542	0	0	0
543	0	0	0
544	0	0	0
545	0	0	0
546	0	0	0
547	0	0	0
548	0	0	0
549	0	0	0
550	0	0	0
551	0	0	0
552	0	0	0
553	0	0	0
554	253	226	222
555	255	229	225
556	251	212	214
557	234	189	198
558	240	194	205
559	255	207	216
560	255	207	217
561	255	202	215
562	250	193	215
563	246	190	214
564	245	185	210
565	252	184	213
566	247	172	210
567	237	160	204
568	241	167	211
569	246	174	218
570	241	170	215
571	243	176	217
572	242	179	216
573	244	186	219
574	239	189	218
575	0	0	0
576	0	0	0
577	0	0	0
578	0	0	0
579	0	0	0
580	0	0	0
581	0	0	0
582	0	0	0
583	0	0	0
584	0	0	0
585	0	0	0
586	0	0	0
587	0	0	0
588	255	226	224
589	251	212	216
590	242	196	207
591	243	199	211
592	249	205	217
593	255	209	220
594	255	207	215
595	251	195	208
596	247	188	212
597	243	181	212
598	244	177	211
599	248	171	211
600	243	159	205
601	246	166	211
602	249	171	215
603	248	171	214
604	244	168	211
605	248	176	216
606	246	179	217
607	248	189	222
608	242	190	217
609	0	0	0
610	0	0	0
611	0	0	0
612	0	0	0
613	0	0	0
614	0	0	0
615	0	0	0
616	0	0	0
617	0	0	0
618	0	0	0
619	0	0	0
620	0	0	0
621	0	0	0
622	255	224	224
623	251	209	216
624	245	198	212
625	249	203	217
626	254	207	222
627	255	209	223
628	247	190	205
629	234	177	196
630	246	190	214
631	252	188	219
632	252	179	215
633	252	171	213
634	247	159	208
635	254	168	215
636	253	168	213
637	251	166	210
638	253	171	214
639	255	181	221
640	242	165	209
641	238	172	211
642	236	185	213
643	0	0	0
644	0	0	0
645	0	0	0
646	0	0	0
647	0	0	0
648	0	0	0
649	0	0	0
650	0	0	0
651	255	240	235
652	255	239	235
653	0	0	0
654	0	0	0
655	255	222	221
656	255	221	222
657	248	208	215
658	244	197	213
659	250	202	218
660	255	204	221
661	248	191	212
662	235	174	198
663	236	180	203
664	247	192	217
665	250	183	214
666	250	174	209
667	250	166	207
668	247	155	205
669	254	163	213
670	254	163	210
671	255	169	213
672	255	174	217
673	249	164	210
674	231	148	198
675	237	169	211
676	234	182	215
677	0	0	0
678	0	0	0
679	0	0	0
680	0	0	0
681	0	0	0
682	0	0	0
683	0	0	0
684	255	241	234
685	255	240	236
686	255	230	229
687	253	223	223
688	252	217	218
689	253	215	217
690	247	207	213
691	232	189	202
692	246	206	217
693	255	215	227
694	255	203	219
695	241	185	207
696	233	176	203
697	240	185	212
698	243	184	214
699	242	173	208
700	250	173	209
701	251	166	207
702	252	160	209
703	255	168	216
704	251	156	206
705	255	163	211
706	250	159	208
707	233	146	198
708	233	155	204
709	243	179	219
710	234	181	216
711	0	0	0
712	0	0	0
713	0	0	0
714	0	0	0
715	0	0	0
716	0	0	0
717	255	244	227
718	255	240	229
719	255	230	226
720	252	220	219
721	252	216	218
722	252	212	218
723	252	207	216
724	244	198	211
725	246	205	215
726	255	220	227
727	255	211	222
728	252	198	212
729	242	186	207
730	237	178	208
731	239	178	212
732	242	177	214
733	248	176	214
734	254	176	214
735	255	172	213
736	255	164	211
737	252	157	207
738	244	146	199
739	246	147	201
740	240	144	200
741	240	155	207
742	240	164	212
743	241	175	218
744	233	178	214
745	241	206	227
746	0	0	0
747	0	0	0
748	0	0	0
749	0	0	0
750	254	239	222
751	255	235	221
752	253	224	218
753	247	213	214
754	254	219	219
755	255	216	220
756	251	204	216
757	250	198	214
758	252	200	216
759	255	211	222
760	255	212	222
761	249	195	210
762	248	192	209
763	246	185	208
764	251	188	216
765	254	187	220
766	255	184	221
767	255	182	221
768	255	176	216
769	255	169	213
770	246	151	203
771	241	144	199
772	247	152	205
773	249	154	208
774	246	152	207
775	252	166	217
776	248	169	217
777	246	179	219
778	242	187	220
779	248	215	232
780	246	225	231
781	0	0	0
782	0	0	0
783	252	233	226
784	255	235	227
785	254	224	221
786	248	211	215
787	248	212	216
788	253	217	219
789	249	203	213
790	243	191	209
791	247	194	213
792	248	195	213
793	252	198	214
794	253	199	213
795	246	191	208
796	248	190	212
797	255	193	218
798	255	193	218
799	255	189	217
800	255	186	219
801	255	179	217
802	255	172	214
803	252	159	209
804	242	142	202
805	250	155	213
806	255	163	219
807	255	165	219
808	254	161	216
809	255	171	221
810	254	175	220
811	254	188	223
812	248	196	221
813	241	204	220
814	240	215	224
815	0	0	0
816	0	0	0
817	0	0	0
818	255	223	226
819	249	211	219
820	247	207	216
821	244	206	215
822	250	213	220
823	246	200	213
824	249	201	217
825	248	203	218
826	245	198	215
827	251	202	217
828	251	199	215
829	248	193	212
830	251	193	217
831	255	195	222
832	254	184	213
833	254	179	210
834	255	182	216
835	255	174	213
836	255	167	211
837	251	155	207
838	243	141	204
839	254	155	217
840	255	157	218
841	255	157	217
842	247	148	208
843	251	158	213
844	251	169	215
845	250	182	217
846	241	186	214
847	236	195	215
848	243	217	228
849	0	0	0
850	0	0	0
851	0	0	0
852	0	0	0
853	0	0	0
854	242	199	215
855	243	203	218
856	249	210	224
857	255	213	227
858	255	213	225
859	245	204	218
860	243	200	216
861	247	199	218
862	248	197	218
863	249	195	217
864	252	194	218
865	254	187	217
866	251	178	213
867	252	176	213
868	254	176	214
869	249	164	207
870	248	157	204
871	245	147	202
872	238	133	199
873	247	143	210
874	249	145	211
875	247	143	209
876	239	135	202
877	250	155	212
878	250	165	212
879	244	172	211
880	236	177	211
881	236	195	219
882	244	217	231
883	0	0	0
884	0	0	0
885	0	0	0
886	0	0	0
887	0	0	0
888	252	212	224
889	255	217	229
890	249	207	225
891	254	209	227
892	249	205	221
893	237	196	213
894	240	199	217
895	244	199	219
896	250	202	223
897	250	199	223
898	245	184	215
899	248	179	215
900	248	174	215
901	245	170	213
902	253	180	218
903	247	168	210
904	251	167	212
905	250	158	210
906	245	144	207
907	252	154	217
908	250	150	214
909	250	149	214
910	241	138	206
911	253	159	217
912	251	165	214
913	247	173	214
914	242	183	218
915	238	200	223
916	242	218	231
917	0	0	0
918	0	0	0
919	0	0	0
920	0	0	0
921	255	226	230
922	255	220	224
923	248	209	219
924	242	199	218
925	244	200	222
926	240	196	218
927	238	197	218
928	241	201	222
929	247	204	225
930	252	205	226
931	241	187	216
932	236	174	213
933	243	173	217
934	240	166	212
935	243	173	215
936	252	183	221
937	252	178	218
938	255	177	221
939	255	166	217
940	248	152	211
941	249	152	214
942	248	149	213
943	245	145	211
944	237	135	205
945	248	154	216
946	247	162	214
947	250	178	220
948	244	187	221
949	239	201	223
950	241	219	228
951	0	0	0
952	0	0	0
953	0	0	0
954	255	228	232
955	255	222	226
956	250	212	217
957	240	199	210
958	241	203	219
959	240	202	222
960	240	202	223
961	247	208	229
962	245	203	227
963	249	204	228
964	248	199	224
965	235	180	213
966	243	186	224
967	245	184	226
968	238	172	216
969	244	179	219
970	253	187	223
971	255	184	222
972	255	178	221
973	253	165	215
974	248	154	212
975	250	155	215
976	253	160	217
977	248	155	214
978	241	146	211
979	254	166	224
980	251	169	220
981	255	186	226
982	243	185	218
983	237	199	220
984	240	217	226
985	0	0	0
986	0	0	0
987	0	0	0
988	255	226	232
989	250	214	222
990	243	203	213
991	241	204	214
992	242	207	220
993	241	207	223
994	242	207	226
995	241	203	225
996	240	197	223
997	239	193	221
998	238	189	219
999	239	190	221
1000	245	194	227
1001	243	186	224
1002	237	176	217
1003	245	183	221
1004	254	190	224
1005	255	183	219
1006	255	178	217
1007	255	169	215
1008	251	159	214
1009	255	168	221
1010	255	171	219
1011	252	163	214
1012	246	156	215
1013	255	171	227
1014	253	174	221
1015	249	180	219
1016	238	181	213
1017	237	198	219
1018	242	217	228
1019	0	0	0
1020	0	0	0
1021	0	0	0
1022	0	0	0
1023	242	206	216
1024	247	214	221
1025	247	216	223
1026	247	215	225
1027	249	216	228
1028	241	205	224
1029	233	197	220
1030	236	201	224
1031	236	197	222
1032	240	200	225
1033	244	202	227
1034	245	199	226
1035	244	192	222
1036	242	184	220
1037	252	192	226
1038	255	193	224
1039	255	184	218
1040	254	173	212
1041	251	165	210
1042	249	159	212
1043	255	167	219
1044	255	167	214
1045	250	160	210
1046	250	161	216
1047	255	175	227
1048	248	170	217
1049	242	175	214
1050	238	183	214
1051	243	204	223
1052	242	213	225
1053	0	0	0
1054	0	0	0
1055	0	0	0
1056	0	0	0
1057	249	218	225
1058	255	227	232
1059	252	224	230
1060	252	222	229
1061	247	213	225
1062	239	202	221
1063	236	203	223
1064	238	207	226
1065	244	211	230
1066	251	216	233
1067	253	214	233
1068	254	211	230
1069	252	203	226
1070	250	194	223
1071	255	195	225
1072	255	195	224
1073	255	182	216
1074	252	171	211
1075	252	166	212
1076	249	160	210
1077	254	165	216
1078	255	166	217
1079	255	167	218
1080	253	165	218
1081	254	170	221
1082	246	166	216
1083	246	180	220
1084	243	188	218
1085	243	200	220
1086	243	209	222
1087	249	225	230
1088	0	0	0
1089	0	0	0
1090	0	0	0
1091	0	0	0
1092	253	226	232
1093	252	222	230
1094	250	218	227
1095	243	208	221
1096	243	208	224
1097	242	211	227
1098	244	213	228
1099	253	219	233
1100	252	211	229
1101	255	211	230
1102	248	194	218
1103	242	184	212
1104	249	190	220
1105	254	191	223
1106	255	189	221
1107	249	174	212
1108	253	175	215
1109	253	170	214
1110	251	164	212
1111	255	169	218
1112	255	168	218
1113	255	168	219
1114	252	166	216
1115	254	171	219
1116	249	170	218
1117	255	187	226
1118	251	192	222
1119	251	203	223
1120	248	210	223
1121	250	225	229
1122	250	233	234
1123	0	0	0
1124	0	0	0
1125	0	0	0
1126	0	0	0
1127	248	218	229
1128	246	215	226
1129	246	215	226
1130	247	216	228
1131	248	218	229
1132	251	220	229
1133	251	213	226
1134	251	206	223
1135	249	195	219
1136	240	179	211
1137	240	182	214
1138	246	187	221
1139	245	181	219
1140	247	179	219
1141	247	176	218
1142	251	176	217
1143	254	174	217
1144	252	168	214
1145	255	170	218
1146	254	169	218
1147	254	169	218
1148	251	167	214
1149	254	172	218
1150	251	172	216
1151	255	186	223
1152	253	191	222
1153	252	201	223
1154	247	208	221
1155	241	212	220
1156	0	0	0
1157	0	0	0
1158	0	0	0
1159	0	0	0
1160	0	0	0
1161	241	212	225
1162	247	221	231
1163	247	220	230
1164	247	218	228
1165	252	222	231
1166	250	213	225
1167	247	205	221
1168	246	198	219
1169	242	186	216
1170	233	172	210
1171	232	174	213
1172	243	191	224
1173	239	184	219
1174	244	187	223
1175	247	185	222
1176	255	189	224
1177	255	188	225
1178	251	169	214
1179	254	171	217
1180	255	171	218
1181	255	172	218
1182	254	172	217
1183	255	177	220
1184	250	171	214
1185	255	185	222
1186	249	184	217
1187	245	193	218
1188	242	204	218
1189	0	0	0
1190	0	0	0
1191	0	0	0
1192	0	0	0
1193	0	0	0
1194	0	0	0
1195	0	0	0
1196	246	226	234
1197	0	0	0
1198	0	0	0
1199	249	214	227
1200	247	206	223
1201	241	195	218
1202	238	187	216
1203	233	177	213
1204	223	162	208
1205	233	180	221
1206	244	197	229
1207	247	198	228
1208	251	200	228
1209	253	199	227
1210	255	203	230
1211	254	186	220
1212	245	167	210
1213	251	172	216
1214	253	173	217
1215	255	175	219
1216	255	176	219
1217	254	175	218
1218	248	169	212
1219	251	178	217
1220	244	178	215
1221	245	193	220
1222	242	203	218
1223	0	0	0
1224	0	0	0
1225	0	0	0
1226	0	0	0
1227	0	0	0
1228	0	0	0
1229	0	0	0
1230	0	0	0
1231	0	0	0
1232	251	227	234
1233	255	224	236
1234	246	200	222
1235	235	187	215
1236	243	198	226
1237	236	187	221
1238	233	182	222
1239	245	202	235
1240	244	198	229
1241	254	202	230
1242	252	195	223
1243	249	192	220
1244	251	193	221
1245	236	172	208
1246	239	170	212
1247	249	178	221
1248	252	177	220
1249	255	181	223
1250	253	176	220
1251	252	175	218
1252	249	173	215
1253	254	182	220
1254	247	181	218
1255	249	196	224
1256	243	199	218
1257	0	0	0
1258	0	0	0
1259	0	0	0
1260	0	0	0
1261	0	0	0
1262	0	0	0
1263	0	0	0
1264	0	0	0
1265	0	0	0
1266	0	0	0
1267	245	209	225
1268	231	184	212
1269	238	195	221
1270	246	206	231
1271	245	203	230
1272	241	199	228
1273	240	198	228
1274	241	195	224
1275	251	196	226
1276	250	191	220
1277	245	187	217
1278	243	186	217
1279	236	179	214
1280	238	178	220
1281	247	182	226
1282	248	180	222
1283	247	176	219
1284	245	172	218
1285	246	173	218
1286	245	172	214
1287	251	180	219
1288	246	179	216
1289	246	190	221
1290	242	195	219
1291	0	0	0
1292	0	0	0
1293	0	0	0
1294	0	0	0
1295	0	0	0
1296	0	0	0
1297	0	0	0
1298	0	0	0
1299	0	0	0
1300	0	0	0
1301	0	0	0
1302	236	203	223
1303	251	218	237
1304	246	209	232
1305	244	206	230
1306	244	204	229
1307	243	203	229
1308	238	190	222
1309	246	192	225
1310	244	186	219
1311	237	182	215
1312	233	180	214
1313	227	173	212
1314	238	186	226
1315	245	189	231
1316	237	175	219
1317	234	169	215
1318	238	175	220
1319	240	177	220
1320	246	183	221
1321	255	193	227
1322	246	179	216
1323	248	191	221
1324	246	197	222
1325	0	0	0
1326	0	0	0
1327	0	0	0
1328	0	0	0
1329	0	0	0
1330	0	0	0
1331	0	0	0
1332	0	0	0
1333	0	0	0
1334	0	0	0
1335	0	0	0
1336	0	0	0
1337	246	217	234
1338	243	209	231
1339	244	209	231
1340	243	206	228
1341	234	193	221
1342	230	182	220
1343	235	183	223
1344	231	177	216
1345	228	176	214
1346	227	175	215
1347	234	184	223
1348	243	195	232
1349	239	183	226
1350	231	171	218
1351	237	178	224
1352	240	183	226
1353	243	188	227
1354	249	194	228
1355	251	189	224
1356	241	176	212
1357	248	190	220
1358	249	197	222
1359	255	214	230
1360	0	0	0
1361	0	0	0
1362	0	0	0
1363	0	0	0
1364	0	0	0
1365	0	0	0
1366	0	0	0
1367	0	0	0
1368	0	0	0
1369	0	0	0
1370	0	0	0
1371	0	0	0
1372	245	217	234
1373	247	218	236
1374	239	205	226
1375	232	193	221
1376	234	195	230
1377	232	192	229
1378	228	185	222
1379	233	188	224
1380	234	186	224
1381	245	197	232
1382	246	196	231
1383	238	182	222
1384	242	185	228
1385	250	194	236
1386	241	184	226
1387	241	187	225
1388	246	193	227
1389	245	187	222
1390	237	174	212
1391	249	191	222
1392	251	196	223
1393	255	213	230
1394	249	212	222
1395	0	0	0
1396	0	0	0
1397	0	0	0
1398	0	0	0
1399	0	0	0
1400	0	0	0
1401	0	0	0
1402	0	0	0
1403	0	0	0
1404	0	0	0
1405	0	0	0
1406	247	225	237
1407	240	213	230
1408	234	201	225
1409	238	205	231
1410	240	206	236
1411	234	200	233
1412	231	194	228
1413	237	196	230
1414	238	193	226
1415	243	194	227
1416	245	194	225
1417	246	194	226
1418	250	197	232
1419	247	191	230
1420	239	182	223
1421	241	187	226
1422	244	192	228
1423	237	181	220
1424	231	170	213
1425	246	186	224
1426	248	192	222
1427	248	197	221
1428	239	197	213
1429	0	0	0
1430	0	0	0
1431	0	0	0
1432	0	0	0
1433	0	0	0
1434	0	0	0
1435	0	0	0
1436	0	0	0
1437	0	0	0
1438	0	0	0
1439	0	0	0
1440	253	234	241
1441	243	220	233
1442	239	211	230
1443	245	215	237
1444	243	210	237
1445	239	206	234
1446	237	200	231
1447	242	201	233
1448	239	192	225
1449	241	193	224
1450	246	196	226
1451	251	199	229
1452	248	193	227
1453	241	186	223
1454	243	190	227
1455	248	197	233
1456	239	187	225
1457	227	174	216
1458	234	182	221
1459	255	201	235
1460	248	192	223
1461	244	196	219
1462	244	206	220
1463	0	0	0
1464	0	0	0
1465	0	0	0
1466	0	0	0
1467	0	0	0
1468	0	0	0
1469	0	0	0
1470	0	0	0
1471	0	0	0
1472	0	0	0
1473	0	0	0
1474	0	0	0
1475	248	230	238
1476	243	220	233
1477	246	219	235
1478	246	214	235
1479	244	210	234
1480	242	204	232
1481	238	197	227
1482	233	189	221
1483	241	195	226
1484	248	200	231
1485	252	199	232
1486	247	192	226
1487	241	191	223
1488	241	195	226
1489	236	187	222
1490	230	178	219
1491	235	187	226
1492	242	194	228
1493	251	197	230
1494	244	189	219
1495	248	204	224
1496	249	214	223
1497	0	0	0
1498	0	0	0
1499	0	0	0
1500	0	0	0
1501	0	0	0
1502	0	0	0
1503	0	0	0
1504	0	0	0
1505	0	0	0
1506	0	0	0
1507	0	0	0
1508	0	0	0
1509	0	0	0
1510	246	226	234
1511	251	225	236
1512	249	216	234
1513	250	214	235
1514	243	204	229
1515	230	193	221
1516	236	201	227
1517	249	210	236
1518	248	201	232
1519	253	200	234
1520	242	188	223
1521	229	183	216
1522	234	197	223
1523	229	189	219
1524	235	191	226
1525	251	206	239
1526	245	193	228
1527	247	193	225
1528	243	190	219
1529	249	206	225
1530	243	205	217
1531	0	0	0
1532	0	0	0
1533	0	0	0
1534	0	0	0
1535	0	0	0
1536	0	0	0
1537	0	0	0
1538	0	0	0
1539	0	0	0
1540	0	0	0
1541	0	0	0
1542	0	0	0
1543	0	0	0
1544	0	0	0
1545	246	224	232
1546	244	215	230
1547	0	0	0
1548	0	0	0
1549	240	208	229
1550	246	216	236
1551	242	206	230
1552	240	195	225
1553	241	191	225
1554	232	180	217
1555	231	191	222
1556	237	204	227
1557	238	203	226
1558	244	205	231
1559	245	198	229
1560	239	186	221
1561	244	191	223
1562	240	189	218
1563	243	196	219
1564	240	197	216
1565	0	0	0
1566	0	0	0
1567	0	0	0
1568	0	0	0
1569	0	0	0
1570	0	0	0
1571	0	0	0
1572	0	0	0
1573	0	0	0
1574	0	0	0
1575	0	0	0
1576	0	0	0
1577	0	0	0
1578	0	0	0
1579	0	0	0
1580	0	0	0
1581	0	0	0
1582	244	213	230
1583	254	224	239
1584	243	208	229
1585	230	193	218
1586	237	201	226
1587	235	196	224
1588	237	197	227
1589	247	213	237
1590	245	209	231
1591	250	210	231
1592	251	208	232
1593	241	195	224
1594	239	191	222
1595	244	198	227
1596	242	194	222
1597	252	206	229
1598	246	199	222
1599	0	0	0
1600	0	0	0
1601	0	0	0
1602	0	0	0
1603	0	0	0
1604	0	0	0
1605	0	0	0
1606	0	0	0
1607	0	0	0
1608	0	0	0
1609	0	0	0
1610	0	0	0
1611	0	0	0
1612	0	0	0
1613	0	0	0
1614	0	0	0
1615	0	0	0
1616	0	0	0
1617	244	212	229
1618	232	196	217
1619	237	205	224
1620	244	214	234
1621	247	217	237
1622	248	217	238
1623	248	215	235
1624	248	212	231
1625	252	211	230
1626	252	208	231
1627	245	202	227
1628	242	199	226
1629	245	200	229
1630	244	197	226
1631	246	198	227
1632	0	0	0
1633	0	0	0
1634	0	0	0
1635	0	0	0
1636	0	0	0
1637	0	0	0
1638	0	0	0
1639	0	0	0
1640	0	0	0
1641	0	0	0
1642	0	0	0
1643	0	0	0
1644	0	0	0
1645	0	0	0
1646	0	0	0
1647	0	0	0
1648	0	0	0
1649	0	0	0
1650	0	0	0
1651	0	0	0
1652	234	205	222
1653	247	219	234
1654	246	213	233
1655	249	216	235
1656	248	213	233
1657	245	209	228
1658	244	207	226
1659	245	204	224
1660	251	211	231
1661	247	208	230
1662	244	201	228
1663	250	204	233
1664	245	198	228
1665	0	0	0
1666	0	0	0
1667	0	0	0
1668	0	0	0
1669	0	0	0
1670	0	0	0
1671	0	0	0
1672	0	0	0
1673	0	0	0
1674	0	0	0
1675	0	0	0
1676	0	0	0
1677	0	0	0
1678	0	0	0
1679	0	0	0
1680	0	0	0
1681	0	0	0
1682	0	0	0
1683	0	0	0
1684	0	0	0
1685	0	0	0
1686	0	0	0
1687	244	215	233
1688	242	208	229
1689	245	209	229
1690	243	206	226
1691	241	206	225
1692	241	205	224
1693	248	211	230
1694	253	218	234
1695	247	208	230
1696	244	203	230
1697	247	201	231
1698	241	194	225
1699	0	0	0
1700	0	0	0
1701	0	0	0
1702	0	0	0
1703	0	0	0
1704	0	0	0
1705	0	0	0
1706	0	0	0
1707	0	0	0
1708	0	0	0
1709	0	0	0
1710	0	0	0
1711	0	0	0
1712	0	0	0
1713	0	0	0
1714	0	0	0
1715	0	0	0
1716	0	0	0
1717	0	0	0
1718	0	0	0
1719	0	0	0
1720	0	0	0
1721	0	0	0
1722	244	215	232
1723	245	215	232
1724	240	206	226
1725	239	206	226
1726	238	203	225
1727	247	211	232
1728	247	210	231
1729	238	200	224
1730	242	204	230
1731	242	202	230
1732	0	0	0
1733	0	0	0
1734	0	0	0
1735	0	0	0
1736	0	0	0
1737	0	0	0
1738	0	0	0
1739	0	0	0
1740	0	0	0
1741	0	0	0
1742	0	0	0
1743	0	0	0
1744	0	0	0
1745	0	0	0
1746	0	0	0
1747	0	0	0
1748	0	0	0
1749	0	0	0
1750	0	0	0
1751	0	0	0
1752	0	0	0
1753	0	0	0
1754	0	0	0
1755	0	0	0
1756	0	0	0
1757	241	213	230
1758	236	205	226
1759	235	204	227
1760	235	201	227
1761	238	202	230
1762	238	201	228
1763	240	203	229
1764	243	207	230
1765	0	0	0
1766	0	0	0
1767	0	0	0
1768	0	0	0
