 	R	G	B
1	0	0	0
2	0	0	0
3	0	0	0
4	0	0	0
5	0	0	0
6	0	0	0
7	0	0	0
8	0	0	0
9	0	0	0
10	251	207	211
11	0	0	0
12	0	0	0
13	255	226	217
14	255	221	211
15	255	217	209
16	255	219	211
17	254	216	208
18	255	225	212
19	255	235	217
20	255	233	216
21	255	233	220
22	255	237	224
23	255	240	224
24	255	241	224
25	255	243	226
26	0	0	0
27	0	0	0
28	0	0	0
29	0	0	0
30	0	0	0
31	0	0	0
32	0	0	0
33	0	0	0
34	0	0	0
35	0	0	0
36	0	0	0
37	0	0	0
38	0	0	0
39	0	0	0
40	0	0	0
41	0	0	0
42	0	0	0
43	0	0	0
44	0	0	0
45	0	0	0
46	255	214	219
47	255	210	219
48	244	189	206
49	255	206	215
50	255	213	214
51	255	208	208
52	247	194	199
53	248	196	201
54	251	203	204
55	255	212	208
56	255	221	212
57	255	218	210
58	252	213	209
59	253	216	211
60	255	225	214
61	255	225	214
62	254	224	213
63	252	223	214
64	0	0	0
65	0	0	0
66	0	0	0
67	0	0	0
68	0	0	0
69	0	0	0
70	0	0	0
71	0	0	0
72	0	0	0
73	0	0	0
74	0	0	0
75	0	0	0
76	0	0	0
77	0	0	0
78	0	0	0
79	0	0	0
80	255	225	219
81	255	218	216
82	255	216	218
83	255	211	217
84	251	195	211
85	238	176	202
86	249	189	212
87	254	196	211
88	245	183	199
89	235	169	190
90	243	181	199
91	247	189	203
92	252	198	206
93	255	207	208
94	250	200	203
95	246	195	202
96	251	205	208
97	255	212	210
98	250	209	206
99	248	207	206
100	0	0	0
101	0	0	0
102	255	227	220
103	0	0	0
104	0	0	0
105	0	0	0
106	0	0	0
107	0	0	0
108	0	0	0
109	0	0	0
110	0	0	0
111	0	0	0
112	0	0	0
113	0	0	0
114	0	0	0
115	0	0	0
116	255	226	222
117	255	218	216
118	251	205	209
119	253	203	211
120	255	203	216
121	249	189	211
122	246	180	210
123	255	195	221
124	255	195	218
125	250	182	208
126	244	174	202
127	252	186	210
128	255	192	214
129	255	202	218
130	253	193	206
131	247	186	200
132	253	195	209
133	255	205	215
134	252	200	208
135	247	196	204
136	252	206	213
137	255	212	217
138	255	215	217
139	255	219	219
140	255	221	219
141	0	0	0
142	0	0	0
143	0	0	0
144	0	0	0
145	0	0	0
146	0	0	0
147	0	0	0
148	0	0	0
149	0	0	0
150	0	0	0
151	0	0	0
152	255	221	225
153	255	219	221
154	251	206	213
155	246	194	208
156	250	195	213
157	254	196	219
158	252	189	217
159	248	180	212
160	253	184	216
161	255	186	217
162	252	180	213
163	246	172	207
164	253	182	215
165	255	189	219
166	253	183	212
167	245	174	201
168	249	182	204
169	254	191	212
170	250	187	209
171	244	182	205
172	248	191	211
173	252	200	217
174	251	201	216
175	250	203	213
176	250	204	212
177	250	206	212
178	255	213	217
179	255	221	221
180	255	221	221
181	0	0	0
182	0	0	0
183	0	0	0
184	0	0	0
185	0	0	0
186	0	0	0
187	0	0	0
188	0	0	0
189	255	229	233
190	255	216	223
191	251	204	215
192	251	198	216
193	255	199	221
194	255	194	223
195	253	188	220
196	250	180	215
197	255	184	218
198	255	183	219
199	252	178	216
200	251	175	215
201	255	185	222
202	255	185	221
203	254	180	216
204	246	169	206
205	250	178	210
206	255	190	217
207	252	185	212
208	251	186	213
209	254	195	219
210	255	205	225
211	255	206	223
212	255	207	222
213	255	208	221
214	251	201	214
215	255	208	217
216	253	208	216
217	252	208	215
218	255	215	221
219	0	0	0
220	0	0	0
221	0	0	0
222	0	0	0
223	0	0	0
224	255	230	234
225	255	239	242
226	255	226	233
227	255	213	223
228	253	205	219
229	253	199	221
230	251	192	220
231	250	187	220
232	250	183	219
233	247	176	215
234	251	178	218
235	252	177	217
236	253	177	218
237	253	175	219
238	255	177	221
239	255	176	218
240	251	170	214
241	245	163	211
242	254	177	220
243	255	187	222
244	255	187	217
245	254	188	215
246	255	196	219
247	255	206	225
248	255	205	224
249	255	208	226
250	252	199	219
251	245	190	212
252	246	193	212
253	245	194	210
254	249	201	214
255	253	208	219
256	255	213	224
257	255	219	228
258	255	224	231
259	0	0	0
260	255	229	234
261	255	235	239
262	255	221	232
263	250	206	224
264	250	203	221
265	247	194	217
266	255	203	225
267	252	196	223
268	255	198	228
269	255	194	228
270	251	180	221
271	255	183	224
272	253	176	219
273	254	177	220
274	254	174	221
275	255	177	224
276	253	169	217
277	250	165	214
278	250	164	217
279	255	179	227
280	253	175	219
281	250	174	214
282	255	186	217
283	255	194	219
284	255	196	220
285	254	195	220
286	255	204	227
287	249	194	220
288	254	202	223
289	255	206	224
290	252	202	219
291	255	209	223
292	255	207	221
293	255	212	224
294	254	211	224
295	255	215	227
296	254	214	227
297	0	0	0
298	252	215	226
299	244	199	219
300	243	195	220
301	243	193	221
302	247	197	224
303	253	202	225
304	254	201	224
305	255	203	229
306	254	192	226
307	249	179	220
308	251	177	221
309	249	171	216
310	251	171	217
311	252	169	218
312	253	167	218
313	249	160	213
314	251	162	215
315	250	161	215
316	249	162	216
317	245	160	214
318	252	174	220
319	255	185	221
320	254	185	218
321	252	187	218
322	254	193	222
323	255	201	228
324	255	205	229
325	255	212	231
326	255	207	224
327	253	203	220
328	255	205	221
329	252	202	219
330	251	202	218
331	249	201	220
332	247	200	219
333	0	0	0
334	0	0	0
335	0	0	0
336	0	0	0
337	0	0	0
338	250	205	233
339	0	0	0
340	255	216	235
341	255	215	234
342	255	203	229
343	252	192	225
344	254	188	227
345	255	187	229
346	251	175	222
347	255	176	224
348	255	173	224
349	255	171	225
350	243	151	210
351	246	153	212
352	254	166	219
353	253	167	220
354	251	166	221
355	255	181	229
356	255	181	222
357	253	181	218
358	253	186	220
359	254	191	222
360	255	200	228
361	255	203	229
362	255	206	227
363	250	200	221
364	252	203	223
365	255	205	225
366	249	196	218
367	0	0	0
368	0	0	0
369	0	0	0
370	0	0	0
371	0	0	0
372	0	0	0
373	0	0	0
374	0	0	0
375	0	0	0
376	0	0	0
377	255	226	242
378	255	212	233
379	252	200	227
380	253	197	228
381	255	193	230
382	253	185	228
383	249	174	223
384	253	174	227
385	255	172	229
386	248	158	221
387	235	137	206
388	248	155	216
389	255	167	221
390	254	167	219
391	252	167	220
392	254	173	223
393	252	174	217
394	252	178	217
395	252	182	218
396	252	188	219
397	255	196	224
398	252	196	223
399	252	200	224
400	248	198	223
401	250	201	227
402	249	196	224
403	243	187	216
404	0	0	0
405	0	0	0
406	0	0	0
407	0	0	0
408	0	0	0
409	0	0	0
410	0	0	0
411	0	0	0
412	0	0	0
413	0	0	0
414	255	236	249
415	255	224	242
416	249	201	228
417	249	197	228
418	255	201	235
419	255	193	233
420	252	181	230
421	255	182	235
422	253	170	230
423	246	156	223
424	244	151	218
425	255	169	228
426	255	168	223
427	254	168	221
428	255	170	224
429	255	177	226
430	249	169	216
431	250	174	216
432	252	182	219
433	252	187	219
434	255	201	227
435	254	200	225
436	255	209	231
437	255	208	231
438	254	207	232
439	251	201	228
440	250	199	226
441	255	213	235
442	0	0	0
443	0	0	0
444	0	0	0
445	0	0	0
446	0	0	0
447	0	0	0
448	0	0	0
449	0	0	0
450	0	0	0
451	255	245	253
452	252	220	238
453	240	197	225
454	245	200	230
455	253	204	235
456	250	192	231
457	248	181	227
458	246	171	225
459	242	159	221
460	247	161	225
461	245	156	221
462	252	165	226
463	252	165	222
464	255	169	224
465	255	172	226
466	251	168	222
467	244	161	214
468	249	172	218
469	251	180	221
470	255	194	227
471	255	207	232
472	255	210	231
473	255	219	237
474	255	212	232
475	255	210	229
476	255	209	230
477	255	208	232
478	253	206	230
479	0	0	0
480	0	0	0
481	0	0	0
482	0	0	0
483	0	0	0
484	0	0	0
485	0	0	0
486	0	0	0
487	0	0	0
488	0	0	0
489	242	216	232
490	244	215	234
491	251	219	241
492	251	211	239
493	249	199	234
494	255	200	238
495	255	190	236
496	248	173	229
497	253	176	234
498	250	168	229
499	255	176	234
500	251	166	224
501	254	170	226
502	250	166	223
503	247	163	220
504	251	172	224
505	255	183	228
506	255	186	226
507	255	200	232
508	253	194	224
509	253	198	223
510	255	213	233
511	254	206	227
512	255	208	226
513	254	208	227
514	253	207	229
515	0	0	0
516	0	0	0
517	0	0	0
518	0	0	0
519	0	0	0
520	0	0	0
521	0	0	0
522	0	0	0
523	0	0	0
524	0	0	0
525	0	0	0
526	250	235	242
527	251	234	244
528	249	225	242
529	248	217	241
530	251	213	241
531	255	213	243
532	253	197	236
533	247	181	231
534	252	181	236
535	249	173	232
536	250	170	230
537	243	159	220
538	244	159	219
539	240	155	216
540	248	168	224
541	253	178	230
542	255	184	230
543	254	186	226
544	250	184	221
545	243	180	216
546	249	193	223
547	255	207	230
548	253	205	226
549	253	207	226
550	250	205	225
551	249	204	226
552	0	0	0
553	0	0	0
554	0	0	0
555	0	0	0
556	0	0	0
557	0	0	0
558	0	0	0
559	0	0	0
560	0	0	0
561	0	0	0
562	0	0	0
563	0	0	0
564	251	240	245
565	248	230	242
566	247	225	243
567	246	219	241
568	254	222	244
569	252	208	238
570	253	198	239
571	255	198	245
572	251	182	237
573	252	179	236
574	248	171	229
575	250	172	228
576	248	170	226
577	255	183	233
578	255	190	237
579	255	196	237
580	252	186	225
581	249	184	221
582	251	192	225
583	255	205	232
584	255	212	233
585	253	209	228
586	254	212	229
587	249	209	227
588	251	211	231
589	255	221	239
590	0	0	0
591	0	0	0
592	0	0	0
593	0	0	0
594	0	0	0
595	0	0	0
596	0	0	0
597	0	0	0
598	0	0	0
599	0	0	0
600	0	0	0
601	0	0	0
602	254	243	247
603	251	236	247
604	248	232	246
605	255	234	249
606	252	220	243
607	252	210	241
608	248	197	237
609	242	181	231
610	247	181	234
611	244	175	230
612	251	180	234
613	249	179	231
614	255	191	236
615	255	198	237
616	255	191	229
617	247	182	220
618	252	192	225
619	254	199	227
620	255	205	229
621	255	212	234
622	255	215	234
623	255	218	234
624	253	216	232
625	255	218	237
626	251	209	233
627	0	0	0
628	0	0	0
629	0	0	0
630	0	0	0
631	0	0	0
632	0	0	0
633	0	0	0
634	0	0	0
635	0	0	0
636	0	0	0
637	0	0	0
638	0	0	0
639	0	0	0
640	0	0	0
641	0	0	0
642	0	0	0
643	0	0	0
644	0	0	0
645	0	0	0
646	247	204	240
647	254	205	245
648	249	192	239
649	255	199	245
650	252	189	237
651	255	201	243
652	253	191	232
653	248	185	224
654	247	185	222
655	252	195	227
656	254	203	229
657	255	209	231
658	255	218	238
659	255	222	240
660	253	213	233
661	250	211	231
662	255	220	238
663	0	0	0
664	0	0	0
665	0	0	0
666	0	0	0
667	0	0	0
668	0	0	0
669	0	0	0
670	0	0	0
671	0	0	0
672	0	0	0
673	0	0	0
674	0	0	0
675	0	0	0
676	0	0	0
677	0	0	0
678	0	0	0
679	0	0	0
680	0	0	0
681	0	0	0
682	0	0	0
683	0	0	0
684	252	216	246
685	248	204	242
686	251	201	243
687	247	192	237
688	246	188	234
689	239	178	224
690	241	182	225
691	240	183	222
692	248	196	229
693	252	205	232
694	255	214	236
695	255	223	240
696	252	213	232
697	245	204	229
698	248	211	233
699	0	0	0
700	0	0	0
701	0	0	0
702	0	0	0
703	0	0	0
704	0	0	0
705	0	0	0
706	0	0	0
707	0	0	0
708	0	0	0
709	0	0	0
710	0	0	0
711	0	0	0
712	0	0	0
713	0	0	0
714	0	0	0
715	0	0	0
716	0	0	0
717	0	0	0
718	0	0	0
719	0	0	0
720	0	0	0
721	0	0	0
722	0	0	0
723	0	0	0
724	0	0	0
725	252	206	244
726	246	199	237
727	247	202	237
728	249	206	237
729	255	220	246
730	255	214	241
731	255	224	245
732	0	0	0
733	0	0	0
734	0	0	0
735	0	0	0
736	0	0	0
737	0	0	0
738	0	0	0
739	0	0	0
740	0	0	0
741	0	0	0
742	0	0	0
743	0	0	0
744	0	0	0
745	0	0	0
746	0	0	0
747	0	0	0
748	0	0	0
749	0	0	0
750	0	0	0
751	0	0	0
752	0	0	0
753	0	0	0
754	0	0	0
755	0	0	0
756	0	0	0
757	0	0	0
758	0	0	0
759	0	0	0
760	0	0	0
761	0	0	0
762	0	0	0
763	247	212	239
764	248	218	241
765	251	222	243
766	251	220	243
767	248	214	239
768	0	0	0
769	0	0	0
770	0	0	0
771	0	0	0
772	0	0	0
773	0	0	0
774	0	0	0
775	0	0	0
776	0	0	0
777	0	0	0
