 	R	G	B
1	0	0	0
2	0	0	0
3	0	0	0
4	0	0	0
5	0	0	0
6	0	0	0
7	0	0	0
8	0	0	0
9	0	0	0
10	255	232	228
11	0	0	0
12	0	0	0
13	0	0	0
14	0	0	0
15	0	0	0
16	0	0	0
17	0	0	0
18	0	0	0
19	0	0	0
20	0	0	0
21	0	0	0
22	0	0	0
23	0	0	0
24	0	0	0
25	0	0	0
26	0	0	0
27	0	0	0
28	0	0	0
29	0	0	0
30	0	0	0
31	0	0	0
32	0	0	0
33	0	0	0
34	0	0	0
35	0	0	0
36	0	0	0
37	0	0	0
38	0	0	0
39	0	0	0
40	0	0	0
41	0	0	0
42	0	0	0
43	0	0	0
44	0	0	0
45	0	0	0
46	0	0	0
47	0	0	0
48	0	0	0
49	0	0	0
50	0	0	0
51	0	0	0
52	0	0	0
53	0	0	0
54	0	0	0
55	0	0	0
56	0	0	0
57	0	0	0
58	0	0	0
59	0	0	0
60	0	0	0
61	0	0	0
62	0	0	0
63	0	0	0
64	0	0	0
65	0	0	0
66	0	0	0
67	253	220	222
68	255	227	225
69	250	217	216
70	0	0	0
71	0	0	0
72	0	0	0
73	0	0	0
74	0	0	0
75	0	0	0
76	0	0	0
77	0	0	0
78	0	0	0
79	0	0	0
80	0	0	0
81	0	0	0
82	0	0	0
83	0	0	0
84	0	0	0
85	0	0	0
86	0	0	0
87	0	0	0
88	0	0	0
89	0	0	0
90	0	0	0
91	0	0	0
92	0	0	0
93	0	0	0
94	0	0	0
95	0	0	0
96	0	0	0
97	0	0	0
98	0	0	0
99	0	0	0
100	0	0	0
101	0	0	0
102	0	0	0
103	0	0	0
104	0	0	0
105	0	0	0
106	0	0	0
107	0	0	0
108	0	0	0
109	0	0	0
110	0	0	0
111	0	0	0
112	0	0	0
113	0	0	0
114	0	0	0
115	0	0	0
116	0	0	0
117	0	0	0
118	0	0	0
119	0	0	0
120	0	0	0
121	0	0	0
122	0	0	0
123	0	0	0
124	255	219	224
125	255	217	219
126	255	213	216
127	248	205	211
128	255	220	220
129	255	231	224
130	255	234	224
131	0	0	0
132	0	0	0
133	0	0	0
134	0	0	0
135	0	0	0
136	0	0	0
137	0	0	0
138	0	0	0
139	0	0	0
140	0	0	0
141	0	0	0
142	0	0	0
143	0	0	0
144	0	0	0
145	0	0	0
146	0	0	0
147	0	0	0
148	0	0	0
149	0	0	0
150	0	0	0
151	0	0	0
152	0	0	0
153	0	0	0
154	0	0	0
155	0	0	0
156	0	0	0
157	0	0	0
158	0	0	0
159	0	0	0
160	0	0	0
161	0	0	0
162	0	0	0
163	0	0	0
164	0	0	0
165	0	0	0
166	0	0	0
167	0	0	0
168	0	0	0
169	0	0	0
170	0	0	0
171	0	0	0
172	0	0	0
173	0	0	0
174	0	0	0
175	0	0	0
176	0	0	0
177	0	0	0
178	0	0	0
179	0	0	0
180	0	0	0
181	253	206	218
182	255	208	219
183	255	205	215
184	254	202	213
185	249	196	210
186	255	211	218
187	255	210	213
188	255	213	213
189	253	212	212
190	0	0	0
191	0	0	0
192	0	0	0
193	0	0	0
194	0	0	0
195	0	0	0
196	0	0	0
197	0	0	0
198	0	0	0
199	0	0	0
200	0	0	0
201	0	0	0
202	0	0	0
203	0	0	0
204	0	0	0
205	0	0	0
206	0	0	0
207	0	0	0
208	0	0	0
209	0	0	0
210	0	0	0
211	0	0	0
212	0	0	0
213	0	0	0
214	0	0	0
215	0	0	0
216	0	0	0
217	0	0	0
218	0	0	0
219	0	0	0
220	0	0	0
221	0	0	0
222	0	0	0
223	0	0	0
224	0	0	0
225	0	0	0
226	0	0	0
227	0	0	0
228	0	0	0
229	0	0	0
230	0	0	0
231	0	0	0
232	0	0	0
233	0	0	0
234	0	0	0
235	0	0	0
236	0	0	0
237	0	0	0
238	254	205	220
239	249	193	214
240	254	196	217
241	255	195	216
242	255	194	216
243	251	188	210
244	253	191	211
245	251	191	206
246	250	191	204
247	248	190	203
248	255	206	213
249	255	220	221
250	255	227	221
251	0	0	0
252	0	0	0
253	0	0	0
254	0	0	0
255	0	0	0
256	0	0	0
257	0	0	0
258	0	0	0
259	0	0	0
260	0	0	0
261	0	0	0
262	0	0	0
263	0	0	0
264	0	0	0
265	0	0	0
266	0	0	0
267	0	0	0
268	0	0	0
269	0	0	0
270	0	0	0
271	0	0	0
272	0	0	0
273	0	0	0
274	0	0	0
275	0	0	0
276	0	0	0
277	0	0	0
278	0	0	0
279	0	0	0
280	0	0	0
281	0	0	0
282	0	0	0
283	0	0	0
284	0	0	0
285	0	0	0
286	0	0	0
287	0	0	0
288	0	0	0
289	0	0	0
290	0	0	0
291	0	0	0
292	0	0	0
293	0	0	0
294	0	0	0
295	255	210	223
296	255	202	220
297	251	188	215
298	255	192	221
299	254	184	217
300	255	184	218
301	246	171	208
302	249	175	208
303	255	186	213
304	255	187	212
305	248	177	205
306	255	194	215
307	255	194	211
308	255	200	211
309	252	197	204
310	0	0	0
311	0	0	0
312	0	0	0
313	0	0	0
314	0	0	0
315	0	0	0
316	0	0	0
317	0	0	0
318	0	0	0
319	0	0	0
320	0	0	0
321	0	0	0
322	0	0	0
323	0	0	0
324	0	0	0
325	0	0	0
326	0	0	0
327	0	0	0
328	0	0	0
329	0	0	0
330	0	0	0
331	0	0	0
332	0	0	0
333	0	0	0
334	0	0	0
335	0	0	0
336	0	0	0
337	0	0	0
338	0	0	0
339	0	0	0
340	0	0	0
341	0	0	0
342	0	0	0
343	0	0	0
344	0	0	0
345	0	0	0
346	0	0	0
347	0	0	0
348	0	0	0
349	0	0	0
350	0	0	0
351	0	0	0
352	0	0	0
353	255	202	219
354	250	188	212
355	245	176	210
356	248	174	214
357	245	166	210
358	240	158	207
359	234	147	202
360	248	165	214
361	255	177	218
362	251	170	212
363	244	161	208
364	248	167	211
365	246	167	206
366	245	168	203
367	241	166	197
368	252	184	207
369	255	198	213
370	255	211	218
371	255	225	225
372	255	224	222
373	255	224	223
374	255	231	226
375	0	0	0
376	0	0	0
377	0	0	0
378	0	0	0
379	0	0	0
380	0	0	0
381	0	0	0
382	0	0	0
383	0	0	0
384	0	0	0
385	0	0	0
386	0	0	0
387	0	0	0
388	0	0	0
389	0	0	0
390	0	0	0
391	0	0	0
392	0	0	0
393	0	0	0
394	0	0	0
395	0	0	0
396	0	0	0
397	0	0	0
398	0	0	0
399	0	0	0
400	0	0	0
401	0	0	0
402	0	0	0
403	0	0	0
404	0	0	0
405	0	0	0
406	0	0	0
407	0	0	0
408	0	0	0
409	0	0	0
410	0	0	0
411	255	201	220
412	252	188	215
413	250	180	218
414	252	178	222
415	244	164	214
416	239	156	211
417	244	161	219
418	255	181	233
419	254	167	221
420	249	161	215
421	248	158	217
422	253	165	221
423	255	167	218
424	255	169	216
425	246	158	206
426	255	176	215
427	251	174	208
428	255	186	211
429	255	191	210
430	250	189	206
431	255	201	214
432	255	209	217
433	255	216	218
434	0	0	0
435	0	0	0
436	0	0	0
437	0	0	0
438	0	0	0
439	0	0	0
440	0	0	0
441	0	0	0
442	0	0	0
443	0	0	0
444	0	0	0
445	0	0	0
446	0	0	0
447	0	0	0
448	0	0	0
449	0	0	0
450	0	0	0
451	0	0	0
452	0	0	0
453	0	0	0
454	0	0	0
455	0	0	0
456	0	0	0
457	0	0	0
458	0	0	0
459	0	0	0
460	0	0	0
461	0	0	0
462	0	0	0
463	0	0	0
464	0	0	0
465	0	0	0
466	0	0	0
467	0	0	0
468	255	200	220
469	255	198	221
470	254	188	219
471	251	180	222
472	246	170	220
473	237	156	214
474	244	163	221
475	250	168	227
476	250	161	223
477	244	150	214
478	246	150	215
479	246	147	216
480	252	154	221
481	254	157	219
482	249	150	212
483	240	140	203
484	243	145	205
485	239	144	200
486	242	152	201
487	241	156	198
488	247	170	204
489	253	182	210
490	255	191	213
491	254	197	212
492	255	212	219
493	255	233	232
494	255	231	228
495	0	0	0
496	0	0	0
497	0	0	0
498	0	0	0
499	0	0	0
500	0	0	0
501	0	0	0
502	0	0	0
503	0	0	0
504	0	0	0
505	0	0	0
506	0	0	0
507	0	0	0
508	0	0	0
509	0	0	0
510	0	0	0
511	0	0	0
512	0	0	0
513	0	0	0
514	0	0	0
515	0	0	0
516	0	0	0
517	0	0	0
518	0	0	0
519	0	0	0
520	0	0	0
521	0	0	0
522	0	0	0
523	0	0	0
524	0	0	0
525	254	204	222
526	255	201	223
527	255	195	222
528	254	185	221
529	250	178	223
530	240	165	219
531	238	160	219
532	250	171	230
533	250	165	227
534	248	158	223
535	247	150	220
536	253	153	224
537	248	142	219
538	253	148	223
539	255	152	223
540	251	145	217
541	249	142	214
542	253	148	218
543	251	149	216
544	255	158	218
545	249	154	211
546	255	167	216
547	250	166	212
548	252	174	212
549	250	177	208
550	255	193	214
551	255	201	217
552	251	196	211
553	253	207	214
554	0	0	0
555	0	0	0
556	0	0	0
557	0	0	0
558	0	0	0
559	0	0	0
560	0	0	0
561	0	0	0
562	0	0	0
563	0	0	0
564	0	0	0
565	0	0	0
566	0	0	0
567	0	0	0
568	0	0	0
569	0	0	0
570	0	0	0
571	0	0	0
572	0	0	0
573	0	0	0
574	0	0	0
575	0	0	0
576	0	0	0
577	0	0	0
578	0	0	0
579	0	0	0
580	0	0	0
581	0	0	0
582	0	0	0
583	252	202	221
584	252	195	220
585	252	189	221
586	253	184	223
587	249	176	223
588	243	170	223
589	242	165	225
590	248	165	228
591	247	158	224
592	241	149	218
593	240	142	217
594	242	136	216
595	238	126	212
596	247	135	219
597	250	139	218
598	250	138	217
599	248	135	217
600	251	140	220
601	251	142	219
602	253	146	220
603	248	143	215
604	246	144	214
605	241	143	210
606	243	150	209
607	241	153	202
608	242	160	201
609	243	168	204
610	248	180	208
611	250	190	210
612	255	205	214
613	255	224	225
614	255	223	220
615	255	227	218
616	255	231	218
617	255	239	224
618	255	233	219
619	255	228	213
620	255	230	216
621	255	231	219
622	255	234	222
623	255	237	224
624	255	234	223
625	255	232	222
626	255	225	219
627	255	218	217
628	255	217	217
629	255	213	213
630	255	216	217
631	0	0	0
632	0	0	0
633	0	0	0
634	0	0	0
635	0	0	0
636	0	0	0
637	0	0	0
638	0	0	0
639	0	0	0
640	0	0	0
641	254	205	224
642	253	198	223
643	253	190	225
644	255	186	228
645	246	170	222
646	243	165	224
647	244	163	227
648	248	161	230
649	244	154	224
650	232	141	215
651	238	146	222
652	244	143	224
653	254	148	231
654	255	158	239
655	246	131	218
656	247	131	218
657	255	141	227
658	255	146	230
659	249	135	221
660	254	140	225
661	247	134	219
662	244	135	218
663	246	143	222
664	250	151	222
665	255	163	220
666	255	171	219
667	249	164	212
668	253	176	215
669	251	181	212
670	255	195	216
671	255	204	218
672	255	203	213
673	255	211	213
674	255	216	213
675	255	217	213
676	255	211	209
677	255	213	210
678	255	216	213
679	253	203	206
680	255	207	210
681	255	209	211
682	255	206	210
683	254	199	207
684	251	193	205
685	255	197	211
686	253	195	210
687	252	195	209
688	253	198	211
689	254	202	216
690	0	0	0
691	0	0	0
692	0	0	0
693	0	0	0
694	0	0	0
695	0	0	0
696	0	0	0
697	0	0	0
698	255	210	227
699	255	208	226
700	253	197	223
701	252	190	227
702	243	174	223
703	235	158	217
704	236	157	222
705	238	154	225
706	242	154	228
707	238	147	222
708	234	147	222
709	241	152	230
710	254	158	238
711	255	162	241
712	242	135	223
713	225	109	206
714	237	123	218
715	246	134	225
716	241	125	219
717	234	115	212
718	235	116	213
719	230	109	208
720	235	122	215
721	239	131	219
722	251	148	226
723	255	161	226
724	251	156	217
725	244	150	210
726	248	160	214
727	247	166	211
728	249	174	212
729	252	183	215
730	254	191	215
731	255	200	214
732	255	199	210
733	255	200	210
734	255	201	210
735	255	203	211
736	255	192	205
737	248	181	201
738	252	184	205
739	254	186	205
740	251	180	203
741	248	173	203
742	252	179	209
743	255	182	213
744	255	183	214
745	254	183	214
746	255	189	216
747	255	191	214
748	0	0	0
749	0	0	0
750	0	0	0
751	0	0	0
752	0	0	0
753	0	0	0
754	0	0	0
755	253	212	231
756	255	211	231
757	254	202	225
758	250	191	221
759	249	188	227
760	234	169	220
761	238	172	227
762	245	174	235
763	240	162	231
764	242	160	233
765	239	153	228
766	240	155	232
767	242	152	234
768	253	158	240
769	251	154	235
770	223	122	212
771	228	131	222
772	243	147	236
773	244	144	233
774	243	137	229
775	241	132	225
776	241	131	226
777	237	126	222
778	246	141	231
779	247	143	230
780	255	161	239
781	255	155	228
782	250	151	222
783	247	149	219
784	252	161	223
785	252	166	221
786	255	175	221
787	255	184	224
788	255	193	225
789	255	185	215
790	255	185	212
791	255	185	211
792	255	186	212
793	254	178	206
794	248	167	201
795	251	170	207
796	255	173	211
797	255	172	210
798	252	165	208
799	246	156	205
800	251	161	211
801	251	162	212
802	251	163	213
803	252	166	215
804	254	172	217
805	250	171	211
806	255	183	217
807	0	0	0
808	0	0	0
809	0	0	0
810	0	0	0
811	0	0	0
812	0	0	0
813	0	0	0
814	250	202	228
815	249	194	225
816	251	191	227
817	249	187	229
818	243	185	231
819	246	188	238
820	243	177	235
821	238	165	232
822	238	161	232
823	235	154	229
824	233	149	229
825	235	146	231
826	242	147	234
827	238	142	228
828	230	142	226
829	235	151	236
830	238	150	237
831	238	146	234
832	239	143	231
833	237	136	226
834	236	135	225
835	234	132	226
836	241	140	232
837	243	143	230
838	245	142	228
839	242	138	223
840	242	140	222
841	240	139	220
842	246	150	224
843	247	156	222
844	251	165	222
845	255	175	221
846	250	168	213
847	246	163	207
848	251	165	210
849	252	166	212
850	249	160	209
851	246	152	205
852	249	155	210
853	252	156	214
854	249	152	213
855	249	151	212
856	242	140	205
857	235	129	199
858	239	134	204
859	240	135	206
860	241	139	209
861	242	142	211
862	242	145	210
863	239	145	206
864	236	144	203
865	229	139	197
866	239	159	206
867	249	177	212
868	249	181	210
869	250	186	211
870	0	0	0
871	0	0	0
872	0	0	0
873	255	205	235
874	255	203	237
875	248	186	229
876	245	185	232
877	243	183	234
878	234	168	228
879	239	172	234
880	240	168	237
881	237	162	235
882	233	156	234
883	238	159	240
884	245	160	242
885	245	160	238
886	242	162	239
887	244	166	245
888	244	163	244
889	240	156	239
890	237	150	234
891	0	0	0
892	236	147	231
893	0	0	0
894	246	156	242
895	245	151	236
896	249	152	236
897	249	151	235
898	249	152	236
899	0	0	0
900	254	163	238
901	252	162	232
902	255	172	233
903	0	0	0
904	0	0	0
905	248	157	216
906	255	163	223
907	253	156	220
908	251	150	218
909	248	144	216
910	251	146	220
911	250	144	220
912	247	139	217
913	255	154	227
914	251	143	220
915	245	134	214
916	248	138	218
917	252	144	223
918	253	148	224
919	252	148	224
920	251	150	224
921	250	152	222
922	248	152	220
923	244	151	217
924	254	170	225
925	255	177	224
926	255	182	223
927	249	173	214
928	251	179	217
929	0	0	0
930	0	0	0
931	0	0	0
932	251	197	230
933	241	180	225
934	0	0	0
935	236	175	229
936	234	174	231
937	238	177	236
938	236	171	237
939	233	165	237
940	233	166	240
941	237	168	243
942	244	172	246
943	244	171	242
944	243	172	241
945	0	0	0
946	0	0	0
947	0	0	0
948	0	0	0
949	0	0	0
950	0	0	0
951	0	0	0
952	0	0	0
953	0	0	0
954	0	0	0
955	0	0	0
956	0	0	0
957	0	0	0
958	0	0	0
959	0	0	0
960	0	0	0
961	0	0	0
962	0	0	0
963	0	0	0
964	0	0	0
965	228	125	211
966	229	123	211
967	227	117	209
968	230	118	212
969	230	117	211
970	239	128	218
971	250	142	228
972	243	132	220
973	238	123	216
974	243	132	222
975	246	137	222
976	249	140	222
977	248	140	223
978	249	144	225
979	249	146	226
980	247	148	224
981	243	147	221
982	246	155	223
983	247	161	221
984	239	153	212
985	232	145	205
986	0	0	0
987	0	0	0
988	0	0	0
989	0	0	0
990	0	0	0
991	0	0	0
992	0	0	0
993	0	0	0
994	0	0	0
995	0	0	0
996	0	0	0
997	0	0	0
998	0	0	0
999	0	0	0
1000	0	0	0
1001	0	0	0
1002	0	0	0
1003	0	0	0
1004	0	0	0
1005	0	0	0
1006	0	0	0
1007	0	0	0
1008	0	0	0
1009	0	0	0
1010	0	0	0
1011	0	0	0
1012	0	0	0
1013	0	0	0
1014	0	0	0
1015	0	0	0
1016	0	0	0
1017	0	0	0
1018	0	0	0
1019	0	0	0
1020	0	0	0
1021	0	0	0
1022	0	0	0
1023	0	0	0
1024	228	139	230
1025	222	126	222
1026	227	129	225
1027	237	137	231
1028	249	150	239
1029	252	151	239
1030	244	140	230
1031	242	136	230
1032	246	144	235
1033	246	143	230
1034	253	148	233
1035	251	143	229
1036	252	147	231
1037	252	150	232
1038	248	151	231
1039	250	157	232
1040	254	166	236
1041	249	164	229
1042	0	0	0
1043	0	0	0
1044	0	0	0
1045	0	0	0
1046	0	0	0
1047	0	0	0
1048	0	0	0
1049	0	0	0
1050	0	0	0
1051	0	0	0
1052	0	0	0
1053	0	0	0
1054	0	0	0
1055	0	0	0
1056	0	0	0
1057	0	0	0
1058	0	0	0
1059	0	0	0
1060	0	0	0
1061	0	0	0
1062	0	0	0
1063	0	0	0
1064	0	0	0
1065	0	0	0
1066	0	0	0
1067	0	0	0
1068	0	0	0
1069	0	0	0
1070	0	0	0
1071	0	0	0
1072	0	0	0
1073	0	0	0
1074	0	0	0
1075	0	0	0
1076	0	0	0
1077	0	0	0
1078	0	0	0
1079	0	0	0
1080	0	0	0
1081	0	0	0
1082	0	0	0
1083	205	122	220
1084	220	136	231
1085	230	144	236
1086	235	146	236
1087	238	146	236
1088	235	141	231
1089	0	0	0
1090	0	0	0
1091	0	0	0
1092	0	0	0
1093	237	133	224
1094	242	140	227
1095	242	143	226
1096	243	149	228
1097	246	157	233
1098	246	157	231
1099	0	0	0
1100	0	0	0
1101	0	0	0
1102	0	0	0
1103	0	0	0
1104	0	0	0
1105	0	0	0
1106	0	0	0
1107	0	0	0
1108	0	0	0
1109	0	0	0
1110	0	0	0
1111	0	0	0
1112	0	0	0
1113	0	0	0
1114	0	0	0
1115	0	0	0
1116	0	0	0
1117	0	0	0
1118	0	0	0
1119	0	0	0
1120	0	0	0
1121	0	0	0
1122	0	0	0
1123	0	0	0
1124	0	0	0
1125	0	0	0
1126	0	0	0
1127	0	0	0
1128	0	0	0
1129	0	0	0
1130	0	0	0
1131	0	0	0
1132	0	0	0
1133	0	0	0
1134	0	0	0
1135	0	0	0
1136	0	0	0
1137	0	0	0
1138	0	0	0
1139	0	0	0
1140	0	0	0
1141	0	0	0
1142	226	163	249
1143	223	153	240
1144	225	153	239
1145	232	159	242
1146	0	0	0
1147	0	0	0
1148	0	0	0
1149	0	0	0
1150	0	0	0
1151	0	0	0
1152	0	0	0
1153	0	0	0
1154	0	0	0
1155	0	0	0
1156	0	0	0
1157	0	0	0
1158	0	0	0
1159	0	0	0
1160	0	0	0
1161	0	0	0
1162	0	0	0
1163	0	0	0
1164	0	0	0
1165	0	0	0
1166	0	0	0
1167	0	0	0
1168	0	0	0
1169	0	0	0
1170	0	0	0
1171	0	0	0
1172	0	0	0
1173	0	0	0
1174	0	0	0
1175	0	0	0
1176	0	0	0
1177	0	0	0
1178	0	0	0
1179	0	0	0
1180	0	0	0
1181	0	0	0
1182	0	0	0
1183	0	0	0
1184	0	0	0
1185	0	0	0
1186	0	0	0
1187	0	0	0
1188	0	0	0
1189	0	0	0
1190	0	0	0
1191	0	0	0
1192	0	0	0
1193	0	0	0
1194	0	0	0
1195	0	0	0
1196	0	0	0
1197	0	0	0
1198	0	0	0
1199	0	0	0
1200	0	0	0
1201	208	154	237
1202	215	159	240
1203	0	0	0
1204	0	0	0
1205	0	0	0
1206	0	0	0
1207	0	0	0
1208	0	0	0
1209	0	0	0
1210	0	0	0
1211	0	0	0
1212	0	0	0
1213	0	0	0
1214	0	0	0
1215	0	0	0
1216	0	0	0
1217	0	0	0
1218	0	0	0
