 	R	G	B
1	0	0	0
2	0	0	0
3	0	0	0
4	0	0	0
5	0	0	0
6	0	0	0
7	0	0	0
8	0	0	0
9	0	0	0
10	0	0	0
11	0	0	0
12	0	0	0
13	0	0	0
14	0	0	0
15	0	0	0
16	0	0	0
17	0	0	0
18	0	0	0
19	0	0	0
20	0	0	0
21	0	0	0
22	0	0	0
23	0	0	0
24	0	0	0
25	0	0	0
26	0	0	0
27	0	0	0
28	0	0	0
29	0	0	0
30	0	0	0
31	0	0	0
32	0	0	0
33	0	0	0
34	0	0	0
35	0	0	0
36	0	0	0
37	0	0	0
38	0	0	0
39	0	0	0
40	0	0	0
41	0	0	0
42	0	0	0
43	253	210	227
44	0	0	0
45	254	209	227
46	0	0	0
47	0	0	0
48	0	0	0
49	0	0	0
50	0	0	0
51	0	0	0
52	0	0	0
53	0	0	0
54	0	0	0
55	0	0	0
56	0	0	0
57	0	0	0
58	0	0	0
59	0	0	0
60	0	0	0
61	0	0	0
62	0	0	0
63	0	0	0
64	0	0	0
65	0	0	0
66	0	0	0
67	0	0	0
68	0	0	0
69	0	0	0
70	0	0	0
71	0	0	0
72	0	0	0
73	0	0	0
74	0	0	0
75	0	0	0
76	0	0	0
77	0	0	0
78	0	0	0
79	0	0	0
80	0	0	0
81	0	0	0
82	0	0	0
83	0	0	0
84	0	0	0
85	0	0	0
86	0	0	0
87	0	0	0
88	0	0	0
89	0	0	0
90	0	0	0
91	0	0	0
92	0	0	0
93	0	0	0
94	0	0	0
95	0	0	0
96	0	0	0
97	0	0	0
98	0	0	0
99	0	0	0
100	0	0	0
101	0	0	0
102	0	0	0
103	0	0	0
104	0	0	0
105	0	0	0
106	0	0	0
107	0	0	0
108	0	0	0
109	0	0	0
110	0	0	0
111	0	0	0
112	0	0	0
113	0	0	0
114	0	0	0
115	0	0	0
116	0	0	0
117	0	0	0
118	0	0	0
119	0	0	0
120	0	0	0
121	0	0	0
122	0	0	0
123	0	0	0
124	253	212	225
125	253	208	225
126	247	197	219
127	255	208	227
128	253	206	222
129	0	0	0
130	0	0	0
131	0	0	0
132	0	0	0
133	0	0	0
134	0	0	0
135	0	0	0
136	0	0	0
137	0	0	0
138	0	0	0
139	0	0	0
140	0	0	0
141	0	0	0
142	0	0	0
143	0	0	0
144	0	0	0
145	0	0	0
146	0	0	0
147	0	0	0
148	0	0	0
149	0	0	0
150	0	0	0
151	0	0	0
152	0	0	0
153	0	0	0
154	0	0	0
155	0	0	0
156	0	0	0
157	0	0	0
158	0	0	0
159	0	0	0
160	0	0	0
161	0	0	0
162	0	0	0
163	0	0	0
164	0	0	0
165	0	0	0
166	0	0	0
167	0	0	0
168	0	0	0
169	0	0	0
170	0	0	0
171	0	0	0
172	0	0	0
173	0	0	0
174	0	0	0
175	0	0	0
176	0	0	0
177	0	0	0
178	0	0	0
179	0	0	0
180	0	0	0
181	0	0	0
182	0	0	0
183	0	0	0
184	0	0	0
185	0	0	0
186	0	0	0
187	0	0	0
188	0	0	0
189	0	0	0
190	0	0	0
191	0	0	0
192	0	0	0
193	0	0	0
194	0	0	0
195	0	0	0
196	0	0	0
197	0	0	0
198	0	0	0
199	0	0	0
200	0	0	0
201	0	0	0
202	0	0	0
203	0	0	0
204	0	0	0
205	255	217	223
206	255	211	223
207	255	206	224
208	250	196	219
209	254	202	223
210	251	200	218
211	255	212	223
212	0	0	0
213	0	0	0
214	0	0	0
215	0	0	0
216	0	0	0
217	0	0	0
218	0	0	0
219	0	0	0
220	0	0	0
221	0	0	0
222	0	0	0
223	0	0	0
224	0	0	0
225	0	0	0
226	0	0	0
227	0	0	0
228	0	0	0
229	0	0	0
230	0	0	0
231	0	0	0
232	0	0	0
233	0	0	0
234	0	0	0
235	0	0	0
236	0	0	0
237	0	0	0
238	0	0	0
239	0	0	0
240	0	0	0
241	0	0	0
242	0	0	0
243	0	0	0
244	0	0	0
245	0	0	0
246	0	0	0
247	0	0	0
248	0	0	0
249	0	0	0
250	0	0	0
251	0	0	0
252	0	0	0
253	0	0	0
254	0	0	0
255	0	0	0
256	0	0	0
257	0	0	0
258	0	0	0
259	0	0	0
260	0	0	0
261	0	0	0
262	0	0	0
263	0	0	0
264	0	0	0
265	0	0	0
266	0	0	0
267	0	0	0
268	0	0	0
269	0	0	0
270	0	0	0
271	0	0	0
272	0	0	0
273	0	0	0
274	0	0	0
275	0	0	0
276	0	0	0
277	0	0	0
278	0	0	0
279	0	0	0
280	0	0	0
281	0	0	0
282	0	0	0
283	0	0	0
284	0	0	0
285	0	0	0
286	255	222	225
287	255	216	223
288	251	201	217
289	251	196	218
290	249	191	218
291	254	197	222
292	252	196	217
293	255	208	222
294	251	206	216
295	0	0	0
296	0	0	0
297	0	0	0
298	0	0	0
299	0	0	0
300	0	0	0
301	0	0	0
302	0	0	0
303	0	0	0
304	0	0	0
305	0	0	0
306	0	0	0
307	0	0	0
308	0	0	0
309	0	0	0
310	0	0	0
311	0	0	0
312	0	0	0
313	0	0	0
314	0	0	0
315	0	0	0
316	0	0	0
317	0	0	0
318	0	0	0
319	0	0	0
320	0	0	0
321	0	0	0
322	0	0	0
323	0	0	0
324	0	0	0
325	0	0	0
326	0	0	0
327	0	0	0
328	0	0	0
329	0	0	0
330	0	0	0
331	0	0	0
332	0	0	0
333	0	0	0
334	0	0	0
335	0	0	0
336	0	0	0
337	0	0	0
338	0	0	0
339	0	0	0
340	0	0	0
341	0	0	0
342	0	0	0
343	0	0	0
344	0	0	0
345	0	0	0
346	0	0	0
347	0	0	0
348	0	0	0
349	0	0	0
350	0	0	0
351	0	0	0
352	0	0	0
353	0	0	0
354	0	0	0
355	0	0	0
356	0	0	0
357	0	0	0
358	0	0	0
359	0	0	0
360	0	0	0
361	0	0	0
362	0	0	0
363	0	0	0
364	0	0	0
365	0	0	0
366	0	0	0
367	0	0	0
368	255	221	226
369	253	205	218
370	247	190	213
371	251	192	219
372	250	188	219
373	255	194	224
374	253	193	219
375	253	196	217
376	248	194	212
377	253	209	219
378	0	0	0
379	0	0	0
380	0	0	0
381	0	0	0
382	0	0	0
383	0	0	0
384	0	0	0
385	0	0	0
386	0	0	0
387	0	0	0
388	0	0	0
389	0	0	0
390	252	226	225
391	255	230	229
392	0	0	0
393	0	0	0
394	0	0	0
395	0	0	0
396	0	0	0
397	0	0	0
398	0	0	0
399	0	0	0
400	0	0	0
401	0	0	0
402	0	0	0
403	0	0	0
404	0	0	0
405	0	0	0
406	0	0	0
407	0	0	0
408	0	0	0
409	0	0	0
410	0	0	0
411	0	0	0
412	0	0	0
413	0	0	0
414	0	0	0
415	0	0	0
416	0	0	0
417	0	0	0
418	0	0	0
419	0	0	0
420	0	0	0
421	0	0	0
422	0	0	0
423	0	0	0
424	0	0	0
425	0	0	0
426	0	0	0
427	0	0	0
428	0	0	0
429	0	0	0
430	0	0	0
431	0	0	0
432	0	0	0
433	0	0	0
434	0	0	0
435	0	0	0
436	0	0	0
437	0	0	0
438	0	0	0
439	0	0	0
440	0	0	0
441	0	0	0
442	0	0	0
443	0	0	0
444	0	0	0
445	0	0	0
446	0	0	0
447	0	0	0
448	0	0	0
449	0	0	0
450	255	217	225
451	252	201	217
452	252	194	216
453	255	196	222
454	250	184	218
455	255	191	224
456	251	186	217
457	252	189	216
458	251	192	215
459	255	209	223
460	255	208	219
461	0	0	0
462	0	0	0
463	0	0	0
464	0	0	0
465	0	0	0
466	0	0	0
467	0	0	0
468	0	0	0
469	0	0	0
470	255	227	221
471	255	225	222
472	254	220	224
473	255	223	229
474	253	218	224
475	0	0	0
476	0	0	0
477	0	0	0
478	0	0	0
479	0	0	0
480	0	0	0
481	0	0	0
482	0	0	0
483	0	0	0
484	0	0	0
485	0	0	0
486	0	0	0
487	0	0	0
488	0	0	0
489	0	0	0
490	0	0	0
491	0	0	0
492	0	0	0
493	0	0	0
494	0	0	0
495	0	0	0
496	0	0	0
497	0	0	0
498	0	0	0
499	0	0	0
500	0	0	0
501	0	0	0
502	0	0	0
503	0	0	0
504	0	0	0
505	0	0	0
506	0	0	0
507	0	0	0
508	0	0	0
509	0	0	0
510	0	0	0
511	0	0	0
512	0	0	0
513	0	0	0
514	0	0	0
515	0	0	0
516	0	0	0
517	0	0	0
518	0	0	0
519	0	0	0
520	0	0	0
521	0	0	0
522	0	0	0
523	0	0	0
524	0	0	0
525	0	0	0
526	0	0	0
527	0	0	0
528	0	0	0
529	0	0	0
530	0	0	0
531	255	210	224
532	255	216	227
533	255	205	220
534	255	197	217
535	254	189	215
536	247	176	211
537	250	179	216
538	247	176	214
539	253	185	219
540	253	188	217
541	252	191	215
542	248	191	210
543	251	200	211
544	254	208	211
545	255	213	212
546	0	0	0
547	0	0	0
548	0	0	0
549	0	0	0
550	0	0	0
551	255	222	218
552	255	224	221
553	255	217	218
554	252	211	218
555	249	207	218
556	0	0	0
557	0	0	0
558	0	0	0
559	0	0	0
560	0	0	0
561	0	0	0
562	0	0	0
563	0	0	0
564	0	0	0
565	0	0	0
566	0	0	0
567	0	0	0
568	0	0	0
569	0	0	0
570	0	0	0
571	0	0	0
572	0	0	0
573	0	0	0
574	0	0	0
575	0	0	0
576	0	0	0
577	0	0	0
578	0	0	0
579	0	0	0
580	0	0	0
581	0	0	0
582	0	0	0
583	0	0	0
584	0	0	0
585	0	0	0
586	0	0	0
587	0	0	0
588	0	0	0
589	0	0	0
590	0	0	0
591	0	0	0
592	0	0	0
593	0	0	0
594	0	0	0
595	0	0	0
596	0	0	0
597	0	0	0
598	0	0	0
599	0	0	0
600	0	0	0
601	0	0	0
602	0	0	0
603	0	0	0
604	0	0	0
605	0	0	0
606	0	0	0
607	0	0	0
608	0	0	0
609	0	0	0
610	0	0	0
611	0	0	0
612	253	205	222
613	255	209	226
614	255	203	222
615	252	191	214
616	255	193	215
617	253	185	212
618	248	175	209
619	249	177	215
620	250	177	217
621	255	188	225
622	252	182	217
623	250	185	214
624	252	192	213
625	255	202	215
626	255	202	211
627	255	207	212
628	252	205	211
629	0	0	0
630	0	0	0
631	0	0	0
632	254	214	211
633	255	216	215
634	255	213	216
635	252	206	213
636	251	205	215
637	247	201	213
638	0	0	0
639	0	0	0
640	0	0	0
641	0	0	0
642	0	0	0
643	0	0	0
644	0	0	0
645	0	0	0
646	0	0	0
647	0	0	0
648	0	0	0
649	0	0	0
650	0	0	0
651	0	0	0
652	0	0	0
653	0	0	0
654	0	0	0
655	0	0	0
656	0	0	0
657	0	0	0
658	0	0	0
659	0	0	0
660	0	0	0
661	0	0	0
662	0	0	0
663	0	0	0
664	0	0	0
665	0	0	0
666	0	0	0
667	0	0	0
668	0	0	0
669	0	0	0
670	0	0	0
671	0	0	0
672	0	0	0
673	0	0	0
674	0	0	0
675	0	0	0
676	0	0	0
677	0	0	0
678	0	0	0
679	0	0	0
680	0	0	0
681	0	0	0
682	0	0	0
683	0	0	0
684	0	0	0
685	0	0	0
686	0	0	0
687	0	0	0
688	0	0	0
689	0	0	0
690	0	0	0
691	0	0	0
692	0	0	0
693	0	0	0
694	0	0	0
695	253	195	217
696	253	190	217
697	255	193	220
698	255	194	219
699	255	184	214
700	251	174	211
701	252	177	216
702	252	176	218
703	254	178	219
704	248	173	212
705	250	181	213
706	253	189	214
707	254	191	211
708	253	192	208
709	252	193	207
710	247	191	203
711	254	206	211
712	255	224	221
713	255	215	214
714	255	210	211
715	255	206	210
716	254	203	212
717	253	202	213
718	251	200	213
719	250	202	215
720	0	0	0
721	254	211	225
722	0	0	0
723	0	0	0
724	0	0	0
725	0	0	0
726	0	0	0
727	0	0	0
728	0	0	0
729	0	0	0
730	0	0	0
731	0	0	0
732	0	0	0
733	0	0	0
734	0	0	0
735	0	0	0
736	0	0	0
737	0	0	0
738	0	0	0
739	0	0	0
740	0	0	0
741	0	0	0
742	0	0	0
743	0	0	0
744	0	0	0
745	0	0	0
746	0	0	0
747	0	0	0
748	0	0	0
749	0	0	0
750	0	0	0
751	0	0	0
752	0	0	0
753	0	0	0
754	0	0	0
755	0	0	0
756	0	0	0
757	0	0	0
758	0	0	0
759	0	0	0
760	0	0	0
761	0	0	0
762	0	0	0
763	0	0	0
764	0	0	0
765	0	0	0
766	0	0	0
767	0	0	0
768	0	0	0
769	0	0	0
770	0	0	0
771	0	0	0
772	0	0	0
773	0	0	0
774	0	0	0
775	0	0	0
776	255	199	217
777	255	196	218
778	252	184	216
779	255	187	220
780	254	180	212
781	249	170	206
782	253	174	213
783	255	176	218
784	252	172	216
785	253	173	216
786	250	172	213
787	252	180	215
788	255	187	215
789	255	190	214
790	255	191	212
791	255	192	211
792	251	186	205
793	255	203	215
794	255	200	211
795	248	189	203
796	255	201	210
797	252	196	207
798	254	198	211
799	251	195	211
800	251	197	212
801	250	199	214
802	255	207	221
803	255	212	226
804	251	205	220
805	0	0	0
806	0	0	0
807	0	0	0
808	0	0	0
809	0	0	0
810	0	0	0
811	0	0	0
812	0	0	0
813	0	0	0
814	0	0	0
815	0	0	0
816	0	0	0
817	0	0	0
818	0	0	0
819	0	0	0
820	0	0	0
821	0	0	0
822	0	0	0
823	0	0	0
824	0	0	0
825	0	0	0
826	0	0	0
827	0	0	0
828	0	0	0
829	0	0	0
830	0	0	0
831	0	0	0
832	0	0	0
833	0	0	0
834	0	0	0
835	0	0	0
836	0	0	0
837	0	0	0
838	0	0	0
839	0	0	0
840	0	0	0
841	0	0	0
842	0	0	0
843	0	0	0
844	0	0	0
845	0	0	0
846	0	0	0
847	0	0	0
848	0	0	0
849	0	0	0
850	0	0	0
851	0	0	0
852	0	0	0
853	0	0	0
854	0	0	0
855	0	0	0
856	0	0	0
857	255	204	219
858	255	198	216
859	253	187	212
860	248	175	210
861	250	172	211
862	247	165	205
863	251	169	210
864	255	173	216
865	253	170	215
866	249	165	212
867	252	169	215
868	250	169	212
869	253	177	213
870	255	184	214
871	254	183	211
872	254	184	211
873	251	180	207
874	246	175	201
875	246	174	200
876	242	171	198
877	246	180	204
878	253	191	210
879	252	190	209
880	252	191	212
881	253	194	213
882	252	195	213
883	255	202	217
884	255	208	220
885	255	204	218
886	249	198	217
887	0	0	0
888	0	0	0
889	255	219	227
890	0	0	0
891	0	0	0
892	0	0	0
893	0	0	0
894	0	0	0
895	0	0	0
896	0	0	0
897	0	0	0
898	0	0	0
899	0	0	0
900	0	0	0
901	0	0	0
902	0	0	0
903	0	0	0
904	0	0	0
905	0	0	0
906	0	0	0
907	0	0	0
908	0	0	0
909	0	0	0
910	0	0	0
911	0	0	0
912	0	0	0
913	0	0	0
914	0	0	0
915	0	0	0
916	0	0	0
917	0	0	0
918	0	0	0
919	0	0	0
920	0	0	0
921	0	0	0
922	0	0	0
923	0	0	0
924	0	0	0
925	0	0	0
926	0	0	0
927	0	0	0
928	0	0	0
929	0	0	0
930	0	0	0
931	0	0	0
932	0	0	0
933	0	0	0
934	0	0	0
935	0	0	0
936	0	0	0
937	0	0	0
938	254	203	215
939	255	199	216
940	255	192	214
941	252	181	211
942	251	174	212
943	252	172	214
944	250	166	209
945	254	170	213
946	254	170	216
947	251	166	214
948	249	163	213
949	252	168	215
950	248	163	210
951	254	173	213
952	255	178	213
953	251	176	209
954	252	178	211
955	248	175	207
956	253	181	210
957	255	182	211
958	247	172	205
959	249	180	210
960	253	189	214
961	251	187	212
962	252	189	214
963	254	192	216
964	253	191	214
965	255	197	217
966	253	195	213
967	248	189	210
968	249	194	217
969	0	0	0
970	255	213	227
971	255	215	226
972	251	210	220
973	0	0	0
974	0	0	0
975	0	0	0
976	0	0	0
977	0	0	0
978	0	0	0
979	255	230	232
980	0	0	0
981	0	0	0
982	0	0	0
983	0	0	0
984	0	0	0
985	0	0	0
986	0	0	0
987	0	0	0
988	0	0	0
989	0	0	0
990	0	0	0
991	0	0	0
992	0	0	0
993	0	0	0
994	0	0	0
995	0	0	0
996	0	0	0
997	0	0	0
998	0	0	0
999	0	0	0
1000	0	0	0
1001	0	0	0
1002	0	0	0
1003	0	0	0
1004	0	0	0
1005	0	0	0
1006	0	0	0
1007	0	0	0
1008	0	0	0
1009	0	0	0
1010	0	0	0
1011	0	0	0
1012	0	0	0
1013	0	0	0
1014	0	0	0
1015	0	0	0
1016	0	0	0
1017	0	0	0
1018	0	0	0
1019	255	209	219
1020	255	200	215
1021	255	194	215
1022	255	188	217
1023	255	182	218
1024	254	174	217
1025	253	171	216
1026	250	164	211
1027	250	164	211
1028	250	163	212
1029	250	163	213
1030	249	161	213
1031	248	161	213
1032	245	157	208
1033	252	167	213
1034	254	171	212
1035	250	171	210
1036	251	175	212
1037	255	180	215
1038	255	186	217
1039	255	179	212
1040	248	169	207
1041	251	178	213
1042	254	187	217
1043	250	184	213
1044	250	185	213
1045	251	185	214
1046	251	185	214
1047	250	184	214
1048	247	182	209
1049	247	185	212
1050	249	190	218
1051	255	201	224
1052	255	210	223
1053	252	205	217
1054	247	201	215
1055	251	212	223
1056	0	0	0
1057	0	0	0
1058	0	0	0
1059	0	0	0
1060	255	226	228
1061	252	221	226
1062	250	218	226
1063	0	0	0
1064	0	0	0
1065	0	0	0
1066	0	0	0
1067	0	0	0
1068	0	0	0
1069	0	0	0
1070	0	0	0
1071	0	0	0
1072	0	0	0
1073	0	0	0
1074	0	0	0
1075	0	0	0
1076	0	0	0
1077	0	0	0
1078	0	0	0
1079	0	0	0
1080	0	0	0
1081	0	0	0
1082	0	0	0
1083	0	0	0
1084	0	0	0
1085	0	0	0
1086	0	0	0
1087	0	0	0
1088	0	0	0
1089	0	0	0
1090	0	0	0
1091	0	0	0
1092	0	0	0
1093	0	0	0
1094	0	0	0
1095	0	0	0
1096	0	0	0
1097	0	0	0
1098	0	0	0
1099	0	0	0
1100	255	211	221
1101	255	203	218
1102	251	188	211
1103	250	182	211
1104	255	184	218
1105	255	177	218
1106	248	164	212
1107	247	160	211
1108	255	171	218
1109	255	171	218
1110	251	164	214
1111	254	165	216
1112	249	159	213
1113	247	158	212
1114	250	161	213
1115	255	171	220
1116	249	160	209
1117	245	160	205
1118	255	176	215
1119	255	182	220
1120	253	170	210
1121	244	160	203
1122	251	170	212
1123	255	182	221
1124	252	177	215
1125	242	171	208
1126	252	187	218
1127	253	187	219
1128	249	180	215
1129	249	180	215
1130	250	185	215
1131	252	188	217
1132	255	197	225
1133	255	207	230
1134	254	201	219
1135	248	196	212
1136	253	206	221
1137	255	219	228
1138	255	220	226
1139	0	0	0
1140	0	0	0
1141	255	227	231
1142	255	223	227
1143	251	218	224
1144	251	219	228
1145	0	0	0
1146	0	0	0
1147	0	0	0
1148	0	0	0
1149	0	0	0
1150	0	0	0
1151	0	0	0
1152	0	0	0
1153	0	0	0
1154	0	0	0
1155	0	0	0
1156	0	0	0
1157	0	0	0
1158	0	0	0
1159	0	0	0
1160	0	0	0
1161	0	0	0
1162	0	0	0
1163	0	0	0
1164	0	0	0
1165	0	0	0
1166	0	0	0
1167	0	0	0
1168	0	0	0
1169	0	0	0
1170	0	0	0
1171	0	0	0
1172	0	0	0
1173	0	0	0
1174	0	0	0
1175	0	0	0
1176	0	0	0
1177	0	0	0
1178	0	0	0
1179	255	222	225
1180	255	217	223
1181	255	211	221
1182	255	207	220
1183	252	191	213
1184	246	177	209
1185	252	179	214
1186	255	179	216
1187	250	168	211
1188	243	155	208
1189	254	168	219
1190	255	179	225
1191	255	171	219
1192	253	165	215
1193	252	161	214
1194	247	154	210
1195	249	158	213
1196	251	161	215
1197	250	156	211
1198	240	146	202
1199	247	159	208
1200	255	174	215
1201	251	164	208
1202	244	153	201
1203	248	162	209
1204	255	172	218
1205	253	170	217
1206	246	165	211
1207	247	175	215
1208	255	190	224
1209	249	181	217
1210	244	172	213
1211	248	180	217
1212	250	184	217
1213	255	192	221
1214	255	200	227
1215	255	197	223
1216	249	191	216
1217	253	201	219
1218	255	210	222
1219	254	210	219
1220	252	210	217
1221	255	218	223
1222	255	228	231
1223	255	223	227
1224	252	218	224
1225	251	218	225
1226	250	219	228
1227	0	0	0
1228	0	0	0
1229	0	0	0
1230	0	0	0
1231	0	0	0
1232	0	0	0
1233	0	0	0
1234	0	0	0
1235	0	0	0
1236	0	0	0
1237	0	0	0
1238	0	0	0
1239	0	0	0
1240	0	0	0
1241	0	0	0
1242	0	0	0
1243	0	0	0
1244	0	0	0
1245	0	0	0
1246	0	0	0
1247	0	0	0
1248	0	0	0
1249	0	0	0
1250	0	0	0
1251	0	0	0
1252	0	0	0
1253	0	0	0
1254	0	0	0
1255	0	0	0
1256	0	0	0
1257	0	0	0
1258	0	0	0
1259	0	0	0
1260	255	223	226
1261	255	220	225
1262	251	201	214
1263	250	195	212
1264	255	200	218
1265	250	184	211
1266	251	179	214
1267	255	181	220
1268	255	175	216
1269	248	162	210
1270	248	159	211
1271	255	172	222
1272	255	174	222
1273	255	166	216
1274	251	159	212
1275	248	154	209
1276	249	156	212
1277	252	160	215
1278	254	162	215
1279	250	156	211
1280	248	154	210
1281	255	169	218
1282	251	164	211
1283	245	153	203
1284	246	153	206
1285	254	165	216
1286	255	170	219
1287	251	166	216
1288	245	163	212
1289	248	174	217
1290	251	183	221
1291	243	172	212
1292	243	174	214
1293	245	179	217
1294	248	184	217
1295	255	193	222
1296	255	200	225
1297	255	196	222
1298	250	191	217
1299	252	200	221
1300	255	209	223
1301	254	209	219
1302	253	210	217
1303	255	219	223
1304	255	217	223
1305	246	209	218
1306	253	222	226
1307	253	222	227
1308	253	223	230
1309	255	233	237
1310	0	0	0
1311	0	0	0
1312	0	0	0
1313	0	0	0
1314	0	0	0
1315	0	0	0
1316	0	0	0
1317	0	0	0
1318	0	0	0
1319	0	0	0
1320	0	0	0
1321	0	0	0
1322	0	0	0
1323	0	0	0
1324	0	0	0
1325	0	0	0
1326	0	0	0
1327	0	0	0
1328	0	0	0
1329	0	0	0
1330	0	0	0
1331	0	0	0
1332	0	0	0
1333	0	0	0
1334	0	0	0
1335	0	0	0
1336	0	0	0
1337	0	0	0
1338	0	0	0
1339	0	0	0
1340	0	0	0
1341	255	221	225
1342	255	221	224
1343	252	202	213
1344	242	183	203
1345	250	189	211
1346	255	194	216
1347	254	185	214
1348	254	180	216
1349	253	174	217
1350	252	168	217
1351	252	166	217
1352	249	160	213
1353	252	163	214
1354	254	165	215
1355	251	159	211
1356	247	151	207
1357	250	154	210
1358	251	156	213
1359	252	157	213
1360	252	158	212
1361	255	160	213
1362	254	159	212
1363	251	157	211
1364	247	154	209
1365	246	153	209
1366	246	153	210
1367	250	159	214
1368	251	163	214
1369	247	161	211
1370	242	158	209
1371	246	168	215
1372	249	176	217
1373	250	178	217
1374	250	179	219
1375	248	183	219
1376	250	187	219
1377	255	192	220
1378	255	198	222
1379	254	194	218
1380	248	189	216
1381	251	199	222
1382	255	209	226
1383	255	210	223
1384	255	210	220
1385	251	208	218
1386	248	206	219
1387	252	216	225
1388	255	227	230
1389	255	227	230
1390	255	227	232
1391	255	227	233
1392	0	0	0
1393	0	0	0
1394	0	0	0
1395	0	0	0
1396	0	0	0
1397	0	0	0
1398	0	0	0
1399	0	0	0
1400	0	0	0
1401	0	0	0
1402	0	0	0
1403	0	0	0
1404	0	0	0
1405	0	0	0
1406	0	0	0
1407	0	0	0
1408	0	0	0
1409	0	0	0
1410	0	0	0
1411	0	0	0
1412	0	0	0
1413	0	0	0
1414	0	0	0
1415	0	0	0
1416	0	0	0
1417	0	0	0
1418	0	0	0
1419	0	0	0
1420	0	0	0
1421	0	0	0
1422	255	220	225
1423	255	221	226
1424	255	211	219
1425	249	193	208
1426	249	187	208
1427	255	192	215
1428	255	188	214
1429	252	179	211
1430	255	179	216
1431	253	172	216
1432	255	172	220
1433	255	169	219
1434	255	168	216
1435	255	170	218
1436	255	165	215
1437	251	158	211
1438	251	156	210
1439	254	159	213
1440	255	162	215
1441	255	163	215
1442	255	163	214
1443	255	166	216
1444	252	153	209
1445	252	153	210
1446	250	152	211
1447	246	151	210
1448	246	153	212
1449	248	158	214
1450	248	162	213
1451	245	161	211
1452	245	163	213
1453	252	174	220
1454	246	166	213
1455	249	169	214
1456	249	172	215
1457	247	175	214
1458	252	186	219
1459	253	189	218
1460	251	189	215
1461	246	185	211
1462	247	190	216
1463	251	200	222
1464	255	209	227
1465	255	210	226
1466	255	209	221
1467	251	206	217
1468	254	214	225
1469	255	224	231
1470	255	225	229
1471	255	224	227
1472	254	223	229
1473	251	223	230
1474	0	0	0
1475	0	0	0
1476	0	0	0
1477	0	0	0
1478	0	0	0
1479	0	0	0
1480	0	0	0
1481	0	0	0
1482	0	0	0
1483	0	0	0
1484	0	0	0
1485	0	0	0
1486	0	0	0
1487	0	0	0
1488	0	0	0
1489	0	0	0
1490	0	0	0
1491	0	0	0
1492	0	0	0
1493	0	0	0
1494	0	0	0
1495	0	0	0
1496	0	0	0
1497	0	0	0
1498	0	0	0
1499	0	0	0
1500	0	0	0
1501	0	0	0
1502	0	0	0
1503	0	0	0
1504	255	218	223
1505	255	210	220
1506	255	202	216
1507	255	197	216
1508	255	190	214
1509	255	187	214
1510	255	182	213
1511	255	180	214
1512	255	179	218
1513	255	177	218
1514	255	175	217
1515	255	174	217
1516	255	174	217
1517	255	168	215
1518	254	164	216
1519	255	163	217
1520	254	160	213
1521	255	164	214
1522	255	166	214
1523	255	166	213
1524	255	167	215
1525	254	155	208
1526	247	144	204
1527	251	148	209
1528	249	147	208
1529	250	152	211
1530	248	154	212
1531	250	159	214
1532	250	164	215
1533	248	164	214
1534	248	166	215
1535	246	162	213
1536	242	156	210
1537	247	162	213
1538	248	165	212
1539	253	177	217
1540	255	187	221
1541	249	183	215
1542	246	183	214
1543	247	187	215
1544	248	192	216
1545	251	199	220
1546	255	209	228
1547	255	208	226
1548	253	206	218
1549	255	212	220
1550	255	220	227
1551	255	222	228
1552	255	223	228
1553	255	222	227
1554	254	222	228
1555	255	226	232
1556	0	0	0
1557	0	0	0
1558	0	0	0
1559	0	0	0
1560	0	0	0
1561	0	0	0
1562	0	0	0
1563	0	0	0
1564	0	0	0
1565	0	0	0
1566	0	0	0
1567	0	0	0
1568	0	0	0
1569	0	0	0
1570	0	0	0
1571	0	0	0
1572	0	0	0
1573	0	0	0
1574	0	0	0
1575	0	0	0
1576	0	0	0
1577	0	0	0
1578	0	0	0
1579	0	0	0
1580	0	0	0
1581	0	0	0
1582	0	0	0
1583	0	0	0
1584	0	0	0
1585	0	0	0
1586	255	214	222
1587	255	205	219
1588	252	191	213
1589	252	186	212
1590	253	182	212
1591	253	178	212
1592	253	176	213
1593	253	173	213
1594	255	174	216
1595	254	171	214
1596	254	169	212
1597	254	168	211
1598	255	172	214
1599	255	167	213
1600	255	167	217
1601	255	166	218
1602	253	159	211
1603	255	162	211
1604	255	163	210
1605	255	163	209
1606	255	159	208
1607	249	148	202
1608	255	154	209
1609	255	158	214
1610	252	148	209
1611	255	155	214
1612	249	148	209
1613	251	154	212
1614	254	162	217
1615	249	161	215
1616	244	156	210
1617	242	153	209
1618	244	155	212
1619	247	160	214
1620	251	168	215
1621	255	182	222
1622	249	172	212
1623	237	165	204
1624	248	187	218
1625	250	191	219
1626	251	195	217
1627	255	204	223
1628	255	203	225
1629	251	201	221
1630	253	206	218
1631	255	212	219
1632	255	215	223
1633	255	217	224
1634	255	221	227
1635	255	220	227
1636	253	219	226
1637	0	0	0
1638	0	0	0
1639	0	0	0
1640	0	0	0
1641	0	0	0
1642	0	0	0
1643	0	0	0
1644	0	0	0
1645	0	0	0
1646	0	0	0
1647	0	0	0
1648	0	0	0
1649	0	0	0
1650	0	0	0
1651	0	0	0
1652	0	0	0
1653	0	0	0
1654	0	0	0
1655	0	0	0
1656	0	0	0
1657	0	0	0
1658	0	0	0
1659	0	0	0
1660	0	0	0
1661	0	0	0
1662	0	0	0
1663	0	0	0
1664	0	0	0
1665	0	0	0
1666	0	0	0
1667	255	215	220
1668	255	208	220
1669	254	195	216
1670	248	181	210
1671	250	179	212
1672	251	175	212
1673	252	173	214
1674	252	170	215
1675	253	170	216
1676	254	170	216
1677	253	168	214
1678	253	167	214
1679	255	171	215
1680	255	174	216
1681	255	171	214
1682	255	170	217
1683	255	166	215
1684	254	159	210
1685	255	160	210
1686	255	161	208
1687	253	156	204
1688	252	152	203
1689	255	157	207
1690	255	163	211
1691	255	153	206
1692	250	145	205
1693	250	144	207
1694	245	139	203
1695	253	150	212
1696	255	159	217
1697	244	151	211
1698	239	146	208
1699	243	151	211
1700	243	152	210
1701	246	160	212
1702	250	167	215
1703	247	162	209
1704	236	152	201
1705	242	171	211
1706	253	192	223
1707	251	194	220
1708	253	198	218
1709	252	196	216
1710	251	195	218
1711	253	202	221
1712	255	208	219
1713	254	209	218
1714	254	211	221
1715	254	214	224
1716	255	219	227
1717	252	216	223
1718	0	0	0
1719	0	0	0
1720	0	0	0
1721	0	0	0
1722	0	0	0
1723	0	0	0
1724	0	0	0
1725	0	0	0
1726	0	0	0
1727	0	0	0
1728	0	0	0
1729	0	0	0
1730	0	0	0
1731	0	0	0
1732	0	0	0
1733	0	0	0
1734	0	0	0
1735	0	0	0
1736	0	0	0
1737	0	0	0
1738	0	0	0
1739	0	0	0
1740	0	0	0
1741	0	0	0
1742	0	0	0
1743	0	0	0
1744	0	0	0
1745	0	0	0
1746	0	0	0
1747	0	0	0
1748	0	0	0
1749	255	209	219
1750	255	198	217
1751	251	185	214
1752	249	176	212
1753	251	174	214
1754	254	176	217
1755	255	174	219
1756	251	166	216
1757	251	165	216
1758	255	176	220
1759	255	173	217
1760	255	168	215
1761	255	172	217
1762	255	166	210
1763	255	163	208
1764	255	162	209
1765	253	157	207
1766	252	155	207
1767	253	156	207
1768	255	165	210
1769	255	160	207
1770	250	149	202
1771	254	154	206
1772	255	160	208
1773	252	150	202
1774	254	150	207
1775	255	150	210
1776	251	146	208
1777	255	158	217
1778	254	154	215
1779	243	147	209
1780	241	147	211
1781	243	151	213
1782	242	152	211
1783	246	160	214
1784	243	159	211
1785	236	152	205
1786	240	161	210
1787	253	184	224
1788	247	182	219
1789	242	182	213
1790	249	194	216
1791	249	193	214
1792	252	197	218
1793	255	205	223
1794	254	205	219
1795	253	205	218
1796	254	209	222
1797	251	211	223
1798	253	216	226
1799	0	0	0
1800	0	0	0
1801	0	0	0
1802	0	0	0
1803	0	0	0
1804	0	0	0
1805	0	0	0
1806	0	0	0
1807	0	0	0
1808	0	0	0
1809	0	0	0
1810	0	0	0
1811	0	0	0
1812	0	0	0
1813	0	0	0
1814	0	0	0
1815	0	0	0
1816	0	0	0
1817	0	0	0
1818	0	0	0
1819	0	0	0
1820	0	0	0
1821	0	0	0
1822	0	0	0
1823	0	0	0
1824	0	0	0
1825	0	0	0
1826	0	0	0
1827	0	0	0
1828	0	0	0
1829	0	0	0
1830	255	210	220
1831	255	200	218
1832	254	189	216
1833	253	182	217
1834	251	173	216
1835	255	175	220
1836	255	176	222
1837	254	169	219
1838	249	161	215
1839	255	170	219
1840	255	179	220
1841	255	170	211
1842	253	165	210
1843	253	163	209
1844	251	158	204
1845	251	156	203
1846	251	154	205
1847	252	154	207
1848	252	153	207
1849	255	161	211
1850	255	169	212
1851	254	155	203
1852	248	146	203
1853	255	155	212
1854	255	161	212
1855	255	157	209
1856	255	157	211
1857	255	154	210
1858	254	149	207
1859	254	150	209
1860	249	146	207
1861	244	146	208
1862	241	146	209
1863	242	149	212
1864	241	150	213
1865	240	151	213
1866	238	150	211
1867	245	163	218
1868	249	172	222
1869	247	174	220
1870	243	172	216
1871	246	183	219
1872	253	195	222
1873	254	197	220
1874	255	200	222
1875	255	201	223
1876	254	202	222
1877	254	205	223
1878	253	208	224
1879	251	210	224
1880	253	216	227
1881	255	222	230
1882	255	228	231
1883	255	228	230
1884	0	0	0
1885	0	0	0
1886	0	0	0
1887	0	0	0
1888	0	0	0
1889	0	0	0
1890	0	0	0
1891	0	0	0
1892	0	0	0
1893	0	0	0
1894	0	0	0
1895	0	0	0
1896	0	0	0
1897	0	0	0
1898	0	0	0
1899	0	0	0
1900	0	0	0
1901	0	0	0
1902	0	0	0
1903	0	0	0
1904	0	0	0
1905	0	0	0
1906	0	0	0
1907	0	0	0
1908	0	0	0
1909	0	0	0
1910	0	0	0
1911	0	0	0
1912	255	200	218
1913	255	190	216
1914	248	175	212
1915	247	168	213
1916	255	177	221
1917	255	178	225
1918	254	169	220
1919	250	161	215
1920	252	164	217
1921	255	173	220
1922	255	176	217
1923	254	167	209
1924	255	169	211
1925	255	166	211
1926	252	157	204
1927	252	156	204
1928	254	156	207
1929	255	156	210
1930	252	152	207
1931	255	160	211
1932	255	163	209
1933	250	150	200
1934	254	153	209
1935	255	162	218
1936	254	151	207
1937	251	147	204
1938	255	154	208
1939	254	150	205
1940	255	150	206
1941	255	151	207
1942	251	147	207
1943	247	147	209
1944	243	146	209
1945	242	148	212
1946	248	158	218
1947	248	160	219
1948	247	160	219
1949	255	174	228
1950	250	168	221
1951	247	169	218
1952	252	179	225
1953	255	192	229
1954	253	189	221
1955	251	189	218
1956	255	195	222
1957	253	196	221
1958	253	198	222
1959	252	201	222
1960	254	208	225
1961	254	212	226
1962	255	218	229
1963	255	224	231
1964	255	222	227
1965	251	221	226
1966	253	227	231
1967	0	0	0
1968	0	0	0
1969	0	0	0
1970	0	0	0
1971	0	0	0
1972	0	0	0
1973	0	0	0
1974	0	0	0
1975	0	0	0
1976	0	0	0
1977	0	0	0
1978	0	0	0
1979	0	0	0
1980	0	0	0
1981	0	0	0
1982	0	0	0
1983	0	0	0
1984	0	0	0
1985	0	0	0
1986	0	0	0
1987	0	0	0
1988	0	0	0
1989	0	0	0
1990	0	0	0
1991	0	0	0
1992	0	0	0
1993	255	202	216
1994	252	189	213
1995	253	180	216
1996	247	165	213
1997	255	176	224
1998	255	182	227
1999	255	172	220
2000	253	163	217
2001	255	167	220
2002	255	168	218
2003	255	171	217
2004	255	175	218
2005	255	172	214
2006	255	172	216
2007	254	163	209
2008	249	154	201
2009	251	154	203
2010	254	156	208
2011	255	156	211
2012	252	151	207
2013	255	156	209
2014	255	160	209
2015	255	157	206
2016	255	158	211
2017	253	150	207
2018	245	139	199
2019	249	144	202
2020	254	150	206
2021	254	151	206
2022	254	150	204
2023	255	149	205
2024	251	146	207
2025	250	147	210
2026	245	146	210
2027	250	156	217
2028	254	166	221
2029	253	166	220
2030	252	166	219
2031	252	165	218
2032	246	160	213
2033	251	172	220
2034	255	183	227
2035	251	180	222
2036	246	178	215
2037	247	182	216
2038	249	188	219
2039	249	190	219
2040	248	192	219
2041	250	200	222
2042	253	207	224
2043	255	212	225
2044	255	218	227
2045	254	216	224
2046	250	215	222
2047	250	219	223
2048	252	224	228
2049	255	231	233
2050	0	0	0
2051	0	0	0
2052	0	0	0
2053	0	0	0
2054	0	0	0
2055	0	0	0
2056	0	0	0
2057	0	0	0
2058	0	0	0
2059	0	0	0
2060	0	0	0
2061	0	0	0
2062	0	0	0
2063	0	0	0
2064	0	0	0
2065	0	0	0
2066	0	0	0
2067	0	0	0
2068	0	0	0
2069	0	0	0
2070	0	0	0
2071	0	0	0
2072	0	0	0
2073	0	0	0
2074	255	216	223
2075	255	204	220
2076	251	180	211
2077	252	171	214
2078	242	152	210
2079	252	162	220
2080	255	171	222
2081	252	160	214
2082	248	154	212
2083	251	158	214
2084	255	169	218
2085	255	170	216
2086	255	172	216
2087	255	169	214
2088	255	168	213
2089	251	158	205
2090	255	162	206
2091	255	163	208
2092	255	160	211
2093	255	160	213
2094	249	146	204
2095	254	151	207
2096	255	159	209
2097	255	156	206
2098	255	158	210
2099	253	149	205
2100	252	149	204
2101	255	154	208
2102	255	163	214
2103	255	162	213
2104	252	147	201
2105	251	145	202
2106	254	149	209
2107	255	152	213
2108	251	149	212
2109	255	159	218
2110	252	159	215
2111	248	158	213
2112	250	162	215
2113	248	161	213
2114	246	160	212
2115	253	174	221
2116	253	178	222
2117	244	173	216
2118	246	181	218
2119	247	185	219
2120	249	190	221
2121	248	193	221
2122	252	200	225
2123	255	208	228
2124	253	208	224
2125	254	212	224
2126	255	216	225
2127	252	215	223
2128	252	217	224
2129	253	222	227
2130	254	224	228
2131	255	231	233
2132	0	0	0
2133	0	0	0
2134	0	0	0
2135	0	0	0
2136	0	0	0
2137	0	0	0
2138	0	0	0
2139	0	0	0
2140	0	0	0
2141	0	0	0
2142	0	0	0
2143	0	0	0
2144	0	0	0
2145	0	0	0
2146	0	0	0
2147	0	0	0
2148	0	0	0
2149	0	0	0
2150	0	0	0
2151	0	0	0
2152	0	0	0
2153	0	0	0
2154	250	208	214
2155	255	211	219
2156	255	218	228
2157	255	193	216
2158	246	168	205
2159	242	154	204
2160	232	135	201
2161	246	150	216
2162	254	160	220
2163	251	154	215
2164	246	147	210
2165	255	161	218
2166	255	172	221
2167	255	171	217
2168	255	172	216
2169	255	168	212
2170	255	166	212
2171	255	168	212
2172	255	172	213
2173	255	166	209
2174	255	162	209
2175	254	153	205
2176	245	140	198
2177	255	152	207
2178	255	159	210
2179	255	160	210
2180	255	162	213
2181	255	163	213
2182	255	162	211
2183	255	168	213
2184	255	176	220
2185	255	158	208
2186	250	144	199
2187	254	149	205
2188	255	153	211
2189	255	154	214
2190	254	151	212
2191	253	153	213
2192	250	154	212
2193	250	157	214
2194	250	161	215
2195	249	161	215
2196	246	161	213
2197	247	166	216
2198	246	169	215
2199	247	177	218
2200	250	186	222
2201	251	190	223
2202	252	195	224
2203	255	202	228
2204	255	210	232
2205	255	210	229
2206	254	208	225
2207	253	211	224
2208	253	214	225
2209	252	216	224
2210	253	219	225
2211	251	219	225
2212	251	221	226
2213	252	220	226
2214	0	0	0
2215	0	0	0
2216	0	0	0
2217	0	0	0
2218	0	0	0
2219	0	0	0
2220	0	0	0
2221	0	0	0
2222	0	0	0
2223	0	0	0
2224	0	0	0
2225	0	0	0
2226	0	0	0
2227	0	0	0
2228	0	0	0
2229	0	0	0
2230	0	0	0
2231	0	0	0
2232	0	0	0
2233	0	0	0
2234	0	0	0
2235	255	221	224
2236	254	209	218
2237	255	212	223
2238	255	203	222
2239	249	177	210
2240	244	162	205
2241	237	147	202
2242	241	147	212
2243	255	164	228
2244	255	163	226
2245	255	157	221
2246	247	144	211
2247	255	157	217
2248	255	167	219
2249	255	165	214
2250	253	159	208
2251	250	155	205
2252	255	161	209
2253	255	163	209
2254	255	167	210
2255	255	161	205
2256	255	163	208
2257	255	153	204
2258	249	143	200
2259	255	156	210
2260	255	152	206
2261	255	153	206
2262	255	150	206
2263	255	150	205
2264	252	146	198
2265	254	150	201
2266	255	162	211
2267	250	145	200
2268	254	149	204
2269	255	154	210
2270	254	148	208
2271	255	149	210
2272	250	144	206
2273	249	147	208
2274	249	151	212
2275	250	156	214
2276	248	157	214
2277	245	156	212
2278	246	162	215
2279	244	166	216
2280	244	170	216
2281	251	181	222
2282	253	185	223
2283	255	190	224
2284	255	194	224
2285	255	200	227
2286	255	200	225
2287	251	198	221
2288	254	207	224
2289	252	209	223
2290	252	214	224
2291	251	215	223
2292	253	222	227
2293	251	222	227
2294	252	224	229
2295	253	223	229
2296	0	0	0
2297	0	0	0
2298	0	0	0
2299	0	0	0
2300	0	0	0
2301	0	0	0
2302	0	0	0
2303	0	0	0
2304	0	0	0
2305	0	0	0
2306	0	0	0
2307	0	0	0
2308	0	0	0
2309	0	0	0
2310	0	0	0
2311	0	0	0
2312	0	0	0
2313	0	0	0
2314	0	0	0
2315	0	0	0
2316	255	230	230
2317	255	219	225
2318	255	208	220
2319	254	195	216
2320	252	184	214
2321	245	168	208
2322	239	154	206
2323	246	158	216
2324	250	158	222
2325	255	165	230
2326	255	164	226
2327	255	154	218
2328	247	141	209
2329	253	152	215
2330	255	162	217
2331	252	153	209
2332	247	148	204
2333	251	153	207
2334	255	159	211
2335	255	161	211
2336	255	165	210
2337	255	164	209
2338	255	166	213
2339	255	158	209
2340	255	148	205
2341	255	151	209
2342	255	148	206
2343	255	148	207
2344	255	144	205
2345	254	141	202
2346	249	136	196
2347	251	142	200
2348	255	154	211
2349	255	153	210
2350	255	157	212
2351	255	149	207
2352	250	141	203
2353	249	140	203
2354	244	136	200
2355	246	142	205
2356	246	147	209
2357	246	150	211
2358	244	151	212
2359	246	158	215
2360	246	164	217
2361	246	168	218
2362	246	172	219
2363	249	177	221
2364	251	181	222
2365	254	186	223
2366	254	190	222
2367	250	188	217
2368	246	187	216
2369	249	196	220
2370	253	205	223
2371	253	209	223
2372	252	213	224
2373	253	219	226
2374	255	226	230
2375	251	224	227
2376	253	226	230
2377	255	226	232
2378	0	0	0
2379	0	0	0
2380	0	0	0
2381	0	0	0
2382	0	0	0
2383	0	0	0
2384	0	0	0
2385	0	0	0
2386	0	0	0
2387	0	0	0
2388	0	0	0
2389	0	0	0
2390	0	0	0
2391	0	0	0
2392	0	0	0
2393	0	0	0
2394	0	0	0
2395	0	0	0
2396	0	0	0
2397	0	0	0
2398	255	222	226
2399	255	210	221
2400	254	199	218
2401	252	187	215
2402	253	184	217
2403	242	165	209
2404	244	163	214
2405	255	169	226
2406	252	157	223
2407	255	163	230
2408	251	146	215
2409	247	137	208
2410	249	141	212
2411	255	152	217
2412	255	164	221
2413	255	155	212
2414	250	149	208
2415	253	154	211
2416	255	166	217
2417	255	168	216
2418	255	159	207
2419	255	159	207
2420	255	159	209
2421	255	151	206
2422	255	148	207
2423	255	151	212
2424	250	130	199
2425	252	131	202
2426	248	127	198
2427	244	123	194
2428	249	133	198
2429	250	139	201
2430	255	159	216
2431	255	158	215
2432	255	152	210
2433	251	143	204
2434	254	148	208
2435	254	148	208
2436	252	147	207
2437	253	153	212
2438	246	148	209
2439	245	150	212
2440	248	158	216
2441	249	164	219
2442	251	169	221
2443	254	176	224
2444	249	172	220
2445	246	173	219
2446	252	183	225
2447	255	189	226
2448	251	186	220
2449	244	183	214
2450	250	197	222
2451	255	207	227
2452	255	208	225
2453	255	213	226
2454	253	212	224
2455	252	217	226
2456	252	221	227
2457	248	218	225
2458	255	228	232
2459	255	228	232
2460	0	0	0
2461	0	0	0
2462	0	0	0
2463	0	0	0
2464	0	0	0
2465	0	0	0
2466	0	0	0
2467	0	0	0
2468	0	0	0
2469	0	0	0
2470	0	0	0
2471	0	0	0
2472	0	0	0
2473	0	0	0
2474	0	0	0
2475	0	0	0
2476	0	0	0
2477	0	0	0
2478	0	0	0
2479	255	221	225
2480	255	213	223
2481	252	200	219
2482	251	190	217
2483	253	186	219
2484	253	182	219
2485	248	174	216
2486	248	170	219
2487	250	163	220
2488	247	151	218
2489	248	144	218
2490	240	129	207
2491	251	140	215
2492	254	144	217
2493	255	156	222
2494	255	168	227
2495	255	157	216
2496	252	150	210
2497	255	160	214
2498	255	171	219
2499	255	160	209
2500	253	153	204
2501	255	153	205
2502	255	154	207
2503	255	150	207
2504	255	148	209
2505	252	131	201
2506	238	110	191
2507	238	109	193
2508	234	104	189
2509	240	116	194
2510	245	126	198
2511	254	143	206
2512	255	162	217
2513	255	153	210
2514	254	148	208
2515	255	151	211
2516	255	155	213
2517	255	154	212
2518	254	154	210
2519	247	149	208
2520	241	143	206
2521	247	155	214
2522	249	162	216
2523	250	167	217
2524	253	172	220
2525	254	173	221
2526	250	169	219
2527	249	176	223
2528	253	186	228
2529	252	185	225
2530	247	182	218
2531	251	194	222
2532	255	207	228
2533	255	208	227
2534	255	210	225
2535	254	210	223
2536	252	210	223
2537	252	215	226
2538	252	219	230
2539	0	0	0
2540	255	234	236
2541	0	0	0
2542	0	0	0
2543	0	0	0
2544	0	0	0
2545	0	0	0
2546	0	0	0
2547	0	0	0
2548	0	0	0
2549	0	0	0
2550	0	0	0
2551	0	0	0
2552	0	0	0
2553	0	0	0
2554	0	0	0
2555	0	0	0
2556	0	0	0
2557	0	0	0
2558	0	0	0
2559	0	0	0
2560	0	0	0
2561	254	211	220
2562	255	210	224
2563	254	197	220
2564	253	190	220
2565	255	186	221
2566	254	181	220
2567	248	173	216
2568	250	173	221
2569	248	164	220
2570	239	144	214
2571	241	139	216
2572	240	130	211
2573	253	143	221
2574	248	134	213
2575	255	146	218
2576	255	155	221
2577	251	143	209
2578	255	152	212
2579	255	161	216
2580	255	165	216
2581	255	155	207
2582	255	153	207
2583	255	154	209
2584	253	141	202
2585	253	138	203
2586	255	141	208
2587	249	124	200
2588	239	108	195
2589	235	106	195
2590	244	122	204
2591	253	135	210
2592	255	147	215
2593	255	162	221
2594	255	147	207
2595	247	137	200
2596	255	151	211
2597	255	154	213
2598	252	149	207
2599	247	146	203
2600	254	160	213
2601	248	156	211
2602	240	148	208
2603	247	160	216
2604	248	163	215
2605	252	169	218
2606	249	165	216
2607	250	165	217
2608	250	169	219
2609	249	175	223
2610	251	183	227
2611	249	182	223
2612	254	192	225
2613	255	206	230
2614	255	202	224
2615	252	202	221
2616	253	207	222
2617	251	207	221
2618	255	214	227
2619	255	220	232
2620	253	216	229
2621	0	0	0
2622	0	0	0
2623	0	0	0
2624	0	0	0
2625	0	0	0
2626	0	0	0
2627	0	0	0
2628	0	0	0
2629	0	0	0
2630	0	0	0
2631	0	0	0
2632	0	0	0
2633	0	0	0
2634	0	0	0
2635	0	0	0
2636	0	0	0
2637	0	0	0
2638	0	0	0
2639	0	0	0
2640	0	0	0
2641	0	0	0
2642	0	0	0
2643	0	0	0
2644	255	206	223
2645	251	193	217
2646	250	186	218
2647	252	183	220
2648	250	178	217
2649	248	174	217
2650	251	174	222
2651	240	155	215
2652	232	136	210
2653	240	139	218
2654	238	130	212
2655	243	131	214
2656	240	124	209
2657	253	138	218
2658	255	146	218
2659	255	150	216
2660	255	157	218
2661	255	156	214
2662	255	161	216
2663	255	153	209
2664	255	152	210
2665	252	140	204
2666	245	127	197
2667	249	129	201
2668	253	132	206
2669	245	117	198
2670	234	102	192
2671	246	123	207
2672	255	139	216
2673	255	152	222
2674	255	162	225
2675	255	144	209
2676	243	130	198
2677	250	141	205
2678	255	153	212
2679	254	150	207
2680	248	144	201
2681	255	158	211
2682	255	174	223
2683	255	165	219
2684	246	156	215
2685	248	162	218
2686	248	165	218
2687	244	159	213
2688	241	155	212
2689	246	162	217
2690	245	164	216
2691	246	171	219
2692	249	181	226
2693	255	192	230
2694	255	201	229
2695	255	198	221
2696	251	195	217
2697	251	199	218
2698	252	205	220
2699	252	209	222
2700	255	216	227
2701	252	212	226
2702	0	0	0
2703	0	0	0
2704	0	0	0
2705	0	0	0
2706	0	0	0
2707	0	0	0
2708	0	0	0
2709	0	0	0
2710	0	0	0
2711	0	0	0
2712	0	0	0
2713	0	0	0
2714	0	0	0
2715	0	0	0
2716	0	0	0
2717	0	0	0
2718	0	0	0
2719	0	0	0
2720	0	0	0
2721	0	0	0
2722	0	0	0
2723	0	0	0
2724	0	0	0
2725	0	0	0
2726	0	0	0
2727	239	180	209
2728	253	195	225
2729	255	193	227
2730	249	179	218
2731	250	177	220
2732	251	174	224
2733	239	154	216
2734	234	141	215
2735	240	142	222
2736	225	115	204
2737	229	117	207
2738	238	122	212
2739	255	139	223
2740	252	133	213
2741	251	135	209
2742	255	154	218
2743	255	151	212
2744	255	156	214
2745	253	148	209
2746	255	160	219
2747	255	148	214
2748	242	121	198
2749	244	122	202
2750	254	134	211
2751	244	119	202
2752	241	115	201
2753	255	137	217
2754	254	134	213
2755	255	145	217
2756	255	148	214
2757	244	130	199
2758	255	148	212
2759	255	160	219
2760	255	153	211
2761	254	149	206
2762	253	150	206
2763	255	165	217
2764	255	158	215
2765	247	150	210
2766	245	152	213
2767	245	156	215
2768	244	161	215
2769	237	154	210
2770	241	162	217
2771	245	168	220
2772	248	174	221
2773	254	183	226
2774	254	185	228
2775	255	195	231
2776	255	200	227
2777	255	197	220
2778	249	193	216
2779	250	199	218
2780	254	210	223
2781	255	214	225
2782	253	214	227
2783	0	0	0
2784	0	0	0
2785	0	0	0
2786	0	0	0
2787	0	0	0
2788	0	0	0
2789	0	0	0
2790	0	0	0
2791	0	0	0
2792	0	0	0
2793	0	0	0
2794	0	0	0
2795	0	0	0
2796	0	0	0
2797	0	0	0
2798	0	0	0
2799	0	0	0
2800	0	0	0
2801	252	224	232
2802	0	0	0
2803	0	0	0
2804	0	0	0
2805	252	204	222
2806	0	0	0
2807	0	0	0
2808	249	189	217
2809	253	197	223
2810	255	210	236
2811	255	195	227
2812	250	181	221
2813	249	175	222
2814	250	173	226
2815	239	155	219
2816	232	141	214
2817	226	125	209
2818	212	100	196
2819	226	114	210
2820	234	119	214
2821	242	122	215
2822	240	117	206
2823	249	132	211
2824	255	149	217
2825	251	144	208
2826	253	148	210
2827	254	150	211
2828	255	161	221
2829	246	132	204
2830	229	106	191
2831	241	120	205
2832	249	131	213
2833	245	126	209
2834	244	123	206
2835	252	130	212
2836	248	126	206
2837	248	130	206
2838	248	134	206
2839	255	147	211
2840	255	164	220
2841	255	158	214
2842	255	152	209
2843	255	155	212
2844	255	156	213
2845	255	151	211
2846	247	143	206
2847	245	145	209
2848	243	147	211
2849	244	153	214
2850	243	158	215
2851	245	164	218
2852	248	171	222
2853	250	178	225
2854	254	184	226
2855	255	187	226
2856	255	187	224
2857	255	191	224
2858	255	198	224
2859	252	194	219
2860	247	191	217
2861	253	203	224
2862	255	214	228
2863	254	213	226
2864	0	0	0
2865	0	0	0
2866	0	0	0
2867	0	0	0
2868	0	0	0
2869	0	0	0
2870	0	0	0
2871	0	0	0
2872	0	0	0
2873	0	0	0
2874	0	0	0
2875	0	0	0
2876	0	0	0
2877	0	0	0
2878	0	0	0
2879	0	0	0
2880	0	0	0
2881	0	0	0
2882	250	232	237
2883	253	228	235
2884	252	218	229
2885	254	214	228
2886	253	207	226
2887	255	204	226
2888	251	194	222
2889	250	189	220
2890	255	196	225
2891	255	205	232
2892	255	194	226
2893	244	176	216
2894	249	180	223
2895	249	175	225
2896	247	169	227
2897	234	151	219
2898	231	142	217
2899	226	127	214
2900	214	104	203
2901	228	118	217
2902	225	109	210
2903	227	109	207
2904	232	113	205
2905	247	131	213
2906	255	152	221
2907	252	146	211
2908	255	161	219
2909	255	161	218
2910	255	164	221
2911	244	135	205
2912	244	132	209
2913	255	146	223
2914	249	138	217
2915	246	133	212
2916	253	140	217
2917	255	147	222
2918	240	117	199
2919	241	122	201
2920	255	148	217
2921	255	162	223
2922	255	158	216
2923	255	152	209
2924	252	147	206
2925	255	150	210
2926	255	152	213
2927	253	147	211
2928	250	147	211
2929	248	149	213
2930	245	151	215
2931	248	158	219
2932	248	161	220
2933	251	168	222
2934	251	172	222
2935	252	177	223
2936	251	178	222
2937	252	180	221
2938	254	187	222
2939	251	190	221
2940	255	201	226
2941	254	199	222
2942	251	197	221
2943	255	210	228
2944	255	214	228
2945	0	0	0
2946	0	0	0
2947	0	0	0
2948	0	0	0
2949	0	0	0
2950	0	0	0
2951	0	0	0
2952	0	0	0
2953	0	0	0
2954	0	0	0
2955	0	0	0
2956	0	0	0
2957	0	0	0
2958	0	0	0
2959	0	0	0
2960	0	0	0
2961	0	0	0
2962	0	0	0
2963	247	235	239
2964	248	232	237
2965	248	222	233
2966	248	214	229
2967	248	207	227
2968	248	200	223
2969	248	193	222
2970	244	184	219
2971	251	191	225
2972	255	197	226
2973	249	185	218
2974	244	175	214
2975	247	177	220
2976	252	182	229
2977	247	172	227
2978	242	164	227
2979	228	147	219
2980	224	138	218
2981	217	120	211
2982	204	95	199
2983	210	98	204
2984	206	89	196
2985	214	99	200
2986	220	103	199
2987	243	130	214
2988	255	151	224
2989	255	158	221
2990	255	171	224
2991	255	164	216
2992	255	165	218
2993	255	159	218
2994	255	156	223
2995	254	150	222
2996	247	141	215
2997	249	143	216
2998	255	151	221
2999	246	131	208
3000	226	102	188
3001	246	133	209
3002	255	160	227
3003	255	155	220
3004	255	152	215
3005	253	148	211
3006	249	143	205
3007	250	144	206
3008	251	146	209
3009	253	149	213
3010	250	149	212
3011	248	152	214
3012	247	154	217
3013	249	160	221
3014	250	163	221
3015	251	167	222
3016	251	170	220
3017	248	170	219
3018	247	171	219
3019	252	181	224
3020	253	188	225
3021	253	195	225
3022	255	206	229
3023	255	204	225
3024	253	202	221
3025	255	209	225
3026	255	213	226
3027	0	0	0
3028	0	0	0
3029	0	0	0
3030	0	0	0
3031	0	0	0
3032	0	0	0
3033	0	0	0
3034	0	0	0
3035	0	0	0
3036	0	0	0
3037	0	0	0
3038	0	0	0
3039	0	0	0
3040	0	0	0
3041	0	0	0
3042	0	0	0
3043	0	0	0
3044	0	0	0
3045	254	242	244
3046	248	230	236
3047	245	219	231
3048	249	219	232
3049	250	213	230
3050	252	208	229
3051	252	202	228
3052	243	186	221
3053	248	192	226
3054	254	200	227
3055	247	188	219
3056	245	180	218
3057	254	185	227
3058	251	178	229
3059	243	166	225
3060	241	166	228
3061	222	147	218
3062	219	141	219
3063	211	122	212
3064	212	116	212
3065	219	119	217
3066	212	106	208
3067	222	117	212
3068	232	127	215
3069	255	154	230
3070	255	152	225
3071	255	158	222
3072	255	166	220
3073	254	159	211
3074	255	164	216
3075	255	158	215
3076	250	148	214
3077	246	142	212
3078	253	154	219
3079	255	157	220
3080	255	166	226
3081	252	145	214
3082	235	119	198
3083	255	152	222
3084	255	169	232
3085	255	164	225
3086	253	149	214
3087	252	146	211
3088	252	147	210
3089	251	148	210
3090	255	155	216
3091	255	157	218
3092	244	145	210
3093	244	149	214
3094	247	156	220
3095	250	162	223
3096	249	162	221
3097	248	165	219
3098	251	172	222
3099	251	174	222
3100	250	177	223
3101	253	186	227
3102	254	193	227
3103	255	201	228
3104	255	206	229
3105	255	203	225
3106	251	200	220
3107	255	207	223
3108	254	210	223
3109	0	0	0
3110	0	0	0
3111	0	0	0
3112	0	0	0
3113	0	0	0
3114	0	0	0
3115	0	0	0
3116	0	0	0
3117	0	0	0
3118	0	0	0
3119	0	0	0
3120	0	0	0
3121	0	0	0
3122	0	0	0
3123	0	0	0
3124	0	0	0
3125	0	0	0
3126	255	252	249
3127	255	241	242
3128	250	229	236
3129	251	227	235
3130	252	224	234
3131	250	218	230
3132	253	214	231
3133	250	203	228
3134	242	187	221
3135	251	198	229
3136	255	205	231
3137	251	193	223
3138	250	186	223
3139	252	180	225
3140	249	172	225
3141	248	171	228
3142	244	169	229
3143	228	154	221
3144	223	148	223
3145	219	140	221
3146	218	132	219
3147	220	128	219
3148	215	116	212
3149	231	134	222
3150	242	144	223
3151	252	149	224
3152	251	148	220
3153	253	154	220
3154	255	164	222
3155	255	163	217
3156	255	167	219
3157	252	155	212
3158	246	145	210
3159	255	159	221
3160	255	171	225
3161	255	172	224
3162	255	181	231
3163	255	159	219
3164	241	134	205
3165	255	157	221
3166	255	173	228
3167	255	156	214
3168	247	142	204
3169	251	148	210
3170	253	150	213
3171	255	156	217
3172	255	161	219
3173	246	150	212
3174	236	139	209
3175	240	148	216
3176	243	155	221
3177	244	158	221
3178	242	157	216
3179	245	165	218
3180	249	174	223
3181	253	179	225
3182	252	181	225
3183	253	189	226
3184	254	196	226
3185	254	199	225
3186	255	205	229
3187	254	202	226
3188	251	200	221
3189	252	204	222
3190	252	206	222
3191	0	0	0
3192	0	0	0
3193	0	0	0
3194	0	0	0
3195	0	0	0
3196	0	0	0
3197	0	0	0
3198	0	0	0
3199	0	0	0
3200	0	0	0
3201	0	0	0
3202	0	0	0
3203	0	0	0
3204	0	0	0
3205	0	0	0
3206	0	0	0
3207	0	0	0
3208	255	247	245
3209	254	237	239
3210	251	226	234
3211	252	224	233
3212	251	221	229
3213	244	211	223
3214	249	213	228
3215	250	203	227
3216	248	192	223
3217	255	204	234
3218	255	198	227
3219	250	185	219
3220	254	186	224
3221	255	179	224
3222	255	177	227
3223	254	174	229
3224	245	165	225
3225	232	151	219
3226	230	152	224
3227	220	140	219
3228	222	141	220
3229	223	136	219
3230	227	135	220
3231	248	156	234
3232	251	153	227
3233	255	156	225
3234	255	155	222
3235	255	163	224
3236	255	170	225
3237	255	168	220
3238	255	167	218
3239	250	155	210
3240	253	158	216
3241	255	172	225
3242	255	170	219
3243	255	171	218
3244	255	171	219
3245	247	149	206
3246	250	151	213
3247	255	174	229
3248	255	169	221
3249	251	152	207
3250	251	151	208
3251	255	157	214
3252	255	155	215
3253	255	161	221
3254	249	153	215
3255	236	141	207
3256	238	148	215
3257	241	157	222
3258	245	166	226
3259	244	167	224
3260	239	162	217
3261	244	171	221
3262	248	176	224
3263	254	183	227
3264	253	185	225
3265	252	191	224
3266	252	196	224
3267	254	200	225
3268	255	206	228
3269	254	203	225
3270	255	207	224
3271	255	211	226
3272	251	206	221
3273	0	0	0
3274	0	0	0
3275	0	0	0
3276	0	0	0
3277	0	0	0
3278	0	0	0
3279	0	0	0
3280	0	0	0
3281	0	0	0
3282	0	0	0
3283	0	0	0
3284	0	0	0
3285	0	0	0
3286	0	0	0
3287	0	0	0
3288	0	0	0
3289	0	0	0
3290	252	241	241
3291	250	231	235
3292	247	220	229
3293	253	222	232
3294	252	219	229
3295	248	215	226
3296	253	216	229
3297	254	207	227
3298	253	197	226
3299	255	196	228
3300	255	190	223
3301	255	187	223
3302	255	188	227
3303	255	184	227
3304	255	180	225
3305	251	169	220
3306	245	160	221
3307	243	160	225
3308	241	159	229
3309	238	158	229
3310	238	158	230
3311	243	160	232
3312	246	159	232
3313	255	162	234
3314	255	160	229
3315	255	162	227
3316	255	161	221
3317	255	167	221
3318	255	175	224
3319	255	172	219
3320	255	171	217
3321	255	173	218
3322	255	175	222
3323	255	175	222
3324	255	174	220
3325	255	171	216
3326	255	170	215
3327	255	171	218
3328	255	174	225
3329	255	171	223
3330	255	165	215
3331	255	162	212
3332	255	161	214
3333	255	161	215
3334	255	158	214
3335	249	152	213
3336	242	145	213
3337	243	153	219
3338	242	159	222
3339	243	167	225
3340	247	175	227
3341	244	171	222
3342	241	167	219
3343	245	174	223
3344	247	178	224
3345	251	183	224
3346	250	185	222
3347	249	190	222
3348	251	196	224
3349	254	201	225
3350	255	205	225
3351	255	208	224
3352	255	211	223
3353	253	208	220
3354	249	204	218
3355	255	217	226
3356	0	0	0
3357	0	0	0
3358	0	0	0
3359	0	0	0
3360	0	0	0
3361	0	0	0
3362	0	0	0
3363	0	0	0
3364	0	0	0
3365	0	0	0
3366	0	0	0
3367	0	0	0
3368	0	0	0
3369	0	0	0
3370	0	0	0
3371	0	0	0
3372	254	245	243
3373	249	233	235
3374	249	225	231
3375	255	229	236
3376	254	217	228
3377	253	215	227
3378	253	210	226
3379	251	200	222
3380	255	198	226
3381	255	196	228
3382	253	185	222
3383	255	184	223
3384	254	179	223
3385	253	174	221
3386	250	168	217
3387	241	156	211
3388	250	166	224
3389	253	167	230
3390	254	167	231
3391	252	166	231
3392	246	156	226
3393	250	157	228
3394	250	155	227
3395	252	156	226
3396	255	159	225
3397	255	162	224
3398	253	155	214
3399	255	163	216
3400	255	169	218
3401	255	167	215
3402	254	162	210
3403	255	164	211
3404	255	166	214
3405	255	166	214
3406	255	170	217
3407	255	167	214
3408	255	164	210
3409	255	165	212
3410	255	167	216
3411	255	163	214
3412	255	163	213
3413	255	160	211
3414	255	159	212
3415	255	158	214
3416	253	157	213
3417	245	150	211
3418	245	154	219
3419	248	163	227
3420	238	156	218
3421	236	162	218
3422	244	176	224
3423	247	175	223
3424	246	171	222
3425	249	178	226
3426	247	179	224
3427	244	180	221
3428	248	190	223
3429	252	198	226
3430	253	200	226
3431	255	205	227
3432	254	204	222
3433	254	206	220
3434	255	210	220
3435	252	207	217
3436	255	213	222
3437	255	226	232
3438	254	217	224
3439	0	0	0
3440	0	0	0
3441	0	0	0
3442	0	0	0
3443	0	0	0
3444	0	0	0
3445	0	0	0
3446	0	0	0
3447	0	0	0
3448	0	0	0
3449	0	0	0
3450	0	0	0
3451	0	0	0
3452	0	0	0
3453	0	0	0
3454	0	0	0
3455	255	241	241
3456	255	234	237
3457	255	227	235
3458	255	216	230
3459	255	212	230
3460	255	208	228
3461	255	203	227
3462	255	200	227
3463	254	189	223
3464	250	179	219
3465	252	177	222
3466	251	172	223
3467	251	168	223
3468	248	163	220
3469	251	168	224
3470	255	176	232
3471	255	175	232
3472	255	173	229
3473	254	163	223
3474	250	154	221
3475	254	157	226
3476	253	154	224
3477	255	159	226
3478	255	162	223
3479	253	156	216
3480	248	151	211
3481	253	159	215
3482	255	166	217
3483	254	161	213
3484	252	157	211
3485	255	162	214
3486	255	164	215
3487	255	167	217
3488	255	171	220
3489	255	166	216
3490	255	163	212
3491	255	163	212
3492	255	163	213
3493	255	164	214
3494	255	165	216
3495	255	162	216
3496	255	160	216
3497	255	160	218
3498	254	159	217
3499	251	161	219
3500	251	164	224
3501	247	162	223
3502	236	155	216
3503	238	166	220
3504	247	180	227
3505	250	178	225
3506	249	174	222
3507	250	179	225
3508	248	181	225
3509	250	190	228
3510	254	200	231
3511	254	202	228
3512	255	204	227
3513	253	202	223
3514	251	201	220
3515	253	206	222
3516	255	211	223
3517	255	215	225
3518	255	220	226
3519	254	213	222
3520	247	205	217
3521	254	218	226
3522	0	0	0
3523	0	0	0
3524	0	0	0
3525	0	0	0
3526	0	0	0
3527	0	0	0
3528	0	0	0
3529	0	0	0
3530	0	0	0
3531	0	0	0
3532	0	0	0
3533	0	0	0
3534	0	0	0
3535	0	0	0
3536	255	243	241
3537	255	234	237
3538	254	225	233
3539	254	216	229
3540	254	210	228
3541	255	208	229
3542	251	196	223
3543	251	191	221
3544	255	198	227
3545	252	186	221
3546	252	181	222
3547	255	179	225
3548	252	171	224
3549	252	167	225
3550	252	166	225
3551	255	172	228
3552	255	170	227
3553	254	166	223
3554	255	165	221
3555	249	156	216
3556	253	158	221
3557	255	160	226
3558	252	153	221
3559	255	158	224
3560	255	160	220
3561	251	155	214
3562	254	159	218
3563	255	168	223
3564	255	166	220
3565	255	162	217
3566	251	154	213
3567	254	159	217
3568	252	156	214
3569	253	158	214
3570	255	163	217
3571	253	158	213
3572	255	164	215
3573	255	163	214
3574	255	161	212
3575	255	161	213
3576	255	163	217
3577	255	160	217
3578	253	157	216
3579	252	156	216
3580	253	159	218
3581	253	162	220
3582	254	167	224
3583	248	164	222
3584	242	162	219
3585	245	174	225
3586	249	180	227
3587	250	177	224
3588	249	175	222
3589	249	179	223
3590	253	188	228
3591	255	199	234
3592	255	195	228
3593	253	196	225
3594	255	205	226
3595	251	201	221
3596	253	206	223
3597	255	212	227
3598	254	211	225
3599	255	215	226
3600	255	218	225
3601	253	212	221
3602	250	209	221
3603	255	222	231
3604	255	222	228
3605	0	0	0
3606	0	0	0
3607	0	0	0
3608	0	0	0
3609	0	0	0
3610	0	0	0
3611	0	0	0
3612	0	0	0
3613	0	0	0
3614	0	0	0
3615	0	0	0
3616	0	0	0
3617	255	240	236
3618	255	234	236
3619	253	225	232
3620	252	216	230
3621	252	210	228
3622	252	203	224
3623	250	195	221
3624	245	184	216
3625	252	190	223
3626	255	196	227
3627	253	186	222
3628	253	181	222
3629	252	174	222
3630	249	166	221
3631	253	168	225
3632	253	166	223
3633	253	165	221
3634	252	163	219
3635	251	161	218
3636	253	162	220
3637	254	162	222
3638	255	163	224
3639	255	159	223
3640	250	151	218
3641	251	155	220
3642	252	157	219
3643	254	160	220
3644	255	165	222
3645	255	163	220
3646	255	162	219
3647	250	154	214
3648	244	145	210
3649	245	145	210
3650	243	143	208
3651	246	148	211
3652	249	153	213
3653	253	158	216
3654	255	163	217
3655	255	161	214
3656	254	159	214
3657	254	159	215
3658	255	161	218
3659	252	157	216
3660	249	152	214
3661	253	158	218
3662	254	161	220
3663	255	166	222
3664	255	170	223
3665	247	166	219
3666	243	165	219
3667	245	172	223
3668	249	178	226
3669	251	178	226
3670	249	176	222
3671	252	185	226
3672	255	194	230
3673	255	192	227
3674	251	188	223
3675	255	198	226
3676	255	207	228
3677	255	208	225
3678	255	213	227
3679	255	212	226
3680	254	211	225
3681	255	214	226
3682	255	217	226
3683	255	214	224
3684	252	211	223
3685	255	216	227
3686	252	216	225
3687	249	220	226
3688	253	228	233
3689	253	229	234
3690	0	0	0
3691	0	0	0
3692	0	0	0
3693	0	0	0
3694	0	0	0
3695	0	0	0
3696	0	0	0
3697	0	0	0
3698	255	247	239
3699	255	242	239
3700	253	228	233
3701	251	218	229
3702	255	222	234
3703	255	216	233
3704	253	202	225
3705	250	194	222
3706	250	188	222
3707	255	195	228
3708	255	192	227
3709	251	182	220
3710	255	184	225
3711	254	177	224
3712	252	171	223
3713	255	172	226
3714	253	167	222
3715	253	166	220
3716	255	169	222
3717	255	168	222
3718	255	166	223
3719	255	166	225
3720	255	163	224
3721	254	159	223
3722	246	149	216
3723	245	152	217
3724	253	165	225
3725	255	170	227
3726	255	167	223
3727	255	165	220
3728	255	164	220
3729	251	156	216
3730	253	158	220
3731	253	158	221
3732	255	161	222
3733	255	166	225
3734	255	160	220
3735	255	166	223
3736	254	158	216
3737	252	156	213
3738	253	157	214
3739	252	157	215
3740	255	164	222
3741	252	159	219
3742	253	159	220
3743	255	165	225
3744	253	161	220
3745	254	165	221
3746	250	166	219
3747	240	161	213
3748	247	175	224
3749	255	185	232
3750	252	180	228
3751	249	177	224
3752	250	181	224
3753	255	192	229
3754	255	192	228
3755	253	190	224
3756	254	193	225
3757	255	203	229
3758	255	204	226
3759	254	206	224
3760	255	213	229
3761	255	212	228
3762	254	209	225
3763	255	212	226
3764	255	215	227
3765	254	213	225
3766	254	213	225
3767	255	217	229
3768	253	216	227
3769	254	222	230
3770	254	224	232
3771	253	225	233
3772	250	221	228
3773	0	0	0
3774	0	0	0
3775	0	0	0
3776	0	0	0
3777	0	0	0
3778	0	0	0
3779	0	0	0
3780	0	0	0
3781	254	235	237
3782	249	220	228
3783	254	222	231
3784	255	224	233
3785	255	211	227
3786	252	200	225
3787	255	198	228
3788	253	191	226
3789	255	192	229
3790	255	190	229
3791	255	189	229
3792	255	190	232
3793	255	183	229
3794	255	176	225
3795	255	174	226
3796	254	169	223
3797	255	173	226
3798	255	176	227
3799	255	172	223
3800	255	170	223
3801	255	166	223
3802	255	164	226
3803	254	159	224
3804	245	150	216
3805	251	162	224
3806	255	175	235
3807	255	173	231
3808	255	169	224
3809	255	166	219
3810	255	164	219
3811	255	166	222
3812	255	169	226
3813	255	171	228
3814	255	173	228
3815	255	167	223
3816	253	160	219
3817	249	154	215
3818	244	147	210
3819	246	150	212
3820	246	151	210
3821	250	158	215
3822	255	164	222
3823	253	163	223
3824	253	164	224
3825	253	163	223
3826	249	158	218
3827	252	165	221
3828	250	167	220
3829	250	176	225
3830	255	190	234
3831	255	188	233
3832	255	182	228
3833	255	187	229
3834	255	191	229
3835	255	191	227
3836	255	192	227
3837	255	196	228
3838	255	199	228
3839	255	200	226
3840	253	201	222
3841	252	205	223
3842	255	214	230
3843	255	211	229
3844	253	208	226
3845	255	211	227
3846	255	215	228
3847	255	214	227
3848	255	214	228
3849	255	216	230
3850	254	215	228
3851	252	217	228
3852	253	220	231
3853	251	217	229
3854	0	0	0
3855	0	0	0
3856	0	0	0
3857	0	0	0
3858	0	0	0
3859	0	0	0
3860	0	0	0
3861	0	0	0
3862	0	0	0
3863	0	0	0
3864	251	224	231
3865	255	227	235
3866	255	218	228
3867	251	204	222
3868	255	203	228
3869	255	201	232
3870	252	187	225
3871	255	188	229
3872	253	183	227
3873	254	182	227
3874	255	185	230
3875	255	177	226
3876	251	168	221
3877	251	166	220
3878	253	167	222
3879	255	171	224
3880	255	170	223
3881	253	166	220
3882	255	171	224
3883	255	167	224
3884	254	163	224
3885	251	158	222
3886	251	158	222
3887	255	172	232
3888	255	168	231
3889	254	164	226
3890	255	168	223
3891	253	164	218
3892	253	164	219
3893	255	166	222
3894	255	168	224
3895	255	170	225
3896	255	171	224
3897	254	165	220
3898	253	164	221
3899	248	158	217
3900	248	160	220
3901	249	162	221
3902	246	158	217
3903	253	165	223
3904	252	164	223
3905	249	163	223
3906	247	162	223
3907	246	160	222
3908	246	160	220
3909	251	168	224
3910	249	166	222
3911	255	179	229
3912	255	186	232
3913	255	181	227
3914	251	173	222
3915	252	178	224
3916	255	189	228
3917	255	189	226
3918	253	188	224
3919	255	192	225
3920	255	198	227
3921	255	200	226
3922	252	201	223
3923	250	204	223
3924	255	219	233
3925	255	217	232
3926	252	206	224
3927	254	210	226
3928	255	215	230
3929	255	214	229
3930	255	216	230
3931	255	219	233
3932	250	209	225
3933	249	211	226
3934	255	225	236
3935	0	0	0
3936	0	0	0
3937	0	0	0
3938	0	0	0
3939	0	0	0
3940	0	0	0
3941	0	0	0
3942	0	0	0
3943	0	0	0
3944	0	0	0
3945	0	0	0
3946	255	231	236
3947	255	223	233
3948	255	214	231
3949	255	212	232
3950	255	208	232
3951	255	196	227
3952	249	182	223
3953	250	180	226
3954	248	175	223
3955	252	177	226
3956	255	179	228
3957	251	170	223
3958	247	161	220
3959	251	165	223
3960	251	166	220
3961	252	166	220
3962	253	166	223
3963	255	171	228
3964	255	176	232
3965	255	170	227
3966	253	163	222
3967	254	164	223
3968	255	165	224
3969	251	161	222
3970	248	156	220
3971	250	161	222
3972	253	165	222
3973	252	164	220
3974	252	165	221
3975	253	166	222
3976	253	167	223
3977	254	168	223
3978	255	169	223
3979	255	169	222
3980	254	168	223
3981	250	167	222
3982	250	169	225
3983	246	165	223
3984	244	161	222
3985	245	162	223
3986	244	160	221
3987	243	160	221
3988	243	160	223
3989	246	163	226
3990	246	163	225
3991	249	166	226
3992	248	165	224
3993	255	175	229
3994	255	181	229
3995	254	174	223
3996	248	167	219
3997	254	179	226
3998	255	190	230
3999	255	187	225
4000	252	185	222
4001	255	193	225
4002	255	199	228
4003	255	203	229
4004	255	205	230
4005	255	215	234
4006	255	227	237
4007	255	215	227
4008	252	205	220
4009	255	210	225
4010	255	217	232
4011	255	217	232
4012	255	218	232
4013	253	211	227
4014	246	203	223
4015	254	216	232
4016	255	229	239
4017	0	0	0
4018	0	0	0
4019	0	0	0
4020	0	0	0
4021	0	0	0
4022	0	0	0
4023	0	0	0
4024	0	0	0
4025	0	0	0
4026	0	0	0
4027	0	0	0
4028	255	225	233
4029	255	216	230
4030	255	208	230
4031	255	205	231
4032	254	196	226
4033	247	183	220
4034	253	186	228
4035	253	183	229
4036	254	182	230
4037	255	184	232
4038	254	177	228
4039	249	167	224
4040	253	170	228
4041	255	174	231
4042	253	169	224
4043	254	168	223
4044	255	169	227
4045	255	174	232
4046	255	170	229
4047	252	163	223
4048	251	162	220
4049	251	162	220
4050	255	170	226
4051	253	166	223
4052	254	169	226
4053	255	173	229
4054	252	167	224
4055	252	167	223
4056	253	169	225
4057	253	171	225
4058	255	174	228
4059	255	174	228
4060	248	165	221
4061	250	165	222
4062	252	170	224
4063	247	167	221
4064	252	176	229
4065	249	173	228
4066	247	171	229
4067	245	170	229
4068	248	173	228
4069	251	175	231
4070	250	170	231
4071	253	174	234
4072	251	169	231
4073	254	172	232
4074	249	165	228
4075	254	174	232
4076	251	170	225
4077	247	165	219
4078	250	169	222
4079	255	180	229
4080	255	190	232
4081	255	187	227
4082	254	186	224
4083	255	194	227
4084	255	195	225
4085	255	200	227
4086	255	202	230
4087	255	213	235
4088	255	209	227
4089	248	196	215
4090	253	204	221
4091	255	210	226
4092	255	214	231
4093	255	215	232
4094	255	213	229
4095	248	205	224
4096	250	208	228
4097	255	222	238
4098	255	222	235
4099	0	0	0
4100	0	0	0
4101	0	0	0
4102	0	0	0
4103	0	0	0
4104	0	0	0
4105	0	0	0
4106	0	0	0
4107	0	0	0
4108	0	0	0
4109	255	223	233
4110	255	220	232
4111	255	211	229
4112	253	202	228
4113	251	195	227
4114	249	187	226
4115	253	189	230
4116	255	190	234
4117	255	188	233
4118	255	186	231
4119	252	178	227
4120	250	172	226
4121	253	174	229
4122	255	176	231
4123	255	173	229
4124	252	169	226
4125	253	168	225
4126	253	168	225
4127	252	166	224
4128	250	162	222
4129	251	163	223
4130	250	162	222
4131	253	168	225
4132	255	176	229
4133	255	176	227
4134	255	178	228
4135	253	173	225
4136	249	168	224
4137	251	170	227
4138	252	172	226
4139	254	175	228
4140	255	179	232
4141	247	168	226
4142	242	159	221
4143	248	167	226
4144	250	170	226
4145	250	176	227
4146	255	184	233
4147	252	181	233
4148	250	180	234
4149	249	181	234
4150	251	183	233
4151	249	177	229
4152	247	172	228
4153	247	170	228
4154	246	167	226
4155	247	165	227
4156	243	159	225
4157	243	160	225
4158	242	158	221
4159	249	166	226
4160	251	170	226
4161	255	182	232
4162	255	191	234
4163	255	190	231
4164	255	191	231
4165	255	194	229
4166	255	194	223
4167	255	196	224
4168	255	200	228
4169	255	199	228
4170	253	196	223
4171	255	202	225
4172	255	209	230
4173	255	211	231
4174	255	213	233
4175	255	211	231
4176	255	210	230
4177	254	211	230
4178	255	214	233
4179	255	216	234
4180	255	216	232
4181	0	0	0
4182	0	0	0
4183	0	0	0
4184	0	0	0
4185	0	0	0
4186	0	0	0
4187	0	0	0
4188	0	0	0
4189	0	0	0
4190	255	225	235
4191	255	222	234
4192	255	213	230
4193	253	204	227
4194	252	198	227
4195	250	190	226
4196	254	191	231
4197	255	192	235
4198	252	183	230
4199	252	181	228
4200	255	188	232
4201	252	179	227
4202	255	181	231
4203	255	183	235
4204	254	176	230
4205	253	173	229
4206	255	175	231
4207	255	175	230
4208	255	174	229
4209	255	171	228
4210	248	160	221
4211	248	161	223
4212	251	167	226
4213	254	173	229
4214	255	179	230
4215	255	179	228
4216	255	184	229
4217	255	179	227
4218	251	173	226
4219	253	176	229
4220	255	184	232
4221	255	187	235
4222	252	175	229
4223	241	164	222
4224	249	175	232
4225	255	182	236
4226	255	184	233
4227	255	190	235
4228	254	185	232
4229	249	181	229
4230	251	186	233
4231	252	188	234
4232	252	189	232
4233	246	181	226
4234	250	185	231
4235	250	184	232
4236	250	179	232
4237	254	180	236
4238	249	169	231
4239	249	171	233
4240	249	170	232
4241	255	179	238
4242	251	169	228
4243	255	181	234
4244	254	176	227
4245	252	176	225
4246	254	180	227
4247	254	183	226
4248	255	186	223
4249	255	189	223
4250	254	189	225
4251	252	188	224
4252	251	190	224
4253	254	196	227
4254	255	207	233
4255	255	207	232
4256	255	207	231
4257	253	204	228
4258	255	209	230
4259	255	211	231
4260	255	214	235
4261	255	215	235
4262	251	211	230
4263	0	0	0
4264	0	0	0
4265	0	0	0
4266	0	0	0
4267	0	0	0
4268	0	0	0
4269	0	0	0
4270	0	0	0
4271	255	230	237
4272	255	224	234
4273	254	214	228
4274	251	205	224
4275	250	198	224
4276	249	192	225
4277	252	192	229
4278	254	192	231
4279	250	184	228
4280	246	176	225
4281	254	185	232
4282	255	190	234
4283	255	189	232
4284	255	190	235
4285	255	183	233
4286	253	177	230
4287	254	178	231
4288	255	179	232
4289	255	177	230
4290	254	175	228
4291	247	164	222
4292	241	154	219
4293	248	164	227
4294	251	170	228
4295	254	178	231
4296	255	184	233
4297	255	186	231
4298	255	190	232
4299	255	183	226
4300	250	176	223
4301	255	185	231
4302	255	194	237
4303	254	181	229
4304	245	169	224
4305	250	180	232
4306	255	190	238
4307	255	192	237
4308	255	194	235
4309	255	190	230
4310	251	185	227
4311	251	188	228
4312	253	192	232
4313	254	194	232
4314	254	195	231
4315	253	196	230
4316	255	200	235
4317	252	192	232
4318	251	187	232
4319	248	179	230
4320	241	167	225
4321	238	166	224
4322	238	166	224
4323	238	162	222
4324	234	154	217
4325	238	156	220
4326	235	153	216
4327	242	161	220
4328	245	166	221
4329	250	173	225
4330	252	178	226
4331	251	179	226
4332	249	178	225
4333	251	181	227
4334	251	184	227
4335	255	196	233
4336	255	206	237
4337	255	204	234
4338	255	204	233
4339	254	204	230
4340	254	207	228
4341	0	0	0
4342	0	0	0
4343	252	209	234
4344	0	0	0
4345	0	0	0
4346	0	0	0
4347	0	0	0
4348	0	0	0
4349	0	0	0
4350	0	0	0
4351	0	0	0
4352	0	0	0
4353	255	225	236
4354	255	217	231
4355	250	206	225
4356	254	206	227
4357	252	199	226
4358	251	195	227
4359	254	194	230
4360	255	196	233
4361	253	188	229
4362	252	185	230
4363	255	194	238
4364	254	185	230
4365	253	183	229
4366	255	185	232
4367	251	178	229
4368	254	181	232
4369	255	181	233
4370	255	182	233
4371	254	179	230
4372	254	179	230
4373	247	169	224
4374	251	174	231
4375	255	185	239
4376	254	179	233
4377	255	186	235
4378	255	185	231
4379	254	186	229
4380	255	188	230
4381	249	181	224
4382	248	179	223
4383	255	189	231
4384	255	191	233
4385	248	177	225
4386	249	179	229
4387	255	191	238
4388	255	192	235
4389	254	192	232
4390	254	193	231
4391	250	188	227
4392	252	191	228
4393	253	195	229
4394	255	198	231
4395	255	199	231
4396	250	194	226
4397	249	194	226
4398	255	202	232
4399	251	195	229
4400	0	0	0
4401	0	0	0
4402	0	0	0
4403	0	0	0
4404	0	0	0
4405	0	0	0
4406	0	0	0
4407	0	0	0
4408	0	0	0
4409	0	0	0
4410	0	0	0
4411	255	187	239
4412	251	174	230
4413	251	175	231
4414	251	176	230
4415	252	180	232
4416	255	186	234
4417	255	197	239
4418	252	188	230
4419	249	187	226
4420	253	198	231
4421	0	0	0
4422	0	0	0
4423	0	0	0
4424	0	0	0
4425	0	0	0
4426	0	0	0
4427	0	0	0
4428	0	0	0
4429	0	0	0
4430	0	0	0
4431	0	0	0
4432	255	243	240
4433	255	234	238
4434	255	226	237
4435	255	219	235
4436	253	211	231
4437	254	209	231
4438	255	208	233
4439	254	202	230
4440	253	196	228
4441	255	199	232
4442	255	200	236
4443	255	196	234
4444	255	191	231
4445	251	184	228
4446	246	177	225
4447	249	179	229
4448	251	181	232
4449	253	183	233
4450	255	185	235
4451	255	185	234
4452	254	184	232
4453	253	183	231
4454	254	184	234
4455	255	188	237
4456	255	192	239
4457	255	188	236
4458	253	183	233
4459	253	184	232
4460	250	182	226
4461	249	183	226
4462	251	187	229
4463	249	184	227
4464	247	182	225
4465	251	185	228
4466	252	187	229
4467	251	187	230
4468	253	189	233
4469	255	193	235
4470	254	193	230
4471	253	194	230
4472	254	196	233
4473	255	199	235
4474	255	202	234
4475	255	203	232
4476	255	205	232
4477	254	200	228
4478	0	0	0
4479	0	0	0
4480	0	0	0
4481	0	0	0
4482	0	0	0
4483	0	0	0
4484	0	0	0
4485	0	0	0
4486	0	0	0
4487	0	0	0
4488	0	0	0
4489	0	0	0
4490	0	0	0
4491	0	0	0
4492	0	0	0
4493	0	0	0
4494	233	155	218
4495	239	162	224
4496	241	164	225
4497	249	175	231
4498	252	181	232
4499	248	177	227
4500	241	169	220
4501	250	184	229
4502	254	195	233
4503	255	210	238
4504	0	0	0
4505	0	0	0
4506	0	0	0
4507	0	0	0
4508	0	0	0
4509	0	0	0
4510	0	0	0
4511	0	0	0
4512	0	0	0
4513	255	238	238
4514	255	234	237
4515	254	225	234
4516	254	218	234
4517	252	210	232
4518	250	204	230
4519	251	201	231
4520	255	206	234
4521	253	199	230
4522	254	199	231
4523	255	201	234
4524	253	193	231
4525	251	188	228
4526	255	197	233
4527	253	189	229
4528	253	188	232
4529	255	191	237
4530	254	187	235
4531	254	188	236
4532	255	189	237
4533	254	188	235
4534	253	188	233
4535	252	187	232
4536	255	191	237
4537	255	195	240
4538	254	189	233
4539	251	185	229
4540	255	192	235
4541	255	193	234
4542	254	193	231
4543	255	195	231
4544	255	195	233
4545	252	192	231
4546	253	194	232
4547	254	195	233
4548	255	195	232
4549	255	196	233
4550	255	199	236
4551	255	202	238
4552	253	194	229
4553	254	196	229
4554	255	199	233
4555	255	201	234
4556	255	203	232
4557	255	204	230
4558	255	206	230
4559	0	0	0
4560	0	0	0
4561	0	0	0
4562	0	0	0
4563	0	0	0
4564	0	0	0
4565	0	0	0
4566	0	0	0
4567	0	0	0
4568	0	0	0
4569	0	0	0
4570	0	0	0
4571	0	0	0
4572	0	0	0
4573	0	0	0
4574	0	0	0
4575	0	0	0
4576	0	0	0
4577	0	0	0
4578	249	180	237
4579	255	192	245
4580	252	180	234
4581	247	176	230
4582	244	173	228
4583	255	189	238
4584	252	189	232
4585	255	205	238
4586	255	205	233
4587	0	0	0
4588	0	0	0
4589	0	0	0
4590	0	0	0
4591	0	0	0
4592	0	0	0
4593	0	0	0
4594	0	0	0
4595	254	229	235
4596	254	225	234
4597	251	216	231
4598	250	208	229
4599	247	201	228
4600	245	195	228
4601	251	200	233
4602	254	203	234
4603	254	201	232
4604	255	202	234
4605	252	194	231
4606	247	186	226
4607	254	195	232
4608	255	203	237
4609	255	199	234
4610	255	197	236
4611	255	194	236
4612	253	190	234
4613	255	193	237
4614	255	194	237
4615	254	193	235
4616	253	193	234
4617	254	195	235
4618	255	198	237
4619	255	195	235
4620	252	190	231
4621	255	196	234
4622	255	201	237
4623	255	202	235
4624	255	203	235
4625	255	203	234
4626	255	203	234
4627	255	203	234
4628	255	204	235
4629	255	205	235
4630	255	204	234
4631	255	206	235
4632	255	208	238
4633	255	202	234
4634	252	195	228
4635	254	198	230
4636	254	200	229
4637	255	203	230
4638	255	205	230
4639	255	207	230
4640	255	209	231
4641	255	211	232
4642	0	0	0
4643	0	0	0
4644	0	0	0
4645	0	0	0
4646	0	0	0
4647	0	0	0
4648	0	0	0
4649	0	0	0
4650	0	0	0
4651	0	0	0
4652	0	0	0
4653	0	0	0
4654	0	0	0
4655	0	0	0
4656	0	0	0
4657	0	0	0
4658	0	0	0
4659	246	192	242
4660	243	183	236
4661	244	177	233
4662	238	166	225
4663	240	168	228
4664	239	167	229
4665	245	176	234
4666	242	176	227
4667	244	182	227
4668	0	0	0
4669	0	0	0
4670	0	0	0
4671	0	0	0
4672	0	0	0
4673	0	0	0
4674	0	0	0
4675	0	0	0
4676	255	231	237
4677	255	226	236
4678	251	216	231
4679	247	206	226
4680	255	214	234
4681	252	207	232
4682	253	206	236
4683	255	210	241
4684	254	203	233
4685	253	201	232
4686	255	206	238
4687	253	198	234
4688	251	193	232
4689	255	202	238
4690	255	200	235
4691	253	196	232
4692	255	198	235
4693	254	195	234
4694	255	197	236
4695	255	199	239
4696	250	190	233
4697	248	190	231
4698	255	202	238
4699	255	204	238
4700	255	203	236
4701	255	199	234
4702	251	193	231
4703	255	200	234
4704	255	207	236
4705	255	208	235
4706	254	199	230
4707	254	199	230
4708	254	201	230
4709	254	202	230
4710	255	206	233
4711	255	206	233
4712	255	204	231
4713	255	205	232
4714	255	208	234
4715	254	202	231
4716	253	201	231
4717	255	204	232
4718	255	204	229
4719	255	207	230
4720	253	203	227
4721	253	205	228
4722	255	210	232
4723	255	212	232
4724	254	208	229
4725	0	0	0
4726	0	0	0
4727	0	0	0
4728	0	0	0
4729	0	0	0
4730	0	0	0
4731	0	0	0
4732	0	0	0
4733	0	0	0
4734	0	0	0
4735	0	0	0
4736	0	0	0
4737	0	0	0
4738	0	0	0
4739	0	0	0
4740	0	0	0
4741	0	0	0
4742	249	203	245
4743	253	200	245
4744	250	189	239
4745	255	193	244
4746	253	189	244
4747	255	198	249
4748	249	188	237
4749	0	0	0
4750	0	0	0
4751	0	0	0
4752	0	0	0
4753	0	0	0
4754	0	0	0
4755	0	0	0
4756	0	0	0
4757	0	0	0
4758	255	227	237
4759	251	217	231
4760	246	206	226
4761	253	213	232
4762	255	219	238
4763	255	215	236
4764	255	212	237
4765	254	207	235
4766	250	200	230
4767	254	204	234
4768	255	209	239
4769	255	204	238
4770	254	199	236
4771	254	199	237
4772	253	198	236
4773	255	200	236
4774	255	202	237
4775	255	203	238
4776	255	204	240
4777	253	196	235
4778	246	188	231
4779	255	202	239
4780	255	214	243
4781	255	210	238
4782	255	209	237
4783	255	203	233
4784	251	197	229
4785	255	206	234
4786	255	214	236
4787	255	204	229
4788	249	196	227
4789	253	201	231
4790	254	203	232
4791	255	207	234
4792	255	210	235
4793	255	208	234
4794	255	207	233
4795	255	207	232
4796	255	209	232
4797	254	206	230
4798	255	206	233
4799	255	208	233
4800	255	207	229
4801	252	204	226
4802	249	200	225
4803	0	0	0
4804	255	211	233
4805	254	209	230
4806	251	206	227
4807	0	0	0
4808	0	0	0
4809	0	0	0
4810	0	0	0
4811	0	0	0
4812	0	0	0
4813	0	0	0
4814	0	0	0
4815	0	0	0
4816	0	0	0
4817	0	0	0
4818	0	0	0
4819	0	0	0
4820	0	0	0
4821	0	0	0
4822	0	0	0
4823	0	0	0
4824	0	0	0
4825	252	212	244
4826	248	200	239
4827	251	200	242
4828	249	196	240
4829	243	191	236
4830	0	0	0
4831	0	0	0
4832	0	0	0
4833	0	0	0
4834	0	0	0
4835	0	0	0
4836	0	0	0
4837	0	0	0
4838	0	0	0
4839	0	0	0
4840	255	224	238
4841	251	213	232
4842	250	208	231
4843	255	214	235
4844	255	216	236
4845	254	210	232
4846	255	212	234
4847	251	205	231
4848	252	206	234
4849	255	210	238
4850	255	209	238
4851	255	204	236
4852	254	202	237
4853	255	203	239
4854	255	204	240
4855	255	206	241
4856	252	199	234
4857	253	199	234
4858	0	0	0
4859	0	0	0
4860	0	0	0
4861	255	215	246
4862	255	208	235
4863	253	203	230
4864	255	206	233
4865	251	201	229
4866	254	206	231
4867	255	215	237
4868	255	210	232
4869	249	200	225
4870	253	205	231
4871	255	210	236
4872	255	210	236
4873	255	213	238
4874	253	205	232
4875	252	204	230
4876	255	209	234
4877	255	210	234
4878	255	209	231
4879	253	207	229
4880	255	213	236
4881	255	215	236
4882	253	208	228
4883	0	0	0
4884	0	0	0
4885	0	0	0
4886	0	0	0
4887	255	214	234
4888	0	0	0
4889	0	0	0
4890	0	0	0
4891	0	0	0
4892	0	0	0
4893	0	0	0
4894	0	0	0
4895	0	0	0
4896	0	0	0
4897	0	0	0
4898	0	0	0
4899	0	0	0
4900	0	0	0
4901	0	0	0
4902	0	0	0
4903	0	0	0
4904	0	0	0
4905	0	0	0
4906	0	0	0
4907	0	0	0
4908	0	0	0
4909	0	0	0
4910	0	0	0
4911	0	0	0
4912	0	0	0
4913	0	0	0
4914	0	0	0
4915	0	0	0
4916	0	0	0
4917	0	0	0
4918	0	0	0
4919	0	0	0
4920	0	0	0
4921	255	226	239
4922	255	221	239
4923	255	216	238
4924	253	211	236
4925	255	214	238
4926	255	215	238
4927	255	214	237
4928	255	215	236
4929	254	212	236
4930	255	213	240
4931	255	213	241
4932	255	211	238
4933	255	208	236
4934	254	205	236
4935	255	207	238
4936	255	208	241
4937	252	201	235
4938	246	194	230
4939	0	0	0
4940	0	0	0
4941	0	0	0
4942	0	0	0
4943	0	0	0
4944	250	201	227
4945	251	203	228
4946	254	207	234
4947	255	211	236
4948	255	216	236
4949	255	212	233
4950	253	208	233
4951	255	211	235
4952	255	214	236
4953	255	214	235
4954	255	213	236
4955	253	208	233
4956	248	200	228
4957	251	205	232
4958	255	211	236
4959	255	212	236
4960	255	212	234
4961	255	216	236
4962	255	221	239
4963	255	214	233
4964	0	0	0
4965	0	0	0
4966	0	0	0
4967	0	0	0
4968	0	0	0
4969	0	0	0
4970	0	0	0
4971	0	0	0
4972	0	0	0
4973	0	0	0
4974	0	0	0
4975	0	0	0
4976	0	0	0
4977	0	0	0
4978	0	0	0
4979	0	0	0
4980	0	0	0
4981	0	0	0
4982	0	0	0
4983	0	0	0
4984	0	0	0
4985	0	0	0
4986	0	0	0
4987	0	0	0
4988	0	0	0
4989	0	0	0
4990	0	0	0
4991	0	0	0
4992	0	0	0
4993	0	0	0
4994	0	0	0
4995	0	0	0
4996	0	0	0
4997	0	0	0
4998	0	0	0
4999	0	0	0
5000	0	0	0
5001	0	0	0
5002	0	0	0
5003	0	0	0
5004	255	217	238
5005	254	212	237
5006	251	208	235
5007	254	210	237
5008	255	212	238
5009	255	212	237
5010	252	208	233
5011	250	206	231
5012	255	217	242
5013	255	215	242
5014	254	208	235
5015	252	205	233
5016	255	208	237
5017	255	209	239
5018	255	208	239
5019	0	0	0
5020	0	0	0
5021	0	0	0
5022	0	0	0
5023	0	0	0
5024	0	0	0
5025	0	0	0
5026	0	0	0
5027	0	0	0
5028	0	0	0
5029	0	0	0
5030	255	217	235
5031	255	212	233
5032	252	208	233
5033	254	212	236
5034	255	217	236
5035	255	216	234
5036	255	215	236
5037	252	210	234
5038	252	210	234
5039	255	215	238
5040	255	215	239
5041	255	216	239
5042	253	211	235
5043	0	0	0
5044	255	221	237
5045	0	0	0
5046	0	0	0
5047	0	0	0
5048	0	0	0
5049	0	0	0
5050	0	0	0
5051	0	0	0
5052	0	0	0
5053	0	0	0
5054	0	0	0
5055	0	0	0
5056	0	0	0
5057	0	0	0
5058	0	0	0
5059	0	0	0
5060	0	0	0
5061	0	0	0
5062	0	0	0
5063	0	0	0
5064	0	0	0
5065	0	0	0
5066	0	0	0
5067	0	0	0
5068	0	0	0
5069	0	0	0
5070	0	0	0
5071	0	0	0
5072	0	0	0
5073	0	0	0
5074	0	0	0
5075	0	0	0
5076	0	0	0
5077	0	0	0
5078	0	0	0
5079	0	0	0
5080	0	0	0
5081	0	0	0
5082	0	0	0
5083	0	0	0
5084	0	0	0
5085	0	0	0
5086	251	210	234
5087	250	207	234
5088	247	202	231
5089	251	206	234
5090	252	208	235
5091	250	206	233
5092	248	203	231
5093	253	211	236
5094	255	220	242
5095	255	213	237
5096	250	205	232
5097	253	209	236
5098	255	213	241
5099	255	211	241
5100	0	0	0
5101	0	0	0
5102	0	0	0
5103	0	0	0
5104	0	0	0
5105	0	0	0
5106	0	0	0
5107	0	0	0
5108	0	0	0
5109	0	0	0
5110	0	0	0
5111	0	0	0
5112	0	0	0
5113	252	212	232
5114	0	0	0
5115	253	214	236
5116	255	220	236
5117	254	217	233
5118	254	217	236
5119	255	217	237
5120	255	217	237
5121	255	217	238
5122	255	217	238
5123	252	213	236
5124	0	0	0
5125	0	0	0
5126	0	0	0
5127	0	0	0
5128	0	0	0
5129	0	0	0
5130	0	0	0
5131	0	0	0
5132	0	0	0
5133	0	0	0
5134	0	0	0
5135	0	0	0
5136	0	0	0
5137	0	0	0
5138	0	0	0
5139	0	0	0
5140	0	0	0
5141	0	0	0
5142	0	0	0
5143	0	0	0
5144	0	0	0
5145	0	0	0
5146	0	0	0
5147	0	0	0
5148	0	0	0
5149	0	0	0
5150	0	0	0
5151	0	0	0
5152	0	0	0
5153	0	0	0
5154	0	0	0
5155	0	0	0
5156	0	0	0
5157	0	0	0
5158	0	0	0
5159	0	0	0
5160	0	0	0
5161	0	0	0
5162	0	0	0
5163	0	0	0
5164	0	0	0
5165	0	0	0
5166	0	0	0
5167	0	0	0
5168	255	218	240
5169	254	215	239
5170	252	209	235
5171	255	212	239
5172	253	209	237
5173	251	207	235
5174	255	214	239
5175	255	222	244
5176	255	214	238
5177	250	207	232
5178	253	211	236
5179	255	214	240
5180	255	214	241
5181	253	212	241
5182	0	0	0
5183	0	0	0
5184	0	0	0
5185	0	0	0
5186	0	0	0
5187	0	0	0
5188	0	0	0
5189	0	0	0
5190	0	0	0
5191	0	0	0
5192	0	0	0
5193	0	0	0
5194	0	0	0
5195	0	0	0
5196	0	0	0
5197	0	0	0
5198	255	225	239
5199	255	222	237
5200	252	218	236
5201	0	0	0
5202	255	223	241
5203	255	224	241
5204	253	217	237
5205	0	0	0
5206	0	0	0
5207	0	0	0
5208	0	0	0
5209	0	0	0
5210	0	0	0
5211	0	0	0
5212	0	0	0
5213	0	0	0
5214	0	0	0
5215	0	0	0
5216	0	0	0
5217	0	0	0
5218	0	0	0
5219	0	0	0
5220	0	0	0
5221	0	0	0
5222	0	0	0
5223	0	0	0
5224	0	0	0
5225	0	0	0
5226	0	0	0
5227	0	0	0
5228	0	0	0
5229	0	0	0
5230	0	0	0
5231	0	0	0
5232	0	0	0
5233	0	0	0
5234	0	0	0
5235	0	0	0
5236	0	0	0
5237	0	0	0
5238	0	0	0
5239	0	0	0
5240	0	0	0
5241	0	0	0
5242	0	0	0
5243	0	0	0
5244	0	0	0
5245	0	0	0
5246	0	0	0
5247	0	0	0
5248	0	0	0
5249	255	221	243
5250	255	225	245
5251	255	220	241
5252	254	214	238
5253	254	213	239
5254	252	209	238
5255	255	216	242
5256	255	223	245
5257	254	215	238
5258	249	208	233
5259	252	212	237
5260	255	217	241
5261	255	216	241
5262	253	215	239
5263	253	215	239
5264	253	215	240
5265	0	0	0
5266	0	0	0
5267	0	0	0
5268	0	0	0
5269	0	0	0
5270	0	0	0
5271	0	0	0
5272	0	0	0
5273	0	0	0
5274	0	0	0
5275	0	0	0
5276	0	0	0
5277	0	0	0
5278	0	0	0
5279	0	0	0
5280	0	0	0
5281	254	224	239
5282	0	0	0
5283	0	0	0
5284	0	0	0
5285	255	224	241
5286	0	0	0
5287	0	0	0
5288	0	0	0
5289	0	0	0
5290	0	0	0
5291	0	0	0
5292	0	0	0
5293	0	0	0
5294	0	0	0
5295	0	0	0
5296	0	0	0
5297	0	0	0
5298	0	0	0
5299	0	0	0
5300	0	0	0
5301	0	0	0
5302	0	0	0
5303	0	0	0
5304	0	0	0
5305	0	0	0
5306	0	0	0
5307	0	0	0
5308	0	0	0
5309	0	0	0
5310	0	0	0
5311	0	0	0
5312	0	0	0
5313	0	0	0
5314	0	0	0
5315	0	0	0
5316	0	0	0
5317	0	0	0
5318	0	0	0
5319	0	0	0
5320	0	0	0
5321	0	0	0
5322	0	0	0
5323	0	0	0
5324	0	0	0
5325	0	0	0
5326	0	0	0
5327	0	0	0
5328	0	0	0
5329	0	0	0
5330	0	0	0
5331	0	0	0
5332	254	217	239
5333	250	210	235
5334	254	214	239
5335	253	213	239
5336	252	212	240
5337	255	219	244
5338	255	222	243
5339	250	213	236
5340	252	215	238
5341	255	220	243
5342	255	218	242
5343	254	217	241
5344	254	219	241
5345	254	219	241
5346	254	219	242
5347	255	223	245
5348	0	0	0
5349	0	0	0
5350	0	0	0
5351	0	0	0
5352	0	0	0
5353	0	0	0
5354	0	0	0
5355	0	0	0
5356	0	0	0
5357	0	0	0
5358	0	0	0
5359	0	0	0
5360	0	0	0
5361	0	0	0
5362	0	0	0
5363	0	0	0
5364	0	0	0
5365	0	0	0
5366	0	0	0
5367	0	0	0
5368	0	0	0
5369	0	0	0
5370	0	0	0
5371	0	0	0
5372	0	0	0
5373	0	0	0
5374	0	0	0
5375	0	0	0
5376	0	0	0
5377	0	0	0
5378	0	0	0
5379	0	0	0
5380	0	0	0
5381	0	0	0
5382	0	0	0
5383	0	0	0
5384	0	0	0
5385	0	0	0
5386	0	0	0
5387	0	0	0
5388	0	0	0
5389	0	0	0
5390	0	0	0
5391	0	0	0
5392	0	0	0
5393	0	0	0
5394	0	0	0
5395	0	0	0
5396	0	0	0
5397	0	0	0
5398	0	0	0
5399	0	0	0
5400	0	0	0
5401	0	0	0
5402	0	0	0
5403	0	0	0
5404	0	0	0
5405	0	0	0
5406	0	0	0
5407	0	0	0
5408	0	0	0
5409	0	0	0
5410	0	0	0
5411	0	0	0
5412	0	0	0
5413	0	0	0
5414	0	0	0
5415	0	0	0
5416	254	216	241
5417	252	214	240
5418	0	0	0
5419	0	0	0
5420	253	219	241
5421	254	220	241
5422	255	222	242
5423	252	219	240
5424	250	217	238
5425	252	219	240
5426	253	221	242
5427	252	220	242
5428	251	219	242
5429	0	0	0
5430	0	0	0
5431	0	0	0
5432	0	0	0
5433	0	0	0
5434	0	0	0
5435	0	0	0
5436	0	0	0
5437	0	0	0
5438	0	0	0
5439	0	0	0
5440	0	0	0
5441	0	0	0
5442	0	0	0
5443	0	0	0
5444	0	0	0
5445	0	0	0
5446	0	0	0
5447	0	0	0
5448	0	0	0
5449	0	0	0
5450	0	0	0
5451	0	0	0
5452	0	0	0
5453	0	0	0
5454	0	0	0
5455	0	0	0
5456	0	0	0
5457	0	0	0
5458	0	0	0
5459	0	0	0
5460	0	0	0
5461	0	0	0
5462	0	0	0
5463	0	0	0
5464	0	0	0
5465	0	0	0
5466	0	0	0
5467	0	0	0
5468	0	0	0
5469	0	0	0
5470	0	0	0
5471	0	0	0
5472	0	0	0
5473	0	0	0
5474	0	0	0
5475	0	0	0
5476	0	0	0
5477	0	0	0
5478	0	0	0
5479	0	0	0
5480	0	0	0
5481	0	0	0
5482	0	0	0
5483	0	0	0
5484	0	0	0
5485	0	0	0
5486	0	0	0
5487	0	0	0
5488	0	0	0
5489	0	0	0
5490	0	0	0
5491	0	0	0
5492	0	0	0
5493	0	0	0
5494	0	0	0
