 	R	G	B
1	0	0	0
2	0	0	0
3	0	0	0
4	0	0	0
5	0	0	0
6	0	0	0
7	0	0	0
8	0	0	0
9	0	0	0
10	0	0	0
11	0	0	0
12	0	0	0
13	0	0	0
14	0	0	0
15	0	0	0
16	0	0	0
17	0	0	0
18	0	0	0
19	0	0	0
20	0	0	0
21	0	0	0
22	0	0	0
23	0	0	0
24	0	0	0
25	0	0	0
26	0	0	0
27	0	0	0
28	0	0	0
29	0	0	0
30	0	0	0
31	0	0	0
32	0	0	0
33	0	0	0
34	0	0	0
35	0	0	0
36	0	0	0
37	0	0	0
38	0	0	0
39	0	0	0
40	0	0	0
41	0	0	0
42	0	0	0
43	0	0	0
44	0	0	0
45	0	0	0
46	0	0	0
47	0	0	0
48	0	0	0
49	0	0	0
50	0	0	0
51	0	0	0
52	0	0	0
53	0	0	0
54	0	0	0
55	0	0	0
56	0	0	0
57	0	0	0
58	0	0	0
59	0	0	0
60	0	0	0
61	0	0	0
62	0	0	0
63	0	0	0
64	0	0	0
65	0	0	0
66	0	0	0
67	0	0	0
68	0	0	0
69	0	0	0
70	0	0	0
71	0	0	0
72	0	0	0
73	255	214	232
74	255	206	228
75	0	0	0
76	0	0	0
77	0	0	0
78	238	180	220
79	0	0	0
80	0	0	0
81	219	161	217
82	215	155	216
83	214	154	219
84	212	154	221
85	211	157	224
86	216	165	233
87	218	166	234
88	216	166	231
89	208	163	227
90	207	165	231
91	208	170	234
92	0	0	0
93	0	0	0
94	0	0	0
95	0	0	0
96	0	0	0
97	0	0	0
98	0	0	0
99	0	0	0
100	0	0	0
101	0	0	0
102	0	0	0
103	0	0	0
104	0	0	0
105	0	0	0
106	0	0	0
107	0	0	0
108	0	0	0
109	0	0	0
110	0	0	0
111	0	0	0
112	0	0	0
113	0	0	0
114	0	0	0
115	0	0	0
116	0	0	0
117	0	0	0
118	0	0	0
119	0	0	0
120	0	0	0
121	0	0	0
122	0	0	0
123	0	0	0
124	0	0	0
125	0	0	0
126	0	0	0
127	0	0	0
128	0	0	0
129	0	0	0
130	0	0	0
131	0	0	0
132	0	0	0
133	0	0	0
134	0	0	0
135	0	0	0
136	0	0	0
137	0	0	0
138	0	0	0
139	0	0	0
140	0	0	0
141	0	0	0
142	0	0	0
143	0	0	0
144	0	0	0
145	0	0	0
146	0	0	0
147	0	0	0
148	0	0	0
149	0	0	0
150	0	0	0
151	0	0	0
152	0	0	0
153	0	0	0
154	0	0	0
155	0	0	0
156	0	0	0
157	0	0	0
158	0	0	0
159	0	0	0
160	0	0	0
161	0	0	0
162	0	0	0
163	0	0	0
164	248	194	225
165	247	189	227
166	234	173	218
167	221	159	211
168	223	166	218
169	221	163	219
170	224	170	225
171	218	163	223
172	214	162	225
173	203	151	221
174	214	168	235
175	215	168	238
176	212	165	237
177	210	167	238
178	220	182	249
179	220	181	247
180	219	183	244
181	210	178	239
182	209	184	243
183	207	187	243
184	210	196	245
185	0	0	0
186	0	0	0
187	0	0	0
188	0	0	0
189	0	0	0
190	0	0	0
191	0	0	0
192	0	0	0
193	0	0	0
194	0	0	0
195	0	0	0
196	0	0	0
197	0	0	0
198	0	0	0
199	0	0	0
200	0	0	0
201	0	0	0
202	0	0	0
203	0	0	0
204	0	0	0
205	0	0	0
206	0	0	0
207	0	0	0
208	0	0	0
209	0	0	0
210	0	0	0
211	0	0	0
212	0	0	0
213	0	0	0
214	0	0	0
215	0	0	0
216	0	0	0
217	0	0	0
218	0	0	0
219	0	0	0
220	0	0	0
221	0	0	0
222	0	0	0
223	0	0	0
224	0	0	0
225	0	0	0
226	0	0	0
227	0	0	0
228	0	0	0
229	0	0	0
230	0	0	0
231	0	0	0
232	0	0	0
233	0	0	0
234	0	0	0
235	0	0	0
236	0	0	0
237	0	0	0
238	0	0	0
239	0	0	0
240	0	0	0
241	0	0	0
242	0	0	0
243	0	0	0
244	0	0	0
245	255	239	235
246	255	229	231
247	255	225	231
248	255	224	232
249	255	213	229
250	255	200	226
251	251	188	221
252	240	172	212
253	239	172	215
254	237	172	216
255	230	167	215
256	230	167	221
257	218	150	214
258	204	134	208
259	202	137	212
260	203	143	217
261	202	146	218
262	205	151	225
263	198	146	222
264	193	143	222
265	197	154	229
266	206	169	240
267	202	164	236
268	197	160	233
269	197	168	235
270	206	181	242
271	210	184	241
272	210	186	238
273	209	190	239
274	211	197	244
275	216	208	250
276	0	0	0
277	0	0	0
278	0	0	0
279	0	0	0
280	0	0	0
281	0	0	0
282	0	0	0
283	0	0	0
284	0	0	0
285	0	0	0
286	0	0	0
287	0	0	0
288	0	0	0
289	0	0	0
290	0	0	0
291	0	0	0
292	0	0	0
293	0	0	0
294	0	0	0
295	0	0	0
296	0	0	0
297	0	0	0
298	0	0	0
299	0	0	0
300	0	0	0
301	0	0	0
302	0	0	0
303	0	0	0
304	0	0	0
305	0	0	0
306	0	0	0
307	0	0	0
308	0	0	0
309	0	0	0
310	0	0	0
311	0	0	0
312	0	0	0
313	0	0	0
314	0	0	0
315	0	0	0
316	0	0	0
317	0	0	0
318	0	0	0
319	0	0	0
320	0	0	0
321	0	0	0
322	0	0	0
323	0	0	0
324	0	0	0
325	0	0	0
326	0	0	0
327	0	0	0
328	0	0	0
329	0	0	0
330	0	0	0
331	0	0	0
332	0	0	0
333	0	0	0
334	0	0	0
335	0	0	0
336	255	210	222
337	255	206	225
338	250	188	216
339	244	184	215
340	251	194	225
341	244	179	220
342	239	171	220
343	229	156	214
344	225	153	214
345	222	153	216
346	222	157	220
347	216	151	219
348	216	155	225
349	199	135	215
350	202	143	226
351	204	149	232
352	210	161	239
353	208	161	238
354	207	165	241
355	198	157	235
356	200	165	241
357	208	177	248
358	207	180	247
359	197	171	238
360	198	181	242
361	0	0	0
362	0	0	0
363	0	0	0
364	0	0	0
365	0	0	0
366	0	0	0
367	0	0	0
368	0	0	0
369	0	0	0
370	0	0	0
371	0	0	0
372	0	0	0
373	0	0	0
374	0	0	0
375	0	0	0
376	0	0	0
377	0	0	0
378	0	0	0
379	0	0	0
380	0	0	0
381	0	0	0
382	0	0	0
383	0	0	0
384	0	0	0
385	0	0	0
386	0	0	0
387	0	0	0
388	0	0	0
389	0	0	0
390	0	0	0
391	0	0	0
392	0	0	0
393	0	0	0
394	0	0	0
395	0	0	0
396	0	0	0
397	0	0	0
398	0	0	0
399	0	0	0
400	0	0	0
401	0	0	0
402	0	0	0
403	0	0	0
404	0	0	0
405	0	0	0
406	0	0	0
407	0	0	0
408	0	0	0
409	0	0	0
410	0	0	0
411	255	246	234
412	255	246	233
413	255	246	234
414	255	248	235
415	255	243	232
416	255	234	225
417	255	239	228
418	255	245	234
419	255	238	231
420	255	228	223
421	255	228	224
422	255	228	226
423	255	216	221
424	255	203	215
425	255	200	216
426	255	196	217
427	252	187	215
428	249	179	217
429	240	163	211
430	226	145	202
431	228	151	209
432	232	159	217
433	221	145	210
434	213	134	209
435	208	131	211
436	203	127	212
437	200	129	215
438	198	131	217
439	196	132	218
440	195	134	220
441	190	135	222
442	192	141	230
443	198	153	238
444	203	163	243
445	200	163	240
446	197	164	240
447	194	166	239
448	196	173	243
449	197	176	242
450	196	179	240
451	200	189	243
452	0	0	0
453	0	0	0
454	0	0	0
455	0	0	0
456	0	0	0
457	0	0	0
458	0	0	0
459	0	0	0
460	0	0	0
461	0	0	0
462	0	0	0
463	0	0	0
464	0	0	0
465	0	0	0
466	0	0	0
467	0	0	0
468	0	0	0
469	0	0	0
470	0	0	0
471	0	0	0
472	0	0	0
473	0	0	0
474	0	0	0
475	0	0	0
476	0	0	0
477	0	0	0
478	0	0	0
479	0	0	0
480	0	0	0
481	0	0	0
482	0	0	0
483	0	0	0
484	0	0	0
485	0	0	0
486	0	0	0
487	0	0	0
488	0	0	0
489	0	0	0
490	0	0	0
491	0	0	0
492	0	0	0
493	0	0	0
494	0	0	0
495	0	0	0
496	0	0	0
497	0	0	0
498	0	0	0
499	0	0	0
500	0	0	0
501	0	0	0
502	255	228	222
503	255	231	225
504	254	213	215
505	255	215	219
506	255	215	219
507	255	209	216
508	252	200	210
509	255	206	215
510	255	204	215
511	255	196	210
512	255	194	209
513	255	196	213
514	255	187	211
515	246	174	206
516	245	172	209
517	242	168	211
518	238	164	213
519	230	153	209
520	232	156	216
521	219	138	208
522	216	137	210
523	219	144	217
524	225	154	225
525	212	138	217
526	209	137	221
527	202	132	222
528	201	136	227
529	196	135	228
530	195	139	232
531	195	140	232
532	198	149	237
533	193	149	236
534	196	158	242
535	199	166	247
536	200	172	247
537	195	170	243
538	196	178	245
539	193	180	242
540	199	193	248
541	0	0	0
542	0	0	0
543	0	0	0
544	0	0	0
545	0	0	0
546	0	0	0
547	0	0	0
548	0	0	0
549	0	0	0
550	0	0	0
551	0	0	0
552	0	0	0
553	0	0	0
554	0	0	0
555	0	0	0
556	0	0	0
557	0	0	0
558	0	0	0
559	0	0	0
560	0	0	0
561	0	0	0
562	0	0	0
563	0	0	0
564	0	0	0
565	0	0	0
566	0	0	0
567	0	0	0
568	0	0	0
569	0	0	0
570	0	0	0
571	0	0	0
572	0	0	0
573	0	0	0
574	0	0	0
575	0	0	0
576	0	0	0
577	0	0	0
578	0	0	0
579	0	0	0
580	0	0	0
581	0	0	0
582	0	0	0
583	0	0	0
584	0	0	0
585	0	0	0
586	0	0	0
587	0	0	0
588	255	238	228
589	255	242	231
590	255	243	231
591	255	244	233
592	255	246	238
593	255	235	232
594	255	220	219
595	254	202	209
596	246	186	205
597	248	186	209
598	249	185	209
599	245	177	206
600	241	168	203
601	241	167	203
602	240	163	200
603	239	160	199
604	240	158	201
605	235	149	198
606	230	141	197
607	227	138	200
608	225	136	204
609	219	131	205
610	214	126	207
611	215	128	211
612	214	130	215
613	206	125	211
614	202	122	210
615	207	130	216
616	211	138	222
617	202	131	219
618	197	127	220
619	192	128	223
620	189	130	225
621	184	131	227
622	184	135	231
623	191	145	239
624	194	153	242
625	190	157	241
626	191	163	243
627	189	166	241
628	189	171	240
629	190	177	240
630	193	185	242
631	201	199	247
632	0	0	0
633	0	0	0
634	0	0	0
635	0	0	0
636	0	0	0
637	0	0	0
638	0	0	0
639	0	0	0
640	0	0	0
641	0	0	0
642	0	0	0
643	0	0	0
644	0	0	0
645	0	0	0
646	0	0	0
647	0	0	0
648	0	0	0
649	0	0	0
650	0	0	0
651	0	0	0
652	0	0	0
653	0	0	0
654	0	0	0
655	0	0	0
656	0	0	0
657	0	0	0
658	0	0	0
659	0	0	0
660	0	0	0
661	0	0	0
662	0	0	0
663	0	0	0
664	0	0	0
665	0	0	0
666	0	0	0
667	0	0	0
668	0	0	0
669	0	0	0
670	0	0	0
671	0	0	0
672	0	0	0
673	0	0	0
674	0	0	0
675	0	0	0
676	0	0	0
677	0	0	0
678	0	0	0
679	255	237	228
680	255	219	219
681	255	223	223
682	255	216	217
683	255	218	220
684	255	205	217
685	253	194	212
686	249	184	204
687	240	168	196
688	253	182	213
689	255	182	217
690	252	176	214
691	248	168	211
692	247	165	213
693	246	163	214
694	245	161	212
695	241	156	211
696	240	154	212
697	233	144	209
698	234	145	215
699	233	143	219
700	226	137	219
701	216	130	218
702	212	126	219
703	216	130	226
704	213	129	225
705	203	122	219
706	207	131	224
707	211	138	229
708	211	143	231
709	200	132	225
710	197	136	229
711	192	135	230
712	199	152	240
713	194	152	240
714	190	151	242
715	195	160	248
716	194	166	247
717	0	0	0
718	196	185	249
719	0	0	0
720	0	0	0
721	0	0	0
722	0	0	0
723	0	0	0
724	0	0	0
725	0	0	0
726	0	0	0
727	0	0	0
728	0	0	0
729	0	0	0
730	0	0	0
731	0	0	0
732	0	0	0
733	0	0	0
734	0	0	0
735	0	0	0
736	0	0	0
737	0	0	0
738	0	0	0
739	0	0	0
740	0	0	0
741	0	0	0
742	0	0	0
743	0	0	0
744	0	0	0
745	0	0	0
746	0	0	0
747	0	0	0
748	0	0	0
749	0	0	0
750	0	0	0
751	0	0	0
752	0	0	0
753	0	0	0
754	0	0	0
755	0	0	0
756	0	0	0
757	0	0	0
758	0	0	0
759	0	0	0
760	0	0	0
761	0	0	0
762	0	0	0
763	0	0	0
764	0	0	0
765	255	239	223
766	255	242	230
767	255	244	235
768	255	242	233
769	255	243	235
770	255	243	237
771	255	227	229
772	255	209	220
773	255	201	215
774	253	193	208
775	245	177	200
776	240	165	199
777	239	159	200
778	236	150	197
779	247	162	208
780	255	174	219
781	251	165	213
782	248	159	210
783	244	153	209
784	243	150	211
785	242	148	213
786	240	146	215
787	234	140	213
788	230	136	212
789	227	134	213
790	226	134	217
791	222	129	217
792	214	122	215
793	205	116	214
794	200	112	214
795	204	117	220
796	200	115	219
797	198	121	221
798	199	128	225
799	200	131	226
800	200	134	229
801	195	134	228
802	192	136	231
803	196	150	239
804	201	164	245
805	189	157	237
806	184	155	237
807	188	164	241
808	0	0	0
809	0	0	0
810	0	0	0
811	0	0	0
812	0	0	0
813	0	0	0
814	0	0	0
815	0	0	0
816	0	0	0
817	0	0	0
818	0	0	0
819	0	0	0
820	0	0	0
821	0	0	0
822	0	0	0
823	0	0	0
824	0	0	0
825	0	0	0
826	0	0	0
827	0	0	0
828	0	0	0
829	0	0	0
830	0	0	0
831	0	0	0
832	0	0	0
833	0	0	0
834	0	0	0
835	0	0	0
836	0	0	0
837	0	0	0
838	0	0	0
839	0	0	0
840	0	0	0
841	0	0	0
842	0	0	0
843	0	0	0
844	0	0	0
845	0	0	0
846	0	0	0
847	0	0	0
848	0	0	0
849	0	0	0
850	0	0	0
851	0	0	0
852	0	0	0
853	0	0	0
854	0	0	0
855	0	0	0
856	255	234	222
857	255	240	228
858	255	218	218
859	255	220	224
860	255	210	219
861	255	211	223
862	254	191	213
863	246	174	205
864	249	176	209
865	244	168	204
866	253	180	211
867	244	163	203
868	247	162	210
869	248	157	213
870	249	154	215
871	255	165	225
872	254	159	220
873	246	148	211
874	254	159	219
875	251	153	217
876	252	154	221
877	251	152	222
878	252	155	227
879	244	147	224
880	243	149	228
881	239	147	228
882	232	140	227
883	226	134	226
884	221	131	226
885	214	127	225
886	209	124	225
887	207	125	228
888	197	118	223
889	194	123	225
890	196	133	230
891	195	134	229
892	203	149	239
893	199	149	238
894	199	156	242
895	203	168	248
896	198	171	244
897	0	0	0
898	0	0	0
899	0	0	0
900	0	0	0
901	0	0	0
902	0	0	0
903	0	0	0
904	0	0	0
905	0	0	0
906	0	0	0
907	0	0	0
908	0	0	0
909	0	0	0
910	0	0	0
911	0	0	0
912	0	0	0
913	0	0	0
914	0	0	0
915	0	0	0
916	0	0	0
917	0	0	0
918	0	0	0
919	0	0	0
920	0	0	0
921	0	0	0
922	0	0	0
923	0	0	0
924	0	0	0
925	0	0	0
926	0	0	0
927	0	0	0
928	0	0	0
929	0	0	0
930	0	0	0
931	0	0	0
932	0	0	0
933	0	0	0
934	0	0	0
935	0	0	0
936	0	0	0
937	0	0	0
938	0	0	0
939	0	0	0
940	0	0	0
941	0	0	0
942	0	0	0
943	255	241	232
944	255	242	232
945	255	242	234
946	255	238	233
947	255	241	235
948	255	244	236
949	255	222	223
950	255	199	210
951	253	189	208
952	250	180	209
953	239	160	201
954	229	140	193
955	233	142	199
956	236	144	202
957	243	152	209
958	253	165	217
959	250	159	216
960	253	158	223
961	255	159	229
962	255	154	228
963	254	149	225
964	249	143	219
965	250	146	219
966	255	155	225
967	253	150	221
968	252	150	223
969	252	150	224
970	252	152	225
971	249	151	226
972	249	154	231
973	240	145	228
974	233	139	228
975	228	136	230
976	222	133	228
977	215	130	227
978	209	125	225
979	202	122	224
980	191	115	221
981	191	125	228
982	192	135	233
983	196	146	238
984	201	159	244
985	197	161	241
986	196	165	243
987	193	168	241
988	0	0	0
989	0	0	0
990	0	0	0
991	0	0	0
992	0	0	0
993	0	0	0
994	0	0	0
995	0	0	0
996	0	0	0
997	0	0	0
998	0	0	0
999	0	0	0
1000	0	0	0
1001	0	0	0
1002	0	0	0
1003	0	0	0
1004	0	0	0
1005	0	0	0
1006	0	0	0
1007	0	0	0
1008	0	0	0
1009	0	0	0
1010	0	0	0
1011	0	0	0
1012	0	0	0
1013	0	0	0
1014	0	0	0
1015	0	0	0
1016	0	0	0
1017	0	0	0
1018	0	0	0
1019	0	0	0
1020	0	0	0
1021	0	0	0
1022	0	0	0
1023	0	0	0
1024	0	0	0
1025	0	0	0
1026	0	0	0
1027	0	0	0
1028	0	0	0
1029	0	0	0
1030	0	0	0
1031	0	0	0
1032	0	0	0
1033	0	0	0
1034	255	229	226
1035	255	234	231
1036	255	219	223
1037	255	220	226
1038	255	199	216
1039	255	203	222
1040	255	197	218
1041	250	174	205
1042	247	167	202
1043	236	154	198
1044	241	159	209
1045	232	139	202
1046	238	144	210
1047	244	146	216
1048	249	151	220
1049	255	161	228
1050	255	159	227
1051	255	154	226
1052	255	149	229
1053	255	147	232
1054	249	133	223
1055	244	127	219
1056	252	141	226
1057	252	143	225
1058	255	157	232
1059	255	151	226
1060	251	148	224
1061	247	146	222
1062	254	157	229
1063	255	159	232
1064	253	154	231
1065	244	145	228
1066	242	147	235
1067	235	143	235
1068	223	133	229
1069	214	128	227
1070	214	135	232
1071	207	131	231
1072	202	132	232
1073	202	142	239
1074	200	150	243
1075	199	158	244
1076	199	169	245
1077	190	166	238
1078	195	182	244
1079	0	0	0
1080	0	0	0
1081	0	0	0
1082	0	0	0
1083	0	0	0
1084	0	0	0
1085	0	0	0
1086	0	0	0
1087	0	0	0
1088	0	0	0
1089	0	0	0
1090	0	0	0
1091	0	0	0
1092	0	0	0
1093	0	0	0
1094	0	0	0
1095	0	0	0
1096	0	0	0
1097	0	0	0
1098	0	0	0
1099	0	0	0
1100	0	0	0
1101	0	0	0
1102	0	0	0
1103	0	0	0
1104	0	0	0
1105	0	0	0
1106	0	0	0
1107	0	0	0
1108	0	0	0
1109	0	0	0
1110	0	0	0
1111	0	0	0
1112	0	0	0
1113	0	0	0
1114	0	0	0
1115	0	0	0
1116	0	0	0
1117	0	0	0
1118	0	0	0
1119	0	0	0
1120	255	248	238
1121	255	246	238
1122	255	241	235
1123	255	237	234
1124	255	230	230
1125	255	228	230
1126	255	227	231
1127	255	213	223
1128	255	198	214
1129	248	178	206
1130	238	159	201
1131	238	153	205
1132	237	147	205
1133	233	139	202
1134	230	132	200
1135	227	131	202
1136	232	135	210
1137	235	137	215
1138	240	139	218
1139	246	144	222
1140	251	148	225
1141	250	143	223
1142	250	141	223
1143	245	133	220
1144	241	127	219
1145	237	119	217
1146	228	104	208
1147	239	121	219
1148	248	135	227
1149	251	142	228
1150	255	155	234
1151	253	148	226
1152	248	143	222
1153	250	151	227
1154	255	162	235
1155	253	154	230
1156	248	148	226
1157	245	147	228
1158	243	149	234
1159	230	138	230
1160	217	127	225
1161	214	133	230
1162	212	138	235
1163	209	140	236
1164	201	139	234
1165	196	146	236
1166	193	153	239
1167	191	162	240
1168	0	0	0
1169	0	0	0
1170	0	0	0
1171	0	0	0
1172	0	0	0
1173	0	0	0
1174	0	0	0
1175	0	0	0
1176	0	0	0
1177	0	0	0
1178	0	0	0
1179	0	0	0
1180	0	0	0
1181	0	0	0
1182	0	0	0
1183	0	0	0
1184	0	0	0
1185	0	0	0
1186	0	0	0
1187	0	0	0
1188	0	0	0
1189	0	0	0
1190	0	0	0
1191	0	0	0
1192	0	0	0
1193	0	0	0
1194	0	0	0
1195	0	0	0
1196	0	0	0
1197	0	0	0
1198	0	0	0
1199	0	0	0
1200	0	0	0
1201	0	0	0
1202	0	0	0
1203	0	0	0
1204	0	0	0
1205	0	0	0
1206	0	0	0
1207	0	0	0
1208	0	0	0
1209	0	0	0
1210	0	0	0
1211	255	236	237
1212	255	220	227
1213	255	218	228
1214	255	208	224
1215	255	205	224
1216	255	195	219
1217	254	192	219
1218	252	187	216
1219	242	170	207
1220	242	166	207
1221	230	147	199
1222	233	146	208
1223	231	140	211
1224	230	137	213
1225	225	128	210
1226	236	139	220
1227	241	141	224
1228	239	136	224
1229	239	135	224
1230	239	133	221
1231	246	137	224
1232	253	145	229
1233	249	139	225
1234	248	141	228
1235	237	130	222
1236	228	119	218
1237	221	110	215
1238	209	93	204
1239	224	111	216
1240	243	138	231
1241	251	146	233
1242	255	160	239
1243	255	153	230
1244	250	147	225
1245	254	155	231
1246	255	161	234
1247	246	150	226
1248	246	152	228
1249	245	152	230
1250	242	153	235
1251	228	142	230
1252	222	142	233
1253	218	147	237
1254	213	150	239
1255	207	150	238
1256	202	156	239
1257	193	160	237
1258	196	177	245
1259	0	0	0
1260	0	0	0
1261	0	0	0
1262	0	0	0
1263	0	0	0
1264	0	0	0
1265	0	0	0
1266	0	0	0
1267	0	0	0
1268	0	0	0
1269	0	0	0
1270	0	0	0
1271	0	0	0
1272	0	0	0
1273	0	0	0
1274	0	0	0
1275	0	0	0
1276	0	0	0
1277	0	0	0
1278	0	0	0
1279	0	0	0
1280	0	0	0
1281	0	0	0
1282	0	0	0
1283	0	0	0
1284	0	0	0
1285	0	0	0
1286	0	0	0
1287	0	0	0
1288	0	0	0
1289	0	0	0
1290	0	0	0
1291	0	0	0
1292	0	0	0
1293	0	0	0
1294	0	0	0
1295	0	0	0
1296	0	0	0
1297	255	239	236
1298	255	244	241
1299	255	243	242
1300	255	239	235
1301	255	230	229
1302	255	224	229
1303	255	211	226
1304	254	195	220
1305	248	184	216
1306	243	174	212
1307	240	165	210
1308	235	156	208
1309	230	149	206
1310	227	144	205
1311	223	136	203
1312	223	132	205
1313	220	127	206
1314	220	125	210
1315	222	123	213
1316	219	118	212
1317	225	126	219
1318	236	137	228
1319	237	132	225
1320	234	125	221
1321	230	121	217
1322	230	119	217
1323	240	127	222
1324	246	135	224
1325	244	132	222
1326	242	134	225
1327	225	118	216
1328	214	107	213
1329	203	94	207
1330	190	76	196
1331	213	107	215
1332	234	134	229
1333	246	145	231
1334	255	158	235
1335	251	150	227
1336	247	145	223
1337	251	152	228
1338	253	157	231
1339	249	157	230
1340	250	160	235
1341	248	159	237
1342	245	159	240
1343	237	158	240
1344	229	157	240
1345	219	158	239
1346	212	159	238
1347	211	168	243
1348	207	173	244
1349	0	0	0
1350	0	0	0
1351	0	0	0
1352	0	0	0
1353	0	0	0
1354	0	0	0
1355	0	0	0
1356	0	0	0
1357	0	0	0
1358	0	0	0
1359	0	0	0
1360	0	0	0
1361	0	0	0
1362	0	0	0
1363	0	0	0
1364	0	0	0
1365	0	0	0
1366	0	0	0
1367	0	0	0
1368	0	0	0
1369	0	0	0
1370	0	0	0
1371	0	0	0
1372	0	0	0
1373	0	0	0
1374	0	0	0
1375	0	0	0
1376	0	0	0
1377	0	0	0
1378	0	0	0
1379	0	0	0
1380	0	0	0
1381	0	0	0
1382	0	0	0
1383	0	0	0
1384	0	0	0
1385	0	0	0
1386	0	0	0
1387	0	0	0
1388	255	220	229
1389	255	228	238
1390	255	213	230
1391	255	213	231
1392	255	203	224
1393	253	194	220
1394	250	187	219
1395	242	172	214
1396	234	161	211
1397	223	147	205
1398	233	163	217
1399	229	153	215
1400	223	143	213
1401	219	136	212
1402	230	149	223
1403	230	143	223
1404	231	142	226
1405	225	134	224
1406	226	132	226
1407	231	132	229
1408	224	119	221
1409	229	125	226
1410	241	139	235
1411	239	132	230
1412	234	124	224
1413	228	119	220
1414	238	132	229
1415	246	139	233
1416	249	142	232
1417	249	140	231
1418	245	137	231
1419	229	121	223
1420	220	115	221
1421	206	101	214
1422	209	110	220
1423	231	139	238
1424	243	154	242
1425	255	164	244
1426	255	165	239
1427	253	158	231
1428	253	156	231
1429	255	163	236
1430	251	156	231
1431	249	156	231
1432	253	165	239
1433	253	164	241
1434	247	163	240
1435	236	159	238
1436	227	162	239
1437	213	159	234
1438	215	175	242
1439	215	183	245
1440	0	0	0
1441	0	0	0
1442	0	0	0
1443	0	0	0
1444	0	0	0
1445	0	0	0
1446	0	0	0
1447	0	0	0
1448	0	0	0
1449	0	0	0
1450	0	0	0
1451	0	0	0
1452	0	0	0
1453	0	0	0
1454	0	0	0
1455	0	0	0
1456	0	0	0
1457	0	0	0
1458	0	0	0
1459	0	0	0
1460	0	0	0
1461	0	0	0
1462	0	0	0
1463	0	0	0
1464	0	0	0
1465	0	0	0
1466	0	0	0
1467	0	0	0
1468	0	0	0
1469	0	0	0
1470	0	0	0
1471	0	0	0
1472	0	0	0
1473	0	0	0
1474	0	0	0
1475	255	240	243
1476	255	236	240
1477	255	233	239
1478	255	231	239
1479	255	219	233
1480	253	205	227
1481	246	191	220
1482	238	175	211
1483	235	167	210
1484	231	159	209
1485	226	150	208
1486	223	143	210
1487	215	132	207
1488	205	119	202
1489	209	130	210
1490	218	144	219
1491	208	130	211
1492	202	119	209
1493	210	130	218
1494	221	141	227
1495	222	137	226
1496	223	135	227
1497	217	127	223
1498	219	124	224
1499	220	117	222
1500	214	104	215
1501	223	117	223
1502	232	129	229
1503	228	121	223
1504	224	114	220
1505	230	125	227
1506	238	137	233
1507	240	137	231
1508	242	138	230
1509	239	132	226
1510	235	129	228
1511	224	120	224
1512	215	113	219
1513	216	123	226
1514	219	131	232
1515	233	150	243
1516	245	165	247
1517	252	167	245
1518	255	168	242
1519	252	163	236
1520	252	162	236
1521	250	157	233
1522	244	150	228
1523	247	157	233
1524	250	164	239
1525	247	163	239
1526	239	160	235
1527	232	164	236
1528	224	166	237
1529	222	180	243
1530	0	0	0
1531	0	0	0
1532	0	0	0
1533	0	0	0
1534	0	0	0
1535	0	0	0
1536	0	0	0
1537	0	0	0
1538	0	0	0
1539	0	0	0
1540	0	0	0
1541	0	0	0
1542	0	0	0
1543	0	0	0
1544	0	0	0
1545	0	0	0
1546	0	0	0
1547	0	0	0
1548	0	0	0
1549	0	0	0
1550	0	0	0
1551	0	0	0
1552	0	0	0
1553	0	0	0
1554	0	0	0
1555	0	0	0
1556	0	0	0
1557	0	0	0
1558	0	0	0
1559	0	0	0
1560	0	0	0
1561	0	0	0
1562	0	0	0
1563	0	0	0
1564	0	0	0
1565	0	0	0
1566	255	221	233
1567	255	221	237
1568	255	211	231
1569	254	208	231
1570	252	201	229
1571	245	188	224
1572	242	183	223
1573	228	165	213
1574	231	170	218
1575	226	161	217
1576	227	161	223
1577	223	153	224
1578	223	151	229
1579	213	138	224
1580	212	138	226
1581	221	151	236
1582	219	150	233
1583	208	134	223
1584	211	137	229
1585	219	147	237
1586	220	145	235
1587	218	139	231
1588	219	137	232
1589	217	131	229
1590	226	138	235
1591	227	130	232
1592	226	125	231
1593	234	137	238
1594	234	138	235
1595	227	128	227
1596	231	132	232
1597	240	145	241
1598	243	148	241
1599	242	147	238
1600	242	147	236
1601	236	139	231
1602	239	145	239
1603	231	137	235
1604	228	140	234
1605	226	148	239
1606	226	151	241
1607	245	172	253
1608	251	176	251
1609	255	177	249
1610	255	173	244
1611	250	168	238
1612	255	177	244
1613	255	173	242
1614	251	168	238
1615	253	174	243
1616	250	175	243
1617	242	171	239
1618	237	173	238
1619	0	0	0
1620	0	0	0
1621	0	0	0
1622	0	0	0
1623	0	0	0
1624	0	0	0
1625	0	0	0
1626	0	0	0
1627	0	0	0
1628	0	0	0
1629	0	0	0
1630	0	0	0
1631	0	0	0
1632	0	0	0
1633	0	0	0
1634	0	0	0
1635	0	0	0
1636	0	0	0
1637	0	0	0
1638	0	0	0
1639	0	0	0
1640	0	0	0
1641	0	0	0
1642	0	0	0
1643	0	0	0
1644	0	0	0
1645	0	0	0
1646	0	0	0
1647	0	0	0
1648	0	0	0
1649	0	0	0
1650	0	0	0
1651	0	0	0
1652	0	0	0
1653	0	0	0
1654	0	0	0
1655	0	0	0
1656	0	0	0
1657	254	208	228
1658	253	203	229
1659	247	193	225
1660	242	183	220
1661	238	176	218
1662	235	169	219
1663	233	165	220
1664	227	159	220
1665	222	158	221
1666	222	161	226
1667	217	156	225
1668	216	154	228
1669	213	149	228
1670	210	145	228
1671	206	142	229
1672	206	142	231
1673	206	142	231
1674	205	140	230
1675	204	139	229
1676	206	141	232
1677	207	139	231
1678	208	137	230
1679	206	133	227
1680	208	132	227
1681	213	135	231
1682	222	142	237
1683	231	142	240
1684	229	137	236
1685	228	137	235
1686	226	138	232
1687	228	140	233
1688	231	143	237
1689	235	148	240
1690	238	152	241
1691	236	150	238
1692	235	149	238
1693	233	150	238
1694	236	155	243
1695	237	159	245
1696	234	161	244
1697	231	164	245
1698	232	168	247
1699	241	175	250
1700	246	179	247
1701	247	175	241
1702	247	172	237
1703	251	179	240
1704	255	188	245
1705	251	181	240
1706	246	175	237
1707	244	177	238
1708	240	178	236
1709	238	181	237
1710	0	0	0
1711	0	0	0
1712	0	0	0
1713	0	0	0
1714	0	0	0
1715	0	0	0
1716	0	0	0
1717	0	0	0
1718	0	0	0
1719	0	0	0
1720	0	0	0
1721	0	0	0
1722	0	0	0
1723	0	0	0
1724	0	0	0
1725	0	0	0
1726	0	0	0
1727	0	0	0
1728	0	0	0
1729	0	0	0
1730	0	0	0
1731	0	0	0
1732	0	0	0
1733	0	0	0
1734	0	0	0
1735	0	0	0
1736	0	0	0
1737	0	0	0
1738	0	0	0
1739	0	0	0
1740	0	0	0
1741	0	0	0
1742	0	0	0
1743	0	0	0
1744	0	0	0
1745	0	0	0
1746	0	0	0
1747	0	0	0
1748	0	0	0
1749	0	0	0
1750	239	179	224
1751	227	166	217
1752	236	176	226
1753	236	171	227
1754	230	160	225
1755	225	154	225
1756	225	159	231
1757	219	157	232
1758	215	156	233
1759	209	150	230
1760	212	156	237
1761	205	148	233
1762	202	146	233
1763	199	144	232
1764	202	149	237
1765	202	148	236
1766	203	149	237
1767	201	147	236
1768	203	149	237
1769	205	148	236
1770	212	154	240
1771	210	149	237
1772	212	150	237
1773	216	152	240
1774	219	149	240
1775	231	151	244
1776	228	143	237
1777	221	141	234
1778	223	146	236
1779	227	151	239
1780	231	155	242
1781	232	158	244
1782	230	157	241
1783	227	154	239
1784	230	161	242
1785	228	161	241
1786	234	172	247
1787	235	175	248
1788	234	175	246
1789	238	182	249
1790	238	181	249
1791	241	186	250
1792	243	188	246
1793	242	184	239
1794	247	187	241
1795	254	197	247
1796	246	188	239
1797	0	0	0
1798	0	0	0
1799	0	0	0
1800	0	0	0
1801	0	0	0
1802	0	0	0
1803	0	0	0
1804	0	0	0
1805	0	0	0
1806	0	0	0
1807	0	0	0
1808	0	0	0
1809	0	0	0
1810	0	0	0
1811	0	0	0
1812	0	0	0
1813	0	0	0
1814	0	0	0
1815	0	0	0
1816	0	0	0
1817	0	0	0
1818	0	0	0
1819	0	0	0
1820	0	0	0
1821	0	0	0
1822	0	0	0
1823	0	0	0
1824	0	0	0
1825	0	0	0
1826	0	0	0
1827	0	0	0
1828	0	0	0
1829	0	0	0
1830	0	0	0
1831	0	0	0
1832	0	0	0
1833	0	0	0
1834	0	0	0
1835	0	0	0
1836	0	0	0
1837	0	0	0
1838	0	0	0
1839	0	0	0
1840	0	0	0
1841	0	0	0
1842	0	0	0
1843	0	0	0
1844	224	162	230
1845	216	148	223
1846	207	136	219
1847	208	139	223
1848	207	143	227
1849	200	140	225
1850	196	138	225
1851	197	142	230
1852	199	147	235
1853	193	143	233
1854	189	141	231
1855	188	143	232
1856	189	146	234
1857	188	145	232
1858	188	145	232
1859	187	145	232
1860	189	146	232
1861	196	152	235
1862	203	158	237
1863	206	158	236
1864	209	159	237
1865	211	155	238
1866	214	152	239
1867	222	151	241
1868	217	142	233
1869	215	146	234
1870	218	152	240
1871	222	157	243
1872	223	160	243
1873	215	154	236
1874	212	152	234
1875	214	157	235
1876	217	164	238
1877	221	172	240
1878	226	182	243
1879	223	180	239
1880	224	180	238
1881	228	184	240
1882	228	183	238
1883	231	187	239
1884	233	190	238
1885	236	193	237
1886	240	197	238
1887	238	191	234
1888	0	0	0
1889	0	0	0
1890	0	0	0
1891	0	0	0
1892	0	0	0
1893	0	0	0
1894	0	0	0
1895	0	0	0
1896	0	0	0
1897	0	0	0
1898	0	0	0
1899	0	0	0
1900	0	0	0
1901	0	0	0
1902	0	0	0
1903	0	0	0
1904	0	0	0
1905	0	0	0
1906	0	0	0
1907	0	0	0
1908	0	0	0
1909	0	0	0
1910	0	0	0
1911	0	0	0
1912	0	0	0
1913	0	0	0
1914	0	0	0
1915	0	0	0
1916	0	0	0
1917	0	0	0
1918	0	0	0
1919	0	0	0
1920	0	0	0
1921	0	0	0
1922	0	0	0
1923	0	0	0
1924	0	0	0
1925	0	0	0
1926	0	0	0
1927	0	0	0
1928	0	0	0
1929	0	0	0
1930	0	0	0
1931	0	0	0
1932	0	0	0
1933	0	0	0
1934	0	0	0
1935	0	0	0
1936	0	0	0
1937	209	150	231
1938	211	156	237
1939	211	159	240
1940	212	164	243
1941	206	160	241
1942	200	155	239
1943	203	160	243
1944	207	169	250
1945	199	163	246
1946	192	159	242
1947	190	160	241
1948	193	168	245
1949	187	164	240
1950	190	169	243
1951	192	170	243
1952	193	171	243
1953	196	175	243
1954	204	181	244
1955	211	183	246
1956	213	174	242
1957	221	175	247
1958	219	165	245
1959	217	159	241
1960	0	0	0
1961	0	0	0
1962	221	168	246
1963	0	0	0
1964	0	0	0
1965	0	0	0
1966	0	0	0
1967	0	0	0
1968	0	0	0
1969	0	0	0
1970	0	0	0
1971	0	0	0
1972	0	0	0
1973	0	0	0
1974	0	0	0
1975	0	0	0
1976	0	0	0
1977	0	0	0
1978	0	0	0
1979	0	0	0
1980	0	0	0
1981	0	0	0
1982	0	0	0
1983	0	0	0
1984	0	0	0
1985	0	0	0
1986	0	0	0
1987	0	0	0
1988	0	0	0
1989	0	0	0
1990	0	0	0
1991	0	0	0
1992	0	0	0
1993	0	0	0
1994	0	0	0
1995	0	0	0
1996	0	0	0
1997	0	0	0
1998	0	0	0
1999	0	0	0
2000	0	0	0
2001	0	0	0
2002	0	0	0
2003	0	0	0
2004	0	0	0
2005	0	0	0
2006	0	0	0
2007	0	0	0
2008	0	0	0
2009	0	0	0
2010	0	0	0
2011	0	0	0
2012	0	0	0
2013	0	0	0
2014	0	0	0
2015	0	0	0
2016	0	0	0
2017	0	0	0
2018	0	0	0
2019	0	0	0
2020	0	0	0
2021	0	0	0
2022	0	0	0
2023	0	0	0
2024	0	0	0
2025	0	0	0
2026	0	0	0
2027	0	0	0
2028	0	0	0
2029	0	0	0
2030	0	0	0
2031	207	168	244
2032	207	172	246
2033	198	165	241
2034	192	159	237
2035	198	168	244
2036	200	175	248
2037	187	166	240
2038	180	162	236
2039	185	171	240
2040	188	179	243
2041	188	181	243
2042	192	187	246
2043	195	189	247
2044	198	191	247
2045	202	196	247
2046	211	203	251
2047	211	194	246
2048	0	0	0
2049	225	187	251
2050	0	0	0
2051	0	0	0
2052	0	0	0
2053	0	0	0
2054	0	0	0
2055	0	0	0
2056	0	0	0
2057	0	0	0
2058	0	0	0
2059	0	0	0
2060	0	0	0
2061	0	0	0
2062	0	0	0
2063	0	0	0
2064	0	0	0
2065	0	0	0
2066	0	0	0
2067	0	0	0
2068	0	0	0
2069	0	0	0
2070	0	0	0
2071	0	0	0
2072	0	0	0
2073	0	0	0
2074	0	0	0
2075	0	0	0
2076	0	0	0
2077	0	0	0
2078	0	0	0
2079	0	0	0
2080	0	0	0
2081	0	0	0
2082	0	0	0
2083	0	0	0
2084	0	0	0
2085	0	0	0
2086	0	0	0
2087	0	0	0
2088	0	0	0
2089	0	0	0
2090	0	0	0
2091	0	0	0
2092	0	0	0
2093	0	0	0
2094	0	0	0
2095	0	0	0
2096	0	0	0
2097	0	0	0
2098	0	0	0
2099	0	0	0
2100	0	0	0
2101	0	0	0
2102	0	0	0
2103	0	0	0
2104	0	0	0
2105	0	0	0
2106	0	0	0
2107	0	0	0
2108	0	0	0
2109	0	0	0
2110	0	0	0
2111	0	0	0
2112	0	0	0
2113	0	0	0
2114	0	0	0
2115	0	0	0
2116	0	0	0
