 	R	G	B
1	0	0	0
2	0	0	0
3	0	0	0
4	0	0	0
5	0	0	0
6	0	0	0
7	0	0	0
8	0	0	0
9	0	0	0
10	0	0	0
11	0	0	0
12	0	0	0
13	0	0	0
14	255	243	232
15	255	236	230
16	0	0	0
17	0	0	0
18	253	235	224
19	255	239	231
20	0	0	0
21	0	0	0
22	0	0	0
23	0	0	0
24	0	0	0
25	0	0	0
26	0	0	0
27	0	0	0
28	0	0	0
29	0	0	0
30	0	0	0
31	0	0	0
32	0	0	0
33	0	0	0
34	0	0	0
35	0	0	0
36	0	0	0
37	0	0	0
38	0	0	0
39	0	0	0
40	0	0	0
41	0	0	0
42	0	0	0
43	0	0	0
44	0	0	0
45	0	0	0
46	0	0	0
47	0	0	0
48	0	0	0
49	0	0	0
50	255	241	223
51	255	242	224
52	255	225	215
53	255	221	217
54	249	212	216
55	245	211	215
56	248	221	218
57	245	220	216
58	248	226	223
59	241	215	218
60	0	0	0
61	0	0	0
62	0	0	0
63	0	0	0
64	0	0	0
65	0	0	0
66	0	0	0
67	0	0	0
68	0	0	0
69	0	0	0
70	0	0	0
71	0	0	0
72	0	0	0
73	0	0	0
74	0	0	0
75	0	0	0
76	0	0	0
77	0	0	0
78	0	0	0
79	0	0	0
80	0	0	0
81	0	0	0
82	0	0	0
83	0	0	0
84	0	0	0
85	0	0	0
86	255	240	219
87	255	243	224
88	255	247	229
89	255	245	227
90	255	230	217
91	255	212	208
92	255	206	208
93	248	197	209
94	250	207	217
95	252	216	222
96	247	215	220
97	247	218	222
98	241	215	220
99	0	0	0
100	0	0	0
101	0	0	0
102	0	0	0
103	0	0	0
104	0	0	0
105	0	0	0
106	0	0	0
107	0	0	0
108	0	0	0
109	0	0	0
110	0	0	0
111	0	0	0
112	0	0	0
113	0	0	0
114	0	0	0
115	0	0	0
116	0	0	0
117	0	0	0
118	0	0	0
119	0	0	0
120	0	0	0
121	0	0	0
122	0	0	0
123	0	0	0
124	254	221	205
125	255	229	212
126	255	216	209
127	255	220	215
128	254	198	202
129	246	182	194
130	249	184	197
131	245	178	197
132	250	187	208
133	255	197	217
134	253	202	219
135	244	199	215
136	244	207	219
137	0	0	0
138	0	0	0
139	0	0	0
140	0	0	0
141	0	0	0
142	0	0	0
143	0	0	0
144	0	0	0
145	0	0	0
146	0	0	0
147	0	0	0
148	0	0	0
149	0	0	0
150	0	0	0
151	0	0	0
152	0	0	0
153	0	0	0
154	0	0	0
155	0	0	0
156	0	0	0
157	0	0	0
158	0	0	0
159	0	0	0
160	0	0	0
161	0	0	0
162	255	226	215
163	255	214	208
164	255	207	206
165	254	193	201
166	245	175	194
167	233	154	186
168	239	159	193
169	241	160	196
170	247	170	203
171	250	176	208
172	254	184	213
173	252	188	216
174	250	195	218
175	250	203	222
176	247	209	224
177	254	221	232
178	255	225	234
179	0	0	0
180	0	0	0
181	0	0	0
182	0	0	0
183	0	0	0
184	0	0	0
185	0	0	0
186	0	0	0
187	0	0	0
188	0	0	0
189	0	0	0
190	0	0	0
191	0	0	0
192	0	0	0
193	0	0	0
194	0	0	0
195	0	0	0
196	0	0	0
197	0	0	0
198	0	0	0
199	0	0	0
200	255	223	218
201	255	219	219
202	251	188	203
203	253	182	205
204	248	170	201
205	236	151	193
206	239	153	201
207	243	157	207
208	242	157	207
209	247	165	211
210	248	167	211
211	253	175	214
212	255	180	217
213	255	187	219
214	254	193	220
215	254	200	223
216	255	206	227
217	252	205	224
218	249	205	220
219	0	0	0
220	0	0	0
221	0	0	0
222	0	0	0
223	0	0	0
224	0	0	0
225	0	0	0
226	0	0	0
227	0	0	0
228	0	0	0
229	0	0	0
230	0	0	0
231	0	0	0
232	0	0	0
233	0	0	0
234	0	0	0
235	0	0	0
236	0	0	0
237	0	0	0
238	255	216	220
239	255	211	217
240	245	182	203
241	229	152	192
242	228	145	195
243	221	133	192
244	223	135	197
245	225	137	203
246	230	142	208
247	229	142	206
248	234	150	210
249	237	153	210
250	246	163	215
251	250	169	215
252	254	177	217
253	255	183	219
254	255	188	220
255	255	193	222
256	251	192	220
257	248	193	218
258	255	210	227
259	255	227	234
260	255	224	227
261	255	225	227
262	255	234	233
263	255	244	242
264	255	238	238
265	0	0	0
266	0	0	0
267	0	0	0
268	0	0	0
269	0	0	0
270	0	0	0
271	0	0	0
272	0	0	0
273	0	0	0
274	0	0	0
275	0	0	0
276	255	226	233
277	255	223	233
278	253	196	218
279	233	164	203
280	223	150	203
281	214	139	203
282	209	134	203
283	211	137	208
284	216	142	214
285	223	149	220
286	215	135	208
287	222	144	212
288	223	142	211
289	235	154	217
290	241	158	216
291	251	169	220
292	245	161	213
293	246	166	214
294	255	181	223
295	253	181	221
296	251	184	219
297	255	199	226
298	255	208	226
299	248	203	218
300	255	217	226
301	255	225	231
302	255	222	229
303	251	216	224
304	248	216	222
305	0	0	0
306	0	0	0
307	0	0	0
308	0	0	0
309	0	0	0
310	254	245	240
311	250	240	238
312	0	0	0
313	0	0	0
314	252	223	232
315	255	220	231
316	248	195	219
317	234	169	210
318	223	155	208
319	211	140	206
320	209	139	212
321	204	134	211
322	211	142	220
323	216	147	224
324	213	139	219
325	204	126	207
326	206	128	208
327	208	128	209
328	221	139	216
329	229	144	216
330	229	140	212
331	226	133	207
332	237	150	216
333	247	165	224
334	248	168	221
335	245	169	215
336	246	178	216
337	248	187	220
338	247	194	220
339	253	206	224
340	248	202	218
341	245	199	215
342	245	201	217
343	244	203	218
344	255	224	232
345	255	244	242
346	255	244	241
347	255	245	241
348	255	249	243
349	255	253	246
350	255	253	247
351	255	251	248
352	251	237	241
353	255	238	246
354	252	209	229
355	235	180	215
356	234	178	223
357	222	164	222
358	211	146	218
359	219	151	228
360	222	151	231
361	232	161	240
362	221	145	230
363	212	134	221
364	206	128	215
365	205	130	215
366	207	130	216
367	220	141	224
368	219	136	219
369	216	130	214
370	222	137	219
371	238	156	230
372	241	159	229
373	242	162	225
374	243	166	221
375	246	175	223
376	252	189	229
377	253	197	229
378	255	206	230
379	251	200	223
380	247	197	220
381	247	200	221
382	250	205	225
383	255	228	239
384	255	220	230
385	255	220	228
386	255	220	226
387	255	225	229
388	255	230	233
389	253	227	232
390	253	233	237
391	0	0	0
392	244	214	231
393	232	187	218
394	230	183	222
395	227	179	227
396	215	163	223
397	207	147	222
398	223	158	237
399	227	158	239
400	223	147	233
401	211	130	221
402	208	128	219
403	202	123	216
404	198	123	214
405	198	122	213
406	207	125	217
407	207	122	215
408	212	129	219
409	218	136	225
410	225	143	228
411	227	145	224
412	230	150	223
413	232	156	224
414	240	169	227
415	247	182	229
416	248	188	227
417	252	198	229
418	247	192	223
419	244	190	221
420	247	197	225
421	251	202	227
422	253	202	226
423	247	195	218
424	250	200	219
425	249	201	217
426	254	209	222
427	255	213	225
428	255	221	232
429	255	226	237
430	0	0	0
431	0	0	0
432	235	206	233
433	235	203	239
434	223	184	234
435	215	170	232
436	213	159	234
437	229	169	248
438	220	151	238
439	211	138	229
440	206	129	224
441	207	130	225
442	208	134	227
443	203	132	225
444	200	126	221
445	211	131	227
446	209	125	223
447	217	134	230
448	224	143	235
449	227	147	235
450	219	139	225
451	218	143	223
452	236	170	238
453	246	184	242
454	248	188	237
455	252	195	236
456	255	200	234
457	249	195	228
458	252	199	232
459	255	208	238
460	255	206	235
461	255	207	236
462	245	182	218
463	250	188	221
464	255	196	224
465	255	204	229
466	243	184	216
467	244	191	222
468	245	204	229
469	0	0	0
470	0	0	0
471	237	221	244
472	222	200	237
473	211	181	234
474	210	173	238
475	207	160	236
476	211	153	237
477	203	136	229
478	199	130	227
479	196	123	224
480	207	133	232
481	208	137	234
482	199	129	227
483	196	124	224
484	204	125	227
485	203	119	224
486	215	133	233
487	221	141	235
488	216	137	229
489	210	131	221
490	227	158	236
491	243	183	248
492	242	183	241
493	246	188	240
494	251	193	239
495	253	198	235
496	249	197	230
497	253	202	236
498	254	200	235
499	254	198	233
500	238	176	218
501	222	152	205
502	235	167	218
503	241	176	222
504	232	163	214
505	214	143	202
506	223	164	216
507	0	0	0
508	0	0	0
509	0	0	0
510	237	232	247
511	216	207	238
512	210	196	243
513	210	189	249
514	203	168	240
515	207	161	242
516	207	155	243
517	204	150	242
518	201	141	239
519	217	153	249
520	215	148	244
521	207	141	237
522	203	134	234
523	206	133	235
524	209	132	235
525	223	147	245
526	218	140	236
527	214	137	231
528	219	144	234
529	244	175	251
530	246	182	247
531	238	178	236
532	251	198	247
533	255	205	248
534	250	194	234
535	245	192	229
536	255	209	241
537	255	208	242
538	249	196	233
539	227	170	217
540	228	172	224
541	244	190	240
542	240	183	235
543	230	170	227
544	215	155	219
545	0	0	0
546	0	0	0
547	0	0	0
548	0	0	0
549	0	0	0
550	221	222	243
551	212	209	247
552	197	187	242
553	187	166	234
554	198	168	244
555	200	163	246
556	196	155	244
557	195	147	241
558	208	152	247
559	207	147	240
560	200	140	233
561	197	133	233
562	205	137	238
563	208	137	237
564	212	137	237
565	209	131	231
566	214	142	236
567	220	149	238
568	236	167	245
569	238	173	237
570	242	185	237
571	255	206	248
572	253	198	239
573	245	188	229
574	246	197	233
575	255	212	244
576	248	199	235
577	241	188	229
578	236	187	230
579	236	189	237
580	237	186	240
581	233	180	238
582	228	175	237
583	210	159	225
584	0	0	0
585	0	0	0
586	0	0	0
587	0	0	0
588	0	0	0
589	0	0	0
590	218	225	250
591	189	195	237
592	182	183	237
593	194	187	249
594	196	181	250
595	198	176	251
596	199	168	251
597	210	173	255
598	203	157	243
599	197	150	238
600	199	148	241
601	212	155	248
602	217	155	248
603	223	156	248
604	223	154	246
605	227	165	251
606	224	162	245
607	238	178	250
608	240	181	241
609	251	198	244
610	255	208	247
611	253	198	237
612	247	193	232
613	248	202	237
614	254	214	244
615	244	199	233
616	251	207	241
617	255	210	247
618	246	197	242
619	241	191	242
620	240	192	247
621	234	188	247
622	214	171	232
623	0	0	0
624	0	0	0
625	0	0	0
626	0	0	0
627	0	0	0
628	0	0	0
629	0	0	0
630	205	221	243
631	194	209	246
632	197	205	252
633	198	198	252
634	201	193	254
635	202	185	254
636	203	177	252
637	195	162	243
638	192	159	242
639	195	157	243
640	210	164	251
641	218	165	251
642	233	174	255
643	233	173	254
644	228	173	250
645	226	171	247
646	236	183	251
647	241	188	245
648	249	198	245
649	255	207	245
650	250	199	235
651	244	195	231
652	248	205	237
653	255	217	244
654	254	217	243
655	255	225	250
656	255	212	243
657	247	198	237
658	249	202	245
659	247	203	251
660	236	195	247
661	0	0	0
662	0	0	0
663	0	0	0
664	0	0	0
665	0	0	0
666	0	0	0
667	0	0	0
668	0	0	0
669	0	0	0
670	0	0	0
671	206	219	251
672	204	212	252
673	206	207	255
674	200	192	249
675	198	183	248
676	196	179	247
677	192	175	246
678	196	174	247
679	212	182	255
680	219	176	253
681	239	188	255
682	231	173	249
683	225	172	244
684	227	177	247
685	238	190	253
686	241	192	247
687	249	202	247
688	248	201	239
689	237	192	227
690	247	206	236
691	255	220	246
692	252	214	240
693	249	212	238
694	255	223	245
695	250	208	236
696	247	201	235
697	255	208	245
698	246	201	244
699	228	189	236
700	225	196	239
701	0	0	0
702	0	0	0
703	0	0	0
704	0	0	0
705	0	0	0
706	0	0	0
707	0	0	0
708	0	0	0
709	0	0	0
710	0	0	0
711	224	236	255
712	217	221	255
713	210	206	252
714	213	207	255
715	211	203	255
716	209	200	255
717	212	199	255
718	218	194	255
719	224	189	255
720	234	187	255
721	228	173	243
722	230	181	247
723	234	187	251
724	241	194	254
725	243	196	248
726	245	198	242
727	242	198	235
728	242	205	235
729	252	219	243
730	253	216	241
731	249	210	235
732	253	217	240
733	255	228	248
734	255	218	243
735	255	211	241
736	255	213	248
737	251	205	243
738	243	211	245
739	239	218	248
740	0	0	0
741	0	0	0
742	0	0	0
743	0	0	0
744	0	0	0
745	0	0	0
746	0	0	0
747	0	0	0
748	0	0	0
749	0	0	0
750	0	0	0
751	0	0	0
752	226	219	253
753	229	220	255
754	219	203	249
755	222	203	252
756	228	207	255
757	227	199	253
758	231	198	254
759	235	193	252
760	232	182	244
761	242	195	253
762	238	188	250
763	244	195	252
764	240	191	244
765	238	192	238
766	243	202	238
767	245	211	239
768	254	223	245
769	253	218	241
770	250	210	236
771	255	220	243
772	255	225	248
773	255	215	243
774	248	196	233
775	250	197	237
776	245	197	236
777	238	203	238
778	239	217	242
779	0	0	0
780	0	0	0
781	0	0	0
782	0	0	0
783	0	0	0
784	0	0	0
785	0	0	0
786	0	0	0
787	0	0	0
788	0	0	0
789	0	0	0
790	0	0	0
791	0	0	0
792	229	217	244
793	0	0	0
794	0	0	0
795	0	0	0
796	239	211	253
797	241	209	253
798	240	202	250
799	235	191	244
800	234	188	243
801	232	182	239
802	236	186	241
803	234	183	237
804	241	197	242
805	245	208	242
806	248	215	242
807	255	227	248
808	252	218	241
809	249	210	237
810	253	213	240
811	255	218	244
812	247	199	233
813	235	180	224
814	245	192	236
815	239	191	235
816	238	205	239
817	0	0	0
818	0	0	0
819	0	0	0
820	0	0	0
821	0	0	0
822	0	0	0
823	0	0	0
824	0	0	0
825	0	0	0
826	0	0	0
827	0	0	0
828	0	0	0
829	0	0	0
830	0	0	0
831	0	0	0
832	0	0	0
833	0	0	0
834	242	220	250
835	250	221	254
836	240	201	244
837	234	192	239
838	234	195	241
839	229	189	236
840	239	201	245
841	249	208	252
842	240	195	242
843	249	210	249
844	251	216	247
845	255	224	248
846	255	222	246
847	249	213	239
848	249	212	239
849	250	214	240
850	255	223	247
851	245	204	237
852	235	188	231
853	244	199	243
854	233	191	235
855	0	0	0
856	0	0	0
857	0	0	0
858	0	0	0
859	0	0	0
860	0	0	0
861	0	0	0
862	0	0	0
863	0	0	0
864	0	0	0
865	0	0	0
866	0	0	0
867	0	0	0
868	0	0	0
869	0	0	0
870	0	0	0
871	0	0	0
872	248	233	252
873	250	229	251
874	249	216	247
875	238	197	241
876	237	199	243
877	235	200	240
878	240	209	244
879	251	223	253
880	252	216	250
881	244	203	243
882	253	216	251
883	255	223	250
884	251	218	243
885	250	217	243
886	248	213	240
887	247	212	238
888	253	219	243
889	255	229	252
890	250	213	244
891	238	196	238
892	236	197	241
893	0	0	0
894	0	0	0
895	0	0	0
896	0	0	0
897	0	0	0
898	0	0	0
899	0	0	0
900	0	0	0
901	0	0	0
902	0	0	0
903	0	0	0
904	0	0	0
905	0	0	0
906	0	0	0
907	0	0	0
908	0	0	0
909	0	0	0
910	246	238	247
911	254	240	252
912	245	218	241
913	241	203	238
914	235	195	238
915	230	195	238
916	243	217	247
917	254	230	253
918	250	219	245
919	245	210	241
920	241	201	238
921	254	217	249
922	254	219	247
923	246	212	240
924	251	221	247
925	249	218	244
926	253	223	246
927	255	232	252
928	255	219	246
929	243	202	238
930	237	198	238
931	0	0	0
932	0	0	0
933	0	0	0
934	0	0	0
935	0	0	0
936	0	0	0
937	0	0	0
938	0	0	0
939	0	0	0
940	0	0	0
941	0	0	0
942	0	0	0
943	0	0	0
944	0	0	0
945	0	0	0
946	0	0	0
947	0	0	0
948	0	0	0
949	252	247	250
950	245	226	242
951	235	205	233
952	237	202	237
953	0	0	0
954	0	0	0
955	248	231	252
956	246	222	243
957	243	212	237
958	244	210	239
959	241	202	237
960	249	212	245
961	249	214	243
962	243	214	240
963	247	222	247
964	246	222	246
965	250	226	247
966	0	0	0
967	238	201	233
968	237	202	236
969	0	0	0
970	0	0	0
971	0	0	0
972	0	0	0
973	0	0	0
974	0	0	0
975	0	0	0
976	0	0	0
977	0	0	0
978	0	0	0
979	0	0	0
980	0	0	0
981	0	0	0
982	0	0	0
983	0	0	0
984	0	0	0
985	0	0	0
986	0	0	0
987	0	0	0
988	252	245	249
989	239	222	238
990	232	207	234
991	0	0	0
992	0	0	0
993	0	0	0
994	254	245	255
995	250	235	249
996	243	217	241
997	249	219	247
998	233	193	232
999	237	200	237
1000	246	219	247
1001	0	0	0
1002	0	0	0
1003	248	237	252
1004	0	0	0
1005	0	0	0
1006	0	0	0
1007	0	0	0
1008	0	0	0
1009	0	0	0
1010	0	0	0
1011	0	0	0
1012	0	0	0
1013	0	0	0
1014	0	0	0
1015	0	0	0
1016	0	0	0
1017	0	0	0
1018	0	0	0
1019	0	0	0
1020	0	0	0
1021	0	0	0
1022	0	0	0
1023	0	0	0
1024	0	0	0
1025	0	0	0
1026	0	0	0
1027	0	0	0
1028	239	226	239
1029	0	0	0
1030	0	0	0
1031	0	0	0
1032	0	0	0
1033	0	0	0
1034	245	234	246
1035	239	218	243
1036	232	203	238
1037	0	0	0
1038	231	203	240
1039	0	0	0
1040	0	0	0
1041	0	0	0
1042	0	0	0
1043	0	0	0
1044	0	0	0
1045	0	0	0
1046	0	0	0
1047	0	0	0
1048	0	0	0
1049	0	0	0
1050	0	0	0
1051	0	0	0
1052	0	0	0
1053	0	0	0
