 	R	G	B
1	0	0	0
2	0	0	0
3	0	0	0
4	0	0	0
5	0	0	0
6	0	0	0
7	0	0	0
8	0	0	0
9	0	0	0
10	0	0	0
11	0	0	0
12	0	0	0
13	0	0	0
14	0	0	0
15	0	0	0
16	0	0	0
17	0	0	0
18	0	0	0
19	0	0	0
20	0	0	0
21	0	0	0
22	0	0	0
23	0	0	0
24	0	0	0
25	0	0	0
26	0	0	0
27	0	0	0
28	0	0	0
29	0	0	0
30	0	0	0
31	0	0	0
32	0	0	0
33	0	0	0
34	0	0	0
35	0	0	0
36	0	0	0
37	0	0	0
38	0	0	0
39	0	0	0
40	0	0	0
41	0	0	0
42	0	0	0
43	0	0	0
44	0	0	0
45	0	0	0
46	0	0	0
47	0	0	0
48	0	0	0
49	0	0	0
50	0	0	0
51	0	0	0
52	0	0	0
53	0	0	0
54	0	0	0
55	0	0	0
56	0	0	0
57	255	235	226
58	255	238	226
59	255	233	222
60	255	228	221
61	255	230	223
62	0	0	0
63	0	0	0
64	0	0	0
65	0	0	0
66	0	0	0
67	0	0	0
68	0	0	0
69	0	0	0
70	0	0	0
71	0	0	0
72	0	0	0
73	0	0	0
74	0	0	0
75	0	0	0
76	0	0	0
77	0	0	0
78	0	0	0
79	0	0	0
80	0	0	0
81	0	0	0
82	0	0	0
83	0	0	0
84	0	0	0
85	0	0	0
86	0	0	0
87	0	0	0
88	0	0	0
89	0	0	0
90	0	0	0
91	0	0	0
92	0	0	0
93	0	0	0
94	0	0	0
95	0	0	0
96	0	0	0
97	0	0	0
98	0	0	0
99	0	0	0
100	0	0	0
101	0	0	0
102	0	0	0
103	0	0	0
104	0	0	0
105	0	0	0
106	0	0	0
107	0	0	0
108	0	0	0
109	0	0	0
110	0	0	0
111	0	0	0
112	0	0	0
113	0	0	0
114	0	0	0
115	0	0	0
116	0	0	0
117	0	0	0
118	0	0	0
119	0	0	0
120	0	0	0
121	0	0	0
122	0	0	0
123	0	0	0
124	0	0	0
125	0	0	0
126	0	0	0
127	0	0	0
128	0	0	0
129	0	0	0
130	0	0	0
131	0	0	0
132	0	0	0
133	0	0	0
134	0	0	0
135	0	0	0
136	0	0	0
137	0	0	0
138	0	0	0
139	0	0	0
140	0	0	0
141	0	0	0
142	252	220	218
143	255	226	222
144	253	217	213
145	250	213	210
146	255	218	217
147	255	221	220
148	252	213	212
149	0	0	0
150	0	0	0
151	0	0	0
152	0	0	0
153	0	0	0
154	0	0	0
155	0	0	0
156	0	0	0
157	0	0	0
158	0	0	0
159	0	0	0
160	0	0	0
161	0	0	0
162	0	0	0
163	0	0	0
164	0	0	0
165	0	0	0
166	0	0	0
167	0	0	0
168	0	0	0
169	0	0	0
170	0	0	0
171	0	0	0
172	0	0	0
173	0	0	0
174	0	0	0
175	0	0	0
176	0	0	0
177	0	0	0
178	0	0	0
179	0	0	0
180	0	0	0
181	0	0	0
182	0	0	0
183	0	0	0
184	0	0	0
185	0	0	0
186	0	0	0
187	0	0	0
188	0	0	0
189	0	0	0
190	0	0	0
191	0	0	0
192	0	0	0
193	0	0	0
194	0	0	0
195	0	0	0
196	0	0	0
197	0	0	0
198	0	0	0
199	0	0	0
200	0	0	0
201	0	0	0
202	0	0	0
203	0	0	0
204	0	0	0
205	0	0	0
206	0	0	0
207	0	0	0
208	0	0	0
209	0	0	0
210	0	0	0
211	0	0	0
212	0	0	0
213	0	0	0
214	0	0	0
215	0	0	0
216	0	0	0
217	0	0	0
218	0	0	0
219	0	0	0
220	0	0	0
221	0	0	0
222	0	0	0
223	0	0	0
224	0	0	0
225	0	0	0
226	0	0	0
227	252	213	214
228	252	210	213
229	250	206	210
230	246	198	205
231	250	204	209
232	255	209	214
233	252	204	211
234	247	198	203
235	251	206	208
236	255	213	212
237	255	220	216
238	255	223	216
239	255	222	215
240	0	0	0
241	0	0	0
242	0	0	0
243	255	238	220
244	0	0	0
245	0	0	0
246	0	0	0
247	0	0	0
248	0	0	0
249	0	0	0
250	0	0	0
251	0	0	0
252	0	0	0
253	0	0	0
254	0	0	0
255	0	0	0
256	0	0	0
257	0	0	0
258	0	0	0
259	0	0	0
260	0	0	0
261	0	0	0
262	0	0	0
263	0	0	0
264	0	0	0
265	0	0	0
266	0	0	0
267	0	0	0
268	0	0	0
269	0	0	0
270	0	0	0
271	0	0	0
272	0	0	0
273	0	0	0
274	0	0	0
275	0	0	0
276	0	0	0
277	0	0	0
278	0	0	0
279	0	0	0
280	0	0	0
281	0	0	0
282	0	0	0
283	0	0	0
284	0	0	0
285	0	0	0
286	0	0	0
287	0	0	0
288	0	0	0
289	0	0	0
290	0	0	0
291	0	0	0
292	0	0	0
293	0	0	0
294	0	0	0
295	0	0	0
296	0	0	0
297	0	0	0
298	0	0	0
299	0	0	0
300	0	0	0
301	0	0	0
302	0	0	0
303	0	0	0
304	0	0	0
305	0	0	0
306	0	0	0
307	0	0	0
308	0	0	0
309	0	0	0
310	0	0	0
311	0	0	0
312	254	214	213
313	255	215	216
314	252	203	210
315	250	199	209
316	250	198	209
317	255	203	214
318	255	200	212
319	252	196	209
320	250	193	205
321	255	202	210
322	255	202	209
323	255	208	211
324	253	204	205
325	251	203	203
326	253	209	209
327	0	0	0
328	255	227	216
329	255	231	216
330	252	220	208
331	0	0	0
332	0	0	0
333	0	0	0
334	0	0	0
335	0	0	0
336	0	0	0
337	0	0	0
338	0	0	0
339	0	0	0
340	0	0	0
341	0	0	0
342	0	0	0
343	0	0	0
344	0	0	0
345	0	0	0
346	0	0	0
347	0	0	0
348	0	0	0
349	0	0	0
350	0	0	0
351	0	0	0
352	0	0	0
353	0	0	0
354	0	0	0
355	0	0	0
356	0	0	0
357	0	0	0
358	0	0	0
359	0	0	0
360	0	0	0
361	0	0	0
362	0	0	0
363	0	0	0
364	0	0	0
365	0	0	0
366	0	0	0
367	0	0	0
368	0	0	0
369	0	0	0
370	0	0	0
371	0	0	0
372	0	0	0
373	0	0	0
374	0	0	0
375	0	0	0
376	0	0	0
377	0	0	0
378	0	0	0
379	0	0	0
380	0	0	0
381	0	0	0
382	0	0	0
383	0	0	0
384	0	0	0
385	0	0	0
386	0	0	0
387	255	240	232
388	255	241	233
389	255	243	234
390	255	243	232
391	255	234	224
392	255	225	217
393	255	230	222
394	255	235	226
395	255	231	225
396	255	228	223
397	255	221	217
398	255	216	213
399	255	205	208
400	250	194	206
401	250	194	209
402	251	193	211
403	251	191	211
404	250	188	208
405	252	189	208
406	251	187	207
407	252	190	208
408	250	189	204
409	250	188	202
410	246	185	196
411	250	192	200
412	252	198	204
413	255	210	211
414	255	221	214
415	255	210	204
416	246	200	196
417	252	212	205
418	255	225	215
419	255	225	215
420	255	225	212
421	255	224	211
422	255	223	211
423	255	228	216
424	0	0	0
425	0	0	0
426	0	0	0
427	0	0	0
428	0	0	0
429	0	0	0
430	0	0	0
431	0	0	0
432	0	0	0
433	0	0	0
434	0	0	0
435	0	0	0
436	0	0	0
437	0	0	0
438	0	0	0
439	0	0	0
440	0	0	0
441	0	0	0
442	0	0	0
443	0	0	0
444	0	0	0
445	0	0	0
446	0	0	0
447	0	0	0
448	0	0	0
449	0	0	0
450	0	0	0
451	0	0	0
452	0	0	0
453	0	0	0
454	0	0	0
455	0	0	0
456	0	0	0
457	0	0	0
458	0	0	0
459	0	0	0
460	0	0	0
461	0	0	0
462	0	0	0
463	0	0	0
464	0	0	0
465	0	0	0
466	0	0	0
467	0	0	0
468	0	0	0
469	0	0	0
470	0	0	0
471	0	0	0
472	255	232	227
473	255	234	229
474	254	222	219
475	255	223	219
476	255	225	220
477	254	216	213
478	252	210	209
479	255	216	213
480	255	217	216
481	255	213	214
482	253	203	208
483	250	196	203
484	255	201	206
485	249	189	200
486	248	186	204
487	247	185	207
488	254	193	214
489	255	193	214
490	255	192	213
491	255	193	215
492	253	184	210
493	253	186	210
494	252	185	208
495	253	186	206
496	253	186	203
497	255	194	206
498	255	193	205
499	255	205	211
500	255	200	204
501	246	188	193
502	251	197	199
503	255	211	209
504	255	206	206
505	251	205	203
506	255	212	207
507	255	211	206
508	254	212	207
509	255	217	212
510	255	219	215
511	0	0	0
512	0	0	0
513	0	0	0
514	0	0	0
515	0	0	0
516	0	0	0
517	0	0	0
518	0	0	0
519	0	0	0
520	0	0	0
521	0	0	0
522	0	0	0
523	0	0	0
524	0	0	0
525	0	0	0
526	0	0	0
527	0	0	0
528	0	0	0
529	0	0	0
530	0	0	0
531	0	0	0
532	0	0	0
533	0	0	0
534	0	0	0
535	0	0	0
536	0	0	0
537	0	0	0
538	0	0	0
539	0	0	0
540	0	0	0
541	0	0	0
542	0	0	0
543	0	0	0
544	0	0	0
545	0	0	0
546	0	0	0
547	0	0	0
548	0	0	0
549	0	0	0
550	0	0	0
551	0	0	0
552	0	0	0
553	0	0	0
554	0	0	0
555	0	0	0
556	0	0	0
557	0	0	0
558	0	0	0
559	255	219	221
560	250	206	208
561	253	208	210
562	255	210	213
563	253	205	210
564	251	200	208
565	252	199	208
566	253	199	208
567	247	188	201
568	242	178	196
569	246	183	200
570	251	188	204
571	249	183	203
572	247	179	205
573	253	188	213
574	255	195	214
575	255	193	212
576	255	192	212
577	254	184	208
578	246	174	204
579	242	174	204
580	242	174	203
581	250	180	206
582	251	181	203
583	252	182	202
584	249	180	200
585	247	179	197
586	243	175	193
587	246	183	197
588	251	192	201
589	249	188	199
590	244	184	196
591	247	191	200
592	250	199	204
593	250	199	203
594	249	199	202
595	248	200	202
596	248	202	205
597	254	212	211
598	0	0	0
599	0	0	0
600	0	0	0
601	252	214	214
602	0	0	0
603	0	0	0
604	0	0	0
605	0	0	0
606	0	0	0
607	0	0	0
608	0	0	0
609	0	0	0
610	0	0	0
611	0	0	0
612	0	0	0
613	0	0	0
614	0	0	0
615	0	0	0
616	0	0	0
617	0	0	0
618	0	0	0
619	0	0	0
620	0	0	0
621	0	0	0
622	0	0	0
623	0	0	0
624	0	0	0
625	0	0	0
626	0	0	0
627	0	0	0
628	0	0	0
629	0	0	0
630	0	0	0
631	0	0	0
632	0	0	0
633	0	0	0
634	0	0	0
635	0	0	0
636	0	0	0
637	0	0	0
638	0	0	0
639	0	0	0
640	0	0	0
641	0	0	0
642	0	0	0
643	0	0	0
644	255	214	221
645	254	205	215
646	247	193	204
647	251	196	206
648	254	198	210
649	251	193	207
650	254	195	210
651	255	195	211
652	254	192	209
653	248	182	202
654	249	182	205
655	252	186	208
656	255	188	210
657	252	183	208
658	253	181	211
659	255	191	219
660	255	182	209
661	253	179	205
662	252	180	206
663	243	170	201
664	240	171	204
665	232	169	202
666	238	177	207
667	251	185	214
668	248	177	206
669	249	178	205
670	248	177	204
671	245	175	201
672	242	173	199
673	247	182	204
674	248	185	203
675	244	181	199
676	250	190	205
677	255	198	211
678	246	188	203
679	243	187	201
680	244	191	203
681	244	192	202
682	255	207	212
683	255	219	219
684	253	202	206
685	0	0	0
686	255	209	215
687	254	210	217
688	249	206	213
689	0	0	0
690	0	0	0
691	0	0	0
692	0	0	0
693	0	0	0
694	0	0	0
695	0	0	0
696	0	0	0
697	0	0	0
698	0	0	0
699	0	0	0
700	0	0	0
701	0	0	0
702	0	0	0
703	0	0	0
704	0	0	0
705	0	0	0
706	0	0	0
707	254	217	218
708	0	0	0
709	255	218	218
710	255	222	222
711	255	220	221
712	255	216	217
713	255	225	221
714	255	232	224
715	255	225	218
716	255	218	215
717	255	226	221
718	255	234	226
719	255	231	223
720	255	227	218
721	255	224	215
722	255	223	215
723	255	219	213
724	255	215	212
725	255	217	216
726	255	220	220
727	255	216	219
728	255	214	218
729	255	205	213
730	253	199	213
731	247	188	207
732	241	177	199
733	244	179	201
734	246	181	204
735	248	183	205
736	250	185	207
737	248	181	205
738	248	180	204
739	251	181	206
740	252	181	208
741	254	184	211
742	255	186	212
743	255	183	211
744	255	181	215
745	255	178	214
746	251	171	207
747	250	171	207
748	249	171	208
749	244	171	207
750	240	172	208
751	237	175	210
752	242	183	217
753	244	178	214
754	240	169	206
755	241	169	205
756	240	168	205
757	238	168	204
758	236	166	202
759	240	172	204
760	241	175	204
761	244	181	206
762	249	190	208
763	241	180	202
764	233	170	197
765	236	178	203
766	239	183	206
767	249	195	212
768	255	210	219
769	252	194	208
770	241	179	199
771	248	191	208
772	254	202	215
773	247	197	210
774	242	193	209
775	0	0	0
776	0	0	0
777	0	0	0
778	0	0	0
779	0	0	0
780	0	0	0
781	0	0	0
782	0	0	0
783	0	0	0
784	0	0	0
785	0	0	0
786	0	0	0
787	0	0	0
788	0	0	0
789	0	0	0
790	0	0	0
791	0	0	0
792	255	217	218
793	255	215	216
794	252	205	210
795	255	212	216
796	255	207	213
797	253	205	211
798	255	207	211
799	255	215	214
800	255	216	212
801	255	209	208
802	252	201	206
803	255	211	214
804	255	208	211
805	254	203	206
806	253	202	204
807	252	199	202
808	255	204	205
809	253	200	204
810	252	198	205
811	255	201	208
812	253	197	208
813	251	194	208
814	255	198	212
815	249	188	207
816	250	189	211
817	244	178	205
818	252	188	210
819	255	190	213
820	254	188	213
821	255	190	215
822	254	185	212
823	250	180	208
824	253	183	211
825	255	185	214
826	254	179	212
827	255	182	216
828	253	176	212
829	251	173	211
830	254	173	214
831	254	170	214
832	251	165	210
833	250	166	210
834	249	168	211
835	244	168	210
836	245	174	214
837	247	180	219
838	236	168	212
839	229	158	205
840	238	171	212
841	238	171	211
842	233	165	208
843	233	166	209
844	233	166	208
845	240	172	211
846	241	174	211
847	242	180	211
848	242	183	209
849	232	173	201
850	225	164	200
851	232	174	209
852	238	181	212
853	251	195	220
854	255	201	220
855	249	185	209
856	247	183	210
857	249	192	216
858	248	196	216
859	244	192	212
860	0	0	0
861	0	0	0
862	0	0	0
863	0	0	0
864	0	0	0
865	0	0	0
866	0	0	0
867	0	0	0
868	0	0	0
869	255	232	230
870	255	230	227
871	0	0	0
872	0	0	0
873	255	218	221
874	0	0	0
875	0	0	0
876	255	219	224
877	255	216	220
878	255	216	217
879	255	207	212
880	252	198	208
881	254	197	210
882	251	192	208
883	255	199	211
884	255	201	207
885	255	201	205
886	255	203	208
887	254	195	205
888	250	188	204
889	250	187	205
890	247	182	199
891	245	180	197
892	245	180	197
893	246	182	199
894	249	186	203
895	245	181	201
896	244	179	200
897	242	175	199
898	240	171	198
899	243	175	202
900	247	180	208
901	246	178	208
902	247	178	211
903	254	188	217
904	255	196	218
905	255	193	216
906	255	192	218
907	255	189	218
908	255	184	216
909	255	185	217
910	255	187	218
911	253	178	214
912	250	172	214
913	248	168	213
914	245	163	211
915	244	161	210
916	246	161	212
917	249	160	213
918	246	156	208
919	248	161	210
920	246	163	210
921	242	166	210
922	244	173	215
923	238	162	210
924	228	151	206
925	234	163	214
926	241	175	219
927	234	167	213
928	229	161	210
929	228	161	211
930	228	161	210
931	234	167	212
932	234	169	210
933	232	170	208
934	231	173	208
935	220	162	201
936	215	155	202
937	225	166	212
938	230	173	213
939	235	177	213
940	241	183	215
941	240	179	211
942	237	176	209
943	238	181	212
944	239	186	214
945	0	0	0
946	0	0	0
947	0	0	0
948	0	0	0
949	0	0	0
950	0	0	0
951	0	0	0
952	0	0	0
953	0	0	0
954	252	224	226
955	255	224	225
956	251	214	217
957	252	213	216
958	255	217	219
959	251	207	214
960	250	202	214
961	255	210	221
962	255	210	221
963	255	207	218
964	251	198	210
965	247	189	204
966	255	197	212
967	255	197	214
968	249	182	206
969	255	189	210
970	254	187	204
971	254	188	204
972	255	187	206
973	251	180	204
974	251	178	206
975	250	176	206
976	250	178	204
977	248	176	202
978	249	178	205
979	249	180	207
980	254	188	214
981	250	182	210
982	255	189	213
983	253	185	212
984	250	179	210
985	252	183	214
986	254	185	216
987	253	183	216
988	255	186	219
989	255	194	224
990	254	182	213
991	252	179	210
992	255	185	217
993	255	181	217
994	250	172	213
995	251	174	215
996	252	176	216
997	245	166	210
998	253	176	221
999	251	171	221
1000	251	172	222
1001	248	169	221
1002	245	162	217
1003	251	163	220
1004	248	157	214
1005	249	162	216
1006	241	158	211
1007	235	159	209
1008	240	168	216
1009	237	160	213
1010	235	157	215
1011	242	170	224
1012	240	169	220
1013	233	161	214
1014	231	160	214
1015	226	159	214
1016	229	165	217
1017	233	169	218
1018	232	170	215
1019	229	171	213
1020	226	171	211
1021	217	161	206
1022	225	171	218
1023	234	183	228
1024	226	173	217
1025	226	174	216
1026	231	183	220
1027	226	177	214
1028	230	182	216
1029	239	191	223
1030	235	184	219
1031	0	0	0
1032	0	0	0
1033	0	0	0
1034	0	0	0
1035	255	234	230
1036	255	230	230
1037	255	226	228
1038	253	217	220
1039	252	216	219
1040	254	218	223
1041	252	210	220
1042	248	201	214
1043	253	206	216
1044	255	209	216
1045	253	203	213
1046	253	199	216
1047	255	200	219
1048	255	199	219
1049	247	189	212
1050	242	181	208
1051	246	186	211
1052	253	192	214
1053	247	179	205
1054	240	165	198
1055	246	170	204
1056	246	169	202
1057	245	167	201
1058	245	166	203
1059	244	163	202
1060	243	160	202
1061	245	164	205
1062	246	165	205
1063	245	167	205
1064	245	169	208
1065	249	175	212
1066	253	183	217
1067	254	185	217
1068	255	191	220
1069	255	187	218
1070	254	181	215
1071	255	185	219
1072	255	187	219
1073	255	188	219
1074	255	190	221
1075	255	180	215
1076	248	169	211
1077	250	172	214
1078	254	177	217
1079	248	167	211
1080	242	158	208
1081	244	162	212
1082	245	164	214
1083	247	168	217
1084	254	177	226
1085	254	176	226
1086	253	176	225
1087	244	166	218
1088	241	159	217
1089	244	158	220
1090	242	153	216
1091	243	155	217
1092	235	151	212
1093	229	153	211
1094	234	163	217
1095	237	162	218
1096	236	157	217
1097	233	159	218
1098	232	159	216
1099	231	158	215
1100	228	155	215
1101	226	159	217
1102	228	165	220
1103	228	167	220
1104	225	167	217
1105	220	166	213
1106	219	167	213
1107	227	176	222
1108	233	185	229
1109	226	177	223
1110	218	167	216
1111	222	175	221
1112	225	182	224
1113	221	181	221
1114	225	186	224
1115	229	185	224
1116	226	178	221
1117	0	0	0
1118	0	0	0
1119	0	0	0
1120	255	230	230
1121	254	222	225
1122	254	218	224
1123	253	212	221
1124	252	208	217
1125	253	208	218
1126	255	209	221
1127	252	201	218
1128	255	201	220
1129	255	206	223
1130	251	193	211
1131	248	187	207
1132	254	194	217
1133	255	194	219
1134	255	195	220
1135	245	184	214
1136	242	182	214
1137	246	186	217
1138	251	190	218
1139	245	177	210
1140	247	173	211
1141	255	180	219
1142	251	170	212
1143	248	167	211
1144	249	167	213
1145	247	164	212
1146	248	166	213
1147	250	168	214
1148	250	169	213
1149	248	170	213
1150	248	172	215
1151	253	179	219
1152	255	185	222
1153	255	188	222
1154	255	191	222
1155	255	186	220
1156	249	170	212
1157	252	174	215
1158	255	178	216
1159	255	178	215
1160	255	177	214
1161	248	167	210
1162	250	169	217
1163	251	172	220
1164	255	179	224
1165	251	170	218
1166	250	167	218
1167	252	171	222
1168	251	171	223
1169	254	176	226
1170	255	187	234
1171	255	185	232
1172	253	174	225
1173	243	164	219
1174	240	159	220
1175	239	157	221
1176	238	155	221
1177	242	159	224
1178	233	152	217
1179	226	154	215
1180	235	167	224
1181	239	166	225
1182	230	154	218
1183	228	154	217
1184	231	160	220
1185	232	160	220
1186	231	161	222
1187	230	165	225
1188	231	172	227
1189	226	171	224
1190	220	168	220
1191	216	168	218
1192	219	171	222
1193	232	184	232
1194	225	173	224
1195	213	162	215
1196	223	179	227
1197	231	189	234
1198	230	190	231
1199	223	188	227
1200	225	192	231
1201	225	188	230
1202	222	181	226
1203	0	0	0
1204	0	0	0
1205	0	0	0
1206	251	214	220
1207	249	208	216
1208	247	202	214
1209	248	200	215
1210	248	197	216
1211	250	197	218
1212	251	197	219
1213	252	195	219
1214	253	195	220
1215	247	185	213
1216	240	174	204
1217	248	182	211
1218	252	187	216
1219	250	186	216
1220	249	187	217
1221	243	182	214
1222	239	178	214
1223	240	180	216
1224	244	184	218
1225	242	177	215
1226	245	173	219
1227	245	167	217
1228	240	157	209
1229	241	158	211
1230	242	159	214
1231	245	162	217
1232	247	164	217
1233	252	169	219
1234	252	170	217
1235	250	172	217
1236	250	174	218
1237	253	179	220
1238	255	184	222
1239	255	183	219
1240	255	186	220
1241	248	170	211
1242	239	154	206
1243	245	162	213
1244	247	166	211
1245	244	162	206
1246	244	161	208
1247	245	162	212
1248	245	163	215
1249	246	168	219
1250	252	176	225
1251	250	172	223
1252	249	169	221
1253	251	172	224
1254	251	172	225
1255	255	181	230
1256	255	190	232
1257	250	176	222
1258	244	167	220
1259	239	162	220
1260	234	156	218
1261	234	156	221
1262	232	153	222
1263	232	152	222
1264	224	145	213
1265	226	155	218
1266	235	169	227
1267	228	157	221
1268	219	144	214
1269	218	149	216
1270	220	153	217
1271	222	156	218
1272	221	157	219
1273	222	163	223
1274	222	169	224
1275	215	166	220
1276	211	164	219
1277	211	166	221
1278	213	169	224
1279	212	164	222
1280	205	154	215
1281	213	170	224
1282	224	186	233
1283	229	190	233
1284	228	191	231
1285	220	189	228
1286	222	194	232
1287	220	189	230
1288	216	181	225
1289	0	0	0
1290	0	0	0
1291	0	0	0
1292	255	215	224
1293	251	207	219
1294	247	199	215
1295	248	197	217
1296	251	198	222
1297	252	198	224
1298	252	196	224
1299	252	194	223
1300	252	194	223
1301	245	183	217
1302	242	177	215
1303	254	187	223
1304	252	184	220
1305	245	180	216
1306	246	184	220
1307	242	180	218
1308	238	178	218
1309	235	178	219
1310	237	180	221
1311	234	172	218
1312	240	175	224
1313	238	167	221
1314	240	166	220
1315	245	169	223
1316	246	168	223
1317	250	172	226
1318	247	165	221
1319	255	171	224
1320	252	167	219
1321	251	168	218
1322	253	174	221
1323	255	179	221
1324	255	184	223
1325	255	183	221
1326	255	184	221
1327	246	167	213
1328	243	162	215
1329	250	170	223
1330	252	174	221
1331	250	171	217
1332	253	175	222
1333	254	175	224
1334	250	172	222
1335	250	176	225
1336	255	186	232
1337	252	181	229
1338	247	173	224
1339	253	178	228
1340	251	176	227
1341	251	182	229
1342	250	185	227
1343	239	171	217
1344	242	174	225
1345	239	171	227
1346	233	161	224
1347	234	161	227
1348	230	157	227
1349	225	153	224
1350	230	162	227
1351	243	178	237
1352	234	167	229
1353	219	150	218
1354	219	155	222
1355	218	160	225
1356	222	169	228
1357	221	170	227
1358	217	168	227
1359	218	174	230
1360	216	176	229
1361	213	174	226
1362	215	178	229
1363	218	182	233
1364	211	175	229
1365	199	163	221
1366	203	171	226
1367	220	191	239
1368	222	192	235
1369	229	196	234
1370	230	199	234
1371	222	197	230
1372	220	197	232
1373	218	192	231
1374	0	0	0
1375	0	0	0
1376	0	0	0
1377	0	0	0
1378	255	212	226
1379	248	201	219
1380	244	192	216
1381	247	194	221
1382	249	194	224
1383	250	193	226
1384	249	191	226
1385	247	188	224
1386	243	186	221
1387	233	175	214
1388	232	170	215
1389	243	175	222
1390	240	171	216
1391	235	172	214
1392	237	177	220
1393	236	175	221
1394	232	173	221
1395	228	172	221
1396	230	175	224
1397	234	175	225
1398	238	175	228
1399	239	174	229
1400	242	174	228
1401	246	174	229
1402	246	171	225
1403	243	166	222
1404	241	160	219
1405	244	160	220
1406	243	157	216
1407	249	165	219
1408	252	172	220
1409	253	175	219
1410	255	180	221
1411	251	177	219
1412	252	179	222
1413	246	170	219
1414	243	165	220
1415	250	173	228
1416	252	178	227
1417	254	179	226
1418	255	183	229
1419	255	181	227
1420	251	178	225
1421	255	186	230
1422	255	195	235
1423	251	185	228
1424	248	178	226
1425	253	181	230
1426	249	178	226
1427	245	179	224
1428	245	183	226
1429	240	179	224
1430	241	181	231
1431	232	169	227
1432	225	159	225
1433	224	158	227
1434	219	153	224
1435	224	163	230
1436	231	173	235
1437	230	166	230
1438	220	154	221
1439	213	155	221
1440	213	161	225
1441	219	173	232
1442	222	181	234
1443	218	179	232
1444	215	178	234
1445	215	182	237
1446	216	185	236
1447	216	186	235
1448	218	189	237
1449	215	184	233
1450	207	176	228
1451	203	180	230
1452	206	187	235
1453	214	192	237
1454	0	0	0
1455	227	200	234
1456	228	204	233
1457	216	197	226
1458	214	197	227
1459	219	201	231
1460	223	203	233
1461	0	0	0
1462	0	0	0
1463	252	205	226
1464	252	205	225
1465	243	193	217
1466	248	198	224
1467	253	200	229
1468	249	193	227
1469	249	192	227
1470	251	195	232
1471	246	191	229
1472	237	185	223
1473	220	171	214
1474	229	181	225
1475	244	188	233
1476	240	180	224
1477	235	181	223
1478	238	187	229
1479	237	185	230
1480	234	183	229
1481	233	183	230
1482	236	186	233
1483	242	186	235
1484	244	184	235
1485	243	182	234
1486	242	177	232
1487	246	177	232
1488	244	171	226
1489	240	165	221
1490	241	165	222
1491	239	163	221
1492	244	168	224
1493	255	179	230
1494	254	176	223
1495	255	179	222
1496	253	180	223
1497	247	176	219
1498	253	185	227
1499	247	177	224
1500	249	178	229
1501	255	187	236
1502	249	178	228
1503	251	179	227
1504	255	191	233
1505	255	189	231
1506	253	182	226
1507	255	191	232
1508	255	191	230
1509	248	181	224
1510	252	184	230
1511	255	186	233
1512	250	182	228
1513	247	184	228
1514	244	184	229
1515	238	180	228
1516	241	187	235
1517	228	173	228
1518	229	178	234
1519	224	174	234
1520	221	171	233
1521	230	184	243
1522	227	178	239
1523	224	169	233
1524	221	170	231
1525	211	170	229
1526	216	182	236
1527	228	196	246
1528	218	184	235
1529	210	180	232
1530	210	183	236
1531	216	189	241
1532	220	193	243
1533	221	195	242
1534	220	194	240
1535	213	187	234
1536	211	188	234
1537	211	194	238
1538	210	195	237
1539	0	0	0
1540	0	0	0
1541	0	0	0
1542	226	208	233
1543	214	202	226
1544	213	203	229
1545	218	207	233
1546	0	0	0
1547	0	0	0
1548	0	0	0
1549	0	0	0
1550	243	194	222
1551	246	197	224
1552	251	201	230
1553	249	195	227
1554	245	188	224
1555	249	192	229
1556	250	195	232
1557	244	191	230
1558	235	185	228
1559	227	186	227
1560	234	194	234
1561	243	195	236
1562	240	187	229
1563	236	189	229
1564	237	194	233
1565	234	191	231
1566	231	187	228
1567	229	186	228
1568	234	189	232
1569	242	190	235
1570	244	187	232
1571	239	180	228
1572	239	176	230
1573	243	175	232
1574	242	170	227
1575	243	172	227
1576	242	170	224
1577	243	174	226
1578	248	178	230
1579	255	181	232
1580	253	177	224
1581	251	176	221
1582	250	178	223
1583	251	183	226
1584	255	191	230
1585	253	189	230
1586	253	189	232
1587	249	183	230
1588	244	176	226
1589	254	188	234
1590	255	199	237
1591	255	192	230
1592	252	185	226
1593	252	186	227
1594	252	187	226
1595	252	187	228
1596	253	189	231
1597	250	187	230
1598	247	184	229
1599	245	185	231
1600	243	185	233
1601	244	191	237
1602	246	197	241
1603	242	198	241
1604	241	201	244
1605	231	194	241
1606	227	191	241
1607	226	187	242
1608	223	182	240
1609	228	186	243
1610	0	0	0
1611	220	192	242
1612	225	203	246
1613	225	197	243
1614	215	186	236
1615	209	185	235
1616	207	186	236
1617	212	191	239
1618	216	196	241
1619	216	195	240
1620	215	195	238
1621	215	196	237
1622	215	198	237
1623	215	200	238
1624	0	0	0
1625	0	0	0
1626	0	0	0
1627	0	0	0
1628	0	0	0
1629	0	0	0
1630	0	0	0
1631	0	0	0
1632	0	0	0
1633	0	0	0
1634	0	0	0
1635	0	0	0
1636	248	205	231
1637	255	210	236
1638	250	200	230
1639	244	191	225
1640	250	197	230
1641	255	202	235
1642	252	199	235
1643	246	194	232
1644	238	189	230
1645	233	192	232
1646	236	196	236
1647	242	194	236
1648	238	189	230
1649	233	190	229
1650	230	192	231
1651	226	188	227
1652	226	189	226
1653	224	188	225
1654	235	197	234
1655	244	199	238
1656	238	184	228
1657	232	177	224
1658	246	191	238
1659	254	191	242
1660	247	176	232
1661	247	177	232
1662	242	172	226
1663	244	176	228
1664	248	179	232
1665	254	181	233
1666	250	174	224
1667	246	173	220
1668	255	192	233
1669	255	198	237
1670	255	192	231
1671	250	188	227
1672	248	187	228
1673	243	180	225
1674	252	192	235
1675	255	205	245
1676	254	192	231
1677	245	183	223
1678	252	191	229
1679	255	194	231
1680	254	192	230
1681	253	192	231
1682	248	188	229
1683	242	183	226
1684	248	194	235
1685	252	198	239
1686	248	193	238
1687	249	198	242
1688	245	197	239
1689	245	198	239
1690	238	196	238
1691	224	187	232
1692	225	194	239
1693	223	189	239
1694	220	184	238
1695	0	0	0
1696	0	0	0
1697	0	0	0
1698	226	205	244
1699	223	197	240
1700	219	194	239
1701	0	0	0
1702	0	0	0
1703	213	203	241
1704	212	203	240
1705	0	0	0
1706	0	0	0
1707	0	0	0
1708	0	0	0
1709	0	0	0
1710	0	0	0
1711	0	0	0
1712	0	0	0
1713	0	0	0
1714	0	0	0
1715	0	0	0
1716	0	0	0
1717	0	0	0
1718	0	0	0
1719	0	0	0
1720	0	0	0
1721	0	0	0
1722	0	0	0
1723	250	204	230
1724	244	194	224
1725	247	198	228
1726	251	204	234
1727	251	201	233
1728	248	198	232
1729	243	194	229
1730	237	189	226
1731	235	192	230
1732	239	197	237
1733	241	196	237
1734	236	190	231
1735	233	192	231
1736	232	194	234
1737	231	196	233
1738	229	196	229
1739	228	198	228
1740	238	206	237
1741	237	195	233
1742	230	181	227
1743	235	189	232
1744	247	201	240
1745	246	189	235
1746	241	175	228
1747	242	176	230
1748	239	171	227
1749	239	172	228
1750	243	175	230
1751	247	175	230
1752	244	170	223
1753	252	186	230
1754	255	203	238
1755	255	196	232
1756	252	191	228
1757	247	188	227
1758	246	188	229
1759	252	197	235
1760	255	207	242
1761	254	196	234
1762	245	184	227
1763	250	192	232
1764	255	200	235
1765	255	198	233
1766	253	196	233
1767	250	193	231
1768	245	188	229
1769	247	197	234
1770	254	207	242
1771	254	204	240
1772	248	198	237
1773	241	194	233
1774	238	193	231
1775	239	194	233
1776	233	193	233
1777	226	194	234
1778	227	200	241
1779	223	195	240
1780	0	0	0
1781	0	0	0
1782	0	0	0
1783	0	0	0
1784	227	206	244
1785	227	205	244
1786	222	201	239
1787	221	208	241
1788	0	0	0
1789	0	0	0
1790	0	0	0
1791	0	0	0
1792	0	0	0
1793	0	0	0
1794	0	0	0
1795	0	0	0
1796	0	0	0
1797	0	0	0
1798	0	0	0
1799	0	0	0
1800	0	0	0
1801	0	0	0
1802	0	0	0
1803	0	0	0
1804	0	0	0
1805	0	0	0
1806	0	0	0
1807	0	0	0
1808	0	0	0
1809	0	0	0
1810	246	200	229
1811	250	205	233
1812	251	208	235
1813	246	203	232
1814	244	201	232
1815	242	199	231
1816	241	197	230
1817	244	202	236
1818	242	199	239
1819	238	195	236
1820	237	195	235
1821	240	200	238
1822	233	192	234
1823	231	193	233
1824	233	200	232
1825	231	200	229
1826	234	204	234
1827	228	190	227
1828	228	189	230
1829	232	196	235
1830	236	199	235
1831	235	187	229
1832	237	181	230
1833	243	184	236
1834	238	176	232
1835	237	177	233
1836	243	183	237
1837	247	183	236
1838	250	186	234
1839	255	203	242
1840	254	197	233
1841	247	189	226
1842	247	191	229
1843	245	190	229
1844	247	194	233
1845	255	204	239
1846	255	206	237
1847	248	194	228
1848	248	193	232
1849	255	203	241
1850	254	200	236
1851	249	195	231
1852	250	197	233
1853	247	194	232
1854	248	198	235
1855	254	208	243
1856	249	202	238
1857	246	197	234
1858	242	196	233
1859	230	190	227
1860	235	201	234
1861	236	202	236
1862	230	196	234
1863	227	199	237
1864	227	204	241
1865	0	0	0
1866	0	0	0
1867	0	0	0
1868	0	0	0
1869	0	0	0
1870	0	0	0
1871	227	210	242
1872	221	205	235
1873	0	0	0
1874	0	0	0
1875	0	0	0
1876	0	0	0
1877	0	0	0
1878	0	0	0
1879	0	0	0
1880	0	0	0
1881	0	0	0
1882	0	0	0
1883	0	0	0
1884	0	0	0
1885	0	0	0
1886	0	0	0
1887	0	0	0
1888	0	0	0
1889	0	0	0
1890	0	0	0
1891	0	0	0
1892	0	0	0
1893	0	0	0
1894	0	0	0
1895	0	0	0
1896	0	0	0
1897	250	210	236
1898	249	210	237
1899	241	204	232
1900	241	204	233
1901	243	204	235
1902	244	203	236
1903	244	202	237
1904	240	198	238
1905	238	198	239
1906	238	199	238
1907	237	195	236
1908	231	187	231
1909	0	0	0
1910	237	203	235
1911	233	202	232
1912	235	205	234
1913	233	201	233
1914	232	200	234
1915	234	202	237
1916	239	205	240
1917	238	197	237
1918	239	191	237
1919	241	187	239
1920	236	180	236
1921	238	185	240
1922	242	190	242
1923	246	193	240
1924	248	195	236
1925	246	192	230
1926	241	188	225
1927	240	188	226
1928	241	190	229
1929	244	195	233
1930	247	199	235
1931	248	201	234
1932	249	202	230
1933	245	198	227
1934	245	197	231
1935	247	198	233
1936	245	195	231
1937	245	196	232
1938	245	198	233
1939	245	200	235
1940	247	204	238
1941	244	199	236
1942	240	194	233
1943	241	196	235
1944	236	195	233
1945	232	200	234
1946	235	210	240
1947	230	204	236
1948	224	198	233
1949	223	201	236
1950	0	0	0
1951	0	0	0
1952	0	0	0
1953	0	0	0
1954	0	0	0
1955	0	0	0
1956	0	0	0
1957	0	0	0
1958	0	0	0
1959	0	0	0
1960	0	0	0
1961	0	0	0
1962	0	0	0
1963	0	0	0
1964	0	0	0
1965	0	0	0
1966	0	0	0
1967	0	0	0
1968	0	0	0
1969	0	0	0
1970	0	0	0
1971	0	0	0
1972	0	0	0
1973	0	0	0
1974	0	0	0
1975	0	0	0
1976	0	0	0
1977	0	0	0
1978	0	0	0
1979	0	0	0
1980	0	0	0
1981	0	0	0
1982	0	0	0
1983	0	0	0
1984	243	208	234
1985	0	0	0
1986	245	216	240
1987	250	218	243
1988	243	205	236
1989	240	203	236
1990	240	204	239
1991	239	205	241
1992	237	200	238
1993	237	196	236
1994	0	0	0
1995	0	0	0
1996	0	0	0
1997	0	0	0
1998	240	209	236
1999	0	0	0
2000	240	209	238
2001	248	215	245
2002	243	203	239
2003	236	192	234
2004	239	195	239
2005	238	189	239
2006	239	190	242
2007	243	196	246
2008	243	198	244
2009	0	0	0
2010	0	0	0
2011	0	0	0
2012	0	0	0
2013	0	0	0
2014	244	206	239
2015	251	212	243
2016	246	205	236
2017	246	205	234
2018	247	208	232
2019	242	204	229
2020	241	202	231
2021	240	201	233
2022	244	205	236
2023	247	208	239
2024	243	204	236
2025	241	205	236
2026	243	209	239
2027	242	205	238
2028	239	201	237
2029	238	202	238
2030	238	208	238
2031	238	214	241
2032	233	213	240
2033	0	0	0
2034	0	0	0
2035	0	0	0
2036	0	0	0
2037	0	0	0
2038	0	0	0
2039	0	0	0
2040	0	0	0
2041	0	0	0
2042	0	0	0
2043	0	0	0
2044	0	0	0
2045	0	0	0
2046	0	0	0
2047	0	0	0
2048	0	0	0
2049	0	0	0
2050	0	0	0
2051	0	0	0
2052	0	0	0
2053	0	0	0
2054	0	0	0
2055	0	0	0
2056	0	0	0
2057	0	0	0
2058	0	0	0
2059	0	0	0
2060	0	0	0
2061	0	0	0
2062	0	0	0
2063	0	0	0
2064	0	0	0
2065	0	0	0
2066	0	0	0
2067	0	0	0
2068	0	0	0
2069	0	0	0
2070	0	0	0
2071	0	0	0
2072	0	0	0
2073	243	215	235
2074	236	203	230
2075	237	205	233
2076	238	206	236
2077	234	202	234
2078	0	0	0
2079	0	0	0
2080	0	0	0
2081	0	0	0
2082	0	0	0
2083	0	0	0
2084	0	0	0
2085	0	0	0
2086	0	0	0
2087	242	206	237
2088	235	193	230
2089	233	193	231
2090	235	195	236
2091	235	195	238
2092	236	195	241
2093	242	202	245
2094	0	0	0
2095	0	0	0
2096	0	0	0
2097	0	0	0
2098	0	0	0
2099	0	0	0
2100	0	0	0
2101	247	215	241
2102	243	208	235
2103	246	212	236
2104	247	215	236
2105	242	211	233
2106	239	208	235
2107	240	210	238
2108	242	213	240
2109	241	210	238
2110	237	206	236
2111	236	208	237
2112	238	211	238
2113	236	208	236
2114	0	0	0
2115	0	0	0
2116	239	217	239
2117	235	216	237
2118	0	0	0
2119	0	0	0
2120	0	0	0
2121	0	0	0
2122	0	0	0
2123	0	0	0
2124	0	0	0
2125	0	0	0
2126	0	0	0
2127	0	0	0
2128	0	0	0
2129	0	0	0
2130	0	0	0
2131	0	0	0
2132	0	0	0
2133	0	0	0
2134	0	0	0
2135	0	0	0
2136	0	0	0
2137	0	0	0
2138	0	0	0
2139	0	0	0
2140	0	0	0
2141	0	0	0
2142	0	0	0
2143	0	0	0
2144	0	0	0
2145	0	0	0
2146	0	0	0
2147	0	0	0
2148	0	0	0
2149	0	0	0
2150	0	0	0
2151	0	0	0
2152	0	0	0
2153	0	0	0
2154	0	0	0
2155	0	0	0
2156	0	0	0
2157	0	0	0
2158	0	0	0
2159	0	0	0
2160	0	0	0
2161	0	0	0
2162	0	0	0
2163	0	0	0
2164	0	0	0
2165	0	0	0
2166	0	0	0
2167	0	0	0
2168	0	0	0
2169	0	0	0
2170	0	0	0
2171	0	0	0
2172	0	0	0
2173	0	0	0
2174	0	0	0
2175	0	0	0
2176	0	0	0
2177	0	0	0
2178	0	0	0
2179	0	0	0
2180	0	0	0
2181	0	0	0
2182	0	0	0
2183	0	0	0
2184	0	0	0
2185	0	0	0
2186	0	0	0
2187	0	0	0
2188	246	218	239
2189	251	224	242
2190	244	215	235
2191	0	0	0
2192	0	0	0
2193	0	0	0
2194	0	0	0
2195	0	0	0
2196	0	0	0
2197	0	0	0
2198	0	0	0
2199	0	0	0
2200	0	0	0
2201	0	0	0
2202	0	0	0
2203	0	0	0
2204	0	0	0
2205	0	0	0
2206	0	0	0
2207	0	0	0
2208	0	0	0
2209	0	0	0
2210	0	0	0
2211	0	0	0
2212	0	0	0
2213	0	0	0
2214	0	0	0
2215	0	0	0
2216	0	0	0
2217	0	0	0
2218	0	0	0
2219	0	0	0
2220	0	0	0
2221	0	0	0
2222	0	0	0
2223	0	0	0
2224	0	0	0
2225	0	0	0
2226	0	0	0
2227	0	0	0
2228	0	0	0
2229	0	0	0
2230	0	0	0
2231	0	0	0
2232	0	0	0
2233	0	0	0
2234	0	0	0
2235	0	0	0
2236	0	0	0
2237	0	0	0
2238	0	0	0
2239	0	0	0
2240	0	0	0
2241	0	0	0
2242	0	0	0
2243	0	0	0
2244	0	0	0
2245	0	0	0
2246	0	0	0
2247	0	0	0
2248	0	0	0
2249	0	0	0
2250	0	0	0
2251	0	0	0
2252	0	0	0
2253	0	0	0
2254	0	0	0
2255	0	0	0
2256	0	0	0
2257	0	0	0
2258	0	0	0
2259	0	0	0
2260	0	0	0
2261	0	0	0
2262	0	0	0
2263	0	0	0
2264	0	0	0
2265	0	0	0
2266	0	0	0
2267	0	0	0
2268	0	0	0
2269	0	0	0
2270	0	0	0
2271	0	0	0
2272	0	0	0
2273	0	0	0
2274	0	0	0
2275	245	221	239
2276	0	0	0
2277	0	0	0
2278	0	0	0
2279	0	0	0
2280	0	0	0
2281	0	0	0
2282	0	0	0
2283	0	0	0
2284	0	0	0
2285	0	0	0
2286	0	0	0
2287	0	0	0
2288	0	0	0
2289	0	0	0
2290	0	0	0
2291	0	0	0
2292	0	0	0
2293	0	0	0
2294	0	0	0
2295	0	0	0
2296	0	0	0
2297	0	0	0
2298	0	0	0
2299	0	0	0
2300	0	0	0
2301	0	0	0
2302	0	0	0
2303	0	0	0
2304	0	0	0
2305	0	0	0
2306	0	0	0
2307	0	0	0
2308	0	0	0
2309	0	0	0
2310	0	0	0
2311	0	0	0
2312	0	0	0
2313	0	0	0
2314	0	0	0
2315	0	0	0
2316	0	0	0
2317	0	0	0
2318	0	0	0
2319	0	0	0
2320	0	0	0
2321	0	0	0
2322	0	0	0
