 	R	G	B
1	0	0	0
2	0	0	0
3	0	0	0
4	0	0	0
5	0	0	0
6	0	0	0
7	0	0	0
8	0	0	0
9	0	0	0
10	0	0	0
11	0	0	0
12	0	0	0
13	0	0	0
14	0	0	0
15	0	0	0
16	0	0	0
17	0	0	0
18	0	0	0
19	0	0	0
20	0	0	0
21	0	0	0
22	0	0	0
23	0	0	0
24	0	0	0
25	0	0	0
26	0	0	0
27	0	0	0
28	0	0	0
29	0	0	0
30	0	0	0
31	0	0	0
32	0	0	0
33	0	0	0
34	0	0	0
35	0	0	0
36	0	0	0
37	0	0	0
38	0	0	0
39	0	0	0
40	0	0	0
41	0	0	0
42	0	0	0
43	0	0	0
44	0	0	0
45	255	221	231
46	0	0	0
47	0	0	0
48	0	0	0
49	0	0	0
50	0	0	0
51	0	0	0
52	0	0	0
53	0	0	0
54	0	0	0
55	0	0	0
56	0	0	0
57	0	0	0
58	0	0	0
59	0	0	0
60	0	0	0
61	0	0	0
62	0	0	0
63	0	0	0
64	0	0	0
65	0	0	0
66	0	0	0
67	0	0	0
68	0	0	0
69	0	0	0
70	0	0	0
71	0	0	0
72	0	0	0
73	0	0	0
74	0	0	0
75	0	0	0
76	0	0	0
77	0	0	0
78	0	0	0
79	0	0	0
80	0	0	0
81	0	0	0
82	0	0	0
83	0	0	0
84	0	0	0
85	0	0	0
86	0	0	0
87	0	0	0
88	0	0	0
89	0	0	0
90	0	0	0
91	0	0	0
92	0	0	0
93	0	0	0
94	0	0	0
95	255	238	239
96	255	225	232
97	255	220	232
98	252	208	226
99	0	0	0
100	0	0	0
101	0	0	0
102	0	0	0
103	0	0	0
104	0	0	0
105	0	0	0
106	0	0	0
107	0	0	0
108	0	0	0
109	0	0	0
110	0	0	0
111	0	0	0
112	0	0	0
113	0	0	0
114	0	0	0
115	0	0	0
116	0	0	0
117	0	0	0
118	0	0	0
119	0	0	0
120	0	0	0
121	0	0	0
122	0	0	0
123	0	0	0
124	0	0	0
125	0	0	0
126	0	0	0
127	0	0	0
128	0	0	0
129	0	0	0
130	0	0	0
131	0	0	0
132	0	0	0
133	0	0	0
134	0	0	0
135	0	0	0
136	0	0	0
137	0	0	0
138	0	0	0
139	0	0	0
140	0	0	0
141	0	0	0
142	0	0	0
143	0	0	0
144	0	0	0
145	0	0	0
146	255	245	243
147	255	233	237
148	252	214	227
149	253	209	227
150	246	195	220
151	0	0	0
152	0	0	0
153	0	0	0
154	253	203	232
155	0	0	0
156	0	0	0
157	0	0	0
158	0	0	0
159	0	0	0
160	0	0	0
161	0	0	0
162	0	0	0
163	0	0	0
164	0	0	0
165	0	0	0
166	0	0	0
167	0	0	0
168	0	0	0
169	0	0	0
170	0	0	0
171	0	0	0
172	0	0	0
173	0	0	0
174	0	0	0
175	0	0	0
176	0	0	0
177	0	0	0
178	0	0	0
179	0	0	0
180	0	0	0
181	0	0	0
182	0	0	0
183	0	0	0
184	0	0	0
185	0	0	0
186	0	0	0
187	0	0	0
188	0	0	0
189	0	0	0
190	0	0	0
191	0	0	0
192	0	0	0
193	0	0	0
194	0	0	0
195	0	0	0
196	0	0	0
197	0	0	0
198	255	239	239
199	255	223	231
200	249	205	223
201	249	198	224
202	242	185	219
203	254	200	232
204	255	211	237
205	255	212	236
206	255	215	238
207	253	203	230
208	0	0	0
209	0	0	0
210	0	0	0
211	0	0	0
212	0	0	0
213	0	0	0
214	0	0	0
215	0	0	0
216	0	0	0
217	0	0	0
218	0	0	0
219	0	0	0
220	0	0	0
221	0	0	0
222	0	0	0
223	0	0	0
224	0	0	0
225	0	0	0
226	0	0	0
227	0	0	0
228	0	0	0
229	0	0	0
230	0	0	0
231	0	0	0
232	0	0	0
233	0	0	0
234	0	0	0
235	0	0	0
236	0	0	0
237	0	0	0
238	0	0	0
239	0	0	0
240	0	0	0
241	0	0	0
242	0	0	0
243	0	0	0
244	0	0	0
245	0	0	0
246	0	0	0
247	0	0	0
248	0	0	0
249	0	0	0
250	255	232	235
251	255	216	229
252	246	196	220
253	246	190	221
254	249	190	226
255	255	204	238
256	253	196	230
257	252	197	228
258	255	203	232
259	245	191	223
260	0	0	0
261	0	0	0
262	0	0	0
263	0	0	0
264	0	0	0
265	0	0	0
266	0	0	0
267	0	0	0
268	0	0	0
269	0	0	0
270	0	0	0
271	0	0	0
272	0	0	0
273	0	0	0
274	0	0	0
275	0	0	0
276	0	0	0
277	0	0	0
278	0	0	0
279	0	0	0
280	0	0	0
281	0	0	0
282	0	0	0
283	0	0	0
284	0	0	0
285	0	0	0
286	0	0	0
287	0	0	0
288	0	0	0
289	0	0	0
290	0	0	0
291	0	0	0
292	0	0	0
293	0	0	0
294	0	0	0
295	0	0	0
296	0	0	0
297	0	0	0
298	0	0	0
299	0	0	0
300	0	0	0
301	255	238	236
302	255	226	234
303	254	209	228
304	245	190	219
305	252	194	226
306	252	192	227
307	249	188	226
308	243	180	223
309	247	187	228
310	250	193	231
311	252	201	234
312	0	0	0
313	0	0	0
314	0	0	0
315	0	0	0
316	0	0	0
317	0	0	0
318	0	0	0
319	0	0	0
320	0	0	0
321	0	0	0
322	0	0	0
323	0	0	0
324	0	0	0
325	0	0	0
326	0	0	0
327	0	0	0
328	0	0	0
329	0	0	0
330	0	0	0
331	0	0	0
332	0	0	0
333	0	0	0
334	0	0	0
335	0	0	0
336	0	0	0
337	0	0	0
338	0	0	0
339	0	0	0
340	0	0	0
341	0	0	0
342	0	0	0
343	0	0	0
344	0	0	0
345	0	0	0
346	0	0	0
347	0	0	0
348	0	0	0
349	0	0	0
350	0	0	0
351	0	0	0
352	255	245	239
353	255	232	234
354	249	205	222
355	243	188	216
356	250	192	223
357	255	195	229
358	246	181	221
359	241	176	220
360	253	193	234
361	255	200	239
362	251	195	233
363	0	0	0
364	0	0	0
365	0	0	0
366	0	0	0
367	0	0	0
368	0	0	0
369	0	0	0
370	0	0	0
371	0	0	0
372	0	0	0
373	0	0	0
374	0	0	0
375	0	0	0
376	0	0	0
377	0	0	0
378	0	0	0
379	0	0	0
380	0	0	0
381	0	0	0
382	0	0	0
383	0	0	0
384	0	0	0
385	0	0	0
386	0	0	0
387	0	0	0
388	0	0	0
389	0	0	0
390	0	0	0
391	0	0	0
392	0	0	0
393	0	0	0
394	0	0	0
395	0	0	0
396	0	0	0
397	0	0	0
398	0	0	0
399	0	0	0
400	0	0	0
401	0	0	0
402	0	0	0
403	255	246	240
404	255	240	237
405	253	213	223
406	240	186	212
407	249	192	222
408	253	193	226
409	246	182	221
410	237	168	216
411	249	186	229
412	255	201	237
413	252	197	232
414	0	0	0
415	0	0	0
416	0	0	0
417	0	0	0
418	0	0	0
419	0	0	0
420	0	0	0
421	0	0	0
422	0	0	0
423	0	0	0
424	0	0	0
425	0	0	0
426	0	0	0
427	0	0	0
428	0	0	0
429	0	0	0
430	0	0	0
431	0	0	0
432	0	0	0
433	0	0	0
434	0	0	0
435	0	0	0
436	0	0	0
437	0	0	0
438	0	0	0
439	0	0	0
440	0	0	0
441	0	0	0
442	0	0	0
443	0	0	0
444	0	0	0
445	0	0	0
446	0	0	0
447	0	0	0
448	0	0	0
449	0	0	0
450	0	0	0
451	0	0	0
452	0	0	0
453	0	0	0
454	255	251	242
455	255	243	238
456	254	216	222
457	241	190	209
458	245	188	216
459	251	192	224
460	249	189	224
461	241	176	218
462	248	186	229
463	255	205	243
464	254	198	232
465	245	192	225
466	250	202	232
467	0	0	0
468	0	0	0
469	0	0	0
470	0	0	0
471	0	0	0
472	0	0	0
473	0	0	0
474	0	0	0
475	0	0	0
476	0	0	0
477	0	0	0
478	0	0	0
479	0	0	0
480	0	0	0
481	0	0	0
482	0	0	0
483	0	0	0
484	0	0	0
485	0	0	0
486	0	0	0
487	0	0	0
488	0	0	0
489	0	0	0
490	0	0	0
491	0	0	0
492	0	0	0
493	0	0	0
494	0	0	0
495	0	0	0
496	0	0	0
497	0	0	0
498	0	0	0
499	0	0	0
500	0	0	0
501	0	0	0
502	0	0	0
503	0	0	0
504	0	0	0
505	0	0	0
506	255	246	238
507	255	220	224
508	243	194	210
509	250	196	217
510	252	193	221
511	253	192	225
512	251	188	227
513	255	198	235
514	255	207	242
515	255	203	238
516	252	196	230
517	255	206	234
518	255	216	240
519	255	217	238
520	0	0	0
521	0	0	0
522	0	0	0
523	0	0	0
524	0	0	0
525	0	0	0
526	0	0	0
527	0	0	0
528	0	0	0
529	0	0	0
530	0	0	0
531	0	0	0
532	0	0	0
533	0	0	0
534	0	0	0
535	0	0	0
536	0	0	0
537	0	0	0
538	0	0	0
539	0	0	0
540	0	0	0
541	0	0	0
542	0	0	0
543	0	0	0
544	0	0	0
545	0	0	0
546	0	0	0
547	0	0	0
548	0	0	0
549	0	0	0
550	0	0	0
551	0	0	0
552	0	0	0
553	0	0	0
554	0	0	0
555	0	0	0
556	0	0	0
557	0	0	0
558	255	232	230
559	250	206	217
560	245	189	212
561	252	191	219
562	250	184	218
563	249	182	220
564	250	184	226
565	255	192	233
566	255	199	235
567	254	194	230
568	252	194	229
569	255	205	235
570	255	210	235
571	250	209	232
572	251	217	235
573	0	0	0
574	0	0	0
575	0	0	0
576	0	0	0
577	0	0	0
578	0	0	0
579	0	0	0
580	0	0	0
581	0	0	0
582	0	0	0
583	0	0	0
584	0	0	0
585	0	0	0
586	0	0	0
587	0	0	0
588	0	0	0
589	0	0	0
590	0	0	0
591	0	0	0
592	0	0	0
593	0	0	0
594	0	0	0
595	0	0	0
596	0	0	0
597	0	0	0
598	0	0	0
599	0	0	0
600	0	0	0
601	0	0	0
602	0	0	0
603	0	0	0
604	0	0	0
605	0	0	0
606	0	0	0
607	0	0	0
608	0	0	0
609	255	231	230
610	255	218	224
611	253	203	219
612	248	186	216
613	253	186	223
614	249	178	220
615	253	182	225
616	253	182	228
617	255	189	232
618	255	195	232
619	255	197	232
620	255	197	232
621	255	202	234
622	253	206	233
623	252	212	234
624	251	219	236
625	0	0	0
626	0	0	0
627	0	0	0
628	0	0	0
629	0	0	0
630	0	0	0
631	0	0	0
632	0	0	0
633	0	0	0
634	0	0	0
635	0	0	0
636	0	0	0
637	0	0	0
638	0	0	0
639	0	0	0
640	0	0	0
641	0	0	0
642	0	0	0
643	0	0	0
644	0	0	0
645	0	0	0
646	0	0	0
647	0	0	0
648	0	0	0
649	0	0	0
650	0	0	0
651	0	0	0
652	0	0	0
653	0	0	0
654	0	0	0
655	0	0	0
656	0	0	0
657	0	0	0
658	0	0	0
659	0	0	0
660	255	238	235
661	255	225	229
662	254	205	220
663	250	190	216
664	248	180	217
665	251	178	223
666	248	172	220
667	251	175	225
668	253	179	228
669	255	186	231
670	255	190	230
671	255	192	230
672	248	186	226
673	246	190	226
674	255	212	238
675	255	218	238
676	252	223	237
677	0	0	0
678	0	0	0
679	0	0	0
680	0	0	0
681	0	0	0
682	0	0	0
683	0	0	0
684	0	0	0
685	0	0	0
686	0	0	0
687	0	0	0
688	0	0	0
689	0	0	0
690	0	0	0
691	0	0	0
692	0	0	0
693	0	0	0
694	0	0	0
695	0	0	0
696	0	0	0
697	0	0	0
698	0	0	0
699	0	0	0
700	0	0	0
701	0	0	0
702	0	0	0
703	0	0	0
704	0	0	0
705	0	0	0
706	0	0	0
707	0	0	0
708	0	0	0
709	0	0	0
710	0	0	0
711	255	247	239
712	255	233	233
713	255	217	229
714	255	197	222
715	252	186	220
716	248	174	219
717	247	169	220
718	243	162	218
719	248	170	224
720	251	175	226
721	255	183	230
722	255	187	231
723	250	183	227
724	242	176	222
725	251	197	233
726	255	218	242
727	255	221	239
728	0	0	0
729	0	0	0
730	0	0	0
731	0	0	0
732	0	0	0
733	0	0	0
734	0	0	0
735	0	0	0
736	0	0	0
737	0	0	0
738	0	0	0
739	0	0	0
740	0	0	0
741	0	0	0
742	0	0	0
743	0	0	0
744	0	0	0
745	0	0	0
746	0	0	0
747	0	0	0
748	0	0	0
749	0	0	0
750	0	0	0
751	0	0	0
752	0	0	0
753	0	0	0
754	0	0	0
755	0	0	0
756	0	0	0
757	0	0	0
758	0	0	0
759	0	0	0
760	0	0	0
761	0	0	0
762	255	251	240
763	255	241	237
764	248	197	213
765	244	181	210
766	247	178	215
767	243	165	212
768	249	172	221
769	244	165	219
770	249	172	227
771	255	181	233
772	255	180	231
773	255	188	237
774	246	170	223
775	238	164	218
776	245	183	228
777	255	203	238
778	255	219	242
779	0	0	0
780	0	0	0
781	0	0	0
782	0	0	0
783	0	0	0
784	0	0	0
785	0	0	0
786	0	0	0
787	0	0	0
788	0	0	0
789	0	0	0
790	0	0	0
791	0	0	0
792	0	0	0
793	0	0	0
794	0	0	0
795	0	0	0
796	0	0	0
797	0	0	0
798	0	0	0
799	0	0	0
800	0	0	0
801	0	0	0
802	0	0	0
803	0	0	0
804	0	0	0
805	0	0	0
806	0	0	0
807	0	0	0
808	0	0	0
809	0	0	0
810	0	0	0
811	0	0	0
812	0	0	0
813	255	250	242
814	255	248	242
815	254	207	219
816	232	164	196
817	237	162	203
818	238	157	207
819	245	165	216
820	250	170	223
821	251	174	228
822	255	181	234
823	255	181	234
824	255	179	230
825	246	166	222
826	231	149	213
827	0	0	0
828	0	0	0
829	251	202	235
830	0	0	0
831	0	0	0
832	0	0	0
833	0	0	0
834	0	0	0
835	0	0	0
836	0	0	0
837	0	0	0
838	0	0	0
839	0	0	0
840	0	0	0
841	0	0	0
842	0	0	0
843	0	0	0
844	0	0	0
845	0	0	0
846	0	0	0
847	0	0	0
848	0	0	0
849	0	0	0
850	0	0	0
851	0	0	0
852	0	0	0
853	0	0	0
854	0	0	0
855	0	0	0
856	0	0	0
857	0	0	0
858	0	0	0
859	0	0	0
860	0	0	0
861	0	0	0
862	0	0	0
863	0	0	0
864	255	246	239
865	255	247	243
866	255	208	221
867	232	164	197
868	241	168	207
869	244	165	213
870	245	163	217
871	251	169	225
872	252	170	226
873	253	174	229
874	255	183	236
875	255	181	234
876	251	175	228
877	241	162	220
878	236	159	222
879	0	0	0
880	0	0	0
881	0	0	0
882	0	0	0
883	0	0	0
884	0	0	0
885	0	0	0
886	0	0	0
887	0	0	0
888	0	0	0
889	0	0	0
890	0	0	0
891	0	0	0
892	0	0	0
893	0	0	0
894	0	0	0
895	0	0	0
896	0	0	0
897	0	0	0
898	0	0	0
899	0	0	0
900	0	0	0
901	0	0	0
902	0	0	0
903	0	0	0
904	0	0	0
905	0	0	0
906	0	0	0
907	0	0	0
908	0	0	0
909	0	0	0
910	0	0	0
911	0	0	0
912	0	0	0
913	0	0	0
914	0	0	0
915	255	248	239
916	255	242	237
917	253	204	216
918	235	166	200
919	243	170	210
920	251	172	220
921	250	170	224
922	250	166	227
923	254	170	233
924	252	169	230
925	255	177	234
926	255	186	238
927	253	177	230
928	247	170	225
929	245	170	226
930	0	0	0
931	0	0	0
932	0	0	0
933	0	0	0
934	0	0	0
935	0	0	0
936	0	0	0
937	0	0	0
938	0	0	0
939	0	0	0
940	0	0	0
941	0	0	0
942	0	0	0
943	0	0	0
944	0	0	0
945	0	0	0
946	0	0	0
947	0	0	0
948	0	0	0
949	0	0	0
950	0	0	0
951	0	0	0
952	0	0	0
953	0	0	0
954	0	0	0
955	0	0	0
956	0	0	0
957	0	0	0
958	0	0	0
959	0	0	0
960	0	0	0
961	0	0	0
962	0	0	0
963	0	0	0
964	0	0	0
965	0	0	0
966	255	243	235
967	255	239	236
968	255	207	217
969	236	169	197
970	238	161	202
971	245	164	213
972	254	173	225
973	253	169	227
974	255	172	232
975	255	174	236
976	253	168	230
977	255	176	234
978	255	181	234
979	250	171	226
980	247	171	226
981	0	0	0
982	0	0	0
983	0	0	0
984	0	0	0
985	0	0	0
986	0	0	0
987	0	0	0
988	0	0	0
989	0	0	0
990	0	0	0
991	0	0	0
992	0	0	0
993	0	0	0
994	0	0	0
995	0	0	0
996	0	0	0
997	0	0	0
998	0	0	0
999	0	0	0
1000	0	0	0
1001	0	0	0
1002	0	0	0
1003	0	0	0
1004	0	0	0
1005	0	0	0
1006	0	0	0
1007	0	0	0
1008	0	0	0
1009	0	0	0
1010	0	0	0
1011	0	0	0
1012	0	0	0
1013	0	0	0
1014	0	0	0
1015	0	0	0
1016	0	0	0
1017	255	241	235
1018	255	235	233
1019	254	203	216
1020	240	173	201
1021	240	164	201
1022	239	154	204
1023	250	166	218
1024	255	174	228
1025	255	176	232
1026	255	176	232
1027	255	172	229
1028	252	167	227
1029	253	171	229
1030	254	175	230
1031	247	171	225
1032	0	0	0
1033	0	0	0
1034	0	0	0
1035	0	0	0
1036	0	0	0
1037	0	0	0
1038	0	0	0
1039	0	0	0
1040	0	0	0
1041	0	0	0
1042	0	0	0
1043	0	0	0
1044	0	0	0
1045	0	0	0
1046	0	0	0
1047	0	0	0
1048	0	0	0
1049	0	0	0
1050	0	0	0
1051	0	0	0
1052	0	0	0
1053	0	0	0
1054	0	0	0
1055	0	0	0
1056	0	0	0
1057	0	0	0
1058	0	0	0
1059	0	0	0
1060	0	0	0
1061	0	0	0
1062	0	0	0
1063	0	0	0
1064	0	0	0
1065	0	0	0
1066	0	0	0
1067	0	0	0
1068	255	240	232
1069	255	236	234
1070	253	199	212
1071	238	167	196
1072	244	167	205
1073	242	157	205
1074	251	166	216
1075	255	174	227
1076	253	165	224
1077	255	166	226
1078	250	160	220
1079	247	156	217
1080	251	165	226
1081	251	168	227
1082	251	175	229
1083	243	170	222
1084	0	0	0
1085	0	0	0
1086	0	0	0
1087	0	0	0
1088	0	0	0
1089	0	0	0
1090	0	0	0
1091	0	0	0
1092	0	0	0
1093	0	0	0
1094	0	0	0
1095	0	0	0
1096	0	0	0
1097	0	0	0
1098	0	0	0
1099	0	0	0
1100	0	0	0
1101	0	0	0
1102	0	0	0
1103	0	0	0
1104	0	0	0
1105	0	0	0
1106	0	0	0
1107	0	0	0
1108	0	0	0
1109	0	0	0
1110	0	0	0
1111	0	0	0
1112	0	0	0
1113	0	0	0
1114	0	0	0
1115	0	0	0
1116	0	0	0
1117	0	0	0
1118	0	0	0
1119	255	246	234
1120	255	237	230
1121	255	200	210
1122	237	164	191
1123	243	164	200
1124	249	164	211
1125	255	170	221
1126	255	175	227
1127	253	164	221
1128	247	153	217
1129	247	152	219
1130	241	145	215
1131	246	154	221
1132	249	163	227
1133	251	170	230
1134	250	176	229
1135	255	192	235
1136	0	0	0
1137	0	0	0
1138	0	0	0
1139	0	0	0
1140	0	0	0
1141	0	0	0
1142	0	0	0
1143	0	0	0
1144	0	0	0
1145	0	0	0
1146	0	0	0
1147	0	0	0
1148	0	0	0
1149	0	0	0
1150	0	0	0
1151	0	0	0
1152	0	0	0
1153	0	0	0
1154	0	0	0
1155	0	0	0
1156	0	0	0
1157	0	0	0
1158	0	0	0
1159	0	0	0
1160	0	0	0
1161	0	0	0
1162	0	0	0
1163	0	0	0
1164	0	0	0
1165	0	0	0
1166	0	0	0
1167	0	0	0
1168	0	0	0
1169	0	0	0
1170	255	232	225
1171	255	224	224
1172	249	189	205
1173	231	153	186
1174	244	162	200
1175	249	161	208
1176	245	153	209
1177	249	157	217
1178	255	175	229
1179	254	162	222
1180	252	158	223
1181	252	157	225
1182	243	148	219
1183	246	156	224
1184	255	175	236
1185	255	181	237
1186	250	179	229
1187	255	196	236
1188	0	0	0
1189	0	0	0
1190	0	0	0
1191	0	0	0
1192	0	0	0
1193	0	0	0
1194	0	0	0
1195	0	0	0
1196	0	0	0
1197	0	0	0
1198	0	0	0
1199	0	0	0
1200	0	0	0
1201	0	0	0
1202	0	0	0
1203	0	0	0
1204	0	0	0
1205	0	0	0
1206	0	0	0
1207	0	0	0
1208	0	0	0
1209	0	0	0
1210	0	0	0
1211	0	0	0
1212	0	0	0
1213	0	0	0
1214	0	0	0
1215	0	0	0
1216	0	0	0
1217	0	0	0
1218	0	0	0
1219	255	244	233
1220	255	240	229
1221	255	226	221
1222	255	212	216
1223	243	177	199
1224	227	144	187
1225	241	154	203
1226	252	161	214
1227	248	153	212
1228	241	141	208
1229	253	159	222
1230	255	175	232
1231	255	166	226
1232	255	162	228
1233	250	156	224
1234	240	146	217
1235	251	166	229
1236	255	184	238
1237	253	182	232
1238	248	180	228
1239	0	0	0
1240	0	0	0
1241	0	0	0
1242	0	0	0
1243	0	0	0
1244	0	0	0
1245	0	0	0
1246	0	0	0
1247	0	0	0
1248	0	0	0
1249	0	0	0
1250	0	0	0
1251	0	0	0
1252	0	0	0
1253	0	0	0
1254	0	0	0
1255	0	0	0
1256	0	0	0
1257	0	0	0
1258	0	0	0
1259	0	0	0
1260	0	0	0
1261	0	0	0
1262	0	0	0
1263	0	0	0
1264	0	0	0
1265	0	0	0
1266	0	0	0
1267	0	0	0
1268	0	0	0
1269	0	0	0
1270	255	244	232
1271	255	245	236
1272	255	216	216
1273	255	203	211
1274	251	185	205
1275	234	151	191
1276	246	158	208
1277	255	166	223
1278	250	152	217
1279	244	141	211
1280	254	155	221
1281	255	171	231
1282	255	160	222
1283	248	150	216
1284	254	161	226
1285	247	153	221
1286	249	161	225
1287	255	181	237
1288	255	185	234
1289	251	182	227
1290	0	0	0
1291	0	0	0
1292	0	0	0
1293	0	0	0
1294	0	0	0
1295	0	0	0
1296	0	0	0
1297	0	0	0
1298	0	0	0
1299	0	0	0
1300	0	0	0
1301	0	0	0
1302	0	0	0
1303	0	0	0
1304	0	0	0
1305	0	0	0
1306	0	0	0
1307	0	0	0
1308	0	0	0
1309	0	0	0
1310	0	0	0
1311	0	0	0
1312	0	0	0
1313	0	0	0
1314	0	0	0
1315	0	0	0
1316	0	0	0
1317	0	0	0
1318	0	0	0
1319	0	0	0
1320	0	0	0
1321	255	249	234
1322	255	243	230
1323	255	217	217
1324	248	191	203
1325	246	176	200
1326	242	158	197
1327	251	163	209
1328	255	168	222
1329	255	157	221
1330	247	142	214
1331	255	156	224
1332	255	168	229
1333	255	156	218
1334	246	145	213
1335	251	154	220
1336	255	163	225
1337	255	170	229
1338	255	178	235
1339	255	184	237
1340	255	188	233
1341	255	202	237
1342	255	217	242
1343	255	213	236
1344	0	0	0
1345	0	0	0
1346	0	0	0
1347	0	0	0
1348	0	0	0
1349	0	0	0
1350	0	0	0
1351	0	0	0
1352	0	0	0
1353	0	0	0
1354	0	0	0
1355	0	0	0
1356	0	0	0
1357	0	0	0
1358	0	0	0
1359	0	0	0
1360	0	0	0
1361	0	0	0
1362	0	0	0
1363	0	0	0
1364	0	0	0
1365	0	0	0
1366	0	0	0
1367	0	0	0
1368	0	0	0
1369	0	0	0
1370	0	0	0
1371	0	0	0
1372	255	250	235
1373	255	243	231
1374	255	220	217
1375	252	196	206
1376	247	176	201
1377	245	161	200
1378	244	151	202
1379	253	155	213
1380	255	154	218
1381	249	141	214
1382	245	134	213
1383	255	148	222
1384	255	155	222
1385	247	142	210
1386	249	147	215
1387	253	156	221
1388	253	161	221
1389	252	166	223
1390	255	181	234
1391	255	187	235
1392	255	193	234
1393	255	208	240
1394	255	198	228
1395	251	193	222
1396	247	193	220
1397	0	0	0
1398	0	0	0
1399	0	0	0
1400	0	0	0
1401	0	0	0
1402	0	0	0
1403	0	0	0
1404	0	0	0
1405	0	0	0
1406	0	0	0
1407	0	0	0
1408	0	0	0
1409	0	0	0
1410	0	0	0
1411	0	0	0
1412	0	0	0
1413	0	0	0
1414	0	0	0
1415	0	0	0
1416	0	0	0
1417	0	0	0
1418	0	0	0
1419	0	0	0
1420	0	0	0
1421	0	0	0
1422	0	0	0
1423	0	0	0
1424	255	242	228
1425	255	219	218
1426	253	198	208
1427	250	180	204
1428	245	161	200
1429	247	153	204
1430	245	142	206
1431	250	143	214
1432	250	139	216
1433	250	136	216
1434	244	128	212
1435	250	138	218
1436	253	145	220
1437	251	146	218
1438	252	150	219
1439	253	157	221
1440	252	161	220
1441	255	173	225
1442	255	187	232
1443	255	191	232
1444	255	196	233
1445	245	184	221
1446	236	174	214
1447	236	177	214
1448	0	0	0
1449	0	0	0
1450	0	0	0
1451	0	0	0
1452	0	0	0
1453	0	0	0
1454	0	0	0
1455	0	0	0
1456	0	0	0
1457	0	0	0
1458	0	0	0
1459	0	0	0
1460	0	0	0
1461	0	0	0
1462	0	0	0
1463	0	0	0
1464	0	0	0
1465	0	0	0
1466	0	0	0
1467	0	0	0
1468	0	0	0
1469	0	0	0
1470	0	0	0
1471	0	0	0
1472	0	0	0
1473	0	0	0
1474	0	0	0
1475	0	0	0
1476	255	223	220
1477	255	203	212
1478	248	178	203
1479	245	160	200
1480	247	154	204
1481	247	144	207
1482	253	146	218
1483	255	146	224
1484	247	129	214
1485	245	124	212
1486	248	130	217
1487	252	138	221
1488	254	145	224
1489	252	146	221
1490	252	151	221
1491	252	156	221
1492	250	159	219
1493	253	171	223
1494	255	185	229
1495	255	189	229
1496	251	190	227
1497	0	0	0
1498	0	0	0
1499	0	0	0
1500	0	0	0
1501	0	0	0
1502	0	0	0
1503	0	0	0
1504	0	0	0
1505	0	0	0
1506	0	0	0
1507	0	0	0
1508	0	0	0
1509	0	0	0
1510	0	0	0
1511	0	0	0
1512	0	0	0
1513	0	0	0
1514	0	0	0
1515	0	0	0
1516	0	0	0
1517	0	0	0
1518	0	0	0
1519	0	0	0
1520	0	0	0
1521	0	0	0
1522	0	0	0
1523	0	0	0
1524	0	0	0
1525	0	0	0
1526	0	0	0
1527	255	225	221
1528	255	206	214
1529	251	183	208
1530	243	159	201
1531	248	155	207
1532	249	146	209
1533	254	147	218
1534	255	147	226
1535	251	132	219
1536	239	114	207
1537	246	123	214
1538	249	129	219
1539	250	134	221
1540	250	140	221
1541	250	144	221
1542	249	148	222
1543	247	152	221
1544	244	154	218
1545	248	167	222
1546	253	181	227
1547	251	182	225
1548	0	0	0
1549	0	0	0
1550	0	0	0
1551	0	0	0
1552	0	0	0
1553	0	0	0
1554	0	0	0
1555	0	0	0
1556	0	0	0
1557	0	0	0
1558	0	0	0
1559	0	0	0
1560	0	0	0
1561	0	0	0
1562	0	0	0
1563	0	0	0
1564	0	0	0
1565	0	0	0
1566	0	0	0
1567	0	0	0
1568	0	0	0
1569	0	0	0
1570	0	0	0
1571	0	0	0
1572	0	0	0
1573	0	0	0
1574	0	0	0
1575	0	0	0
1576	0	0	0
1577	0	0	0
1578	255	233	229
1579	255	213	219
1580	250	184	208
1581	244	161	203
1582	249	156	210
1583	253	151	215
1584	249	138	212
1585	253	138	218
1586	255	137	224
1587	246	121	216
1588	245	120	214
1589	251	128	221
1590	250	131	221
1591	250	136	222
1592	255	149	227
1593	254	153	227
1594	252	156	227
1595	249	159	225
1596	252	170	229
1597	0	0	0
1598	0	0	0
1599	0	0	0
1600	0	0	0
1601	0	0	0
1602	0	0	0
1603	0	0	0
1604	0	0	0
1605	0	0	0
1606	0	0	0
1607	0	0	0
1608	0	0	0
1609	0	0	0
1610	0	0	0
1611	0	0	0
1612	0	0	0
1613	0	0	0
1614	0	0	0
1615	0	0	0
1616	0	0	0
1617	0	0	0
1618	0	0	0
1619	0	0	0
1620	0	0	0
1621	0	0	0
1622	0	0	0
1623	0	0	0
1624	0	0	0
1625	0	0	0
1626	0	0	0
1627	0	0	0
1628	0	0	0
1629	255	238	231
1630	255	220	224
1631	255	192	213
1632	246	164	205
1633	252	161	213
1634	255	154	218
1635	254	145	218
1636	249	131	214
1637	250	130	218
1638	251	127	222
1639	251	126	223
1640	249	124	221
1641	252	130	224
1642	249	131	221
1643	253	143	224
1644	255	156	229
1645	254	157	226
1646	251	159	227
1647	255	172	233
1648	255	183	235
1649	0	0	0
1650	0	0	0
1651	0	0	0
1652	0	0	0
1653	0	0	0
1654	0	0	0
1655	0	0	0
1656	0	0	0
1657	0	0	0
1658	0	0	0
1659	0	0	0
1660	0	0	0
1661	0	0	0
1662	0	0	0
1663	0	0	0
1664	0	0	0
1665	0	0	0
1666	0	0	0
1667	0	0	0
1668	0	0	0
1669	0	0	0
1670	0	0	0
1671	0	0	0
1672	0	0	0
1673	0	0	0
1674	0	0	0
1675	0	0	0
1676	0	0	0
1677	0	0	0
1678	0	0	0
1679	0	0	0
1680	255	236	228
1681	255	219	222
1682	253	191	211
1683	245	164	203
1684	243	148	204
1685	248	143	212
1686	252	141	218
1687	249	129	216
1688	243	118	211
1689	243	115	213
1690	254	130	226
1691	252	128	225
1692	249	125	222
1693	250	130	223
1694	247	133	220
1695	251	144	223
1696	255	163	231
1697	254	163	227
1698	253	167	228
1699	255	180	235
1700	253	184	232
1701	0	0	0
1702	0	0	0
1703	0	0	0
1704	0	0	0
1705	0	0	0
1706	0	0	0
1707	0	0	0
1708	0	0	0
1709	0	0	0
1710	0	0	0
1711	0	0	0
1712	0	0	0
1713	0	0	0
1714	0	0	0
1715	0	0	0
1716	0	0	0
1717	0	0	0
1718	0	0	0
1719	0	0	0
1720	0	0	0
1721	0	0	0
1722	0	0	0
1723	0	0	0
1724	0	0	0
1725	0	0	0
1726	0	0	0
1727	0	0	0
1728	0	0	0
1729	0	0	0
1730	0	0	0
1731	255	239	232
1732	255	221	225
1733	252	190	212
1734	242	162	201
1735	238	144	199
1736	235	127	200
1737	241	126	209
1738	243	122	213
1739	241	114	212
1740	233	100	204
1741	245	116	217
1742	254	130	228
1743	250	126	223
1744	244	122	216
1745	244	127	217
1746	242	130	216
1747	250	148	224
1748	255	167	231
1749	255	170	228
1750	252	172	225
1751	253	180	227
1752	0	0	0
1753	0	0	0
1754	0	0	0
1755	0	0	0
1756	0	0	0
1757	0	0	0
1758	0	0	0
1759	0	0	0
1760	0	0	0
1761	0	0	0
1762	0	0	0
1763	0	0	0
1764	0	0	0
1765	0	0	0
1766	0	0	0
1767	0	0	0
1768	0	0	0
1769	0	0	0
1770	0	0	0
1771	0	0	0
1772	0	0	0
1773	0	0	0
1774	0	0	0
1775	0	0	0
1776	0	0	0
1777	0	0	0
1778	0	0	0
1779	0	0	0
1780	0	0	0
1781	0	0	0
1782	255	235	231
1783	255	216	224
1784	252	190	215
1785	240	160	203
1786	247	159	210
1787	242	140	206
1788	252	145	219
1789	255	142	225
1790	249	128	222
1791	244	118	218
1792	240	111	214
1793	250	125	225
1794	255	135	232
1795	249	130	225
1796	244	128	219
1797	244	133	218
1798	255	157	231
1799	255	174	238
1800	255	173	232
1801	255	176	229
1802	251	177	226
1803	0	0	0
1804	0	0	0
1805	0	0	0
1806	0	0	0
1807	0	0	0
1808	0	0	0
1809	0	0	0
1810	0	0	0
1811	0	0	0
1812	0	0	0
1813	0	0	0
1814	0	0	0
1815	0	0	0
1816	0	0	0
1817	0	0	0
1818	0	0	0
1819	0	0	0
1820	0	0	0
1821	0	0	0
1822	0	0	0
1823	0	0	0
1824	0	0	0
1825	0	0	0
1826	0	0	0
1827	0	0	0
1828	0	0	0
1829	0	0	0
1830	0	0	0
1831	0	0	0
1832	255	252	235
1833	255	230	224
1834	255	209	216
1835	245	183	209
1836	237	158	205
1837	242	156	213
1838	248	154	219
1839	255	155	225
1840	255	156	231
1841	255	141	224
1842	247	125	219
1843	243	120	218
1844	238	113	216
1845	245	124	224
1846	249	132	229
1847	247	133	226
1848	242	132	220
1849	255	156	232
1850	255	179	242
1851	255	176	234
1852	252	174	228
1853	252	179	229
1854	249	181	228
1855	0	0	0
1856	0	0	0
1857	0	0	0
1858	0	0	0
1859	0	0	0
1860	0	0	0
1861	0	0	0
1862	0	0	0
1863	0	0	0
1864	0	0	0
1865	0	0	0
1866	0	0	0
1867	0	0	0
1868	0	0	0
1869	0	0	0
1870	0	0	0
1871	0	0	0
1872	0	0	0
1873	0	0	0
1874	0	0	0
1875	0	0	0
1876	0	0	0
1877	0	0	0
1878	0	0	0
1879	0	0	0
1880	0	0	0
1881	0	0	0
1882	0	0	0
1883	255	251	242
1884	255	233	227
1885	255	210	215
1886	251	192	213
1887	239	165	208
1888	238	155	213
1889	240	150	220
1890	243	149	224
1891	251	149	228
1892	253	145	226
1893	245	128	217
1894	247	129	221
1895	240	122	218
1896	247	134	228
1897	252	144	235
1898	252	146	234
1899	251	148	232
1900	250	151	230
1901	255	175	241
1902	255	182	240
1903	254	179	232
1904	252	182	230
1905	253	188	232
1906	250	193	233
1907	0	0	0
1908	0	0	0
1909	0	0	0
1910	0	0	0
1911	0	0	0
1912	0	0	0
1913	0	0	0
1914	0	0	0
1915	0	0	0
1916	0	0	0
1917	0	0	0
1918	0	0	0
1919	0	0	0
1920	0	0	0
1921	0	0	0
1922	0	0	0
1923	0	0	0
1924	0	0	0
1925	0	0	0
1926	0	0	0
1927	0	0	0
1928	0	0	0
1929	0	0	0
1930	0	0	0
1931	0	0	0
1932	0	0	0
1933	0	0	0
1934	0	0	0
1935	255	231	233
1936	255	211	219
1937	249	191	212
1938	245	173	212
1939	242	162	217
1940	238	150	220
1941	239	148	225
1942	239	143	226
1943	237	136	223
1944	237	131	221
1945	241	131	222
1946	242	131	223
1947	249	142	231
1948	254	153	238
1949	253	155	237
1950	251	156	234
1951	252	162	235
1952	251	166	233
1953	254	176	236
1954	255	184	237
1955	254	188	235
1956	253	191	234
1957	254	199	235
1958	249	202	233
1959	0	0	0
1960	0	0	0
1961	0	0	0
1962	0	0	0
1963	0	0	0
1964	0	0	0
1965	0	0	0
1966	0	0	0
1967	0	0	0
1968	0	0	0
1969	0	0	0
1970	0	0	0
1971	0	0	0
1972	0	0	0
1973	0	0	0
1974	0	0	0
1975	0	0	0
1976	0	0	0
1977	0	0	0
1978	0	0	0
1979	0	0	0
1980	0	0	0
1981	0	0	0
1982	0	0	0
1983	0	0	0
1984	0	0	0
1985	0	0	0
1986	255	234	234
1987	255	216	227
1988	253	197	218
1989	247	177	213
1990	246	167	218
1991	239	154	220
1992	236	145	222
1993	237	143	227
1994	238	144	229
1995	225	130	221
1996	231	138	227
1997	234	138	227
1998	242	145	231
1999	253	158	239
2000	253	160	238
2001	249	160	234
2002	249	166	233
2003	248	171	232
2004	251	181	235
2005	255	192	239
2006	254	193	237
2007	255	199	239
2008	253	199	236
2009	252	206	236
2010	249	212	235
2011	0	0	0
2012	0	0	0
2013	0	0	0
2014	0	0	0
2015	0	0	0
2016	0	0	0
2017	0	0	0
2018	0	0	0
2019	0	0	0
2020	0	0	0
2021	0	0	0
2022	0	0	0
2023	0	0	0
2024	0	0	0
2025	0	0	0
2026	0	0	0
2027	0	0	0
2028	0	0	0
2029	0	0	0
2030	0	0	0
2031	0	0	0
2032	0	0	0
2033	0	0	0
2034	0	0	0
2035	255	253	244
2036	255	252	241
2037	0	0	0
2038	255	218	228
2039	255	202	225
2040	251	183	217
2041	249	173	218
2042	245	161	222
2043	237	149	221
2044	230	137	218
2045	230	137	222
2046	227	136	223
2047	219	136	221
2048	223	142	227
2049	232	150	232
2050	240	157	235
2051	248	164	238
2052	249	166	236
2053	253	176	238
2054	253	182	238
2055	255	192	240
2056	255	202	242
2057	255	203	239
2058	255	204	238
2059	254	205	237
2060	250	205	234
2061	250	214	237
2062	0	0	0
2063	0	0	0
2064	0	0	0
2065	0	0	0
2066	0	0	0
2067	0	0	0
2068	0	0	0
2069	0	0	0
2070	0	0	0
2071	0	0	0
2072	0	0	0
2073	0	0	0
2074	0	0	0
2075	0	0	0
2076	0	0	0
2077	0	0	0
2078	0	0	0
2079	0	0	0
2080	0	0	0
2081	0	0	0
2082	0	0	0
2083	0	0	0
2084	0	0	0
2085	0	0	0
2086	255	252	245
2087	255	251	245
2088	255	236	235
2089	255	219	227
2090	255	203	225
2091	254	187	223
2092	247	168	217
2093	240	155	216
2094	234	143	216
2095	225	130	213
2096	235	148	227
2097	229	143	225
2098	232	156	232
2099	225	155	230
2100	230	164	236
2101	239	172	241
2102	245	176	242
2103	252	183	244
2104	247	174	235
2105	252	184	239
2106	246	179	232
2107	253	191	236
2108	255	198	236
2109	252	198	232
2110	252	203	233
2111	0	0	0
2112	0	0	0
2113	0	0	0
2114	0	0	0
2115	0	0	0
2116	0	0	0
2117	0	0	0
2118	0	0	0
2119	0	0	0
2120	0	0	0
2121	0	0	0
2122	0	0	0
2123	0	0	0
2124	0	0	0
2125	0	0	0
2126	0	0	0
2127	0	0	0
2128	0	0	0
2129	0	0	0
2130	0	0	0
2131	0	0	0
2132	0	0	0
2133	0	0	0
2134	0	0	0
2135	0	0	0
2136	0	0	0
2137	0	0	0
2138	255	245	240
2139	255	230	232
2140	255	218	226
2141	253	202	222
2142	250	185	220
2143	245	168	217
2144	236	148	213
2145	227	135	212
2146	218	121	210
2147	234	144	228
2148	243	159	238
2149	243	168	240
2150	246	180	245
2151	244	184	245
2152	249	193	250
2153	255	200	253
2154	255	203	252
2155	255	195	245
2156	250	186	237
2157	243	181	232
2158	237	176	228
2159	243	185	232
2160	246	192	232
2161	248	198	231
2162	0	0	0
2163	0	0	0
2164	0	0	0
2165	0	0	0
2166	0	0	0
2167	0	0	0
2168	0	0	0
2169	0	0	0
2170	0	0	0
2171	0	0	0
2172	0	0	0
2173	0	0	0
2174	0	0	0
2175	0	0	0
2176	0	0	0
2177	0	0	0
2178	0	0	0
2179	0	0	0
2180	0	0	0
2181	0	0	0
2182	0	0	0
2183	0	0	0
2184	0	0	0
2185	0	0	0
2186	0	0	0
2187	0	0	0
2188	0	0	0
2189	0	0	0
2190	255	248	244
2191	255	234	238
2192	255	208	225
2193	253	193	223
2194	244	170	216
2195	234	149	212
2196	238	154	224
2197	226	139	220
2198	227	140	225
2199	245	162	243
2200	241	160	238
2201	244	170	239
2202	253	187	247
2203	255	193	248
2204	250	185	241
2205	255	192	245
2206	251	182	235
2207	240	172	226
2208	243	182	230
2209	233	175	225
2210	0	0	0
2211	0	0	0
2212	0	0	0
2213	0	0	0
2214	0	0	0
2215	0	0	0
2216	0	0	0
2217	0	0	0
2218	0	0	0
2219	0	0	0
2220	0	0	0
2221	0	0	0
2222	0	0	0
2223	0	0	0
2224	0	0	0
2225	0	0	0
2226	0	0	0
2227	0	0	0
2228	0	0	0
2229	0	0	0
2230	0	0	0
2231	0	0	0
2232	0	0	0
2233	0	0	0
2234	0	0	0
2235	0	0	0
2236	0	0	0
2237	0	0	0
2238	0	0	0
2239	0	0	0
2240	0	0	0
2241	0	0	0
2242	255	248	246
2243	255	220	231
2244	250	195	219
2245	246	176	215
2246	236	152	213
2247	241	157	225
2248	243	159	234
2249	237	157	235
2250	235	155	234
2251	240	160	237
2252	237	159	235
2253	248	177	244
2254	255	193	248
2255	245	181	234
2256	240	173	228
2257	241	169	227
2258	234	161	222
2259	237	170	227
2260	238	179	229
2261	0	0	0
2262	0	0	0
2263	0	0	0
2264	0	0	0
2265	0	0	0
2266	0	0	0
2267	0	0	0
2268	0	0	0
2269	0	0	0
2270	0	0	0
2271	0	0	0
2272	0	0	0
2273	0	0	0
2274	0	0	0
2275	0	0	0
2276	0	0	0
2277	0	0	0
2278	0	0	0
2279	0	0	0
2280	0	0	0
2281	0	0	0
2282	0	0	0
2283	0	0	0
2284	0	0	0
2285	0	0	0
2286	0	0	0
2287	0	0	0
2288	0	0	0
2289	0	0	0
2290	0	0	0
2291	0	0	0
2292	0	0	0
2293	0	0	0
2294	255	234	240
2295	254	206	226
2296	246	182	216
2297	240	161	212
2298	239	153	219
2299	244	157	230
2300	251	169	242
2301	245	165	240
2302	240	163	236
2303	240	165	237
2304	245	173	243
2305	255	192	253
2306	247	185	240
2307	230	170	225
2308	234	177	228
2309	234	172	227
2310	239	179	233
2311	247	191	240
2312	246	199	239
2313	0	0	0
2314	0	0	0
2315	0	0	0
2316	0	0	0
2317	0	0	0
2318	0	0	0
2319	0	0	0
2320	0	0	0
2321	0	0	0
2322	0	0	0
2323	0	0	0
2324	0	0	0
2325	0	0	0
2326	0	0	0
2327	0	0	0
2328	0	0	0
2329	0	0	0
2330	0	0	0
2331	0	0	0
2332	0	0	0
2333	0	0	0
2334	0	0	0
2335	0	0	0
2336	0	0	0
2337	0	0	0
2338	0	0	0
2339	0	0	0
2340	0	0	0
2341	0	0	0
2342	0	0	0
2343	0	0	0
2344	0	0	0
2345	255	234	241
2346	255	221	238
2347	251	194	226
2348	241	169	216
2349	240	160	217
2350	236	148	218
2351	246	162	232
2352	251	171	238
2353	245	169	236
2354	241	167	235
2355	245	176	241
2356	248	183	245
2357	242	179	239
2358	234	174	232
2359	231	175	231
2360	232	181	233
2361	236	187	236
2362	240	192	238
2363	248	206	244
2364	0	0	0
2365	0	0	0
2366	0	0	0
2367	0	0	0
2368	0	0	0
2369	0	0	0
2370	0	0	0
2371	0	0	0
2372	0	0	0
2373	0	0	0
2374	0	0	0
2375	0	0	0
2376	0	0	0
2377	0	0	0
2378	0	0	0
2379	0	0	0
2380	0	0	0
2381	0	0	0
2382	0	0	0
2383	0	0	0
2384	0	0	0
2385	0	0	0
2386	0	0	0
2387	0	0	0
2388	0	0	0
2389	0	0	0
2390	0	0	0
2391	0	0	0
2392	0	0	0
2393	0	0	0
2394	0	0	0
2395	0	0	0
2396	255	239	243
2397	255	223	237
2398	246	191	223
2399	234	163	212
2400	245	172	225
2401	240	160	223
2402	243	163	230
2403	249	174	239
2404	252	181	241
2405	248	179	238
2406	249	183	242
2407	254	192	247
2408	252	194	246
2409	0	0	0
2410	0	0	0
2411	0	0	0
2412	0	0	0
2413	0	0	0
2414	0	0	0
2415	0	0	0
2416	0	0	0
2417	0	0	0
2418	0	0	0
2419	0	0	0
2420	0	0	0
2421	0	0	0
2422	0	0	0
2423	0	0	0
2424	0	0	0
2425	0	0	0
2426	0	0	0
2427	0	0	0
2428	0	0	0
2429	0	0	0
2430	0	0	0
2431	0	0	0
2432	0	0	0
2433	0	0	0
2434	0	0	0
2435	0	0	0
2436	0	0	0
2437	0	0	0
2438	0	0	0
2439	0	0	0
2440	0	0	0
2441	0	0	0
2442	0	0	0
2443	0	0	0
2444	0	0	0
2445	0	0	0
2446	255	252	249
2447	255	240	244
2448	255	227	236
2449	242	190	216
2450	226	158	205
2451	236	165	219
2452	245	172	230
2453	247	174	236
2454	247	175	240
2455	248	182	244
2456	248	187	242
2457	244	187	239
2458	246	192	240
2459	250	197	243
2460	0	0	0
2461	0	0	0
2462	0	0	0
2463	0	0	0
2464	0	0	0
2465	0	0	0
2466	0	0	0
2467	0	0	0
2468	0	0	0
2469	0	0	0
2470	0	0	0
2471	0	0	0
2472	0	0	0
2473	0	0	0
2474	0	0	0
2475	0	0	0
2476	0	0	0
2477	0	0	0
2478	0	0	0
2479	0	0	0
2480	0	0	0
2481	0	0	0
2482	0	0	0
2483	0	0	0
2484	0	0	0
2485	0	0	0
2486	0	0	0
2487	0	0	0
2488	0	0	0
2489	0	0	0
2490	0	0	0
2491	0	0	0
2492	0	0	0
2493	0	0	0
2494	0	0	0
2495	0	0	0
2496	0	0	0
2497	255	252	248
2498	255	234	241
2499	254	220	235
2500	251	206	226
2501	230	169	206
2502	240	178	222
2503	247	182	233
2504	253	189	242
2505	254	190	245
2506	249	188	245
2507	0	0	0
2508	0	0	0
2509	0	0	0
2510	0	0	0
2511	0	0	0
2512	0	0	0
2513	0	0	0
2514	0	0	0
2515	0	0	0
2516	0	0	0
2517	0	0	0
2518	0	0	0
2519	0	0	0
2520	0	0	0
2521	0	0	0
2522	0	0	0
2523	0	0	0
2524	0	0	0
2525	0	0	0
2526	0	0	0
2527	0	0	0
2528	0	0	0
2529	0	0	0
2530	0	0	0
2531	0	0	0
2532	0	0	0
2533	0	0	0
2534	0	0	0
2535	0	0	0
2536	0	0	0
2537	0	0	0
2538	0	0	0
2539	0	0	0
2540	0	0	0
2541	0	0	0
2542	0	0	0
2543	0	0	0
2544	0	0	0
2545	0	0	0
2546	0	0	0
2547	0	0	0
2548	0	0	0
2549	0	0	0
2550	246	211	229
2551	238	194	220
2552	232	180	216
2553	236	183	221
2554	243	189	231
2555	250	195	238
2556	253	198	243
2557	249	197	242
2558	0	0	0
2559	0	0	0
2560	0	0	0
2561	0	0	0
2562	0	0	0
2563	0	0	0
2564	0	0	0
2565	0	0	0
2566	0	0	0
2567	0	0	0
2568	0	0	0
2569	0	0	0
2570	0	0	0
2571	0	0	0
2572	0	0	0
2573	0	0	0
2574	0	0	0
2575	0	0	0
2576	0	0	0
2577	0	0	0
2578	0	0	0
2579	0	0	0
2580	0	0	0
2581	0	0	0
2582	0	0	0
2583	0	0	0
2584	0	0	0
2585	0	0	0
2586	0	0	0
2587	0	0	0
2588	0	0	0
2589	0	0	0
2590	0	0	0
2591	0	0	0
2592	0	0	0
2593	0	0	0
2594	0	0	0
2595	0	0	0
2596	0	0	0
2597	0	0	0
2598	0	0	0
2599	0	0	0
2600	0	0	0
