 	R	G	B
1	0	0	0
2	0	0	0
3	0	0	0
4	0	0	0
5	0	0	0
6	0	0	0
7	0	0	0
8	0	0	0
9	0	0	0
10	0	0	0
11	0	0	0
12	247	221	231
13	0	0	0
14	0	0	0
15	0	0	0
16	0	0	0
17	0	0	0
18	0	0	0
19	0	0	0
20	0	0	0
21	0	0	0
22	0	0	0
23	0	0	0
24	0	0	0
25	0	0	0
26	0	0	0
27	0	0	0
28	0	0	0
29	0	0	0
30	0	0	0
31	0	0	0
32	0	0	0
33	0	0	0
34	0	0	0
35	0	0	0
36	0	0	0
37	0	0	0
38	0	0	0
39	0	0	0
40	0	0	0
41	0	0	0
42	0	0	0
43	0	0	0
44	0	0	0
45	0	0	0
46	0	0	0
47	0	0	0
48	0	0	0
49	0	0	0
50	242	212	227
51	255	228	236
52	248	219	226
53	0	0	0
54	0	0	0
55	0	0	0
56	0	0	0
57	0	0	0
58	0	0	0
59	0	0	0
60	0	0	0
61	0	0	0
62	0	0	0
63	0	0	0
64	0	0	0
65	0	0	0
66	0	0	0
67	0	0	0
68	0	0	0
69	0	0	0
70	0	0	0
71	0	0	0
72	0	0	0
73	0	0	0
74	0	0	0
75	0	0	0
76	0	0	0
77	0	0	0
78	0	0	0
79	0	0	0
80	0	0	0
81	0	0	0
82	0	0	0
83	0	0	0
84	0	0	0
85	0	0	0
86	0	0	0
87	0	0	0
88	0	0	0
89	244	214	226
90	250	217	228
91	244	210	219
92	0	0	0
93	0	0	0
94	0	0	0
95	0	0	0
96	0	0	0
97	0	0	0
98	0	0	0
99	0	0	0
100	0	0	0
101	0	0	0
102	0	0	0
103	0	0	0
104	0	0	0
105	0	0	0
106	0	0	0
107	0	0	0
108	0	0	0
109	0	0	0
110	0	0	0
111	0	0	0
112	0	0	0
113	0	0	0
114	0	0	0
115	0	0	0
116	0	0	0
117	0	0	0
118	0	0	0
119	0	0	0
120	0	0	0
121	0	0	0
122	0	0	0
123	0	0	0
124	0	0	0
125	0	0	0
126	0	0	0
127	0	0	0
128	250	219	228
129	253	220	229
130	244	207	219
131	0	0	0
132	0	0	0
133	0	0	0
134	0	0	0
135	0	0	0
136	0	0	0
137	0	0	0
138	0	0	0
139	0	0	0
140	0	0	0
141	0	0	0
142	0	0	0
143	0	0	0
144	0	0	0
145	0	0	0
146	0	0	0
147	0	0	0
148	0	0	0
149	0	0	0
150	0	0	0
151	0	0	0
152	0	0	0
153	0	0	0
154	0	0	0
155	0	0	0
156	0	0	0
157	0	0	0
158	0	0	0
159	0	0	0
160	0	0	0
161	0	0	0
162	0	0	0
163	0	0	0
164	0	0	0
165	0	0	0
166	255	224	228
167	255	223	229
168	250	214	225
169	243	203	217
170	249	211	222
171	0	0	0
172	0	0	0
173	0	0	0
174	0	0	0
175	0	0	0
176	0	0	0
177	0	0	0
178	0	0	0
179	0	0	0
180	0	0	0
181	0	0	0
182	0	0	0
183	0	0	0
184	0	0	0
185	0	0	0
186	0	0	0
187	0	0	0
188	0	0	0
189	0	0	0
190	0	0	0
191	0	0	0
192	0	0	0
193	0	0	0
194	0	0	0
195	0	0	0
196	0	0	0
197	0	0	0
198	0	0	0
199	0	0	0
200	0	0	0
201	0	0	0
202	0	0	0
203	249	220	224
204	255	223	227
205	255	224	229
206	249	208	220
207	241	199	215
208	248	209	221
209	253	216	225
210	0	0	0
211	0	0	0
212	0	0	0
213	0	0	0
214	0	0	0
215	0	0	0
216	0	0	0
217	0	0	0
218	0	0	0
219	0	0	0
220	0	0	0
221	0	0	0
222	0	0	0
223	0	0	0
224	0	0	0
225	0	0	0
226	0	0	0
227	0	0	0
228	0	0	0
229	0	0	0
230	0	0	0
231	0	0	0
232	0	0	0
233	0	0	0
234	0	0	0
235	0	0	0
236	0	0	0
237	0	0	0
238	0	0	0
239	0	0	0
240	251	226	233
241	247	217	227
242	252	220	228
243	255	224	230
244	249	208	220
245	239	192	213
246	246	204	220
247	251	212	221
248	248	208	217
249	245	203	215
250	0	0	0
251	0	0	0
252	0	0	0
253	0	0	0
254	0	0	0
255	0	0	0
256	0	0	0
257	0	0	0
258	0	0	0
259	0	0	0
260	0	0	0
261	0	0	0
262	0	0	0
263	0	0	0
264	0	0	0
265	0	0	0
266	0	0	0
267	0	0	0
268	0	0	0
269	0	0	0
270	0	0	0
271	0	0	0
272	0	0	0
273	0	0	0
274	0	0	0
275	0	0	0
276	0	0	0
277	0	0	0
278	251	231	235
279	255	230	237
280	247	210	224
281	248	212	225
282	254	219	229
283	245	203	218
284	249	207	223
285	255	220	231
286	255	214	222
287	253	211	219
288	254	208	220
289	255	218	228
290	0	0	0
291	0	0	0
292	0	0	0
293	0	0	0
294	0	0	0
295	0	0	0
296	0	0	0
297	0	0	0
298	0	0	0
299	0	0	0
300	0	0	0
301	0	0	0
302	0	0	0
303	0	0	0
304	0	0	0
305	0	0	0
306	0	0	0
307	0	0	0
308	0	0	0
309	0	0	0
310	0	0	0
311	0	0	0
312	0	0	0
313	0	0	0
314	0	0	0
315	0	0	0
316	0	0	0
317	0	0	0
318	253	220	229
319	243	201	219
320	249	209	226
321	254	216	229
322	255	220	231
323	255	223	232
324	255	219	228
325	255	215	223
326	255	212	222
327	255	207	219
328	243	193	210
329	230	176	198
330	0	0	0
331	0	0	0
332	0	0	0
333	0	0	0
334	0	0	0
335	0	0	0
336	0	0	0
337	0	0	0
338	0	0	0
339	0	0	0
340	0	0	0
341	0	0	0
342	0	0	0
343	0	0	0
344	0	0	0
345	0	0	0
346	0	0	0
347	0	0	0
348	0	0	0
349	0	0	0
350	0	0	0
351	0	0	0
352	0	0	0
353	0	0	0
354	0	0	0
355	0	0	0
356	0	0	0
357	0	0	0
358	247	205	222
359	255	215	231
360	255	214	229
361	255	218	230
362	252	204	220
363	249	200	215
364	255	210	223
365	255	208	222
366	246	194	212
367	224	175	197
368	233	188	208
369	255	214	228
370	0	0	0
371	0	0	0
372	0	0	0
373	0	0	0
374	0	0	0
375	0	0	0
376	0	0	0
377	0	0	0
378	0	0	0
379	0	0	0
380	0	0	0
381	0	0	0
382	0	0	0
383	0	0	0
384	0	0	0
385	0	0	0
386	0	0	0
387	0	0	0
388	0	0	0
389	0	0	0
390	0	0	0
391	0	0	0
392	0	0	0
393	0	0	0
394	0	0	0
395	0	0	0
396	0	0	0
397	0	0	0
398	0	0	0
399	252	207	223
400	249	199	218
401	242	187	212
402	250	197	219
403	255	206	223
404	253	197	217
405	242	185	210
406	239	192	214
407	248	204	222
408	255	204	221
409	250	193	208
410	255	203	212
411	254	205	209
412	255	217	216
413	0	0	0
414	0	0	0
415	0	0	0
416	0	0	0
417	0	0	0
418	0	0	0
419	0	0	0
420	0	0	0
421	0	0	0
422	0	0	0
423	0	0	0
424	0	0	0
425	0	0	0
426	0	0	0
427	0	0	0
428	0	0	0
429	0	0	0
430	0	0	0
431	0	0	0
432	0	0	0
433	0	0	0
434	0	0	0
435	0	0	0
436	0	0	0
437	0	0	0
438	255	214	225
439	255	206	222
440	250	195	218
441	255	205	226
442	255	200	222
443	250	191	215
444	253	194	218
445	255	207	227
446	253	197	219
447	253	192	214
448	251	187	207
449	255	198	212
450	247	186	201
451	253	199	207
452	252	206	209
453	0	0	0
454	0	0	0
455	0	0	0
456	0	0	0
457	0	0	0
458	0	0	0
459	0	0	0
460	0	0	0
461	0	0	0
462	0	0	0
463	0	0	0
464	0	0	0
465	0	0	0
466	0	0	0
467	0	0	0
468	0	0	0
469	0	0	0
470	0	0	0
471	0	0	0
472	0	0	0
473	0	0	0
474	0	0	0
475	255	222	227
476	255	221	226
477	255	220	225
478	255	210	220
479	252	198	215
480	252	196	217
481	251	193	217
482	255	196	220
483	255	198	219
484	253	190	214
485	248	181	211
486	251	183	212
487	249	178	206
488	248	176	202
489	238	165	192
490	246	180	200
491	245	186	198
492	254	207	207
493	0	0	0
494	0	0	0
495	0	0	0
496	0	0	0
497	0	0	0
498	0	0	0
499	0	0	0
500	0	0	0
501	0	0	0
502	0	0	0
503	0	0	0
504	0	0	0
505	0	0	0
506	0	0	0
507	0	0	0
508	0	0	0
509	0	0	0
510	0	0	0
511	0	0	0
512	0	0	0
513	255	223	228
514	255	217	223
515	255	215	221
516	255	208	216
517	251	197	211
518	249	192	211
519	249	191	213
520	255	198	221
521	255	201	223
522	255	195	217
523	252	187	211
524	255	189	217
525	255	192	220
526	252	178	209
527	252	176	207
528	242	163	196
529	251	179	204
530	247	181	199
531	255	201	207
532	254	209	207
533	0	0	0
534	0	0	0
535	0	0	0
536	0	0	0
537	0	0	0
538	0	0	0
539	0	0	0
540	0	0	0
541	0	0	0
542	0	0	0
543	0	0	0
544	0	0	0
545	0	0	0
546	0	0	0
547	0	0	0
548	0	0	0
549	0	0	0
550	0	0	0
551	0	0	0
552	0	0	0
553	252	211	219
554	251	204	215
555	250	198	213
556	249	194	213
557	247	188	211
558	254	196	217
559	255	201	221
560	255	197	219
561	255	193	217
562	255	194	218
563	255	195	218
564	255	183	211
565	249	170	204
566	247	166	202
567	238	153	190
568	247	167	198
569	245	170	197
570	251	186	204
571	249	194	203
572	0	0	0
573	0	0	0
574	0	0	0
575	0	0	0
576	0	0	0
577	0	0	0
578	0	0	0
579	0	0	0
580	0	0	0
581	0	0	0
582	0	0	0
583	0	0	0
584	0	0	0
585	0	0	0
586	0	0	0
587	0	0	0
588	0	0	0
589	0	0	0
590	0	0	0
591	0	0	0
592	254	213	223
593	254	207	220
594	251	199	217
595	250	194	215
596	254	198	218
597	255	205	224
598	255	198	218
599	255	193	216
600	255	190	217
601	255	191	219
602	255	184	212
603	249	172	205
604	251	170	208
605	250	166	206
606	248	163	200
607	255	178	208
608	246	167	200
609	253	183	208
610	253	191	207
611	0	0	0
612	0	0	0
613	0	0	0
614	0	0	0
615	0	0	0
616	0	0	0
617	0	0	0
618	0	0	0
619	0	0	0
620	0	0	0
621	0	0	0
622	0	0	0
623	0	0	0
624	0	0	0
625	0	0	0
626	0	0	0
627	0	0	0
628	0	0	0
629	0	0	0
630	253	215	229
631	255	218	230
632	255	209	224
633	253	201	219
634	255	205	223
635	255	208	224
636	255	201	219
637	255	194	216
638	254	189	215
639	254	186	218
640	253	180	216
641	251	174	212
642	251	172	212
643	252	170	213
644	255	172	214
645	253	169	207
646	250	166	203
647	241	156	196
648	252	175	206
649	253	185	204
650	255	201	208
651	255	214	207
652	255	216	204
653	0	0	0
654	0	0	0
655	0	0	0
656	0	0	0
657	0	0	0
658	0	0	0
659	0	0	0
660	0	0	0
661	0	0	0
662	0	0	0
663	0	0	0
664	0	0	0
665	0	0	0
666	248	222	227
667	0	0	0
668	251	212	227
669	255	216	231
670	255	208	225
671	250	198	218
672	253	200	220
673	255	205	224
674	255	197	217
675	252	190	213
676	255	191	216
677	254	187	216
678	254	184	217
679	252	178	215
680	255	179	217
681	255	177	217
682	255	174	217
683	255	176	217
684	251	166	207
685	250	164	204
686	248	163	204
687	255	184	215
688	255	180	205
689	255	198	210
690	254	189	196
691	252	192	194
692	252	199	198
693	0	0	0
694	0	0	0
695	0	0	0
696	0	0	0
697	0	0	0
698	0	0	0
699	0	0	0
700	0	0	0
701	0	0	0
702	0	0	0
703	0	0	0
704	253	233	231
705	254	228	231
706	251	218	227
707	248	208	223
708	250	204	223
709	247	197	217
710	249	197	217
711	253	199	220
712	252	193	218
713	249	186	213
714	251	186	215
715	253	187	217
716	251	182	214
717	249	177	212
718	252	178	212
719	254	179	213
720	255	177	212
721	255	174	212
722	253	169	209
723	248	161	205
724	253	167	209
725	252	167	209
726	255	173	210
727	253	171	202
728	252	171	197
729	244	164	187
730	249	175	190
731	249	181	190
732	255	205	203
733	0	0	0
734	0	0	0
735	0	0	0
736	0	0	0
737	0	0	0
738	0	0	0
739	0	0	0
740	0	0	0
741	0	0	0
742	251	234	232
743	254	230	231
744	249	218	224
745	243	206	218
746	252	215	228
747	255	212	227
748	249	198	217
749	251	199	219
750	254	201	222
751	254	196	221
752	253	191	219
753	255	191	221
754	255	190	221
755	251	184	216
756	251	183	215
757	254	183	214
758	255	184	214
759	255	183	214
760	249	167	205
761	246	162	204
762	251	167	210
763	255	173	216
764	250	162	209
765	255	170	213
766	251	162	203
767	253	164	201
768	246	154	190
769	251	166	194
770	249	170	192
771	255	192	203
772	250	188	192
773	0	0	0
774	0	0	0
775	0	0	0
776	0	0	0
777	0	0	0
778	0	0	0
779	0	0	0
780	0	0	0
781	250	231	233
782	249	221	228
783	244	209	221
784	249	215	226
785	255	223	232
786	255	212	225
787	249	199	217
788	253	202	219
789	255	203	221
790	255	199	220
791	255	194	221
792	255	194	223
793	255	192	223
794	253	190	221
795	254	189	220
796	255	190	219
797	255	190	218
798	254	177	210
799	246	162	205
800	253	170	213
801	255	174	216
802	254	166	212
803	247	156	208
804	245	152	206
805	242	146	201
806	245	145	199
807	237	136	187
808	244	147	192
809	244	153	194
810	243	156	192
811	234	153	181
812	251	186	196
813	255	219	210
814	255	226	211
815	255	244	227
816	255	241	227
817	255	244	230
818	255	236	225
819	0	0	0
820	253	234	236
821	250	223	229
822	244	210	222
823	251	217	227
824	255	222	230
825	253	210	222
826	248	197	216
827	254	201	220
828	255	200	220
829	254	195	217
830	254	192	218
831	255	192	221
832	254	190	221
833	250	187	218
834	255	191	221
835	255	194	223
836	255	181	214
837	249	167	206
838	250	165	211
839	255	173	219
840	255	167	215
841	253	160	212
842	245	149	207
843	240	145	205
844	248	154	212
845	253	154	212
846	241	137	195
847	248	150	201
848	252	157	205
849	254	163	205
850	248	161	196
851	255	194	211
852	255	195	201
853	255	203	200
854	255	213	209
855	255	211	208
856	255	215	212
857	249	205	206
858	245	208	210
859	254	235	235
860	250	223	228
861	244	210	220
862	250	215	224
863	255	220	228
864	253	208	222
865	249	197	218
866	255	200	222
867	255	199	221
868	255	196	219
869	255	192	216
870	255	192	217
871	254	191	218
872	255	192	220
873	255	197	223
874	254	183	216
875	250	172	211
876	251	169	213
877	252	166	215
878	254	164	216
879	251	158	213
880	245	148	208
881	237	138	202
882	242	147	210
883	250	156	215
884	250	150	211
885	240	134	197
886	248	147	203
887	253	155	206
888	255	162	208
889	255	162	201
890	255	170	201
891	253	172	195
892	254	180	196
893	255	188	199
894	252	187	197
895	249	189	200
896	234	182	195
897	0	0	0
898	0	0	0
899	246	219	223
900	249	217	223
901	255	223	228
902	255	218	226
903	251	205	220
904	251	199	221
905	255	202	226
906	253	193	220
907	253	190	217
908	252	188	214
909	253	188	214
910	255	189	217
911	255	192	221
912	255	187	217
913	244	170	207
914	252	177	217
915	255	175	220
916	255	169	217
917	255	166	218
918	249	154	212
919	241	144	206
920	246	152	213
921	253	163	222
922	241	141	207
923	241	135	203
924	235	125	194
925	246	140	202
926	254	149	206
927	255	158	210
928	252	146	198
929	255	156	201
930	255	163	202
931	255	171	204
932	249	164	194
933	243	161	190
934	244	178	199
935	0	0	0
936	0	0	0
937	0	0	0
938	253	227	228
939	255	226	227
940	255	219	224
941	255	215	224
942	253	207	223
943	253	201	224
944	254	196	224
945	250	188	219
946	252	188	219
947	252	187	218
948	254	187	219
949	254	187	218
950	252	182	215
951	249	176	211
952	247	175	211
953	254	181	221
954	255	174	219
955	254	167	213
956	251	158	209
957	244	146	205
958	251	156	215
959	255	165	222
960	243	145	210
961	231	125	199
962	235	125	201
963	232	116	192
964	247	134	204
965	255	144	209
966	254	140	205
967	246	130	197
968	249	139	201
969	251	147	202
970	245	142	197
971	236	135	189
972	245	155	200
973	241	169	204
974	0	0	0
975	0	0	0
976	251	227	229
977	255	226	228
978	252	217	222
979	250	210	219
980	255	214	225
981	254	206	224
982	254	201	224
983	253	195	223
984	254	193	222
985	255	193	223
986	255	190	223
987	255	190	223
988	250	181	217
989	248	176	213
990	248	177	213
991	246	176	213
992	254	182	222
993	255	176	220
994	255	170	215
995	253	160	210
996	251	153	210
997	255	165	221
998	255	160	218
999	244	140	206
1000	236	126	202
1001	239	127	205
1002	238	121	200
1003	255	140	214
1004	240	116	197
1005	238	112	194
1006	243	123	200
1007	244	130	203
1008	244	135	204
1009	242	132	201
1010	237	130	197
1011	244	149	206
1012	243	170	212
1013	0	0	0
1014	0	0	0
1015	253	226	229
1016	253	219	225
1017	250	211	222
1018	252	212	224
1019	255	214	228
1020	255	206	225
1021	254	200	223
1022	255	199	223
1023	255	195	220
1024	254	191	218
1025	253	188	219
1026	250	181	218
1027	246	174	216
1028	251	179	220
1029	252	180	218
1030	251	180	218
1031	255	186	225
1032	255	180	223
1033	255	174	220
1034	255	167	217
1035	255	160	214
1036	255	157	214
1037	255	152	212
1038	248	139	206
1039	240	126	202
1040	240	124	204
1041	239	119	203
1042	234	105	195
1043	219	81	180
1044	230	99	192
1045	234	109	197
1046	231	112	196
1047	231	117	199
1048	235	122	202
1049	230	120	197
1050	247	153	214
1051	246	172	217
1052	0	0	0
1053	0	0	0
1054	252	223	228
1055	253	217	225
1056	252	212	224
1057	253	211	226
1058	255	212	228
1059	254	204	224
1060	255	202	223
1061	255	199	222
1062	251	190	214
1063	248	186	212
1064	255	195	223
1065	255	189	223
1066	252	181	222
1067	255	187	227
1068	253	177	219
1069	255	179	219
1070	255	181	223
1071	255	173	219
1072	255	167	216
1073	255	161	214
1074	255	159	215
1075	255	157	216
1076	254	144	209
1077	247	132	205
1078	236	115	197
1079	235	113	199
1080	244	121	208
1081	239	107	202
1082	227	89	191
1083	234	105	202
1084	233	110	202
1085	231	114	203
1086	226	111	201
1087	227	115	202
1088	229	124	204
1089	248	157	221
1090	243	166	217
1091	0	0	0
1092	0	0	0
1093	0	0	0
1094	250	214	224
1095	248	208	221
1096	247	206	221
1097	249	206	222
1098	252	203	221
1099	254	200	219
1100	251	194	215
1101	247	185	211
1102	253	193	219
1103	255	202	227
1104	255	191	222
1105	252	183	220
1106	251	177	217
1107	247	169	211
1108	251	171	213
1109	255	173	217
1110	252	165	213
1111	252	161	213
1112	255	160	216
1113	255	159	218
1114	255	149	216
1115	253	137	211
1116	243	122	205
1117	232	105	196
1118	240	114	206
1119	249	122	215
1120	244	110	208
1121	229	90	194
1122	229	98	198
1123	227	103	200
1124	222	102	199
1125	216	99	196
1126	225	116	206
1127	226	124	207
1128	239	148	217
1129	236	158	214
1130	0	0	0
1131	0	0	0
1132	0	0	0
1133	0	0	0
1134	244	210	222
1135	244	209	221
1136	249	211	224
1137	253	209	224
1138	252	202	220
1139	251	195	217
1140	252	193	219
1141	255	202	227
1142	255	194	223
1143	246	181	214
1144	251	186	219
1145	250	180	216
1146	251	177	216
1147	255	181	220
1148	255	179	220
1149	255	172	217
1150	255	168	219
1151	255	168	223
1152	255	150	215
1153	255	140	214
1154	248	125	209
1155	235	109	201
1156	238	111	206
1157	252	123	218
1158	246	110	211
1159	235	94	201
1160	226	85	192
1161	227	94	198
1162	237	115	211
1163	231	113	209
1164	223	109	206
1165	229	125	215
1166	221	122	206
1167	234	145	216
1168	236	162	219
1169	0	0	0
1170	0	0	0
1171	0	0	0
1172	0	0	0
1173	0	0	0
1174	249	216	227
1175	254	219	230
1176	255	213	229
1177	255	206	226
1178	255	205	227
1179	255	202	227
1180	254	194	223
1181	249	186	219
1182	251	188	221
1183	255	192	222
1184	255	189	221
1185	255	187	223
1186	255	187	225
1187	255	184	223
1188	255	177	221
1189	255	175	224
1190	255	155	215
1191	249	137	209
1192	246	125	206
1193	238	110	201
1194	237	110	204
1195	240	112	210
1196	241	103	208
1197	233	89	199
1198	230	86	197
1199	222	78	191
1200	235	102	206
1201	244	122	216
1202	236	118	212
1203	227	114	210
1204	223	119	210
1205	214	115	202
1206	231	146	217
1207	233	163	220
1208	0	0	0
1209	0	0	0
1210	0	0	0
1211	0	0	0
1212	0	0	0
1213	254	219	229
1214	255	217	230
1215	255	210	228
1216	254	202	224
1217	255	200	225
1218	253	196	224
1219	246	186	218
1220	254	195	226
1221	255	200	229
1222	255	191	221
1223	255	187	219
1224	255	184	221
1225	255	183	224
1226	254	169	215
1227	253	163	213
1228	255	167	220
1229	252	147	211
1230	248	135	210
1231	244	122	207
1232	247	123	211
1233	248	124	216
1234	243	115	215
1235	239	104	210
1236	237	98	206
1237	237	97	206
1238	241	103	209
1239	255	127	225
1240	239	110	211
1241	230	107	207
1242	235	123	218
1243	229	127	217
1244	219	124	210
1245	234	154	225
1246	229	162	221
1247	0	0	0
1248	0	0	0
1249	0	0	0
1250	0	0	0
1251	0	0	0
1252	254	216	226
1253	255	214	228
1254	255	206	225
1255	251	197	219
1256	250	193	219
1257	247	189	219
1258	250	194	223
1259	255	202	229
1260	254	194	222
1261	250	186	215
1262	250	181	215
1263	252	178	217
1264	247	166	213
1265	242	153	208
1266	248	154	213
1267	254	157	217
1268	248	142	210
1269	244	129	207
1270	250	132	213
1271	253	132	218
1272	246	122	214
1273	241	112	214
1274	241	109	214
1275	238	104	210
1276	246	113	216
1277	249	118	217
1278	242	108	211
1279	228	94	203
1280	236	114	216
1281	239	129	223
1282	228	130	219
1283	218	127	213
1284	227	148	223
1285	222	157	219
1286	0	0	0
1287	0	0	0
1288	0	0	0
1289	0	0	0
1290	252	219	227
1291	255	216	227
1292	255	210	227
1293	252	202	223
1294	250	197	220
1295	247	192	218
1296	250	197	223
1297	255	203	228
1298	255	202	228
1299	249	193	221
1300	249	188	218
1301	252	186	219
1302	253	182	221
1303	247	169	217
1304	249	165	220
1305	255	167	225
1306	255	160	222
1307	249	144	214
1308	251	140	215
1309	255	141	221
1310	251	130	217
1311	245	120	214
1312	246	120	219
1313	242	116	218
1314	237	108	212
1315	244	117	218
1316	243	116	215
1317	238	107	210
1318	246	120	222
1319	255	141	236
1320	242	134	226
1321	227	133	220
1322	223	140	223
1323	233	163	233
1324	232	173	231
1325	0	0	0
1326	0	0	0
1327	0	0	0
1328	0	0	0
1329	251	218	229
1330	253	212	227
1331	252	205	225
1332	252	202	225
1333	250	198	222
1334	254	203	226
1335	255	206	229
1336	254	203	228
1337	255	204	231
1338	252	197	229
1339	251	193	226
1340	251	188	224
1341	252	184	224
1342	249	176	223
1343	251	172	225
1344	253	166	226
1345	254	159	224
1346	254	153	223
1347	255	147	223
1348	252	137	219
1349	245	125	214
1350	247	125	218
1351	246	125	221
1352	240	118	219
1353	234	110	214
1354	237	113	216
1355	237	113	215
1356	250	129	226
1357	255	140	230
1358	249	138	226
1359	234	131	219
1360	227	140	222
1361	223	149	226
1362	232	169	236
1363	0	0	0
1364	0	0	0
1365	0	0	0
1366	0	0	0
1367	0	0	0
1368	251	219	231
1369	253	213	230
1370	251	205	226
1371	252	203	226
1372	252	201	226
1373	255	205	229
1374	251	200	225
1375	249	198	225
1376	255	207	235
1377	255	201	234
1378	246	187	224
1379	241	179	220
1380	249	186	227
1381	249	179	226
1382	251	174	227
1383	253	167	227
1384	255	165	229
1385	255	158	228
1386	252	148	224
1387	248	137	220
1388	251	138	223
1389	252	138	226
1390	247	131	224
1391	240	124	221
1392	241	128	224
1393	245	131	228
1394	248	133	230
1395	255	149	239
1396	248	137	226
1397	237	134	219
1398	238	148	226
1399	235	160	233
1400	226	160	232
1401	0	0	0
1402	0	0	0
1403	0	0	0
1404	0	0	0
1405	0	0	0
1406	0	0	0
1407	252	220	233
1408	251	212	230
1409	250	205	227
1410	251	203	228
1411	250	200	225
1412	248	198	224
1413	246	195	222
1414	252	201	229
1415	255	209	236
1416	245	191	226
1417	235	177	219
1418	238	181	223
1419	245	187	229
1420	243	178	225
1421	245	172	225
1422	249	169	227
1423	252	166	228
1424	246	154	222
1425	243	143	220
1426	248	145	225
1427	250	145	228
1428	247	140	226
1429	243	134	225
1430	244	138	228
1431	244	141	228
1432	246	144	231
1433	248	145	234
1434	245	141	230
1435	232	130	219
1436	234	146	226
1437	236	161	232
1438	231	167	234
1439	0	0	0
1440	0	0	0
1441	0	0	0
1442	0	0	0
1443	0	0	0
1444	0	0	0
1445	0	0	0
1446	0	0	0
1447	248	207	226
1448	255	214	233
1449	254	211	232
1450	250	205	227
1451	249	203	227
1452	251	203	229
1453	255	211	236
1454	251	203	231
1455	231	182	217
1456	237	191	227
1457	245	197	234
1458	245	193	232
1459	240	181	227
1460	243	180	230
1461	247	177	231
1462	250	175	232
1463	242	161	225
1464	246	161	231
1465	252	164	237
1466	248	155	232
1467	244	149	230
1468	249	154	237
1469	253	159	241
1470	245	151	232
1471	241	151	231
1472	244	157	237
1473	241	153	234
1474	242	163	236
1475	243	178	242
1476	0	0	0
1477	0	0	0
1478	0	0	0
1479	0	0	0
1480	0	0	0
1481	0	0	0
1482	0	0	0
1483	0	0	0
1484	0	0	0
1485	0	0	0
1486	251	214	231
1487	255	220	235
1488	251	213	230
1489	248	207	227
1490	250	208	230
1491	252	209	231
1492	253	206	231
1493	246	198	227
1494	241	200	229
1495	246	208	236
1496	242	201	233
1497	241	195	231
1498	238	189	230
1499	240	186	232
1500	241	183	233
1501	242	181	233
1502	243	177	234
1503	247	177	238
1504	245	169	236
1505	240	159	232
1506	242	163	237
1507	245	167	242
1508	242	162	238
1509	234	154	230
1510	236	161	234
1511	238	168	240
1512	248	183	248
1513	248	192	245
1514	239	192	239
1515	0	0	0
1516	0	0	0
1517	0	0	0
1518	0	0	0
1519	0	0	0
1520	0	0	0
1521	0	0	0
1522	0	0	0
1523	0	0	0
1524	0	0	0
1525	0	0	0
1526	250	220	232
1527	247	213	228
1528	242	206	225
1529	243	206	227
1530	246	207	230
1531	250	205	231
1532	244	197	227
1533	244	201	230
1534	245	206	234
1535	235	195	226
1536	239	201	232
1537	236	194	230
1538	240	199	237
1539	234	192	234
1540	232	186	233
1541	237	185	235
1542	244	188	241
1543	241	179	238
1544	239	177	239
1545	238	179	241
1546	239	183	244
1547	234	177	239
1548	235	180	240
1549	240	190	246
1550	236	186	244
1551	245	201	250
1552	240	199	240
1553	0	0	0
1554	0	0	0
1555	0	0	0
1556	0	0	0
1557	0	0	0
1558	0	0	0
1559	0	0	0
1560	0	0	0
1561	0	0	0
1562	0	0	0
1563	0	0	0
1564	0	0	0
1565	0	0	0
1566	244	214	228
1567	240	206	224
1568	241	206	227
1569	246	208	232
1570	249	205	233
1571	244	196	227
1572	244	201	230
1573	244	206	234
1574	239	205	232
1575	241	210	236
1576	243	212	238
1577	245	215	242
1578	234	203	236
1579	231	198	237
1580	239	201	244
1581	244	203	246
1582	245	201	246
1583	243	198	246
1584	242	201	247
1585	243	205	250
1586	246	211	253
1587	248	215	255
1588	246	213	253
1589	241	208	249
1590	243	213	249
1591	0	0	0
1592	0	0	0
1593	0	0	0
1594	0	0	0
1595	0	0	0
1596	0	0	0
1597	0	0	0
1598	0	0	0
1599	0	0	0
1600	0	0	0
1601	0	0	0
1602	0	0	0
1603	0	0	0
1604	0	0	0
1605	0	0	0
1606	245	216	230
1607	251	218	234
1608	251	213	236
1609	252	209	236
1610	245	198	229
1611	244	203	231
1612	243	209	235
1613	236	207	232
1614	237	212	234
1615	240	213	235
1616	240	214	236
1617	230	203	230
1618	234	209	240
1619	238	210	243
1620	237	205	240
1621	236	203	239
1622	241	209	243
1623	240	212	245
1624	239	211	244
1625	245	218	249
1626	240	212	244
1627	236	209	241
1628	0	0	0
1629	0	0	0
1630	0	0	0
1631	0	0	0
1632	0	0	0
1633	0	0	0
1634	0	0	0
1635	0	0	0
1636	0	0	0
1637	0	0	0
1638	0	0	0
1639	0	0	0
1640	0	0	0
1641	0	0	0
1642	0	0	0
1643	0	0	0
1644	0	0	0
1645	0	0	0
1646	248	217	230
1647	248	211	231
1648	247	206	231
1649	239	196	226
1650	241	205	232
1651	240	210	234
1652	235	210	232
1653	236	215	233
1654	239	216	235
1655	239	216	235
1656	236	217	236
1657	238	221	240
1658	235	216	237
1659	232	211	235
1660	0	0	0
1661	0	0	0
1662	0	0	0
1663	241	221	240
1664	240	218	238
1665	0	0	0
1666	0	0	0
1667	0	0	0
1668	0	0	0
1669	0	0	0
1670	0	0	0
1671	0	0	0
1672	0	0	0
1673	0	0	0
1674	0	0	0
1675	0	0	0
1676	0	0	0
1677	0	0	0
1678	0	0	0
1679	0	0	0
1680	0	0	0
1681	0	0	0
1682	0	0	0
1683	0	0	0
1684	0	0	0
1685	0	0	0
1686	0	0	0
1687	0	0	0
1688	0	0	0
1689	0	0	0
1690	0	0	0
1691	234	216	233
1692	238	222	235
1693	241	223	237
1694	238	219	235
1695	0	0	0
1696	0	0	0
1697	0	0	0
1698	0	0	0
1699	0	0	0
1700	0	0	0
1701	0	0	0
1702	0	0	0
1703	0	0	0
1704	0	0	0
1705	0	0	0
1706	0	0	0
1707	0	0	0
1708	0	0	0
1709	0	0	0
1710	0	0	0
1711	0	0	0
1712	0	0	0
1713	0	0	0
1714	0	0	0
1715	0	0	0
1716	0	0	0
1717	0	0	0
1718	0	0	0
1719	0	0	0
1720	0	0	0
1721	0	0	0
1722	0	0	0
1723	0	0	0
1724	0	0	0
1725	0	0	0
1726	0	0	0
1727	0	0	0
1728	0	0	0
1729	0	0	0
1730	0	0	0
1731	239	228	236
1732	238	224	234
1733	0	0	0
1734	0	0	0
1735	0	0	0
1736	0	0	0
1737	0	0	0
1738	0	0	0
1739	0	0	0
1740	0	0	0
1741	0	0	0
1742	0	0	0
1743	0	0	0
1744	0	0	0
1745	0	0	0
1746	0	0	0
1747	0	0	0
1748	0	0	0
1749	0	0	0
1750	0	0	0
1751	0	0	0
1752	0	0	0
1753	0	0	0
1754	0	0	0
1755	0	0	0
