 	R	G	B
1	0	0	0
2	0	0	0
3	0	0	0
4	0	0	0
5	0	0	0
6	0	0	0
7	0	0	0
8	0	0	0
9	0	0	0
10	0	0	0
11	0	0	0
12	0	0	0
13	0	0	0
14	0	0	0
15	0	0	0
16	255	240	240
17	0	0	0
18	0	0	0
19	0	0	0
20	0	0	0
21	0	0	0
22	0	0	0
23	0	0	0
24	0	0	0
25	0	0	0
26	0	0	0
27	0	0	0
28	0	0	0
29	0	0	0
30	0	0	0
31	0	0	0
32	0	0	0
33	0	0	0
34	0	0	0
35	0	0	0
36	0	0	0
37	0	0	0
38	0	0	0
39	0	0	0
40	0	0	0
41	0	0	0
42	0	0	0
43	0	0	0
44	0	0	0
45	0	0	0
46	0	0	0
47	0	0	0
48	0	0	0
49	0	0	0
50	0	0	0
51	0	0	0
52	0	0	0
53	0	0	0
54	0	0	0
55	0	0	0
56	0	0	0
57	0	0	0
58	0	0	0
59	0	0	0
60	0	0	0
61	0	0	0
62	0	0	0
63	0	0	0
64	0	0	0
65	0	0	0
66	0	0	0
67	0	0	0
68	0	0	0
69	0	0	0
70	0	0	0
71	0	0	0
72	0	0	0
73	0	0	0
74	0	0	0
75	0	0	0
76	0	0	0
77	0	0	0
78	0	0	0
79	0	0	0
80	0	0	0
81	0	0	0
82	0	0	0
83	0	0	0
84	0	0	0
85	0	0	0
86	0	0	0
87	0	0	0
88	0	0	0
89	0	0	0
90	0	0	0
91	0	0	0
92	0	0	0
93	255	233	236
94	255	235	237
95	253	228	233
96	0	0	0
97	0	0	0
98	0	0	0
99	0	0	0
100	0	0	0
101	0	0	0
102	0	0	0
103	255	239	236
104	0	0	0
105	0	0	0
106	0	0	0
107	0	0	0
108	255	245	239
109	0	0	0
110	0	0	0
111	0	0	0
112	0	0	0
113	0	0	0
114	0	0	0
115	0	0	0
116	0	0	0
117	0	0	0
118	0	0	0
119	0	0	0
120	0	0	0
121	0	0	0
122	0	0	0
123	0	0	0
124	0	0	0
125	0	0	0
126	0	0	0
127	0	0	0
128	0	0	0
129	0	0	0
130	0	0	0
131	0	0	0
132	0	0	0
133	0	0	0
134	0	0	0
135	0	0	0
136	0	0	0
137	0	0	0
138	0	0	0
139	0	0	0
140	0	0	0
141	0	0	0
142	0	0	0
143	0	0	0
144	0	0	0
145	0	0	0
146	0	0	0
147	0	0	0
148	0	0	0
149	0	0	0
150	0	0	0
151	0	0	0
152	0	0	0
153	0	0	0
154	0	0	0
155	0	0	0
156	0	0	0
157	0	0	0
158	0	0	0
159	0	0	0
160	0	0	0
161	0	0	0
162	0	0	0
163	0	0	0
164	0	0	0
165	0	0	0
166	0	0	0
167	0	0	0
168	0	0	0
169	0	0	0
170	0	0	0
171	255	229	234
172	253	222	230
173	248	215	225
174	255	227	232
175	255	237	236
176	255	233	232
177	255	230	230
178	0	0	0
179	254	227	231
180	255	235	236
181	255	241	236
182	255	239	233
183	255	237	233
184	255	241	235
185	255	244	236
186	255	239	234
187	254	236	236
188	0	0	0
189	0	0	0
190	0	0	0
191	0	0	0
192	0	0	0
193	0	0	0
194	0	0	0
195	0	0	0
196	0	0	0
197	0	0	0
198	0	0	0
199	0	0	0
200	0	0	0
201	0	0	0
202	0	0	0
203	0	0	0
204	0	0	0
205	0	0	0
206	0	0	0
207	0	0	0
208	0	0	0
209	0	0	0
210	0	0	0
211	0	0	0
212	0	0	0
213	0	0	0
214	0	0	0
215	0	0	0
216	0	0	0
217	0	0	0
218	0	0	0
219	0	0	0
220	0	0	0
221	0	0	0
222	0	0	0
223	0	0	0
224	0	0	0
225	0	0	0
226	0	0	0
227	0	0	0
228	0	0	0
229	0	0	0
230	0	0	0
231	0	0	0
232	0	0	0
233	0	0	0
234	0	0	0
235	0	0	0
236	0	0	0
237	0	0	0
238	0	0	0
239	0	0	0
240	0	0	0
241	0	0	0
242	0	0	0
243	0	0	0
244	0	0	0
245	0	0	0
246	0	0	0
247	0	0	0
248	255	225	230
249	255	222	231
250	252	215	226
251	253	216	227
252	255	228	234
253	255	221	227
254	252	217	223
255	254	221	225
256	252	219	225
257	255	223	230
258	255	231	234
259	255	228	228
260	253	225	224
261	254	227	226
262	255	231	228
263	255	233	229
264	252	228	227
265	254	232	234
266	0	0	0
267	0	0	0
268	0	0	0
269	0	0	0
270	0	0	0
271	0	0	0
272	0	0	0
273	0	0	0
274	0	0	0
275	0	0	0
276	0	0	0
277	0	0	0
278	0	0	0
279	0	0	0
280	0	0	0
281	0	0	0
282	0	0	0
283	0	0	0
284	0	0	0
285	0	0	0
286	0	0	0
287	0	0	0
288	0	0	0
289	0	0	0
290	0	0	0
291	0	0	0
292	0	0	0
293	0	0	0
294	0	0	0
295	0	0	0
296	0	0	0
297	0	0	0
298	0	0	0
299	0	0	0
300	0	0	0
301	0	0	0
302	0	0	0
303	0	0	0
304	0	0	0
305	0	0	0
306	0	0	0
307	0	0	0
308	0	0	0
309	0	0	0
310	0	0	0
311	0	0	0
312	0	0	0
313	0	0	0
314	0	0	0
315	0	0	0
316	252	213	228
317	0	0	0
318	0	0	0
319	0	0	0
320	0	0	0
321	0	0	0
322	0	0	0
323	0	0	0
324	0	0	0
325	255	221	231
326	255	217	227
327	255	214	227
328	255	214	227
329	255	215	226
330	252	210	223
331	247	205	220
332	250	209	222
333	252	212	222
334	253	215	223
335	255	218	225
336	254	218	225
337	252	216	223
338	253	218	224
339	253	220	225
340	255	223	227
341	255	226	230
342	255	229	233
343	255	231	236
344	0	0	0
345	0	0	0
346	0	0	0
347	0	0	0
348	0	0	0
349	0	0	0
350	0	0	0
351	0	0	0
352	0	0	0
353	0	0	0
354	0	0	0
355	0	0	0
356	0	0	0
357	0	0	0
358	0	0	0
359	0	0	0
360	0	0	0
361	0	0	0
362	0	0	0
363	0	0	0
364	0	0	0
365	0	0	0
366	0	0	0
367	0	0	0
368	0	0	0
369	0	0	0
370	0	0	0
371	0	0	0
372	0	0	0
373	0	0	0
374	0	0	0
375	0	0	0
376	0	0	0
377	0	0	0
378	0	0	0
379	0	0	0
380	0	0	0
381	0	0	0
382	0	0	0
383	0	0	0
384	0	0	0
385	0	0	0
386	0	0	0
387	0	0	0
388	0	0	0
389	0	0	0
390	0	0	0
391	0	0	0
392	0	0	0
393	255	221	234
394	255	220	233
395	254	211	229
396	254	208	229
397	0	0	0
398	0	0	0
399	255	210	231
400	255	213	232
401	254	205	225
402	255	212	229
403	251	203	222
404	247	198	218
405	255	216	230
406	255	217	230
407	253	207	222
408	250	203	220
409	255	209	226
410	255	214	228
411	254	210	224
412	255	213	224
413	255	215	224
414	255	214	224
415	255	214	225
416	255	216	227
417	254	215	224
418	255	217	226
419	255	220	228
420	255	221	230
421	253	220	228
422	0	0	0
423	0	0	0
424	0	0	0
425	0	0	0
426	0	0	0
427	0	0	0
428	0	0	0
429	0	0	0
430	0	0	0
431	0	0	0
432	0	0	0
433	0	0	0
434	0	0	0
435	0	0	0
436	0	0	0
437	0	0	0
438	0	0	0
439	0	0	0
440	0	0	0
441	0	0	0
442	0	0	0
443	0	0	0
444	0	0	0
445	0	0	0
446	0	0	0
447	0	0	0
448	0	0	0
449	0	0	0
450	0	0	0
451	0	0	0
452	0	0	0
453	0	0	0
454	0	0	0
455	0	0	0
456	0	0	0
457	0	0	0
458	0	0	0
459	0	0	0
460	0	0	0
461	0	0	0
462	0	0	0
463	0	0	0
464	0	0	0
465	0	0	0
466	0	0	0
467	0	0	0
468	0	0	0
469	0	0	0
470	255	218	236
471	255	225	238
472	255	216	231
473	253	208	227
474	251	203	226
475	248	197	222
476	254	204	228
477	255	211	231
478	255	205	226
479	250	197	220
480	247	192	218
481	242	185	216
482	253	202	227
483	255	218	233
484	255	207	223
485	251	199	219
486	255	207	225
487	255	211	227
488	255	209	225
489	255	207	223
490	255	210	225
491	255	211	223
492	255	211	223
493	255	210	224
494	255	209	224
495	252	207	221
496	252	208	220
497	252	210	220
498	251	210	220
499	249	209	220
500	255	223	229
501	0	0	0
502	0	0	0
503	0	0	0
504	0	0	0
505	0	0	0
506	0	0	0
507	0	0	0
508	0	0	0
509	0	0	0
510	0	0	0
511	0	0	0
512	0	0	0
513	0	0	0
514	0	0	0
515	0	0	0
516	0	0	0
517	0	0	0
518	0	0	0
519	0	0	0
520	0	0	0
521	0	0	0
522	0	0	0
523	0	0	0
524	0	0	0
525	0	0	0
526	0	0	0
527	0	0	0
528	0	0	0
529	0	0	0
530	0	0	0
531	0	0	0
532	0	0	0
533	0	0	0
534	0	0	0
535	0	0	0
536	0	0	0
537	0	0	0
538	0	0	0
539	0	0	0
540	0	0	0
541	0	0	0
542	0	0	0
543	0	0	0
544	0	0	0
545	0	0	0
546	0	0	0
547	254	217	235
548	255	227	242
549	254	212	230
550	249	204	223
551	253	206	227
552	252	202	226
553	253	202	228
554	255	210	233
555	255	204	227
556	253	199	222
557	250	192	219
558	247	188	219
559	254	197	228
560	255	214	238
561	255	207	227
562	250	196	216
563	254	200	221
564	255	207	226
565	254	199	219
566	252	197	218
567	255	203	223
568	255	206	225
569	253	199	219
570	253	199	218
571	253	200	220
572	251	199	219
573	254	204	222
574	253	205	221
575	255	212	224
576	255	213	223
577	252	207	220
578	255	222	229
579	255	216	223
580	0	0	0
581	0	0	0
582	0	0	0
583	0	0	0
584	0	0	0
585	0	0	0
586	0	0	0
587	0	0	0
588	0	0	0
589	0	0	0
590	0	0	0
591	0	0	0
592	0	0	0
593	0	0	0
594	0	0	0
595	0	0	0
596	0	0	0
597	0	0	0
598	0	0	0
599	0	0	0
600	0	0	0
601	0	0	0
602	0	0	0
603	0	0	0
604	0	0	0
605	0	0	0
606	0	0	0
607	0	0	0
608	0	0	0
609	0	0	0
610	0	0	0
611	0	0	0
612	0	0	0
613	0	0	0
614	0	0	0
615	0	0	0
616	0	0	0
617	0	0	0
618	0	0	0
619	0	0	0
620	0	0	0
621	0	0	0
622	0	0	0
623	0	0	0
624	0	0	0
625	0	0	0
626	249	209	229
627	241	195	218
628	247	200	223
629	252	203	227
630	255	205	230
631	255	206	233
632	255	202	230
633	252	196	223
634	250	192	220
635	248	187	219
636	255	197	228
637	255	205	233
638	255	200	228
639	252	194	220
640	254	196	219
641	255	199	220
642	253	193	216
643	248	187	214
644	252	193	218
645	255	197	221
646	252	192	218
647	249	187	215
648	249	188	216
649	248	188	214
650	251	194	217
651	255	200	223
652	255	208	227
653	255	215	230
654	255	210	225
655	254	205	220
656	252	203	219
657	248	198	217
658	0	0	0
659	0	0	0
660	0	0	0
661	0	0	0
662	0	0	0
663	0	0	0
664	0	0	0
665	0	0	0
666	0	0	0
667	0	0	0
668	0	0	0
669	0	0	0
670	0	0	0
671	0	0	0
672	0	0	0
673	0	0	0
674	0	0	0
675	0	0	0
676	0	0	0
677	0	0	0
678	0	0	0
679	0	0	0
680	0	0	0
681	0	0	0
682	0	0	0
683	0	0	0
684	0	0	0
685	0	0	0
686	0	0	0
687	0	0	0
688	0	0	0
689	0	0	0
690	0	0	0
691	0	0	0
692	0	0	0
693	0	0	0
694	0	0	0
695	0	0	0
696	0	0	0
697	0	0	0
698	0	0	0
699	0	0	0
700	0	0	0
701	0	0	0
702	0	0	0
703	0	0	0
704	0	0	0
705	253	213	232
706	255	218	237
707	252	204	228
708	254	205	231
709	255	204	234
710	255	201	231
711	253	197	225
712	252	193	223
713	251	189	224
714	255	200	232
715	255	195	228
716	252	190	223
717	255	194	223
718	255	196	223
719	254	192	219
720	251	187	215
721	253	188	219
722	255	194	224
723	255	192	221
724	252	187	218
725	251	186	219
726	252	187	219
727	254	193	220
728	255	198	222
729	255	197	221
730	255	204	226
731	255	206	226
732	255	201	221
733	252	196	216
734	251	196	216
735	0	0	0
736	0	0	0
737	0	0	0
738	0	0	0
739	0	0	0
740	0	0	0
741	0	0	0
742	0	0	0
743	0	0	0
744	0	0	0
745	0	0	0
746	0	0	0
747	0	0	0
748	0	0	0
749	0	0	0
750	0	0	0
751	0	0	0
752	0	0	0
753	0	0	0
754	0	0	0
755	0	0	0
756	0	0	0
757	0	0	0
758	0	0	0
759	0	0	0
760	0	0	0
761	0	0	0
762	0	0	0
763	0	0	0
764	0	0	0
765	0	0	0
766	0	0	0
767	0	0	0
768	0	0	0
769	0	0	0
770	0	0	0
771	0	0	0
772	0	0	0
773	0	0	0
774	0	0	0
775	0	0	0
776	0	0	0
777	0	0	0
778	0	0	0
779	0	0	0
780	0	0	0
781	0	0	0
782	0	0	0
783	0	0	0
784	255	213	233
785	247	199	225
786	249	199	228
787	252	199	231
788	253	198	231
789	252	194	226
790	252	192	225
791	251	188	225
792	252	188	226
793	249	184	222
794	252	188	224
795	255	191	225
796	253	188	222
797	252	185	220
798	254	187	223
799	255	188	225
800	255	187	224
801	254	186	222
802	253	184	220
803	251	182	220
804	255	190	224
805	255	196	223
806	255	194	220
807	254	192	216
808	255	194	218
809	255	197	221
810	255	193	218
811	251	189	214
812	254	193	217
813	255	195	219
814	255	200	221
815	255	202	220
816	255	207	222
817	255	213	226
818	255	214	227
819	255	214	225
820	255	216	225
821	255	217	224
822	255	222	226
823	255	227	229
824	255	231	230
825	255	237	233
826	0	0	0
827	0	0	0
828	0	0	0
829	0	0	0
830	0	0	0
831	0	0	0
832	0	0	0
833	0	0	0
834	0	0	0
835	0	0	0
836	0	0	0
837	0	0	0
838	0	0	0
839	0	0	0
840	0	0	0
841	0	0	0
842	0	0	0
843	0	0	0
844	0	0	0
845	0	0	0
846	0	0	0
847	0	0	0
848	0	0	0
849	0	0	0
850	0	0	0
851	0	0	0
852	0	0	0
853	0	0	0
854	0	0	0
855	0	0	0
856	0	0	0
857	0	0	0
858	0	0	0
859	0	0	0
860	0	0	0
861	0	0	0
862	0	0	0
863	0	0	0
864	255	215	238
865	255	206	236
866	255	205	236
867	251	193	226
868	252	191	226
869	254	192	229
870	255	192	230
871	250	183	225
872	254	188	227
873	255	192	228
874	255	188	225
875	254	185	224
876	255	188	227
877	253	182	223
878	253	181	222
879	255	188	226
880	255	186	224
881	252	181	220
882	255	189	224
883	255	190	221
884	255	189	218
885	252	184	213
886	254	187	215
887	255	190	220
888	254	186	217
889	252	183	213
890	255	187	216
891	253	186	215
892	255	191	217
893	255	194	217
894	255	199	220
895	255	200	220
896	255	201	221
897	255	203	222
898	255	205	221
899	254	205	220
900	255	210	222
901	255	212	223
902	255	216	223
903	255	223	226
904	254	219	223
905	0	0	0
906	0	0	0
907	0	0	0
908	0	0	0
909	0	0	0
910	0	0	0
911	0	0	0
912	0	0	0
913	0	0	0
914	0	0	0
915	0	0	0
916	0	0	0
917	0	0	0
918	0	0	0
919	0	0	0
920	0	0	0
921	0	0	0
922	0	0	0
923	0	0	0
924	0	0	0
925	0	0	0
926	0	0	0
927	0	0	0
928	0	0	0
929	0	0	0
930	0	0	0
931	0	0	0
932	0	0	0
933	0	0	0
934	0	0	0
935	0	0	0
936	0	0	0
937	0	0	0
938	0	0	0
939	0	0	0
940	0	0	0
941	255	227	243
942	255	218	239
943	255	209	236
944	252	199	231
945	246	187	223
946	250	189	226
947	252	190	229
948	250	185	227
949	246	178	223
950	252	184	227
951	255	188	227
952	253	184	223
953	252	181	222
954	252	179	221
955	248	174	215
956	255	182	221
957	255	189	228
958	255	184	224
959	253	178	219
960	255	181	219
961	255	183	218
962	253	179	215
963	250	176	214
964	252	178	217
965	254	180	219
966	253	179	217
967	251	176	213
968	251	177	212
969	250	176	212
970	253	182	215
971	254	186	215
972	253	186	214
973	252	187	213
974	254	191	216
975	255	194	220
976	254	195	220
977	252	195	218
978	252	197	218
979	252	200	220
980	254	205	221
981	255	211	220
982	0	0	0
983	0	0	0
984	0	0	0
985	0	0	0
986	0	0	0
987	0	0	0
988	0	0	0
989	0	0	0
990	0	0	0
991	0	0	0
992	0	0	0
993	0	0	0
994	0	0	0
995	0	0	0
996	0	0	0
997	0	0	0
998	0	0	0
999	0	0	0
1000	0	0	0
1001	0	0	0
1002	0	0	0
1003	0	0	0
1004	0	0	0
1005	0	0	0
1006	0	0	0
1007	0	0	0
1008	0	0	0
1009	0	0	0
1010	0	0	0
1011	0	0	0
1012	0	0	0
1013	0	0	0
1014	0	0	0
1015	0	0	0
1016	0	0	0
1017	0	0	0
1018	0	0	0
1019	255	225	241
1020	255	215	235
1021	253	206	233
1022	249	197	229
1023	251	196	230
1024	255	199	234
1025	255	195	233
1026	253	190	231
1027	253	189	230
1028	255	195	235
1029	253	186	227
1030	253	183	224
1031	255	188	227
1032	255	186	226
1033	246	168	214
1034	253	176	220
1035	255	182	224
1036	254	177	221
1037	253	176	219
1038	255	179	220
1039	255	179	218
1040	253	176	217
1041	254	176	220
1042	255	179	223
1043	255	176	221
1044	254	175	219
1045	254	175	218
1046	255	177	217
1047	252	174	215
1048	255	180	218
1049	253	177	213
1050	252	178	212
1051	255	183	215
1052	255	186	218
1053	252	183	216
1054	252	184	216
1055	254	190	219
1056	254	193	220
1057	255	198	223
1058	255	203	223
1059	0	0	0
1060	0	0	0
1061	0	0	0
1062	0	0	0
1063	0	0	0
1064	0	0	0
1065	0	0	0
1066	0	0	0
1067	0	0	0
1068	0	0	0
1069	0	0	0
1070	0	0	0
1071	0	0	0
1072	0	0	0
1073	0	0	0
1074	0	0	0
1075	0	0	0
1076	0	0	0
1077	0	0	0
1078	0	0	0
1079	0	0	0
1080	0	0	0
1081	0	0	0
1082	0	0	0
1083	0	0	0
1084	0	0	0
1085	0	0	0
1086	0	0	0
1087	0	0	0
1088	0	0	0
1089	0	0	0
1090	0	0	0
1091	0	0	0
1092	0	0	0
1093	0	0	0
1094	0	0	0
1095	0	0	0
1096	0	0	0
1097	0	0	0
1098	249	210	232
1099	247	202	229
1100	250	202	232
1101	253	203	235
1102	255	201	236
1103	253	197	233
1104	255	196	232
1105	255	194	230
1106	252	187	225
1107	247	179	221
1108	254	185	226
1109	255	189	228
1110	251	175	219
1111	241	160	211
1112	248	168	219
1113	251	172	221
1114	251	172	220
1115	251	171	218
1116	252	172	218
1117	252	172	217
1118	252	171	217
1119	252	171	219
1120	253	171	220
1121	251	169	219
1122	253	171	221
1123	254	172	221
1124	253	170	220
1125	251	167	216
1126	251	167	214
1127	247	164	208
1128	251	170	212
1129	254	175	216
1130	251	172	213
1131	246	167	208
1132	250	175	212
1133	253	182	216
1134	255	188	219
1135	255	193	220
1136	255	195	219
1137	255	196	217
1138	255	198	217
1139	255	199	217
1140	0	0	0
1141	0	0	0
1142	0	0	0
1143	0	0	0
1144	0	0	0
1145	0	0	0
1146	0	0	0
1147	0	0	0
1148	0	0	0
1149	0	0	0
1150	0	0	0
1151	0	0	0
1152	0	0	0
1153	0	0	0
1154	0	0	0
1155	0	0	0
1156	0	0	0
1157	0	0	0
1158	0	0	0
1159	0	0	0
1160	0	0	0
1161	0	0	0
1162	0	0	0
1163	0	0	0
1164	0	0	0
1165	0	0	0
1166	0	0	0
1167	0	0	0
1168	0	0	0
1169	0	0	0
1170	0	0	0
1171	0	0	0
1172	0	0	0
1173	0	0	0
1174	0	0	0
1175	0	0	0
1176	0	0	0
1177	0	0	0
1178	0	0	0
1179	255	214	240
1180	255	212	241
1181	249	194	230
1182	251	195	229
1183	255	204	234
1184	255	197	230
1185	251	185	226
1186	255	192	233
1187	255	188	227
1188	249	174	219
1189	248	169	220
1190	255	178	228
1191	255	180	228
1192	255	180	227
1193	250	169	219
1194	252	170	219
1195	255	175	223
1196	255	175	223
1197	254	171	222
1198	254	171	223
1199	253	168	221
1200	255	171	223
1201	255	171	224
1202	255	170	222
1203	253	167	218
1204	254	167	216
1205	254	168	214
1206	255	174	218
1207	255	172	216
1208	253	169	213
1209	255	174	214
1210	255	182	219
1211	254	177	216
1212	255	183	220
1213	255	183	217
1214	255	185	216
1215	255	188	217
1216	255	191	218
1217	251	186	213
1218	253	191	215
1219	255	200	222
1220	0	0	0
1221	0	0	0
1222	0	0	0
1223	0	0	0
1224	0	0	0
1225	0	0	0
1226	0	0	0
1227	0	0	0
1228	0	0	0
1229	0	0	0
1230	0	0	0
1231	0	0	0
1232	0	0	0
1233	0	0	0
1234	0	0	0
1235	0	0	0
1236	0	0	0
1237	0	0	0
1238	0	0	0
1239	0	0	0
1240	0	0	0
1241	0	0	0
1242	0	0	0
1243	0	0	0
1244	0	0	0
1245	0	0	0
1246	0	0	0
1247	0	0	0
1248	0	0	0
1249	0	0	0
1250	0	0	0
1251	0	0	0
1252	0	0	0
1253	0	0	0
1254	0	0	0
1255	0	0	0
1256	0	0	0
1257	0	0	0
1258	252	207	232
1259	244	191	224
1260	255	204	235
1261	255	213	238
1262	255	200	231
1263	253	190	230
1264	255	190	233
1265	255	185	227
1266	253	180	224
1267	251	175	224
1268	254	178	228
1269	255	181	228
1270	250	171	221
1271	243	160	214
1272	249	168	219
1273	254	174	224
1274	253	170	222
1275	251	166	221
1276	253	167	222
1277	252	165	219
1278	253	166	219
1279	253	166	219
1280	253	164	217
1281	252	162	214
1282	255	166	215
1283	255	168	216
1284	255	170	216
1285	255	167	213
1286	255	175	217
1287	255	180	218
1288	255	176	215
1289	255	171	216
1290	255	174	219
1291	254	174	217
1292	255	177	218
1293	255	180	219
1294	252	177	215
1295	247	172	209
1296	252	182	214
1297	255	190	219
1298	255	194	219
1299	255	196	215
1300	255	201	215
1301	255	206	217
1302	255	208	218
1303	0	0	0
1304	255	215	224
1305	0	0	0
1306	0	0	0
1307	0	0	0
1308	255	235	233
1309	255	240	235
1310	255	240	235
1311	255	241	238
1312	255	243	239
1313	0	0	0
1314	0	0	0
1315	0	0	0
1316	0	0	0
1317	0	0	0
1318	0	0	0
1319	0	0	0
1320	0	0	0
1321	0	0	0
1322	0	0	0
1323	0	0	0
1324	0	0	0
1325	0	0	0
1326	0	0	0
1327	0	0	0
1328	0	0	0
1329	0	0	0
1330	0	0	0
1331	0	0	0
1332	0	0	0
1333	0	0	0
1334	0	0	0
1335	0	0	0
1336	0	0	0
1337	251	204	232
1338	255	218	243
1339	255	205	232
1340	250	192	224
1341	255	196	233
1342	255	196	236
1343	249	179	223
1344	247	174	221
1345	254	182	228
1346	255	186	231
1347	255	187	231
1348	254	178	225
1349	248	169	221
1350	253	176	226
1351	255	183	231
1352	255	179	229
1353	253	168	223
1354	255	169	224
1355	254	167	221
1356	255	168	221
1357	254	165	219
1358	254	164	217
1359	255	167	218
1360	255	171	220
1361	253	159	212
1362	255	161	214
1363	249	152	207
1364	254	161	211
1365	255	163	211
1366	251	158	208
1367	253	161	214
1368	255	165	218
1369	252	163	214
1370	253	166	216
1371	255	173	220
1372	252	169	215
1373	253	173	214
1374	255	183	219
1375	254	179	216
1376	254	182	216
1377	252	182	210
1378	254	187	211
1379	254	191	213
1380	252	192	213
1381	255	200	218
1382	255	204	220
1383	252	203	216
1384	0	0	0
1385	255	223	226
1386	255	225	226
1387	255	227	227
1388	254	227	227
1389	255	232	232
1390	255	232	233
1391	254	235	233
1392	0	0	0
1393	0	0	0
1394	0	0	0
1395	0	0	0
1396	0	0	0
1397	0	0	0
1398	0	0	0
1399	0	0	0
1400	0	0	0
1401	0	0	0
1402	0	0	0
1403	0	0	0
1404	0	0	0
1405	0	0	0
1406	0	0	0
1407	0	0	0
1408	0	0	0
1409	0	0	0
1410	0	0	0
1411	0	0	0
1412	0	0	0
1413	0	0	0
1414	255	222	237
1415	255	216	237
1416	253	207	233
1417	247	195	224
1418	251	196	227
1419	255	199	232
1420	249	185	226
1421	240	169	217
1422	251	182	226
1423	255	189	230
1424	255	190	230
1425	255	192	234
1426	255	185	231
1427	253	178	227
1428	255	184	232
1429	255	189	234
1430	255	178	226
1431	252	168	222
1432	255	169	224
1433	255	168	221
1434	254	165	219
1435	253	163	218
1436	255	167	222
1437	255	170	222
1438	253	158	214
1439	247	147	208
1440	246	144	207
1441	240	136	202
1442	244	141	206
1443	246	145	207
1444	247	146	208
1445	247	148	210
1446	247	149	210
1447	245	147	208
1448	249	155	213
1449	253	162	218
1450	254	166	218
1451	254	169	213
1452	250	165	209
1453	247	162	210
1454	248	165	211
1455	245	165	204
1456	246	169	205
1457	247	174	208
1458	253	183	215
1459	255	190	217
1460	253	191	215
1461	247	189	209
1462	253	202	215
1463	255	217	224
1464	255	215	221
1465	254	216	222
1466	253	218	223
1467	254	223	226
1468	254	225	227
1469	252	227	227
1470	0	0	0
1471	0	0	0
1472	0	0	0
1473	0	0	0
1474	0	0	0
1475	0	0	0
1476	0	0	0
1477	0	0	0
1478	0	0	0
1479	0	0	0
1480	0	0	0
1481	0	0	0
1482	0	0	0
1483	0	0	0
1484	0	0	0
1485	0	0	0
1486	0	0	0
1487	0	0	0
1488	0	0	0
1489	0	0	0
1490	0	0	0
1491	255	231	241
1492	255	225	238
1493	255	219	237
1494	253	211	234
1495	251	203	230
1496	255	205	233
1497	255	205	234
1498	251	191	226
1499	250	186	227
1500	255	198	237
1501	255	191	230
1502	255	192	230
1503	255	188	230
1504	253	181	227
1505	254	180	228
1506	255	187	234
1507	255	182	229
1508	251	170	221
1509	254	171	224
1510	255	173	227
1511	253	165	220
1512	253	163	219
1513	255	166	222
1514	255	171	225
1515	255	160	217
1516	248	149	210
1517	255	156	217
1518	254	152	218
1519	245	139	210
1520	250	145	215
1521	255	157	222
1522	255	159	223
1523	250	147	214
1524	250	148	214
1525	253	154	216
1526	255	161	221
1527	254	158	219
1528	255	162	218
1529	255	164	213
1530	251	160	208
1531	253	166	214
1532	255	169	216
1533	254	171	213
1534	255	176	214
1535	255	178	216
1536	255	187	223
1537	249	174	212
1538	247	175	209
1539	252	187	212
1540	255	200	217
1541	255	205	219
1542	252	203	215
1543	255	211	221
1544	253	213	222
1545	255	220	226
1546	255	222	226
1547	251	221	223
1548	0	0	0
1549	0	0	0
1550	0	0	0
1551	0	0	0
1552	0	0	0
1553	0	0	0
1554	0	0	0
1555	0	0	0
1556	0	0	0
1557	0	0	0
1558	0	0	0
1559	0	0	0
1560	0	0	0
1561	0	0	0
1562	0	0	0
1563	0	0	0
1564	0	0	0
1565	0	0	0
1566	0	0	0
1567	0	0	0
1568	0	0	0
1569	0	0	0
1570	253	227	238
1571	253	221	236
1572	252	215	235
1573	251	209	234
1574	255	211	237
1575	255	211	235
1576	255	207	233
1577	255	201	233
1578	255	199	233
1579	254	192	229
1580	253	188	227
1581	251	183	225
1582	251	181	225
1583	252	180	226
1584	253	178	226
1585	253	174	225
1586	255	175	227
1587	255	175	227
1588	254	168	223
1589	250	161	220
1590	255	165	224
1591	255	167	223
1592	253	158	217
1593	248	149	212
1594	253	154	217
1595	255	160	223
1596	251	148	216
1597	243	135	211
1598	253	149	220
1599	255	160	224
1600	251	149	216
1601	244	138	210
1602	251	147	217
1603	254	153	217
1604	252	151	214
1605	249	148	213
1606	252	153	215
1607	252	156	212
1608	252	159	210
1609	254	163	209
1610	255	167	211
1611	255	171	215
1612	255	174	216
1613	255	175	215
1614	249	165	208
1615	239	154	202
1616	250	171	214
1617	255	184	217
1618	255	189	215
1619	254	193	213
1620	254	198	215
1621	255	206	221
1622	255	211	223
1623	255	217	227
1624	255	217	225
1625	251	216	223
1626	0	0	0
1627	0	0	0
1628	0	0	0
1629	0	0	0
1630	0	0	0
1631	0	0	0
1632	0	0	0
1633	0	0	0
1634	0	0	0
1635	0	0	0
1636	0	0	0
1637	0	0	0
1638	0	0	0
1639	0	0	0
1640	0	0	0
1641	0	0	0
1642	0	0	0
1643	0	0	0
1644	0	0	0
1645	0	0	0
1646	0	0	0
1647	0	0	0
1648	0	0	0
1649	0	0	0
1650	0	0	0
1651	255	220	240
1652	255	222	243
1653	254	207	232
1654	255	203	231
1655	253	198	229
1656	252	195	229
1657	252	192	230
1658	251	188	228
1659	254	190	230
1660	254	188	230
1661	255	187	230
1662	255	185	232
1663	251	172	226
1664	254	173	227
1665	255	174	226
1666	253	167	222
1667	255	168	226
1668	255	172	229
1669	255	166	224
1670	253	157	218
1671	247	146	214
1672	252	151	219
1673	255	158	223
1674	248	145	214
1675	252	150	220
1676	255	164	230
1677	255	159	223
1678	251	148	215
1679	254	151	220
1680	255	160	227
1681	253	151	217
1682	252	150	214
1683	250	148	214
1684	254	154	218
1685	253	155	215
1686	254	158	213
1687	254	161	210
1688	255	165	212
1689	253	162	213
1690	255	165	215
1691	255	168	214
1692	248	158	207
1693	247	158	209
1694	255	176	221
1695	255	179	218
1696	255	183	216
1697	250	182	209
1698	251	188	211
1699	255	203	222
1700	255	207	223
1701	255	211	223
1702	253	210	221
1703	254	216	223
1704	0	0	0
1705	0	0	0
1706	0	0	0
1707	0	0	0
1708	0	0	0
1709	0	0	0
1710	0	0	0
1711	0	0	0
1712	0	0	0
1713	0	0	0
1714	0	0	0
1715	0	0	0
1716	0	0	0
1717	0	0	0
1718	0	0	0
1719	0	0	0
1720	0	0	0
1721	0	0	0
1722	0	0	0
1723	0	0	0
1724	0	0	0
1725	0	0	0
1726	0	0	0
1727	0	0	0
1728	0	0	0
1729	255	229	243
1730	254	216	238
1731	248	203	232
1732	249	200	232
1733	247	194	228
1734	250	194	229
1735	250	192	231
1736	254	194	234
1737	255	196	235
1738	255	192	233
1739	255	191	235
1740	252	180	230
1741	246	167	223
1742	250	170	226
1743	253	171	225
1744	255	172	225
1745	255	173	228
1746	255	168	225
1747	254	162	221
1748	249	152	217
1749	243	141	214
1750	250	149	221
1751	254	155	220
1752	255	158	221
1753	255	162	225
1754	255	161	225
1755	255	156	220
1756	255	159	223
1757	255	161	226
1758	254	153	220
1759	248	144	211
1760	246	143	209
1761	245	141	209
1762	248	146	212
1763	249	148	212
1764	252	153	215
1765	254	158	217
1766	252	155	214
1767	249	151	212
1768	252	156	215
1769	253	159	214
1770	252	160	212
1771	250	158	210
1772	252	165	213
1773	251	168	212
1774	248	169	209
1775	244	169	202
1776	252	184	211
1777	255	199	221
1778	255	202	221
1779	255	206	219
1780	255	211	220
1781	255	216	221
1782	255	225	225
1783	255	235	230
1784	0	0	0
1785	0	0	0
1786	0	0	0
1787	0	0	0
1788	0	0	0
1789	0	0	0
1790	0	0	0
1791	0	0	0
1792	0	0	0
1793	0	0	0
1794	0	0	0
1795	0	0	0
1796	0	0	0
1797	0	0	0
1798	0	0	0
1799	0	0	0
1800	0	0	0
1801	0	0	0
1802	0	0	0
1803	0	0	0
1804	0	0	0
1805	0	0	0
1806	0	0	0
1807	255	232	243
1808	253	219	239
1809	250	212	239
1810	249	208	239
1811	244	197	231
1812	251	200	235
1813	252	196	235
1814	253	197	237
1815	255	197	236
1816	255	195	235
1817	255	195	237
1818	253	183	230
1819	251	177	228
1820	255	181	232
1821	255	176	229
1822	255	177	231
1823	251	164	223
1824	250	159	220
1825	255	164	224
1826	250	153	220
1827	248	149	221
1828	255	158	227
1829	255	163	225
1830	255	166	224
1831	255	159	220
1832	255	158	220
1833	255	154	218
1834	255	157	221
1835	254	153	220
1836	247	144	213
1837	255	160	222
1838	255	159	220
1839	255	156	218
1840	255	161	222
1841	254	154	217
1842	255	161	222
1843	255	159	222
1844	255	157	220
1845	254	155	218
1846	255	159	220
1847	254	157	216
1848	253	158	214
1849	252	158	212
1850	254	165	214
1851	254	168	214
1852	253	171	213
1853	255	178	212
1854	255	194	220
1855	254	186	215
1856	253	189	214
1857	255	203	219
1858	255	208	219
1859	252	202	212
1860	255	210	216
1861	255	218	220
1862	249	210	216
1863	0	0	0
1864	0	0	0
1865	0	0	0
1866	0	0	0
1867	0	0	0
1868	0	0	0
1869	0	0	0
1870	0	0	0
1871	0	0	0
1872	0	0	0
1873	0	0	0
1874	0	0	0
1875	0	0	0
1876	0	0	0
1877	0	0	0
1878	0	0	0
1879	0	0	0
1880	0	0	0
1881	0	0	0
1882	0	0	0
1883	0	0	0
1884	0	0	0
1885	0	0	0
1886	252	225	240
1887	248	217	239
1888	240	205	233
1889	236	195	228
1890	243	196	232
1891	244	192	231
1892	247	194	232
1893	249	194	232
1894	252	194	233
1895	255	194	233
1896	252	187	228
1897	250	182	226
1898	252	179	227
1899	253	175	228
1900	249	166	225
1901	243	154	219
1902	249	159	223
1903	254	163	226
1904	252	159	223
1905	249	154	222
1906	255	163	227
1907	255	169	227
1908	255	163	221
1909	254	156	215
1910	255	157	218
1911	255	154	217
1912	254	152	217
1913	251	149	219
1914	255	163	227
1915	255	178	233
1916	255	171	225
1917	255	168	223
1918	255	163	221
1919	255	157	216
1920	255	157	218
1921	255	156	218
1922	255	155	217
1923	253	153	214
1924	253	153	214
1925	251	151	213
1926	253	155	214
1927	252	157	212
1928	255	163	215
1929	255	167	216
1930	255	178	221
1931	255	186	220
1932	255	180	214
1933	249	173	209
1934	255	188	218
1935	255	202	223
1936	254	195	214
1937	246	188	206
1938	248	195	208
1939	250	202	214
1940	251	208	219
1941	0	0	0
1942	0	0	0
1943	0	0	0
1944	0	0	0
1945	0	0	0
1946	0	0	0
1947	0	0	0
1948	0	0	0
1949	0	0	0
1950	0	0	0
1951	0	0	0
1952	0	0	0
1953	0	0	0
1954	0	0	0
1955	0	0	0
1956	0	0	0
1957	0	0	0
1958	0	0	0
1959	0	0	0
1960	0	0	0
1961	0	0	0
1962	0	0	0
1963	0	0	0
1964	0	0	0
1965	0	0	0
1966	0	0	0
1967	0	0	0
1968	0	0	0
1969	0	0	0
1970	0	0	0
1971	253	207	237
1972	255	207	239
1973	252	196	232
1974	248	189	227
1975	255	195	232
1976	255	193	234
1977	254	181	231
1978	251	173	229
1979	252	169	229
1980	255	174	233
1981	255	171	229
1982	255	167	225
1983	252	162	223
1984	255	171	228
1985	255	178	231
1986	255	172	226
1987	250	150	212
1988	253	151	215
1989	249	145	210
1990	247	142	210
1991	254	153	220
1992	255	166	228
1993	255	169	225
1994	255	161	217
1995	255	166	220
1996	255	162	219
1997	250	150	212
1998	252	151	213
1999	255	156	217
2000	255	155	217
2001	252	151	213
2002	253	151	214
2003	252	150	214
2004	254	155	215
2005	253	156	213
2006	255	162	216
2007	254	161	215
2008	255	172	220
2009	255	169	213
2010	250	165	207
2011	250	169	210
2012	255	184	220
2013	255	188	217
2014	249	181	208
2015	252	190	211
2016	252	196	213
2017	255	206	220
2018	0	0	0
2019	0	0	0
2020	0	0	0
2021	0	0	0
2022	0	0	0
2023	0	0	0
2024	0	0	0
2025	0	0	0
2026	0	0	0
2027	0	0	0
2028	0	0	0
2029	0	0	0
2030	0	0	0
2031	0	0	0
2032	0	0	0
2033	0	0	0
2034	0	0	0
2035	0	0	0
2036	0	0	0
2037	0	0	0
2038	0	0	0
2039	0	0	0
2040	0	0	0
2041	0	0	0
2042	0	0	0
2043	0	0	0
2044	0	0	0
2045	0	0	0
2046	0	0	0
2047	0	0	0
2048	0	0	0
2049	0	0	0
2050	252	206	234
2051	248	197	231
2052	253	202	236
2053	255	208	240
2054	255	195	232
2055	252	183	228
2056	255	183	232
2057	255	180	232
2058	255	181	234
2059	255	178	228
2060	255	174	224
2061	255	170	222
2062	255	178	228
2063	255	186	233
2064	255	164	220
2065	246	143	211
2066	248	143	213
2067	243	135	206
2068	251	147	213
2069	255	157	220
2070	255	159	220
2071	255	162	219
2072	255	163	218
2073	255	167	221
2074	252	155	214
2075	245	144	208
2076	250	149	213
2077	253	153	214
2078	250	149	212
2079	248	146	212
2080	250	147	215
2081	249	146	212
2082	251	150	213
2083	251	151	212
2084	252	153	212
2085	249	151	210
2086	249	153	210
2087	246	152	206
2088	249	159	209
2089	250	162	210
2090	252	169	213
2091	251	173	211
2092	253	181	213
2093	255	191	217
2094	255	199	219
2095	255	207	223
2096	255	212	224
2097	0	0	0
2098	0	0	0
2099	0	0	0
2100	0	0	0
2101	0	0	0
2102	0	0	0
2103	0	0	0
2104	0	0	0
2105	0	0	0
2106	0	0	0
2107	0	0	0
2108	0	0	0
2109	0	0	0
2110	0	0	0
2111	0	0	0
2112	0	0	0
2113	0	0	0
2114	0	0	0
2115	0	0	0
2116	0	0	0
2117	0	0	0
2118	0	0	0
2119	0	0	0
2120	0	0	0
2121	0	0	0
2122	0	0	0
2123	0	0	0
2124	0	0	0
2125	0	0	0
2126	0	0	0
2127	0	0	0
2128	0	0	0
2129	0	0	0
2130	255	213	242
2131	255	213	241
2132	255	199	234
2133	253	190	231
2134	255	190	235
2135	250	174	227
2136	254	176	227
2137	251	171	221
2138	250	167	217
2139	255	174	224
2140	255	183	231
2141	255	168	223
2142	245	147	212
2143	247	145	215
2144	250	145	218
2145	246	140	211
2146	254	152	218
2147	255	156	219
2148	255	159	220
2149	255	158	218
2150	254	159	216
2151	255	168	221
2152	252	155	213
2153	251	152	213
2154	255	158	218
2155	255	162	219
2156	255	158	218
2157	253	153	218
2158	255	155	220
2159	255	156	219
2160	255	160	221
2161	254	155	215
2162	255	157	215
2163	252	153	213
2164	254	156	214
2165	254	158	214
2166	255	166	218
2167	250	157	211
2168	252	164	213
2169	251	168	211
2170	253	176	214
2171	255	187	218
2172	255	195	219
2173	255	199	219
2174	255	203	219
2175	255	209	221
2176	0	0	0
2177	0	0	0
2178	0	0	0
2179	0	0	0
2180	0	0	0
2181	0	0	0
2182	0	0	0
2183	0	0	0
2184	0	0	0
2185	0	0	0
2186	0	0	0
2187	0	0	0
2188	0	0	0
2189	0	0	0
2190	0	0	0
2191	0	0	0
2192	0	0	0
2193	0	0	0
2194	0	0	0
2195	0	0	0
2196	0	0	0
2197	0	0	0
2198	0	0	0
2199	0	0	0
2200	0	0	0
2201	0	0	0
2202	0	0	0
2203	0	0	0
2204	0	0	0
2205	0	0	0
2206	0	0	0
2207	0	0	0
2208	255	217	242
2209	255	216	241
2210	254	204	235
2211	253	195	235
2212	249	182	231
2213	241	166	221
2214	245	167	223
2215	244	163	218
2216	252	171	223
2217	255	178	228
2218	248	161	219
2219	242	147	216
2220	242	144	217
2221	243	141	214
2222	245	142	215
2223	243	138	211
2224	251	148	218
2225	253	154	219
2226	253	154	219
2227	252	154	217
2228	255	161	220
2229	255	169	222
2230	255	163	216
2231	255	160	216
2232	255	166	221
2233	255	170	226
2234	255	164	222
2235	255	159	218
2236	255	161	221
2237	255	163	222
2238	255	160	219
2239	253	154	212
2240	253	153	211
2241	251	151	210
2242	255	156	214
2243	255	159	214
2244	252	155	211
2245	246	147	207
2246	249	156	211
2247	248	159	209
2248	252	171	213
2249	255	183	216
2250	255	187	216
2251	254	191	215
2252	255	198	217
2253	255	205	220
2254	255	207	221
2255	0	0	0
2256	0	0	0
2257	0	0	0
2258	0	0	0
2259	0	0	0
2260	0	0	0
2261	0	0	0
2262	0	0	0
2263	0	0	0
2264	0	0	0
2265	0	0	0
2266	0	0	0
2267	0	0	0
2268	0	0	0
2269	0	0	0
2270	0	0	0
2271	0	0	0
2272	0	0	0
2273	0	0	0
2274	0	0	0
2275	0	0	0
2276	0	0	0
2277	0	0	0
2278	0	0	0
2279	0	0	0
2280	0	0	0
2281	0	0	0
2282	0	0	0
2283	0	0	0
2284	0	0	0
2285	0	0	0
2286	0	0	0
2287	255	218	239
2288	250	205	234
2289	255	207	241
2290	253	195	237
2291	250	183	232
2292	255	186	234
2293	253	179	230
2294	255	188	236
2295	253	174	226
2296	243	158	218
2297	255	170	234
2298	255	167	234
2299	255	164	228
2300	255	164	228
2301	251	153	220
2302	255	164	227
2303	255	159	222
2304	255	160	222
2305	254	156	219
2306	255	163	222
2307	255	161	218
2308	250	154	211
2309	255	165	218
2310	255	169	222
2311	255	160	218
2312	251	154	214
2313	255	160	217
2314	255	163	220
2315	255	158	217
2316	254	155	215
2317	255	156	214
2318	255	156	214
2319	253	153	212
2320	255	158	216
2321	254	154	212
2322	251	151	211
2323	248	148	209
2324	252	156	214
2325	254	165	216
2326	255	177	219
2327	255	179	217
2328	255	184	216
2329	255	187	216
2330	255	194	218
2331	254	196	217
2332	252	198	217
2333	253	205	219
2334	0	0	0
2335	0	0	0
2336	0	0	0
2337	0	0	0
2338	0	0	0
2339	0	0	0
2340	0	0	0
2341	0	0	0
2342	0	0	0
2343	0	0	0
2344	0	0	0
2345	0	0	0
2346	0	0	0
2347	0	0	0
2348	0	0	0
2349	0	0	0
2350	0	0	0
2351	0	0	0
2352	0	0	0
2353	0	0	0
2354	0	0	0
2355	0	0	0
2356	0	0	0
2357	0	0	0
2358	0	0	0
2359	0	0	0
2360	0	0	0
2361	0	0	0
2362	0	0	0
2363	0	0	0
2364	0	0	0
2365	0	0	0
2366	0	0	0
2367	255	217	242
2368	255	206	238
2369	253	195	235
2370	255	193	236
2371	253	187	233
2372	249	177	228
2373	243	165	221
2374	253	176	231
2375	255	188	242
2376	255	185	239
2377	255	181	236
2378	255	175	232
2379	255	164	223
2380	255	165	223
2381	255	160	218
2382	254	158	216
2383	252	155	215
2384	252	155	216
2385	251	154	216
2386	254	161	219
2387	255	170	223
2388	252	158	215
2389	246	149	210
2390	253	157	216
2391	255	163	219
2392	255	159	216
2393	253	155	214
2394	255	157	216
2395	255	160	219
2396	255	157	218
2397	255	153	214
2398	255	152	214
2399	252	149	211
2400	252	149	212
2401	248	146	210
2402	255	159	218
2403	255	168	220
2404	255	171	218
2405	254	173	215
2406	255	178	215
2407	255	183	217
2408	252	184	215
2409	250	185	212
2410	250	192	214
2411	251	198	217
2412	255	209	223
2413	0	0	0
2414	0	0	0
2415	0	0	0
2416	0	0	0
2417	0	0	0
2418	0	0	0
2419	0	0	0
2420	0	0	0
2421	0	0	0
2422	0	0	0
2423	0	0	0
2424	0	0	0
2425	0	0	0
2426	0	0	0
2427	0	0	0
2428	0	0	0
2429	0	0	0
2430	0	0	0
2431	0	0	0
2432	0	0	0
2433	0	0	0
2434	0	0	0
2435	0	0	0
2436	0	0	0
2437	0	0	0
2438	0	0	0
2439	0	0	0
2440	0	0	0
2441	0	0	0
2442	0	0	0
2443	0	0	0
2444	0	0	0
2445	255	221	240
2446	253	209	235
2447	253	203	235
2448	255	201	237
2449	255	199	239
2450	254	190	234
2451	248	178	228
2452	255	189	236
2453	255	192	237
2454	255	188	234
2455	255	179	231
2456	255	174	229
2457	248	156	217
2458	252	157	218
2459	251	155	215
2460	251	154	214
2461	250	153	214
2462	250	154	215
2463	253	159	220
2464	255	166	224
2465	255	171	224
2466	252	160	215
2467	252	159	216
2468	255	168	223
2469	255	160	218
2470	253	156	215
2471	253	154	215
2472	255	158	218
2473	255	159	220
2474	255	156	218
2475	255	152	214
2476	254	151	214
2477	252	147	211
2478	252	148	213
2479	250	147	212
2480	255	160	220
2481	255	165	220
2482	255	169	219
2483	255	172	217
2484	255	177	218
2485	250	173	213
2486	248	174	211
2487	255	191	218
2488	255	197	220
2489	252	197	218
2490	255	208	224
2491	255	214	227
2492	0	0	0
2493	0	0	0
2494	0	0	0
2495	0	0	0
2496	0	0	0
2497	0	0	0
2498	0	0	0
2499	0	0	0
2500	0	0	0
2501	0	0	0
2502	0	0	0
2503	0	0	0
2504	0	0	0
2505	0	0	0
2506	0	0	0
2507	0	0	0
2508	0	0	0
2509	0	0	0
2510	0	0	0
2511	0	0	0
2512	0	0	0
2513	0	0	0
2514	0	0	0
2515	0	0	0
2516	0	0	0
2517	0	0	0
2518	0	0	0
2519	0	0	0
2520	0	0	0
2521	0	0	0
2522	0	0	0
2523	0	0	0
2524	253	217	236
2525	252	210	235
2526	254	209	238
2527	255	208	241
2528	255	200	238
2529	250	188	228
2530	255	193	231
2531	255	195	229
2532	254	184	224
2533	253	177	226
2534	249	164	223
2535	240	147	213
2536	244	150	216
2537	244	148	214
2538	246	150	215
2539	245	149	214
2540	248	154	216
2541	250	158	218
2542	251	162	218
2543	255	168	220
2544	255	166	218
2545	255	165	219
2546	254	161	218
2547	251	155	216
2548	254	157	220
2549	254	156	219
2550	255	158	221
2551	255	159	220
2552	255	154	215
2553	254	150	213
2554	254	149	212
2555	251	145	210
2556	253	148	213
2557	251	147	212
2558	254	155	216
2559	255	161	217
2560	255	165	217
2561	255	168	216
2562	249	164	211
2563	243	160	206
2564	252	178	216
2565	255	194	221
2566	255	193	218
2567	252	193	218
2568	252	199	221
2569	252	205	222
2570	255	214	225
2571	0	0	0
2572	0	0	0
2573	0	0	0
2574	0	0	0
2575	0	0	0
2576	0	0	0
2577	0	0	0
2578	0	0	0
2579	0	0	0
2580	0	0	0
2581	0	0	0
2582	0	0	0
2583	0	0	0
2584	0	0	0
2585	0	0	0
2586	0	0	0
2587	0	0	0
2588	0	0	0
2589	0	0	0
2590	0	0	0
2591	0	0	0
2592	0	0	0
2593	0	0	0
2594	0	0	0
2595	0	0	0
2596	0	0	0
2597	0	0	0
2598	0	0	0
2599	0	0	0
2600	0	0	0
2601	0	0	0
2602	0	0	0
2603	255	224	240
2604	255	222	242
2605	255	215	242
2606	255	208	239
2607	249	193	229
2608	255	199	231
2609	255	200	229
2610	254	189	225
2611	255	185	231
2612	252	173	228
2613	244	157	220
2614	249	161	224
2615	255	170	230
2616	255	171	230
2617	246	155	217
2618	249	161	219
2619	255	178	229
2620	255	181	228
2621	255	178	223
2622	255	176	223
2623	255	167	219
2624	254	163	220
2625	255	161	222
2626	255	163	226
2627	251	151	218
2628	254	153	219
2629	252	149	215
2630	249	144	212
2631	255	152	216
2632	255	150	215
2633	247	138	207
2634	249	142	210
2635	253	150	215
2636	255	158	220
2637	255	159	218
2638	255	163	218
2639	254	165	217
2640	248	161	212
2641	253	172	216
2642	255	190	225
2643	254	185	216
2644	250	184	213
2645	255	198	223
2646	255	204	225
2647	255	207	224
2648	255	216	227
2649	255	219	225
2650	0	0	0
2651	0	0	0
2652	0	0	0
2653	0	0	0
2654	0	0	0
2655	0	0	0
2656	0	0	0
2657	0	0	0
2658	0	0	0
2659	0	0	0
2660	0	0	0
2661	0	0	0
2662	0	0	0
2663	0	0	0
2664	0	0	0
2665	0	0	0
2666	0	0	0
2667	0	0	0
2668	0	0	0
2669	0	0	0
2670	0	0	0
2671	0	0	0
2672	0	0	0
2673	0	0	0
2674	0	0	0
2675	0	0	0
2676	0	0	0
2677	0	0	0
2678	0	0	0
2679	0	0	0
2680	0	0	0
2681	0	0	0
2682	255	229	242
2683	255	222	242
2684	252	211	237
2685	246	198	229
2686	252	201	232
2687	0	0	0
2688	253	193	229
2689	254	188	231
2690	251	178	229
2691	243	162	220
2692	254	175	229
2693	255	184	232
2694	253	171	223
2695	242	156	212
2696	255	179	228
2697	255	197	238
2698	255	189	229
2699	255	185	223
2700	255	175	218
2701	253	168	220
2702	255	167	224
2703	255	163	224
2704	248	151	216
2705	240	138	207
2706	241	137	208
2707	241	135	210
2708	248	143	216
2709	254	150	219
2710	248	141	213
2711	240	129	205
2712	250	143	214
2713	254	151	218
2714	255	155	219
2715	253	156	216
2716	252	158	216
2717	252	161	216
2718	255	171	220
2719	255	180	221
2720	254	178	216
2721	248	174	210
2722	255	190	219
2723	255	203	225
2724	255	205	224
2725	255	207	224
2726	255	210	223
2727	0	0	0
2728	0	0	0
2729	0	0	0
2730	0	0	0
2731	0	0	0
2732	0	0	0
2733	0	0	0
2734	0	0	0
2735	0	0	0
2736	0	0	0
2737	0	0	0
2738	0	0	0
2739	0	0	0
2740	0	0	0
2741	0	0	0
2742	0	0	0
2743	0	0	0
2744	0	0	0
2745	0	0	0
2746	0	0	0
2747	0	0	0
2748	0	0	0
2749	0	0	0
2750	0	0	0
2751	0	0	0
2752	0	0	0
2753	0	0	0
2754	0	0	0
2755	0	0	0
2756	0	0	0
2757	0	0	0
2758	0	0	0
2759	0	0	0
2760	0	0	0
2761	0	0	0
2762	0	0	0
2763	0	0	0
2764	0	0	0
2765	0	0	0
2766	0	0	0
2767	255	197	234
2768	251	185	229
2769	246	175	224
2770	255	187	233
2771	255	190	232
2772	252	178	223
2773	247	168	220
2774	255	192	236
2775	255	184	227
2776	253	177	219
2777	255	184	222
2778	254	175	218
2779	254	171	223
2780	255	170	227
2781	253	164	223
2782	246	152	215
2783	254	160	223
2784	255	159	224
2785	252	154	224
2786	255	162	231
2787	255	154	225
2788	250	145	218
2789	249	143	216
2790	255	157	226
2791	253	149	220
2792	254	154	221
2793	249	150	215
2794	249	152	214
2795	254	165	220
2796	255	174	222
2797	255	182	221
2798	255	181	217
2799	249	174	212
2800	255	190	222
2801	253	190	218
2802	250	191	216
2803	255	204	222
2804	254	207	223
2805	0	0	0
2806	0	0	0
2807	0	0	0
2808	0	0	0
2809	0	0	0
2810	0	0	0
2811	0	0	0
2812	0	0	0
2813	0	0	0
2814	0	0	0
2815	0	0	0
2816	0	0	0
2817	0	0	0
2818	0	0	0
2819	0	0	0
2820	0	0	0
2821	0	0	0
2822	0	0	0
2823	0	0	0
2824	0	0	0
2825	0	0	0
2826	0	0	0
2827	0	0	0
2828	0	0	0
2829	0	0	0
2830	0	0	0
2831	0	0	0
2832	0	0	0
2833	0	0	0
2834	0	0	0
2835	0	0	0
2836	0	0	0
2837	0	0	0
2838	0	0	0
2839	0	0	0
2840	0	0	0
2841	0	0	0
2842	0	0	0
2843	0	0	0
2844	0	0	0
2845	0	0	0
2846	253	196	231
2847	249	187	226
2848	255	193	233
2849	255	196	235
2850	255	189	232
2851	253	181	229
2852	253	180	229
2853	247	172	219
2854	253	179	223
2855	255	188	230
2856	255	180	226
2857	255	175	226
2858	254	170	224
2859	251	163	220
2860	255	171	227
2861	255	180	237
2862	255	171	232
2863	255	164	227
2864	253	158	225
2865	250	152	221
2866	252	153	222
2867	251	150	219
2868	250	147	217
2869	245	141	214
2870	246	144	216
2871	242	141	213
2872	251	156	220
2873	255	168	221
2874	255	174	219
2875	255	182	219
2876	251	175	213
2877	245	169	211
2878	249	176	217
2879	245	177	214
2880	251	190	220
2881	255	203	225
2882	255	207	225
2883	0	0	0
2884	0	0	0
2885	0	0	0
2886	0	0	0
2887	0	0	0
2888	0	0	0
2889	0	0	0
2890	0	0	0
2891	0	0	0
2892	0	0	0
2893	0	0	0
2894	0	0	0
2895	0	0	0
2896	0	0	0
2897	0	0	0
2898	0	0	0
2899	0	0	0
2900	0	0	0
2901	0	0	0
2902	0	0	0
2903	0	0	0
2904	0	0	0
2905	0	0	0
2906	0	0	0
2907	0	0	0
2908	0	0	0
2909	0	0	0
2910	0	0	0
2911	0	0	0
2912	0	0	0
2913	0	0	0
2914	0	0	0
2915	0	0	0
2916	0	0	0
2917	0	0	0
2918	0	0	0
2919	0	0	0
2920	0	0	0
2921	0	0	0
2922	0	0	0
2923	0	0	0
2924	0	0	0
2925	252	199	231
2926	255	206	238
2927	255	196	233
2928	253	190	231
2929	253	188	232
2930	254	187	231
2931	253	183	226
2932	255	191	232
2933	255	182	227
2934	251	174	224
2935	255	178	228
2936	253	172	225
2937	248	165	220
2938	254	171	226
2939	255	179	234
2940	254	170	227
2941	255	175	231
2942	255	170	228
2943	253	162	226
2944	255	163	228
2945	251	155	221
2946	250	153	220
2947	251	153	222
2948	253	156	225
2949	247	150	220
2950	255	166	227
2951	255	169	222
2952	255	176	219
2953	255	181	219
2954	251	175	214
2955	254	181	221
2956	255	188	227
2957	250	182	221
2958	255	196	227
2959	255	201	226
2960	255	204	225
2961	255	210	229
2962	0	0	0
2963	0	0	0
2964	0	0	0
2965	0	0	0
2966	0	0	0
2967	0	0	0
2968	0	0	0
2969	0	0	0
2970	0	0	0
2971	0	0	0
2972	0	0	0
2973	0	0	0
2974	0	0	0
2975	0	0	0
2976	0	0	0
2977	0	0	0
2978	0	0	0
2979	0	0	0
2980	0	0	0
2981	0	0	0
2982	0	0	0
2983	0	0	0
2984	0	0	0
2985	0	0	0
2986	0	0	0
2987	0	0	0
2988	0	0	0
2989	0	0	0
2990	0	0	0
2991	0	0	0
2992	0	0	0
2993	0	0	0
2994	0	0	0
2995	0	0	0
2996	0	0	0
2997	0	0	0
2998	0	0	0
2999	0	0	0
3000	0	0	0
3001	0	0	0
3002	0	0	0
3003	0	0	0
3004	250	201	231
3005	245	191	228
3006	248	191	229
3007	247	188	225
3008	249	188	223
3009	249	185	222
3010	246	178	219
3011	242	169	215
3012	248	174	222
3013	253	178	228
3014	251	173	226
3015	246	166	221
3016	252	174	226
3017	255	180	230
3018	255	182	231
3019	255	187	234
3020	255	178	228
3021	254	170	226
3022	251	164	225
3023	247	156	221
3024	249	158	224
3025	249	158	222
3026	250	158	223
3027	245	152	218
3028	252	163	223
3029	252	167	218
3030	255	174	219
3031	255	181	223
3032	255	186	226
3033	255	191	228
3034	255	188	225
3035	250	182	221
3036	253	190	225
3037	253	196	223
3038	253	200	223
3039	254	206	227
3040	0	0	0
3041	0	0	0
3042	0	0	0
3043	0	0	0
3044	0	0	0
3045	0	0	0
3046	0	0	0
3047	0	0	0
3048	0	0	0
3049	0	0	0
3050	0	0	0
3051	0	0	0
3052	0	0	0
3053	0	0	0
3054	0	0	0
3055	0	0	0
3056	0	0	0
3057	0	0	0
3058	0	0	0
3059	0	0	0
3060	0	0	0
3061	0	0	0
3062	0	0	0
3063	0	0	0
3064	0	0	0
3065	0	0	0
3066	0	0	0
3067	0	0	0
3068	0	0	0
3069	0	0	0
3070	0	0	0
3071	0	0	0
3072	0	0	0
3073	0	0	0
3074	0	0	0
3075	0	0	0
3076	0	0	0
3077	0	0	0
3078	0	0	0
3079	0	0	0
3080	0	0	0
3081	0	0	0
3082	0	0	0
3083	0	0	0
3084	0	0	0
3085	0	0	0
3086	0	0	0
3087	0	0	0
3088	0	0	0
3089	252	188	228
3090	255	194	235
3091	250	180	229
3092	248	175	227
3093	252	179	230
3094	255	187	234
3095	255	186	232
3096	255	187	231
3097	255	185	228
3098	251	175	222
3099	255	178	229
3100	250	171	226
3101	251	171	229
3102	253	173	231
3103	251	169	227
3104	254	170	229
3105	248	161	223
3106	255	172	228
3107	254	172	222
3108	255	180	224
3109	255	179	224
3110	255	183	226
3111	253	180	220
3112	249	177	216
3113	253	186	223
3114	255	195	227
3115	254	197	225
3116	255	202	225
3117	254	206	226
3118	0	0	0
3119	0	0	0
3120	0	0	0
3121	0	0	0
3122	0	0	0
3123	0	0	0
3124	0	0	0
3125	0	0	0
3126	0	0	0
3127	0	0	0
3128	0	0	0
3129	0	0	0
3130	0	0	0
3131	0	0	0
3132	0	0	0
3133	0	0	0
3134	0	0	0
3135	0	0	0
3136	0	0	0
3137	0	0	0
3138	0	0	0
3139	0	0	0
3140	0	0	0
3141	0	0	0
3142	0	0	0
3143	0	0	0
3144	0	0	0
3145	0	0	0
3146	0	0	0
3147	0	0	0
3148	0	0	0
3149	0	0	0
3150	0	0	0
3151	0	0	0
3152	0	0	0
3153	0	0	0
3154	0	0	0
3155	0	0	0
3156	0	0	0
3157	0	0	0
3158	0	0	0
3159	0	0	0
3160	0	0	0
3161	0	0	0
3162	0	0	0
3163	0	0	0
3164	0	0	0
3165	0	0	0
3166	0	0	0
3167	0	0	0
3168	245	186	227
3169	238	173	223
3170	247	182	232
3171	252	187	234
3172	255	190	236
3173	255	189	233
3174	254	187	230
3175	252	185	226
3176	254	186	228
3177	255	189	234
3178	255	186	233
3179	255	185	232
3180	252	181	230
3181	251	177	231
3182	250	173	230
3183	246	165	225
3184	253	173	229
3185	252	173	224
3186	251	173	221
3187	250	172	222
3188	249	173	220
3189	245	169	212
3190	250	180	217
3191	255	189	223
3192	255	193	224
3193	254	196	224
3194	254	202	226
3195	254	205	225
3196	255	213	228
3197	0	0	0
3198	0	0	0
3199	0	0	0
3200	0	0	0
3201	0	0	0
3202	0	0	0
3203	0	0	0
3204	0	0	0
3205	0	0	0
3206	0	0	0
3207	0	0	0
3208	0	0	0
3209	0	0	0
3210	0	0	0
3211	0	0	0
3212	0	0	0
3213	0	0	0
3214	0	0	0
3215	0	0	0
3216	0	0	0
3217	0	0	0
3218	0	0	0
3219	0	0	0
3220	0	0	0
3221	0	0	0
3222	0	0	0
3223	0	0	0
3224	0	0	0
3225	0	0	0
3226	0	0	0
3227	0	0	0
3228	0	0	0
3229	0	0	0
3230	0	0	0
3231	0	0	0
3232	0	0	0
3233	0	0	0
3234	0	0	0
3235	0	0	0
3236	0	0	0
3237	0	0	0
3238	0	0	0
3239	0	0	0
3240	0	0	0
3241	0	0	0
3242	0	0	0
3243	0	0	0
3244	0	0	0
3245	0	0	0
3246	0	0	0
3247	0	0	0
3248	0	0	0
3249	255	203	242
3250	255	207	245
3251	250	188	231
3252	247	185	227
3253	250	189	227
3254	252	190	228
3255	253	189	231
3256	251	187	230
3257	252	189	230
3258	248	184	228
3259	246	180	230
3260	243	175	228
3261	246	175	229
3262	255	185	236
3263	252	177	227
3264	252	177	226
3265	255	182	230
3266	255	183	229
3267	246	172	216
3268	252	183	220
3269	255	192	225
3270	255	196	226
3271	253	196	225
3272	255	202	227
3273	254	206	226
3274	255	214	230
3275	255	216	232
3276	0	0	0
3277	0	0	0
3278	0	0	0
3279	0	0	0
3280	0	0	0
3281	0	0	0
3282	0	0	0
3283	0	0	0
3284	0	0	0
3285	0	0	0
3286	0	0	0
3287	0	0	0
3288	0	0	0
3289	0	0	0
3290	0	0	0
3291	0	0	0
3292	0	0	0
3293	0	0	0
3294	0	0	0
3295	0	0	0
3296	0	0	0
3297	0	0	0
3298	0	0	0
3299	0	0	0
3300	0	0	0
3301	0	0	0
3302	0	0	0
3303	0	0	0
3304	0	0	0
3305	0	0	0
3306	0	0	0
3307	0	0	0
3308	0	0	0
3309	0	0	0
3310	0	0	0
3311	0	0	0
3312	0	0	0
3313	0	0	0
3314	0	0	0
3315	0	0	0
3316	0	0	0
3317	0	0	0
3318	0	0	0
3319	0	0	0
3320	0	0	0
3321	0	0	0
3322	0	0	0
3323	0	0	0
3324	0	0	0
3325	0	0	0
3326	0	0	0
3327	0	0	0
3328	249	198	234
3329	237	180	224
3330	243	188	228
3331	246	191	226
3332	249	192	226
3333	250	191	229
3334	253	194	233
3335	255	197	235
3336	251	192	232
3337	249	188	233
3338	249	188	235
3339	250	187	232
3340	253	184	231
3341	251	179	227
3342	254	183	231
3343	255	187	234
3344	252	181	228
3345	244	171	216
3346	250	182	221
3347	254	191	225
3348	253	193	224
3349	251	194	224
3350	254	202	228
3351	255	206	230
3352	255	210	232
3353	255	213	235
3354	0	0	0
3355	0	0	0
3356	0	0	0
3357	0	0	0
3358	0	0	0
3359	0	0	0
3360	0	0	0
3361	0	0	0
3362	0	0	0
3363	0	0	0
3364	0	0	0
3365	0	0	0
3366	0	0	0
3367	0	0	0
3368	0	0	0
3369	0	0	0
3370	0	0	0
3371	0	0	0
3372	0	0	0
3373	0	0	0
3374	0	0	0
3375	0	0	0
3376	0	0	0
3377	0	0	0
3378	0	0	0
3379	0	0	0
3380	0	0	0
3381	0	0	0
3382	0	0	0
3383	0	0	0
3384	0	0	0
3385	0	0	0
3386	0	0	0
3387	0	0	0
3388	0	0	0
3389	0	0	0
3390	0	0	0
3391	0	0	0
3392	0	0	0
3393	0	0	0
3394	0	0	0
3395	0	0	0
3396	0	0	0
3397	0	0	0
3398	0	0	0
3399	0	0	0
3400	0	0	0
3401	0	0	0
3402	0	0	0
3403	0	0	0
3404	0	0	0
3405	253	217	239
3406	241	201	230
3407	243	201	234
3408	252	211	241
3409	248	202	231
3410	253	203	232
3411	253	200	233
3412	255	203	237
3413	255	200	234
3414	252	195	232
3415	253	194	234
3416	255	195	235
3417	252	189	230
3418	251	185	228
3419	255	188	232
3420	255	193	236
3421	255	188	233
3422	251	183	228
3423	250	184	225
3424	255	195	231
3425	255	198	229
3426	255	200	229
3427	253	198	227
3428	255	206	232
3429	255	207	231
3430	255	211	234
3431	254	211	236
3432	254	215	235
3433	0	0	0
3434	0	0	0
3435	0	0	0
3436	0	0	0
3437	0	0	0
3438	0	0	0
3439	0	0	0
3440	0	0	0
3441	0	0	0
3442	0	0	0
3443	0	0	0
3444	0	0	0
3445	0	0	0
3446	0	0	0
3447	0	0	0
3448	0	0	0
3449	0	0	0
3450	0	0	0
3451	0	0	0
3452	0	0	0
3453	0	0	0
3454	0	0	0
3455	0	0	0
3456	0	0	0
3457	0	0	0
3458	0	0	0
3459	0	0	0
3460	0	0	0
3461	0	0	0
3462	0	0	0
3463	0	0	0
3464	0	0	0
3465	0	0	0
3466	0	0	0
3467	0	0	0
3468	0	0	0
3469	0	0	0
3470	0	0	0
3471	0	0	0
3472	0	0	0
3473	0	0	0
3474	0	0	0
3475	0	0	0
3476	0	0	0
3477	0	0	0
3478	0	0	0
3479	0	0	0
3480	0	0	0
3481	0	0	0
3482	0	0	0
3483	0	0	0
3484	248	221	239
3485	249	220	240
3486	248	216	238
3487	247	209	234
3488	252	209	237
3489	252	205	233
3490	253	204	233
3491	252	201	231
3492	253	200	230
3493	254	198	229
3494	252	194	227
3495	251	189	227
3496	255	194	231
3497	255	196	232
3498	254	191	229
3499	251	187	228
3500	253	191	231
3501	253	193	230
3502	254	197	230
3503	255	200	230
3504	253	199	228
3505	250	198	226
3506	253	202	229
3507	251	203	227
3508	250	204	227
3509	248	205	229
3510	249	209	231
3511	0	0	0
3512	0	0	0
3513	0	0	0
3514	0	0	0
3515	0	0	0
3516	0	0	0
3517	0	0	0
3518	0	0	0
3519	0	0	0
3520	0	0	0
3521	0	0	0
3522	0	0	0
3523	0	0	0
3524	0	0	0
3525	0	0	0
3526	0	0	0
3527	0	0	0
3528	0	0	0
3529	0	0	0
3530	0	0	0
3531	0	0	0
3532	0	0	0
3533	0	0	0
3534	0	0	0
3535	0	0	0
3536	0	0	0
3537	0	0	0
3538	0	0	0
3539	0	0	0
3540	0	0	0
3541	0	0	0
3542	0	0	0
3543	0	0	0
3544	0	0	0
3545	0	0	0
3546	0	0	0
3547	0	0	0
3548	0	0	0
3549	0	0	0
3550	0	0	0
3551	0	0	0
3552	0	0	0
3553	0	0	0
3554	0	0	0
3555	0	0	0
3556	0	0	0
3557	0	0	0
3558	0	0	0
3559	0	0	0
3560	0	0	0
3561	0	0	0
3562	0	0	0
3563	247	226	239
3564	244	220	236
3565	247	218	238
3566	253	219	240
3567	250	210	234
3568	251	209	233
3569	249	202	230
3570	252	202	231
3571	251	199	228
3572	249	195	225
3573	252	197	228
3574	255	202	233
3575	253	195	227
3576	249	190	224
3577	254	198	232
3578	255	202	235
3579	253	199	231
3580	255	203	231
3581	255	210	234
3582	255	210	234
3583	252	202	228
3584	254	207	231
3585	253	207	229
3586	252	208	229
3587	252	212	232
3588	0	0	0
3589	0	0	0
3590	0	0	0
3591	0	0	0
3592	0	0	0
3593	0	0	0
3594	0	0	0
3595	0	0	0
3596	0	0	0
3597	0	0	0
3598	0	0	0
3599	0	0	0
3600	0	0	0
3601	0	0	0
3602	0	0	0
3603	0	0	0
3604	0	0	0
3605	0	0	0
3606	0	0	0
3607	0	0	0
3608	0	0	0
3609	0	0	0
3610	0	0	0
3611	0	0	0
3612	0	0	0
3613	0	0	0
3614	0	0	0
3615	0	0	0
3616	0	0	0
3617	0	0	0
3618	0	0	0
3619	0	0	0
3620	0	0	0
3621	0	0	0
3622	0	0	0
3623	0	0	0
3624	0	0	0
3625	0	0	0
3626	0	0	0
3627	0	0	0
3628	0	0	0
3629	0	0	0
3630	0	0	0
3631	0	0	0
3632	0	0	0
3633	0	0	0
3634	0	0	0
3635	0	0	0
3636	0	0	0
3637	0	0	0
3638	0	0	0
3639	0	0	0
3640	0	0	0
3641	0	0	0
3642	247	231	241
3643	248	227	238
3644	246	219	234
3645	245	211	230
3646	245	208	230
3647	244	202	230
3648	248	203	233
3649	248	200	231
3650	249	201	230
3651	250	202	227
3652	251	199	225
3653	248	194	223
3654	253	201	229
3655	255	208	236
3656	255	207	235
3657	253	204	230
3658	255	211	233
3659	255	218	235
3660	255	211	230
3661	250	203	226
3662	253	208	230
3663	252	209	230
3664	253	213	231
3665	0	0	0
3666	0	0	0
3667	0	0	0
3668	0	0	0
3669	0	0	0
3670	0	0	0
3671	0	0	0
3672	0	0	0
3673	0	0	0
3674	0	0	0
3675	0	0	0
3676	0	0	0
3677	0	0	0
3678	0	0	0
3679	0	0	0
3680	0	0	0
3681	0	0	0
3682	0	0	0
3683	0	0	0
3684	0	0	0
3685	0	0	0
3686	0	0	0
3687	0	0	0
3688	0	0	0
3689	0	0	0
3690	0	0	0
3691	0	0	0
3692	0	0	0
3693	0	0	0
3694	0	0	0
3695	0	0	0
3696	0	0	0
3697	0	0	0
3698	0	0	0
3699	0	0	0
3700	0	0	0
3701	0	0	0
3702	0	0	0
3703	0	0	0
3704	0	0	0
3705	0	0	0
3706	0	0	0
3707	0	0	0
3708	0	0	0
3709	0	0	0
3710	0	0	0
3711	0	0	0
3712	0	0	0
3713	0	0	0
3714	0	0	0
3715	0	0	0
3716	0	0	0
3717	0	0	0
3718	0	0	0
3719	0	0	0
3720	0	0	0
3721	0	0	0
3722	0	0	0
3723	249	226	237
3724	254	225	240
3725	248	213	235
3726	249	212	237
3727	249	211	237
3728	249	212	235
3729	250	210	230
3730	253	209	229
3731	251	203	228
3732	255	211	234
3733	255	213	236
3734	255	212	235
3735	252	207	230
3736	255	214	233
3737	255	220	234
3738	254	212	229
3739	250	206	226
3740	253	211	231
3741	253	213	231
3742	0	0	0
3743	0	0	0
3744	0	0	0
3745	0	0	0
3746	0	0	0
3747	0	0	0
3748	0	0	0
3749	0	0	0
3750	0	0	0
3751	0	0	0
3752	0	0	0
3753	0	0	0
3754	0	0	0
3755	0	0	0
3756	0	0	0
3757	0	0	0
3758	0	0	0
3759	0	0	0
3760	0	0	0
3761	0	0	0
3762	0	0	0
3763	0	0	0
3764	0	0	0
3765	0	0	0
3766	0	0	0
3767	0	0	0
3768	0	0	0
3769	0	0	0
3770	0	0	0
3771	0	0	0
3772	0	0	0
3773	0	0	0
3774	0	0	0
3775	0	0	0
3776	0	0	0
3777	0	0	0
3778	0	0	0
3779	0	0	0
3780	0	0	0
3781	0	0	0
3782	0	0	0
3783	0	0	0
3784	0	0	0
3785	0	0	0
3786	0	0	0
3787	0	0	0
3788	0	0	0
3789	0	0	0
3790	0	0	0
3791	0	0	0
3792	0	0	0
3793	0	0	0
3794	0	0	0
3795	0	0	0
3796	0	0	0
3797	0	0	0
3798	0	0	0
3799	0	0	0
3800	0	0	0
3801	255	243	248
3802	255	233	243
3803	249	220	236
3804	252	223	239
3805	252	222	238
3806	254	223	239
3807	255	223	240
3808	255	220	239
3809	255	214	236
3810	255	218	238
3811	255	219	236
3812	255	216	234
3813	253	211	232
3814	255	216	234
3815	255	222	237
3816	253	214	230
3817	249	208	227
3818	254	215	232
3819	254	218	233
3820	0	0	0
3821	0	0	0
3822	0	0	0
3823	0	0	0
3824	0	0	0
3825	0	0	0
3826	0	0	0
3827	0	0	0
3828	0	0	0
3829	0	0	0
3830	0	0	0
3831	0	0	0
3832	0	0	0
3833	0	0	0
3834	0	0	0
3835	0	0	0
3836	0	0	0
3837	0	0	0
3838	0	0	0
3839	0	0	0
3840	0	0	0
3841	0	0	0
3842	0	0	0
3843	0	0	0
3844	0	0	0
3845	0	0	0
3846	0	0	0
3847	0	0	0
3848	0	0	0
3849	0	0	0
3850	0	0	0
3851	0	0	0
3852	0	0	0
3853	0	0	0
3854	0	0	0
3855	0	0	0
3856	0	0	0
3857	0	0	0
3858	0	0	0
3859	0	0	0
3860	0	0	0
3861	0	0	0
3862	0	0	0
3863	0	0	0
3864	0	0	0
3865	0	0	0
3866	0	0	0
3867	0	0	0
3868	0	0	0
3869	0	0	0
3870	0	0	0
3871	0	0	0
3872	0	0	0
3873	0	0	0
3874	0	0	0
3875	0	0	0
3876	0	0	0
3877	0	0	0
3878	0	0	0
3879	255	245	248
3880	248	231	238
3881	246	225	235
3882	253	230	241
3883	252	223	237
3884	255	226	240
3885	252	217	236
3886	249	212	233
3887	252	216	236
3888	255	220	238
3889	254	218	235
3890	252	215	232
3891	250	213	231
3892	0	0	0
3893	0	0	0
3894	0	0	0
3895	0	0	0
3896	255	227	239
3897	0	0	0
3898	0	0	0
3899	0	0	0
3900	0	0	0
3901	0	0	0
3902	0	0	0
3903	0	0	0
3904	0	0	0
3905	0	0	0
3906	0	0	0
3907	0	0	0
3908	0	0	0
3909	0	0	0
3910	0	0	0
3911	0	0	0
3912	0	0	0
3913	0	0	0
3914	0	0	0
3915	0	0	0
3916	0	0	0
3917	0	0	0
3918	0	0	0
3919	0	0	0
3920	0	0	0
3921	0	0	0
3922	0	0	0
3923	0	0	0
3924	0	0	0
3925	0	0	0
3926	0	0	0
3927	0	0	0
3928	0	0	0
3929	0	0	0
3930	0	0	0
3931	0	0	0
3932	0	0	0
3933	0	0	0
3934	0	0	0
3935	0	0	0
3936	0	0	0
3937	0	0	0
3938	0	0	0
3939	0	0	0
3940	0	0	0
3941	0	0	0
3942	0	0	0
3943	0	0	0
3944	0	0	0
3945	0	0	0
3946	0	0	0
3947	0	0	0
3948	0	0	0
3949	0	0	0
3950	0	0	0
3951	0	0	0
3952	0	0	0
3953	0	0	0
3954	0	0	0
3955	0	0	0
3956	0	0	0
3957	0	0	0
3958	250	239	243
3959	248	232	238
3960	249	228	237
3961	248	222	236
3962	247	216	233
3963	242	208	228
3964	246	213	232
3965	0	0	0
3966	251	218	236
3967	251	217	235
3968	251	217	234
3969	0	0	0
3970	0	0	0
3971	0	0	0
3972	0	0	0
3973	0	0	0
3974	0	0	0
3975	0	0	0
3976	0	0	0
3977	0	0	0
3978	0	0	0
3979	0	0	0
3980	0	0	0
3981	0	0	0
3982	0	0	0
3983	0	0	0
3984	0	0	0
3985	0	0	0
3986	0	0	0
3987	0	0	0
3988	0	0	0
3989	0	0	0
3990	0	0	0
3991	0	0	0
3992	0	0	0
3993	0	0	0
3994	0	0	0
3995	0	0	0
3996	0	0	0
3997	0	0	0
3998	0	0	0
3999	0	0	0
4000	0	0	0
4001	0	0	0
4002	0	0	0
4003	0	0	0
4004	0	0	0
4005	0	0	0
4006	0	0	0
4007	0	0	0
4008	0	0	0
4009	0	0	0
4010	0	0	0
4011	0	0	0
4012	0	0	0
4013	0	0	0
4014	0	0	0
4015	0	0	0
4016	0	0	0
4017	0	0	0
4018	0	0	0
4019	0	0	0
4020	0	0	0
4021	0	0	0
4022	0	0	0
4023	0	0	0
4024	0	0	0
4025	0	0	0
4026	0	0	0
4027	0	0	0
4028	0	0	0
4029	0	0	0
4030	0	0	0
4031	0	0	0
4032	0	0	0
4033	0	0	0
4034	0	0	0
4035	0	0	0
4036	0	0	0
4037	0	0	0
4038	0	0	0
4039	0	0	0
4040	0	0	0
4041	0	0	0
4042	0	0	0
4043	0	0	0
4044	0	0	0
4045	251	221	236
4046	0	0	0
4047	0	0	0
4048	0	0	0
4049	0	0	0
4050	0	0	0
4051	0	0	0
4052	0	0	0
4053	0	0	0
4054	0	0	0
4055	0	0	0
4056	0	0	0
