 	R	G	B
1	0	0	0
2	0	0	0
3	0	0	0
4	0	0	0
5	0	0	0
6	0	0	0
7	0	0	0
8	0	0	0
9	0	0	0
10	0	0	0
11	250	200	228
12	255	208	234
13	0	0	0
14	0	0	0
15	0	0	0
16	0	0	0
17	0	0	0
18	0	0	0
19	0	0	0
20	0	0	0
21	0	0	0
22	0	0	0
23	0	0	0
24	0	0	0
25	0	0	0
26	0	0	0
27	0	0	0
28	0	0	0
29	0	0	0
30	0	0	0
31	0	0	0
32	0	0	0
33	0	0	0
34	0	0	0
35	0	0	0
36	0	0	0
37	0	0	0
38	0	0	0
39	0	0	0
40	0	0	0
41	0	0	0
42	0	0	0
43	0	0	0
44	0	0	0
45	0	0	0
46	0	0	0
47	0	0	0
48	0	0	0
49	0	0	0
50	0	0	0
51	0	0	0
52	0	0	0
53	0	0	0
54	0	0	0
55	0	0	0
56	0	0	0
57	0	0	0
58	0	0	0
59	0	0	0
60	0	0	0
61	0	0	0
62	0	0	0
63	0	0	0
64	0	0	0
65	0	0	0
66	0	0	0
67	0	0	0
68	0	0	0
69	255	204	232
70	251	197	229
71	255	205	235
72	243	192	223
73	0	0	0
74	0	0	0
75	0	0	0
76	0	0	0
77	0	0	0
78	0	0	0
79	0	0	0
80	0	0	0
81	0	0	0
82	0	0	0
83	0	0	0
84	0	0	0
85	0	0	0
86	0	0	0
87	0	0	0
88	0	0	0
89	0	0	0
90	0	0	0
91	0	0	0
92	0	0	0
93	0	0	0
94	0	0	0
95	0	0	0
96	0	0	0
97	0	0	0
98	0	0	0
99	0	0	0
100	0	0	0
101	0	0	0
102	0	0	0
103	0	0	0
104	0	0	0
105	0	0	0
106	0	0	0
107	0	0	0
108	0	0	0
109	0	0	0
110	0	0	0
111	0	0	0
112	0	0	0
113	0	0	0
114	0	0	0
115	0	0	0
116	0	0	0
117	0	0	0
118	0	0	0
119	0	0	0
120	0	0	0
121	0	0	0
122	0	0	0
123	0	0	0
124	0	0	0
125	0	0	0
126	0	0	0
127	0	0	0
128	252	198	229
129	248	190	225
130	246	188	224
131	235	176	215
132	250	203	230
133	0	0	0
134	0	0	0
135	0	0	0
136	0	0	0
137	0	0	0
138	0	0	0
139	0	0	0
140	0	0	0
141	0	0	0
142	0	0	0
143	0	0	0
144	0	0	0
145	0	0	0
146	0	0	0
147	0	0	0
148	0	0	0
149	0	0	0
150	0	0	0
151	0	0	0
152	0	0	0
153	0	0	0
154	0	0	0
155	0	0	0
156	0	0	0
157	0	0	0
158	0	0	0
159	0	0	0
160	0	0	0
161	0	0	0
162	0	0	0
163	0	0	0
164	0	0	0
165	0	0	0
166	0	0	0
167	0	0	0
168	0	0	0
169	0	0	0
170	0	0	0
171	0	0	0
172	0	0	0
173	0	0	0
174	0	0	0
175	0	0	0
176	0	0	0
177	0	0	0
178	0	0	0
179	0	0	0
180	255	241	240
181	0	0	0
182	0	0	0
183	0	0	0
184	0	0	0
185	0	0	0
186	0	0	0
187	255	200	231
188	251	192	228
189	250	191	228
190	244	185	223
191	255	213	238
192	255	215	232
193	0	0	0
194	0	0	0
195	0	0	0
196	0	0	0
197	0	0	0
198	0	0	0
199	0	0	0
200	0	0	0
201	0	0	0
202	0	0	0
203	0	0	0
204	0	0	0
205	0	0	0
206	0	0	0
207	0	0	0
208	0	0	0
209	0	0	0
210	0	0	0
211	0	0	0
212	0	0	0
213	0	0	0
214	0	0	0
215	0	0	0
216	0	0	0
217	0	0	0
218	0	0	0
219	0	0	0
220	0	0	0
221	0	0	0
222	0	0	0
223	0	0	0
224	0	0	0
225	0	0	0
226	0	0	0
227	0	0	0
228	0	0	0
229	0	0	0
230	0	0	0
231	0	0	0
232	0	0	0
233	0	0	0
234	0	0	0
235	0	0	0
236	0	0	0
237	0	0	0
238	255	246	243
239	255	249	247
240	255	233	239
241	0	0	0
242	0	0	0
243	0	0	0
244	255	203	234
245	255	206	234
246	255	201	231
247	254	194	230
248	255	196	233
249	249	190	226
250	255	202	230
251	250	204	224
252	255	219	229
253	0	0	0
254	0	0	0
255	0	0	0
256	0	0	0
257	0	0	0
258	0	0	0
259	0	0	0
260	0	0	0
261	0	0	0
262	0	0	0
263	0	0	0
264	0	0	0
265	0	0	0
266	0	0	0
267	0	0	0
268	0	0	0
269	0	0	0
270	0	0	0
271	0	0	0
272	0	0	0
273	0	0	0
274	0	0	0
275	0	0	0
276	0	0	0
277	0	0	0
278	0	0	0
279	0	0	0
280	0	0	0
281	0	0	0
282	0	0	0
283	0	0	0
284	0	0	0
285	0	0	0
286	0	0	0
287	0	0	0
288	0	0	0
289	0	0	0
290	0	0	0
291	0	0	0
292	0	0	0
293	0	0	0
294	0	0	0
295	0	0	0
296	255	244	241
297	255	247	245
298	255	229	235
299	249	213	227
300	250	207	228
301	0	0	0
302	254	202	232
303	255	209	239
304	253	193	226
305	250	187	223
306	253	190	229
307	255	192	232
308	248	185	224
309	254	198	229
310	251	199	223
311	255	215	230
312	255	220	230
313	0	0	0
314	0	0	0
315	0	0	0
316	0	0	0
317	0	0	0
318	0	0	0
319	0	0	0
320	0	0	0
321	0	0	0
322	0	0	0
323	0	0	0
324	0	0	0
325	0	0	0
326	0	0	0
327	0	0	0
328	0	0	0
329	0	0	0
330	0	0	0
331	0	0	0
332	0	0	0
333	0	0	0
334	0	0	0
335	0	0	0
336	0	0	0
337	0	0	0
338	0	0	0
339	0	0	0
340	0	0	0
341	0	0	0
342	0	0	0
343	0	0	0
344	0	0	0
345	0	0	0
346	0	0	0
347	0	0	0
348	0	0	0
349	0	0	0
350	0	0	0
351	0	0	0
352	0	0	0
353	0	0	0
354	0	0	0
355	0	0	0
356	248	223	231
357	242	206	222
358	245	203	225
359	247	199	227
360	255	204	232
361	255	206	233
362	253	194	225
363	245	180	219
364	252	186	226
365	255	188	230
366	253	187	230
367	247	180	223
368	252	190	227
369	250	193	223
370	251	201	225
371	249	205	225
372	0	0	0
373	0	0	0
374	0	0	0
375	0	0	0
376	0	0	0
377	0	0	0
378	0	0	0
379	0	0	0
380	0	0	0
381	0	0	0
382	0	0	0
383	0	0	0
384	0	0	0
385	0	0	0
386	0	0	0
387	0	0	0
388	0	0	0
389	0	0	0
390	0	0	0
391	0	0	0
392	0	0	0
393	0	0	0
394	0	0	0
395	0	0	0
396	0	0	0
397	0	0	0
398	0	0	0
399	0	0	0
400	0	0	0
401	0	0	0
402	0	0	0
403	0	0	0
404	0	0	0
405	0	0	0
406	0	0	0
407	0	0	0
408	0	0	0
409	0	0	0
410	0	0	0
411	0	0	0
412	0	0	0
413	0	0	0
414	0	0	0
415	0	0	0
416	251	218	232
417	255	217	237
418	251	201	230
419	255	206	235
420	255	198	227
421	249	186	221
422	250	183	224
423	255	189	232
424	253	183	228
425	252	182	227
426	252	184	227
427	255	194	232
428	249	187	223
429	251	195	225
430	253	206	229
431	0	0	0
432	0	0	0
433	0	0	0
434	0	0	0
435	0	0	0
436	0	0	0
437	0	0	0
438	0	0	0
439	0	0	0
440	0	0	0
441	0	0	0
442	0	0	0
443	0	0	0
444	0	0	0
445	0	0	0
446	0	0	0
447	0	0	0
448	0	0	0
449	0	0	0
450	0	0	0
451	0	0	0
452	0	0	0
453	0	0	0
454	0	0	0
455	0	0	0
456	0	0	0
457	0	0	0
458	0	0	0
459	0	0	0
460	0	0	0
461	0	0	0
462	0	0	0
463	0	0	0
464	0	0	0
465	0	0	0
466	0	0	0
467	0	0	0
468	0	0	0
469	0	0	0
470	0	0	0
471	0	0	0
472	0	0	0
473	0	0	0
474	0	0	0
475	255	225	236
476	255	214	233
477	249	199	227
478	251	196	228
479	250	189	225
480	252	187	226
481	252	183	226
482	253	182	228
483	250	176	224
484	255	183	229
485	255	186	229
486	253	184	226
487	245	178	219
488	253	193	227
489	254	203	229
490	0	0	0
491	0	0	0
492	0	0	0
493	0	0	0
494	0	0	0
495	0	0	0
496	0	0	0
497	0	0	0
498	0	0	0
499	0	0	0
500	0	0	0
501	0	0	0
502	0	0	0
503	0	0	0
504	0	0	0
505	0	0	0
506	0	0	0
507	0	0	0
508	0	0	0
509	0	0	0
510	0	0	0
511	0	0	0
512	0	0	0
513	0	0	0
514	0	0	0
515	0	0	0
516	0	0	0
517	0	0	0
518	0	0	0
519	0	0	0
520	0	0	0
521	0	0	0
522	0	0	0
523	0	0	0
524	0	0	0
525	0	0	0
526	0	0	0
527	0	0	0
528	0	0	0
529	0	0	0
530	0	0	0
531	0	0	0
532	0	0	0
533	0	0	0
534	255	223	235
535	254	212	231
536	249	197	225
537	252	195	228
538	255	196	232
539	255	194	234
540	251	180	226
541	252	179	228
542	251	175	226
543	255	182	230
544	253	179	225
545	251	178	223
546	250	180	223
547	255	196	231
548	253	196	226
549	0	0	0
550	0	0	0
551	0	0	0
552	0	0	0
553	0	0	0
554	0	0	0
555	0	0	0
556	0	0	0
557	0	0	0
558	0	0	0
559	0	0	0
560	0	0	0
561	0	0	0
562	0	0	0
563	0	0	0
564	0	0	0
565	0	0	0
566	0	0	0
567	0	0	0
568	0	0	0
569	0	0	0
570	0	0	0
571	0	0	0
572	0	0	0
573	0	0	0
574	0	0	0
575	0	0	0
576	0	0	0
577	0	0	0
578	0	0	0
579	0	0	0
580	0	0	0
581	0	0	0
582	0	0	0
583	0	0	0
584	0	0	0
585	0	0	0
586	0	0	0
587	0	0	0
588	0	0	0
589	0	0	0
590	0	0	0
591	0	0	0
592	0	0	0
593	252	219	232
594	252	209	230
595	247	194	223
596	255	199	231
597	255	201	236
598	255	188	230
599	247	174	224
600	252	176	229
601	251	173	228
602	253	175	228
603	250	172	222
604	255	180	226
605	254	182	225
606	255	190	228
607	253	192	225
608	255	208	231
609	0	0	0
610	0	0	0
611	0	0	0
612	0	0	0
613	0	0	0
614	0	0	0
615	0	0	0
616	0	0	0
617	0	0	0
618	0	0	0
619	0	0	0
620	0	0	0
621	0	0	0
622	0	0	0
623	0	0	0
624	0	0	0
625	0	0	0
626	0	0	0
627	0	0	0
628	0	0	0
629	0	0	0
630	0	0	0
631	0	0	0
632	0	0	0
633	0	0	0
634	0	0	0
635	0	0	0
636	0	0	0
637	0	0	0
638	0	0	0
639	0	0	0
640	0	0	0
641	0	0	0
642	0	0	0
643	0	0	0
644	0	0	0
645	0	0	0
646	0	0	0
647	0	0	0
648	0	0	0
649	0	0	0
650	0	0	0
651	0	0	0
652	255	229	238
653	255	219	237
654	245	191	221
655	254	196	229
656	255	196	233
657	252	183	227
658	252	179	228
659	255	182	234
660	253	174	230
661	255	177	231
662	252	171	224
663	255	179	228
664	248	169	219
665	251	178	222
666	252	185	223
667	255	202	229
668	255	206	224
669	0	0	0
670	0	0	0
671	0	0	0
672	0	0	0
673	0	0	0
674	0	0	0
675	0	0	0
676	0	0	0
677	0	0	0
678	0	0	0
679	0	0	0
680	0	0	0
681	0	0	0
682	0	0	0
683	0	0	0
684	0	0	0
685	0	0	0
686	0	0	0
687	0	0	0
688	0	0	0
689	0	0	0
690	0	0	0
691	0	0	0
692	0	0	0
693	0	0	0
694	0	0	0
695	0	0	0
696	0	0	0
697	0	0	0
698	0	0	0
699	0	0	0
700	0	0	0
701	0	0	0
702	0	0	0
703	0	0	0
704	0	0	0
705	0	0	0
706	0	0	0
707	0	0	0
708	0	0	0
709	0	0	0
710	0	0	0
711	255	233	237
712	250	210	228
713	238	183	216
714	248	190	226
715	252	189	228
716	252	185	226
717	252	181	226
718	252	177	227
719	249	170	224
720	252	171	227
721	250	166	223
722	248	163	221
723	240	154	212
724	249	170	221
725	250	177	221
726	254	188	223
727	252	193	219
728	0	0	0
729	0	0	0
730	0	0	0
731	0	0	0
732	0	0	0
733	0	0	0
734	0	0	0
735	0	0	0
736	0	0	0
737	0	0	0
738	0	0	0
739	0	0	0
740	0	0	0
741	0	0	0
742	0	0	0
743	0	0	0
744	0	0	0
745	0	0	0
746	0	0	0
747	0	0	0
748	0	0	0
749	0	0	0
750	0	0	0
751	0	0	0
752	0	0	0
753	0	0	0
754	0	0	0
755	0	0	0
756	0	0	0
757	0	0	0
758	0	0	0
759	0	0	0
760	0	0	0
761	0	0	0
762	0	0	0
763	0	0	0
764	0	0	0
765	0	0	0
766	0	0	0
767	0	0	0
768	0	0	0
769	0	0	0
770	249	231	234
771	245	210	227
772	241	193	224
773	253	200	235
774	251	191	229
775	252	187	227
776	255	186	229
777	254	182	229
778	251	173	227
779	255	175	231
780	251	166	225
781	250	164	224
782	251	165	224
783	255	181	232
784	250	170	221
785	254	182	223
786	247	180	214
787	0	0	0
788	0	0	0
789	0	0	0
790	0	0	0
791	0	0	0
792	0	0	0
793	0	0	0
794	0	0	0
795	0	0	0
796	0	0	0
797	0	0	0
798	0	0	0
799	0	0	0
800	0	0	0
801	0	0	0
802	0	0	0
803	0	0	0
804	0	0	0
805	0	0	0
806	0	0	0
807	0	0	0
808	0	0	0
809	0	0	0
810	0	0	0
811	0	0	0
812	0	0	0
813	0	0	0
814	0	0	0
815	0	0	0
816	0	0	0
817	0	0	0
818	0	0	0
819	0	0	0
820	0	0	0
821	0	0	0
822	0	0	0
823	0	0	0
824	0	0	0
825	0	0	0
826	0	0	0
827	0	0	0
828	0	0	0
829	252	237	241
830	250	220	236
831	247	203	233
832	254	202	237
833	252	193	231
834	255	194	233
835	255	193	234
836	255	185	232
837	255	177	231
838	254	172	231
839	249	162	224
840	254	168	228
841	255	170	228
842	252	166	224
843	243	156	215
844	247	165	218
845	240	164	208
846	253	188	219
847	0	0	0
848	0	0	0
849	0	0	0
850	0	0	0
851	0	0	0
852	0	0	0
853	0	0	0
854	0	0	0
855	0	0	0
856	0	0	0
857	0	0	0
858	0	0	0
859	0	0	0
860	0	0	0
861	0	0	0
862	0	0	0
863	0	0	0
864	0	0	0
865	0	0	0
866	0	0	0
867	0	0	0
868	0	0	0
869	0	0	0
870	0	0	0
871	0	0	0
872	0	0	0
873	0	0	0
874	0	0	0
875	0	0	0
876	0	0	0
877	0	0	0
878	0	0	0
879	0	0	0
880	0	0	0
881	0	0	0
882	0	0	0
883	0	0	0
884	0	0	0
885	0	0	0
886	0	0	0
887	0	0	0
888	251	231	239
889	245	212	232
890	249	207	236
891	255	207	240
892	252	191	231
893	255	192	233
894	251	182	229
895	251	175	227
896	255	178	232
897	254	172	230
898	251	164	226
899	255	171	231
900	255	169	229
901	252	165	226
902	250	163	225
903	255	173	229
904	245	164	216
905	255	189	226
906	255	192	220
907	0	0	0
908	0	0	0
909	0	0	0
910	0	0	0
911	0	0	0
912	0	0	0
913	0	0	0
914	0	0	0
915	0	0	0
916	0	0	0
917	0	0	0
918	0	0	0
919	0	0	0
920	0	0	0
921	0	0	0
922	0	0	0
923	0	0	0
924	0	0	0
925	0	0	0
926	0	0	0
927	0	0	0
928	0	0	0
929	0	0	0
930	0	0	0
931	0	0	0
932	0	0	0
933	0	0	0
934	0	0	0
935	0	0	0
936	0	0	0
937	0	0	0
938	0	0	0
939	0	0	0
940	0	0	0
941	0	0	0
942	0	0	0
943	0	0	0
944	0	0	0
945	0	0	0
946	0	0	0
947	0	0	0
948	242	213	232
949	246	208	234
950	251	200	234
951	246	185	225
952	245	179	225
953	243	171	224
954	250	175	229
955	254	176	230
956	253	171	228
957	250	165	227
958	253	167	230
959	252	165	228
960	252	165	228
961	252	164	227
962	252	165	227
963	243	157	217
964	249	169	221
965	247	173	218
966	0	0	0
967	251	196	219
968	255	215	226
969	0	0	0
970	0	0	0
971	0	0	0
972	0	0	0
973	0	0	0
974	0	0	0
975	0	0	0
976	0	0	0
977	0	0	0
978	0	0	0
979	0	0	0
980	0	0	0
981	0	0	0
982	0	0	0
983	0	0	0
984	0	0	0
985	0	0	0
986	0	0	0
987	0	0	0
988	0	0	0
989	0	0	0
990	0	0	0
991	0	0	0
992	0	0	0
993	0	0	0
994	0	0	0
995	0	0	0
996	0	0	0
997	0	0	0
998	0	0	0
999	0	0	0
1000	0	0	0
1001	0	0	0
1002	0	0	0
1003	0	0	0
1004	0	0	0
1005	0	0	0
1006	0	0	0
1007	0	0	0
1008	247	216	237
1009	255	210	239
1010	247	189	227
1011	247	184	228
1012	249	181	232
1013	255	185	237
1014	255	179	231
1015	253	174	228
1016	247	164	226
1017	250	166	230
1018	251	167	230
1019	254	168	231
1020	254	167	230
1021	255	169	231
1022	249	161	224
1023	255	174	230
1024	251	173	225
1025	255	188	229
1026	250	187	218
1027	255	206	222
1028	255	218	225
1029	0	0	0
1030	0	0	0
1031	0	0	0
1032	0	0	0
1033	0	0	0
1034	0	0	0
1035	0	0	0
1036	0	0	0
1037	0	0	0
1038	0	0	0
1039	0	0	0
1040	0	0	0
1041	0	0	0
1042	0	0	0
1043	0	0	0
1044	0	0	0
1045	0	0	0
1046	0	0	0
1047	0	0	0
1048	0	0	0
1049	0	0	0
1050	0	0	0
1051	0	0	0
1052	0	0	0
1053	0	0	0
1054	0	0	0
1055	0	0	0
1056	0	0	0
1057	0	0	0
1058	0	0	0
1059	0	0	0
1060	0	0	0
1061	0	0	0
1062	0	0	0
1063	0	0	0
1064	0	0	0
1065	0	0	0
1066	0	0	0
1067	251	226	241
1068	251	211	237
1069	244	190	227
1070	250	191	232
1071	252	188	234
1072	255	187	236
1073	255	182	231
1074	249	172	226
1075	243	162	223
1076	249	167	229
1077	251	168	230
1078	254	169	231
1079	255	168	230
1080	252	164	227
1081	247	158	222
1082	252	166	225
1083	248	165	220
1084	251	175	222
1085	247	177	218
1086	251	191	221
1087	252	201	218
1088	0	0	0
1089	0	0	0
1090	0	0	0
1091	0	0	0
1092	0	0	0
1093	0	0	0
1094	0	0	0
1095	0	0	0
1096	0	0	0
1097	0	0	0
1098	0	0	0
1099	0	0	0
1100	0	0	0
1101	0	0	0
1102	0	0	0
1103	0	0	0
1104	0	0	0
1105	0	0	0
1106	0	0	0
1107	0	0	0
1108	0	0	0
1109	0	0	0
1110	0	0	0
1111	0	0	0
1112	0	0	0
1113	0	0	0
1114	0	0	0
1115	0	0	0
1116	0	0	0
1117	0	0	0
1118	0	0	0
1119	0	0	0
1120	0	0	0
1121	0	0	0
1122	0	0	0
1123	0	0	0
1124	0	0	0
1125	0	0	0
1126	251	226	240
1127	245	207	232
1128	241	191	227
1129	248	193	233
1130	246	183	229
1131	251	183	231
1132	253	182	230
1133	246	172	225
1134	244	166	225
1135	251	172	232
1136	252	170	231
1137	255	171	232
1138	252	164	227
1139	248	160	223
1140	255	169	229
1141	255	178	234
1142	246	159	217
1143	251	169	221
1144	253	179	225
1145	255	194	229
1146	253	194	219
1147	0	0	0
1148	0	0	0
1149	0	0	0
1150	0	0	0
1151	0	0	0
1152	0	0	0
1153	0	0	0
1154	0	0	0
1155	0	0	0
1156	0	0	0
1157	0	0	0
1158	0	0	0
1159	0	0	0
1160	0	0	0
1161	0	0	0
1162	0	0	0
1163	0	0	0
1164	0	0	0
1165	0	0	0
1166	0	0	0
1167	0	0	0
1168	0	0	0
1169	0	0	0
1170	0	0	0
1171	0	0	0
1172	0	0	0
1173	0	0	0
1174	0	0	0
1175	0	0	0
1176	0	0	0
1177	0	0	0
1178	0	0	0
1179	0	0	0
1180	0	0	0
1181	0	0	0
1182	0	0	0
1183	0	0	0
1184	0	0	0
1185	249	225	237
1186	244	209	231
1187	238	192	226
1188	237	186	226
1189	236	176	223
1190	247	182	230
1191	250	181	229
1192	244	174	225
1193	242	169	227
1194	245	169	229
1195	248	168	228
1196	253	167	229
1197	249	160	222
1198	253	169	228
1199	255	178	234
1200	253	166	225
1201	240	148	211
1202	250	165	222
1203	254	176	225
1204	255	183	225
1205	251	185	218
1206	255	198	221
1207	0	0	0
1208	0	0	0
1209	0	0	0
1210	0	0	0
1211	0	0	0
1212	0	0	0
1213	0	0	0
1214	0	0	0
1215	0	0	0
1216	0	0	0
1217	0	0	0
1218	0	0	0
1219	0	0	0
1220	0	0	0
1221	0	0	0
1222	0	0	0
1223	0	0	0
1224	0	0	0
1225	0	0	0
1226	0	0	0
1227	0	0	0
1228	0	0	0
1229	0	0	0
1230	0	0	0
1231	0	0	0
1232	0	0	0
1233	0	0	0
1234	0	0	0
1235	0	0	0
1236	0	0	0
1237	0	0	0
1238	0	0	0
1239	0	0	0
1240	0	0	0
1241	0	0	0
1242	0	0	0
1243	0	0	0
1244	244	224	235
1245	242	209	230
1246	238	198	228
1247	233	189	226
1248	238	189	230
1249	253	197	239
1250	242	176	226
1251	236	168	222
1252	240	173	228
1253	239	171	228
1254	247	173	231
1255	255	176	236
1256	245	153	218
1257	246	161	222
1258	253	170	228
1259	247	158	220
1260	245	154	218
1261	255	173	230
1262	255	172	226
1263	255	180	226
1264	251	177	218
1265	255	190	221
1266	253	194	218
1267	0	0	0
1268	0	0	0
1269	0	0	0
1270	0	0	0
1271	0	0	0
1272	0	0	0
1273	0	0	0
1274	0	0	0
1275	0	0	0
1276	0	0	0
1277	0	0	0
1278	0	0	0
1279	0	0	0
1280	0	0	0
1281	0	0	0
1282	0	0	0
1283	0	0	0
1284	0	0	0
1285	0	0	0
1286	0	0	0
1287	0	0	0
1288	0	0	0
1289	0	0	0
1290	0	0	0
1291	0	0	0
1292	0	0	0
1293	0	0	0
1294	0	0	0
1295	0	0	0
1296	0	0	0
1297	0	0	0
1298	0	0	0
1299	0	0	0
1300	0	0	0
1301	0	0	0
1302	0	0	0
1303	242	224	234
1304	244	216	234
1305	241	205	231
1306	241	204	234
1307	246	203	238
1308	245	190	235
1309	236	171	226
1310	242	178	232
1311	243	180	232
1312	242	177	230
1313	250	180	237
1314	249	166	230
1315	235	143	211
1316	237	150	215
1317	244	161	224
1318	249	161	225
1319	248	158	221
1320	253	164	224
1321	251	163	222
1322	250	166	220
1323	245	164	213
1324	248	172	215
1325	246	176	212
1326	253	193	219
1327	0	0	0
1328	0	0	0
1329	0	0	0
1330	0	0	0
1331	0	0	0
1332	0	0	0
1333	0	0	0
1334	0	0	0
1335	0	0	0
1336	0	0	0
1337	0	0	0
1338	0	0	0
1339	0	0	0
1340	0	0	0
1341	0	0	0
1342	0	0	0
1343	0	0	0
1344	0	0	0
1345	0	0	0
1346	0	0	0
1347	0	0	0
1348	0	0	0
1349	0	0	0
1350	0	0	0
1351	0	0	0
1352	0	0	0
1353	0	0	0
1354	0	0	0
1355	0	0	0
1356	0	0	0
1357	0	0	0
1358	0	0	0
1359	0	0	0
1360	0	0	0
1361	0	0	0
1362	244	229	238
1363	246	221	237
1364	240	205	230
1365	245	206	236
1366	242	196	233
1367	236	180	227
1368	235	173	229
1369	244	182	237
1370	238	172	228
1371	240	171	227
1372	247	175	234
1373	238	157	223
1374	234	150	216
1375	240	160	222
1376	249	170	231
1377	255	171	233
1378	248	157	222
1379	253	163	225
1380	253	164	225
1381	255	168	225
1382	251	167	220
1383	255	176	223
1384	249	174	217
1385	255	190	224
1386	254	195	220
1387	0	0	0
1388	0	0	0
1389	0	0	0
1390	0	0	0
1391	0	0	0
1392	0	0	0
1393	0	0	0
1394	0	0	0
1395	0	0	0
1396	0	0	0
1397	0	0	0
1398	0	0	0
1399	0	0	0
1400	0	0	0
1401	0	0	0
1402	0	0	0
1403	0	0	0
1404	0	0	0
1405	0	0	0
1406	0	0	0
1407	0	0	0
1408	0	0	0
1409	0	0	0
1410	0	0	0
1411	0	0	0
1412	0	0	0
1413	0	0	0
1414	0	0	0
1415	0	0	0
1416	0	0	0
1417	0	0	0
1418	0	0	0
1419	0	0	0
1420	0	0	0
1421	0	0	0
1422	244	219	235
1423	238	203	229
1424	236	194	228
1425	232	184	224
1426	233	180	227
1427	232	172	227
1428	234	170	229
1429	232	163	226
1430	241	169	232
1431	245	172	234
1432	242	167	230
1433	239	161	226
1434	245	169	231
1435	254	178	236
1436	250	166	228
1437	243	153	218
1438	248	158	222
1439	250	160	224
1440	252	163	224
1441	249	162	219
1442	250	166	219
1443	245	164	215
1444	249	175	221
1445	248	180	220
1446	0	0	0
1447	0	0	0
1448	0	0	0
1449	0	0	0
1450	0	0	0
1451	0	0	0
1452	0	0	0
1453	0	0	0
1454	0	0	0
1455	0	0	0
1456	0	0	0
1457	0	0	0
1458	0	0	0
1459	0	0	0
1460	0	0	0
1461	0	0	0
1462	0	0	0
1463	0	0	0
1464	0	0	0
1465	0	0	0
1466	0	0	0
1467	0	0	0
1468	0	0	0
1469	0	0	0
1470	0	0	0
1471	0	0	0
1472	0	0	0
1473	0	0	0
1474	0	0	0
1475	0	0	0
1476	0	0	0
1477	0	0	0
1478	0	0	0
1479	0	0	0
1480	0	0	0
1481	0	0	0
1482	246	217	237
1483	241	207	234
1484	236	195	231
1485	239	192	234
1486	229	172	226
1487	232	170	229
1488	239	173	235
1489	250	181	243
1490	237	159	227
1491	233	153	223
1492	239	161	228
1493	247	170	233
1494	247	168	230
1495	239	155	219
1496	243	158	221
1497	250	164	226
1498	248	161	224
1499	252	165	226
1500	254	167	224
1501	255	171	226
1502	249	166	220
1503	254	177	226
1504	254	183	227
1505	0	0	0
1506	255	201	223
1507	255	207	221
1508	255	217	224
1509	0	0	0
1510	0	0	0
1511	0	0	0
1512	0	0	0
1513	0	0	0
1514	0	0	0
1515	0	0	0
1516	0	0	0
1517	0	0	0
1518	0	0	0
1519	0	0	0
1520	0	0	0
1521	0	0	0
1522	0	0	0
1523	0	0	0
1524	0	0	0
1525	0	0	0
1526	0	0	0
1527	0	0	0
1528	0	0	0
1529	0	0	0
1530	0	0	0
1531	0	0	0
1532	0	0	0
1533	0	0	0
1534	0	0	0
1535	0	0	0
1536	0	0	0
1537	0	0	0
1538	0	0	0
1539	0	0	0
1540	0	0	0
1541	0	0	0
1542	243	214	232
1543	0	0	0
1544	236	190	230
1545	228	171	224
1546	237	178	234
1547	243	180	238
1548	237	165	231
1549	225	144	219
1550	235	156	229
1551	241	164	233
1552	242	163	230
1553	242	161	227
1554	245	164	227
1555	248	166	228
1556	247	163	225
1557	246	160	222
1558	252	165	226
1559	255	169	228
1560	255	168	226
1561	249	163	220
1562	254	173	224
1563	253	179	223
1564	255	191	225
1565	255	200	223
1566	255	209	223
1567	255	218	228
1568	255	219	226
1569	0	0	0
1570	0	0	0
1571	0	0	0
1572	0	0	0
1573	0	0	0
1574	0	0	0
1575	0	0	0
1576	0	0	0
1577	0	0	0
1578	0	0	0
1579	0	0	0
1580	0	0	0
1581	0	0	0
1582	0	0	0
1583	0	0	0
1584	0	0	0
1585	0	0	0
1586	0	0	0
1587	0	0	0
1588	0	0	0
1589	0	0	0
1590	0	0	0
1591	0	0	0
1592	0	0	0
1593	0	0	0
1594	0	0	0
1595	0	0	0
1596	0	0	0
1597	0	0	0
1598	0	0	0
1599	0	0	0
1600	0	0	0
1601	0	0	0
1602	0	0	0
1603	0	0	0
1604	237	181	231
1605	246	187	241
1606	239	174	233
1607	227	156	223
1608	227	151	225
1609	243	167	238
1610	245	165	235
1611	244	164	232
1612	243	159	228
1613	244	162	228
1614	240	155	222
1615	236	151	217
1616	247	163	225
1617	255	170	230
1618	252	162	224
1619	251	162	223
1620	250	162	222
1621	255	173	226
1622	253	175	222
1623	255	187	223
1624	253	189	217
1625	255	198	219
1626	255	206	223
1627	252	206	221
1628	254	217	226
1629	0	0	0
1630	0	0	0
1631	0	0	0
1632	0	0	0
1633	0	0	0
1634	0	0	0
1635	0	0	0
1636	0	0	0
1637	0	0	0
1638	0	0	0
1639	0	0	0
1640	0	0	0
1641	0	0	0
1642	0	0	0
1643	0	0	0
1644	0	0	0
1645	0	0	0
1646	0	0	0
1647	0	0	0
1648	0	0	0
1649	0	0	0
1650	0	0	0
1651	0	0	0
1652	0	0	0
1653	0	0	0
1654	0	0	0
1655	0	0	0
1656	0	0	0
1657	0	0	0
1658	0	0	0
1659	0	0	0
1660	0	0	0
1661	0	0	0
1662	243	198	235
1663	242	187	234
1664	241	179	234
1665	234	166	225
1666	232	162	225
1667	232	158	228
1668	243	165	236
1669	243	163	232
1670	238	157	227
1671	236	153	224
1672	233	149	221
1673	230	142	215
1674	241	156	224
1675	251	168	230
1676	249	161	224
1677	244	153	217
1678	248	157	220
1679	248	158	222
1680	252	166	225
1681	251	169	221
1682	251	175	219
1683	248	177	214
1684	250	186	216
1685	252	195	219
1686	254	205	223
1687	255	215	227
1688	0	0	0
1689	0	0	0
1690	0	0	0
1691	0	0	0
1692	0	0	0
1693	0	0	0
1694	0	0	0
1695	0	0	0
1696	0	0	0
1697	0	0	0
1698	0	0	0
1699	0	0	0
1700	0	0	0
1701	0	0	0
1702	0	0	0
1703	0	0	0
1704	0	0	0
1705	0	0	0
1706	0	0	0
1707	0	0	0
1708	0	0	0
1709	0	0	0
1710	0	0	0
1711	0	0	0
1712	0	0	0
1713	0	0	0
1714	0	0	0
1715	0	0	0
1716	0	0	0
1717	0	0	0
1718	0	0	0
1719	0	0	0
1720	0	0	0
1721	0	0	0
1722	241	187	233
1723	242	180	233
1724	238	171	228
1725	239	169	230
1726	236	160	229
1727	245	166	236
1728	238	156	227
1729	228	148	220
1730	235	159	228
1731	234	156	226
1732	236	153	224
1733	254	170	236
1734	251	164	230
1735	243	153	220
1736	247	159	221
1737	253	164	226
1738	250	160	224
1739	255	169	229
1740	255	173	225
1741	255	179	224
1742	251	177	217
1743	254	187	221
1744	254	194	222
1745	255	203	226
1746	254	207	224
1747	0	0	0
1748	0	0	0
1749	0	0	0
1750	0	0	0
1751	0	0	0
1752	0	0	0
1753	0	0	0
1754	0	0	0
1755	0	0	0
1756	0	0	0
1757	0	0	0
1758	0	0	0
1759	0	0	0
1760	0	0	0
1761	0	0	0
1762	0	0	0
1763	0	0	0
1764	0	0	0
1765	0	0	0
1766	0	0	0
1767	0	0	0
1768	0	0	0
1769	0	0	0
1770	0	0	0
1771	0	0	0
1772	0	0	0
1773	0	0	0
1774	0	0	0
1775	0	0	0
1776	0	0	0
1777	0	0	0
1778	0	0	0
1779	0	0	0
1780	0	0	0
1781	238	184	229
1782	242	182	234
1783	240	173	231
1784	238	167	230
1785	235	158	227
1786	240	158	230
1787	233	149	224
1788	236	159	229
1789	243	170	237
1790	241	165	233
1791	243	162	231
1792	251	163	233
1793	248	157	226
1794	248	161	225
1795	252	166	228
1796	253	164	226
1797	250	159	225
1798	255	168	228
1799	255	172	224
1800	253	173	218
1801	249	172	213
1802	253	182	218
1803	254	189	221
1804	254	196	223
1805	252	200	222
1806	0	0	0
1807	0	0	0
1808	0	0	0
1809	0	0	0
1810	0	0	0
1811	0	0	0
1812	0	0	0
1813	0	0	0
1814	0	0	0
1815	0	0	0
1816	0	0	0
1817	0	0	0
1818	0	0	0
1819	0	0	0
1820	0	0	0
1821	0	0	0
1822	0	0	0
1823	0	0	0
1824	0	0	0
1825	0	0	0
1826	0	0	0
1827	0	0	0
1828	0	0	0
1829	0	0	0
1830	0	0	0
1831	0	0	0
1832	0	0	0
1833	0	0	0
1834	0	0	0
1835	0	0	0
1836	0	0	0
1837	0	0	0
1838	0	0	0
1839	0	0	0
1840	240	188	230
1841	243	186	236
1842	239	175	232
1843	239	169	231
1844	240	166	231
1845	244	166	233
1846	234	149	224
1847	244	163	234
1848	248	169	237
1849	243	162	231
1850	245	161	231
1851	249	161	231
1852	245	153	224
1853	247	158	225
1854	253	165	228
1855	254	163	227
1856	251	158	224
1857	255	167	227
1858	255	170	223
1859	253	170	218
1860	253	175	217
1861	255	186	222
1862	252	182	219
1863	252	189	221
1864	253	198	224
1865	0	0	0
1866	0	0	0
1867	0	0	0
1868	0	0	0
1869	0	0	0
1870	0	0	0
1871	0	0	0
1872	0	0	0
1873	0	0	0
1874	0	0	0
1875	0	0	0
1876	0	0	0
1877	0	0	0
1878	0	0	0
1879	0	0	0
1880	0	0	0
1881	0	0	0
1882	0	0	0
1883	0	0	0
1884	0	0	0
1885	0	0	0
1886	0	0	0
1887	0	0	0
1888	0	0	0
1889	0	0	0
1890	0	0	0
1891	0	0	0
1892	0	0	0
1893	0	0	0
1894	0	0	0
1895	0	0	0
1896	0	0	0
1897	0	0	0
1898	0	0	0
1899	0	0	0
1900	239	183	232
1901	236	174	231
1902	242	175	236
1903	243	172	232
1904	240	162	227
1905	232	147	220
1906	245	159	231
1907	250	165	234
1908	244	160	229
1909	245	158	230
1910	246	155	228
1911	241	147	220
1912	246	155	225
1913	253	163	229
1914	252	160	226
1915	248	154	220
1916	253	162	223
1917	255	167	223
1918	255	172	223
1919	255	176	220
1920	252	176	217
1921	247	173	214
1922	252	186	222
1923	254	195	226
1924	255	209	230
1925	0	0	0
1926	0	0	0
1927	0	0	0
1928	0	0	0
1929	0	0	0
1930	0	0	0
1931	0	0	0
1932	0	0	0
1933	0	0	0
1934	0	0	0
1935	0	0	0
1936	0	0	0
1937	0	0	0
1938	0	0	0
1939	0	0	0
1940	0	0	0
1941	0	0	0
1942	0	0	0
1943	0	0	0
1944	0	0	0
1945	0	0	0
1946	0	0	0
1947	0	0	0
1948	0	0	0
1949	0	0	0
1950	0	0	0
1951	0	0	0
1952	0	0	0
1953	0	0	0
1954	0	0	0
1955	0	0	0
1956	0	0	0
1957	0	0	0
1958	0	0	0
1959	0	0	0
1960	244	187	238
1961	252	190	244
1962	241	168	229
1963	238	159	225
1964	238	153	224
1965	252	166	235
1966	251	163	232
1967	245	157	227
1968	249	163	232
1969	248	158	229
1970	247	156	226
1971	255	165	232
1972	252	162	228
1973	248	157	223
1974	246	154	219
1975	255	165	225
1976	255	167	225
1977	255	173	225
1978	255	175	222
1979	253	174	219
1980	251	176	218
1981	255	189	225
1982	255	193	226
1983	255	207	231
1984	255	209	224
1985	0	0	0
1986	0	0	0
1987	0	0	0
1988	0	0	0
1989	0	0	0
1990	0	0	0
1991	0	0	0
1992	0	0	0
1993	0	0	0
1994	0	0	0
1995	0	0	0
1996	0	0	0
1997	0	0	0
1998	0	0	0
1999	0	0	0
2000	0	0	0
2001	0	0	0
2002	0	0	0
2003	0	0	0
2004	0	0	0
2005	0	0	0
2006	0	0	0
2007	0	0	0
2008	0	0	0
2009	0	0	0
2010	0	0	0
2011	0	0	0
2012	0	0	0
2013	0	0	0
2014	0	0	0
2015	0	0	0
2016	0	0	0
2017	0	0	0
2018	0	0	0
2019	248	197	239
2020	244	182	235
2021	235	162	225
2022	239	162	228
2023	239	156	226
2024	247	160	230
2025	247	158	228
2026	250	162	230
2027	254	168	233
2028	255	167	232
2029	255	165	231
2030	255	164	230
2031	252	160	225
2032	251	159	224
2033	250	158	224
2034	255	166	228
2035	255	168	226
2036	255	171	226
2037	255	175	227
2038	255	178	226
2039	254	178	219
2040	255	184	219
2041	254	188	220
2042	252	193	219
2043	249	195	215
2044	0	0	0
2045	0	0	0
2046	0	0	0
2047	0	0	0
2048	0	0	0
2049	0	0	0
2050	0	0	0
2051	0	0	0
2052	0	0	0
2053	0	0	0
2054	0	0	0
2055	0	0	0
2056	0	0	0
2057	0	0	0
2058	0	0	0
2059	0	0	0
2060	0	0	0
2061	0	0	0
2062	0	0	0
2063	0	0	0
2064	0	0	0
2065	0	0	0
2066	0	0	0
2067	0	0	0
2068	0	0	0
2069	0	0	0
2070	0	0	0
2071	0	0	0
2072	0	0	0
2073	0	0	0
2074	0	0	0
2075	0	0	0
2076	0	0	0
2077	0	0	0
2078	249	200	237
2079	244	184	233
2080	236	167	227
2081	238	166	231
2082	238	160	228
2083	246	165	232
2084	250	165	232
2085	255	173	237
2086	250	158	226
2087	251	157	225
2088	254	161	228
2089	254	159	226
2090	253	158	224
2091	255	159	226
2092	252	154	223
2093	255	160	226
2094	253	159	220
2095	253	162	221
2096	255	170	227
2097	255	173	226
2098	250	170	217
2099	251	177	217
2100	255	187	221
2101	254	192	220
2102	251	193	216
2103	0	0	0
2104	0	0	0
2105	0	0	0
2106	0	0	0
2107	0	0	0
2108	0	0	0
2109	0	0	0
2110	0	0	0
2111	0	0	0
2112	0	0	0
2113	0	0	0
2114	0	0	0
2115	0	0	0
2116	0	0	0
2117	0	0	0
2118	0	0	0
2119	0	0	0
2120	0	0	0
2121	0	0	0
2122	0	0	0
2123	0	0	0
2124	0	0	0
2125	0	0	0
2126	0	0	0
2127	0	0	0
2128	0	0	0
2129	0	0	0
2130	0	0	0
2131	0	0	0
2132	0	0	0
2133	0	0	0
2134	0	0	0
2135	0	0	0
2136	0	0	0
2137	248	201	235
2138	243	187	232
2139	235	170	226
2140	238	170	231
2141	238	165	231
2142	246	170	236
2143	251	170	234
2144	250	161	228
2145	243	147	220
2146	250	154	225
2147	253	157	225
2148	253	156	224
2149	254	156	225
2150	254	153	224
2151	249	147	219
2152	250	150	219
2153	246	148	213
2154	248	154	216
2155	252	163	223
2156	252	165	224
2157	247	163	218
2158	254	176	224
2159	255	187	228
2160	255	190	225
2161	252	191	218
2162	255	203	220
2163	0	0	0
2164	0	0	0
2165	0	0	0
2166	0	0	0
2167	0	0	0
2168	0	0	0
2169	0	0	0
2170	0	0	0
2171	0	0	0
2172	0	0	0
2173	0	0	0
2174	0	0	0
2175	0	0	0
2176	0	0	0
2177	0	0	0
2178	0	0	0
2179	0	0	0
2180	0	0	0
2181	0	0	0
2182	0	0	0
2183	0	0	0
2184	0	0	0
2185	0	0	0
2186	0	0	0
2187	0	0	0
2188	0	0	0
2189	0	0	0
2190	0	0	0
2191	0	0	0
2192	0	0	0
2193	0	0	0
2194	0	0	0
2195	0	0	0
2196	246	203	233
2197	240	189	230
2198	235	175	227
2199	241	176	234
2200	242	173	235
2201	249	177	239
2202	246	166	231
2203	246	157	226
2204	245	151	224
2205	253	158	230
2206	251	153	224
2207	252	153	223
2208	255	155	227
2209	254	153	225
2210	250	147	220
2211	250	149	219
2212	248	151	217
2213	252	158	220
2214	255	176	234
2215	255	178	234
2216	248	160	219
2217	254	174	226
2218	255	183	229
2219	255	186	225
2220	251	186	218
2221	255	198	220
2222	255	206	221
2223	0	0	0
2224	0	0	0
2225	0	0	0
2226	0	0	0
2227	0	0	0
2228	0	0	0
2229	0	0	0
2230	0	0	0
2231	0	0	0
2232	0	0	0
2233	0	0	0
2234	0	0	0
2235	0	0	0
2236	0	0	0
2237	0	0	0
2238	0	0	0
2239	0	0	0
2240	0	0	0
2241	0	0	0
2242	0	0	0
2243	0	0	0
2244	0	0	0
2245	0	0	0
2246	0	0	0
2247	0	0	0
2248	0	0	0
2249	0	0	0
2250	0	0	0
2251	0	0	0
2252	0	0	0
2253	0	0	0
2254	0	0	0
2255	247	207	233
2256	243	195	232
2257	239	182	231
2258	246	184	239
2259	246	180	236
2260	242	170	231
2261	240	161	226
2262	245	158	227
2263	245	151	225
2264	249	152	227
2265	248	148	222
2266	253	152	226
2267	255	155	228
2268	254	151	225
2269	249	146	220
2270	252	152	222
2271	252	154	222
2272	255	172	233
2273	255	189	241
2274	255	172	228
2275	245	154	217
2276	252	168	224
2277	254	176	224
2278	252	178	220
2279	248	179	217
2280	252	190	219
2281	253	199	220
2282	255	209	222
2283	0	0	0
2284	0	0	0
2285	0	0	0
2286	0	0	0
2287	0	0	0
2288	0	0	0
2289	0	0	0
2290	0	0	0
2291	0	0	0
2292	0	0	0
2293	0	0	0
2294	0	0	0
2295	0	0	0
2296	0	0	0
2297	0	0	0
2298	0	0	0
2299	0	0	0
2300	0	0	0
2301	0	0	0
2302	0	0	0
2303	0	0	0
2304	0	0	0
2305	0	0	0
2306	0	0	0
2307	0	0	0
2308	0	0	0
2309	0	0	0
2310	0	0	0
2311	0	0	0
2312	0	0	0
2313	0	0	0
2314	246	208	234
2315	245	197	233
2316	242	185	233
2317	249	187	239
2318	242	174	231
2319	236	164	225
2320	242	166	230
2321	249	164	232
2322	250	158	229
2323	255	160	232
2324	251	150	225
2325	255	153	228
2326	252	149	225
2327	250	145	222
2328	253	150	223
2329	255	156	227
2330	252	152	223
2331	255	170	233
2332	255	164	225
2333	244	148	211
2334	250	160	221
2335	255	173	229
2336	253	173	223
2337	251	175	220
2338	255	187	224
2339	255	198	227
2340	254	195	221
2341	255	205	224
2342	254	209	221
2343	0	0	0
2344	0	0	0
2345	0	0	0
2346	0	0	0
2347	0	0	0
2348	0	0	0
2349	0	0	0
2350	0	0	0
2351	0	0	0
2352	0	0	0
2353	0	0	0
2354	0	0	0
2355	0	0	0
2356	0	0	0
2357	0	0	0
2358	0	0	0
2359	0	0	0
2360	0	0	0
2361	0	0	0
2362	0	0	0
2363	0	0	0
2364	0	0	0
2365	0	0	0
2366	0	0	0
2367	0	0	0
2368	0	0	0
2369	0	0	0
2370	0	0	0
2371	0	0	0
2372	0	0	0
2373	247	210	237
2374	246	199	235
2375	243	186	230
2376	243	180	231
2377	237	168	226
2378	241	170	230
2379	248	173	236
2380	251	168	235
2381	252	161	230
2382	252	155	227
2383	248	146	222
2384	247	143	220
2385	244	139	216
2386	249	145	220
2387	252	150	223
2388	251	149	222
2389	247	146	218
2390	246	144	215
2391	241	140	209
2392	249	153	217
2393	255	165	224
2394	255	167	224
2395	252	169	223
2396	255	181	227
2397	255	191	228
2398	255	190	222
2399	251	188	217
2400	250	193	217
2401	0	0	0
2402	0	0	0
2403	0	0	0
2404	0	0	0
2405	0	0	0
2406	0	0	0
2407	0	0	0
2408	0	0	0
2409	0	0	0
2410	0	0	0
2411	0	0	0
2412	0	0	0
2413	0	0	0
2414	0	0	0
2415	0	0	0
2416	0	0	0
2417	0	0	0
2418	0	0	0
2419	0	0	0
2420	0	0	0
2421	0	0	0
2422	0	0	0
2423	0	0	0
2424	0	0	0
2425	0	0	0
2426	0	0	0
2427	0	0	0
2428	0	0	0
2429	0	0	0
2430	0	0	0
2431	0	0	0
2432	251	217	240
2433	249	206	237
2434	244	191	230
2435	244	185	231
2436	241	173	229
2437	248	177	236
2438	250	174	237
2439	253	169	235
2440	252	162	230
2441	250	155	226
2442	250	152	225
2443	249	149	223
2444	255	157	227
2445	255	163	231
2446	253	153	225
2447	253	153	224
2448	255	158	225
2449	255	157	224
2450	248	148	217
2451	255	162	226
2452	253	160	221
2453	252	162	220
2454	255	173	227
2455	255	186	232
2456	255	181	223
2457	252	180	218
2458	248	181	216
2459	0	0	0
2460	0	0	0
2461	0	0	0
2462	0	0	0
2463	0	0	0
2464	0	0	0
2465	0	0	0
2466	0	0	0
2467	0	0	0
2468	0	0	0
2469	0	0	0
2470	0	0	0
2471	0	0	0
2472	0	0	0
2473	0	0	0
2474	0	0	0
2475	0	0	0
2476	0	0	0
2477	0	0	0
2478	0	0	0
2479	0	0	0
2480	0	0	0
2481	0	0	0
2482	0	0	0
2483	0	0	0
2484	0	0	0
2485	0	0	0
2486	0	0	0
2487	0	0	0
2488	0	0	0
2489	0	0	0
2490	0	0	0
2491	252	221	236
2492	250	208	232
2493	246	194	228
2494	245	186	229
2495	243	176	230
2496	249	177	235
2497	251	174	234
2498	253	169	232
2499	251	162	229
2500	251	160	228
2501	251	156	228
2502	255	165	233
2503	255	171	233
2504	255	161	225
2505	250	153	222
2506	255	160	227
2507	255	165	226
2508	255	159	222
2509	250	151	219
2510	253	156	223
2511	249	154	218
2512	255	166	223
2513	255	176	227
2514	254	173	222
2515	249	169	217
2516	248	173	219
2517	246	174	218
2518	255	194	227
2519	0	0	0
2520	0	0	0
2521	0	0	0
2522	0	0	0
2523	0	0	0
2524	0	0	0
2525	0	0	0
2526	0	0	0
2527	0	0	0
2528	0	0	0
2529	0	0	0
2530	0	0	0
2531	0	0	0
2532	0	0	0
2533	0	0	0
2534	0	0	0
2535	0	0	0
2536	0	0	0
2537	0	0	0
2538	0	0	0
2539	0	0	0
2540	0	0	0
2541	0	0	0
2542	0	0	0
2543	0	0	0
2544	0	0	0
2545	0	0	0
2546	0	0	0
2547	0	0	0
2548	0	0	0
2549	0	0	0
2550	253	225	236
2551	253	213	232
2552	251	201	229
2553	250	193	231
2554	251	187	234
2555	255	188	240
2556	251	175	233
2557	252	170	231
2558	252	165	229
2559	252	163	228
2560	255	167	233
2561	255	175	237
2562	255	168	228
2563	252	159	220
2564	255	166	228
2565	255	173	233
2566	255	160	221
2567	252	155	218
2568	252	154	221
2569	255	160	226
2570	249	153	218
2571	255	166	225
2572	255	170	224
2573	251	167	219
2574	253	174	223
2575	253	178	224
2576	254	185	227
2577	255	204	235
2578	253	197	221
2579	0	0	0
2580	0	0	0
2581	0	0	0
2582	0	0	0
2583	0	0	0
2584	0	0	0
2585	0	0	0
2586	0	0	0
2587	0	0	0
2588	0	0	0
2589	0	0	0
2590	0	0	0
2591	0	0	0
2592	0	0	0
2593	0	0	0
2594	0	0	0
2595	0	0	0
2596	0	0	0
2597	0	0	0
2598	0	0	0
2599	0	0	0
2600	0	0	0
2601	0	0	0
2602	0	0	0
2603	0	0	0
2604	0	0	0
2605	0	0	0
2606	0	0	0
2607	0	0	0
2608	0	0	0
2609	255	231	239
2610	255	219	235
2611	254	206	233
2612	255	203	236
2613	255	196	235
2614	254	186	234
2615	250	174	231
2616	254	174	234
2617	253	169	229
2618	255	175	233
2619	255	179	238
2620	255	175	235
2621	255	170	229
2622	255	177	233
2623	255	183	238
2624	255	172	230
2625	255	160	221
2626	254	158	221
2627	253	156	220
2628	253	155	221
2629	247	150	217
2630	253	159	223
2631	254	165	224
2632	255	172	226
2633	255	178	226
2634	255	186	229
2635	255	191	228
2636	254	189	222
2637	0	0	0
2638	0	0	0
2639	0	0	0
2640	0	0	0
2641	0	0	0
2642	0	0	0
2643	0	0	0
2644	0	0	0
2645	0	0	0
2646	0	0	0
2647	0	0	0
2648	0	0	0
2649	0	0	0
2650	0	0	0
2651	0	0	0
2652	0	0	0
2653	0	0	0
2654	0	0	0
2655	0	0	0
2656	0	0	0
2657	0	0	0
2658	0	0	0
2659	0	0	0
2660	0	0	0
2661	0	0	0
2662	0	0	0
2663	0	0	0
2664	0	0	0
2665	0	0	0
2666	0	0	0
2667	0	0	0
2668	254	234	240
2669	254	222	236
2670	254	211	234
2671	255	208	237
2672	251	190	228
2673	249	180	226
2674	255	184	234
2675	255	183	237
2676	251	170	226
2677	255	176	231
2678	255	175	232
2679	255	173	230
2680	253	161	223
2681	255	169	228
2682	255	163	222
2683	249	151	214
2684	255	159	220
2685	254	157	219
2686	255	161	222
2687	255	160	223
2688	247	149	217
2689	253	160	224
2690	255	168	227
2691	255	175	228
2692	253	172	222
2693	255	179	223
2694	253	180	219
2695	248	179	215
2696	255	194	225
2697	0	0	0
2698	0	0	0
2699	0	0	0
2700	0	0	0
2701	0	0	0
2702	0	0	0
2703	0	0	0
2704	0	0	0
2705	0	0	0
2706	0	0	0
2707	0	0	0
2708	0	0	0
2709	0	0	0
2710	0	0	0
2711	0	0	0
2712	0	0	0
2713	0	0	0
2714	0	0	0
2715	0	0	0
2716	0	0	0
2717	0	0	0
2718	0	0	0
2719	0	0	0
2720	0	0	0
2721	0	0	0
2722	0	0	0
2723	0	0	0
2724	0	0	0
2725	0	0	0
2726	0	0	0
2727	255	241	245
2728	255	228	239
2729	255	216	234
2730	251	201	228
2731	245	184	222
2732	254	190	230
2733	255	192	234
2734	255	182	229
2735	249	170	222
2736	253	171	224
2737	254	171	224
2738	252	163	220
2739	248	153	216
2740	251	154	219
2741	248	147	213
2742	255	156	218
2743	255	163	222
2744	255	163	221
2745	255	168	225
2746	253	157	219
2747	245	146	213
2748	252	159	221
2749	255	167	222
2750	252	166	219
2751	248	164	216
2752	249	169	218
2753	247	171	215
2754	254	187	223
2755	255	201	229
2756	255	202	225
2757	0	0	0
2758	0	0	0
2759	0	0	0
2760	0	0	0
2761	0	0	0
2762	0	0	0
2763	0	0	0
2764	0	0	0
2765	0	0	0
2766	0	0	0
2767	0	0	0
2768	0	0	0
2769	0	0	0
2770	0	0	0
2771	0	0	0
2772	0	0	0
2773	0	0	0
2774	0	0	0
2775	0	0	0
2776	0	0	0
2777	0	0	0
2778	0	0	0
2779	0	0	0
2780	0	0	0
2781	0	0	0
2782	0	0	0
2783	0	0	0
2784	0	0	0
2785	0	0	0
2786	255	242	245
2787	253	227	237
2788	253	218	233
2789	250	203	227
2790	252	197	228
2791	255	203	236
2792	253	186	226
2793	249	176	221
2794	254	178	226
2795	255	180	229
2796	255	176	227
2797	255	169	224
2798	251	156	220
2799	255	157	223
2800	244	139	210
2801	251	148	216
2802	251	149	214
2803	249	149	212
2804	255	170	227
2805	254	159	219
2806	250	154	217
2807	255	167	225
2808	255	169	222
2809	255	169	219
2810	251	166	217
2811	252	172	220
2812	254	179	222
2813	255	195	229
2814	255	195	224
2815	253	195	220
2816	255	205	221
2817	0	0	0
2818	0	0	0
2819	0	0	0
2820	0	0	0
2821	0	0	0
2822	0	0	0
2823	0	0	0
2824	0	0	0
2825	0	0	0
2826	0	0	0
2827	0	0	0
2828	0	0	0
2829	0	0	0
2830	0	0	0
2831	0	0	0
2832	0	0	0
2833	0	0	0
2834	0	0	0
2835	0	0	0
2836	0	0	0
2837	0	0	0
2838	0	0	0
2839	0	0	0
2840	0	0	0
2841	0	0	0
2842	0	0	0
2843	0	0	0
2844	0	0	0
2845	0	0	0
2846	251	229	236
2847	251	221	234
2848	255	215	233
2849	255	208	231
2850	254	196	228
2851	247	180	221
2852	255	186	229
2853	255	188	233
2854	255	183	231
2855	255	180	230
2856	253	165	222
2857	248	153	217
2858	245	142	213
2859	234	124	201
2860	244	136	211
2861	244	137	211
2862	255	157	223
2863	255	177	236
2864	255	169	227
2865	255	164	222
2866	255	169	224
2867	255	171	222
2868	255	170	219
2869	252	167	215
2870	255	177	221
2871	255	185	225
2872	255	188	225
2873	253	188	220
2874	255	197	221
2875	255	207	222
2876	0	0	0
2877	0	0	0
2878	0	0	0
2879	0	0	0
2880	0	0	0
2881	0	0	0
2882	0	0	0
2883	0	0	0
2884	0	0	0
2885	0	0	0
2886	0	0	0
2887	0	0	0
2888	0	0	0
2889	0	0	0
2890	0	0	0
2891	0	0	0
2892	0	0	0
2893	0	0	0
2894	0	0	0
2895	0	0	0
2896	0	0	0
2897	0	0	0
2898	0	0	0
2899	0	0	0
2900	0	0	0
2901	0	0	0
2902	0	0	0
2903	0	0	0
2904	0	0	0
2905	0	0	0
2906	252	228	238
2907	255	223	239
2908	253	207	230
2909	251	196	226
2910	250	186	226
2911	255	192	234
2912	255	185	230
2913	255	180	228
2914	255	180	230
2915	252	165	223
2916	254	162	225
2917	251	152	221
2918	246	141	214
2919	255	153	225
2920	244	135	213
2921	255	155	225
2922	255	169	231
2923	255	160	221
2924	254	161	220
2925	255	166	221
2926	254	166	218
2927	252	164	215
2928	252	168	215
2929	255	178	221
2930	255	179	221
2931	254	182	222
2932	253	186	220
2933	255	196	222
2934	255	201	218
2935	0	0	0
2936	0	0	0
2937	0	0	0
2938	0	0	0
2939	0	0	0
2940	0	0	0
2941	0	0	0
2942	0	0	0
2943	0	0	0
2944	0	0	0
2945	0	0	0
2946	0	0	0
2947	0	0	0
2948	0	0	0
2949	0	0	0
2950	0	0	0
2951	0	0	0
2952	0	0	0
2953	0	0	0
2954	0	0	0
2955	0	0	0
2956	0	0	0
2957	0	0	0
2958	0	0	0
2959	0	0	0
2960	0	0	0
2961	0	0	0
2962	0	0	0
2963	0	0	0
2964	0	0	0
2965	0	0	0
2966	253	222	238
2967	250	207	231
2968	252	200	231
2969	251	191	229
2970	253	188	230
2971	252	181	226
2972	254	180	227
2973	255	179	230
2974	255	173	228
2975	255	170	232
2976	255	161	228
2977	251	150	220
2978	250	144	218
2979	237	127	207
2980	252	148	220
2981	255	161	224
2982	254	159	218
2983	254	160	219
2984	253	161	218
2985	251	160	216
2986	253	166	218
2987	254	170	218
2988	253	172	219
2989	250	172	217
2990	252	179	220
2991	252	184	222
2992	255	193	223
2993	254	197	219
2994	255	207	221
2995	0	0	0
2996	0	0	0
2997	0	0	0
2998	0	0	0
2999	0	0	0
3000	0	0	0
3001	0	0	0
3002	0	0	0
3003	0	0	0
3004	0	0	0
3005	0	0	0
3006	0	0	0
3007	0	0	0
3008	0	0	0
3009	0	0	0
3010	0	0	0
3011	0	0	0
3012	0	0	0
3013	0	0	0
3014	0	0	0
3015	0	0	0
3016	0	0	0
3017	0	0	0
3018	0	0	0
3019	0	0	0
3020	0	0	0
3021	0	0	0
3022	0	0	0
3023	0	0	0
3024	0	0	0
3025	0	0	0
3026	252	215	236
3027	255	210	237
3028	252	196	231
3029	255	193	232
3030	253	184	227
3031	255	184	229
3032	254	178	228
3033	253	171	226
3034	255	176	234
3035	255	167	229
3036	254	157	224
3037	254	152	223
3038	241	132	212
3039	255	154	226
3040	255	155	221
3041	251	153	217
3042	255	163	223
3043	254	162	221
3044	255	165	220
3045	255	170	221
3046	255	173	221
3047	255	176	222
3048	252	174	220
3049	255	181	223
3050	255	189	225
3051	255	198	227
3052	251	190	217
3053	254	200	220
3054	255	210	225
3055	0	0	0
3056	0	0	0
3057	0	0	0
3058	0	0	0
3059	0	0	0
3060	0	0	0
3061	0	0	0
3062	0	0	0
3063	0	0	0
3064	0	0	0
3065	0	0	0
3066	0	0	0
3067	0	0	0
3068	0	0	0
3069	0	0	0
3070	0	0	0
3071	0	0	0
3072	0	0	0
3073	0	0	0
3074	0	0	0
3075	0	0	0
3076	0	0	0
3077	0	0	0
3078	0	0	0
3079	0	0	0
3080	0	0	0
3081	0	0	0
3082	0	0	0
3083	0	0	0
3084	0	0	0
3085	255	223	239
3086	255	212	235
3087	251	198	230
3088	254	194	232
3089	253	186	228
3090	254	183	229
3091	253	177	228
3092	255	180	231
3093	255	183	234
3094	255	171	227
3095	255	162	225
3096	251	151	222
3097	239	132	211
3098	251	146	222
3099	251	148	221
3100	255	159	227
3101	255	168	232
3102	255	169	229
3103	255	171	223
3104	255	173	220
3105	255	176	221
3106	255	177	222
3107	255	177	222
3108	255	186	226
3109	255	192	224
3110	253	187	217
3111	246	181	212
3112	251	193	219
3113	255	202	223
3114	255	209	223
3115	0	0	0
3116	0	0	0
3117	0	0	0
3118	0	0	0
3119	0	0	0
3120	0	0	0
3121	0	0	0
3122	0	0	0
3123	0	0	0
3124	0	0	0
3125	0	0	0
3126	0	0	0
3127	0	0	0
3128	0	0	0
3129	0	0	0
3130	0	0	0
3131	0	0	0
3132	0	0	0
3133	0	0	0
3134	0	0	0
3135	0	0	0
3136	0	0	0
3137	0	0	0
3138	0	0	0
3139	0	0	0
3140	0	0	0
3141	0	0	0
3142	0	0	0
3143	0	0	0
3144	254	226	237
3145	253	214	234
3146	255	206	233
3147	255	203	236
3148	250	185	226
3149	252	182	227
3150	252	178	227
3151	255	181	230
3152	255	180	229
3153	253	168	222
3154	255	172	228
3155	255	160	225
3156	247	145	219
3157	255	159	231
3158	248	143	220
3159	254	153	226
3160	254	157	225
3161	253	158	221
3162	255	168	221
3163	255	170	219
3164	255	171	219
3165	255	173	219
3166	254	174	220
3167	255	183	224
3168	253	180	216
3169	246	175	209
3170	255	190	221
3171	255	202	228
3172	255	199	224
3173	255	206	225
3174	253	206	218
3175	0	0	0
3176	0	0	0
3177	0	0	0
3178	0	0	0
3179	0	0	0
3180	0	0	0
3181	0	0	0
3182	0	0	0
3183	0	0	0
3184	0	0	0
3185	0	0	0
3186	0	0	0
3187	0	0	0
3188	0	0	0
3189	0	0	0
3190	0	0	0
3191	0	0	0
3192	0	0	0
3193	0	0	0
3194	0	0	0
3195	0	0	0
3196	0	0	0
3197	0	0	0
3198	0	0	0
3199	0	0	0
3200	0	0	0
3201	0	0	0
3202	0	0	0
3203	255	231	239
3204	255	221	236
3205	255	213	235
3206	252	198	229
3207	245	180	221
3208	250	182	225
3209	250	177	224
3210	255	180	227
3211	255	180	227
3212	255	181	228
3213	255	183	232
3214	255	168	224
3215	251	153	220
3216	248	145	219
3217	236	129	208
3218	242	138	214
3219	242	141	211
3220	249	154	215
3221	255	165	220
3222	254	166	218
3223	254	168	219
3224	254	170	220
3225	252	170	218
3226	251	171	217
3227	247	169	212
3228	254	183	219
3229	255	198	228
3230	255	195	224
3231	251	193	221
3232	250	195	219
3233	248	196	215
3234	255	209	222
3235	0	0	0
3236	0	0	0
3237	0	0	0
3238	0	0	0
3239	0	0	0
3240	0	0	0
3241	0	0	0
3242	0	0	0
3243	0	0	0
3244	0	0	0
3245	0	0	0
3246	0	0	0
3247	0	0	0
3248	0	0	0
3249	0	0	0
3250	0	0	0
3251	0	0	0
3252	0	0	0
3253	0	0	0
3254	0	0	0
3255	0	0	0
3256	0	0	0
3257	0	0	0
3258	0	0	0
3259	0	0	0
3260	0	0	0
3261	0	0	0
3262	255	234	239
3263	253	221	233
3264	254	215	233
3265	252	201	229
3266	252	193	227
3267	255	194	231
3268	253	184	226
3269	255	187	230
3270	255	179	226
3271	255	179	227
3272	254	168	220
3273	246	153	212
3274	255	164	224
3275	253	156	223
3276	244	142	216
3277	251	152	222
3278	255	161	223
3279	255	174	228
3280	254	164	220
3281	254	166	219
3282	255	170	222
3283	255	173	222
3284	253	170	217
3285	252	171	216
3286	252	175	217
3287	255	189	225
3288	255	195	226
3289	254	191	220
3290	255	199	224
3291	255	202	224
3292	255	205	223
3293	255	218	231
3294	255	210	224
3295	0	0	0
3296	0	0	0
3297	0	0	0
3298	0	0	0
3299	0	0	0
3300	0	0	0
3301	0	0	0
3302	0	0	0
3303	0	0	0
3304	0	0	0
3305	0	0	0
3306	0	0	0
3307	0	0	0
3308	0	0	0
3309	0	0	0
3310	0	0	0
3311	0	0	0
3312	0	0	0
3313	0	0	0
3314	0	0	0
3315	0	0	0
3316	0	0	0
3317	0	0	0
3318	0	0	0
3319	0	0	0
3320	0	0	0
3321	255	238	240
3322	254	226	235
3323	255	220	236
3324	255	213	236
3325	255	205	232
3326	255	199	231
3327	255	190	228
3328	255	185	228
3329	254	178	224
3330	250	168	220
3331	246	158	216
3332	255	168	225
3333	255	176	230
3334	255	164	223
3335	249	152	220
3336	255	167	231
3337	255	175	230
3338	255	168	222
3339	250	159	215
3340	254	165	219
3341	255	169	219
3342	255	170	218
3343	253	168	215
3344	255	176	218
3345	255	180	220
3346	255	187	222
3347	255	191	222
3348	255	198	223
3349	255	206	225
3350	255	207	224
3351	255	211	225
3352	254	203	220
3353	246	195	215
3354	0	0	0
3355	0	0	0
3356	0	0	0
3357	0	0	0
3358	0	0	0
3359	0	0	0
3360	0	0	0
3361	0	0	0
3362	0	0	0
3363	0	0	0
3364	0	0	0
3365	0	0	0
3366	0	0	0
3367	0	0	0
3368	0	0	0
3369	0	0	0
3370	0	0	0
3371	0	0	0
3372	0	0	0
3373	0	0	0
3374	0	0	0
3375	0	0	0
3376	0	0	0
3377	0	0	0
3378	0	0	0
3379	0	0	0
3380	255	237	239
3381	252	225	233
3382	254	220	235
3383	0	0	0
3384	254	203	228
3385	255	197	228
3386	251	185	224
3387	252	181	225
3388	255	182	228
3389	252	172	223
3390	254	171	225
3391	255	180	232
3392	255	167	221
3393	247	154	213
3394	253	163	223
3395	255	177	234
3396	255	173	226
3397	254	166	219
3398	255	167	220
3399	255	174	224
3400	255	168	218
3401	255	169	217
3402	250	163	212
3403	254	171	216
3404	255	178	219
3405	255	184	222
3406	253	182	217
3407	254	188	218
3408	255	196	218
3409	254	197	216
3410	255	204	220
3411	250	196	216
3412	250	199	220
3413	0	0	0
3414	0	0	0
3415	0	0	0
3416	0	0	0
3417	0	0	0
3418	0	0	0
3419	0	0	0
3420	0	0	0
3421	0	0	0
3422	0	0	0
3423	0	0	0
3424	0	0	0
3425	0	0	0
3426	0	0	0
3427	0	0	0
3428	0	0	0
3429	0	0	0
3430	0	0	0
3431	0	0	0
3432	0	0	0
3433	0	0	0
3434	0	0	0
3435	0	0	0
3436	0	0	0
3437	0	0	0
3438	0	0	0
3439	0	0	0
3440	249	225	232
3441	0	0	0
3442	0	0	0
3443	251	201	226
3444	250	192	224
3445	247	181	222
3446	255	186	230
3447	255	187	232
3448	255	186	232
3449	255	183	229
3450	255	174	223
3451	250	162	217
3452	255	171	225
3453	255	178	230
3454	255	175	226
3455	255	172	223
3456	255	174	224
3457	255	176	224
3458	255	172	222
3459	255	167	218
3460	255	167	219
3461	251	161	215
3462	255	170	220
3463	255	176	221
3464	252	174	218
3465	249	173	217
3466	253	182	221
3467	254	189	218
3468	253	192	216
3469	255	199	220
3470	255	202	222
3471	255	205	226
3472	255	214	232
3473	255	224	237
3474	0	0	0
3475	0	0	0
3476	0	0	0
3477	0	0	0
3478	0	0	0
3479	0	0	0
3480	0	0	0
3481	0	0	0
3482	0	0	0
3483	0	0	0
3484	0	0	0
3485	0	0	0
3486	0	0	0
3487	0	0	0
3488	0	0	0
3489	0	0	0
3490	0	0	0
3491	0	0	0
3492	0	0	0
3493	0	0	0
3494	0	0	0
3495	0	0	0
3496	0	0	0
3497	0	0	0
3498	0	0	0
3499	0	0	0
3500	0	0	0
3501	0	0	0
3502	255	209	230
3503	254	200	228
3504	251	188	227
3505	255	193	235
3506	254	181	229
3507	255	180	228
3508	255	177	224
3509	252	168	219
3510	247	158	216
3511	255	167	223
3512	255	175	225
3513	255	172	221
3514	255	173	224
3515	255	176	226
3516	255	166	218
3517	254	163	217
3518	255	163	218
3519	255	163	219
3520	250	158	215
3521	254	166	220
3522	255	174	222
3523	252	172	219
3524	254	178	224
3525	255	187	228
3526	254	187	221
3527	253	190	218
3528	255	200	224
3529	255	203	225
3530	254	201	225
3531	255	210	231
3532	255	217	234
3533	255	212	230
3534	0	0	0
3535	0	0	0
3536	0	0	0
3537	0	0	0
3538	0	0	0
3539	0	0	0
3540	0	0	0
3541	0	0	0
3542	0	0	0
3543	0	0	0
3544	0	0	0
3545	0	0	0
3546	0	0	0
3547	0	0	0
3548	0	0	0
3549	0	0	0
3550	0	0	0
3551	0	0	0
3552	0	0	0
3553	0	0	0
3554	0	0	0
3555	0	0	0
3556	0	0	0
3557	0	0	0
3558	0	0	0
3559	0	0	0
3560	0	0	0
3561	252	212	229
3562	253	203	228
3563	251	191	226
3564	252	185	227
3565	248	174	223
3566	252	175	226
3567	254	173	224
3568	252	166	221
3569	246	156	218
3570	255	169	227
3571	255	177	228
3572	255	176	226
3573	255	178	228
3574	255	169	224
3575	253	160	219
3576	255	162	222
3577	255	162	220
3578	251	158	217
3579	245	152	213
3580	252	163	219
3581	255	171	222
3582	253	173	221
3583	254	178	224
3584	254	181	223
3585	251	182	220
3586	255	192	223
3587	255	202	227
3588	255	199	224
3589	252	197	223
3590	253	203	226
3591	255	209	228
3592	0	0	0
3593	0	0	0
3594	0	0	0
3595	0	0	0
3596	0	0	0
3597	0	0	0
3598	0	0	0
3599	0	0	0
3600	0	0	0
3601	0	0	0
3602	0	0	0
3603	0	0	0
3604	0	0	0
3605	0	0	0
3606	0	0	0
3607	0	0	0
3608	0	0	0
3609	0	0	0
3610	0	0	0
3611	0	0	0
3612	0	0	0
3613	0	0	0
3614	0	0	0
3615	0	0	0
3616	0	0	0
3617	0	0	0
3618	0	0	0
3619	0	0	0
3620	249	218	230
3621	255	212	232
3622	250	194	226
3623	252	189	227
3624	255	185	229
3625	255	186	233
3626	254	173	226
3627	252	167	224
3628	250	161	223
3629	255	174	231
3630	255	170	225
3631	255	170	223
3632	255	168	223
3633	255	160	220
3634	254	157	221
3635	255	159	224
3636	247	150	217
3637	239	144	211
3638	242	151	214
3639	252	164	221
3640	255	173	224
3641	255	174	222
3642	255	184	227
3643	255	187	226
3644	253	183	222
3645	255	194	226
3646	255	197	226
3647	253	194	222
3648	254	199	225
3649	255	204	227
3650	0	0	0
3651	0	0	0
3652	0	0	0
3653	0	0	0
3654	0	0	0
3655	0	0	0
3656	0	0	0
3657	0	0	0
3658	0	0	0
3659	0	0	0
3660	0	0	0
3661	0	0	0
3662	0	0	0
3663	0	0	0
3664	0	0	0
3665	0	0	0
3666	0	0	0
3667	0	0	0
3668	0	0	0
3669	0	0	0
3670	0	0	0
3671	0	0	0
3672	0	0	0
3673	0	0	0
3674	0	0	0
3675	0	0	0
3676	0	0	0
3677	0	0	0
3678	0	0	0
3679	251	227	237
3680	252	213	233
3681	248	196	226
3682	255	196	231
3683	255	192	231
3684	255	182	227
3685	250	170	223
3686	252	168	225
3687	249	161	221
3688	251	162	221
3689	249	159	217
3690	250	158	216
3691	251	156	218
3692	253	155	220
3693	251	152	218
3694	247	147	217
3695	239	139	215
3696	240	147	220
3697	244	154	221
3698	255	169	228
3699	255	177	229
3700	255	183	228
3701	255	192	231
3702	255	188	226
3703	255	185	223
3704	255	190	225
3705	255	193	226
3706	254	195	225
3707	255	200	226
3708	255	203	226
3709	255	208	228
3710	0	0	0
3711	0	0	0
3712	0	0	0
3713	0	0	0
3714	0	0	0
3715	0	0	0
3716	0	0	0
3717	0	0	0
3718	0	0	0
3719	0	0	0
3720	0	0	0
3721	0	0	0
3722	0	0	0
3723	0	0	0
3724	0	0	0
3725	0	0	0
3726	0	0	0
3727	0	0	0
3728	0	0	0
3729	0	0	0
3730	0	0	0
3731	0	0	0
3732	0	0	0
3733	0	0	0
3734	0	0	0
3735	0	0	0
3736	0	0	0
3737	0	0	0
3738	251	231	239
3739	251	216	234
3740	246	196	225
3741	253	197	231
3742	252	188	227
3743	250	178	224
3744	251	174	227
3745	253	173	230
3746	252	169	227
3747	253	170	227
3748	249	162	221
3749	253	163	223
3750	253	158	223
3751	255	157	225
3752	246	144	216
3753	240	139	214
3754	244	147	224
3755	248	157	230
3756	245	153	224
3757	255	167	230
3758	254	164	223
3759	255	170	222
3760	255	181	225
3761	253	176	219
3762	252	178	219
3763	252	182	221
3764	255	192	227
3765	255	195	225
3766	255	202	227
3767	255	206	227
3768	254	205	224
3769	0	0	0
3770	0	0	0
3771	0	0	0
3772	0	0	0
3773	0	0	0
3774	0	0	0
3775	0	0	0
3776	0	0	0
3777	0	0	0
3778	0	0	0
3779	0	0	0
3780	0	0	0
3781	0	0	0
3782	0	0	0
3783	0	0	0
3784	0	0	0
3785	0	0	0
3786	0	0	0
3787	0	0	0
3788	0	0	0
3789	0	0	0
3790	0	0	0
3791	0	0	0
3792	0	0	0
3793	0	0	0
3794	0	0	0
3795	0	0	0
3796	0	0	0
3797	0	0	0
3798	250	217	233
3799	244	197	226
3800	249	194	229
3801	248	185	226
3802	250	182	228
3803	250	178	231
3804	254	179	235
3805	253	175	232
3806	249	169	228
3807	246	163	224
3808	247	159	225
3809	248	155	224
3810	245	147	222
3811	237	135	215
3812	241	144	222
3813	245	151	226
3814	242	150	224
3815	240	147	220
3816	245	150	222
3817	243	149	218
3818	249	160	222
3819	254	171	224
3820	252	171	221
3821	250	173	219
3822	255	183	224
3823	255	193	228
3824	255	198	227
3825	255	204	227
3826	255	203	223
3827	252	202	220
3828	0	0	0
3829	0	0	0
3830	255	220	234
3831	0	0	0
3832	0	0	0
3833	0	0	0
3834	0	0	0
3835	0	0	0
3836	0	0	0
3837	0	0	0
3838	0	0	0
3839	0	0	0
3840	0	0	0
3841	0	0	0
3842	0	0	0
3843	0	0	0
3844	0	0	0
3845	0	0	0
3846	0	0	0
3847	0	0	0
3848	0	0	0
3849	0	0	0
3850	0	0	0
3851	0	0	0
3852	0	0	0
3853	0	0	0
3854	0	0	0
3855	0	0	0
3856	0	0	0
3857	0	0	0
3858	249	206	232
3859	253	203	235
3860	247	188	228
3861	248	185	230
3862	248	181	232
3863	250	181	236
3864	244	169	229
3865	241	165	227
3866	237	157	224
3867	237	153	224
3868	241	154	227
3869	242	147	225
3870	241	144	224
3871	244	153	230
3872	241	150	225
3873	241	150	224
3874	243	153	225
3875	248	157	228
3876	249	159	227
3877	255	170	232
3878	254	171	228
3879	254	173	225
3880	254	175	223
3881	255	185	226
3882	255	188	225
3883	255	193	224
3884	255	201	224
3885	253	198	219
3886	252	201	219
3887	0	0	0
3888	255	215	231
3889	255	215	231
3890	253	209	225
3891	0	0	0
3892	0	0	0
3893	0	0	0
3894	0	0	0
3895	0	0	0
3896	0	0	0
3897	0	0	0
3898	0	0	0
3899	0	0	0
3900	0	0	0
3901	0	0	0
3902	0	0	0
3903	0	0	0
3904	0	0	0
3905	0	0	0
3906	0	0	0
3907	0	0	0
3908	0	0	0
3909	0	0	0
3910	0	0	0
3911	0	0	0
3912	0	0	0
3913	0	0	0
3914	0	0	0
3915	0	0	0
3916	0	0	0
3917	249	212	234
3918	251	203	234
3919	244	188	227
3920	243	184	228
3921	242	180	229
3922	239	172	228
3923	234	161	223
3924	233	157	225
3925	230	150	225
3926	233	152	229
3927	236	153	231
3928	242	154	232
3929	241	151	229
3930	240	151	228
3931	238	150	225
3932	245	156	230
3933	247	159	231
3934	251	163	232
3935	250	164	230
3936	249	165	226
3937	250	167	225
3938	255	173	226
3939	255	176	223
3940	254	180	222
3941	253	184	222
3942	255	191	223
3943	255	199	224
3944	255	200	222
3945	255	203	224
3946	255	207	226
3947	255	213	230
3948	253	205	223
3949	246	198	217
3950	248	204	221
3951	0	0	0
3952	0	0	0
3953	0	0	0
3954	0	0	0
3955	0	0	0
3956	0	0	0
3957	0	0	0
3958	0	0	0
3959	0	0	0
3960	0	0	0
3961	0	0	0
3962	0	0	0
3963	0	0	0
3964	0	0	0
3965	0	0	0
3966	0	0	0
3967	0	0	0
3968	0	0	0
3969	0	0	0
3970	0	0	0
3971	0	0	0
3972	0	0	0
3973	0	0	0
3974	0	0	0
3975	0	0	0
3976	247	218	236
3977	253	212	238
3978	242	190	227
3979	238	185	226
3980	245	192	234
3981	243	185	233
3982	237	171	229
3983	239	168	233
3984	239	165	236
3985	240	166	240
3986	230	150	230
3987	233	150	230
3988	239	156	232
3989	242	158	233
3990	238	150	227
3991	246	158	233
3992	243	152	227
3993	243	154	226
3994	245	160	226
3995	244	161	223
3996	252	173	229
3997	255	180	232
3998	252	170	221
3999	251	173	220
4000	255	184	224
4001	255	191	226
4002	255	195	224
4003	255	196	223
4004	254	197	222
4005	254	200	224
4006	255	205	227
4007	248	198	220
4008	251	204	222
4009	253	210	226
4010	255	218	234
4011	0	0	0
4012	0	0	0
4013	0	0	0
4014	0	0	0
4015	0	0	0
4016	0	0	0
4017	0	0	0
4018	0	0	0
4019	0	0	0
4020	0	0	0
4021	0	0	0
4022	0	0	0
4023	0	0	0
4024	0	0	0
4025	0	0	0
4026	0	0	0
4027	0	0	0
4028	0	0	0
4029	0	0	0
4030	0	0	0
4031	0	0	0
4032	0	0	0
4033	0	0	0
4034	0	0	0
4035	249	227	240
4036	250	213	237
4037	240	192	226
4038	243	197	232
4039	248	203	237
4040	242	189	232
4041	238	177	231
4042	242	177	237
4043	240	172	236
4044	230	158	229
4045	220	143	222
4046	229	153	230
4047	235	159	233
4048	232	152	228
4049	230	145	223
4050	236	146	225
4051	232	140	218
4052	237	150	223
4053	239	156	225
4054	241	164	226
4055	250	175	230
4056	248	169	224
4057	243	160	217
4058	251	173	225
4059	255	182	227
4060	253	185	224
4061	253	188	223
4062	252	189	222
4063	250	189	221
4064	251	193	223
4065	252	198	226
4066	254	204	228
4067	255	210	228
4068	255	216	230
4069	255	223	236
4070	255	219	232
4071	0	0	0
4072	0	0	0
4073	0	0	0
4074	0	0	0
4075	0	0	0
4076	0	0	0
4077	0	0	0
4078	0	0	0
4079	0	0	0
4080	0	0	0
4081	0	0	0
4082	0	0	0
4083	0	0	0
4084	0	0	0
4085	0	0	0
4086	0	0	0
4087	0	0	0
4088	0	0	0
4089	0	0	0
4090	0	0	0
4091	0	0	0
4092	0	0	0
4093	0	0	0
4094	247	228	239
4095	247	214	234
4096	242	201	229
4097	246	207	236
4098	242	198	232
4099	237	185	228
4100	239	182	234
4101	240	181	238
4102	233	170	231
4103	224	157	225
4104	226	158	230
4105	234	167	238
4106	229	159	232
4107	225	152	227
4108	228	152	228
4109	235	155	230
4110	231	146	222
4111	238	157	228
4112	233	154	223
4113	232	160	223
4114	246	179	232
4115	246	174	227
4116	246	170	225
4117	255	185	235
4118	253	180	227
4119	249	181	223
4120	255	192	229
4121	255	194	228
4122	253	191	224
4123	254	196	226
4124	253	198	227
4125	254	204	228
4126	255	209	228
4127	255	214	230
4128	255	218	231
4129	0	0	0
4130	0	0	0
4131	0	0	0
4132	0	0	0
4133	0	0	0
4134	0	0	0
4135	0	0	0
4136	0	0	0
4137	0	0	0
4138	0	0	0
4139	0	0	0
4140	0	0	0
4141	0	0	0
4142	0	0	0
4143	0	0	0
4144	0	0	0
4145	0	0	0
4146	0	0	0
4147	0	0	0
4148	0	0	0
4149	0	0	0
4150	0	0	0
4151	0	0	0
4152	0	0	0
4153	248	233	238
4154	250	223	237
4155	245	210	231
4156	242	204	231
4157	239	197	231
4158	242	194	236
4159	241	190	239
4160	234	180	236
4161	227	170	230
4162	229	171	233
4163	231	172	236
4164	232	169	237
4165	227	161	233
4166	225	159	232
4167	227	158	231
4168	228	154	229
4169	225	147	223
4170	232	154	227
4171	228	151	221
4172	235	168	229
4173	248	187	238
4174	247	181	231
4175	247	176	227
4176	251	178	228
4177	247	174	223
4178	249	182	226
4179	254	193	231
4180	251	190	226
4181	248	187	220
4182	249	191	220
4183	249	193	221
4184	251	201	225
4185	254	208	228
4186	254	210	228
4187	253	212	226
4188	0	0	0
4189	0	0	0
4190	0	0	0
4191	0	0	0
4192	0	0	0
4193	0	0	0
4194	0	0	0
4195	0	0	0
4196	0	0	0
4197	0	0	0
4198	0	0	0
4199	0	0	0
4200	0	0	0
4201	0	0	0
4202	0	0	0
4203	0	0	0
4204	0	0	0
4205	0	0	0
4206	0	0	0
4207	0	0	0
4208	0	0	0
4209	0	0	0
4210	0	0	0
4211	0	0	0
4212	250	234	238
4213	247	223	234
4214	244	212	229
4215	244	208	232
4216	238	195	230
4217	238	191	234
4218	235	188	235
4219	225	176	230
4220	222	173	231
4221	226	175	235
4222	233	178	239
4223	238	177	241
4224	226	158	230
4225	222	155	228
4226	231	170	237
4227	228	164	232
4228	226	157	229
4229	238	167	236
4230	234	160	228
4231	243	178	236
4232	240	176	231
4233	234	167	222
4234	244	177	227
4235	249	179	228
4236	248	178	226
4237	250	187	229
4238	252	194	231
4239	247	190	224
4240	251	196	224
4241	254	200	225
4242	252	200	224
4243	255	208	229
4244	255	210	230
4245	255	212	229
4246	0	0	0
4247	0	0	0
4248	0	0	0
4249	0	0	0
4250	0	0	0
4251	0	0	0
4252	0	0	0
4253	0	0	0
4254	0	0	0
4255	0	0	0
4256	0	0	0
4257	0	0	0
4258	0	0	0
4259	0	0	0
4260	0	0	0
4261	0	0	0
4262	0	0	0
4263	0	0	0
4264	0	0	0
4265	0	0	0
4266	0	0	0
4267	0	0	0
4268	0	0	0
4269	0	0	0
4270	0	0	0
4271	253	239	241
4272	248	226	236
4273	245	216	231
4274	245	207	231
4275	238	193	229
4276	234	190	231
4277	229	185	231
4278	224	181	231
4279	222	178	233
4280	226	181	238
4281	232	184	242
4282	226	169	234
4283	215	150	222
4284	228	169	235
4285	237	184	242
4286	229	173	234
4287	228	167	232
4288	237	171	236
4289	234	165	229
4290	233	165	227
4291	231	164	223
4292	235	171	226
4293	244	180	232
4294	249	182	231
4295	247	180	227
4296	246	187	227
4297	248	193	227
4298	249	198	226
4299	254	205	229
4300	255	206	228
4301	255	206	226
4302	255	209	228
4303	255	211	229
4304	0	0	0
4305	0	0	0
4306	0	0	0
4307	0	0	0
4308	0	0	0
4309	0	0	0
4310	0	0	0
4311	0	0	0
4312	0	0	0
4313	0	0	0
4314	0	0	0
4315	0	0	0
4316	0	0	0
4317	0	0	0
4318	0	0	0
4319	0	0	0
4320	0	0	0
4321	0	0	0
4322	0	0	0
4323	0	0	0
4324	0	0	0
4325	0	0	0
4326	0	0	0
4327	0	0	0
4328	0	0	0
4329	0	0	0
4330	251	236	239
4331	243	222	233
4332	245	217	233
4333	250	211	235
4334	241	197	231
4335	228	188	227
4336	225	188	230
4337	225	186	233
4338	224	185	236
4339	226	186	239
4340	221	179	236
4341	207	160	224
4342	209	159	224
4343	232	183	243
4344	225	171	233
4345	215	160	224
4346	221	164	229
4347	229	167	232
4348	228	162	227
4349	230	164	226
4350	234	170	228
4351	239	177	232
4352	242	179	231
4353	244	180	229
4354	244	182	227
4355	244	188	226
4356	246	196	226
4357	249	201	227
4358	251	203	227
4359	254	205	226
4360	255	206	225
4361	255	209	227
4362	252	203	223
4363	0	0	0
4364	0	0	0
4365	0	0	0
4366	0	0	0
4367	0	0	0
4368	0	0	0
4369	0	0	0
4370	0	0	0
4371	0	0	0
4372	0	0	0
4373	0	0	0
4374	0	0	0
4375	0	0	0
4376	0	0	0
4377	0	0	0
4378	0	0	0
4379	0	0	0
4380	0	0	0
4381	0	0	0
4382	0	0	0
4383	0	0	0
4384	0	0	0
4385	0	0	0
4386	0	0	0
4387	0	0	0
4388	0	0	0
4389	0	0	0
4390	241	222	233
4391	241	216	232
4392	243	207	231
4393	233	192	224
4394	225	191	226
4395	224	192	232
4396	228	194	238
4397	228	191	238
4398	225	185	237
4399	219	178	235
4400	215	176	234
4401	216	174	233
4402	221	171	235
4403	216	161	229
4404	215	161	230
4405	218	164	231
4406	219	161	228
4407	219	156	224
4408	229	167	230
4409	234	173	230
4410	237	176	230
4411	240	179	229
4412	246	185	231
4413	245	187	229
4414	245	193	228
4415	248	201	230
4416	248	201	228
4417	251	203	227
4418	253	204	226
4419	255	206	225
4420	253	202	223
4421	248	195	220
4422	0	0	0
4423	0	0	0
4424	0	0	0
4425	0	0	0
4426	0	0	0
4427	0	0	0
4428	0	0	0
4429	0	0	0
4430	0	0	0
4431	0	0	0
4432	0	0	0
4433	0	0	0
4434	0	0	0
4435	0	0	0
4436	0	0	0
4437	0	0	0
4438	0	0	0
4439	0	0	0
4440	0	0	0
4441	0	0	0
4442	0	0	0
4443	0	0	0
4444	0	0	0
4445	0	0	0
4446	0	0	0
4447	0	0	0
4448	0	0	0
4449	0	0	0
4450	0	0	0
4451	0	0	0
4452	231	204	228
4453	233	208	235
4454	226	196	234
4455	232	198	241
4456	233	196	239
4457	230	190	238
4458	226	184	238
4459	225	183	240
4460	217	171	233
4461	216	165	232
4462	217	164	233
4463	218	166	235
4464	222	173	236
4465	216	166	229
4466	222	171	232
4467	236	183	240
4468	233	174	232
4469	238	179	232
4470	239	177	229
4471	245	184	231
4472	244	184	228
4473	243	190	228
4474	245	197	228
4475	245	197	226
4476	250	202	228
4477	252	202	227
4478	255	207	228
4479	255	203	226
4480	246	192	220
4481	0	0	0
4482	0	0	0
4483	0	0	0
4484	0	0	0
4485	0	0	0
4486	0	0	0
4487	0	0	0
4488	0	0	0
4489	0	0	0
4490	0	0	0
4491	0	0	0
4492	0	0	0
4493	0	0	0
4494	0	0	0
4495	0	0	0
4496	0	0	0
4497	0	0	0
4498	0	0	0
4499	0	0	0
4500	0	0	0
4501	0	0	0
4502	0	0	0
4503	0	0	0
4504	0	0	0
4505	0	0	0
4506	0	0	0
4507	0	0	0
4508	0	0	0
4509	0	0	0
4510	0	0	0
4511	238	221	236
4512	234	211	235
4513	229	199	236
4514	234	201	241
4515	233	198	237
4516	229	190	234
4517	226	184	236
4518	220	175	235
4519	213	164	231
4520	214	165	233
4521	212	162	230
4522	218	171	234
4523	222	178	234
4524	222	180	233
4525	228	185	237
4526	231	182	236
4527	230	174	232
4528	234	176	232
4529	234	174	226
4530	239	179	227
4531	239	180	228
4532	241	187	229
4533	243	193	228
4534	243	194	226
4535	248	200	230
4536	253	203	231
4537	255	206	231
4538	249	196	223
4539	0	0	0
4540	0	0	0
4541	0	0	0
4542	0	0	0
4543	0	0	0
4544	0	0	0
4545	0	0	0
4546	0	0	0
4547	0	0	0
4548	0	0	0
4549	0	0	0
4550	0	0	0
4551	0	0	0
4552	0	0	0
4553	0	0	0
4554	0	0	0
4555	0	0	0
4556	0	0	0
4557	0	0	0
4558	0	0	0
4559	0	0	0
4560	0	0	0
4561	0	0	0
4562	0	0	0
4563	0	0	0
4564	0	0	0
4565	0	0	0
4566	0	0	0
4567	0	0	0
4568	0	0	0
4569	0	0	0
4570	237	219	233
4571	234	210	233
4572	231	201	235
4573	233	201	239
4574	230	198	234
4575	224	189	229
4576	222	185	234
4577	218	177	234
4578	218	176	237
4579	217	176	239
4580	212	170	232
4581	217	178	235
4582	217	178	231
4583	223	183	234
4584	227	183	234
4585	227	178	232
4586	228	174	232
4587	230	176	232
4588	230	175	227
4589	234	179	227
4590	237	182	229
4591	245	192	234
4592	246	195	230
4593	243	194	227
4594	251	205	234
4595	255	208	236
4596	254	204	229
4597	245	192	220
4598	0	0	0
4599	0	0	0
4600	0	0	0
4601	0	0	0
4602	0	0	0
4603	0	0	0
4604	0	0	0
4605	0	0	0
4606	0	0	0
4607	0	0	0
4608	0	0	0
4609	0	0	0
4610	0	0	0
4611	0	0	0
4612	0	0	0
4613	0	0	0
4614	0	0	0
4615	0	0	0
4616	0	0	0
4617	0	0	0
4618	0	0	0
4619	0	0	0
4620	0	0	0
4621	0	0	0
4622	0	0	0
4623	0	0	0
4624	0	0	0
4625	0	0	0
4626	0	0	0
4627	0	0	0
4628	0	0	0
4629	0	0	0
4630	234	210	232
4631	229	200	232
4632	232	202	236
4633	230	199	233
4634	225	193	230
4635	223	188	233
4636	225	189	239
4637	225	188	241
4638	222	185	241
4639	217	180	237
4640	217	182	237
4641	218	182	235
4642	222	182	234
4643	225	181	233
4644	225	178	231
4645	225	173	230
4646	229	177	233
4647	231	178	231
4648	235	183	231
4649	237	184	228
4650	243	191	230
4651	246	195	230
4652	249	201	232
4653	255	211	237
4654	255	206	232
4655	253	202	227
4656	255	210	231
4657	255	219	237
4658	0	0	0
4659	0	0	0
4660	0	0	0
4661	0	0	0
4662	0	0	0
4663	0	0	0
4664	0	0	0
4665	0	0	0
4666	0	0	0
4667	0	0	0
4668	0	0	0
4669	0	0	0
4670	0	0	0
4671	0	0	0
4672	0	0	0
4673	0	0	0
4674	0	0	0
4675	0	0	0
4676	0	0	0
4677	0	0	0
4678	0	0	0
4679	0	0	0
4680	0	0	0
4681	0	0	0
4682	0	0	0
4683	0	0	0
4684	0	0	0
4685	0	0	0
4686	0	0	0
4687	0	0	0
4688	0	0	0
4689	0	0	0
4690	230	208	234
4691	236	211	240
4692	227	196	230
4693	223	190	228
4694	221	186	231
4695	223	186	235
4696	224	186	237
4697	223	184	238
4698	222	184	238
4699	222	185	239
4700	221	184	236
4701	223	183	235
4702	225	183	234
4703	223	179	231
4704	224	176	231
4705	232	182	236
4706	236	184	236
4707	242	190	237
4708	237	182	227
4709	238	186	226
4710	247	197	232
4711	255	207	237
4712	252	201	230
4713	247	194	222
4714	254	205	228
4715	255	214	233
4716	255	210	228
4717	0	0	0
4718	0	0	0
4719	0	0	0
4720	0	0	0
4721	0	0	0
4722	0	0	0
4723	0	0	0
4724	0	0	0
4725	0	0	0
4726	0	0	0
4727	0	0	0
4728	0	0	0
4729	0	0	0
4730	0	0	0
4731	0	0	0
4732	0	0	0
4733	0	0	0
4734	0	0	0
4735	0	0	0
4736	0	0	0
4737	0	0	0
4738	0	0	0
4739	0	0	0
4740	0	0	0
4741	0	0	0
4742	0	0	0
4743	0	0	0
4744	0	0	0
4745	0	0	0
4746	0	0	0
4747	0	0	0
4748	0	0	0
4749	0	0	0
4750	233	206	233
4751	225	192	228
4752	225	190	231
4753	222	185	231
4754	223	186	235
4755	223	185	236
4756	224	186	238
4757	224	185	237
4758	225	186	237
4759	224	185	235
4760	225	185	235
4761	227	186	235
4762	226	183	233
4763	228	181	234
4764	236	187	238
4765	240	188	237
4766	239	185	232
4767	236	179	226
4768	243	191	231
4769	251	201	236
4770	249	196	229
4771	245	189	223
4772	251	199	227
4773	255	210	231
4774	254	206	225
4775	0	0	0
4776	0	0	0
4777	0	0	0
4778	0	0	0
4779	0	0	0
4780	0	0	0
4781	0	0	0
4782	0	0	0
4783	0	0	0
4784	0	0	0
4785	0	0	0
4786	0	0	0
4787	0	0	0
4788	0	0	0
4789	0	0	0
4790	0	0	0
4791	0	0	0
4792	0	0	0
4793	0	0	0
4794	0	0	0
4795	0	0	0
4796	0	0	0
4797	0	0	0
4798	0	0	0
4799	0	0	0
4800	0	0	0
4801	0	0	0
4802	0	0	0
4803	0	0	0
4804	0	0	0
4805	0	0	0
4806	0	0	0
4807	0	0	0
4808	0	0	0
4809	0	0	0
4810	0	0	0
4811	235	199	237
4812	229	191	235
4813	226	190	236
4814	225	190	238
4815	223	189	237
4816	225	190	238
4817	233	194	241
4818	229	186	235
4819	228	185	233
4820	233	192	238
4821	234	190	238
4822	232	183	235
4823	240	189	239
4824	240	187	234
4825	236	183	228
4826	238	182	228
4827	251	197	237
4828	251	197	234
4829	243	188	224
4830	248	196	228
4831	255	208	234
4832	252	203	228
4833	247	198	221
4834	252	208	225
4835	254	214	228
4836	0	0	0
4837	0	0	0
4838	0	0	0
4839	0	0	0
4840	0	0	0
4841	0	0	0
4842	0	0	0
4843	0	0	0
4844	0	0	0
4845	0	0	0
4846	0	0	0
4847	0	0	0
4848	0	0	0
4849	0	0	0
4850	0	0	0
4851	0	0	0
4852	0	0	0
4853	0	0	0
4854	0	0	0
4855	0	0	0
4856	0	0	0
4857	0	0	0
4858	0	0	0
4859	0	0	0
4860	0	0	0
4861	0	0	0
4862	0	0	0
4863	0	0	0
4864	0	0	0
4865	0	0	0
4866	0	0	0
4867	0	0	0
4868	0	0	0
4869	0	0	0
4870	241	204	238
4871	235	196	236
4872	235	199	240
4873	232	197	240
4874	228	196	239
4875	231	197	242
4876	233	193	239
4877	229	185	232
4878	232	190	234
4879	238	197	239
4880	239	192	238
4881	237	186	236
4882	239	186	236
4883	239	185	231
4884	238	184	227
4885	240	184	228
4886	250	191	233
4887	249	191	229
4888	249	196	229
4889	253	205	234
4890	251	201	230
4891	247	197	226
4892	253	207	232
4893	255	217	235
4894	255	219	234
4895	255	220	234
4896	0	0	0
4897	0	0	0
4898	0	0	0
4899	0	0	0
4900	0	0	0
4901	0	0	0
4902	0	0	0
4903	0	0	0
4904	0	0	0
4905	0	0	0
4906	0	0	0
4907	0	0	0
4908	0	0	0
4909	0	0	0
4910	0	0	0
4911	0	0	0
4912	0	0	0
4913	0	0	0
4914	0	0	0
4915	0	0	0
4916	0	0	0
4917	0	0	0
4918	0	0	0
4919	0	0	0
4920	0	0	0
4921	0	0	0
4922	0	0	0
4923	0	0	0
4924	0	0	0
4925	0	0	0
4926	0	0	0
4927	0	0	0
4928	244	208	234
4929	242	203	234
4930	238	195	233
4931	240	200	239
4932	232	190	234
4933	227	187	233
4934	231	195	240
4935	229	189	235
4936	229	188	232
4937	236	195	237
4938	239	194	236
4939	240	190	236
4940	234	178	231
4941	234	178	229
4942	247	196	236
4943	249	197	235
4944	247	188	231
4945	255	196	236
4946	251	189	229
4947	249	194	229
4948	251	202	232
4949	246	197	227
4950	251	205	232
4951	255	216	239
4952	254	209	232
4953	255	212	232
4954	253	210	230
4955	0	0	0
4956	0	0	0
4957	0	0	0
4958	0	0	0
4959	0	0	0
4960	0	0	0
4961	0	0	0
4962	0	0	0
4963	0	0	0
4964	0	0	0
4965	0	0	0
4966	0	0	0
4967	0	0	0
4968	0	0	0
4969	0	0	0
4970	0	0	0
4971	0	0	0
4972	0	0	0
4973	0	0	0
4974	0	0	0
4975	0	0	0
4976	0	0	0
4977	0	0	0
4978	0	0	0
4979	0	0	0
4980	0	0	0
4981	0	0	0
4982	0	0	0
4983	0	0	0
4984	0	0	0
4985	0	0	0
4986	0	0	0
4987	247	208	233
4988	244	202	232
4989	239	194	231
4990	237	190	232
4991	229	182	229
4992	231	188	234
4993	236	196	239
4994	238	197	240
4995	239	196	240
4996	238	193	237
4997	239	192	235
4998	240	184	232
4999	233	173	228
5000	244	191	238
5001	255	208	243
5002	247	195	231
5003	244	187	227
5004	250	188	230
5005	245	183	224
5006	246	190	226
5007	249	198	230
5008	252	204	231
5009	255	211	234
5010	252	205	229
5011	248	200	226
5012	250	202	229
5013	248	200	227
5014	0	0	0
5015	0	0	0
5016	0	0	0
5017	0	0	0
5018	0	0	0
5019	0	0	0
5020	0	0	0
5021	0	0	0
5022	0	0	0
5023	0	0	0
5024	0	0	0
5025	0	0	0
5026	0	0	0
5027	0	0	0
5028	0	0	0
5029	0	0	0
5030	0	0	0
5031	0	0	0
5032	0	0	0
5033	0	0	0
5034	0	0	0
5035	0	0	0
5036	0	0	0
5037	0	0	0
5038	0	0	0
5039	0	0	0
5040	0	0	0
5041	0	0	0
5042	0	0	0
5043	0	0	0
5044	0	0	0
5045	0	0	0
5046	251	212	235
5047	248	206	234
5048	243	197	232
5049	240	193	233
5050	239	193	235
5051	243	201	241
5052	247	203	244
5053	255	207	248
5054	247	195	240
5055	239	188	233
5056	244	193	236
5057	245	187	233
5058	242	181	233
5059	250	198	242
5060	245	195	233
5061	233	180	219
5062	242	191	228
5063	248	193	231
5064	247	191	229
5065	252	201	233
5066	249	199	230
5067	253	206	232
5068	255	213	234
5069	255	207	229
5070	251	202	229
5071	252	204	231
5072	251	206	232
5073	0	0	0
5074	0	0	0
5075	0	0	0
5076	0	0	0
5077	0	0	0
5078	0	0	0
5079	0	0	0
5080	0	0	0
5081	0	0	0
5082	0	0	0
5083	0	0	0
5084	0	0	0
5085	0	0	0
5086	0	0	0
5087	0	0	0
5088	0	0	0
5089	0	0	0
5090	0	0	0
5091	0	0	0
5092	0	0	0
5093	0	0	0
5094	0	0	0
5095	0	0	0
5096	0	0	0
5097	0	0	0
5098	0	0	0
5099	0	0	0
5100	0	0	0
5101	0	0	0
5102	0	0	0
5103	0	0	0
5104	0	0	0
5105	254	215	237
5106	248	207	234
5107	244	199	232
5108	248	203	238
5109	247	202	238
5110	249	204	240
5111	254	208	245
5112	253	200	241
5113	245	187	232
5114	242	188	232
5115	247	194	236
5116	249	192	236
5117	246	186	233
5118	245	188	233
5119	240	186	229
5120	240	190	229
5121	247	200	234
5122	252	201	235
5123	251	199	233
5124	248	198	230
5125	246	197	226
5126	253	205	229
5127	255	213	233
5128	255	208	230
5129	252	203	229
5130	255	208	233
5131	254	210	231
5132	255	217	232
5133	0	0	0
5134	0	0	0
5135	0	0	0
5136	0	0	0
5137	0	0	0
5138	0	0	0
5139	0	0	0
5140	0	0	0
5141	0	0	0
5142	0	0	0
5143	0	0	0
5144	0	0	0
5145	0	0	0
5146	0	0	0
5147	0	0	0
5148	0	0	0
5149	0	0	0
5150	0	0	0
5151	0	0	0
5152	0	0	0
5153	0	0	0
5154	0	0	0
5155	0	0	0
5156	0	0	0
5157	0	0	0
5158	0	0	0
5159	0	0	0
5160	0	0	0
5161	0	0	0
5162	0	0	0
5163	0	0	0
5164	0	0	0
5165	245	205	230
5166	246	205	234
5167	253	210	241
5168	246	198	234
5169	248	201	236
5170	253	205	241
5171	247	194	235
5172	242	187	230
5173	246	192	234
5174	249	196	236
5175	246	191	232
5176	245	188	231
5177	251	194	236
5178	247	189	233
5179	246	193	232
5180	255	208	240
5181	255	209	240
5182	247	193	228
5183	239	190	222
5184	251	207	231
5185	255	217	236
5186	255	208	229
5187	252	203	226
5188	252	204	228
5189	255	210	232
5190	254	209	229
5191	255	216	232
5192	253	213	228
5193	0	0	0
5194	0	0	0
5195	0	0	0
5196	0	0	0
5197	0	0	0
5198	0	0	0
5199	0	0	0
5200	0	0	0
5201	0	0	0
5202	0	0	0
5203	0	0	0
5204	0	0	0
5205	0	0	0
5206	0	0	0
5207	0	0	0
5208	0	0	0
5209	0	0	0
5210	0	0	0
5211	0	0	0
5212	0	0	0
5213	0	0	0
5214	0	0	0
5215	0	0	0
5216	0	0	0
5217	0	0	0
5218	0	0	0
5219	0	0	0
5220	0	0	0
5221	0	0	0
5222	0	0	0
5223	0	0	0
5224	250	213	234
5225	252	213	237
5226	251	207	237
5227	244	195	231
5228	248	199	235
5229	250	202	237
5230	244	193	232
5231	241	187	229
5232	248	194	234
5233	250	197	235
5234	245	192	230
5235	245	189	230
5236	250	192	233
5237	246	188	229
5238	252	200	235
5239	255	215	242
5240	255	202	232
5241	242	186	221
5242	248	201	229
5243	255	219	236
5244	254	210	229
5245	250	201	225
5246	251	203	226
5247	250	203	226
5248	250	204	227
5249	250	205	228
5250	248	205	227
5251	0	0	0
5252	0	0	0
5253	0	0	0
5254	0	0	0
5255	0	0	0
5256	0	0	0
5257	0	0	0
5258	0	0	0
5259	0	0	0
5260	0	0	0
5261	0	0	0
5262	0	0	0
5263	0	0	0
5264	0	0	0
5265	0	0	0
5266	0	0	0
5267	0	0	0
5268	0	0	0
5269	0	0	0
5270	0	0	0
5271	0	0	0
5272	0	0	0
5273	0	0	0
5274	0	0	0
5275	0	0	0
5276	0	0	0
5277	0	0	0
5278	0	0	0
5279	0	0	0
5280	0	0	0
5281	0	0	0
5282	254	221	238
5283	255	220	239
5284	253	211	236
5285	250	203	234
5286	246	197	233
5287	247	200	235
5288	250	204	237
5289	245	197	231
5290	246	196	233
5291	254	203	239
5292	253	200	236
5293	249	195	232
5294	248	194	232
5295	250	195	233
5296	249	194	232
5297	255	208	240
5298	255	208	236
5299	248	194	225
5300	248	195	227
5301	255	213	237
5302	255	216	235
5303	251	204	225
5304	252	205	227
5305	0	0	0
5306	0	0	0
5307	0	0	0
5308	0	0	0
5309	0	0	0
5310	0	0	0
5311	0	0	0
5312	0	0	0
5313	0	0	0
5314	0	0	0
5315	0	0	0
5316	0	0	0
5317	0	0	0
5318	0	0	0
5319	0	0	0
5320	0	0	0
5321	0	0	0
5322	0	0	0
5323	0	0	0
5324	0	0	0
5325	0	0	0
5326	0	0	0
5327	0	0	0
5328	0	0	0
5329	0	0	0
5330	0	0	0
5331	0	0	0
5332	0	0	0
5333	0	0	0
5334	0	0	0
5335	0	0	0
5336	0	0	0
5337	0	0	0
5338	0	0	0
5339	0	0	0
5340	0	0	0
5341	255	226	242
5342	255	218	239
5343	252	208	235
5344	250	204	235
5345	246	198	233
5346	248	203	236
5347	250	207	237
5348	250	205	235
5349	252	205	235
5350	254	204	236
5351	254	202	237
5352	252	200	236
5353	250	198	233
5354	251	199	234
5355	251	200	236
5356	252	202	236
5357	252	202	231
5358	252	202	230
5359	254	204	234
5360	255	209	236
5361	255	211	232
5362	254	209	229
5363	254	209	231
5364	0	0	0
5365	0	0	0
5366	0	0	0
5367	0	0	0
5368	0	0	0
5369	0	0	0
5370	0	0	0
5371	0	0	0
5372	0	0	0
5373	0	0	0
5374	0	0	0
5375	0	0	0
5376	0	0	0
5377	0	0	0
5378	0	0	0
5379	0	0	0
5380	0	0	0
5381	0	0	0
5382	0	0	0
5383	0	0	0
5384	0	0	0
5385	0	0	0
5386	0	0	0
5387	0	0	0
5388	0	0	0
5389	0	0	0
5390	0	0	0
5391	0	0	0
5392	0	0	0
5393	0	0	0
5394	0	0	0
5395	0	0	0
5396	0	0	0
5397	0	0	0
5398	0	0	0
5399	0	0	0
5400	255	224	242
5401	254	215	239
5402	247	203	231
5403	245	199	229
5404	255	214	241
5405	255	219	244
5406	251	207	235
5407	252	206	233
5408	254	207	234
5409	255	206	235
5410	254	204	236
5411	253	202	236
5412	250	199	232
5413	252	201	233
5414	253	204	237
5415	253	205	237
5416	251	203	231
5417	251	204	231
5418	255	207	235
5419	255	213	238
5420	255	209	232
5421	252	207	229
5422	0	0	0
5423	0	0	0
5424	0	0	0
5425	0	0	0
5426	0	0	0
5427	0	0	0
5428	0	0	0
5429	0	0	0
5430	0	0	0
5431	0	0	0
5432	0	0	0
5433	0	0	0
5434	0	0	0
5435	0	0	0
5436	0	0	0
5437	0	0	0
5438	0	0	0
5439	0	0	0
5440	0	0	0
5441	0	0	0
5442	0	0	0
5443	0	0	0
5444	0	0	0
5445	0	0	0
5446	0	0	0
5447	0	0	0
5448	0	0	0
5449	0	0	0
5450	0	0	0
5451	0	0	0
5452	0	0	0
5453	0	0	0
5454	0	0	0
5455	0	0	0
5456	0	0	0
5457	0	0	0
5458	0	0	0
5459	0	0	0
5460	250	211	237
5461	242	198	228
5462	255	215	238
5463	255	230	247
5464	255	218	238
5465	251	208	232
5466	253	209	233
5467	255	210	234
5468	255	208	234
5469	255	206	234
5470	253	204	234
5471	251	202	232
5472	253	205	234
5473	254	207	236
5474	253	206	235
5475	252	205	232
5476	253	208	233
5477	255	210	235
5478	0	0	0
5479	0	0	0
5480	0	0	0
5481	0	0	0
5482	0	0	0
5483	0	0	0
5484	0	0	0
5485	0	0	0
5486	0	0	0
5487	0	0	0
5488	0	0	0
5489	0	0	0
5490	0	0	0
5491	0	0	0
5492	0	0	0
5493	0	0	0
5494	0	0	0
5495	0	0	0
5496	0	0	0
5497	0	0	0
5498	0	0	0
5499	0	0	0
5500	0	0	0
5501	0	0	0
5502	0	0	0
5503	0	0	0
5504	0	0	0
5505	0	0	0
5506	0	0	0
5507	0	0	0
5508	0	0	0
5509	0	0	0
5510	0	0	0
5511	0	0	0
5512	0	0	0
5513	0	0	0
5514	0	0	0
5515	0	0	0
5516	0	0	0
5517	0	0	0
5518	0	0	0
5519	0	0	0
5520	249	212	235
5521	255	229	245
5522	255	220	237
5523	250	209	229
5524	253	211	232
5525	253	211	233
5526	255	214	235
5527	255	213	235
5528	253	204	232
5529	253	203	232
5530	252	203	232
5531	252	205	233
5532	252	206	233
5533	253	206	233
5534	255	209	234
5535	255	211	236
5536	254	208	233
5537	0	0	0
5538	0	0	0
5539	0	0	0
5540	0	0	0
5541	0	0	0
5542	0	0	0
5543	0	0	0
5544	0	0	0
5545	0	0	0
5546	0	0	0
5547	0	0	0
5548	0	0	0
5549	0	0	0
5550	0	0	0
5551	0	0	0
5552	0	0	0
5553	0	0	0
5554	0	0	0
5555	0	0	0
5556	0	0	0
5557	0	0	0
5558	0	0	0
5559	0	0	0
5560	0	0	0
5561	0	0	0
5562	0	0	0
5563	0	0	0
5564	0	0	0
5565	0	0	0
5566	0	0	0
5567	0	0	0
5568	0	0	0
5569	0	0	0
5570	0	0	0
5571	0	0	0
5572	0	0	0
5573	0	0	0
5574	0	0	0
5575	0	0	0
5576	0	0	0
5577	0	0	0
5578	0	0	0
5579	0	0	0
5580	251	217	234
5581	247	209	230
5582	252	213	233
5583	254	215	233
5584	255	217	233
5585	255	219	235
5586	254	210	231
5587	250	202	230
5588	252	204	233
5589	251	203	231
5590	250	203	231
5591	250	204	232
5592	255	209	235
5593	255	211	236
5594	254	209	234
5595	0	0	0
5596	0	0	0
5597	0	0	0
5598	0	0	0
5599	0	0	0
5600	0	0	0
5601	0	0	0
5602	0	0	0
5603	0	0	0
5604	0	0	0
5605	0	0	0
5606	0	0	0
5607	0	0	0
5608	0	0	0
5609	0	0	0
5610	0	0	0
5611	0	0	0
5612	0	0	0
5613	0	0	0
5614	0	0	0
5615	0	0	0
5616	0	0	0
5617	0	0	0
5618	0	0	0
5619	0	0	0
5620	0	0	0
5621	0	0	0
5622	0	0	0
5623	0	0	0
5624	0	0	0
5625	0	0	0
5626	0	0	0
5627	0	0	0
5628	0	0	0
5629	0	0	0
5630	0	0	0
5631	0	0	0
5632	0	0	0
5633	0	0	0
5634	0	0	0
5635	0	0	0
5636	0	0	0
5637	0	0	0
5638	0	0	0
5639	0	0	0
5640	251	219	236
5641	255	223	240
5642	253	216	233
5643	255	219	235
5644	253	211	230
5645	0	0	0
5646	0	0	0
5647	0	0	0
5648	0	0	0
5649	0	0	0
5650	255	212	236
5651	255	216	239
5652	254	209	234
5653	0	0	0
5654	0	0	0
5655	0	0	0
5656	0	0	0
5657	0	0	0
5658	0	0	0
5659	0	0	0
5660	0	0	0
5661	0	0	0
5662	0	0	0
5663	0	0	0
5664	0	0	0
5665	0	0	0
5666	0	0	0
5667	0	0	0
5668	0	0	0
5669	0	0	0
5670	0	0	0
5671	0	0	0
5672	0	0	0
5673	0	0	0
5674	0	0	0
5675	0	0	0
5676	0	0	0
5677	0	0	0
5678	0	0	0
5679	0	0	0
5680	0	0	0
5681	0	0	0
5682	0	0	0
5683	0	0	0
5684	0	0	0
5685	0	0	0
5686	0	0	0
5687	0	0	0
5688	0	0	0
5689	0	0	0
5690	0	0	0
5691	0	0	0
5692	0	0	0
5693	0	0	0
5694	0	0	0
5695	0	0	0
5696	0	0	0
5697	0	0	0
5698	0	0	0
5699	0	0	0
5700	253	222	238
5701	250	216	233
5702	250	211	231
5703	0	0	0
5704	0	0	0
5705	0	0	0
5706	0	0	0
5707	0	0	0
5708	0	0	0
5709	0	0	0
5710	254	212	235
5711	0	0	0
5712	0	0	0
5713	0	0	0
5714	0	0	0
5715	0	0	0
5716	0	0	0
5717	0	0	0
5718	0	0	0
5719	0	0	0
5720	0	0	0
5721	0	0	0
5722	0	0	0
5723	0	0	0
