 	R	G	B
1	0	0	0
2	0	0	0
3	0	0	0
4	0	0	0
5	0	0	0
6	0	0	0
7	0	0	0
8	0	0	0
9	0	0	0
10	0	0	0
11	0	0	0
12	0	0	0
13	0	0	0
14	0	0	0
15	0	0	0
16	0	0	0
17	0	0	0
18	0	0	0
19	0	0	0
20	0	0	0
21	0	0	0
22	0	0	0
23	0	0	0
24	0	0	0
25	0	0	0
26	0	0	0
27	0	0	0
28	0	0	0
29	0	0	0
30	0	0	0
31	0	0	0
32	0	0	0
33	0	0	0
34	0	0	0
35	0	0	0
36	0	0	0
37	0	0	0
38	0	0	0
39	0	0	0
40	0	0	0
41	0	0	0
42	0	0	0
43	0	0	0
44	0	0	0
45	0	0	0
46	0	0	0
47	0	0	0
48	0	0	0
49	0	0	0
50	0	0	0
51	0	0	0
52	0	0	0
53	0	0	0
54	0	0	0
55	0	0	0
56	0	0	0
57	0	0	0
58	0	0	0
59	0	0	0
60	0	0	0
61	0	0	0
62	0	0	0
63	0	0	0
64	0	0	0
65	0	0	0
66	0	0	0
67	0	0	0
68	253	233	238
69	0	0	0
70	0	0	0
71	0	0	0
72	0	0	0
73	0	0	0
74	0	0	0
75	0	0	0
76	0	0	0
77	0	0	0
78	0	0	0
79	0	0	0
80	0	0	0
81	0	0	0
82	0	0	0
83	0	0	0
84	0	0	0
85	0	0	0
86	0	0	0
87	0	0	0
88	0	0	0
89	0	0	0
90	0	0	0
91	0	0	0
92	0	0	0
93	0	0	0
94	0	0	0
95	0	0	0
96	0	0	0
97	0	0	0
98	0	0	0
99	0	0	0
100	0	0	0
101	0	0	0
102	0	0	0
103	0	0	0
104	0	0	0
105	0	0	0
106	0	0	0
107	0	0	0
108	0	0	0
109	0	0	0
110	0	0	0
111	0	0	0
112	0	0	0
113	0	0	0
114	0	0	0
115	0	0	0
116	0	0	0
117	0	0	0
118	0	0	0
119	0	0	0
120	0	0	0
121	0	0	0
122	0	0	0
123	0	0	0
124	0	0	0
125	0	0	0
126	0	0	0
127	0	0	0
128	0	0	0
129	0	0	0
130	0	0	0
131	0	0	0
132	0	0	0
133	0	0	0
134	0	0	0
135	0	0	0
136	0	0	0
137	0	0	0
138	0	0	0
139	0	0	0
140	0	0	0
141	0	0	0
142	0	0	0
143	0	0	0
144	0	0	0
145	0	0	0
146	0	0	0
147	0	0	0
148	0	0	0
149	0	0	0
150	0	0	0
151	0	0	0
152	0	0	0
153	0	0	0
154	0	0	0
155	0	0	0
156	255	233	238
157	255	235	241
158	249	221	232
159	0	0	0
160	0	0	0
161	0	0	0
162	0	0	0
163	0	0	0
164	0	0	0
165	0	0	0
166	0	0	0
167	0	0	0
168	0	0	0
169	0	0	0
170	0	0	0
171	0	0	0
172	0	0	0
173	0	0	0
174	0	0	0
175	0	0	0
176	0	0	0
177	0	0	0
178	0	0	0
179	0	0	0
180	0	0	0
181	0	0	0
182	0	0	0
183	0	0	0
184	0	0	0
185	0	0	0
186	0	0	0
187	0	0	0
188	0	0	0
189	0	0	0
190	0	0	0
191	0	0	0
192	0	0	0
193	0	0	0
194	0	0	0
195	0	0	0
196	0	0	0
197	0	0	0
198	0	0	0
199	0	0	0
200	0	0	0
201	0	0	0
202	0	0	0
203	0	0	0
204	0	0	0
205	0	0	0
206	0	0	0
207	0	0	0
208	0	0	0
209	0	0	0
210	0	0	0
211	0	0	0
212	0	0	0
213	0	0	0
214	0	0	0
215	0	0	0
216	0	0	0
217	0	0	0
218	0	0	0
219	0	0	0
220	0	0	0
221	0	0	0
222	0	0	0
223	0	0	0
224	0	0	0
225	0	0	0
226	0	0	0
227	0	0	0
228	0	0	0
229	0	0	0
230	0	0	0
231	0	0	0
232	0	0	0
233	0	0	0
234	0	0	0
235	0	0	0
236	0	0	0
237	0	0	0
238	0	0	0
239	0	0	0
240	0	0	0
241	0	0	0
242	0	0	0
243	244	220	230
244	252	228	237
245	255	233	240
246	251	221	231
247	242	208	223
248	248	216	230
249	0	0	0
250	250	224	238
251	0	0	0
252	0	0	0
253	0	0	0
254	0	0	0
255	0	0	0
256	0	0	0
257	0	0	0
258	0	0	0
259	0	0	0
260	0	0	0
261	0	0	0
262	0	0	0
263	0	0	0
264	0	0	0
265	0	0	0
266	0	0	0
267	0	0	0
268	0	0	0
269	0	0	0
270	0	0	0
271	0	0	0
272	0	0	0
273	0	0	0
274	0	0	0
275	0	0	0
276	0	0	0
277	0	0	0
278	0	0	0
279	0	0	0
280	0	0	0
281	0	0	0
282	0	0	0
283	0	0	0
284	0	0	0
285	0	0	0
286	0	0	0
287	0	0	0
288	0	0	0
289	0	0	0
290	0	0	0
291	0	0	0
292	0	0	0
293	0	0	0
294	0	0	0
295	0	0	0
296	0	0	0
297	0	0	0
298	0	0	0
299	0	0	0
300	0	0	0
301	0	0	0
302	0	0	0
303	0	0	0
304	0	0	0
305	0	0	0
306	0	0	0
307	0	0	0
308	0	0	0
309	0	0	0
310	0	0	0
311	0	0	0
312	0	0	0
313	0	0	0
314	0	0	0
315	0	0	0
316	0	0	0
317	0	0	0
318	0	0	0
319	0	0	0
320	0	0	0
321	0	0	0
322	0	0	0
323	0	0	0
324	0	0	0
325	0	0	0
326	0	0	0
327	0	0	0
328	0	0	0
329	0	0	0
330	0	0	0
331	251	227	233
332	250	223	233
333	255	229	238
334	251	223	234
335	244	211	225
336	249	216	230
337	255	225	238
338	251	219	236
339	252	222	239
340	251	223	237
341	0	0	0
342	0	0	0
343	0	0	0
344	0	0	0
345	0	0	0
346	0	0	0
347	0	0	0
348	0	0	0
349	0	0	0
350	0	0	0
351	0	0	0
352	0	0	0
353	0	0	0
354	0	0	0
355	0	0	0
356	0	0	0
357	0	0	0
358	0	0	0
359	0	0	0
360	0	0	0
361	0	0	0
362	0	0	0
363	0	0	0
364	0	0	0
365	0	0	0
366	0	0	0
367	0	0	0
368	0	0	0
369	0	0	0
370	0	0	0
371	0	0	0
372	0	0	0
373	0	0	0
374	0	0	0
375	0	0	0
376	0	0	0
377	0	0	0
378	0	0	0
379	0	0	0
380	0	0	0
381	0	0	0
382	0	0	0
383	0	0	0
384	0	0	0
385	0	0	0
386	0	0	0
387	0	0	0
388	0	0	0
389	0	0	0
390	0	0	0
391	0	0	0
392	0	0	0
393	0	0	0
394	0	0	0
395	0	0	0
396	0	0	0
397	0	0	0
398	0	0	0
399	0	0	0
400	0	0	0
401	0	0	0
402	0	0	0
403	0	0	0
404	0	0	0
405	0	0	0
406	0	0	0
407	0	0	0
408	0	0	0
409	0	0	0
410	0	0	0
411	0	0	0
412	0	0	0
413	0	0	0
414	0	0	0
415	0	0	0
416	248	232	232
417	249	231	234
418	253	233	238
419	255	233	239
420	255	231	238
421	255	225	235
422	250	219	231
423	247	214	230
424	252	219	234
425	255	224	236
426	253	219	234
427	249	213	234
428	251	218	237
429	248	218	233
430	251	227	237
431	0	0	0
432	0	0	0
433	0	0	0
434	0	0	0
435	0	0	0
436	0	0	0
437	0	0	0
438	0	0	0
439	0	0	0
440	0	0	0
441	0	0	0
442	0	0	0
443	0	0	0
444	0	0	0
445	0	0	0
446	0	0	0
447	0	0	0
448	0	0	0
449	0	0	0
450	0	0	0
451	0	0	0
452	0	0	0
453	0	0	0
454	0	0	0
455	0	0	0
456	0	0	0
457	0	0	0
458	0	0	0
459	0	0	0
460	0	0	0
461	0	0	0
462	0	0	0
463	0	0	0
464	0	0	0
465	0	0	0
466	0	0	0
467	0	0	0
468	0	0	0
469	0	0	0
470	0	0	0
471	0	0	0
472	0	0	0
473	0	0	0
474	0	0	0
475	0	0	0
476	0	0	0
477	0	0	0
478	0	0	0
479	0	0	0
480	0	0	0
481	0	0	0
482	0	0	0
483	0	0	0
484	0	0	0
485	0	0	0
486	0	0	0
487	0	0	0
488	0	0	0
489	0	0	0
490	0	0	0
491	0	0	0
492	0	0	0
493	0	0	0
494	0	0	0
495	0	0	0
496	0	0	0
497	0	0	0
498	0	0	0
499	0	0	0
500	0	0	0
501	0	0	0
502	0	0	0
503	0	0	0
504	251	236	237
505	251	233	236
506	251	228	235
507	255	231	239
508	253	222	235
509	254	219	234
510	251	214	230
511	245	207	226
512	251	217	234
513	255	222	238
514	252	217	233
515	248	212	230
516	250	214	235
517	252	218	238
518	249	217	234
519	255	228	239
520	250	225	235
521	0	0	0
522	0	0	0
523	0	0	0
524	0	0	0
525	0	0	0
526	0	0	0
527	0	0	0
528	0	0	0
529	0	0	0
530	0	0	0
531	0	0	0
532	0	0	0
533	0	0	0
534	0	0	0
535	0	0	0
536	0	0	0
537	0	0	0
538	0	0	0
539	0	0	0
540	0	0	0
541	0	0	0
542	0	0	0
543	0	0	0
544	0	0	0
545	0	0	0
546	0	0	0
547	0	0	0
548	0	0	0
549	0	0	0
550	0	0	0
551	0	0	0
552	0	0	0
553	0	0	0
554	0	0	0
555	0	0	0
556	0	0	0
557	0	0	0
558	0	0	0
559	0	0	0
560	0	0	0
561	0	0	0
562	0	0	0
563	0	0	0
564	0	0	0
565	0	0	0
566	0	0	0
567	0	0	0
568	0	0	0
569	0	0	0
570	0	0	0
571	0	0	0
572	0	0	0
573	0	0	0
574	0	0	0
575	0	0	0
576	0	0	0
577	0	0	0
578	0	0	0
579	0	0	0
580	0	0	0
581	0	0	0
582	0	0	0
583	0	0	0
584	0	0	0
585	0	0	0
586	0	0	0
587	0	0	0
588	249	243	242
589	251	243	242
590	253	241	241
591	0	0	0
592	0	0	0
593	252	235	237
594	250	228	234
595	250	223	234
596	250	218	233
597	248	210	231
598	250	209	232
599	248	205	229
600	253	213	235
601	255	220	239
602	252	215	235
603	249	211	232
604	252	214	235
605	253	215	237
606	253	218	238
607	252	218	235
608	251	219	234
609	246	216	230
610	248	224	233
611	249	232	235
612	253	240	240
613	0	0	0
614	0	0	0
615	0	0	0
616	0	0	0
617	0	0	0
618	0	0	0
619	0	0	0
620	0	0	0
621	0	0	0
622	0	0	0
623	0	0	0
624	0	0	0
625	0	0	0
626	0	0	0
627	0	0	0
628	0	0	0
629	0	0	0
630	0	0	0
631	0	0	0
632	0	0	0
633	0	0	0
634	0	0	0
635	0	0	0
636	0	0	0
637	0	0	0
638	0	0	0
639	0	0	0
640	0	0	0
641	0	0	0
642	0	0	0
643	0	0	0
644	0	0	0
645	0	0	0
646	0	0	0
647	0	0	0
648	0	0	0
649	0	0	0
650	0	0	0
651	0	0	0
652	0	0	0
653	0	0	0
654	0	0	0
655	0	0	0
656	0	0	0
657	0	0	0
658	0	0	0
659	0	0	0
660	0	0	0
661	0	0	0
662	0	0	0
663	0	0	0
664	0	0	0
665	0	0	0
666	0	0	0
667	0	0	0
668	0	0	0
669	0	0	0
670	0	0	0
671	0	0	0
672	0	0	0
673	0	0	0
674	0	0	0
675	0	0	0
676	250	242	242
677	254	243	243
678	252	236	239
679	253	235	238
680	252	232	235
681	0	0	0
682	252	233	238
683	251	227	236
684	253	223	235
685	253	217	234
686	253	213	235
687	254	212	236
688	251	207	233
689	255	216	240
690	252	210	234
691	244	203	228
692	251	214	236
693	255	218	240
694	255	217	239
695	255	219	240
696	251	210	233
697	248	210	231
698	248	217	233
699	249	224	235
700	247	225	233
701	253	235	239
702	253	240	242
703	0	0	0
704	0	0	0
705	0	0	0
706	0	0	0
707	0	0	0
708	0	0	0
709	0	0	0
710	0	0	0
711	0	0	0
712	0	0	0
713	0	0	0
714	0	0	0
715	0	0	0
716	0	0	0
717	0	0	0
718	0	0	0
719	0	0	0
720	0	0	0
721	0	0	0
722	0	0	0
723	0	0	0
724	0	0	0
725	0	0	0
726	0	0	0
727	0	0	0
728	0	0	0
729	0	0	0
730	0	0	0
731	0	0	0
732	0	0	0
733	0	0	0
734	0	0	0
735	0	0	0
736	0	0	0
737	0	0	0
738	0	0	0
739	0	0	0
740	0	0	0
741	0	0	0
742	0	0	0
743	0	0	0
744	0	0	0
745	0	0	0
746	0	0	0
747	0	0	0
748	0	0	0
749	0	0	0
750	0	0	0
751	0	0	0
752	0	0	0
753	0	0	0
754	0	0	0
755	0	0	0
756	0	0	0
757	0	0	0
758	0	0	0
759	0	0	0
760	0	0	0
761	0	0	0
762	0	0	0
763	252	245	240
764	253	243	241
765	254	242	241
766	253	235	238
767	249	228	234
768	248	226	232
769	247	224	232
770	249	227	235
771	255	232	241
772	253	226	237
773	253	221	234
774	254	217	233
775	253	212	232
776	254	209	233
777	251	204	230
778	252	204	231
779	247	200	228
780	250	208	234
781	255	219	241
782	255	218	240
783	255	216	238
784	253	209	234
785	246	201	229
786	251	212	235
787	252	218	236
788	249	219	234
789	247	220	234
790	250	227	237
791	0	0	0
792	0	0	0
793	0	0	0
794	0	0	0
795	0	0	0
796	0	0	0
797	0	0	0
798	0	0	0
799	0	0	0
800	0	0	0
801	0	0	0
802	0	0	0
803	0	0	0
804	0	0	0
805	0	0	0
806	0	0	0
807	0	0	0
808	0	0	0
809	0	0	0
810	0	0	0
811	0	0	0
812	0	0	0
813	0	0	0
814	0	0	0
815	0	0	0
816	0	0	0
817	0	0	0
818	0	0	0
819	0	0	0
820	0	0	0
821	0	0	0
822	0	0	0
823	0	0	0
824	0	0	0
825	0	0	0
826	0	0	0
827	0	0	0
828	0	0	0
829	0	0	0
830	0	0	0
831	0	0	0
832	0	0	0
833	0	0	0
834	0	0	0
835	0	0	0
836	0	0	0
837	0	0	0
838	0	0	0
839	0	0	0
840	0	0	0
841	0	0	0
842	0	0	0
843	0	0	0
844	0	0	0
845	0	0	0
846	0	0	0
847	0	0	0
848	0	0	0
849	0	0	0
850	0	0	0
851	252	239	238
852	253	238	237
853	254	236	237
854	251	231	236
855	247	223	232
856	250	228	235
857	245	222	231
858	252	232	238
859	255	239	245
860	251	223	236
861	247	215	231
862	253	221	234
863	255	216	233
864	254	211	231
865	254	209	232
866	251	203	230
867	251	203	232
868	250	202	233
869	255	212	240
870	255	212	239
871	255	209	235
872	255	210	234
873	248	202	228
874	250	206	234
875	255	218	242
876	255	215	236
877	253	217	234
878	250	218	235
879	250	223	236
880	251	232	238
881	0	0	0
882	0	0	0
883	0	0	0
884	0	0	0
885	0	0	0
886	0	0	0
887	0	0	0
888	0	0	0
889	0	0	0
890	0	0	0
891	0	0	0
892	0	0	0
893	0	0	0
894	0	0	0
895	0	0	0
896	0	0	0
897	0	0	0
898	0	0	0
899	0	0	0
900	0	0	0
901	0	0	0
902	0	0	0
903	0	0	0
904	0	0	0
905	0	0	0
906	0	0	0
907	0	0	0
908	0	0	0
909	0	0	0
910	0	0	0
911	0	0	0
912	0	0	0
913	0	0	0
914	0	0	0
915	0	0	0
916	0	0	0
917	0	0	0
918	0	0	0
919	0	0	0
920	0	0	0
921	0	0	0
922	0	0	0
923	0	0	0
924	0	0	0
925	0	0	0
926	0	0	0
927	0	0	0
928	0	0	0
929	0	0	0
930	0	0	0
931	0	0	0
932	0	0	0
933	0	0	0
934	0	0	0
935	0	0	0
936	0	0	0
937	255	250	240
938	255	243	238
939	253	236	238
940	255	236	240
941	255	234	238
942	252	227	234
943	249	221	233
944	249	224	236
945	249	227	237
946	247	228	236
947	253	237	241
948	246	221	231
949	238	206	224
950	247	214	232
951	254	220	236
952	255	216	235
953	255	211	234
954	255	208	235
955	252	202	234
956	253	203	237
957	253	203	238
958	255	205	239
959	254	204	236
960	255	206	235
961	252	205	230
962	248	205	229
963	252	210	236
964	255	212	238
965	252	208	231
966	254	213	232
967	252	215	231
968	254	225	236
969	254	234	237
970	250	237	236
971	0	0	0
972	0	0	0
973	0	0	0
974	0	0	0
975	0	0	0
976	0	0	0
977	0	0	0
978	0	0	0
979	0	0	0
980	0	0	0
981	0	0	0
982	0	0	0
983	0	0	0
984	0	0	0
985	0	0	0
986	0	0	0
987	0	0	0
988	0	0	0
989	0	0	0
990	0	0	0
991	0	0	0
992	0	0	0
993	0	0	0
994	0	0	0
995	0	0	0
996	0	0	0
997	0	0	0
998	0	0	0
999	0	0	0
1000	0	0	0
1001	0	0	0
1002	0	0	0
1003	0	0	0
1004	0	0	0
1005	0	0	0
1006	0	0	0
1007	0	0	0
1008	0	0	0
1009	0	0	0
1010	0	0	0
1011	0	0	0
1012	0	0	0
1013	0	0	0
1014	0	0	0
1015	0	0	0
1016	0	0	0
1017	0	0	0
1018	0	0	0
1019	0	0	0
1020	0	0	0
1021	0	0	0
1022	0	0	0
1023	0	0	0
1024	0	0	0
1025	255	244	237
1026	255	236	232
1027	255	229	230
1028	251	222	231
1029	250	220	232
1030	251	223	233
1031	249	216	230
1032	246	215	231
1033	241	214	230
1034	246	228	238
1035	246	231	237
1036	252	239	241
1037	239	220	228
1038	244	220	232
1039	255	232	245
1040	253	215	235
1041	253	210	233
1042	255	208	234
1043	253	204	234
1044	249	198	233
1045	250	199	236
1046	255	205	241
1047	255	207	242
1048	255	203	236
1049	255	204	234
1050	248	198	226
1051	242	197	224
1052	255	214	239
1053	255	217	242
1054	249	200	228
1055	251	206	230
1056	251	210	230
1057	254	221	234
1058	251	225	232
1059	245	228	230
1060	248	240	238
1061	0	0	0
1062	0	0	0
1063	0	0	0
1064	0	0	0
1065	0	0	0
1066	0	0	0
1067	0	0	0
1068	0	0	0
1069	0	0	0
1070	0	0	0
1071	0	0	0
1072	0	0	0
1073	0	0	0
1074	0	0	0
1075	0	0	0
1076	0	0	0
1077	0	0	0
1078	253	242	239
1079	0	0	0
1080	0	0	0
1081	0	0	0
1082	0	0	0
1083	0	0	0
1084	0	0	0
1085	0	0	0
1086	0	0	0
1087	0	0	0
1088	0	0	0
1089	0	0	0
1090	0	0	0
1091	252	242	239
1092	0	0	0
1093	0	0	0
1094	0	0	0
1095	0	0	0
1096	0	0	0
1097	0	0	0
1098	0	0	0
1099	0	0	0
1100	0	0	0
1101	0	0	0
1102	0	0	0
1103	0	0	0
1104	0	0	0
1105	0	0	0
1106	0	0	0
1107	0	0	0
1108	0	0	0
1109	0	0	0
1110	255	246	237
1111	255	250	240
1112	255	244	238
1113	255	240	239
1114	255	234	238
1115	255	225	231
1116	255	219	228
1117	249	210	224
1118	245	209	225
1119	247	212	229
1120	247	211	230
1121	242	208	228
1122	242	218	232
1123	248	232	240
1124	248	234	239
1125	253	242	243
1126	244	232	235
1127	249	232	238
1128	249	220	235
1129	245	204	229
1130	251	206	234
1131	252	203	233
1132	249	198	231
1133	246	192	229
1134	252	199	236
1135	255	206	242
1136	255	203	239
1137	253	198	231
1138	252	197	228
1139	246	192	225
1140	249	203	231
1141	255	219	243
1142	254	206	235
1143	244	191	225
1144	251	202	232
1145	251	206	231
1146	253	215	234
1147	250	219	232
1148	248	227	234
1149	251	238	242
1150	0	0	0
1151	0	0	0
1152	0	0	0
1153	0	0	0
1154	0	0	0
1155	0	0	0
1156	0	0	0
1157	0	0	0
1158	0	0	0
1159	0	0	0
1160	0	0	0
1161	0	0	0
1162	0	0	0
1163	0	0	0
1164	0	0	0
1165	0	0	0
1166	251	239	237
1167	255	243	242
1168	250	230	233
1169	0	0	0
1170	0	0	0
1171	0	0	0
1172	255	238	235
1173	254	237	234
1174	0	0	0
1175	0	0	0
1176	0	0	0
1177	0	0	0
1178	255	239	235
1179	255	240	237
1180	251	234	234
1181	251	236	235
1182	0	0	0
1183	0	0	0
1184	0	0	0
1185	0	0	0
1186	0	0	0
1187	0	0	0
1188	0	0	0
1189	0	0	0
1190	0	0	0
1191	0	0	0
1192	0	0	0
1193	253	239	235
1194	252	237	234
1195	252	236	234
1196	255	237	236
1197	255	244	241
1198	255	233	233
1199	255	237	236
1200	255	229	230
1201	255	224	229
1202	255	221	233
1203	254	213	230
1204	252	208	226
1205	248	200	222
1206	246	200	222
1207	241	199	221
1208	250	214	233
1209	249	212	233
1210	244	211	230
1211	244	221	234
1212	248	232	239
1213	250	235	239
1214	253	241	242
1215	243	230	233
1216	250	235	238
1217	249	222	234
1218	248	210	233
1219	255	213	240
1220	252	203	232
1221	250	198	230
1222	253	200	234
1223	255	208	242
1224	255	203	241
1225	255	201	238
1226	251	193	229
1227	250	192	227
1228	249	194	229
1229	254	206	237
1230	255	213	240
1231	249	198	231
1232	249	196	232
1233	255	208	240
1234	253	206	234
1235	255	215	237
1236	252	215	233
1237	252	224	237
1238	254	235	243
1239	0	0	0
1240	0	0	0
1241	0	0	0
1242	0	0	0
1243	0	0	0
1244	0	0	0
1245	0	0	0
1246	0	0	0
1247	0	0	0
1248	0	0	0
1249	0	0	0
1250	0	0	0
1251	0	0	0
1252	0	0	0
1253	0	0	0
1254	253	240	237
1255	255	242	241
1256	255	233	238
1257	248	220	229
1258	254	230	235
1259	255	239	239
1260	255	239	238
1261	255	239	238
1262	255	234	236
1263	253	228	231
1264	254	233	234
1265	255	238	236
1266	255	240	237
1267	255	243	239
1268	255	237	236
1269	254	230	232
1270	255	233	234
1271	255	235	235
1272	255	240	235
1273	255	247	236
1274	255	242	234
1275	255	237	235
1276	255	241	239
1277	255	242	239
1278	255	243	239
1279	255	245	241
1280	255	246	242
1281	255	247	241
1282	255	244	238
1283	255	241	237
1284	255	243	239
1285	255	245	242
1286	255	236	238
1287	255	227	232
1288	255	219	229
1289	255	211	224
1290	254	207	225
1291	254	203	227
1292	249	196	224
1293	247	191	221
1294	247	192	223
1295	246	193	225
1296	250	205	232
1297	255	217	239
1298	252	216	235
1299	246	214	232
1300	244	221	233
1301	249	233	239
1302	252	236	239
1303	255	241	242
1304	247	235	236
1305	253	240	240
1306	251	227	236
1307	250	214	233
1308	255	212	236
1309	252	202	229
1310	255	208	235
1311	255	210	240
1312	255	205	239
1313	255	200	239
1314	253	194	236
1315	248	187	229
1316	252	192	232
1317	251	194	233
1318	252	199	236
1319	255	206	238
1320	254	202	235
1321	252	200	234
1322	253	202	235
1323	250	201	231
1324	252	207	233
1325	249	208	231
1326	253	221	237
1327	255	231	240
1328	251	235	239
1329	0	0	0
1330	0	0	0
1331	0	0	0
1332	0	0	0
1333	0	0	0
1334	0	0	0
1335	0	0	0
1336	0	0	0
1337	0	0	0
1338	248	236	238
1339	255	243	243
1340	0	0	0
1341	0	0	0
1342	251	233	234
1343	255	237	238
1344	253	225	233
1345	248	215	228
1346	252	219	231
1347	255	230	238
1348	255	223	230
1349	255	222	229
1350	255	223	231
1351	254	219	229
1352	255	220	230
1353	255	226	233
1354	255	224	229
1355	255	226	229
1356	255	225	229
1357	254	219	226
1358	255	222	229
1359	255	226	231
1360	255	224	230
1361	255	231	232
1362	255	227	226
1363	255	221	223
1364	254	217	226
1365	255	221	231
1366	255	219	229
1367	255	220	229
1368	255	223	230
1369	255	223	230
1370	255	217	225
1371	253	214	223
1372	255	218	225
1373	255	219	228
1374	255	212	226
1375	251	203	221
1376	255	208	227
1377	254	200	224
1378	250	192	220
1379	248	188	220
1380	250	188	224
1381	245	181	221
1382	251	190	228
1383	250	190	229
1384	251	196	233
1385	255	208	240
1386	252	207	234
1387	242	202	226
1388	248	219	235
1389	249	227	238
1390	251	234	240
1391	253	236	239
1392	255	241	240
1393	249	236	235
1394	251	236	237
1395	248	222	232
1396	247	209	229
1397	254	208	233
1398	249	195	226
1399	255	201	233
1400	251	193	231
1401	248	188	229
1402	254	196	238
1403	250	190	235
1404	252	191	235
1405	255	197	239
1406	254	196	237
1407	255	201	239
1408	255	204	239
1409	253	200	235
1410	252	198	234
1411	252	201	234
1412	254	205	235
1413	255	211	238
1414	247	204	231
1415	251	217	237
1416	252	225	238
1417	251	231	237
1418	249	234	237
1419	0	0	0
1420	0	0	0
1421	0	0	0
1422	0	0	0
1423	0	0	0
1424	0	0	0
1425	0	0	0
1426	245	232	238
1427	250	237	240
1428	248	228	234
1429	241	216	225
1430	245	222	229
1431	252	229	234
1432	251	219	230
1433	245	206	225
1434	251	212	230
1435	255	217	233
1436	254	214	230
1437	250	207	224
1438	253	210	225
1439	255	212	227
1440	255	214	230
1441	255	216	232
1442	255	216	231
1443	255	214	225
1444	255	212	222
1445	255	212	225
1446	255	216	228
1447	255	218	229
1448	255	218	228
1449	255	217	230
1450	255	215	227
1451	255	210	221
1452	252	204	218
1453	251	200	221
1454	252	201	223
1455	250	198	220
1456	253	201	222
1457	255	204	224
1458	251	197	220
1459	247	192	216
1460	250	195	219
1461	253	199	222
1462	248	190	218
1463	245	183	218
1464	248	186	222
1465	252	190	226
1466	245	178	218
1467	240	170	214
1468	241	170	216
1469	242	169	219
1470	247	178	227
1471	251	186	232
1472	250	189	232
1473	251	193	234
1474	251	196	234
1475	245	194	229
1476	246	208	234
1477	252	225	242
1478	250	228	239
1479	253	235	240
1480	253	236	238
1481	255	241	238
1482	250	234	233
1483	254	235	238
1484	249	220	232
1485	246	206	228
1486	248	199	229
1487	244	187	224
1488	246	184	227
1489	242	177	227
1490	248	186	234
1491	253	193	238
1492	254	194	238
1493	255	196	240
1494	255	199	242
1495	255	197	237
1496	254	198	236
1497	255	202	238
1498	254	200	237
1499	252	198	235
1500	255	204	238
1501	255	208	238
1502	253	205	234
1503	245	199	230
1504	250	212	237
1505	249	219	236
1506	245	221	232
1507	243	224	232
1508	245	233	236
1509	0	0	0
1510	0	0	0
1511	0	0	0
1512	0	0	0
1513	0	0	0
1514	241	229	236
1515	250	237	243
1516	248	231	238
1517	242	220	231
1518	246	222	232
1519	252	229	238
1520	251	222	235
1521	250	212	230
1522	249	206	230
1523	254	212	234
1524	255	211	234
1525	254	209	232
1526	250	200	225
1527	254	204	228
1528	252	199	225
1529	255	202	228
1530	251	195	225
1531	251	195	223
1532	255	202	224
1533	254	200	222
1534	251	197	222
1535	254	200	225
1536	255	202	224
1537	255	202	224
1538	252	195	222
1539	251	193	221
1540	253	195	221
1541	250	190	218
1542	252	191	223
1543	253	191	225
1544	251	188	221
1545	253	191	223
1546	253	189	223
1547	249	183	220
1548	251	185	223
1549	254	189	227
1550	253	186	225
1551	247	177	221
1552	250	179	227
1553	253	182	230
1554	252	180	229
1555	244	168	221
1556	251	178	228
1557	251	177	230
1558	246	171	227
1559	251	179	234
1560	254	187	237
1561	251	189	235
1562	255	199	240
1563	255	201	239
1564	246	196	232
1565	246	210	236
1566	252	226	242
1567	252	230	240
1568	251	233	239
1569	249	233	236
1570	254	239	237
1571	255	236	236
1572	255	229	236
1573	247	212	229
1574	246	205	229
1575	246	196	229
1576	250	196	234
1577	254	195	238
1578	250	187	237
1579	255	196	244
1580	255	195	241
1581	255	196	241
1582	254	190	239
1583	255	192	239
1584	251	189	233
1585	250	191	231
1586	255	202	239
1587	255	200	238
1588	250	193	233
1589	253	200	237
1590	255	207	239
1591	254	204	236
1592	248	200	233
1593	253	213	240
1594	248	215	235
1595	240	214	229
1596	248	231	238
1597	253	242	244
1598	250	240	241
1599	0	0	0
1600	0	0	0
1601	0	0	0
1602	0	0	0
1603	0	0	0
1604	240	224	235
1605	238	218	232
1606	240	219	234
1607	243	221	234
1608	237	211	228
1609	236	204	226
1610	241	202	227
1611	241	196	226
1612	244	198	228
1613	246	198	230
1614	246	193	227
1615	243	186	222
1616	243	184	221
1617	242	179	219
1618	241	176	218
1619	238	170	215
1620	245	180	222
1621	250	187	225
1622	247	182	221
1623	244	178	219
1624	245	180	220
1625	247	183	220
1626	243	175	216
1627	239	169	215
1628	244	174	219
1629	246	176	219
1630	245	175	219
1631	247	175	223
1632	246	174	222
1633	244	170	218
1634	243	168	216
1635	242	166	215
1636	243	167	218
1637	245	170	224
1638	243	166	223
1639	242	163	221
1640	241	163	221
1641	242	163	222
1642	241	161	222
1643	240	160	223
1644	245	168	228
1645	251	176	234
1646	247	170	230
1647	241	163	227
1648	250	177	237
1649	252	185	237
1650	255	193	239
1651	255	203	244
1652	254	201	240
1653	245	196	232
1654	247	211	236
1655	252	227	241
1656	251	229	238
1657	251	232	238
1658	245	231	234
1659	251	237	238
1660	251	227	233
1661	252	221	232
1662	249	211	230
1663	247	204	230
1664	252	205	236
1665	255	205	242
1666	255	200	243
1667	253	191	237
1668	255	195	241
1669	255	195	242
1670	254	190	240
1671	251	184	237
1672	252	186	237
1673	248	183	232
1674	254	193	236
1675	255	203	242
1676	253	195	235
1677	247	188	232
1678	253	198	239
1679	255	205	241
1680	254	203	238
1681	248	198	232
1682	251	206	236
1683	247	209	233
1684	250	224	239
1685	255	240	246
1686	253	237	242
1687	248	234	238
1688	0	0	0
1689	0	0	0
1690	0	0	0
1691	0	0	0
1692	0	0	0
1693	236	222	233
1694	241	229	239
1695	246	231	242
1696	241	225	236
1697	232	213	228
1698	241	221	236
1699	248	219	239
1700	248	212	237
1701	254	215	242
1702	251	205	237
1703	253	201	236
1704	251	195	231
1705	251	192	231
1706	250	188	230
1707	252	187	232
1708	249	180	229
1709	255	190	237
1710	251	182	231
1711	248	178	227
1712	252	183	230
1713	253	185	230
1714	255	190	232
1715	252	183	229
1716	248	175	228
1717	253	179	232
1718	252	179	230
1719	251	177	229
1720	253	179	233
1721	253	177	232
1722	250	173	227
1723	249	171	225
1724	252	176	229
1725	253	176	231
1726	253	176	234
1727	250	172	233
1728	253	176	236
1729	252	175	235
1730	251	174	234
1731	248	171	233
1732	248	173	236
1733	253	180	241
1734	254	182	240
1735	248	175	235
1736	251	179	239
1737	255	193	248
1738	253	185	238
1739	255	193	240
1740	255	198	240
1741	248	195	234
1742	249	203	236
1743	254	220	242
1744	252	224	240
1745	250	225	237
1746	249	230	238
1747	241	227	233
1748	247	233	236
1749	247	223	232
1750	252	221	234
1751	251	213	233
1752	251	206	233
1753	254	206	238
1754	255	202	240
1755	254	196	239
1756	253	191	236
1757	255	195	241
1758	253	189	239
1759	251	184	237
1760	254	188	242
1761	255	190	242
1762	251	184	235
1763	255	194	239
1764	255	196	237
1765	248	187	230
1766	254	197	238
1767	255	206	244
1768	254	201	239
1769	253	199	236
1770	252	200	235
1771	255	209	239
1772	253	211	236
1773	255	227	243
1774	251	224	238
1775	244	219	232
1776	249	231	238
1777	0	0	0
1778	0	0	0
1779	0	0	0
1780	0	0	0
1781	242	229	237
1782	242	233	239
1783	247	239	244
1784	247	236	242
1785	243	230	237
1786	242	231	237
1787	250	238	244
1788	251	230	242
1789	251	223	241
1790	248	213	238
1791	246	203	235
1792	247	198	233
1793	246	192	228
1794	245	188	227
1795	246	185	228
1796	248	183	231
1797	246	176	230
1798	244	172	230
1799	240	165	226
1800	244	172	230
1801	247	176	229
1802	248	179	229
1803	253	184	231
1804	248	175	227
1805	245	169	227
1806	248	172	231
1807	248	171	229
1808	248	171	229
1809	250	172	232
1810	250	170	232
1811	247	167	229
1812	250	171	231
1813	254	176	235
1814	251	173	232
1815	249	171	230
1816	252	174	234
1817	255	178	238
1818	254	178	238
1819	253	178	238
1820	249	177	238
1821	249	178	240
1822	252	182	243
1823	253	185	242
1824	255	189	244
1825	255	192	244
1826	255	188	240
1827	249	181	233
1828	250	188	235
1829	250	192	234
1830	252	202	237
1831	253	211	239
1832	252	215	239
1833	250	220	240
1834	247	222	238
1835	246	226	236
1836	237	222	229
1837	242	227	233
1838	242	220	230
1839	247	218	232
1840	251	213	233
1841	251	206	234
1842	250	201	234
1843	250	196	235
1844	252	195	237
1845	251	191	236
1846	251	187	235
1847	247	180	232
1848	252	185	238
1849	255	189	243
1850	254	187	241
1851	250	182	235
1852	251	185	234
1853	251	187	233
1854	255	196	237
1855	255	205	242
1856	254	199	237
1857	249	194	232
1858	253	199	236
1859	254	201	236
1860	255	207	239
1861	254	209	236
1862	248	208	232
1863	242	206	228
1864	246	217	234
1865	250	229	239
1866	0	0	0
1867	0	0	0
1868	0	0	0
1869	0	0	0
1870	242	234	240
1871	246	240	243
1872	246	236	240
1873	247	233	238
1874	243	227	235
1875	243	228	236
1876	246	231	239
1877	243	221	234
1878	248	223	239
1879	244	212	235
1880	246	211	237
1881	247	206	236
1882	251	207	237
1883	254	205	238
1884	250	193	235
1885	251	191	238
1886	250	186	238
1887	250	183	238
1888	251	184	240
1889	255	190	243
1890	253	188	237
1891	254	190	237
1892	255	189	235
1893	252	181	232
1894	253	180	236
1895	255	183	240
1896	253	178	235
1897	254	179	236
1898	255	180	239
1899	255	177	239
1900	249	169	233
1901	252	174	236
1902	255	185	243
1903	255	181	239
1904	254	178	235
1905	255	182	238
1906	255	180	237
1907	254	180	238
1908	255	184	241
1909	250	182	239
1910	253	188	244
1911	255	192	247
1912	251	183	241
1913	255	189	245
1914	251	181	237
1915	245	176	231
1916	250	185	235
1917	252	193	238
1918	252	197	238
1919	255	208	242
1920	251	207	236
1921	250	212	237
1922	252	221	242
1923	246	221	239
1924	250	233	242
1925	245	231	237
1926	247	234	239
1927	242	224	232
1928	248	223	235
1929	254	220	238
1930	251	207	234
1931	249	202	234
1932	254	205	239
1933	255	204	242
1934	250	190	236
1935	249	186	236
1936	253	189	240
1937	255	194	245
1938	253	186	241
1939	252	184	240
1940	251	184	237
1941	252	187	237
1942	255	192	238
1943	255	201	242
1944	255	196	237
1945	247	190	231
1946	248	193	232
1947	254	199	237
1948	253	199	236
1949	254	204	239
1950	250	203	235
1951	245	203	232
1952	249	213	237
1953	254	225	242
1954	251	227	239
1955	0	0	0
1956	0	0	0
1957	0	0	0
1958	0	0	0
1959	0	0	0
1960	243	236	238
1961	243	232	236
1962	245	229	236
1963	243	224	235
1964	242	225	237
1965	244	227	239
1966	246	226	239
1967	248	227	240
1968	246	221	237
1969	247	219	239
1970	251	219	241
1971	255	220	243
1972	251	208	239
1973	247	196	237
1974	245	192	238
1975	243	186	234
1976	248	190	238
1977	250	191	238
1978	250	191	236
1979	249	190	234
1980	251	189	234
1981	252	189	235
1982	253	187	235
1983	254	185	236
1984	253	183	236
1985	252	179	233
1986	254	181	236
1987	255	181	239
1988	253	176	236
1989	247	168	231
1990	253	178	237
1991	255	188	243
1992	255	184	238
1993	252	181	236
1994	251	180	234
1995	248	177	232
1996	251	183	237
1997	253	187	240
1998	252	190	241
1999	255	196	244
2000	251	188	241
2001	247	180	239
2002	246	176	238
2003	240	168	231
2004	246	179	236
2005	249	187	236
2006	251	194	238
2007	252	200	241
2008	249	201	239
2009	244	199	233
2010	246	208	235
2011	247	217	238
2012	248	226	241
2013	253	238	245
2014	247	235	239
2015	249	238	241
2016	242	228	234
2017	246	226	236
2018	246	215	233
2019	243	203	230
2020	249	207	237
2021	255	210	240
2022	251	199	236
2023	246	186	234
2024	254	193	243
2025	255	196	246
2026	253	188	241
2027	248	180	237
2028	250	183	240
2029	250	183	238
2030	253	189	240
2031	255	194	240
2032	252	190	236
2033	247	186	233
2034	247	189	234
2035	249	192	235
2036	252	195	237
2037	250	194	237
2038	249	197	238
2039	245	196	235
2040	247	206	239
2041	251	216	242
2042	251	220	240
2043	247	221	235
2044	245	227	235
2045	247	235	239
2046	248	239	241
2047	0	0	0
2048	0	0	0
2049	0	0	0
2050	243	234	237
2051	245	231	238
2052	245	229	238
2053	245	230	240
2054	245	229	241
2055	245	227	240
2056	245	225	238
2057	240	219	233
2058	244	222	237
2059	248	221	239
2060	250	220	240
2061	245	207	234
2062	251	211	243
2063	246	205	242
2064	242	198	237
2065	248	202	240
2066	248	200	237
2067	250	201	237
2068	253	202	238
2069	255	203	241
2070	252	192	235
2071	252	189	234
2072	254	191	237
2073	254	188	237
2074	254	186	237
2075	255	188	241
2076	252	178	235
2077	249	173	232
2078	250	176	234
2079	254	185	240
2080	255	189	241
2081	250	184	237
2082	248	183	236
2083	245	181	234
2084	247	186	236
2085	249	190	239
2086	244	184	235
2087	248	190	238
2088	255	198	242
2089	253	191	239
2090	250	185	240
2091	244	179	237
2092	248	186	242
2093	255	199	248
2094	253	197	241
2095	255	203	243
2096	249	200	240
2097	246	201	238
2098	246	208	238
2099	245	216	238
2100	246	223	239
2101	252	234	244
2102	249	234	240
2103	242	229	234
2104	248	239	241
2105	243	230	235
2106	245	230	237
2107	238	215	230
2108	242	214	234
2109	252	221	243
2110	253	213	240
2111	250	201	237
2112	252	196	241
2113	255	203	250
2114	253	193	243
2115	250	186	238
2116	255	191	243
2117	255	194	245
2118	251	187	240
2119	254	193	243
2120	253	194	241
2121	250	191	238
2122	252	194	241
2123	255	199	244
2124	251	194	240
2125	253	196	240
2126	253	198	241
2127	251	199	242
2128	246	198	240
2129	246	207	242
2130	250	218	244
2131	250	222	241
2132	246	221	235
2133	246	228	237
2134	245	230	238
2135	250	237	242
2136	249	237	241
2137	0	0	0
2138	0	0	0
2139	0	0	0
2140	244	233	238
2141	243	230	237
2142	243	229	237
2143	244	228	238
2144	245	228	239
2145	244	226	237
2146	244	227	237
2147	248	230	241
2148	248	226	240
2149	250	224	241
2150	253	226	243
2151	255	228	247
2152	249	219	241
2153	246	213	241
2154	251	215	244
2155	253	213	241
2156	255	214	241
2157	255	215	244
2158	254	203	237
2159	247	190	230
2160	249	192	233
2161	253	194	237
2162	254	193	238
2163	255	190	240
2164	251	182	236
2165	244	172	229
2166	248	177	233
2167	250	181	236
2168	252	186	239
2169	253	190	241
2170	251	189	241
2171	249	188	242
2172	251	193	244
2173	252	197	244
2174	245	190	238
2175	241	185	234
2176	247	192	239
2177	254	200	242
2178	251	193	237
2179	247	187	235
2180	252	196	242
2181	255	203	247
2182	255	205	247
2183	255	205	243
2184	253	203	241
2185	247	200	239
2186	249	210	242
2187	249	217	241
2188	247	223	239
2189	249	230	239
2190	248	229	237
2191	245	229	236
2192	245	234	238
2193	252	244	245
2194	248	238	241
2195	249	238	242
2196	248	233	241
2197	250	230	242
2198	249	221	240
2199	249	214	240
2200	252	209	241
2201	253	203	242
2202	253	198	241
2203	247	187	236
2204	253	194	241
2205	255	198	242
2206	253	193	238
2207	248	187	236
2208	252	192	242
2209	253	195	243
2210	255	200	246
2211	255	203	247
2212	255	199	243
2213	252	194	241
2214	255	198	244
2215	253	199	243
2216	251	200	243
2217	245	199	241
2218	248	210	244
2219	251	221	245
2220	249	221	239
2221	246	221	235
2222	244	222	234
2223	244	224	236
2224	246	227	239
2225	0	0	0
2226	0	0	0
2227	0	0	0
2228	246	241	243
2229	243	237	240
2230	244	235	239
2231	248	236	241
2232	247	232	240
2233	246	231	240
2234	243	226	236
2235	244	227	237
2236	246	228	238
2237	245	224	237
2238	244	221	236
2239	245	221	236
2240	245	221	235
2241	239	212	230
2242	249	222	241
2243	255	224	245
2244	251	211	236
2245	255	213	238
2246	255	211	237
2247	243	196	227
2248	249	202	234
2249	253	205	238
2250	255	205	240
2251	255	204	243
2252	252	191	238
2253	247	182	233
2254	249	186	235
2255	253	191	239
2256	255	196	242
2257	255	203	247
2258	255	193	242
2259	255	193	243
2260	252	191	243
2261	252	195	244
2262	253	199	244
2263	247	193	239
2264	248	194	240
2265	253	202	244
2266	251	200	240
2267	243	190	232
2268	244	190	234
2269	254	202	244
2270	253	200	242
2271	252	201	241
2272	255	205	242
2273	254	205	241
2274	247	201	237
2275	246	209	239
2276	249	220	240
2277	253	228	241
2278	247	224	235
2279	242	222	231
2280	247	232	238
2281	249	238	241
2282	248	238	241
2283	242	231	236
2284	250	239	242
2285	254	236	244
2286	245	221	235
2287	236	208	229
2288	248	220	241
2289	252	215	243
2290	254	210	242
2291	255	205	243
2292	248	192	237
2293	252	197	241
2294	255	204	243
2295	255	199	239
2296	255	198	242
2297	255	204	249
2298	253	193	243
2299	255	199	248
2300	252	191	241
2301	246	186	236
2302	251	195	244
2303	255	199	247
2304	249	193	240
2305	245	194	238
2306	249	205	243
2307	254	217	248
2308	253	220	244
2309	251	219	239
2310	253	226	240
2311	251	227	240
2312	247	223	239
2313	0	0	0
2314	0	0	0
2315	0	0	0
2316	0	0	0
2317	250	248	247
2318	246	243	242
2319	247	242	242
2320	250	240	243
2321	250	236	242
2322	247	233	240
2323	244	228	237
2324	246	229	238
2325	247	230	238
2326	247	227	237
2327	246	224	236
2328	246	224	237
2329	247	223	237
2330	254	230	242
2331	255	239	249
2332	255	227	244
2333	254	214	238
2334	255	214	239
2335	253	211	234
2336	251	212	233
2337	255	219	241
2338	255	216	242
2339	255	214	242
2340	252	201	236
2341	246	189	231
2342	252	196	238
2343	255	200	241
2344	255	207	245
2345	255	211	247
2346	255	202	242
2347	252	193	239
2348	252	193	240
2349	248	189	237
2350	247	194	238
2351	249	199	240
2352	249	200	239
2353	250	202	241
2354	252	202	242
2355	250	201	239
2356	246	198	237
2357	246	197	241
2358	248	198	242
2359	245	195	238
2360	249	200	240
2361	252	205	241
2362	250	204	238
2363	243	199	232
2364	245	211	236
2365	251	223	240
2366	251	223	238
2367	247	219	234
2368	246	227	237
2369	251	237	243
2370	247	235	240
2371	246	235	240
2372	246	235	239
2373	253	242	245
2374	247	227	237
2375	238	212	231
2376	243	219	238
2377	252	229	246
2378	252	222	242
2379	254	216	243
2380	254	208	242
2381	248	195	238
2382	255	205	246
2383	255	212	248
2384	255	208	245
2385	255	206	245
2386	252	196	241
2387	246	186	237
2388	247	184	239
2389	240	177	233
2390	242	184	238
2391	247	193	244
2392	243	189	240
2393	237	183	232
2394	246	197	239
2395	250	208	243
2396	250	212	241
2397	250	216	240
2398	253	222	241
2399	255	228	242
2400	252	225	239
2401	248	221	240
2402	0	0	0
2403	0	0	0
2404	0	0	0
2405	0	0	0
2406	0	0	0
2407	241	237	237
2408	249	244	243
2409	252	243	244
2410	247	231	238
2411	245	228	237
2412	244	226	237
2413	245	227	237
2414	244	223	234
2415	244	221	233
2416	247	222	235
2417	247	222	236
2418	248	221	237
2419	255	228	243
2420	255	224	240
2421	251	210	232
2422	251	209	234
2423	247	206	232
2424	248	209	230
2425	249	212	231
2426	255	220	239
2427	255	216	239
2428	252	210	235
2429	242	195	227
2430	248	200	233
2431	255	209	242
2432	254	202	238
2433	255	209	244
2434	255	201	238
2435	247	191	232
2436	251	197	239
2437	251	197	240
2438	249	198	239
2439	248	202	239
2440	247	202	238
2441	248	204	239
2442	248	202	239
2443	251	204	241
2444	250	202	238
2445	249	201	239
2446	250	204	244
2447	245	201	242
2448	245	203	241
2449	252	210	245
2450	250	208	242
2451	246	206	237
2452	245	208	236
2453	252	222	242
2454	248	218	238
2455	251	219	238
2456	246	215	235
2457	243	222	236
2458	249	235	243
2459	247	234	241
2460	247	233	240
2461	247	234	239
2462	254	243	245
2463	0	0	0
2464	242	222	237
2465	250	232	246
2466	246	224	240
2467	242	214	235
2468	249	216	240
2469	250	208	240
2470	250	202	240
2471	255	212	248
2472	255	213	247
2473	255	209	244
2474	252	203	242
2475	246	193	237
2476	247	193	241
2477	248	192	244
2478	246	191	243
2479	247	198	248
2480	242	196	246
2481	235	190	239
2482	239	195	240
2483	255	214	250
2484	248	206	241
2485	246	209	239
2486	247	214	240
2487	251	221	242
2488	252	223	240
2489	251	220	239
2490	249	221	241
2491	0	0	0
2492	0	0	0
2493	0	0	0
2494	0	0	0
2495	0	0	0
2496	244	241	241
2497	252	249	247
2498	250	238	242
2499	243	226	235
2500	243	225	236
2501	243	224	236
2502	242	221	234
2503	241	217	232
2504	244	219	233
2505	247	221	235
2506	248	220	236
2507	249	218	237
2508	250	215	237
2509	250	210	234
2510	250	208	232
2511	248	206	230
2512	247	209	232
2513	249	213	234
2514	254	218	238
2515	255	224	242
2516	253	215	236
2517	250	209	234
2518	254	213	238
2519	255	217	242
2520	255	211	239
2521	253	204	237
2522	252	200	236
2523	247	193	233
2524	248	197	236
2525	251	203	241
2526	254	207	243
2527	253	209	244
2528	251	208	242
2529	248	208	240
2530	242	203	235
2531	242	201	236
2532	245	202	238
2533	245	201	237
2534	249	205	240
2535	249	208	241
2536	245	208	240
2537	246	211	242
2538	250	212	244
2539	248	211	242
2540	248	214	242
2541	248	217	240
2542	243	213	235
2543	241	209	233
2544	246	213	236
2545	241	209	232
2546	244	222	238
2547	251	236	244
2548	249	234	241
2549	248	232	240
2550	249	236	241
2551	254	244	246
2552	0	0	0
2553	0	0	0
2554	243	225	238
2555	240	218	235
2556	242	217	237
2557	247	218	241
2558	248	213	241
2559	246	206	238
2560	249	209	241
2561	250	209	242
2562	245	202	238
2563	242	197	238
2564	242	197	239
2565	243	197	241
2566	245	199	244
2567	244	197	243
2568	242	199	245
2569	239	198	244
2570	238	202	245
2571	243	208	247
2572	248	208	246
2573	243	201	239
2574	244	208	241
2575	245	213	242
2576	244	213	240
2577	245	215	239
2578	247	217	239
2579	0	0	0
2580	0	0	0
2581	0	0	0
2582	0	0	0
2583	0	0	0
2584	0	0	0
2585	249	249	247
2586	248	242	243
2587	246	232	238
2588	246	229	238
2589	244	227	238
2590	246	229	240
2591	249	228	240
2592	248	223	237
2593	248	224	237
2594	249	223	236
2595	251	222	238
2596	247	213	236
2597	248	209	234
2598	254	216	238
2599	252	213	235
2600	247	207	230
2601	248	211	232
2602	248	213	234
2603	255	219	239
2604	255	218	237
2605	246	207	229
2606	253	215	236
2607	255	220	242
2608	255	211	236
2609	248	203	231
2610	253	209	238
2611	252	205	237
2612	247	199	235
2613	248	203	239
2614	251	208	241
2615	254	212	244
2616	252	209	242
2617	252	210	243
2618	245	205	238
2619	233	197	230
2620	242	211	240
2621	247	213	243
2622	244	207	239
2623	246	210	241
2624	245	210	239
2625	245	213	240
2626	249	217	244
2627	251	219	245
2628	245	210	240
2629	247	215	241
2630	249	221	242
2631	244	217	237
2632	245	218	239
2633	248	220	241
2634	245	218	239
2635	255	234	248
2636	252	231	243
2637	248	228	239
2638	246	229	238
2639	244	231	238
2640	252	244	245
2641	0	0	0
2642	0	0	0
2643	0	0	0
2644	245	228	241
2645	248	227	244
2646	245	220	241
2647	240	212	237
2648	244	216	240
2649	248	219	244
2650	244	213	241
2651	239	206	238
2652	241	208	242
2653	240	207	244
2654	239	206	244
2655	241	207	246
2656	237	200	242
2657	241	204	246
2658	242	205	247
2659	245	211	249
2660	250	218	251
2661	251	216	248
2662	245	207	242
2663	250	215	247
2664	248	217	245
2665	243	216	241
2666	243	219	242
2667	0	0	0
2668	0	0	0
2669	0	0	0
2670	0	0	0
2671	0	0	0
2672	0	0	0
2673	0	0	0
2674	243	240	239
2675	241	234	236
2676	247	234	240
2677	247	232	240
2678	245	231	240
2679	248	233	241
2680	252	231	241
2681	250	226	237
2682	248	223	235
2683	248	222	234
2684	245	214	231
2685	243	206	232
2686	252	215	239
2687	255	220	238
2688	253	215	233
2689	250	211	232
2690	249	212	234
2691	249	213	234
2692	254	215	237
2693	254	215	237
2694	255	218	238
2695	255	225	242
2696	255	215	236
2697	250	207	232
2698	250	209	234
2699	253	214	239
2700	251	209	237
2701	247	203	234
2702	250	210	240
2703	252	215	243
2704	248	210	239
2705	246	207	237
2706	247	207	238
2707	243	204	237
2708	244	213	242
2709	250	226	249
2710	246	219	243
2711	242	211	239
2712	244	214	241
2713	243	214	241
2714	246	219	243
2715	249	222	243
2716	245	215	239
2717	240	208	236
2718	248	219	244
2719	251	226	245
2720	249	224	242
2721	247	224	242
2722	246	223	241
2723	245	222	240
2724	246	222	239
2725	243	220	235
2726	0	0	0
2727	0	0	0
2728	244	233	239
2729	0	0	0
2730	0	0	0
2731	0	0	0
2732	0	0	0
2733	0	0	0
2734	246	229	242
2735	242	221	240
2736	0	0	0
2737	249	230	247
2738	244	223	243
2739	241	217	241
2740	243	218	244
2741	243	219	245
2742	240	216	244
2743	239	214	247
2744	237	210	247
2745	234	203	244
2746	240	209	248
2747	241	210	246
2748	245	216	247
2749	250	223	247
2750	248	216	242
2751	243	208	238
2752	247	215	243
2753	246	217	241
2754	243	218	240
2755	242	221	240
2756	0	0	0
2757	0	0	0
2758	0	0	0
2759	0	0	0
2760	0	0	0
2761	0	0	0
2762	0	0	0
2763	0	0	0
2764	243	237	239
2765	247	237	242
2766	247	234	241
2767	246	234	241
2768	245	230	239
2769	248	228	238
2770	250	227	238
2771	249	225	237
2772	246	220	233
2773	244	212	230
2774	250	216	238
2775	255	225	245
2776	252	213	233
2777	250	209	230
2778	254	213	235
2779	253	214	236
2780	253	214	236
2781	254	215	237
2782	251	209	234
2783	254	213	237
2784	255	216	236
2785	245	203	227
2786	249	211	233
2787	249	213	235
2788	252	219	238
2789	251	214	236
2790	250	212	237
2791	255	220	244
2792	250	213	238
2793	239	205	231
2794	247	218	240
2795	252	219	243
2796	247	211	240
2797	253	224	248
2798	249	223	244
2799	238	211	234
2800	242	218	240
2801	245	222	243
2802	241	217	240
2803	242	221	241
2804	242	221	238
2805	238	214	234
2806	244	219	240
2807	254	231	250
2808	249	223	242
2809	247	223	241
2810	245	223	241
2811	0	0	0
2812	0	0	0
2813	0	0	0
2814	0	0	0
2815	0	0	0
2816	0	0	0
2817	0	0	0
2818	0	0	0
2819	0	0	0
2820	0	0	0
2821	0	0	0
2822	0	0	0
2823	0	0	0
2824	0	0	0
2825	0	0	0
2826	0	0	0
2827	0	0	0
2828	0	0	0
2829	245	226	246
2830	244	224	245
2831	0	0	0
2832	0	0	0
2833	0	0	0
2834	237	212	246
2835	238	215	248
2836	237	215	244
2837	242	221	245
2838	244	222	242
2839	243	216	238
2840	243	213	238
2841	249	221	244
2842	248	222	243
2843	246	224	242
2844	241	221	239
2845	0	0	0
2846	0	0	0
2847	0	0	0
2848	0	0	0
2849	0	0	0
2850	0	0	0
2851	0	0	0
2852	0	0	0
2853	0	0	0
2854	247	239	242
2855	246	236	241
2856	242	231	239
2857	241	227	236
2858	245	227	238
2859	248	227	238
2860	247	223	237
2861	247	219	235
2862	255	225	241
2863	255	227	242
2864	253	217	236
2865	247	207	231
2866	254	213	237
2867	255	216	238
2868	255	215	237
2869	255	214	236
2870	252	209	234
2871	249	204	232
2872	251	207	235
2873	250	209	234
2874	248	212	233
2875	251	219	236
2876	253	222	237
2877	255	227	241
2878	255	224	240
2879	255	222	241
2880	254	219	240
2881	246	212	232
2882	247	220	236
2883	255	233	246
2884	251	224	241
2885	246	216	238
2886	248	219	239
2887	245	218	235
2888	245	222	237
2889	250	230	244
2890	247	227	243
2891	242	222	239
2892	240	221	238
2893	240	222	238
2894	0	0	0
2895	0	0	0
2896	248	226	242
2897	244	220	237
2898	245	222	240
2899	244	223	241
2900	0	0	0
2901	0	0	0
2902	0	0	0
2903	0	0	0
2904	0	0	0
2905	0	0	0
2906	0	0	0
2907	0	0	0
2908	0	0	0
2909	0	0	0
2910	0	0	0
2911	0	0	0
2912	0	0	0
2913	0	0	0
2914	0	0	0
2915	0	0	0
2916	0	0	0
2917	0	0	0
2918	0	0	0
2919	0	0	0
2920	0	0	0
2921	0	0	0
2922	0	0	0
2923	0	0	0
2924	237	220	245
2925	236	220	241
2926	237	220	239
2927	240	222	239
2928	245	222	241
2929	244	218	240
2930	248	224	244
2931	247	225	243
2932	243	223	240
2933	0	0	0
2934	0	0	0
2935	0	0	0
2936	0	0	0
2937	0	0	0
2938	0	0	0
2939	0	0	0
2940	0	0	0
2941	0	0	0
2942	0	0	0
2943	0	0	0
2944	0	0	0
2945	0	0	0
2946	0	0	0
2947	0	0	0
2948	250	233	242
2949	253	231	243
2950	250	218	237
2951	255	225	243
2952	252	214	233
2953	241	202	224
2954	249	210	234
2955	255	218	242
2956	254	210	236
2957	254	209	234
2958	255	214	237
2959	255	210	235
2960	250	202	233
2961	251	205	235
2962	252	213	238
2963	246	214	235
2964	246	218	234
2965	251	223	236
2966	251	220	235
2967	249	216	233
2968	251	219	237
2969	246	214	233
2970	244	214	231
2971	253	226	240
2972	252	227	240
2973	240	214	231
2974	244	219	236
2975	248	223	239
2976	248	223	236
2977	253	230	241
2978	252	229	242
2979	248	224	240
2980	245	223	239
2981	0	0	0
2982	0	0	0
2983	0	0	0
2984	0	0	0
2985	0	0	0
2986	247	226	240
2987	249	229	244
2988	243	224	241
2989	0	0	0
2990	0	0	0
2991	0	0	0
2992	0	0	0
2993	0	0	0
2994	0	0	0
2995	0	0	0
2996	0	0	0
2997	0	0	0
2998	0	0	0
2999	0	0	0
3000	0	0	0
3001	0	0	0
3002	0	0	0
3003	0	0	0
3004	0	0	0
3005	0	0	0
3006	0	0	0
3007	0	0	0
3008	0	0	0
3009	0	0	0
3010	0	0	0
3011	0	0	0
3012	0	0	0
3013	0	0	0
3014	238	224	241
3015	0	0	0
3016	247	234	246
3017	252	235	248
3018	240	216	238
3019	0	0	0
3020	0	0	0
3021	0	0	0
3022	0	0	0
3023	0	0	0
3024	0	0	0
3025	0	0	0
3026	0	0	0
3027	0	0	0
3028	0	0	0
3029	0	0	0
3030	0	0	0
3031	0	0	0
3032	0	0	0
3033	0	0	0
3034	0	0	0
3035	0	0	0
3036	0	0	0
3037	252	239	245
3038	252	229	241
3039	249	216	235
3040	252	213	236
3041	247	204	228
3042	251	211	233
3043	255	220	242
3044	255	216	241
3045	254	207	236
3046	255	212	239
3047	255	218	242
3048	255	210	237
3049	252	202	233
3050	255	214	241
3051	255	221	244
3052	249	218	237
3053	250	222	238
3054	251	220	236
3055	249	216	234
3056	249	217	234
3057	249	218	235
3058	244	216	232
3059	244	217	233
3060	249	221	237
3061	248	222	236
3062	247	224	238
3063	249	229	242
3064	249	228	242
3065	250	228	240
3066	250	227	239
3067	249	225	239
3068	248	226	240
3069	245	225	240
3070	0	0	0
3071	0	0	0
3072	0	0	0
3073	0	0	0
3074	0	0	0
3075	0	0	0
3076	247	230	242
3077	0	0	0
3078	0	0	0
3079	0	0	0
3080	0	0	0
3081	0	0	0
3082	0	0	0
3083	0	0	0
3084	0	0	0
3085	0	0	0
3086	0	0	0
3087	0	0	0
3088	0	0	0
3089	0	0	0
3090	0	0	0
3091	0	0	0
3092	0	0	0
3093	0	0	0
3094	0	0	0
3095	0	0	0
3096	0	0	0
3097	0	0	0
3098	0	0	0
3099	0	0	0
3100	0	0	0
3101	0	0	0
3102	0	0	0
3103	0	0	0
3104	0	0	0
3105	0	0	0
3106	244	228	240
3107	0	0	0
3108	0	0	0
3109	0	0	0
3110	0	0	0
3111	0	0	0
3112	0	0	0
3113	0	0	0
3114	0	0	0
3115	0	0	0
3116	0	0	0
3117	0	0	0
3118	0	0	0
3119	0	0	0
3120	0	0	0
3121	0	0	0
3122	0	0	0
3123	0	0	0
3124	0	0	0
3125	244	235	239
3126	246	231	239
3127	248	222	236
3128	249	215	235
3129	250	211	235
3130	250	206	233
3131	255	217	242
3132	254	206	236
3133	252	200	234
3134	249	195	231
3135	252	200	234
3136	255	208	238
3137	253	201	233
3138	248	195	229
3139	255	207	237
3140	255	215	239
3141	249	213	234
3142	255	224	241
3143	255	221	239
3144	246	210	231
3145	242	208	229
3146	251	225	238
3147	247	223	236
3148	246	222	236
3149	248	225	239
3150	246	221	236
3151	251	227	241
3152	246	222	238
3153	240	218	234
3154	249	232	241
3155	249	230	240
3156	246	226	238
3157	246	227	240
3158	0	0	0
3159	0	0	0
3160	0	0	0
3161	0	0	0
3162	0	0	0
3163	0	0	0
3164	0	0	0
3165	0	0	0
3166	0	0	0
3167	0	0	0
3168	0	0	0
3169	0	0	0
3170	0	0	0
3171	0	0	0
3172	0	0	0
3173	0	0	0
3174	0	0	0
3175	0	0	0
3176	0	0	0
3177	0	0	0
3178	0	0	0
3179	0	0	0
3180	0	0	0
3181	0	0	0
3182	0	0	0
3183	0	0	0
3184	0	0	0
3185	0	0	0
3186	0	0	0
3187	0	0	0
3188	0	0	0
3189	0	0	0
3190	0	0	0
3191	0	0	0
3192	0	0	0
3193	0	0	0
3194	0	0	0
3195	0	0	0
3196	0	0	0
3197	0	0	0
3198	0	0	0
3199	0	0	0
3200	0	0	0
3201	0	0	0
3202	0	0	0
3203	0	0	0
3204	0	0	0
3205	0	0	0
3206	0	0	0
3207	0	0	0
3208	0	0	0
3209	0	0	0
3210	0	0	0
3211	0	0	0
3212	0	0	0
3213	0	0	0
3214	239	228	234
3215	241	224	234
3216	245	218	234
3217	245	211	232
3218	248	209	234
3219	249	205	234
3220	249	199	233
3221	244	188	228
3222	244	186	229
3223	241	182	226
3224	248	191	232
3225	254	199	236
3226	250	195	232
3227	246	190	228
3228	253	202	235
3229	255	210	236
3230	255	216	237
3231	255	227	243
3232	251	214	235
3233	241	203	227
3234	249	219	237
3235	255	235	245
3236	250	229	239
3237	248	227	238
3238	245	222	235
3239	243	219	234
3240	245	219	236
3241	240	214	232
3242	0	0	0
3243	249	237	243
3244	247	232	239
3245	0	0	0
3246	0	0	0
3247	0	0	0
3248	0	0	0
3249	0	0	0
3250	0	0	0
3251	0	0	0
3252	0	0	0
3253	0	0	0
3254	0	0	0
3255	0	0	0
3256	0	0	0
3257	0	0	0
3258	0	0	0
3259	0	0	0
3260	0	0	0
3261	0	0	0
3262	0	0	0
3263	0	0	0
3264	0	0	0
3265	0	0	0
3266	0	0	0
3267	0	0	0
3268	0	0	0
3269	0	0	0
3270	0	0	0
3271	0	0	0
3272	0	0	0
3273	0	0	0
3274	0	0	0
3275	0	0	0
3276	0	0	0
3277	0	0	0
3278	0	0	0
3279	0	0	0
3280	0	0	0
3281	0	0	0
3282	0	0	0
3283	0	0	0
3284	0	0	0
3285	0	0	0
3286	0	0	0
3287	0	0	0
3288	0	0	0
3289	0	0	0
3290	0	0	0
3291	0	0	0
3292	0	0	0
3293	0	0	0
3294	0	0	0
3295	0	0	0
3296	0	0	0
3297	0	0	0
3298	0	0	0
3299	0	0	0
3300	0	0	0
3301	0	0	0
3302	0	0	0
3303	0	0	0
3304	244	228	238
3305	245	221	236
3306	247	217	235
3307	251	215	238
3308	247	204	235
3309	248	198	235
3310	248	194	235
3311	247	192	235
3312	252	197	238
3313	255	207	244
3314	253	197	237
3315	249	193	233
3316	252	198	235
3317	255	210	241
3318	255	207	235
3319	255	213	237
3320	255	217	238
3321	240	201	226
3322	245	210	232
3323	255	229	244
3324	254	228	240
3325	246	221	232
3326	248	227	237
3327	243	222	233
3328	244	223	236
3329	245	223	238
3330	0	0	0
3331	0	0	0
3332	0	0	0
3333	0	0	0
3334	0	0	0
3335	0	0	0
3336	0	0	0
3337	0	0	0
3338	0	0	0
3339	0	0	0
3340	0	0	0
3341	0	0	0
3342	0	0	0
3343	0	0	0
3344	0	0	0
3345	0	0	0
3346	0	0	0
3347	0	0	0
3348	0	0	0
3349	0	0	0
3350	0	0	0
3351	0	0	0
3352	0	0	0
3353	0	0	0
3354	0	0	0
3355	0	0	0
3356	0	0	0
3357	0	0	0
3358	0	0	0
3359	0	0	0
3360	0	0	0
3361	0	0	0
3362	0	0	0
3363	0	0	0
3364	0	0	0
3365	0	0	0
3366	0	0	0
3367	0	0	0
3368	0	0	0
3369	0	0	0
3370	0	0	0
3371	0	0	0
3372	0	0	0
3373	0	0	0
3374	0	0	0
3375	0	0	0
3376	0	0	0
3377	0	0	0
3378	0	0	0
3379	0	0	0
3380	0	0	0
3381	0	0	0
3382	0	0	0
3383	0	0	0
3384	0	0	0
3385	0	0	0
3386	0	0	0
3387	0	0	0
3388	0	0	0
3389	0	0	0
3390	0	0	0
3391	0	0	0
3392	0	0	0
3393	245	231	239
3394	248	227	239
3395	250	222	238
3396	248	212	235
3397	245	201	234
3398	248	200	238
3399	247	196	237
3400	254	203	242
3401	255	208	242
3402	255	201	238
3403	251	193	234
3404	255	201	240
3405	255	206	240
3406	255	206	238
3407	254	203	234
3408	255	207	235
3409	253	210	235
3410	250	213	235
3411	253	221	239
3412	254	223	239
3413	250	221	234
3414	247	223	233
3415	249	229	237
3416	246	227	236
3417	246	228	239
3418	248	230	241
3419	245	229	239
3420	0	0	0
3421	0	0	0
3422	0	0	0
3423	0	0	0
3424	0	0	0
3425	0	0	0
3426	0	0	0
3427	0	0	0
3428	0	0	0
3429	0	0	0
3430	0	0	0
3431	0	0	0
3432	0	0	0
3433	0	0	0
3434	0	0	0
3435	0	0	0
3436	0	0	0
3437	0	0	0
3438	0	0	0
3439	0	0	0
3440	0	0	0
3441	0	0	0
3442	0	0	0
3443	0	0	0
3444	0	0	0
3445	0	0	0
3446	0	0	0
3447	0	0	0
3448	0	0	0
3449	0	0	0
3450	0	0	0
3451	0	0	0
3452	0	0	0
3453	0	0	0
3454	0	0	0
3455	0	0	0
3456	0	0	0
3457	0	0	0
3458	0	0	0
3459	0	0	0
3460	0	0	0
3461	0	0	0
3462	0	0	0
3463	0	0	0
3464	0	0	0
3465	0	0	0
3466	0	0	0
3467	0	0	0
3468	0	0	0
3469	0	0	0
3470	0	0	0
3471	0	0	0
3472	0	0	0
3473	0	0	0
3474	0	0	0
3475	0	0	0
3476	0	0	0
3477	0	0	0
3478	0	0	0
3479	0	0	0
3480	0	0	0
3481	0	0	0
3482	246	233	240
3483	251	230	241
3484	247	217	235
3485	245	207	232
3486	246	203	236
3487	245	200	237
3488	247	200	238
3489	255	210	246
3490	253	198	235
3491	250	191	231
3492	250	190	234
3493	255	199	240
3494	253	196	236
3495	252	196	234
3496	250	196	232
3497	252	200	233
3498	255	210	237
3499	254	214	237
3500	252	218	237
3501	250	217	234
3502	248	218	233
3503	245	220	232
3504	250	231	238
3505	248	229	238
3506	245	227	237
3507	244	227	237
3508	244	229	237
3509	0	0	0
3510	0	0	0
3511	0	0	0
3512	0	0	0
3513	0	0	0
3514	0	0	0
3515	0	0	0
3516	0	0	0
3517	0	0	0
3518	0	0	0
3519	0	0	0
3520	0	0	0
3521	0	0	0
3522	0	0	0
3523	0	0	0
3524	0	0	0
3525	0	0	0
3526	0	0	0
3527	0	0	0
3528	0	0	0
3529	0	0	0
3530	0	0	0
3531	0	0	0
3532	0	0	0
3533	0	0	0
3534	0	0	0
3535	0	0	0
3536	0	0	0
3537	0	0	0
3538	0	0	0
3539	0	0	0
3540	0	0	0
3541	0	0	0
3542	0	0	0
3543	0	0	0
3544	0	0	0
3545	0	0	0
3546	0	0	0
3547	0	0	0
3548	0	0	0
3549	0	0	0
3550	0	0	0
3551	0	0	0
3552	0	0	0
3553	0	0	0
3554	0	0	0
3555	0	0	0
3556	0	0	0
3557	0	0	0
3558	0	0	0
3559	0	0	0
3560	0	0	0
3561	0	0	0
3562	0	0	0
3563	0	0	0
3564	0	0	0
3565	0	0	0
3566	0	0	0
3567	0	0	0
3568	0	0	0
3569	0	0	0
3570	246	238	243
3571	249	236	242
3572	246	224	236
3573	243	211	232
3574	247	210	236
3575	247	206	235
3576	248	206	237
3577	251	206	239
3578	253	200	237
3579	249	190	232
3580	252	192	236
3581	252	191	236
3582	252	191	238
3583	250	189	236
3584	249	190	235
3585	247	189	231
3586	251	199	234
3587	254	208	237
3588	251	209	234
3589	249	212	234
3590	246	213	232
3591	244	215	232
3592	245	223	235
3593	250	233	241
3594	247	229	237
3595	244	227	235
3596	243	228	235
3597	244	230	238
3598	0	0	0
3599	0	0	0
3600	0	0	0
3601	0	0	0
3602	0	0	0
3603	0	0	0
3604	0	0	0
3605	0	0	0
3606	0	0	0
3607	0	0	0
3608	0	0	0
3609	0	0	0
3610	0	0	0
3611	0	0	0
3612	0	0	0
3613	0	0	0
3614	0	0	0
3615	0	0	0
3616	0	0	0
3617	0	0	0
3618	0	0	0
3619	0	0	0
3620	0	0	0
3621	0	0	0
3622	0	0	0
3623	0	0	0
3624	0	0	0
3625	0	0	0
3626	0	0	0
3627	0	0	0
3628	0	0	0
3629	0	0	0
3630	0	0	0
3631	0	0	0
3632	0	0	0
3633	0	0	0
3634	0	0	0
3635	0	0	0
3636	0	0	0
3637	0	0	0
3638	0	0	0
3639	0	0	0
3640	0	0	0
3641	0	0	0
3642	0	0	0
3643	0	0	0
3644	0	0	0
3645	0	0	0
3646	0	0	0
3647	0	0	0
3648	0	0	0
3649	0	0	0
3650	0	0	0
3651	0	0	0
3652	0	0	0
3653	0	0	0
3654	0	0	0
3655	0	0	0
3656	0	0	0
3657	0	0	0
3658	249	241	244
3659	248	237	243
3660	245	228	237
3661	239	214	230
3662	243	213	235
3663	248	212	238
3664	245	203	234
3665	251	206	237
3666	253	203	237
3667	253	196	235
3668	252	190	234
3669	255	192	238
3670	252	187	235
3671	252	188	237
3672	253	190	238
3673	252	191	237
3674	252	195	236
3675	253	203	237
3676	252	208	238
3677	250	209	236
3678	249	214	235
3679	245	214	233
3680	249	225	238
3681	250	232	241
3682	246	230	239
3683	243	227	235
3684	245	230	236
3685	245	232	237
3686	0	0	0
3687	0	0	0
3688	0	0	0
3689	0	0	0
3690	0	0	0
3691	0	0	0
3692	0	0	0
3693	0	0	0
3694	0	0	0
3695	0	0	0
3696	0	0	0
3697	0	0	0
3698	0	0	0
3699	0	0	0
3700	0	0	0
3701	0	0	0
3702	0	0	0
3703	0	0	0
3704	0	0	0
3705	0	0	0
3706	0	0	0
3707	0	0	0
3708	0	0	0
3709	0	0	0
3710	0	0	0
3711	0	0	0
3712	0	0	0
3713	0	0	0
3714	0	0	0
3715	0	0	0
3716	0	0	0
3717	0	0	0
3718	0	0	0
3719	0	0	0
3720	0	0	0
3721	0	0	0
3722	0	0	0
3723	0	0	0
3724	0	0	0
3725	0	0	0
3726	0	0	0
3727	0	0	0
3728	0	0	0
3729	0	0	0
3730	0	0	0
3731	0	0	0
3732	0	0	0
3733	0	0	0
3734	0	0	0
3735	0	0	0
3736	0	0	0
3737	0	0	0
3738	0	0	0
3739	0	0	0
3740	0	0	0
3741	0	0	0
3742	0	0	0
3743	0	0	0
3744	0	0	0
3745	0	0	0
3746	0	0	0
3747	245	236	240
3748	241	227	236
3749	239	219	232
3750	242	218	235
3751	246	216	239
3752	247	210	238
3753	246	202	236
3754	252	203	239
3755	255	200	239
3756	255	196	238
3757	254	189	235
3758	253	186	234
3759	249	180	230
3760	253	186	234
3761	253	188	233
3762	255	196	237
3763	255	201	238
3764	254	205	238
3765	253	209	241
3766	253	214	241
3767	251	217	239
3768	251	225	239
3769	253	235	240
3770	245	228	234
3771	242	227	235
3772	246	231	239
3773	248	235	240
3774	0	0	0
3775	0	0	0
3776	0	0	0
3777	0	0	0
3778	0	0	0
3779	0	0	0
3780	0	0	0
3781	0	0	0
3782	0	0	0
3783	0	0	0
3784	0	0	0
3785	0	0	0
3786	0	0	0
3787	0	0	0
3788	0	0	0
3789	0	0	0
3790	0	0	0
3791	0	0	0
3792	0	0	0
3793	0	0	0
3794	0	0	0
3795	0	0	0
3796	0	0	0
3797	0	0	0
3798	0	0	0
3799	0	0	0
3800	0	0	0
3801	0	0	0
3802	0	0	0
3803	0	0	0
3804	0	0	0
3805	0	0	0
3806	0	0	0
3807	0	0	0
3808	0	0	0
3809	0	0	0
3810	0	0	0
3811	0	0	0
3812	0	0	0
3813	0	0	0
3814	0	0	0
3815	0	0	0
3816	0	0	0
3817	0	0	0
3818	0	0	0
3819	0	0	0
3820	0	0	0
3821	0	0	0
3822	0	0	0
3823	0	0	0
3824	0	0	0
3825	0	0	0
3826	0	0	0
3827	0	0	0
3828	0	0	0
3829	0	0	0
3830	0	0	0
3831	0	0	0
3832	0	0	0
3833	0	0	0
3834	0	0	0
3835	0	0	0
3836	246	240	242
3837	244	232	239
3838	244	226	238
3839	249	225	241
3840	246	214	238
3841	246	208	238
3842	252	207	241
3843	255	208	245
3844	252	192	236
3845	251	187	234
3846	253	187	234
3847	252	184	233
3848	252	183	234
3849	255	188	238
3850	250	183	230
3851	254	191	234
3852	255	196	235
3853	253	200	236
3854	252	204	239
3855	250	207	238
3856	247	212	236
3857	245	218	235
3858	247	228	235
3859	0	0	0
3860	0	0	0
3861	251	237	244
3862	0	0	0
3863	0	0	0
3864	0	0	0
3865	0	0	0
3866	0	0	0
3867	0	0	0
3868	0	0	0
3869	0	0	0
3870	0	0	0
3871	0	0	0
3872	0	0	0
3873	0	0	0
3874	0	0	0
3875	0	0	0
3876	0	0	0
3877	0	0	0
3878	0	0	0
3879	0	0	0
3880	0	0	0
3881	0	0	0
3882	0	0	0
3883	0	0	0
3884	0	0	0
3885	0	0	0
3886	0	0	0
3887	0	0	0
3888	0	0	0
3889	0	0	0
3890	0	0	0
3891	0	0	0
3892	0	0	0
3893	0	0	0
3894	0	0	0
3895	0	0	0
3896	0	0	0
3897	0	0	0
3898	0	0	0
3899	0	0	0
3900	0	0	0
3901	0	0	0
3902	0	0	0
3903	0	0	0
3904	0	0	0
3905	0	0	0
3906	0	0	0
3907	0	0	0
3908	0	0	0
3909	0	0	0
3910	0	0	0
3911	0	0	0
3912	0	0	0
3913	0	0	0
3914	0	0	0
3915	0	0	0
3916	0	0	0
3917	0	0	0
3918	0	0	0
3919	0	0	0
3920	0	0	0
3921	0	0	0
3922	0	0	0
3923	0	0	0
3924	0	0	0
3925	247	244	244
3926	246	236	241
3927	247	230	240
3928	246	221	238
3929	244	210	236
3930	251	211	242
3931	255	210	246
3932	254	198	240
3933	246	182	230
3934	251	184	233
3935	253	185	235
3936	255	186	238
3937	255	185	241
3938	254	184	240
3939	249	179	233
3940	253	187	236
3941	252	191	234
3942	249	193	233
3943	247	196	234
3944	246	201	235
3945	243	206	234
3946	0	0	0
3947	0	0	0
3948	0	0	0
3949	0	0	0
3950	0	0	0
3951	0	0	0
3952	0	0	0
3953	0	0	0
3954	0	0	0
3955	0	0	0
3956	0	0	0
3957	0	0	0
3958	0	0	0
3959	0	0	0
3960	0	0	0
3961	0	0	0
3962	0	0	0
3963	0	0	0
3964	0	0	0
3965	0	0	0
3966	0	0	0
3967	0	0	0
3968	0	0	0
3969	0	0	0
3970	0	0	0
3971	0	0	0
3972	0	0	0
3973	0	0	0
3974	0	0	0
3975	0	0	0
3976	0	0	0
3977	0	0	0
3978	0	0	0
3979	0	0	0
3980	0	0	0
3981	0	0	0
3982	0	0	0
3983	0	0	0
3984	0	0	0
3985	0	0	0
3986	0	0	0
3987	0	0	0
3988	0	0	0
3989	0	0	0
3990	0	0	0
3991	0	0	0
3992	0	0	0
3993	0	0	0
3994	0	0	0
3995	0	0	0
3996	0	0	0
3997	0	0	0
3998	0	0	0
3999	0	0	0
4000	0	0	0
4001	0	0	0
4002	0	0	0
4003	0	0	0
4004	0	0	0
4005	0	0	0
4006	0	0	0
4007	0	0	0
4008	0	0	0
4009	0	0	0
4010	0	0	0
4011	0	0	0
4012	0	0	0
4013	0	0	0
4014	249	247	245
4015	246	239	242
4016	244	227	237
4017	244	218	235
4018	252	218	241
4019	255	220	248
4020	254	202	241
4021	249	189	235
4022	252	189	236
4023	255	192	240
4024	253	183	235
4025	255	184	239
4026	252	179	239
4027	251	179	239
4028	255	186	241
4029	255	194	244
4030	248	184	233
4031	243	185	231
4032	251	204	240
4033	251	210	241
4034	249	215	240
4035	248	223	241
4036	0	0	0
4037	0	0	0
4038	0	0	0
4039	0	0	0
4040	0	0	0
4041	0	0	0
4042	0	0	0
4043	0	0	0
4044	0	0	0
4045	0	0	0
4046	0	0	0
4047	0	0	0
4048	0	0	0
4049	0	0	0
4050	0	0	0
4051	0	0	0
4052	0	0	0
4053	0	0	0
4054	0	0	0
4055	0	0	0
4056	0	0	0
4057	0	0	0
4058	0	0	0
4059	0	0	0
4060	0	0	0
4061	0	0	0
4062	0	0	0
4063	0	0	0
4064	0	0	0
4065	0	0	0
4066	0	0	0
4067	0	0	0
4068	0	0	0
4069	0	0	0
4070	0	0	0
4071	0	0	0
4072	0	0	0
4073	0	0	0
4074	0	0	0
4075	0	0	0
4076	0	0	0
4077	0	0	0
4078	0	0	0
4079	0	0	0
4080	0	0	0
4081	0	0	0
4082	0	0	0
4083	0	0	0
4084	0	0	0
4085	0	0	0
4086	0	0	0
4087	0	0	0
4088	0	0	0
4089	0	0	0
4090	0	0	0
4091	0	0	0
4092	0	0	0
4093	0	0	0
4094	0	0	0
4095	0	0	0
4096	0	0	0
4097	0	0	0
4098	0	0	0
4099	0	0	0
4100	0	0	0
4101	0	0	0
4102	0	0	0
4103	252	251	248
4104	246	237	241
4105	243	226	236
4106	249	225	239
4107	255	225	243
4108	254	210	238
4109	247	192	232
4110	254	195	238
4111	255	195	240
4112	255	188	238
4113	250	179	233
4114	251	177	235
4115	248	172	234
4116	255	184	243
4117	255	191	245
4118	253	185	240
4119	243	177	234
4120	251	195	242
4121	255	212	247
4122	255	217	244
4123	253	222	242
4124	248	224	239
4125	0	0	0
4126	0	0	0
4127	0	0	0
4128	0	0	0
4129	0	0	0
4130	0	0	0
4131	0	0	0
4132	0	0	0
4133	0	0	0
4134	0	0	0
4135	0	0	0
4136	0	0	0
4137	0	0	0
4138	0	0	0
4139	0	0	0
4140	0	0	0
4141	0	0	0
4142	0	0	0
4143	0	0	0
4144	0	0	0
4145	0	0	0
4146	0	0	0
4147	0	0	0
4148	0	0	0
4149	0	0	0
4150	0	0	0
4151	0	0	0
4152	0	0	0
4153	0	0	0
4154	0	0	0
4155	0	0	0
4156	0	0	0
4157	0	0	0
4158	0	0	0
4159	0	0	0
4160	0	0	0
4161	0	0	0
4162	0	0	0
4163	0	0	0
4164	0	0	0
4165	0	0	0
4166	0	0	0
4167	0	0	0
4168	0	0	0
4169	0	0	0
4170	0	0	0
4171	0	0	0
4172	0	0	0
4173	0	0	0
4174	0	0	0
4175	0	0	0
4176	0	0	0
4177	0	0	0
4178	0	0	0
4179	0	0	0
4180	0	0	0
4181	0	0	0
4182	0	0	0
4183	0	0	0
4184	0	0	0
4185	0	0	0
4186	0	0	0
4187	0	0	0
4188	0	0	0
4189	0	0	0
4190	0	0	0
4191	0	0	0
4192	250	248	246
4193	246	235	240
4194	244	226	236
4195	247	224	237
4196	251	219	237
4197	249	205	233
4198	248	193	232
4199	255	196	240
4200	255	192	239
4201	253	185	236
4202	253	182	236
4203	253	180	237
4204	251	177	237
4205	255	188	246
4206	250	178	236
4207	243	171	231
4208	252	189	243
4209	255	209	252
4210	254	206	243
4211	250	209	238
4212	250	220	239
4213	0	0	0
4214	0	0	0
4215	0	0	0
4216	0	0	0
4217	0	0	0
4218	0	0	0
4219	0	0	0
4220	0	0	0
4221	0	0	0
4222	0	0	0
4223	0	0	0
4224	0	0	0
4225	0	0	0
4226	0	0	0
4227	0	0	0
4228	0	0	0
4229	0	0	0
4230	0	0	0
4231	0	0	0
4232	0	0	0
4233	0	0	0
4234	0	0	0
4235	0	0	0
4236	0	0	0
4237	0	0	0
4238	0	0	0
4239	0	0	0
4240	0	0	0
4241	0	0	0
4242	0	0	0
4243	0	0	0
4244	0	0	0
4245	0	0	0
4246	0	0	0
4247	0	0	0
4248	0	0	0
4249	0	0	0
4250	0	0	0
4251	0	0	0
4252	0	0	0
4253	0	0	0
4254	0	0	0
4255	0	0	0
4256	0	0	0
4257	0	0	0
4258	0	0	0
4259	0	0	0
4260	0	0	0
4261	0	0	0
4262	0	0	0
4263	0	0	0
4264	0	0	0
4265	0	0	0
4266	0	0	0
4267	0	0	0
4268	0	0	0
4269	0	0	0
4270	0	0	0
4271	0	0	0
4272	0	0	0
4273	0	0	0
4274	0	0	0
4275	0	0	0
4276	0	0	0
4277	0	0	0
4278	0	0	0
4279	0	0	0
4280	0	0	0
4281	248	244	244
4282	245	234	239
4283	243	225	235
4284	242	218	233
4285	246	214	234
4286	249	205	234
4287	248	194	235
4288	252	194	239
4289	252	189	237
4290	253	186	237
4291	253	182	235
4292	254	182	237
4293	253	178	237
4294	250	175	236
4295	241	165	228
4296	251	184	239
4297	255	200	246
4298	255	201	242
4299	248	199	237
4300	247	208	237
4301	0	0	0
4302	0	0	0
4303	0	0	0
4304	0	0	0
4305	0	0	0
4306	0	0	0
4307	0	0	0
4308	0	0	0
4309	0	0	0
4310	0	0	0
4311	0	0	0
4312	0	0	0
4313	0	0	0
4314	0	0	0
4315	0	0	0
4316	0	0	0
4317	0	0	0
4318	0	0	0
4319	0	0	0
4320	0	0	0
4321	0	0	0
4322	0	0	0
4323	0	0	0
4324	0	0	0
4325	0	0	0
4326	0	0	0
4327	0	0	0
4328	0	0	0
4329	0	0	0
4330	0	0	0
4331	0	0	0
4332	0	0	0
4333	0	0	0
4334	0	0	0
4335	0	0	0
4336	0	0	0
4337	0	0	0
4338	0	0	0
4339	0	0	0
4340	0	0	0
4341	0	0	0
4342	0	0	0
4343	0	0	0
4344	0	0	0
4345	0	0	0
4346	0	0	0
4347	0	0	0
4348	0	0	0
4349	0	0	0
4350	0	0	0
4351	0	0	0
4352	0	0	0
4353	0	0	0
4354	0	0	0
4355	0	0	0
4356	0	0	0
4357	0	0	0
4358	0	0	0
4359	0	0	0
4360	0	0	0
4361	0	0	0
4362	0	0	0
4363	0	0	0
4364	0	0	0
4365	0	0	0
4366	0	0	0
4367	0	0	0
4368	0	0	0
4369	0	0	0
4370	248	244	244
4371	244	234	239
4372	243	226	236
4373	243	220	234
4374	248	218	237
4375	251	208	237
4376	247	194	235
4377	251	193	239
4378	250	189	237
4379	252	186	237
4380	253	184	236
4381	255	184	238
4382	251	176	236
4383	248	172	235
4384	248	174	236
4385	255	193	246
4386	254	194	241
4387	250	195	237
4388	248	201	238
4389	0	0	0
4390	0	0	0
4391	0	0	0
4392	0	0	0
4393	0	0	0
4394	0	0	0
4395	0	0	0
4396	0	0	0
4397	0	0	0
4398	0	0	0
4399	0	0	0
4400	0	0	0
4401	0	0	0
4402	0	0	0
4403	0	0	0
4404	0	0	0
4405	0	0	0
4406	0	0	0
4407	0	0	0
4408	0	0	0
4409	0	0	0
4410	0	0	0
4411	0	0	0
4412	0	0	0
4413	0	0	0
4414	0	0	0
4415	0	0	0
4416	0	0	0
4417	0	0	0
4418	0	0	0
4419	0	0	0
4420	0	0	0
4421	0	0	0
4422	0	0	0
4423	0	0	0
4424	0	0	0
4425	0	0	0
4426	0	0	0
4427	0	0	0
4428	0	0	0
4429	0	0	0
4430	0	0	0
4431	0	0	0
4432	0	0	0
4433	0	0	0
4434	0	0	0
4435	0	0	0
4436	0	0	0
4437	0	0	0
4438	0	0	0
4439	0	0	0
4440	0	0	0
4441	0	0	0
4442	0	0	0
4443	0	0	0
4444	0	0	0
4445	0	0	0
4446	0	0	0
4447	0	0	0
4448	0	0	0
4449	0	0	0
4450	0	0	0
4451	0	0	0
4452	0	0	0
4453	0	0	0
4454	0	0	0
4455	0	0	0
4456	0	0	0
4457	0	0	0
4458	0	0	0
4459	248	245	244
4460	245	236	240
4461	244	228	238
4462	246	224	238
4463	251	222	240
4464	251	209	237
4465	248	195	235
4466	251	194	239
4467	251	189	238
4468	254	189	241
4469	255	186	240
4470	254	182	240
4471	250	174	237
4472	254	181	242
4473	252	182	242
4474	253	188	243
4475	250	189	241
4476	253	199	244
4477	249	204	241
4478	0	0	0
4479	0	0	0
4480	0	0	0
4481	0	0	0
4482	0	0	0
4483	0	0	0
4484	0	0	0
4485	0	0	0
4486	0	0	0
4487	0	0	0
4488	0	0	0
4489	0	0	0
4490	0	0	0
4491	0	0	0
4492	0	0	0
4493	0	0	0
4494	0	0	0
4495	0	0	0
4496	0	0	0
4497	0	0	0
4498	0	0	0
4499	0	0	0
4500	0	0	0
4501	0	0	0
4502	0	0	0
4503	0	0	0
4504	0	0	0
4505	0	0	0
4506	0	0	0
4507	0	0	0
4508	0	0	0
4509	0	0	0
4510	0	0	0
4511	0	0	0
4512	0	0	0
4513	0	0	0
4514	0	0	0
4515	0	0	0
4516	0	0	0
4517	0	0	0
4518	0	0	0
4519	0	0	0
4520	0	0	0
4521	0	0	0
4522	0	0	0
4523	0	0	0
4524	0	0	0
4525	0	0	0
4526	0	0	0
4527	0	0	0
4528	0	0	0
4529	0	0	0
4530	0	0	0
4531	0	0	0
4532	0	0	0
4533	0	0	0
4534	0	0	0
4535	0	0	0
4536	0	0	0
4537	0	0	0
4538	0	0	0
4539	0	0	0
4540	0	0	0
4541	0	0	0
4542	0	0	0
4543	0	0	0
4544	0	0	0
4545	0	0	0
4546	0	0	0
4547	0	0	0
4548	248	245	244
4549	247	236	241
4550	245	226	237
4551	247	222	237
4552	251	219	239
4553	250	206	235
4554	252	200	237
4555	255	199	241
4556	253	191	240
4557	255	191	243
4558	254	184	240
4559	253	180	240
4560	247	171	235
4561	248	176	238
4562	255	189	245
4563	255	196	248
4564	250	190	242
4565	253	199	246
4566	247	204	241
4567	0	0	0
4568	0	0	0
4569	0	0	0
4570	0	0	0
4571	0	0	0
4572	0	0	0
4573	0	0	0
4574	0	0	0
4575	0	0	0
4576	0	0	0
4577	0	0	0
4578	0	0	0
4579	0	0	0
4580	0	0	0
4581	0	0	0
4582	0	0	0
4583	0	0	0
4584	0	0	0
4585	0	0	0
4586	0	0	0
4587	0	0	0
4588	0	0	0
4589	0	0	0
4590	0	0	0
4591	0	0	0
4592	0	0	0
4593	0	0	0
4594	0	0	0
4595	0	0	0
4596	0	0	0
4597	0	0	0
4598	0	0	0
4599	0	0	0
4600	0	0	0
4601	0	0	0
4602	0	0	0
4603	0	0	0
4604	0	0	0
4605	0	0	0
4606	0	0	0
4607	0	0	0
4608	0	0	0
4609	0	0	0
4610	0	0	0
4611	0	0	0
4612	0	0	0
4613	0	0	0
4614	0	0	0
4615	0	0	0
4616	0	0	0
4617	0	0	0
4618	0	0	0
4619	0	0	0
4620	0	0	0
4621	0	0	0
4622	0	0	0
4623	0	0	0
4624	0	0	0
4625	0	0	0
4626	0	0	0
4627	0	0	0
4628	0	0	0
4629	0	0	0
4630	0	0	0
4631	0	0	0
4632	0	0	0
4633	0	0	0
4634	0	0	0
4635	0	0	0
4636	0	0	0
4637	248	245	244
4638	246	234	239
4639	244	224	234
4640	247	220	236
4641	252	218	239
4642	255	213	240
4643	255	205	238
4644	255	200	239
4645	255	193	239
4646	255	188	241
4647	253	182	241
4648	254	179	241
4649	246	169	233
4650	255	186	243
4651	255	199	249
4652	255	194	244
4653	248	188	240
4654	249	197	243
4655	0	0	0
4656	0	0	0
4657	0	0	0
4658	0	0	0
4659	0	0	0
4660	0	0	0
4661	0	0	0
4662	0	0	0
4663	0	0	0
4664	0	0	0
4665	0	0	0
4666	0	0	0
4667	0	0	0
4668	0	0	0
4669	0	0	0
4670	0	0	0
4671	0	0	0
4672	0	0	0
4673	0	0	0
4674	0	0	0
4675	0	0	0
4676	0	0	0
4677	0	0	0
4678	0	0	0
4679	0	0	0
4680	0	0	0
4681	0	0	0
4682	0	0	0
4683	0	0	0
4684	0	0	0
4685	0	0	0
4686	0	0	0
4687	0	0	0
4688	0	0	0
4689	0	0	0
4690	0	0	0
4691	0	0	0
4692	0	0	0
4693	0	0	0
4694	0	0	0
4695	0	0	0
4696	0	0	0
4697	0	0	0
4698	0	0	0
4699	0	0	0
4700	0	0	0
4701	0	0	0
4702	0	0	0
4703	0	0	0
4704	0	0	0
4705	0	0	0
4706	0	0	0
4707	0	0	0
4708	0	0	0
4709	0	0	0
4710	0	0	0
4711	0	0	0
4712	0	0	0
4713	0	0	0
4714	0	0	0
4715	0	0	0
4716	0	0	0
4717	0	0	0
4718	0	0	0
4719	0	0	0
4720	0	0	0
4721	0	0	0
4722	0	0	0
4723	0	0	0
4724	0	0	0
4725	0	0	0
4726	251	246	246
4727	246	234	239
4728	243	223	234
4729	249	221	237
4730	253	216	239
4731	255	209	239
4732	250	195	231
4733	251	190	232
4734	255	190	237
4735	254	185	239
4736	253	179	240
4737	253	177	240
4738	249	172	235
4739	255	190	245
4740	253	183	239
4741	244	177	233
4742	246	188	239
4743	244	195	241
4744	0	0	0
4745	0	0	0
4746	0	0	0
4747	0	0	0
4748	0	0	0
4749	0	0	0
4750	0	0	0
4751	0	0	0
4752	0	0	0
4753	0	0	0
4754	0	0	0
4755	0	0	0
4756	0	0	0
4757	0	0	0
4758	0	0	0
4759	0	0	0
4760	0	0	0
4761	0	0	0
4762	0	0	0
4763	0	0	0
4764	0	0	0
4765	0	0	0
4766	0	0	0
4767	0	0	0
4768	0	0	0
4769	0	0	0
4770	0	0	0
4771	0	0	0
4772	0	0	0
4773	0	0	0
4774	0	0	0
4775	0	0	0
4776	0	0	0
4777	0	0	0
4778	0	0	0
4779	0	0	0
4780	0	0	0
4781	0	0	0
4782	0	0	0
4783	0	0	0
4784	0	0	0
4785	0	0	0
4786	0	0	0
4787	0	0	0
4788	0	0	0
4789	0	0	0
4790	0	0	0
4791	0	0	0
4792	0	0	0
4793	0	0	0
4794	0	0	0
4795	0	0	0
4796	0	0	0
4797	0	0	0
4798	0	0	0
4799	0	0	0
4800	0	0	0
4801	0	0	0
4802	0	0	0
4803	0	0	0
4804	0	0	0
4805	0	0	0
4806	0	0	0
4807	0	0	0
4808	0	0	0
4809	0	0	0
4810	0	0	0
4811	0	0	0
4812	0	0	0
4813	0	0	0
4814	0	0	0
4815	251	246	246
4816	244	232	238
4817	242	222	234
4818	245	216	234
4819	248	210	235
4820	247	199	233
4821	243	186	228
4822	250	188	235
4823	253	187	238
4824	254	184	240
4825	253	179	241
4826	255	181	243
4827	253	176	237
4828	252	176	236
4829	245	170	234
4830	249	183	242
4831	247	192	245
4832	248	208	248
4833	0	0	0
4834	0	0	0
4835	0	0	0
4836	0	0	0
4837	0	0	0
4838	0	0	0
4839	0	0	0
4840	0	0	0
4841	0	0	0
4842	0	0	0
4843	0	0	0
4844	0	0	0
4845	0	0	0
4846	0	0	0
4847	0	0	0
4848	0	0	0
4849	0	0	0
4850	0	0	0
4851	0	0	0
4852	0	0	0
4853	0	0	0
4854	0	0	0
4855	0	0	0
4856	0	0	0
4857	0	0	0
4858	0	0	0
4859	0	0	0
4860	0	0	0
4861	0	0	0
4862	0	0	0
4863	0	0	0
4864	0	0	0
4865	0	0	0
4866	0	0	0
4867	0	0	0
4868	0	0	0
4869	0	0	0
4870	0	0	0
4871	0	0	0
4872	0	0	0
4873	0	0	0
4874	0	0	0
4875	0	0	0
4876	0	0	0
4877	0	0	0
4878	0	0	0
4879	0	0	0
4880	0	0	0
4881	0	0	0
4882	0	0	0
4883	0	0	0
4884	0	0	0
4885	0	0	0
4886	0	0	0
4887	0	0	0
4888	0	0	0
4889	0	0	0
4890	0	0	0
4891	0	0	0
4892	0	0	0
4893	0	0	0
4894	0	0	0
4895	0	0	0
4896	0	0	0
4897	0	0	0
4898	0	0	0
4899	0	0	0
4900	0	0	0
4901	0	0	0
4902	0	0	0
4903	0	0	0
4904	0	0	0
4905	240	226	234
4906	246	228	239
4907	245	220	237
4908	247	212	236
4909	249	203	236
4910	247	191	234
4911	251	192	240
4912	250	184	239
4913	254	182	241
4914	252	175	240
4915	254	176	242
4916	249	170	235
4917	249	170	235
4918	246	170	238
4919	249	183	245
4920	246	194	246
4921	0	0	0
4922	0	0	0
4923	0	0	0
4924	0	0	0
4925	0	0	0
4926	0	0	0
4927	0	0	0
4928	0	0	0
4929	0	0	0
4930	0	0	0
4931	0	0	0
4932	0	0	0
4933	0	0	0
4934	0	0	0
4935	0	0	0
4936	0	0	0
4937	0	0	0
4938	0	0	0
4939	0	0	0
4940	0	0	0
4941	0	0	0
4942	0	0	0
4943	0	0	0
4944	0	0	0
4945	0	0	0
4946	0	0	0
4947	0	0	0
4948	0	0	0
4949	0	0	0
4950	0	0	0
4951	0	0	0
4952	0	0	0
4953	0	0	0
4954	0	0	0
4955	0	0	0
4956	0	0	0
4957	0	0	0
4958	0	0	0
4959	0	0	0
4960	0	0	0
4961	0	0	0
4962	0	0	0
4963	0	0	0
4964	0	0	0
4965	0	0	0
4966	0	0	0
4967	0	0	0
4968	0	0	0
4969	0	0	0
4970	0	0	0
4971	0	0	0
4972	0	0	0
4973	0	0	0
4974	0	0	0
4975	0	0	0
4976	0	0	0
4977	0	0	0
4978	0	0	0
4979	0	0	0
4980	0	0	0
4981	0	0	0
4982	0	0	0
4983	0	0	0
4984	0	0	0
4985	0	0	0
4986	0	0	0
4987	0	0	0
4988	0	0	0
4989	0	0	0
4990	0	0	0
4991	0	0	0
4992	0	0	0
4993	0	0	0
4994	243	232	238
4995	249	233	243
4996	245	221	238
4997	246	214	237
4998	250	205	238
4999	248	193	236
5000	248	188	238
5001	246	180	238
5002	246	175	239
5003	244	168	236
5004	246	167	237
5005	243	161	233
5006	247	168	238
5007	242	167	236
5008	245	183	242
5009	241	193	244
5010	0	0	0
5011	0	0	0
5012	0	0	0
5013	0	0	0
5014	0	0	0
5015	0	0	0
5016	0	0	0
5017	0	0	0
5018	0	0	0
5019	0	0	0
5020	0	0	0
5021	0	0	0
5022	0	0	0
5023	0	0	0
5024	0	0	0
5025	0	0	0
5026	0	0	0
5027	0	0	0
5028	0	0	0
5029	0	0	0
5030	0	0	0
5031	0	0	0
5032	0	0	0
5033	0	0	0
5034	0	0	0
5035	0	0	0
5036	0	0	0
5037	0	0	0
5038	0	0	0
5039	0	0	0
5040	0	0	0
5041	0	0	0
5042	0	0	0
5043	0	0	0
5044	0	0	0
5045	0	0	0
5046	0	0	0
5047	0	0	0
5048	0	0	0
5049	0	0	0
5050	0	0	0
5051	0	0	0
5052	0	0	0
5053	0	0	0
5054	0	0	0
5055	0	0	0
5056	0	0	0
5057	0	0	0
5058	0	0	0
5059	0	0	0
5060	0	0	0
5061	0	0	0
5062	0	0	0
5063	0	0	0
5064	0	0	0
5065	0	0	0
5066	0	0	0
5067	0	0	0
5068	0	0	0
5069	0	0	0
5070	0	0	0
5071	0	0	0
5072	0	0	0
5073	0	0	0
5074	0	0	0
5075	0	0	0
5076	0	0	0
5077	0	0	0
5078	0	0	0
5079	0	0	0
5080	0	0	0
5081	0	0	0
5082	0	0	0
5083	0	0	0
5084	244	230	239
5085	243	220	236
5086	247	215	238
5087	249	206	238
5088	245	191	234
5089	247	187	239
5090	244	179	240
5091	238	171	237
5092	242	173	240
5093	248	175	244
5094	243	165	238
5095	247	172	242
5096	239	169	236
5097	236	181	238
5098	241	204	247
5099	0	0	0
5100	0	0	0
5101	0	0	0
5102	0	0	0
5103	0	0	0
5104	0	0	0
5105	0	0	0
5106	0	0	0
5107	0	0	0
5108	0	0	0
5109	0	0	0
5110	0	0	0
5111	0	0	0
5112	0	0	0
5113	0	0	0
5114	0	0	0
5115	0	0	0
5116	0	0	0
5117	0	0	0
5118	0	0	0
5119	0	0	0
5120	0	0	0
5121	0	0	0
5122	0	0	0
5123	0	0	0
5124	0	0	0
5125	0	0	0
5126	0	0	0
5127	0	0	0
5128	0	0	0
5129	0	0	0
5130	0	0	0
5131	0	0	0
5132	0	0	0
5133	0	0	0
5134	0	0	0
5135	0	0	0
5136	0	0	0
5137	0	0	0
5138	0	0	0
5139	0	0	0
5140	0	0	0
5141	0	0	0
5142	0	0	0
5143	0	0	0
5144	0	0	0
5145	0	0	0
5146	0	0	0
5147	0	0	0
5148	0	0	0
5149	0	0	0
5150	0	0	0
5151	0	0	0
5152	0	0	0
5153	0	0	0
5154	0	0	0
5155	0	0	0
5156	0	0	0
5157	0	0	0
5158	0	0	0
5159	0	0	0
5160	0	0	0
5161	0	0	0
5162	0	0	0
5163	0	0	0
5164	0	0	0
5165	0	0	0
5166	0	0	0
5167	0	0	0
5168	0	0	0
5169	0	0	0
5170	0	0	0
5171	0	0	0
5172	239	228	235
5173	244	230	239
5174	244	221	236
5175	247	215	238
5176	243	201	235
5177	240	186	233
5178	246	186	240
5179	243	178	241
5180	244	180	245
5181	247	182	248
5182	247	177	246
5183	241	166	238
5184	246	175	243
5185	237	172	237
5186	242	195	246
5187	246	217	250
5188	0	0	0
5189	0	0	0
5190	0	0	0
5191	0	0	0
5192	0	0	0
5193	0	0	0
5194	0	0	0
5195	0	0	0
5196	0	0	0
5197	0	0	0
5198	0	0	0
5199	0	0	0
5200	0	0	0
5201	0	0	0
5202	0	0	0
5203	0	0	0
5204	0	0	0
5205	0	0	0
5206	0	0	0
5207	0	0	0
5208	0	0	0
5209	0	0	0
5210	0	0	0
5211	0	0	0
5212	0	0	0
5213	0	0	0
5214	0	0	0
5215	0	0	0
5216	0	0	0
5217	0	0	0
5218	0	0	0
5219	0	0	0
5220	0	0	0
5221	0	0	0
5222	0	0	0
5223	0	0	0
5224	0	0	0
5225	0	0	0
5226	0	0	0
5227	0	0	0
5228	0	0	0
5229	0	0	0
5230	0	0	0
5231	0	0	0
5232	0	0	0
5233	0	0	0
5234	0	0	0
5235	0	0	0
5236	0	0	0
5237	0	0	0
5238	0	0	0
5239	0	0	0
5240	0	0	0
5241	0	0	0
5242	0	0	0
5243	0	0	0
5244	0	0	0
5245	0	0	0
5246	0	0	0
5247	0	0	0
5248	0	0	0
5249	0	0	0
5250	0	0	0
5251	0	0	0
5252	0	0	0
5253	0	0	0
5254	0	0	0
5255	0	0	0
5256	0	0	0
5257	0	0	0
5258	0	0	0
5259	0	0	0
5260	0	0	0
5261	0	0	0
5262	247	231	241
5263	244	220	237
5264	246	215	239
5265	240	200	234
5266	244	195	239
5267	252	195	247
5268	245	179	241
5269	248	182	247
5270	244	175	244
5271	240	168	239
5272	241	170	240
5273	246	178	244
5274	236	175	238
5275	243	199	247
5276	0	0	0
5277	0	0	0
5278	0	0	0
5279	0	0	0
5280	0	0	0
5281	0	0	0
5282	0	0	0
5283	0	0	0
5284	0	0	0
5285	0	0	0
5286	0	0	0
5287	0	0	0
5288	0	0	0
5289	0	0	0
5290	0	0	0
5291	0	0	0
5292	0	0	0
5293	0	0	0
5294	0	0	0
5295	0	0	0
5296	0	0	0
5297	0	0	0
5298	0	0	0
5299	0	0	0
5300	0	0	0
5301	0	0	0
5302	0	0	0
5303	0	0	0
5304	0	0	0
5305	0	0	0
5306	0	0	0
5307	0	0	0
5308	0	0	0
5309	0	0	0
5310	0	0	0
5311	0	0	0
5312	0	0	0
5313	0	0	0
5314	0	0	0
5315	0	0	0
5316	0	0	0
5317	0	0	0
5318	0	0	0
5319	0	0	0
5320	0	0	0
5321	0	0	0
5322	0	0	0
5323	0	0	0
5324	0	0	0
5325	0	0	0
5326	0	0	0
5327	0	0	0
5328	0	0	0
5329	0	0	0
5330	0	0	0
5331	0	0	0
5332	0	0	0
5333	0	0	0
5334	0	0	0
5335	0	0	0
5336	0	0	0
5337	0	0	0
5338	0	0	0
5339	0	0	0
5340	0	0	0
5341	0	0	0
5342	0	0	0
5343	0	0	0
5344	0	0	0
5345	0	0	0
5346	0	0	0
5347	0	0	0
5348	0	0	0
5349	0	0	0
5350	243	228	240
5351	247	230	244
5352	242	220	239
5353	241	214	239
5354	238	204	237
5355	241	199	239
5356	242	188	238
5357	237	173	232
5358	243	174	239
5359	240	168	238
5360	246	176	245
5361	246	178	245
5362	246	183	247
5363	236	178	240
5364	243	203	248
5365	0	0	0
5366	0	0	0
5367	0	0	0
5368	0	0	0
5369	0	0	0
5370	0	0	0
5371	0	0	0
5372	0	0	0
5373	0	0	0
5374	0	0	0
5375	0	0	0
5376	0	0	0
5377	0	0	0
5378	0	0	0
5379	0	0	0
5380	0	0	0
5381	0	0	0
5382	0	0	0
5383	0	0	0
5384	0	0	0
5385	0	0	0
5386	0	0	0
5387	0	0	0
5388	0	0	0
5389	0	0	0
5390	0	0	0
5391	0	0	0
5392	0	0	0
5393	0	0	0
5394	0	0	0
5395	0	0	0
5396	0	0	0
5397	0	0	0
5398	0	0	0
5399	0	0	0
5400	0	0	0
5401	0	0	0
5402	0	0	0
5403	0	0	0
5404	0	0	0
5405	0	0	0
5406	0	0	0
5407	0	0	0
5408	0	0	0
5409	0	0	0
5410	0	0	0
5411	0	0	0
5412	0	0	0
5413	0	0	0
5414	0	0	0
5415	0	0	0
5416	0	0	0
5417	0	0	0
5418	0	0	0
5419	0	0	0
5420	0	0	0
5421	0	0	0
5422	0	0	0
5423	0	0	0
5424	0	0	0
5425	0	0	0
5426	0	0	0
5427	0	0	0
5428	0	0	0
5429	0	0	0
5430	0	0	0
5431	0	0	0
5432	0	0	0
5433	0	0	0
5434	0	0	0
5435	0	0	0
5436	0	0	0
5437	0	0	0
5438	0	0	0
5439	0	0	0
5440	245	232	245
5441	238	220	239
5442	237	216	239
5443	233	206	236
5444	234	200	237
5445	234	190	236
5446	238	182	237
5447	252	188	248
5448	243	170	239
5449	249	177	246
5450	242	172	241
5451	239	175	241
5452	236	183	242
5453	243	207	249
5454	0	0	0
5455	0	0	0
5456	0	0	0
5457	0	0	0
5458	0	0	0
5459	0	0	0
5460	0	0	0
5461	0	0	0
5462	0	0	0
5463	0	0	0
5464	0	0	0
5465	0	0	0
5466	0	0	0
5467	0	0	0
5468	0	0	0
5469	0	0	0
5470	0	0	0
5471	0	0	0
5472	0	0	0
5473	0	0	0
5474	0	0	0
5475	0	0	0
5476	0	0	0
5477	0	0	0
5478	0	0	0
5479	0	0	0
5480	0	0	0
5481	0	0	0
5482	0	0	0
5483	0	0	0
5484	0	0	0
5485	0	0	0
5486	0	0	0
5487	0	0	0
5488	0	0	0
5489	0	0	0
5490	0	0	0
5491	0	0	0
5492	0	0	0
5493	0	0	0
5494	0	0	0
5495	0	0	0
5496	0	0	0
5497	0	0	0
5498	0	0	0
5499	0	0	0
5500	0	0	0
5501	0	0	0
5502	0	0	0
5503	0	0	0
5504	0	0	0
5505	0	0	0
5506	0	0	0
5507	0	0	0
5508	0	0	0
5509	0	0	0
5510	0	0	0
5511	0	0	0
5512	0	0	0
5513	0	0	0
5514	0	0	0
5515	0	0	0
5516	0	0	0
5517	0	0	0
5518	0	0	0
5519	0	0	0
5520	0	0	0
5521	0	0	0
5522	0	0	0
5523	0	0	0
5524	0	0	0
5525	0	0	0
5526	0	0	0
5527	0	0	0
5528	0	0	0
5529	243	233	243
5530	234	221	236
5531	233	217	237
5532	232	210	237
5533	235	206	239
5534	241	202	244
5535	245	195	246
5536	252	190	250
5537	244	171	240
5538	249	176	246
5539	241	170	242
5540	243	183	247
5541	238	190	245
5542	242	210	248
5543	0	0	0
5544	0	0	0
5545	0	0	0
5546	0	0	0
5547	0	0	0
5548	0	0	0
5549	0	0	0
5550	0	0	0
5551	0	0	0
5552	0	0	0
5553	0	0	0
5554	0	0	0
5555	0	0	0
5556	0	0	0
5557	0	0	0
5558	0	0	0
5559	0	0	0
5560	0	0	0
5561	0	0	0
5562	0	0	0
5563	0	0	0
5564	0	0	0
5565	0	0	0
5566	0	0	0
5567	0	0	0
5568	0	0	0
5569	0	0	0
5570	0	0	0
5571	0	0	0
5572	0	0	0
5573	0	0	0
5574	0	0	0
5575	0	0	0
5576	0	0	0
5577	0	0	0
5578	0	0	0
5579	0	0	0
5580	0	0	0
5581	0	0	0
5582	0	0	0
5583	0	0	0
5584	0	0	0
5585	0	0	0
5586	0	0	0
5587	0	0	0
5588	0	0	0
5589	0	0	0
5590	0	0	0
5591	0	0	0
5592	0	0	0
5593	0	0	0
5594	0	0	0
5595	0	0	0
5596	0	0	0
5597	0	0	0
5598	0	0	0
5599	0	0	0
5600	0	0	0
5601	0	0	0
5602	0	0	0
5603	0	0	0
5604	0	0	0
5605	0	0	0
5606	0	0	0
5607	0	0	0
5608	0	0	0
5609	0	0	0
5610	0	0	0
5611	0	0	0
5612	0	0	0
5613	0	0	0
5614	0	0	0
5615	0	0	0
5616	0	0	0
5617	0	0	0
5618	0	0	0
5619	231	221	234
5620	240	231	244
5621	242	226	246
5622	243	213	245
5623	252	212	252
5624	239	181	239
5625	239	172	240
5626	235	161	236
5627	243	167	243
5628	241	169	243
5629	239	180	245
5630	236	190	244
5631	0	0	0
5632	0	0	0
5633	0	0	0
5634	0	0	0
5635	0	0	0
5636	0	0	0
5637	0	0	0
5638	0	0	0
5639	0	0	0
5640	0	0	0
5641	0	0	0
5642	0	0	0
5643	0	0	0
5644	0	0	0
5645	0	0	0
5646	0	0	0
5647	0	0	0
5648	0	0	0
5649	0	0	0
5650	0	0	0
5651	0	0	0
5652	0	0	0
5653	0	0	0
5654	0	0	0
5655	0	0	0
5656	0	0	0
5657	0	0	0
5658	0	0	0
5659	0	0	0
5660	0	0	0
5661	0	0	0
5662	0	0	0
5663	0	0	0
5664	0	0	0
5665	0	0	0
5666	0	0	0
5667	0	0	0
5668	0	0	0
5669	0	0	0
5670	0	0	0
5671	0	0	0
5672	0	0	0
5673	0	0	0
5674	0	0	0
5675	0	0	0
5676	0	0	0
5677	0	0	0
5678	0	0	0
5679	0	0	0
5680	0	0	0
5681	0	0	0
5682	0	0	0
5683	0	0	0
5684	0	0	0
5685	0	0	0
5686	0	0	0
5687	0	0	0
5688	0	0	0
5689	0	0	0
5690	0	0	0
5691	0	0	0
5692	0	0	0
5693	0	0	0
5694	0	0	0
5695	0	0	0
5696	0	0	0
5697	0	0	0
5698	0	0	0
5699	0	0	0
5700	0	0	0
5701	0	0	0
5702	0	0	0
5703	0	0	0
5704	0	0	0
5705	0	0	0
5706	0	0	0
5707	0	0	0
5708	239	235	244
5709	247	244	251
5710	241	226	243
5711	242	215	243
5712	238	193	239
5713	225	163	229
5714	231	164	238
5715	228	154	235
5716	244	170	249
5717	240	170	244
5718	240	184	246
5719	238	194	246
5720	0	0	0
5721	0	0	0
5722	0	0	0
5723	0	0	0
5724	0	0	0
5725	0	0	0
5726	0	0	0
5727	0	0	0
5728	0	0	0
5729	0	0	0
5730	0	0	0
5731	0	0	0
5732	0	0	0
5733	0	0	0
5734	0	0	0
5735	0	0	0
5736	0	0	0
5737	0	0	0
5738	0	0	0
5739	0	0	0
5740	0	0	0
5741	0	0	0
5742	0	0	0
5743	0	0	0
5744	0	0	0
5745	0	0	0
5746	0	0	0
5747	0	0	0
5748	0	0	0
5749	0	0	0
5750	0	0	0
5751	0	0	0
5752	0	0	0
5753	0	0	0
5754	0	0	0
5755	0	0	0
5756	0	0	0
5757	0	0	0
5758	0	0	0
5759	0	0	0
5760	0	0	0
5761	0	0	0
5762	0	0	0
5763	0	0	0
5764	0	0	0
5765	0	0	0
5766	0	0	0
5767	0	0	0
5768	0	0	0
5769	0	0	0
5770	0	0	0
5771	0	0	0
5772	0	0	0
5773	0	0	0
5774	0	0	0
5775	0	0	0
5776	0	0	0
5777	0	0	0
5778	0	0	0
5779	0	0	0
5780	0	0	0
5781	0	0	0
5782	0	0	0
5783	0	0	0
5784	0	0	0
5785	0	0	0
5786	0	0	0
5787	0	0	0
5788	0	0	0
5789	0	0	0
5790	0	0	0
5791	0	0	0
5792	0	0	0
5793	0	0	0
5794	0	0	0
5795	0	0	0
5796	0	0	0
5797	0	0	0
5798	246	246	251
5799	238	228	242
5800	239	217	244
5801	233	195	241
5802	218	162	231
5803	225	164	242
5804	222	153	238
5805	238	169	250
5806	227	157	236
5807	231	172	240
5808	241	199	250
5809	0	0	0
5810	0	0	0
5811	0	0	0
5812	0	0	0
5813	0	0	0
5814	0	0	0
5815	0	0	0
5816	0	0	0
5817	0	0	0
5818	0	0	0
5819	0	0	0
5820	0	0	0
5821	0	0	0
5822	0	0	0
5823	0	0	0
5824	0	0	0
5825	0	0	0
5826	0	0	0
5827	0	0	0
5828	0	0	0
5829	0	0	0
5830	0	0	0
5831	0	0	0
5832	0	0	0
5833	0	0	0
5834	0	0	0
5835	0	0	0
5836	0	0	0
5837	0	0	0
5838	0	0	0
5839	0	0	0
5840	0	0	0
5841	0	0	0
5842	0	0	0
5843	0	0	0
5844	0	0	0
5845	0	0	0
5846	0	0	0
5847	0	0	0
5848	0	0	0
5849	0	0	0
5850	0	0	0
5851	0	0	0
5852	0	0	0
5853	0	0	0
5854	0	0	0
5855	0	0	0
5856	0	0	0
5857	0	0	0
5858	0	0	0
5859	0	0	0
5860	0	0	0
5861	0	0	0
5862	0	0	0
5863	0	0	0
5864	0	0	0
5865	0	0	0
5866	0	0	0
5867	0	0	0
5868	0	0	0
5869	0	0	0
5870	0	0	0
5871	0	0	0
5872	0	0	0
5873	0	0	0
5874	0	0	0
5875	0	0	0
5876	0	0	0
5877	0	0	0
5878	0	0	0
5879	0	0	0
5880	0	0	0
5881	0	0	0
5882	0	0	0
5883	0	0	0
5884	0	0	0
5885	0	0	0
5886	0	0	0
5887	247	250	252
5888	231	226	239
5889	228	214	240
5890	216	184	233
5891	201	151	225
5892	210	154	237
5893	207	143	232
5894	220	152	240
5895	210	141	227
5896	229	176	244
5897	240	202	252
5898	0	0	0
5899	0	0	0
5900	0	0	0
5901	0	0	0
5902	0	0	0
5903	0	0	0
5904	0	0	0
5905	0	0	0
5906	0	0	0
5907	0	0	0
5908	0	0	0
5909	0	0	0
5910	0	0	0
5911	0	0	0
5912	0	0	0
5913	0	0	0
5914	0	0	0
5915	0	0	0
5916	0	0	0
5917	0	0	0
5918	0	0	0
5919	0	0	0
5920	0	0	0
5921	0	0	0
5922	0	0	0
5923	0	0	0
5924	0	0	0
5925	0	0	0
5926	0	0	0
5927	0	0	0
5928	0	0	0
5929	0	0	0
5930	0	0	0
5931	0	0	0
5932	0	0	0
5933	0	0	0
5934	0	0	0
5935	0	0	0
5936	0	0	0
5937	0	0	0
5938	0	0	0
5939	0	0	0
5940	0	0	0
5941	0	0	0
5942	0	0	0
5943	0	0	0
5944	0	0	0
5945	0	0	0
5946	0	0	0
5947	0	0	0
5948	0	0	0
5949	0	0	0
5950	0	0	0
5951	0	0	0
5952	0	0	0
5953	0	0	0
5954	0	0	0
5955	0	0	0
5956	0	0	0
5957	0	0	0
5958	0	0	0
5959	0	0	0
5960	0	0	0
5961	0	0	0
5962	0	0	0
5963	0	0	0
5964	0	0	0
5965	0	0	0
5966	0	0	0
5967	0	0	0
5968	0	0	0
5969	0	0	0
5970	0	0	0
5971	0	0	0
5972	0	0	0
5973	0	0	0
5974	0	0	0
5975	0	0	0
5976	245	249	250
5977	219	221	234
5978	218	216	240
5979	205	187	233
5980	200	168	235
5981	210	172	248
5982	206	157	240
5983	221	166	249
5984	211	152	235
5985	230	187	251
5986	0	0	0
5987	0	0	0
5988	0	0	0
5989	0	0	0
5990	0	0	0
5991	0	0	0
5992	0	0	0
5993	0	0	0
5994	0	0	0
5995	0	0	0
5996	0	0	0
5997	0	0	0
5998	0	0	0
5999	0	0	0
6000	0	0	0
6001	0	0	0
6002	0	0	0
6003	0	0	0
6004	0	0	0
6005	0	0	0
6006	0	0	0
6007	0	0	0
6008	0	0	0
6009	0	0	0
6010	0	0	0
6011	0	0	0
6012	0	0	0
6013	0	0	0
6014	0	0	0
6015	0	0	0
6016	0	0	0
6017	0	0	0
6018	0	0	0
6019	0	0	0
6020	0	0	0
6021	0	0	0
6022	0	0	0
6023	0	0	0
6024	0	0	0
6025	0	0	0
6026	0	0	0
6027	0	0	0
6028	0	0	0
6029	0	0	0
6030	0	0	0
6031	0	0	0
6032	0	0	0
6033	0	0	0
6034	0	0	0
6035	0	0	0
6036	0	0	0
6037	0	0	0
6038	0	0	0
6039	0	0	0
6040	0	0	0
6041	0	0	0
6042	0	0	0
6043	0	0	0
6044	0	0	0
6045	0	0	0
6046	0	0	0
6047	0	0	0
6048	0	0	0
6049	0	0	0
6050	0	0	0
6051	0	0	0
6052	0	0	0
6053	0	0	0
6054	0	0	0
6055	0	0	0
6056	0	0	0
6057	0	0	0
6058	0	0	0
6059	0	0	0
6060	0	0	0
6061	0	0	0
6062	0	0	0
6063	0	0	0
6064	0	0	0
6065	0	0	0
6066	219	227	237
6067	215	222	243
6068	205	201	240
6069	197	181	240
6070	202	177	246
6071	198	162	239
6072	212	169	246
6073	202	155	232
6074	218	183	245
6075	0	0	0
6076	0	0	0
6077	0	0	0
6078	0	0	0
6079	0	0	0
6080	0	0	0
6081	0	0	0
6082	0	0	0
6083	0	0	0
6084	0	0	0
6085	0	0	0
6086	0	0	0
6087	0	0	0
6088	0	0	0
6089	0	0	0
6090	0	0	0
6091	0	0	0
6092	0	0	0
6093	0	0	0
6094	0	0	0
6095	0	0	0
6096	0	0	0
6097	0	0	0
6098	0	0	0
6099	0	0	0
6100	0	0	0
6101	0	0	0
6102	0	0	0
6103	0	0	0
6104	0	0	0
6105	0	0	0
6106	0	0	0
6107	0	0	0
6108	0	0	0
6109	0	0	0
6110	0	0	0
6111	0	0	0
6112	0	0	0
6113	0	0	0
6114	0	0	0
6115	0	0	0
6116	0	0	0
6117	0	0	0
6118	0	0	0
6119	0	0	0
6120	0	0	0
6121	0	0	0
6122	0	0	0
6123	0	0	0
6124	0	0	0
6125	0	0	0
6126	0	0	0
6127	0	0	0
6128	0	0	0
6129	0	0	0
6130	0	0	0
6131	0	0	0
6132	0	0	0
6133	0	0	0
6134	0	0	0
6135	0	0	0
6136	0	0	0
6137	0	0	0
6138	0	0	0
6139	0	0	0
6140	0	0	0
6141	0	0	0
6142	0	0	0
6143	0	0	0
6144	0	0	0
6145	0	0	0
6146	0	0	0
6147	0	0	0
6148	0	0	0
6149	0	0	0
6150	0	0	0
6151	0	0	0
6152	0	0	0
6153	0	0	0
6154	0	0	0
6155	0	0	0
6156	217	230	245
6157	202	206	239
6158	195	191	241
6159	199	186	246
6160	193	169	238
6161	204	175	244
6162	200	167	234
6163	0	0	0
6164	0	0	0
6165	0	0	0
6166	0	0	0
6167	0	0	0
6168	0	0	0
6169	0	0	0
6170	0	0	0
6171	0	0	0
6172	0	0	0
6173	0	0	0
6174	0	0	0
6175	0	0	0
6176	0	0	0
6177	0	0	0
6178	0	0	0
6179	0	0	0
6180	0	0	0
6181	0	0	0
6182	0	0	0
6183	0	0	0
6184	0	0	0
6185	0	0	0
6186	0	0	0
6187	0	0	0
6188	0	0	0
6189	0	0	0
6190	0	0	0
6191	0	0	0
6192	0	0	0
6193	0	0	0
6194	0	0	0
6195	0	0	0
6196	0	0	0
6197	0	0	0
6198	0	0	0
6199	0	0	0
6200	0	0	0
6201	0	0	0
6202	0	0	0
6203	0	0	0
6204	0	0	0
6205	0	0	0
6206	0	0	0
6207	0	0	0
6208	0	0	0
6209	0	0	0
6210	0	0	0
6211	0	0	0
6212	0	0	0
6213	0	0	0
6214	0	0	0
6215	0	0	0
6216	0	0	0
6217	0	0	0
6218	0	0	0
6219	0	0	0
6220	0	0	0
6221	0	0	0
6222	0	0	0
6223	0	0	0
6224	0	0	0
6225	0	0	0
6226	0	0	0
6227	0	0	0
6228	0	0	0
6229	0	0	0
6230	0	0	0
6231	0	0	0
6232	0	0	0
6233	0	0	0
6234	0	0	0
6235	0	0	0
6236	0	0	0
6237	0	0	0
6238	0	0	0
6239	0	0	0
6240	0	0	0
6241	0	0	0
6242	0	0	0
6243	0	0	0
6244	0	0	0
6245	227	243	249
6246	208	219	240
6247	200	203	243
6248	202	196	247
6249	195	178	239
6250	206	187	246
6251	202	179	237
6252	0	0	0
6253	0	0	0
6254	0	0	0
6255	0	0	0
6256	0	0	0
6257	0	0	0
6258	0	0	0
6259	0	0	0
6260	0	0	0
6261	0	0	0
6262	0	0	0
6263	0	0	0
6264	0	0	0
6265	0	0	0
6266	0	0	0
6267	0	0	0
6268	0	0	0
6269	0	0	0
6270	0	0	0
6271	0	0	0
6272	0	0	0
6273	0	0	0
6274	0	0	0
6275	0	0	0
6276	0	0	0
6277	0	0	0
6278	0	0	0
6279	0	0	0
6280	0	0	0
6281	0	0	0
6282	0	0	0
6283	0	0	0
6284	0	0	0
6285	0	0	0
6286	0	0	0
6287	0	0	0
6288	0	0	0
6289	0	0	0
6290	0	0	0
6291	0	0	0
6292	0	0	0
6293	0	0	0
6294	0	0	0
6295	0	0	0
6296	0	0	0
6297	0	0	0
6298	0	0	0
6299	0	0	0
6300	0	0	0
6301	0	0	0
6302	0	0	0
6303	0	0	0
6304	0	0	0
6305	0	0	0
6306	0	0	0
6307	0	0	0
6308	0	0	0
6309	0	0	0
6310	0	0	0
6311	0	0	0
6312	0	0	0
6313	0	0	0
6314	0	0	0
6315	0	0	0
6316	0	0	0
6317	0	0	0
6318	0	0	0
6319	0	0	0
6320	0	0	0
6321	0	0	0
6322	0	0	0
6323	0	0	0
6324	0	0	0
6325	0	0	0
6326	0	0	0
6327	0	0	0
6328	0	0	0
6329	0	0	0
6330	0	0	0
6331	0	0	0
6332	0	0	0
6333	0	0	0
6334	0	0	0
6335	207	215	233
6336	208	213	244
6337	211	206	249
6338	205	192	242
6339	213	199	249
6340	0	0	0
6341	0	0	0
6342	0	0	0
6343	0	0	0
6344	0	0	0
6345	0	0	0
6346	0	0	0
6347	0	0	0
6348	0	0	0
6349	0	0	0
6350	0	0	0
6351	0	0	0
6352	0	0	0
6353	0	0	0
6354	0	0	0
6355	0	0	0
6356	0	0	0
6357	0	0	0
6358	0	0	0
6359	0	0	0
6360	0	0	0
6361	0	0	0
6362	0	0	0
6363	0	0	0
6364	0	0	0
6365	0	0	0
6366	0	0	0
6367	0	0	0
6368	0	0	0
6369	0	0	0
6370	0	0	0
6371	0	0	0
6372	0	0	0
6373	0	0	0
6374	0	0	0
6375	0	0	0
6376	0	0	0
6377	0	0	0
6378	0	0	0
6379	0	0	0
6380	0	0	0
6381	0	0	0
6382	0	0	0
6383	0	0	0
6384	0	0	0
6385	0	0	0
6386	0	0	0
6387	0	0	0
6388	0	0	0
6389	0	0	0
6390	0	0	0
6391	0	0	0
6392	0	0	0
6393	0	0	0
6394	0	0	0
6395	0	0	0
6396	0	0	0
6397	0	0	0
6398	0	0	0
6399	0	0	0
6400	0	0	0
6401	0	0	0
6402	0	0	0
6403	0	0	0
6404	0	0	0
6405	0	0	0
6406	0	0	0
6407	0	0	0
6408	0	0	0
6409	0	0	0
6410	0	0	0
6411	0	0	0
6412	0	0	0
6413	0	0	0
6414	0	0	0
6415	0	0	0
6416	0	0	0
6417	0	0	0
6418	0	0	0
6419	0	0	0
6420	0	0	0
6421	0	0	0
6422	0	0	0
6423	0	0	0
6424	0	0	0
6425	223	227	250
6426	224	221	254
6427	217	205	246
6428	222	210	251
6429	0	0	0
6430	0	0	0
6431	0	0	0
6432	0	0	0
6433	0	0	0
6434	0	0	0
6435	0	0	0
6436	0	0	0
6437	0	0	0
6438	0	0	0
6439	0	0	0
6440	0	0	0
6441	0	0	0
6442	0	0	0
6443	0	0	0
6444	0	0	0
6445	0	0	0
6446	0	0	0
6447	0	0	0
6448	0	0	0
6449	0	0	0
6450	0	0	0
6451	0	0	0
6452	0	0	0
6453	0	0	0
6454	0	0	0
6455	0	0	0
6456	0	0	0
6457	0	0	0
6458	0	0	0
6459	0	0	0
6460	0	0	0
6461	0	0	0
6462	0	0	0
6463	0	0	0
6464	0	0	0
6465	0	0	0
6466	0	0	0
6467	0	0	0
6468	0	0	0
6469	0	0	0
6470	0	0	0
6471	0	0	0
6472	0	0	0
6473	0	0	0
6474	0	0	0
6475	0	0	0
6476	0	0	0
6477	0	0	0
6478	0	0	0
6479	0	0	0
6480	0	0	0
6481	0	0	0
6482	0	0	0
6483	0	0	0
6484	0	0	0
6485	0	0	0
6486	0	0	0
6487	0	0	0
6488	0	0	0
6489	0	0	0
6490	0	0	0
6491	0	0	0
6492	0	0	0
6493	0	0	0
6494	0	0	0
6495	0	0	0
6496	0	0	0
6497	0	0	0
6498	0	0	0
6499	0	0	0
6500	0	0	0
6501	0	0	0
6502	0	0	0
6503	0	0	0
6504	0	0	0
6505	0	0	0
6506	0	0	0
6507	0	0	0
6508	0	0	0
6509	0	0	0
6510	0	0	0
6511	0	0	0
6512	0	0	0
6513	0	0	0
6514	239	239	255
6515	235	230	255
6516	221	209	244
6517	0	0	0
6518	0	0	0
6519	0	0	0
6520	0	0	0
6521	0	0	0
6522	0	0	0
6523	0	0	0
6524	0	0	0
6525	0	0	0
6526	0	0	0
6527	0	0	0
6528	0	0	0
6529	0	0	0
6530	0	0	0
6531	0	0	0
6532	0	0	0
6533	0	0	0
6534	0	0	0
6535	0	0	0
6536	0	0	0
6537	0	0	0
6538	0	0	0
6539	0	0	0
6540	0	0	0
6541	0	0	0
6542	0	0	0
6543	0	0	0
6544	0	0	0
6545	0	0	0
6546	0	0	0
6547	0	0	0
6548	0	0	0
6549	0	0	0
6550	0	0	0
6551	0	0	0
6552	0	0	0
6553	0	0	0
6554	0	0	0
6555	0	0	0
6556	0	0	0
6557	0	0	0
6558	0	0	0
6559	0	0	0
6560	0	0	0
6561	0	0	0
6562	0	0	0
6563	0	0	0
6564	0	0	0
6565	0	0	0
6566	0	0	0
6567	0	0	0
6568	0	0	0
6569	0	0	0
6570	0	0	0
6571	0	0	0
6572	0	0	0
6573	0	0	0
6574	0	0	0
6575	0	0	0
6576	0	0	0
6577	0	0	0
6578	0	0	0
6579	0	0	0
6580	0	0	0
6581	0	0	0
6582	0	0	0
6583	0	0	0
6584	0	0	0
6585	0	0	0
6586	0	0	0
6587	0	0	0
6588	0	0	0
6589	0	0	0
6590	0	0	0
6591	0	0	0
6592	0	0	0
6593	0	0	0
6594	0	0	0
6595	0	0	0
6596	0	0	0
6597	0	0	0
6598	0	0	0
6599	0	0	0
6600	0	0	0
6601	0	0	0
6602	0	0	0
6603	0	0	0
6604	238	234	252
6605	0	0	0
6606	0	0	0
6607	0	0	0
6608	0	0	0
6609	0	0	0
6610	0	0	0
6611	0	0	0
6612	0	0	0
6613	0	0	0
6614	0	0	0
6615	0	0	0
6616	0	0	0
6617	0	0	0
6618	0	0	0
6619	0	0	0
6620	0	0	0
6621	0	0	0
6622	0	0	0
6623	0	0	0
6624	0	0	0
6625	0	0	0
6626	0	0	0
6627	0	0	0
6628	0	0	0
6629	0	0	0
6630	0	0	0
6631	0	0	0
6632	0	0	0
6633	0	0	0
6634	0	0	0
6635	0	0	0
6636	0	0	0
6637	0	0	0
6638	0	0	0
6639	0	0	0
6640	0	0	0
6641	0	0	0
6642	0	0	0
6643	0	0	0
6644	0	0	0
6645	0	0	0
6646	0	0	0
6647	0	0	0
6648	0	0	0
6649	0	0	0
6650	0	0	0
6651	0	0	0
6652	0	0	0
6653	0	0	0
6654	0	0	0
6655	0	0	0
6656	0	0	0
6657	0	0	0
6658	0	0	0
6659	0	0	0
6660	0	0	0
6661	0	0	0
6662	0	0	0
6663	0	0	0
6664	0	0	0
6665	0	0	0
6666	0	0	0
6667	0	0	0
6668	0	0	0
6669	0	0	0
6670	0	0	0
6671	0	0	0
6672	0	0	0
6673	0	0	0
6674	0	0	0
6675	0	0	0
