 	R	G	B
1	0	0	0
2	0	0	0
3	0	0	0
4	0	0	0
5	0	0	0
6	0	0	0
7	0	0	0
8	0	0	0
9	0	0	0
10	0	0	0
11	0	0	0
12	0	0	0
13	0	0	0
14	0	0	0
15	0	0	0
16	0	0	0
17	0	0	0
18	0	0	0
19	0	0	0
20	0	0	0
21	0	0	0
22	0	0	0
23	255	227	239
24	255	221	236
25	0	0	0
26	0	0	0
27	0	0	0
28	0	0	0
29	0	0	0
30	0	0	0
31	0	0	0
32	0	0	0
33	0	0	0
34	250	237	241
35	0	0	0
36	0	0	0
37	0	0	0
38	0	0	0
39	0	0	0
40	0	0	0
41	0	0	0
42	0	0	0
43	0	0	0
44	0	0	0
45	0	0	0
46	0	0	0
47	0	0	0
48	0	0	0
49	0	0	0
50	0	0	0
51	0	0	0
52	0	0	0
53	0	0	0
54	0	0	0
55	0	0	0
56	0	0	0
57	0	0	0
58	0	0	0
59	0	0	0
60	0	0	0
61	0	0	0
62	255	219	236
63	255	213	231
64	252	206	228
65	251	204	230
66	0	0	0
67	0	0	0
68	0	0	0
69	0	0	0
70	0	0	0
71	0	0	0
72	0	0	0
73	252	231	240
74	252	233	239
75	248	231	238
76	0	0	0
77	0	0	0
78	0	0	0
79	0	0	0
80	0	0	0
81	0	0	0
82	0	0	0
83	0	0	0
84	0	0	0
85	0	0	0
86	0	0	0
87	0	0	0
88	246	227	232
89	243	222	231
90	0	0	0
91	253	230	238
92	0	0	0
93	0	0	0
94	251	212	227
95	252	211	227
96	253	209	227
97	252	206	226
98	253	207	227
99	255	208	229
100	255	208	228
101	255	206	227
102	254	202	224
103	250	196	220
104	249	194	222
105	247	192	224
106	252	202	231
107	254	208	230
108	253	212	230
109	254	216	232
110	253	217	233
111	252	218	235
112	255	224	238
113	255	227	237
114	251	225	234
115	246	224	233
116	249	234	239
117	0	0	0
118	0	0	0
119	0	0	0
120	0	0	0
121	0	0	0
122	0	0	0
123	0	0	0
124	0	0	0
125	0	0	0
126	0	0	0
127	251	229	235
128	246	223	230
129	241	216	227
130	245	220	230
131	253	226	236
132	255	219	232
133	250	206	223
134	253	207	225
135	252	203	224
136	254	202	225
137	252	197	223
138	254	199	225
139	254	199	224
140	253	197	223
141	255	200	224
142	252	194	221
143	253	195	222
144	253	194	224
145	251	193	226
146	255	202	232
147	253	202	228
148	255	207	230
149	252	205	228
150	251	206	228
151	253	211	232
152	255	216	235
153	252	216	231
154	247	214	228
155	247	220	231
156	249	230	237
157	249	236	239
158	0	0	0
159	0	0	0
160	0	0	0
161	0	0	0
162	0	0	0
163	0	0	0
164	0	0	0
165	249	225	233
166	249	225	233
167	250	225	233
168	245	218	228
169	241	211	225
170	246	215	229
171	254	222	233
172	251	210	226
173	247	198	217
174	249	196	219
175	250	194	222
176	253	193	225
177	251	189	223
178	253	191	224
179	253	191	224
180	253	191	224
181	254	193	224
182	254	193	223
183	254	193	223
184	254	193	224
185	252	191	225
186	252	194	228
187	251	195	228
188	252	196	228
189	249	193	226
190	250	198	227
191	251	202	229
192	251	204	228
193	249	205	226
194	250	212	229
195	250	218	232
196	250	224	235
197	250	231	238
198	249	236	240
199	0	0	0
200	0	0	0
201	0	0	0
202	0	0	0
203	0	0	0
204	254	232	237
205	246	218	229
206	239	214	225
207	245	221	230
208	246	217	229
209	246	212	227
210	251	217	232
211	251	213	230
212	245	200	221
213	247	196	220
214	253	197	223
215	255	194	225
216	255	193	227
217	249	181	221
218	251	183	223
219	255	190	227
220	255	190	226
221	255	193	227
222	255	193	225
223	251	186	220
224	251	185	220
225	255	198	230
226	255	201	233
227	252	190	226
228	252	191	227
229	253	194	229
230	253	198	230
231	253	202	230
232	253	204	229
233	253	206	229
234	255	214	233
235	254	216	232
236	254	223	235
237	253	226	237
238	255	233	240
239	251	234	239
240	0	0	0
241	0	0	0
242	0	0	0
243	250	233	237
244	251	224	232
245	242	210	224
246	238	212	225
247	243	219	229
248	246	215	228
249	248	210	227
250	248	207	227
251	248	203	227
252	247	199	226
253	250	196	227
254	254	194	227
255	254	189	223
256	249	181	218
257	243	170	214
258	251	181	223
259	255	187	226
260	255	190	227
261	255	193	228
262	255	186	222
263	250	180	218
264	255	192	225
265	255	203	233
266	255	193	225
267	249	182	219
268	254	189	224
269	254	192	226
270	255	197	228
271	255	201	230
272	255	205	232
273	255	207	230
274	255	210	230
275	255	212	229
276	253	214	230
277	251	217	230
278	248	218	230
279	0	0	0
280	0	0	0
281	0	0	0
282	0	0	0
283	0	0	0
284	249	218	230
285	242	209	225
286	241	213	227
287	248	221	232
288	250	216	230
289	252	213	230
290	253	210	230
291	252	204	229
292	253	200	230
293	251	192	227
294	252	189	225
295	255	191	225
296	252	182	220
297	249	175	218
298	255	186	228
299	254	182	225
300	255	184	226
301	254	182	223
302	249	175	217
303	254	183	221
304	255	194	228
305	255	190	225
306	250	180	218
307	249	178	217
308	253	184	222
309	254	188	224
310	255	193	226
311	253	192	226
312	254	196	228
313	253	198	227
314	253	201	226
315	255	208	229
316	254	211	230
317	252	216	230
318	243	214	227
319	0	0	0
320	0	0	0
321	0	0	0
322	0	0	0
323	0	0	0
324	0	0	0
325	239	206	223
326	244	214	229
327	252	223	235
328	254	218	232
329	255	214	230
330	252	206	226
331	251	200	224
332	250	193	223
333	248	185	220
334	253	188	224
335	255	191	225
336	255	184	221
337	251	177	220
338	253	177	223
339	250	173	221
340	249	172	221
341	247	169	219
342	252	177	222
343	255	184	223
344	252	179	219
345	251	177	219
346	249	175	219
347	247	172	217
348	249	177	220
349	250	180	221
350	249	181	221
351	247	180	220
352	249	186	223
353	249	188	224
354	252	197	228
355	254	204	231
356	254	209	231
357	253	214	232
358	249	218	233
359	0	0	0
360	0	0	0
361	0	0	0
362	0	0	0
363	0	0	0
364	0	0	0
365	238	210	226
366	253	224	237
367	251	216	232
368	249	209	228
369	255	213	230
370	250	204	225
371	247	193	221
372	248	188	220
373	251	187	221
374	255	189	223
375	255	189	223
376	255	183	221
377	251	175	219
378	253	176	222
379	253	175	223
380	252	174	223
381	252	175	225
382	255	183	229
383	255	184	225
384	253	179	219
385	252	177	220
386	251	176	221
387	253	179	224
388	254	183	226
389	255	187	227
390	254	188	226
391	254	188	227
392	255	194	231
393	251	190	227
394	254	198	231
395	251	199	230
396	248	203	229
397	254	215	235
398	255	224	240
399	249	214	230
400	0	0	0
401	0	0	0
402	0	0	0
403	0	0	0
404	241	219	232
405	243	218	231
406	249	215	231
407	248	208	229
408	249	208	229
409	253	211	230
410	246	197	223
411	244	188	222
412	251	190	225
413	252	187	221
414	252	185	219
415	254	185	220
416	253	180	219
417	251	173	218
418	255	177	223
419	254	176	222
420	255	177	224
421	255	179	229
422	255	181	229
423	255	181	224
424	253	177	219
425	251	175	218
426	254	179	222
427	255	182	226
428	255	186	227
429	255	189	225
430	255	189	224
431	255	191	228
432	255	190	229
433	249	186	224
434	249	190	226
435	246	192	227
436	248	202	231
437	255	214	236
438	251	208	230
439	240	197	220
440	0	0	0
441	0	0	0
442	0	0	0
443	246	219	232
444	244	216	231
445	244	213	229
446	246	209	228
447	248	207	228
448	246	206	227
449	251	210	229
450	248	198	224
451	250	194	227
452	254	194	229
453	253	190	223
454	253	188	221
455	254	186	221
456	254	181	221
457	251	172	219
458	255	176	223
459	249	168	217
460	250	169	219
461	255	177	227
462	255	179	227
463	255	179	224
464	252	175	220
465	252	176	219
466	254	180	222
467	253	180	224
468	254	184	224
469	255	195	228
470	255	195	227
471	255	189	227
472	254	189	227
473	251	188	225
474	252	194	227
475	254	200	231
476	255	211	236
477	255	216	237
478	252	208	230
479	247	205	226
480	0	0	0
481	0	0	0
482	0	0	0
483	0	0	0
484	238	207	224
485	238	205	225
486	245	207	227
487	245	204	224
488	244	204	223
489	249	208	227
490	250	201	224
491	251	195	224
492	252	193	225
493	251	189	222
494	251	186	221
495	252	183	221
496	251	177	219
497	247	167	216
498	247	165	216
499	242	158	212
500	248	166	218
501	252	173	221
502	251	173	220
503	252	175	222
504	253	176	223
505	252	176	222
506	253	179	223
507	251	178	221
508	255	191	228
509	255	203	233
510	255	195	227
511	254	189	225
512	255	191	228
513	252	190	224
514	254	197	226
515	254	203	227
516	252	205	227
517	254	211	230
518	255	211	231
519	252	210	229
520	254	217	233
521	0	0	0
522	0	0	0
523	0	0	0
524	0	0	0
525	241	212	230
526	246	213	231
527	244	206	224
528	248	208	226
529	250	208	227
530	247	199	222
531	253	201	226
532	255	199	226
533	255	196	226
534	255	193	225
535	255	190	227
536	255	183	225
537	248	170	217
538	248	167	217
539	253	174	222
540	255	182	228
541	254	177	222
542	254	178	222
543	255	181	225
544	255	182	226
545	255	182	226
546	255	184	226
547	254	182	222
548	255	195	230
549	255	189	225
550	250	181	219
551	254	189	225
552	255	191	227
553	248	186	221
554	249	192	221
555	255	207	227
556	252	209	226
557	251	208	228
558	254	211	231
559	255	214	233
560	255	223	238
561	0	0	0
562	0	0	0
563	249	226	237
564	248	223	235
565	248	221	236
566	247	215	232
567	245	209	227
568	246	207	226
569	248	205	227
570	249	205	227
571	253	207	228
572	254	203	226
573	255	200	224
574	255	196	224
575	255	193	228
576	252	181	223
577	244	168	216
578	253	178	223
579	255	184	224
580	255	183	223
581	255	180	223
582	255	184	226
583	255	186	224
584	255	185	222
585	255	186	224
586	255	186	225
587	254	184	221
588	251	180	219
589	246	175	218
590	249	181	222
591	252	187	224
592	250	185	222
593	244	182	219
594	252	198	227
595	255	211	229
596	248	205	223
597	249	207	229
598	255	213	236
599	255	217	236
600	0	0	0
601	0	0	0
602	249	227	238
603	248	221	234
604	248	218	233
605	247	214	231
606	242	206	226
607	246	211	228
608	245	208	226
609	246	208	228
610	245	206	226
611	247	207	226
612	247	202	222
613	251	201	222
614	254	199	224
615	254	192	226
616	247	179	220
617	248	178	221
618	255	189	228
619	255	185	221
620	255	183	220
621	252	177	220
622	255	183	224
623	254	181	219
624	252	181	217
625	254	184	222
626	255	184	223
627	252	182	220
628	250	178	219
629	252	184	225
630	252	188	228
631	253	192	227
632	251	191	224
633	251	194	226
634	255	210	235
635	255	210	229
636	246	204	223
637	0	0	0
638	255	224	243
639	0	0	0
640	0	0	0
641	0	0	0
642	243	219	231
643	243	213	230
644	244	211	230
645	242	207	227
646	245	211	229
647	249	215	232
648	249	214	230
649	249	213	231
650	246	211	228
651	248	211	227
652	249	207	225
653	252	206	226
654	251	198	224
655	250	191	224
656	251	190	226
657	252	189	227
658	252	187	225
659	250	182	217
660	248	177	213
661	244	171	212
662	247	174	216
663	247	175	215
664	249	178	218
665	252	181	221
666	251	181	222
667	250	179	221
668	254	186	226
669	254	190	228
670	251	192	228
671	251	196	228
672	252	199	227
673	252	201	227
674	253	205	228
675	250	206	227
676	251	212	230
677	0	0	0
678	0	0	0
679	0	0	0
680	0	0	0
681	241	225	232
682	244	223	233
683	234	203	223
684	234	201	224
685	238	206	227
686	243	211	230
687	244	209	229
688	246	209	228
689	249	211	229
690	245	208	225
691	250	212	228
692	252	209	226
693	254	208	227
694	247	197	221
695	251	199	226
696	255	200	230
697	255	199	230
698	254	195	226
699	254	194	222
700	253	189	220
701	249	183	218
702	251	186	221
703	255	190	224
704	255	194	228
705	253	184	223
706	252	183	223
707	254	187	227
708	255	194	231
709	252	189	227
710	248	191	225
711	247	196	227
712	246	198	226
713	249	205	227
714	250	209	229
715	248	207	229
716	251	215	233
717	0	0	0
718	0	0	0
719	0	0	0
720	0	0	0
721	0	0	0
722	235	211	225
723	224	192	216
724	234	202	226
725	239	206	229
726	240	206	228
727	240	204	228
728	244	207	230
729	245	208	228
730	245	209	226
731	250	214	228
732	251	211	227
733	252	210	227
734	250	208	226
735	254	209	229
736	255	210	231
737	255	208	229
738	253	203	225
739	254	203	226
740	253	198	224
741	250	191	221
742	254	196	224
743	255	199	225
744	253	190	219
745	246	181	215
746	251	187	222
747	253	191	226
748	253	191	227
749	247	188	224
750	248	195	228
751	248	200	230
752	248	206	231
753	250	213	233
754	248	211	231
755	246	209	231
756	249	216	234
757	0	0	0
758	0	0	0
759	0	0	0
760	0	0	0
761	0	0	0
762	0	0	0
763	238	211	229
764	252	223	241
765	241	205	230
766	238	202	228
767	239	204	230
768	239	205	229
769	241	209	228
770	244	211	228
771	245	211	226
772	243	206	222
773	244	207	223
774	245	206	223
775	249	209	226
776	251	208	226
777	245	200	218
778	238	194	213
779	249	209	226
780	252	205	226
781	251	198	223
782	255	204	227
783	255	201	223
784	250	192	217
785	251	193	220
786	255	200	228
787	249	191	224
788	246	190	224
789	244	190	225
790	250	200	233
791	245	199	230
792	244	203	230
793	247	212	232
794	245	210	230
795	245	211	232
796	0	0	0
797	0	0	0
798	0	0	0
799	0	0	0
800	0	0	0
801	0	0	0
802	0	0	0
803	248	226	238
804	244	214	234
805	234	197	226
806	238	203	231
807	237	203	229
808	236	205	228
809	239	209	229
810	242	210	228
811	242	209	225
812	241	208	223
813	243	209	223
814	245	210	225
815	250	213	229
816	250	209	227
817	244	201	219
818	246	210	224
819	255	223	234
820	255	217	232
821	255	211	230
822	255	211	231
823	255	209	228
824	255	208	228
825	255	209	231
826	254	201	228
827	247	193	224
828	248	196	229
829	247	196	231
830	246	198	233
831	240	196	228
832	238	201	227
833	241	209	229
834	242	210	229
835	243	212	231
836	0	0	0
837	0	0	0
838	0	0	0
839	0	0	0
840	0	0	0
841	0	0	0
842	0	0	0
843	245	223	233
844	236	208	227
845	234	202	228
846	243	211	236
847	239	207	231
848	237	209	229
849	244	217	234
850	247	218	233
851	244	212	227
852	243	211	225
853	241	208	223
854	244	209	225
855	248	212	228
856	250	209	227
857	247	203	221
858	251	212	227
859	254	215	228
860	250	206	223
861	254	208	226
862	255	209	228
863	253	199	222
864	251	198	222
865	251	200	224
866	244	192	220
867	249	198	227
868	255	203	234
869	246	194	230
870	240	193	229
871	238	199	229
872	236	204	228
873	241	215	231
874	243	217	231
875	243	216	232
876	252	225	238
877	0	0	0
878	0	0	0
879	0	0	0
880	0	0	0
881	0	0	0
882	0	0	0
883	244	222	232
884	239	214	229
885	237	208	229
886	244	213	236
887	240	210	232
888	241	216	233
889	247	224	236
890	248	220	232
891	246	215	228
892	244	212	226
893	243	209	225
894	245	210	226
895	249	212	228
896	251	209	227
897	248	203	222
898	248	206	223
899	249	207	224
900	246	203	220
901	250	204	222
902	250	198	221
903	246	190	218
904	247	193	221
905	246	194	221
906	245	197	223
907	249	202	228
908	249	198	228
909	240	188	224
910	240	196	229
911	239	203	231
912	242	213	234
913	248	225	238
914	246	222	234
915	246	221	234
916	251	223	235
917	251	222	232
918	246	216	227
919	0	0	0
920	0	0	0
921	0	0	0
922	0	0	0
923	248	226	234
924	243	218	230
925	241	213	231
926	246	218	237
927	235	205	227
928	234	210	227
929	239	217	228
930	243	214	226
931	249	217	230
932	249	215	230
933	245	208	225
934	247	209	226
935	249	210	227
936	247	205	224
937	251	209	226
938	252	212	228
939	245	204	222
940	239	198	217
941	250	211	227
942	254	207	227
943	249	196	223
944	249	199	226
945	247	199	225
946	245	201	226
947	243	199	225
948	241	193	223
949	239	193	225
950	242	203	231
951	244	211	234
952	252	224	241
953	247	217	233
954	241	213	228
955	241	212	227
956	244	213	228
957	248	218	229
958	241	211	224
959	244	214	228
960	0	0	0
961	0	0	0
962	0	0	0
963	0	0	0
964	248	224	233
965	245	218	232
966	241	212	230
967	231	200	223
968	232	206	225
969	236	213	226
970	242	215	226
971	248	217	229
972	245	210	225
973	242	204	222
974	246	206	225
975	247	207	226
976	250	210	227
977	253	213	229
978	249	208	225
979	242	200	221
980	244	207	226
981	254	220	235
982	252	209	229
983	246	198	222
984	247	201	225
985	246	202	227
986	242	199	226
987	240	197	225
988	241	199	227
989	238	198	226
990	241	207	230
991	246	215	233
992	246	213	231
993	241	207	226
994	238	205	224
995	238	205	224
996	246	212	230
997	249	217	232
998	245	215	230
999	246	216	232
1000	247	216	232
1001	0	0	0
1002	0	0	0
1003	249	226	233
1004	246	220	230
1005	242	214	230
1006	236	206	226
1007	235	207	227
1008	241	216	232
1009	239	214	227
1010	239	212	225
1011	242	214	226
1012	239	208	222
1013	243	209	225
1014	248	213	229
1015	244	205	224
1016	247	208	226
1017	253	215	229
1018	249	209	226
1019	244	202	223
1020	248	210	230
1021	250	215	232
1022	241	201	221
1023	245	205	224
1024	249	209	229
1025	243	202	226
1026	242	201	227
1027	243	204	229
1028	241	204	229
1029	241	206	228
1030	245	216	232
1031	246	216	232
1032	247	214	231
1033	241	205	225
1034	240	205	225
1035	244	209	230
1036	252	217	236
1037	251	215	234
1038	247	213	232
1039	246	215	232
1040	0	0	0
1041	0	0	0
1042	0	0	0
1043	0	0	0
1044	242	215	230
1045	238	210	230
1046	236	210	230
1047	236	210	227
1048	240	213	228
1049	239	211	224
1050	238	212	224
1051	240	214	225
1052	241	213	225
1053	244	214	227
1054	242	208	224
1055	238	201	220
1056	246	209	226
1057	250	215	228
1058	243	206	222
1059	239	200	222
1060	246	208	228
1061	247	211	228
1062	244	210	225
1063	247	214	229
1064	244	208	226
1065	239	200	223
1066	245	207	229
1067	247	211	232
1068	248	215	233
1069	248	217	232
1070	246	216	230
1071	248	218	232
1072	248	213	231
1073	243	204	226
1074	246	209	230
1075	249	213	234
1076	251	213	235
1077	249	210	234
1078	247	212	233
1079	245	214	231
1080	0	0	0
1081	0	0	0
1082	0	0	0
1083	0	0	0
1084	235	212	227
1085	239	219	234
1086	239	220	234
1087	241	220	232
1088	249	224	235
1089	242	213	226
1090	240	213	225
1091	239	212	225
1092	238	211	225
1093	239	211	224
1094	236	204	220
1095	239	205	223
1096	247	214	230
1097	243	211	224
1098	230	199	215
1099	239	209	226
1100	254	220	236
1101	247	210	227
1102	239	207	222
1103	242	213	226
1104	240	207	223
1105	243	208	226
1106	248	215	231
1107	245	210	228
1108	251	216	232
1109	248	214	228
1110	245	212	227
1111	249	216	231
1112	251	212	232
1113	245	201	227
1114	248	206	231
1115	252	212	235
1116	250	210	233
1117	246	207	232
1118	244	209	231
1119	0	0	0
1120	0	0	0
1121	0	0	0
1122	0	0	0
1123	237	217	227
1124	244	226	234
1125	248	232	238
1126	246	230	237
1127	249	231	239
1128	249	224	235
1129	243	213	225
1130	243	214	226
1131	243	214	229
1132	242	213	229
1133	242	213	226
1134	243	213	226
1135	245	213	229
1136	248	214	231
1137	243	211	226
1138	238	212	225
1139	246	221	232
1140	254	220	234
1141	248	211	227
1142	243	211	226
1143	245	217	229
1144	248	218	230
1145	249	218	230
1146	245	213	227
1147	243	210	225
1148	248	212	227
1149	247	210	226
1150	246	211	226
1151	250	214	229
1152	249	206	227
1153	245	197	226
1154	250	205	233
1155	252	210	232
1156	249	208	230
1157	244	205	230
1158	0	0	0
1159	0	0	0
1160	0	0	0
1161	0	0	0
1162	0	0	0
1163	242	226	233
1164	255	238	242
1165	247	223	231
1166	244	221	230
1167	248	226	235
1168	243	216	229
1169	243	213	226
1170	249	217	230
1171	248	214	232
1172	248	214	232
1173	250	215	230
1174	251	215	230
1175	248	211	229
1176	248	210	230
1177	247	213	230
1178	244	215	229
1179	248	219	232
1180	253	216	232
1181	246	205	224
1182	243	207	224
1183	251	220	233
1184	252	220	232
1185	245	211	224
1186	237	204	218
1187	246	216	227
1188	251	219	230
1189	248	210	226
1190	251	213	229
1191	250	210	227
1192	245	200	223
1193	248	202	230
1194	255	211	238
1195	251	207	231
1196	248	205	229
1197	243	205	229
1198	0	0	0
1199	0	0	0
1200	0	0	0
1201	0	0	0
1202	0	0	0
1203	0	0	0
1204	248	227	234
1205	240	213	224
1206	243	217	228
1207	247	222	233
1208	245	218	231
1209	245	215	228
1210	246	212	228
1211	246	209	230
1212	247	210	231
1213	247	211	228
1214	244	206	224
1215	243	203	224
1216	248	210	230
1217	248	213	230
1218	244	213	228
1219	249	218	233
1220	250	211	229
1221	243	199	221
1222	247	210	227
1223	254	223	235
1224	248	214	228
1225	239	204	219
1226	244	213	224
1227	253	225	232
1228	251	217	228
1229	248	210	226
1230	249	208	227
1231	248	205	225
1232	247	204	226
1233	249	205	231
1234	251	206	233
1235	248	203	229
1236	248	206	232
1237	243	205	231
1238	246	218	237
1239	0	0	0
1240	0	0	0
1241	0	0	0
1242	0	0	0
1243	0	0	0
1244	0	0	0
1245	0	0	0
1246	249	226	235
1247	245	218	232
1248	243	214	230
1249	243	212	228
1250	242	208	227
1251	246	213	233
1252	244	213	232
1253	240	209	226
1254	0	0	0
1255	244	213	229
1256	254	223	237
1257	244	209	226
1258	240	209	225
1259	244	213	230
1260	245	206	227
1261	245	204	224
1262	252	216	231
1263	255	222	235
1264	244	211	226
1265	239	206	221
1266	248	218	229
1267	252	221	230
1268	249	212	225
1269	248	208	225
1270	248	206	226
1271	246	203	225
1272	245	202	225
1273	250	209	231
1274	252	209	233
1275	250	207	231
1276	249	209	233
1277	248	212	235
1278	255	227	244
1279	249	224	237
1280	0	0	0
1281	0	0	0
1282	0	0	0
1283	0	0	0
1284	0	0	0
1285	0	0	0
1286	0	0	0
1287	241	212	227
1288	238	209	227
1289	238	208	227
1290	246	215	233
1291	249	219	235
1292	242	214	230
1293	0	0	0
1294	0	0	0
1295	0	0	0
1296	249	216	229
1297	240	203	220
1298	236	203	220
1299	241	208	226
1300	249	211	230
1301	250	210	228
1302	254	217	232
1303	255	223	236
1304	248	216	229
1305	244	211	226
1306	246	213	228
1307	250	217	228
1308	248	210	224
1309	247	206	223
1310	248	205	226
1311	247	203	226
1312	250	208	231
1313	253	212	232
1314	252	211	230
1315	249	208	227
1316	250	213	231
1317	249	215	234
1318	247	215	234
1319	241	213	231
1320	0	0	0
1321	0	0	0
1322	0	0	0
1323	0	0	0
1324	0	0	0
1325	0	0	0
1326	0	0	0
1327	0	0	0
1328	0	0	0
1329	0	0	0
1330	0	0	0
1331	247	216	232
1332	0	0	0
1333	0	0	0
1334	0	0	0
1335	0	0	0
1336	0	0	0
1337	0	0	0
1338	243	211	225
1339	247	214	230
1340	0	0	0
1341	252	210	229
1342	253	216	232
1343	249	212	228
1344	245	207	225
1345	247	212	229
1346	245	212	228
1347	249	216	229
1348	248	210	226
1349	251	210	227
1350	253	210	229
1351	250	205	227
1352	253	210	231
1353	253	213	230
1354	248	209	226
1355	246	207	225
1356	250	214	230
1357	250	217	233
1358	243	215	232
1359	238	215	231
1360	0	0	0
1361	0	0	0
1362	0	0	0
1363	0	0	0
1364	0	0	0
1365	0	0	0
1366	0	0	0
1367	0	0	0
1368	0	0	0
1369	0	0	0
1370	0	0	0
1371	0	0	0
1372	0	0	0
1373	0	0	0
1374	0	0	0
1375	0	0	0
1376	0	0	0
1377	0	0	0
1378	0	0	0
1379	0	0	0
1380	0	0	0
1381	0	0	0
1382	245	203	222
1383	242	200	221
1384	247	207	227
1385	250	212	231
1386	250	215	232
1387	253	218	233
1388	251	214	230
1389	253	213	231
1390	252	210	228
1391	247	203	222
1392	250	208	224
1393	251	212	227
1394	249	211	227
1395	248	211	228
1396	254	218	235
1397	252	220	236
1398	247	221	236
1399	240	220	234
1400	0	0	0
1401	0	0	0
1402	0	0	0
1403	0	0	0
1404	0	0	0
1405	0	0	0
1406	0	0	0
1407	0	0	0
1408	0	0	0
1409	0	0	0
1410	0	0	0
1411	0	0	0
1412	0	0	0
1413	0	0	0
1414	0	0	0
1415	0	0	0
1416	0	0	0
1417	0	0	0
1418	0	0	0
1419	0	0	0
1420	0	0	0
1421	0	0	0
1422	0	0	0
1423	251	211	229
1424	255	217	234
1425	252	211	231
1426	255	215	234
1427	253	213	232
1428	247	207	226
1429	253	216	232
1430	250	210	228
1431	247	207	222
1432	250	212	225
1433	251	213	227
1434	253	215	230
1435	252	213	231
1436	255	219	237
1437	246	210	230
1438	240	211	230
1439	240	219	233
1440	0	0	0
1441	0	0	0
1442	0	0	0
1443	0	0	0
1444	0	0	0
1445	0	0	0
1446	0	0	0
1447	0	0	0
1448	0	0	0
1449	0	0	0
1450	0	0	0
1451	0	0	0
1452	0	0	0
1453	0	0	0
1454	0	0	0
1455	0	0	0
1456	0	0	0
1457	0	0	0
1458	0	0	0
1459	0	0	0
1460	0	0	0
1461	0	0	0
1462	0	0	0
1463	255	218	232
1464	252	212	228
1465	248	205	225
1466	249	206	227
1467	248	205	226
1468	249	210	228
1469	254	219	233
1470	253	217	231
1471	251	215	229
1472	252	216	230
1473	254	217	231
1474	254	216	231
1475	252	213	230
1476	245	206	227
1477	236	198	223
1478	241	211	233
1479	242	220	236
1480	0	0	0
1481	0	0	0
1482	0	0	0
1483	0	0	0
1484	0	0	0
1485	0	0	0
1486	0	0	0
1487	0	0	0
1488	0	0	0
1489	0	0	0
1490	0	0	0
1491	0	0	0
1492	0	0	0
1493	0	0	0
1494	0	0	0
1495	0	0	0
1496	0	0	0
1497	0	0	0
1498	0	0	0
1499	0	0	0
1500	0	0	0
1501	0	0	0
1502	0	0	0
1503	252	216	231
1504	250	211	228
1505	244	202	224
1506	0	0	0
1507	250	214	231
1508	254	221	235
1509	250	214	229
1510	249	213	228
1511	248	210	228
1512	252	213	230
1513	253	215	231
1514	253	213	230
1515	249	211	229
1516	237	201	223
1517	242	212	233
1518	254	229	246
1519	248	227	241
1520	0	0	0
1521	0	0	0
1522	0	0	0
1523	0	0	0
1524	0	0	0
1525	0	0	0
1526	0	0	0
1527	0	0	0
1528	0	0	0
1529	0	0	0
1530	0	0	0
1531	0	0	0
1532	0	0	0
1533	0	0	0
1534	0	0	0
1535	0	0	0
1536	0	0	0
1537	0	0	0
1538	0	0	0
1539	0	0	0
1540	0	0	0
1541	0	0	0
1542	0	0	0
1543	0	0	0
1544	245	207	228
1545	0	0	0
1546	0	0	0
1547	0	0	0
1548	0	0	0
1549	242	207	225
1550	242	206	225
1551	243	204	224
1552	249	209	229
1553	252	212	231
1554	251	211	232
1555	246	209	230
1556	246	217	235
1557	250	227	242
1558	254	231	244
1559	0	0	0
1560	0	0	0
1561	0	0	0
1562	0	0	0
1563	0	0	0
1564	0	0	0
1565	0	0	0
1566	0	0	0
1567	0	0	0
1568	0	0	0
1569	0	0	0
1570	0	0	0
1571	0	0	0
1572	0	0	0
1573	0	0	0
1574	0	0	0
1575	0	0	0
1576	0	0	0
1577	0	0	0
1578	0	0	0
1579	0	0	0
1580	0	0	0
1581	0	0	0
1582	0	0	0
1583	0	0	0
1584	0	0	0
1585	0	0	0
1586	0	0	0
1587	0	0	0
1588	0	0	0
1589	0	0	0
1590	0	0	0
1591	0	0	0
1592	255	219	236
1593	250	210	232
1594	245	208	231
1595	246	214	234
1596	249	224	240
1597	245	222	236
1598	0	0	0
1599	0	0	0
1600	0	0	0
1601	0	0	0
1602	0	0	0
1603	0	0	0
1604	0	0	0
1605	0	0	0
1606	0	0	0
1607	0	0	0
1608	0	0	0
1609	0	0	0
1610	0	0	0
1611	0	0	0
1612	0	0	0
1613	0	0	0
1614	0	0	0
1615	0	0	0
1616	0	0	0
1617	0	0	0
1618	0	0	0
1619	0	0	0
1620	0	0	0
1621	0	0	0
1622	0	0	0
1623	0	0	0
1624	0	0	0
1625	0	0	0
1626	0	0	0
1627	0	0	0
1628	0	0	0
1629	0	0	0
1630	0	0	0
1631	0	0	0
1632	0	0	0
1633	243	205	229
1634	244	212	233
1635	244	217	236
1636	241	217	233
1637	0	0	0
1638	0	0	0
1639	0	0	0
1640	0	0	0
