 	R	G	B
1	0	0	0
2	0	0	0
3	0	0	0
4	0	0	0
5	0	0	0
6	0	0	0
7	0	0	0
8	255	217	230
9	0	0	0
10	0	0	0
11	0	0	0
12	0	0	0
13	0	0	0
14	0	0	0
15	0	0	0
16	0	0	0
17	0	0	0
18	0	0	0
19	0	0	0
20	0	0	0
21	0	0	0
22	0	0	0
23	0	0	0
24	0	0	0
25	0	0	0
26	0	0	0
27	0	0	0
28	0	0	0
29	0	0	0
30	0	0	0
31	0	0	0
32	0	0	0
33	0	0	0
34	0	0	0
35	0	0	0
36	0	0	0
37	0	0	0
38	0	0	0
39	0	0	0
40	0	0	0
41	0	0	0
42	0	0	0
43	0	0	0
44	0	0	0
45	0	0	0
46	0	0	0
47	0	0	0
48	0	0	0
49	0	0	0
50	0	0	0
51	0	0	0
52	0	0	0
53	0	0	0
54	255	206	226
55	255	214	231
56	244	191	215
57	0	0	0
58	0	0	0
59	0	0	0
60	0	0	0
61	0	0	0
62	0	0	0
63	0	0	0
64	0	0	0
65	0	0	0
66	0	0	0
67	0	0	0
68	0	0	0
69	0	0	0
70	0	0	0
71	0	0	0
72	0	0	0
73	0	0	0
74	0	0	0
75	0	0	0
76	0	0	0
77	0	0	0
78	0	0	0
79	0	0	0
80	0	0	0
81	0	0	0
82	0	0	0
83	0	0	0
84	0	0	0
85	0	0	0
86	0	0	0
87	0	0	0
88	0	0	0
89	0	0	0
90	0	0	0
91	0	0	0
92	0	0	0
93	0	0	0
94	0	0	0
95	0	0	0
96	0	0	0
97	0	0	0
98	0	0	0
99	0	0	0
100	0	0	0
101	255	201	223
102	249	188	216
103	234	167	205
104	253	194	225
105	0	0	0
106	0	0	0
107	0	0	0
108	0	0	0
109	0	0	0
110	0	0	0
111	0	0	0
112	0	0	0
113	0	0	0
114	0	0	0
115	0	0	0
116	0	0	0
117	0	0	0
118	0	0	0
119	0	0	0
120	0	0	0
121	0	0	0
122	0	0	0
123	0	0	0
124	0	0	0
125	0	0	0
126	0	0	0
127	0	0	0
128	0	0	0
129	0	0	0
130	0	0	0
131	0	0	0
132	0	0	0
133	0	0	0
134	0	0	0
135	0	0	0
136	0	0	0
137	0	0	0
138	0	0	0
139	0	0	0
140	0	0	0
141	0	0	0
142	0	0	0
143	0	0	0
144	0	0	0
145	0	0	0
146	0	0	0
147	255	201	232
148	255	192	224
149	250	180	217
150	238	161	209
151	255	189	229
152	253	188	223
153	0	0	0
154	0	0	0
155	0	0	0
156	0	0	0
157	0	0	0
158	0	0	0
159	0	0	0
160	0	0	0
161	0	0	0
162	0	0	0
163	0	0	0
164	0	0	0
165	0	0	0
166	0	0	0
167	0	0	0
168	0	0	0
169	0	0	0
170	0	0	0
171	0	0	0
172	0	0	0
173	0	0	0
174	0	0	0
175	0	0	0
176	0	0	0
177	0	0	0
178	0	0	0
179	0	0	0
180	0	0	0
181	0	0	0
182	0	0	0
183	0	0	0
184	0	0	0
185	0	0	0
186	0	0	0
187	0	0	0
188	0	0	0
189	0	0	0
190	0	0	0
191	0	0	0
192	0	0	0
193	0	0	0
194	252	186	226
195	252	180	223
196	246	168	217
197	235	149	206
198	246	163	218
199	243	164	216
200	251	177	221
201	252	185	218
202	254	192	215
203	255	200	214
204	255	209	218
205	255	219	226
206	255	227	229
207	255	236	230
208	255	235	227
209	0	0	0
210	0	0	0
211	0	0	0
212	0	0	0
213	0	0	0
214	0	0	0
215	0	0	0
216	0	0	0
217	0	0	0
218	0	0	0
219	0	0	0
220	0	0	0
221	0	0	0
222	0	0	0
223	0	0	0
224	0	0	0
225	0	0	0
226	0	0	0
227	0	0	0
228	0	0	0
229	0	0	0
230	0	0	0
231	0	0	0
232	0	0	0
233	0	0	0
234	0	0	0
235	0	0	0
236	0	0	0
237	0	0	0
238	0	0	0
239	0	0	0
240	251	187	227
241	255	185	230
242	252	174	226
243	248	163	221
244	247	159	220
245	255	174	231
246	247	157	220
247	255	172	227
248	254	173	221
249	255	181	219
250	254	182	213
251	255	189	215
252	253	188	215
253	255	196	217
254	255	204	217
255	255	202	213
256	255	204	214
257	0	0	0
258	0	0	0
259	0	0	0
260	0	0	0
261	0	0	0
262	0	0	0
263	0	0	0
264	0	0	0
265	0	0	0
266	0	0	0
267	0	0	0
268	0	0	0
269	0	0	0
270	0	0	0
271	0	0	0
272	0	0	0
273	0	0	0
274	0	0	0
275	0	0	0
276	0	0	0
277	0	0	0
278	0	0	0
279	0	0	0
280	0	0	0
281	0	0	0
282	0	0	0
283	0	0	0
284	0	0	0
285	0	0	0
286	0	0	0
287	247	179	226
288	249	173	227
289	246	162	222
290	252	165	227
291	252	161	225
292	249	153	221
293	238	138	210
294	246	149	217
295	247	152	215
296	250	158	216
297	249	160	213
298	245	159	209
299	242	157	207
300	246	167	210
301	249	175	209
302	248	176	206
303	247	178	207
304	254	191	214
305	255	205	222
306	255	207	221
307	255	210	220
308	255	216	223
309	0	0	0
310	0	0	0
311	0	0	0
312	0	0	0
313	0	0	0
314	0	0	0
315	0	0	0
316	0	0	0
317	0	0	0
318	0	0	0
319	0	0	0
320	0	0	0
321	0	0	0
322	0	0	0
323	0	0	0
324	0	0	0
325	0	0	0
326	0	0	0
327	0	0	0
328	0	0	0
329	0	0	0
330	0	0	0
331	0	0	0
332	0	0	0
333	0	0	0
334	255	190	236
335	255	185	238
336	248	163	226
337	255	166	231
338	253	159	226
339	251	151	222
340	248	145	218
341	255	158	228
342	251	147	220
343	255	154	223
344	250	150	218
345	248	150	215
346	255	163	223
347	255	174	226
348	253	165	215
349	252	167	212
350	249	165	209
351	255	178	215
352	255	189	220
353	255	190	217
354	249	183	208
355	249	188	210
356	254	202	219
357	0	0	0
358	0	0	0
359	0	0	0
360	0	0	0
361	0	0	0
362	0	0	0
363	0	0	0
364	0	0	0
365	0	0	0
366	0	0	0
367	0	0	0
368	0	0	0
369	0	0	0
370	0	0	0
371	0	0	0
372	0	0	0
373	0	0	0
374	0	0	0
375	0	0	0
376	0	0	0
377	0	0	0
378	0	0	0
379	0	0	0
380	0	0	0
381	255	195	238
382	255	179	234
383	245	158	223
384	249	156	225
385	248	150	221
386	250	148	221
387	249	143	218
388	251	141	219
389	244	131	213
390	246	134	215
391	243	130	211
392	252	146	219
393	255	160	226
394	255	155	220
395	250	149	213
396	251	151	212
397	246	148	209
398	252	160	214
399	255	172	219
400	250	166	212
401	243	160	204
402	251	177	213
403	253	188	216
404	255	208	224
405	0	0	0
406	0	0	0
407	0	0	0
408	0	0	0
409	0	0	0
410	0	0	0
411	0	0	0
412	0	0	0
413	0	0	0
414	0	0	0
415	0	0	0
416	0	0	0
417	0	0	0
418	0	0	0
419	0	0	0
420	0	0	0
421	0	0	0
422	0	0	0
423	0	0	0
424	0	0	0
425	0	0	0
426	0	0	0
427	0	0	0
428	255	197	237
429	255	181	234
430	245	158	223
431	250	158	226
432	255	161	230
433	255	161	231
434	251	142	220
435	254	141	222
436	246	128	216
437	250	132	219
438	252	136	221
439	255	152	230
440	255	145	222
441	253	141	217
442	249	135	213
443	250	138	215
444	250	140	214
445	255	152	220
446	255	159	222
447	251	154	215
448	249	155	213
449	255	172	220
450	246	166	210
451	252	185	215
452	255	202	218
453	0	0	0
454	0	0	0
455	0	0	0
456	0	0	0
457	0	0	0
458	0	0	0
459	0	0	0
460	0	0	0
461	0	0	0
462	0	0	0
463	0	0	0
464	0	0	0
465	0	0	0
466	0	0	0
467	0	0	0
468	0	0	0
469	0	0	0
470	0	0	0
471	0	0	0
472	0	0	0
473	0	0	0
474	255	202	230
475	255	197	234
476	252	178	227
477	243	156	219
478	255	166	231
479	255	170	236
480	255	155	229
481	249	137	218
482	248	130	217
483	242	119	212
484	251	129	221
485	254	133	222
486	251	129	218
487	247	123	213
488	245	120	210
489	241	114	207
490	248	124	215
491	248	127	214
492	253	137	220
493	255	144	223
494	254	146	222
495	251	147	218
496	248	148	215
497	238	143	206
498	248	167	215
499	251	184	217
500	255	210	224
501	0	0	0
502	0	0	0
503	0	0	0
504	0	0	0
505	0	0	0
506	0	0	0
507	0	0	0
508	0	0	0
509	0	0	0
510	0	0	0
511	0	0	0
512	0	0	0
513	0	0	0
514	0	0	0
515	0	0	0
516	0	0	0
517	0	0	0
518	0	0	0
519	0	0	0
520	255	214	231
521	255	207	232
522	255	197	231
523	251	178	224
524	251	168	225
525	255	178	238
526	255	161	231
527	253	146	224
528	246	130	216
529	246	124	216
530	254	132	224
531	255	143	233
532	251	125	219
533	250	122	217
534	255	130	224
535	255	127	222
536	250	119	218
537	255	128	225
538	249	118	216
539	254	128	222
540	252	128	220
541	251	131	219
542	254	140	222
543	251	142	219
544	245	141	215
545	254	164	224
546	252	174	220
547	255	199	226
548	255	215	225
549	0	0	0
550	0	0	0
551	0	0	0
552	0	0	0
553	0	0	0
554	0	0	0
555	0	0	0
556	0	0	0
557	0	0	0
558	0	0	0
559	0	0	0
560	0	0	0
561	0	0	0
562	0	0	0
563	0	0	0
564	0	0	0
565	0	0	0
566	0	0	0
567	255	218	231
568	255	205	228
569	255	196	228
570	255	188	230
571	255	179	230
572	255	166	229
573	250	149	223
574	247	137	220
575	241	122	214
576	254	134	225
577	255	141	232
578	255	129	224
579	243	111	211
580	252	121	218
581	255	131	228
582	255	123	224
583	251	114	219
584	248	109	215
585	240	99	208
586	243	105	210
587	240	105	206
588	248	118	214
589	252	128	220
590	252	134	222
591	246	133	216
592	252	150	222
593	250	161	219
594	253	177	220
595	255	192	219
596	255	209	222
597	0	0	0
598	0	0	0
599	0	0	0
600	0	0	0
601	0	0	0
602	0	0	0
603	0	0	0
604	0	0	0
605	0	0	0
606	0	0	0
607	0	0	0
608	0	0	0
609	0	0	0
610	0	0	0
611	0	0	0
612	0	0	0
613	0	0	0
614	255	223	234
615	255	211	230
616	255	197	229
617	255	190	232
618	254	175	227
619	253	162	226
620	248	146	222
621	246	135	220
622	251	136	224
623	255	148	235
624	255	133	228
625	251	122	220
626	248	114	215
627	255	125	224
628	255	128	228
629	255	120	224
630	251	110	218
631	249	106	215
632	254	113	220
633	255	120	223
634	251	112	215
635	255	125	223
636	253	121	221
637	253	127	223
638	246	125	215
639	253	144	222
640	255	162	226
641	255	178	229
642	248	172	215
643	252	189	217
644	255	215	226
645	0	0	0
646	0	0	0
647	0	0	0
648	0	0	0
649	0	0	0
650	0	0	0
651	0	0	0
652	0	0	0
653	0	0	0
654	0	0	0
655	0	0	0
656	0	0	0
657	0	0	0
658	0	0	0
659	0	0	0
660	0	0	0
661	255	228	237
662	255	212	232
663	255	199	232
664	253	185	230
665	249	168	224
666	247	155	222
667	244	141	220
668	253	146	228
669	255	145	227
670	255	135	223
671	250	123	219
672	254	123	224
673	253	118	220
674	255	122	224
675	255	124	226
676	255	115	221
677	251	107	216
678	255	117	224
679	255	124	227
680	255	120	223
681	255	113	218
682	254	113	218
683	249	109	215
684	249	115	216
685	243	114	209
686	255	139	221
687	255	157	226
688	252	155	219
689	241	151	211
690	251	177	219
691	255	200	221
692	255	211	218
693	0	0	0
694	0	0	0
695	0	0	0
696	0	0	0
697	0	0	0
698	0	0	0
699	0	0	0
700	0	0	0
701	0	0	0
702	0	0	0
703	0	0	0
704	0	0	0
705	0	0	0
706	0	0	0
707	0	0	0
708	255	231	238
709	255	215	233
710	255	202	233
711	254	187	230
712	254	176	228
713	252	163	226
714	252	154	227
715	255	159	235
716	255	145	226
717	255	136	223
718	250	121	220
719	255	123	226
720	250	110	218
721	255	115	222
722	254	110	219
723	250	102	214
724	251	102	215
725	255	113	222
726	255	105	215
727	252	101	212
728	250	101	213
729	250	102	214
730	254	110	218
731	255	116	219
732	246	111	211
733	255	136	224
734	251	134	216
735	243	133	210
736	251	154	223
737	255	181	232
738	255	186	219
739	255	196	214
740	255	213	220
741	0	0	0
742	0	0	0
743	0	0	0
744	0	0	0
745	0	0	0
746	0	0	0
747	0	0	0
748	0	0	0
749	0	0	0
750	0	0	0
751	0	0	0
752	0	0	0
753	0	0	0
754	0	0	0
755	255	237	243
756	255	219	236
757	255	205	231
758	255	193	229
759	255	183	229
760	255	174	229
761	255	165	229
762	255	155	228
763	253	142	224
764	249	129	220
765	245	114	217
766	247	110	219
767	242	98	212
768	245	98	214
769	245	94	212
770	249	96	214
771	250	96	214
772	250	94	212
773	245	87	207
774	246	88	208
775	245	88	208
776	253	100	216
777	255	108	218
778	252	108	215
779	246	104	212
780	245	109	212
781	237	107	204
782	250	133	218
783	255	155	229
784	255	167	229
785	254	173	219
786	255	186	218
787	255	203	223
788	255	214	222
789	0	0	0
790	0	0	0
791	0	0	0
792	0	0	0
793	0	0	0
794	0	0	0
795	0	0	0
796	0	0	0
797	0	0	0
798	0	0	0
799	0	0	0
800	0	0	0
801	0	0	0
802	255	227	237
803	254	209	228
804	252	197	225
805	250	185	222
806	255	183	227
807	255	174	227
808	255	164	226
809	255	154	225
810	254	144	224
811	251	132	223
812	255	130	228
813	255	126	230
814	248	105	219
815	252	105	222
816	254	104	222
817	255	108	225
818	251	94	215
819	251	92	214
820	251	91	213
821	252	93	215
822	254	95	216
823	255	107	222
824	248	93	209
825	246	93	208
826	255	110	219
827	254	116	221
828	249	116	216
829	255	142	230
830	255	143	227
831	255	154	227
832	249	155	216
833	251	170	216
834	255	191	223
835	255	201	221
836	255	215	221
837	0	0	0
838	0	0	0
839	0	0	0
840	0	0	0
841	0	0	0
842	0	0	0
843	0	0	0
844	0	0	0
845	0	0	0
846	0	0	0
847	0	0	0
848	255	229	234
849	254	217	229
850	250	204	225
851	250	193	225
852	254	189	228
853	255	186	231
854	255	176	229
855	255	166	226
856	255	155	224
857	253	145	223
858	255	143	228
859	255	142	234
860	255	126	229
861	248	106	219
862	254	109	224
863	255	109	225
864	252	98	218
865	245	85	209
866	251	90	213
867	252	90	213
868	255	95	217
869	255	97	218
870	249	88	211
871	238	75	199
872	251	96	212
873	255	113	221
874	255	117	221
875	254	118	218
876	252	123	219
877	247	124	217
878	245	131	217
879	239	134	209
880	247	156	215
881	254	176	219
882	255	190	219
883	255	205	220
884	255	219	223
885	0	0	0
886	0	0	0
887	0	0	0
888	0	0	0
889	0	0	0
890	0	0	0
891	0	0	0
892	0	0	0
893	0	0	0
894	255	244	242
895	255	231	236
896	252	214	229
897	248	201	225
898	255	203	233
899	255	198	236
900	253	180	228
901	251	170	225
902	255	168	228
903	255	158	227
904	249	141	221
905	254	139	226
906	255	140	231
907	254	124	225
908	244	102	216
909	252	107	222
910	255	114	227
911	255	103	221
912	248	89	213
913	254	94	218
914	251	87	213
915	255	92	216
916	252	89	213
917	246	81	207
918	250	88	211
919	255	109	224
920	250	97	212
921	250	102	212
922	254	114	217
923	253	119	219
924	249	121	218
925	249	130	220
926	254	146	224
927	255	169	231
928	255	170	222
929	255	184	222
930	254	187	216
931	255	201	220
932	255	207	221
933	0	0	0
934	0	0	0
935	0	0	0
936	0	0	0
937	0	0	0
938	0	0	0
939	0	0	0
940	0	0	0
941	0	0	0
942	249	223	231
943	244	207	226
944	250	206	230
945	255	206	233
946	249	187	225
947	243	170	219
948	249	169	224
949	254	168	229
950	250	153	224
951	244	136	220
952	251	137	226
953	255	137	228
954	248	118	219
955	239	98	211
956	253	110	224
957	255	116	229
958	254	102	220
959	248	89	214
960	249	87	214
961	244	79	208
962	246	80	208
963	244	78	207
964	251	88	213
965	255	95	217
966	250	89	212
967	239	78	203
968	249	96	214
969	253	108	218
970	251	112	217
971	248	115	216
972	255	135	225
973	255	151	230
974	255	154	224
975	250	156	217
976	248	161	213
977	245	166	211
978	246	174	213
979	246	181	215
980	251	195	220
981	255	210	224
982	255	215	223
983	255	225	230
984	255	231	230
985	255	239	231
986	255	242	233
987	0	0	0
988	0	0	0
989	0	0	0
990	250	222	235
991	255	222	240
992	255	213	235
993	250	194	226
994	253	189	230
995	255	188	236
996	255	177	234
997	254	161	230
998	249	146	227
999	255	147	234
1000	255	140	231
1001	249	122	222
1002	248	112	221
1003	255	124	233
1004	253	107	222
1005	246	94	214
1006	252	97	220
1007	253	95	220
1008	248	85	212
1009	250	87	213
1010	253	91	216
1011	255	101	223
1012	255	94	217
1013	250	89	213
1014	247	87	212
1015	255	105	224
1016	248	97	215
1017	246	102	214
1018	252	118	220
1019	255	137	229
1020	253	137	223
1021	249	140	219
1022	255	158	224
1023	255	164	222
1024	253	169	222
1025	255	177	224
1026	252	180	222
1027	255	193	227
1028	255	197	222
1029	253	202	220
1030	253	208	222
1031	252	213	222
1032	255	229	229
1033	255	232	230
1034	255	236	234
1035	0	0	0
1036	255	240	243
1037	255	241	247
1038	255	231	243
1039	255	221	239
1040	255	212	237
1041	255	207	240
1042	255	194	237
1043	255	182	235
1044	254	167	232
1045	250	152	229
1046	253	148	233
1047	254	141	232
1048	254	132	229
1049	252	122	226
1050	248	109	221
1051	240	93	212
1052	246	97	217
1053	252	100	221
1054	250	94	217
1055	244	84	210
1056	252	93	216
1057	255	98	220
1058	253	94	217
1059	248	88	213
1060	249	89	214
1061	245	85	209
1062	240	83	207
1063	232	77	202
1064	243	97	215
1065	249	113	221
1066	246	116	218
1067	240	117	213
1068	249	136	221
1069	255	154	226
1070	253	157	222
1071	252	162	221
1072	249	165	218
1073	246	167	215
1074	247	173	216
1075	246	179	214
1076	245	184	213
1077	244	189	211
1078	250	204	218
1079	255	220	227
1080	254	221	226
1081	253	224	227
1082	0	0	0
1083	0	0	0
1084	255	231	239
1085	253	219	232
1086	255	216	233
1087	255	207	231
1088	255	203	233
1089	255	190	230
1090	255	181	230
1091	250	166	227
1092	255	166	234
1093	255	161	237
1094	254	145	233
1095	253	137	231
1096	253	130	229
1097	249	117	224
1098	248	110	223
1099	255	115	228
1100	255	112	227
1101	254	105	222
1102	248	95	216
1103	255	105	224
1104	254	100	221
1105	253	97	220
1106	250	93	217
1107	250	94	217
1108	248	94	214
1109	245	92	212
1110	253	108	223
1111	255	129	236
1112	253	120	226
1113	251	124	224
1114	250	129	224
1115	255	148	232
1116	255	152	228
1117	253	155	224
1118	253	162	224
1119	252	165	222
1120	252	171	221
1121	253	178	222
1122	252	183	222
1123	253	190	222
1124	251	194	219
1125	255	208	225
1126	255	214	227
1127	253	214	224
1128	253	219	226
1129	0	0	0
1130	0	0	0
1131	0	0	0
1132	252	217	230
1133	255	215	232
1134	254	208	230
1135	255	203	230
1136	253	191	226
1137	253	182	226
1138	255	180	230
1139	255	178	234
1140	254	161	229
1141	250	146	228
1142	250	140	230
1143	251	133	229
1144	252	129	229
1145	252	123	227
1146	255	123	230
1147	255	119	227
1148	251	110	222
1149	247	102	218
1150	249	100	220
1151	247	96	218
1152	249	96	219
1153	246	93	216
1154	249	97	218
1155	247	98	215
1156	255	116	225
1157	255	131	234
1158	255	125	228
1159	248	117	218
1160	250	125	221
1161	249	130	223
1162	249	136	223
1163	246	140	219
1164	247	146	220
1165	248	154	222
1166	249	161	222
1167	249	166	221
1168	250	174	221
1169	251	180	222
1170	252	186	223
1171	251	191	222
1172	252	197	222
1173	251	202	221
1174	251	207	222
1175	251	212	224
1176	0	0	0
1177	0	0	0
1178	254	229	235
1179	255	226	235
1180	254	215	232
1181	253	207	230
1182	255	205	231
1183	252	193	226
1184	253	188	228
1185	255	184	230
1186	255	177	229
1187	248	159	223
1188	253	158	231
1189	253	151	233
1190	255	152	237
1191	255	147	237
1192	251	129	227
1193	255	129	229
1194	249	119	222
1195	245	110	217
1196	255	126	232
1197	255	125	233
1198	247	103	219
1199	249	104	221
1200	252	107	223
1201	254	112	225
1202	250	108	219
1203	255	126	230
1204	255	122	224
1205	248	117	218
1206	250	125	221
1207	253	134	225
1208	255	143	230
1209	255	150	230
1210	251	149	225
1211	252	157	227
1212	255	168	232
1213	255	175	233
1214	254	175	227
1215	255	182	229
1216	252	181	225
1217	254	189	227
1218	254	193	227
1219	255	199	227
1220	253	201	224
1221	253	207	225
1222	251	208	225
1223	0	0	0
1224	0	0	0
1225	0	0	0
1226	254	225	234
1227	251	214	230
1228	253	211	232
1229	255	209	234
1230	255	201	233
1231	255	195	235
1232	254	187	233
1233	254	179	232
1234	255	175	233
1235	255	171	237
1236	255	171	240
1237	255	170	242
1238	255	151	231
1239	247	133	222
1240	245	126	221
1241	240	116	215
1242	252	130	226
1243	255	145	238
1244	251	123	224
1245	237	101	209
1246	246	110	218
1247	250	115	222
1248	251	117	224
1249	247	113	219
1250	247	115	218
1251	242	111	215
1252	249	124	222
1253	252	133	226
1254	255	143	230
1255	255	152	232
1256	254	152	228
1257	250	152	224
1258	254	164	229
1259	255	176	234
1260	255	176	231
1261	253	177	227
1262	251	177	225
1263	248	177	224
1264	248	182	224
1265	248	187	223
1266	248	191	222
1267	247	194	221
1268	248	199	223
1269	0	0	0
1270	0	0	0
1271	0	0	0
1272	0	0	0
1273	0	0	0
1274	0	0	0
1275	255	217	235
1276	255	214	237
1277	255	206	236
1278	255	199	235
1279	253	190	233
1280	255	192	238
1281	255	186	238
1282	254	174	234
1283	255	173	236
1284	255	168	234
1285	247	148	222
1286	252	151	228
1287	250	144	226
1288	253	145	229
1289	255	159	241
1290	255	151	236
1291	247	129	220
1292	251	131	223
1293	255	140	232
1294	252	128	224
1295	254	130	227
1296	253	130	225
1297	253	131	226
1298	250	129	225
1299	255	142	233
1300	254	143	230
1301	255	153	233
1302	254	152	227
1303	250	153	223
1304	255	165	229
1305	255	177	234
1306	255	177	231
1307	254	178	229
1308	255	184	230
1309	254	185	228
1310	252	187	228
1311	254	193	229
1312	255	205	233
1313	255	210	233
1314	252	201	226
1315	254	206	229
1316	253	210	231
1317	0	0	0
1318	0	0	0
1319	0	0	0
1320	0	0	0
1321	0	0	0
1322	0	0	0
1323	255	222	243
1324	255	212	237
1325	255	203	233
1326	255	202	234
1327	255	203	238
1328	255	190	233
1329	252	178	229
1330	254	175	231
1331	254	170	231
1332	255	171	234
1333	255	173	237
1334	255	175	240
1335	255	175	242
1336	255	167	238
1337	255	159	236
1338	255	159	236
1339	255	160	237
1340	255	150	230
1341	250	137	222
1342	254	141	226
1343	254	141	227
1344	255	143	229
1345	252	141	228
1346	254	147	230
1347	251	147	227
1348	250	150	225
1349	246	150	219
1350	251	162	223
1351	255	175	229
1352	254	175	226
1353	251	175	224
1354	254	183	228
1355	255	190	231
1356	255	193	230
1357	254	194	228
1358	255	207	233
1359	255	219	235
1360	255	210	227
1361	251	202	223
1362	254	209	229
1363	254	213	231
1364	0	0	0
1365	0	0	0
1366	0	0	0
1367	0	0	0
1368	0	0	0
1369	0	0	0
1370	0	0	0
1371	0	0	0
1372	255	212	235
1373	255	210	235
1374	255	202	233
1375	252	189	228
1376	252	184	228
1377	253	180	229
1378	255	179	231
1379	255	179	234
1380	254	170	229
1381	255	171	231
1382	255	167	231
1383	250	158	226
1384	255	166	233
1385	255	165	233
1386	255	161	229
1387	250	150	222
1388	254	154	225
1389	255	158	230
1390	252	149	226
1391	253	151	229
1392	254	154	231
1393	255	159	234
1394	250	153	226
1395	250	157	224
1396	254	168	227
1397	255	181	231
1398	255	184	230
1399	255	185	228
1400	255	186	228
1401	255	194	232
1402	254	190	227
1403	253	192	226
1404	255	199	228
1405	255	212	233
1406	255	210	226
1407	249	201	218
1408	251	205	222
1409	255	213	228
1410	0	0	0
1411	0	0	0
1412	0	0	0
1413	0	0	0
1414	0	0	0
1415	0	0	0
1416	0	0	0
1417	0	0	0
1418	0	0	0
1419	255	224	241
1420	255	214	236
1421	255	206	236
1422	255	199	233
1423	254	192	230
1424	254	189	229
1425	255	186	230
1426	251	178	226
1427	247	169	222
1428	247	166	224
1429	246	163	224
1430	252	169	230
1431	255	175	232
1432	252	168	225
1433	251	165	223
1434	254	167	226
1435	255	171	229
1436	255	165	227
1437	249	155	224
1438	253	161	230
1439	254	164	233
1440	252	162	230
1441	245	156	221
1442	255	173	229
1443	255	186	233
1444	255	189	231
1445	255	193	230
1446	255	194	230
1447	255	196	230
1448	254	192	227
1449	249	188	221
1450	253	196	226
1451	255	204	229
1452	253	203	226
1453	249	201	222
1454	250	205	222
1455	252	209	224
1456	255	220	230
1457	0	0	0
1458	0	0	0
1459	0	0	0
1460	0	0	0
1461	0	0	0
1462	0	0	0
1463	0	0	0
1464	0	0	0
1465	0	0	0
1466	255	222	238
1467	255	210	232
1468	253	204	232
1469	250	196	229
1470	255	202	232
1471	255	198	230
1472	255	198	231
1473	253	189	227
1474	254	188	229
1475	255	185	230
1476	255	184	233
1477	255	190	238
1478	254	181	228
1479	249	174	222
1480	255	187	230
1481	255	189	232
1482	255	182	229
1483	255	176	228
1484	248	166	224
1485	253	172	230
1486	255	184	239
1487	255	183	236
1488	251	174	226
1489	255	191	235
1490	255	190	229
1491	255	194	228
1492	255	192	226
1493	255	194	226
1494	254	195	226
1495	250	192	223
1496	255	203	228
1497	255	212	232
1498	255	209	228
1499	254	208	227
1500	255	214	231
1501	255	218	232
1502	255	219	230
1503	255	230	235
1504	0	0	0
1505	0	0	0
1506	0	0	0
1507	0	0	0
1508	0	0	0
1509	0	0	0
1510	0	0	0
1511	0	0	0
1512	0	0	0
1513	0	0	0
1514	254	212	231
1515	252	205	229
1516	255	211	235
1517	255	217	238
1518	255	215	237
1519	255	215	238
1520	255	210	235
1521	255	207	234
1522	255	205	235
1523	255	203	238
1524	255	198	235
1525	254	190	229
1526	255	202	236
1527	255	213	241
1528	255	204	235
1529	255	198	234
1530	255	189	231
1531	251	179	225
1532	255	194	236
1533	255	206	242
1534	255	200	236
1535	255	192	230
1536	255	194	229
1537	255	193	224
1538	252	191	221
1539	251	192	222
1540	253	195	225
1541	251	196	225
1542	255	207	232
1543	255	218	236
1544	255	216	231
1545	255	212	225
1546	255	218	229
1547	255	226	236
1548	255	227	236
1549	255	228	233
1550	252	215	224
1551	0	0	0
1552	0	0	0
1553	0	0	0
1554	0	0	0
1555	0	0	0
1556	0	0	0
1557	0	0	0
1558	0	0	0
1559	0	0	0
1560	0	0	0
1561	0	0	0
1562	254	210	232
1563	255	216	237
1564	254	208	230
1565	253	205	227
1566	255	210	231
1567	254	204	227
1568	255	206	228
1569	255	203	228
1570	255	202	230
1571	253	196	227
1572	255	200	230
1573	255	212	238
1574	255	199	226
1575	251	190	219
1576	255	198	229
1577	253	190	225
1578	254	192	227
1579	255	206	237
1580	255	198	229
1581	254	193	224
1582	252	190	223
1583	253	194	224
1584	255	199	224
1585	254	199	222
1586	255	205	227
1587	255	209	230
1588	252	200	225
1589	255	212	233
1590	255	219	235
1591	255	217	230
1592	250	207	219
1593	253	214	223
1594	255	226	234
1595	255	227	234
1596	255	225	229
1597	250	213	221
1598	253	217	229
1599	0	0	0
1600	0	0	0
1601	0	0	0
1602	0	0	0
1603	0	0	0
1604	0	0	0
1605	0	0	0
1606	0	0	0
1607	0	0	0
1608	0	0	0
1609	0	0	0
1610	254	211	234
1611	249	203	228
1612	255	209	231
1613	255	212	232
1614	255	212	231
1615	255	214	234
1616	255	210	232
1617	255	208	231
1618	255	210	233
1619	255	213	235
1620	254	202	227
1621	246	190	217
1622	253	198	223
1623	255	207	231
1624	255	208	232
1625	255	209	235
1626	255	203	231
1627	253	196	224
1628	252	195	223
1629	251	194	223
1630	255	202	228
1631	255	208	230
1632	255	214	231
1633	255	219	231
1634	255	213	227
1635	253	206	225
1636	255	215	233
1637	255	222	238
1638	255	215	230
1639	248	205	219
1640	255	217	225
1641	255	229	232
1642	255	226	230
1643	255	225	229
1644	255	228	233
1645	0	0	0
1646	0	0	0
1647	0	0	0
1648	0	0	0
1649	0	0	0
1650	0	0	0
1651	0	0	0
1652	0	0	0
1653	0	0	0
1654	0	0	0
1655	0	0	0
1656	0	0	0
1657	0	0	0
1658	255	214	236
1659	255	219	239
1660	250	204	226
1661	250	203	224
1662	255	220	237
1663	255	216	234
1664	252	206	226
1665	254	208	227
1666	255	220	236
1667	255	209	228
1668	252	202	223
1669	255	210	229
1670	255	206	226
1671	255	207	227
1672	255	212	232
1673	255	205	228
1674	252	199	223
1675	252	199	223
1676	255	207	228
1677	255	215	233
1678	255	210	228
1679	255	215	230
1680	255	212	224
1681	252	206	220
1682	253	209	225
1683	255	218	233
1684	255	222	236
1685	255	215	229
1686	252	212	224
1687	255	224	229
1688	255	227	229
1689	255	223	226
1690	254	219	225
1691	0	0	0
1692	0	0	0
1693	0	0	0
1694	0	0	0
1695	0	0	0
1696	0	0	0
1697	0	0	0
1698	0	0	0
1699	0	0	0
1700	0	0	0
1701	0	0	0
1702	0	0	0
1703	0	0	0
1704	0	0	0
1705	0	0	0
1706	253	211	230
1707	0	0	0
1708	255	213	231
1709	255	228	241
1710	255	218	232
1711	251	208	224
1712	255	219	233
1713	255	231	242
1714	255	223	236
1715	255	216	231
1716	255	214	230
1717	255	210	226
1718	255	213	228
1719	255	218	233
1720	255	211	229
1721	253	205	223
1722	255	213	228
1723	255	220	231
1724	255	216	228
1725	255	211	225
1726	255	212	226
1727	255	210	225
1728	255	213	227
1729	255	215	228
1730	255	218	230
1731	255	222	233
1732	255	221	231
1733	255	219	228
1734	255	221	227
1735	255	223	226
1736	251	216	220
1737	248	212	221
1738	0	0	0
1739	0	0	0
1740	0	0	0
1741	0	0	0
1742	0	0	0
1743	0	0	0
1744	0	0	0
1745	0	0	0
1746	0	0	0
1747	0	0	0
1748	0	0	0
1749	0	0	0
1750	0	0	0
1751	0	0	0
1752	0	0	0
1753	0	0	0
1754	0	0	0
1755	0	0	0
1756	0	0	0
1757	248	206	223
1758	253	211	227
1759	255	223	235
1760	255	217	230
1761	252	208	224
1762	255	214	229
1763	255	212	228
1764	252	207	223
1765	255	210	225
1766	255	215	230
1767	253	208	225
1768	252	208	224
1769	255	216	228
1770	255	218	228
1771	255	214	225
1772	255	211	225
1773	255	212	227
1774	253	209	225
1775	254	212	227
1776	255	218	230
1777	255	221	231
1778	253	214	225
1779	252	214	225
1780	255	218	227
1781	255	220	228
1782	255	223	227
1783	251	216	222
1784	0	0	0
1785	0	0	0
1786	0	0	0
1787	0	0	0
1788	0	0	0
1789	0	0	0
1790	0	0	0
1791	0	0	0
1792	0	0	0
1793	0	0	0
1794	0	0	0
1795	0	0	0
1796	0	0	0
1797	0	0	0
1798	0	0	0
1799	0	0	0
1800	0	0	0
1801	0	0	0
1802	0	0	0
1803	0	0	0
1804	0	0	0
1805	0	0	0
1806	255	213	230
1807	249	205	221
1808	252	209	223
1809	255	217	230
1810	255	212	227
1811	251	206	223
1812	253	210	227
1813	255	214	230
1814	255	213	229
1815	255	214	229
1816	255	218	232
1817	255	220	232
1818	255	216	230
1819	255	214	230
1820	254	211	228
1821	250	207	223
1822	255	215	228
1823	255	221	232
1824	253	213	225
1825	248	207	220
1826	251	212	223
1827	254	217	227
1828	255	220	229
1829	255	224	232
1830	0	0	0
1831	0	0	0
1832	0	0	0
1833	0	0	0
1834	0	0	0
1835	0	0	0
1836	0	0	0
1837	0	0	0
1838	0	0	0
1839	0	0	0
1840	0	0	0
1841	0	0	0
1842	0	0	0
1843	0	0	0
1844	0	0	0
1845	0	0	0
1846	0	0	0
1847	0	0	0
1848	0	0	0
1849	0	0	0
1850	0	0	0
1851	0	0	0
1852	0	0	0
1853	0	0	0
1854	249	205	222
1855	0	0	0
1856	255	222	234
1857	255	216	230
1858	249	206	223
1859	252	210	227
1860	255	221	233
1861	255	220	232
1862	255	221	234
1863	255	225	238
1864	253	212	228
1865	251	209	226
1866	255	219	234
1867	255	216	232
1868	250	207	224
1869	255	215	229
1870	255	217	230
1871	250	210	224
1872	255	222	230
1873	255	227	233
1874	251	214	225
1875	0	0	0
1876	0	0	0
1877	0	0	0
1878	0	0	0
1879	0	0	0
1880	0	0	0
1881	0	0	0
1882	0	0	0
1883	0	0	0
1884	0	0	0
1885	0	0	0
1886	0	0	0
1887	0	0	0
1888	0	0	0
1889	0	0	0
1890	0	0	0
1891	0	0	0
1892	0	0	0
1893	0	0	0
1894	0	0	0
1895	0	0	0
1896	0	0	0
1897	0	0	0
1898	0	0	0
1899	0	0	0
1900	0	0	0
1901	0	0	0
1902	0	0	0
1903	0	0	0
1904	255	216	229
1905	248	206	223
1906	255	218	232
1907	255	228	236
1908	255	227	235
1909	255	228	238
1910	255	216	231
1911	247	203	221
1912	254	213	228
1913	255	222	235
1914	255	215	231
1915	250	207	226
1916	253	212	229
1917	253	214	230
1918	255	225	236
1919	255	236	239
1920	255	223	229
1921	248	210	223
1922	0	0	0
1923	0	0	0
1924	0	0	0
1925	0	0	0
1926	0	0	0
1927	0	0	0
1928	0	0	0
1929	0	0	0
1930	0	0	0
1931	0	0	0
1932	0	0	0
1933	0	0	0
1934	0	0	0
1935	0	0	0
1936	0	0	0
1937	0	0	0
1938	0	0	0
1939	0	0	0
1940	0	0	0
1941	0	0	0
1942	0	0	0
1943	0	0	0
1944	0	0	0
1945	0	0	0
1946	0	0	0
1947	0	0	0
1948	0	0	0
1949	0	0	0
1950	0	0	0
1951	0	0	0
1952	0	0	0
1953	0	0	0
1954	0	0	0
1955	0	0	0
1956	255	218	232
1957	249	207	225
1958	252	211	227
1959	255	221	233
1960	255	219	232
1961	252	211	226
1962	253	213	229
1963	255	217	233
1964	255	218	233
1965	255	229	239
1966	255	224	232
1967	248	210	222
1968	249	212	225
1969	0	0	0
1970	0	0	0
1971	0	0	0
1972	0	0	0
1973	0	0	0
1974	0	0	0
1975	0	0	0
1976	0	0	0
1977	0	0	0
1978	0	0	0
1979	0	0	0
1980	0	0	0
1981	0	0	0
1982	0	0	0
1983	0	0	0
1984	0	0	0
1985	0	0	0
1986	0	0	0
1987	0	0	0
1988	0	0	0
1989	0	0	0
1990	0	0	0
1991	0	0	0
1992	0	0	0
1993	0	0	0
1994	0	0	0
1995	0	0	0
1996	0	0	0
1997	0	0	0
1998	0	0	0
1999	0	0	0
2000	0	0	0
2001	0	0	0
2002	0	0	0
2003	250	209	227
2004	255	216	232
2005	255	220	235
2006	255	219	233
2007	255	217	230
2008	255	217	228
2009	255	218	229
2010	254	217	229
2011	255	218	232
2012	253	216	231
2013	251	212	228
2014	252	215	230
2015	0	0	0
2016	0	0	0
2017	0	0	0
2018	0	0	0
2019	0	0	0
2020	0	0	0
2021	0	0	0
2022	0	0	0
2023	0	0	0
2024	0	0	0
2025	0	0	0
2026	0	0	0
2027	0	0	0
2028	0	0	0
2029	0	0	0
2030	0	0	0
2031	0	0	0
2032	0	0	0
2033	0	0	0
2034	0	0	0
2035	0	0	0
2036	0	0	0
2037	0	0	0
2038	0	0	0
2039	0	0	0
2040	0	0	0
2041	0	0	0
2042	0	0	0
2043	0	0	0
2044	0	0	0
2045	0	0	0
2046	0	0	0
2047	0	0	0
2048	0	0	0
2049	0	0	0
2050	0	0	0
2051	255	217	233
2052	255	217	233
2053	255	215	231
2054	252	212	228
2055	251	212	226
2056	255	221	230
2057	255	221	230
2058	255	225	236
2059	255	223	236
2060	251	213	229
2061	0	0	0
2062	0	0	0
2063	0	0	0
2064	0	0	0
2065	0	0	0
2066	0	0	0
2067	0	0	0
2068	0	0	0
2069	0	0	0
2070	0	0	0
2071	0	0	0
2072	0	0	0
2073	0	0	0
2074	0	0	0
2075	0	0	0
2076	0	0	0
2077	0	0	0
2078	0	0	0
2079	0	0	0
2080	0	0	0
2081	0	0	0
2082	0	0	0
2083	0	0	0
2084	0	0	0
2085	0	0	0
2086	0	0	0
2087	0	0	0
2088	0	0	0
2089	0	0	0
2090	0	0	0
2091	0	0	0
2092	0	0	0
2093	0	0	0
2094	0	0	0
2095	0	0	0
2096	0	0	0
2097	0	0	0
2098	0	0	0
2099	0	0	0
2100	252	211	231
2101	250	208	230
2102	255	218	235
2103	255	227	236
2104	255	227	235
2105	0	0	0
2106	255	222	234
2107	0	0	0
2108	0	0	0
2109	0	0	0
2110	0	0	0
2111	0	0	0
2112	0	0	0
2113	0	0	0
2114	0	0	0
2115	0	0	0
2116	0	0	0
2117	0	0	0
2118	0	0	0
2119	0	0	0
2120	0	0	0
2121	0	0	0
2122	0	0	0
2123	0	0	0
2124	0	0	0
2125	0	0	0
2126	0	0	0
2127	0	0	0
2128	0	0	0
2129	0	0	0
2130	0	0	0
2131	0	0	0
2132	0	0	0
2133	0	0	0
2134	0	0	0
2135	0	0	0
2136	0	0	0
2137	0	0	0
2138	0	0	0
2139	0	0	0
2140	0	0	0
2141	0	0	0
2142	0	0	0
2143	0	0	0
2144	0	0	0
2145	0	0	0
2146	0	0	0
2147	0	0	0
2148	250	210	232
2149	255	219	237
2150	0	0	0
2151	0	0	0
2152	0	0	0
2153	0	0	0
2154	0	0	0
2155	0	0	0
2156	0	0	0
2157	0	0	0
2158	0	0	0
2159	0	0	0
2160	0	0	0
2161	0	0	0
2162	0	0	0
