 	R	G	B
1	0	0	0
2	0	0	0
3	0	0	0
4	251	243	241
5	255	249	247
6	255	241	244
7	252	230	238
8	251	225	235
9	254	227	236
10	0	0	0
11	0	0	0
12	0	0	0
13	0	0	0
14	0	0	0
15	0	0	0
16	0	0	0
17	0	0	0
18	0	0	0
19	0	0	0
20	0	0	0
21	0	0	0
22	0	0	0
23	0	0	0
24	0	0	0
25	0	0	0
26	0	0	0
27	0	0	0
28	0	0	0
29	0	0	0
30	0	0	0
31	0	0	0
32	0	0	0
33	0	0	0
34	0	0	0
35	0	0	0
36	0	0	0
37	0	0	0
38	0	0	0
39	0	0	0
40	0	0	0
41	0	0	0
42	0	0	0
43	0	0	0
44	0	0	0
45	0	0	0
46	0	0	0
47	0	0	0
48	0	0	0
49	0	0	0
50	0	0	0
51	0	0	0
52	0	0	0
53	0	0	0
54	0	0	0
55	0	0	0
56	0	0	0
57	0	0	0
58	0	0	0
59	0	0	0
60	0	0	0
61	0	0	0
62	0	0	0
63	0	0	0
64	0	0	0
65	0	0	0
66	251	244	242
67	251	239	239
68	252	234	239
69	251	227	237
70	250	223	236
71	249	218	234
72	250	217	233
73	246	212	228
74	252	221	234
75	0	0	0
76	0	0	0
77	0	0	0
78	0	0	0
79	0	0	0
80	0	0	0
81	0	0	0
82	0	0	0
83	0	0	0
84	0	0	0
85	0	0	0
86	0	0	0
87	0	0	0
88	0	0	0
89	0	0	0
90	0	0	0
91	0	0	0
92	0	0	0
93	0	0	0
94	0	0	0
95	0	0	0
96	0	0	0
97	0	0	0
98	0	0	0
99	0	0	0
100	0	0	0
101	0	0	0
102	0	0	0
103	0	0	0
104	0	0	0
105	0	0	0
106	0	0	0
107	0	0	0
108	0	0	0
109	0	0	0
110	0	0	0
111	0	0	0
112	0	0	0
113	0	0	0
114	0	0	0
115	0	0	0
116	0	0	0
117	0	0	0
118	0	0	0
119	0	0	0
120	0	0	0
121	0	0	0
122	0	0	0
123	0	0	0
124	0	0	0
125	0	0	0
126	0	0	0
127	0	0	0
128	254	250	244
129	255	248	245
130	249	231	236
131	248	225	234
132	251	225	237
133	252	222	237
134	253	220	236
135	253	219	236
136	253	217	235
137	255	227	242
138	251	215	233
139	0	0	0
140	0	0	0
141	0	0	0
142	0	0	0
143	0	0	0
144	0	0	0
145	0	0	0
146	0	0	0
147	0	0	0
148	0	0	0
149	0	0	0
150	0	0	0
151	0	0	0
152	0	0	0
153	0	0	0
154	0	0	0
155	0	0	0
156	0	0	0
157	0	0	0
158	0	0	0
159	0	0	0
160	0	0	0
161	0	0	0
162	0	0	0
163	0	0	0
164	0	0	0
165	0	0	0
166	0	0	0
167	0	0	0
168	0	0	0
169	0	0	0
170	0	0	0
171	0	0	0
172	0	0	0
173	0	0	0
174	0	0	0
175	0	0	0
176	0	0	0
177	0	0	0
178	0	0	0
179	0	0	0
180	0	0	0
181	0	0	0
182	0	0	0
183	0	0	0
184	0	0	0
185	0	0	0
186	0	0	0
187	0	0	0
188	0	0	0
189	0	0	0
190	0	0	0
191	255	251	246
192	254	238	240
193	246	222	232
194	249	223	235
195	251	222	236
196	253	221	236
197	253	219	235
198	255	219	236
199	255	218	236
200	251	210	232
201	242	199	224
202	0	0	0
203	255	222	237
204	254	225	237
205	0	0	0
206	0	0	0
207	0	0	0
208	0	0	0
209	0	0	0
210	0	0	0
211	0	0	0
212	0	0	0
213	0	0	0
214	0	0	0
215	0	0	0
216	0	0	0
217	0	0	0
218	0	0	0
219	0	0	0
220	0	0	0
221	0	0	0
222	0	0	0
223	0	0	0
224	0	0	0
225	0	0	0
226	0	0	0
227	0	0	0
228	0	0	0
229	0	0	0
230	0	0	0
231	0	0	0
232	0	0	0
233	0	0	0
234	0	0	0
235	0	0	0
236	0	0	0
237	0	0	0
238	0	0	0
239	0	0	0
240	0	0	0
241	0	0	0
242	0	0	0
243	0	0	0
244	0	0	0
245	0	0	0
246	0	0	0
247	0	0	0
248	0	0	0
249	0	0	0
250	0	0	0
251	0	0	0
252	0	0	0
253	0	0	0
254	255	247	244
255	253	232	238
256	245	216	230
257	247	217	233
258	253	223	237
259	255	221	235
260	255	219	234
261	255	218	235
262	254	213	234
263	251	207	231
264	250	206	232
265	255	221	242
266	253	214	234
267	254	217	235
268	252	219	236
269	0	0	0
270	0	0	0
271	0	0	0
272	0	0	0
273	0	0	0
274	0	0	0
275	0	0	0
276	0	0	0
277	0	0	0
278	0	0	0
279	0	0	0
280	0	0	0
281	0	0	0
282	0	0	0
283	0	0	0
284	0	0	0
285	0	0	0
286	0	0	0
287	0	0	0
288	0	0	0
289	0	0	0
290	0	0	0
291	0	0	0
292	0	0	0
293	0	0	0
294	0	0	0
295	0	0	0
296	0	0	0
297	0	0	0
298	0	0	0
299	0	0	0
300	0	0	0
301	0	0	0
302	0	0	0
303	0	0	0
304	0	0	0
305	0	0	0
306	0	0	0
307	0	0	0
308	0	0	0
309	0	0	0
310	0	0	0
311	0	0	0
312	0	0	0
313	0	0	0
314	0	0	0
315	0	0	0
316	0	0	0
317	255	239	239
318	250	223	232
319	241	207	226
320	248	216	233
321	254	222	235
322	255	219	233
323	255	217	232
324	255	214	232
325	253	209	232
326	255	212	237
327	255	212	237
328	254	209	235
329	248	202	228
330	249	207	230
331	247	208	228
332	249	217	233
333	250	226	238
334	254	238	244
335	0	0	0
336	0	0	0
337	0	0	0
338	0	0	0
339	0	0	0
340	0	0	0
341	0	0	0
342	0	0	0
343	0	0	0
344	0	0	0
345	0	0	0
346	0	0	0
347	0	0	0
348	0	0	0
349	0	0	0
350	0	0	0
351	0	0	0
352	0	0	0
353	0	0	0
354	0	0	0
355	0	0	0
356	0	0	0
357	0	0	0
358	0	0	0
359	0	0	0
360	0	0	0
361	0	0	0
362	0	0	0
363	0	0	0
364	0	0	0
365	0	0	0
366	0	0	0
367	0	0	0
368	0	0	0
369	0	0	0
370	0	0	0
371	0	0	0
372	0	0	0
373	0	0	0
374	0	0	0
375	0	0	0
376	0	0	0
377	0	0	0
378	0	0	0
379	0	0	0
380	255	238	240
381	251	223	233
382	246	213	231
383	253	221	238
384	254	221	235
385	255	219	234
386	255	215	233
387	255	212	233
388	252	206	232
389	255	208	236
390	253	204	233
391	250	201	231
392	253	206	233
393	254	211	235
394	249	208	231
395	252	218	236
396	252	224	238
397	255	235	245
398	252	233	240
399	0	0	0
400	0	0	0
401	0	0	0
402	0	0	0
403	0	0	0
404	0	0	0
405	0	0	0
406	0	0	0
407	0	0	0
408	0	0	0
409	0	0	0
410	0	0	0
411	0	0	0
412	0	0	0
413	0	0	0
414	0	0	0
415	0	0	0
416	0	0	0
417	0	0	0
418	0	0	0
419	0	0	0
420	0	0	0
421	0	0	0
422	0	0	0
423	0	0	0
424	0	0	0
425	0	0	0
426	0	0	0
427	0	0	0
428	0	0	0
429	0	0	0
430	0	0	0
431	0	0	0
432	0	0	0
433	0	0	0
434	0	0	0
435	0	0	0
436	0	0	0
437	0	0	0
438	0	0	0
439	0	0	0
440	0	0	0
441	0	0	0
442	255	238	240
443	255	238	241
444	255	229	238
445	251	219	235
446	254	222	238
447	255	221	238
448	255	218	237
449	255	215	237
450	254	208	235
451	251	201	232
452	251	200	233
453	248	196	229
454	252	203	233
455	255	207	236
456	252	206	234
457	248	204	231
458	249	211	234
459	249	216	235
460	247	216	233
461	242	214	229
462	0	0	0
463	0	0	0
464	0	0	0
465	0	0	0
466	0	0	0
467	0	0	0
468	0	0	0
469	0	0	0
470	0	0	0
471	0	0	0
472	0	0	0
473	0	0	0
474	0	0	0
475	0	0	0
476	0	0	0
477	0	0	0
478	0	0	0
479	0	0	0
480	0	0	0
481	0	0	0
482	0	0	0
483	0	0	0
484	0	0	0
485	0	0	0
486	0	0	0
487	0	0	0
488	0	0	0
489	0	0	0
490	0	0	0
491	0	0	0
492	0	0	0
493	0	0	0
494	0	0	0
495	0	0	0
496	0	0	0
497	0	0	0
498	0	0	0
499	0	0	0
500	0	0	0
501	0	0	0
502	0	0	0
503	0	0	0
504	0	0	0
505	255	236	240
506	253	228	235
507	249	218	231
508	252	219	234
509	255	223	239
510	255	217	237
511	255	213	236
512	255	210	237
513	253	204	234
514	254	204	235
515	254	203	236
516	247	193	229
517	251	200	233
518	255	209	237
519	253	207	235
520	254	212	237
521	255	219	241
522	252	218	237
523	250	219	236
524	249	222	236
525	255	239	246
526	0	0	0
527	0	0	0
528	0	0	0
529	0	0	0
530	0	0	0
531	0	0	0
532	0	0	0
533	0	0	0
534	0	0	0
535	0	0	0
536	0	0	0
537	0	0	0
538	0	0	0
539	0	0	0
540	0	0	0
541	0	0	0
542	0	0	0
543	0	0	0
544	0	0	0
545	0	0	0
546	0	0	0
547	0	0	0
548	0	0	0
549	0	0	0
550	0	0	0
551	0	0	0
552	0	0	0
553	0	0	0
554	0	0	0
555	0	0	0
556	0	0	0
557	0	0	0
558	0	0	0
559	0	0	0
560	0	0	0
561	0	0	0
562	0	0	0
563	0	0	0
564	0	0	0
565	0	0	0
566	0	0	0
567	0	0	0
568	251	227	235
569	248	218	230
570	253	221	234
571	255	222	236
572	255	218	237
573	255	213	236
574	255	210	236
575	255	207	236
576	255	206	236
577	255	204	234
578	251	197	231
579	245	188	228
580	253	201	237
581	255	209	238
582	255	214	237
583	255	218	238
584	255	218	236
585	252	218	236
586	250	221	237
587	249	223	238
588	0	0	0
589	0	0	0
590	0	0	0
591	0	0	0
592	0	0	0
593	0	0	0
594	0	0	0
595	0	0	0
596	0	0	0
597	0	0	0
598	0	0	0
599	0	0	0
600	0	0	0
601	0	0	0
602	0	0	0
603	0	0	0
604	0	0	0
605	0	0	0
606	0	0	0
607	0	0	0
608	0	0	0
609	0	0	0
610	0	0	0
611	0	0	0
612	0	0	0
613	0	0	0
614	0	0	0
615	0	0	0
616	0	0	0
617	0	0	0
618	0	0	0
619	0	0	0
620	0	0	0
621	0	0	0
622	0	0	0
623	0	0	0
624	0	0	0
625	0	0	0
626	0	0	0
627	0	0	0
628	0	0	0
629	0	0	0
630	0	0	0
631	0	0	0
632	252	221	234
633	255	224	238
634	252	213	232
635	252	208	232
636	250	203	231
637	250	200	232
638	255	207	237
639	255	205	236
640	254	202	233
641	249	195	229
642	251	197	234
643	255	210	242
644	253	204	233
645	254	208	232
646	255	215	235
647	254	215	234
648	249	214	233
649	0	0	0
650	0	0	0
651	0	0	0
652	0	0	0
653	0	0	0
654	0	0	0
655	0	0	0
656	0	0	0
657	0	0	0
658	0	0	0
659	0	0	0
660	0	0	0
661	0	0	0
662	0	0	0
663	0	0	0
664	0	0	0
665	0	0	0
666	0	0	0
667	0	0	0
668	0	0	0
669	0	0	0
670	0	0	0
671	0	0	0
672	0	0	0
673	0	0	0
674	0	0	0
675	0	0	0
676	0	0	0
677	0	0	0
678	0	0	0
679	0	0	0
680	0	0	0
681	0	0	0
682	0	0	0
683	0	0	0
684	0	0	0
685	0	0	0
686	0	0	0
687	0	0	0
688	0	0	0
689	0	0	0
690	0	0	0
691	0	0	0
692	0	0	0
693	0	0	0
694	0	0	0
695	0	0	0
696	0	0	0
697	0	0	0
698	0	0	0
699	0	0	0
700	247	197	231
701	253	204	235
702	252	201	233
703	251	199	232
704	253	201	234
705	254	202	234
706	252	201	231
707	247	196	224
708	251	204	229
709	255	212	235
710	252	212	234
711	246	210	230
712	0	0	0
713	0	0	0
714	0	0	0
715	0	0	0
716	0	0	0
717	0	0	0
718	0	0	0
719	0	0	0
720	0	0	0
721	0	0	0
722	0	0	0
723	0	0	0
724	0	0	0
725	0	0	0
726	0	0	0
727	0	0	0
728	0	0	0
729	0	0	0
730	0	0	0
731	0	0	0
732	0	0	0
733	0	0	0
734	0	0	0
735	0	0	0
736	0	0	0
737	0	0	0
738	0	0	0
739	0	0	0
740	0	0	0
741	0	0	0
742	0	0	0
743	0	0	0
744	0	0	0
745	0	0	0
746	0	0	0
747	0	0	0
748	0	0	0
749	0	0	0
750	0	0	0
751	0	0	0
752	0	0	0
753	0	0	0
754	0	0	0
755	0	0	0
756	0	0	0
757	0	0	0
758	0	0	0
759	0	0	0
760	0	0	0
761	0	0	0
762	0	0	0
763	0	0	0
764	255	210	239
765	255	207	237
766	252	201	234
767	254	204	235
768	254	204	232
769	253	203	230
770	250	201	227
771	255	210	233
772	255	215	237
773	252	214	235
774	251	216	234
775	255	230	243
776	0	0	0
777	0	0	0
778	0	0	0
779	0	0	0
780	0	0	0
781	0	0	0
782	0	0	0
783	0	0	0
784	0	0	0
785	0	0	0
786	0	0	0
787	0	0	0
788	0	0	0
789	0	0	0
790	0	0	0
791	0	0	0
792	0	0	0
793	0	0	0
794	0	0	0
795	0	0	0
796	0	0	0
797	0	0	0
798	0	0	0
799	0	0	0
800	0	0	0
801	0	0	0
802	0	0	0
803	0	0	0
804	0	0	0
805	0	0	0
806	0	0	0
807	0	0	0
808	0	0	0
809	0	0	0
810	0	0	0
811	0	0	0
812	0	0	0
813	0	0	0
814	0	0	0
815	0	0	0
816	0	0	0
817	0	0	0
818	0	0	0
819	0	0	0
820	0	0	0
821	0	0	0
822	0	0	0
823	0	0	0
824	0	0	0
825	0	0	0
826	0	0	0
827	0	0	0
828	253	206	236
829	249	200	232
830	252	203	233
831	252	204	230
832	252	204	229
833	250	203	229
834	254	210	233
835	254	215	234
836	252	216	234
837	253	219	236
838	250	215	234
839	244	208	230
840	0	0	0
841	0	0	0
842	0	0	0
843	0	0	0
844	0	0	0
845	0	0	0
846	0	0	0
847	0	0	0
848	0	0	0
849	0	0	0
850	0	0	0
851	0	0	0
852	0	0	0
853	0	0	0
854	0	0	0
855	0	0	0
856	0	0	0
857	0	0	0
858	0	0	0
859	0	0	0
860	0	0	0
861	0	0	0
862	0	0	0
863	0	0	0
864	0	0	0
865	0	0	0
866	0	0	0
867	0	0	0
868	0	0	0
869	0	0	0
870	0	0	0
871	0	0	0
872	0	0	0
873	0	0	0
874	0	0	0
875	0	0	0
876	0	0	0
877	0	0	0
878	0	0	0
879	0	0	0
880	0	0	0
881	0	0	0
882	0	0	0
883	0	0	0
884	0	0	0
885	0	0	0
886	0	0	0
887	0	0	0
888	0	0	0
889	0	0	0
890	0	0	0
891	0	0	0
892	0	0	0
893	255	212	237
894	255	211	233
895	255	211	233
896	249	204	230
897	251	212	235
898	254	218	236
899	255	221	236
900	255	221	238
901	253	217	236
902	253	217	236
903	255	225	241
904	0	0	0
905	0	0	0
906	0	0	0
907	0	0	0
908	0	0	0
909	0	0	0
910	0	0	0
911	0	0	0
912	0	0	0
913	0	0	0
914	0	0	0
915	0	0	0
916	0	0	0
917	0	0	0
918	0	0	0
919	0	0	0
920	0	0	0
921	0	0	0
922	0	0	0
923	0	0	0
924	0	0	0
925	0	0	0
926	0	0	0
927	0	0	0
928	0	0	0
929	0	0	0
930	0	0	0
931	0	0	0
932	0	0	0
933	0	0	0
934	0	0	0
935	0	0	0
936	0	0	0
937	0	0	0
938	0	0	0
939	0	0	0
940	0	0	0
941	0	0	0
942	0	0	0
943	0	0	0
944	0	0	0
945	0	0	0
946	0	0	0
947	0	0	0
948	0	0	0
949	0	0	0
950	0	0	0
951	0	0	0
952	0	0	0
953	0	0	0
954	0	0	0
955	0	0	0
956	0	0	0
957	254	215	234
958	249	209	231
959	244	204	231
960	252	215	239
961	254	221	238
962	249	217	233
963	250	217	234
964	254	220	236
965	253	220	234
966	251	219	232
967	246	216	230
968	0	0	0
969	0	0	0
970	0	0	0
971	0	0	0
972	0	0	0
973	0	0	0
974	0	0	0
975	0	0	0
976	0	0	0
977	0	0	0
978	0	0	0
979	0	0	0
980	0	0	0
981	0	0	0
982	0	0	0
983	0	0	0
984	0	0	0
985	0	0	0
986	0	0	0
987	0	0	0
988	0	0	0
989	0	0	0
990	0	0	0
991	0	0	0
992	0	0	0
993	0	0	0
994	0	0	0
995	0	0	0
996	0	0	0
997	0	0	0
998	0	0	0
999	0	0	0
1000	0	0	0
1001	0	0	0
1002	0	0	0
1003	0	0	0
1004	0	0	0
1005	0	0	0
1006	0	0	0
1007	0	0	0
1008	0	0	0
1009	0	0	0
1010	0	0	0
1011	0	0	0
1012	0	0	0
1013	0	0	0
1014	0	0	0
1015	0	0	0
1016	0	0	0
1017	0	0	0
1018	0	0	0
1019	0	0	0
1020	0	0	0
1021	0	0	0
1022	0	0	0
1023	255	229	248
1024	250	218	235
1025	240	211	227
1026	247	221	235
1027	255	227	239
1028	253	223	234
1029	251	223	232
1030	248	219	231
1031	0	0	0
1032	0	0	0
1033	0	0	0
1034	0	0	0
1035	0	0	0
1036	0	0	0
1037	0	0	0
1038	0	0	0
1039	0	0	0
1040	0	0	0
1041	0	0	0
1042	0	0	0
1043	0	0	0
1044	0	0	0
1045	0	0	0
1046	0	0	0
1047	0	0	0
1048	0	0	0
1049	0	0	0
1050	0	0	0
1051	0	0	0
1052	0	0	0
1053	0	0	0
1054	0	0	0
1055	0	0	0
1056	0	0	0
1057	0	0	0
1058	0	0	0
1059	0	0	0
1060	0	0	0
1061	0	0	0
1062	0	0	0
1063	0	0	0
1064	0	0	0
1065	0	0	0
1066	0	0	0
1067	0	0	0
1068	0	0	0
1069	0	0	0
1070	0	0	0
1071	0	0	0
1072	0	0	0
1073	0	0	0
1074	0	0	0
1075	0	0	0
1076	0	0	0
1077	0	0	0
1078	0	0	0
1079	0	0	0
1080	0	0	0
1081	0	0	0
1082	0	0	0
1083	0	0	0
1084	0	0	0
1085	0	0	0
1086	254	223	239
1087	245	214	230
1088	244	220	232
1089	251	230	239
1090	255	230	240
1091	254	227	237
1092	250	223	233
1093	247	220	232
1094	251	224	235
1095	247	221	231
1096	250	230	236
1097	0	0	0
1098	0	0	0
1099	0	0	0
1100	0	0	0
1101	0	0	0
1102	0	0	0
1103	0	0	0
1104	0	0	0
1105	0	0	0
1106	0	0	0
1107	0	0	0
1108	0	0	0
1109	0	0	0
1110	0	0	0
1111	0	0	0
1112	0	0	0
1113	0	0	0
1114	0	0	0
1115	0	0	0
1116	0	0	0
1117	0	0	0
1118	0	0	0
1119	0	0	0
1120	0	0	0
1121	0	0	0
1122	0	0	0
1123	0	0	0
1124	0	0	0
1125	0	0	0
1126	0	0	0
1127	0	0	0
1128	0	0	0
1129	0	0	0
1130	0	0	0
1131	0	0	0
1132	0	0	0
1133	0	0	0
1134	0	0	0
1135	0	0	0
1136	0	0	0
1137	0	0	0
1138	0	0	0
1139	0	0	0
1140	0	0	0
1141	0	0	0
1142	0	0	0
1143	0	0	0
1144	0	0	0
1145	0	0	0
1146	0	0	0
1147	0	0	0
1148	0	0	0
1149	0	0	0
1150	248	218	233
1151	251	227	238
1152	252	229	238
1153	252	226	235
1154	252	226	235
1155	248	223	233
1156	248	222	232
1157	251	225	235
1158	251	223	233
1159	255	237	243
1160	253	226	235
1161	0	0	0
1162	0	0	0
1163	0	0	0
1164	0	0	0
1165	0	0	0
1166	0	0	0
1167	0	0	0
1168	0	0	0
1169	0	0	0
1170	0	0	0
1171	0	0	0
1172	0	0	0
1173	0	0	0
1174	0	0	0
1175	0	0	0
1176	0	0	0
1177	0	0	0
1178	0	0	0
1179	0	0	0
1180	0	0	0
1181	0	0	0
1182	0	0	0
1183	0	0	0
1184	0	0	0
1185	0	0	0
1186	0	0	0
1187	0	0	0
1188	0	0	0
1189	0	0	0
1190	0	0	0
1191	0	0	0
1192	0	0	0
1193	0	0	0
1194	0	0	0
1195	0	0	0
1196	0	0	0
1197	0	0	0
1198	0	0	0
1199	0	0	0
1200	0	0	0
1201	0	0	0
1202	0	0	0
1203	0	0	0
1204	0	0	0
1205	0	0	0
1206	0	0	0
1207	0	0	0
1208	0	0	0
1209	0	0	0
1210	0	0	0
1211	0	0	0
1212	0	0	0
1213	252	223	236
1214	253	227	238
1215	253	229	236
1216	254	229	236
1217	255	230	237
1218	255	230	238
1219	254	228	237
1220	254	227	236
1221	254	225	235
1222	251	218	230
1223	243	207	222
1224	250	219	230
1225	255	231	236
1226	255	231	236
1227	0	0	0
1228	0	0	0
1229	0	0	0
1230	0	0	0
1231	0	0	0
1232	0	0	0
1233	0	0	0
1234	0	0	0
1235	0	0	0
1236	0	0	0
1237	0	0	0
1238	0	0	0
1239	0	0	0
1240	0	0	0
1241	0	0	0
1242	0	0	0
1243	0	0	0
1244	0	0	0
1245	0	0	0
1246	0	0	0
1247	0	0	0
1248	0	0	0
1249	0	0	0
1250	0	0	0
1251	0	0	0
1252	0	0	0
1253	0	0	0
1254	0	0	0
1255	0	0	0
1256	0	0	0
1257	0	0	0
1258	0	0	0
1259	0	0	0
1260	0	0	0
1261	0	0	0
1262	0	0	0
1263	0	0	0
1264	0	0	0
1265	0	0	0
1266	0	0	0
1267	0	0	0
1268	0	0	0
1269	0	0	0
1270	0	0	0
1271	0	0	0
1272	0	0	0
1273	0	0	0
1274	0	0	0
1275	254	227	237
1276	251	221	234
1277	253	225	236
1278	253	225	234
1279	254	226	234
1280	253	222	233
1281	255	224	236
1282	250	215	230
1283	249	213	228
1284	255	222	234
1285	248	213	227
1286	247	212	226
1287	255	227	236
1288	254	222	231
1289	253	222	230
1290	250	222	229
1291	0	0	0
1292	0	0	0
1293	0	0	0
1294	0	0	0
1295	0	0	0
1296	0	0	0
1297	0	0	0
1298	0	0	0
1299	0	0	0
1300	0	0	0
1301	0	0	0
1302	0	0	0
1303	0	0	0
1304	0	0	0
1305	0	0	0
1306	0	0	0
1307	0	0	0
1308	0	0	0
1309	0	0	0
1310	0	0	0
1311	0	0	0
1312	0	0	0
1313	0	0	0
1314	0	0	0
1315	0	0	0
1316	0	0	0
1317	0	0	0
1318	0	0	0
1319	0	0	0
1320	0	0	0
1321	0	0	0
1322	0	0	0
1323	0	0	0
1324	0	0	0
1325	0	0	0
1326	0	0	0
1327	0	0	0
1328	0	0	0
1329	0	0	0
1330	0	0	0
1331	0	0	0
1332	0	0	0
1333	0	0	0
1334	0	0	0
1335	0	0	0
1336	0	0	0
1337	0	0	0
1338	0	0	0
1339	249	219	232
1340	252	221	234
1341	253	222	234
1342	251	218	231
1343	250	214	229
1344	246	207	225
1345	242	200	221
1346	248	209	228
1347	254	218	232
1348	251	216	229
1349	251	216	228
1350	252	215	227
1351	249	211	223
1352	250	214	225
1353	248	214	226
1354	252	223	232
1355	255	233	238
1356	255	231	235
1357	0	0	0
1358	0	0	0
1359	0	0	0
1360	0	0	0
1361	0	0	0
1362	0	0	0
1363	0	0	0
1364	0	0	0
1365	0	0	0
1366	0	0	0
1367	0	0	0
1368	0	0	0
1369	0	0	0
1370	0	0	0
1371	0	0	0
1372	0	0	0
1373	0	0	0
1374	0	0	0
1375	0	0	0
1376	0	0	0
1377	0	0	0
1378	0	0	0
1379	0	0	0
1380	0	0	0
1381	0	0	0
1382	0	0	0
1383	0	0	0
1384	0	0	0
1385	0	0	0
1386	0	0	0
1387	0	0	0
1388	0	0	0
1389	0	0	0
1390	0	0	0
1391	0	0	0
1392	0	0	0
1393	0	0	0
1394	0	0	0
1395	0	0	0
1396	0	0	0
1397	0	0	0
1398	0	0	0
1399	0	0	0
1400	0	0	0
1401	0	0	0
1402	253	222	234
1403	255	225	237
1404	252	219	234
1405	252	216	232
1406	254	217	232
1407	248	209	226
1408	248	210	229
1409	255	221	237
1410	252	215	230
1411	250	213	226
1412	255	219	229
1413	255	219	229
1414	250	209	223
1415	251	212	226
1416	250	212	227
1417	255	224	235
1418	255	224	233
1419	251	220	229
1420	247	220	226
1421	0	0	0
1422	0	0	0
1423	0	0	0
1424	249	229	234
1425	0	0	0
1426	0	0	0
1427	0	0	0
1428	0	0	0
1429	0	0	0
1430	0	0	0
1431	0	0	0
1432	0	0	0
1433	0	0	0
1434	0	0	0
1435	0	0	0
1436	0	0	0
1437	0	0	0
1438	0	0	0
1439	0	0	0
1440	0	0	0
1441	0	0	0
1442	0	0	0
1443	0	0	0
1444	0	0	0
1445	0	0	0
1446	0	0	0
1447	0	0	0
1448	0	0	0
1449	0	0	0
1450	0	0	0
1451	0	0	0
1452	0	0	0
1453	0	0	0
1454	0	0	0
1455	0	0	0
1456	0	0	0
1457	0	0	0
1458	0	0	0
1459	0	0	0
1460	0	0	0
1461	0	0	0
1462	0	0	0
1463	0	0	0
1464	255	229	239
1465	255	225	237
1466	251	219	233
1467	249	213	230
1468	255	217	234
1469	255	219	234
1470	255	218	233
1471	255	219	235
1472	255	218	235
1473	252	212	229
1474	255	217	230
1475	255	223	232
1476	255	215	226
1477	249	206	222
1478	252	210	227
1479	252	210	227
1480	255	214	229
1481	253	213	228
1482	249	213	226
1483	244	212	224
1484	246	222	229
1485	254	234	237
1486	255	232	237
1487	250	227	234
1488	254	237	239
1489	0	0	0
1490	0	0	0
1491	0	0	0
1492	0	0	0
1493	0	0	0
1494	0	0	0
1495	0	0	0
1496	0	0	0
1497	0	0	0
1498	0	0	0
1499	0	0	0
1500	0	0	0
1501	0	0	0
1502	0	0	0
1503	0	0	0
1504	0	0	0
1505	0	0	0
1506	0	0	0
1507	0	0	0
1508	0	0	0
1509	0	0	0
1510	0	0	0
1511	0	0	0
1512	0	0	0
1513	0	0	0
1514	0	0	0
1515	0	0	0
1516	0	0	0
1517	0	0	0
1518	0	0	0
1519	0	0	0
1520	0	0	0
1521	0	0	0
1522	0	0	0
1523	0	0	0
1524	0	0	0
1525	0	0	0
1526	254	229	238
1527	255	226	238
1528	251	219	233
1529	246	212	229
1530	249	215	232
1531	255	220	235
1532	255	216	231
1533	255	216	231
1534	255	216	233
1535	255	214	232
1536	250	205	225
1537	253	210	227
1538	255	217	229
1539	252	208	224
1540	249	202	223
1541	253	206	227
1542	252	205	226
1543	254	209	228
1544	249	205	225
1545	243	204	222
1546	246	214	227
1547	253	225	233
1548	253	227	234
1549	251	223	232
1550	247	219	230
1551	252	230	236
1552	251	235	234
1553	0	0	0
1554	0	0	0
1555	0	0	0
1556	0	0	0
1557	0	0	0
1558	0	0	0
1559	0	0	0
1560	0	0	0
1561	0	0	0
1562	0	0	0
1563	0	0	0
1564	0	0	0
1565	0	0	0
1566	0	0	0
1567	0	0	0
1568	0	0	0
1569	0	0	0
1570	0	0	0
1571	0	0	0
1572	0	0	0
1573	0	0	0
1574	0	0	0
1575	0	0	0
1576	0	0	0
1577	0	0	0
1578	0	0	0
1579	0	0	0
1580	0	0	0
1581	0	0	0
1582	0	0	0
1583	0	0	0
1584	0	0	0
1585	0	0	0
1586	0	0	0
1587	0	0	0
1588	250	226	234
1589	251	224	232
1590	248	218	230
1591	244	211	228
1592	246	213	230
1593	250	216	232
1594	255	218	234
1595	255	214	230
1596	255	213	229
1597	255	213	229
1598	253	206	226
1599	248	198	221
1600	255	207	227
1601	255	215	232
1602	255	207	228
1603	251	200	226
1604	252	201	227
1605	251	200	224
1606	252	201	225
1607	248	198	223
1608	250	209	228
1609	253	218	232
1610	253	219	231
1611	254	220	232
1612	252	219	231
1613	248	215	230
1614	251	223	234
1615	0	0	0
1616	0	0	0
1617	0	0	0
1618	0	0	0
1619	0	0	0
1620	0	0	0
1621	0	0	0
1622	0	0	0
1623	0	0	0
1624	0	0	0
1625	0	0	0
1626	0	0	0
1627	0	0	0
1628	0	0	0
1629	0	0	0
1630	0	0	0
1631	0	0	0
1632	0	0	0
1633	0	0	0
1634	0	0	0
1635	0	0	0
1636	0	0	0
1637	0	0	0
1638	0	0	0
1639	0	0	0
1640	0	0	0
1641	0	0	0
1642	0	0	0
1643	0	0	0
1644	0	0	0
1645	0	0	0
1646	0	0	0
1647	0	0	0
1648	0	0	0
1649	0	0	0
1650	0	0	0
1651	255	239	243
1652	248	220	230
1653	244	214	226
1654	248	218	231
1655	251	221	235
1656	255	222	236
1657	255	224	239
1658	250	202	223
1659	250	202	223
1660	255	209	228
1661	252	203	223
1662	251	200	222
1663	255	210	231
1664	255	203	227
1665	252	195	223
1666	252	196	225
1667	252	196	225
1668	254	201	227
1669	255	202	228
1670	252	198	225
1671	255	209	231
1672	252	208	228
1673	250	207	226
1674	255	216	231
1675	255	214	230
1676	249	209	227
1677	0	0	0
1678	0	0	0
1679	0	0	0
1680	0	0	0
1681	0	0	0
1682	0	0	0
1683	0	0	0
1684	0	0	0
1685	0	0	0
1686	0	0	0
1687	0	0	0
1688	0	0	0
1689	0	0	0
1690	0	0	0
1691	0	0	0
1692	0	0	0
1693	0	0	0
1694	0	0	0
1695	0	0	0
1696	0	0	0
1697	0	0	0
1698	0	0	0
1699	0	0	0
1700	0	0	0
1701	0	0	0
1702	0	0	0
1703	0	0	0
1704	0	0	0
1705	0	0	0
1706	0	0	0
1707	0	0	0
1708	0	0	0
1709	0	0	0
1710	0	0	0
1711	0	0	0
1712	0	0	0
1713	0	0	0
1714	0	0	0
1715	240	213	226
1716	247	221	233
1717	251	224	234
1718	254	225	235
1719	255	226	237
1720	253	210	228
1721	242	189	215
1722	251	200	224
1723	255	207	229
1724	254	203	226
1725	254	200	224
1726	250	193	220
1727	247	186	216
1728	252	191	221
1729	253	191	221
1730	255	197	225
1731	255	202	230
1732	255	199	228
1733	253	195	223
1734	252	196	223
1735	249	195	222
1736	250	201	224
1737	254	209	227
1738	252	206	224
1739	245	200	220
1740	246	210	225
1741	0	0	0
1742	0	0	0
1743	0	0	0
1744	0	0	0
1745	0	0	0
1746	0	0	0
1747	0	0	0
1748	0	0	0
1749	0	0	0
1750	0	0	0
1751	0	0	0
1752	0	0	0
1753	0	0	0
1754	0	0	0
1755	0	0	0
1756	0	0	0
1757	0	0	0
1758	0	0	0
1759	0	0	0
1760	0	0	0
1761	0	0	0
1762	0	0	0
1763	0	0	0
1764	0	0	0
1765	0	0	0
1766	0	0	0
1767	0	0	0
1768	0	0	0
1769	0	0	0
1770	0	0	0
1771	0	0	0
1772	0	0	0
1773	0	0	0
1774	0	0	0
1775	0	0	0
1776	0	0	0
1777	0	0	0
1778	246	226	236
1779	255	236	245
1780	250	221	232
1781	254	222	233
1782	255	218	233
1783	249	202	225
1784	246	193	221
1785	255	204	230
1786	253	198	226
1787	252	195	223
1788	255	198	225
1789	249	190	219
1790	252	192	222
1791	255	198	228
1792	249	181	215
1793	252	186	220
1794	255	195	228
1795	255	192	225
1796	253	191	221
1797	254	193	222
1798	251	194	222
1799	249	198	224
1800	252	205	225
1801	251	202	222
1802	247	201	220
1803	244	209	223
1804	0	0	0
1805	0	0	0
1806	0	0	0
1807	0	0	0
1808	0	0	0
1809	0	0	0
1810	0	0	0
1811	0	0	0
1812	0	0	0
1813	0	0	0
1814	0	0	0
1815	0	0	0
1816	0	0	0
1817	0	0	0
1818	0	0	0
1819	0	0	0
1820	0	0	0
1821	0	0	0
1822	0	0	0
1823	0	0	0
1824	0	0	0
1825	0	0	0
1826	0	0	0
1827	0	0	0
1828	0	0	0
1829	0	0	0
1830	0	0	0
1831	0	0	0
1832	0	0	0
1833	0	0	0
1834	0	0	0
1835	0	0	0
1836	0	0	0
1837	0	0	0
1838	0	0	0
1839	0	0	0
1840	0	0	0
1841	0	0	0
1842	246	225	236
1843	239	211	225
1844	0	0	0
1845	246	206	227
1846	248	201	228
1847	246	193	225
1848	250	193	226
1849	247	187	223
1850	255	195	228
1851	255	198	229
1852	255	198	228
1853	255	199	229
1854	255	187	222
1855	245	171	213
1856	254	183	223
1857	255	192	229
1858	255	192	227
1859	255	191	223
1860	255	193	222
1861	255	193	223
1862	254	198	226
1863	255	205	228
1864	255	207	227
1865	252	205	223
1866	247	210	224
1867	0	0	0
1868	0	0	0
1869	0	0	0
1870	0	0	0
1871	0	0	0
1872	0	0	0
1873	0	0	0
1874	0	0	0
1875	0	0	0
1876	0	0	0
1877	0	0	0
1878	0	0	0
1879	0	0	0
1880	0	0	0
1881	0	0	0
1882	0	0	0
1883	0	0	0
1884	0	0	0
1885	0	0	0
1886	0	0	0
1887	0	0	0
1888	0	0	0
1889	0	0	0
1890	0	0	0
1891	0	0	0
1892	0	0	0
1893	0	0	0
1894	0	0	0
1895	0	0	0
1896	0	0	0
1897	0	0	0
1898	0	0	0
1899	0	0	0
1900	0	0	0
1901	0	0	0
1902	0	0	0
1903	0	0	0
1904	0	0	0
1905	0	0	0
1906	0	0	0
1907	0	0	0
1908	250	215	233
1909	253	212	235
1910	249	198	229
1911	255	200	233
1912	253	191	228
1913	255	198	233
1914	253	186	224
1915	254	187	224
1916	254	184	223
1917	248	172	215
1918	252	176	219
1919	255	188	229
1920	254	177	222
1921	253	177	221
1922	254	180	218
1923	253	181	217
1924	253	183	218
1925	255	190	223
1926	255	193	222
1927	251	192	220
1928	250	197	220
1929	248	204	222
1930	253	215	229
1931	0	0	0
1932	0	0	0
1933	0	0	0
1934	253	226	233
1935	0	0	0
1936	0	0	0
1937	0	0	0
1938	0	0	0
1939	0	0	0
1940	0	0	0
1941	0	0	0
1942	0	0	0
1943	0	0	0
1944	0	0	0
1945	0	0	0
1946	0	0	0
1947	0	0	0
1948	0	0	0
1949	0	0	0
1950	0	0	0
1951	0	0	0
1952	0	0	0
1953	0	0	0
1954	0	0	0
1955	0	0	0
1956	0	0	0
1957	0	0	0
1958	0	0	0
1959	0	0	0
1960	0	0	0
1961	0	0	0
1962	0	0	0
1963	0	0	0
1964	0	0	0
1965	0	0	0
1966	0	0	0
1967	0	0	0
1968	0	0	0
1969	0	0	0
1970	0	0	0
1971	247	218	230
1972	247	208	227
1973	244	196	224
1974	249	193	227
1975	248	185	222
1976	247	179	219
1977	243	169	213
1978	247	171	217
1979	248	169	218
1980	255	176	224
1981	255	178	224
1982	253	170	218
1983	246	160	213
1984	250	166	217
1985	251	170	217
1986	252	173	217
1987	251	175	216
1988	254	179	218
1989	252	181	217
1990	251	187	220
1991	250	193	222
1992	250	199	224
1993	255	209	228
1994	252	206	225
1995	0	0	0
1996	252	212	228
1997	253	219	231
1998	249	219	229
1999	0	0	0
2000	0	0	0
2001	0	0	0
2002	0	0	0
2003	0	0	0
2004	0	0	0
2005	0	0	0
2006	0	0	0
2007	0	0	0
2008	0	0	0
2009	0	0	0
2010	0	0	0
2011	0	0	0
2012	0	0	0
2013	0	0	0
2014	0	0	0
2015	0	0	0
2016	0	0	0
2017	0	0	0
2018	0	0	0
2019	0	0	0
2020	0	0	0
2021	0	0	0
2022	0	0	0
2023	0	0	0
2024	0	0	0
2025	0	0	0
2026	0	0	0
2027	0	0	0
2028	0	0	0
2029	0	0	0
2030	0	0	0
2031	0	0	0
2032	0	0	0
2033	0	0	0
2034	249	226	232
2035	250	217	230
2036	247	202	227
2037	251	200	229
2038	252	193	226
2039	254	189	225
2040	252	180	223
2041	255	183	229
2042	249	166	220
2043	255	172	226
2044	253	167	220
2045	248	159	213
2046	251	161	217
2047	255	168	222
2048	253	165	220
2049	254	169	221
2050	250	166	216
2051	251	170	216
2052	249	173	216
2053	246	178	218
2054	246	184	220
2055	249	192	222
2056	251	199	223
2057	247	195	218
2058	253	205	223
2059	255	213	228
2060	253	212	227
2061	250	213	226
2062	0	0	0
2063	0	0	0
2064	0	0	0
2065	0	0	0
2066	0	0	0
2067	0	0	0
2068	0	0	0
2069	0	0	0
2070	0	0	0
2071	0	0	0
2072	0	0	0
2073	0	0	0
2074	0	0	0
2075	0	0	0
2076	0	0	0
2077	0	0	0
2078	0	0	0
2079	0	0	0
2080	0	0	0
2081	0	0	0
2082	0	0	0
2083	0	0	0
2084	0	0	0
2085	0	0	0
2086	0	0	0
2087	0	0	0
2088	0	0	0
2089	0	0	0
2090	0	0	0
2091	0	0	0
2092	0	0	0
2093	0	0	0
2094	0	0	0
2095	0	0	0
2096	0	0	0
2097	0	0	0
2098	246	218	229
2099	243	204	225
2100	248	202	228
2101	250	196	225
2102	253	191	226
2103	253	182	225
2104	251	171	222
2105	243	155	214
2106	247	157	218
2107	246	153	216
2108	251	157	219
2109	253	160	219
2110	252	159	219
2111	251	157	218
2112	252	159	220
2113	249	157	216
2114	251	164	219
2115	249	166	219
2116	247	172	220
2117	247	178	219
2118	249	184	220
2119	251	190	221
2120	254	199	223
2121	255	208	226
2122	254	205	221
2123	250	204	220
2124	251	210	223
2125	254	217	228
2126	252	217	229
2127	0	0	0
2128	0	0	0
2129	0	0	0
2130	252	231	237
2131	0	0	0
2132	0	0	0
2133	0	0	0
2134	0	0	0
2135	0	0	0
2136	0	0	0
2137	0	0	0
2138	0	0	0
2139	0	0	0
2140	0	0	0
2141	0	0	0
2142	0	0	0
2143	0	0	0
2144	0	0	0
2145	0	0	0
2146	0	0	0
2147	0	0	0
2148	0	0	0
2149	0	0	0
2150	0	0	0
2151	0	0	0
2152	0	0	0
2153	0	0	0
2154	0	0	0
2155	0	0	0
2156	0	0	0
2157	0	0	0
2158	0	0	0
2159	0	0	0
2160	0	0	0
2161	0	0	0
2162	245	217	230
2163	254	216	235
2164	249	198	225
2165	254	194	227
2166	253	183	225
2167	252	173	223
2168	249	162	220
2169	255	165	226
2170	251	155	220
2171	255	161	224
2172	255	161	222
2173	255	160	221
2174	255	158	222
2175	255	161	225
2176	251	154	219
2177	255	161	222
2178	254	164	222
2179	254	171	223
2180	252	174	221
2181	252	179	221
2182	251	183	220
2183	255	191	222
2184	253	194	220
2185	245	189	212
2186	251	202	220
2187	254	209	224
2188	253	209	225
2189	251	209	225
2190	247	208	223
2191	0	0	0
2192	254	225	235
2193	253	227	236
2194	246	224	231
2195	0	0	0
2196	0	0	0
2197	0	0	0
2198	0	0	0
2199	0	0	0
2200	0	0	0
2201	0	0	0
2202	0	0	0
2203	0	0	0
2204	0	0	0
2205	0	0	0
2206	0	0	0
2207	0	0	0
2208	0	0	0
2209	0	0	0
2210	0	0	0
2211	0	0	0
2212	0	0	0
2213	0	0	0
2214	0	0	0
2215	0	0	0
2216	0	0	0
2217	0	0	0
2218	0	0	0
2219	0	0	0
2220	0	0	0
2221	0	0	0
2222	0	0	0
2223	0	0	0
2224	0	0	0
2225	0	0	0
2226	245	213	227
2227	243	196	222
2228	249	190	224
2229	249	179	221
2230	252	173	221
2231	251	164	219
2232	255	163	223
2233	251	154	218
2234	255	161	224
2235	255	162	224
2236	255	160	223
2237	255	158	223
2238	255	154	221
2239	251	148	216
2240	255	156	222
2241	255	159	220
2242	255	165	221
2243	254	168	221
2244	253	172	221
2245	251	175	219
2246	249	177	218
2247	248	181	218
2248	249	190	221
2249	254	202	225
2250	248	199	220
2251	246	199	220
2252	243	198	219
2253	240	197	218
2254	249	210	226
2255	254	221	232
2256	251	220	230
2257	244	216	227
2258	0	0	0
2259	0	0	0
2260	0	0	0
2261	0	0	0
2262	0	0	0
2263	0	0	0
2264	0	0	0
2265	0	0	0
2266	0	0	0
2267	0	0	0
2268	0	0	0
2269	0	0	0
2270	0	0	0
2271	0	0	0
2272	0	0	0
2273	0	0	0
2274	0	0	0
2275	0	0	0
2276	0	0	0
2277	0	0	0
2278	0	0	0
2279	0	0	0
2280	0	0	0
2281	0	0	0
2282	0	0	0
2283	0	0	0
2284	0	0	0
2285	0	0	0
2286	0	0	0
2287	0	0	0
2288	0	0	0
2289	0	0	0
2290	249	209	229
2291	255	205	233
2292	251	183	223
2293	254	178	224
2294	255	172	224
2295	255	172	228
2296	245	142	211
2297	254	151	219
2298	253	148	218
2299	254	147	217
2300	255	148	218
2301	252	144	216
2302	252	145	217
2303	255	154	223
2304	252	149	217
2305	254	155	219
2306	252	158	219
2307	251	161	219
2308	251	168	219
2309	247	170	217
2310	250	181	223
2311	252	191	226
2312	250	195	223
2313	240	189	215
2314	244	199	221
2315	241	198	220
2316	245	204	224
2317	255	219	234
2318	253	214	228
2319	250	213	226
2320	248	215	229
2321	0	0	0
2322	0	0	0
2323	0	0	0
2324	0	0	0
2325	0	0	0
2326	0	0	0
2327	0	0	0
2328	0	0	0
2329	0	0	0
2330	0	0	0
2331	0	0	0
2332	0	0	0
2333	0	0	0
2334	0	0	0
2335	0	0	0
2336	0	0	0
2337	0	0	0
2338	0	0	0
2339	0	0	0
2340	0	0	0
2341	0	0	0
2342	0	0	0
2343	0	0	0
2344	0	0	0
2345	0	0	0
2346	0	0	0
2347	0	0	0
2348	0	0	0
2349	0	0	0
2350	0	0	0
2351	0	0	0
2352	0	0	0
2353	248	217	230
2354	249	201	226
2355	246	182	220
2356	254	181	225
2357	255	175	224
2358	249	154	215
2359	234	126	201
2360	244	134	212
2361	244	132	212
2362	248	136	215
2363	249	137	214
2364	249	138	214
2365	250	139	216
2366	251	141	217
2367	245	136	213
2368	246	142	215
2369	245	144	215
2370	248	153	217
2371	248	160	218
2372	247	168	218
2373	249	178	222
2374	247	182	220
2375	245	187	220
2376	246	194	222
2377	249	204	227
2378	248	207	227
2379	252	212	230
2380	251	209	227
2381	247	204	221
2382	249	208	224
2383	248	210	227
2384	250	221	233
2385	0	0	0
2386	0	0	0
2387	0	0	0
2388	0	0	0
2389	0	0	0
2390	0	0	0
2391	0	0	0
2392	0	0	0
2393	0	0	0
2394	0	0	0
2395	0	0	0
2396	0	0	0
2397	0	0	0
2398	0	0	0
2399	0	0	0
2400	0	0	0
2401	0	0	0
2402	0	0	0
2403	0	0	0
2404	0	0	0
2405	0	0	0
2406	0	0	0
2407	0	0	0
2408	0	0	0
2409	0	0	0
2410	0	0	0
2411	0	0	0
2412	0	0	0
2413	0	0	0
2414	0	0	0
2415	0	0	0
2416	248	227	233
2417	250	212	230
2418	247	190	224
2419	255	192	232
2420	255	178	226
2421	249	157	217
2422	238	133	209
2423	250	143	222
2424	242	129	214
2425	246	133	217
2426	249	138	217
2427	250	139	217
2428	253	143	220
2429	253	144	222
2430	239	127	209
2431	239	132	211
2432	246	146	218
2433	252	157	222
2434	252	162	221
2435	250	169	221
2436	249	176	222
2437	246	180	220
2438	249	188	223
2439	255	199	228
2440	250	195	223
2441	245	196	222
2442	245	201	224
2443	240	195	218
2444	246	205	223
2445	250	210	226
2446	249	211	228
2447	253	222	235
2448	247	219	230
2449	0	0	0
2450	0	0	0
2451	0	0	0
2452	0	0	0
2453	0	0	0
2454	0	0	0
2455	0	0	0
2456	0	0	0
2457	0	0	0
2458	0	0	0
2459	0	0	0
2460	0	0	0
2461	0	0	0
2462	0	0	0
2463	0	0	0
2464	0	0	0
2465	0	0	0
2466	0	0	0
2467	0	0	0
2468	0	0	0
2469	0	0	0
2470	0	0	0
2471	0	0	0
2472	0	0	0
2473	0	0	0
2474	0	0	0
2475	0	0	0
2476	0	0	0
2477	0	0	0
2478	0	0	0
2479	252	240	240
2480	245	215	229
2481	242	194	224
2482	252	187	227
2483	251	174	222
2484	243	154	214
2485	233	130	206
2486	237	128	212
2487	230	115	206
2488	240	127	215
2489	244	133	215
2490	250	140	219
2491	253	143	221
2492	243	131	212
2493	229	115	201
2494	238	132	212
2495	245	146	218
2496	250	154	220
2497	250	159	218
2498	250	167	219
2499	249	174	221
2500	248	180	222
2501	250	188	224
2502	247	186	220
2503	242	182	214
2504	240	186	215
2505	242	192	220
2506	247	201	225
2507	253	210	229
2508	253	211	229
2509	251	212	230
2510	248	211	230
2511	0	0	0
2512	0	0	0
2513	0	0	0
2514	0	0	0
2515	0	0	0
2516	0	0	0
2517	0	0	0
2518	0	0	0
2519	0	0	0
2520	0	0	0
2521	0	0	0
2522	0	0	0
2523	0	0	0
2524	0	0	0
2525	0	0	0
2526	0	0	0
2527	0	0	0
2528	0	0	0
2529	0	0	0
2530	0	0	0
2531	0	0	0
2532	0	0	0
2533	0	0	0
2534	0	0	0
2535	0	0	0
2536	0	0	0
2537	0	0	0
2538	0	0	0
2539	0	0	0
2540	0	0	0
2541	0	0	0
2542	249	240	239
2543	236	212	224
2544	243	206	228
2545	254	200	233
2546	247	176	222
2547	239	156	215
2548	236	142	214
2549	240	141	220
2550	241	137	221
2551	252	151	231
2552	243	134	219
2553	252	143	224
2554	242	128	213
2555	232	115	204
2556	238	126	211
2557	249	144	223
2558	248	147	220
2559	249	153	220
2560	253	164	222
2561	255	173	225
2562	247	167	219
2563	246	173	220
2564	245	181	221
2565	235	174	213
2566	238	182	216
2567	243	189	221
2568	246	193	224
2569	253	203	230
2570	250	199	225
2571	249	199	223
2572	250	205	228
2573	245	204	226
2574	0	0	0
2575	0	0	0
2576	0	0	0
2577	0	0	0
2578	0	0	0
2579	0	0	0
2580	0	0	0
2581	0	0	0
2582	0	0	0
2583	0	0	0
2584	0	0	0
2585	0	0	0
2586	0	0	0
2587	0	0	0
2588	0	0	0
2589	0	0	0
2590	0	0	0
2591	0	0	0
2592	0	0	0
2593	0	0	0
2594	0	0	0
2595	0	0	0
2596	0	0	0
2597	0	0	0
2598	0	0	0
2599	0	0	0
2600	0	0	0
2601	0	0	0
2602	0	0	0
2603	0	0	0
2604	0	0	0
2605	252	246	242
2606	240	226	231
2607	245	218	232
2608	245	197	227
2609	240	174	220
2610	242	166	222
2611	239	153	221
2612	248	157	229
2613	249	155	229
2614	247	146	226
2615	240	132	219
2616	241	127	218
2617	231	112	207
2618	241	127	217
2619	247	138	223
2620	250	145	225
2621	248	146	221
2622	251	156	222
2623	254	166	225
2624	245	160	217
2625	237	155	212
2626	240	165	218
2627	240	173	220
2628	236	177	220
2629	239	184	223
2630	243	188	225
2631	246	191	226
2632	245	189	224
2633	242	185	220
2634	247	193	224
2635	249	199	225
2636	248	204	227
2637	0	0	0
2638	0	0	0
2639	0	0	0
2640	0	0	0
2641	0	0	0
2642	0	0	0
2643	0	0	0
2644	0	0	0
2645	0	0	0
2646	0	0	0
2647	0	0	0
2648	0	0	0
2649	0	0	0
2650	0	0	0
2651	0	0	0
2652	0	0	0
2653	0	0	0
2654	0	0	0
2655	0	0	0
2656	0	0	0
2657	0	0	0
2658	0	0	0
2659	0	0	0
2660	0	0	0
2661	0	0	0
2662	0	0	0
2663	0	0	0
2664	0	0	0
2665	0	0	0
2666	0	0	0
2667	0	0	0
2668	252	247	242
2669	237	225	229
2670	244	224	233
2671	242	202	226
2672	242	185	225
2673	248	179	230
2674	245	163	226
2675	253	168	234
2676	248	154	227
2677	247	146	225
2678	239	129	220
2679	241	124	220
2680	238	119	215
2681	247	134	224
2682	240	128	218
2683	242	134	218
2684	245	143	219
2685	248	153	221
2686	249	162	223
2687	235	153	213
2688	234	158	215
2689	242	171	224
2690	240	172	223
2691	240	178	225
2692	238	180	224
2693	238	181	223
2694	242	187	226
2695	240	184	223
2696	242	187	225
2697	250	196	230
2698	251	199	228
2699	254	205	231
2700	250	204	230
2701	0	0	0
2702	0	0	0
2703	0	0	0
2704	0	0	0
2705	0	0	0
2706	0	0	0
2707	0	0	0
2708	0	0	0
2709	0	0	0
2710	0	0	0
2711	0	0	0
2712	0	0	0
2713	0	0	0
2714	0	0	0
2715	0	0	0
2716	0	0	0
2717	0	0	0
2718	0	0	0
2719	0	0	0
2720	0	0	0
2721	0	0	0
2722	0	0	0
2723	0	0	0
2724	0	0	0
2725	0	0	0
2726	0	0	0
2727	0	0	0
2728	0	0	0
2729	0	0	0
2730	0	0	0
2731	0	0	0
2732	242	235	235
2733	246	232	237
2734	239	209	227
2735	238	191	223
2736	246	184	228
2737	244	168	225
2738	246	161	227
2739	241	147	220
2740	235	133	216
2741	227	116	210
2742	233	119	215
2743	229	113	209
2744	227	114	208
2745	221	109	202
2746	230	123	210
2747	236	134	213
2748	245	149	221
2749	247	159	222
2750	235	157	216
2751	234	162	218
2752	236	166	221
2753	235	167	220
2754	233	169	220
2755	232	171	219
2756	234	177	222
2757	238	183	225
2758	239	184	225
2759	242	187	228
2760	248	192	231
2761	250	196	230
2762	250	196	228
2763	246	194	226
2764	248	203	229
2765	251	212	233
2766	251	215	233
2767	0	0	0
2768	0	0	0
2769	0	0	0
2770	0	0	0
2771	0	0	0
2772	0	0	0
2773	0	0	0
2774	0	0	0
2775	0	0	0
2776	0	0	0
2777	0	0	0
2778	0	0	0
2779	0	0	0
2780	0	0	0
2781	0	0	0
2782	0	0	0
2783	0	0	0
2784	0	0	0
2785	0	0	0
2786	0	0	0
2787	0	0	0
2788	0	0	0
2789	0	0	0
2790	0	0	0
2791	0	0	0
2792	0	0	0
2793	0	0	0
2794	0	0	0
2795	0	0	0
2796	245	239	239
2797	0	0	0
2798	239	206	228
2799	251	201	234
2800	247	180	228
2801	250	173	231
2802	243	156	224
2803	234	141	219
2804	230	131	217
2805	234	134	221
2806	229	128	215
2807	228	129	215
2808	228	130	214
2809	239	147	224
2810	240	146	221
2811	255	165	233
2812	244	153	220
2813	231	150	214
2814	238	167	223
2815	240	171	225
2816	236	169	222
2817	233	170	222
2818	233	174	223
2819	237	180	226
2820	239	184	227
2821	239	185	227
2822	243	188	229
2823	249	194	233
2824	252	197	232
2825	250	196	230
2826	249	197	229
2827	254	207	234
2828	254	211	233
2829	253	213	233
2830	252	214	232
2831	0	0	0
2832	0	0	0
2833	0	0	0
2834	0	0	0
2835	0	0	0
2836	0	0	0
2837	0	0	0
2838	0	0	0
2839	0	0	0
2840	0	0	0
2841	0	0	0
2842	0	0	0
2843	0	0	0
2844	0	0	0
2845	0	0	0
2846	0	0	0
2847	0	0	0
2848	0	0	0
2849	0	0	0
2850	0	0	0
2851	0	0	0
2852	0	0	0
2853	0	0	0
2854	0	0	0
2855	0	0	0
2856	0	0	0
2857	0	0	0
2858	0	0	0
2859	0	0	0
2860	0	0	0
2861	244	225	236
2862	244	205	231
2863	241	184	224
2864	245	175	227
2865	241	160	224
2866	240	156	227
2867	235	145	222
2868	240	149	227
2869	237	144	224
2870	242	151	229
2871	242	153	228
2872	243	155	228
2873	243	155	225
2874	243	152	222
2875	232	141	213
2876	233	155	219
2877	241	172	228
2878	240	171	225
2879	236	169	223
2880	234	173	224
2881	235	177	225
2882	235	179	226
2883	236	182	227
2884	235	182	225
2885	239	185	226
2886	245	190	228
2887	248	193	228
2888	248	195	228
2889	249	197	230
2890	252	202	231
2891	252	205	229
2892	250	206	227
2893	249	208	229
2894	0	0	0
2895	0	0	0
2896	0	0	0
2897	0	0	0
2898	0	0	0
2899	0	0	0
2900	0	0	0
2901	0	0	0
2902	0	0	0
2903	0	0	0
2904	0	0	0
2905	0	0	0
2906	0	0	0
2907	0	0	0
2908	0	0	0
2909	0	0	0
2910	0	0	0
2911	0	0	0
2912	0	0	0
2913	0	0	0
2914	0	0	0
2915	0	0	0
2916	0	0	0
2917	0	0	0
2918	0	0	0
2919	0	0	0
2920	0	0	0
2921	0	0	0
2922	0	0	0
2923	0	0	0
2924	243	232	237
2925	234	208	226
2926	237	194	224
2927	248	189	231
2928	244	171	227
2929	246	168	231
2930	238	151	223
2931	244	155	229
2932	242	148	226
2933	250	158	233
2934	246	152	227
2935	245	153	226
2936	235	145	219
2937	224	136	210
2938	224	142	213
2939	234	161	224
2940	239	170	227
2941	237	169	224
2942	232	164	221
2943	231	168	222
2944	231	171	223
2945	229	172	222
2946	235	183	227
2947	234	184	225
2948	239	189	227
2949	245	194	229
2950	245	192	226
2951	246	194	227
2952	250	199	231
2953	254	205	233
2954	254	208	230
2955	251	208	228
2956	248	209	229
2957	0	0	0
2958	0	0	0
2959	0	0	0
2960	0	0	0
2961	0	0	0
2962	0	0	0
2963	0	0	0
2964	0	0	0
2965	0	0	0
2966	0	0	0
2967	0	0	0
2968	0	0	0
2969	0	0	0
2970	0	0	0
2971	0	0	0
2972	0	0	0
2973	0	0	0
2974	0	0	0
2975	0	0	0
2976	0	0	0
2977	0	0	0
2978	0	0	0
2979	0	0	0
2980	0	0	0
2981	0	0	0
2982	0	0	0
2983	0	0	0
2984	0	0	0
2985	0	0	0
2986	0	0	0
2987	0	0	0
2988	236	221	230
2989	236	207	227
2990	243	196	229
2991	240	177	224
2992	241	169	226
2993	235	154	221
2994	242	156	227
2995	240	150	224
2996	242	150	225
2997	238	144	220
2998	236	142	219
2999	226	134	213
3000	223	140	215
3001	223	146	217
3002	233	160	224
3003	238	169	227
3004	233	164	222
3005	227	159	219
3006	226	163	221
3007	227	166	222
3008	234	178	228
3009	240	188	231
3010	237	189	227
3011	241	194	229
3012	243	193	228
3013	243	191	226
3014	247	197	230
3015	251	201	232
3016	254	205	233
3017	254	208	231
3018	250	209	229
3019	248	210	229
3020	0	0	0
3021	0	0	0
3022	251	224	232
3023	0	0	0
3024	0	0	0
3025	0	0	0
3026	0	0	0
3027	0	0	0
3028	0	0	0
3029	0	0	0
3030	0	0	0
3031	0	0	0
3032	0	0	0
3033	0	0	0
3034	0	0	0
3035	0	0	0
3036	0	0	0
3037	0	0	0
3038	0	0	0
3039	0	0	0
3040	0	0	0
3041	0	0	0
3042	0	0	0
3043	0	0	0
3044	0	0	0
3045	0	0	0
3046	0	0	0
3047	0	0	0
3048	0	0	0
3049	0	0	0
3050	0	0	0
3051	0	0	0
3052	236	218	230
3053	237	203	228
3054	228	176	218
3055	232	170	222
3056	231	159	222
3057	241	163	229
3058	236	153	223
3059	234	151	222
3060	231	146	220
3061	234	147	222
3062	233	148	224
3063	234	157	228
3064	231	155	225
3065	243	169	233
3066	235	161	225
3067	224	153	217
3068	223	157	220
3069	223	161	222
3070	231	173	229
3071	244	187	237
3072	240	183	230
3073	235	182	224
3074	243	196	230
3075	244	194	228
3076	243	190	226
3077	248	196	230
3078	250	201	232
3079	251	204	232
3080	250	206	230
3081	247	207	228
3082	247	208	228
3083	255	218	234
3084	255	221	234
3085	254	222	234
3086	249	220	233
3087	0	0	0
3088	0	0	0
3089	0	0	0
3090	0	0	0
3091	0	0	0
3092	0	0	0
3093	0	0	0
3094	0	0	0
3095	0	0	0
3096	0	0	0
3097	0	0	0
3098	0	0	0
3099	0	0	0
3100	0	0	0
3101	0	0	0
3102	0	0	0
3103	0	0	0
3104	0	0	0
3105	0	0	0
3106	0	0	0
3107	0	0	0
3108	0	0	0
3109	0	0	0
3110	0	0	0
3111	0	0	0
3112	0	0	0
3113	0	0	0
3114	0	0	0
3115	243	233	239
3116	230	204	225
3117	220	177	216
3118	229	175	225
3119	230	166	225
3120	237	166	230
3121	233	157	223
3122	231	155	224
3123	229	151	225
3124	238	161	233
3125	239	162	233
3126	236	162	231
3127	234	160	229
3128	234	158	227
3129	226	150	219
3130	221	151	218
3131	219	155	221
3132	223	165	226
3133	231	176	231
3134	237	178	231
3135	235	175	227
3136	238	185	229
3137	246	198	233
3138	242	192	227
3139	241	189	224
3140	248	195	229
3141	250	200	232
3142	250	202	232
3143	248	205	229
3144	242	202	224
3145	243	204	226
3146	251	211	232
3147	253	215	231
3148	248	212	229
3149	245	211	230
3150	243	213	233
3151	0	0	0
3152	0	0	0
3153	0	0	0
3154	0	0	0
3155	0	0	0
3156	0	0	0
3157	0	0	0
3158	0	0	0
3159	0	0	0
3160	0	0	0
3161	0	0	0
3162	0	0	0
3163	0	0	0
3164	0	0	0
3165	0	0	0
3166	0	0	0
3167	0	0	0
3168	0	0	0
3169	0	0	0
3170	0	0	0
3171	0	0	0
3172	0	0	0
3173	0	0	0
3174	0	0	0
3175	0	0	0
3176	0	0	0
3177	0	0	0
3178	245	239	241
3179	228	207	225
3180	223	190	222
3181	233	189	232
3182	226	168	225
3183	234	170	231
3184	228	157	224
3185	228	157	226
3186	219	143	221
3187	225	151	227
3188	223	148	223
3189	225	150	224
3190	224	150	223
3191	220	145	218
3192	223	153	222
3193	223	157	224
3194	223	162	227
3195	226	171	231
3196	228	174	230
3197	232	175	230
3198	235	179	231
3199	241	191	235
3200	240	191	229
3201	236	184	222
3202	244	193	227
3203	251	201	233
3204	249	198	231
3205	248	200	230
3206	251	210	231
3207	246	208	227
3208	247	210	231
3209	252	217	236
3210	251	215	233
3211	248	214	232
3212	245	212	233
3213	243	215	235
3214	0	0	0
3215	0	0	0
3216	0	0	0
3217	0	0	0
3218	0	0	0
3219	0	0	0
3220	0	0	0
3221	0	0	0
3222	0	0	0
3223	0	0	0
3224	0	0	0
3225	0	0	0
3226	0	0	0
3227	0	0	0
3228	0	0	0
3229	0	0	0
3230	0	0	0
3231	0	0	0
3232	0	0	0
3233	0	0	0
3234	0	0	0
3235	0	0	0
3236	0	0	0
3237	0	0	0
3238	0	0	0
3239	0	0	0
3240	0	0	0
3241	0	0	0
3242	232	219	230
3243	226	201	226
3244	225	187	225
3245	218	166	219
3246	225	166	227
3247	221	156	224
3248	218	149	224
3249	209	135	216
3250	211	138	219
3251	210	136	217
3252	216	142	221
3253	216	141	220
3254	221	150	224
3255	225	158	228
3256	226	164	229
3257	227	169	230
3258	226	171	229
3259	228	174	231
3260	233	179	234
3261	237	183	234
3262	238	185	232
3263	237	185	228
3264	242	191	229
3265	249	200	233
3266	249	197	231
3267	246	194	229
3268	251	205	233
3269	255	215	233
3270	251	214	230
3271	252	217	235
3272	250	216	235
3273	249	214	234
3274	248	214	234
3275	243	211	231
3276	244	218	234
3277	0	0	0
3278	0	0	0
3279	0	0	0
3280	0	0	0
3281	0	0	0
3282	0	0	0
3283	0	0	0
3284	0	0	0
3285	0	0	0
3286	0	0	0
3287	0	0	0
3288	0	0	0
3289	0	0	0
3290	0	0	0
3291	0	0	0
3292	0	0	0
3293	0	0	0
3294	0	0	0
3295	0	0	0
3296	0	0	0
3297	0	0	0
3298	0	0	0
3299	0	0	0
3300	0	0	0
3301	0	0	0
3302	0	0	0
3303	0	0	0
3304	0	0	0
3305	0	0	0
3306	231	215	231
3307	229	201	230
3308	218	174	222
3309	224	174	231
3310	216	157	227
3311	217	153	229
3312	211	142	223
3313	212	145	226
3314	212	144	225
3315	217	148	228
3316	212	139	221
3317	219	150	227
3318	226	160	232
3319	227	164	232
3320	228	168	230
3321	230	171	231
3322	235	178	235
3323	236	181	236
3324	237	182	235
3325	239	184	235
3326	238	182	231
3327	242	189	232
3328	249	199	234
3329	246	195	229
3330	250	200	233
3331	255	212	238
3332	252	210	231
3333	252	211	229
3334	253	215	234
3335	249	212	233
3336	252	218	238
3337	251	218	237
3338	246	217	234
3339	0	0	0
3340	0	0	0
3341	0	0	0
3342	0	0	0
3343	0	0	0
3344	0	0	0
3345	0	0	0
3346	0	0	0
3347	0	0	0
3348	0	0	0
3349	0	0	0
3350	0	0	0
3351	0	0	0
3352	0	0	0
3353	0	0	0
3354	0	0	0
3355	0	0	0
3356	0	0	0
3357	0	0	0
3358	0	0	0
3359	0	0	0
3360	0	0	0
3361	0	0	0
3362	0	0	0
3363	0	0	0
3364	0	0	0
3365	0	0	0
3366	0	0	0
3367	0	0	0
3368	0	0	0
3369	0	0	0
3370	229	205	229
3371	218	180	223
3372	217	171	228
3373	211	155	226
3374	215	155	232
3375	209	145	227
3376	212	148	230
3377	212	147	230
3378	209	142	226
3379	204	134	218
3380	219	151	231
3381	227	162	238
3382	228	165	237
3383	230	169	236
3384	233	173	235
3385	237	179	235
3386	234	178	232
3387	235	179	234
3388	234	178	233
3389	233	176	230
3390	242	188	235
3391	248	197	235
3392	250	200	233
3393	252	205	236
3394	250	204	233
3395	248	204	229
3396	249	207	230
3397	249	210	232
3398	247	212	233
3399	249	219	237
3400	249	220	237
3401	0	0	0
3402	0	0	0
3403	0	0	0
3404	0	0	0
3405	0	0	0
3406	0	0	0
3407	0	0	0
3408	0	0	0
3409	0	0	0
3410	0	0	0
3411	0	0	0
3412	0	0	0
3413	0	0	0
3414	0	0	0
3415	0	0	0
3416	0	0	0
3417	0	0	0
3418	0	0	0
3419	0	0	0
3420	0	0	0
3421	0	0	0
3422	0	0	0
3423	0	0	0
3424	0	0	0
3425	0	0	0
3426	0	0	0
3427	0	0	0
3428	0	0	0
3429	0	0	0
3430	0	0	0
3431	0	0	0
3432	0	0	0
3433	0	0	0
3434	226	195	229
3435	228	188	236
3436	213	160	229
3437	215	159	236
3438	207	145	228
3439	213	151	234
3440	210	147	230
3441	205	141	225
3442	210	146	228
3443	227	164	242
3444	219	151	233
3445	221	155	233
3446	234	174	241
3447	236	177	238
3448	237	179	236
3449	236	179	234
3450	236	181	236
3451	231	178	233
3452	238	188	238
3453	250	201	244
3454	246	195	235
3455	247	199	234
3456	251	205	236
3457	250	205	234
3458	252	210	236
3459	249	211	234
3460	246	212	234
3461	244	215	234
3462	0	0	0
3463	0	0	0
3464	0	0	0
3465	0	0	0
3466	0	0	0
3467	0	0	0
3468	0	0	0
3469	0	0	0
3470	0	0	0
3471	0	0	0
3472	0	0	0
3473	0	0	0
3474	0	0	0
3475	0	0	0
3476	0	0	0
3477	0	0	0
3478	0	0	0
3479	0	0	0
3480	0	0	0
3481	0	0	0
3482	0	0	0
3483	0	0	0
3484	0	0	0
3485	0	0	0
3486	0	0	0
3487	0	0	0
3488	0	0	0
3489	0	0	0
3490	0	0	0
3491	0	0	0
3492	0	0	0
3493	0	0	0
3494	0	0	0
3495	0	0	0
3496	0	0	0
3497	235	209	233
3498	229	189	231
3499	215	162	229
3500	213	157	235
3501	204	144	228
3502	207	147	231
3503	204	142	225
3504	207	148	229
3505	212	153	233
3506	211	147	230
3507	202	133	222
3508	217	154	233
3509	230	173	239
3510	230	173	234
3511	232	175	234
3512	233	177	234
3513	233	179	234
3514	235	187	236
3515	242	197	239
3516	242	194	236
3517	240	190	231
3518	246	198	235
3519	249	204	237
3520	249	208	237
3521	249	212	237
3522	244	211	233
3523	240	212	231
3524	0	0	0
3525	0	0	0
3526	0	0	0
3527	0	0	0
3528	0	0	0
3529	0	0	0
3530	0	0	0
3531	0	0	0
3532	0	0	0
3533	0	0	0
3534	0	0	0
3535	0	0	0
3536	0	0	0
3537	0	0	0
3538	0	0	0
3539	0	0	0
3540	0	0	0
3541	0	0	0
3542	0	0	0
3543	0	0	0
3544	0	0	0
3545	0	0	0
3546	0	0	0
3547	0	0	0
3548	0	0	0
3549	0	0	0
3550	0	0	0
3551	0	0	0
3552	0	0	0
3553	0	0	0
3554	0	0	0
3555	0	0	0
3556	0	0	0
3557	0	0	0
3558	0	0	0
3559	0	0	0
3560	238	215	233
3561	235	195	231
3562	224	171	231
3563	223	168	239
3564	215	158	237
3565	213	158	238
3566	207	151	231
3567	214	160	237
3568	209	153	234
3569	202	143	228
3570	202	144	229
3571	217	165	239
3572	229	181	242
3573	232	182	239
3574	229	178	235
3575	227	178	232
3576	233	188	236
3577	244	199	241
3578	246	202	239
3579	241	196	233
3580	243	197	235
3581	252	208	242
3582	249	207	239
3583	244	208	236
3584	244	216	237
3585	0	0	0
3586	0	0	0
3587	0	0	0
3588	0	0	0
3589	0	0	0
3590	0	0	0
3591	0	0	0
3592	0	0	0
3593	0	0	0
3594	0	0	0
3595	0	0	0
3596	0	0	0
3597	0	0	0
3598	0	0	0
3599	0	0	0
3600	0	0	0
3601	0	0	0
3602	0	0	0
3603	0	0	0
3604	0	0	0
3605	0	0	0
3606	0	0	0
3607	0	0	0
3608	0	0	0
3609	0	0	0
3610	0	0	0
3611	0	0	0
3612	0	0	0
3613	0	0	0
3614	0	0	0
3615	0	0	0
3616	0	0	0
3617	0	0	0
3618	0	0	0
3619	0	0	0
3620	0	0	0
3621	0	0	0
3622	0	0	0
3623	242	222	237
3624	236	200	231
3625	224	175	225
3626	227	176	236
3627	220	167	237
3628	216	165	239
3629	210	159	235
3630	210	156	235
3631	206	149	233
3632	208	154	236
3633	207	155	235
3634	219	172	242
3635	231	188	246
3636	233	185	239
3637	230	181	233
3638	233	189	235
3639	239	198	238
3640	246	203	240
3641	248	206	239
3642	244	203	236
3643	245	204	237
3644	248	207	239
3645	244	206	235
3646	240	211	234
3647	0	0	0
3648	0	0	0
3649	0	0	0
3650	0	0	0
3651	0	0	0
3652	0	0	0
3653	0	0	0
3654	0	0	0
3655	0	0	0
3656	0	0	0
3657	0	0	0
3658	0	0	0
3659	0	0	0
3660	0	0	0
3661	0	0	0
3662	0	0	0
3663	0	0	0
3664	0	0	0
3665	0	0	0
3666	0	0	0
3667	0	0	0
3668	0	0	0
3669	0	0	0
3670	0	0	0
3671	0	0	0
3672	0	0	0
3673	0	0	0
3674	0	0	0
3675	0	0	0
3676	0	0	0
3677	0	0	0
3678	0	0	0
3679	0	0	0
3680	0	0	0
3681	0	0	0
3682	0	0	0
3683	0	0	0
3684	0	0	0
3685	0	0	0
3686	240	223	236
3687	230	199	226
3688	225	185	226
3689	230	187	237
3690	217	166	232
3691	215	166	237
3692	217	168	240
3693	217	165	240
3694	216	163	241
3695	221	169	245
3696	224	174	245
3697	235	191	251
3698	241	197	250
3699	243	195	244
3700	237	186	235
3701	240	194	237
3702	243	199	237
3703	246	202	237
3704	246	203	236
3705	242	201	233
3706	245	207	239
3707	244	209	238
3708	241	211	235
3709	0	0	0
3710	0	0	0
3711	0	0	0
3712	0	0	0
3713	0	0	0
3714	0	0	0
3715	0	0	0
3716	0	0	0
3717	0	0	0
3718	0	0	0
3719	0	0	0
3720	0	0	0
3721	0	0	0
3722	0	0	0
3723	0	0	0
3724	0	0	0
3725	0	0	0
3726	0	0	0
3727	0	0	0
3728	0	0	0
3729	0	0	0
3730	0	0	0
3731	0	0	0
3732	0	0	0
3733	0	0	0
3734	0	0	0
3735	0	0	0
3736	0	0	0
3737	0	0	0
3738	0	0	0
3739	0	0	0
3740	0	0	0
3741	0	0	0
3742	0	0	0
3743	0	0	0
3744	0	0	0
3745	0	0	0
3746	0	0	0
3747	0	0	0
3748	0	0	0
3749	244	230	240
3750	239	215	236
3751	235	201	236
3752	228	187	235
3753	214	165	229
3754	219	172	238
3755	220	174	241
3756	221	174	241
3757	220	171	241
3758	230	182	248
3759	234	187	247
3760	240	195	248
3761	246	202	247
3762	240	193	237
3763	235	185	230
3764	241	194	235
3765	244	199	236
3766	245	201	236
3767	243	201	236
3768	242	205	237
3769	244	211	241
3770	244	215	241
3771	0	0	0
3772	0	0	0
3773	0	0	0
3774	0	0	0
3775	0	0	0
3776	0	0	0
3777	0	0	0
3778	0	0	0
3779	0	0	0
3780	0	0	0
3781	0	0	0
3782	0	0	0
3783	0	0	0
3784	0	0	0
3785	0	0	0
3786	0	0	0
3787	0	0	0
3788	0	0	0
3789	0	0	0
3790	0	0	0
3791	0	0	0
3792	0	0	0
3793	0	0	0
3794	0	0	0
3795	0	0	0
3796	0	0	0
3797	0	0	0
3798	0	0	0
3799	0	0	0
3800	0	0	0
3801	0	0	0
3802	0	0	0
3803	0	0	0
3804	0	0	0
3805	0	0	0
3806	0	0	0
3807	0	0	0
3808	0	0	0
3809	0	0	0
3810	0	0	0
3811	0	0	0
3812	247	235	242
3813	244	220	240
3814	235	200	235
3815	224	183	231
3816	223	181	235
3817	229	188	244
3818	225	184	242
3819	222	181	240
3820	225	183	242
3821	237	196	250
3822	239	194	245
3823	249	205	248
3824	244	199	240
3825	231	187	228
3826	238	197	234
3827	253	211	245
3828	244	196	234
3829	243	198	235
3830	245	206	238
3831	0	0	0
3832	0	0	0
3833	0	0	0
3834	0	0	0
3835	0	0	0
3836	0	0	0
3837	0	0	0
3838	0	0	0
3839	0	0	0
3840	0	0	0
3841	0	0	0
3842	0	0	0
3843	0	0	0
3844	0	0	0
3845	0	0	0
3846	0	0	0
3847	0	0	0
3848	0	0	0
3849	0	0	0
3850	0	0	0
3851	0	0	0
3852	0	0	0
3853	0	0	0
3854	0	0	0
3855	0	0	0
3856	0	0	0
3857	0	0	0
3858	0	0	0
3859	0	0	0
3860	0	0	0
3861	0	0	0
3862	0	0	0
3863	0	0	0
3864	0	0	0
3865	0	0	0
3866	0	0	0
3867	0	0	0
3868	0	0	0
3869	0	0	0
3870	0	0	0
3871	0	0	0
3872	0	0	0
3873	0	0	0
3874	0	0	0
3875	252	242	247
3876	242	220	239
3877	232	199	234
3878	233	200	240
3879	231	197	241
3880	235	198	245
3881	232	194	244
3882	233	197	246
3883	234	199	245
3884	240	201	245
3885	242	200	241
3886	247	201	241
3887	243	198	236
3888	240	202	236
3889	247	212	241
3890	248	205	238
3891	241	192	232
3892	249	206	241
3893	249	213	241
3894	245	219	240
3895	0	0	0
3896	0	0	0
3897	0	0	0
3898	0	0	0
3899	0	0	0
3900	0	0	0
3901	0	0	0
3902	0	0	0
3903	0	0	0
3904	0	0	0
3905	0	0	0
3906	0	0	0
3907	0	0	0
3908	0	0	0
3909	0	0	0
3910	0	0	0
3911	0	0	0
3912	0	0	0
3913	0	0	0
3914	0	0	0
3915	0	0	0
3916	0	0	0
3917	0	0	0
3918	0	0	0
3919	0	0	0
3920	0	0	0
3921	0	0	0
3922	0	0	0
3923	0	0	0
3924	0	0	0
3925	0	0	0
3926	0	0	0
3927	0	0	0
3928	0	0	0
3929	0	0	0
3930	0	0	0
3931	0	0	0
3932	0	0	0
3933	0	0	0
3934	0	0	0
3935	0	0	0
3936	0	0	0
3937	250	245	245
3938	249	239	244
3939	235	214	233
3940	235	211	238
3941	237	211	243
3942	236	207	241
3943	242	209	245
3944	241	205	245
3945	244	209	248
3946	241	205	244
3947	244	206	243
3948	245	206	240
3949	248	207	239
3950	246	203	237
3951	249	211	240
3952	251	214	240
3953	247	204	235
3954	242	196	234
3955	252	210	244
3956	248	213	240
3957	0	0	0
3958	0	0	0
3959	0	0	0
3960	0	0	0
3961	0	0	0
3962	0	0	0
3963	0	0	0
3964	0	0	0
3965	0	0	0
3966	0	0	0
3967	0	0	0
3968	0	0	0
3969	0	0	0
3970	0	0	0
3971	0	0	0
3972	0	0	0
3973	0	0	0
3974	0	0	0
3975	0	0	0
3976	0	0	0
3977	0	0	0
3978	0	0	0
3979	0	0	0
3980	0	0	0
3981	0	0	0
3982	0	0	0
3983	0	0	0
3984	0	0	0
3985	0	0	0
3986	0	0	0
3987	0	0	0
3988	0	0	0
3989	0	0	0
3990	0	0	0
3991	0	0	0
3992	0	0	0
3993	0	0	0
3994	0	0	0
3995	0	0	0
3996	0	0	0
3997	0	0	0
3998	0	0	0
3999	255	255	249
4000	251	246	244
4001	249	239	243
4002	245	232	242
4003	243	227	244
4004	241	222	243
4005	240	217	241
4006	243	215	242
4007	243	212	242
4008	242	211	242
4009	240	208	241
4010	242	209	241
4011	243	209	237
4012	245	208	236
4013	244	205	234
4014	248	210	237
4015	251	213	239
4016	247	206	235
4017	241	198	233
4018	247	209	240
4019	0	0	0
4020	0	0	0
4021	0	0	0
4022	0	0	0
4023	0	0	0
4024	0	0	0
4025	0	0	0
4026	0	0	0
4027	0	0	0
4028	0	0	0
4029	0	0	0
4030	0	0	0
4031	0	0	0
4032	0	0	0
4033	0	0	0
4034	0	0	0
4035	0	0	0
4036	0	0	0
4037	0	0	0
4038	0	0	0
4039	0	0	0
4040	0	0	0
4041	0	0	0
4042	0	0	0
4043	0	0	0
4044	0	0	0
4045	0	0	0
4046	0	0	0
4047	0	0	0
4048	0	0	0
4049	0	0	0
4050	0	0	0
4051	0	0	0
4052	0	0	0
4053	0	0	0
4054	0	0	0
4055	0	0	0
4056	0	0	0
4057	0	0	0
4058	0	0	0
4059	0	0	0
4060	0	0	0
4061	0	0	0
4062	254	253	247
4063	246	240	239
4064	244	235	239
4065	239	227	237
4066	0	0	0
4067	0	0	0
4068	0	0	0
4069	0	0	0
4070	0	0	0
4071	0	0	0
4072	0	0	0
4073	0	0	0
4074	0	0	0
4075	0	0	0
4076	0	0	0
4077	253	220	242
4078	249	212	237
4079	244	205	233
4080	0	0	0
4081	0	0	0
4082	0	0	0
4083	0	0	0
4084	0	0	0
4085	0	0	0
4086	0	0	0
4087	0	0	0
4088	0	0	0
4089	0	0	0
4090	0	0	0
4091	0	0	0
4092	0	0	0
4093	0	0	0
4094	0	0	0
4095	0	0	0
4096	0	0	0
4097	0	0	0
4098	0	0	0
4099	0	0	0
4100	0	0	0
4101	0	0	0
4102	0	0	0
4103	0	0	0
4104	0	0	0
4105	0	0	0
4106	0	0	0
4107	0	0	0
4108	0	0	0
4109	0	0	0
4110	0	0	0
4111	0	0	0
4112	0	0	0
4113	0	0	0
4114	0	0	0
4115	0	0	0
4116	0	0	0
4117	0	0	0
4118	0	0	0
4119	0	0	0
4120	0	0	0
4121	0	0	0
4122	0	0	0
4123	0	0	0
4124	0	0	0
4125	0	0	0
4126	250	243	244
4127	246	236	241
4128	0	0	0
4129	0	0	0
4130	0	0	0
4131	0	0	0
4132	0	0	0
4133	0	0	0
4134	0	0	0
4135	0	0	0
4136	0	0	0
4137	0	0	0
4138	0	0	0
4139	0	0	0
4140	0	0	0
4141	0	0	0
4142	0	0	0
4143	0	0	0
4144	0	0	0
4145	0	0	0
4146	0	0	0
4147	0	0	0
4148	0	0	0
4149	0	0	0
4150	0	0	0
4151	0	0	0
4152	0	0	0
4153	0	0	0
4154	0	0	0
4155	0	0	0
4156	0	0	0
4157	0	0	0
4158	0	0	0
