 	R	G	B
1	0	0	0
2	0	0	0
3	0	0	0
4	0	0	0
5	0	0	0
6	0	0	0
7	0	0	0
8	0	0	0
9	0	0	0
10	0	0	0
11	0	0	0
12	0	0	0
13	0	0	0
14	255	217	230
15	0	0	0
16	0	0	0
17	0	0	0
18	0	0	0
19	0	0	0
20	0	0	0
21	0	0	0
22	0	0	0
23	0	0	0
24	0	0	0
25	0	0	0
26	0	0	0
27	0	0	0
28	0	0	0
29	0	0	0
30	0	0	0
31	0	0	0
32	0	0	0
33	0	0	0
34	0	0	0
35	0	0	0
36	0	0	0
37	0	0	0
38	0	0	0
39	0	0	0
40	0	0	0
41	0	0	0
42	0	0	0
43	0	0	0
44	0	0	0
45	0	0	0
46	0	0	0
47	0	0	0
48	0	0	0
49	0	0	0
50	0	0	0
51	0	0	0
52	0	0	0
53	0	0	0
54	0	0	0
55	0	0	0
56	0	0	0
57	0	0	0
58	0	0	0
59	0	0	0
60	0	0	0
61	0	0	0
62	0	0	0
63	0	0	0
64	0	0	0
65	255	219	232
66	255	214	228
67	255	213	228
68	0	0	0
69	0	0	0
70	0	0	0
71	0	0	0
72	0	0	0
73	0	0	0
74	0	0	0
75	0	0	0
76	0	0	0
77	0	0	0
78	0	0	0
79	0	0	0
80	0	0	0
81	0	0	0
82	0	0	0
83	0	0	0
84	0	0	0
85	0	0	0
86	0	0	0
87	0	0	0
88	0	0	0
89	0	0	0
90	0	0	0
91	0	0	0
92	0	0	0
93	0	0	0
94	0	0	0
95	0	0	0
96	0	0	0
97	0	0	0
98	0	0	0
99	0	0	0
100	0	0	0
101	0	0	0
102	0	0	0
103	0	0	0
104	0	0	0
105	0	0	0
106	0	0	0
107	0	0	0
108	0	0	0
109	0	0	0
110	0	0	0
111	0	0	0
112	0	0	0
113	0	0	0
114	0	0	0
115	255	219	233
116	255	218	232
117	255	214	229
118	253	209	226
119	251	203	225
120	244	193	221
121	255	208	231
122	0	0	0
123	253	222	231
124	255	233	237
125	255	239	239
126	0	0	0
127	0	0	0
128	0	0	0
129	0	0	0
130	0	0	0
131	0	0	0
132	0	0	0
133	0	0	0
134	0	0	0
135	0	0	0
136	0	0	0
137	0	0	0
138	0	0	0
139	0	0	0
140	0	0	0
141	0	0	0
142	0	0	0
143	0	0	0
144	0	0	0
145	0	0	0
146	0	0	0
147	0	0	0
148	0	0	0
149	0	0	0
150	0	0	0
151	0	0	0
152	0	0	0
153	0	0	0
154	0	0	0
155	0	0	0
156	0	0	0
157	0	0	0
158	0	0	0
159	0	0	0
160	0	0	0
161	0	0	0
162	0	0	0
163	0	0	0
164	0	0	0
165	0	0	0
166	250	219	233
167	255	224	238
168	254	213	228
169	251	208	225
170	250	204	224
171	249	199	224
172	248	194	224
173	255	211	235
174	250	200	222
175	252	211	226
176	251	218	228
177	250	223	230
178	251	232	234
179	0	0	0
180	0	0	0
181	0	0	0
182	0	0	0
183	0	0	0
184	0	0	0
185	0	0	0
186	0	0	0
187	0	0	0
188	0	0	0
189	0	0	0
190	0	0	0
191	0	0	0
192	0	0	0
193	0	0	0
194	0	0	0
195	0	0	0
196	0	0	0
197	0	0	0
198	0	0	0
199	0	0	0
200	0	0	0
201	0	0	0
202	0	0	0
203	0	0	0
204	0	0	0
205	0	0	0
206	0	0	0
207	0	0	0
208	0	0	0
209	0	0	0
210	0	0	0
211	0	0	0
212	0	0	0
213	0	0	0
214	0	0	0
215	0	0	0
216	0	0	0
217	247	219	230
218	253	224	236
219	253	216	232
220	248	205	223
221	246	200	220
222	246	197	221
223	251	198	225
224	249	193	221
225	254	196	224
226	246	188	215
227	250	200	222
228	250	207	225
229	250	215	227
230	250	223	230
231	0	0	0
232	0	0	0
233	0	0	0
234	0	0	0
235	0	0	0
236	0	0	0
237	0	0	0
238	0	0	0
239	0	0	0
240	0	0	0
241	0	0	0
242	0	0	0
243	0	0	0
244	0	0	0
245	0	0	0
246	0	0	0
247	0	0	0
248	0	0	0
249	0	0	0
250	0	0	0
251	0	0	0
252	0	0	0
253	0	0	0
254	0	0	0
255	0	0	0
256	0	0	0
257	0	0	0
258	0	0	0
259	0	0	0
260	0	0	0
261	0	0	0
262	0	0	0
263	0	0	0
264	0	0	0
265	0	0	0
266	0	0	0
267	0	0	0
268	251	223	233
269	254	225	235
270	253	221	234
271	246	209	227
272	247	207	224
273	249	205	224
274	251	201	226
275	255	204	231
276	250	187	220
277	253	190	222
278	243	178	213
279	250	192	221
280	249	197	222
281	248	204	223
282	248	213	225
283	0	0	0
284	0	0	0
285	0	0	0
286	0	0	0
287	0	0	0
288	0	0	0
289	0	0	0
290	0	0	0
291	0	0	0
292	0	0	0
293	0	0	0
294	0	0	0
295	0	0	0
296	0	0	0
297	0	0	0
298	0	0	0
299	0	0	0
300	0	0	0
301	0	0	0
302	0	0	0
303	0	0	0
304	0	0	0
305	0	0	0
306	0	0	0
307	0	0	0
308	0	0	0
309	0	0	0
310	0	0	0
311	0	0	0
312	0	0	0
313	0	0	0
314	0	0	0
315	0	0	0
316	0	0	0
317	0	0	0
318	0	0	0
319	251	226	234
320	252	226	235
321	252	221	233
322	251	216	231
323	247	212	227
324	248	210	225
325	251	207	225
326	253	203	227
327	251	192	224
328	243	176	216
329	244	175	217
330	236	164	209
331	246	180	218
332	246	185	218
333	251	199	224
334	251	207	226
335	0	0	0
336	0	0	0
337	0	0	0
338	0	0	0
339	0	0	0
340	0	0	0
341	0	0	0
342	0	0	0
343	0	0	0
344	0	0	0
345	0	0	0
346	0	0	0
347	0	0	0
348	0	0	0
349	0	0	0
350	0	0	0
351	0	0	0
352	0	0	0
353	0	0	0
354	0	0	0
355	0	0	0
356	0	0	0
357	0	0	0
358	0	0	0
359	0	0	0
360	0	0	0
361	0	0	0
362	0	0	0
363	0	0	0
364	0	0	0
365	0	0	0
366	0	0	0
367	0	0	0
368	0	0	0
369	0	0	0
370	0	0	0
371	0	0	0
372	248	222	232
373	250	218	231
374	252	218	231
375	249	214	228
376	249	210	226
377	254	208	228
378	252	198	224
379	245	185	220
380	244	178	219
381	246	178	223
382	237	165	214
383	250	182	225
384	246	177	219
385	255	193	226
386	247	192	220
387	0	0	0
388	0	0	0
389	0	0	0
390	0	0	0
391	0	0	0
392	0	0	0
393	0	0	0
394	0	0	0
395	0	0	0
396	0	0	0
397	0	0	0
398	0	0	0
399	0	0	0
400	0	0	0
401	0	0	0
402	0	0	0
403	0	0	0
404	0	0	0
405	0	0	0
406	0	0	0
407	0	0	0
408	0	0	0
409	0	0	0
410	0	0	0
411	0	0	0
412	0	0	0
413	0	0	0
414	0	0	0
415	0	0	0
416	0	0	0
417	0	0	0
418	0	0	0
419	0	0	0
420	0	0	0
421	0	0	0
422	0	0	0
423	246	221	229
424	249	221	232
425	254	222	233
426	254	221	230
427	247	211	223
428	248	209	227
429	249	200	225
430	246	190	220
431	245	184	220
432	243	177	220
433	240	171	219
434	232	158	212
435	239	166	218
436	236	162	213
437	245	175	220
438	239	174	213
439	247	196	222
440	255	218	230
441	254	220	228
442	255	225	229
443	255	235	234
444	0	0	0
445	0	0	0
446	0	0	0
447	0	0	0
448	0	0	0
449	0	0	0
450	0	0	0
451	0	0	0
452	0	0	0
453	0	0	0
454	0	0	0
455	0	0	0
456	0	0	0
457	0	0	0
458	0	0	0
459	0	0	0
460	0	0	0
461	0	0	0
462	0	0	0
463	0	0	0
464	0	0	0
465	0	0	0
466	0	0	0
467	0	0	0
468	0	0	0
469	0	0	0
470	0	0	0
471	0	0	0
472	0	0	0
473	0	0	0
474	246	225	231
475	254	227	234
476	251	217	231
477	252	216	230
478	251	215	225
479	242	205	219
480	251	213	230
481	251	205	229
482	246	190	222
483	247	186	223
484	243	177	221
485	240	171	220
486	238	166	219
487	243	173	226
488	231	157	214
489	239	170	221
490	233	164	212
491	250	191	226
492	249	195	222
493	246	196	217
494	251	210	223
495	253	218	226
496	252	227	228
497	0	0	0
498	0	0	0
499	0	0	0
500	0	0	0
501	0	0	0
502	0	0	0
503	0	0	0
504	0	0	0
505	0	0	0
506	0	0	0
507	0	0	0
508	0	0	0
509	0	0	0
510	0	0	0
511	0	0	0
512	0	0	0
513	0	0	0
514	0	0	0
515	0	0	0
516	0	0	0
517	0	0	0
518	0	0	0
519	0	0	0
520	0	0	0
521	0	0	0
522	0	0	0
523	0	0	0
524	246	223	231
525	245	225	231
526	252	230	235
527	251	221	231
528	248	211	228
529	251	213	230
530	250	212	226
531	248	212	225
532	255	218	233
533	247	201	226
534	242	187	221
535	240	180	220
536	236	171	215
537	237	170	217
538	235	167	218
539	231	160	216
540	220	145	208
541	227	153	215
542	224	150	209
543	236	166	217
544	237	171	215
545	244	186	220
546	250	199	223
547	252	207	225
548	252	216	228
549	251	229	234
550	0	0	0
551	0	0	0
552	0	0	0
553	0	0	0
554	0	0	0
555	0	0	0
556	0	0	0
557	0	0	0
558	0	0	0
559	0	0	0
560	0	0	0
561	0	0	0
562	0	0	0
563	0	0	0
564	0	0	0
565	0	0	0
566	0	0	0
567	0	0	0
568	0	0	0
569	0	0	0
570	0	0	0
571	0	0	0
572	0	0	0
573	0	0	0
574	0	0	0
575	249	228	237
576	247	222	232
577	251	226	234
578	253	225	234
579	247	213	227
580	251	215	232
581	255	218	236
582	248	207	226
583	246	206	224
584	248	208	227
585	237	190	217
586	242	193	224
587	238	184	221
588	234	177	217
589	236	178	220
590	231	167	216
591	228	161	217
592	225	153	216
593	236	165	226
594	228	152	217
595	237	166	225
596	227	155	213
597	236	171	219
598	240	181	220
599	245	191	221
600	251	206	227
601	255	221	234
602	255	231	238
603	0	0	0
604	0	0	0
605	0	0	0
606	0	0	0
607	0	0	0
608	0	0	0
609	0	0	0
610	0	0	0
611	0	0	0
612	0	0	0
613	0	0	0
614	0	0	0
615	0	0	0
616	0	0	0
617	0	0	0
618	0	0	0
619	0	0	0
620	0	0	0
621	0	0	0
622	0	0	0
623	0	0	0
624	0	0	0
625	0	0	0
626	249	230	240
627	247	225	236
628	246	219	233
629	248	219	233
630	249	218	232
631	249	216	232
632	253	217	236
633	251	210	232
634	244	199	224
635	242	199	223
636	244	200	225
637	245	199	225
638	247	201	229
639	241	192	224
640	238	185	222
641	233	176	220
642	227	165	215
643	226	161	216
644	224	154	215
645	227	153	218
646	220	142	211
647	220	142	212
648	210	132	204
649	224	151	215
650	230	163	218
651	243	182	225
652	250	196	225
653	253	206	227
654	252	216	230
655	0	0	0
656	0	0	0
657	0	0	0
658	0	0	0
659	0	0	0
660	0	0	0
661	0	0	0
662	0	0	0
663	0	0	0
664	0	0	0
665	0	0	0
666	0	0	0
667	0	0	0
668	0	0	0
669	0	0	0
670	0	0	0
671	0	0	0
672	0	0	0
673	0	0	0
674	0	0	0
675	0	0	0
676	0	0	0
677	255	237	247
678	249	225	237
679	242	217	231
680	248	224	237
681	251	224	237
682	251	221	236
683	251	220	236
684	250	216	236
685	249	209	233
686	249	206	231
687	250	207	231
688	247	202	228
689	248	200	228
690	247	197	226
691	240	188	221
692	240	186	223
693	234	176	220
694	227	165	215
695	224	160	216
696	224	156	218
697	226	155	221
698	218	141	213
699	218	143	215
700	214	136	211
701	231	158	225
702	234	163	225
703	247	182	231
704	243	180	220
705	246	190	220
706	245	198	221
707	0	0	0
708	0	0	0
709	0	0	0
710	0	0	0
711	0	0	0
712	0	0	0
713	0	0	0
714	0	0	0
715	0	0	0
716	0	0	0
717	0	0	0
718	0	0	0
719	0	0	0
720	0	0	0
721	0	0	0
722	0	0	0
723	0	0	0
724	0	0	0
725	0	0	0
726	0	0	0
727	0	0	0
728	0	0	0
729	0	0	0
730	241	214	230
731	247	222	235
732	252	229	240
733	252	226	237
734	252	224	236
735	248	217	233
736	247	213	234
737	247	210	233
738	247	207	231
739	246	203	228
740	245	199	227
741	246	196	227
742	245	193	224
743	243	188	223
744	243	186	226
745	236	175	222
746	229	164	217
747	226	160	219
748	225	157	221
749	219	148	217
750	210	134	208
751	212	137	212
752	209	132	208
753	224	149	220
754	228	154	217
755	233	161	217
756	232	161	211
757	240	175	216
758	240	183	219
759	247	204	227
760	0	0	0
761	255	233	235
762	0	0	0
763	0	0	0
764	0	0	0
765	0	0	0
766	0	0	0
767	0	0	0
768	0	0	0
769	0	0	0
770	0	0	0
771	0	0	0
772	0	0	0
773	0	0	0
774	0	0	0
775	0	0	0
776	0	0	0
777	0	0	0
778	0	0	0
779	0	0	0
780	0	0	0
781	0	0	0
782	0	0	0
783	255	235	245
784	246	218	234
785	242	213	229
786	251	225	236
787	249	219	233
788	248	216	234
789	243	211	231
790	244	211	231
791	248	208	231
792	249	205	232
793	250	202	232
794	247	194	226
795	246	190	226
796	246	186	227
797	240	176	224
798	234	167	222
799	231	163	222
800	229	161	224
801	221	151	219
802	215	142	214
803	218	147	219
804	208	130	208
805	223	148	220
806	220	143	212
807	225	151	213
808	227	153	210
809	237	168	218
810	236	170	217
811	248	194	228
812	254	211	230
813	251	214	226
814	255	227	232
815	0	0	0
816	0	0	0
817	0	0	0
818	0	0	0
819	0	0	0
820	0	0	0
821	0	0	0
822	0	0	0
823	0	0	0
824	0	0	0
825	0	0	0
826	0	0	0
827	0	0	0
828	0	0	0
829	0	0	0
830	0	0	0
831	0	0	0
832	0	0	0
833	0	0	0
834	249	232	240
835	245	220	235
836	236	204	227
837	245	217	235
838	253	228	239
839	250	222	233
840	248	219	232
841	243	215	230
842	245	216	233
843	248	212	234
844	249	208	233
845	244	198	227
846	241	189	222
847	243	185	222
848	242	181	224
849	235	171	220
850	229	163	219
851	230	163	222
852	228	161	221
853	223	154	219
854	218	147	217
855	211	137	213
856	200	121	202
857	210	130	209
858	208	128	205
859	217	139	211
860	219	143	209
861	230	155	216
862	231	158	217
863	246	181	227
864	253	198	228
865	253	204	225
866	255	216	230
867	255	223	232
868	0	0	0
869	0	0	0
870	0	0	0
871	0	0	0
872	0	0	0
873	0	0	0
874	0	0	0
875	0	0	0
876	0	0	0
877	0	0	0
878	0	0	0
879	0	0	0
880	0	0	0
881	0	0	0
882	0	0	0
883	0	0	0
884	0	0	0
885	0	0	0
886	250	235	241
887	243	221	234
888	242	216	235
889	255	231	247
890	252	226	239
891	246	218	230
892	247	220	231
893	245	217	230
894	245	215	233
895	244	209	231
896	245	207	231
897	239	197	225
898	242	196	226
899	247	194	228
900	242	185	225
901	229	172	218
902	231	174	223
903	237	177	229
904	229	163	221
905	228	159	221
906	220	148	218
907	211	137	213
908	206	130	209
909	215	140	218
910	205	124	206
911	214	137	214
912	209	128	206
913	221	141	213
914	221	141	211
915	238	165	223
916	243	174	222
917	246	181	220
918	254	198	227
919	254	205	226
920	255	218	229
921	0	0	0
922	0	0	0
923	0	0	0
924	0	0	0
925	0	0	0
926	0	0	0
927	0	0	0
928	0	0	0
929	0	0	0
930	0	0	0
931	0	0	0
932	0	0	0
933	0	0	0
934	0	0	0
935	0	0	0
936	0	0	0
937	0	0	0
938	0	0	0
939	247	229	238
940	246	224	237
941	251	226	241
942	249	221	237
943	246	220	235
944	247	221	234
945	244	217	231
946	245	214	233
947	244	211	233
948	244	209	233
949	240	204	230
950	244	204	232
951	248	199	231
952	243	189	225
953	240	188	225
954	242	190	229
955	237	177	225
956	230	164	220
957	225	155	219
958	218	145	216
959	214	140	215
960	209	135	214
961	206	127	210
962	195	111	200
963	197	112	201
964	193	105	194
965	202	115	200
966	203	115	196
967	219	135	208
968	228	147	214
969	241	167	223
970	251	183	227
971	255	195	227
972	255	205	226
973	254	213	226
974	0	0	0
975	0	0	0
976	0	0	0
977	0	0	0
978	0	0	0
979	0	0	0
980	0	0	0
981	0	0	0
982	0	0	0
983	0	0	0
984	0	0	0
985	0	0	0
986	0	0	0
987	0	0	0
988	0	0	0
989	0	0	0
990	0	0	0
991	0	0	0
992	251	234	242
993	0	0	0
994	249	221	237
995	245	220	236
996	244	221	233
997	0	0	0
998	248	221	237
999	248	218	237
1000	242	209	232
1001	238	203	228
1002	248	212	235
1003	251	206	233
1004	245	191	224
1005	250	194	228
1006	244	184	224
1007	232	167	217
1008	228	162	219
1009	223	153	217
1010	220	148	217
1011	219	147	220
1012	215	139	217
1013	210	131	214
1014	202	118	207
1015	204	121	209
1016	198	112	202
1017	206	122	207
1018	205	119	202
1019	221	140	216
1020	217	133	211
1021	232	154	222
1022	242	166	224
1023	255	181	226
1024	255	188	223
1025	251	195	220
1026	253	212	229
1027	0	0	0
1028	0	0	0
1029	0	0	0
1030	0	0	0
1031	0	0	0
1032	0	0	0
1033	0	0	0
1034	0	0	0
1035	0	0	0
1036	0	0	0
1037	0	0	0
1038	0	0	0
1039	0	0	0
1040	0	0	0
1041	0	0	0
1042	0	0	0
1043	0	0	0
1044	0	0	0
1045	0	0	0
1046	0	0	0
1047	0	0	0
1048	0	0	0
1049	0	0	0
1050	0	0	0
1051	246	217	233
1052	0	0	0
1053	242	212	230
1054	251	219	235
1055	246	203	226
1056	242	189	221
1057	245	184	222
1058	241	174	219
1059	234	166	217
1060	230	161	218
1061	226	156	219
1062	224	152	219
1063	222	147	219
1064	217	139	216
1065	211	130	212
1066	203	119	206
1067	203	117	206
1068	198	109	199
1069	202	114	202
1070	201	113	198
1071	204	115	199
1072	198	107	193
1073	214	128	207
1074	226	143	213
1075	243	160	221
1076	247	169	219
1077	251	184	223
1078	253	200	229
1079	0	0	0
1080	0	0	0
1081	0	0	0
1082	0	0	0
1083	0	0	0
1084	0	0	0
1085	0	0	0
1086	0	0	0
1087	0	0	0
1088	0	0	0
1089	0	0	0
1090	0	0	0
1091	0	0	0
1092	0	0	0
1093	0	0	0
1094	0	0	0
1095	0	0	0
1096	0	0	0
1097	0	0	0
1098	0	0	0
1099	0	0	0
1100	0	0	0
1101	0	0	0
1102	0	0	0
1103	0	0	0
1104	0	0	0
1105	0	0	0
1106	247	215	230
1107	238	196	219
1108	243	195	224
1109	247	190	226
1110	244	180	223
1111	241	174	222
1112	243	175	227
1113	241	171	228
1114	234	159	224
1115	230	154	224
1116	217	134	212
1117	209	125	208
1118	210	125	210
1119	214	125	212
1120	211	119	207
1121	216	126	211
1122	216	125	209
1123	218	128	210
1124	207	114	200
1125	218	135	214
1126	214	129	207
1127	229	146	216
1128	235	153	216
1129	247	173	225
1130	252	192	231
1131	0	0	0
1132	0	0	0
1133	0	0	0
1134	0	0	0
1135	0	0	0
1136	0	0	0
1137	0	0	0
1138	0	0	0
1139	0	0	0
1140	0	0	0
1141	0	0	0
1142	0	0	0
1143	0	0	0
1144	0	0	0
1145	0	0	0
1146	0	0	0
1147	0	0	0
1148	0	0	0
1149	0	0	0
1150	0	0	0
1151	0	0	0
1152	0	0	0
1153	0	0	0
1154	0	0	0
1155	0	0	0
1156	0	0	0
1157	0	0	0
1158	0	0	0
1159	242	204	226
1160	246	202	229
1161	245	192	226
1162	243	182	222
1163	248	184	227
1164	250	185	230
1165	242	172	225
1166	235	161	223
1167	224	145	216
1168	211	126	205
1169	213	129	210
1170	216	129	215
1171	221	130	217
1172	219	125	211
1173	225	130	214
1174	225	131	212
1175	219	124	207
1176	208	112	198
1177	205	112	199
1178	198	107	194
1179	212	125	206
1180	219	134	209
1181	244	165	228
1182	251	184	233
1183	0	0	0
1184	0	0	0
1185	0	0	0
1186	0	0	0
1187	0	0	0
1188	0	0	0
1189	0	0	0
1190	0	0	0
1191	0	0	0
1192	0	0	0
1193	0	0	0
1194	0	0	0
1195	0	0	0
1196	0	0	0
1197	0	0	0
1198	0	0	0
1199	0	0	0
1200	0	0	0
1201	0	0	0
1202	0	0	0
1203	0	0	0
1204	0	0	0
1205	0	0	0
1206	0	0	0
1207	0	0	0
1208	0	0	0
1209	0	0	0
1210	0	0	0
1211	0	0	0
1212	249	207	231
1213	245	195	225
1214	249	194	227
1215	255	197	232
1216	246	180	223
1217	235	165	217
1218	234	163	221
1219	223	148	215
1220	214	133	208
1221	223	139	217
1222	227	138	220
1223	231	139	223
1224	224	125	212
1225	231	132	216
1226	226	123	208
1227	222	118	204
1228	225	125	209
1229	222	128	211
1230	210	115	203
1231	215	130	213
1232	212	127	209
1233	241	161	230
1234	240	164	225
1235	0	0	0
1236	0	0	0
1237	0	0	0
1238	0	0	0
1239	0	0	0
1240	0	0	0
1241	0	0	0
1242	0	0	0
1243	0	0	0
1244	0	0	0
1245	0	0	0
1246	0	0	0
1247	0	0	0
1248	0	0	0
1249	0	0	0
1250	0	0	0
1251	0	0	0
1252	0	0	0
1253	0	0	0
1254	0	0	0
1255	0	0	0
1256	0	0	0
1257	0	0	0
1258	0	0	0
1259	0	0	0
1260	0	0	0
1261	0	0	0
1262	0	0	0
1263	0	0	0
1264	0	0	0
1265	250	206	228
1266	253	204	228
1267	245	187	220
1268	236	171	214
1269	235	169	217
1270	234	167	220
1271	226	154	216
1272	219	140	211
1273	228	144	219
1274	231	142	220
1275	228	134	215
1276	222	121	207
1277	225	121	209
1278	222	114	204
1279	232	126	213
1280	237	134	218
1281	228	128	213
1282	215	117	205
1283	209	119	205
1284	204	116	201
1285	224	139	217
1286	226	144	216
1287	249	184	235
1288	0	0	0
1289	0	0	0
1290	0	0	0
1291	0	0	0
1292	0	0	0
1293	0	0	0
1294	0	0	0
1295	0	0	0
1296	0	0	0
1297	0	0	0
1298	0	0	0
1299	0	0	0
1300	0	0	0
1301	0	0	0
1302	0	0	0
1303	0	0	0
1304	0	0	0
1305	0	0	0
1306	0	0	0
1307	0	0	0
1308	0	0	0
1309	0	0	0
1310	0	0	0
1311	0	0	0
1312	0	0	0
1313	0	0	0
1314	0	0	0
1315	0	0	0
1316	0	0	0
1317	0	0	0
1318	251	205	226
1319	238	186	215
1320	240	185	220
1321	243	185	226
1322	235	168	219
1323	229	156	217
1324	225	145	215
1325	232	148	221
1326	230	142	218
1327	225	132	212
1328	219	121	205
1329	224	122	208
1330	220	112	204
1331	234	126	215
1332	240	134	218
1333	236	130	215
1334	227	123	210
1335	222	127	212
1336	211	119	205
1337	223	138	217
1338	212	127	207
1339	240	169	229
1340	255	208	241
1341	0	0	0
1342	0	0	0
1343	0	0	0
1344	0	0	0
1345	0	0	0
1346	0	0	0
1347	0	0	0
1348	0	0	0
1349	0	0	0
1350	0	0	0
1351	0	0	0
1352	0	0	0
1353	0	0	0
1354	0	0	0
1355	0	0	0
1356	0	0	0
1357	0	0	0
1358	0	0	0
1359	0	0	0
1360	0	0	0
1361	0	0	0
1362	0	0	0
1363	0	0	0
1364	0	0	0
1365	0	0	0
1366	0	0	0
1367	0	0	0
1368	0	0	0
1369	0	0	0
1370	0	0	0
1371	244	201	223
1372	245	199	226
1373	237	182	220
1374	231	166	217
1375	228	156	217
1376	225	145	214
1377	233	146	220
1378	232	142	218
1379	224	131	211
1380	218	120	203
1381	219	117	204
1382	216	107	200
1383	232	123	213
1384	240	132	217
1385	237	129	214
1386	231	125	211
1387	225	125	211
1388	214	117	203
1389	210	120	204
1390	198	109	195
1391	236	163	227
1392	255	204	241
1393	255	217	238
1394	0	0	0
1395	0	0	0
1396	0	0	0
1397	0	0	0
1398	0	0	0
1399	0	0	0
1400	0	0	0
1401	0	0	0
1402	0	0	0
1403	0	0	0
1404	0	0	0
1405	0	0	0
1406	0	0	0
1407	0	0	0
1408	0	0	0
1409	0	0	0
1410	0	0	0
1411	0	0	0
1412	0	0	0
1413	0	0	0
1414	0	0	0
1415	0	0	0
1416	0	0	0
1417	0	0	0
1418	0	0	0
1419	0	0	0
1420	0	0	0
1421	0	0	0
1422	0	0	0
1423	244	204	225
1424	244	201	225
1425	233	182	216
1426	235	178	222
1427	234	169	223
1428	238	164	225
1429	251	168	234
1430	240	148	222
1431	231	136	215
1432	225	128	210
1433	225	125	210
1434	215	107	201
1435	230	123	214
1436	229	121	210
1437	227	119	208
1438	228	122	210
1439	229	126	214
1440	207	102	196
1441	200	104	196
1442	200	111	199
1443	238	165	232
1444	244	180	231
1445	251	197	232
1446	255	218	237
1447	0	0	0
1448	0	0	0
1449	0	0	0
1450	0	0	0
1451	0	0	0
1452	0	0	0
1453	0	0	0
1454	0	0	0
1455	0	0	0
1456	0	0	0
1457	0	0	0
1458	0	0	0
1459	0	0	0
1460	0	0	0
1461	0	0	0
1462	0	0	0
1463	0	0	0
1464	0	0	0
1465	0	0	0
1466	0	0	0
1467	0	0	0
1468	0	0	0
1469	0	0	0
1470	0	0	0
1471	0	0	0
1472	0	0	0
1473	0	0	0
1474	244	212	227
1475	245	208	227
1476	245	205	228
1477	241	196	226
1478	243	191	229
1479	243	184	230
1480	247	179	231
1481	248	165	227
1482	238	146	218
1483	232	138	215
1484	227	130	211
1485	220	118	206
1486	210	102	198
1487	220	111	207
1488	218	109	204
1489	218	112	205
1490	218	115	207
1491	209	102	200
1492	189	79	184
1493	196	99	197
1494	196	107	198
1495	217	136	215
1496	226	153	219
1497	242	178	228
1498	0	0	0
1499	0	0	0
1500	0	0	0
1501	0	0	0
1502	0	0	0
1503	0	0	0
1504	0	0	0
1505	0	0	0
1506	0	0	0
1507	0	0	0
1508	0	0	0
1509	0	0	0
1510	0	0	0
1511	0	0	0
1512	0	0	0
1513	0	0	0
1514	0	0	0
1515	0	0	0
1516	0	0	0
1517	0	0	0
1518	0	0	0
1519	0	0	0
1520	0	0	0
1521	0	0	0
1522	0	0	0
1523	0	0	0
1524	0	0	0
1525	0	0	0
1526	244	220	231
1527	250	219	233
1528	248	209	230
1529	245	201	228
1530	247	198	231
1531	246	189	230
1532	243	176	226
1533	241	161	221
1534	242	157	223
1535	239	151	223
1536	233	140	218
1537	227	129	214
1538	223	120	211
1539	234	130	221
1540	217	110	206
1541	210	110	205
1542	204	106	203
1543	193	93	195
1544	188	88	193
1545	202	113	209
1546	194	105	200
1547	214	135	217
1548	219	144	218
1549	236	169	228
1550	248	192	235
1551	255	216	242
1552	0	0	0
1553	0	0	0
1554	0	0	0
1555	0	0	0
1556	0	0	0
1557	0	0	0
1558	0	0	0
1559	0	0	0
1560	0	0	0
1561	0	0	0
1562	0	0	0
1563	0	0	0
1564	0	0	0
1565	0	0	0
1566	0	0	0
1567	0	0	0
1568	0	0	0
1569	0	0	0
1570	0	0	0
1571	0	0	0
1572	0	0	0
1573	0	0	0
1574	0	0	0
1575	0	0	0
1576	0	0	0
1577	0	0	0
1578	0	0	0
1579	245	219	231
1580	243	209	227
1581	242	203	226
1582	244	200	228
1583	238	185	222
1584	235	172	221
1585	242	171	226
1586	244	166	226
1587	239	156	222
1588	234	146	220
1589	231	140	219
1590	228	132	216
1591	227	124	214
1592	212	105	202
1593	204	102	200
1594	196	98	198
1595	192	96	198
1596	188	93	198
1597	192	99	203
1598	186	94	194
1599	206	121	211
1600	211	131	210
1601	233	162	227
1602	247	186	236
1603	253	201	237
1604	255	216	236
1605	0	0	0
1606	0	0	0
1607	0	0	0
1608	0	0	0
1609	0	0	0
1610	0	0	0
1611	0	0	0
1612	0	0	0
1613	0	0	0
1614	0	0	0
1615	0	0	0
1616	0	0	0
1617	0	0	0
1618	0	0	0
1619	0	0	0
1620	0	0	0
1621	0	0	0
1622	0	0	0
1623	0	0	0
1624	0	0	0
1625	0	0	0
1626	0	0	0
1627	0	0	0
1628	0	0	0
1629	0	0	0
1630	0	0	0
1631	0	0	0
1632	242	220	230
1633	242	214	230
1634	240	206	228
1635	234	191	222
1636	235	183	224
1637	242	182	230
1638	240	171	226
1639	238	162	223
1640	235	153	222
1641	231	146	221
1642	224	131	214
1643	226	125	214
1644	219	112	208
1645	216	113	209
1646	206	105	204
1647	200	102	202
1648	212	122	218
1649	218	130	224
1650	206	114	210
1651	226	142	227
1652	205	116	204
1653	226	148	221
1654	235	165	227
1655	240	179	228
1656	244	196	228
1657	0	0	0
1658	0	0	0
1659	0	0	0
1660	0	0	0
1661	0	0	0
1662	0	0	0
1663	0	0	0
1664	0	0	0
1665	0	0	0
1666	0	0	0
1667	0	0	0
1668	0	0	0
1669	0	0	0
1670	0	0	0
1671	0	0	0
1672	0	0	0
1673	0	0	0
1674	0	0	0
1675	0	0	0
1676	0	0	0
1677	0	0	0
1678	0	0	0
1679	0	0	0
1680	0	0	0
1681	0	0	0
1682	0	0	0
1683	0	0	0
1684	0	0	0
1685	241	223	233
1686	240	215	231
1687	239	204	228
1688	238	195	228
1689	239	186	227
1690	238	176	226
1691	238	169	227
1692	236	160	224
1693	225	143	217
1694	219	129	211
1695	223	125	213
1696	217	111	205
1697	215	110	206
1698	207	103	202
1699	219	125	217
1700	231	145	230
1701	226	137	224
1702	214	122	211
1703	206	113	205
1704	186	89	185
1705	208	121	206
1706	217	139	215
1707	231	162	225
1708	238	182	229
1709	0	0	0
1710	0	0	0
1711	0	0	0
1712	0	0	0
1713	0	0	0
1714	0	0	0
1715	0	0	0
1716	0	0	0
1717	0	0	0
1718	0	0	0
1719	0	0	0
1720	0	0	0
1721	0	0	0
1722	0	0	0
1723	0	0	0
1724	0	0	0
1725	0	0	0
1726	0	0	0
1727	0	0	0
1728	0	0	0
1729	0	0	0
1730	0	0	0
1731	0	0	0
1732	0	0	0
1733	0	0	0
1734	0	0	0
1735	0	0	0
1736	0	0	0
1737	0	0	0
1738	244	225	236
1739	246	216	234
1740	240	200	227
1741	236	188	225
1742	238	183	228
1743	239	177	229
1744	235	165	225
1745	227	150	218
1746	227	143	219
1747	229	137	219
1748	220	121	209
1749	220	121	210
1750	224	127	216
1751	241	151	232
1752	234	142	226
1753	228	135	220
1754	210	114	206
1755	196	103	198
1756	191	100	195
1757	215	135	218
1758	217	139	218
1759	234	164	232
1760	239	178	234
1761	0	0	0
1762	0	0	0
1763	0	0	0
1764	0	0	0
1765	0	0	0
1766	0	0	0
1767	0	0	0
1768	0	0	0
1769	0	0	0
1770	0	0	0
1771	0	0	0
1772	0	0	0
1773	0	0	0
1774	0	0	0
1775	0	0	0
1776	0	0	0
1777	0	0	0
1778	0	0	0
1779	0	0	0
1780	0	0	0
1781	0	0	0
1782	0	0	0
1783	0	0	0
1784	0	0	0
1785	0	0	0
1786	0	0	0
1787	0	0	0
1788	0	0	0
1789	0	0	0
1790	0	0	0
1791	244	218	233
1792	238	202	226
1793	237	196	226
1794	238	190	229
1795	236	180	227
1796	232	168	223
1797	230	160	222
1798	230	153	222
1799	228	143	219
1800	221	129	211
1801	233	143	223
1802	239	150	227
1803	239	146	225
1804	234	139	220
1805	225	126	214
1806	209	108	205
1807	205	113	209
1808	197	110	203
1809	208	126	213
1810	210	131	213
1811	229	156	228
1812	236	170	232
1813	252	199	243
1814	0	0	0
1815	0	0	0
1816	0	0	0
1817	0	0	0
1818	0	0	0
1819	0	0	0
1820	0	0	0
1821	0	0	0
1822	0	0	0
1823	0	0	0
1824	0	0	0
1825	0	0	0
1826	0	0	0
1827	0	0	0
1828	0	0	0
1829	0	0	0
1830	0	0	0
1831	0	0	0
1832	0	0	0
1833	0	0	0
1834	0	0	0
1835	0	0	0
1836	0	0	0
1837	0	0	0
1838	0	0	0
1839	0	0	0
1840	0	0	0
1841	0	0	0
1842	0	0	0
1843	0	0	0
1844	239	214	231
1845	242	209	233
1846	236	193	227
1847	232	181	225
1848	228	171	223
1849	226	163	222
1850	230	161	224
1851	229	152	220
1852	227	143	218
1853	242	158	231
1854	233	142	221
1855	234	140	220
1856	227	128	214
1857	219	116	209
1858	212	110	208
1859	213	118	215
1860	208	117	212
1861	214	132	219
1862	204	121	208
1863	222	146	223
1864	228	158	227
1865	248	188	239
1866	255	210	240
1867	0	0	0
1868	0	0	0
1869	0	0	0
1870	0	0	0
1871	0	0	0
1872	0	0	0
1873	0	0	0
1874	0	0	0
1875	0	0	0
1876	0	0	0
1877	0	0	0
1878	0	0	0
1879	0	0	0
1880	0	0	0
1881	0	0	0
1882	0	0	0
1883	0	0	0
1884	0	0	0
1885	0	0	0
1886	0	0	0
1887	0	0	0
1888	0	0	0
1889	0	0	0
1890	0	0	0
1891	0	0	0
1892	0	0	0
1893	0	0	0
1894	0	0	0
1895	0	0	0
1896	246	229	240
1897	240	211	232
1898	234	195	226
1899	233	186	227
1900	229	177	228
1901	228	173	229
1902	231	171	229
1903	232	164	226
1904	230	155	220
1905	229	145	217
1906	222	131	211
1907	219	123	210
1908	213	112	206
1909	212	111	207
1910	205	104	202
1911	211	115	211
1912	208	116	212
1913	205	117	211
1914	194	106	200
1915	211	130	214
1916	218	143	218
1917	241	175	234
1918	251	198	237
1919	0	0	0
1920	0	0	0
1921	0	0	0
1922	0	0	0
1923	0	0	0
1924	0	0	0
1925	0	0	0
1926	0	0	0
1927	0	0	0
1928	0	0	0
1929	0	0	0
1930	0	0	0
1931	0	0	0
1932	0	0	0
1933	0	0	0
1934	0	0	0
1935	0	0	0
1936	0	0	0
1937	0	0	0
1938	0	0	0
1939	0	0	0
1940	0	0	0
1941	0	0	0
1942	0	0	0
1943	0	0	0
1944	0	0	0
1945	0	0	0
1946	0	0	0
1947	0	0	0
1948	248	235	242
1949	241	216	233
1950	240	206	232
1951	240	198	234
1952	236	190	234
1953	232	184	234
1954	232	180	233
1955	232	173	229
1956	228	160	220
1957	228	151	218
1958	225	142	218
1959	220	134	218
1960	217	128	217
1961	216	127	218
1962	208	115	209
1963	216	127	219
1964	207	116	213
1965	207	118	215
1966	201	113	208
1967	215	137	222
1968	212	133	216
1969	236	167	234
1970	238	175	229
1971	0	0	0
1972	0	0	0
1973	0	0	0
1974	0	0	0
1975	0	0	0
1976	0	0	0
1977	0	0	0
1978	0	0	0
1979	0	0	0
1980	0	0	0
1981	0	0	0
1982	0	0	0
1983	0	0	0
1984	0	0	0
1985	0	0	0
1986	0	0	0
1987	0	0	0
1988	0	0	0
1989	0	0	0
1990	0	0	0
1991	0	0	0
1992	0	0	0
1993	0	0	0
1994	0	0	0
1995	0	0	0
1996	0	0	0
1997	0	0	0
1998	0	0	0
1999	0	0	0
2000	252	243	246
2001	247	229	239
2002	245	217	237
2003	242	208	236
2004	237	199	234
2005	235	193	235
2006	235	190	237
2007	231	177	230
2008	227	164	221
2009	228	157	221
2010	225	148	222
2011	223	145	225
2012	219	139	223
2013	213	131	220
2014	205	119	212
2015	203	115	212
2016	196	105	206
2017	202	113	213
2018	199	110	208
2019	204	118	213
2020	200	116	209
2021	217	139	221
2022	221	149	218
2023	242	182	232
2024	0	0	0
2025	0	0	0
2026	0	0	0
2027	0	0	0
2028	0	0	0
2029	0	0	0
2030	0	0	0
2031	0	0	0
2032	0	0	0
2033	0	0	0
2034	0	0	0
2035	0	0	0
2036	0	0	0
2037	0	0	0
2038	0	0	0
2039	0	0	0
2040	0	0	0
2041	0	0	0
2042	0	0	0
2043	0	0	0
2044	0	0	0
2045	0	0	0
2046	0	0	0
2047	0	0	0
2048	0	0	0
2049	0	0	0
2050	0	0	0
2051	0	0	0
2052	250	243	244
2053	244	228	237
2054	240	218	234
2055	232	205	229
2056	238	210	235
2057	242	208	239
2058	239	198	237
2059	234	185	232
2060	234	179	229
2061	232	171	228
2062	228	159	227
2063	230	157	232
2064	221	145	226
2065	212	135	221
2066	210	134	222
2067	207	130	221
2068	200	117	214
2069	211	129	223
2070	211	125	220
2071	221	138	228
2072	213	127	220
2073	222	147	229
2074	221	150	225
2075	246	186	242
2076	248	197	237
2077	0	0	0
2078	0	0	0
2079	0	0	0
2080	0	0	0
2081	0	0	0
2082	0	0	0
2083	0	0	0
2084	0	0	0
2085	0	0	0
2086	0	0	0
2087	0	0	0
2088	0	0	0
2089	0	0	0
2090	0	0	0
2091	0	0	0
2092	0	0	0
2093	0	0	0
2094	0	0	0
2095	0	0	0
2096	0	0	0
2097	0	0	0
2098	0	0	0
2099	0	0	0
2100	0	0	0
2101	0	0	0
2102	0	0	0
2103	0	0	0
2104	0	0	0
2105	247	235	241
2106	241	224	237
2107	241	224	239
2108	246	227	242
2109	242	214	236
2110	239	203	234
2111	235	195	232
2112	235	189	230
2113	229	175	225
2114	225	163	225
2115	225	157	228
2116	218	146	224
2117	216	146	226
2118	215	145	227
2119	210	137	223
2120	203	125	216
2121	211	131	222
2122	213	129	220
2123	219	133	223
2124	211	124	213
2125	219	140	223
2126	219	145	222
2127	235	168	234
2128	239	180	232
2129	0	0	0
2130	0	0	0
2131	0	0	0
2132	0	0	0
2133	0	0	0
2134	0	0	0
2135	0	0	0
2136	0	0	0
2137	0	0	0
2138	0	0	0
2139	0	0	0
2140	0	0	0
2141	0	0	0
2142	0	0	0
2143	0	0	0
2144	0	0	0
2145	0	0	0
2146	0	0	0
2147	0	0	0
2148	0	0	0
2149	0	0	0
2150	0	0	0
2151	0	0	0
2152	0	0	0
2153	0	0	0
2154	0	0	0
2155	0	0	0
2156	0	0	0
2157	0	0	0
2158	245	232	240
2159	247	233	243
2160	243	225	237
2161	233	209	228
2162	233	206	230
2163	228	197	226
2164	235	203	232
2165	231	190	229
2166	229	180	230
2167	230	174	234
2168	226	165	232
2169	229	167	237
2170	226	160	233
2171	223	153	231
2172	215	139	223
2173	220	144	227
2174	221	143	227
2175	226	147	230
2176	213	127	215
2177	229	148	230
2178	222	142	224
2179	234	164	235
2180	233	170	231
2181	0	0	0
2182	0	0	0
2183	0	0	0
2184	0	0	0
2185	0	0	0
2186	0	0	0
2187	0	0	0
2188	0	0	0
2189	0	0	0
2190	0	0	0
2191	0	0	0
2192	0	0	0
2193	0	0	0
2194	0	0	0
2195	0	0	0
2196	0	0	0
2197	0	0	0
2198	0	0	0
2199	0	0	0
2200	0	0	0
2201	0	0	0
2202	0	0	0
2203	0	0	0
2204	0	0	0
2205	0	0	0
2206	0	0	0
2207	0	0	0
2208	0	0	0
2209	0	0	0
2210	0	0	0
2211	245	233	240
2212	240	224	236
2213	236	218	233
2214	235	215	233
2215	235	215	234
2216	242	220	239
2217	236	206	233
2218	234	196	235
2219	235	190	237
2220	233	181	235
2221	234	178	236
2222	233	171	233
2223	228	162	230
2224	221	148	224
2225	225	152	229
2226	225	151	228
2227	219	139	222
2228	209	122	212
2229	220	133	222
2230	216	129	217
2231	226	149	228
2232	226	157	225
2233	241	185	236
2234	0	0	0
2235	0	0	0
2236	0	0	0
2237	0	0	0
2238	0	0	0
2239	0	0	0
2240	0	0	0
2241	0	0	0
2242	0	0	0
2243	0	0	0
2244	0	0	0
2245	0	0	0
2246	0	0	0
2247	0	0	0
2248	0	0	0
2249	0	0	0
2250	0	0	0
2251	0	0	0
2252	0	0	0
2253	0	0	0
2254	0	0	0
2255	0	0	0
2256	0	0	0
2257	0	0	0
2258	0	0	0
2259	0	0	0
2260	0	0	0
2261	0	0	0
2262	0	0	0
2263	0	0	0
2264	0	0	0
2265	0	0	0
2266	0	0	0
2267	0	0	0
2268	244	226	238
2269	234	209	230
2270	235	205	234
2271	236	198	235
2272	237	191	235
2273	241	189	239
2274	233	174	231
2275	227	163	227
2276	225	158	227
2277	231	164	234
2278	226	154	229
2279	219	143	224
2280	218	137	224
2281	233	151	236
2282	227	142	228
2283	240	164	239
2284	228	155	226
2285	240	182	238
2286	240	191	235
2287	0	0	0
2288	0	0	0
2289	0	0	0
2290	0	0	0
2291	0	0	0
2292	0	0	0
2293	0	0	0
2294	0	0	0
2295	0	0	0
2296	0	0	0
2297	0	0	0
2298	0	0	0
2299	0	0	0
2300	0	0	0
2301	0	0	0
2302	0	0	0
2303	0	0	0
2304	0	0	0
2305	0	0	0
2306	0	0	0
2307	0	0	0
2308	0	0	0
2309	0	0	0
2310	0	0	0
2311	0	0	0
2312	0	0	0
2313	0	0	0
2314	0	0	0
2315	0	0	0
2316	0	0	0
2317	0	0	0
2318	0	0	0
2319	0	0	0
2320	0	0	0
2321	0	0	0
2322	241	217	237
2323	0	0	0
2324	239	202	238
2325	236	189	235
2326	228	174	228
2327	229	172	231
2328	228	167	232
2329	228	162	232
2330	224	154	228
2331	225	152	231
2332	225	148	232
2333	232	151	236
2334	227	143	226
2335	229	148	226
2336	219	141	216
2337	226	159	224
2338	227	170	224
2339	246	197	237
2340	0	0	0
2341	0	0	0
2342	0	0	0
2343	0	0	0
2344	0	0	0
2345	0	0	0
2346	0	0	0
2347	0	0	0
2348	0	0	0
2349	0	0	0
2350	0	0	0
2351	0	0	0
2352	0	0	0
2353	0	0	0
2354	0	0	0
2355	0	0	0
2356	0	0	0
2357	0	0	0
2358	0	0	0
2359	0	0	0
2360	0	0	0
2361	0	0	0
2362	0	0	0
2363	0	0	0
2364	0	0	0
2365	0	0	0
2366	0	0	0
2367	0	0	0
2368	0	0	0
2369	0	0	0
2370	0	0	0
2371	0	0	0
2372	0	0	0
2373	0	0	0
2374	0	0	0
2375	0	0	0
2376	0	0	0
2377	0	0	0
2378	232	191	234
2379	237	191	239
2380	233	180	236
2381	232	174	236
2382	235	172	238
2383	242	174	245
2384	234	156	238
2385	237	159	240
2386	235	156	233
2387	239	163	235
2388	233	157	230
2389	241	179	240
2390	231	169	229
2391	251	197	244
2392	246	198	235
2393	0	0	0
2394	0	0	0
2395	0	0	0
2396	0	0	0
2397	0	0	0
2398	0	0	0
2399	0	0	0
2400	0	0	0
2401	0	0	0
2402	0	0	0
2403	0	0	0
2404	0	0	0
2405	0	0	0
2406	0	0	0
2407	0	0	0
2408	0	0	0
2409	0	0	0
2410	0	0	0
2411	0	0	0
2412	0	0	0
2413	0	0	0
2414	0	0	0
2415	0	0	0
2416	0	0	0
2417	0	0	0
2418	0	0	0
2419	0	0	0
2420	0	0	0
2421	0	0	0
2422	0	0	0
2423	0	0	0
2424	0	0	0
2425	0	0	0
2426	0	0	0
2427	0	0	0
2428	0	0	0
2429	236	212	234
2430	237	207	237
2431	236	199	236
2432	233	188	233
2433	235	186	236
2434	239	184	239
2435	238	173	238
2436	230	156	232
2437	234	161	237
2438	232	159	232
2439	237	164	234
2440	233	161	230
2441	229	161	229
2442	221	154	220
2443	235	170	230
2444	232	173	227
2445	0	0	0
2446	0	0	0
2447	0	0	0
2448	0	0	0
2449	0	0	0
2450	0	0	0
2451	0	0	0
2452	0	0	0
2453	0	0	0
2454	0	0	0
2455	0	0	0
2456	0	0	0
2457	0	0	0
2458	0	0	0
2459	0	0	0
2460	0	0	0
2461	0	0	0
2462	0	0	0
2463	0	0	0
2464	0	0	0
2465	0	0	0
2466	0	0	0
2467	0	0	0
2468	0	0	0
2469	0	0	0
2470	0	0	0
2471	0	0	0
2472	0	0	0
2473	0	0	0
2474	0	0	0
2475	0	0	0
2476	0	0	0
2477	0	0	0
2478	0	0	0
2479	0	0	0
2480	0	0	0
2481	0	0	0
2482	238	217	236
2483	237	208	235
2484	235	199	234
2485	237	197	237
2486	236	190	237
2487	233	178	235
2488	233	173	237
2489	237	178	243
2490	234	173	237
2491	242	180	242
2492	237	172	237
2493	237	175	238
2494	231	167	232
2495	246	185	243
2496	237	176	235
2497	0	0	0
2498	0	0	0
2499	0	0	0
2500	0	0	0
2501	0	0	0
2502	0	0	0
2503	0	0	0
2504	0	0	0
2505	0	0	0
2506	0	0	0
2507	0	0	0
2508	0	0	0
2509	0	0	0
2510	0	0	0
2511	0	0	0
2512	0	0	0
2513	0	0	0
2514	0	0	0
2515	0	0	0
2516	0	0	0
2517	0	0	0
2518	0	0	0
2519	0	0	0
2520	0	0	0
2521	0	0	0
2522	0	0	0
2523	0	0	0
2524	0	0	0
2525	0	0	0
2526	0	0	0
2527	0	0	0
2528	0	0	0
2529	0	0	0
2530	0	0	0
2531	0	0	0
2532	0	0	0
2533	0	0	0
2534	0	0	0
2535	241	220	237
2536	238	211	236
2537	232	201	234
2538	231	194	236
2539	235	192	240
2540	234	186	239
2541	234	185	240
2542	233	182	239
2543	236	180	239
2544	232	174	235
2545	233	173	235
2546	229	168	230
2547	237	175	235
2548	228	167	225
2549	0	0	0
2550	0	0	0
2551	0	0	0
2552	0	0	0
2553	0	0	0
2554	0	0	0
2555	0	0	0
2556	0	0	0
2557	0	0	0
2558	0	0	0
2559	0	0	0
2560	0	0	0
2561	0	0	0
2562	0	0	0
2563	0	0	0
2564	0	0	0
2565	0	0	0
2566	0	0	0
2567	0	0	0
2568	0	0	0
2569	0	0	0
2570	0	0	0
2571	0	0	0
2572	0	0	0
2573	0	0	0
2574	0	0	0
2575	0	0	0
2576	0	0	0
2577	0	0	0
2578	0	0	0
2579	0	0	0
2580	0	0	0
2581	0	0	0
2582	0	0	0
2583	0	0	0
2584	0	0	0
2585	0	0	0
2586	0	0	0
2587	0	0	0
2588	0	0	0
2589	0	0	0
2590	0	0	0
2591	0	0	0
2592	0	0	0
2593	0	0	0
2594	0	0	0
2595	0	0	0
2596	0	0	0
2597	0	0	0
2598	0	0	0
2599	244	190	244
2600	0	0	0
