 	R	G	B
1	0	0	0
2	0	0	0
3	0	0	0
4	0	0	0
5	0	0	0
6	0	0	0
7	0	0	0
8	0	0	0
9	0	0	0
10	0	0	0
11	0	0	0
12	0	0	0
13	0	0	0
14	0	0	0
15	0	0	0
16	0	0	0
17	0	0	0
18	0	0	0
19	0	0	0
20	0	0	0
21	0	0	0
22	0	0	0
23	0	0	0
24	0	0	0
25	0	0	0
26	0	0	0
27	0	0	0
28	0	0	0
29	0	0	0
30	252	244	241
31	253	242	242
32	0	0	0
33	0	0	0
34	0	0	0
35	0	0	0
36	0	0	0
37	0	0	0
38	0	0	0
39	0	0	0
40	0	0	0
41	0	0	0
42	0	0	0
43	0	0	0
44	0	0	0
45	0	0	0
46	0	0	0
47	0	0	0
48	0	0	0
49	0	0	0
50	0	0	0
51	0	0	0
52	0	0	0
53	0	0	0
54	0	0	0
55	0	0	0
56	0	0	0
57	0	0	0
58	0	0	0
59	0	0	0
60	0	0	0
61	0	0	0
62	0	0	0
63	0	0	0
64	0	0	0
65	0	0	0
66	0	0	0
67	0	0	0
68	0	0	0
69	0	0	0
70	252	240	237
71	252	238	238
72	251	232	236
73	252	229	235
74	0	0	0
75	0	0	0
76	0	0	0
77	0	0	0
78	0	0	0
79	0	0	0
80	0	0	0
81	0	0	0
82	0	0	0
83	0	0	0
84	0	0	0
85	0	0	0
86	0	0	0
87	0	0	0
88	0	0	0
89	0	0	0
90	0	0	0
91	0	0	0
92	0	0	0
93	0	0	0
94	0	0	0
95	0	0	0
96	0	0	0
97	0	0	0
98	0	0	0
99	0	0	0
100	0	0	0
101	0	0	0
102	0	0	0
103	0	0	0
104	0	0	0
105	0	0	0
106	0	0	0
107	0	0	0
108	0	0	0
109	0	0	0
110	255	240	235
111	255	238	237
112	252	230	234
113	249	224	231
114	250	220	230
115	248	216	228
116	249	217	230
117	0	0	0
118	255	221	237
119	0	0	0
120	0	0	0
121	0	0	0
122	0	0	0
123	0	0	0
124	0	0	0
125	0	0	0
126	0	0	0
127	0	0	0
128	0	0	0
129	0	0	0
130	0	0	0
131	0	0	0
132	0	0	0
133	0	0	0
134	0	0	0
135	0	0	0
136	0	0	0
137	0	0	0
138	0	0	0
139	0	0	0
140	0	0	0
141	0	0	0
142	0	0	0
143	0	0	0
144	0	0	0
145	0	0	0
146	0	0	0
147	0	0	0
148	0	0	0
149	0	0	0
150	252	232	231
151	255	232	234
152	249	218	227
153	241	208	222
154	248	217	229
155	251	215	229
156	249	210	227
157	249	211	229
158	252	213	234
159	255	215	237
160	248	202	227
161	0	0	0
162	0	0	0
163	0	0	0
164	0	0	0
165	0	0	0
166	0	0	0
167	0	0	0
168	0	0	0
169	0	0	0
170	0	0	0
171	0	0	0
172	0	0	0
173	0	0	0
174	0	0	0
175	0	0	0
176	0	0	0
177	0	0	0
178	0	0	0
179	0	0	0
180	0	0	0
181	0	0	0
182	0	0	0
183	0	0	0
184	255	245	237
185	255	241	234
186	253	240	235
187	253	238	236
188	255	242	240
189	255	244	241
190	255	233	234
191	255	224	230
192	251	213	225
193	243	199	219
194	246	206	225
195	252	214	232
196	253	211	230
197	251	206	229
198	250	205	230
199	253	207	234
200	250	199	230
201	240	185	221
202	241	195	227
203	0	0	0
204	0	0	0
205	0	0	0
206	0	0	0
207	0	0	0
208	0	0	0
209	0	0	0
210	0	0	0
211	0	0	0
212	0	0	0
213	0	0	0
214	0	0	0
215	0	0	0
216	0	0	0
217	0	0	0
218	0	0	0
219	0	0	0
220	0	0	0
221	0	0	0
222	0	0	0
223	0	0	0
224	253	237	232
225	255	237	231
226	254	229	228
227	255	229	231
228	253	223	231
229	255	225	233
230	255	223	230
231	251	211	223
232	252	209	224
233	244	196	217
234	251	204	226
235	255	212	234
236	251	202	228
237	249	197	226
238	253	201	230
239	254	201	232
240	254	201	234
241	246	190	229
242	242	187	227
243	246	198	235
244	247	206	238
245	0	0	0
246	0	0	0
247	0	0	0
248	0	0	0
249	0	0	0
250	0	0	0
251	0	0	0
252	0	0	0
253	0	0	0
254	0	0	0
255	0	0	0
256	0	0	0
257	0	0	0
258	0	0	0
259	0	0	0
260	0	0	0
261	0	0	0
262	0	0	0
263	0	0	0
264	255	237	238
265	255	237	236
266	255	230	231
267	255	221	227
268	255	215	226
269	253	209	225
270	253	206	225
271	252	203	222
272	250	198	220
273	250	195	220
274	253	200	224
275	255	207	231
276	253	197	226
277	247	187	223
278	252	193	229
279	255	196	231
280	253	194	230
281	251	192	233
282	248	191	233
283	243	188	233
284	246	197	238
285	0	0	0
286	0	0	0
287	0	0	0
288	0	0	0
289	0	0	0
290	0	0	0
291	0	0	0
292	0	0	0
293	0	0	0
294	0	0	0
295	0	0	0
296	0	0	0
297	0	0	0
298	0	0	0
299	0	0	0
300	0	0	0
301	0	0	0
302	0	0	0
303	0	0	0
304	252	220	232
305	255	223	235
306	253	211	226
307	248	201	219
308	249	200	220
309	249	195	219
310	253	197	224
311	252	194	224
312	251	191	223
313	248	185	219
314	253	192	224
315	255	196	228
316	255	195	227
317	249	185	222
318	254	189	229
319	255	195	236
320	251	185	229
321	246	181	226
322	249	190	234
323	245	187	233
324	243	189	235
325	246	198	240
326	0	0	0
327	0	0	0
328	0	0	0
329	0	0	0
330	0	0	0
331	0	0	0
332	0	0	0
333	0	0	0
334	0	0	0
335	0	0	0
336	0	0	0
337	0	0	0
338	0	0	0
339	255	233	239
340	255	236	242
341	255	239	241
342	255	229	234
343	255	223	233
344	254	215	232
345	251	205	229
346	250	196	225
347	244	184	217
348	242	181	216
349	243	180	217
350	246	180	220
351	249	181	222
352	248	178	222
353	247	176	222
354	251	181	227
355	254	187	229
356	249	182	224
357	248	180	223
358	249	181	224
359	251	184	227
360	245	176	224
361	237	166	220
362	241	176	228
363	244	184	232
364	243	186	233
365	242	188	234
366	244	195	237
367	246	201	237
368	248	206	239
369	0	0	0
370	0	0	0
371	0	0	0
372	0	0	0
373	0	0	0
374	0	0	0
375	0	0	0
376	0	0	0
377	0	0	0
378	0	0	0
379	255	218	232
380	252	209	229
381	255	213	232
382	254	211	228
383	249	202	222
384	255	207	229
385	252	197	226
386	249	188	225
387	246	179	222
388	253	187	228
389	253	184	227
390	252	181	227
391	253	180	227
392	255	183	230
393	253	179	229
394	249	173	227
395	252	178	231
396	255	185	234
397	248	179	227
398	253	187	233
399	252	187	232
400	250	186	230
401	241	176	225
402	240	177	230
403	245	187	239
404	243	186	236
405	244	189	237
406	245	192	237
407	247	199	240
408	249	204	240
409	251	210	242
410	247	210	239
411	0	0	0
412	0	0	0
413	0	0	0
414	0	0	0
415	0	0	0
416	0	0	0
417	0	0	0
418	0	0	0
419	247	201	223
420	244	192	219
421	240	182	216
422	240	181	216
423	240	179	216
424	243	181	218
425	249	185	222
426	245	176	218
427	242	168	219
428	252	178	229
429	255	185	234
430	255	183	232
431	255	178	229
432	255	178	229
433	255	179	233
434	251	171	228
435	245	165	225
436	251	174	232
437	254	181	234
438	251	184	233
439	255	192	238
440	254	190	236
441	251	188	234
442	248	188	235
443	246	187	238
444	245	189	241
445	242	187	239
446	244	191	241
447	243	193	239
448	241	196	238
449	242	201	237
450	243	204	237
451	0	0	0
452	0	0	0
453	0	0	0
454	248	199	230
455	249	202	232
456	252	206	234
457	249	202	231
458	247	199	228
459	250	200	229
460	249	195	227
461	246	186	223
462	248	187	226
463	248	185	226
464	255	193	232
465	255	194	233
466	255	187	229
467	251	177	225
468	250	171	227
469	255	181	237
470	251	168	227
471	250	164	225
472	250	164	224
473	249	163	224
474	255	175	232
475	249	166	227
476	250	170	230
477	255	180	237
478	249	175	231
479	245	177	229
480	255	194	240
481	255	194	239
482	250	184	233
483	247	184	235
484	242	181	235
485	241	181	236
486	243	189	240
487	241	190	239
488	241	197	240
489	0	0	0
490	0	0	0
491	0	0	0
492	0	0	0
493	0	0	0
494	245	196	231
495	240	187	224
496	240	190	224
497	242	194	226
498	241	190	223
499	241	187	223
500	241	183	223
501	240	179	223
502	243	180	226
503	246	181	228
504	253	188	233
505	255	194	234
506	253	184	227
507	250	177	225
508	248	170	223
509	246	163	223
510	241	154	220
511	233	141	211
512	238	145	216
513	239	146	218
514	245	157	224
515	251	167	228
516	249	167	227
517	251	171	231
518	249	171	230
519	243	166	224
520	248	179	230
521	255	196	239
522	253	187	234
523	245	178	231
524	238	174	230
525	232	170	228
526	237	179	234
527	239	186	235
528	243	196	239
529	244	204	241
530	243	211	241
531	0	0	0
532	0	0	0
533	0	0	0
534	249	210	242
535	255	210	242
536	246	197	232
537	241	197	230
538	246	204	233
539	250	203	234
540	250	198	234
541	249	194	233
542	250	193	234
543	251	193	236
544	253	193	238
545	255	201	243
546	254	188	231
547	249	178	225
548	253	182	231
549	251	174	229
550	249	169	229
551	245	160	226
552	245	158	226
553	249	163	231
554	243	155	227
555	249	165	233
556	252	171	232
557	251	171	230
558	255	180	236
559	254	179	234
560	250	176	230
561	255	191	239
562	255	197	240
563	252	185	232
564	244	179	232
565	232	172	229
566	235	183	236
567	240	193	241
568	237	190	235
569	246	203	241
570	245	204	239
571	248	212	242
572	244	213	239
573	0	0	0
574	0	0	0
575	0	0	0
576	243	204	237
577	235	192	227
578	234	196	229
579	239	203	233
580	241	199	232
581	242	196	232
582	247	197	234
583	246	194	229
584	246	193	228
585	249	194	233
586	248	186	230
587	243	175	223
588	247	178	227
589	252	181	233
590	250	175	232
591	249	170	232
592	251	171	235
593	251	169	235
594	247	163	233
595	241	155	228
596	247	164	233
597	249	170	232
598	254	177	234
599	255	186	238
600	255	184	236
601	253	181	233
602	254	186	234
603	255	192	234
604	249	184	229
605	241	178	231
606	240	188	238
607	241	198	243
608	237	196	239
609	235	193	235
610	240	199	237
611	240	200	235
612	240	203	235
613	0	0	0
614	0	0	0
615	0	0	0
616	0	0	0
617	0	0	0
618	0	0	0
619	0	0	0
620	242	217	239
621	0	0	0
622	246	216	242
623	254	219	246
624	243	200	229
625	242	199	228
626	251	206	237
627	253	199	236
628	249	186	232
629	254	189	237
630	255	192	240
631	255	187	240
632	250	172	233
633	252	172	237
634	249	169	234
635	245	163	231
636	248	169	236
637	254	178	241
638	255	180	238
639	255	187	240
640	255	185	237
641	255	185	236
642	248	179	231
643	244	181	229
644	249	192	233
645	244	186	230
646	240	182	233
647	244	194	242
648	243	200	243
649	235	196	237
650	0	0	0
651	0	0	0
652	0	0	0
653	0	0	0
654	0	0	0
655	0	0	0
656	0	0	0
657	0	0	0
658	0	0	0
659	0	0	0
660	0	0	0
661	0	0	0
662	0	0	0
663	0	0	0
664	245	218	238
665	235	201	228
666	239	205	232
667	248	212	238
668	251	203	236
669	249	191	233
670	255	197	240
671	255	199	242
672	252	183	233
673	243	167	227
674	244	168	230
675	241	164	228
676	246	172	233
677	250	178	237
678	253	183	240
679	255	186	239
680	255	185	237
681	253	183	235
682	252	183	235
683	244	177	229
684	242	184	232
685	247	194	238
686	243	189	235
687	239	185	235
688	243	195	242
689	243	201	243
690	238	201	240
691	0	0	0
692	0	0	0
693	0	0	0
694	0	0	0
695	0	0	0
696	0	0	0
697	0	0	0
698	0	0	0
699	0	0	0
700	0	0	0
701	0	0	0
702	0	0	0
703	0	0	0
704	0	0	0
705	0	0	0
706	0	0	0
707	0	0	0
708	252	226	243
709	255	220	243
710	251	199	237
711	255	204	244
712	255	197	239
713	245	180	229
714	245	179	232
715	246	179	234
716	246	180	234
717	251	188	240
718	248	183	237
719	253	189	240
720	255	194	241
721	255	194	241
722	253	186	236
723	250	184	235
724	244	181	232
725	245	190	236
726	250	202	242
727	245	196	238
728	244	197	240
729	249	207	247
730	242	203	242
731	0	0	0
732	0	0	0
733	0	0	0
734	0	0	0
735	0	0	0
736	0	0	0
737	0	0	0
738	0	0	0
739	0	0	0
740	0	0	0
741	0	0	0
742	0	0	0
743	0	0	0
744	0	0	0
745	0	0	0
746	0	0	0
747	0	0	0
748	0	0	0
749	0	0	0
750	252	221	239
751	245	201	233
752	247	199	237
753	246	192	235
754	247	191	236
755	0	0	0
756	0	0	0
757	249	193	237
758	246	190	236
759	244	186	236
760	249	193	240
761	253	197	238
762	247	187	230
763	240	178	227
764	239	180	229
765	235	179	226
766	242	192	234
767	248	204	239
768	247	205	238
769	246	206	238
770	244	206	238
771	240	203	236
772	0	0	0
773	0	0	0
774	0	0	0
775	0	0	0
776	0	0	0
777	0	0	0
778	0	0	0
779	0	0	0
780	0	0	0
781	0	0	0
782	0	0	0
783	0	0	0
784	0	0	0
785	0	0	0
786	0	0	0
787	0	0	0
788	0	0	0
789	0	0	0
790	0	0	0
791	0	0	0
792	0	0	0
793	0	0	0
794	0	0	0
795	0	0	0
796	0	0	0
797	0	0	0
798	0	0	0
799	0	0	0
800	0	0	0
801	0	0	0
802	0	0	0
803	0	0	0
804	0	0	0
805	0	0	0
806	0	0	0
807	253	215	245
808	246	206	236
809	244	207	234
810	244	209	235
811	243	209	236
812	0	0	0
813	0	0	0
814	0	0	0
815	0	0	0
816	0	0	0
817	0	0	0
818	0	0	0
819	0	0	0
820	0	0	0
821	0	0	0
822	0	0	0
823	0	0	0
824	0	0	0
825	0	0	0
826	0	0	0
827	0	0	0
828	0	0	0
829	0	0	0
830	0	0	0
831	0	0	0
832	0	0	0
833	0	0	0
834	0	0	0
835	0	0	0
836	0	0	0
837	0	0	0
838	0	0	0
839	0	0	0
840	0	0	0
841	0	0	0
842	0	0	0
843	0	0	0
844	0	0	0
845	0	0	0
846	0	0	0
847	0	0	0
848	0	0	0
849	241	207	232
850	241	210	234
851	0	0	0
852	0	0	0
853	0	0	0
854	0	0	0
855	0	0	0
856	0	0	0
857	0	0	0
858	0	0	0
859	0	0	0
860	0	0	0
861	0	0	0
