 	R	G	B
1	0	0	0
2	0	0	0
3	0	0	0
4	0	0	0
5	0	0	0
6	0	0	0
7	0	0	0
8	0	0	0
9	0	0	0
10	0	0	0
11	0	0	0
12	0	0	0
13	0	0	0
14	0	0	0
15	0	0	0
16	0	0	0
17	0	0	0
18	0	0	0
19	0	0	0
20	248	224	232
21	0	0	0
22	0	0	0
23	0	0	0
24	0	0	0
25	0	0	0
26	0	0	0
27	0	0	0
28	0	0	0
29	0	0	0
30	0	0	0
31	0	0	0
32	0	0	0
33	0	0	0
34	0	0	0
35	0	0	0
36	0	0	0
37	0	0	0
38	0	0	0
39	0	0	0
40	0	0	0
41	0	0	0
42	0	0	0
43	0	0	0
44	0	0	0
45	0	0	0
46	0	0	0
47	0	0	0
48	0	0	0
49	0	0	0
50	0	0	0
51	0	0	0
52	0	0	0
53	0	0	0
54	0	0	0
55	248	223	232
56	255	234	239
57	245	213	223
58	0	0	0
59	0	0	0
60	0	0	0
61	0	0	0
62	0	0	0
63	0	0	0
64	0	0	0
65	0	0	0
66	0	0	0
67	0	0	0
68	0	0	0
69	0	0	0
70	0	0	0
71	0	0	0
72	0	0	0
73	0	0	0
74	0	0	0
75	0	0	0
76	0	0	0
77	0	0	0
78	0	0	0
79	0	0	0
80	0	0	0
81	0	0	0
82	0	0	0
83	0	0	0
84	0	0	0
85	0	0	0
86	0	0	0
87	0	0	0
88	245	229	236
89	246	228	235
90	246	227	234
91	249	227	232
92	245	215	225
93	234	196	213
94	246	214	226
95	0	0	0
96	0	0	0
97	0	0	0
98	0	0	0
99	0	0	0
100	0	0	0
101	0	0	0
102	0	0	0
103	0	0	0
104	0	0	0
105	0	0	0
106	0	0	0
107	0	0	0
108	0	0	0
109	0	0	0
110	0	0	0
111	0	0	0
112	0	0	0
113	0	0	0
114	0	0	0
115	0	0	0
116	0	0	0
117	0	0	0
118	0	0	0
119	0	0	0
120	0	0	0
121	0	0	0
122	0	0	0
123	246	229	237
124	251	232	240
125	242	218	230
126	235	214	224
127	239	218	225
128	234	205	218
129	236	201	219
130	255	224	236
131	252	218	228
132	0	0	0
133	0	0	0
134	0	0	0
135	0	0	0
136	0	0	0
137	0	0	0
138	0	0	0
139	0	0	0
140	0	0	0
141	0	0	0
142	0	0	0
143	0	0	0
144	0	0	0
145	0	0	0
146	0	0	0
147	0	0	0
148	0	0	0
149	0	0	0
150	0	0	0
151	0	0	0
152	0	0	0
153	0	0	0
154	0	0	0
155	0	0	0
156	0	0	0
157	0	0	0
158	246	232	237
159	247	229	237
160	243	220	232
161	233	207	224
162	230	208	223
163	234	212	225
164	239	211	225
165	242	208	226
166	253	214	231
167	248	209	223
168	0	0	0
169	0	0	0
170	0	0	0
171	0	0	0
172	0	0	0
173	0	0	0
174	0	0	0
175	0	0	0
176	0	0	0
177	0	0	0
178	0	0	0
179	0	0	0
180	0	0	0
181	0	0	0
182	0	0	0
183	0	0	0
184	0	0	0
185	0	0	0
186	0	0	0
187	0	0	0
188	0	0	0
189	0	0	0
190	0	0	0
191	0	0	0
192	0	0	0
193	241	232	234
194	250	234	239
195	242	219	231
196	232	207	224
197	232	210	227
198	233	213	228
199	237	215	229
200	246	216	232
201	244	203	225
202	250	208	228
203	247	206	222
204	0	0	0
205	0	0	0
206	0	0	0
207	0	0	0
208	0	0	0
209	0	0	0
210	0	0	0
211	0	0	0
212	0	0	0
213	0	0	0
214	0	0	0
215	0	0	0
216	0	0	0
217	0	0	0
218	0	0	0
219	0	0	0
220	0	0	0
221	0	0	0
222	0	0	0
223	0	0	0
224	0	0	0
225	0	0	0
226	0	0	0
227	0	0	0
228	0	0	0
229	241	232	235
230	240	222	230
231	232	208	225
232	234	213	230
233	235	216	231
234	237	217	231
235	242	218	233
236	246	211	230
237	243	199	224
238	251	206	229
239	248	204	222
240	0	0	0
241	0	0	0
242	0	0	0
243	0	0	0
244	0	0	0
245	0	0	0
246	0	0	0
247	0	0	0
248	0	0	0
249	0	0	0
250	0	0	0
251	0	0	0
252	0	0	0
253	0	0	0
254	0	0	0
255	0	0	0
256	0	0	0
257	0	0	0
258	0	0	0
259	0	0	0
260	0	0	0
261	0	0	0
262	0	0	0
263	0	0	0
264	0	0	0
265	242	234	236
266	235	220	228
267	233	213	229
268	240	221	237
269	235	212	230
270	239	214	232
271	237	204	227
272	237	195	223
273	241	195	224
274	249	202	228
275	244	196	219
276	253	211	225
277	0	0	0
278	0	0	0
279	0	0	0
280	0	0	0
281	0	0	0
282	0	0	0
283	0	0	0
284	0	0	0
285	0	0	0
286	0	0	0
287	0	0	0
288	0	0	0
289	0	0	0
290	0	0	0
291	0	0	0
292	0	0	0
293	0	0	0
294	0	0	0
295	0	0	0
296	0	0	0
297	0	0	0
298	0	0	0
299	0	0	0
300	239	232	234
301	242	234	236
302	236	224	231
303	233	217	231
304	234	213	232
305	231	204	228
306	228	196	224
307	226	187	220
308	234	191	224
309	237	189	222
310	241	192	222
311	238	187	215
312	248	201	220
313	249	206	217
314	0	0	0
315	0	0	0
316	0	0	0
317	0	0	0
318	0	0	0
319	0	0	0
320	0	0	0
321	0	0	0
322	0	0	0
323	0	0	0
324	0	0	0
325	0	0	0
326	0	0	0
327	0	0	0
328	0	0	0
329	0	0	0
330	0	0	0
331	0	0	0
332	0	0	0
333	0	0	0
334	0	0	0
335	0	0	0
336	239	232	234
337	239	230	234
338	231	219	227
339	232	216	229
340	234	212	231
341	230	203	228
342	224	194	223
343	231	199	229
344	239	203	233
345	234	189	223
346	240	192	224
347	238	186	217
348	249	200	222
349	249	205	217
350	0	0	0
351	0	0	0
352	0	0	0
353	0	0	0
354	0	0	0
355	0	0	0
356	0	0	0
357	0	0	0
358	0	0	0
359	0	0	0
360	0	0	0
361	0	0	0
362	0	0	0
363	0	0	0
364	0	0	0
365	0	0	0
366	0	0	0
367	0	0	0
368	0	0	0
369	0	0	0
370	0	0	0
371	0	0	0
372	238	229	234
373	238	227	232
374	230	219	226
375	231	215	227
376	234	212	230
377	231	203	227
378	233	207	231
379	239	211	235
380	236	201	230
381	231	187	222
382	234	187	222
383	233	182	214
384	247	198	221
385	249	203	218
386	0	0	0
387	0	0	0
388	0	0	0
389	0	0	0
390	0	0	0
391	0	0	0
392	0	0	0
393	0	0	0
394	0	0	0
395	0	0	0
396	0	0	0
397	0	0	0
398	0	0	0
399	0	0	0
400	0	0	0
401	0	0	0
402	0	0	0
403	0	0	0
404	0	0	0
405	0	0	0
406	0	0	0
407	236	231	235
408	242	233	238
409	235	221	230
410	226	213	224
411	229	213	227
412	234	210	230
413	226	194	223
414	229	198	228
415	228	195	226
416	224	183	219
417	226	182	220
418	227	181	218
419	233	186	218
420	250	203	227
421	242	193	215
422	0	0	0
423	0	0	0
424	0	0	0
425	0	0	0
426	0	0	0
427	0	0	0
428	0	0	0
429	0	0	0
430	0	0	0
431	0	0	0
432	0	0	0
433	0	0	0
434	0	0	0
435	0	0	0
436	0	0	0
437	0	0	0
438	0	0	0
439	0	0	0
440	0	0	0
441	0	0	0
442	0	0	0
443	238	233	236
444	236	225	233
445	230	215	229
446	225	211	228
447	227	211	229
448	225	199	226
449	218	184	221
450	217	183	224
451	217	180	222
452	225	183	225
453	227	182	224
454	234	189	227
455	240	194	227
456	244	193	225
457	237	184	216
458	0	0	0
459	0	0	0
460	0	0	0
461	0	0	0
462	0	0	0
463	0	0	0
464	0	0	0
465	0	0	0
466	0	0	0
467	0	0	0
468	0	0	0
469	0	0	0
470	0	0	0
471	0	0	0
472	0	0	0
473	0	0	0
474	0	0	0
475	0	0	0
476	0	0	0
477	0	0	0
478	0	0	0
479	0	0	0
480	231	220	230
481	228	214	230
482	224	212	230
483	223	208	229
484	217	195	224
485	215	187	225
486	216	187	229
487	219	184	229
488	231	189	234
489	227	177	224
490	237	186	229
491	237	184	225
492	236	180	220
493	235	180	218
494	0	0	0
495	0	0	0
496	0	0	0
497	0	0	0
498	0	0	0
499	0	0	0
500	0	0	0
501	0	0	0
502	0	0	0
503	0	0	0
504	0	0	0
505	0	0	0
506	0	0	0
507	0	0	0
508	0	0	0
509	0	0	0
510	0	0	0
511	0	0	0
512	0	0	0
513	0	0	0
514	0	0	0
515	0	0	0
516	229	218	229
517	225	213	229
518	219	207	227
519	217	204	227
520	215	196	226
521	212	188	226
522	212	186	228
523	214	183	230
524	218	178	228
525	216	165	218
526	226	171	221
527	228	169	218
528	233	175	220
529	234	175	217
530	0	0	0
531	0	0	0
532	0	0	0
533	0	0	0
534	0	0	0
535	0	0	0
536	0	0	0
537	0	0	0
538	0	0	0
539	0	0	0
540	0	0	0
541	0	0	0
542	0	0	0
543	0	0	0
544	0	0	0
545	0	0	0
546	0	0	0
547	0	0	0
548	0	0	0
549	0	0	0
550	0	0	0
551	0	0	0
552	228	217	228
553	224	213	229
554	216	207	226
555	213	202	227
556	212	196	227
557	208	188	226
558	208	185	229
559	204	176	226
560	202	167	221
561	209	168	220
562	224	176	226
563	225	169	221
564	235	177	225
565	237	176	221
566	0	0	0
567	0	0	0
568	0	0	0
569	0	0	0
570	0	0	0
571	0	0	0
572	0	0	0
573	0	0	0
574	0	0	0
575	0	0	0
576	0	0	0
577	0	0	0
578	0	0	0
579	0	0	0
580	0	0	0
581	0	0	0
582	0	0	0
583	0	0	0
584	0	0	0
585	0	0	0
586	0	0	0
587	0	0	0
588	226	217	228
589	222	212	226
590	213	205	224
591	211	202	228
592	211	196	230
593	207	188	229
594	201	179	226
595	195	169	223
596	202	173	227
597	209	174	225
598	217	172	224
599	220	166	221
600	233	175	226
601	236	174	221
602	0	0	0
603	0	0	0
604	0	0	0
605	0	0	0
606	0	0	0
607	0	0	0
608	0	0	0
609	0	0	0
610	0	0	0
611	0	0	0
612	0	0	0
613	0	0	0
614	0	0	0
615	0	0	0
616	0	0	0
617	0	0	0
618	0	0	0
619	0	0	0
620	0	0	0
621	0	0	0
622	0	0	0
623	0	0	0
624	224	215	227
625	219	211	225
626	211	204	223
627	210	200	229
628	211	196	233
629	203	183	228
630	194	173	224
631	196	173	228
632	208	180	235
633	203	165	223
634	205	161	219
635	212	160	220
636	228	170	226
637	231	167	219
638	240	179	221
639	0	0	0
640	0	0	0
641	0	0	0
642	0	0	0
643	0	0	0
644	0	0	0
645	0	0	0
646	0	0	0
647	0	0	0
648	0	0	0
649	0	0	0
650	0	0	0
651	0	0	0
652	0	0	0
653	0	0	0
654	0	0	0
655	0	0	0
656	0	0	0
657	0	0	0
658	0	0	0
659	0	0	0
660	223	215	228
661	218	211	225
662	209	202	222
663	208	198	228
664	205	190	230
665	198	178	227
666	197	177	230
667	200	177	233
668	201	170	231
669	196	155	222
670	203	158	224
671	208	157	224
672	221	162	225
673	224	160	218
674	241	179	224
675	247	189	223
676	0	0	0
677	0	0	0
678	0	0	0
679	0	0	0
680	0	0	0
681	0	0	0
682	0	0	0
683	0	0	0
684	0	0	0
685	0	0	0
686	0	0	0
687	0	0	0
688	0	0	0
689	0	0	0
690	0	0	0
691	0	0	0
692	0	0	0
693	0	0	0
694	0	0	0
695	0	0	0
696	225	217	230
697	218	208	225
698	209	199	223
699	205	194	227
700	199	184	226
701	197	179	228
702	203	183	235
703	202	176	235
704	199	165	231
705	192	149	221
706	201	154	226
707	207	155	226
708	215	159	225
709	226	165	224
710	247	186	233
711	243	180	220
712	0	0	0
713	0	0	0
714	0	0	0
715	0	0	0
716	0	0	0
717	0	0	0
718	0	0	0
719	0	0	0
720	0	0	0
721	0	0	0
722	0	0	0
723	0	0	0
724	0	0	0
725	0	0	0
726	0	0	0
727	0	0	0
728	0	0	0
729	0	0	0
730	0	0	0
731	224	218	227
732	223	212	228
733	217	205	226
734	211	199	226
735	206	193	228
736	201	187	228
737	199	182	228
738	200	177	230
739	199	170	232
740	194	158	227
741	187	142	217
742	198	150	222
743	204	151	223
744	216	162	228
745	226	168	227
746	236	173	225
747	233	168	213
748	0	0	0
749	0	0	0
750	0	0	0
751	0	0	0
752	0	0	0
753	0	0	0
754	0	0	0
755	0	0	0
756	0	0	0
757	0	0	0
758	0	0	0
759	0	0	0
760	0	0	0
761	0	0	0
762	0	0	0
763	0	0	0
764	0	0	0
765	0	0	0
766	0	0	0
767	227	220	230
768	224	214	229
769	213	197	224
770	208	192	226
771	204	187	227
772	201	182	228
773	202	182	231
774	198	175	230
775	190	159	225
776	187	148	222
777	192	148	222
778	203	157	227
779	207	156	225
780	219	167	230
781	220	161	223
782	226	165	220
783	231	170	216
784	0	0	0
785	0	0	0
786	0	0	0
787	0	0	0
788	0	0	0
789	0	0	0
790	0	0	0
791	0	0	0
792	0	0	0
793	0	0	0
794	0	0	0
795	0	0	0
796	0	0	0
797	0	0	0
798	0	0	0
799	0	0	0
800	0	0	0
801	0	0	0
802	0	0	0
803	230	222	233
804	221	206	226
805	210	190	222
806	207	186	227
807	203	182	230
808	203	181	233
809	204	181	235
810	192	164	226
811	183	147	220
812	190	152	226
813	194	153	225
814	204	159	228
815	208	158	224
816	213	160	223
817	214	155	218
818	228	169	224
819	234	175	221
820	0	0	0
821	0	0	0
822	0	0	0
823	0	0	0
824	0	0	0
825	0	0	0
826	0	0	0
827	0	0	0
828	0	0	0
829	0	0	0
830	0	0	0
831	0	0	0
832	0	0	0
833	0	0	0
834	0	0	0
835	0	0	0
836	0	0	0
837	229	219	233
838	0	0	0
839	229	218	233
840	222	202	226
841	216	190	227
842	212	187	231
843	209	185	234
844	206	183	236
845	204	180	236
846	194	163	227
847	188	153	224
848	192	157	229
849	195	156	227
850	205	163	230
851	200	149	218
852	205	150	217
853	209	150	215
854	225	165	223
855	235	172	223
856	255	195	231
857	0	0	0
858	0	0	0
859	0	0	0
860	0	0	0
861	0	0	0
862	0	0	0
863	0	0	0
864	0	0	0
865	0	0	0
866	0	0	0
867	0	0	0
868	0	0	0
869	0	0	0
870	0	0	0
871	0	0	0
872	236	227	236
873	235	226	237
874	229	218	233
875	227	212	232
876	223	200	229
877	217	189	229
878	215	187	233
879	211	184	233
880	206	179	232
881	204	177	232
882	198	167	228
883	191	157	224
884	194	159	228
885	196	158	227
886	194	150	222
887	190	137	213
888	198	143	216
889	202	143	213
890	220	159	222
891	231	167	223
892	248	183	226
893	244	185	214
894	0	0	0
895	0	0	0
896	0	0	0
897	0	0	0
898	0	0	0
899	0	0	0
900	0	0	0
901	0	0	0
902	0	0	0
903	0	0	0
904	0	0	0
905	0	0	0
906	0	0	0
907	234	226	234
908	238	227	237
909	233	219	233
910	226	209	229
911	226	208	231
912	220	195	227
913	219	192	231
914	219	191	235
915	215	185	233
916	212	181	233
917	210	178	232
918	199	166	226
919	195	161	226
920	200	165	232
921	195	155	225
922	191	146	219
923	195	148	221
924	203	154	225
925	205	149	219
926	223	166	229
927	224	160	220
928	236	174	221
929	240	185	215
930	0	0	0
931	0	0	0
932	0	0	0
933	0	0	0
934	0	0	0
935	0	0	0
936	0	0	0
937	0	0	0
938	0	0	0
939	0	0	0
940	0	0	0
941	0	0	0
942	0	0	0
943	238	226	234
944	237	221	234
945	232	212	232
946	226	207	230
947	226	205	232
948	224	200	231
949	223	195	231
950	220	191	232
951	218	186	234
952	218	184	235
953	214	179	231
954	203	170	227
955	200	166	230
956	200	161	231
957	195	152	224
958	197	156	226
959	199	156	226
960	199	154	224
961	200	150	219
962	209	153	219
963	209	148	210
964	230	173	220
965	238	187	215
966	251	211	221
967	0	0	0
968	0	0	0
969	0	0	0
970	0	0	0
971	0	0	0
972	0	0	0
973	0	0	0
974	0	0	0
975	0	0	0
976	0	0	0
977	0	0	0
978	242	231	238
979	242	226	236
980	241	220	236
981	232	207	231
982	224	200	228
983	229	208	234
984	228	203	233
985	220	189	228
986	219	184	229
987	220	185	233
988	220	182	234
989	213	175	228
990	202	165	223
991	205	170	232
992	206	166	233
993	199	155	226
994	200	158	227
995	194	152	222
996	191	148	218
997	196	152	219
998	203	155	219
999	210	159	217
1000	234	186	228
1001	233	180	213
1002	255	210	225
1003	255	213	218
1004	0	0	0
1005	0	0	0
1006	0	0	0
1007	0	0	0
1008	0	0	0
1009	0	0	0
1010	0	0	0
1011	0	0	0
1012	0	0	0
1013	239	232	237
1014	239	226	235
1015	238	220	233
1016	233	210	229
1017	224	197	225
1018	227	203	231
1019	232	210	234
1020	224	196	228
1021	219	184	229
1022	224	186	236
1023	225	185	235
1024	220	179	232
1025	214	173	230
1026	212	173	232
1027	213	176	234
1028	208	167	229
1029	201	156	223
1030	197	153	222
1031	191	148	219
1032	194	154	222
1033	197	157	220
1034	207	166	223
1035	213	170	222
1036	222	174	220
1037	225	170	210
1038	244	187	215
1039	242	189	206
1040	0	0	0
1041	0	0	0
1042	0	0	0
1043	0	0	0
1044	0	0	0
1045	0	0	0
1046	0	0	0
1047	0	0	0
1048	0	0	0
1049	237	232	236
1050	234	225	233
1051	230	216	228
1052	224	205	224
1053	226	204	229
1054	235	213	238
1055	229	203	229
1056	219	187	222
1057	222	185	232
1058	231	190	241
1059	228	184	235
1060	220	175	229
1061	217	172	230
1062	218	175	234
1063	209	164	224
1064	200	152	216
1065	204	160	222
1066	199	157	222
1067	195	153	221
1068	202	162	227
1069	199	158	220
1070	206	166	222
1071	210	165	219
1072	218	170	219
1073	225	171	215
1074	243	187	220
1075	245	192	212
1076	0	0	0
1077	254	229	223
1078	0	0	0
1079	0	0	0
1080	0	0	0
1081	0	0	0
1082	245	244	239
1083	0	0	0
1084	241	238	239
1085	240	234	238
1086	235	225	233
1087	230	217	229
1088	230	214	230
1089	232	213	234
1090	231	206	231
1091	226	196	227
1092	225	191	228
1093	227	188	234
1094	231	187	238
1095	227	180	231
1096	219	172	226
1097	216	169	226
1098	213	162	224
1099	206	153	217
1100	210	161	222
1101	211	166	225
1102	201	160	220
1103	197	157	220
1104	202	161	224
1105	200	157	217
1106	205	161	218
1107	208	162	219
1108	216	167	220
1109	222	168	217
1110	241	186	223
1111	245	192	215
1112	250	207	216
1113	253	222	219
1114	252	230	220
1115	0	0	0
1116	0	0	0
1117	246	246	241
1118	246	244	241
1119	244	238	239
1120	242	234	238
1121	240	229	237
1122	236	220	232
1123	235	216	231
1124	234	213	230
1125	235	212	232
1126	232	203	228
1127	234	201	231
1128	237	198	235
1129	231	186	233
1130	228	180	232
1131	225	178	229
1132	218	171	224
1133	222	174	228
1134	221	168	226
1135	220	164	225
1136	226	173	231
1137	212	161	220
1138	196	152	211
1139	200	162	221
1140	207	167	227
1141	198	151	214
1142	206	157	218
1143	210	161	220
1144	213	164	219
1145	221	170	220
1146	242	189	227
1147	240	185	214
1148	248	201	216
1149	251	213	218
1150	252	222	219
1151	254	233	224
1152	0	0	0
1153	245	244	241
1154	244	238	240
1155	242	233	238
1156	239	227	237
1157	238	223	236
1158	237	219	235
1159	236	215	232
1160	235	212	230
1161	235	210	228
1162	233	204	226
1163	235	203	230
1164	233	192	228
1165	227	179	226
1166	228	179	230
1167	225	177	228
1168	223	176	227
1169	228	179	230
1170	231	177	230
1171	231	173	229
1172	229	170	227
1173	216	159	218
1174	208	162	219
1175	210	171	226
1176	200	156	218
1177	192	141	210
1178	206	155	220
1179	208	157	217
1180	212	163	217
1181	220	171	220
1182	234	178	222
1183	234	175	212
1184	243	191	216
1185	249	203	218
1186	250	212	219
1187	252	223	222
1188	248	229	222
1189	245	243	242
1190	243	237	241
1191	239	229	238
1192	238	225	237
1193	239	223	238
1194	236	218	235
1195	234	213	232
1196	234	210	230
1197	231	205	226
1198	226	198	222
1199	228	197	225
1200	226	186	223
1201	228	183	227
1202	233	186	233
1203	230	180	230
1204	229	179	229
1205	232	180	230
1206	236	178	229
1207	233	169	225
1208	232	166	225
1209	222	158	219
1210	220	164	223
1211	215	167	225
1212	194	147	211
1213	198	152	218
1214	215	167	229
1215	207	155	215
1216	210	161	215
1217	224	175	223
1218	238	183	226
1219	236	177	217
1220	247	193	223
1221	250	201	222
1222	254	211	223
1223	253	219	223
1224	0	0	0
1225	243	240	241
1226	240	233	239
1227	237	225	236
1228	239	225	237
1229	239	222	236
1230	237	217	234
1231	235	212	233
1232	233	208	231
1233	231	204	229
1234	227	198	227
1235	228	196	230
1236	229	193	229
1237	231	188	228
1238	233	185	228
1239	233	181	229
1240	235	182	232
1241	238	183	232
1242	236	175	228
1243	233	167	224
1244	236	166	227
1245	230	159	224
1246	230	165	228
1247	223	167	228
1248	208	162	221
1249	208	165	223
1250	210	162	221
1251	203	150	210
1252	212	163	216
1253	225	177	223
1254	234	178	222
1255	234	174	217
1256	243	186	221
1257	246	194	219
1258	247	201	217
1259	0	0	0
1260	0	0	0
1261	244	240	242
1262	239	232	239
1263	236	224	235
1264	238	222	235
1265	238	219	232
1266	237	215	232
1267	234	208	232
1268	232	204	231
1269	234	206	233
1270	232	201	232
1271	229	194	230
1272	226	188	227
1273	229	188	226
1274	233	185	227
1275	237	185	232
1276	242	188	236
1277	235	175	228
1278	229	165	221
1279	230	162	222
1280	236	163	227
1281	231	154	222
1282	237	163	229
1283	228	161	226
1284	208	153	216
1285	203	156	216
1286	200	150	211
1287	202	153	211
1288	215	168	219
1289	225	177	222
1290	233	178	221
1291	234	175	219
1292	245	188	225
1293	244	192	219
1294	0	0	0
1295	0	0	0
1296	0	0	0
1297	0	0	0
1298	238	229	236
1299	233	220	230
1300	237	219	231
1301	238	216	229
1302	235	210	228
1303	233	204	230
1304	235	206	235
1305	237	207	235
1306	233	199	231
1307	230	191	228
1308	231	191	229
1309	235	192	231
1310	240	191	233
1311	244	191	236
1312	239	179	230
1313	232	167	224
1314	229	162	223
1315	229	159	223
1316	231	155	223
1317	225	145	216
1318	230	151	220
1319	222	150	217
1320	205	146	211
1321	201	149	212
1322	204	155	216
1323	206	158	216
1324	216	169	221
1325	226	178	224
1326	230	176	221
1327	230	172	217
1328	238	182	220
1329	237	185	215
1330	242	200	218
1331	0	0	0
1332	0	0	0
1333	0	0	0
1334	0	0	0
1335	239	226	234
1336	247	228	238
1337	241	214	230
1338	234	206	227
1339	235	206	233
1340	238	208	237
1341	237	203	234
1342	233	195	229
1343	234	192	229
1344	238	193	232
1345	235	185	229
1346	238	183	229
1347	240	182	230
1348	236	171	225
1349	237	170	228
1350	233	166	227
1351	228	157	223
1352	225	150	220
1353	216	138	211
1354	217	142	213
1355	221	156	220
1356	214	157	219
1357	208	156	218
1358	210	161	222
1359	205	154	215
1360	215	165	220
1361	221	170	220
1362	221	166	216
1363	229	175	219
1364	235	184	221
1365	237	190	219
1366	244	205	223
1367	245	209	221
1368	0	0	0
1369	0	0	0
1370	0	0	0
1371	0	0	0
1372	245	223	236
1373	0	0	0
1374	0	0	0
1375	235	206	232
1376	235	202	232
1377	234	198	231
1378	235	195	231
1379	237	192	230
1380	237	186	228
1381	235	178	226
1382	238	177	228
1383	239	175	228
1384	239	173	228
1385	239	172	230
1386	230	160	222
1387	225	152	218
1388	221	145	215
1389	211	133	209
1390	222	152	221
1391	226	166	228
1392	216	161	223
1393	212	160	222
1394	209	158	220
1395	205	151	214
1396	215	161	221
1397	220	166	220
1398	227	174	223
1399	233	181	225
1400	237	189	225
1401	239	195	223
1402	235	196	218
1403	237	200	217
1404	0	0	0
1405	0	0	0
1406	0	0	0
1407	0	0	0
1408	0	0	0
1409	0	0	0
1410	0	0	0
1411	239	210	234
1412	239	206	234
1413	235	197	231
1414	237	194	232
1415	237	189	229
1416	240	184	229
1417	245	184	232
1418	248	183	233
1419	243	176	230
1420	238	171	227
1421	235	167	225
1422	228	156	219
1423	235	164	226
1424	232	158	224
1425	220	141	215
1426	230	160	229
1427	224	160	225
1428	209	153	217
1429	210	158	221
1430	212	158	222
1431	206	146	214
1432	216	156	221
1433	220	161	221
1434	224	167	221
1435	227	173	221
1436	232	180	221
1437	238	194	223
1438	232	193	217
1439	236	202	218
1440	0	0	0
1441	0	0	0
1442	0	0	0
1443	0	0	0
1444	0	0	0
1445	0	0	0
1446	243	215	236
1447	242	213	235
1448	237	203	231
1449	234	194	229
1450	234	190	229
1451	234	184	228
1452	242	186	231
1453	247	185	231
1454	246	179	229
1455	241	171	226
1456	233	165	223
1457	230	161	222
1458	235	167	227
1459	242	174	232
1460	235	162	226
1461	222	145	218
1462	225	153	224
1463	217	153	220
1464	207	151	216
1465	208	156	220
1466	204	148	217
1467	199	137	210
1468	210	148	217
1469	213	151	217
1470	218	158	217
1471	222	164	218
1472	235	181	224
1473	241	194	224
1474	236	197	219
1475	0	0	0
1476	0	0	0
1477	0	0	0
1478	0	0	0
1479	0	0	0
1480	0	0	0
1481	249	218	237
1482	244	214	235
1483	239	208	231
1484	232	197	227
1485	230	191	228
1486	231	187	229
1487	233	183	230
1488	239	184	232
1489	240	180	228
1490	239	173	224
1491	236	169	223
1492	230	163	221
1493	229	163	223
1494	235	169	229
1495	236	168	227
1496	227	154	220
1497	216	141	214
1498	218	149	221
1499	216	154	221
1500	210	155	220
1501	202	149	217
1502	194	138	211
1503	198	142	215
1504	209	153	222
1505	214	156	221
1506	222	165	223
1507	232	175	227
1508	249	194	235
1509	244	191	224
1510	239	194	218
1511	0	0	0
1512	0	0	0
1513	0	0	0
1514	0	0	0
1515	0	0	0
1516	253	225	240
1517	250	217	236
1518	240	208	230
1519	235	202	229
1520	229	193	227
1521	227	188	229
1522	230	185	232
1523	232	182	233
1524	236	181	234
1525	238	177	231
1526	241	176	230
1527	238	171	226
1528	233	168	225
1529	233	168	228
1530	235	168	230
1531	235	166	228
1532	227	156	223
1533	215	142	216
1534	217	152	223
1535	216	157	225
1536	204	148	217
1537	196	141	216
1538	199	146	220
1539	202	149	220
1540	209	156	223
1541	213	159	222
1542	222	169	225
1543	233	179	228
1544	241	184	227
1545	239	182	218
1546	0	0	0
1547	0	0	0
1548	0	0	0
1549	0	0	0
1550	0	0	0
1551	247	226	239
1552	255	224	241
1553	249	212	234
1554	235	201	227
1555	233	202	230
1556	230	195	229
1557	236	200	237
1558	239	198	240
1559	237	187	238
1560	240	186	239
1561	238	175	232
1562	244	175	232
1563	239	167	226
1564	234	164	223
1565	237	169	231
1566	238	168	233
1567	229	155	224
1568	220	145	218
1569	210	135	213
1570	212	144	219
1571	211	152	223
1572	198	141	215
1573	196	142	217
1574	201	147	222
1575	205	153	223
1576	211	158	224
1577	215	163	224
1578	221	172	225
1579	227	177	225
1580	235	181	224
1581	238	185	221
1582	0	0	0
1583	0	0	0
1584	0	0	0
1585	0	0	0
1586	0	0	0
1587	250	226	239
1588	251	218	237
1589	244	207	231
1590	236	203	230
1591	235	204	233
1592	238	206	236
1593	242	209	238
1594	236	196	232
1595	234	186	232
1596	232	178	230
1597	230	167	224
1598	238	167	227
1599	236	161	223
1600	237	164	226
1601	241	170	233
1602	232	157	226
1603	221	143	216
1604	214	137	214
1605	203	127	209
1606	206	138	217
1607	205	145	219
1608	198	142	216
1609	196	141	216
1610	201	148	220
1611	205	153	221
1612	213	161	224
1613	216	166	224
1614	218	169	223
1615	224	175	223
1616	233	183	224
1617	0	0	0
1618	0	0	0
1619	0	0	0
1620	0	0	0
1621	0	0	0
1622	0	0	0
1623	0	0	0
1624	245	211	230
1625	248	215	235
1626	246	215	237
1627	242	211	237
1628	243	211	237
1629	238	204	232
1630	229	190	224
1631	232	189	230
1632	230	181	229
1633	230	172	227
1634	239	173	232
1635	238	165	227
1636	244	170	233
1637	241	167	233
1638	230	152	223
1639	223	145	219
1640	215	139	217
1641	208	136	217
1642	208	145	223
1643	201	141	218
1644	197	139	215
1645	201	148	220
1646	203	153	222
1647	205	155	222
1648	214	164	226
1649	218	169	227
1650	222	174	226
1651	0	0	0
1652	0	0	0
1653	0	0	0
1654	0	0	0
1655	0	0	0
1656	0	0	0
1657	0	0	0
1658	0	0	0
1659	0	0	0
1660	0	0	0
1661	249	221	235
1662	245	216	233
1663	242	212	232
1664	237	205	230
1665	235	200	229
1666	234	197	230
1667	236	195	233
1668	232	186	231
1669	233	178	231
1670	240	175	234
1671	238	166	229
1672	239	164	230
1673	237	160	229
1674	231	153	226
1675	223	146	221
1676	218	146	222
1677	211	142	221
1678	207	142	222
1679	201	138	217
1680	204	147	221
1681	207	155	224
1682	204	155	223
1683	207	158	225
1684	217	168	231
1685	222	172	231
1686	227	181	231
1687	0	0	0
1688	0	0	0
1689	0	0	0
1690	0	0	0
1691	0	0	0
1692	0	0	0
1693	0	0	0
1694	0	0	0
1695	0	0	0
1696	244	218	231
1697	244	220	232
1698	238	213	228
1699	236	209	228
1700	233	204	227
1701	235	202	231
1702	238	201	234
1703	236	192	230
1704	233	183	229
1705	236	180	232
1706	241	176	235
1707	239	168	231
1708	238	165	231
1709	234	159	229
1710	229	153	226
1711	222	147	222
1712	217	145	222
1713	211	140	221
1714	212	143	224
1715	208	140	220
1716	208	147	222
1717	215	162	228
1718	210	161	225
1719	214	166	229
1720	226	176	237
1721	224	174	232
1722	225	180	229
1723	0	0	0
1724	0	0	0
1725	0	0	0
1726	0	0	0
1727	0	0	0
1728	0	0	0
1729	0	0	0
1730	0	0	0
1731	0	0	0
1732	243	219	234
1733	243	221	235
1734	238	215	232
1735	237	212	233
1736	237	209	233
1737	239	207	234
1738	235	197	230
1739	232	188	228
1740	232	183	228
1741	233	178	229
1742	236	174	231
1743	234	167	229
1744	232	162	228
1745	228	156	226
1746	225	152	226
1747	219	146	222
1748	212	141	219
1749	207	136	218
1750	211	140	222
1751	207	137	217
1752	216	154	226
1753	222	168	231
1754	216	167	226
1755	219	171	229
1756	223	173	230
1757	220	170	226
1758	0	0	0
1759	0	0	0
1760	0	0	0
1761	0	0	0
1762	0	0	0
1763	0	0	0
1764	0	0	0
1765	0	0	0
1766	0	0	0
1767	0	0	0
1768	241	218	234
1769	247	227	239
1770	245	223	238
1771	242	214	236
1772	243	211	237
1773	242	207	234
1774	233	194	227
1775	234	193	231
1776	233	188	232
1777	228	177	229
1778	228	172	229
1779	223	162	225
1780	221	157	224
1781	221	155	225
1782	219	152	225
1783	212	142	220
1784	208	138	218
1785	209	141	222
1786	210	143	223
1787	210	144	221
1788	223	162	231
1789	223	165	229
1790	218	164	224
1791	225	177	230
1792	0	0	0
1793	0	0	0
1794	0	0	0
1795	0	0	0
1796	0	0	0
1797	0	0	0
1798	0	0	0
1799	0	0	0
1800	0	0	0
1801	0	0	0
1802	0	0	0
1803	0	0	0
1804	0	0	0
1805	250	233	241
1806	242	219	232
1807	239	211	232
1808	241	208	234
1809	239	204	230
1810	236	199	229
1811	236	198	234
1812	230	187	231
1813	224	176	230
1814	220	167	228
1815	215	157	223
1816	219	158	227
1817	219	156	228
1818	215	148	225
1819	209	139	221
1820	213	145	226
1821	213	146	226
1822	212	148	226
1823	212	149	225
1824	219	157	229
1825	220	160	226
1826	226	172	230
1827	231	183	233
1828	233	192	232
1829	0	0	0
1830	0	0	0
1831	0	0	0
1832	0	0	0
1833	0	0	0
1834	0	0	0
1835	0	0	0
1836	0	0	0
1837	0	0	0
1838	0	0	0
1839	0	0	0
1840	0	0	0
1841	0	0	0
1842	231	210	224
1843	239	217	235
1844	242	215	236
1845	239	207	231
1846	239	204	232
1847	239	201	235
1848	232	190	233
1849	227	181	234
1850	219	171	231
1851	220	169	232
1852	229	172	238
1853	220	155	229
1854	215	147	226
1855	218	149	229
1856	223	155	234
1857	216	147	226
1858	212	147	223
1859	221	163	232
1860	227	169	234
1861	229	174	233
1862	239	187	238
1863	235	188	232
1864	0	0	0
1865	0	0	0
1866	0	0	0
1867	0	0	0
1868	0	0	0
1869	0	0	0
1870	0	0	0
1871	0	0	0
1872	0	0	0
1873	0	0	0
1874	0	0	0
1875	0	0	0
1876	0	0	0
1877	0	0	0
1878	0	0	0
1879	246	228	242
1880	245	220	240
1881	243	212	236
1882	242	207	235
1883	241	204	237
1884	234	193	235
1885	228	184	234
1886	223	179	235
1887	225	177	237
1888	223	165	233
1889	215	148	226
1890	218	152	229
1891	220	153	229
1892	221	152	228
1893	214	144	222
1894	223	161	230
1895	231	176	236
1896	234	181	235
1897	236	185	232
1898	240	191	233
1899	236	191	229
1900	0	0	0
1901	0	0	0
1902	0	0	0
1903	0	0	0
1904	0	0	0
1905	0	0	0
1906	0	0	0
1907	0	0	0
1908	0	0	0
1909	0	0	0
1910	0	0	0
1911	0	0	0
1912	0	0	0
1913	0	0	0
1914	0	0	0
1915	0	0	0
1916	246	218	238
1917	246	214	237
1918	243	208	235
1919	243	206	238
1920	235	195	235
1921	230	188	235
1922	227	184	237
1923	225	177	237
1924	221	163	231
1925	223	161	233
1926	225	165	237
1927	221	159	231
1928	221	157	230
1929	219	153	227
1930	232	173	237
1931	233	176	233
1932	233	179	229
1933	237	187	228
1934	238	191	227
1935	238	200	228
1936	0	0	0
1937	0	0	0
1938	0	0	0
1939	0	0	0
1940	0	0	0
1941	0	0	0
1942	0	0	0
1943	0	0	0
1944	0	0	0
1945	0	0	0
1946	0	0	0
1947	0	0	0
1948	0	0	0
1949	0	0	0
1950	0	0	0
1951	0	0	0
1952	0	0	0
1953	246	214	235
1954	241	208	232
1955	240	206	234
1956	234	197	232
1957	230	189	234
1958	224	180	233
1959	223	175	234
1960	232	178	241
1961	232	175	239
1962	228	171	237
1963	224	165	233
1964	225	165	234
1965	223	161	231
1966	232	171	236
1967	232	174	230
1968	236	183	229
1969	239	191	229
1970	244	203	231
1971	0	0	0
1972	0	0	0
1973	0	0	0
1974	0	0	0
1975	0	0	0
1976	0	0	0
1977	0	0	0
1978	0	0	0
1979	0	0	0
1980	0	0	0
1981	0	0	0
1982	0	0	0
1983	0	0	0
1984	0	0	0
1985	0	0	0
1986	0	0	0
1987	0	0	0
1988	0	0	0
1989	0	0	0
1990	0	0	0
1991	0	0	0
1992	0	0	0
1993	235	199	236
1994	228	189	235
1995	234	192	242
1996	247	197	252
1997	234	174	237
1998	228	168	234
1999	230	173	237
2000	229	172	236
2001	0	0	0
2002	242	188	244
2003	238	183	233
2004	240	191	232
2005	241	199	231
2006	0	0	0
2007	0	0	0
2008	0	0	0
2009	0	0	0
2010	0	0	0
2011	0	0	0
2012	0	0	0
2013	0	0	0
2014	0	0	0
2015	0	0	0
2016	0	0	0
2017	0	0	0
2018	0	0	0
2019	0	0	0
2020	0	0	0
2021	0	0	0
2022	0	0	0
2023	0	0	0
2024	0	0	0
2025	0	0	0
2026	0	0	0
2027	0	0	0
2028	0	0	0
2029	0	0	0
2030	0	0	0
2031	244	207	246
2032	242	192	243
2033	230	170	233
2034	234	178	240
2035	235	182	239
2036	235	185	239
2037	0	0	0
2038	0	0	0
2039	238	188	232
2040	241	198	233
2041	0	0	0
2042	0	0	0
2043	0	0	0
2044	0	0	0
2045	0	0	0
2046	0	0	0
2047	0	0	0
2048	0	0	0
2049	0	0	0
2050	0	0	0
2051	0	0	0
2052	0	0	0
2053	0	0	0
2054	0	0	0
2055	0	0	0
2056	0	0	0
2057	0	0	0
2058	0	0	0
2059	0	0	0
2060	0	0	0
2061	0	0	0
2062	0	0	0
2063	0	0	0
2064	0	0	0
2065	0	0	0
2066	0	0	0
2067	241	206	240
2068	235	188	235
2069	232	180	235
2070	239	189	244
2071	234	186	238
2072	0	0	0
2073	0	0	0
2074	0	0	0
2075	0	0	0
2076	0	0	0
2077	0	0	0
2078	0	0	0
2079	0	0	0
2080	0	0	0
2081	0	0	0
2082	0	0	0
2083	0	0	0
2084	0	0	0
2085	0	0	0
2086	0	0	0
2087	0	0	0
2088	0	0	0
2089	0	0	0
2090	0	0	0
2091	0	0	0
2092	0	0	0
2093	0	0	0
2094	0	0	0
2095	0	0	0
2096	0	0	0
2097	0	0	0
2098	0	0	0
2099	0	0	0
2100	0	0	0
2101	0	0	0
2102	0	0	0
2103	0	0	0
2104	235	197	236
2105	231	186	232
2106	234	191	237
2107	0	0	0
2108	0	0	0
2109	0	0	0
2110	0	0	0
2111	0	0	0
2112	0	0	0
2113	0	0	0
2114	0	0	0
2115	0	0	0
2116	0	0	0
2117	0	0	0
2118	0	0	0
2119	0	0	0
2120	0	0	0
2121	0	0	0
2122	0	0	0
2123	0	0	0
2124	0	0	0
