 	R	G	B
1	0	0	0
2	253	207	232
3	254	204	231
4	254	201	229
5	253	197	226
6	0	0	0
7	0	0	0
8	0	0	0
9	0	0	0
10	252	190	222
11	252	191	221
12	251	191	221
13	0	0	0
14	0	0	0
15	0	0	0
16	0	0	0
17	0	0	0
18	0	0	0
19	0	0	0
20	0	0	0
21	0	0	0
22	0	0	0
23	0	0	0
24	0	0	0
25	0	0	0
26	0	0	0
27	0	0	0
28	0	0	0
29	0	0	0
30	0	0	0
31	252	200	233
32	255	201	237
33	252	192	231
34	252	189	229
35	252	187	227
36	252	184	226
37	250	179	223
38	252	181	226
39	250	177	225
40	253	180	227
41	249	173	221
42	248	174	220
43	249	175	220
44	0	0	0
45	0	0	0
46	0	0	0
47	0	0	0
48	0	0	0
49	0	0	0
50	0	0	0
51	0	0	0
52	0	0	0
53	0	0	0
54	0	0	0
55	0	0	0
56	0	0	0
57	0	0	0
58	0	0	0
59	0	0	0
60	0	0	0
61	0	0	0
62	240	178	229
63	237	169	223
64	243	170	225
65	244	169	224
66	244	165	222
67	241	159	218
68	239	155	216
69	238	152	216
70	238	150	216
71	234	144	211
72	239	151	215
73	240	153	216
74	242	158	216
75	240	158	212
76	241	163	212
77	241	166	212
78	238	167	211
79	238	169	212
80	240	175	214
81	243	180	213
82	248	188	216
83	254	197	222
84	252	197	222
85	250	196	222
86	253	202	227
87	0	0	0
88	0	0	0
89	0	0	0
90	0	0	0
91	0	0	0
92	0	0	0
93	248	187	240
94	255	191	245
95	247	167	230
96	246	163	227
97	252	171	232
98	250	166	230
99	255	172	236
100	255	171	237
101	245	154	226
102	251	161	231
103	250	160	230
104	252	165	231
105	249	162	226
106	251	168	227
107	250	171	227
108	245	171	224
109	244	172	225
110	247	178	228
111	249	182	226
112	255	190	229
113	253	186	225
114	250	185	223
115	250	186	223
116	252	191	226
117	251	194	228
118	0	0	0
119	0	0	0
120	0	0	0
121	0	0	0
122	0	0	0
123	249	194	245
124	246	176	235
125	235	153	221
126	247	165	231
127	253	172	235
128	255	174	236
129	255	179	240
130	251	164	232
131	241	148	224
132	245	152	229
133	245	152	229
134	245	153	230
135	243	152	226
136	247	158	229
137	245	161	226
138	238	159	223
139	235	161	224
140	236	165	226
141	239	169	226
142	239	167	223
143	238	163	219
144	241	167	220
145	240	168	217
146	244	175	220
147	244	178	222
148	0	0	0
149	0	0	0
150	0	0	0
151	0	0	0
152	0	0	0
153	255	209	254
154	255	191	244
155	243	166	232
156	254	178	242
157	255	177	240
158	255	179	239
159	255	179	239
160	248	164	231
161	246	158	232
162	252	164	240
163	253	163	241
164	254	166	242
165	252	164	240
166	255	171	242
167	249	168	236
168	243	167	232
169	243	174	237
170	239	175	237
171	240	178	238
172	242	177	236
173	245	177	236
174	252	183	239
175	248	177	230
176	252	183	232
177	247	178	228
178	251	189	233
179	253	197	233
180	0	0	0
181	0	0	0
182	0	0	0
183	0	0	0
184	250	193	243
185	238	168	232
186	245	174	239
187	245	173	235
188	242	169	230
189	243	168	229
190	242	163	228
191	242	159	232
192	245	162	238
193	244	161	237
194	242	160	235
195	239	158	232
196	236	158	230
197	232	156	226
198	235	165	230
199	235	171	234
200	231	172	233
201	231	174	234
202	231	174	234
203	233	174	234
204	237	172	233
205	236	167	227
206	239	169	227
207	236	164	222
208	242	177	228
209	243	184	227
210	243	191	227
211	0	0	0
212	0	0	0
213	0	0	0
214	0	0	0
215	0	0	0
216	0	0	0
217	0	0	0
218	0	0	0
219	0	0	0
220	0	0	0
221	0	0	0
222	250	182	247
223	242	175	241
224	237	172	238
225	239	180	241
226	234	179	238
227	237	185	240
228	245	196	247
229	240	189	243
230	239	192	244
231	234	188	242
232	227	184	238
233	229	186	241
234	233	186	241
235	236	183	237
236	246	188	241
237	247	186	239
238	254	199	244
239	248	196	237
240	0	0	0
241	0	0	0
242	0	0	0
243	0	0	0
244	0	0	0
245	0	0	0
246	0	0	0
247	0	0	0
248	0	0	0
249	0	0	0
250	0	0	0
251	0	0	0
252	0	0	0
253	232	179	235
254	237	190	243
255	238	197	246
256	237	201	246
257	240	208	247
258	237	202	242
259	233	195	239
260	233	195	240
261	228	192	238
262	222	190	237
263	223	192	241
264	226	190	240
265	228	188	237
266	238	192	239
267	240	191	237
268	241	194	236
269	0	0	0
270	0	0	0
