 	R	G	B
1	0	0	0
2	0	0	0
3	0	0	0
4	0	0	0
5	0	0	0
6	0	0	0
7	0	0	0
8	0	0	0
9	0	0	0
10	245	216	234
11	0	0	0
12	0	0	0
13	0	0	0
14	0	0	0
15	0	0	0
16	0	0	0
17	0	0	0
18	0	0	0
19	0	0	0
20	0	0	0
21	0	0	0
22	252	230	240
23	244	207	230
24	236	187	223
25	252	205	239
26	0	0	0
27	0	0	0
28	0	0	0
29	0	0	0
30	0	0	0
31	0	0	0
32	0	0	0
33	0	0	0
34	249	232	239
35	249	219	234
36	247	205	230
37	237	184	222
38	245	193	230
39	234	185	221
40	0	0	0
41	0	0	0
42	0	0	0
43	0	0	0
44	0	0	0
45	0	0	0
46	248	241	242
47	251	231	240
48	243	206	228
49	240	192	224
50	231	177	218
51	232	181	223
52	232	190	225
53	0	0	0
54	0	0	0
55	0	0	0
56	0	0	0
57	0	0	0
58	248	245	241
59	251	240	242
60	247	219	235
61	238	195	224
62	240	189	226
63	228	171	218
64	234	188	229
65	0	0	0
66	0	0	0
67	0	0	0
68	0	0	0
69	0	0	0
70	255	254	248
71	251	241	240
72	244	222	232
73	238	201	225
74	233	184	220
75	233	177	222
76	227	171	220
77	0	0	0
78	0	0	0
79	0	0	0
80	0	0	0
81	0	0	0
82	0	0	0
83	0	0	0
84	246	225	231
85	241	206	224
86	240	194	223
87	233	176	219
88	240	183	229
89	234	177	225
90	0	0	0
91	0	0	0
92	0	0	0
93	0	0	0
94	0	0	0
95	0	0	0
96	253	244	243
97	255	229	239
98	245	197	223
99	240	182	220
100	241	178	224
101	246	183	231
102	239	178	226
103	0	0	0
104	0	0	0
105	0	0	0
106	0	0	0
107	0	0	0
108	250	246	240
109	255	244	244
110	255	220	237
111	247	187	223
112	252	189	230
113	250	183	231
114	254	188	235
115	245	180	226
116	0	0	0
117	0	0	0
118	0	0	0
119	0	0	0
120	255	253	244
121	255	248	244
122	255	223	235
123	248	194	225
124	240	171	217
125	246	173	224
126	251	178	229
127	252	181	231
128	239	168	218
129	0	0	0
130	0	0	0
131	0	0	0
132	0	0	0
133	255	249	243
134	254	223	232
135	248	198	225
136	243	180	221
137	234	156	213
138	247	169	226
139	250	172	227
140	248	171	225
141	234	158	213
142	0	0	0
143	0	0	0
144	0	0	0
145	0	0	0
146	255	240	241
147	255	216	232
148	242	183	219
149	235	163	215
150	246	171	228
151	255	184	240
152	246	163	224
153	243	161	221
154	238	163	219
155	0	0	0
156	0	0	0
157	0	0	0
158	0	0	0
159	254	228	238
160	248	200	227
161	235	167	213
162	249	179	229
163	255	185	239
164	254	173	233
165	240	152	219
166	247	166	229
167	242	168	226
168	0	0	0
169	0	0	0
170	0	0	0
171	254	240	245
172	250	217	235
173	243	188	223
174	241	170	220
175	255	183	236
176	254	175	234
177	247	161	227
178	242	155	223
179	250	169	232
180	246	172	229
181	0	0	0
182	0	0	0
183	253	250	248
184	244	222	234
185	240	200	225
186	245	188	227
187	242	171	225
188	249	172	231
189	247	163	229
190	252	166	232
191	246	159	228
192	254	173	235
193	248	175	227
194	0	0	0
195	0	0	0
196	253	250	248
197	246	223	236
198	241	200	228
199	244	188	230
200	246	178	232
201	253	178	238
202	246	162	229
203	251	164	233
204	244	154	226
205	250	168	232
206	242	168	222
207	0	0	0
208	0	0	0
209	252	248	247
210	246	223	237
211	243	200	232
212	251	196	239
213	252	185	239
214	251	175	237
215	243	158	227
216	243	156	227
217	236	145	221
218	244	161	229
219	236	161	220
220	0	0	0
221	0	0	0
222	253	247	247
223	248	223	239
224	244	198	233
225	254	195	241
226	249	177	236
227	245	165	232
228	241	157	227
229	238	154	226
230	240	157	229
231	250	173	238
232	240	170	227
233	0	0	0
234	0	0	0
235	251	245	246
236	244	218	237
237	240	193	231
238	247	185	235
239	242	166	230
240	245	165	233
241	241	157	229
242	247	167	236
243	246	169	236
244	252	180	240
245	241	177	228
246	0	0	0
247	0	0	0
248	248	242	243
249	238	213	233
250	239	196	233
251	247	188	238
252	241	167	230
253	245	167	233
254	248	168	235
255	255	179	243
256	242	163	230
257	244	172	231
258	240	182	229
259	0	0	0
260	0	0	0
261	246	239	242
262	241	217	235
263	242	201	237
264	246	190	239
265	238	168	229
266	250	177	238
267	254	178	237
268	251	172	233
269	238	156	222
270	251	182	237
271	247	192	235
272	0	0	0
273	0	0	0
274	250	244	246
275	247	223	240
276	241	199	235
277	239	184	234
278	238	171	231
279	253	182	241
280	250	172	232
281	246	166	227
282	241	161	224
283	255	187	239
284	243	186	230
285	0	0	0
286	0	0	0
287	255	249	251
288	248	222	241
289	240	197	233
290	242	190	237
291	242	178	237
292	252	180	243
293	249	170	235
294	250	172	234
295	243	165	225
296	246	177	229
297	0	0	0
298	0	0	0
299	0	0	0
300	246	237	243
301	238	210	232
302	238	196	232
303	243	190	238
304	246	183	241
305	255	184	247
306	244	164	233
307	243	164	230
308	241	168	227
309	0	0	0
310	0	0	0
311	0	0	0
312	0	0	0
313	238	225	235
314	237	211	233
315	237	197	236
316	242	193	241
317	243	184	239
318	244	172	236
319	233	152	224
320	242	167	233
321	240	171	230
322	0	0	0
323	0	0	0
324	0	0	0
325	0	0	0
326	242	229	239
327	238	213	236
328	229	191	232
329	230	184	235
330	232	179	235
331	232	168	230
332	234	165	230
333	246	182	242
334	235	173	230
335	0	0	0
336	0	0	0
337	0	0	0
338	0	0	0
339	243	231	240
340	236	211	236
341	227	188	232
342	232	189	241
343	234	184	241
344	243	187	245
345	242	182	241
346	242	183	239
347	231	175	230
348	0	0	0
349	0	0	0
350	0	0	0
351	0	0	0
352	240	228	238
353	236	210	236
354	230	189	235
355	236	190	244
356	230	176	238
357	238	178	241
358	234	174	235
359	228	171	228
360	233	185	233
361	0	0	0
362	0	0	0
363	0	0	0
364	0	0	0
365	236	224	236
366	232	206	232
367	225	185	231
368	224	177	235
369	218	162	230
370	227	169	237
371	224	164	230
372	232	183	237
373	236	196	237
374	0	0	0
375	0	0	0
376	0	0	0
377	0	0	0
378	232	220	234
379	224	199	228
380	216	181	227
381	0	0	0
382	218	174	237
383	227	180	243
384	226	178	238
385	240	200	247
386	233	196	234
387	0	0	0
388	0	0	0
389	0	0	0
390	0	0	0
391	0	0	0
392	220	198	228
393	0	0	0
394	0	0	0
395	0	0	0
396	234	196	251
397	234	193	245
398	239	201	246
399	233	197	235
400	0	0	0
401	0	0	0
402	0	0	0
403	0	0	0
404	0	0	0
405	0	0	0
406	0	0	0
407	0	0	0
408	0	0	0
409	242	205	254
410	231	188	240
411	235	194	241
412	233	197	236
413	0	0	0
414	0	0	0
415	0	0	0
416	0	0	0
417	0	0	0
418	0	0	0
419	0	0	0
420	0	0	0
421	0	0	0
422	0	0	0
423	220	176	231
424	229	190	239
425	0	0	0
426	0	0	0
427	0	0	0
428	0	0	0
429	0	0	0
