 	R	G	B
1	0	0	0
2	0	0	0
3	0	0	0
4	0	0	0
5	0	0	0
6	0	0	0
7	0	0	0
8	0	0	0
9	0	0	0
10	0	0	0
11	0	0	0
12	254	226	239
13	0	0	0
14	0	0	0
15	0	0	0
16	0	0	0
17	0	0	0
18	0	0	0
19	0	0	0
20	0	0	0
21	0	0	0
22	0	0	0
23	0	0	0
24	0	0	0
25	0	0	0
26	0	0	0
27	0	0	0
28	0	0	0
29	0	0	0
30	0	0	0
31	0	0	0
32	0	0	0
33	0	0	0
34	0	0	0
35	0	0	0
36	0	0	0
37	0	0	0
38	0	0	0
39	0	0	0
40	0	0	0
41	0	0	0
42	0	0	0
43	0	0	0
44	0	0	0
45	0	0	0
46	0	0	0
47	0	0	0
48	0	0	0
49	0	0	0
50	0	0	0
51	0	0	0
52	0	0	0
53	0	0	0
54	248	221	236
55	255	228	241
56	251	217	233
57	0	0	0
58	0	0	0
59	0	0	0
60	0	0	0
61	0	0	0
62	0	0	0
63	0	0	0
64	0	0	0
65	0	0	0
66	0	0	0
67	0	0	0
68	0	0	0
69	0	0	0
70	0	0	0
71	0	0	0
72	0	0	0
73	0	0	0
74	0	0	0
75	0	0	0
76	0	0	0
77	0	0	0
78	0	0	0
79	0	0	0
80	0	0	0
81	0	0	0
82	0	0	0
83	0	0	0
84	0	0	0
85	0	0	0
86	0	0	0
87	0	0	0
88	0	0	0
89	0	0	0
90	0	0	0
91	0	0	0
92	0	0	0
93	0	0	0
94	0	0	0
95	0	0	0
96	248	219	235
97	251	224	239
98	246	214	233
99	241	203	227
100	0	0	0
101	0	0	0
102	0	0	0
103	0	0	0
104	0	0	0
105	0	0	0
106	0	0	0
107	0	0	0
108	0	0	0
109	0	0	0
110	0	0	0
111	0	0	0
112	0	0	0
113	0	0	0
114	0	0	0
115	0	0	0
116	0	0	0
117	0	0	0
118	0	0	0
119	0	0	0
120	0	0	0
121	0	0	0
122	0	0	0
123	0	0	0
124	0	0	0
125	0	0	0
126	0	0	0
127	0	0	0
128	0	0	0
129	0	0	0
130	0	0	0
131	0	0	0
132	0	0	0
133	253	228	245
134	0	0	0
135	0	0	0
136	252	221	239
137	255	225	244
138	252	214	235
139	250	216	235
140	250	219	237
141	237	205	227
142	239	209	230
143	240	211	232
144	0	0	0
145	0	0	0
146	0	0	0
147	0	0	0
148	0	0	0
149	0	0	0
150	0	0	0
151	0	0	0
152	0	0	0
153	0	0	0
154	0	0	0
155	0	0	0
156	0	0	0
157	0	0	0
158	0	0	0
159	0	0	0
160	0	0	0
161	0	0	0
162	0	0	0
163	0	0	0
164	0	0	0
165	0	0	0
166	0	0	0
167	0	0	0
168	0	0	0
169	0	0	0
170	0	0	0
171	0	0	0
172	0	0	0
173	0	0	0
174	250	225	237
175	251	225	239
176	253	224	241
177	250	218	236
178	252	221	238
179	255	226	242
180	254	217	237
181	246	205	230
182	247	210	233
183	246	213	233
184	243	214	233
185	245	218	237
186	0	0	0
187	0	0	0
188	0	0	0
189	0	0	0
190	0	0	0
191	0	0	0
192	0	0	0
193	0	0	0
194	252	227	238
195	252	227	237
196	0	0	0
197	0	0	0
198	0	0	0
199	0	0	0
200	0	0	0
201	0	0	0
202	0	0	0
203	0	0	0
204	0	0	0
205	0	0	0
206	0	0	0
207	0	0	0
208	0	0	0
209	0	0	0
210	0	0	0
211	0	0	0
212	0	0	0
213	0	0	0
214	0	0	0
215	0	0	0
216	255	227	239
217	255	227	241
218	251	218	237
219	251	215	236
220	250	215	235
221	253	218	237
222	252	216	235
223	244	205	228
224	248	212	235
225	251	217	238
226	245	212	233
227	247	216	235
228	251	220	239
229	255	227	244
230	253	219	238
231	0	0	0
232	0	0	0
233	0	0	0
234	0	0	0
235	0	0	0
236	250	224	235
237	253	227	239
238	247	222	234
239	235	211	225
240	0	0	0
241	0	0	0
242	0	0	0
243	0	0	0
244	0	0	0
245	0	0	0
246	0	0	0
247	0	0	0
248	0	0	0
249	0	0	0
250	0	0	0
251	0	0	0
252	0	0	0
253	0	0	0
254	0	0	0
255	0	0	0
256	0	0	0
257	0	0	0
258	0	0	0
259	0	0	0
260	252	218	238
261	248	209	235
262	251	211	237
263	249	210	233
264	247	208	230
265	244	205	228
266	247	211	233
267	251	219	239
268	246	214	235
269	242	209	231
270	247	215	234
271	251	219	237
272	248	212	233
273	244	205	228
274	249	213	233
275	0	0	0
276	0	0	0
277	0	0	0
278	250	225	233
279	249	222	235
280	251	222	238
281	245	217	234
282	243	223	235
283	250	234	241
284	0	0	0
285	0	0	0
286	0	0	0
287	0	0	0
288	0	0	0
289	0	0	0
290	0	0	0
291	0	0	0
292	0	0	0
293	0	0	0
294	0	0	0
295	252	225	237
296	0	0	0
297	0	0	0
298	0	0	0
299	0	0	0
300	0	0	0
301	0	0	0
302	0	0	0
303	0	0	0
304	250	215	239
305	255	219	243
306	251	210	234
307	245	206	229
308	247	211	232
309	251	217	237
310	251	220	238
311	244	214	233
312	245	215	234
313	252	221	239
314	249	216	235
315	241	207	228
316	245	213	232
317	253	222	238
318	247	215	231
319	0	0	0
320	254	230	236
321	251	225	233
322	249	221	235
323	251	222	238
324	248	219	235
325	248	226	238
326	248	228	237
327	245	220	231
328	248	221	233
329	0	0	0
330	0	0	0
331	0	0	0
332	0	0	0
333	0	0	0
334	0	0	0
335	0	0	0
336	0	0	0
337	254	226	239
338	249	221	233
339	245	221	231
340	248	228	235
341	0	0	0
342	0	0	0
343	0	0	0
344	0	0	0
345	0	0	0
346	0	0	0
347	0	0	0
348	255	216	239
349	249	208	233
350	248	211	234
351	249	215	235
352	252	219	237
353	253	222	238
354	249	221	236
355	251	222	239
356	254	221	239
357	250	216	236
358	249	219	236
359	252	223	238
360	252	221	236
361	247	215	232
362	252	224	236
363	255	232	239
364	251	224	232
365	249	220	232
366	252	222	235
367	249	220	234
368	248	222	234
369	249	225	236
370	250	224	235
371	252	225	236
372	250	220	234
373	0	0	0
374	0	0	0
375	0	0	0
376	0	0	0
377	0	0	0
378	0	0	0
379	250	222	236
380	249	221	234
381	245	216	231
382	246	222	235
383	249	230	240
384	251	231	240
385	252	232	241
386	0	0	0
387	0	0	0
388	0	0	0
389	0	0	0
390	0	0	0
391	0	0	0
392	252	213	236
393	251	216	237
394	255	223	240
395	255	227	242
396	251	216	233
397	247	214	232
398	252	219	236
399	255	219	238
400	251	213	234
401	250	216	234
402	255	225	239
403	255	223	237
404	250	214	233
405	254	223	237
406	255	228	237
407	249	220	230
408	248	218	231
409	251	220	234
410	250	219	233
411	251	223	235
412	251	222	236
413	252	221	236
414	250	219	234
415	244	212	229
416	246	214	232
417	0	0	0
418	0	0	0
419	0	0	0
420	0	0	0
421	248	221	235
422	243	216	230
423	243	215	230
424	245	218	233
425	246	224	237
426	248	228	239
427	251	230	240
428	249	226	237
429	244	222	232
430	0	0	0
431	0	0	0
432	0	0	0
433	0	0	0
434	0	0	0
435	255	219	240
436	255	224	242
437	255	230	244
438	255	221	237
439	248	210	229
440	248	212	231
441	252	217	235
442	255	216	235
443	251	210	231
444	252	218	234
445	255	227	240
446	254	219	234
447	248	210	229
448	252	218	234
449	254	224	235
450	251	220	232
451	249	218	233
452	249	218	234
453	249	218	232
454	248	217	232
455	248	217	234
456	250	217	235
457	248	214	233
458	245	213	231
459	0	0	0
460	0	0	0
461	0	0	0
462	0	0	0
463	249	221	233
464	242	215	228
465	239	211	227
466	245	218	233
467	247	221	235
468	245	222	235
469	246	225	236
470	244	221	234
471	241	218	231
472	0	0	0
473	0	0	0
474	0	0	0
475	0	0	0
476	0	0	0
477	255	220	241
478	252	215	237
479	254	221	240
480	254	219	237
481	250	210	230
482	253	214	233
483	255	217	235
484	255	220	237
485	255	218	236
486	246	204	226
487	247	211	230
488	253	221	235
489	248	213	229
490	251	216	231
491	255	224	237
492	250	217	231
493	249	215	231
494	246	212	230
495	243	211	229
496	247	219	233
497	247	218	233
498	246	216	234
499	249	216	236
500	242	207	229
501	239	206	228
502	249	221	237
503	250	221	236
504	249	220	235
505	252	224	237
506	245	216	229
507	239	210	225
508	240	212	229
509	249	220	236
510	246	217	233
511	242	217	231
512	240	218	231
513	0	0	0
514	0	0	0
515	0	0	0
516	0	0	0
517	0	0	0
518	0	0	0
519	0	0	0
520	253	218	239
521	250	212	235
522	247	210	233
523	247	209	233
524	253	214	235
525	255	218	235
526	255	221	235
527	255	223	237
528	252	211	230
529	242	198	224
530	247	209	231
531	252	218	234
532	252	220	232
533	254	223	232
534	250	216	228
535	247	211	228
536	249	212	231
537	246	209	230
538	249	216	234
539	252	223	237
540	244	215	231
541	243	213	232
542	245	209	232
543	239	201	226
544	250	217	237
545	255	231	243
546	255	227	239
547	254	226	237
548	250	221	234
549	246	214	230
550	244	214	231
551	246	215	234
552	249	216	235
553	244	212	229
554	242	213	228
555	240	215	229
556	243	223	233
557	249	233	238
558	251	236	240
559	0	0	0
560	0	0	0
561	0	0	0
562	0	0	0
563	0	0	0
564	250	212	236
565	246	209	233
566	251	215	238
567	255	220	240
568	255	219	236
569	255	221	236
570	250	206	226
571	239	194	218
572	252	213	234
573	255	226	242
574	252	215	232
575	249	215	228
576	252	219	229
577	251	214	226
578	252	213	229
579	255	214	233
580	250	208	230
581	254	216	235
582	253	221	235
583	240	210	225
584	247	218	234
585	250	216	235
586	246	206	230
587	255	224	243
588	254	217	235
589	246	211	228
590	249	217	232
591	247	212	229
592	246	209	229
593	249	211	232
594	253	217	237
595	251	215	234
596	247	212	229
597	247	215	229
598	246	216	231
599	249	225	235
600	250	227	235
601	252	230	236
602	249	226	236
603	0	0	0
604	0	0	0
605	0	0	0
606	251	214	239
607	249	209	235
608	253	216	239
609	255	222	242
610	255	220	239
611	255	218	235
612	248	204	226
613	239	191	219
614	250	209	232
615	255	227	241
616	255	219	235
617	251	210	228
618	252	214	230
619	255	220	233
620	255	217	230
621	255	214	228
622	255	211	228
623	252	206	227
624	255	215	233
625	255	219	233
626	250	219	230
627	255	227	237
628	250	216	232
629	248	207	228
630	253	209	232
631	248	203	227
632	245	206	227
633	248	212	231
634	247	208	230
635	246	205	230
636	253	212	236
637	255	217	238
638	254	215	235
639	252	213	231
640	254	218	233
641	253	219	234
642	251	221	234
643	251	223	234
644	248	219	231
645	0	0	0
646	0	0	0
647	0	0	0
648	252	222	242
649	254	220	242
650	249	210	236
651	255	218	242
652	255	216	238
653	253	212	234
654	253	212	233
655	241	197	222
656	247	205	230
657	255	225	244
658	255	220	236
659	254	212	229
660	251	207	227
661	255	214	233
662	255	212	231
663	252	207	227
664	253	207	225
665	252	204	223
666	253	205	227
667	255	214	234
668	251	207	226
669	248	208	225
670	249	215	229
671	239	201	220
672	250	212	230
673	255	216	236
674	248	200	226
675	246	202	228
676	251	211	234
677	250	207	232
678	250	205	232
679	254	211	236
680	255	212	235
681	254	211	232
682	253	209	230
683	255	214	233
684	249	207	228
685	244	207	226
686	249	218	233
687	246	214	230
688	0	0	0
689	0	0	0
690	254	230	243
691	255	228	241
692	248	216	235
693	245	207	232
694	250	208	234
695	249	205	230
696	248	206	230
697	249	207	232
698	253	213	236
699	255	219	238
700	255	217	235
701	255	213	231
702	252	208	227
703	251	203	227
704	252	204	229
705	252	202	229
706	252	202	229
707	252	202	228
708	253	203	228
709	254	204	229
710	252	201	228
711	246	195	223
712	248	202	227
713	250	208	229
714	248	210	228
715	255	219	235
716	252	207	228
717	242	191	220
718	244	199	226
719	250	208	233
720	253	207	234
721	252	205	233
722	253	207	234
723	253	208	232
724	252	205	229
725	250	203	227
726	248	200	225
727	240	192	220
728	238	199	222
729	242	210	229
730	0	0	0
731	0	0	0
732	253	227	240
733	255	226	240
734	246	214	231
735	235	201	223
736	246	214	235
737	252	216	238
738	250	210	233
739	251	211	233
740	253	213	236
741	255	220	241
742	255	215	234
743	255	212	230
744	255	211	229
745	252	206	226
746	255	211	232
747	255	211	234
748	253	202	230
749	254	203	231
750	255	205	232
751	255	206	233
752	255	203	230
753	251	199	227
754	252	201	230
755	255	210	236
756	252	204	229
757	249	206	227
758	251	211	229
759	242	196	220
760	242	195	222
761	247	205	230
762	250	207	233
763	254	207	235
764	253	204	232
765	253	205	232
766	249	201	228
767	246	198	225
768	246	199	226
769	244	195	224
770	243	200	226
771	0	0	0
772	0	0	0
773	0	0	0
774	0	0	0
775	0	0	0
776	246	213	230
777	239	202	227
778	244	212	235
779	253	224	243
780	255	221	241
781	254	216	237
782	255	217	238
783	255	218	237
784	255	215	234
785	255	211	230
786	255	210	229
787	255	209	228
788	255	212	229
789	255	217	232
790	255	207	226
791	251	199	222
792	255	203	228
793	255	206	231
794	255	205	232
795	255	202	230
796	255	203	231
797	255	205	232
798	255	203	230
799	250	197	222
800	250	201	224
801	253	207	229
802	251	205	229
803	250	204	231
804	251	206	233
805	253	207	234
806	254	204	232
807	251	200	228
808	245	195	223
809	241	191	221
810	244	194	224
811	244	195	227
812	250	204	233
813	248	208	232
814	244	215	233
815	0	0	0
816	0	0	0
817	0	0	0
818	248	225	237
819	249	219	235
820	248	213	236
821	255	224	245
822	253	221	241
823	254	217	238
824	255	214	237
825	255	215	237
826	255	214	234
827	255	211	230
828	253	207	228
829	253	207	228
830	254	207	228
831	255	210	229
832	255	209	226
833	250	199	218
834	255	205	225
835	255	210	232
836	253	196	226
837	253	196	227
838	253	195	225
839	253	196	226
840	255	201	229
841	254	198	226
842	253	197	223
843	255	203	228
844	254	200	228
845	251	198	228
846	252	199	230
847	255	201	232
848	255	202	232
849	250	197	227
850	250	200	228
851	242	194	223
852	239	192	223
853	245	196	229
854	248	198	232
855	253	207	238
856	247	206	232
857	241	211	231
858	0	0	0
859	0	0	0
860	0	0	0
861	0	0	0
862	255	229	242
863	254	221	239
864	252	219	239
865	252	217	238
866	253	214	237
867	253	211	235
868	254	211	234
869	254	210	230
870	250	204	226
871	249	201	225
872	252	204	229
873	254	205	230
874	255	206	229
875	255	204	224
876	255	207	225
877	255	212	232
878	255	200	227
879	248	187	222
880	251	189	225
881	250	188	220
882	252	192	222
883	255	196	227
884	254	196	226
885	254	196	226
886	255	195	225
887	253	192	225
888	253	194	228
889	254	195	231
890	255	196	231
891	253	195	227
892	251	197	227
893	250	201	231
894	239	193	225
895	237	191	226
896	244	196	232
897	246	197	233
898	249	203	235
899	243	202	230
900	0	0	0
901	0	0	0
902	0	0	0
903	0	0	0
904	255	234	245
905	255	229	242
906	248	211	232
907	247	210	233
908	0	0	0
909	255	217	240
910	254	213	237
911	255	213	236
912	253	209	231
913	249	204	226
914	255	211	233
915	255	215	238
916	252	201	229
917	254	202	229
918	255	202	225
919	255	205	226
920	255	205	230
921	252	192	224
922	249	186	224
923	252	189	226
924	255	194	225
925	255	197	226
926	255	195	225
927	254	195	226
928	255	199	230
929	255	198	231
930	253	188	226
931	255	191	230
932	253	189	230
933	249	188	227
934	247	189	226
935	247	191	226
936	246	196	230
937	233	187	223
938	243	202	234
939	249	207	239
940	241	195	230
941	0	0	0
942	0	0	0
943	0	0	0
944	0	0	0
945	0	0	0
946	0	0	0
947	0	0	0
948	247	216	234
949	239	201	228
950	0	0	0
951	0	0	0
952	0	0	0
953	254	213	239
954	254	212	238
955	253	209	234
956	255	213	236
957	255	219	240
958	253	205	230
959	245	192	224
960	250	197	227
961	252	197	223
962	253	197	224
963	255	198	229
964	253	191	227
965	249	184	222
966	255	193	227
967	255	198	228
968	255	196	226
969	255	193	223
970	255	195	225
971	255	199	231
972	251	188	226
973	244	178	222
974	246	180	226
975	243	177	224
976	240	180	224
977	241	182	226
978	245	189	231
979	245	194	232
980	242	200	233
981	250	214	241
982	246	205	235
983	238	193	227
984	251	212	240
985	255	225	244
986	252	227	242
987	0	0	0
988	0	0	0
989	0	0	0
990	0	0	0
991	0	0	0
992	0	0	0
993	0	0	0
994	0	0	0
995	0	0	0
996	255	217	240
997	255	215	240
998	253	210	236
999	255	216	239
1000	255	214	236
1001	247	199	226
1002	253	203	232
1003	255	209	236
1004	255	202	229
1005	255	201	230
1006	251	190	227
1007	248	184	223
1008	255	195	230
1009	255	203	234
1010	254	189	223
1011	253	188	222
1012	252	186	221
1013	253	189	224
1014	255	199	233
1015	245	185	225
1016	238	178	223
1017	238	179	226
1018	239	183	228
1019	239	186	231
1020	238	183	230
1021	248	193	237
1022	250	199	238
1023	248	205	237
1024	249	209	238
1025	244	200	231
1026	241	195	229
1027	254	214	242
1028	255	219	241
1029	254	223	240
1030	248	218	235
1031	0	0	0
1032	0	0	0
1033	0	0	0
1034	0	0	0
1035	0	0	0
1036	0	0	0
1037	0	0	0
1038	0	0	0
1039	255	219	238
1040	255	215	236
1041	252	210	235
1042	251	209	233
1043	251	208	232
1044	255	211	235
1045	255	215	239
1046	255	211	238
1047	255	205	235
1048	254	194	230
1049	247	182	223
1050	255	195	232
1051	255	206	236
1052	255	192	226
1053	249	180	220
1054	252	183	224
1055	251	182	224
1056	255	191	230
1057	255	199	236
1058	245	186	227
1059	236	178	225
1060	239	183	230
1061	240	187	233
1062	235	183	230
1063	234	181	229
1064	248	195	239
1065	251	201	238
1066	246	201	234
1067	248	206	236
1068	246	202	234
1069	242	196	231
1070	247	205	236
1071	249	210	236
1072	245	207	232
1073	241	203	228
1074	246	215	235
1075	0	0	0
1076	0	0	0
1077	0	0	0
1078	0	0	0
1079	0	0	0
1080	0	0	0
1081	0	0	0
1082	255	219	236
1083	255	215	235
1084	253	211	234
1085	251	209	232
1086	255	217	237
1087	255	221	241
1088	255	205	232
1089	255	201	231
1090	255	198	232
1091	251	188	227
1092	251	186	227
1093	255	199	236
1094	255	196	232
1095	250	182	222
1096	250	180	223
1097	253	183	227
1098	252	182	227
1099	255	190	234
1100	255	192	234
1101	240	179	225
1102	241	184	230
1103	244	189	235
1104	249	198	241
1105	244	194	237
1106	244	194	237
1107	254	205	244
1108	251	202	238
1109	250	204	237
1110	250	206	237
1111	245	200	234
1112	244	201	235
1113	248	209	240
1114	247	210	238
1115	244	207	234
1116	245	212	236
1117	251	224	242
1118	249	225	240
1119	0	0	0
1120	0	0	0
1121	0	0	0
1122	0	0	0
1123	0	0	0
1124	255	223	239
1125	255	222	239
1126	255	219	238
1127	255	214	235
1128	255	218	236
1129	255	225	240
1130	255	209	230
1131	248	194	224
1132	251	194	227
1133	252	190	227
1134	255	192	230
1135	255	190	229
1136	255	189	230
1137	255	188	231
1138	251	181	227
1139	249	178	223
1140	248	177	223
1141	246	175	224
1142	249	180	229
1143	246	181	230
1144	241	182	230
1145	242	187	234
1146	250	197	241
1147	254	206	244
1148	249	203	240
1149	248	202	238
1150	248	202	237
1151	245	198	234
1152	244	198	232
1153	243	199	232
1154	241	199	231
1155	240	201	234
1156	239	203	234
1157	238	204	233
1158	238	207	232
1159	239	211	232
1160	239	213	232
1161	0	0	0
1162	0	0	0
1163	0	0	0
1164	0	0	0
1165	0	0	0
1166	253	222	236
1167	255	224	239
1168	253	213	234
1169	251	209	232
1170	254	213	232
1171	255	217	234
1172	255	221	237
1173	253	205	228
1174	254	201	231
1175	255	201	235
1176	252	188	227
1177	255	190	230
1178	249	179	223
1179	249	177	224
1180	254	184	232
1181	249	178	227
1182	254	188	230
1183	253	186	229
1184	253	187	233
1185	253	191	237
1186	245	185	233
1187	240	186	233
1188	244	195	237
1189	252	204	243
1190	249	202	239
1191	243	200	235
1192	240	197	232
1193	239	196	231
1194	243	203	235
1195	0	0	0
1196	0	0	0
1197	0	0	0
1198	0	0	0
1199	0	0	0
1200	0	0	0
1201	0	0	0
1202	0	0	0
1203	0	0	0
1204	0	0	0
1205	0	0	0
1206	0	0	0
1207	0	0	0
1208	0	0	0
1209	0	0	0
1210	249	212	231
1211	244	202	227
1212	249	207	231
1213	251	209	229
1214	253	212	230
1215	255	218	237
1216	255	211	236
1217	255	207	239
1218	255	197	234
1219	249	184	225
1220	247	177	223
1221	241	166	219
1222	247	174	226
1223	250	179	229
1224	254	187	232
1225	255	197	238
1226	255	197	237
1227	255	198	239
1228	251	193	236
1229	242	187	231
1230	242	192	233
1231	244	200	235
1232	247	201	235
1233	245	199	234
1234	239	196	232
1235	236	194	232
1236	239	200	235
1237	0	0	0
1238	0	0	0
1239	0	0	0
1240	0	0	0
1241	0	0	0
1242	0	0	0
1243	0	0	0
1244	0	0	0
1245	0	0	0
1246	0	0	0
1247	0	0	0
1248	0	0	0
1249	0	0	0
1250	0	0	0
1251	0	0	0
1252	0	0	0
1253	0	0	0
1254	0	0	0
1255	0	0	0
1256	255	221	237
1257	255	224	239
1258	255	213	235
1259	255	206	234
1260	255	202	236
1261	252	192	232
1262	251	185	229
1263	249	178	227
1264	246	173	227
1265	251	181	232
1266	254	187	234
1267	255	194	236
1268	255	197	237
1269	255	196	235
1270	251	192	233
1271	244	188	230
1272	246	195	234
1273	247	202	237
1274	246	205	235
1275	247	204	234
1276	244	202	234
1277	241	200	234
1278	239	201	235
1279	0	0	0
1280	0	0	0
1281	0	0	0
1282	0	0	0
1283	0	0	0
1284	0	0	0
1285	0	0	0
1286	0	0	0
1287	0	0	0
1288	0	0	0
1289	0	0	0
1290	0	0	0
1291	0	0	0
1292	0	0	0
1293	0	0	0
1294	0	0	0
1295	0	0	0
1296	0	0	0
1297	0	0	0
1298	0	0	0
1299	0	0	0
1300	0	0	0
1301	254	207	230
1302	251	200	229
1303	252	196	233
1304	251	190	233
1305	250	184	231
1306	249	181	231
1307	245	175	227
1308	251	184	232
1309	254	190	234
1310	254	193	233
1311	253	195	233
1312	247	190	228
1313	242	186	227
1314	246	196	233
1315	249	204	237
1316	248	206	236
1317	249	209	237
1318	246	206	234
1319	242	203	233
1320	240	204	234
1321	0	0	0
1322	0	0	0
1323	0	0	0
1324	0	0	0
1325	0	0	0
1326	0	0	0
1327	0	0	0
1328	0	0	0
1329	0	0	0
1330	0	0	0
1331	0	0	0
1332	0	0	0
1333	0	0	0
1334	0	0	0
1335	0	0	0
1336	0	0	0
1337	0	0	0
1338	0	0	0
1339	0	0	0
1340	0	0	0
1341	0	0	0
1342	0	0	0
1343	0	0	0
1344	0	0	0
1345	0	0	0
1346	255	203	237
1347	255	197	237
1348	250	187	233
1349	248	183	232
1350	251	188	234
1351	255	197	238
1352	255	198	237
1353	255	201	237
1354	252	199	234
1355	243	193	229
1356	243	196	233
1357	249	206	239
1358	248	207	236
1359	250	211	236
1360	249	210	235
1361	0	0	0
1362	0	0	0
1363	0	0	0
1364	0	0	0
1365	0	0	0
1366	0	0	0
1367	0	0	0
1368	0	0	0
1369	0	0	0
1370	0	0	0
1371	0	0	0
1372	0	0	0
1373	0	0	0
1374	0	0	0
1375	0	0	0
1376	0	0	0
1377	0	0	0
1378	0	0	0
1379	0	0	0
1380	0	0	0
1381	0	0	0
1382	0	0	0
1383	0	0	0
1384	0	0	0
1385	0	0	0
1386	0	0	0
1387	0	0	0
1388	0	0	0
1389	0	0	0
1390	248	194	232
1391	241	184	227
1392	246	191	232
1393	249	195	234
1394	248	197	234
1395	247	198	233
1396	245	197	231
1397	242	195	231
1398	242	200	235
1399	243	204	239
1400	245	208	240
1401	245	208	234
1402	248	210	233
1403	248	211	233
1404	0	0	0
1405	0	0	0
1406	0	0	0
1407	0	0	0
1408	0	0	0
1409	0	0	0
1410	0	0	0
1411	0	0	0
1412	0	0	0
1413	0	0	0
1414	0	0	0
1415	0	0	0
1416	0	0	0
1417	0	0	0
1418	0	0	0
1419	0	0	0
1420	0	0	0
1421	0	0	0
1422	0	0	0
1423	0	0	0
1424	0	0	0
1425	0	0	0
1426	0	0	0
1427	0	0	0
1428	0	0	0
1429	0	0	0
1430	0	0	0
1431	0	0	0
1432	0	0	0
1433	0	0	0
1434	0	0	0
1435	0	0	0
1436	0	0	0
1437	0	0	0
1438	0	0	0
1439	0	0	0
1440	245	215	239
1441	251	223	247
1442	241	209	239
1443	243	213	240
1444	244	213	235
1445	248	216	234
1446	247	213	233
1447	252	221	238
1448	0	0	0
1449	0	0	0
1450	0	0	0
1451	0	0	0
1452	0	0	0
1453	0	0	0
1454	0	0	0
1455	0	0	0
1456	0	0	0
1457	0	0	0
1458	0	0	0
1459	0	0	0
1460	0	0	0
1461	0	0	0
1462	0	0	0
1463	0	0	0
1464	0	0	0
1465	0	0	0
1466	0	0	0
1467	0	0	0
1468	0	0	0
1469	0	0	0
1470	0	0	0
1471	0	0	0
1472	0	0	0
1473	0	0	0
1474	0	0	0
1475	0	0	0
1476	0	0	0
1477	0	0	0
1478	0	0	0
1479	0	0	0
1480	0	0	0
1481	0	0	0
1482	0	0	0
1483	0	0	0
1484	246	225	242
1485	238	212	234
1486	245	218	238
1487	248	220	238
1488	251	220	237
1489	249	217	235
1490	0	0	0
1491	0	0	0
1492	0	0	0
1493	0	0	0
1494	0	0	0
1495	0	0	0
1496	0	0	0
1497	0	0	0
1498	0	0	0
1499	0	0	0
1500	0	0	0
1501	0	0	0
1502	0	0	0
1503	0	0	0
1504	0	0	0
1505	0	0	0
1506	0	0	0
1507	0	0	0
1508	0	0	0
1509	0	0	0
1510	0	0	0
1511	0	0	0
1512	0	0	0
1513	0	0	0
1514	0	0	0
1515	0	0	0
1516	0	0	0
1517	0	0	0
1518	0	0	0
1519	0	0	0
1520	0	0	0
1521	0	0	0
1522	0	0	0
1523	0	0	0
1524	0	0	0
1525	0	0	0
1526	0	0	0
1527	0	0	0
1528	241	221	235
1529	254	230	243
1530	251	220	236
1531	252	220	237
1532	248	215	234
1533	0	0	0
1534	0	0	0
1535	0	0	0
1536	0	0	0
1537	0	0	0
1538	0	0	0
1539	0	0	0
1540	0	0	0
1541	0	0	0
1542	0	0	0
1543	0	0	0
1544	0	0	0
1545	0	0	0
1546	0	0	0
1547	0	0	0
1548	0	0	0
1549	0	0	0
1550	0	0	0
1551	0	0	0
1552	0	0	0
1553	0	0	0
1554	0	0	0
1555	0	0	0
1556	0	0	0
1557	0	0	0
1558	0	0	0
1559	0	0	0
1560	0	0	0
1561	0	0	0
1562	0	0	0
1563	0	0	0
1564	0	0	0
1565	0	0	0
1566	0	0	0
1567	0	0	0
1568	0	0	0
1569	0	0	0
1570	0	0	0
1571	0	0	0
1572	249	226	236
1573	246	216	231
1574	248	216	233
1575	0	0	0
1576	0	0	0
1577	0	0	0
1578	0	0	0
1579	0	0	0
1580	0	0	0
1581	0	0	0
1582	0	0	0
1583	0	0	0
1584	0	0	0
1585	0	0	0
1586	0	0	0
1587	0	0	0
1588	0	0	0
1589	0	0	0
1590	0	0	0
1591	0	0	0
