 	R	G	B
1	0	0	0
2	0	0	0
3	0	0	0
4	0	0	0
5	0	0	0
6	0	0	0
7	0	0	0
8	0	0	0
9	0	0	0
10	0	0	0
11	0	0	0
12	0	0	0
13	0	0	0
14	0	0	0
15	0	0	0
16	0	0	0
17	0	0	0
18	0	0	0
19	0	0	0
20	0	0	0
21	0	0	0
22	0	0	0
23	0	0	0
24	0	0	0
25	0	0	0
26	0	0	0
27	0	0	0
28	0	0	0
29	0	0	0
30	0	0	0
31	0	0	0
32	0	0	0
33	0	0	0
34	0	0	0
35	0	0	0
36	0	0	0
37	0	0	0
38	0	0	0
39	0	0	0
40	0	0	0
41	0	0	0
42	0	0	0
43	0	0	0
44	0	0	0
45	0	0	0
46	0	0	0
47	0	0	0
48	0	0	0
49	0	0	0
50	0	0	0
51	0	0	0
52	0	0	0
53	0	0	0
54	0	0	0
55	0	0	0
56	0	0	0
57	0	0	0
58	255	225	234
59	0	0	0
60	0	0	0
61	0	0	0
62	0	0	0
63	0	0	0
64	0	0	0
65	0	0	0
66	0	0	0
67	0	0	0
68	0	0	0
69	0	0	0
70	0	0	0
71	0	0	0
72	0	0	0
73	0	0	0
74	0	0	0
75	0	0	0
76	0	0	0
77	0	0	0
78	0	0	0
79	0	0	0
80	0	0	0
81	0	0	0
82	0	0	0
83	0	0	0
84	0	0	0
85	0	0	0
86	0	0	0
87	0	0	0
88	0	0	0
89	0	0	0
90	0	0	0
91	0	0	0
92	0	0	0
93	0	0	0
94	0	0	0
95	0	0	0
96	0	0	0
97	0	0	0
98	0	0	0
99	0	0	0
100	0	0	0
101	0	0	0
102	0	0	0
103	0	0	0
104	0	0	0
105	0	0	0
106	0	0	0
107	0	0	0
108	0	0	0
109	0	0	0
110	0	0	0
111	0	0	0
112	0	0	0
113	0	0	0
114	0	0	0
115	0	0	0
116	0	0	0
117	0	0	0
118	0	0	0
119	0	0	0
120	0	0	0
121	0	0	0
122	0	0	0
123	0	0	0
124	0	0	0
125	0	0	0
126	252	222	231
127	255	224	235
128	243	206	223
129	0	0	0
130	0	0	0
131	0	0	0
132	0	0	0
133	0	0	0
134	0	0	0
135	0	0	0
136	0	0	0
137	0	0	0
138	0	0	0
139	0	0	0
140	0	0	0
141	0	0	0
142	0	0	0
143	0	0	0
144	0	0	0
145	0	0	0
146	0	0	0
147	0	0	0
148	0	0	0
149	0	0	0
150	0	0	0
151	0	0	0
152	0	0	0
153	0	0	0
154	0	0	0
155	0	0	0
156	0	0	0
157	0	0	0
158	0	0	0
159	0	0	0
160	0	0	0
161	0	0	0
162	0	0	0
163	0	0	0
164	0	0	0
165	0	0	0
166	0	0	0
167	0	0	0
168	0	0	0
169	0	0	0
170	0	0	0
171	0	0	0
172	0	0	0
173	0	0	0
174	0	0	0
175	0	0	0
176	0	0	0
177	0	0	0
178	0	0	0
179	0	0	0
180	0	0	0
181	0	0	0
182	0	0	0
183	0	0	0
184	0	0	0
185	0	0	0
186	0	0	0
187	0	0	0
188	255	238	243
189	0	0	0
190	0	0	0
191	0	0	0
192	255	231	237
193	253	226	234
194	253	224	233
195	255	223	234
196	251	212	229
197	237	194	217
198	246	215	230
199	0	0	0
200	0	0	0
201	0	0	0
202	0	0	0
203	0	0	0
204	0	0	0
205	0	0	0
206	0	0	0
207	0	0	0
208	0	0	0
209	0	0	0
210	0	0	0
211	0	0	0
212	0	0	0
213	0	0	0
214	0	0	0
215	0	0	0
216	0	0	0
217	0	0	0
218	0	0	0
219	0	0	0
220	0	0	0
221	0	0	0
222	0	0	0
223	0	0	0
224	0	0	0
225	0	0	0
226	0	0	0
227	0	0	0
228	0	0	0
229	0	0	0
230	0	0	0
231	0	0	0
232	0	0	0
233	0	0	0
234	0	0	0
235	0	0	0
236	0	0	0
237	0	0	0
238	0	0	0
239	0	0	0
240	0	0	0
241	0	0	0
242	0	0	0
243	0	0	0
244	0	0	0
245	0	0	0
246	0	0	0
247	0	0	0
248	0	0	0
249	0	0	0
250	0	0	0
251	0	0	0
252	0	0	0
253	0	0	0
254	0	0	0
255	0	0	0
256	255	242	244
257	254	232	239
258	246	217	229
259	0	0	0
260	254	228	235
261	255	225	233
262	249	214	227
263	248	212	227
264	253	216	231
265	248	205	225
266	247	205	225
267	255	227	239
268	251	224	234
269	0	0	0
270	0	0	0
271	0	0	0
272	0	0	0
273	0	0	0
274	0	0	0
275	0	0	0
276	0	0	0
277	0	0	0
278	0	0	0
279	0	0	0
280	0	0	0
281	0	0	0
282	0	0	0
283	0	0	0
284	0	0	0
285	0	0	0
286	0	0	0
287	0	0	0
288	0	0	0
289	0	0	0
290	0	0	0
291	0	0	0
292	0	0	0
293	0	0	0
294	0	0	0
295	0	0	0
296	0	0	0
297	0	0	0
298	0	0	0
299	0	0	0
300	0	0	0
301	0	0	0
302	0	0	0
303	0	0	0
304	0	0	0
305	0	0	0
306	0	0	0
307	0	0	0
308	0	0	0
309	0	0	0
310	0	0	0
311	0	0	0
312	0	0	0
313	0	0	0
314	0	0	0
315	0	0	0
316	0	0	0
317	0	0	0
318	0	0	0
319	0	0	0
320	0	0	0
321	0	0	0
322	0	0	0
323	0	0	0
324	0	0	0
325	252	234	239
326	252	225	236
327	243	210	225
328	248	217	229
329	253	223	232
330	250	214	226
331	245	204	222
332	248	207	226
333	252	210	228
334	255	213	230
335	254	212	229
336	254	216	231
337	247	214	227
338	0	0	0
339	0	0	0
340	0	0	0
341	0	0	0
342	0	0	0
343	0	0	0
344	0	0	0
345	0	0	0
346	0	0	0
347	0	0	0
348	0	0	0
349	0	0	0
350	0	0	0
351	0	0	0
352	0	0	0
353	0	0	0
354	0	0	0
355	0	0	0
356	0	0	0
357	0	0	0
358	0	0	0
359	0	0	0
360	0	0	0
361	0	0	0
362	0	0	0
363	0	0	0
364	0	0	0
365	0	0	0
366	0	0	0
367	0	0	0
368	0	0	0
369	0	0	0
370	0	0	0
371	0	0	0
372	0	0	0
373	0	0	0
374	0	0	0
375	0	0	0
376	0	0	0
377	0	0	0
378	0	0	0
379	0	0	0
380	0	0	0
381	0	0	0
382	0	0	0
383	0	0	0
384	0	0	0
385	0	0	0
386	0	0	0
387	0	0	0
388	0	0	0
389	0	0	0
390	0	0	0
391	0	0	0
392	0	0	0
393	0	0	0
394	248	231	238
395	253	226	237
396	246	211	226
397	250	217	230
398	251	216	229
399	249	208	225
400	248	203	224
401	252	207	227
402	254	210	228
403	255	211	228
404	253	209	227
405	255	215	230
406	248	209	225
407	0	0	0
408	0	0	0
409	0	0	0
410	0	0	0
411	0	0	0
412	0	0	0
413	0	0	0
414	0	0	0
415	0	0	0
416	0	0	0
417	0	0	0
418	0	0	0
419	0	0	0
420	0	0	0
421	0	0	0
422	0	0	0
423	0	0	0
424	0	0	0
425	0	0	0
426	0	0	0
427	0	0	0
428	0	0	0
429	0	0	0
430	0	0	0
431	0	0	0
432	0	0	0
433	0	0	0
434	0	0	0
435	0	0	0
436	0	0	0
437	0	0	0
438	0	0	0
439	0	0	0
440	0	0	0
441	0	0	0
442	0	0	0
443	0	0	0
444	0	0	0
445	0	0	0
446	0	0	0
447	0	0	0
448	0	0	0
449	0	0	0
450	0	0	0
451	0	0	0
452	0	0	0
453	0	0	0
454	0	0	0
455	0	0	0
456	0	0	0
457	0	0	0
458	0	0	0
459	0	0	0
460	0	0	0
461	0	0	0
462	247	238	238
463	247	229	236
464	250	222	233
465	244	208	223
466	246	208	224
467	248	208	227
468	251	207	228
469	249	201	226
470	254	207	229
471	255	210	228
472	253	208	226
473	254	208	229
474	255	210	231
475	250	205	224
476	251	213	227
477	255	224	232
478	255	227	234
479	0	0	0
480	0	0	0
481	0	0	0
482	0	0	0
483	0	0	0
484	0	0	0
485	0	0	0
486	0	0	0
487	0	0	0
488	0	0	0
489	0	0	0
490	0	0	0
491	0	0	0
492	0	0	0
493	0	0	0
494	0	0	0
495	0	0	0
496	0	0	0
497	0	0	0
498	0	0	0
499	0	0	0
500	0	0	0
501	0	0	0
502	0	0	0
503	0	0	0
504	0	0	0
505	0	0	0
506	0	0	0
507	0	0	0
508	0	0	0
509	0	0	0
510	0	0	0
511	0	0	0
512	0	0	0
513	0	0	0
514	0	0	0
515	0	0	0
516	0	0	0
517	0	0	0
518	0	0	0
519	0	0	0
520	0	0	0
521	0	0	0
522	0	0	0
523	0	0	0
524	0	0	0
525	0	0	0
526	0	0	0
527	0	0	0
528	0	0	0
529	0	0	0
530	0	0	0
531	245	231	233
532	240	219	228
533	239	210	224
534	247	215	227
535	254	218	232
536	252	209	229
537	253	206	229
538	251	201	226
539	254	205	228
540	251	203	224
541	250	202	224
542	249	200	226
543	254	203	229
544	249	198	222
545	252	208	226
546	255	216	230
547	255	218	230
548	252	216	228
549	0	0	0
550	0	0	0
551	0	0	0
552	0	0	0
553	0	0	0
554	0	0	0
555	0	0	0
556	0	0	0
557	0	0	0
558	0	0	0
559	0	0	0
560	0	0	0
561	0	0	0
562	0	0	0
563	0	0	0
564	0	0	0
565	0	0	0
566	0	0	0
567	0	0	0
568	0	0	0
569	0	0	0
570	0	0	0
571	0	0	0
572	0	0	0
573	0	0	0
574	0	0	0
575	0	0	0
576	0	0	0
577	0	0	0
578	0	0	0
579	0	0	0
580	0	0	0
581	0	0	0
582	0	0	0
583	0	0	0
584	0	0	0
585	0	0	0
586	0	0	0
587	0	0	0
588	0	0	0
589	0	0	0
590	0	0	0
591	0	0	0
592	0	0	0
593	0	0	0
594	0	0	0
595	0	0	0
596	0	0	0
597	0	0	0
598	0	0	0
599	0	0	0
600	243	224	230
601	239	213	226
602	249	221	233
603	255	226	236
604	255	218	232
605	253	208	228
606	255	208	230
607	253	202	225
608	254	202	226
609	253	202	227
610	252	199	227
611	251	196	227
612	253	196	228
613	249	191	223
614	251	199	225
615	255	207	228
616	252	206	226
617	248	204	223
618	250	212	228
619	255	223	234
620	0	0	0
621	0	0	0
622	0	0	0
623	0	0	0
624	0	0	0
625	0	0	0
626	0	0	0
627	0	0	0
628	0	0	0
629	0	0	0
630	0	0	0
631	0	0	0
632	0	0	0
633	0	0	0
634	0	0	0
635	0	0	0
636	0	0	0
637	0	0	0
638	0	0	0
639	0	0	0
640	0	0	0
641	0	0	0
642	0	0	0
643	0	0	0
644	0	0	0
645	0	0	0
646	0	0	0
647	0	0	0
648	0	0	0
649	0	0	0
650	0	0	0
651	0	0	0
652	0	0	0
653	0	0	0
654	0	0	0
655	0	0	0
656	0	0	0
657	0	0	0
658	0	0	0
659	0	0	0
660	0	0	0
661	0	0	0
662	0	0	0
663	0	0	0
664	0	0	0
665	0	0	0
666	0	0	0
667	0	0	0
668	0	0	0
669	0	0	0
670	243	212	227
671	253	220	235
672	252	215	230
673	247	205	224
674	245	196	222
675	249	196	224
676	247	190	220
677	251	193	223
678	255	196	228
679	255	194	229
680	249	183	222
681	248	181	220
682	255	194	226
683	255	202	230
684	255	204	229
685	253	202	226
686	250	202	225
687	251	210	229
688	251	216	232
689	239	204	223
690	0	0	0
691	0	0	0
692	0	0	0
693	0	0	0
694	0	0	0
695	0	0	0
696	0	0	0
697	0	0	0
698	0	0	0
699	0	0	0
700	0	0	0
701	0	0	0
702	0	0	0
703	0	0	0
704	0	0	0
705	0	0	0
706	0	0	0
707	0	0	0
708	0	0	0
709	0	0	0
710	0	0	0
711	0	0	0
712	0	0	0
713	0	0	0
714	0	0	0
715	0	0	0
716	0	0	0
717	0	0	0
718	0	0	0
719	0	0	0
720	0	0	0
721	0	0	0
722	0	0	0
723	0	0	0
724	0	0	0
725	0	0	0
726	0	0	0
727	0	0	0
728	0	0	0
729	0	0	0
730	0	0	0
731	0	0	0
732	0	0	0
733	0	0	0
734	0	0	0
735	0	0	0
736	255	242	239
737	0	0	0
738	255	228	235
739	251	213	229
740	252	212	230
741	249	207	226
742	241	195	220
743	238	187	219
744	241	186	222
745	241	181	221
746	248	185	225
747	253	188	226
748	249	179	221
749	242	167	213
750	252	183	223
751	255	194	226
752	253	194	223
753	254	197	226
754	253	198	226
755	249	196	224
756	249	202	227
757	250	208	231
758	247	211	231
759	251	219	236
760	0	0	0
761	0	0	0
762	0	0	0
763	0	0	0
764	0	0	0
765	0	0	0
766	0	0	0
767	0	0	0
768	0	0	0
769	0	0	0
770	0	0	0
771	0	0	0
772	0	0	0
773	0	0	0
774	0	0	0
775	0	0	0
776	0	0	0
777	0	0	0
778	0	0	0
779	0	0	0
780	0	0	0
781	0	0	0
782	0	0	0
783	0	0	0
784	0	0	0
785	0	0	0
786	0	0	0
787	0	0	0
788	0	0	0
789	0	0	0
790	0	0	0
791	0	0	0
792	0	0	0
793	0	0	0
794	0	0	0
795	0	0	0
796	0	0	0
797	0	0	0
798	0	0	0
799	0	0	0
800	0	0	0
801	0	0	0
802	0	0	0
803	0	0	0
804	255	246	239
805	255	242	239
806	255	226	231
807	255	217	230
808	248	199	222
809	243	195	222
810	239	192	220
811	230	181	215
812	233	182	220
813	237	182	224
814	238	178	224
815	244	182	228
816	244	176	223
817	241	167	217
818	245	170	219
819	255	186	228
820	253	185	221
821	248	184	217
822	255	198	228
823	255	200	230
824	250	193	224
825	251	198	227
826	255	212	236
827	255	216	237
828	253	214	234
829	0	0	0
830	0	0	0
831	0	0	0
832	0	0	0
833	0	0	0
834	0	0	0
835	0	0	0
836	0	0	0
837	0	0	0
838	0	0	0
839	0	0	0
840	0	0	0
841	0	0	0
842	0	0	0
843	0	0	0
844	0	0	0
845	0	0	0
846	0	0	0
847	0	0	0
848	0	0	0
849	0	0	0
850	0	0	0
851	0	0	0
852	0	0	0
853	0	0	0
854	0	0	0
855	0	0	0
856	0	0	0
857	0	0	0
858	0	0	0
859	0	0	0
860	0	0	0
861	0	0	0
862	0	0	0
863	0	0	0
864	0	0	0
865	0	0	0
866	0	0	0
867	0	0	0
868	0	0	0
869	0	0	0
870	0	0	0
871	0	0	0
872	252	244	234
873	255	243	236
874	252	227	229
875	250	212	223
876	253	203	223
877	245	187	217
878	242	186	220
879	238	183	221
880	236	183	224
881	236	183	226
882	233	177	225
883	233	173	224
884	235	170	224
885	236	165	222
886	246	172	226
887	249	173	225
888	250	175	222
889	246	174	216
890	249	183	219
891	255	197	229
892	252	192	226
893	246	185	222
894	254	200	230
895	255	213	235
896	255	209	231
897	0	0	0
898	0	0	0
899	0	0	0
900	0	0	0
901	0	0	0
902	0	0	0
903	0	0	0
904	0	0	0
905	0	0	0
906	0	0	0
907	0	0	0
908	0	0	0
909	0	0	0
910	0	0	0
911	0	0	0
912	0	0	0
913	0	0	0
914	0	0	0
915	0	0	0
916	0	0	0
917	0	0	0
918	0	0	0
919	0	0	0
920	0	0	0
921	0	0	0
922	0	0	0
923	0	0	0
924	0	0	0
925	0	0	0
926	0	0	0
927	0	0	0
928	0	0	0
929	0	0	0
930	0	0	0
931	0	0	0
932	0	0	0
933	0	0	0
934	0	0	0
935	0	0	0
936	0	0	0
937	0	0	0
938	0	0	0
939	0	0	0
940	254	248	238
941	254	245	236
942	247	229	228
943	241	212	220
944	246	206	221
945	254	199	224
946	248	184	219
947	248	185	225
948	243	179	226
949	242	179	230
950	235	173	225
951	224	163	218
952	232	173	227
953	235	170	228
954	234	161	223
955	246	168	228
956	250	172	226
957	247	171	221
958	254	184	225
959	255	195	229
960	255	194	229
961	249	187	224
962	249	188	226
963	255	203	235
964	255	204	230
965	246	199	224
966	0	0	0
967	0	0	0
968	0	0	0
969	0	0	0
970	0	0	0
971	0	0	0
972	0	0	0
973	0	0	0
974	0	0	0
975	0	0	0
976	0	0	0
977	0	0	0
978	0	0	0
979	0	0	0
980	0	0	0
981	0	0	0
982	0	0	0
983	0	0	0
984	0	0	0
985	0	0	0
986	0	0	0
987	0	0	0
988	0	0	0
989	0	0	0
990	0	0	0
991	0	0	0
992	0	0	0
993	0	0	0
994	0	0	0
995	0	0	0
996	0	0	0
997	0	0	0
998	0	0	0
999	0	0	0
1000	0	0	0
1001	0	0	0
1002	0	0	0
1003	0	0	0
1004	0	0	0
1005	0	0	0
1006	0	0	0
1007	0	0	0
1008	0	0	0
1009	0	0	0
1010	251	234	232
1011	245	219	226
1012	244	210	225
1013	248	204	227
1014	255	196	228
1015	248	180	220
1016	243	175	221
1017	238	170	224
1018	236	168	228
1019	228	161	222
1020	231	169	228
1021	239	179	235
1022	233	166	226
1023	231	155	220
1024	244	165	227
1025	247	168	225
1026	252	179	227
1027	255	192	231
1028	255	190	226
1029	254	189	227
1030	254	191	229
1031	252	192	231
1032	252	195	231
1033	248	196	227
1034	0	0	0
1035	0	0	0
1036	0	0	0
1037	0	0	0
1038	0	0	0
1039	0	0	0
1040	0	0	0
1041	0	0	0
1042	0	0	0
1043	0	0	0
1044	0	0	0
1045	0	0	0
1046	0	0	0
1047	0	0	0
1048	0	0	0
1049	0	0	0
1050	0	0	0
1051	0	0	0
1052	0	0	0
1053	0	0	0
1054	0	0	0
1055	0	0	0
1056	0	0	0
1057	0	0	0
1058	0	0	0
1059	0	0	0
1060	0	0	0
1061	0	0	0
1062	0	0	0
1063	0	0	0
1064	0	0	0
1065	0	0	0
1066	0	0	0
1067	0	0	0
1068	0	0	0
1069	0	0	0
1070	0	0	0
1071	0	0	0
1072	0	0	0
1073	0	0	0
1074	0	0	0
1075	0	0	0
1076	0	0	0
1077	0	0	0
1078	252	239	235
1079	254	229	233
1080	247	208	224
1081	243	198	223
1082	246	193	226
1083	248	183	224
1084	237	166	215
1085	230	159	214
1086	231	165	225
1087	226	161	226
1088	213	143	215
1089	228	157	226
1090	235	164	229
1091	224	147	216
1092	235	159	224
1093	246	167	229
1094	247	169	226
1095	252	180	229
1096	253	185	227
1097	252	183	224
1098	254	187	228
1099	255	189	231
1100	249	186	229
1101	0	0	0
1102	0	0	0
1103	0	0	0
1104	0	0	0
1105	0	0	0
1106	0	0	0
1107	0	0	0
1108	0	0	0
1109	0	0	0
1110	0	0	0
1111	0	0	0
1112	0	0	0
1113	0	0	0
1114	0	0	0
1115	0	0	0
1116	0	0	0
1117	0	0	0
1118	0	0	0
1119	0	0	0
1120	0	0	0
1121	0	0	0
1122	0	0	0
1123	0	0	0
1124	0	0	0
1125	0	0	0
1126	0	0	0
1127	0	0	0
1128	0	0	0
1129	0	0	0
1130	0	0	0
1131	0	0	0
1132	0	0	0
1133	0	0	0
1134	0	0	0
1135	0	0	0
1136	0	0	0
1137	0	0	0
1138	0	0	0
1139	0	0	0
1140	0	0	0
1141	0	0	0
1142	0	0	0
1143	0	0	0
1144	0	0	0
1145	0	0	0
1146	248	237	231
1147	251	230	232
1148	253	216	230
1149	245	195	219
1150	242	188	219
1151	242	181	222
1152	239	169	220
1153	229	153	213
1154	228	158	220
1155	227	161	226
1156	211	143	216
1157	202	126	208
1158	220	141	220
1159	228	147	221
1160	231	152	222
1161	239	162	227
1162	246	168	229
1163	247	169	227
1164	247	173	225
1165	248	178	225
1166	248	178	225
1167	250	182	229
1168	248	181	227
1169	241	177	222
1170	0	0	0
1171	0	0	0
1172	0	0	0
1173	0	0	0
1174	0	0	0
1175	0	0	0
1176	0	0	0
1177	0	0	0
1178	0	0	0
1179	0	0	0
1180	0	0	0
1181	0	0	0
1182	0	0	0
1183	0	0	0
1184	0	0	0
1185	0	0	0
1186	0	0	0
1187	0	0	0
1188	0	0	0
1189	0	0	0
1190	0	0	0
1191	0	0	0
1192	0	0	0
1193	0	0	0
1194	0	0	0
1195	0	0	0
1196	0	0	0
1197	0	0	0
1198	0	0	0
1199	0	0	0
1200	0	0	0
1201	0	0	0
1202	0	0	0
1203	0	0	0
1204	0	0	0
1205	0	0	0
1206	0	0	0
1207	0	0	0
1208	0	0	0
1209	0	0	0
1210	0	0	0
1211	0	0	0
1212	0	0	0
1213	0	0	0
1214	255	250	240
1215	255	242	237
1216	250	218	228
1217	248	202	224
1218	239	182	216
1219	239	176	218
1220	239	172	222
1221	232	157	218
1222	235	162	225
1223	234	165	231
1224	216	145	219
1225	201	127	209
1226	211	137	218
1227	229	150	229
1228	233	152	226
1229	237	158	227
1230	241	163	228
1231	245	167	228
1232	246	168	227
1233	247	172	227
1234	250	180	229
1235	244	177	225
1236	246	184	230
1237	244	183	228
1238	242	186	226
1239	0	0	0
1240	0	0	0
1241	0	0	0
1242	0	0	0
1243	0	0	0
1244	0	0	0
1245	0	0	0
1246	0	0	0
1247	0	0	0
1248	0	0	0
1249	0	0	0
1250	0	0	0
1251	0	0	0
1252	0	0	0
1253	0	0	0
1254	0	0	0
1255	0	0	0
1256	0	0	0
1257	0	0	0
1258	0	0	0
1259	0	0	0
1260	0	0	0
1261	0	0	0
1262	0	0	0
1263	0	0	0
1264	0	0	0
1265	0	0	0
1266	0	0	0
1267	0	0	0
1268	0	0	0
1269	0	0	0
1270	0	0	0
1271	0	0	0
1272	0	0	0
1273	0	0	0
1274	0	0	0
1275	0	0	0
1276	0	0	0
1277	0	0	0
1278	0	0	0
1279	0	0	0
1280	0	0	0
1281	0	0	0
1282	0	0	0
1283	255	251	242
1284	255	228	233
1285	248	205	223
1286	243	189	221
1287	234	169	215
1288	234	166	220
1289	233	162	224
1290	238	166	230
1291	239	168	233
1292	220	147	219
1293	204	127	210
1294	208	135	217
1295	217	143	223
1296	230	151	227
1297	233	151	224
1298	235	155	224
1299	238	159	225
1300	239	161	225
1301	240	163	225
1302	245	172	228
1303	247	178	227
1304	243	179	225
1305	244	185	230
1306	243	190	231
1307	0	0	0
1308	0	0	0
1309	0	0	0
1310	0	0	0
1311	0	0	0
1312	0	0	0
1313	0	0	0
1314	0	0	0
1315	0	0	0
1316	0	0	0
1317	0	0	0
1318	0	0	0
1319	0	0	0
1320	0	0	0
1321	0	0	0
1322	0	0	0
1323	0	0	0
1324	0	0	0
1325	0	0	0
1326	0	0	0
1327	0	0	0
1328	0	0	0
1329	0	0	0
1330	0	0	0
1331	0	0	0
1332	0	0	0
1333	0	0	0
1334	0	0	0
1335	0	0	0
1336	0	0	0
1337	0	0	0
1338	0	0	0
1339	0	0	0
1340	0	0	0
1341	0	0	0
1342	0	0	0
1343	0	0	0
1344	0	0	0
1345	0	0	0
1346	0	0	0
1347	0	0	0
1348	0	0	0
1349	0	0	0
1350	0	0	0
1351	0	0	0
1352	255	237	236
1353	254	216	228
1354	242	186	217
1355	232	169	214
1356	224	156	213
1357	220	151	215
1358	225	157	225
1359	233	161	231
1360	225	150	223
1361	208	128	209
1362	212	135	218
1363	217	144	224
1364	224	150	227
1365	235	156	230
1366	234	152	223
1367	233	155	223
1368	234	159	224
1369	233	160	224
1370	235	163	226
1371	242	173	230
1372	246	180	229
1373	246	183	229
1374	246	191	233
1375	238	191	229
1376	0	0	0
1377	0	0	0
1378	0	0	0
1379	0	0	0
1380	0	0	0
1381	0	0	0
1382	0	0	0
1383	0	0	0
1384	0	0	0
1385	0	0	0
1386	0	0	0
1387	0	0	0
1388	0	0	0
1389	0	0	0
1390	0	0	0
1391	0	0	0
1392	0	0	0
1393	0	0	0
1394	0	0	0
1395	0	0	0
1396	0	0	0
1397	0	0	0
1398	0	0	0
1399	0	0	0
1400	0	0	0
1401	0	0	0
1402	0	0	0
1403	0	0	0
1404	0	0	0
1405	0	0	0
1406	0	0	0
1407	0	0	0
1408	0	0	0
1409	0	0	0
1410	0	0	0
1411	0	0	0
1412	0	0	0
1413	0	0	0
1414	0	0	0
1415	0	0	0
1416	0	0	0
1417	0	0	0
1418	255	247	242
1419	255	253	247
1420	255	236	237
1421	254	224	230
1422	244	196	219
1423	231	167	211
1424	227	158	215
1425	218	144	213
1426	218	148	220
1427	220	151	224
1428	215	141	218
1429	208	129	211
1430	212	135	215
1431	217	142	222
1432	221	147	225
1433	228	154	229
1434	233	154	227
1435	230	150	220
1436	232	155	222
1437	232	159	225
1438	229	160	224
1439	229	162	225
1440	236	171	229
1441	240	179	230
1442	246	188	233
1443	245	194	233
1444	0	0	0
1445	0	0	0
1446	0	0	0
1447	0	0	0
1448	0	0	0
1449	0	0	0
1450	0	0	0
1451	0	0	0
1452	0	0	0
1453	0	0	0
1454	0	0	0
1455	0	0	0
1456	0	0	0
1457	0	0	0
1458	0	0	0
1459	0	0	0
1460	0	0	0
1461	0	0	0
1462	0	0	0
1463	0	0	0
1464	0	0	0
1465	0	0	0
1466	0	0	0
1467	0	0	0
1468	0	0	0
1469	0	0	0
1470	0	0	0
1471	0	0	0
1472	0	0	0
1473	0	0	0
1474	0	0	0
1475	0	0	0
1476	0	0	0
1477	0	0	0
1478	0	0	0
1479	0	0	0
1480	0	0	0
1481	0	0	0
1482	0	0	0
1483	0	0	0
1484	0	0	0
1485	0	0	0
1486	255	247	243
1487	255	252	247
1488	255	228	235
1489	245	210	225
1490	236	192	216
1491	219	160	202
1492	223	158	211
1493	223	151	217
1494	221	147	220
1495	219	149	225
1496	212	142	220
1497	202	128	211
1498	208	135	216
1499	216	143	221
1500	224	152	227
1501	229	157	230
1502	228	155	228
1503	228	152	224
1504	231	156	223
1505	237	163	227
1506	233	161	225
1507	227	160	223
1508	233	173	231
1509	236	181	233
1510	241	188	234
1511	247	198	237
1512	241	195	231
1513	0	0	0
1514	0	0	0
1515	0	0	0
1516	0	0	0
1517	0	0	0
1518	0	0	0
1519	0	0	0
1520	0	0	0
1521	0	0	0
1522	0	0	0
1523	0	0	0
1524	0	0	0
1525	0	0	0
1526	0	0	0
1527	0	0	0
1528	0	0	0
1529	0	0	0
1530	0	0	0
1531	0	0	0
1532	0	0	0
1533	0	0	0
1534	0	0	0
1535	0	0	0
1536	0	0	0
1537	0	0	0
1538	0	0	0
1539	0	0	0
1540	0	0	0
1541	0	0	0
1542	0	0	0
1543	0	0	0
1544	0	0	0
1545	0	0	0
1546	0	0	0
1547	0	0	0
1548	0	0	0
1549	0	0	0
1550	0	0	0
1551	0	0	0
1552	0	0	0
1553	0	0	0
1554	0	0	0
1555	255	253	245
1556	255	229	234
1557	242	199	217
1558	232	180	211
1559	224	164	209
1560	219	156	211
1561	218	150	215
1562	221	149	220
1563	218	143	220
1564	211	137	218
1565	204	130	215
1566	209	138	220
1567	213	144	222
1568	223	153	227
1569	230	161	231
1570	228	158	227
1571	226	154	224
1572	228	158	226
1573	230	161	225
1574	231	162	224
1575	228	159	221
1576	230	170	225
1577	235	182	232
1578	236	188	233
1579	240	196	233
1580	242	198	233
1581	239	196	229
1582	0	0	0
1583	0	0	0
1584	0	0	0
1585	0	0	0
1586	0	0	0
1587	0	0	0
1588	0	0	0
1589	0	0	0
1590	0	0	0
1591	0	0	0
1592	0	0	0
1593	0	0	0
1594	0	0	0
1595	0	0	0
1596	0	0	0
1597	0	0	0
1598	0	0	0
1599	0	0	0
1600	0	0	0
1601	0	0	0
1602	0	0	0
1603	0	0	0
1604	0	0	0
1605	0	0	0
1606	0	0	0
1607	0	0	0
1608	0	0	0
1609	0	0	0
1610	0	0	0
1611	0	0	0
1612	0	0	0
1613	0	0	0
1614	0	0	0
1615	0	0	0
1616	0	0	0
1617	0	0	0
1618	0	0	0
1619	0	0	0
1620	0	0	0
1621	0	0	0
1622	0	0	0
1623	0	0	0
1624	255	231	233
1625	246	205	221
1626	236	181	212
1627	230	166	211
1628	233	168	223
1629	225	157	222
1630	214	144	216
1631	213	139	216
1632	222	151	226
1633	218	147	225
1634	213	139	222
1635	219	147	227
1636	219	147	224
1637	225	154	226
1638	227	157	227
1639	223	152	222
1640	225	156	225
1641	227	160	226
1642	219	152	218
1643	217	150	214
1644	230	172	226
1645	237	185	232
1646	239	192	234
1647	237	196	233
1648	235	194	229
1649	239	197	230
1650	239	197	229
1651	0	0	0
1652	0	0	0
1653	0	0	0
1654	0	0	0
1655	0	0	0
1656	0	0	0
1657	0	0	0
1658	0	0	0
1659	0	0	0
1660	0	0	0
1661	0	0	0
1662	0	0	0
1663	0	0	0
1664	0	0	0
1665	0	0	0
1666	0	0	0
1667	0	0	0
1668	0	0	0
1669	0	0	0
1670	0	0	0
1671	0	0	0
1672	0	0	0
1673	0	0	0
1674	0	0	0
1675	0	0	0
1676	0	0	0
1677	0	0	0
1678	0	0	0
1679	0	0	0
1680	0	0	0
1681	0	0	0
1682	0	0	0
1683	0	0	0
1684	0	0	0
1685	0	0	0
1686	0	0	0
1687	0	0	0
1688	0	0	0
1689	0	0	0
1690	0	0	0
1691	0	0	0
1692	255	230	234
1693	252	212	225
1694	244	190	219
1695	235	168	215
1696	240	170	226
1697	240	169	231
1698	223	152	222
1699	211	137	214
1700	220	149	225
1701	228	160	232
1702	223	153	227
1703	219	146	224
1704	224	151	228
1705	223	150	224
1706	225	153	224
1707	226	156	226
1708	225	157	226
1709	226	159	227
1710	218	152	221
1711	210	144	213
1712	224	166	225
1713	237	187	236
1714	240	193	235
1715	242	200	234
1716	234	195	228
1717	233	194	228
1718	237	198	231
1719	237	198	228
1720	0	0	0
1721	0	0	0
1722	0	0	0
1723	0	0	0
1724	0	0	0
1725	0	0	0
1726	0	0	0
1727	0	0	0
1728	0	0	0
1729	0	0	0
1730	0	0	0
1731	0	0	0
1732	0	0	0
1733	0	0	0
1734	0	0	0
1735	0	0	0
1736	0	0	0
1737	0	0	0
1738	0	0	0
1739	0	0	0
1740	0	0	0
1741	0	0	0
1742	0	0	0
1743	0	0	0
1744	0	0	0
1745	0	0	0
1746	0	0	0
1747	0	0	0
1748	0	0	0
1749	0	0	0
1750	0	0	0
1751	0	0	0
1752	0	0	0
1753	0	0	0
1754	0	0	0
1755	0	0	0
1756	0	0	0
1757	0	0	0
1758	0	0	0
1759	0	0	0
1760	255	236	237
1761	255	222	235
1762	250	191	220
1763	241	169	214
1764	241	164	222
1765	243	163	229
1766	240	162	230
1767	222	143	218
1768	221	146	223
1769	229	158	232
1770	224	153	227
1771	217	144	220
1772	216	141	219
1773	221	146	223
1774	220	145	219
1775	220	147	219
1776	222	151	223
1777	221	153	224
1778	223	158	226
1779	215	150	219
1780	218	159	224
1781	233	182	236
1782	233	187	233
1783	234	192	230
1784	238	200	230
1785	236	198	227
1786	239	202	232
1787	241	205	233
1788	239	207	231
1789	0	0	0
1790	0	0	0
1791	0	0	0
1792	0	0	0
1793	0	0	0
1794	0	0	0
1795	0	0	0
1796	0	0	0
1797	0	0	0
1798	0	0	0
1799	0	0	0
1800	0	0	0
1801	0	0	0
1802	0	0	0
1803	0	0	0
1804	0	0	0
1805	0	0	0
1806	0	0	0
1807	0	0	0
1808	0	0	0
1809	0	0	0
1810	0	0	0
1811	0	0	0
1812	0	0	0
1813	0	0	0
1814	0	0	0
1815	0	0	0
1816	0	0	0
1817	0	0	0
1818	0	0	0
1819	0	0	0
1820	0	0	0
1821	0	0	0
1822	0	0	0
1823	0	0	0
1824	0	0	0
1825	0	0	0
1826	0	0	0
1827	0	0	0
1828	255	233	232
1829	255	220	228
1830	249	193	218
1831	236	163	208
1832	240	163	218
1833	238	156	221
1834	242	159	228
1835	239	156	227
1836	234	156	228
1837	233	159	232
1838	227	153	229
1839	222	147	224
1840	218	143	221
1841	215	138	217
1842	218	141	218
1843	216	139	215
1844	217	143	216
1845	219	147	221
1846	220	152	224
1847	221	157	226
1848	223	165	229
1849	226	174	232
1850	230	182	232
1851	229	186	228
1852	230	192	226
1853	236	201	228
1854	242	206	230
1855	244	209	233
1856	244	213	233
1857	0	0	0
1858	0	0	0
1859	0	0	0
1860	0	0	0
1861	0	0	0
1862	0	0	0
1863	0	0	0
1864	0	0	0
1865	0	0	0
1866	0	0	0
1867	0	0	0
1868	0	0	0
1869	0	0	0
1870	0	0	0
1871	0	0	0
1872	0	0	0
1873	0	0	0
1874	0	0	0
1875	0	0	0
1876	0	0	0
1877	0	0	0
1878	0	0	0
1879	0	0	0
1880	0	0	0
1881	0	0	0
1882	0	0	0
1883	0	0	0
1884	0	0	0
1885	0	0	0
1886	0	0	0
1887	0	0	0
1888	0	0	0
1889	0	0	0
1890	0	0	0
1891	0	0	0
1892	0	0	0
1893	0	0	0
1894	0	0	0
1895	0	0	0
1896	255	233	232
1897	251	217	226
1898	244	198	218
1899	231	168	207
1900	230	160	213
1901	231	157	221
1902	218	135	211
1903	224	138	217
1904	227	142	218
1905	227	143	220
1906	230	149	226
1907	220	141	221
1908	221	144	223
1909	218	140	220
1910	214	136	216
1911	214	136	215
1912	219	144	219
1913	221	148	221
1914	224	154	226
1915	226	159	228
1916	228	167	232
1917	228	174	234
1918	227	178	232
1919	229	185	232
1920	230	191	229
1921	230	197	227
1922	235	203	229
1923	244	209	232
1924	243	208	229
1925	0	0	0
1926	0	0	0
1927	0	0	0
1928	0	0	0
1929	0	0	0
1930	0	0	0
1931	0	0	0
1932	0	0	0
1933	0	0	0
1934	0	0	0
1935	0	0	0
1936	0	0	0
1937	0	0	0
1938	0	0	0
1939	0	0	0
1940	0	0	0
1941	0	0	0
1942	0	0	0
1943	0	0	0
1944	0	0	0
1945	0	0	0
1946	0	0	0
1947	0	0	0
1948	0	0	0
1949	0	0	0
1950	0	0	0
1951	0	0	0
1952	0	0	0
1953	0	0	0
1954	0	0	0
1955	0	0	0
1956	0	0	0
1957	0	0	0
1958	0	0	0
1959	0	0	0
1960	0	0	0
1961	0	0	0
1962	0	0	0
1963	0	0	0
1964	255	236	237
1965	255	221	229
1966	248	200	221
1967	241	182	218
1968	237	171	220
1969	232	160	223
1970	216	139	216
1971	202	115	205
1972	214	125	214
1973	217	127	212
1974	221	133	215
1975	223	138	219
1976	219	138	219
1977	219	141	221
1978	216	138	219
1979	212	133	215
1980	215	140	219
1981	220	148	223
1982	224	154	226
1983	226	159	227
1984	232	169	232
1985	233	176	235
1986	230	179	234
1987	229	183	233
1988	232	191	235
1989	234	198	234
1990	231	199	229
1991	234	205	231
1992	239	207	230
1993	237	206	226
1994	0	0	0
1995	0	0	0
1996	0	0	0
1997	0	0	0
1998	0	0	0
1999	0	0	0
2000	0	0	0
2001	0	0	0
2002	0	0	0
2003	0	0	0
2004	0	0	0
2005	0	0	0
2006	0	0	0
2007	0	0	0
2008	0	0	0
2009	0	0	0
2010	0	0	0
2011	0	0	0
2012	0	0	0
2013	0	0	0
2014	0	0	0
2015	0	0	0
2016	0	0	0
2017	0	0	0
2018	0	0	0
2019	0	0	0
2020	0	0	0
2021	0	0	0
2022	0	0	0
2023	0	0	0
2024	0	0	0
2025	0	0	0
2026	0	0	0
2027	0	0	0
2028	0	0	0
2029	0	0	0
2030	0	0	0
2031	0	0	0
2032	255	235	238
2033	255	221	232
2034	251	197	221
2035	244	178	215
2036	246	174	223
2037	237	161	223
2038	224	144	219
2039	204	119	208
2040	208	125	216
2041	220	135	224
2042	223	137	221
2043	225	141	222
2044	224	142	222
2045	220	142	222
2046	210	130	213
2047	207	126	211
2048	218	143	221
2049	221	149	225
2050	225	156	228
2051	227	161	230
2052	229	165	229
2053	235	175	233
2054	231	174	231
2055	228	177	229
2056	232	188	234
2057	237	197	237
2058	236	200	234
2059	233	202	231
2060	238	213	235
2061	234	211	230
2062	235	213	228
2063	247	229	237
2064	0	0	0
2065	0	0	0
2066	0	0	0
2067	0	0	0
2068	0	0	0
2069	0	0	0
2070	0	0	0
2071	0	0	0
2072	0	0	0
2073	0	0	0
2074	0	0	0
2075	0	0	0
2076	0	0	0
2077	0	0	0
2078	0	0	0
2079	0	0	0
2080	0	0	0
2081	0	0	0
2082	0	0	0
2083	0	0	0
2084	0	0	0
2085	0	0	0
2086	0	0	0
2087	0	0	0
2088	0	0	0
2089	0	0	0
2090	0	0	0
2091	0	0	0
2092	0	0	0
2093	0	0	0
2094	0	0	0
2095	0	0	0
2096	0	0	0
2097	0	0	0
2098	0	0	0
2099	0	0	0
2100	255	238	237
2101	255	215	225
2102	248	193	218
2103	239	171	212
2104	242	167	217
2105	241	161	221
2106	226	143	215
2107	212	124	211
2108	210	128	217
2109	214	133	222
2110	224	141	228
2111	226	143	225
2112	222	141	221
2113	220	141	221
2114	207	127	211
2115	197	115	203
2116	213	136	217
2117	226	153	226
2118	229	159	229
2119	232	165	232
2120	233	168	232
2121	232	171	230
2122	230	171	228
2123	227	171	226
2124	229	180	230
2125	233	191	233
2126	234	195	232
2127	233	198	229
2128	235	207	231
2129	238	217	234
2130	233	217	230
2131	235	220	230
2132	0	0	0
2133	0	0	0
2134	0	0	0
2135	0	0	0
2136	0	0	0
2137	0	0	0
2138	0	0	0
2139	0	0	0
2140	0	0	0
2141	0	0	0
2142	0	0	0
2143	0	0	0
2144	0	0	0
2145	0	0	0
2146	0	0	0
2147	0	0	0
2148	0	0	0
2149	0	0	0
2150	0	0	0
2151	0	0	0
2152	0	0	0
2153	0	0	0
2154	0	0	0
2155	0	0	0
2156	0	0	0
2157	0	0	0
2158	0	0	0
2159	0	0	0
2160	0	0	0
2161	0	0	0
2162	0	0	0
2163	0	0	0
2164	0	0	0
2165	0	0	0
2166	0	0	0
2167	0	0	0
2168	255	240	237
2169	255	220	228
2170	248	194	218
2171	238	171	211
2172	236	164	215
2173	234	157	218
2174	228	147	217
2175	214	128	210
2176	216	132	219
2177	220	137	226
2178	218	135	223
2179	226	141	227
2180	223	139	222
2181	217	135	217
2182	218	143	221
2183	204	128	209
2184	205	130	212
2185	225	153	228
2186	232	160	230
2187	239	167	233
2188	235	163	230
2189	232	165	228
2190	230	170	227
2191	224	169	222
2192	232	184	232
2193	237	195	236
2194	238	199	235
2195	237	202	233
2196	238	210	234
2197	239	219	235
2198	237	222	233
2199	0	0	0
2200	0	0	0
2201	0	0	0
2202	0	0	0
2203	0	0	0
2204	0	0	0
2205	0	0	0
2206	0	0	0
2207	0	0	0
2208	0	0	0
2209	0	0	0
2210	0	0	0
2211	0	0	0
2212	0	0	0
2213	0	0	0
2214	0	0	0
2215	0	0	0
2216	0	0	0
2217	0	0	0
2218	0	0	0
2219	0	0	0
2220	0	0	0
2221	0	0	0
2222	0	0	0
2223	0	0	0
2224	0	0	0
2225	0	0	0
2226	0	0	0
2227	0	0	0
2228	0	0	0
2229	0	0	0
2230	0	0	0
2231	0	0	0
2232	0	0	0
2233	0	0	0
2234	0	0	0
2235	0	0	0
2236	255	237	236
2237	255	226	233
2238	253	201	224
2239	243	176	216
2240	238	165	217
2241	233	155	219
2242	224	144	215
2243	215	132	211
2244	219	136	217
2245	222	139	225
2246	222	138	225
2247	219	134	219
2248	221	135	219
2249	217	132	218
2250	217	138	219
2251	218	144	221
2252	216	145	220
2253	219	148	224
2254	230	159	231
2255	237	166	232
2256	238	165	230
2257	233	160	226
2258	232	166	228
2259	230	171	227
2260	232	183	230
2261	239	198	237
2262	239	201	235
2263	239	205	234
2264	241	213	235
2265	243	221	236
2266	240	224	234
2267	239	227	233
2268	0	0	0
2269	0	0	0
2270	0	0	0
2271	0	0	0
2272	0	0	0
2273	0	0	0
2274	0	0	0
2275	0	0	0
2276	0	0	0
2277	0	0	0
2278	0	0	0
2279	0	0	0
2280	0	0	0
2281	0	0	0
2282	0	0	0
2283	0	0	0
2284	0	0	0
2285	0	0	0
2286	0	0	0
2287	0	0	0
2288	0	0	0
2289	0	0	0
2290	0	0	0
2291	0	0	0
2292	0	0	0
2293	0	0	0
2294	0	0	0
2295	0	0	0
2296	0	0	0
2297	0	0	0
2298	0	0	0
2299	0	0	0
2300	0	0	0
2301	0	0	0
2302	0	0	0
2303	0	0	0
2304	255	240	237
2305	255	232	238
2306	250	198	222
2307	239	170	212
2308	245	172	222
2309	239	160	222
2310	233	154	223
2311	220	139	216
2312	219	138	217
2313	225	142	224
2314	226	141	226
2315	226	139	225
2316	224	138	221
2317	220	137	218
2318	215	134	217
2319	216	140	220
2320	221	149	223
2321	227	153	226
2322	227	151	225
2323	231	158	229
2324	235	164	229
2325	233	161	225
2326	231	162	225
2327	230	168	227
2328	231	177	229
2329	236	190	233
2330	240	202	236
2331	239	204	233
2332	245	218	237
2333	247	226	238
2334	245	228	237
2335	244	232	236
2336	240	229	232
2337	0	0	0
2338	0	0	0
2339	0	0	0
2340	0	0	0
2341	0	0	0
2342	0	0	0
2343	0	0	0
2344	0	0	0
2345	0	0	0
2346	0	0	0
2347	0	0	0
2348	0	0	0
2349	0	0	0
2350	0	0	0
2351	0	0	0
2352	0	0	0
2353	0	0	0
2354	0	0	0
2355	0	0	0
2356	0	0	0
2357	0	0	0
2358	0	0	0
2359	0	0	0
2360	0	0	0
2361	0	0	0
2362	0	0	0
2363	0	0	0
2364	0	0	0
2365	0	0	0
2366	0	0	0
2367	0	0	0
2368	0	0	0
2369	0	0	0
2370	0	0	0
2371	0	0	0
2372	252	241	236
2373	255	230	234
2374	248	200	222
2375	235	166	208
2376	243	168	219
2377	247	168	226
2378	237	157	223
2379	230	149	222
2380	222	144	220
2381	221	142	220
2382	225	142	223
2383	225	139	223
2384	227	141	224
2385	225	141	221
2386	221	140	220
2387	215	136	217
2388	220	145	222
2389	227	154	227
2390	229	153	226
2391	227	150	223
2392	228	155	224
2393	230	161	224
2394	229	162	223
2395	227	162	222
2396	232	174	228
2397	233	183	231
2398	235	194	233
2399	239	206	235
2400	244	217	236
2401	249	229	237
2402	247	231	234
2403	248	235	238
2404	245	234	237
2405	0	0	0
2406	0	0	0
2407	0	0	0
2408	0	0	0
2409	0	0	0
2410	0	0	0
2411	0	0	0
2412	0	0	0
2413	0	0	0
2414	0	0	0
2415	0	0	0
2416	0	0	0
2417	0	0	0
2418	0	0	0
2419	0	0	0
2420	0	0	0
2421	0	0	0
2422	0	0	0
2423	0	0	0
2424	0	0	0
2425	0	0	0
2426	0	0	0
2427	0	0	0
2428	0	0	0
2429	0	0	0
2430	0	0	0
2431	0	0	0
2432	0	0	0
2433	0	0	0
2434	0	0	0
2435	0	0	0
2436	0	0	0
2437	0	0	0
2438	0	0	0
2439	0	0	0
2440	249	238	235
2441	245	225	230
2442	238	200	221
2443	228	168	209
2444	232	160	213
2445	242	163	224
2446	238	155	223
2447	224	141	215
2448	228	150	222
2449	223	145	220
2450	227	150	225
2451	231	149	226
2452	231	147	225
2453	230	148	225
2454	225	144	222
2455	222	143	221
2456	213	132	214
2457	222	144	221
2458	232	158	230
2459	228	153	225
2460	223	150	222
2461	223	155	223
2462	227	165	226
2463	227	165	224
2464	230	172	227
2465	238	186	234
2466	237	192	233
2467	235	201	233
2468	242	219	238
2469	246	229	239
2470	241	226	229
2471	241	228	228
2472	246	235	236
2473	0	0	0
2474	0	0	0
2475	0	0	0
2476	0	0	0
2477	0	0	0
2478	0	0	0
2479	0	0	0
2480	0	0	0
2481	0	0	0
2482	0	0	0
2483	0	0	0
2484	0	0	0
2485	0	0	0
2486	0	0	0
2487	0	0	0
2488	0	0	0
2489	0	0	0
2490	0	0	0
2491	0	0	0
2492	0	0	0
2493	0	0	0
2494	0	0	0
2495	0	0	0
2496	0	0	0
2497	0	0	0
2498	0	0	0
2499	0	0	0
2500	0	0	0
2501	0	0	0
2502	0	0	0
2503	0	0	0
2504	0	0	0
2505	0	0	0
2506	0	0	0
2507	0	0	0
2508	248	237	236
2509	242	223	228
2510	230	196	217
2511	222	173	214
2512	225	164	217
2513	226	154	217
2514	232	151	221
2515	228	142	219
2516	229	148	223
2517	232	155	226
2518	229	155	224
2519	233	158	228
2520	236	157	228
2521	235	154	225
2522	228	148	220
2523	223	144	219
2524	213	135	213
2525	205	125	208
2526	222	145	223
2527	232	159	231
2528	227	155	226
2529	222	152	224
2530	225	162	229
2531	229	171	232
2532	231	177	231
2533	233	183	231
2534	238	193	234
2535	238	199	232
2536	242	215	236
2537	248	232	241
2538	241	227	232
2539	0	0	0
2540	0	0	0
2541	0	0	0
2542	0	0	0
2543	0	0	0
2544	0	0	0
2545	0	0	0
2546	0	0	0
2547	0	0	0
2548	0	0	0
2549	0	0	0
2550	0	0	0
2551	0	0	0
2552	0	0	0
2553	0	0	0
2554	0	0	0
2555	0	0	0
2556	0	0	0
2557	0	0	0
2558	0	0	0
2559	0	0	0
2560	0	0	0
2561	0	0	0
2562	0	0	0
2563	0	0	0
2564	0	0	0
2565	0	0	0
2566	0	0	0
2567	0	0	0
2568	0	0	0
2569	0	0	0
2570	0	0	0
2571	0	0	0
2572	0	0	0
2573	0	0	0
2574	0	0	0
2575	0	0	0
2576	251	236	238
2577	245	224	233
2578	226	192	216
2579	210	164	205
2580	215	162	217
2581	214	151	218
2582	221	153	222
2583	226	148	223
2584	227	144	223
2585	235	153	229
2586	231	151	224
2587	224	146	219
2588	226	150	222
2589	228	148	221
2590	230	151	220
2591	222	145	215
2592	223	149	220
2593	212	139	214
2594	213	141	218
2595	231	162	234
2596	229	159	229
2597	223	154	225
2598	226	162	229
2599	233	173	235
2600	234	179	235
2601	234	183	233
2602	235	191	233
2603	238	199	233
2604	242	212	235
2605	250	230	241
2606	247	231	237
2607	0	0	0
2608	0	0	0
2609	0	0	0
2610	0	0	0
2611	0	0	0
2612	0	0	0
2613	0	0	0
2614	0	0	0
2615	0	0	0
2616	0	0	0
2617	0	0	0
2618	0	0	0
2619	0	0	0
2620	0	0	0
2621	0	0	0
2622	0	0	0
2623	0	0	0
2624	0	0	0
2625	0	0	0
2626	0	0	0
2627	0	0	0
2628	0	0	0
2629	0	0	0
2630	0	0	0
2631	0	0	0
2632	0	0	0
2633	0	0	0
2634	0	0	0
2635	0	0	0
2636	0	0	0
2637	0	0	0
2638	0	0	0
2639	0	0	0
2640	0	0	0
2641	0	0	0
2642	0	0	0
2643	0	0	0
2644	250	234	238
2645	244	220	231
2646	225	189	217
2647	207	160	208
2648	206	156	214
2649	208	152	220
2650	213	153	225
2651	217	152	226
2652	222	149	226
2653	223	144	223
2654	227	146	224
2655	225	144	222
2656	222	144	220
2657	224	148	224
2658	230	152	226
2659	231	154	224
2660	230	156	223
2661	229	159	226
2662	225	159	226
2663	226	161	230
2664	229	161	231
2665	225	157	226
2666	228	164	229
2667	232	171	232
2668	238	180	236
2669	240	186	235
2670	243	196	238
2671	244	204	239
2672	246	215	240
2673	248	226	239
2674	245	227	234
2675	0	0	0
2676	0	0	0
2677	0	0	0
2678	0	0	0
2679	0	0	0
2680	0	0	0
2681	0	0	0
2682	0	0	0
2683	0	0	0
2684	0	0	0
2685	0	0	0
2686	0	0	0
2687	0	0	0
2688	0	0	0
2689	0	0	0
2690	0	0	0
2691	0	0	0
2692	0	0	0
2693	0	0	0
2694	0	0	0
2695	0	0	0
2696	0	0	0
2697	0	0	0
2698	0	0	0
2699	0	0	0
2700	0	0	0
2701	0	0	0
2702	0	0	0
2703	0	0	0
2704	0	0	0
2705	0	0	0
2706	0	0	0
2707	0	0	0
2708	0	0	0
2709	0	0	0
2710	0	0	0
2711	0	0	0
2712	250	236	238
2713	250	227	238
2714	227	190	218
2715	204	157	205
2716	208	161	218
2717	205	155	223
2718	203	149	223
2719	207	148	227
2720	203	137	219
2721	206	132	217
2722	214	140	221
2723	216	140	221
2724	220	143	223
2725	221	146	224
2726	220	142	222
2727	225	146	223
2728	229	152	225
2729	227	153	223
2730	219	144	217
2731	219	145	218
2732	228	160	228
2733	225	157	225
2734	228	163	227
2735	232	170	230
2736	233	174	231
2737	240	183	235
2738	242	187	234
2739	247	198	237
2740	244	202	235
2741	241	211	233
2742	240	220	231
2743	0	0	0
2744	0	0	0
2745	0	0	0
2746	0	0	0
2747	0	0	0
2748	0	0	0
2749	0	0	0
2750	0	0	0
2751	0	0	0
2752	0	0	0
2753	0	0	0
2754	0	0	0
2755	0	0	0
2756	0	0	0
2757	0	0	0
2758	0	0	0
2759	0	0	0
2760	0	0	0
2761	0	0	0
2762	0	0	0
2763	0	0	0
2764	0	0	0
2765	0	0	0
2766	0	0	0
2767	0	0	0
2768	0	0	0
2769	0	0	0
2770	0	0	0
2771	0	0	0
2772	0	0	0
2773	0	0	0
2774	0	0	0
2775	0	0	0
2776	0	0	0
2777	0	0	0
2778	0	0	0
2779	0	0	0
2780	254	243	239
2781	248	228	235
2782	228	194	221
2783	206	158	208
2784	206	159	217
2785	208	160	225
2786	203	152	224
2787	200	143	221
2788	196	133	218
2789	192	121	212
2790	203	131	219
2791	210	137	222
2792	213	140	222
2793	217	142	225
2794	215	139	221
2795	214	135	217
2796	221	142	220
2797	226	148	224
2798	218	139	217
2799	211	131	212
2800	222	146	222
2801	230	160	228
2802	231	165	228
2803	232	169	228
2804	232	172	227
2805	234	176	229
2806	238	182	232
2807	239	186	231
2808	243	195	233
2809	238	197	227
2810	0	0	0
2811	0	0	0
2812	0	0	0
2813	0	0	0
2814	0	0	0
2815	0	0	0
2816	0	0	0
2817	0	0	0
2818	0	0	0
2819	0	0	0
2820	0	0	0
2821	0	0	0
2822	0	0	0
2823	0	0	0
2824	0	0	0
2825	0	0	0
2826	0	0	0
2827	0	0	0
2828	0	0	0
2829	0	0	0
2830	0	0	0
2831	0	0	0
2832	0	0	0
2833	0	0	0
2834	0	0	0
2835	0	0	0
2836	0	0	0
2837	0	0	0
2838	0	0	0
2839	0	0	0
2840	0	0	0
2841	0	0	0
2842	0	0	0
2843	0	0	0
2844	0	0	0
2845	0	0	0
2846	0	0	0
2847	0	0	0
2848	252	242	237
2849	247	227	232
2850	229	196	219
2851	202	158	204
2852	200	153	213
2853	203	156	224
2854	204	154	226
2855	204	147	224
2856	206	145	226
2857	200	133	220
2858	203	133	223
2859	211	141	229
2860	216	146	229
2861	218	148	229
2862	210	134	220
2863	207	130	216
2864	219	144	223
2865	227	152	227
2866	229	153	227
2867	222	144	222
2868	222	146	223
2869	233	161	232
2870	238	170	233
2871	239	174	232
2872	234	170	226
2873	234	173	225
2874	0	0	0
2875	0	0	0
2876	0	0	0
2877	0	0	0
2878	0	0	0
2879	0	0	0
2880	0	0	0
2881	0	0	0
2882	0	0	0
2883	0	0	0
2884	0	0	0
2885	0	0	0
2886	0	0	0
2887	0	0	0
2888	0	0	0
2889	0	0	0
2890	0	0	0
2891	0	0	0
2892	0	0	0
2893	0	0	0
2894	0	0	0
2895	0	0	0
2896	0	0	0
2897	0	0	0
2898	0	0	0
2899	0	0	0
2900	0	0	0
2901	0	0	0
2902	0	0	0
2903	0	0	0
2904	0	0	0
2905	0	0	0
2906	0	0	0
2907	0	0	0
2908	0	0	0
2909	0	0	0
2910	0	0	0
2911	0	0	0
2912	0	0	0
2913	0	0	0
2914	0	0	0
2915	0	0	0
2916	245	233	237
2917	244	226	233
2918	230	196	219
2919	212	165	210
2920	202	156	213
2921	197	150	219
2922	197	149	224
2923	198	146	223
2924	204	145	226
2925	206	142	226
2926	207	141	226
2927	209	140	227
2928	214	144	229
2929	218	149	229
2930	212	137	220
2931	204	124	213
2932	213	138	221
2933	223	151	227
2934	226	152	226
2935	228	153	225
2936	231	156	228
2937	232	158	229
2938	236	167	232
2939	239	175	232
2940	235	171	227
2941	231	169	224
2942	245	191	235
2943	255	211	241
2944	0	0	0
2945	0	0	0
2946	0	0	0
2947	0	0	0
2948	0	0	0
2949	0	0	0
2950	0	0	0
2951	0	0	0
2952	0	0	0
2953	0	0	0
2954	0	0	0
2955	0	0	0
2956	0	0	0
2957	0	0	0
2958	0	0	0
2959	0	0	0
2960	0	0	0
2961	0	0	0
2962	0	0	0
2963	0	0	0
2964	0	0	0
2965	0	0	0
2966	0	0	0
2967	0	0	0
2968	0	0	0
2969	0	0	0
2970	0	0	0
2971	0	0	0
2972	0	0	0
2973	0	0	0
2974	0	0	0
2975	0	0	0
2976	0	0	0
2977	0	0	0
2978	0	0	0
2979	0	0	0
2980	0	0	0
2981	0	0	0
2982	0	0	0
2983	0	0	0
2984	247	230	235
2985	242	222	235
2986	227	195	221
2987	211	164	208
2988	209	160	216
2989	198	149	217
2990	196	150	223
2991	195	146	225
2992	195	142	224
2993	200	140	224
2994	203	139	224
2995	207	138	224
2996	219	154	233
2997	223	157	234
2998	225	155	231
2999	223	145	225
3000	222	143	224
3001	227	154	230
3002	232	162	231
3003	232	161	228
3004	228	154	223
3005	235	159	227
3006	240	168	232
3007	240	174	233
3008	235	174	228
3009	229	170	222
3010	237	184	230
3011	253	208	242
3012	248	206	232
3013	239	200	222
3014	0	0	0
3015	0	0	0
3016	0	0	0
3017	0	0	0
3018	0	0	0
3019	0	0	0
3020	0	0	0
3021	0	0	0
3022	0	0	0
3023	0	0	0
3024	0	0	0
3025	0	0	0
3026	0	0	0
3027	0	0	0
3028	0	0	0
3029	0	0	0
3030	0	0	0
3031	0	0	0
3032	0	0	0
3033	0	0	0
3034	0	0	0
3035	0	0	0
3036	0	0	0
3037	0	0	0
3038	0	0	0
3039	0	0	0
3040	0	0	0
3041	0	0	0
3042	0	0	0
3043	0	0	0
3044	0	0	0
3045	0	0	0
3046	0	0	0
3047	0	0	0
3048	0	0	0
3049	0	0	0
3050	254	247	243
3051	255	250	248
3052	254	235	241
3053	243	218	230
3054	219	186	214
3055	205	162	209
3056	210	160	219
3057	206	153	223
3058	199	150	224
3059	197	148	227
3060	195	144	225
3061	194	139	222
3062	200	140	224
3063	202	137	224
3064	215	152	232
3065	228	166	238
3066	228	162	233
3067	230	160	233
3068	234	160	232
3069	232	157	228
3070	235	163	229
3071	240	171	231
3072	234	162	225
3073	231	156	221
3074	241	168	230
3075	243	175	232
3076	236	174	228
3077	233	176	227
3078	241	190	233
3079	247	203	237
3080	248	205	235
3081	245	205	231
3082	242	209	229
3083	0	0	0
3084	0	0	0
3085	0	0	0
3086	0	0	0
3087	0	0	0
3088	0	0	0
3089	0	0	0
3090	0	0	0
3091	0	0	0
3092	0	0	0
3093	0	0	0
3094	0	0	0
3095	0	0	0
3096	0	0	0
3097	0	0	0
3098	0	0	0
3099	0	0	0
3100	0	0	0
3101	0	0	0
3102	0	0	0
3103	0	0	0
3104	0	0	0
3105	0	0	0
3106	0	0	0
3107	0	0	0
3108	0	0	0
3109	0	0	0
3110	0	0	0
3111	0	0	0
3112	0	0	0
3113	0	0	0
3114	0	0	0
3115	0	0	0
3116	0	0	0
3117	0	0	0
3118	249	242	239
3119	255	250	249
3120	250	226	238
3121	242	210	232
3122	224	185	216
3123	195	151	198
3124	205	163	220
3125	211	162	230
3126	198	143	222
3127	193	139	221
3128	201	152	231
3129	201	147	229
3130	200	142	226
3131	202	141	225
3132	202	139	222
3133	212	151	228
3134	224	163	233
3135	226	160	230
3136	216	142	219
3137	215	139	215
3138	232	162	227
3139	243	173	232
3140	240	166	225
3141	235	158	219
3142	242	169	227
3143	246	178	232
3144	236	172	224
3145	227	171	219
3146	237	188	231
3147	252	207	242
3148	244	197	231
3149	241	198	227
3150	245	209	233
3151	243	214	232
3152	245	221	232
3153	0	0	0
3154	0	0	0
3155	0	0	0
3156	0	0	0
3157	0	0	0
3158	0	0	0
3159	0	0	0
3160	0	0	0
3161	0	0	0
3162	0	0	0
3163	0	0	0
3164	0	0	0
3165	0	0	0
3166	0	0	0
3167	0	0	0
3168	0	0	0
3169	0	0	0
3170	0	0	0
3171	0	0	0
3172	0	0	0
3173	0	0	0
3174	0	0	0
3175	0	0	0
3176	0	0	0
3177	0	0	0
3178	0	0	0
3179	0	0	0
3180	0	0	0
3181	0	0	0
3182	0	0	0
3183	0	0	0
3184	0	0	0
3185	0	0	0
3186	248	241	238
3187	255	245	245
3188	248	222	235
3189	236	197	223
3190	224	177	217
3191	208	155	210
3192	205	158	219
3193	211	166	232
3194	203	151	227
3195	189	130	216
3196	195	141	224
3197	204	153	231
3198	204	148	228
3199	203	143	225
3200	204	143	224
3201	203	139	219
3202	210	148	223
3203	223	161	231
3204	217	145	220
3205	206	127	209
3206	221	149	223
3207	238	172	232
3208	238	166	225
3209	236	159	219
3210	243	170	225
3211	248	179	230
3212	240	176	224
3213	231	170	217
3214	236	186	226
3215	247	203	237
3216	247	200	234
3217	240	192	227
3218	245	205	233
3219	247	215	235
3220	246	221	233
3221	0	0	0
3222	0	0	0
3223	0	0	0
3224	0	0	0
3225	0	0	0
3226	0	0	0
3227	0	0	0
3228	0	0	0
3229	0	0	0
3230	0	0	0
3231	0	0	0
3232	0	0	0
3233	0	0	0
3234	0	0	0
3235	0	0	0
3236	0	0	0
3237	0	0	0
3238	0	0	0
3239	0	0	0
3240	0	0	0
3241	0	0	0
3242	0	0	0
3243	0	0	0
3244	0	0	0
3245	0	0	0
3246	0	0	0
3247	0	0	0
3248	0	0	0
3249	0	0	0
3250	0	0	0
3251	0	0	0
3252	0	0	0
3253	0	0	0
3254	250	239	239
3255	255	242	244
3256	249	225	236
3257	238	200	225
3258	231	184	222
3259	219	164	217
3260	219	163	225
3261	221	169	236
3262	210	156	231
3263	193	134	218
3264	196	140	224
3265	204	152	232
3266	204	150	230
3267	202	143	225
3268	200	138	220
3269	201	138	218
3270	212	152	225
3271	223	162	230
3272	231	167	233
3273	223	150	221
3274	227	154	225
3275	241	176	238
3276	239	173	231
3277	236	166	222
3278	238	167	221
3279	244	177	226
3280	242	179	224
3281	236	176	219
3282	238	183	222
3283	251	203	235
3284	251	205	234
3285	244	198	228
3286	244	201	230
3287	251	215	238
3288	242	209	228
3289	0	0	0
3290	0	0	0
3291	0	0	0
3292	0	0	0
3293	0	0	0
3294	0	0	0
3295	0	0	0
3296	0	0	0
3297	0	0	0
3298	0	0	0
3299	0	0	0
3300	0	0	0
3301	0	0	0
3302	0	0	0
3303	0	0	0
3304	0	0	0
3305	0	0	0
3306	0	0	0
3307	0	0	0
3308	0	0	0
3309	0	0	0
3310	0	0	0
3311	0	0	0
3312	0	0	0
3313	0	0	0
3314	0	0	0
3315	0	0	0
3316	0	0	0
3317	0	0	0
3318	0	0	0
3319	0	0	0
3320	0	0	0
3321	0	0	0
3322	255	247	247
3323	255	240	244
3324	248	221	234
3325	241	203	226
3326	233	186	222
3327	226	171	222
3328	222	166	225
3329	219	162	227
3330	212	152	224
3331	202	138	220
3332	201	142	224
3333	202	147	227
3334	198	143	225
3335	198	141	224
3336	199	139	222
3337	197	133	217
3338	210	150	226
3339	223	164	232
3340	228	166	230
3341	235	170	230
3342	241	174	231
3343	244	176	233
3344	241	175	230
3345	240	174	226
3346	246	178	227
3347	247	180	226
3348	245	183	226
3349	244	186	226
3350	248	194	230
3351	252	202	233
3352	255	206	234
3353	254	207	233
3354	252	209	232
3355	251	211	231
3356	245	209	228
3357	0	0	0
3358	0	0	0
3359	0	0	0
3360	0	0	0
3361	0	0	0
3362	0	0	0
3363	0	0	0
3364	0	0	0
3365	0	0	0
3366	0	0	0
3367	0	0	0
3368	0	0	0
3369	0	0	0
3370	0	0	0
3371	0	0	0
3372	0	0	0
3373	0	0	0
3374	0	0	0
3375	0	0	0
3376	0	0	0
3377	0	0	0
3378	0	0	0
3379	0	0	0
3380	0	0	0
3381	0	0	0
3382	0	0	0
3383	0	0	0
3384	0	0	0
3385	0	0	0
3386	0	0	0
3387	0	0	0
3388	0	0	0
3389	0	0	0
3390	255	236	243
3391	255	230	241
3392	244	208	229
3393	230	186	217
3394	233	186	222
3395	227	170	219
3396	224	165	225
3397	214	156	223
3398	215	159	228
3399	212	149	225
3400	212	149	227
3401	212	153	231
3402	209	153	230
3403	200	146	224
3404	206	154	231
3405	209	153	231
3406	209	148	225
3407	223	164	234
3408	224	162	230
3409	228	163	226
3410	238	173	228
3411	245	177	229
3412	243	173	225
3413	241	172	222
3414	243	174	223
3415	250	180	225
3416	252	184	225
3417	249	186	225
3418	245	184	224
3419	253	195	231
3420	254	199	230
3421	252	200	229
3422	247	196	225
3423	246	199	225
3424	243	201	223
3425	0	0	0
3426	0	0	0
3427	0	0	0
3428	0	0	0
3429	0	0	0
3430	0	0	0
3431	0	0	0
3432	0	0	0
3433	0	0	0
3434	0	0	0
3435	0	0	0
3436	0	0	0
3437	0	0	0
3438	0	0	0
3439	0	0	0
3440	0	0	0
3441	0	0	0
3442	0	0	0
3443	0	0	0
3444	0	0	0
3445	0	0	0
3446	0	0	0
3447	0	0	0
3448	0	0	0
3449	0	0	0
3450	0	0	0
3451	0	0	0
3452	0	0	0
3453	0	0	0
3454	0	0	0
3455	0	0	0
3456	0	0	0
3457	0	0	0
3458	255	227	240
3459	253	217	234
3460	239	194	222
3461	226	173	214
3462	224	170	218
3463	227	170	224
3464	227	165	226
3465	221	157	225
3466	213	154	225
3467	215	158	232
3468	219	158	234
3469	217	155	231
3470	217	158	232
3471	214	158	232
3472	210	159	231
3473	216	166	236
3474	217	162	233
3475	217	157	227
3476	221	159	226
3477	222	157	223
3478	233	168	227
3479	244	178	230
3480	248	177	227
3481	246	173	223
3482	246	175	223
3483	249	179	224
3484	255	186	228
3485	255	189	226
3486	252	187	223
3487	250	187	227
3488	255	194	232
3489	255	196	229
3490	248	192	223
3491	244	190	223
3492	246	196	226
3493	241	197	224
3494	0	0	0
3495	0	0	0
3496	0	0	0
3497	0	0	0
3498	0	0	0
3499	0	0	0
3500	0	0	0
3501	0	0	0
3502	0	0	0
3503	0	0	0
3504	0	0	0
3505	0	0	0
3506	0	0	0
3507	0	0	0
3508	0	0	0
3509	0	0	0
3510	0	0	0
3511	0	0	0
3512	0	0	0
3513	0	0	0
3514	0	0	0
3515	0	0	0
3516	0	0	0
3517	0	0	0
3518	0	0	0
3519	0	0	0
3520	0	0	0
3521	0	0	0
3522	0	0	0
3523	0	0	0
3524	248	235	239
3525	0	0	0
3526	253	228	241
3527	255	221	241
3528	242	198	227
3529	228	175	216
3530	234	180	227
3531	236	179	233
3532	230	168	231
3533	225	159	229
3534	225	162	232
3535	221	160	233
3536	220	161	236
3537	216	156	233
3538	215	154	229
3539	217	157	231
3540	218	161	234
3541	216	162	232
3542	223	172	236
3543	222	166	230
3544	227	170	231
3545	230	171	231
3546	231	168	228
3547	245	181	235
3548	252	184	232
3549	255	183	229
3550	248	170	220
3551	248	174	221
3552	254	182	226
3553	255	188	229
3554	252	181	220
3555	250	181	220
3556	252	185	226
3557	255	191	230
3558	253	192	225
3559	245	187	220
3560	245	191	224
3561	248	197	229
3562	243	199	226
3563	0	0	0
3564	0	0	0
3565	0	0	0
3566	0	0	0
3567	0	0	0
3568	0	0	0
3569	0	0	0
3570	0	0	0
3571	0	0	0
3572	0	0	0
3573	0	0	0
3574	0	0	0
3575	0	0	0
3576	0	0	0
3577	0	0	0
3578	0	0	0
3579	0	0	0
3580	0	0	0
3581	0	0	0
3582	0	0	0
3583	0	0	0
3584	0	0	0
3585	0	0	0
3586	0	0	0
3587	0	0	0
3588	0	0	0
3589	0	0	0
3590	0	0	0
3591	0	0	0
3592	249	238	240
3593	254	240	244
3594	251	229	240
3595	249	219	238
3596	239	197	228
3597	227	174	217
3598	232	178	225
3599	238	182	234
3600	233	172	233
3601	225	159	229
3602	228	163	234
3603	228	165	236
3604	223	162	234
3605	221	160	235
3606	217	157	233
3607	214	154	230
3608	218	159	233
3609	218	161	234
3610	218	166	232
3611	224	174	233
3612	227	175	230
3613	233	179	232
3614	236	179	231
3615	239	177	232
3616	251	185	237
3617	255	188	234
3618	255	179	225
3619	248	167	216
3620	255	180	225
3621	255	189	231
3622	255	186	230
3623	254	180	223
3624	255	183	224
3625	255	186	226
3626	255	188	226
3627	252	189	224
3628	248	190	223
3629	246	192	225
3630	247	198	228
3631	0	0	0
3632	0	0	0
3633	0	0	0
3634	0	0	0
3635	0	0	0
3636	0	0	0
3637	0	0	0
3638	0	0	0
3639	0	0	0
3640	0	0	0
3641	0	0	0
3642	0	0	0
3643	0	0	0
3644	0	0	0
3645	0	0	0
3646	0	0	0
3647	0	0	0
3648	0	0	0
3649	0	0	0
3650	0	0	0
3651	0	0	0
3652	0	0	0
3653	0	0	0
3654	0	0	0
3655	0	0	0
3656	0	0	0
3657	0	0	0
3658	0	0	0
3659	0	0	0
3660	0	0	0
3661	254	239	243
3662	251	228	239
3663	247	216	235
3664	246	209	235
3665	232	186	224
3666	232	180	227
3667	240	185	237
3668	240	182	239
3669	231	168	234
3670	223	156	231
3671	225	160	235
3672	224	160	235
3673	219	156	231
3674	226	166	239
3675	224	164	237
3676	218	158	232
3677	216	159	231
3678	218	168	234
3679	217	171	231
3680	227	185	234
3681	233	188	232
3682	241	192	234
3683	247	194	236
3684	249	186	235
3685	255	195	240
3686	255	183	228
3687	252	174	219
3688	255	177	221
3689	255	191	232
3690	254	173	222
3691	253	171	222
3692	250	169	219
3693	249	172	219
3694	254	183	224
3695	255	185	224
3696	247	179	219
3697	242	179	218
3698	245	192	225
3699	0	0	0
3700	0	0	0
3701	0	0	0
3702	0	0	0
3703	0	0	0
3704	0	0	0
3705	0	0	0
3706	0	0	0
3707	0	0	0
3708	0	0	0
3709	0	0	0
3710	0	0	0
3711	0	0	0
3712	0	0	0
3713	0	0	0
3714	0	0	0
3715	0	0	0
3716	0	0	0
3717	0	0	0
3718	0	0	0
3719	0	0	0
3720	0	0	0
3721	0	0	0
3722	0	0	0
3723	0	0	0
3724	0	0	0
3725	0	0	0
3726	0	0	0
3727	0	0	0
3728	0	0	0
3729	254	237	243
3730	251	227	239
3731	248	216	235
3732	249	209	236
3733	246	202	235
3734	239	192	233
3735	237	186	235
3736	235	180	236
3737	232	175	238
3738	224	162	233
3739	217	150	229
3740	221	155	235
3741	219	154	233
3742	220	160	235
3743	226	170	240
3744	222	164	234
3745	216	157	228
3746	219	166	231
3747	222	175	234
3748	228	187	237
3749	239	201	241
3750	243	203	239
3751	252	207	240
3752	254	201	236
3753	255	195	234
3754	255	188	230
3755	253	178	221
3756	255	184	225
3757	255	188	227
3758	255	174	220
3759	246	157	213
3760	249	161	219
3761	246	159	217
3762	251	171	222
3763	255	181	226
3764	249	176	220
3765	242	170	216
3766	248	185	226
3767	249	196	230
3768	0	0	0
3769	0	0	0
3770	0	0	0
3771	0	0	0
3772	0	0	0
3773	0	0	0
3774	0	0	0
3775	0	0	0
3776	0	0	0
3777	0	0	0
3778	0	0	0
3779	0	0	0
3780	0	0	0
3781	0	0	0
3782	0	0	0
3783	0	0	0
3784	0	0	0
3785	0	0	0
3786	0	0	0
3787	0	0	0
3788	0	0	0
3789	0	0	0
3790	0	0	0
3791	0	0	0
3792	0	0	0
3793	0	0	0
3794	0	0	0
3795	0	0	0
3796	0	0	0
3797	255	235	244
3798	254	227	241
3799	250	216	237
3800	248	206	235
3801	250	200	237
3802	243	188	233
3803	234	177	230
3804	230	176	234
3805	219	165	229
3806	225	175	239
3807	220	163	235
3808	221	161	237
3809	228	167	244
3810	221	159	237
3811	219	163	236
3812	228	179	243
3813	224	172	235
3814	225	174	234
3815	234	186	240
3816	240	195	242
3817	248	208	245
3818	250	209	242
3819	251	209	238
3820	251	203	234
3821	252	197	231
3822	252	189	228
3823	254	183	225
3824	254	178	221
3825	255	186	227
3826	253	169	215
3827	245	156	208
3828	252	163	220
3829	255	168	227
3830	248	159	220
3831	253	170	225
3832	254	176	225
3833	246	170	218
3834	248	178	224
3835	255	194	233
3836	247	193	228
3837	0	0	0
3838	0	0	0
3839	0	0	0
3840	0	0	0
3841	0	0	0
3842	0	0	0
3843	0	0	0
3844	0	0	0
3845	0	0	0
3846	0	0	0
3847	0	0	0
3848	0	0	0
3849	0	0	0
3850	0	0	0
3851	0	0	0
3852	0	0	0
3853	0	0	0
3854	0	0	0
3855	0	0	0
3856	0	0	0
3857	0	0	0
3858	0	0	0
3859	0	0	0
3860	0	0	0
3861	0	0	0
3862	0	0	0
3863	0	0	0
3864	0	0	0
3865	0	0	0
3866	252	222	240
3867	251	215	239
3868	247	203	236
3869	243	192	234
3870	240	182	232
3871	232	169	229
3872	229	169	233
3873	223	166	233
3874	219	168	235
3875	223	176	243
3876	220	170	239
3877	220	166	238
3878	224	166	240
3879	218	159	234
3880	223	173	241
3881	231	188	244
3882	229	186	239
3883	232	188	239
3884	242	200	243
3885	247	208	241
3886	247	208	235
3887	250	211	234
3888	247	202	228
3889	249	198	229
3890	252	193	229
3891	253	187	228
3892	255	185	229
3893	255	181	225
3894	253	169	218
3895	243	153	206
3896	252	162	215
3897	255	169	225
3898	255	165	226
3899	248	157	221
3900	252	166	226
3901	252	172	226
3902	253	179	227
3903	253	185	227
3904	248	188	225
3905	0	0	0
3906	0	0	0
3907	0	0	0
3908	0	0	0
3909	0	0	0
3910	0	0	0
3911	0	0	0
3912	0	0	0
3913	0	0	0
3914	0	0	0
3915	0	0	0
3916	0	0	0
3917	0	0	0
3918	0	0	0
3919	0	0	0
3920	0	0	0
3921	0	0	0
3922	0	0	0
3923	0	0	0
3924	0	0	0
3925	0	0	0
3926	0	0	0
3927	0	0	0
3928	0	0	0
3929	0	0	0
3930	0	0	0
3931	0	0	0
3932	0	0	0
3933	0	0	0
3934	253	229	244
3935	255	225	246
3936	253	209	240
3937	248	197	237
3938	246	193	239
3939	236	179	235
3940	232	175	238
3941	232	175	242
3942	227	174	240
3943	224	176	241
3944	224	181	245
3945	216	172	238
3946	221	177	241
3947	224	175	241
3948	223	172	239
3949	233	188	247
3950	230	189	240
3951	224	185	232
3952	234	199	239
3953	243	210	242
3954	242	209	234
3955	242	210	229
3956	253	219	234
3957	255	215	233
3958	253	202	230
3959	255	198	232
3960	255	189	229
3961	255	188	232
3962	254	173	223
3963	249	162	217
3964	248	156	213
3965	255	165	221
3966	251	157	219
3967	248	153	218
3968	249	156	222
3969	254	165	228
3970	252	169	226
3971	253	176	227
3972	246	178	223
3973	0	0	0
3974	0	0	0
3975	0	0	0
3976	0	0	0
3977	0	0	0
3978	0	0	0
3979	0	0	0
3980	0	0	0
3981	0	0	0
3982	0	0	0
3983	0	0	0
3984	0	0	0
3985	0	0	0
3986	0	0	0
3987	0	0	0
3988	0	0	0
3989	0	0	0
3990	0	0	0
3991	0	0	0
3992	0	0	0
3993	0	0	0
3994	0	0	0
3995	0	0	0
3996	0	0	0
3997	0	0	0
3998	0	0	0
3999	0	0	0
4000	0	0	0
4001	0	0	0
4002	0	0	0
4003	254	228	245
4004	250	212	238
4005	244	196	232
4006	246	193	235
4007	243	189	237
4008	233	181	236
4009	228	176	239
4010	230	180	244
4011	227	178	241
4012	229	183	244
4013	228	186	245
4014	222	183	242
4015	226	188	245
4016	231	188	245
4017	230	184	241
4018	233	189	242
4019	231	191	239
4020	237	203	242
4021	244	216	245
4022	244	215	240
4023	244	216	235
4024	248	220	235
4025	255	231	242
4026	255	215	233
4027	253	203	228
4028	255	196	228
4029	255	188	227
4030	254	177	224
4031	248	163	219
4032	250	161	220
4033	249	156	217
4034	248	151	216
4035	242	142	212
4036	247	150	219
4037	247	153	221
4038	249	159	223
4039	248	162	222
4040	248	170	224
4041	241	172	221
4042	0	0	0
4043	0	0	0
4044	0	0	0
4045	0	0	0
4046	0	0	0
4047	0	0	0
4048	0	0	0
4049	0	0	0
4050	0	0	0
4051	0	0	0
4052	0	0	0
4053	0	0	0
4054	0	0	0
4055	0	0	0
4056	0	0	0
4057	0	0	0
4058	0	0	0
4059	0	0	0
4060	0	0	0
4061	0	0	0
4062	0	0	0
4063	0	0	0
4064	0	0	0
4065	0	0	0
4066	0	0	0
4067	0	0	0
4068	0	0	0
4069	0	0	0
4070	0	0	0
4071	0	0	0
4072	253	222	242
4073	241	201	231
4074	241	197	233
4075	244	195	237
4076	236	186	236
4077	225	177	233
4078	227	183	242
4079	230	186	246
4080	227	180	241
4081	235	188	246
4082	231	186	243
4083	220	180	236
4084	231	196	246
4085	239	198	247
4086	239	196	243
4087	240	200	243
4088	239	201	241
4089	249	216	247
4090	249	220	243
4091	245	217	236
4092	249	223	238
4093	255	229	240
4094	255	228	240
4095	252	212	230
4096	255	208	230
4097	255	202	232
4098	255	186	226
4099	253	175	224
4100	247	161	219
4101	250	159	222
4102	254	162	223
4103	251	157	220
4104	247	150	218
4105	252	158	225
4106	249	157	223
4107	250	163	224
4108	254	174	229
4109	254	181	230
4110	245	181	226
4111	0	0	0
4112	0	0	0
4113	0	0	0
4114	0	0	0
4115	0	0	0
4116	0	0	0
4117	0	0	0
4118	0	0	0
4119	0	0	0
4120	0	0	0
4121	0	0	0
4122	0	0	0
4123	0	0	0
4124	0	0	0
4125	0	0	0
4126	0	0	0
4127	0	0	0
4128	0	0	0
4129	0	0	0
4130	0	0	0
4131	0	0	0
4132	0	0	0
4133	0	0	0
4134	0	0	0
4135	0	0	0
4136	0	0	0
4137	0	0	0
4138	0	0	0
4139	0	0	0
4140	0	0	0
4141	0	0	0
4142	239	202	232
4143	239	198	235
4144	241	194	238
4145	233	183	236
4146	228	186	240
4147	229	191	246
4148	227	186	244
4149	225	180	239
4150	232	185	242
4151	229	183	238
4152	229	192	240
4153	240	208	249
4154	244	207	247
4155	244	205	243
4156	244	208	242
4157	243	209	238
4158	248	216	240
4159	249	221	239
4160	248	223	236
4161	253	230	239
4162	254	227	237
4163	255	227	238
4164	255	219	235
4165	255	215	236
4166	255	199	230
4167	252	183	225
4168	248	170	223
4169	242	155	218
4170	249	161	223
4171	253	163	222
4172	251	159	220
4173	247	152	218
4174	250	158	222
4175	247	157	220
4176	253	170	226
4177	255	180	229
4178	252	185	228
4179	0	0	0
4180	0	0	0
4181	0	0	0
4182	0	0	0
4183	0	0	0
4184	0	0	0
4185	0	0	0
4186	0	0	0
4187	0	0	0
4188	0	0	0
4189	0	0	0
4190	0	0	0
4191	0	0	0
4192	0	0	0
4193	0	0	0
4194	0	0	0
4195	0	0	0
4196	0	0	0
4197	0	0	0
4198	0	0	0
4199	0	0	0
4200	0	0	0
4201	0	0	0
4202	0	0	0
4203	0	0	0
4204	0	0	0
4205	0	0	0
4206	0	0	0
4207	0	0	0
4208	0	0	0
4209	0	0	0
4210	0	0	0
4211	0	0	0
4212	245	208	242
4213	247	204	245
4214	237	189	240
4215	0	0	0
4216	237	202	251
4217	233	196	246
4218	230	190	242
4219	232	192	243
4220	236	197	243
4221	244	211	250
4222	244	211	247
4223	241	206	241
4224	243	211	241
4225	246	215	241
4226	244	214	236
4227	246	221	237
4228	247	224	236
4229	247	228	236
4230	254	235	240
4231	255	233	240
4232	254	221	234
4233	253	213	231
4234	252	203	229
4235	247	186	223
4236	253	186	228
4237	249	173	225
4238	249	167	226
4239	255	172	231
4240	254	167	225
4241	252	163	222
4242	248	157	220
4243	251	162	224
4244	249	164	223
4245	255	177	229
4246	250	179	224
4247	0	0	0
4248	0	0	0
4249	0	0	0
4250	0	0	0
4251	0	0	0
4252	0	0	0
4253	0	0	0
4254	0	0	0
4255	0	0	0
4256	0	0	0
4257	0	0	0
4258	0	0	0
4259	0	0	0
4260	0	0	0
4261	0	0	0
4262	0	0	0
4263	0	0	0
4264	0	0	0
4265	0	0	0
4266	0	0	0
4267	0	0	0
4268	0	0	0
4269	0	0	0
4270	0	0	0
4271	0	0	0
4272	0	0	0
4273	0	0	0
4274	0	0	0
4275	0	0	0
4276	0	0	0
4277	0	0	0
4278	0	0	0
4279	0	0	0
4280	0	0	0
4281	251	218	247
4282	246	206	243
4283	237	192	240
4284	0	0	0
4285	0	0	0
4286	239	205	247
4287	236	200	243
4288	240	207	247
4289	243	211	247
4290	245	213	246
4291	244	212	243
4292	244	215	242
4293	246	219	242
4294	249	222	242
4295	247	222	240
4296	247	226	239
4297	248	230	238
4298	0	0	0
4299	255	240	243
4300	253	227	236
4301	250	215	231
4302	248	204	228
4303	247	195	227
4304	250	191	229
4305	254	189	231
4306	254	183	230
4307	253	176	231
4308	255	175	232
4309	253	170	226
4310	252	166	224
4311	247	160	222
4312	249	166	226
4313	247	168	225
4314	248	174	226
4315	0	0	0
4316	0	0	0
4317	0	0	0
4318	0	0	0
4319	0	0	0
4320	0	0	0
4321	0	0	0
4322	0	0	0
4323	0	0	0
4324	0	0	0
4325	0	0	0
4326	0	0	0
4327	0	0	0
4328	0	0	0
4329	0	0	0
4330	0	0	0
4331	0	0	0
4332	0	0	0
4333	0	0	0
4334	0	0	0
4335	0	0	0
4336	0	0	0
4337	0	0	0
4338	0	0	0
4339	0	0	0
4340	0	0	0
4341	0	0	0
4342	0	0	0
4343	0	0	0
4344	0	0	0
4345	0	0	0
4346	0	0	0
4347	0	0	0
4348	0	0	0
4349	0	0	0
4350	0	0	0
4351	238	200	235
4352	0	0	0
4353	0	0	0
4354	0	0	0
4355	0	0	0
4356	241	208	243
4357	247	216	248
4358	0	0	0
4359	0	0	0
4360	0	0	0
4361	0	0	0
4362	250	228	244
4363	253	231	245
4364	244	220	237
4365	0	0	0
4366	0	0	0
4367	0	0	0
4368	255	239	242
4369	252	225	235
4370	248	211	230
4371	249	202	230
4372	250	197	231
4373	249	191	231
4374	253	191	232
4375	253	184	230
4376	255	182	233
4377	255	180	235
4378	249	168	226
4379	247	164	224
4380	247	167	225
4381	0	0	0
4382	0	0	0
4383	0	0	0
4384	0	0	0
4385	0	0	0
4386	0	0	0
4387	0	0	0
4388	0	0	0
4389	0	0	0
4390	0	0	0
4391	0	0	0
4392	0	0	0
4393	0	0	0
4394	0	0	0
4395	0	0	0
4396	0	0	0
4397	0	0	0
4398	0	0	0
4399	0	0	0
4400	0	0	0
4401	0	0	0
4402	0	0	0
4403	0	0	0
4404	0	0	0
4405	0	0	0
4406	0	0	0
4407	0	0	0
4408	0	0	0
4409	0	0	0
4410	0	0	0
4411	0	0	0
4412	0	0	0
4413	0	0	0
4414	0	0	0
4415	0	0	0
4416	0	0	0
4417	0	0	0
4418	0	0	0
4419	0	0	0
4420	0	0	0
4421	0	0	0
4422	0	0	0
4423	0	0	0
4424	0	0	0
4425	0	0	0
4426	0	0	0
4427	0	0	0
4428	0	0	0
4429	0	0	0
4430	0	0	0
4431	0	0	0
4432	248	228	240
4433	0	0	0
4434	0	0	0
4435	0	0	0
4436	0	0	0
4437	0	0	0
4438	249	220	230
4439	246	206	227
4440	249	202	230
4441	250	196	231
4442	251	195	233
4443	254	194	235
4444	255	191	236
4445	255	187	236
4446	250	177	231
4447	244	165	226
4448	247	171	229
4449	0	0	0
4450	0	0	0
4451	0	0	0
4452	0	0	0
4453	0	0	0
4454	0	0	0
4455	0	0	0
4456	0	0	0
4457	0	0	0
4458	0	0	0
4459	0	0	0
4460	0	0	0
4461	0	0	0
4462	0	0	0
4463	0	0	0
4464	0	0	0
4465	0	0	0
4466	0	0	0
4467	0	0	0
4468	0	0	0
4469	0	0	0
4470	0	0	0
4471	0	0	0
4472	0	0	0
4473	0	0	0
4474	0	0	0
4475	0	0	0
4476	0	0	0
4477	0	0	0
4478	0	0	0
4479	0	0	0
4480	0	0	0
4481	0	0	0
4482	0	0	0
4483	0	0	0
4484	0	0	0
4485	0	0	0
4486	0	0	0
4487	0	0	0
4488	0	0	0
4489	0	0	0
4490	0	0	0
4491	0	0	0
4492	0	0	0
4493	0	0	0
4494	0	0	0
4495	0	0	0
4496	0	0	0
4497	0	0	0
4498	0	0	0
4499	0	0	0
4500	0	0	0
4501	0	0	0
4502	0	0	0
4503	0	0	0
4504	0	0	0
4505	0	0	0
4506	0	0	0
4507	0	0	0
4508	0	0	0
4509	0	0	0
4510	255	205	236
4511	255	204	239
4512	252	193	234
4513	252	188	234
4514	254	188	236
4515	247	177	230
4516	249	180	234
4517	0	0	0
4518	0	0	0
4519	0	0	0
4520	0	0	0
4521	0	0	0
4522	0	0	0
4523	0	0	0
4524	0	0	0
4525	0	0	0
4526	0	0	0
4527	0	0	0
4528	0	0	0
4529	0	0	0
4530	0	0	0
4531	0	0	0
4532	0	0	0
4533	0	0	0
4534	0	0	0
4535	0	0	0
4536	0	0	0
4537	0	0	0
4538	0	0	0
4539	0	0	0
4540	0	0	0
4541	0	0	0
4542	0	0	0
4543	0	0	0
4544	0	0	0
4545	0	0	0
4546	0	0	0
4547	0	0	0
4548	0	0	0
4549	0	0	0
4550	0	0	0
4551	0	0	0
4552	0	0	0
4553	0	0	0
4554	0	0	0
4555	0	0	0
4556	0	0	0
4557	0	0	0
4558	0	0	0
4559	0	0	0
4560	0	0	0
4561	0	0	0
4562	0	0	0
4563	0	0	0
4564	0	0	0
4565	0	0	0
4566	0	0	0
4567	0	0	0
4568	0	0	0
4569	0	0	0
4570	0	0	0
4571	0	0	0
4572	0	0	0
4573	0	0	0
4574	0	0	0
4575	0	0	0
4576	0	0	0
4577	0	0	0
4578	255	215	235
4579	255	213	239
4580	255	203	237
4581	250	191	233
4582	250	190	234
4583	249	189	235
4584	249	190	235
4585	0	0	0
4586	0	0	0
4587	0	0	0
4588	0	0	0
4589	0	0	0
4590	0	0	0
4591	0	0	0
4592	0	0	0
4593	0	0	0
4594	0	0	0
4595	0	0	0
4596	0	0	0
4597	0	0	0
4598	0	0	0
4599	0	0	0
4600	0	0	0
4601	0	0	0
4602	0	0	0
4603	0	0	0
4604	0	0	0
4605	0	0	0
4606	0	0	0
4607	0	0	0
4608	0	0	0
4609	0	0	0
4610	0	0	0
4611	0	0	0
4612	0	0	0
4613	0	0	0
4614	0	0	0
4615	0	0	0
4616	0	0	0
4617	0	0	0
4618	0	0	0
4619	0	0	0
4620	0	0	0
4621	0	0	0
4622	0	0	0
4623	0	0	0
4624	0	0	0
4625	0	0	0
4626	0	0	0
4627	0	0	0
4628	0	0	0
4629	0	0	0
4630	0	0	0
4631	0	0	0
4632	0	0	0
4633	0	0	0
4634	0	0	0
4635	0	0	0
4636	0	0	0
4637	0	0	0
4638	0	0	0
4639	0	0	0
4640	0	0	0
4641	0	0	0
4642	0	0	0
4643	0	0	0
4644	0	0	0
4645	0	0	0
4646	249	216	231
4647	254	214	234
4648	255	210	236
4649	251	199	233
4650	247	193	233
4651	0	0	0
4652	0	0	0
4653	0	0	0
4654	0	0	0
4655	0	0	0
4656	0	0	0
4657	0	0	0
4658	0	0	0
4659	0	0	0
4660	0	0	0
4661	0	0	0
4662	0	0	0
4663	0	0	0
4664	0	0	0
4665	0	0	0
4666	0	0	0
4667	0	0	0
4668	0	0	0
4669	0	0	0
4670	0	0	0
4671	0	0	0
4672	0	0	0
4673	0	0	0
4674	0	0	0
4675	0	0	0
4676	0	0	0
4677	0	0	0
4678	0	0	0
4679	0	0	0
4680	0	0	0
4681	0	0	0
4682	0	0	0
4683	0	0	0
4684	0	0	0
4685	0	0	0
4686	0	0	0
4687	0	0	0
4688	0	0	0
4689	0	0	0
4690	0	0	0
4691	0	0	0
4692	0	0	0
4693	0	0	0
4694	0	0	0
4695	0	0	0
4696	0	0	0
4697	0	0	0
4698	0	0	0
4699	0	0	0
4700	0	0	0
4701	0	0	0
4702	0	0	0
4703	0	0	0
4704	0	0	0
4705	0	0	0
4706	0	0	0
4707	0	0	0
4708	0	0	0
4709	0	0	0
4710	0	0	0
4711	0	0	0
4712	0	0	0
4713	0	0	0
4714	0	0	0
4715	0	0	0
4716	253	214	236
4717	252	207	233
4718	247	200	231
4719	0	0	0
4720	0	0	0
4721	0	0	0
4722	0	0	0
4723	0	0	0
4724	0	0	0
4725	0	0	0
4726	0	0	0
4727	0	0	0
4728	0	0	0
4729	0	0	0
4730	0	0	0
4731	0	0	0
4732	0	0	0
4733	0	0	0
4734	0	0	0
4735	0	0	0
4736	0	0	0
4737	0	0	0
4738	0	0	0
4739	0	0	0
4740	0	0	0
4741	0	0	0
4742	0	0	0
4743	0	0	0
4744	0	0	0
4745	0	0	0
4746	0	0	0
4747	0	0	0
4748	0	0	0
4749	0	0	0
4750	0	0	0
4751	0	0	0
4752	0	0	0
4753	0	0	0
4754	0	0	0
4755	0	0	0
4756	0	0	0
4757	0	0	0
4758	0	0	0
4759	0	0	0
4760	0	0	0
4761	0	0	0
