 	R	G	B
1	0	0	0
2	0	0	0
3	0	0	0
4	0	0	0
5	0	0	0
6	0	0	0
7	0	0	0
8	0	0	0
9	0	0	0
10	0	0	0
11	0	0	0
12	0	0	0
13	254	213	231
14	255	217	233
15	255	218	234
16	255	218	234
17	255	219	235
18	255	217	233
19	0	0	0
20	0	0	0
21	0	0	0
22	0	0	0
23	0	0	0
24	0	0	0
25	0	0	0
26	0	0	0
27	0	0	0
28	0	0	0
29	0	0	0
30	0	0	0
31	0	0	0
32	0	0	0
33	0	0	0
34	0	0	0
35	0	0	0
36	0	0	0
37	255	220	240
38	255	209	232
39	255	213	234
40	253	204	227
41	253	204	228
42	255	207	230
43	255	206	228
44	254	206	227
45	0	0	0
46	0	0	0
47	255	210	231
48	250	201	229
49	253	205	235
50	0	0	0
51	0	0	0
52	0	0	0
53	0	0	0
54	0	0	0
55	0	0	0
56	0	0	0
57	0	0	0
58	255	232	242
59	255	233	245
60	255	230	244
61	255	224	239
62	255	214	234
63	254	205	233
64	252	199	230
65	244	188	219
66	249	193	221
67	251	196	223
68	251	197	224
69	252	199	225
70	255	207	231
71	255	216	237
72	254	204	229
73	246	194	225
74	247	197	229
75	243	195	226
76	0	0	0
77	0	0	0
78	0	0	0
79	0	0	0
80	0	0	0
81	0	0	0
82	255	229	239
83	255	229	240
84	255	217	234
85	255	213	233
86	253	207	229
87	250	199	225
88	255	207	237
89	255	202	234
90	248	190	223
91	253	195	226
92	253	195	226
93	254	196	227
94	253	197	228
95	255	204	232
96	255	205	232
97	246	192	223
98	250	201	232
99	248	202	233
100	245	203	231
101	0	0	0
102	0	0	0
103	0	0	0
104	0	0	0
105	0	0	0
106	250	218	235
107	255	225	240
108	253	213	233
109	248	202	227
110	249	199	227
111	248	195	226
112	254	201	232
113	255	208	238
114	255	199	232
115	250	189	225
116	255	193	230
117	255	193	231
118	254	194	230
119	252	193	228
120	249	192	225
121	248	192	227
122	250	199	231
123	254	207	238
124	250	208	237
125	246	209	236
126	0	0	0
127	0	0	0
128	0	0	0
129	0	0	0
130	0	0	0
131	255	229	243
132	255	220	238
133	251	209	232
134	254	207	233
135	255	205	234
136	252	197	231
137	255	203	238
138	255	199	235
139	252	189	228
140	251	186	227
141	255	190	231
142	250	184	228
143	249	184	227
144	253	192	230
145	249	190	227
146	252	199	233
147	254	204	236
148	255	211	239
149	249	212	238
150	246	214	237
151	0	0	0
152	0	0	0
153	0	0	0
154	0	0	0
155	255	231	243
156	255	223	239
157	253	214	235
158	255	213	237
159	255	212	239
160	255	205	237
161	254	196	233
162	255	195	236
163	255	191	236
164	254	188	234
165	251	183	228
166	247	178	224
167	242	171	221
168	246	180	226
169	250	188	230
170	252	195	232
171	253	202	235
172	255	209	237
173	253	214	237
174	248	215	235
175	245	217	236
176	0	0	0
177	0	0	0
178	0	0	0
179	0	0	0
180	255	225	240
181	255	218	236
182	250	205	231
183	252	203	233
184	255	207	238
185	255	200	235
186	252	189	231
187	253	187	234
188	251	182	234
189	250	179	232
190	251	181	229
191	246	175	223
192	248	181	228
193	251	189	233
194	255	203	240
195	255	209	242
196	253	204	235
197	253	210	235
198	250	214	234
199	244	215	231
200	0	0	0
201	0	0	0
202	0	0	0
203	0	0	0
204	255	222	238
205	255	220	237
206	253	208	232
207	248	196	229
208	252	199	234
209	255	202	237
210	250	190	230
211	246	179	226
212	246	175	227
213	242	168	223
214	246	174	227
215	248	177	227
216	250	183	229
217	252	188	232
218	255	201	238
219	255	214	245
220	255	210	239
221	250	204	231
222	250	211	233
223	0	0	0
224	0	0	0
225	0	0	0
226	0	0	0
227	0	0	0
228	255	223	238
229	255	222	239
230	255	212	234
231	250	200	230
232	251	197	233
233	255	200	238
234	255	201	239
235	250	188	231
236	253	187	234
237	251	182	233
238	246	175	228
239	250	180	231
240	252	184	232
241	253	190	234
242	252	193	233
243	255	205	239
244	255	212	241
245	254	208	235
246	248	205	229
247	245	211	230
248	0	0	0
249	0	0	0
250	0	0	0
251	0	0	0
252	0	0	0
253	255	223	238
254	254	213	235
255	251	203	232
256	252	201	234
257	252	197	237
258	255	198	240
259	255	199	240
260	255	194	238
261	255	193	241
262	252	185	236
263	246	177	229
264	251	184	233
265	251	187	232
266	250	191	232
267	249	194	233
268	253	201	236
269	254	207	237
270	249	206	232
271	242	204	226
272	0	0	0
273	0	0	0
274	0	0	0
275	0	0	0
276	0	0	0
277	0	0	0
278	255	220	238
279	254	210	234
280	252	202	233
281	253	200	236
282	255	202	241
283	255	202	243
284	252	191	236
285	250	187	234
286	254	192	239
287	248	183	233
288	253	190	237
289	255	197	240
290	249	191	232
291	246	194	231
292	255	210	242
293	255	219	246
294	249	207	234
295	0	0	0
296	0	0	0
297	0	0	0
298	0	0	0
299	0	0	0
300	0	0	0
301	0	0	0
302	0	0	0
303	255	218	238
304	255	210	236
305	253	202	234
306	255	204	240
307	255	206	243
308	254	195	237
309	247	184	230
310	251	188	234
311	253	192	237
312	255	198	241
313	255	204	244
314	255	200	239
315	246	194	231
316	250	207	236
317	255	222	243
318	248	211	233
319	0	0	0
320	0	0	0
321	0	0	0
322	0	0	0
323	0	0	0
324	0	0	0
325	0	0	0
326	0	0	0
327	0	0	0
328	255	215	238
329	255	206	235
330	250	195	232
331	254	197	236
332	254	195	236
333	246	184	229
334	252	191	234
335	254	194	236
336	252	193	236
337	254	198	238
338	255	205	241
339	250	200	235
340	248	204	234
341	252	217	239
342	252	224	240
343	0	0	0
344	0	0	0
345	0	0	0
346	0	0	0
347	0	0	0
348	0	0	0
349	0	0	0
350	0	0	0
351	0	0	0
352	255	220	242
353	255	211	238
354	252	200	234
355	246	188	230
356	247	187	232
357	247	185	231
358	250	190	233
359	253	196	235
360	251	194	233
361	248	192	232
362	250	199	236
363	250	204	236
364	248	208	235
365	247	212	234
366	247	219	236
367	0	0	0
368	0	0	0
369	0	0	0
370	0	0	0
371	0	0	0
372	0	0	0
373	0	0	0
374	0	0	0
375	0	0	0
376	255	218	239
377	255	211	239
378	248	196	231
379	240	183	226
380	247	190	234
381	249	189	236
382	252	195	238
383	255	199	239
384	254	201	237
385	249	198	234
386	247	199	234
387	246	204	235
388	247	212	237
389	0	0	0
390	0	0	0
391	0	0	0
392	0	0	0
393	0	0	0
394	0	0	0
395	0	0	0
396	0	0	0
397	0	0	0
398	0	0	0
399	0	0	0
400	0	0	0
401	0	0	0
402	243	192	229
403	233	176	223
404	236	181	228
405	241	187	234
406	247	194	238
407	250	198	240
408	248	198	238
409	247	200	236
410	245	201	235
411	242	202	234
412	244	212	237
413	0	0	0
414	0	0	0
415	0	0	0
416	0	0	0
417	0	0	0
418	0	0	0
419	0	0	0
420	0	0	0
421	0	0	0
422	0	0	0
423	0	0	0
424	0	0	0
425	0	0	0
426	0	0	0
427	0	0	0
428	0	0	0
429	0	0	0
430	0	0	0
431	0	0	0
432	247	206	241
433	0	0	0
434	0	0	0
435	0	0	0
436	0	0	0
437	0	0	0
438	0	0	0
439	0	0	0
440	0	0	0
441	0	0	0
442	0	0	0
443	0	0	0
444	0	0	0
445	0	0	0
446	0	0	0
447	0	0	0
448	0	0	0
449	0	0	0
450	0	0	0
