 	R	G	B
1	0	0	0
2	0	0	0
3	0	0	0
4	0	0	0
5	0	0	0
6	0	0	0
7	0	0	0
8	0	0	0
9	0	0	0
10	0	0	0
11	0	0	0
12	0	0	0
13	0	0	0
14	0	0	0
15	0	0	0
16	0	0	0
17	0	0	0
18	0	0	0
19	0	0	0
20	0	0	0
21	0	0	0
22	0	0	0
23	0	0	0
24	0	0	0
25	0	0	0
26	0	0	0
27	0	0	0
28	0	0	0
29	0	0	0
30	0	0	0
31	0	0	0
32	254	227	229
33	0	0	0
34	0	0	0
35	0	0	0
36	0	0	0
37	0	0	0
38	0	0	0
39	0	0	0
40	0	0	0
41	0	0	0
42	0	0	0
43	0	0	0
44	0	0	0
45	0	0	0
46	0	0	0
47	0	0	0
48	0	0	0
49	0	0	0
50	0	0	0
51	0	0	0
52	0	0	0
53	0	0	0
54	0	0	0
55	0	0	0
56	0	0	0
57	0	0	0
58	0	0	0
59	0	0	0
60	0	0	0
61	0	0	0
62	0	0	0
63	0	0	0
64	0	0	0
65	0	0	0
66	0	0	0
67	0	0	0
68	0	0	0
69	0	0	0
70	0	0	0
71	0	0	0
72	0	0	0
73	0	0	0
74	0	0	0
75	0	0	0
76	0	0	0
77	0	0	0
78	0	0	0
79	0	0	0
80	0	0	0
81	0	0	0
82	0	0	0
83	0	0	0
84	0	0	0
85	0	0	0
86	0	0	0
87	0	0	0
88	0	0	0
89	0	0	0
90	0	0	0
91	0	0	0
92	0	0	0
93	0	0	0
94	0	0	0
95	0	0	0
96	0	0	0
97	0	0	0
98	0	0	0
99	0	0	0
100	0	0	0
101	0	0	0
102	0	0	0
103	0	0	0
104	0	0	0
105	0	0	0
106	0	0	0
107	0	0	0
108	0	0	0
109	0	0	0
110	0	0	0
111	0	0	0
112	0	0	0
113	0	0	0
114	0	0	0
115	0	0	0
116	0	0	0
117	0	0	0
118	0	0	0
119	0	0	0
120	0	0	0
121	253	214	222
122	252	212	222
123	247	208	219
124	0	0	0
125	0	0	0
126	0	0	0
127	0	0	0
128	0	0	0
129	0	0	0
130	0	0	0
131	0	0	0
132	0	0	0
133	0	0	0
134	0	0	0
135	0	0	0
136	0	0	0
137	0	0	0
138	0	0	0
139	0	0	0
140	0	0	0
141	0	0	0
142	0	0	0
143	0	0	0
144	0	0	0
145	0	0	0
146	0	0	0
147	0	0	0
148	0	0	0
149	0	0	0
150	0	0	0
151	0	0	0
152	0	0	0
153	0	0	0
154	0	0	0
155	0	0	0
156	0	0	0
157	0	0	0
158	0	0	0
159	0	0	0
160	0	0	0
161	0	0	0
162	0	0	0
163	0	0	0
164	0	0	0
165	0	0	0
166	0	0	0
167	0	0	0
168	0	0	0
169	0	0	0
170	0	0	0
171	0	0	0
172	0	0	0
173	0	0	0
174	0	0	0
175	0	0	0
176	0	0	0
177	0	0	0
178	0	0	0
179	0	0	0
180	0	0	0
181	0	0	0
182	0	0	0
183	0	0	0
184	0	0	0
185	0	0	0
186	0	0	0
187	0	0	0
188	0	0	0
189	0	0	0
190	0	0	0
191	0	0	0
192	0	0	0
193	0	0	0
194	0	0	0
195	0	0	0
196	0	0	0
197	0	0	0
198	0	0	0
199	0	0	0
200	0	0	0
201	0	0	0
202	0	0	0
203	0	0	0
204	0	0	0
205	0	0	0
206	254	216	223
207	255	222	227
208	255	216	223
209	255	208	219
210	255	206	219
211	255	204	219
212	253	202	220
213	248	198	218
214	253	209	225
215	254	217	230
216	255	226	233
217	0	0	0
218	0	0	0
219	0	0	0
220	0	0	0
221	0	0	0
222	0	0	0
223	0	0	0
224	0	0	0
225	0	0	0
226	0	0	0
227	0	0	0
228	0	0	0
229	0	0	0
230	0	0	0
231	0	0	0
232	0	0	0
233	0	0	0
234	0	0	0
235	0	0	0
236	0	0	0
237	0	0	0
238	0	0	0
239	0	0	0
240	0	0	0
241	0	0	0
242	0	0	0
243	0	0	0
244	0	0	0
245	0	0	0
246	0	0	0
247	0	0	0
248	0	0	0
249	0	0	0
250	0	0	0
251	0	0	0
252	0	0	0
253	0	0	0
254	0	0	0
255	0	0	0
256	0	0	0
257	0	0	0
258	0	0	0
259	0	0	0
260	0	0	0
261	0	0	0
262	0	0	0
263	0	0	0
264	0	0	0
265	0	0	0
266	0	0	0
267	0	0	0
268	0	0	0
269	0	0	0
270	0	0	0
271	0	0	0
272	0	0	0
273	0	0	0
274	0	0	0
275	0	0	0
276	0	0	0
277	0	0	0
278	0	0	0
279	0	0	0
280	0	0	0
281	0	0	0
282	0	0	0
283	0	0	0
284	0	0	0
285	0	0	0
286	0	0	0
287	0	0	0
288	0	0	0
289	255	219	229
290	0	0	0
291	0	0	0
292	0	0	0
293	0	0	0
294	0	0	0
295	253	202	220
296	255	209	226
297	254	198	219
298	249	189	213
299	252	191	214
300	252	189	214
301	251	189	215
302	250	187	215
303	251	191	218
304	255	202	225
305	253	201	224
306	255	211	228
307	250	210	224
308	0	0	0
309	0	0	0
310	0	0	0
311	0	0	0
312	0	0	0
313	0	0	0
314	0	0	0
315	0	0	0
316	0	0	0
317	0	0	0
318	0	0	0
319	0	0	0
320	0	0	0
321	0	0	0
322	0	0	0
323	0	0	0
324	0	0	0
325	0	0	0
326	0	0	0
327	0	0	0
328	0	0	0
329	0	0	0
330	0	0	0
331	0	0	0
332	0	0	0
333	0	0	0
334	0	0	0
335	0	0	0
336	0	0	0
337	0	0	0
338	0	0	0
339	0	0	0
340	0	0	0
341	0	0	0
342	0	0	0
343	0	0	0
344	0	0	0
345	0	0	0
346	0	0	0
347	0	0	0
348	0	0	0
349	0	0	0
350	0	0	0
351	0	0	0
352	0	0	0
353	0	0	0
354	0	0	0
355	0	0	0
356	0	0	0
357	0	0	0
358	0	0	0
359	0	0	0
360	0	0	0
361	0	0	0
362	0	0	0
363	0	0	0
364	0	0	0
365	0	0	0
366	0	0	0
367	0	0	0
368	0	0	0
369	0	0	0
370	251	213	228
371	252	213	228
372	255	211	229
373	255	206	227
374	255	207	228
375	255	207	226
376	255	210	228
377	255	213	229
378	255	208	226
379	255	202	223
380	255	197	219
381	254	194	218
382	253	190	216
383	251	187	215
384	253	190	218
385	255	195	223
386	253	185	218
387	247	174	212
388	249	176	215
389	250	177	215
390	250	176	215
391	249	175	214
392	252	180	217
393	253	184	218
394	253	186	219
395	251	186	219
396	253	192	223
397	249	192	220
398	255	210	230
399	0	0	0
400	0	0	0
401	0	0	0
402	0	0	0
403	0	0	0
404	0	0	0
405	0	0	0
406	0	0	0
407	0	0	0
408	0	0	0
409	0	0	0
410	0	0	0
411	0	0	0
412	0	0	0
413	0	0	0
414	0	0	0
415	0	0	0
416	0	0	0
417	0	0	0
418	0	0	0
419	0	0	0
420	0	0	0
421	0	0	0
422	0	0	0
423	0	0	0
424	0	0	0
425	0	0	0
426	0	0	0
427	0	0	0
428	0	0	0
429	0	0	0
430	0	0	0
431	0	0	0
432	0	0	0
433	0	0	0
434	0	0	0
435	0	0	0
436	0	0	0
437	0	0	0
438	0	0	0
439	0	0	0
440	0	0	0
441	0	0	0
442	0	0	0
443	0	0	0
444	0	0	0
445	0	0	0
446	0	0	0
447	0	0	0
448	0	0	0
449	0	0	0
450	0	0	0
451	0	0	0
452	0	0	0
453	0	0	0
454	0	0	0
455	0	0	0
456	0	0	0
457	0	0	0
458	0	0	0
459	252	199	223
460	255	201	228
461	252	195	225
462	252	191	224
463	252	188	223
464	255	190	225
465	254	185	221
466	255	188	223
467	255	186	220
468	252	180	216
469	251	177	216
470	247	171	212
471	255	183	220
472	253	179	217
473	252	176	217
474	255	181	222
475	253	176	219
476	246	165	213
477	251	169	219
478	254	172	223
479	252	168	220
480	251	166	219
481	252	169	221
482	254	174	222
483	254	175	219
484	253	177	219
485	252	177	221
486	255	183	225
487	251	180	221
488	255	200	232
489	255	196	226
490	0	0	0
491	0	0	0
492	0	0	0
493	0	0	0
494	0	0	0
495	0	0	0
496	0	0	0
497	0	0	0
498	0	0	0
499	0	0	0
500	0	0	0
501	0	0	0
502	0	0	0
503	0	0	0
504	0	0	0
505	0	0	0
506	0	0	0
507	0	0	0
508	0	0	0
509	0	0	0
510	0	0	0
511	0	0	0
512	0	0	0
513	0	0	0
514	0	0	0
515	0	0	0
516	0	0	0
517	0	0	0
518	0	0	0
519	0	0	0
520	0	0	0
521	0	0	0
522	0	0	0
523	0	0	0
524	0	0	0
525	0	0	0
526	0	0	0
527	0	0	0
528	0	0	0
529	0	0	0
530	0	0	0
531	0	0	0
532	0	0	0
533	0	0	0
534	0	0	0
535	0	0	0
536	0	0	0
537	0	0	0
538	0	0	0
539	0	0	0
540	0	0	0
541	0	0	0
542	254	223	236
543	250	217	233
544	253	221	236
545	255	228	239
546	255	210	228
547	249	190	218
548	250	188	221
549	251	186	223
550	250	181	223
551	247	175	223
552	245	171	221
553	243	167	218
554	242	162	215
555	240	158	214
556	241	157	214
557	240	154	210
558	237	150	208
559	237	148	210
560	244	158	217
561	252	168	220
562	247	162	214
563	246	159	215
564	243	155	213
565	241	150	211
566	247	156	217
567	251	160	222
568	252	159	224
569	250	156	223
570	252	159	226
571	253	161	227
572	251	162	224
573	249	162	218
574	246	161	215
575	246	161	217
576	248	164	219
577	244	161	214
578	244	164	214
579	239	161	210
580	249	178	220
581	253	191	225
582	255	205	230
583	255	220	237
584	255	222	234
585	0	0	0
586	0	0	0
587	0	0	0
588	0	0	0
589	0	0	0
590	0	0	0
591	0	0	0
592	0	0	0
593	0	0	0
594	0	0	0
595	0	0	0
596	0	0	0
597	0	0	0
598	0	0	0
599	0	0	0
600	0	0	0
601	0	0	0
602	0	0	0
603	0	0	0
604	0	0	0
605	0	0	0
606	0	0	0
607	0	0	0
608	0	0	0
609	0	0	0
610	0	0	0
611	0	0	0
612	0	0	0
613	0	0	0
614	0	0	0
615	0	0	0
616	0	0	0
617	0	0	0
618	0	0	0
619	0	0	0
620	0	0	0
621	0	0	0
622	0	0	0
623	0	0	0
624	0	0	0
625	0	0	0
626	0	0	0
627	0	0	0
628	0	0	0
629	0	0	0
630	0	0	0
631	254	210	231
632	255	208	233
633	251	196	228
634	254	201	232
635	251	196	227
636	238	173	212
637	244	177	220
638	248	177	225
639	247	172	225
640	246	168	225
641	242	161	224
642	238	157	222
643	238	159	222
644	235	153	218
645	242	161	226
646	246	162	228
647	239	151	218
648	236	147	216
649	244	157	227
650	255	168	235
651	255	169	230
652	251	161	223
653	253	163	226
654	249	158	224
655	253	160	226
656	255	166	233
657	249	149	222
658	249	148	224
659	248	146	225
660	250	149	227
661	252	156	230
662	250	156	226
663	255	167	229
664	253	166	226
665	249	160	222
666	251	163	224
667	245	157	218
668	246	160	219
669	247	163	221
670	255	181	231
671	252	177	225
672	255	194	234
673	254	189	228
674	251	191	225
675	253	202	228
676	0	0	0
677	0	0	0
678	0	0	0
679	0	0	0
680	0	0	0
681	0	0	0
682	0	0	0
683	240	227	229
684	0	0	0
685	0	0	0
686	0	0	0
687	0	0	0
688	0	0	0
689	0	0	0
690	0	0	0
691	0	0	0
692	0	0	0
693	0	0	0
694	0	0	0
695	0	0	0
696	0	0	0
697	0	0	0
698	0	0	0
699	0	0	0
700	0	0	0
701	0	0	0
702	0	0	0
703	0	0	0
704	0	0	0
705	0	0	0
706	0	0	0
707	0	0	0
708	0	0	0
709	0	0	0
710	0	0	0
711	0	0	0
712	0	0	0
713	0	0	0
714	0	0	0
715	0	0	0
716	0	0	0
717	0	0	0
718	0	0	0
719	0	0	0
720	0	0	0
721	248	190	225
722	245	180	221
723	238	168	216
724	232	162	214
725	229	157	213
726	229	157	215
727	234	160	219
728	233	155	219
729	233	150	221
730	229	144	219
731	224	136	215
732	223	138	216
733	223	141	217
734	226	145	220
735	233	152	226
736	231	145	222
737	225	135	214
738	232	144	221
739	242	154	231
740	250	159	233
741	252	159	230
742	250	157	226
743	252	159	229
744	251	158	230
745	255	160	232
746	247	145	223
747	236	128	213
748	238	129	216
749	236	126	215
750	241	135	220
751	243	141	222
752	249	152	226
753	255	166	233
754	247	156	224
755	242	149	218
756	240	146	216
757	236	141	212
758	241	149	219
759	243	154	221
760	243	155	221
761	238	151	216
762	238	152	215
763	232	149	211
764	238	163	217
765	241	173	218
766	247	188	222
767	252	203	227
768	251	209	227
769	254	218	232
770	253	221	233
771	253	225	234
772	253	228	234
773	251	231	235
774	246	231	233
775	0	0	0
776	249	240	240
777	0	0	0
778	0	0	0
779	0	0	0
780	0	0	0
781	0	0	0
782	0	0	0
783	0	0	0
784	0	0	0
785	0	0	0
786	0	0	0
787	0	0	0
788	0	0	0
789	0	0	0
790	0	0	0
791	0	0	0
792	0	0	0
793	0	0	0
794	0	0	0
795	0	0	0
796	0	0	0
797	0	0	0
798	0	0	0
799	0	0	0
800	0	0	0
801	0	0	0
802	0	0	0
803	0	0	0
804	0	0	0
805	0	0	0
806	0	0	0
807	0	0	0
808	0	0	0
809	0	0	0
810	0	0	0
811	0	0	0
812	240	173	225
813	235	166	223
814	227	159	221
815	233	167	231
816	236	168	235
817	235	164	231
818	232	157	229
819	232	155	232
820	227	148	229
821	232	156	233
822	232	158	234
823	230	157	233
824	232	161	236
825	232	158	235
826	228	150	230
827	227	145	226
828	238	156	234
829	248	165	242
830	255	169	244
831	251	158	233
832	249	156	230
833	255	165	237
834	255	165	238
835	252	156	232
836	243	140	224
837	246	141	227
838	246	142	229
839	244	140	227
840	250	149	231
841	253	156	233
842	255	168	239
843	255	166	236
844	248	157	227
845	253	164	231
846	252	161	229
847	250	159	228
848	255	168	235
849	247	157	229
850	248	160	231
851	243	155	226
852	240	155	225
853	236	156	223
854	241	170	229
855	238	169	224
856	252	188	232
857	255	196	231
858	255	202	231
859	252	198	226
860	249	199	225
861	252	206	229
862	252	209	228
863	250	213	227
864	245	213	225
865	252	226	235
866	253	230	237
867	247	227	233
868	0	0	0
869	0	0	0
870	0	0	0
871	0	0	0
872	0	0	0
873	0	0	0
874	0	0	0
875	0	0	0
876	0	0	0
877	0	0	0
878	0	0	0
879	0	0	0
880	0	0	0
881	0	0	0
882	0	0	0
883	0	0	0
884	0	0	0
885	0	0	0
886	0	0	0
887	0	0	0
888	0	0	0
889	0	0	0
890	0	0	0
891	0	0	0
892	0	0	0
893	0	0	0
894	0	0	0
895	0	0	0
896	0	0	0
897	0	0	0
898	0	0	0
899	0	0	0
900	0	0	0
901	0	0	0
902	0	0	0
903	0	0	0
904	0	0	0
905	0	0	0
906	216	152	227
907	213	146	223
908	210	142	221
909	211	141	223
910	221	153	232
911	226	160	235
912	223	158	233
913	221	157	232
914	218	152	230
915	218	150	230
916	221	150	232
917	222	146	230
918	231	154	235
919	240	163	239
920	240	154	231
921	235	143	222
922	241	151	227
923	249	161	234
924	245	151	229
925	241	142	225
926	245	145	229
927	246	146	231
928	244	146	230
929	242	144	229
930	252	156	236
931	255	163	236
932	254	162	233
933	251	160	230
934	252	164	232
935	255	172	237
936	255	169	234
937	252	166	230
938	244	156	226
939	237	147	223
940	237	148	226
941	233	144	223
942	234	150	225
943	231	151	222
944	231	155	223
945	231	157	224
946	243	171	230
947	248	178	226
948	246	175	220
949	241	171	215
950	243	179	219
951	246	186	223
952	249	193	225
953	248	196	223
954	252	207	228
955	255	220	235
956	252	216	231
957	245	212	227
958	0	0	0
959	0	0	0
960	0	0	0
961	0	0	0
962	0	0	0
963	0	0	0
964	0	0	0
965	0	0	0
966	0	0	0
967	0	0	0
968	0	0	0
969	0	0	0
970	0	0	0
971	0	0	0
972	0	0	0
973	0	0	0
974	0	0	0
975	0	0	0
976	0	0	0
977	0	0	0
978	0	0	0
979	0	0	0
980	0	0	0
981	0	0	0
982	0	0	0
983	0	0	0
984	0	0	0
985	0	0	0
986	0	0	0
987	0	0	0
988	0	0	0
989	0	0	0
990	0	0	0
991	0	0	0
992	0	0	0
993	0	0	0
994	0	0	0
995	226	184	243
996	219	176	239
997	217	175	237
998	213	171	235
999	221	177	242
1000	236	192	254
1001	223	171	238
1002	217	167	234
1003	224	178	242
1004	224	175	241
1005	227	174	243
1006	235	176	248
1007	230	164	242
1008	236	171	245
1009	244	181	246
1010	241	171	237
1011	239	164	233
1012	249	174	241
1013	254	175	243
1014	251	166	238
1015	246	156	234
1016	250	158	237
1017	250	160	237
1018	247	158	235
1019	249	160	238
1020	255	174	247
1021	254	164	237
1022	251	162	233
1023	248	161	231
1024	249	166	233
1025	255	175	239
1026	252	172	235
1027	248	166	231
1028	240	158	226
1029	240	158	232
1030	240	159	235
1031	239	158	234
1032	243	166	238
1033	236	158	230
1034	241	165	235
1035	243	168	238
1036	248	178	241
1037	241	169	228
1038	243	169	224
1039	246	173	225
1040	249	181	229
1041	245	179	227
1042	247	185	229
1043	248	188	227
1044	255	201	233
1045	253	201	230
1046	243	195	223
1047	244	202	226
1048	0	0	0
1049	0	0	0
1050	0	0	0
1051	0	0	0
1052	0	0	0
1053	0	0	0
1054	0	0	0
1055	0	0	0
1056	0	0	0
1057	0	0	0
1058	0	0	0
1059	0	0	0
1060	0	0	0
1061	0	0	0
1062	0	0	0
1063	0	0	0
1064	0	0	0
1065	0	0	0
1066	0	0	0
1067	0	0	0
1068	0	0	0
1069	0	0	0
1070	0	0	0
1071	0	0	0
1072	0	0	0
1073	0	0	0
1074	0	0	0
1075	0	0	0
1076	0	0	0
1077	0	0	0
1078	0	0	0
1079	0	0	0
1080	0	0	0
1081	0	0	0
1082	0	0	0
1083	0	0	0
1084	0	0	0
1085	0	0	0
1086	224	199	241
1087	222	198	241
1088	223	201	244
1089	229	206	250
1090	225	192	243
1091	212	173	232
1092	217	183	238
1093	224	193	244
1094	222	188	240
1095	225	186	241
1096	225	178	238
1097	219	167	234
1098	227	177	239
1099	233	185	236
1100	228	175	227
1101	227	169	228
1102	232	171	232
1103	238	173	235
1104	236	163	230
1105	231	152	224
1106	237	158	229
1107	238	160	229
1108	237	161	230
1109	240	164	232
1110	240	159	230
1111	236	152	225
1112	239	156	228
1113	237	156	227
1114	241	164	231
1115	245	172	235
1116	241	166	230
1117	239	163	229
1118	239	164	232
1119	238	163	233
1120	236	162	233
1121	235	162	233
1122	232	158	231
1123	228	151	228
1124	236	160	234
1125	235	161	232
1126	227	154	225
1127	224	148	220
1128	237	160	227
1129	240	164	226
1130	236	163	223
1131	233	161	221
1132	237	168	226
1133	238	172	225
1134	242	177	226
1135	240	178	223
1136	242	186	226
1137	244	194	228
1138	249	204	231
1139	0	0	0
1140	0	0	0
1141	0	0	0
1142	0	0	0
1143	0	0	0
1144	0	0	0
1145	0	0	0
1146	0	0	0
1147	0	0	0
1148	0	0	0
1149	0	0	0
1150	0	0	0
1151	0	0	0
1152	0	0	0
1153	0	0	0
1154	0	0	0
1155	0	0	0
1156	0	0	0
1157	0	0	0
1158	0	0	0
1159	0	0	0
1160	0	0	0
1161	0	0	0
1162	0	0	0
1163	0	0	0
1164	0	0	0
1165	0	0	0
1166	0	0	0
1167	0	0	0
1168	0	0	0
1169	0	0	0
1170	0	0	0
1171	0	0	0
1172	0	0	0
1173	0	0	0
1174	0	0	0
1175	0	0	0
1176	0	0	0
1177	0	0	0
1178	0	0	0
1179	0	0	0
1180	0	0	0
1181	0	0	0
1182	0	0	0
1183	0	0	0
1184	0	0	0
1185	0	0	0
1186	0	0	0
1187	0	0	0
1188	0	0	0
1189	0	0	0
1190	0	0	0
1191	0	0	0
1192	0	0	0
1193	0	0	0
1194	0	0	0
1195	0	0	0
1196	0	0	0
1197	0	0	0
1198	0	0	0
1199	0	0	0
1200	0	0	0
1201	0	0	0
1202	251	188	245
1203	241	176	237
1204	244	183	241
1205	244	185	240
1206	241	180	237
1207	243	180	239
1208	245	181	242
1209	238	172	237
1210	235	171	236
1211	243	182	244
1212	241	179	243
1213	236	169	239
1214	242	177	245
1215	238	173	239
1216	231	167	234
1217	237	172	239
1218	252	185	249
1219	242	170	235
1220	238	169	231
1221	240	172	234
1222	245	181	239
1223	239	174	232
1224	239	177	231
1225	241	180	232
1226	251	194	239
1227	242	183	229
1228	243	191	229
1229	246	196	227
1230	255	205	231
1231	0	0	0
1232	0	0	0
1233	0	0	0
1234	0	0	0
1235	0	0	0
1236	0	0	0
1237	0	0	0
1238	0	0	0
1239	0	0	0
1240	0	0	0
1241	0	0	0
1242	0	0	0
1243	0	0	0
1244	0	0	0
1245	0	0	0
1246	0	0	0
1247	0	0	0
1248	0	0	0
1249	0	0	0
1250	0	0	0
1251	0	0	0
1252	0	0	0
1253	0	0	0
1254	0	0	0
1255	0	0	0
1256	0	0	0
1257	0	0	0
1258	0	0	0
1259	0	0	0
1260	0	0	0
1261	0	0	0
1262	0	0	0
1263	0	0	0
1264	0	0	0
1265	0	0	0
1266	0	0	0
1267	0	0	0
1268	0	0	0
1269	0	0	0
1270	0	0	0
1271	0	0	0
1272	0	0	0
1273	0	0	0
1274	0	0	0
1275	0	0	0
1276	0	0	0
1277	0	0	0
1278	0	0	0
1279	0	0	0
1280	0	0	0
1281	0	0	0
1282	0	0	0
1283	0	0	0
1284	0	0	0
1285	0	0	0
1286	0	0	0
1287	0	0	0
1288	0	0	0
1289	0	0	0
1290	0	0	0
1291	0	0	0
1292	0	0	0
1293	232	183	231
1294	232	185	233
1295	233	187	234
1296	235	187	235
1297	236	187	237
1298	233	180	235
1299	227	172	231
1300	230	180	237
1301	238	191	243
1302	231	180	236
1303	226	171	233
1304	227	173	235
1305	224	170	231
1306	223	171	232
1307	229	175	236
1308	231	170	234
1309	224	156	223
1310	227	163	228
1311	229	167	230
1312	230	166	228
1313	225	160	221
1314	228	166	225
1315	232	171	229
1316	234	169	227
1317	226	159	218
1318	227	165	219
1319	233	173	221
1320	237	172	219
1321	232	164	213
1322	0	0	0
1323	0	0	0
1324	0	0	0
1325	252	205	227
1326	255	211	229
1327	0	0	0
1328	253	218	231
1329	255	223	235
1330	254	221	234
1331	251	217	231
1332	247	217	229
1333	247	219	230
1334	248	221	231
1335	0	0	0
1336	0	0	0
1337	0	0	0
1338	0	0	0
1339	0	0	0
1340	0	0	0
1341	0	0	0
1342	0	0	0
1343	0	0	0
1344	0	0	0
1345	0	0	0
1346	0	0	0
1347	0	0	0
1348	0	0	0
1349	0	0	0
1350	0	0	0
1351	0	0	0
1352	0	0	0
1353	0	0	0
1354	0	0	0
1355	0	0	0
1356	0	0	0
1357	0	0	0
1358	0	0	0
1359	0	0	0
1360	0	0	0
1361	0	0	0
1362	0	0	0
1363	0	0	0
1364	0	0	0
1365	0	0	0
1366	0	0	0
1367	0	0	0
1368	0	0	0
1369	0	0	0
1370	0	0	0
1371	0	0	0
1372	0	0	0
1373	0	0	0
1374	0	0	0
1375	0	0	0
1376	0	0	0
1377	0	0	0
1378	0	0	0
1379	0	0	0
1380	0	0	0
1381	0	0	0
1382	0	0	0
1383	0	0	0
1384	0	0	0
1385	0	0	0
1386	0	0	0
1387	230	198	235
1388	0	0	0
1389	0	0	0
1390	0	0	0
1391	0	0	0
1392	232	203	239
1393	232	202	241
1394	233	203	243
1395	231	200	241
1396	232	203	243
1397	231	198	241
1398	233	192	239
1399	232	186	237
1400	239	195	244
1401	234	187	239
1402	237	187	238
1403	236	182	234
1404	243	191	241
1405	241	187	240
1406	240	183	238
1407	234	175	232
1408	240	185	237
1409	243	186	237
1410	245	184	235
1411	240	174	227
1412	253	192	237
1413	250	188	231
1414	253	195	231
1415	246	188	223
1416	246	192	223
1417	252	202	229
1418	255	208	233
1419	249	198	225
1420	243	193	221
1421	247	202	227
1422	246	204	226
1423	250	211	229
1424	250	212	229
1425	246	208	228
1426	0	0	0
1427	0	0	0
1428	0	0	0
1429	0	0	0
1430	0	0	0
1431	0	0	0
1432	0	0	0
1433	0	0	0
1434	0	0	0
1435	0	0	0
1436	0	0	0
1437	0	0	0
1438	0	0	0
1439	0	0	0
1440	0	0	0
1441	0	0	0
1442	0	0	0
1443	0	0	0
1444	0	0	0
1445	0	0	0
1446	0	0	0
1447	0	0	0
1448	0	0	0
1449	0	0	0
1450	0	0	0
1451	0	0	0
1452	0	0	0
1453	0	0	0
1454	0	0	0
1455	0	0	0
1456	0	0	0
1457	0	0	0
1458	0	0	0
1459	0	0	0
1460	0	0	0
1461	0	0	0
1462	0	0	0
1463	0	0	0
1464	0	0	0
1465	0	0	0
1466	0	0	0
1467	0	0	0
1468	0	0	0
1469	0	0	0
1470	0	0	0
1471	0	0	0
1472	0	0	0
1473	0	0	0
1474	0	0	0
1475	0	0	0
1476	0	0	0
1477	0	0	0
1478	0	0	0
1479	0	0	0
1480	0	0	0
1481	0	0	0
1482	0	0	0
1483	248	237	250
1484	245	234	248
1485	243	232	247
1486	238	224	243
1487	237	220	243
1488	238	215	243
1489	237	209	241
1490	234	204	239
1491	231	197	236
1492	234	195	236
1493	233	191	233
1494	234	189	233
1495	235	187	234
1496	236	185	236
1497	232	179	233
1498	233	180	233
1499	235	182	232
1500	235	176	228
1501	231	167	224
1502	236	170	226
1503	234	167	221
1504	234	166	219
1505	228	160	212
1506	232	170	216
1507	239	181	221
1508	239	175	218
1509	231	165	211
1510	234	174	217
1511	238	184	221
1512	241	190	222
1513	244	196	223
1514	241	192	219
1515	239	190	220
1516	243	195	225
1517	0	0	0
1518	0	0	0
1519	0	0	0
1520	0	0	0
1521	0	0	0
1522	248	209	225
1523	251	212	228
1524	253	213	229
1525	252	212	228
1526	250	213	227
1527	252	216	229
1528	0	0	0
1529	0	0	0
1530	0	0	0
1531	0	0	0
1532	0	0	0
1533	0	0	0
1534	0	0	0
1535	0	0	0
1536	0	0	0
1537	0	0	0
1538	0	0	0
1539	0	0	0
1540	0	0	0
1541	0	0	0
1542	0	0	0
1543	0	0	0
1544	0	0	0
1545	0	0	0
1546	0	0	0
1547	0	0	0
1548	0	0	0
1549	0	0	0
1550	0	0	0
1551	0	0	0
1552	0	0	0
1553	0	0	0
1554	0	0	0
1555	0	0	0
1556	0	0	0
1557	0	0	0
1558	0	0	0
1559	0	0	0
1560	0	0	0
1561	0	0	0
1562	0	0	0
1563	0	0	0
1564	0	0	0
1565	0	0	0
1566	0	0	0
1567	0	0	0
1568	0	0	0
1569	0	0	0
1570	0	0	0
1571	0	0	0
1572	0	0	0
1573	0	0	0
1574	0	0	0
1575	0	0	0
1576	0	0	0
1577	0	0	0
1578	0	0	0
1579	0	0	0
1580	0	0	0
1581	0	0	0
1582	0	0	0
1583	0	0	0
1584	0	0	0
1585	0	0	0
1586	247	207	246
1587	238	192	238
1588	236	192	237
1589	241	199	240
1590	241	194	238
1591	236	182	233
1592	241	185	237
1593	244	187	236
1594	247	188	236
1595	239	178	228
1596	244	188	233
1597	246	191	234
1598	245	185	230
1599	237	174	224
1600	240	184	229
1601	239	187	228
1602	242	193	229
1603	244	195	227
1604	244	193	225
1605	247	195	229
1606	251	201	233
1607	245	193	225
1608	247	196	227
1609	246	195	227
1610	246	196	227
1611	248	200	226
1612	250	201	226
1613	252	201	227
1614	255	204	230
1615	248	194	224
1616	244	194	223
1617	251	206	229
1618	250	205	228
1619	0	0	0
1620	0	0	0
1621	0	0	0
1622	0	0	0
1623	0	0	0
1624	0	0	0
1625	0	0	0
1626	0	0	0
1627	0	0	0
1628	0	0	0
1629	0	0	0
1630	0	0	0
1631	0	0	0
1632	0	0	0
1633	0	0	0
1634	0	0	0
1635	0	0	0
1636	0	0	0
1637	0	0	0
1638	0	0	0
1639	0	0	0
1640	0	0	0
1641	0	0	0
1642	0	0	0
1643	0	0	0
1644	0	0	0
1645	0	0	0
1646	0	0	0
1647	0	0	0
1648	0	0	0
1649	0	0	0
1650	0	0	0
1651	0	0	0
1652	0	0	0
1653	0	0	0
1654	0	0	0
1655	0	0	0
1656	0	0	0
1657	0	0	0
1658	0	0	0
1659	0	0	0
1660	0	0	0
1661	0	0	0
1662	0	0	0
1663	0	0	0
1664	0	0	0
1665	0	0	0
1666	0	0	0
1667	0	0	0
1668	0	0	0
1669	0	0	0
1670	0	0	0
1671	0	0	0
1672	0	0	0
1673	0	0	0
1674	0	0	0
1675	0	0	0
1676	0	0	0
1677	233	197	234
1678	0	0	0
1679	239	209	239
1680	234	197	233
1681	231	186	231
1682	239	193	238
1683	242	194	235
1684	241	189	232
1685	236	181	228
1686	239	185	232
1687	242	189	234
1688	242	184	231
1689	235	173	225
1690	234	178	227
1691	233	181	226
1692	236	185	227
1693	240	188	228
1694	244	191	229
1695	246	192	227
1696	240	184	222
1697	235	178	220
1698	236	178	222
1699	235	177	221
1700	238	181	224
1701	240	184	223
1702	240	182	220
1703	241	181	219
1704	238	175	217
1705	231	166	214
1706	237	178	222
1707	242	189	226
1708	0	0	0
1709	0	0	0
1710	0	0	0
1711	0	0	0
1712	0	0	0
1713	0	0	0
1714	0	0	0
1715	0	0	0
1716	0	0	0
1717	0	0	0
1718	0	0	0
1719	0	0	0
1720	0	0	0
1721	0	0	0
1722	0	0	0
1723	0	0	0
1724	0	0	0
1725	0	0	0
1726	0	0	0
1727	0	0	0
1728	0	0	0
1729	0	0	0
1730	0	0	0
1731	0	0	0
1732	0	0	0
1733	0	0	0
1734	0	0	0
1735	0	0	0
1736	0	0	0
1737	0	0	0
1738	0	0	0
1739	0	0	0
1740	0	0	0
1741	0	0	0
1742	0	0	0
1743	0	0	0
1744	0	0	0
1745	0	0	0
1746	0	0	0
1747	0	0	0
1748	0	0	0
1749	0	0	0
1750	0	0	0
1751	0	0	0
1752	0	0	0
1753	0	0	0
1754	0	0	0
1755	0	0	0
1756	0	0	0
1757	0	0	0
1758	0	0	0
1759	0	0	0
1760	0	0	0
1761	0	0	0
1762	0	0	0
1763	0	0	0
1764	0	0	0
1765	0	0	0
1766	0	0	0
1767	0	0	0
1768	0	0	0
1769	0	0	0
1770	0	0	0
1771	236	205	236
1772	247	213	244
1773	241	200	234
1774	238	195	230
1775	240	195	233
1776	248	202	241
1777	245	195	237
1778	244	189	234
1779	242	187	233
1780	242	192	235
1781	242	194	236
1782	247	199	239
1783	246	194	235
1784	248	196	235
1785	242	187	226
1786	233	179	219
1787	241	191	230
1788	243	192	234
1789	240	187	231
1790	246	193	235
1791	246	192	233
1792	246	190	230
1793	247	191	230
1794	240	183	225
1795	239	182	229
1796	249	196	240
1797	241	191	232
1798	0	0	0
1799	0	0	0
1800	0	0	0
1801	0	0	0
1802	0	0	0
1803	0	0	0
1804	0	0	0
1805	0	0	0
1806	0	0	0
1807	0	0	0
1808	0	0	0
1809	0	0	0
1810	0	0	0
1811	0	0	0
1812	0	0	0
1813	0	0	0
1814	0	0	0
1815	0	0	0
1816	0	0	0
1817	0	0	0
1818	0	0	0
1819	0	0	0
1820	0	0	0
1821	0	0	0
1822	0	0	0
1823	0	0	0
1824	0	0	0
1825	0	0	0
1826	0	0	0
1827	0	0	0
1828	0	0	0
1829	0	0	0
1830	0	0	0
1831	0	0	0
1832	0	0	0
1833	0	0	0
1834	0	0	0
1835	0	0	0
1836	0	0	0
1837	0	0	0
1838	0	0	0
1839	0	0	0
1840	0	0	0
1841	0	0	0
1842	0	0	0
1843	0	0	0
1844	0	0	0
1845	0	0	0
1846	0	0	0
1847	0	0	0
1848	0	0	0
1849	0	0	0
1850	0	0	0
1851	0	0	0
1852	0	0	0
1853	0	0	0
1854	0	0	0
1855	0	0	0
1856	0	0	0
1857	0	0	0
1858	0	0	0
1859	0	0	0
1860	0	0	0
1861	0	0	0
1862	243	217	236
1863	238	205	230
1864	240	206	233
1865	242	205	234
1866	240	199	232
1867	237	192	229
1868	240	193	231
1869	239	191	229
1870	239	194	231
1871	242	197	236
1872	242	194	235
1873	240	190	231
1874	240	186	228
1875	234	179	223
1876	237	188	228
1877	244	199	234
1878	242	194	231
1879	240	189	231
1880	241	190	233
1881	242	190	232
1882	247	193	234
1883	248	194	234
1884	243	191	231
1885	241	190	232
1886	239	189	232
1887	234	185	227
1888	238	197	233
1889	0	0	0
1890	0	0	0
1891	0	0	0
1892	0	0	0
1893	0	0	0
1894	0	0	0
1895	0	0	0
1896	0	0	0
1897	0	0	0
1898	0	0	0
1899	0	0	0
1900	0	0	0
1901	0	0	0
1902	0	0	0
1903	0	0	0
1904	0	0	0
1905	0	0	0
1906	0	0	0
1907	0	0	0
1908	0	0	0
1909	0	0	0
1910	0	0	0
1911	0	0	0
1912	0	0	0
1913	0	0	0
1914	0	0	0
1915	0	0	0
1916	0	0	0
1917	0	0	0
1918	0	0	0
1919	0	0	0
1920	0	0	0
1921	0	0	0
1922	0	0	0
1923	0	0	0
1924	0	0	0
1925	0	0	0
1926	0	0	0
1927	0	0	0
1928	0	0	0
1929	0	0	0
1930	0	0	0
1931	0	0	0
1932	0	0	0
1933	0	0	0
1934	0	0	0
1935	0	0	0
1936	0	0	0
1937	0	0	0
1938	0	0	0
1939	0	0	0
1940	0	0	0
1941	0	0	0
1942	0	0	0
1943	0	0	0
1944	0	0	0
1945	0	0	0
1946	0	0	0
1947	0	0	0
1948	0	0	0
1949	0	0	0
1950	0	0	0
1951	0	0	0
1952	0	0	0
1953	240	214	231
1954	244	216	236
1955	238	206	230
1956	232	198	225
1957	233	198	227
1958	235	199	229
1959	238	202	230
1960	244	207	235
1961	241	201	233
1962	238	197	232
1963	242	199	233
1964	244	197	234
1965	241	192	231
1966	244	201	236
1967	244	201	233
1968	243	197	231
1969	241	193	231
1970	239	192	231
1971	245	199	236
1972	253	203	240
1973	244	190	231
1974	238	187	228
1975	243	197	236
1976	239	195	233
1977	241	198	235
1978	253	214	245
1979	245	205	235
1980	0	0	0
1981	0	0	0
1982	0	0	0
1983	0	0	0
1984	0	0	0
1985	0	0	0
1986	0	0	0
1987	0	0	0
1988	0	0	0
1989	0	0	0
1990	0	0	0
1991	0	0	0
1992	0	0	0
1993	0	0	0
1994	0	0	0
1995	0	0	0
1996	0	0	0
1997	0	0	0
1998	0	0	0
1999	0	0	0
2000	0	0	0
2001	0	0	0
2002	0	0	0
2003	0	0	0
2004	0	0	0
2005	0	0	0
2006	0	0	0
2007	0	0	0
2008	0	0	0
2009	0	0	0
2010	0	0	0
2011	0	0	0
2012	0	0	0
2013	0	0	0
2014	0	0	0
2015	0	0	0
2016	0	0	0
2017	0	0	0
2018	0	0	0
2019	0	0	0
2020	0	0	0
2021	0	0	0
2022	0	0	0
2023	0	0	0
2024	0	0	0
2025	0	0	0
2026	0	0	0
2027	0	0	0
2028	0	0	0
2029	0	0	0
2030	0	0	0
2031	0	0	0
2032	0	0	0
2033	0	0	0
2034	0	0	0
2035	0	0	0
2036	0	0	0
2037	0	0	0
2038	0	0	0
2039	0	0	0
2040	0	0	0
2041	0	0	0
2042	0	0	0
2043	0	0	0
2044	243	220	234
2045	0	0	0
2046	0	0	0
2047	239	212	233
2048	243	216	237
2049	247	219	238
2050	248	214	236
2051	244	207	232
2052	242	206	231
2053	245	208	234
2054	246	205	234
2055	242	199	231
2056	241	200	232
2057	243	202	233
2058	245	200	233
2059	241	195	231
2060	239	198	231
2061	244	204	234
2062	243	195	230
2063	235	183	225
2064	240	194	234
2065	244	204	239
2066	244	206	239
2067	247	210	240
2068	246	205	236
2069	238	195	229
2070	237	198	230
2071	0	0	0
2072	0	0	0
2073	0	0	0
2074	0	0	0
2075	0	0	0
2076	0	0	0
2077	0	0	0
2078	0	0	0
2079	0	0	0
2080	0	0	0
2081	0	0	0
2082	0	0	0
2083	0	0	0
2084	0	0	0
2085	0	0	0
2086	0	0	0
2087	0	0	0
2088	0	0	0
2089	0	0	0
2090	0	0	0
2091	0	0	0
2092	0	0	0
2093	0	0	0
2094	0	0	0
2095	0	0	0
2096	0	0	0
2097	0	0	0
2098	0	0	0
2099	0	0	0
2100	0	0	0
2101	0	0	0
2102	0	0	0
2103	0	0	0
2104	0	0	0
2105	0	0	0
2106	0	0	0
2107	0	0	0
2108	0	0	0
2109	0	0	0
2110	0	0	0
2111	0	0	0
2112	0	0	0
2113	0	0	0
2114	0	0	0
2115	0	0	0
2116	0	0	0
2117	0	0	0
2118	0	0	0
2119	0	0	0
2120	0	0	0
2121	0	0	0
2122	0	0	0
2123	0	0	0
2124	0	0	0
2125	0	0	0
2126	0	0	0
2127	0	0	0
2128	0	0	0
2129	0	0	0
2130	0	0	0
2131	0	0	0
2132	0	0	0
2133	0	0	0
2134	0	0	0
2135	0	0	0
2136	0	0	0
2137	0	0	0
2138	249	220	238
2139	245	210	233
2140	246	206	231
2141	248	209	232
2142	242	205	228
2143	242	207	230
2144	239	202	228
2145	240	202	229
2146	242	205	232
2147	242	202	232
2148	245	201	234
2149	240	196	230
2150	234	196	228
2151	240	205	232
2152	240	197	228
2153	239	195	231
2154	243	206	239
2155	242	207	238
2156	245	211	239
2157	243	206	236
2158	240	200	231
2159	240	202	232
2160	0	0	0
2161	0	0	0
2162	0	0	0
2163	0	0	0
2164	0	0	0
2165	0	0	0
2166	0	0	0
2167	0	0	0
2168	0	0	0
2169	0	0	0
2170	0	0	0
2171	0	0	0
2172	0	0	0
2173	0	0	0
2174	0	0	0
2175	0	0	0
2176	0	0	0
2177	0	0	0
2178	0	0	0
2179	0	0	0
2180	0	0	0
2181	0	0	0
2182	0	0	0
2183	0	0	0
2184	0	0	0
2185	0	0	0
2186	0	0	0
2187	0	0	0
2188	0	0	0
2189	0	0	0
2190	0	0	0
2191	0	0	0
2192	0	0	0
2193	0	0	0
2194	0	0	0
2195	0	0	0
2196	0	0	0
2197	0	0	0
2198	0	0	0
2199	0	0	0
2200	0	0	0
2201	0	0	0
2202	0	0	0
2203	0	0	0
2204	0	0	0
2205	0	0	0
2206	0	0	0
2207	0	0	0
2208	0	0	0
2209	0	0	0
2210	0	0	0
2211	0	0	0
2212	0	0	0
2213	0	0	0
2214	0	0	0
2215	0	0	0
2216	0	0	0
2217	0	0	0
2218	0	0	0
2219	0	0	0
2220	0	0	0
2221	0	0	0
2222	0	0	0
2223	0	0	0
2224	0	0	0
2225	0	0	0
2226	0	0	0
2227	0	0	0
2228	240	209	229
2229	238	200	227
2230	248	208	235
2231	250	211	235
2232	245	209	231
2233	243	210	230
2234	242	209	229
2235	243	208	230
2236	241	205	229
2237	242	203	231
2238	245	203	234
2239	240	198	231
2240	239	204	234
2241	244	212	237
2242	248	212	238
2243	246	209	237
2244	243	210	237
2245	242	211	236
2246	238	205	232
2247	236	201	230
2248	241	206	233
2249	0	0	0
2250	0	0	0
2251	0	0	0
2252	0	0	0
2253	0	0	0
2254	0	0	0
2255	0	0	0
2256	0	0	0
2257	0	0	0
2258	0	0	0
2259	0	0	0
2260	0	0	0
2261	0	0	0
2262	0	0	0
2263	0	0	0
2264	0	0	0
2265	0	0	0
2266	0	0	0
2267	0	0	0
2268	0	0	0
2269	0	0	0
2270	0	0	0
2271	0	0	0
2272	0	0	0
2273	0	0	0
2274	0	0	0
2275	0	0	0
2276	0	0	0
2277	0	0	0
2278	0	0	0
2279	0	0	0
2280	0	0	0
2281	0	0	0
2282	0	0	0
2283	0	0	0
2284	0	0	0
2285	0	0	0
2286	0	0	0
2287	0	0	0
2288	0	0	0
2289	0	0	0
2290	0	0	0
2291	0	0	0
2292	0	0	0
2293	0	0	0
2294	0	0	0
2295	0	0	0
2296	0	0	0
2297	0	0	0
2298	0	0	0
2299	0	0	0
2300	0	0	0
2301	0	0	0
2302	0	0	0
2303	0	0	0
2304	0	0	0
2305	0	0	0
2306	0	0	0
2307	0	0	0
2308	0	0	0
2309	0	0	0
2310	0	0	0
2311	0	0	0
2312	0	0	0
2313	0	0	0
2314	0	0	0
2315	0	0	0
2316	0	0	0
2317	0	0	0
2318	237	209	226
2319	237	205	229
2320	246	213	236
2321	247	213	234
2322	246	213	233
2323	242	207	228
2324	242	206	228
2325	243	208	228
2326	241	204	227
2327	246	209	233
2328	247	208	235
2329	245	205	234
2330	247	213	239
2331	244	208	235
2332	245	207	233
2333	245	208	233
2334	243	209	233
2335	242	211	234
2336	234	203	228
2337	235	207	231
2338	0	0	0
2339	0	0	0
2340	0	0	0
2341	0	0	0
2342	0	0	0
2343	0	0	0
2344	0	0	0
2345	0	0	0
2346	0	0	0
2347	0	0	0
2348	0	0	0
2349	0	0	0
2350	0	0	0
2351	0	0	0
2352	0	0	0
2353	0	0	0
2354	0	0	0
2355	0	0	0
2356	0	0	0
2357	0	0	0
2358	0	0	0
2359	0	0	0
2360	0	0	0
2361	0	0	0
2362	0	0	0
2363	0	0	0
2364	0	0	0
2365	0	0	0
2366	0	0	0
2367	0	0	0
2368	0	0	0
2369	0	0	0
2370	0	0	0
2371	0	0	0
2372	0	0	0
2373	0	0	0
2374	0	0	0
2375	0	0	0
2376	0	0	0
2377	0	0	0
2378	0	0	0
2379	0	0	0
2380	0	0	0
2381	0	0	0
2382	0	0	0
2383	0	0	0
2384	0	0	0
2385	0	0	0
2386	0	0	0
2387	0	0	0
2388	0	0	0
2389	0	0	0
2390	0	0	0
2391	0	0	0
2392	0	0	0
2393	0	0	0
2394	0	0	0
2395	0	0	0
2396	0	0	0
2397	0	0	0
2398	0	0	0
2399	0	0	0
2400	0	0	0
2401	0	0	0
2402	0	0	0
2403	0	0	0
2404	0	0	0
2405	0	0	0
2406	0	0	0
2407	0	0	0
2408	0	0	0
2409	241	213	229
2410	245	216	233
2411	247	216	233
2412	245	212	231
2413	244	207	230
2414	248	211	234
2415	250	213	234
2416	251	215	235
2417	254	219	238
2418	250	214	235
2419	247	211	233
2420	243	207	232
2421	241	204	231
2422	244	207	234
2423	243	207	232
2424	239	207	230
2425	238	209	231
2426	237	211	232
2427	238	215	234
2428	240	219	236
2429	0	0	0
2430	0	0	0
2431	0	0	0
2432	0	0	0
2433	0	0	0
2434	0	0	0
2435	0	0	0
2436	0	0	0
2437	0	0	0
2438	0	0	0
2439	0	0	0
2440	0	0	0
2441	0	0	0
2442	0	0	0
2443	0	0	0
2444	0	0	0
2445	0	0	0
2446	0	0	0
2447	0	0	0
2448	0	0	0
2449	0	0	0
2450	0	0	0
2451	0	0	0
2452	0	0	0
2453	0	0	0
2454	0	0	0
2455	0	0	0
2456	0	0	0
2457	0	0	0
2458	0	0	0
2459	0	0	0
2460	0	0	0
2461	0	0	0
2462	0	0	0
2463	0	0	0
2464	0	0	0
2465	0	0	0
2466	0	0	0
2467	0	0	0
2468	0	0	0
2469	0	0	0
2470	0	0	0
2471	0	0	0
2472	0	0	0
2473	0	0	0
2474	0	0	0
2475	0	0	0
2476	0	0	0
2477	0	0	0
2478	0	0	0
2479	0	0	0
2480	0	0	0
2481	0	0	0
2482	0	0	0
2483	0	0	0
2484	0	0	0
2485	0	0	0
2486	0	0	0
2487	0	0	0
2488	0	0	0
2489	0	0	0
2490	0	0	0
2491	0	0	0
2492	0	0	0
2493	0	0	0
2494	0	0	0
2495	0	0	0
2496	0	0	0
2497	0	0	0
2498	0	0	0
2499	243	214	229
2500	244	215	230
2501	241	207	226
2502	241	204	227
2503	246	206	231
2504	252	211	236
2505	249	206	231
2506	249	207	231
2507	248	209	231
2508	241	203	226
2509	244	209	230
2510	241	206	230
2511	241	206	232
2512	243	208	234
2513	241	209	233
2514	234	208	229
2515	235	213	232
2516	240	218	235
2517	240	219	234
2518	241	222	236
2519	238	221	234
2520	0	0	0
2521	0	0	0
2522	0	0	0
2523	0	0	0
2524	0	0	0
2525	0	0	0
2526	0	0	0
2527	0	0	0
2528	0	0	0
2529	0	0	0
2530	0	0	0
2531	0	0	0
2532	0	0	0
2533	0	0	0
2534	0	0	0
2535	0	0	0
2536	0	0	0
2537	0	0	0
2538	0	0	0
2539	0	0	0
2540	0	0	0
2541	0	0	0
2542	0	0	0
2543	0	0	0
2544	0	0	0
2545	0	0	0
2546	0	0	0
2547	0	0	0
2548	0	0	0
2549	0	0	0
2550	0	0	0
2551	0	0	0
2552	0	0	0
2553	0	0	0
2554	0	0	0
2555	0	0	0
2556	0	0	0
2557	0	0	0
2558	0	0	0
2559	0	0	0
2560	0	0	0
2561	0	0	0
2562	0	0	0
2563	0	0	0
2564	0	0	0
2565	0	0	0
2566	0	0	0
2567	0	0	0
2568	0	0	0
2569	0	0	0
2570	0	0	0
2571	0	0	0
2572	0	0	0
2573	0	0	0
2574	0	0	0
2575	0	0	0
2576	0	0	0
2577	0	0	0
2578	0	0	0
2579	0	0	0
2580	0	0	0
2581	0	0	0
2582	0	0	0
2583	0	0	0
2584	0	0	0
2585	0	0	0
2586	0	0	0
2587	0	0	0
2588	245	217	231
2589	245	215	230
2590	242	208	227
2591	239	201	225
2592	241	203	228
2593	245	204	231
2594	247	202	230
2595	243	197	224
2596	243	199	225
2597	243	202	228
2598	242	205	230
2599	244	211	234
2600	244	210	235
2601	243	210	234
2602	246	214	237
2603	244	215	237
2604	239	217	235
2605	240	221	237
2606	242	223	238
2607	242	223	237
2608	239	222	234
2609	0	0	0
2610	0	0	0
2611	0	0	0
2612	0	0	0
2613	0	0	0
2614	0	0	0
2615	0	0	0
2616	0	0	0
2617	0	0	0
2618	0	0	0
2619	0	0	0
2620	0	0	0
2621	0	0	0
2622	0	0	0
2623	0	0	0
2624	0	0	0
2625	0	0	0
2626	0	0	0
2627	0	0	0
2628	0	0	0
2629	0	0	0
2630	0	0	0
2631	0	0	0
2632	0	0	0
2633	0	0	0
2634	0	0	0
2635	0	0	0
2636	0	0	0
2637	0	0	0
2638	0	0	0
2639	0	0	0
2640	0	0	0
2641	0	0	0
2642	0	0	0
2643	0	0	0
2644	0	0	0
2645	0	0	0
2646	0	0	0
2647	0	0	0
2648	0	0	0
2649	0	0	0
2650	0	0	0
2651	0	0	0
2652	0	0	0
2653	0	0	0
2654	0	0	0
2655	0	0	0
2656	0	0	0
2657	0	0	0
2658	0	0	0
2659	0	0	0
2660	0	0	0
2661	0	0	0
2662	0	0	0
2663	0	0	0
2664	0	0	0
2665	0	0	0
2666	0	0	0
2667	0	0	0
2668	0	0	0
2669	0	0	0
2670	0	0	0
2671	0	0	0
2672	0	0	0
2673	0	0	0
2674	0	0	0
2675	0	0	0
2676	0	0	0
2677	247	220	233
2678	245	217	231
2679	244	213	229
2680	247	209	230
2681	246	206	230
2682	244	205	230
2683	244	204	231
2684	244	202	229
2685	240	197	224
2686	241	200	226
2687	245	208	233
2688	246	212	236
2689	241	207	233
2690	241	206	233
2691	245	212	235
2692	247	216	237
2693	244	215	235
2694	242	218	236
2695	238	216	234
2696	236	216	232
2697	239	223	235
2698	0	0	0
2699	0	0	0
2700	0	0	0
2701	0	0	0
2702	0	0	0
2703	0	0	0
2704	0	0	0
2705	0	0	0
2706	0	0	0
2707	0	0	0
2708	0	0	0
2709	0	0	0
2710	0	0	0
2711	0	0	0
2712	0	0	0
2713	0	0	0
2714	0	0	0
2715	0	0	0
2716	0	0	0
2717	0	0	0
2718	0	0	0
2719	0	0	0
2720	0	0	0
2721	0	0	0
2722	0	0	0
2723	0	0	0
2724	0	0	0
2725	0	0	0
2726	0	0	0
2727	0	0	0
2728	0	0	0
2729	0	0	0
2730	0	0	0
2731	0	0	0
2732	0	0	0
2733	0	0	0
2734	0	0	0
2735	0	0	0
2736	0	0	0
2737	0	0	0
2738	0	0	0
2739	0	0	0
2740	0	0	0
2741	0	0	0
2742	0	0	0
2743	0	0	0
2744	0	0	0
2745	0	0	0
2746	0	0	0
2747	0	0	0
2748	0	0	0
2749	0	0	0
2750	0	0	0
2751	0	0	0
2752	0	0	0
2753	0	0	0
2754	0	0	0
2755	0	0	0
2756	0	0	0
2757	0	0	0
2758	0	0	0
2759	0	0	0
2760	0	0	0
2761	0	0	0
2762	0	0	0
2763	0	0	0
2764	0	0	0
2765	0	0	0
2766	0	0	0
2767	0	0	0
2768	242	213	228
2769	242	210	229
2770	248	210	231
2771	247	205	229
2772	243	203	227
2773	243	204	229
2774	244	202	229
2775	240	198	225
2776	244	206	230
2777	247	214	235
2778	240	206	230
2779	235	200	228
2780	241	208	233
2781	244	213	234
2782	241	212	231
2783	238	210	228
2784	235	210	227
2785	0	0	0
2786	0	0	0
2787	0	0	0
2788	0	0	0
2789	0	0	0
2790	0	0	0
2791	0	0	0
2792	0	0	0
2793	0	0	0
2794	0	0	0
2795	0	0	0
2796	0	0	0
2797	0	0	0
2798	0	0	0
2799	0	0	0
2800	0	0	0
2801	0	0	0
2802	0	0	0
2803	0	0	0
2804	0	0	0
2805	0	0	0
2806	0	0	0
2807	0	0	0
2808	0	0	0
2809	0	0	0
2810	0	0	0
2811	0	0	0
2812	0	0	0
2813	0	0	0
2814	0	0	0
2815	0	0	0
2816	0	0	0
2817	0	0	0
2818	0	0	0
2819	0	0	0
2820	0	0	0
2821	0	0	0
2822	0	0	0
2823	0	0	0
2824	0	0	0
2825	0	0	0
2826	0	0	0
2827	0	0	0
2828	0	0	0
2829	0	0	0
2830	0	0	0
2831	0	0	0
2832	0	0	0
2833	0	0	0
2834	0	0	0
2835	0	0	0
2836	0	0	0
2837	0	0	0
2838	0	0	0
2839	0	0	0
2840	0	0	0
2841	0	0	0
2842	0	0	0
2843	0	0	0
2844	0	0	0
2845	0	0	0
2846	0	0	0
2847	0	0	0
2848	0	0	0
2849	0	0	0
2850	0	0	0
2851	0	0	0
2852	0	0	0
2853	0	0	0
2854	0	0	0
2855	0	0	0
2856	0	0	0
2857	0	0	0
2858	0	0	0
2859	244	212	231
2860	248	211	232
2861	247	208	229
2862	245	207	228
2863	246	208	232
2864	248	207	233
2865	243	201	228
2866	247	210	233
2867	246	212	234
2868	236	203	227
2869	240	210	233
2870	247	218	239
2871	242	214	232
2872	236	211	227
2873	234	213	227
2874	234	214	227
2875	233	215	230
2876	0	0	0
2877	0	0	0
2878	0	0	0
2879	0	0	0
2880	0	0	0
2881	0	0	0
2882	0	0	0
2883	0	0	0
2884	0	0	0
2885	0	0	0
2886	0	0	0
2887	0	0	0
2888	0	0	0
2889	0	0	0
2890	0	0	0
2891	0	0	0
2892	0	0	0
2893	0	0	0
2894	0	0	0
2895	0	0	0
2896	0	0	0
2897	0	0	0
2898	0	0	0
2899	0	0	0
2900	0	0	0
2901	0	0	0
2902	0	0	0
2903	0	0	0
2904	0	0	0
2905	0	0	0
2906	0	0	0
2907	0	0	0
2908	0	0	0
2909	0	0	0
2910	0	0	0
2911	0	0	0
2912	0	0	0
2913	0	0	0
2914	0	0	0
2915	0	0	0
2916	0	0	0
2917	0	0	0
2918	0	0	0
2919	0	0	0
2920	0	0	0
2921	0	0	0
2922	0	0	0
2923	0	0	0
2924	0	0	0
2925	0	0	0
2926	0	0	0
2927	0	0	0
2928	0	0	0
2929	0	0	0
2930	0	0	0
2931	0	0	0
2932	0	0	0
2933	0	0	0
2934	0	0	0
2935	0	0	0
2936	0	0	0
2937	0	0	0
2938	0	0	0
2939	0	0	0
2940	0	0	0
2941	0	0	0
2942	0	0	0
2943	0	0	0
2944	0	0	0
2945	0	0	0
2946	0	0	0
2947	0	0	0
2948	0	0	0
2949	245	215	232
2950	249	215	234
2951	249	212	231
2952	249	211	232
2953	250	212	236
2954	250	210	236
2955	244	203	230
2956	244	207	231
2957	243	210	232
2958	244	216	235
2959	248	222	238
2960	247	220	235
2961	242	217	231
2962	239	217	230
2963	237	219	231
2964	236	221	232
2965	0	0	0
2966	0	0	0
2967	0	0	0
2968	0	0	0
2969	0	0	0
2970	0	0	0
2971	0	0	0
2972	0	0	0
2973	0	0	0
2974	0	0	0
2975	0	0	0
2976	0	0	0
2977	0	0	0
2978	0	0	0
2979	0	0	0
2980	0	0	0
2981	0	0	0
2982	0	0	0
2983	0	0	0
2984	0	0	0
2985	0	0	0
2986	0	0	0
2987	0	0	0
2988	0	0	0
2989	0	0	0
2990	0	0	0
2991	0	0	0
2992	0	0	0
2993	0	0	0
2994	0	0	0
2995	0	0	0
2996	0	0	0
2997	0	0	0
2998	0	0	0
2999	0	0	0
3000	0	0	0
3001	0	0	0
3002	0	0	0
3003	0	0	0
3004	0	0	0
3005	0	0	0
3006	0	0	0
3007	0	0	0
3008	0	0	0
3009	0	0	0
3010	0	0	0
3011	0	0	0
3012	0	0	0
3013	0	0	0
3014	0	0	0
3015	0	0	0
3016	0	0	0
3017	0	0	0
3018	0	0	0
3019	0	0	0
3020	0	0	0
3021	0	0	0
3022	0	0	0
3023	0	0	0
3024	0	0	0
3025	0	0	0
3026	0	0	0
3027	0	0	0
3028	0	0	0
3029	0	0	0
3030	0	0	0
3031	0	0	0
3032	0	0	0
3033	0	0	0
3034	0	0	0
3035	0	0	0
3036	0	0	0
3037	0	0	0
3038	0	0	0
3039	243	214	231
3040	248	214	233
3041	247	210	229
3042	248	210	230
3043	250	211	234
3044	250	208	234
3045	246	207	231
3046	240	208	229
3047	239	209	230
3048	247	218	237
3049	243	214	231
3050	239	210	227
3051	243	218	231
3052	242	220	232
3053	236	216	230
3054	0	0	0
3055	0	0	0
3056	0	0	0
3057	0	0	0
3058	0	0	0
3059	0	0	0
3060	0	0	0
3061	0	0	0
3062	0	0	0
3063	0	0	0
3064	0	0	0
3065	0	0	0
3066	0	0	0
3067	0	0	0
3068	0	0	0
3069	0	0	0
3070	0	0	0
3071	0	0	0
3072	0	0	0
3073	0	0	0
3074	0	0	0
3075	0	0	0
3076	0	0	0
3077	0	0	0
3078	0	0	0
3079	0	0	0
3080	0	0	0
3081	0	0	0
3082	0	0	0
3083	0	0	0
3084	0	0	0
3085	0	0	0
3086	0	0	0
3087	0	0	0
3088	0	0	0
3089	0	0	0
3090	0	0	0
3091	0	0	0
3092	0	0	0
3093	0	0	0
3094	0	0	0
3095	0	0	0
3096	0	0	0
3097	0	0	0
3098	0	0	0
3099	0	0	0
3100	0	0	0
3101	0	0	0
3102	0	0	0
3103	0	0	0
3104	0	0	0
3105	0	0	0
3106	0	0	0
3107	0	0	0
3108	0	0	0
3109	0	0	0
3110	0	0	0
3111	0	0	0
3112	0	0	0
3113	0	0	0
3114	0	0	0
3115	0	0	0
3116	0	0	0
3117	0	0	0
3118	0	0	0
3119	0	0	0
3120	0	0	0
3121	0	0	0
3122	0	0	0
3123	0	0	0
3124	0	0	0
3125	0	0	0
3126	0	0	0
3127	0	0	0
3128	0	0	0
3129	245	216	235
3130	249	215	235
3131	249	210	229
3132	250	211	230
3133	251	211	232
3134	253	213	234
3135	249	212	231
3136	241	210	228
3137	241	212	232
3138	244	212	234
3139	240	208	230
3140	241	213	231
3141	244	219	234
3142	238	215	230
3143	0	0	0
3144	0	0	0
3145	0	0	0
3146	0	0	0
3147	0	0	0
3148	0	0	0
3149	0	0	0
3150	0	0	0
3151	0	0	0
3152	0	0	0
3153	0	0	0
3154	0	0	0
3155	0	0	0
3156	0	0	0
3157	0	0	0
3158	0	0	0
3159	0	0	0
3160	0	0	0
3161	0	0	0
3162	0	0	0
3163	0	0	0
3164	0	0	0
3165	0	0	0
3166	0	0	0
3167	0	0	0
3168	0	0	0
3169	0	0	0
3170	0	0	0
3171	0	0	0
3172	0	0	0
3173	0	0	0
3174	0	0	0
3175	0	0	0
3176	0	0	0
3177	0	0	0
3178	0	0	0
3179	0	0	0
3180	0	0	0
3181	0	0	0
3182	0	0	0
3183	0	0	0
3184	0	0	0
3185	0	0	0
3186	0	0	0
3187	0	0	0
3188	0	0	0
3189	0	0	0
3190	0	0	0
3191	0	0	0
3192	0	0	0
3193	0	0	0
3194	0	0	0
3195	0	0	0
3196	0	0	0
3197	0	0	0
3198	0	0	0
3199	0	0	0
3200	0	0	0
3201	0	0	0
3202	0	0	0
3203	0	0	0
3204	0	0	0
3205	0	0	0
3206	0	0	0
3207	0	0	0
3208	0	0	0
3209	0	0	0
3210	0	0	0
3211	0	0	0
3212	0	0	0
3213	0	0	0
3214	0	0	0
3215	0	0	0
3216	0	0	0
3217	0	0	0
3218	0	0	0
3219	248	218	237
3220	252	217	237
3221	248	206	228
3222	248	206	228
3223	247	205	228
3224	248	206	229
3225	246	207	228
3226	242	208	227
3227	246	214	234
3228	246	213	234
3229	243	210	231
3230	242	215	233
3231	0	0	0
3232	0	0	0
3233	0	0	0
3234	0	0	0
3235	0	0	0
3236	0	0	0
3237	0	0	0
3238	0	0	0
3239	0	0	0
3240	0	0	0
3241	0	0	0
3242	0	0	0
3243	0	0	0
3244	0	0	0
3245	0	0	0
3246	0	0	0
3247	0	0	0
3248	0	0	0
3249	0	0	0
3250	0	0	0
3251	0	0	0
3252	0	0	0
3253	0	0	0
3254	0	0	0
3255	0	0	0
3256	0	0	0
3257	0	0	0
3258	0	0	0
3259	0	0	0
3260	0	0	0
3261	0	0	0
3262	0	0	0
3263	0	0	0
3264	0	0	0
3265	0	0	0
3266	0	0	0
3267	0	0	0
3268	0	0	0
3269	0	0	0
3270	0	0	0
3271	0	0	0
3272	0	0	0
3273	0	0	0
3274	0	0	0
3275	0	0	0
3276	0	0	0
3277	0	0	0
3278	0	0	0
3279	0	0	0
3280	0	0	0
3281	0	0	0
3282	0	0	0
3283	0	0	0
3284	0	0	0
3285	0	0	0
3286	0	0	0
3287	0	0	0
3288	0	0	0
3289	0	0	0
3290	0	0	0
3291	0	0	0
3292	0	0	0
3293	0	0	0
3294	0	0	0
3295	0	0	0
3296	0	0	0
3297	0	0	0
3298	0	0	0
3299	0	0	0
3300	0	0	0
3301	0	0	0
3302	0	0	0
3303	0	0	0
3304	0	0	0
3305	0	0	0
3306	0	0	0
3307	0	0	0
3308	246	216	234
3309	251	219	235
3310	248	210	231
3311	244	200	226
3312	247	203	230
3313	246	201	229
3314	246	204	230
3315	246	206	230
3316	245	209	231
3317	248	214	233
3318	246	213	231
3319	242	210	228
3320	244	219	233
3321	0	0	0
3322	0	0	0
3323	0	0	0
3324	0	0	0
3325	0	0	0
3326	0	0	0
3327	0	0	0
3328	0	0	0
3329	0	0	0
3330	0	0	0
3331	0	0	0
3332	0	0	0
3333	0	0	0
3334	0	0	0
3335	0	0	0
3336	0	0	0
3337	0	0	0
3338	0	0	0
3339	0	0	0
3340	0	0	0
3341	0	0	0
3342	0	0	0
3343	0	0	0
3344	0	0	0
3345	0	0	0
3346	0	0	0
3347	0	0	0
3348	0	0	0
3349	0	0	0
3350	0	0	0
3351	0	0	0
3352	0	0	0
3353	0	0	0
3354	0	0	0
3355	0	0	0
3356	0	0	0
3357	0	0	0
3358	0	0	0
3359	0	0	0
3360	0	0	0
3361	0	0	0
3362	0	0	0
3363	0	0	0
3364	0	0	0
3365	0	0	0
3366	0	0	0
3367	0	0	0
3368	0	0	0
3369	0	0	0
3370	0	0	0
3371	0	0	0
3372	0	0	0
3373	0	0	0
3374	0	0	0
3375	0	0	0
3376	0	0	0
3377	0	0	0
3378	0	0	0
3379	0	0	0
3380	0	0	0
3381	0	0	0
3382	0	0	0
3383	0	0	0
3384	0	0	0
3385	0	0	0
3386	0	0	0
3387	0	0	0
3388	0	0	0
3389	0	0	0
3390	0	0	0
3391	0	0	0
3392	0	0	0
3393	0	0	0
3394	0	0	0
3395	0	0	0
3396	0	0	0
3397	238	212	229
3398	251	220	237
3399	248	211	230
3400	239	199	223
3401	243	202	228
3402	251	208	235
3403	247	201	231
3404	246	202	230
3405	248	209	233
3406	248	212	234
3407	245	211	230
3408	239	207	225
3409	237	208	224
3410	242	219	231
3411	242	224	235
3412	0	0	0
3413	0	0	0
3414	0	0	0
3415	0	0	0
3416	0	0	0
3417	0	0	0
3418	0	0	0
3419	0	0	0
3420	0	0	0
3421	0	0	0
3422	0	0	0
3423	0	0	0
3424	0	0	0
3425	0	0	0
3426	0	0	0
3427	0	0	0
3428	0	0	0
3429	0	0	0
3430	0	0	0
3431	0	0	0
3432	0	0	0
3433	0	0	0
3434	0	0	0
3435	0	0	0
3436	0	0	0
3437	0	0	0
3438	0	0	0
3439	0	0	0
3440	0	0	0
3441	0	0	0
3442	0	0	0
3443	0	0	0
3444	0	0	0
3445	0	0	0
3446	0	0	0
3447	0	0	0
3448	0	0	0
3449	0	0	0
3450	0	0	0
3451	0	0	0
3452	0	0	0
3453	0	0	0
3454	0	0	0
3455	0	0	0
3456	0	0	0
3457	0	0	0
3458	0	0	0
3459	0	0	0
3460	0	0	0
3461	0	0	0
3462	0	0	0
3463	0	0	0
3464	0	0	0
3465	0	0	0
3466	0	0	0
3467	0	0	0
3468	0	0	0
3469	0	0	0
3470	0	0	0
3471	0	0	0
3472	0	0	0
3473	0	0	0
3474	0	0	0
3475	0	0	0
3476	0	0	0
3477	0	0	0
3478	0	0	0
3479	0	0	0
3480	0	0	0
3481	0	0	0
3482	0	0	0
3483	0	0	0
3484	0	0	0
3485	0	0	0
3486	239	219	229
3487	239	213	229
3488	245	211	230
3489	243	203	226
3490	244	204	228
3491	246	205	231
3492	246	202	230
3493	241	196	227
3494	244	203	231
3495	246	208	232
3496	245	208	230
3497	242	208	228
3498	240	210	228
3499	238	211	228
3500	242	219	232
3501	241	224	234
3502	0	0	0
3503	0	0	0
3504	0	0	0
3505	0	0	0
3506	0	0	0
3507	0	0	0
3508	0	0	0
3509	0	0	0
3510	0	0	0
3511	0	0	0
3512	0	0	0
3513	0	0	0
3514	0	0	0
3515	0	0	0
3516	0	0	0
3517	0	0	0
3518	0	0	0
3519	0	0	0
3520	0	0	0
3521	0	0	0
3522	0	0	0
3523	0	0	0
3524	0	0	0
3525	0	0	0
3526	0	0	0
3527	0	0	0
3528	0	0	0
3529	0	0	0
3530	0	0	0
3531	0	0	0
3532	0	0	0
3533	0	0	0
3534	0	0	0
3535	0	0	0
3536	0	0	0
3537	0	0	0
3538	0	0	0
3539	0	0	0
3540	0	0	0
3541	0	0	0
3542	0	0	0
3543	0	0	0
3544	0	0	0
3545	0	0	0
3546	0	0	0
3547	0	0	0
3548	0	0	0
3549	0	0	0
3550	0	0	0
3551	0	0	0
3552	0	0	0
3553	0	0	0
3554	0	0	0
3555	0	0	0
3556	0	0	0
3557	0	0	0
3558	0	0	0
3559	0	0	0
3560	0	0	0
3561	0	0	0
3562	0	0	0
3563	0	0	0
3564	0	0	0
3565	0	0	0
3566	0	0	0
3567	0	0	0
3568	0	0	0
3569	0	0	0
3570	0	0	0
3571	0	0	0
3572	0	0	0
3573	0	0	0
3574	0	0	0
3575	0	0	0
3576	241	219	230
3577	238	210	226
3578	239	204	225
3579	247	210	231
3580	255	216	238
3581	244	199	227
3582	233	189	220
3583	240	202	229
3584	247	211	234
3585	244	208	230
3586	244	209	229
3587	243	210	229
3588	243	213	230
3589	240	212	229
3590	244	219	233
3591	241	221	232
3592	0	0	0
3593	0	0	0
3594	0	0	0
3595	0	0	0
3596	0	0	0
3597	0	0	0
3598	0	0	0
3599	0	0	0
3600	0	0	0
3601	0	0	0
3602	0	0	0
3603	0	0	0
3604	0	0	0
3605	0	0	0
3606	0	0	0
3607	0	0	0
3608	0	0	0
3609	0	0	0
3610	0	0	0
3611	0	0	0
3612	0	0	0
3613	0	0	0
3614	0	0	0
3615	0	0	0
3616	0	0	0
3617	0	0	0
3618	0	0	0
3619	0	0	0
3620	0	0	0
3621	0	0	0
3622	0	0	0
3623	0	0	0
3624	0	0	0
3625	0	0	0
3626	0	0	0
3627	0	0	0
3628	0	0	0
3629	0	0	0
3630	0	0	0
3631	0	0	0
3632	0	0	0
3633	0	0	0
3634	0	0	0
3635	0	0	0
3636	0	0	0
3637	0	0	0
3638	0	0	0
3639	0	0	0
3640	0	0	0
3641	0	0	0
3642	0	0	0
3643	0	0	0
3644	0	0	0
3645	0	0	0
3646	0	0	0
3647	0	0	0
3648	0	0	0
3649	0	0	0
3650	0	0	0
3651	0	0	0
3652	0	0	0
3653	0	0	0
3654	0	0	0
3655	0	0	0
3656	0	0	0
3657	0	0	0
3658	0	0	0
3659	0	0	0
3660	0	0	0
3661	0	0	0
3662	0	0	0
3663	0	0	0
3664	0	0	0
3665	0	0	0
3666	0	0	0
3667	240	208	226
3668	246	213	231
3669	254	218	237
3670	254	209	233
3671	241	192	223
3672	244	204	230
3673	250	216	236
3674	249	214	234
3675	247	211	232
3676	245	211	230
3677	244	212	229
3678	243	212	228
3679	240	211	228
3680	242	216	231
3681	0	0	0
3682	0	0	0
3683	0	0	0
3684	0	0	0
3685	0	0	0
3686	0	0	0
3687	0	0	0
3688	0	0	0
3689	0	0	0
3690	0	0	0
3691	0	0	0
3692	0	0	0
3693	0	0	0
3694	0	0	0
3695	0	0	0
3696	0	0	0
3697	0	0	0
3698	0	0	0
3699	0	0	0
3700	0	0	0
3701	0	0	0
3702	0	0	0
3703	0	0	0
3704	0	0	0
3705	0	0	0
3706	0	0	0
3707	0	0	0
3708	0	0	0
3709	0	0	0
3710	0	0	0
3711	0	0	0
3712	0	0	0
3713	0	0	0
3714	0	0	0
3715	0	0	0
3716	0	0	0
3717	0	0	0
3718	0	0	0
3719	0	0	0
3720	0	0	0
3721	0	0	0
3722	0	0	0
3723	0	0	0
3724	0	0	0
3725	0	0	0
3726	0	0	0
3727	0	0	0
3728	0	0	0
3729	0	0	0
3730	0	0	0
3731	0	0	0
3732	0	0	0
3733	0	0	0
3734	0	0	0
3735	0	0	0
3736	0	0	0
3737	0	0	0
3738	0	0	0
3739	0	0	0
3740	0	0	0
3741	0	0	0
3742	0	0	0
3743	0	0	0
3744	0	0	0
3745	0	0	0
3746	0	0	0
3747	0	0	0
3748	0	0	0
3749	0	0	0
3750	0	0	0
3751	0	0	0
3752	0	0	0
3753	0	0	0
3754	0	0	0
3755	0	0	0
3756	246	216	230
3757	245	211	229
3758	252	216	234
3759	253	212	233
3760	248	200	228
3761	241	190	223
3762	251	206	234
3763	249	206	231
3764	248	204	228
3765	246	204	229
3766	239	202	226
3767	243	212	229
3768	244	213	229
3769	238	208	226
3770	0	0	0
3771	0	0	0
3772	0	0	0
3773	0	0	0
3774	0	0	0
3775	0	0	0
3776	0	0	0
3777	0	0	0
3778	0	0	0
3779	0	0	0
3780	0	0	0
3781	0	0	0
3782	0	0	0
3783	0	0	0
3784	0	0	0
3785	0	0	0
3786	0	0	0
3787	0	0	0
3788	0	0	0
3789	0	0	0
3790	0	0	0
3791	0	0	0
3792	0	0	0
3793	0	0	0
3794	0	0	0
3795	0	0	0
3796	0	0	0
3797	0	0	0
3798	0	0	0
3799	0	0	0
3800	0	0	0
3801	0	0	0
3802	0	0	0
3803	0	0	0
3804	0	0	0
3805	0	0	0
3806	0	0	0
3807	0	0	0
3808	0	0	0
3809	0	0	0
3810	0	0	0
3811	0	0	0
3812	0	0	0
3813	0	0	0
3814	0	0	0
3815	0	0	0
3816	0	0	0
3817	0	0	0
3818	0	0	0
3819	0	0	0
3820	0	0	0
3821	0	0	0
3822	0	0	0
3823	0	0	0
3824	0	0	0
3825	0	0	0
3826	0	0	0
3827	0	0	0
3828	0	0	0
3829	0	0	0
3830	0	0	0
3831	0	0	0
3832	0	0	0
3833	0	0	0
3834	0	0	0
3835	0	0	0
3836	0	0	0
3837	0	0	0
3838	0	0	0
3839	0	0	0
3840	0	0	0
3841	0	0	0
3842	0	0	0
3843	0	0	0
3844	0	0	0
3845	243	218	229
3846	243	214	228
3847	243	208	226
3848	247	207	228
3849	247	204	227
3850	246	197	226
3851	241	187	223
3852	247	195	230
3853	247	197	229
3854	248	199	230
3855	246	200	232
3856	245	207	234
3857	248	216	235
3858	244	212	231
3859	239	207	228
3860	0	0	0
3861	0	0	0
3862	0	0	0
3863	0	0	0
3864	0	0	0
3865	0	0	0
3866	0	0	0
3867	0	0	0
3868	0	0	0
3869	0	0	0
3870	0	0	0
3871	0	0	0
3872	0	0	0
3873	0	0	0
3874	0	0	0
3875	0	0	0
3876	0	0	0
3877	0	0	0
3878	0	0	0
3879	0	0	0
3880	0	0	0
3881	0	0	0
3882	0	0	0
3883	0	0	0
3884	0	0	0
3885	0	0	0
3886	0	0	0
3887	0	0	0
3888	0	0	0
3889	0	0	0
3890	0	0	0
3891	0	0	0
3892	0	0	0
3893	0	0	0
3894	0	0	0
3895	0	0	0
3896	0	0	0
3897	0	0	0
3898	0	0	0
3899	0	0	0
3900	0	0	0
3901	0	0	0
3902	0	0	0
3903	0	0	0
3904	0	0	0
3905	0	0	0
3906	0	0	0
3907	0	0	0
3908	0	0	0
3909	0	0	0
3910	0	0	0
3911	0	0	0
3912	0	0	0
3913	0	0	0
3914	0	0	0
3915	0	0	0
3916	0	0	0
3917	0	0	0
3918	0	0	0
3919	0	0	0
3920	0	0	0
3921	0	0	0
3922	0	0	0
3923	0	0	0
3924	0	0	0
3925	0	0	0
3926	0	0	0
3927	0	0	0
3928	0	0	0
3929	0	0	0
3930	0	0	0
3931	0	0	0
3932	0	0	0
3933	0	0	0
3934	0	0	0
3935	240	225	232
3936	243	222	232
3937	241	211	227
3938	247	211	231
3939	244	201	227
3940	244	196	227
3941	243	190	227
3942	252	199	235
3943	248	194	230
3944	245	195	230
3945	245	198	233
3946	248	207	238
3947	247	210	235
3948	241	204	228
3949	238	206	228
3950	241	216	233
3951	0	0	0
3952	0	0	0
3953	0	0	0
3954	0	0	0
3955	0	0	0
3956	0	0	0
3957	0	0	0
3958	0	0	0
3959	0	0	0
3960	0	0	0
3961	0	0	0
3962	0	0	0
3963	0	0	0
3964	0	0	0
3965	0	0	0
3966	0	0	0
3967	0	0	0
3968	0	0	0
3969	0	0	0
3970	0	0	0
3971	0	0	0
3972	0	0	0
3973	0	0	0
3974	0	0	0
3975	0	0	0
3976	0	0	0
3977	0	0	0
3978	0	0	0
3979	0	0	0
3980	0	0	0
3981	0	0	0
3982	0	0	0
3983	0	0	0
3984	0	0	0
3985	0	0	0
3986	0	0	0
3987	0	0	0
3988	0	0	0
3989	0	0	0
3990	0	0	0
3991	0	0	0
3992	0	0	0
3993	0	0	0
3994	0	0	0
3995	0	0	0
3996	0	0	0
3997	0	0	0
3998	0	0	0
3999	0	0	0
4000	0	0	0
4001	0	0	0
4002	0	0	0
4003	0	0	0
4004	0	0	0
4005	0	0	0
4006	0	0	0
4007	0	0	0
4008	0	0	0
4009	0	0	0
4010	0	0	0
4011	0	0	0
4012	0	0	0
4013	0	0	0
4014	0	0	0
4015	0	0	0
4016	0	0	0
4017	0	0	0
4018	0	0	0
4019	0	0	0
4020	0	0	0
4021	0	0	0
4022	0	0	0
4023	0	0	0
4024	0	0	0
4025	243	234	237
4026	243	225	233
4027	243	215	231
4028	248	211	233
4029	246	202	232
4030	247	199	232
4031	245	192	229
4032	249	194	230
4033	244	188	226
4034	243	192	228
4035	242	195	232
4036	244	200	234
4037	244	203	232
4038	244	206	231
4039	241	207	230
4040	242	216	233
4041	244	226	236
4042	0	0	0
4043	0	0	0
4044	0	0	0
4045	0	0	0
4046	0	0	0
4047	0	0	0
4048	0	0	0
4049	0	0	0
4050	0	0	0
4051	0	0	0
4052	0	0	0
4053	0	0	0
4054	0	0	0
4055	0	0	0
4056	0	0	0
4057	0	0	0
4058	0	0	0
4059	0	0	0
4060	0	0	0
4061	0	0	0
4062	0	0	0
4063	0	0	0
4064	0	0	0
4065	0	0	0
4066	0	0	0
4067	0	0	0
4068	0	0	0
4069	0	0	0
4070	0	0	0
4071	0	0	0
4072	0	0	0
4073	0	0	0
4074	0	0	0
4075	0	0	0
4076	0	0	0
4077	0	0	0
4078	0	0	0
4079	0	0	0
4080	0	0	0
4081	0	0	0
4082	0	0	0
4083	0	0	0
4084	0	0	0
4085	0	0	0
4086	0	0	0
4087	0	0	0
4088	0	0	0
4089	0	0	0
4090	0	0	0
4091	0	0	0
4092	0	0	0
4093	0	0	0
4094	0	0	0
4095	0	0	0
4096	0	0	0
4097	0	0	0
4098	0	0	0
4099	0	0	0
4100	0	0	0
4101	0	0	0
4102	0	0	0
4103	0	0	0
4104	0	0	0
4105	0	0	0
4106	0	0	0
4107	0	0	0
4108	0	0	0
4109	0	0	0
4110	0	0	0
4111	0	0	0
4112	0	0	0
4113	0	0	0
4114	0	0	0
4115	242	233	235
4116	244	224	232
4117	244	212	230
4118	250	209	234
4119	248	199	231
4120	245	194	230
4121	244	190	228
4122	247	191	229
4123	244	189	227
4124	243	192	229
4125	243	196	232
4126	244	201	235
4127	243	201	232
4128	246	206	233
4129	243	207	231
4130	242	215	233
4131	241	221	233
4132	0	0	0
4133	0	0	0
4134	0	0	0
4135	0	0	0
4136	0	0	0
4137	0	0	0
4138	0	0	0
4139	0	0	0
4140	0	0	0
4141	0	0	0
4142	0	0	0
4143	0	0	0
4144	0	0	0
4145	0	0	0
4146	0	0	0
4147	0	0	0
4148	0	0	0
4149	0	0	0
4150	0	0	0
4151	0	0	0
4152	0	0	0
4153	0	0	0
4154	0	0	0
4155	0	0	0
4156	0	0	0
4157	0	0	0
4158	0	0	0
4159	0	0	0
4160	0	0	0
4161	0	0	0
4162	0	0	0
4163	0	0	0
4164	0	0	0
4165	0	0	0
4166	0	0	0
4167	0	0	0
4168	0	0	0
4169	0	0	0
4170	0	0	0
4171	0	0	0
4172	0	0	0
4173	0	0	0
4174	0	0	0
4175	0	0	0
4176	0	0	0
4177	0	0	0
4178	0	0	0
4179	0	0	0
4180	0	0	0
4181	0	0	0
4182	0	0	0
4183	0	0	0
4184	0	0	0
4185	0	0	0
4186	0	0	0
4187	0	0	0
4188	0	0	0
4189	0	0	0
4190	0	0	0
4191	0	0	0
4192	0	0	0
4193	0	0	0
4194	0	0	0
4195	0	0	0
4196	0	0	0
4197	0	0	0
4198	0	0	0
4199	0	0	0
4200	0	0	0
4201	0	0	0
4202	0	0	0
4203	0	0	0
4204	0	0	0
4205	243	232	234
4206	239	217	228
4207	238	205	225
4208	243	200	227
4209	241	190	223
4210	244	192	227
4211	244	189	228
4212	245	191	231
4213	242	188	228
4214	243	193	231
4215	242	196	231
4216	238	195	229
4217	238	196	229
4218	243	202	231
4219	241	203	228
4220	240	210	229
4221	238	217	230
4222	0	0	0
4223	0	0	0
4224	0	0	0
4225	0	0	0
4226	0	0	0
4227	0	0	0
4228	0	0	0
4229	0	0	0
4230	0	0	0
4231	0	0	0
4232	0	0	0
4233	0	0	0
4234	0	0	0
4235	0	0	0
4236	0	0	0
4237	0	0	0
4238	0	0	0
4239	0	0	0
4240	0	0	0
4241	0	0	0
4242	0	0	0
4243	0	0	0
4244	0	0	0
4245	0	0	0
4246	0	0	0
4247	0	0	0
4248	0	0	0
4249	0	0	0
4250	0	0	0
4251	0	0	0
4252	0	0	0
4253	0	0	0
4254	0	0	0
4255	0	0	0
4256	0	0	0
4257	0	0	0
4258	0	0	0
4259	0	0	0
4260	0	0	0
4261	0	0	0
4262	0	0	0
4263	0	0	0
4264	0	0	0
4265	0	0	0
4266	0	0	0
4267	0	0	0
4268	0	0	0
4269	0	0	0
4270	0	0	0
4271	0	0	0
4272	0	0	0
4273	0	0	0
4274	0	0	0
4275	0	0	0
4276	0	0	0
4277	0	0	0
4278	0	0	0
4279	0	0	0
4280	0	0	0
4281	0	0	0
4282	0	0	0
4283	0	0	0
4284	0	0	0
4285	0	0	0
4286	0	0	0
4287	0	0	0
4288	0	0	0
4289	0	0	0
4290	0	0	0
4291	0	0	0
4292	0	0	0
4293	0	0	0
4294	0	0	0
4295	247	233	236
4296	238	216	227
4297	237	207	225
4298	239	201	225
4299	239	194	223
4300	250	200	233
4301	240	183	225
4302	237	182	225
4303	241	190	229
4304	246	197	233
4305	242	195	230
4306	233	192	225
4307	237	199	229
4308	243	206	233
4309	242	207	229
4310	243	216	232
4311	238	215	230
4312	0	0	0
4313	0	0	0
4314	0	0	0
4315	0	0	0
4316	0	0	0
4317	0	0	0
4318	0	0	0
4319	0	0	0
4320	0	0	0
4321	0	0	0
4322	0	0	0
4323	0	0	0
4324	0	0	0
4325	0	0	0
4326	0	0	0
4327	0	0	0
4328	0	0	0
4329	0	0	0
4330	0	0	0
4331	0	0	0
4332	0	0	0
4333	0	0	0
4334	0	0	0
4335	0	0	0
4336	0	0	0
4337	0	0	0
4338	0	0	0
4339	0	0	0
4340	0	0	0
4341	0	0	0
4342	0	0	0
4343	0	0	0
4344	0	0	0
4345	0	0	0
4346	0	0	0
4347	0	0	0
4348	0	0	0
4349	0	0	0
4350	0	0	0
4351	0	0	0
4352	0	0	0
4353	0	0	0
4354	0	0	0
4355	0	0	0
4356	0	0	0
4357	0	0	0
4358	0	0	0
4359	0	0	0
4360	0	0	0
4361	0	0	0
4362	0	0	0
4363	0	0	0
4364	0	0	0
4365	0	0	0
4366	0	0	0
4367	0	0	0
4368	0	0	0
4369	0	0	0
4370	0	0	0
4371	0	0	0
4372	0	0	0
4373	0	0	0
4374	0	0	0
4375	0	0	0
4376	0	0	0
4377	0	0	0
4378	0	0	0
4379	0	0	0
4380	0	0	0
4381	0	0	0
4382	0	0	0
4383	0	0	0
4384	0	0	0
4385	246	232	235
4386	240	220	229
4387	238	211	226
4388	242	207	227
4389	243	200	227
4390	244	192	227
4391	234	176	222
4392	240	187	231
4393	244	194	232
4394	248	198	233
4395	244	196	231
4396	239	199	230
4397	241	205	233
4398	246	210	234
4399	245	211	231
4400	241	212	229
4401	236	212	229
4402	0	0	0
4403	0	0	0
4404	0	0	0
4405	0	0	0
4406	0	0	0
4407	0	0	0
4408	0	0	0
4409	0	0	0
4410	0	0	0
4411	0	0	0
4412	0	0	0
4413	0	0	0
4414	0	0	0
4415	0	0	0
4416	0	0	0
4417	0	0	0
4418	0	0	0
4419	0	0	0
4420	0	0	0
4421	0	0	0
4422	0	0	0
4423	0	0	0
4424	0	0	0
4425	0	0	0
4426	0	0	0
4427	0	0	0
4428	0	0	0
4429	0	0	0
4430	0	0	0
4431	0	0	0
4432	0	0	0
4433	0	0	0
4434	0	0	0
4435	0	0	0
4436	0	0	0
4437	0	0	0
4438	0	0	0
4439	0	0	0
4440	0	0	0
4441	0	0	0
4442	0	0	0
4443	0	0	0
4444	0	0	0
4445	0	0	0
4446	0	0	0
4447	0	0	0
4448	0	0	0
4449	0	0	0
4450	0	0	0
4451	0	0	0
4452	0	0	0
4453	0	0	0
4454	0	0	0
4455	0	0	0
4456	0	0	0
4457	0	0	0
4458	0	0	0
4459	0	0	0
4460	0	0	0
4461	0	0	0
4462	0	0	0
4463	0	0	0
4464	0	0	0
4465	0	0	0
4466	0	0	0
4467	0	0	0
4468	0	0	0
4469	0	0	0
4470	0	0	0
4471	0	0	0
4472	0	0	0
4473	0	0	0
4474	0	0	0
4475	247	234	235
4476	242	223	230
4477	242	213	227
4478	250	212	231
4479	241	192	223
4480	234	180	219
4481	234	179	225
4482	247	194	237
4483	243	187	230
4484	243	189	229
4485	238	186	225
4486	237	190	226
4487	244	205	233
4488	246	208	232
4489	244	209	230
4490	240	210	228
4491	235	210	228
4492	0	0	0
4493	0	0	0
4494	0	0	0
4495	0	0	0
4496	0	0	0
4497	0	0	0
4498	0	0	0
4499	0	0	0
4500	0	0	0
4501	0	0	0
4502	0	0	0
4503	0	0	0
4504	0	0	0
4505	0	0	0
4506	0	0	0
4507	0	0	0
4508	0	0	0
4509	0	0	0
4510	0	0	0
4511	0	0	0
4512	0	0	0
4513	0	0	0
4514	0	0	0
4515	0	0	0
4516	0	0	0
4517	0	0	0
4518	0	0	0
4519	0	0	0
4520	0	0	0
4521	0	0	0
4522	0	0	0
4523	0	0	0
4524	0	0	0
4525	0	0	0
4526	0	0	0
4527	0	0	0
4528	0	0	0
4529	0	0	0
4530	0	0	0
4531	0	0	0
4532	0	0	0
4533	0	0	0
4534	0	0	0
4535	0	0	0
4536	0	0	0
4537	0	0	0
4538	0	0	0
4539	0	0	0
4540	0	0	0
4541	0	0	0
4542	0	0	0
4543	0	0	0
4544	0	0	0
4545	0	0	0
4546	0	0	0
4547	0	0	0
4548	0	0	0
4549	0	0	0
4550	0	0	0
4551	0	0	0
4552	0	0	0
4553	0	0	0
4554	0	0	0
4555	0	0	0
4556	0	0	0
4557	0	0	0
4558	0	0	0
4559	0	0	0
4560	0	0	0
4561	0	0	0
4562	0	0	0
4563	0	0	0
4564	0	0	0
4565	246	236	235
4566	242	222	228
4567	243	214	227
4568	246	203	226
4569	237	183	220
4570	239	185	226
4571	239	184	230
4572	244	186	234
4573	242	181	229
4574	243	183	230
4575	237	179	226
4576	241	192	231
4577	247	206	236
4578	248	208	233
4579	246	210	231
4580	242	210	230
4581	237	211	230
4582	0	0	0
4583	0	0	0
4584	0	0	0
4585	0	0	0
4586	0	0	0
4587	0	0	0
4588	0	0	0
4589	0	0	0
4590	0	0	0
4591	0	0	0
4592	0	0	0
4593	0	0	0
4594	0	0	0
4595	0	0	0
4596	0	0	0
4597	0	0	0
4598	0	0	0
4599	0	0	0
4600	0	0	0
4601	0	0	0
4602	0	0	0
4603	0	0	0
4604	0	0	0
4605	0	0	0
4606	0	0	0
4607	0	0	0
4608	0	0	0
4609	0	0	0
4610	0	0	0
4611	0	0	0
4612	0	0	0
4613	0	0	0
4614	0	0	0
4615	0	0	0
4616	0	0	0
4617	0	0	0
4618	0	0	0
4619	0	0	0
4620	0	0	0
4621	0	0	0
4622	0	0	0
4623	0	0	0
4624	0	0	0
4625	0	0	0
4626	0	0	0
4627	0	0	0
4628	0	0	0
4629	0	0	0
4630	0	0	0
4631	0	0	0
4632	0	0	0
4633	0	0	0
4634	0	0	0
4635	0	0	0
4636	0	0	0
4637	0	0	0
4638	0	0	0
4639	0	0	0
4640	0	0	0
4641	0	0	0
4642	0	0	0
4643	0	0	0
4644	0	0	0
4645	0	0	0
4646	0	0	0
4647	0	0	0
4648	0	0	0
4649	0	0	0
4650	0	0	0
4651	0	0	0
4652	0	0	0
4653	0	0	0
4654	0	0	0
4655	245	237	235
4656	243	224	229
4657	243	212	226
4658	244	200	224
4659	239	185	221
4660	245	189	231
4661	244	184	231
4662	246	184	233
4663	245	179	231
4664	248	183	233
4665	240	178	227
4666	241	189	230
4667	246	202	235
4668	247	204	233
4669	246	206	231
4670	242	207	230
4671	240	210	231
4672	0	0	0
4673	0	0	0
4674	0	0	0
4675	0	0	0
4676	0	0	0
4677	0	0	0
4678	0	0	0
4679	0	0	0
4680	0	0	0
4681	0	0	0
4682	0	0	0
4683	0	0	0
4684	0	0	0
4685	0	0	0
4686	0	0	0
4687	0	0	0
4688	0	0	0
4689	0	0	0
4690	0	0	0
4691	0	0	0
4692	0	0	0
4693	0	0	0
4694	0	0	0
4695	0	0	0
4696	0	0	0
4697	0	0	0
4698	0	0	0
4699	0	0	0
4700	0	0	0
4701	0	0	0
4702	0	0	0
4703	0	0	0
4704	0	0	0
4705	0	0	0
4706	0	0	0
4707	0	0	0
4708	0	0	0
4709	0	0	0
4710	0	0	0
4711	0	0	0
4712	0	0	0
4713	0	0	0
4714	0	0	0
4715	0	0	0
4716	0	0	0
4717	0	0	0
4718	0	0	0
4719	0	0	0
4720	0	0	0
4721	0	0	0
4722	0	0	0
4723	0	0	0
4724	0	0	0
4725	0	0	0
4726	0	0	0
4727	0	0	0
4728	0	0	0
4729	0	0	0
4730	0	0	0
4731	0	0	0
4732	0	0	0
4733	0	0	0
4734	0	0	0
4735	0	0	0
4736	0	0	0
4737	0	0	0
4738	0	0	0
4739	0	0	0
4740	0	0	0
4741	0	0	0
4742	0	0	0
4743	0	0	0
4744	0	0	0
4745	245	238	238
4746	243	223	230
4747	244	211	225
4748	246	201	225
4749	242	186	222
4750	245	186	227
4751	244	180	227
4752	246	179	230
4753	244	175	227
4754	247	178	230
4755	240	174	225
4756	244	188	231
4757	248	201	236
4758	246	201	231
4759	244	202	230
4760	240	203	228
4761	237	205	228
4762	238	213	231
4763	0	0	0
4764	0	0	0
4765	0	0	0
4766	0	0	0
4767	0	0	0
4768	0	0	0
4769	0	0	0
4770	0	0	0
4771	0	0	0
4772	0	0	0
4773	0	0	0
4774	0	0	0
4775	0	0	0
4776	0	0	0
4777	0	0	0
4778	0	0	0
4779	0	0	0
4780	0	0	0
4781	0	0	0
4782	0	0	0
4783	0	0	0
4784	0	0	0
4785	0	0	0
4786	0	0	0
4787	0	0	0
4788	0	0	0
4789	0	0	0
4790	0	0	0
4791	0	0	0
4792	0	0	0
4793	0	0	0
4794	0	0	0
4795	0	0	0
4796	0	0	0
4797	0	0	0
4798	0	0	0
4799	0	0	0
4800	0	0	0
4801	0	0	0
4802	0	0	0
4803	0	0	0
4804	0	0	0
4805	0	0	0
4806	0	0	0
4807	0	0	0
4808	0	0	0
4809	0	0	0
4810	0	0	0
4811	0	0	0
4812	0	0	0
4813	0	0	0
4814	0	0	0
4815	0	0	0
4816	0	0	0
4817	0	0	0
4818	0	0	0
4819	0	0	0
4820	0	0	0
4821	0	0	0
4822	0	0	0
4823	0	0	0
4824	0	0	0
4825	0	0	0
4826	0	0	0
4827	0	0	0
4828	0	0	0
4829	0	0	0
4830	0	0	0
4831	0	0	0
4832	0	0	0
4833	0	0	0
4834	0	0	0
4835	245	237	238
4836	244	223	231
4837	245	210	225
4838	250	201	226
4839	242	182	219
4840	243	180	223
4841	247	182	229
4842	250	183	232
4843	244	172	226
4844	246	175	229
4845	243	174	228
4846	250	190	236
4847	246	192	232
4848	239	189	226
4849	243	202	231
4850	237	203	227
4851	234	207	227
4852	233	214	229
4853	0	0	0
4854	0	0	0
4855	0	0	0
4856	0	0	0
4857	0	0	0
4858	0	0	0
4859	0	0	0
4860	0	0	0
4861	0	0	0
4862	0	0	0
4863	0	0	0
4864	0	0	0
4865	0	0	0
4866	0	0	0
4867	0	0	0
4868	0	0	0
4869	0	0	0
4870	0	0	0
4871	0	0	0
4872	0	0	0
4873	0	0	0
4874	0	0	0
4875	0	0	0
4876	0	0	0
4877	0	0	0
4878	0	0	0
4879	0	0	0
4880	0	0	0
4881	0	0	0
4882	0	0	0
4883	0	0	0
4884	0	0	0
4885	0	0	0
4886	0	0	0
4887	0	0	0
4888	0	0	0
4889	0	0	0
4890	0	0	0
4891	0	0	0
4892	0	0	0
4893	0	0	0
4894	0	0	0
4895	0	0	0
4896	0	0	0
4897	0	0	0
4898	0	0	0
4899	0	0	0
4900	0	0	0
4901	0	0	0
4902	0	0	0
4903	0	0	0
4904	0	0	0
4905	0	0	0
4906	0	0	0
4907	0	0	0
4908	0	0	0
4909	0	0	0
4910	0	0	0
4911	0	0	0
4912	0	0	0
4913	0	0	0
4914	0	0	0
4915	0	0	0
4916	0	0	0
4917	0	0	0
4918	0	0	0
4919	0	0	0
4920	0	0	0
4921	0	0	0
4922	0	0	0
4923	0	0	0
4924	0	0	0
4925	247	237	237
4926	244	221	230
4927	246	209	226
4928	248	196	224
4929	240	176	217
4930	247	182	227
4931	251	185	232
4932	247	177	230
4933	241	166	225
4934	243	171	229
4935	241	171	228
4936	243	178	230
4937	239	180	227
4938	243	193	231
4939	246	206	235
4940	241	208	232
4941	237	211	229
4942	234	216	228
4943	0	0	0
4944	0	0	0
4945	0	0	0
4946	0	0	0
4947	0	0	0
4948	0	0	0
4949	0	0	0
4950	0	0	0
4951	0	0	0
4952	0	0	0
4953	0	0	0
4954	0	0	0
4955	0	0	0
4956	0	0	0
4957	0	0	0
4958	0	0	0
4959	0	0	0
4960	0	0	0
4961	0	0	0
4962	0	0	0
4963	0	0	0
4964	0	0	0
4965	0	0	0
4966	0	0	0
4967	0	0	0
4968	0	0	0
4969	0	0	0
4970	0	0	0
4971	0	0	0
4972	0	0	0
4973	0	0	0
4974	0	0	0
4975	0	0	0
4976	0	0	0
4977	0	0	0
4978	0	0	0
4979	0	0	0
4980	0	0	0
4981	0	0	0
4982	0	0	0
4983	0	0	0
4984	0	0	0
4985	0	0	0
4986	0	0	0
4987	0	0	0
4988	0	0	0
4989	0	0	0
4990	0	0	0
4991	0	0	0
4992	0	0	0
4993	0	0	0
4994	0	0	0
4995	0	0	0
4996	0	0	0
4997	0	0	0
4998	0	0	0
4999	0	0	0
5000	0	0	0
5001	0	0	0
5002	0	0	0
5003	0	0	0
5004	0	0	0
5005	0	0	0
5006	0	0	0
5007	0	0	0
5008	0	0	0
5009	0	0	0
5010	0	0	0
5011	0	0	0
5012	0	0	0
5013	0	0	0
5014	0	0	0
5015	250	237	236
5016	245	219	228
5017	247	210	227
5018	247	196	225
5019	240	176	218
5020	251	185	230
5021	252	183	232
5022	246	174	228
5023	244	172	230
5024	246	177	234
5025	242	174	231
5026	244	181	233
5027	242	184	231
5028	250	199	238
5029	245	200	233
5030	241	202	230
5031	239	210	229
5032	0	0	0
5033	0	0	0
5034	0	0	0
5035	0	0	0
5036	0	0	0
5037	0	0	0
5038	0	0	0
5039	0	0	0
5040	0	0	0
5041	0	0	0
5042	0	0	0
5043	0	0	0
5044	0	0	0
5045	0	0	0
5046	0	0	0
5047	0	0	0
5048	0	0	0
5049	0	0	0
5050	0	0	0
5051	0	0	0
5052	0	0	0
5053	0	0	0
5054	0	0	0
5055	0	0	0
5056	0	0	0
5057	0	0	0
5058	0	0	0
5059	0	0	0
5060	0	0	0
5061	0	0	0
5062	0	0	0
5063	0	0	0
5064	0	0	0
5065	0	0	0
5066	0	0	0
5067	0	0	0
5068	0	0	0
5069	0	0	0
5070	0	0	0
5071	0	0	0
5072	0	0	0
5073	0	0	0
5074	0	0	0
5075	0	0	0
5076	0	0	0
5077	0	0	0
5078	0	0	0
5079	0	0	0
5080	0	0	0
5081	0	0	0
5082	0	0	0
5083	0	0	0
5084	0	0	0
5085	0	0	0
5086	0	0	0
5087	0	0	0
5088	0	0	0
5089	0	0	0
5090	0	0	0
5091	0	0	0
5092	0	0	0
5093	0	0	0
5094	0	0	0
5095	0	0	0
5096	0	0	0
5097	0	0	0
5098	0	0	0
5099	0	0	0
5100	0	0	0
5101	0	0	0
5102	0	0	0
5103	0	0	0
5104	0	0	0
5105	249	235	234
5106	247	221	228
5107	250	211	228
5108	249	197	226
5109	242	177	219
5110	252	183	230
5111	252	181	231
5112	253	181	234
5113	251	180	235
5114	250	181	236
5115	246	178	233
5116	247	184	235
5117	246	187	233
5118	248	193	235
5119	243	193	231
5120	242	202	232
5121	240	210	230
5122	0	0	0
5123	0	0	0
5124	0	0	0
5125	0	0	0
5126	0	0	0
5127	0	0	0
5128	0	0	0
5129	0	0	0
5130	0	0	0
5131	0	0	0
5132	0	0	0
5133	0	0	0
5134	0	0	0
5135	0	0	0
5136	0	0	0
5137	0	0	0
5138	0	0	0
5139	0	0	0
5140	0	0	0
5141	0	0	0
5142	0	0	0
5143	0	0	0
5144	0	0	0
5145	0	0	0
5146	0	0	0
5147	0	0	0
5148	0	0	0
5149	0	0	0
5150	0	0	0
5151	0	0	0
5152	0	0	0
5153	0	0	0
5154	0	0	0
5155	0	0	0
5156	0	0	0
5157	0	0	0
5158	0	0	0
5159	0	0	0
5160	0	0	0
5161	0	0	0
5162	0	0	0
5163	0	0	0
5164	0	0	0
5165	0	0	0
5166	0	0	0
5167	0	0	0
5168	0	0	0
5169	0	0	0
5170	0	0	0
5171	0	0	0
5172	0	0	0
5173	0	0	0
5174	0	0	0
5175	0	0	0
5176	0	0	0
5177	0	0	0
5178	0	0	0
5179	0	0	0
5180	0	0	0
5181	0	0	0
5182	0	0	0
5183	0	0	0
5184	0	0	0
5185	0	0	0
5186	0	0	0
5187	0	0	0
5188	0	0	0
5189	0	0	0
5190	0	0	0
5191	0	0	0
5192	0	0	0
5193	0	0	0
5194	0	0	0
5195	248	234	234
5196	248	221	229
5197	248	206	226
5198	249	193	224
5199	246	178	222
5200	252	182	230
5201	247	172	226
5202	249	173	229
5203	252	177	233
5204	253	179	234
5205	249	177	232
5206	249	182	234
5207	252	190	237
5208	253	195	238
5209	241	187	229
5210	235	194	228
5211	236	207	229
5212	0	0	0
5213	0	0	0
5214	0	0	0
5215	0	0	0
5216	0	0	0
5217	0	0	0
5218	0	0	0
5219	0	0	0
5220	0	0	0
5221	0	0	0
5222	0	0	0
5223	0	0	0
5224	0	0	0
5225	0	0	0
5226	0	0	0
5227	0	0	0
5228	0	0	0
5229	0	0	0
5230	0	0	0
5231	0	0	0
5232	0	0	0
5233	0	0	0
5234	0	0	0
5235	0	0	0
5236	0	0	0
5237	0	0	0
5238	0	0	0
5239	0	0	0
5240	0	0	0
5241	0	0	0
5242	0	0	0
5243	0	0	0
5244	0	0	0
5245	0	0	0
5246	0	0	0
5247	0	0	0
5248	0	0	0
5249	0	0	0
5250	0	0	0
5251	0	0	0
5252	0	0	0
5253	0	0	0
5254	0	0	0
5255	0	0	0
5256	0	0	0
5257	0	0	0
5258	0	0	0
5259	0	0	0
5260	0	0	0
5261	0	0	0
5262	0	0	0
5263	0	0	0
5264	0	0	0
5265	0	0	0
5266	0	0	0
5267	0	0	0
5268	0	0	0
5269	0	0	0
5270	0	0	0
5271	0	0	0
5272	0	0	0
5273	0	0	0
5274	0	0	0
5275	0	0	0
5276	0	0	0
5277	0	0	0
5278	0	0	0
5279	0	0	0
5280	0	0	0
5281	0	0	0
5282	0	0	0
5283	0	0	0
5284	0	0	0
5285	249	235	236
5286	248	217	229
5287	247	202	225
5288	248	191	225
5289	245	176	221
5290	246	172	224
5291	241	162	220
5292	249	171	229
5293	253	175	232
5294	254	177	233
5295	250	175	231
5296	252	183	234
5297	254	191	237
5298	249	188	233
5299	237	180	225
5300	238	195	230
5301	239	209	231
5302	0	0	0
5303	0	0	0
5304	0	0	0
5305	0	0	0
5306	0	0	0
5307	0	0	0
5308	0	0	0
5309	0	0	0
5310	0	0	0
5311	0	0	0
5312	0	0	0
5313	0	0	0
5314	0	0	0
5315	0	0	0
5316	0	0	0
5317	0	0	0
5318	0	0	0
5319	0	0	0
5320	0	0	0
5321	0	0	0
5322	0	0	0
5323	0	0	0
5324	0	0	0
5325	0	0	0
5326	0	0	0
5327	0	0	0
5328	0	0	0
5329	0	0	0
5330	0	0	0
5331	0	0	0
5332	0	0	0
5333	0	0	0
5334	0	0	0
5335	0	0	0
5336	0	0	0
5337	0	0	0
5338	0	0	0
5339	0	0	0
5340	0	0	0
5341	0	0	0
5342	0	0	0
5343	0	0	0
5344	0	0	0
5345	0	0	0
5346	0	0	0
5347	0	0	0
5348	0	0	0
5349	0	0	0
5350	0	0	0
5351	0	0	0
5352	0	0	0
5353	0	0	0
5354	0	0	0
5355	0	0	0
5356	0	0	0
5357	0	0	0
5358	0	0	0
5359	0	0	0
5360	0	0	0
5361	0	0	0
5362	0	0	0
5363	0	0	0
5364	0	0	0
5365	0	0	0
5366	0	0	0
5367	0	0	0
5368	0	0	0
5369	0	0	0
5370	0	0	0
5371	0	0	0
5372	0	0	0
5373	0	0	0
5374	0	0	0
5375	250	235	237
5376	251	218	231
5377	243	194	221
5378	239	181	217
5379	247	184	225
5380	254	183	231
5381	246	165	223
5382	254	175	232
5383	254	174	231
5384	255	175	231
5385	248	170	226
5386	248	177	229
5387	253	191	235
5388	249	188	231
5389	243	186	229
5390	250	204	238
5391	243	208	233
5392	0	0	0
5393	0	0	0
5394	0	0	0
5395	0	0	0
5396	0	0	0
5397	0	0	0
5398	0	0	0
5399	0	0	0
5400	0	0	0
5401	0	0	0
5402	0	0	0
5403	0	0	0
5404	0	0	0
5405	0	0	0
5406	0	0	0
5407	0	0	0
5408	0	0	0
5409	0	0	0
5410	0	0	0
5411	0	0	0
5412	0	0	0
5413	0	0	0
5414	0	0	0
5415	0	0	0
5416	0	0	0
5417	0	0	0
5418	0	0	0
5419	0	0	0
5420	0	0	0
5421	0	0	0
5422	0	0	0
5423	0	0	0
5424	0	0	0
5425	0	0	0
5426	0	0	0
5427	0	0	0
5428	0	0	0
5429	0	0	0
5430	0	0	0
5431	0	0	0
5432	0	0	0
5433	0	0	0
5434	0	0	0
5435	0	0	0
5436	0	0	0
5437	0	0	0
5438	0	0	0
5439	0	0	0
5440	0	0	0
5441	0	0	0
5442	0	0	0
5443	0	0	0
5444	0	0	0
5445	0	0	0
5446	0	0	0
5447	0	0	0
5448	0	0	0
5449	0	0	0
5450	0	0	0
5451	0	0	0
5452	0	0	0
5453	0	0	0
5454	0	0	0
5455	0	0	0
5456	0	0	0
5457	0	0	0
5458	0	0	0
5459	0	0	0
5460	0	0	0
5461	0	0	0
5462	0	0	0
5463	0	0	0
5464	0	0	0
5465	251	233	237
5466	246	210	225
5467	237	186	214
5468	246	190	223
5469	255	194	231
5470	255	184	231
5471	249	167	224
5472	255	173	231
5473	254	171	228
5474	253	171	227
5475	247	167	224
5476	252	181	231
5477	255	193	233
5478	252	191	230
5479	248	191	232
5480	248	199	235
5481	0	0	0
5482	0	0	0
5483	0	0	0
5484	0	0	0
5485	0	0	0
5486	0	0	0
5487	0	0	0
5488	0	0	0
5489	0	0	0
5490	0	0	0
5491	0	0	0
5492	0	0	0
5493	0	0	0
5494	0	0	0
5495	0	0	0
5496	0	0	0
5497	0	0	0
5498	0	0	0
5499	0	0	0
5500	0	0	0
5501	0	0	0
5502	0	0	0
5503	0	0	0
5504	0	0	0
5505	0	0	0
5506	0	0	0
5507	0	0	0
5508	0	0	0
5509	0	0	0
5510	0	0	0
5511	0	0	0
5512	0	0	0
5513	0	0	0
5514	0	0	0
5515	0	0	0
5516	0	0	0
5517	0	0	0
5518	0	0	0
5519	0	0	0
5520	0	0	0
5521	0	0	0
5522	0	0	0
5523	0	0	0
5524	0	0	0
5525	0	0	0
5526	0	0	0
5527	0	0	0
5528	0	0	0
5529	0	0	0
5530	0	0	0
5531	0	0	0
5532	0	0	0
5533	0	0	0
5534	0	0	0
5535	0	0	0
5536	0	0	0
5537	0	0	0
5538	0	0	0
5539	0	0	0
5540	0	0	0
5541	0	0	0
5542	0	0	0
5543	0	0	0
5544	0	0	0
5545	0	0	0
5546	0	0	0
5547	0	0	0
5548	0	0	0
5549	0	0	0
5550	0	0	0
5551	0	0	0
5552	0	0	0
5553	0	0	0
5554	0	0	0
5555	251	229	235
5556	239	202	219
5557	242	193	218
5558	255	201	231
5559	252	184	225
5560	249	172	222
5561	252	170	225
5562	255	176	232
5563	247	160	221
5564	246	160	221
5565	251	170	228
5566	255	185	236
5567	251	180	226
5568	244	178	221
5569	249	192	232
5570	247	199	234
5571	0	0	0
5572	0	0	0
5573	0	0	0
5574	0	0	0
5575	0	0	0
5576	0	0	0
5577	0	0	0
5578	0	0	0
5579	0	0	0
5580	0	0	0
5581	0	0	0
5582	0	0	0
5583	0	0	0
5584	0	0	0
5585	0	0	0
5586	0	0	0
5587	0	0	0
5588	0	0	0
5589	0	0	0
5590	0	0	0
5591	0	0	0
5592	0	0	0
5593	0	0	0
5594	0	0	0
5595	0	0	0
5596	0	0	0
5597	0	0	0
5598	0	0	0
5599	0	0	0
5600	0	0	0
5601	0	0	0
5602	0	0	0
5603	0	0	0
5604	0	0	0
5605	0	0	0
5606	0	0	0
5607	0	0	0
5608	0	0	0
5609	0	0	0
5610	0	0	0
5611	0	0	0
5612	0	0	0
5613	0	0	0
5614	0	0	0
5615	0	0	0
5616	0	0	0
5617	0	0	0
5618	0	0	0
5619	0	0	0
5620	0	0	0
5621	0	0	0
5622	0	0	0
5623	0	0	0
5624	0	0	0
5625	0	0	0
5626	0	0	0
5627	0	0	0
5628	0	0	0
5629	0	0	0
5630	0	0	0
5631	0	0	0
5632	0	0	0
5633	0	0	0
5634	0	0	0
5635	0	0	0
5636	0	0	0
5637	0	0	0
5638	0	0	0
5639	0	0	0
5640	0	0	0
5641	0	0	0
5642	0	0	0
5643	0	0	0
5644	0	0	0
5645	246	220	228
5646	243	207	222
5647	246	199	223
5648	250	189	223
5649	245	171	216
5650	252	174	223
5651	254	172	225
5652	250	163	222
5653	240	149	215
5654	250	163	227
5655	254	172	233
5656	252	173	232
5657	245	169	224
5658	249	183	229
5659	251	195	234
5660	247	201	233
5661	246	209	232
5662	0	0	0
5663	0	0	0
5664	0	0	0
5665	0	0	0
5666	0	0	0
5667	0	0	0
5668	0	0	0
5669	0	0	0
5670	0	0	0
5671	0	0	0
5672	0	0	0
5673	0	0	0
5674	0	0	0
5675	0	0	0
5676	0	0	0
5677	0	0	0
5678	0	0	0
5679	0	0	0
5680	0	0	0
5681	0	0	0
5682	0	0	0
5683	0	0	0
5684	0	0	0
5685	0	0	0
5686	0	0	0
5687	0	0	0
5688	0	0	0
5689	0	0	0
5690	0	0	0
5691	0	0	0
5692	0	0	0
5693	0	0	0
5694	0	0	0
5695	0	0	0
5696	0	0	0
5697	0	0	0
5698	0	0	0
5699	0	0	0
5700	0	0	0
5701	0	0	0
5702	0	0	0
5703	0	0	0
5704	0	0	0
5705	0	0	0
5706	0	0	0
5707	0	0	0
5708	0	0	0
5709	0	0	0
5710	0	0	0
5711	0	0	0
5712	0	0	0
5713	0	0	0
5714	0	0	0
5715	0	0	0
5716	0	0	0
5717	0	0	0
5718	0	0	0
5719	0	0	0
5720	0	0	0
5721	0	0	0
5722	0	0	0
5723	0	0	0
5724	0	0	0
5725	0	0	0
5726	0	0	0
5727	0	0	0
5728	0	0	0
5729	0	0	0
5730	0	0	0
5731	0	0	0
5732	0	0	0
5733	0	0	0
5734	0	0	0
5735	249	228	232
5736	250	217	228
5737	250	202	225
5738	250	190	224
5739	247	174	219
5740	255	178	227
5741	252	168	222
5742	247	159	219
5743	249	161	225
5744	255	176	237
5745	254	170	232
5746	250	169	230
5747	247	172	229
5748	251	186	235
5749	247	191	231
5750	242	196	228
5751	0	0	0
5752	0	0	0
5753	0	0	0
5754	0	0	0
5755	0	0	0
5756	0	0	0
5757	0	0	0
5758	0	0	0
5759	0	0	0
5760	0	0	0
5761	0	0	0
5762	0	0	0
5763	0	0	0
5764	0	0	0
5765	0	0	0
5766	0	0	0
5767	0	0	0
5768	0	0	0
5769	0	0	0
5770	0	0	0
5771	0	0	0
5772	0	0	0
5773	0	0	0
5774	0	0	0
5775	0	0	0
5776	0	0	0
5777	0	0	0
5778	0	0	0
5779	0	0	0
5780	0	0	0
5781	0	0	0
5782	0	0	0
5783	0	0	0
5784	0	0	0
5785	0	0	0
5786	0	0	0
5787	0	0	0
5788	0	0	0
5789	0	0	0
5790	0	0	0
5791	0	0	0
5792	0	0	0
5793	0	0	0
5794	0	0	0
5795	0	0	0
5796	0	0	0
5797	0	0	0
5798	0	0	0
5799	0	0	0
5800	0	0	0
5801	0	0	0
5802	0	0	0
5803	0	0	0
5804	0	0	0
5805	0	0	0
5806	0	0	0
5807	0	0	0
5808	0	0	0
5809	0	0	0
5810	0	0	0
5811	0	0	0
5812	0	0	0
5813	0	0	0
5814	0	0	0
5815	0	0	0
5816	0	0	0
5817	0	0	0
5818	0	0	0
5819	0	0	0
5820	0	0	0
5821	0	0	0
5822	0	0	0
5823	0	0	0
5824	0	0	0
5825	252	235	236
5826	251	218	229
5827	251	203	226
5828	253	193	227
5829	250	177	223
5830	254	175	227
5831	250	165	222
5832	255	170	228
5833	255	173	232
5834	255	171	232
5835	250	165	227
5836	253	172	231
5837	251	176	233
5838	251	185	235
5839	246	189	232
5840	0	0	0
5841	0	0	0
5842	0	0	0
5843	0	0	0
5844	0	0	0
5845	0	0	0
5846	0	0	0
5847	0	0	0
5848	0	0	0
5849	0	0	0
5850	0	0	0
5851	0	0	0
5852	0	0	0
5853	0	0	0
5854	0	0	0
5855	0	0	0
5856	0	0	0
5857	0	0	0
5858	0	0	0
5859	0	0	0
5860	0	0	0
5861	0	0	0
5862	0	0	0
5863	0	0	0
5864	0	0	0
5865	0	0	0
5866	0	0	0
5867	0	0	0
5868	0	0	0
5869	0	0	0
5870	0	0	0
5871	0	0	0
5872	0	0	0
5873	0	0	0
5874	0	0	0
5875	0	0	0
5876	0	0	0
5877	0	0	0
5878	0	0	0
5879	0	0	0
5880	0	0	0
5881	0	0	0
5882	0	0	0
5883	0	0	0
5884	0	0	0
5885	0	0	0
5886	0	0	0
5887	0	0	0
5888	0	0	0
5889	0	0	0
5890	0	0	0
5891	0	0	0
5892	0	0	0
5893	0	0	0
5894	0	0	0
5895	0	0	0
5896	0	0	0
5897	0	0	0
5898	0	0	0
5899	0	0	0
5900	0	0	0
5901	0	0	0
5902	0	0	0
5903	0	0	0
5904	0	0	0
5905	0	0	0
5906	0	0	0
5907	0	0	0
5908	0	0	0
5909	0	0	0
5910	0	0	0
5911	0	0	0
5912	0	0	0
5913	0	0	0
5914	0	0	0
5915	253	238	238
5916	254	222	232
5917	250	200	224
5918	252	190	225
5919	248	173	221
5920	251	170	225
5921	250	164	223
5922	255	170	229
5923	253	165	227
5924	251	162	225
5925	252	165	226
5926	255	174	232
5927	252	174	231
5928	252	183	235
5929	246	184	230
5930	0	0	0
5931	0	0	0
5932	0	0	0
5933	0	0	0
5934	0	0	0
5935	0	0	0
5936	0	0	0
5937	0	0	0
5938	0	0	0
5939	0	0	0
5940	0	0	0
5941	0	0	0
5942	0	0	0
5943	0	0	0
5944	0	0	0
5945	0	0	0
5946	0	0	0
5947	0	0	0
5948	0	0	0
5949	0	0	0
5950	0	0	0
5951	0	0	0
5952	0	0	0
5953	0	0	0
5954	0	0	0
5955	0	0	0
5956	0	0	0
5957	0	0	0
5958	0	0	0
5959	0	0	0
5960	0	0	0
5961	0	0	0
5962	0	0	0
5963	0	0	0
5964	0	0	0
5965	0	0	0
5966	0	0	0
5967	0	0	0
5968	0	0	0
5969	0	0	0
5970	0	0	0
5971	0	0	0
5972	0	0	0
5973	0	0	0
5974	0	0	0
5975	0	0	0
5976	0	0	0
5977	0	0	0
5978	0	0	0
5979	0	0	0
5980	0	0	0
5981	0	0	0
5982	0	0	0
5983	0	0	0
5984	0	0	0
5985	0	0	0
5986	0	0	0
5987	0	0	0
5988	0	0	0
5989	0	0	0
5990	0	0	0
5991	0	0	0
5992	0	0	0
5993	0	0	0
5994	0	0	0
5995	0	0	0
5996	0	0	0
5997	0	0	0
5998	0	0	0
5999	0	0	0
6000	0	0	0
6001	0	0	0
6002	0	0	0
6003	0	0	0
6004	240	232	232
6005	253	240	239
6006	247	214	226
6007	243	193	218
6008	247	182	220
6009	243	165	215
6010	251	169	224
6011	251	163	224
6012	252	163	226
6013	249	158	224
6014	253	164	227
6015	253	166	226
6016	254	170	227
6017	249	169	226
6018	249	177	229
6019	243	179	226
6020	0	0	0
6021	0	0	0
6022	0	0	0
6023	0	0	0
6024	0	0	0
6025	0	0	0
6026	0	0	0
6027	0	0	0
6028	0	0	0
6029	0	0	0
6030	0	0	0
6031	0	0	0
6032	0	0	0
6033	0	0	0
6034	0	0	0
6035	0	0	0
6036	0	0	0
6037	0	0	0
6038	0	0	0
6039	0	0	0
6040	0	0	0
6041	0	0	0
6042	0	0	0
6043	0	0	0
6044	0	0	0
6045	0	0	0
6046	0	0	0
6047	0	0	0
6048	0	0	0
6049	0	0	0
6050	0	0	0
6051	0	0	0
6052	0	0	0
6053	0	0	0
6054	0	0	0
6055	0	0	0
6056	0	0	0
6057	0	0	0
6058	0	0	0
6059	0	0	0
6060	0	0	0
6061	0	0	0
6062	0	0	0
6063	0	0	0
6064	0	0	0
6065	0	0	0
6066	0	0	0
6067	0	0	0
6068	0	0	0
6069	0	0	0
6070	0	0	0
6071	0	0	0
6072	0	0	0
6073	0	0	0
6074	0	0	0
6075	0	0	0
6076	0	0	0
6077	0	0	0
6078	0	0	0
6079	0	0	0
6080	0	0	0
6081	0	0	0
6082	0	0	0
6083	0	0	0
6084	0	0	0
6085	0	0	0
6086	0	0	0
6087	0	0	0
6088	0	0	0
6089	0	0	0
6090	0	0	0
6091	0	0	0
6092	0	0	0
6093	0	0	0
6094	0	0	0
6095	250	240	238
6096	241	212	223
6097	247	202	224
6098	254	194	227
6099	247	172	219
6100	255	175	229
6101	248	158	222
6102	250	159	225
6103	251	160	226
6104	255	166	229
6105	255	168	228
6106	254	171	228
6107	245	164	222
6108	247	172	226
6109	243	179	227
6110	0	0	0
6111	0	0	0
6112	0	0	0
6113	0	0	0
6114	0	0	0
6115	0	0	0
6116	0	0	0
6117	0	0	0
6118	0	0	0
6119	0	0	0
6120	0	0	0
6121	0	0	0
6122	0	0	0
6123	0	0	0
6124	0	0	0
6125	0	0	0
6126	0	0	0
6127	0	0	0
6128	0	0	0
6129	0	0	0
6130	0	0	0
6131	0	0	0
6132	0	0	0
6133	0	0	0
6134	0	0	0
6135	0	0	0
6136	0	0	0
6137	0	0	0
6138	0	0	0
6139	0	0	0
6140	0	0	0
6141	0	0	0
6142	0	0	0
6143	0	0	0
6144	0	0	0
6145	0	0	0
6146	0	0	0
6147	0	0	0
6148	0	0	0
6149	0	0	0
6150	0	0	0
6151	0	0	0
6152	0	0	0
6153	0	0	0
6154	0	0	0
6155	0	0	0
6156	0	0	0
6157	0	0	0
6158	0	0	0
6159	0	0	0
6160	0	0	0
6161	0	0	0
6162	0	0	0
6163	0	0	0
6164	0	0	0
6165	0	0	0
6166	0	0	0
6167	0	0	0
6168	0	0	0
6169	0	0	0
6170	0	0	0
6171	0	0	0
6172	0	0	0
6173	0	0	0
6174	0	0	0
6175	0	0	0
6176	0	0	0
6177	0	0	0
6178	0	0	0
6179	0	0	0
6180	0	0	0
6181	0	0	0
6182	0	0	0
6183	0	0	0
6184	0	0	0
6185	0	0	0
6186	252	226	234
6187	255	216	233
6188	255	198	228
6189	249	175	220
6190	250	168	223
6191	243	151	217
6192	251	160	226
6193	252	161	227
6194	255	166	229
6195	254	168	228
6196	248	164	224
6197	241	159	222
6198	249	174	232
6199	245	180	230
6200	0	0	0
6201	0	0	0
6202	0	0	0
6203	0	0	0
6204	0	0	0
6205	0	0	0
6206	0	0	0
6207	0	0	0
6208	0	0	0
6209	0	0	0
6210	0	0	0
6211	0	0	0
6212	0	0	0
6213	0	0	0
6214	0	0	0
6215	0	0	0
6216	0	0	0
6217	0	0	0
6218	0	0	0
6219	0	0	0
6220	0	0	0
6221	0	0	0
6222	0	0	0
6223	0	0	0
6224	0	0	0
6225	0	0	0
6226	0	0	0
6227	0	0	0
6228	0	0	0
6229	0	0	0
6230	0	0	0
6231	0	0	0
6232	0	0	0
6233	0	0	0
6234	0	0	0
6235	0	0	0
6236	0	0	0
6237	0	0	0
6238	0	0	0
6239	0	0	0
6240	0	0	0
6241	0	0	0
6242	0	0	0
6243	0	0	0
6244	0	0	0
6245	0	0	0
6246	0	0	0
6247	0	0	0
6248	0	0	0
6249	0	0	0
6250	0	0	0
6251	0	0	0
6252	0	0	0
6253	0	0	0
6254	0	0	0
6255	0	0	0
6256	0	0	0
6257	0	0	0
6258	0	0	0
6259	0	0	0
6260	0	0	0
6261	0	0	0
6262	0	0	0
6263	0	0	0
6264	0	0	0
6265	0	0	0
6266	0	0	0
6267	0	0	0
6268	0	0	0
6269	0	0	0
6270	0	0	0
6271	0	0	0
6272	0	0	0
6273	0	0	0
6274	0	0	0
6275	250	238	238
6276	255	225	234
6277	254	206	226
6278	247	184	218
6279	250	178	221
6280	252	170	224
6281	246	156	220
6282	255	165	230
6283	250	159	226
6284	252	164	227
6285	253	168	228
6286	248	165	225
6287	250	170	231
6288	255	185	241
6289	247	180	231
6290	0	0	0
6291	0	0	0
6292	0	0	0
6293	0	0	0
6294	0	0	0
6295	0	0	0
6296	0	0	0
6297	0	0	0
6298	0	0	0
6299	0	0	0
6300	0	0	0
6301	0	0	0
6302	0	0	0
6303	0	0	0
6304	0	0	0
6305	0	0	0
6306	0	0	0
6307	0	0	0
6308	0	0	0
6309	0	0	0
6310	0	0	0
6311	0	0	0
6312	0	0	0
6313	0	0	0
6314	0	0	0
6315	0	0	0
6316	0	0	0
6317	0	0	0
6318	0	0	0
6319	0	0	0
6320	0	0	0
6321	0	0	0
6322	0	0	0
6323	0	0	0
6324	0	0	0
6325	0	0	0
6326	0	0	0
6327	0	0	0
6328	0	0	0
6329	0	0	0
6330	0	0	0
6331	0	0	0
6332	0	0	0
6333	0	0	0
6334	0	0	0
6335	0	0	0
6336	0	0	0
6337	0	0	0
6338	0	0	0
6339	0	0	0
6340	0	0	0
6341	0	0	0
6342	0	0	0
6343	0	0	0
6344	0	0	0
6345	0	0	0
6346	0	0	0
6347	0	0	0
6348	0	0	0
6349	0	0	0
6350	0	0	0
6351	0	0	0
6352	0	0	0
6353	0	0	0
6354	0	0	0
6355	0	0	0
6356	0	0	0
6357	0	0	0
6358	0	0	0
6359	0	0	0
6360	0	0	0
6361	0	0	0
6362	0	0	0
6363	0	0	0
6364	0	0	0
6365	246	232	234
6366	246	212	225
6367	245	193	218
6368	249	187	221
6369	252	181	224
6370	253	173	225
6371	247	159	220
6372	252	162	227
6373	248	157	224
6374	250	163	228
6375	252	168	229
6376	254	173	231
6377	254	177	234
6378	252	180	233
6379	243	176	226
6380	247	193	233
6381	0	0	0
6382	0	0	0
6383	0	0	0
6384	0	0	0
6385	0	0	0
6386	0	0	0
6387	0	0	0
6388	0	0	0
6389	0	0	0
6390	0	0	0
6391	0	0	0
6392	0	0	0
6393	0	0	0
6394	0	0	0
6395	0	0	0
6396	0	0	0
6397	0	0	0
6398	0	0	0
6399	0	0	0
6400	0	0	0
6401	0	0	0
6402	0	0	0
6403	0	0	0
6404	0	0	0
6405	0	0	0
6406	0	0	0
6407	0	0	0
6408	0	0	0
6409	0	0	0
6410	0	0	0
6411	0	0	0
6412	0	0	0
6413	0	0	0
6414	0	0	0
6415	0	0	0
6416	0	0	0
6417	0	0	0
6418	0	0	0
6419	0	0	0
6420	0	0	0
6421	0	0	0
6422	0	0	0
6423	0	0	0
6424	0	0	0
6425	0	0	0
6426	0	0	0
6427	0	0	0
6428	0	0	0
6429	0	0	0
6430	0	0	0
6431	0	0	0
6432	0	0	0
6433	0	0	0
6434	0	0	0
6435	0	0	0
6436	0	0	0
6437	0	0	0
6438	0	0	0
6439	0	0	0
6440	0	0	0
6441	0	0	0
6442	0	0	0
6443	0	0	0
6444	0	0	0
6445	0	0	0
6446	0	0	0
6447	0	0	0
6448	0	0	0
6449	0	0	0
6450	0	0	0
6451	0	0	0
6452	0	0	0
6453	0	0	0
6454	0	0	0
6455	251	239	239
6456	246	216	228
6457	244	198	222
6458	252	194	227
6459	250	180	223
6460	250	172	224
6461	247	162	222
6462	253	165	229
6463	246	155	223
6464	248	162	227
6465	252	171	232
6466	255	177	234
6467	249	173	229
6468	245	174	227
6469	247	185	231
6470	253	204	239
6471	244	202	233
6472	0	0	0
6473	0	0	0
6474	0	0	0
6475	0	0	0
6476	0	0	0
6477	0	0	0
6478	0	0	0
6479	0	0	0
6480	0	0	0
6481	0	0	0
6482	0	0	0
6483	0	0	0
6484	0	0	0
6485	0	0	0
6486	0	0	0
6487	0	0	0
6488	0	0	0
6489	0	0	0
6490	0	0	0
6491	0	0	0
6492	0	0	0
6493	0	0	0
6494	0	0	0
6495	0	0	0
6496	0	0	0
6497	0	0	0
6498	0	0	0
6499	0	0	0
6500	0	0	0
6501	0	0	0
6502	0	0	0
6503	0	0	0
6504	0	0	0
6505	0	0	0
6506	0	0	0
6507	0	0	0
6508	0	0	0
6509	0	0	0
6510	0	0	0
6511	0	0	0
6512	0	0	0
6513	0	0	0
6514	0	0	0
6515	0	0	0
6516	0	0	0
6517	0	0	0
6518	0	0	0
6519	0	0	0
6520	0	0	0
6521	0	0	0
6522	0	0	0
6523	0	0	0
6524	0	0	0
6525	0	0	0
6526	0	0	0
6527	0	0	0
6528	0	0	0
6529	0	0	0
6530	0	0	0
6531	0	0	0
6532	0	0	0
6533	0	0	0
6534	0	0	0
6535	0	0	0
6536	0	0	0
6537	0	0	0
6538	0	0	0
6539	0	0	0
6540	0	0	0
6541	0	0	0
6542	0	0	0
6543	0	0	0
6544	0	0	0
6545	255	246	244
6546	252	224	234
6547	250	206	229
6548	253	196	230
6549	250	181	225
6550	251	174	226
6551	248	164	225
6552	247	161	226
6553	240	151	219
6554	251	166	230
6555	255	176	235
6556	255	176	234
6557	248	172	230
6558	250	184	233
6559	251	194	234
6560	244	194	230
6561	237	193	228
6562	0	0	0
6563	0	0	0
6564	0	0	0
6565	0	0	0
6566	0	0	0
6567	0	0	0
6568	0	0	0
6569	0	0	0
6570	0	0	0
6571	0	0	0
6572	0	0	0
6573	0	0	0
6574	0	0	0
6575	0	0	0
6576	0	0	0
6577	0	0	0
6578	0	0	0
6579	0	0	0
6580	0	0	0
6581	0	0	0
6582	0	0	0
6583	0	0	0
6584	0	0	0
6585	0	0	0
6586	0	0	0
6587	0	0	0
6588	0	0	0
6589	0	0	0
6590	0	0	0
6591	0	0	0
6592	0	0	0
6593	0	0	0
6594	0	0	0
6595	0	0	0
6596	0	0	0
6597	0	0	0
6598	0	0	0
6599	0	0	0
6600	0	0	0
6601	0	0	0
6602	0	0	0
6603	0	0	0
6604	0	0	0
6605	0	0	0
6606	0	0	0
6607	0	0	0
6608	0	0	0
6609	0	0	0
6610	0	0	0
6611	0	0	0
6612	0	0	0
6613	0	0	0
6614	0	0	0
6615	0	0	0
6616	0	0	0
6617	0	0	0
6618	0	0	0
6619	0	0	0
6620	0	0	0
6621	0	0	0
6622	0	0	0
6623	0	0	0
6624	0	0	0
6625	0	0	0
6626	0	0	0
6627	0	0	0
6628	0	0	0
6629	0	0	0
6630	0	0	0
6631	0	0	0
6632	0	0	0
6633	0	0	0
6634	0	0	0
6635	252	241	240
6636	253	222	233
6637	250	201	227
6638	251	190	226
6639	250	179	224
6640	250	172	225
6641	249	168	226
6642	246	163	225
6643	252	170	230
6644	255	187	243
6645	249	164	227
6646	246	163	226
6647	249	174	230
6648	251	186	233
6649	251	195	233
6650	244	194	229
6651	241	199	231
6652	0	0	0
6653	0	0	0
6654	0	0	0
6655	0	0	0
6656	0	0	0
6657	0	0	0
6658	0	0	0
6659	0	0	0
6660	0	0	0
6661	0	0	0
6662	0	0	0
6663	0	0	0
6664	0	0	0
6665	0	0	0
6666	0	0	0
6667	0	0	0
6668	0	0	0
6669	0	0	0
6670	0	0	0
6671	0	0	0
6672	0	0	0
6673	0	0	0
6674	0	0	0
6675	0	0	0
6676	0	0	0
6677	0	0	0
6678	0	0	0
6679	0	0	0
6680	0	0	0
6681	0	0	0
6682	0	0	0
6683	0	0	0
6684	0	0	0
6685	0	0	0
6686	0	0	0
6687	0	0	0
6688	0	0	0
6689	0	0	0
6690	0	0	0
6691	0	0	0
6692	0	0	0
6693	0	0	0
6694	0	0	0
6695	0	0	0
6696	0	0	0
6697	0	0	0
6698	0	0	0
6699	0	0	0
6700	0	0	0
6701	0	0	0
6702	0	0	0
6703	0	0	0
6704	0	0	0
6705	0	0	0
6706	0	0	0
6707	0	0	0
6708	0	0	0
6709	0	0	0
6710	0	0	0
6711	0	0	0
6712	0	0	0
6713	0	0	0
6714	0	0	0
6715	0	0	0
6716	0	0	0
6717	0	0	0
6718	0	0	0
6719	0	0	0
6720	0	0	0
6721	0	0	0
6722	0	0	0
6723	0	0	0
6724	0	0	0
6725	252	239	239
6726	250	216	230
6727	247	195	222
6728	251	189	226
6729	250	179	226
6730	254	179	231
6731	252	174	230
6732	255	181	234
6733	255	187	237
6734	254	171	227
6735	238	148	215
6736	247	166	228
6737	249	176	230
6738	250	186	232
6739	251	196	233
6740	245	197	230
6741	241	201	230
6742	235	204	229
6743	0	0	0
6744	0	0	0
6745	0	0	0
6746	0	0	0
6747	0	0	0
6748	0	0	0
6749	0	0	0
6750	0	0	0
6751	0	0	0
6752	0	0	0
6753	0	0	0
6754	0	0	0
6755	0	0	0
6756	0	0	0
6757	0	0	0
6758	0	0	0
6759	0	0	0
6760	0	0	0
6761	0	0	0
6762	0	0	0
6763	0	0	0
6764	0	0	0
6765	0	0	0
6766	0	0	0
6767	0	0	0
6768	0	0	0
6769	0	0	0
6770	0	0	0
6771	0	0	0
6772	0	0	0
6773	0	0	0
6774	0	0	0
6775	0	0	0
6776	0	0	0
6777	0	0	0
6778	0	0	0
6779	0	0	0
6780	0	0	0
6781	0	0	0
6782	0	0	0
6783	0	0	0
6784	0	0	0
6785	0	0	0
6786	0	0	0
6787	0	0	0
6788	0	0	0
6789	0	0	0
6790	0	0	0
6791	0	0	0
6792	0	0	0
6793	0	0	0
6794	0	0	0
6795	0	0	0
6796	0	0	0
6797	0	0	0
6798	0	0	0
6799	0	0	0
6800	0	0	0
6801	0	0	0
6802	0	0	0
6803	0	0	0
6804	0	0	0
6805	0	0	0
6806	0	0	0
6807	0	0	0
6808	0	0	0
6809	0	0	0
6810	0	0	0
6811	0	0	0
6812	0	0	0
6813	0	0	0
6814	0	0	0
6815	251	234	236
6816	244	208	224
6817	248	199	224
6818	254	194	228
6819	249	179	225
6820	252	179	230
6821	249	172	227
6822	255	180	233
6823	255	177	229
6824	244	159	218
6825	242	158	221
6826	250	175	233
6827	244	174	228
6828	249	186	233
6829	246	191	232
6830	239	192	227
6831	242	206	232
6832	237	209	230
6833	0	0	0
6834	0	0	0
6835	0	0	0
6836	0	0	0
6837	0	0	0
6838	0	0	0
6839	0	0	0
6840	0	0	0
6841	0	0	0
6842	0	0	0
6843	0	0	0
6844	0	0	0
6845	0	0	0
6846	0	0	0
6847	0	0	0
6848	0	0	0
6849	0	0	0
6850	0	0	0
6851	0	0	0
6852	0	0	0
6853	0	0	0
6854	0	0	0
6855	0	0	0
6856	0	0	0
6857	0	0	0
6858	0	0	0
6859	0	0	0
6860	0	0	0
6861	0	0	0
6862	0	0	0
6863	0	0	0
6864	0	0	0
6865	0	0	0
6866	0	0	0
6867	0	0	0
6868	0	0	0
6869	0	0	0
6870	0	0	0
6871	0	0	0
6872	0	0	0
6873	0	0	0
6874	0	0	0
6875	0	0	0
6876	0	0	0
6877	0	0	0
6878	0	0	0
6879	0	0	0
6880	0	0	0
6881	0	0	0
6882	0	0	0
6883	0	0	0
6884	0	0	0
6885	0	0	0
6886	0	0	0
6887	0	0	0
6888	0	0	0
6889	0	0	0
6890	0	0	0
6891	0	0	0
6892	0	0	0
6893	0	0	0
6894	0	0	0
6895	0	0	0
6896	0	0	0
6897	0	0	0
6898	0	0	0
6899	0	0	0
6900	0	0	0
6901	0	0	0
6902	0	0	0
6903	0	0	0
6904	248	233	235
6905	253	231	235
6906	253	218	231
6907	255	208	230
6908	254	195	227
6909	248	178	221
6910	250	177	226
6911	248	171	226
6912	250	172	229
6913	249	169	226
6914	250	170	227
6915	247	168	228
6916	246	173	231
6917	242	173	228
6918	245	182	232
6919	243	187	234
6920	244	200	236
6921	245	212	236
6922	240	214	231
6923	0	0	0
6924	0	0	0
6925	0	0	0
6926	0	0	0
6927	0	0	0
6928	0	0	0
6929	0	0	0
6930	0	0	0
6931	0	0	0
6932	0	0	0
6933	0	0	0
6934	0	0	0
6935	0	0	0
6936	0	0	0
6937	0	0	0
6938	0	0	0
6939	0	0	0
6940	0	0	0
6941	0	0	0
6942	0	0	0
6943	0	0	0
6944	0	0	0
6945	0	0	0
6946	0	0	0
6947	0	0	0
6948	0	0	0
6949	0	0	0
6950	0	0	0
6951	0	0	0
6952	0	0	0
6953	0	0	0
6954	0	0	0
6955	0	0	0
6956	0	0	0
6957	0	0	0
6958	0	0	0
6959	0	0	0
6960	0	0	0
6961	0	0	0
6962	0	0	0
6963	0	0	0
6964	0	0	0
6965	0	0	0
6966	0	0	0
6967	0	0	0
6968	0	0	0
6969	0	0	0
6970	0	0	0
6971	0	0	0
6972	0	0	0
6973	0	0	0
6974	0	0	0
6975	0	0	0
6976	0	0	0
6977	0	0	0
6978	0	0	0
6979	0	0	0
6980	0	0	0
6981	0	0	0
6982	0	0	0
6983	0	0	0
6984	0	0	0
6985	0	0	0
6986	0	0	0
6987	0	0	0
6988	0	0	0
6989	0	0	0
6990	0	0	0
6991	0	0	0
6992	0	0	0
6993	249	240	239
6994	253	235	237
6995	249	218	228
6996	247	204	223
6997	249	198	224
6998	245	183	221
6999	244	176	220
7000	247	175	225
7001	245	170	226
7002	246	169	228
7003	246	168	227
7004	247	169	229
7005	243	166	227
7006	244	171	231
7007	242	173	230
7008	243	181	233
7009	245	193	238
7010	247	206	241
7011	240	206	232
7012	237	209	228
7013	0	0	0
7014	0	0	0
7015	0	0	0
7016	0	0	0
7017	0	0	0
7018	0	0	0
7019	0	0	0
7020	0	0	0
7021	0	0	0
7022	0	0	0
7023	0	0	0
7024	0	0	0
7025	0	0	0
7026	0	0	0
7027	0	0	0
7028	0	0	0
7029	0	0	0
7030	0	0	0
7031	0	0	0
7032	0	0	0
7033	0	0	0
7034	0	0	0
7035	0	0	0
7036	0	0	0
7037	0	0	0
7038	0	0	0
7039	0	0	0
7040	0	0	0
7041	0	0	0
7042	0	0	0
7043	0	0	0
7044	0	0	0
7045	0	0	0
7046	0	0	0
7047	0	0	0
7048	0	0	0
7049	0	0	0
7050	0	0	0
7051	0	0	0
7052	0	0	0
7053	0	0	0
7054	0	0	0
7055	0	0	0
7056	0	0	0
7057	0	0	0
7058	0	0	0
7059	0	0	0
7060	0	0	0
7061	0	0	0
7062	0	0	0
7063	0	0	0
7064	0	0	0
7065	0	0	0
7066	0	0	0
7067	0	0	0
7068	0	0	0
7069	0	0	0
7070	0	0	0
7071	0	0	0
7072	0	0	0
7073	0	0	0
7074	0	0	0
7075	0	0	0
7076	0	0	0
7077	0	0	0
7078	0	0	0
7079	0	0	0
7080	0	0	0
7081	0	0	0
7082	0	0	0
7083	249	238	238
7084	247	222	229
7085	243	205	219
7086	244	197	219
7087	246	191	224
7088	249	187	228
7089	248	180	228
7090	248	176	230
7091	244	169	228
7092	245	170	230
7093	244	168	230
7094	242	166	230
7095	238	162	228
7096	238	167	230
7097	235	168	229
7098	242	184	235
7099	244	195	235
7100	238	196	231
7101	235	200	229
7102	238	209	232
7103	242	219	234
7104	0	0	0
7105	0	0	0
7106	0	0	0
7107	0	0	0
7108	0	0	0
7109	0	0	0
7110	0	0	0
7111	0	0	0
7112	0	0	0
7113	0	0	0
7114	0	0	0
7115	0	0	0
7116	0	0	0
7117	0	0	0
7118	0	0	0
7119	0	0	0
7120	0	0	0
7121	0	0	0
7122	0	0	0
7123	0	0	0
7124	0	0	0
7125	0	0	0
7126	0	0	0
7127	0	0	0
7128	0	0	0
7129	0	0	0
7130	0	0	0
7131	0	0	0
7132	0	0	0
7133	0	0	0
7134	0	0	0
7135	0	0	0
7136	0	0	0
7137	0	0	0
7138	0	0	0
7139	0	0	0
7140	0	0	0
7141	0	0	0
7142	0	0	0
7143	0	0	0
7144	0	0	0
7145	0	0	0
7146	0	0	0
7147	0	0	0
7148	0	0	0
7149	0	0	0
7150	0	0	0
7151	0	0	0
7152	0	0	0
7153	0	0	0
7154	0	0	0
7155	0	0	0
7156	0	0	0
7157	0	0	0
7158	0	0	0
7159	0	0	0
7160	0	0	0
7161	0	0	0
7162	0	0	0
7163	0	0	0
7164	0	0	0
7165	0	0	0
7166	0	0	0
7167	0	0	0
7168	0	0	0
7169	0	0	0
7170	0	0	0
7171	0	0	0
7172	245	237	238
7173	245	230	234
7174	242	213	225
7175	242	201	220
7176	243	194	220
7177	249	193	228
7178	253	189	233
7179	247	175	229
7180	245	170	229
7181	243	167	229
7182	243	167	230
7183	243	168	232
7184	240	166	231
7185	242	172	235
7186	239	175	234
7187	240	183	236
7188	250	200	243
7189	244	199	235
7190	237	200	230
7191	237	205	233
7192	245	217	239
7193	242	217	233
7194	0	0	0
7195	0	0	0
7196	0	0	0
7197	0	0	0
7198	0	0	0
7199	0	0	0
7200	0	0	0
7201	0	0	0
7202	0	0	0
7203	0	0	0
7204	0	0	0
7205	0	0	0
7206	0	0	0
7207	0	0	0
7208	0	0	0
7209	0	0	0
7210	0	0	0
7211	0	0	0
7212	0	0	0
7213	0	0	0
7214	0	0	0
7215	0	0	0
7216	0	0	0
7217	0	0	0
7218	0	0	0
7219	0	0	0
7220	0	0	0
7221	0	0	0
7222	0	0	0
7223	0	0	0
7224	0	0	0
7225	0	0	0
7226	0	0	0
7227	0	0	0
7228	0	0	0
7229	0	0	0
7230	0	0	0
7231	0	0	0
7232	0	0	0
7233	0	0	0
7234	0	0	0
7235	0	0	0
7236	0	0	0
7237	0	0	0
7238	0	0	0
7239	0	0	0
7240	0	0	0
7241	0	0	0
7242	0	0	0
7243	0	0	0
7244	0	0	0
7245	0	0	0
7246	0	0	0
7247	0	0	0
7248	0	0	0
7249	0	0	0
7250	0	0	0
7251	0	0	0
7252	0	0	0
7253	0	0	0
7254	0	0	0
7255	0	0	0
7256	0	0	0
7257	0	0	0
7258	0	0	0
7259	0	0	0
7260	0	0	0
7261	0	0	0
7262	0	0	0
7263	237	217	227
7264	239	207	224
7265	239	196	221
7266	244	194	225
7267	248	191	227
7268	247	180	226
7269	241	166	224
7270	243	167	229
7271	241	164	228
7272	242	167	231
7273	241	168	232
7274	247	178	238
7275	247	183	239
7276	246	191	240
7277	248	199	241
7278	250	203	240
7279	245	202	234
7280	239	204	231
7281	239	209	233
7282	240	212	234
7283	0	0	0
7284	0	0	0
7285	0	0	0
7286	0	0	0
7287	0	0	0
7288	0	0	0
7289	0	0	0
7290	0	0	0
7291	0	0	0
7292	0	0	0
7293	0	0	0
7294	0	0	0
7295	0	0	0
7296	0	0	0
7297	0	0	0
7298	0	0	0
7299	0	0	0
7300	0	0	0
7301	0	0	0
7302	0	0	0
7303	0	0	0
7304	0	0	0
7305	0	0	0
7306	0	0	0
7307	0	0	0
7308	0	0	0
7309	0	0	0
7310	0	0	0
7311	0	0	0
7312	0	0	0
7313	0	0	0
7314	0	0	0
7315	0	0	0
7316	0	0	0
7317	0	0	0
7318	0	0	0
7319	0	0	0
7320	0	0	0
7321	0	0	0
7322	0	0	0
7323	0	0	0
7324	0	0	0
7325	0	0	0
7326	0	0	0
7327	0	0	0
7328	0	0	0
7329	0	0	0
7330	0	0	0
7331	0	0	0
7332	0	0	0
7333	0	0	0
7334	0	0	0
7335	0	0	0
7336	0	0	0
7337	0	0	0
7338	0	0	0
7339	0	0	0
7340	0	0	0
7341	0	0	0
7342	0	0	0
7343	0	0	0
7344	0	0	0
7345	0	0	0
7346	0	0	0
7347	0	0	0
7348	0	0	0
7349	0	0	0
7350	0	0	0
7351	0	0	0
7352	0	0	0
7353	245	228	236
7354	247	218	234
7355	241	198	226
7356	246	196	229
7357	249	192	229
7358	246	179	226
7359	245	174	229
7360	247	175	235
7361	242	167	231
7362	242	170	233
7363	246	177	237
7364	253	187	243
7365	241	174	232
7366	242	183	233
7367	249	198	238
7368	249	201	237
7369	239	193	228
7370	233	196	225
7371	238	210	232
7372	0	0	0
7373	0	0	0
7374	0	0	0
7375	0	0	0
7376	0	0	0
7377	0	0	0
7378	0	0	0
7379	0	0	0
7380	0	0	0
7381	0	0	0
7382	0	0	0
7383	0	0	0
7384	0	0	0
7385	0	0	0
7386	0	0	0
7387	0	0	0
7388	0	0	0
7389	0	0	0
7390	0	0	0
7391	0	0	0
7392	0	0	0
7393	0	0	0
7394	0	0	0
7395	0	0	0
7396	0	0	0
7397	0	0	0
7398	0	0	0
7399	0	0	0
7400	0	0	0
7401	0	0	0
7402	0	0	0
7403	0	0	0
7404	0	0	0
7405	0	0	0
7406	0	0	0
7407	0	0	0
7408	0	0	0
7409	0	0	0
7410	0	0	0
7411	0	0	0
7412	0	0	0
7413	0	0	0
7414	0	0	0
7415	0	0	0
7416	0	0	0
7417	0	0	0
7418	0	0	0
7419	0	0	0
7420	0	0	0
7421	0	0	0
7422	0	0	0
7423	0	0	0
7424	0	0	0
7425	0	0	0
7426	0	0	0
7427	0	0	0
7428	0	0	0
7429	0	0	0
7430	0	0	0
7431	0	0	0
7432	0	0	0
7433	0	0	0
7434	0	0	0
7435	0	0	0
7436	0	0	0
7437	0	0	0
7438	0	0	0
7439	0	0	0
7440	0	0	0
7441	0	0	0
7442	0	0	0
7443	249	235	239
7444	243	215	230
7445	237	196	224
7446	247	197	231
7447	249	192	231
7448	251	187	232
7449	249	180	233
7450	246	176	234
7451	240	168	232
7452	244	176	236
7453	247	182	236
7454	242	175	231
7455	233	165	226
7456	242	183	237
7457	248	197	239
7458	238	190	229
7459	0	0	0
7460	233	197	229
7461	0	0	0
7462	0	0	0
7463	0	0	0
7464	0	0	0
7465	0	0	0
7466	0	0	0
7467	0	0	0
7468	0	0	0
7469	0	0	0
7470	0	0	0
7471	0	0	0
7472	0	0	0
7473	0	0	0
7474	0	0	0
7475	0	0	0
7476	0	0	0
7477	0	0	0
7478	0	0	0
7479	0	0	0
7480	0	0	0
7481	0	0	0
7482	0	0	0
7483	0	0	0
7484	0	0	0
7485	0	0	0
7486	0	0	0
7487	0	0	0
7488	0	0	0
7489	0	0	0
7490	0	0	0
7491	0	0	0
7492	0	0	0
7493	0	0	0
7494	0	0	0
7495	0	0	0
7496	0	0	0
7497	0	0	0
7498	0	0	0
7499	0	0	0
7500	0	0	0
7501	0	0	0
7502	0	0	0
7503	0	0	0
7504	0	0	0
7505	0	0	0
7506	0	0	0
7507	0	0	0
7508	0	0	0
7509	0	0	0
7510	0	0	0
7511	0	0	0
7512	0	0	0
7513	0	0	0
7514	0	0	0
7515	0	0	0
7516	0	0	0
7517	0	0	0
7518	0	0	0
7519	0	0	0
7520	0	0	0
7521	0	0	0
7522	0	0	0
7523	0	0	0
7524	0	0	0
7525	0	0	0
7526	0	0	0
7527	0	0	0
7528	0	0	0
7529	0	0	0
7530	0	0	0
7531	0	0	0
7532	0	0	0
7533	245	231	236
7534	234	209	225
7535	238	201	227
7536	251	204	236
7537	249	190	231
7538	250	185	232
7539	250	183	233
7540	245	177	232
7541	241	174	233
7542	244	182	237
7543	246	187	236
7544	243	180	232
7545	242	180	235
7546	252	199	248
7547	0	0	0
7548	0	0	0
7549	0	0	0
7550	0	0	0
7551	0	0	0
7552	0	0	0
7553	0	0	0
7554	0	0	0
7555	0	0	0
7556	0	0	0
7557	0	0	0
7558	0	0	0
7559	0	0	0
7560	0	0	0
7561	0	0	0
7562	0	0	0
7563	0	0	0
7564	0	0	0
7565	0	0	0
7566	0	0	0
7567	0	0	0
7568	0	0	0
7569	0	0	0
7570	0	0	0
7571	0	0	0
7572	0	0	0
7573	0	0	0
7574	0	0	0
7575	0	0	0
7576	0	0	0
7577	0	0	0
7578	0	0	0
7579	0	0	0
7580	0	0	0
7581	0	0	0
7582	0	0	0
7583	0	0	0
7584	0	0	0
7585	0	0	0
7586	0	0	0
7587	0	0	0
7588	0	0	0
7589	0	0	0
7590	0	0	0
7591	0	0	0
7592	0	0	0
7593	0	0	0
7594	0	0	0
7595	0	0	0
7596	0	0	0
7597	0	0	0
7598	0	0	0
7599	0	0	0
7600	0	0	0
7601	0	0	0
7602	0	0	0
7603	0	0	0
7604	0	0	0
7605	0	0	0
7606	0	0	0
7607	0	0	0
7608	0	0	0
7609	0	0	0
7610	0	0	0
7611	0	0	0
7612	0	0	0
7613	0	0	0
7614	0	0	0
7615	0	0	0
7616	0	0	0
7617	0	0	0
7618	0	0	0
7619	0	0	0
7620	0	0	0
7621	0	0	0
7622	0	0	0
7623	242	229	235
7624	238	216	230
7625	241	208	230
7626	246	200	232
7627	244	186	229
7628	249	187	233
7629	247	183	230
7630	244	181	230
7631	240	179	231
7632	243	186	236
7633	245	191	237
7634	244	189	234
7635	242	188	235
7636	0	0	0
7637	0	0	0
7638	0	0	0
7639	0	0	0
7640	0	0	0
7641	0	0	0
7642	0	0	0
7643	0	0	0
7644	0	0	0
7645	0	0	0
7646	0	0	0
7647	0	0	0
7648	0	0	0
7649	0	0	0
7650	0	0	0
7651	0	0	0
7652	0	0	0
7653	0	0	0
7654	0	0	0
7655	0	0	0
7656	0	0	0
7657	0	0	0
7658	0	0	0
7659	0	0	0
7660	0	0	0
7661	0	0	0
7662	0	0	0
7663	0	0	0
7664	0	0	0
7665	0	0	0
7666	0	0	0
7667	0	0	0
7668	0	0	0
7669	0	0	0
7670	0	0	0
7671	0	0	0
7672	0	0	0
7673	0	0	0
7674	0	0	0
7675	0	0	0
7676	0	0	0
7677	0	0	0
7678	0	0	0
7679	0	0	0
7680	0	0	0
7681	0	0	0
7682	0	0	0
7683	0	0	0
7684	0	0	0
7685	0	0	0
7686	0	0	0
7687	0	0	0
7688	0	0	0
7689	0	0	0
7690	0	0	0
7691	0	0	0
7692	0	0	0
7693	0	0	0
7694	0	0	0
7695	0	0	0
7696	0	0	0
7697	0	0	0
7698	0	0	0
7699	0	0	0
7700	0	0	0
7701	0	0	0
7702	0	0	0
7703	0	0	0
7704	0	0	0
7705	0	0	0
7706	0	0	0
7707	0	0	0
7708	0	0	0
7709	0	0	0
7710	0	0	0
7711	0	0	0
7712	0	0	0
7713	241	229	235
7714	239	217	231
7715	240	208	230
7716	243	198	230
7717	244	191	231
7718	248	191	234
7719	245	187	230
7720	242	185	229
7721	242	187	233
7722	247	195	240
7723	241	191	234
7724	0	0	0
7725	0	0	0
7726	0	0	0
7727	0	0	0
7728	0	0	0
7729	0	0	0
7730	0	0	0
7731	0	0	0
7732	0	0	0
7733	0	0	0
7734	0	0	0
7735	0	0	0
7736	0	0	0
7737	0	0	0
7738	0	0	0
7739	0	0	0
7740	0	0	0
7741	0	0	0
7742	0	0	0
7743	0	0	0
7744	0	0	0
7745	0	0	0
7746	0	0	0
7747	0	0	0
7748	0	0	0
7749	0	0	0
7750	0	0	0
7751	0	0	0
7752	0	0	0
7753	0	0	0
7754	0	0	0
7755	0	0	0
7756	0	0	0
7757	0	0	0
7758	0	0	0
7759	0	0	0
7760	0	0	0
7761	0	0	0
7762	0	0	0
7763	0	0	0
7764	0	0	0
7765	0	0	0
7766	0	0	0
7767	0	0	0
7768	0	0	0
7769	0	0	0
7770	0	0	0
7771	0	0	0
7772	0	0	0
7773	0	0	0
7774	0	0	0
7775	0	0	0
7776	0	0	0
7777	0	0	0
7778	0	0	0
7779	0	0	0
7780	0	0	0
7781	0	0	0
7782	0	0	0
7783	0	0	0
7784	0	0	0
7785	0	0	0
7786	0	0	0
7787	0	0	0
7788	0	0	0
7789	0	0	0
7790	0	0	0
7791	0	0	0
7792	0	0	0
7793	0	0	0
7794	0	0	0
7795	0	0	0
7796	0	0	0
7797	0	0	0
7798	0	0	0
7799	0	0	0
7800	0	0	0
7801	0	0	0
7802	0	0	0
7803	242	230	237
7804	241	219	233
7805	241	210	231
7806	244	204	232
7807	243	195	232
7808	247	196	235
7809	244	192	231
7810	243	193	232
7811	244	195	237
7812	245	196	238
7813	0	0	0
7814	0	0	0
7815	0	0	0
7816	0	0	0
7817	0	0	0
7818	0	0	0
7819	0	0	0
7820	0	0	0
7821	0	0	0
7822	0	0	0
7823	0	0	0
7824	0	0	0
7825	0	0	0
7826	0	0	0
7827	0	0	0
7828	0	0	0
7829	0	0	0
7830	0	0	0
7831	0	0	0
7832	0	0	0
7833	0	0	0
7834	0	0	0
7835	0	0	0
7836	0	0	0
7837	0	0	0
7838	0	0	0
7839	0	0	0
7840	0	0	0
7841	0	0	0
7842	0	0	0
7843	0	0	0
7844	0	0	0
7845	0	0	0
7846	0	0	0
7847	0	0	0
7848	0	0	0
7849	0	0	0
7850	0	0	0
7851	0	0	0
7852	0	0	0
7853	0	0	0
7854	0	0	0
7855	0	0	0
7856	0	0	0
7857	0	0	0
7858	0	0	0
7859	0	0	0
7860	0	0	0
7861	0	0	0
7862	0	0	0
7863	0	0	0
7864	0	0	0
7865	0	0	0
7866	0	0	0
7867	0	0	0
7868	0	0	0
7869	0	0	0
7870	0	0	0
7871	0	0	0
7872	0	0	0
7873	0	0	0
7874	0	0	0
7875	0	0	0
7876	0	0	0
7877	0	0	0
7878	0	0	0
7879	0	0	0
7880	0	0	0
7881	0	0	0
7882	0	0	0
7883	0	0	0
7884	0	0	0
7885	0	0	0
7886	0	0	0
7887	0	0	0
7888	0	0	0
7889	0	0	0
7890	0	0	0
7891	0	0	0
7892	0	0	0
7893	242	231	238
7894	241	220	235
7895	238	206	229
7896	238	198	229
7897	241	198	232
7898	244	199	235
7899	242	195	232
7900	242	197	233
7901	0	0	0
7902	0	0	0
7903	0	0	0
7904	0	0	0
7905	0	0	0
7906	0	0	0
7907	0	0	0
7908	0	0	0
7909	0	0	0
7910	0	0	0
7911	0	0	0
7912	0	0	0
7913	0	0	0
7914	0	0	0
7915	0	0	0
7916	0	0	0
7917	0	0	0
7918	0	0	0
7919	0	0	0
7920	0	0	0
7921	0	0	0
7922	0	0	0
7923	0	0	0
7924	0	0	0
7925	0	0	0
7926	0	0	0
7927	0	0	0
7928	0	0	0
7929	0	0	0
7930	0	0	0
7931	0	0	0
7932	0	0	0
7933	0	0	0
7934	0	0	0
7935	0	0	0
7936	0	0	0
7937	0	0	0
7938	0	0	0
7939	0	0	0
7940	0	0	0
7941	0	0	0
7942	0	0	0
7943	0	0	0
7944	0	0	0
7945	0	0	0
7946	0	0	0
7947	0	0	0
7948	0	0	0
7949	0	0	0
7950	0	0	0
7951	0	0	0
7952	0	0	0
7953	0	0	0
7954	0	0	0
7955	0	0	0
7956	0	0	0
7957	0	0	0
7958	0	0	0
7959	0	0	0
7960	0	0	0
7961	0	0	0
7962	0	0	0
7963	0	0	0
7964	0	0	0
7965	0	0	0
7966	0	0	0
7967	0	0	0
7968	0	0	0
7969	0	0	0
7970	0	0	0
7971	0	0	0
7972	0	0	0
7973	0	0	0
7974	0	0	0
7975	0	0	0
7976	0	0	0
7977	0	0	0
7978	0	0	0
7979	0	0	0
7980	0	0	0
7981	0	0	0
7982	0	0	0
7983	0	0	0
7984	235	214	230
7985	230	200	226
7986	234	200	230
7987	236	199	232
7988	237	199	233
7989	235	196	231
7990	0	0	0
7991	0	0	0
7992	0	0	0
7993	0	0	0
7994	0	0	0
7995	0	0	0
7996	0	0	0
7997	0	0	0
7998	0	0	0
7999	0	0	0
8000	0	0	0
8001	0	0	0
8002	0	0	0
8003	0	0	0
8004	0	0	0
8005	0	0	0
8006	0	0	0
8007	0	0	0
8008	0	0	0
8009	0	0	0
8010	0	0	0
