 	R	G	B
1	0	0	0
2	0	0	0
3	0	0	0
4	0	0	0
5	0	0	0
6	0	0	0
7	0	0	0
8	0	0	0
9	0	0	0
10	255	238	226
11	255	235	226
12	255	241	231
13	255	241	229
14	0	0	0
15	0	0	0
16	0	0	0
17	0	0	0
18	0	0	0
19	0	0	0
20	0	0	0
21	0	0	0
22	0	0	0
23	0	0	0
24	0	0	0
25	0	0	0
26	0	0	0
27	0	0	0
28	0	0	0
29	0	0	0
30	0	0	0
31	0	0	0
32	255	219	211
33	255	222	216
34	255	210	211
35	255	215	215
36	255	210	208
37	253	203	204
38	0	0	0
39	0	0	0
40	0	0	0
41	0	0	0
42	0	0	0
43	0	0	0
44	0	0	0
45	0	0	0
46	0	0	0
47	0	0	0
48	0	0	0
49	0	0	0
50	0	0	0
51	0	0	0
52	255	232	222
53	255	219	211
54	255	211	205
55	250	199	197
56	248	191	193
57	240	178	185
58	239	177	186
59	235	173	182
60	238	178	187
61	240	181	193
62	255	203	209
63	0	0	0
64	0	0	0
65	0	0	0
66	0	0	0
67	0	0	0
68	0	0	0
69	0	0	0
70	0	0	0
71	0	0	0
72	0	0	0
73	0	0	0
74	255	228	219
75	255	225	218
76	249	194	197
77	239	183	190
78	230	171	184
79	224	162	179
80	220	160	177
81	215	157	175
82	210	153	172
83	214	159	178
84	219	162	184
85	243	188	203
86	242	187	197
87	0	0	0
88	0	0	0
89	0	0	0
90	0	0	0
91	0	0	0
92	0	0	0
93	0	0	0
94	0	0	0
95	0	0	0
96	255	231	224
97	255	217	212
98	253	196	200
99	234	166	183
100	224	156	180
101	216	146	181
102	218	149	186
103	214	147	182
104	210	145	181
105	204	141	179
106	205	146	183
107	207	148	185
108	218	158	192
109	219	157	188
110	243	188	208
111	0	0	0
112	0	0	0
113	0	0	0
114	0	0	0
115	0	0	0
116	0	0	0
117	0	0	0
118	255	236	227
119	255	230	226
120	246	188	197
121	231	162	182
122	226	153	181
123	221	146	182
124	223	148	191
125	228	152	198
126	228	152	196
127	230	154	198
128	218	142	191
129	214	144	192
130	211	149	194
131	205	150	191
132	197	138	181
133	232	175	206
134	245	190	213
135	0	0	0
136	0	0	0
137	0	0	0
138	0	0	0
139	0	0	0
140	255	239	228
141	255	228	221
142	247	193	201
143	225	153	181
144	225	149	184
145	222	140	184
146	229	147	193
147	230	147	195
148	233	149	198
149	234	149	197
150	232	143	195
151	222	132	188
152	223	142	195
153	217	147	195
154	195	133	182
155	182	121	172
156	208	149	192
157	224	165	199
158	249	192	215
159	0	0	0
160	0	0	0
161	0	0	0
162	255	254	238
163	255	249	238
164	248	198	203
165	220	157	180
166	223	153	188
167	232	154	198
168	234	147	198
169	248	155	208
170	237	137	195
171	234	136	194
172	230	132	191
173	225	125	186
174	227	129	190
175	235	143	200
176	223	137	193
177	200	124	180
178	187	120	176
179	192	138	185
180	204	152	192
181	241	186	214
182	250	198	214
183	0	0	0
184	0	0	0
185	255	253	236
186	251	210	213
187	223	161	184
188	221	156	188
189	225	153	197
190	234	152	204
191	235	144	200
192	235	134	196
193	224	116	184
194	222	114	184
195	219	111	183
196	223	117	187
197	224	120	187
198	224	121	186
199	214	116	181
200	207	120	182
201	192	117	176
202	186	130	180
203	192	142	186
204	223	169	205
205	235	182	209
206	0	0	0
207	0	0	0
208	255	240	231
209	233	191	202
210	218	159	189
211	228	160	200
212	232	156	206
213	238	152	209
214	228	133	196
215	219	118	186
216	218	115	185
217	221	117	188
218	217	111	185
219	222	117	189
220	222	118	187
221	219	118	185
222	216	117	184
223	221	128	191
224	208	124	184
225	199	135	188
226	183	126	179
227	194	143	189
228	206	158	196
229	0	0	0
230	0	0	0
231	248	222	223
232	228	186	206
233	215	155	195
234	229	159	207
235	232	153	209
236	231	141	204
237	219	121	189
238	218	119	188
239	218	117	189
240	221	116	189
241	217	109	184
242	223	116	189
243	222	118	188
244	218	117	186
245	215	116	185
246	220	123	190
247	209	119	184
248	192	115	178
249	173	105	170
250	175	123	180
251	185	138	188
252	226	179	215
253	0	0	0
254	246	218	224
255	225	182	206
256	218	159	202
257	234	164	215
258	232	150	210
259	226	136	202
260	214	115	187
261	216	116	189
262	217	114	189
263	222	114	191
264	219	106	185
265	225	113	190
266	216	104	182
267	207	101	178
268	204	103	179
269	206	108	181
270	207	117	185
271	199	118	185
272	183	111	179
273	178	126	186
274	179	133	189
275	216	172	213
276	0	0	0
277	235	206	215
278	224	181	205
279	217	159	201
280	229	156	209
281	225	142	202
282	216	125	193
283	205	106	183
284	212	110	188
285	214	108	187
286	217	105	187
287	214	97	183
288	213	95	182
289	204	86	174
290	204	92	177
291	200	93	177
292	203	104	183
293	206	114	188
294	201	115	188
295	185	108	180
296	174	117	181
297	172	123	182
298	206	162	207
299	0	0	0
300	234	211	219
301	230	190	213
302	220	159	204
303	227	155	210
304	220	138	201
305	209	121	192
306	207	112	190
307	219	119	197
308	216	109	190
309	215	104	187
310	213	99	186
311	209	96	184
312	203	87	178
313	211	98	186
314	202	89	179
315	200	97	181
316	205	112	190
317	203	114	189
318	194	116	186
319	185	126	189
320	175	123	184
321	203	159	207
322	223	187	221
323	234	215	224
324	225	186	212
325	214	154	203
326	220	149	208
327	213	132	201
328	208	124	198
329	207	116	196
330	215	115	197
331	212	104	187
332	214	104	187
333	210	98	185
334	203	91	181
335	199	84	178
336	204	86	180
337	196	78	171
338	199	93	179
339	202	107	187
340	203	115	191
341	196	118	188
342	185	121	187
343	175	119	183
344	198	153	205
345	216	180	219
346	232	215	226
347	220	184	213
348	209	154	204
349	214	148	209
350	212	137	205
351	211	131	204
352	211	123	201
353	216	120	201
354	210	104	189
355	212	104	189
356	201	87	180
357	196	81	177
358	204	90	184
359	209	92	186
360	201	85	178
361	205	101	187
362	197	100	184
363	194	106	184
364	196	119	190
365	192	127	193
366	178	117	185
367	196	150	206
368	206	167	213
369	227	212	225
370	213	181	212
371	201	151	203
372	210	150	210
373	208	138	204
374	209	131	201
375	209	124	199
376	210	115	196
377	205	100	187
378	201	90	183
379	193	74	176
380	205	88	187
381	212	97	192
382	212	96	191
383	203	88	183
384	197	91	182
385	188	90	178
386	193	106	187
387	196	120	192
388	189	120	190
389	175	111	183
390	185	135	199
391	194	152	207
392	230	221	231
393	212	187	216
394	200	157	207
395	211	157	215
396	208	142	206
397	207	135	203
398	206	124	198
399	208	116	196
400	207	104	192
401	204	95	189
402	201	84	185
403	221	101	200
404	219	98	196
405	213	94	191
406	203	89	184
407	195	91	183
408	194	102	188
409	203	120	199
410	193	115	191
411	186	114	189
412	180	116	190
413	187	140	204
414	187	147	207
415	234	228	236
416	208	190	216
417	196	160	207
418	212	160	218
419	210	146	210
420	204	133	202
421	201	121	196
422	205	114	196
423	203	103	191
424	201	95	189
425	199	84	184
426	212	91	192
427	212	89	189
428	213	93	190
429	203	89	183
430	202	101	189
431	202	113	197
432	196	111	194
433	186	106	188
434	189	117	194
435	182	119	194
436	181	133	201
437	181	140	205
438	0	0	0
439	201	188	213
440	201	173	215
441	227	179	232
442	218	152	216
443	207	137	206
444	211	136	208
445	215	130	207
446	205	109	195
447	201	100	191
448	204	100	192
449	214	105	197
450	216	103	196
451	222	110	201
452	200	85	180
453	201	99	188
454	199	107	194
455	190	104	190
456	191	113	194
457	196	126	202
458	186	122	197
459	185	136	205
460	184	143	210
461	0	0	0
462	0	0	0
463	203	184	221
464	220	176	227
465	212	149	211
466	213	149	213
467	217	148	216
468	215	134	209
469	205	113	196
470	209	117	201
471	211	116	201
472	212	114	199
473	214	111	197
474	210	98	190
475	192	76	175
476	195	91	185
477	193	98	188
478	193	109	193
479	194	119	198
480	193	125	200
481	182	120	193
482	181	133	202
483	182	142	211
484	0	0	0
485	0	0	0
486	204	194	226
487	214	183	228
488	209	159	215
489	219	163	222
490	217	151	218
491	212	135	210
492	202	115	197
493	209	120	202
494	203	111	196
495	198	106	191
496	206	112	196
497	207	102	191
498	200	91	186
499	205	107	198
500	195	103	192
501	195	114	197
502	192	119	199
503	188	123	199
504	174	114	189
505	173	128	198
506	194	162	225
507	0	0	0
508	0	0	0
509	214	210	236
510	210	190	230
511	203	166	217
512	209	160	219
513	209	149	216
514	203	133	208
515	193	112	195
516	197	113	197
517	192	104	192
518	195	109	194
519	203	116	199
520	206	111	197
521	199	99	189
522	198	104	193
523	191	101	191
524	193	112	199
525	191	118	201
526	186	121	202
527	172	113	193
528	188	150	216
529	209	183	238
530	0	0	0
531	0	0	0
532	222	219	240
533	201	189	226
534	197	175	222
535	208	173	228
536	201	153	219
537	192	134	208
538	195	132	207
539	203	134	211
540	197	120	202
541	206	128	209
542	207	125	205
543	202	116	198
544	196	108	193
545	198	114	198
546	191	108	195
547	199	122	206
548	198	127	210
549	192	129	210
550	170	110	195
551	190	148	219
552	0	0	0
553	0	0	0
554	0	0	0
555	233	230	245
556	204	201	229
557	196	186	230
558	193	170	227
559	185	148	214
560	192	150	218
561	197	149	218
562	198	141	215
563	193	127	206
564	201	131	208
565	202	129	204
566	200	124	200
567	196	117	197
568	196	118	199
569	191	112	196
570	201	126	209
571	200	131	213
572	185	122	207
573	164	103	193
574	186	143	218
575	0	0	0
576	0	0	0
577	0	0	0
578	0	0	0
579	207	204	228
580	202	204	238
581	184	179	227
582	184	171	226
583	204	181	238
584	200	163	227
585	197	152	220
586	189	134	209
587	195	138	210
588	196	134	205
589	198	132	203
590	197	125	201
591	199	127	205
592	193	118	200
593	203	131	212
594	195	126	210
595	179	117	204
596	174	120	206
597	198	161	231
598	0	0	0
599	0	0	0
600	0	0	0
601	0	0	0
602	228	231	243
603	219	227	246
604	197	207	237
605	194	199	241
606	198	187	240
607	193	168	227
608	192	157	221
609	185	141	211
610	190	142	212
611	192	139	207
612	197	137	206
613	197	131	203
614	197	127	203
615	192	119	199
616	195	123	205
617	187	118	202
618	187	132	213
619	184	136	218
620	206	174	239
621	0	0	0
622	0	0	0
623	0	0	0
624	0	0	0
625	0	0	0
626	228	231	244
627	203	209	233
628	202	211	244
629	191	192	237
630	186	177	229
631	192	170	228
632	189	155	220
633	195	157	222
634	194	148	214
635	201	147	214
636	197	133	206
637	198	131	205
638	204	137	211
639	205	140	215
640	192	129	207
641	195	144	219
642	188	143	220
643	0	0	0
644	0	0	0
645	0	0	0
646	0	0	0
647	0	0	0
648	0	0	0
649	0	0	0
650	224	229	244
651	219	229	252
652	199	206	241
653	192	192	238
654	196	183	237
655	193	168	228
656	199	165	228
657	201	157	224
658	205	151	222
659	201	138	213
660	214	150	222
661	220	157	225
662	216	154	222
663	201	141	212
664	198	150	219
665	193	150	221
666	0	0	0
667	0	0	0
668	0	0	0
669	0	0	0
670	0	0	0
671	0	0	0
672	0	0	0
673	0	0	0
674	234	238	252
675	209	212	240
676	205	207	245
677	201	195	241
678	203	185	237
679	218	187	242
680	219	174	237
681	221	167	234
682	214	150	222
683	228	163	231
684	226	158	225
685	223	156	222
686	207	143	211
687	199	150	215
688	201	161	224
689	0	0	0
690	0	0	0
691	0	0	0
692	0	0	0
693	0	0	0
694	0	0	0
695	0	0	0
696	0	0	0
697	0	0	0
698	0	0	0
699	223	226	250
700	214	212	245
701	212	201	242
702	216	191	239
703	217	178	234
704	222	170	231
705	217	154	219
706	226	159	223
707	225	155	220
708	229	159	223
709	213	148	213
710	210	164	222
711	211	174	228
712	0	0	0
713	0	0	0
714	0	0	0
715	0	0	0
716	0	0	0
717	0	0	0
718	0	0	0
719	0	0	0
720	0	0	0
721	0	0	0
722	0	0	0
723	0	0	0
724	215	208	239
725	205	191	231
726	214	190	234
727	229	189	238
728	227	171	226
729	235	176	231
730	228	160	222
731	234	166	227
732	213	145	212
733	210	162	221
734	205	163	219
735	0	0	0
736	0	0	0
737	0	0	0
738	0	0	0
739	0	0	0
740	0	0	0
741	0	0	0
742	0	0	0
743	0	0	0
744	0	0	0
745	0	0	0
746	0	0	0
747	0	0	0
748	214	210	237
749	221	210	241
750	231	200	240
751	230	183	230
752	234	177	230
753	228	162	223
754	228	159	224
755	209	140	210
756	203	150	215
757	198	152	213
758	0	0	0
759	0	0	0
760	0	0	0
761	0	0	0
762	0	0	0
763	0	0	0
764	0	0	0
765	0	0	0
766	0	0	0
767	0	0	0
768	0	0	0
769	0	0	0
770	0	0	0
771	0	0	0
772	228	219	243
773	228	205	238
774	230	193	233
775	241	191	237
776	230	167	226
777	229	164	227
778	218	155	222
779	218	169	229
780	208	165	223
781	0	0	0
782	0	0	0
783	0	0	0
784	0	0	0
785	0	0	0
786	0	0	0
787	0	0	0
788	0	0	0
789	0	0	0
790	0	0	0
791	0	0	0
792	0	0	0
793	0	0	0
794	0	0	0
795	240	235	250
796	232	217	241
797	233	204	238
798	236	191	235
799	227	169	224
800	235	175	233
801	227	169	228
802	225	176	233
803	0	0	0
804	0	0	0
805	0	0	0
806	0	0	0
807	0	0	0
808	0	0	0
809	0	0	0
810	0	0	0
811	0	0	0
812	0	0	0
813	0	0	0
814	0	0	0
815	0	0	0
816	0	0	0
817	0	0	0
818	242	235	246
819	228	214	236
820	233	211	240
821	232	196	236
822	227	177	228
823	242	188	241
824	233	174	232
825	234	184	238
826	217	171	226
827	0	0	0
828	0	0	0
829	0	0	0
830	0	0	0
831	0	0	0
832	0	0	0
833	0	0	0
834	0	0	0
835	0	0	0
836	0	0	0
837	0	0	0
838	0	0	0
839	0	0	0
840	0	0	0
841	0	0	0
842	234	225	239
843	235	221	243
844	230	202	237
845	224	183	232
846	234	184	238
847	225	171	228
848	222	172	229
849	206	160	218
850	210	179	226
851	0	0	0
852	0	0	0
853	0	0	0
854	0	0	0
855	0	0	0
856	0	0	0
857	0	0	0
858	0	0	0
859	0	0	0
860	0	0	0
861	0	0	0
862	0	0	0
863	0	0	0
864	0	0	0
865	0	0	0
866	238	230	245
867	228	209	237
868	227	199	238
869	235	200	245
870	225	184	235
871	221	185	235
872	205	172	224
873	0	0	0
874	0	0	0
875	0	0	0
876	0	0	0
877	0	0	0
878	0	0	0
879	0	0	0
880	0	0	0
881	0	0	0
882	0	0	0
883	0	0	0
884	0	0	0
885	0	0	0
886	0	0	0
887	0	0	0
888	0	0	0
889	0	0	0
890	235	227	242
891	232	215	242
892	232	209	244
893	222	194	237
894	217	192	238
895	0	0	0
896	0	0	0
897	0	0	0
