 	R	G	B
1	0	0	0
2	0	0	0
3	0	0	0
4	0	0	0
5	0	0	0
6	0	0	0
7	0	0	0
8	0	0	0
9	0	0	0
10	0	0	0
11	0	0	0
12	0	0	0
13	0	0	0
14	0	0	0
15	0	0	0
16	0	0	0
17	0	0	0
18	0	0	0
19	0	0	0
20	0	0	0
21	0	0	0
22	0	0	0
23	0	0	0
24	0	0	0
25	0	0	0
26	0	0	0
27	0	0	0
28	0	0	0
29	0	0	0
30	0	0	0
31	0	0	0
32	0	0	0
33	0	0	0
34	0	0	0
35	0	0	0
36	0	0	0
37	0	0	0
38	0	0	0
39	0	0	0
40	0	0	0
41	0	0	0
42	0	0	0
43	0	0	0
44	0	0	0
45	0	0	0
46	0	0	0
47	0	0	0
48	0	0	0
49	0	0	0
50	0	0	0
51	0	0	0
52	0	0	0
53	0	0	0
54	0	0	0
55	0	0	0
56	0	0	0
57	0	0	0
58	0	0	0
59	0	0	0
60	0	0	0
61	255	228	234
62	0	0	0
63	0	0	0
64	0	0	0
65	0	0	0
66	0	0	0
67	0	0	0
68	0	0	0
69	0	0	0
70	0	0	0
71	0	0	0
72	0	0	0
73	0	0	0
74	0	0	0
75	0	0	0
76	0	0	0
77	0	0	0
78	0	0	0
79	0	0	0
80	0	0	0
81	0	0	0
82	0	0	0
83	0	0	0
84	0	0	0
85	0	0	0
86	0	0	0
87	0	0	0
88	0	0	0
89	0	0	0
90	0	0	0
91	0	0	0
92	0	0	0
93	0	0	0
94	0	0	0
95	0	0	0
96	0	0	0
97	0	0	0
98	0	0	0
99	0	0	0
100	0	0	0
101	0	0	0
102	0	0	0
103	0	0	0
104	0	0	0
105	0	0	0
106	0	0	0
107	0	0	0
108	0	0	0
109	0	0	0
110	0	0	0
111	0	0	0
112	0	0	0
113	0	0	0
114	0	0	0
115	0	0	0
116	0	0	0
117	0	0	0
118	0	0	0
119	0	0	0
120	0	0	0
121	0	0	0
122	0	0	0
123	0	0	0
124	0	0	0
125	0	0	0
126	0	0	0
127	0	0	0
128	0	0	0
129	0	0	0
130	0	0	0
131	252	224	231
132	255	228	234
133	253	221	229
134	0	0	0
135	0	0	0
136	0	0	0
137	0	0	0
138	0	0	0
139	0	0	0
140	0	0	0
141	0	0	0
142	0	0	0
143	0	0	0
144	0	0	0
145	0	0	0
146	0	0	0
147	0	0	0
148	0	0	0
149	0	0	0
150	0	0	0
151	0	0	0
152	0	0	0
153	0	0	0
154	0	0	0
155	0	0	0
156	0	0	0
157	0	0	0
158	0	0	0
159	0	0	0
160	0	0	0
161	0	0	0
162	0	0	0
163	0	0	0
164	0	0	0
165	255	235	235
166	0	0	0
167	0	0	0
168	0	0	0
169	0	0	0
170	0	0	0
171	0	0	0
172	0	0	0
173	0	0	0
174	0	0	0
175	0	0	0
176	0	0	0
177	0	0	0
178	0	0	0
179	0	0	0
180	0	0	0
181	0	0	0
182	0	0	0
183	0	0	0
184	0	0	0
185	0	0	0
186	0	0	0
187	0	0	0
188	0	0	0
189	0	0	0
190	0	0	0
191	0	0	0
192	0	0	0
193	0	0	0
194	0	0	0
195	0	0	0
196	0	0	0
197	0	0	0
198	0	0	0
199	0	0	0
200	0	0	0
201	255	228	233
202	255	227	235
203	255	223	235
204	252	217	231
205	0	0	0
206	0	0	0
207	255	229	239
208	255	234	240
209	255	232	238
210	0	0	0
211	0	0	0
212	0	0	0
213	0	0	0
214	0	0	0
215	0	0	0
216	0	0	0
217	0	0	0
218	0	0	0
219	0	0	0
220	0	0	0
221	0	0	0
222	0	0	0
223	0	0	0
224	0	0	0
225	0	0	0
226	0	0	0
227	0	0	0
228	0	0	0
229	0	0	0
230	0	0	0
231	0	0	0
232	0	0	0
233	0	0	0
234	0	0	0
235	255	227	231
236	255	235	238
237	254	224	232
238	0	0	0
239	255	226	233
240	255	225	232
241	0	0	0
242	0	0	0
243	0	0	0
244	0	0	0
245	0	0	0
246	0	0	0
247	0	0	0
248	0	0	0
249	0	0	0
250	0	0	0
251	0	0	0
252	0	0	0
253	0	0	0
254	0	0	0
255	0	0	0
256	0	0	0
257	0	0	0
258	0	0	0
259	0	0	0
260	0	0	0
261	0	0	0
262	0	0	0
263	0	0	0
264	0	0	0
265	0	0	0
266	0	0	0
267	0	0	0
268	0	0	0
269	0	0	0
270	0	0	0
271	255	225	230
272	255	224	232
273	253	216	229
274	251	211	229
275	252	214	230
276	0	0	0
277	255	224	236
278	255	228	237
279	255	226	233
280	255	224	232
281	253	219	232
282	0	0	0
283	0	0	0
284	0	0	0
285	0	0	0
286	0	0	0
287	0	0	0
288	0	0	0
289	0	0	0
290	0	0	0
291	0	0	0
292	0	0	0
293	0	0	0
294	0	0	0
295	0	0	0
296	0	0	0
297	0	0	0
298	0	0	0
299	255	246	242
300	255	245	239
301	255	240	238
302	255	233	236
303	255	229	236
304	255	225	235
305	255	226	234
306	255	228	235
307	252	216	227
308	244	204	219
309	251	213	227
310	255	221	231
311	253	214	226
312	249	208	223
313	0	0	0
314	0	0	0
315	255	220	229
316	0	0	0
317	0	0	0
318	0	0	0
319	0	0	0
320	0	0	0
321	0	0	0
322	0	0	0
323	0	0	0
324	0	0	0
325	0	0	0
326	0	0	0
327	0	0	0
328	0	0	0
329	0	0	0
330	0	0	0
331	0	0	0
332	0	0	0
333	0	0	0
334	0	0	0
335	0	0	0
336	0	0	0
337	0	0	0
338	0	0	0
339	0	0	0
340	0	0	0
341	255	221	232
342	255	220	228
343	252	212	223
344	247	204	222
345	252	210	228
346	253	212	227
347	255	218	230
348	255	224	234
349	255	221	231
350	255	219	228
351	252	214	226
352	249	209	226
353	0	0	0
354	0	0	0
355	0	0	0
356	0	0	0
357	0	0	0
358	0	0	0
359	0	0	0
360	0	0	0
361	0	0	0
362	0	0	0
363	0	0	0
364	0	0	0
365	0	0	0
366	0	0	0
367	0	0	0
368	0	0	0
369	255	237	241
370	255	240	243
371	251	221	229
372	250	215	225
373	248	210	225
374	247	206	223
375	253	214	229
376	253	214	228
377	255	224	234
378	252	211	225
379	249	206	224
380	255	216	232
381	255	214	230
382	250	206	224
383	251	207	224
384	0	0	0
385	255	217	228
386	255	219	229
387	251	208	221
388	0	0	0
389	0	0	0
390	0	0	0
391	0	0	0
392	0	0	0
393	0	0	0
394	0	0	0
395	0	0	0
396	0	0	0
397	0	0	0
398	0	0	0
399	0	0	0
400	0	0	0
401	0	0	0
402	0	0	0
403	0	0	0
404	0	0	0
405	0	0	0
406	0	0	0
407	0	0	0
408	0	0	0
409	0	0	0
410	0	0	0
411	253	218	231
412	255	223	235
413	253	212	224
414	248	203	219
415	251	205	224
416	255	211	230
417	252	209	227
418	255	215	230
419	255	218	230
420	255	215	227
421	255	217	229
422	253	212	226
423	250	209	225
424	0	0	0
425	0	0	0
426	0	0	0
427	0	0	0
428	0	0	0
429	0	0	0
430	0	0	0
431	0	0	0
432	0	0	0
433	0	0	0
434	0	0	0
435	255	249	246
436	255	251	246
437	255	249	245
438	255	248	247
439	255	239	244
440	255	230	239
441	250	213	231
442	241	197	222
443	241	193	222
444	238	187	217
445	243	195	221
446	247	201	222
447	250	207	223
448	255	217	230
449	254	210	227
450	252	206	227
451	253	206	230
452	251	204	228
453	250	203	225
454	0	0	0
455	0	0	0
456	255	214	229
457	252	205	223
458	244	194	214
459	0	0	0
460	0	0	0
461	255	217	229
462	255	221	230
463	255	225	232
464	0	0	0
465	0	0	0
466	0	0	0
467	0	0	0
468	252	215	224
469	255	221	228
470	255	226	229
471	255	228	229
472	255	229	229
473	255	232	230
474	0	0	0
475	0	0	0
476	0	0	0
477	0	0	0
478	0	0	0
479	0	0	0
480	0	0	0
481	255	229	233
482	254	217	227
483	252	210	224
484	247	201	218
485	250	203	220
486	251	204	223
487	253	206	227
488	252	205	229
489	255	210	233
490	255	213	230
491	255	213	228
492	255	215	230
493	255	213	229
494	253	209	226
495	255	216	231
496	0	0	0
497	0	0	0
498	0	0	0
499	0	0	0
500	0	0	0
501	0	0	0
502	0	0	0
503	0	0	0
504	0	0	0
505	255	245	242
506	255	248	244
507	255	237	236
508	255	235	237
509	255	232	238
510	255	223	235
511	255	217	234
512	246	201	227
513	250	203	233
514	250	199	232
515	249	197	228
516	253	204	230
517	250	203	226
518	253	208	226
519	255	218	232
520	255	211	229
521	249	198	225
522	250	199	228
523	254	205	230
524	252	204	227
525	255	213	231
526	255	219	233
527	255	212	229
528	252	203	222
529	249	199	218
530	255	209	225
531	255	212	227
532	255	217	230
533	253	208	222
534	254	211	223
535	255	215	226
536	0	0	0
537	0	0	0
538	255	219	227
539	253	214	224
540	255	220	228
541	255	219	226
542	255	221	227
543	255	218	225
544	255	221	226
545	253	219	222
546	0	0	0
547	0	0	0
548	0	0	0
549	0	0	0
550	0	0	0
551	255	235	236
552	255	221	228
553	253	212	223
554	250	205	220
555	252	205	222
556	254	207	224
557	255	208	225
558	255	209	228
559	255	208	232
560	255	214	236
561	255	211	230
562	255	210	227
563	255	211	227
564	255	209	226
565	252	205	224
566	255	211	228
567	255	212	229
568	0	0	0
569	0	0	0
570	0	0	0
571	0	0	0
572	0	0	0
573	0	0	0
574	0	0	0
575	255	246	243
576	255	244	240
577	255	235	234
578	254	225	228
579	253	221	227
580	254	217	228
581	252	210	227
582	251	204	227
583	252	204	230
584	255	204	234
585	254	203	233
586	252	200	228
587	251	200	227
588	249	200	226
589	253	206	229
590	255	215	232
591	250	200	223
592	242	187	219
593	252	200	229
594	255	206	230
595	255	214	233
596	255	224	238
597	255	215	232
598	255	207	227
599	255	205	225
600	253	202	221
601	255	207	225
602	255	211	229
603	255	206	226
604	249	196	217
605	250	200	218
606	251	204	221
607	255	213	225
608	255	224	232
609	255	218	228
610	255	213	225
611	255	214	226
612	255	212	223
613	252	209	221
614	250	207	222
615	249	205	221
616	245	202	216
617	250	211	220
618	255	222	226
619	255	223	226
620	0	0	0
621	255	225	227
622	255	229	234
623	255	220	230
624	255	211	224
625	255	212	226
626	255	212	228
627	255	213	229
628	255	212	228
629	255	211	228
630	255	210	229
631	255	210	231
632	255	208	229
633	255	209	228
634	255	208	225
635	254	204	222
636	251	201	223
637	253	204	226
638	251	204	224
639	255	217	231
640	0	0	0
641	0	0	0
642	0	0	0
643	0	0	0
644	0	0	0
645	255	238	241
646	255	238	240
647	255	227	231
648	252	218	226
649	252	214	225
650	251	210	224
651	254	210	226
652	252	202	225
653	246	192	221
654	246	190	222
655	255	204	233
656	255	202	230
657	252	199	227
658	252	200	227
659	255	207	231
660	255	213	235
661	255	221	238
662	255	206	228
663	248	193	225
664	255	205	234
665	255	204	228
666	255	213	232
667	255	210	230
668	253	201	224
669	253	200	223
670	253	199	221
671	255	206	225
672	255	212	230
673	253	197	223
674	250	192	220
675	249	192	217
676	250	195	218
677	255	207	224
678	255	215	229
679	255	215	227
680	255	209	223
681	254	206	222
682	254	206	224
683	254	206	223
684	251	203	221
685	253	207	226
686	252	206	225
687	251	207	222
688	255	216	225
689	255	218	224
690	255	219	223
691	255	220	223
692	255	220	225
693	255	219	228
694	254	209	224
695	250	200	219
696	252	201	221
697	255	205	224
698	255	206	225
699	255	206	223
700	255	205	222
701	255	201	222
702	255	202	224
703	255	200	224
704	255	200	224
705	253	198	221
706	250	194	218
707	255	205	228
708	255	209	231
709	249	198	221
710	0	0	0
711	0	0	0
712	0	0	0
713	0	0	0
714	0	0	0
715	0	0	0
716	255	230	237
717	252	220	232
718	248	210	226
719	247	205	224
720	247	201	224
721	248	200	224
722	250	198	223
723	245	189	218
724	239	178	213
725	250	192	224
726	255	204	231
727	255	203	228
728	254	201	227
729	255	207	231
730	255	213	233
731	255	218	235
732	255	226	240
733	255	211	232
734	253	198	229
735	255	204	233
736	255	202	226
737	255	200	223
738	255	199	225
739	255	198	225
740	255	198	222
741	255	205	226
742	255	212	232
743	255	197	223
744	246	182	216
745	249	186	220
746	248	186	217
747	255	198	222
748	255	209	226
749	255	206	222
750	255	206	223
751	255	203	222
752	253	200	221
753	252	199	221
754	252	199	222
755	251	200	222
756	252	203	223
757	252	205	223
758	252	206	222
759	253	208	221
760	254	211	219
761	255	212	220
762	255	213	223
763	255	210	222
764	255	208	221
765	250	198	217
766	247	191	217
767	254	198	223
768	255	200	223
769	255	201	221
770	255	202	222
771	255	198	219
772	254	195	219
773	254	194	220
774	252	192	219
775	252	192	220
776	252	192	222
777	255	203	230
778	255	212	235
779	255	202	228
780	0	0	0
781	0	0	0
782	0	0	0
783	0	0	0
784	0	0	0
785	0	0	0
786	0	0	0
787	0	0	0
788	251	213	231
789	249	206	228
790	249	202	227
791	254	206	232
792	255	204	231
793	252	198	226
794	246	187	219
795	247	187	220
796	255	202	230
797	255	201	228
798	255	199	226
799	251	195	224
800	255	202	228
801	255	209	229
802	255	212	230
803	255	211	230
804	250	197	223
805	253	197	228
806	255	204	233
807	255	196	223
808	254	194	221
809	252	191	222
810	253	190	222
811	255	196	224
812	255	203	228
813	255	195	223
814	247	180	214
815	249	182	219
816	253	187	223
817	253	189	222
818	255	201	227
819	255	204	225
820	255	202	221
821	255	199	221
822	254	196	220
823	250	192	217
824	249	190	217
825	255	204	227
826	255	205	227
827	254	204	224
828	254	206	224
829	255	211	226
830	255	214	225
831	255	217	225
832	255	218	226
833	252	201	218
834	251	199	218
835	255	205	221
836	252	196	217
837	255	199	225
838	255	206	232
839	251	189	217
840	252	190	215
841	255	201	223
842	255	197	221
843	252	186	217
844	251	185	218
845	255	191	222
846	255	191	222
847	253	188	223
848	255	198	231
849	253	192	224
850	0	0	0
851	0	0	0
852	0	0	0
853	0	0	0
854	0	0	0
855	0	0	0
856	0	0	0
857	0	0	0
858	246	207	228
859	244	201	224
860	242	195	222
861	248	199	226
862	252	202	231
863	249	196	227
864	247	190	223
865	251	193	224
866	251	192	223
867	254	196	226
868	254	197	226
869	253	195	225
870	249	190	223
871	255	200	228
872	255	206	228
873	254	200	223
874	254	200	225
875	252	197	225
876	255	197	227
877	255	194	226
878	252	188	220
879	252	186	219
880	250	182	218
881	255	189	223
882	255	195	225
883	252	185	218
884	247	178	215
885	250	180	218
886	252	182	220
887	255	189	225
888	255	192	226
889	255	197	227
890	255	200	224
891	255	195	219
892	255	192	218
893	252	189	216
894	247	183	212
895	253	195	220
896	255	208	229
897	255	206	226
898	255	206	225
899	255	211	228
900	255	216	230
901	255	218	229
902	255	220	227
903	254	203	216
904	245	187	211
905	253	197	221
906	255	204	224
907	255	204	226
908	255	206	232
909	255	194	225
910	247	178	213
911	255	191	222
912	255	202	229
913	255	191	222
914	252	180	220
915	255	186	226
916	255	191	228
917	255	186	223
918	251	182	220
919	247	177	217
920	241	171	213
921	0	0	0
922	0	0	0
923	0	0	0
924	0	0	0
925	0	0	0
926	0	0	0
927	0	0	0
928	0	0	0
929	255	222	240
930	254	215	235
931	249	204	230
932	254	208	234
933	254	206	233
934	250	199	228
935	253	201	229
936	255	205	232
937	251	192	223
938	255	196	227
939	255	199	228
940	255	197	228
941	251	191	224
942	255	201	230
943	255	203	228
944	254	198	223
945	255	199	227
946	255	197	226
947	255	202	230
948	255	198	228
949	248	179	215
950	248	177	216
951	254	185	222
952	255	191	227
953	253	184	221
954	246	174	213
955	255	189	225
956	255	192	228
957	252	179	219
958	255	186	224
959	255	185	222
960	255	190	223
961	255	188	219
962	252	183	215
963	252	183	215
964	249	180	213
965	247	180	212
966	252	191	218
967	255	209	228
968	255	206	224
969	255	204	223
970	255	210	226
971	255	212	227
972	255	214	227
973	255	204	218
974	246	188	208
975	255	199	221
976	255	209	231
977	255	192	219
978	255	193	221
979	255	192	222
980	252	180	215
981	252	178	215
982	255	192	226
983	255	182	219
984	249	170	213
985	250	172	218
986	254	178	223
987	255	186	228
988	254	181	223
989	252	180	220
990	247	175	217
991	247	178	219
992	252	189	227
993	0	0	0
994	0	0	0
995	0	0	0
996	0	0	0
997	0	0	0
998	0	0	0
999	0	0	0
1000	0	0	0
1001	252	216	235
1002	247	206	231
1003	251	207	233
1004	250	204	229
1005	253	206	229
1006	255	209	230
1007	254	201	226
1008	249	190	223
1009	254	196	228
1010	255	198	228
1011	254	194	224
1012	250	188	220
1013	255	195	225
1014	255	199	228
1015	255	199	228
1016	255	200	228
1017	255	202	229
1018	255	206	232
1019	252	185	217
1020	240	165	205
1021	248	175	214
1022	255	183	223
1023	251	178	221
1024	246	171	215
1025	255	184	224
1026	255	199	231
1027	255	186	222
1028	250	174	217
1029	253	177	220
1030	250	175	216
1031	249	174	214
1032	249	174	214
1033	249	174	215
1034	248	174	214
1035	248	177	214
1036	246	177	212
1037	255	193	220
1038	255	209	226
1039	255	203	219
1040	254	202	219
1041	255	204	220
1042	255	206	220
1043	252	197	214
1044	248	189	212
1045	255	200	222
1046	255	210	230
1047	255	196	221
1048	250	181	213
1049	254	182	215
1050	254	180	213
1051	255	179	212
1052	255	178	214
1053	251	170	212
1054	246	161	210
1055	248	163	214
1056	248	163	213
1057	253	172	220
1058	255	181	227
1059	255	179	225
1060	253	177	221
1061	252	180	222
1062	250	182	223
1063	251	191	226
1064	0	0	0
1065	0	0	0
1066	0	0	0
1067	0	0	0
1068	0	0	0
1069	0	0	0
1070	0	0	0
1071	0	0	0
1072	0	0	0
1073	255	224	241
1074	255	226	243
1075	251	209	230
1076	255	212	231
1077	255	213	230
1078	255	205	227
1079	248	190	223
1080	255	197	229
1081	255	203	231
1082	255	199	227
1083	249	185	219
1084	255	193	226
1085	255	196	229
1086	255	196	229
1087	253	187	221
1088	254	188	222
1089	255	192	224
1090	244	171	209
1091	249	176	213
1092	255	186	222
1093	255	188	227
1094	255	183	225
1095	250	173	218
1096	255	187	226
1097	255	191	224
1098	253	177	215
1099	251	173	217
1100	254	176	221
1101	255	177	219
1102	254	177	218
1103	253	176	219
1104	253	176	219
1105	251	176	217
1106	251	178	216
1107	255	187	220
1108	255	202	226
1109	255	202	220
1110	252	196	213
1111	255	210	223
1112	255	212	225
1113	255	204	219
1114	253	196	216
1115	254	193	218
1116	255	204	227
1117	255	195	220
1118	252	181	211
1119	252	177	213
1120	255	178	216
1121	254	172	210
1122	254	171	210
1123	255	170	211
1124	250	162	209
1125	252	163	216
1126	254	165	220
1127	252	164	217
1128	255	171	222
1129	254	171	222
1130	249	167	219
1131	250	172	220
1132	248	174	220
1133	245	177	219
1134	0	0	0
1135	0	0	0
1136	0	0	0
1137	0	0	0
1138	0	0	0
1139	0	0	0
1140	0	0	0
1141	0	0	0
1142	0	0	0
1143	0	0	0
1144	255	242	247
1145	255	228	240
1146	252	213	230
1147	255	216	233
1148	255	218	234
1149	255	204	226
1150	247	189	220
1151	255	199	229
1152	255	205	231
1153	254	193	223
1154	247	181	219
1155	253	187	226
1156	255	190	228
1157	251	182	223
1158	245	173	215
1159	247	175	216
1160	251	180	221
1161	255	184	223
1162	255	188	224
1163	255	190	225
1164	255	192	226
1165	255	183	221
1166	251	173	216
1167	255	179	220
1168	255	183	219
1169	254	176	215
1170	252	172	215
1171	255	176	220
1172	255	177	222
1173	255	177	221
1174	254	175	218
1175	253	176	217
1176	251	174	215
1177	255	187	222
1178	255	196	225
1179	255	197	222
1180	255	198	220
1181	255	207	223
1182	255	220	229
1183	255	208	221
1184	255	202	222
1185	255	200	223
1186	255	196	222
1187	255	189	218
1188	253	180	211
1189	254	177	211
1190	255	173	213
1191	255	172	215
1192	255	167	212
1193	255	165	212
1194	255	164	213
1195	255	163	214
1196	255	163	218
1197	255	163	220
1198	253	162	219
1199	250	160	217
1200	246	157	216
1201	246	161	218
1202	245	165	219
1203	242	168	218
1204	0	0	0
1205	0	0	0
1206	0	0	0
1207	0	0	0
1208	0	0	0
1209	0	0	0
1210	0	0	0
1211	0	0	0
1212	0	0	0
1213	0	0	0
1214	0	0	0
1215	255	236	240
1216	253	222	232
1217	251	214	229
1218	255	219	235
1219	255	213	232
1220	251	200	224
1221	250	194	223
1222	255	204	232
1223	255	199	227
1224	250	188	221
1225	252	188	226
1226	255	194	233
1227	254	185	227
1228	250	178	222
1229	252	180	222
1230	254	182	223
1231	255	186	227
1232	255	189	229
1233	255	186	225
1234	255	188	224
1235	254	177	216
1236	249	169	211
1237	255	176	217
1238	255	182	222
1239	254	173	214
1240	250	167	210
1241	255	174	218
1242	255	177	221
1243	253	171	217
1244	252	170	216
1245	255	176	219
1246	255	176	218
1247	252	174	215
1248	255	187	221
1249	255	185	216
1250	252	186	213
1251	255	199	221
1252	255	209	225
1253	255	203	217
1254	251	191	209
1255	255	206	225
1256	255	204	227
1257	254	184	215
1258	253	178	212
1259	255	178	213
1260	255	175	214
1261	253	163	210
1262	254	161	213
1263	250	152	208
1264	250	151	209
1265	254	156	213
1266	253	154	213
1267	251	152	214
1268	250	152	215
1269	252	158	219
1270	248	155	217
1271	251	164	223
1272	249	166	223
1273	248	173	224
1274	244	175	221
1275	252	197	231
1276	0	0	0
1277	0	0	0
1278	0	0	0
1279	0	0	0
1280	0	0	0
1281	0	0	0
1282	0	0	0
1283	0	0	0
1284	0	0	0
1285	0	0	0
1286	255	233	239
1287	254	225	236
1288	252	217	232
1289	255	215	233
1290	255	211	233
1291	255	207	233
1292	255	201	229
1293	255	198	228
1294	253	195	226
1295	253	192	227
1296	255	192	230
1297	253	185	227
1298	248	176	221
1299	253	181	226
1300	255	184	227
1301	255	188	229
1302	255	190	228
1303	255	186	225
1304	255	185	225
1305	255	176	220
1306	248	166	212
1307	254	173	216
1308	255	180	221
1309	255	172	216
1310	249	163	209
1311	255	170	216
1312	255	177	222
1313	254	170	217
1314	248	162	210
1315	252	169	215
1316	255	177	221
1317	255	177	220
1318	253	174	216
1319	254	178	215
1320	250	175	209
1321	255	189	215
1322	255	202	222
1323	255	195	215
1324	254	190	211
1325	255	199	217
1326	255	212	228
1327	255	191	216
1328	250	173	209
1329	255	176	215
1330	255	176	215
1331	255	164	211
1332	250	152	209
1333	249	147	210
1334	244	137	205
1335	248	143	209
1336	250	146	211
1337	247	143	208
1338	244	140	209
1339	246	146	214
1340	247	150	217
1341	249	158	221
1342	251	166	227
1343	250	172	227
1344	248	177	225
1345	255	200	234
1346	255	221	241
1347	0	0	0
1348	0	0	0
1349	0	0	0
1350	0	0	0
1351	0	0	0
1352	0	0	0
1353	0	0	0
1354	0	0	0
1355	0	0	0
1356	0	0	0
1357	255	240	244
1358	255	233	241
1359	253	220	234
1360	255	218	235
1361	254	208	232
1362	255	205	232
1363	251	195	226
1364	251	193	225
1365	255	200	231
1366	255	197	231
1367	255	193	231
1368	254	186	227
1369	255	185	227
1370	255	191	232
1371	252	177	222
1372	255	181	224
1373	254	179	221
1374	253	176	219
1375	255	183	227
1376	255	175	222
1377	247	162	212
1378	254	169	217
1379	255	176	221
1380	254	167	215
1381	247	158	209
1382	253	165	215
1383	255	171	219
1384	250	163	212
1385	253	169	213
1386	255	176	217
1387	255	177	220
1388	255	177	220
1389	255	174	216
1390	255	178	216
1391	249	171	207
1392	255	185	213
1393	255	192	216
1394	254	184	209
1395	255	188	212
1396	255	197	218
1397	255	196	218
1398	253	175	206
1399	253	170	209
1400	255	173	216
1401	255	161	209
1402	250	149	206
1403	251	146	211
1404	250	141	212
1405	250	141	212
1406	253	145	215
1407	252	146	214
1408	248	142	211
1409	253	152	220
1410	254	156	224
1411	247	153	218
1412	247	159	221
1413	251	172	229
1414	249	177	228
1415	254	194	232
1416	255	217	241
1417	255	218	233
1418	0	0	0
1419	0	0	0
1420	0	0	0
1421	0	0	0
1422	0	0	0
1423	0	0	0
1424	0	0	0
1425	0	0	0
1426	0	0	0
1427	0	0	0
1428	255	248	248
1429	255	234	240
1430	253	221	234
1431	255	214	232
1432	252	204	227
1433	252	199	226
1434	249	191	224
1435	255	199	231
1436	255	205	235
1437	255	199	231
1438	255	195	230
1439	255	194	230
1440	255	192	230
1441	253	180	222
1442	245	167	214
1443	248	169	216
1444	248	167	216
1445	253	173	221
1446	255	181	227
1447	253	169	219
1448	245	156	210
1449	251	163	216
1450	255	170	222
1451	250	160	214
1452	244	151	208
1453	249	158	213
1454	251	163	214
1455	255	170	216
1456	255	176	216
1457	255	174	213
1458	255	175	216
1459	255	174	216
1460	254	172	214
1461	253	171	211
1462	246	164	203
1463	251	172	206
1464	255	180	211
1465	255	183	212
1466	255	186	213
1467	255	184	212
1468	255	184	212
1469	255	172	206
1470	255	167	210
1471	252	157	208
1472	247	145	202
1473	251	144	207
1474	252	141	213
1475	255	144	218
1476	253	141	215
1477	253	143	215
1478	252	143	213
1479	254	151	218
1480	255	160	227
1481	253	157	224
1482	244	152	216
1483	248	165	222
1484	251	178	227
1485	255	195	234
1486	255	212	238
1487	255	215	233
1488	0	0	0
1489	0	0	0
1490	0	0	0
1491	0	0	0
1492	0	0	0
1493	0	0	0
1494	0	0	0
1495	0	0	0
1496	0	0	0
1497	0	0	0
1498	0	0	0
1499	255	246	245
1500	254	231	237
1501	253	222	234
1502	255	216	234
1503	250	200	225
1504	250	195	224
1505	253	195	227
1506	255	203	234
1507	255	197	228
1508	255	191	224
1509	255	190	226
1510	255	188	226
1511	255	186	224
1512	249	174	216
1513	254	179	222
1514	255	181	224
1515	255	175	222
1516	255	181	227
1517	255	175	223
1518	250	163	215
1519	251	162	215
1520	255	169	221
1521	255	168	221
1522	249	158	214
1523	255	166	219
1524	255	172	223
1525	252	162	214
1526	255	169	216
1527	255	172	212
1528	254	170	209
1529	255	180	217
1530	255	179	218
1531	253	169	211
1532	252	168	209
1533	252	169	206
1534	255	178	210
1535	255	184	215
1536	255	187	217
1537	255	173	208
1538	255	172	208
1539	252	164	203
1540	246	152	197
1541	255	173	218
1542	255	162	215
1543	249	140	205
1544	252	139	210
1545	251	134	211
1546	252	136	214
1547	251	135	212
1548	250	136	211
1549	254	146	216
1550	255	151	219
1551	253	154	222
1552	245	150	217
1553	249	164	222
1554	253	176	226
1555	255	191	230
1556	255	208	236
1557	255	211	232
1558	0	0	0
1559	0	0	0
1560	0	0	0
1561	0	0	0
1562	0	0	0
1563	0	0	0
1564	0	0	0
1565	0	0	0
1566	0	0	0
1567	0	0	0
1568	0	0	0
1569	0	0	0
1570	255	246	244
1571	255	234	239
1572	255	224	236
1573	255	214	234
1574	250	198	227
1575	255	201	231
1576	255	199	228
1577	255	194	224
1578	252	189	220
1579	254	188	221
1580	255	188	225
1581	255	185	225
1582	255	183	223
1583	255	187	225
1584	255	192	228
1585	255	185	224
1586	255	179	221
1587	254	172	217
1588	251	166	214
1589	253	166	215
1590	253	165	215
1591	253	165	215
1592	252	163	215
1593	255	169	219
1594	255	177	224
1595	255	169	218
1596	249	159	212
1597	254	166	215
1598	255	169	211
1599	255	177	214
1600	255	187	221
1601	255	175	213
1602	252	165	208
1603	255	170	210
1604	255	171	207
1605	255	177	209
1606	255	183	212
1607	255	169	204
1608	248	157	201
1609	247	152	201
1610	243	144	197
1611	255	160	209
1612	255	180	224
1613	255	156	212
1614	249	135	206
1615	253	135	212
1616	249	127	207
1617	251	132	211
1618	249	131	211
1619	253	140	215
1620	255	148	219
1621	251	148	217
1622	248	149	216
1623	251	162	222
1624	255	176	228
1625	255	190	231
1626	255	202	231
1627	255	206	227
1628	255	211	225
1629	255	221	229
1630	0	0	0
1631	0	0	0
1632	0	0	0
1633	0	0	0
1634	0	0	0
1635	0	0	0
1636	0	0	0
1637	0	0	0
1638	0	0	0
1639	0	0	0
1640	0	0	0
1641	255	246	245
1642	255	234	240
1643	252	213	230
1644	250	202	227
1645	249	194	227
1646	255	197	230
1647	255	196	226
1648	253	191	221
1649	252	186	219
1650	253	185	221
1651	254	184	223
1652	254	181	222
1653	254	181	223
1654	255	185	225
1655	255	185	223
1656	255	178	217
1657	255	175	217
1658	252	168	215
1659	254	169	216
1660	255	169	216
1661	253	165	213
1662	253	164	213
1663	252	163	213
1664	255	170	217
1665	255	176	220
1666	255	168	214
1667	252	162	211
1668	255	171	216
1669	255	169	211
1670	255	177	214
1671	255	170	209
1672	248	159	201
1673	255	169	210
1674	255	174	213
1675	255	170	207
1676	255	177	210
1677	255	172	207
1678	252	159	201
1679	254	158	208
1680	253	153	209
1681	253	151	208
1682	255	166	218
1683	255	159	213
1684	249	134	200
1685	250	130	207
1686	252	129	212
1687	246	120	205
1688	248	123	208
1689	243	121	205
1690	244	128	208
1691	254	149	219
1692	249	147	215
1693	248	154	216
1694	251	167	221
1695	255	187	231
1696	255	200	233
1697	255	206	229
1698	255	212	227
1699	255	212	224
1700	255	223	229
1701	255	218	224
1702	0	0	0
1703	0	0	0
1704	0	0	0
1705	0	0	0
1706	0	0	0
1707	0	0	0
1708	0	0	0
1709	0	0	0
1710	0	0	0
1711	0	0	0
1712	255	245	245
1713	254	222	233
1714	245	201	223
1715	249	198	225
1716	247	190	223
1717	252	192	227
1718	253	191	225
1719	251	186	221
1720	250	181	220
1721	250	180	220
1722	250	177	217
1723	252	179	219
1724	254	179	222
1725	255	181	224
1726	255	181	221
1727	255	176	217
1728	255	173	219
1729	255	172	220
1730	255	172	219
1731	254	168	215
1732	252	164	211
1733	253	165	212
1734	253	165	212
1735	255	171	216
1736	255	176	217
1737	255	171	212
1738	254	165	207
1739	255	167	209
1740	255	168	208
1741	252	162	204
1742	247	155	199
1743	254	165	206
1744	255	175	214
1745	255	171	211
1746	255	168	209
1747	255	165	208
1748	255	162	207
1749	255	160	210
1750	255	159	215
1751	255	158	217
1752	255	155	214
1753	255	146	208
1754	253	139	204
1755	250	130	203
1756	250	125	207
1757	249	120	208
1758	242	110	203
1759	242	113	204
1760	234	109	198
1761	241	127	207
1762	250	147	217
1763	248	151	215
1764	246	157	214
1765	253	176	221
1766	255	195	230
1767	255	202	229
1768	255	210	228
1769	255	211	225
1770	255	212	224
1771	250	208	220
1772	0	0	0
1773	0	0	0
1774	0	0	0
1775	0	0	0
1776	0	0	0
1777	0	0	0
1778	0	0	0
1779	0	0	0
1780	0	0	0
1781	0	0	0
1782	0	0	0
1783	255	242	243
1784	253	219	231
1785	250	207	227
1786	253	204	230
1787	249	193	225
1788	254	195	228
1789	255	193	227
1790	254	188	225
1791	255	188	227
1792	255	187	226
1793	255	185	222
1794	255	186	223
1795	254	177	221
1796	255	179	223
1797	255	176	218
1798	252	170	215
1799	255	173	220
1800	255	171	220
1801	255	174	220
1802	255	170	216
1803	253	165	211
1804	254	166	212
1805	255	168	213
1806	255	173	216
1807	255	173	213
1808	255	168	208
1809	249	157	200
1810	252	160	203
1811	255	171	212
1812	255	166	208
1813	249	156	200
1814	255	167	207
1815	255	174	213
1816	255	171	211
1817	255	168	212
1818	255	166	213
1819	255	154	206
1820	255	152	208
1821	254	146	208
1822	255	144	210
1823	255	148	212
1824	254	139	206
1825	253	133	205
1826	250	125	203
1827	254	127	210
1828	252	121	210
1829	241	109	203
1830	239	110	203
1831	244	126	208
1832	250	143	215
1833	253	157	220
1834	250	160	217
1835	253	173	220
1836	255	193	227
1837	255	207	233
1838	255	215	233
1839	255	207	224
1840	255	209	223
1841	255	213	225
1842	0	0	0
1843	0	0	0
1844	0	0	0
1845	0	0	0
1846	0	0	0
1847	0	0	0
1848	0	0	0
1849	0	0	0
1850	0	0	0
1851	0	0	0
1852	0	0	0
1853	0	0	0
1854	255	238	241
1855	255	223	234
1856	253	210	229
1857	254	205	229
1858	250	194	225
1859	255	196	228
1860	255	194	226
1861	255	195	229
1862	255	195	233
1863	255	195	233
1864	255	193	228
1865	255	184	222
1866	253	174	217
1867	254	174	218
1868	253	171	216
1869	255	173	218
1870	255	174	221
1871	255	175	221
1872	255	178	222
1873	255	172	217
1874	254	167	213
1875	255	169	215
1876	255	171	215
1877	255	171	213
1878	255	171	210
1879	254	163	204
1880	248	153	200
1881	255	165	209
1882	255	177	218
1883	255	168	211
1884	253	159	202
1885	255	168	209
1886	255	177	216
1887	255	174	216
1888	255	172	218
1889	255	159	210
1890	253	146	201
1891	250	139	198
1892	247	131	196
1893	251	135	202
1894	255	139	208
1895	253	132	205
1896	251	126	202
1897	255	129	207
1898	255	128	211
1899	249	119	205
1900	238	105	197
1901	245	123	207
1902	249	137	212
1903	251	150	215
1904	253	163	218
1905	255	176	222
1906	255	190	225
1907	255	203	228
1908	255	218	234
1909	255	208	224
1910	250	202	217
1911	251	207	219
1912	0	0	0
1913	0	0	0
1914	0	0	0
1915	0	0	0
1916	0	0	0
1917	0	0	0
1918	0	0	0
1919	0	0	0
1920	0	0	0
1921	0	0	0
1922	0	0	0
1923	0	0	0
1924	0	0	0
1925	255	241	244
1926	255	225	236
1927	250	207	227
1928	251	200	226
1929	253	198	227
1930	255	200	229
1931	255	193	225
1932	255	194	228
1933	255	186	226
1934	255	186	227
1935	255	184	222
1936	253	175	216
1937	253	172	215
1938	254	171	216
1939	255	171	216
1940	255	172	218
1941	252	166	215
1942	254	167	217
1943	255	175	220
1944	254	168	214
1945	253	166	212
1946	255	169	213
1947	255	172	216
1948	255	173	215
1949	255	164	207
1950	251	156	202
1951	252	155	204
1952	255	167	213
1953	255	167	212
1954	255	159	205
1955	255	158	203
1956	255	168	210
1957	255	159	206
1958	255	156	206
1959	255	152	206
1960	251	139	199
1961	252	138	199
1962	249	131	195
1963	254	136	201
1964	255	138	206
1965	255	139	209
1966	255	131	206
1967	255	129	207
1968	255	129	210
1969	241	106	196
1970	232	95	189
1971	246	120	205
1972	252	137	214
1973	253	148	216
1974	253	160	218
1975	254	171	220
1976	255	185	223
1977	255	198	226
1978	255	211	229
1979	255	212	226
1980	0	0	0
1981	0	0	0
1982	0	0	0
1983	0	0	0
1984	0	0	0
1985	0	0	0
1986	0	0	0
1987	0	0	0
1988	0	0	0
1989	0	0	0
1990	0	0	0
1991	0	0	0
1992	0	0	0
1993	0	0	0
1994	0	0	0
1995	255	239	241
1996	255	248	250
1997	255	226	238
1998	252	207	230
1999	255	207	232
2000	255	203	229
2001	255	198	226
2002	255	192	223
2003	254	186	221
2004	250	177	218
2005	254	178	221
2006	255	177	218
2007	253	173	215
2008	253	170	216
2009	254	170	216
2010	254	168	214
2011	252	164	212
2012	248	158	212
2013	255	167	220
2014	255	174	223
2015	255	170	217
2016	254	167	211
2017	255	170	212
2018	255	174	216
2019	255	167	213
2020	254	159	208
2021	255	160	210
2022	255	159	210
2023	255	161	210
2024	255	160	207
2025	255	160	206
2026	255	161	208
2027	255	152	203
2028	252	142	197
2029	252	139	197
2030	252	135	197
2031	253	134	198
2032	255	134	202
2033	255	139	207
2034	255	143	211
2035	255	142	212
2036	255	142	213
2037	255	136	211
2038	255	132	211
2039	246	111	199
2040	228	87	186
2041	245	115	206
2042	255	139	219
2043	255	151	222
2044	255	160	221
2045	255	172	223
2046	255	183	226
2047	255	195	228
2048	255	208	230
2049	255	207	225
2050	255	209	224
2051	0	0	0
2052	0	0	0
2053	0	0	0
2054	0	0	0
2055	0	0	0
2056	0	0	0
2057	0	0	0
2058	0	0	0
2059	0	0	0
2060	0	0	0
2061	0	0	0
2062	0	0	0
2063	0	0	0
2064	0	0	0
2065	255	235	239
2066	255	241	244
2067	255	224	236
2068	245	202	224
2069	255	211	234
2070	255	210	236
2071	251	193	223
2072	251	189	220
2073	255	194	227
2074	255	188	225
2075	247	168	215
2076	250	170	217
2077	255	176	219
2078	254	172	215
2079	255	173	218
2080	255	172	217
2081	254	168	214
2082	252	163	212
2083	253	162	215
2084	255	171	222
2085	255	167	218
2086	252	163	212
2087	255	171	213
2088	255	173	213
2089	255	171	214
2090	255	164	212
2091	252	152	206
2092	255	155	209
2093	255	153	208
2094	255	155	208
2095	253	146	200
2096	255	147	200
2097	255	149	204
2098	255	141	200
2099	254	136	197
2100	254	133	197
2101	251	126	194
2102	252	124	196
2103	255	130	203
2104	255	134	208
2105	255	125	203
2106	255	124	203
2107	254	121	201
2108	249	114	197
2109	249	114	199
2110	234	92	187
2111	239	102	198
2112	254	129	216
2113	255	145	221
2114	255	155	221
2115	252	157	217
2116	252	168	219
2117	255	187	227
2118	255	200	229
2119	255	209	230
2120	255	208	225
2121	253	207	222
2122	0	0	0
2123	0	0	0
2124	0	0	0
2125	0	0	0
2126	0	0	0
2127	0	0	0
2128	0	0	0
2129	0	0	0
2130	0	0	0
2131	0	0	0
2132	0	0	0
2133	0	0	0
2134	0	0	0
2135	255	240	242
2136	255	233	237
2137	249	217	228
2138	242	201	221
2139	251	208	230
2140	255	216	239
2141	253	200	230
2142	244	183	218
2143	252	188	224
2144	255	194	233
2145	252	178	225
2146	242	160	214
2147	252	170	221
2148	255	175	221
2149	255	176	219
2150	255	176	220
2151	255	172	218
2152	255	168	217
2153	255	166	216
2154	253	163	213
2155	252	161	211
2156	249	158	208
2157	254	165	212
2158	255	175	216
2159	255	168	211
2160	255	166	211
2161	255	157	208
2162	250	146	201
2163	253	147	203
2164	254	145	203
2165	250	138	198
2166	246	131	193
2167	249	133	195
2168	254	136	199
2169	254	132	198
2170	253	127	194
2171	255	124	195
2172	252	118	194
2173	255	123	200
2174	255	128	204
2175	254	117	199
2176	249	108	196
2177	249	106	196
2178	245	102	192
2179	240	99	188
2180	240	98	190
2181	244	108	199
2182	247	116	205
2183	253	134	214
2184	255	148	218
2185	249	149	213
2186	244	152	211
2187	251	172	220
2188	255	192	227
2189	255	200	227
2190	255	210	229
2191	254	207	223
2192	0	0	0
2193	0	0	0
2194	0	0	0
2195	0	0	0
2196	0	0	0
2197	0	0	0
2198	0	0	0
2199	0	0	0
2200	0	0	0
2201	0	0	0
2202	0	0	0
2203	0	0	0
2204	0	0	0
2205	0	0	0
2206	255	242	242
2207	255	231	237
2208	250	215	229
2209	249	208	229
2210	255	214	236
2211	255	211	235
2212	249	194	225
2213	253	194	227
2214	255	200	235
2215	255	191	233
2216	252	175	225
2217	251	170	223
2218	255	180	230
2219	254	168	218
2220	255	169	217
2221	249	158	210
2222	247	154	208
2223	255	167	218
2224	255	165	215
2225	253	163	211
2226	252	161	208
2227	252	161	208
2228	255	170	214
2229	255	180	219
2230	255	175	215
2231	255	164	211
2232	255	155	207
2233	249	140	198
2234	252	141	200
2235	255	147	204
2236	255	141	200
2237	255	139	200
2238	255	142	204
2239	255	139	205
2240	255	136	204
2241	249	113	190
2242	250	110	191
2243	248	105	190
2244	253	110	196
2245	255	117	201
2246	252	107	196
2247	250	102	197
2248	249	100	197
2249	250	104	197
2250	244	99	192
2251	244	104	195
2252	245	111	200
2253	248	124	206
2254	253	140	213
2255	255	154	217
2256	248	155	212
2257	255	177	224
2258	255	198	233
2259	255	198	226
2260	255	206	227
2261	255	208	225
2262	0	0	0
2263	0	0	0
2264	0	0	0
2265	0	0	0
2266	0	0	0
2267	0	0	0
2268	0	0	0
2269	0	0	0
2270	0	0	0
2271	0	0	0
2272	0	0	0
2273	0	0	0
2274	0	0	0
2275	0	0	0
2276	255	251	246
2277	255	238	239
2278	255	228	238
2279	255	222	238
2280	253	213	234
2281	252	208	230
2282	252	203	227
2283	254	201	228
2284	255	203	233
2285	255	195	231
2286	255	185	227
2287	255	183	228
2288	255	178	225
2289	254	169	220
2290	248	158	212
2291	244	150	208
2292	238	140	203
2293	248	154	212
2294	255	166	219
2295	252	162	212
2296	251	160	208
2297	254	164	209
2298	255	165	210
2299	255	178	219
2300	255	189	225
2301	255	176	216
2302	255	165	212
2303	255	151	204
2304	249	136	198
2305	255	142	202
2306	255	147	203
2307	255	146	202
2308	255	145	205
2309	255	143	207
2310	255	140	208
2311	255	119	196
2312	243	97	184
2313	245	95	186
2314	242	89	185
2315	248	97	192
2316	254	104	196
2317	250	98	195
2318	248	93	196
2319	253	101	202
2320	253	104	202
2321	251	107	201
2322	248	109	201
2323	249	122	205
2324	249	132	207
2325	250	144	209
2326	252	158	213
2327	255	175	218
2328	255	198	229
2329	255	198	224
2330	254	198	217
2331	251	200	215
2332	0	0	0
2333	0	0	0
2334	0	0	0
2335	0	0	0
2336	0	0	0
2337	0	0	0
2338	0	0	0
2339	0	0	0
2340	0	0	0
2341	0	0	0
2342	0	0	0
2343	0	0	0
2344	0	0	0
2345	0	0	0
2346	0	0	0
2347	255	248	245
2348	255	236	239
2349	248	215	230
2350	246	208	228
2351	254	216	235
2352	253	210	230
2353	255	209	229
2354	255	208	231
2355	255	208	235
2356	255	200	234
2357	248	174	218
2358	252	172	220
2359	250	167	217
2360	247	158	211
2361	255	168	220
2362	252	161	216
2363	248	154	212
2364	255	168	222
2365	255	170	220
2366	255	166	214
2367	255	175	218
2368	255	180	220
2369	255	163	210
2370	255	176	219
2371	255	162	208
2372	253	148	200
2373	248	137	194
2374	241	123	187
2375	255	141	203
2376	255	147	207
2377	255	138	198
2378	255	137	198
2379	255	127	195
2380	255	125	199
2381	255	118	197
2382	245	97	186
2383	250	101	191
2384	252	99	194
2385	251	97	194
2386	255	105	201
2387	255	107	202
2388	255	100	200
2389	247	88	195
2390	250	94	200
2391	250	99	200
2392	247	101	198
2393	247	111	201
2394	247	121	203
2395	250	140	208
2396	249	151	208
2397	255	179	220
2398	255	198	226
2399	255	204	226
2400	255	205	221
2401	254	203	215
2402	0	0	0
2403	0	0	0
2404	0	0	0
2405	0	0	0
2406	0	0	0
2407	0	0	0
2408	0	0	0
2409	0	0	0
2410	0	0	0
2411	0	0	0
2412	0	0	0
2413	0	0	0
2414	0	0	0
2415	0	0	0
2416	0	0	0
2417	255	239	239
2418	255	245	245
2419	253	225	234
2420	242	204	224
2421	251	214	232
2422	255	221	237
2423	255	218	234
2424	255	218	233
2425	255	213	231
2426	255	211	233
2427	252	186	221
2428	239	161	209
2429	244	161	213
2430	243	156	212
2431	254	167	220
2432	255	177	225
2433	255	171	220
2434	254	163	214
2435	255	170	218
2436	255	174	220
2437	255	184	227
2438	255	195	233
2439	255	180	224
2440	255	164	215
2441	255	150	207
2442	247	136	196
2443	240	123	187
2444	235	112	182
2445	249	130	196
2446	255	147	208
2447	255	136	200
2448	253	128	194
2449	249	118	190
2450	246	108	190
2451	249	106	193
2452	248	98	190
2453	253	102	194
2454	255	105	199
2455	255	105	200
2456	255	102	200
2457	255	106	204
2458	255	108	206
2459	255	96	199
2460	245	82	192
2461	248	91	197
2462	247	94	197
2463	245	102	198
2464	244	110	200
2465	247	129	206
2466	251	148	210
2467	255	173	218
2468	255	201	228
2469	255	204	223
2470	255	211	224
2471	255	212	222
2472	255	213	220
2473	0	0	0
2474	0	0	0
2475	0	0	0
2476	0	0	0
2477	0	0	0
2478	0	0	0
2479	0	0	0
2480	0	0	0
2481	0	0	0
2482	0	0	0
2483	0	0	0
2484	0	0	0
2485	0	0	0
2486	0	0	0
2487	255	251	244
2488	255	252	246
2489	255	234	238
2490	248	215	229
2491	247	208	228
2492	255	218	237
2493	255	214	232
2494	253	209	227
2495	255	219	233
2496	255	213	230
2497	255	203	227
2498	247	178	215
2499	249	174	218
2500	254	174	222
2501	252	167	220
2502	255	178	227
2503	255	169	219
2504	253	163	213
2505	253	163	212
2506	255	170	216
2507	255	172	217
2508	255	183	225
2509	255	164	213
2510	253	150	206
2511	253	146	206
2512	247	133	199
2513	252	137	200
2514	246	125	192
2515	252	131	199
2516	255	148	212
2517	255	138	204
2518	253	128	196
2519	255	138	205
2520	255	128	202
2521	254	111	196
2522	255	108	199
2523	246	90	188
2524	250	93	191
2525	255	101	198
2526	255	99	198
2527	249	85	191
2528	252	88	195
2529	252	88	195
2530	242	74	187
2531	238	72	186
2532	240	79	190
2533	247	99	199
2534	244	105	199
2535	250	128	208
2536	253	145	213
2537	255	169	220
2538	255	194	227
2539	255	204	224
2540	255	208	220
2541	255	204	216
2542	254	205	215
2543	254	211	217
2544	0	0	0
2545	0	0	0
2546	0	0	0
2547	0	0	0
2548	0	0	0
2549	0	0	0
2550	0	0	0
2551	0	0	0
2552	0	0	0
2553	0	0	0
2554	0	0	0
2555	0	0	0
2556	0	0	0
2557	0	0	0
2558	255	255	242
2559	255	242	238
2560	249	221	229
2561	252	219	232
2562	252	213	233
2563	254	213	235
2564	252	208	230
2565	255	214	232
2566	255	223	236
2567	255	208	228
2568	255	199	228
2569	255	193	229
2570	255	187	228
2571	255	184	227
2572	255	177	224
2573	255	172	221
2574	252	163	214
2575	255	165	215
2576	255	166	216
2577	255	169	217
2578	255	170	214
2579	253	152	202
2580	244	135	194
2581	245	132	196
2582	245	128	196
2583	250	132	200
2584	254	136	200
2585	255	141	204
2586	255	148	213
2587	255	140	209
2588	255	130	202
2589	255	137	207
2590	255	149	217
2591	255	128	205
2592	255	110	195
2593	251	96	190
2594	240	78	180
2595	247	85	187
2596	254	93	193
2597	243	76	183
2598	234	61	177
2599	235	63	181
2600	234	61	182
2601	233	62	182
2602	227	58	179
2603	239	82	192
2604	245	100	200
2605	251	122	209
2606	255	143	215
2607	255	166	222
2608	255	190	229
2609	255	198	225
2610	255	208	222
2611	255	201	212
2612	251	199	212
2613	254	207	216
2614	253	212	215
2615	0	0	0
2616	0	0	0
2617	0	0	0
2618	0	0	0
2619	0	0	0
2620	0	0	0
2621	0	0	0
2622	0	0	0
2623	0	0	0
2624	0	0	0
2625	0	0	0
2626	0	0	0
2627	0	0	0
2628	0	0	0
2629	255	254	246
2630	253	232	233
2631	249	218	229
2632	252	216	233
2633	252	211	234
2634	253	210	234
2635	254	209	233
2636	255	216	236
2637	255	217	234
2638	255	201	225
2639	253	191	224
2640	254	185	225
2641	255	182	224
2642	255	177	222
2643	254	171	217
2644	253	167	215
2645	254	164	213
2646	255	167	216
2647	255	167	217
2648	255	171	219
2649	255	158	207
2650	249	141	197
2651	250	138	199
2652	251	134	200
2653	251	130	200
2654	254	133	202
2655	255	134	199
2656	255	139	204
2657	255	133	204
2658	254	125	200
2659	255	126	201
2660	255	134	208
2661	255	126	204
2662	252	105	191
2663	250	96	187
2664	244	82	182
2665	245	80	184
2666	252	88	192
2667	255	100	200
2668	249	83	189
2669	250	84	193
2670	250	84	196
2671	247	81	196
2672	246	81	197
2673	239	79	192
2674	247	100	203
2675	252	120	211
2676	255	140	217
2677	254	152	216
2678	255	175	223
2679	255	195	228
2680	255	203	225
2681	255	200	214
2682	247	194	206
2683	255	213	221
2684	255	222	226
2685	249	208	211
2686	0	0	0
2687	0	0	0
2688	0	0	0
2689	0	0	0
2690	0	0	0
2691	0	0	0
2692	0	0	0
2693	0	0	0
2694	0	0	0
2695	0	0	0
2696	0	0	0
2697	0	0	0
2698	0	0	0
2699	255	245	245
2700	255	246	246
2701	255	231	238
2702	251	217	234
2703	252	215	236
2704	251	210	235
2705	254	211	236
2706	255	209	234
2707	255	209	233
2708	255	210	232
2709	253	195	222
2710	249	183	218
2711	250	180	220
2712	253	178	223
2713	253	174	221
2714	251	167	213
2715	255	169	215
2716	255	167	215
2717	255	168	216
2718	255	168	216
2719	255	156	208
2720	253	146	203
2721	255	143	203
2722	255	138	202
2723	255	135	202
2724	253	130	201
2725	254	130	201
2726	255	131	200
2727	253	125	197
2728	251	118	195
2729	255	122	199
2730	255	124	201
2731	254	112	193
2732	251	103	189
2733	247	92	184
2734	246	84	183
2735	249	86	189
2736	250	84	192
2737	255	97	202
2738	255	107	207
2739	255	103	202
2740	255	102	203
2741	255	98	202
2742	253	94	200
2743	253	98	203
2744	244	94	198
2745	251	116	208
2746	254	134	215
2747	252	145	215
2748	251	158	215
2749	255	177	220
2750	255	197	225
2751	254	193	214
2752	248	192	206
2753	255	208	215
2754	255	227	230
2755	255	216	221
2756	244	203	206
2757	0	0	0
2758	0	0	0
2759	0	0	0
2760	0	0	0
2761	0	0	0
2762	0	0	0
2763	0	0	0
2764	0	0	0
2765	0	0	0
2766	0	0	0
2767	0	0	0
2768	0	0	0
2769	0	0	0
2770	255	252	252
2771	255	239	245
2772	252	224	237
2773	249	214	233
2774	250	211	233
2775	255	219	240
2776	255	220	242
2777	254	207	234
2778	255	207	234
2779	255	205	231
2780	251	190	222
2781	250	184	221
2782	252	181	222
2783	255	188	230
2784	255	184	228
2785	250	163	213
2786	255	166	215
2787	254	159	212
2788	255	160	213
2789	255	157	211
2790	252	146	204
2791	254	142	205
2792	255	138	206
2793	245	120	193
2794	244	117	191
2795	255	132	203
2796	255	132	203
2797	255	135	205
2798	255	129	203
2799	251	114	194
2800	255	118	199
2801	255	112	196
2802	250	100	189
2803	254	101	191
2804	249	90	187
2805	248	84	187
2806	250	84	191
2807	249	83	193
2808	255	94	202
2809	255	92	197
2810	249	85	191
2811	250	89	193
2812	245	84	189
2813	249	95	197
2814	247	97	198
2815	240	99	196
2816	247	120	206
2817	255	156	224
2818	255	168	224
2819	255	180	224
2820	255	200	230
2821	255	203	225
2822	255	201	217
2823	255	205	214
2824	255	222	224
2825	255	218	223
2826	248	207	214
2827	247	210	212
2828	0	0	0
2829	0	0	0
2830	0	0	0
2831	0	0	0
2832	0	0	0
2833	0	0	0
2834	0	0	0
2835	0	0	0
2836	0	0	0
2837	0	0	0
2838	0	0	0
2839	0	0	0
2840	0	0	0
2841	0	0	0
2842	255	232	241
2843	251	221	234
2844	245	209	226
2845	251	216	230
2846	255	224	238
2847	255	213	233
2848	251	202	230
2849	254	201	232
2850	255	199	229
2851	252	190	225
2852	252	186	226
2853	255	192	231
2854	255	196	233
2855	255	178	222
2856	249	160	214
2857	252	157	215
2858	249	149	210
2859	251	148	209
2860	252	146	208
2861	250	138	204
2862	250	133	205
2863	243	118	197
2864	232	100	184
2865	247	118	197
2866	255	133	207
2867	255	133	206
2868	255	136	206
2869	255	120	197
2870	248	106	191
2871	250	103	192
2872	248	97	190
2873	250	95	191
2874	253	96	194
2875	249	87	189
2876	246	80	186
2877	247	80	189
2878	246	78	191
2879	247	79	192
2880	243	75	187
2881	241	77	186
2882	241	79	188
2883	244	89	192
2884	246	97	196
2885	244	103	198
2886	237	105	197
2887	254	143	218
2888	255	178	233
2889	255	187	229
2890	255	199	227
2891	255	202	223
2892	255	208	222
2893	255	212	221
2894	255	216	220
2895	255	212	217
2896	251	209	218
2897	253	215	223
2898	253	220	222
2899	255	230	229
2900	0	0	0
2901	0	0	0
2902	0	0	0
2903	0	0	0
2904	0	0	0
2905	0	0	0
2906	0	0	0
2907	0	0	0
2908	0	0	0
2909	0	0	0
2910	0	0	0
2911	0	0	0
2912	0	0	0
2913	249	221	234
2914	243	209	227
2915	250	218	231
2916	254	223	234
2917	254	219	233
2918	252	210	230
2919	255	206	233
2920	255	204	235
2921	251	193	228
2922	248	185	224
2923	255	198	236
2924	255	203	239
2925	255	182	222
2926	249	165	212
2927	253	162	219
2928	255	161	222
2929	251	148	214
2930	252	147	213
2931	255	148	213
2932	253	140	208
2933	255	138	211
2934	247	123	201
2935	249	122	201
2936	255	140	213
2937	255	131	207
2938	255	132	207
2939	255	125	202
2940	251	110	193
2941	254	110	197
2942	255	107	199
2943	248	92	190
2944	248	90	191
2945	255	97	198
2946	250	88	192
2947	254	92	196
2948	255	92	199
2949	249	82	194
2950	247	81	194
2951	246	83	193
2952	245	85	192
2953	252	100	201
2954	252	106	203
2955	249	111	201
2956	245	116	201
2957	248	132	210
2958	255	170	230
2959	255	189	232
2960	255	199	228
2961	255	197	219
2962	255	202	216
2963	255	210	219
2964	255	215	221
2965	255	214	217
2966	252	210	215
2967	254	214	222
2968	255	222	228
2969	252	219	224
2970	255	229	230
2971	254	230	231
2972	0	0	0
2973	0	0	0
2974	0	0	0
2975	0	0	0
2976	0	0	0
2977	0	0	0
2978	0	0	0
2979	0	0	0
2980	0	0	0
2981	0	0	0
2982	0	0	0
2983	0	0	0
2984	0	0	0
2985	254	223	238
2986	255	231	244
2987	255	223	238
2988	255	219	237
2989	255	212	234
2990	255	207	234
2991	251	196	230
2992	246	186	226
2993	255	196	234
2994	255	207	239
2995	255	186	224
2996	246	167	211
2997	250	165	215
2998	255	164	222
2999	254	156	221
3000	248	143	214
3001	254	147	216
3002	255	147	213
3003	255	142	209
3004	255	140	210
3005	255	140	210
3006	255	138	208
3007	255	131	203
3008	252	123	200
3009	253	120	201
3010	252	114	198
3011	254	112	199
3012	255	112	203
3013	250	97	195
3014	241	82	184
3015	248	90	191
3016	254	96	197
3017	255	98	199
3018	255	102	204
3019	254	93	200
3020	246	81	194
3021	249	88	198
3022	247	89	195
3023	254	103	202
3024	255	117	208
3025	253	119	205
3026	249	123	204
3027	253	141	212
3028	255	157	220
3029	255	179	228
3030	255	199	228
3031	255	197	219
3032	255	198	214
3033	255	206	217
3034	255	214	219
3035	255	212	217
3036	254	212	216
3037	253	214	218
3038	253	217	222
3039	250	216	222
3040	246	214	220
3041	246	218	222
3042	0	0	0
3043	0	0	0
3044	0	0	0
3045	0	0	0
3046	0	0	0
3047	0	0	0
3048	0	0	0
3049	0	0	0
3050	0	0	0
3051	0	0	0
3052	0	0	0
3053	0	0	0
3054	0	0	0
3055	0	0	0
3056	0	0	0
3057	0	0	0
3058	251	212	234
3059	255	221	241
3060	255	212	236
3061	254	205	232
3062	249	194	227
3063	255	199	235
3064	255	209	242
3065	255	207	238
3066	255	186	222
3067	248	170	213
3068	253	168	217
3069	255	167	222
3070	255	158	221
3071	251	147	216
3072	255	150	218
3073	254	143	210
3074	252	138	206
3075	255	139	208
3076	255	138	207
3077	255	138	205
3078	255	131	201
3079	255	135	209
3080	255	132	211
3081	246	104	194
3082	249	102	196
3083	255	111	204
3084	249	96	195
3085	251	96	196
3086	255	103	202
3087	250	92	195
3088	251	93	197
3089	254	98	202
3090	248	88	197
3091	247	87	197
3092	249	93	200
3093	245	92	195
3094	249	104	199
3095	253	119	204
3096	246	120	200
3097	255	144	211
3098	255	162	218
3099	255	176	224
3100	255	199	232
3101	255	200	223
3102	255	201	216
3103	255	201	214
3104	255	209	218
3105	255	208	215
3106	251	207	213
3107	254	215	219
3108	252	216	219
3109	252	222	224
3110	0	0	0
3111	0	0	0
3112	0	0	0
3113	0	0	0
3114	0	0	0
3115	0	0	0
3116	0	0	0
3117	0	0	0
3118	0	0	0
3119	0	0	0
3120	0	0	0
3121	0	0	0
3122	0	0	0
3123	0	0	0
3124	0	0	0
3125	0	0	0
3126	0	0	0
3127	0	0	0
3128	0	0	0
3129	0	0	0
3130	255	222	243
3131	255	211	235
3132	253	204	232
3133	255	208	236
3134	255	212	239
3135	255	209	237
3136	255	208	237
3137	255	187	224
3138	250	171	215
3139	253	169	216
3140	255	166	215
3141	254	157	213
3142	251	146	211
3143	253	145	213
3144	252	140	208
3145	254	140	207
3146	255	140	208
3147	255	140	208
3148	255	141	207
3149	255	140	208
3150	255	144	215
3151	253	117	201
3152	237	90	185
3153	248	101	197
3154	255	109	204
3155	255	109	206
3156	255	109	207
3157	252	98	200
3158	244	87	193
3159	247	91	198
3160	249	94	201
3161	247	93	200
3162	244	91	197
3163	243	93	196
3164	238	92	192
3165	247	111	201
3166	250	124	204
3167	255	145	211
3168	255	168	222
3169	255	182	225
3170	255	197	227
3171	255	201	223
3172	255	204	219
3173	255	202	215
3174	255	204	216
3175	253	204	216
3176	250	203	213
3177	253	211	217
3178	255	219	221
3179	253	222	223
3180	0	0	0
3181	0	0	0
3182	0	0	0
3183	0	0	0
3184	0	0	0
3185	0	0	0
3186	0	0	0
3187	0	0	0
3188	0	0	0
3189	0	0	0
3190	0	0	0
3191	0	0	0
3192	0	0	0
3193	0	0	0
3194	0	0	0
3195	0	0	0
3196	0	0	0
3197	0	0	0
3198	0	0	0
3199	0	0	0
3200	0	0	0
3201	0	0	0
3202	250	203	228
3203	255	211	235
3204	255	215	239
3205	255	203	229
3206	255	199	228
3207	255	195	229
3208	248	175	217
3209	255	181	222
3210	255	179	222
3211	253	162	211
3212	252	154	209
3213	249	144	208
3214	252	143	210
3215	253	141	210
3216	254	141	210
3217	254	138	207
3218	255	139	207
3219	255	140	208
3220	255	140	209
3221	255	134	208
3222	246	108	193
3223	249	106	197
3224	255	117	208
3225	255	109	204
3226	255	108	206
3227	247	94	196
3228	238	82	188
3229	255	110	209
3230	255	115	214
3231	237	83	193
3232	229	79	188
3233	242	103	201
3234	240	104	199
3235	237	104	197
3236	249	124	208
3237	251	136	208
3238	255	156	215
3239	255	181	225
3240	255	196	227
3241	255	190	216
3242	255	195	214
3243	255	199	212
3244	252	199	210
3245	255	212	220
3246	255	213	220
3247	252	209	216
3248	255	217	221
3249	255	221	222
3250	0	0	0
3251	0	0	0
3252	0	0	0
3253	0	0	0
3254	0	0	0
3255	0	0	0
3256	0	0	0
3257	0	0	0
3258	0	0	0
3259	0	0	0
3260	0	0	0
3261	0	0	0
3262	0	0	0
3263	0	0	0
3264	0	0	0
3265	0	0	0
3266	0	0	0
3267	0	0	0
3268	0	0	0
3269	0	0	0
3270	0	0	0
3271	0	0	0
3272	251	206	229
3273	255	211	232
3274	255	218	238
3275	255	206	230
3276	251	194	221
3277	249	187	219
3278	250	183	223
3279	255	186	228
3280	255	192	231
3281	255	175	221
3282	251	159	212
3283	251	152	211
3284	247	141	208
3285	250	142	210
3286	251	140	211
3287	252	138	210
3288	251	136	207
3289	255	138	209
3290	255	141	210
3291	255	133	205
3292	255	127	204
3293	255	125	205
3294	255	123	206
3295	255	115	204
3296	254	107	202
3297	247	95	196
3298	236	81	188
3299	252	105	205
3300	255	131	222
3301	249	103	202
3302	223	70	181
3303	233	94	196
3304	244	117	208
3305	241	116	204
3306	239	116	203
3307	248	133	211
3308	249	145	211
3309	255	169	219
3310	255	193	227
3311	255	188	217
3312	251	185	211
3313	252	192	212
3314	252	196	210
3315	255	209	216
3316	255	222	224
3317	255	218	220
3318	254	215	217
3319	255	220	221
3320	0	0	0
3321	0	0	0
3322	0	0	0
3323	0	0	0
3324	0	0	0
3325	0	0	0
3326	0	0	0
3327	0	0	0
3328	0	0	0
3329	0	0	0
3330	0	0	0
3331	0	0	0
3332	0	0	0
3333	0	0	0
3334	0	0	0
3335	0	0	0
3336	0	0	0
3337	0	0	0
3338	0	0	0
3339	0	0	0
3340	0	0	0
3341	0	0	0
3342	0	0	0
3343	255	217	235
3344	255	223	239
3345	255	207	229
3346	250	195	222
3347	254	197	225
3348	252	190	223
3349	255	191	229
3350	255	193	233
3351	255	189	230
3352	255	172	220
3353	250	158	214
3354	249	150	212
3355	248	145	210
3356	252	145	212
3357	255	154	220
3358	255	153	220
3359	255	142	211
3360	255	145	213
3361	255	136	208
3362	255	128	205
3363	253	119	201
3364	255	116	201
3365	251	109	197
3366	246	99	192
3367	251	106	200
3368	244	95	196
3369	244	95	197
3370	255	119	214
3371	255	114	208
3372	230	82	186
3373	224	81	186
3374	234	105	201
3375	241	122	208
3376	241	122	205
3377	246	134	212
3378	251	150	217
3379	255	176	226
3380	255	201	235
3381	255	193	221
3382	254	189	213
3383	255	202	220
3384	255	210	223
3385	251	197	210
3386	255	210	216
3387	255	215	217
3388	253	211	213
3389	251	213	215
3390	0	0	0
3391	0	0	0
3392	0	0	0
3393	0	0	0
3394	0	0	0
3395	0	0	0
3396	0	0	0
3397	0	0	0
3398	0	0	0
3399	0	0	0
3400	0	0	0
3401	0	0	0
3402	0	0	0
3403	0	0	0
3404	0	0	0
3405	0	0	0
3406	0	0	0
3407	0	0	0
3408	0	0	0
3409	0	0	0
3410	0	0	0
3411	0	0	0
3412	0	0	0
3413	255	226	241
3414	255	228	240
3415	255	212	230
3416	249	196	223
3417	253	199	227
3418	255	202	232
3419	255	198	232
3420	255	196	232
3421	255	189	229
3422	255	186	228
3423	251	168	218
3424	246	154	212
3425	250	153	214
3426	248	147	209
3427	255	157	217
3428	255	166	225
3429	255	155	218
3430	255	144	209
3431	254	136	205
3432	253	128	203
3433	252	121	202
3434	249	111	199
3435	248	105	197
3436	243	97	192
3437	244	99	193
3438	249	104	200
3439	252	107	204
3440	251	106	204
3441	247	103	202
3442	242	98	198
3443	238	97	196
3444	230	94	193
3445	233	111	201
3446	239	127	208
3447	248	141	214
3448	252	152	218
3449	255	178	229
3450	255	205	237
3451	255	197	223
3452	254	191	214
3453	255	205	220
3454	255	218	225
3455	255	207	215
3456	248	196	207
3457	252	205	213
3458	254	210	215
3459	254	213	217
3460	253	216	220
3461	0	0	0
3462	0	0	0
3463	0	0	0
3464	0	0	0
3465	0	0	0
3466	0	0	0
3467	0	0	0
3468	0	0	0
3469	0	0	0
3470	0	0	0
3471	0	0	0
3472	0	0	0
3473	0	0	0
3474	0	0	0
3475	0	0	0
3476	0	0	0
3477	0	0	0
3478	0	0	0
3479	0	0	0
3480	0	0	0
3481	0	0	0
3482	0	0	0
3483	255	222	236
3484	255	223	238
3485	255	212	230
3486	247	196	221
3487	251	198	225
3488	255	200	230
3489	255	204	235
3490	255	200	233
3491	255	192	228
3492	253	184	224
3493	255	186	227
3494	250	168	218
3495	254	167	221
3496	255	166	222
3497	250	152	211
3498	255	162	219
3499	255	157	217
3500	254	146	210
3501	255	144	209
3502	255	136	206
3503	253	128	205
3504	253	120	205
3505	245	105	198
3506	243	99	195
3507	252	111	202
3508	254	113	203
3509	255	119	208
3510	255	121	212
3511	246	100	198
3512	241	95	196
3513	250	111	206
3514	248	111	205
3515	240	110	201
3516	240	124	206
3517	248	146	215
3518	253	157	218
3519	255	168	221
3520	255	195	232
3521	255	212	233
3522	255	205	221
3523	252	193	210
3524	255	208	219
3525	255	211	216
3526	251	200	208
3527	254	206	213
3528	255	216	221
3529	255	212	218
3530	255	216	221
3531	250	212	219
3532	0	0	0
3533	0	0	0
3534	0	0	0
3535	0	0	0
3536	0	0	0
3537	0	0	0
3538	0	0	0
3539	0	0	0
3540	0	0	0
3541	0	0	0
3542	0	0	0
3543	0	0	0
3544	0	0	0
3545	0	0	0
3546	0	0	0
3547	0	0	0
3548	0	0	0
3549	0	0	0
3550	0	0	0
3551	0	0	0
3552	0	0	0
3553	0	0	0
3554	255	219	233
3555	250	206	225
3556	246	197	224
3557	250	199	227
3558	252	199	228
3559	255	203	230
3560	255	206	233
3561	255	195	226
3562	252	187	222
3563	252	184	222
3564	255	185	226
3565	255	181	225
3566	255	179	227
3567	255	169	221
3568	250	155	212
3569	251	152	212
3570	250	147	210
3571	252	144	209
3572	254	142	209
3573	250	131	204
3574	248	122	203
3575	242	108	197
3576	233	92	188
3577	247	108	200
3578	255	120	205
3579	255	123	207
3580	255	129	211
3581	253	111	202
3582	238	90	191
3583	250	110	206
3584	255	124	214
3585	255	127	213
3586	249	126	209
3587	254	147	217
3588	255	166	222
3589	255	176	223
3590	255	188	227
3591	255	204	231
3592	255	223	233
3593	255	207	216
3594	251	197	207
3595	255	203	211
3596	255	207	215
3597	255	214	220
3598	255	219	222
3599	255	218	221
3600	255	215	219
3601	253	213	219
3602	0	0	0
3603	0	0	0
3604	0	0	0
3605	0	0	0
3606	0	0	0
3607	0	0	0
3608	0	0	0
3609	0	0	0
3610	0	0	0
3611	0	0	0
3612	0	0	0
3613	0	0	0
3614	0	0	0
3615	0	0	0
3616	0	0	0
3617	0	0	0
3618	0	0	0
3619	0	0	0
3620	0	0	0
3621	0	0	0
3622	0	0	0
3623	0	0	0
3624	0	0	0
3625	0	0	0
3626	249	204	226
3627	255	211	236
3628	255	213	240
3629	252	199	228
3630	255	201	229
3631	255	198	228
3632	250	188	222
3633	254	191	224
3634	253	188	223
3635	255	192	228
3636	255	186	227
3637	255	178	222
3638	252	167	217
3639	252	162	216
3640	254	159	217
3641	252	151	214
3642	254	148	214
3643	254	143	211
3644	249	132	206
3645	252	130	209
3646	245	117	202
3647	252	122	207
3648	255	138	218
3649	253	120	203
3650	255	124	204
3651	255	132	212
3652	252	114	202
3653	241	98	194
3654	253	117	209
3655	251	120	208
3656	248	121	206
3657	248	130	208
3658	255	152	216
3659	255	171	219
3660	255	181	218
3661	255	195	225
3662	255	212	230
3663	255	210	221
3664	251	196	206
3665	255	204	210
3666	255	211	215
3667	255	207	215
3668	255	214	222
3669	255	209	216
3670	253	208	215
3671	252	208	217
3672	0	0	0
3673	0	0	0
3674	0	0	0
3675	0	0	0
3676	0	0	0
3677	0	0	0
3678	0	0	0
3679	0	0	0
3680	0	0	0
3681	0	0	0
3682	0	0	0
3683	0	0	0
3684	0	0	0
3685	0	0	0
3686	0	0	0
3687	0	0	0
3688	0	0	0
3689	0	0	0
3690	0	0	0
3691	0	0	0
3692	0	0	0
3693	0	0	0
3694	0	0	0
3695	0	0	0
3696	0	0	0
3697	0	0	0
3698	255	223	244
3699	255	210	236
3700	248	194	223
3701	249	192	223
3702	250	191	226
3703	252	193	228
3704	255	195	228
3705	255	195	227
3706	255	199	232
3707	254	184	222
3708	250	174	217
3709	249	168	215
3710	251	164	216
3711	250	158	216
3712	248	149	214
3713	248	144	213
3714	248	140	211
3715	250	138	211
3716	252	135	210
3717	255	143	216
3718	255	149	220
3719	255	138	213
3720	251	121	202
3721	255	130	210
3722	255	137	216
3723	255	122	205
3724	242	104	194
3725	246	113	201
3726	244	115	203
3727	249	129	209
3728	248	137	207
3729	255	159	214
3730	255	179	218
3731	255	190	219
3732	255	204	224
3733	255	201	219
3734	255	202	216
3735	255	207	217
3736	255	215	220
3737	255	209	215
3738	254	205	215
3739	253	204	217
3740	250	201	214
3741	252	205	218
3742	250	205	219
3743	0	0	0
3744	0	0	0
3745	0	0	0
3746	0	0	0
3747	0	0	0
3748	0	0	0
3749	0	0	0
3750	0	0	0
3751	0	0	0
3752	0	0	0
3753	0	0	0
3754	0	0	0
3755	0	0	0
3756	0	0	0
3757	0	0	0
3758	0	0	0
3759	0	0	0
3760	0	0	0
3761	0	0	0
3762	0	0	0
3763	0	0	0
3764	0	0	0
3765	0	0	0
3766	0	0	0
3767	0	0	0
3768	255	220	240
3769	255	218	240
3770	252	204	231
3771	249	197	226
3772	250	196	226
3773	255	204	235
3774	255	205	237
3775	255	197	228
3776	255	197	227
3777	255	197	228
3778	250	182	218
3779	255	192	226
3780	255	186	224
3781	255	179	224
3782	255	172	224
3783	250	157	218
3784	250	153	217
3785	255	163	225
3786	255	161	224
3787	252	142	211
3788	255	150	217
3789	255	147	215
3790	255	137	210
3791	249	120	202
3792	255	130	211
3793	255	128	209
3794	245	111	197
3795	244	113	198
3796	245	120	202
3797	245	126	207
3798	251	140	213
3799	252	151	213
3800	255	173	219
3801	255	183	217
3802	255	195	218
3803	255	203	220
3804	255	202	216
3805	254	201	217
3806	255	207	219
3807	255	216	221
3808	255	211	216
3809	255	209	218
3810	255	209	220
3811	251	201	217
3812	253	205	221
3813	252	206	221
3814	0	0	0
3815	0	0	0
3816	0	0	0
3817	0	0	0
3818	0	0	0
3819	0	0	0
3820	0	0	0
3821	0	0	0
3822	0	0	0
3823	0	0	0
3824	0	0	0
3825	0	0	0
3826	0	0	0
3827	0	0	0
3828	0	0	0
3829	0	0	0
3830	0	0	0
3831	0	0	0
3832	0	0	0
3833	0	0	0
3834	0	0	0
3835	0	0	0
3836	0	0	0
3837	0	0	0
3838	0	0	0
3839	0	0	0
3840	255	213	236
3841	254	207	234
3842	252	202	231
3843	255	209	236
3844	255	215	242
3845	255	208	237
3846	255	201	230
3847	255	200	229
3848	255	199	228
3849	255	205	232
3850	255	214	240
3851	255	202	233
3852	255	193	229
3853	255	179	224
3854	251	165	221
3855	255	176	230
3856	255	185	233
3857	255	167	221
3858	254	149	213
3859	255	152	218
3860	255	150	217
3861	255	138	211
3862	250	122	205
3863	253	125	209
3864	251	121	206
3865	251	124	207
3866	250	125	208
3867	247	130	208
3868	245	134	209
3869	251	150	215
3870	253	162	216
3871	255	174	218
3872	255	185	217
3873	255	192	215
3874	255	201	216
3875	253	198	213
3876	251	198	214
3877	255	209	221
3878	255	218	222
3879	255	214	217
3880	255	213	220
3881	255	208	219
3882	251	200	215
3883	254	206	220
3884	253	207	221
3885	0	0	0
3886	0	0	0
3887	0	0	0
3888	0	0	0
3889	0	0	0
3890	0	0	0
3891	0	0	0
3892	0	0	0
3893	0	0	0
3894	0	0	0
3895	0	0	0
3896	0	0	0
3897	0	0	0
3898	0	0	0
3899	0	0	0
3900	0	0	0
3901	0	0	0
3902	0	0	0
3903	0	0	0
3904	0	0	0
3905	0	0	0
3906	0	0	0
3907	0	0	0
3908	0	0	0
3909	0	0	0
3910	0	0	0
3911	255	219	238
3912	255	212	236
3913	251	201	231
3914	255	208	236
3915	255	209	236
3916	255	202	231
3917	249	191	223
3918	249	190	222
3919	255	197	226
3920	255	201	229
3921	255	200	229
3922	252	186	220
3923	255	192	225
3924	252	178	218
3925	254	175	222
3926	255	185	231
3927	255	180	224
3928	255	163	213
3929	252	149	211
3930	255	154	219
3931	255	145	215
3932	254	133	210
3933	242	112	200
3934	245	114	204
3935	251	124	209
3936	249	125	208
3937	248	130	209
3938	245	134	208
3939	255	160	220
3940	255	174	225
3941	255	177	221
3942	255	191	224
3943	255	196	221
3944	255	204	221
3945	255	206	218
3946	255	204	215
3947	255	208	221
3948	255	220	228
3949	255	210	217
3950	254	206	214
3951	255	208	219
3952	254	203	218
3953	250	198	215
3954	254	205	220
3955	251	204	218
3956	0	0	0
3957	0	0	0
3958	0	0	0
3959	0	0	0
3960	0	0	0
3961	0	0	0
3962	0	0	0
3963	0	0	0
3964	0	0	0
3965	0	0	0
3966	0	0	0
3967	0	0	0
3968	0	0	0
3969	0	0	0
3970	0	0	0
3971	0	0	0
3972	0	0	0
3973	0	0	0
3974	0	0	0
3975	0	0	0
3976	0	0	0
3977	0	0	0
3978	0	0	0
3979	255	222	237
3980	255	217	235
3981	255	220	238
3982	255	225	241
3983	254	211	232
3984	248	199	228
3985	248	199	228
3986	249	199	227
3987	241	187	218
3988	235	176	212
3989	244	186	219
3990	250	192	224
3991	250	191	223
3992	251	190	222
3993	255	193	224
3994	255	199	228
3995	255	193	225
3996	255	188	225
3997	255	183	222
3998	255	179	219
3999	255	164	213
4000	253	152	211
4001	255	149	216
4002	255	141	216
4003	248	124	208
4004	236	103	197
4005	247	118	209
4006	251	127	212
4007	251	134	213
4008	249	138	212
4009	255	162	222
4010	255	186	231
4011	255	189	227
4012	255	192	224
4013	255	199	223
4014	255	205	222
4015	255	207	219
4016	255	210	219
4017	255	212	220
4018	255	216	224
4019	255	210	221
4020	252	202	216
4021	254	204	218
4022	255	206	222
4023	255	204	222
4024	252	199	218
4025	254	203	221
4026	251	201	218
4027	0	0	0
4028	0	0	0
4029	0	0	0
4030	0	0	0
4031	0	0	0
4032	0	0	0
4033	0	0	0
4034	0	0	0
4035	0	0	0
4036	0	0	0
4037	0	0	0
4038	0	0	0
4039	0	0	0
4040	0	0	0
4041	0	0	0
4042	0	0	0
4043	0	0	0
4044	0	0	0
4045	0	0	0
4046	0	0	0
4047	0	0	0
4048	0	0	0
4049	255	225	237
4050	255	220	235
4051	249	208	230
4052	252	210	233
4053	255	215	235
4054	246	201	225
4055	251	208	233
4056	0	0	0
4057	0	0	0
4058	0	0	0
4059	252	205	230
4060	255	214	238
4061	254	202	230
4062	255	201	230
4063	253	195	227
4064	255	198	229
4065	255	195	226
4066	255	189	222
4067	253	180	217
4068	252	175	215
4069	255	184	223
4070	255	171	218
4071	251	148	210
4072	255	146	215
4073	250	132	212
4074	241	115	204
4075	245	119	208
4076	255	133	218
4077	248	129	212
4078	248	135	212
4079	251	148	215
4080	255	171	224
4081	255	188	227
4082	255	190	222
4083	254	187	217
4084	255	195	219
4085	255	202	218
4086	255	204	216
4087	255	210	219
4088	255	213	220
4089	255	210	220
4090	254	204	218
4091	253	202	219
4092	255	204	223
4093	254	201	222
4094	253	199	221
4095	250	193	217
4096	252	198	219
4097	248	197	216
4098	0	0	0
4099	0	0	0
4100	0	0	0
4101	0	0	0
4102	0	0	0
4103	0	0	0
4104	0	0	0
4105	0	0	0
4106	0	0	0
4107	0	0	0
4108	0	0	0
4109	0	0	0
4110	0	0	0
4111	0	0	0
4112	0	0	0
4113	0	0	0
4114	0	0	0
4115	0	0	0
4116	0	0	0
4117	0	0	0
4118	0	0	0
4119	0	0	0
4120	0	0	0
4121	250	209	229
4122	240	195	224
4123	241	198	227
4124	243	203	228
4125	244	205	228
4126	0	0	0
4127	0	0	0
4128	0	0	0
4129	0	0	0
4130	0	0	0
4131	255	214	234
4132	249	202	226
4133	249	198	226
4134	248	194	225
4135	250	192	225
4136	251	189	221
4137	248	181	217
4138	247	173	215
4139	255	181	222
4140	255	191	229
4141	255	166	216
4142	247	143	208
4143	247	135	210
4144	241	121	205
4145	251	130	214
4146	253	133	215
4147	252	134	215
4148	245	130	210
4149	251	146	217
4150	253	159	218
4151	255	174	222
4152	255	192	227
4153	254	186	219
4154	250	185	218
4155	252	193	220
4156	254	200	219
4157	254	203	217
4158	255	210	221
4159	253	205	217
4160	251	202	216
4161	251	200	217
4162	250	198	218
4163	249	195	217
4164	247	191	215
4165	246	189	214
4166	243	184	212
4167	247	190	216
4168	0	0	0
4169	0	0	0
4170	0	0	0
4171	0	0	0
4172	0	0	0
4173	0	0	0
4174	0	0	0
4175	0	0	0
4176	0	0	0
4177	0	0	0
4178	0	0	0
4179	0	0	0
4180	0	0	0
4181	0	0	0
4182	0	0	0
4183	0	0	0
4184	0	0	0
4185	0	0	0
4186	0	0	0
4187	0	0	0
4188	0	0	0
4189	0	0	0
4190	0	0	0
4191	0	0	0
4192	0	0	0
4193	0	0	0
4194	0	0	0
4195	0	0	0
4196	0	0	0
4197	0	0	0
4198	0	0	0
4199	0	0	0
4200	0	0	0
4201	0	0	0
4202	0	0	0
4203	255	219	235
4204	255	216	235
4205	255	209	234
4206	255	208	234
4207	255	199	228
4208	254	192	224
4209	253	185	224
4210	255	194	232
4211	255	187	228
4212	253	162	215
4213	249	147	213
4214	249	139	214
4215	247	131	212
4216	255	139	220
4217	246	128	210
4218	242	127	208
4219	250	144	218
4220	255	160	224
4221	255	170	222
4222	255	185	225
4223	255	195	227
4224	254	191	221
4225	255	197	226
4226	255	206	230
4227	255	210	227
4228	255	214	226
4229	255	213	225
4230	254	208	222
4231	254	207	222
4232	253	205	223
4233	253	203	224
4234	251	199	223
4235	255	203	225
4236	255	201	225
4237	247	190	219
4238	251	197	223
4239	0	0	0
4240	0	0	0
4241	0	0	0
4242	0	0	0
4243	0	0	0
4244	0	0	0
4245	0	0	0
4246	0	0	0
4247	0	0	0
4248	0	0	0
4249	0	0	0
4250	0	0	0
4251	0	0	0
4252	0	0	0
4253	0	0	0
4254	0	0	0
4255	0	0	0
4256	0	0	0
4257	0	0	0
4258	0	0	0
4259	0	0	0
4260	0	0	0
4261	0	0	0
4262	0	0	0
4263	0	0	0
4264	0	0	0
4265	0	0	0
4266	0	0	0
4267	0	0	0
4268	0	0	0
4269	0	0	0
4270	0	0	0
4271	0	0	0
4272	0	0	0
4273	0	0	0
4274	0	0	0
4275	255	226	239
4276	255	218	235
4277	254	210	231
4278	252	202	226
4279	254	197	224
4280	254	191	223
4281	255	186	224
4282	255	181	224
4283	255	167	220
4284	252	152	218
4285	255	151	223
4286	253	141	219
4287	251	137	217
4288	240	125	209
4289	250	144	219
4290	255	159	226
4291	255	168	225
4292	255	178	224
4293	255	186	222
4294	255	195	223
4295	255	199	223
4296	255	206	228
4297	255	212	230
4298	255	217	230
4299	255	215	227
4300	255	214	227
4301	254	210	225
4302	254	209	226
4303	251	205	224
4304	250	202	226
4305	254	206	230
4306	255	210	234
4307	254	203	230
4308	247	193	224
4309	253	201	229
4310	0	0	0
4311	0	0	0
4312	0	0	0
4313	0	0	0
4314	0	0	0
4315	0	0	0
4316	0	0	0
4317	0	0	0
4318	0	0	0
4319	0	0	0
4320	0	0	0
4321	0	0	0
4322	0	0	0
4323	0	0	0
4324	0	0	0
4325	0	0	0
4326	0	0	0
4327	0	0	0
4328	0	0	0
4329	0	0	0
4330	0	0	0
4331	0	0	0
4332	0	0	0
4333	0	0	0
4334	0	0	0
4335	0	0	0
4336	0	0	0
4337	0	0	0
4338	0	0	0
4339	0	0	0
4340	0	0	0
4341	0	0	0
4342	0	0	0
4343	0	0	0
4344	0	0	0
4345	0	0	0
4346	0	0	0
4347	0	0	0
4348	0	0	0
4349	255	218	233
4350	255	214	233
4351	255	200	226
4352	255	196	229
4353	255	178	223
4354	254	164	220
4355	249	148	214
4356	253	146	218
4357	245	132	212
4358	241	126	209
4359	244	137	215
4360	253	155	223
4361	255	171	227
4362	255	180	226
4363	255	194	228
4364	255	202	228
4365	255	205	226
4366	255	209	227
4367	255	213	230
4368	255	219	232
4369	255	212	226
4370	252	210	223
4371	254	213	226
4372	251	209	225
4373	255	219	233
4374	254	214	231
4375	255	215	235
4376	255	219	239
4377	255	214	236
4378	255	208	233
4379	249	199	227
4380	255	207	232
4381	0	0	0
4382	0	0	0
4383	0	0	0
4384	0	0	0
4385	0	0	0
4386	0	0	0
4387	0	0	0
4388	0	0	0
4389	0	0	0
4390	0	0	0
4391	0	0	0
4392	0	0	0
4393	0	0	0
4394	0	0	0
4395	0	0	0
4396	0	0	0
4397	0	0	0
4398	0	0	0
4399	0	0	0
4400	0	0	0
4401	0	0	0
4402	0	0	0
4403	0	0	0
4404	0	0	0
4405	0	0	0
4406	0	0	0
4407	0	0	0
4408	0	0	0
4409	0	0	0
4410	0	0	0
4411	0	0	0
4412	0	0	0
4413	0	0	0
4414	0	0	0
4415	0	0	0
4416	0	0	0
4417	0	0	0
4418	0	0	0
4419	0	0	0
4420	255	237	245
4421	255	223	237
4422	255	209	229
4423	255	191	223
4424	253	174	221
4425	253	163	221
4426	247	146	211
4427	246	139	211
4428	238	125	208
4429	248	142	220
4430	249	149	219
4431	255	166	222
4432	255	182	225
4433	255	194	226
4434	255	208	229
4435	255	210	227
4436	255	214	231
4437	255	215	230
4438	255	218	231
4439	251	211	224
4440	246	204	218
4441	246	206	220
4442	247	209	222
4443	249	214	227
4444	255	224	236
4445	253	221	235
4446	254	222	235
4447	253	217	233
4448	253	214	231
4449	253	210	230
4450	247	200	223
4451	249	203	225
4452	242	197	220
4453	0	0	0
4454	0	0	0
4455	0	0	0
4456	0	0	0
4457	0	0	0
4458	0	0	0
4459	0	0	0
4460	0	0	0
4461	0	0	0
4462	0	0	0
4463	0	0	0
4464	0	0	0
4465	0	0	0
4466	0	0	0
4467	0	0	0
4468	0	0	0
4469	0	0	0
4470	0	0	0
4471	0	0	0
4472	0	0	0
4473	0	0	0
4474	0	0	0
4475	0	0	0
4476	0	0	0
4477	0	0	0
4478	0	0	0
4479	0	0	0
4480	0	0	0
4481	0	0	0
4482	0	0	0
4483	0	0	0
4484	0	0	0
4485	0	0	0
4486	0	0	0
4487	0	0	0
4488	0	0	0
4489	0	0	0
4490	255	237	243
4491	255	228	238
4492	255	213	229
4493	255	205	226
4494	255	189	221
4495	253	173	220
4496	253	163	221
4497	243	142	209
4498	241	134	209
4499	244	138	216
4500	252	153	225
4501	249	157	219
4502	254	173	222
4503	255	193	227
4504	255	205	229
4505	255	205	223
4506	255	208	222
4507	255	215	230
4508	0	0	0
4509	0	0	0
4510	0	0	0
4511	0	0	0
4512	0	0	0
4513	0	0	0
4514	0	0	0
4515	0	0	0
4516	0	0	0
4517	0	0	0
4518	0	0	0
4519	0	0	0
4520	255	221	235
4521	242	198	220
4522	244	201	223
4523	0	0	0
4524	0	0	0
4525	0	0	0
4526	0	0	0
4527	0	0	0
4528	0	0	0
4529	0	0	0
4530	0	0	0
4531	0	0	0
4532	0	0	0
4533	0	0	0
4534	0	0	0
4535	0	0	0
4536	0	0	0
4537	0	0	0
4538	0	0	0
4539	0	0	0
4540	0	0	0
4541	0	0	0
4542	0	0	0
4543	0	0	0
4544	0	0	0
4545	0	0	0
4546	0	0	0
4547	0	0	0
4548	0	0	0
4549	0	0	0
4550	0	0	0
4551	0	0	0
4552	0	0	0
4553	0	0	0
4554	0	0	0
4555	0	0	0
4556	0	0	0
4557	0	0	0
4558	0	0	0
4559	0	0	0
4560	0	0	0
4561	0	0	0
4562	255	221	235
4563	253	210	229
4564	255	203	226
4565	254	187	220
4566	251	171	217
4567	250	159	218
4568	241	139	213
4569	252	152	225
4570	251	152	224
4571	254	163	227
4572	251	167	224
4573	255	188	232
4574	255	207	237
4575	255	206	229
4576	255	207	225
4577	255	213	227
4578	255	219	232
4579	255	224	234
4580	0	0	0
4581	0	0	0
4582	0	0	0
4583	0	0	0
4584	0	0	0
4585	0	0	0
4586	0	0	0
4587	0	0	0
4588	0	0	0
4589	0	0	0
4590	0	0	0
4591	0	0	0
4592	0	0	0
4593	0	0	0
4594	0	0	0
4595	0	0	0
4596	0	0	0
4597	0	0	0
4598	0	0	0
4599	0	0	0
4600	0	0	0
4601	0	0	0
4602	0	0	0
4603	0	0	0
4604	0	0	0
4605	0	0	0
4606	0	0	0
4607	0	0	0
4608	0	0	0
4609	0	0	0
4610	0	0	0
4611	0	0	0
4612	0	0	0
4613	0	0	0
4614	0	0	0
4615	0	0	0
4616	0	0	0
4617	0	0	0
4618	0	0	0
4619	0	0	0
4620	0	0	0
4621	0	0	0
4622	0	0	0
4623	0	0	0
4624	0	0	0
4625	0	0	0
4626	0	0	0
4627	0	0	0
4628	0	0	0
4629	0	0	0
4630	0	0	0
4631	0	0	0
4632	0	0	0
4633	255	231	243
4634	255	220	237
4635	255	209	231
4636	255	193	225
4637	248	167	215
4638	246	155	216
4639	242	143	216
4640	251	153	226
4641	245	150	219
4642	247	159	221
4643	255	182	231
4644	255	202	239
4645	255	203	233
4646	254	202	226
4647	255	212	229
4648	255	218	231
4649	251	216	229
4650	0	0	0
4651	0	0	0
4652	0	0	0
4653	0	0	0
4654	0	0	0
4655	0	0	0
4656	0	0	0
4657	0	0	0
4658	0	0	0
4659	0	0	0
4660	0	0	0
4661	0	0	0
4662	0	0	0
4663	0	0	0
4664	0	0	0
4665	0	0	0
4666	0	0	0
4667	0	0	0
4668	0	0	0
4669	0	0	0
4670	0	0	0
4671	0	0	0
4672	0	0	0
4673	0	0	0
4674	0	0	0
4675	0	0	0
4676	0	0	0
4677	0	0	0
4678	0	0	0
4679	0	0	0
4680	0	0	0
4681	0	0	0
4682	0	0	0
4683	0	0	0
4684	0	0	0
4685	0	0	0
4686	0	0	0
4687	0	0	0
4688	0	0	0
4689	0	0	0
4690	0	0	0
4691	0	0	0
4692	0	0	0
4693	0	0	0
4694	0	0	0
4695	0	0	0
4696	0	0	0
4697	0	0	0
4698	0	0	0
4699	0	0	0
4700	0	0	0
4701	0	0	0
4702	0	0	0
4703	0	0	0
4704	255	239	247
4705	255	222	236
4706	255	211	230
4707	254	190	222
4708	245	164	215
4709	250	161	222
4710	242	147	217
4711	246	153	221
4712	239	148	215
4713	251	172	226
4714	255	195	235
4715	254	193	228
4716	249	195	225
4717	253	205	229
4718	255	215	230
4719	250	214	226
4720	0	0	0
4721	0	0	0
4722	0	0	0
4723	0	0	0
4724	0	0	0
4725	0	0	0
4726	0	0	0
4727	0	0	0
4728	0	0	0
4729	0	0	0
4730	0	0	0
4731	0	0	0
4732	0	0	0
4733	0	0	0
4734	0	0	0
4735	0	0	0
4736	0	0	0
4737	0	0	0
4738	0	0	0
4739	0	0	0
4740	0	0	0
4741	0	0	0
4742	0	0	0
4743	0	0	0
4744	0	0	0
4745	0	0	0
4746	0	0	0
4747	0	0	0
4748	0	0	0
4749	0	0	0
4750	0	0	0
4751	0	0	0
4752	0	0	0
4753	0	0	0
4754	0	0	0
4755	0	0	0
4756	0	0	0
4757	0	0	0
4758	0	0	0
4759	0	0	0
4760	0	0	0
4761	0	0	0
4762	0	0	0
4763	0	0	0
4764	0	0	0
4765	0	0	0
4766	0	0	0
4767	0	0	0
4768	0	0	0
4769	0	0	0
4770	0	0	0
4771	0	0	0
4772	0	0	0
4773	0	0	0
4774	0	0	0
4775	255	244	248
4776	255	227	239
4777	255	214	232
4778	255	192	225
4779	239	156	211
4780	242	152	217
4781	243	152	218
4782	245	157	221
4783	248	167	224
4784	255	191	235
4785	255	205	236
4786	255	204	230
4787	255	211	233
4788	255	222	238
4789	253	218	231
4790	0	0	0
4791	0	0	0
4792	0	0	0
4793	0	0	0
4794	0	0	0
4795	0	0	0
4796	0	0	0
4797	0	0	0
4798	0	0	0
4799	0	0	0
4800	0	0	0
4801	0	0	0
4802	0	0	0
4803	0	0	0
4804	0	0	0
4805	0	0	0
4806	0	0	0
4807	0	0	0
4808	0	0	0
4809	0	0	0
4810	0	0	0
4811	0	0	0
4812	0	0	0
4813	0	0	0
4814	0	0	0
4815	0	0	0
4816	0	0	0
4817	0	0	0
4818	0	0	0
4819	0	0	0
4820	0	0	0
4821	0	0	0
4822	0	0	0
4823	0	0	0
4824	0	0	0
4825	0	0	0
4826	0	0	0
4827	0	0	0
4828	0	0	0
4829	0	0	0
4830	0	0	0
4831	0	0	0
4832	0	0	0
4833	0	0	0
4834	0	0	0
4835	0	0	0
4836	0	0	0
4837	0	0	0
4838	0	0	0
4839	0	0	0
4840	0	0	0
4841	0	0	0
4842	0	0	0
4843	0	0	0
4844	0	0	0
4845	0	0	0
4846	255	249	252
4847	255	231	243
4848	255	218	237
4849	253	188	224
4850	235	150	210
4851	248	163	225
4852	247	161	223
4853	254	176	231
4854	255	186	234
4855	255	201	237
4856	255	214	237
4857	255	218	234
4858	255	225	237
4859	255	223	234
4860	0	0	0
4861	0	0	0
4862	0	0	0
4863	0	0	0
4864	0	0	0
4865	0	0	0
4866	0	0	0
4867	0	0	0
4868	0	0	0
4869	0	0	0
4870	0	0	0
4871	0	0	0
4872	0	0	0
4873	0	0	0
4874	0	0	0
4875	0	0	0
4876	0	0	0
4877	0	0	0
4878	0	0	0
4879	0	0	0
4880	0	0	0
4881	0	0	0
4882	0	0	0
4883	0	0	0
4884	0	0	0
4885	0	0	0
4886	0	0	0
4887	0	0	0
4888	0	0	0
4889	0	0	0
4890	0	0	0
4891	0	0	0
4892	0	0	0
4893	0	0	0
4894	0	0	0
4895	0	0	0
4896	0	0	0
4897	0	0	0
4898	0	0	0
4899	0	0	0
4900	0	0	0
4901	0	0	0
4902	0	0	0
4903	0	0	0
4904	0	0	0
4905	0	0	0
4906	0	0	0
4907	0	0	0
4908	0	0	0
4909	0	0	0
4910	0	0	0
4911	0	0	0
4912	0	0	0
4913	0	0	0
4914	0	0	0
4915	0	0	0
4916	0	0	0
4917	255	248	252
4918	255	229	242
4919	255	205	230
4920	244	174	217
4921	233	150	209
4922	244	161	222
4923	247	168	225
4924	253	182	231
4925	255	194	235
4926	255	208	237
4927	255	216	234
4928	255	220	231
4929	255	221	230
4930	0	0	0
4931	0	0	0
4932	0	0	0
4933	0	0	0
4934	0	0	0
4935	0	0	0
4936	0	0	0
4937	0	0	0
4938	0	0	0
4939	0	0	0
4940	0	0	0
4941	0	0	0
4942	0	0	0
4943	0	0	0
4944	0	0	0
4945	0	0	0
4946	0	0	0
4947	0	0	0
4948	0	0	0
4949	0	0	0
4950	0	0	0
4951	0	0	0
4952	0	0	0
4953	0	0	0
4954	0	0	0
4955	0	0	0
4956	0	0	0
4957	0	0	0
4958	0	0	0
4959	0	0	0
4960	0	0	0
4961	0	0	0
4962	0	0	0
4963	0	0	0
4964	0	0	0
4965	0	0	0
4966	0	0	0
4967	0	0	0
4968	0	0	0
4969	0	0	0
4970	0	0	0
4971	0	0	0
4972	0	0	0
4973	0	0	0
4974	0	0	0
4975	0	0	0
4976	0	0	0
4977	0	0	0
4978	0	0	0
4979	0	0	0
4980	0	0	0
4981	0	0	0
4982	0	0	0
4983	0	0	0
4984	0	0	0
4985	0	0	0
4986	0	0	0
4987	0	0	0
4988	255	247	251
4989	255	219	237
4990	251	195	226
4991	248	178	221
4992	234	152	209
4993	248	170	225
4994	250	176	228
4995	254	190	233
4996	255	201	236
4997	255	208	234
4998	0	0	0
4999	253	217	228
5000	0	0	0
5001	0	0	0
5002	0	0	0
5003	0	0	0
5004	0	0	0
5005	0	0	0
5006	0	0	0
5007	0	0	0
5008	0	0	0
5009	0	0	0
5010	0	0	0
5011	0	0	0
5012	0	0	0
5013	0	0	0
5014	0	0	0
5015	0	0	0
5016	0	0	0
5017	0	0	0
5018	0	0	0
5019	0	0	0
5020	0	0	0
5021	0	0	0
5022	0	0	0
5023	0	0	0
5024	0	0	0
5025	0	0	0
5026	0	0	0
5027	0	0	0
5028	0	0	0
5029	0	0	0
5030	0	0	0
5031	0	0	0
5032	0	0	0
5033	0	0	0
5034	0	0	0
5035	0	0	0
5036	0	0	0
5037	0	0	0
5038	0	0	0
5039	0	0	0
5040	0	0	0
5041	0	0	0
5042	0	0	0
5043	0	0	0
5044	0	0	0
5045	0	0	0
5046	0	0	0
5047	0	0	0
5048	0	0	0
5049	0	0	0
5050	0	0	0
5051	0	0	0
5052	0	0	0
5053	0	0	0
5054	0	0	0
5055	0	0	0
5056	0	0	0
5057	0	0	0
5058	0	0	0
5059	255	244	248
5060	255	215	234
5061	243	182	219
5062	239	165	214
5063	235	157	211
5064	247	173	223
5065	252	187	231
5066	255	200	236
5067	255	210	237
5068	0	0	0
5069	0	0	0
5070	0	0	0
5071	0	0	0
5072	0	0	0
5073	0	0	0
5074	0	0	0
5075	0	0	0
5076	0	0	0
5077	0	0	0
5078	0	0	0
5079	0	0	0
5080	0	0	0
5081	0	0	0
5082	0	0	0
5083	0	0	0
5084	0	0	0
5085	0	0	0
5086	0	0	0
5087	0	0	0
5088	0	0	0
5089	0	0	0
5090	0	0	0
5091	0	0	0
5092	0	0	0
5093	0	0	0
5094	0	0	0
5095	0	0	0
5096	0	0	0
5097	0	0	0
5098	0	0	0
5099	0	0	0
5100	0	0	0
5101	0	0	0
5102	0	0	0
5103	0	0	0
5104	0	0	0
5105	0	0	0
5106	0	0	0
5107	0	0	0
5108	0	0	0
5109	0	0	0
5110	0	0	0
5111	0	0	0
5112	0	0	0
5113	0	0	0
5114	0	0	0
5115	0	0	0
5116	0	0	0
5117	0	0	0
5118	0	0	0
5119	0	0	0
5120	0	0	0
5121	0	0	0
5122	0	0	0
5123	0	0	0
5124	0	0	0
5125	0	0	0
5126	0	0	0
5127	0	0	0
5128	0	0	0
5129	0	0	0
5130	255	238	243
5131	252	204	226
5132	238	172	214
5133	246	176	224
5134	240	165	217
5135	251	185	229
5136	255	198	235
5137	255	209	239
5138	255	219	240
5139	0	0	0
5140	0	0	0
5141	0	0	0
5142	0	0	0
5143	0	0	0
5144	0	0	0
5145	0	0	0
5146	0	0	0
5147	0	0	0
5148	0	0	0
5149	0	0	0
5150	0	0	0
5151	0	0	0
5152	0	0	0
5153	0	0	0
5154	0	0	0
5155	0	0	0
5156	0	0	0
5157	0	0	0
5158	0	0	0
5159	0	0	0
5160	0	0	0
5161	0	0	0
5162	0	0	0
5163	0	0	0
5164	0	0	0
5165	0	0	0
5166	0	0	0
5167	0	0	0
5168	0	0	0
5169	0	0	0
5170	0	0	0
5171	0	0	0
5172	0	0	0
5173	0	0	0
5174	0	0	0
5175	0	0	0
5176	0	0	0
5177	0	0	0
5178	0	0	0
5179	0	0	0
5180	0	0	0
5181	0	0	0
5182	0	0	0
5183	0	0	0
5184	0	0	0
5185	0	0	0
5186	0	0	0
5187	0	0	0
5188	0	0	0
5189	0	0	0
5190	0	0	0
5191	0	0	0
5192	0	0	0
5193	0	0	0
5194	0	0	0
5195	0	0	0
5196	0	0	0
5197	0	0	0
5198	0	0	0
5199	0	0	0
5200	255	245	248
5201	255	225	236
5202	244	190	218
5203	240	175	219
5204	247	177	227
5205	236	165	218
5206	0	0	0
5207	255	211	242
5208	255	221	244
5209	250	214	233
5210	0	0	0
5211	0	0	0
5212	0	0	0
5213	0	0	0
5214	0	0	0
5215	0	0	0
5216	0	0	0
5217	0	0	0
5218	0	0	0
5219	0	0	0
5220	0	0	0
5221	0	0	0
5222	0	0	0
5223	0	0	0
5224	0	0	0
5225	0	0	0
5226	0	0	0
5227	0	0	0
5228	0	0	0
5229	0	0	0
5230	0	0	0
5231	0	0	0
5232	0	0	0
5233	0	0	0
5234	0	0	0
5235	0	0	0
5236	0	0	0
5237	0	0	0
5238	0	0	0
5239	0	0	0
5240	0	0	0
5241	0	0	0
5242	0	0	0
5243	0	0	0
5244	0	0	0
5245	0	0	0
5246	0	0	0
5247	0	0	0
5248	0	0	0
5249	0	0	0
5250	0	0	0
5251	0	0	0
5252	0	0	0
5253	0	0	0
5254	0	0	0
5255	0	0	0
5256	0	0	0
5257	0	0	0
5258	0	0	0
5259	0	0	0
5260	0	0	0
5261	0	0	0
5262	0	0	0
5263	0	0	0
5264	0	0	0
5265	0	0	0
5266	0	0	0
5267	0	0	0
5268	0	0	0
5269	0	0	0
5270	255	252	251
5271	255	233	242
5272	255	213	232
5273	252	199	229
5274	246	181	227
5275	246	180	231
5276	0	0	0
5277	0	0	0
5278	0	0	0
5279	253	215	238
5280	0	0	0
5281	0	0	0
5282	0	0	0
5283	0	0	0
5284	0	0	0
5285	0	0	0
5286	0	0	0
5287	0	0	0
5288	0	0	0
5289	0	0	0
5290	0	0	0
5291	0	0	0
5292	0	0	0
5293	0	0	0
5294	0	0	0
5295	0	0	0
5296	0	0	0
5297	0	0	0
5298	0	0	0
5299	0	0	0
5300	0	0	0
5301	0	0	0
5302	0	0	0
5303	0	0	0
5304	0	0	0
5305	0	0	0
5306	0	0	0
5307	0	0	0
5308	0	0	0
5309	0	0	0
5310	0	0	0
5311	0	0	0
5312	0	0	0
5313	0	0	0
5314	0	0	0
5315	0	0	0
5316	0	0	0
5317	0	0	0
5318	0	0	0
5319	0	0	0
5320	0	0	0
5321	0	0	0
5322	0	0	0
5323	0	0	0
5324	0	0	0
5325	0	0	0
5326	0	0	0
5327	0	0	0
5328	0	0	0
5329	0	0	0
5330	0	0	0
5331	0	0	0
5332	0	0	0
5333	0	0	0
5334	0	0	0
5335	0	0	0
5336	0	0	0
5337	0	0	0
5338	0	0	0
5339	0	0	0
5340	0	0	0
5341	255	250	252
5342	255	226	240
5343	246	198	226
5344	243	183	223
5345	240	175	223
5346	0	0	0
5347	0	0	0
5348	0	0	0
5349	0	0	0
5350	0	0	0
5351	0	0	0
5352	0	0	0
5353	0	0	0
5354	0	0	0
5355	0	0	0
5356	0	0	0
5357	0	0	0
5358	0	0	0
5359	0	0	0
5360	0	0	0
5361	0	0	0
5362	0	0	0
5363	0	0	0
5364	0	0	0
5365	0	0	0
5366	0	0	0
5367	0	0	0
5368	0	0	0
5369	0	0	0
5370	0	0	0
5371	0	0	0
5372	0	0	0
5373	0	0	0
5374	0	0	0
5375	0	0	0
5376	0	0	0
5377	0	0	0
5378	0	0	0
5379	0	0	0
5380	0	0	0
5381	0	0	0
5382	0	0	0
5383	0	0	0
5384	0	0	0
5385	0	0	0
5386	0	0	0
5387	0	0	0
5388	0	0	0
5389	0	0	0
5390	0	0	0
5391	0	0	0
5392	0	0	0
5393	0	0	0
5394	0	0	0
5395	0	0	0
5396	0	0	0
5397	0	0	0
5398	0	0	0
5399	0	0	0
5400	0	0	0
5401	0	0	0
5402	0	0	0
5403	0	0	0
5404	0	0	0
5405	0	0	0
5406	0	0	0
5407	0	0	0
5408	0	0	0
5409	0	0	0
5410	0	0	0
5411	0	0	0
5412	0	0	0
5413	253	213	233
5414	239	184	221
5415	242	182	225
5416	0	0	0
5417	0	0	0
5418	0	0	0
5419	0	0	0
5420	0	0	0
5421	0	0	0
5422	0	0	0
5423	0	0	0
5424	0	0	0
5425	0	0	0
5426	0	0	0
5427	0	0	0
5428	0	0	0
5429	0	0	0
5430	0	0	0
5431	0	0	0
5432	0	0	0
5433	0	0	0
5434	0	0	0
5435	0	0	0
5436	0	0	0
5437	0	0	0
5438	0	0	0
5439	0	0	0
5440	0	0	0
5441	0	0	0
5442	0	0	0
5443	0	0	0
5444	0	0	0
5445	0	0	0
5446	0	0	0
5447	0	0	0
5448	0	0	0
5449	0	0	0
5450	0	0	0
5451	0	0	0
5452	0	0	0
5453	0	0	0
5454	0	0	0
5455	0	0	0
5456	0	0	0
5457	0	0	0
5458	0	0	0
5459	0	0	0
5460	0	0	0
5461	0	0	0
5462	0	0	0
5463	0	0	0
5464	0	0	0
5465	0	0	0
5466	0	0	0
5467	0	0	0
