 	R	G	B
1	0	0	0
2	0	0	0
3	0	0	0
4	0	0	0
5	0	0	0
6	0	0	0
7	0	0	0
8	0	0	0
9	0	0	0
10	0	0	0
11	0	0	0
12	253	205	221
13	0	0	0
14	0	0	0
15	0	0	0
16	0	0	0
17	0	0	0
18	0	0	0
19	0	0	0
20	0	0	0
21	0	0	0
22	0	0	0
23	0	0	0
24	0	0	0
25	0	0	0
26	0	0	0
27	0	0	0
28	0	0	0
29	0	0	0
30	0	0	0
31	0	0	0
32	0	0	0
33	0	0	0
34	0	0	0
35	0	0	0
36	0	0	0
37	0	0	0
38	0	0	0
39	0	0	0
40	0	0	0
41	0	0	0
42	0	0	0
43	0	0	0
44	0	0	0
45	0	0	0
46	0	0	0
47	0	0	0
48	0	0	0
49	0	0	0
50	0	0	0
51	251	196	221
52	250	195	218
53	252	198	219
54	251	198	219
55	0	0	0
56	0	0	0
57	0	0	0
58	0	0	0
59	0	0	0
60	0	0	0
61	0	0	0
62	0	0	0
63	0	0	0
64	0	0	0
65	0	0	0
66	0	0	0
67	0	0	0
68	0	0	0
69	0	0	0
70	0	0	0
71	0	0	0
72	0	0	0
73	0	0	0
74	0	0	0
75	0	0	0
76	0	0	0
77	0	0	0
78	0	0	0
79	0	0	0
80	0	0	0
81	0	0	0
82	0	0	0
83	0	0	0
84	0	0	0
85	0	0	0
86	0	0	0
87	0	0	0
88	254	209	228
89	0	0	0
90	252	198	224
91	254	198	226
92	255	201	228
93	253	194	220
94	255	197	221
95	252	193	219
96	255	202	223
97	255	208	225
98	0	0	0
99	0	0	0
100	0	0	0
101	0	0	0
102	0	0	0
103	0	0	0
104	0	0	0
105	0	0	0
106	0	0	0
107	0	0	0
108	0	0	0
109	0	0	0
110	0	0	0
111	0	0	0
112	0	0	0
113	0	0	0
114	0	0	0
115	0	0	0
116	0	0	0
117	0	0	0
118	0	0	0
119	0	0	0
120	0	0	0
121	0	0	0
122	0	0	0
123	0	0	0
124	0	0	0
125	0	0	0
126	0	0	0
127	0	0	0
128	244	201	217
129	251	202	221
130	251	197	220
131	255	201	225
132	255	201	228
133	255	197	226
134	252	190	218
135	252	189	217
136	249	186	215
137	253	194	220
138	255	201	222
139	255	201	221
140	0	0	0
141	255	207	223
142	0	0	0
143	0	0	0
144	0	0	0
145	252	216	225
146	0	0	0
147	0	0	0
148	0	0	0
149	0	0	0
150	0	0	0
151	0	0	0
152	0	0	0
153	0	0	0
154	0	0	0
155	0	0	0
156	0	0	0
157	0	0	0
158	0	0	0
159	0	0	0
160	0	0	0
161	0	0	0
162	0	0	0
163	0	0	0
164	0	0	0
165	0	0	0
166	0	0	0
167	0	0	0
168	0	0	0
169	243	202	219
170	253	206	225
171	251	194	220
172	255	199	227
173	250	185	219
174	245	180	215
175	246	182	214
176	248	182	215
177	249	183	217
178	253	191	222
179	252	192	220
180	253	193	219
181	255	196	220
182	255	202	223
183	255	203	222
184	0	0	0
185	254	209	222
186	255	217	226
187	253	216	223
188	0	0	0
189	0	0	0
190	0	0	0
191	0	0	0
192	0	0	0
193	0	0	0
194	0	0	0
195	0	0	0
196	0	0	0
197	0	0	0
198	0	0	0
199	0	0	0
200	0	0	0
201	0	0	0
202	0	0	0
203	0	0	0
204	0	0	0
205	0	0	0
206	0	0	0
207	0	0	0
208	0	0	0
209	0	0	0
210	241	203	223
211	249	200	227
212	247	188	221
213	248	182	219
214	240	168	211
215	243	174	215
216	245	176	216
217	249	180	220
218	250	181	221
219	251	184	222
220	251	185	221
221	253	188	221
222	252	189	219
223	250	189	216
224	248	190	214
225	255	202	220
226	255	211	223
227	255	210	220
228	253	210	219
229	255	215	224
230	255	222	230
231	255	226	231
232	0	0	0
233	0	0	0
234	0	0	0
235	0	0	0
236	0	0	0
237	0	0	0
238	0	0	0
239	0	0	0
240	0	0	0
241	0	0	0
242	0	0	0
243	0	0	0
244	0	0	0
245	0	0	0
246	0	0	0
247	0	0	0
248	0	0	0
249	0	0	0
250	0	0	0
251	243	206	226
252	250	204	231
253	245	186	222
254	247	180	221
255	246	175	219
256	252	182	225
257	248	175	221
258	251	178	223
259	251	178	223
260	255	182	225
261	252	179	221
262	250	181	219
263	248	183	218
264	242	182	213
265	246	188	215
266	255	202	223
267	252	195	214
268	250	194	212
269	255	205	219
270	255	209	222
271	254	210	221
272	254	213	221
273	255	220	222
274	0	0	0
275	0	0	0
276	0	0	0
277	0	0	0
278	0	0	0
279	0	0	0
280	0	0	0
281	0	0	0
282	0	0	0
283	0	0	0
284	0	0	0
285	0	0	0
286	0	0	0
287	0	0	0
288	0	0	0
289	0	0	0
290	0	0	0
291	244	218	227
292	245	209	226
293	247	198	226
294	241	181	219
295	245	181	222
296	243	175	219
297	245	173	220
298	242	167	219
299	248	172	223
300	249	172	221
301	250	173	219
302	247	170	215
303	248	175	216
304	247	179	219
305	245	182	218
306	248	188	220
307	249	185	216
308	245	178	209
309	252	190	215
310	255	201	220
311	253	200	217
312	250	199	215
313	251	205	216
314	253	212	217
315	255	217	217
316	255	225	223
317	0	0	0
318	0	0	0
319	0	0	0
320	0	0	0
321	0	0	0
322	0	0	0
323	0	0	0
324	0	0	0
325	0	0	0
326	0	0	0
327	0	0	0
328	0	0	0
329	0	0	0
330	0	0	0
331	0	0	0
332	254	228	234
333	250	209	226
334	251	199	226
335	242	180	219
336	237	176	219
337	232	168	215
338	235	167	217
339	240	169	222
340	250	176	229
341	245	166	219
342	245	165	216
343	247	169	215
344	251	176	219
345	252	178	221
346	252	183	221
347	255	192	225
348	255	188	220
349	248	177	211
350	254	189	218
351	255	197	221
352	255	197	218
353	251	196	215
354	249	200	215
355	253	210	217
356	255	215	218
357	255	215	217
358	252	212	215
359	254	217	221
360	0	0	0
361	252	218	224
362	0	0	0
363	0	0	0
364	0	0	0
365	0	0	0
366	0	0	0
367	0	0	0
368	0	0	0
369	0	0	0
370	0	0	0
371	0	0	0
372	255	245	242
373	253	226	233
374	249	206	223
375	252	197	224
376	243	179	219
377	239	176	221
378	234	169	219
379	241	173	224
380	245	174	226
381	245	168	223
382	241	159	216
383	246	164	218
384	250	169	220
385	253	174	220
386	253	175	217
387	255	183	219
388	255	192	222
389	255	183	214
390	248	173	208
391	255	185	216
392	255	194	220
393	255	194	218
394	253	193	216
395	254	202	219
396	255	211	224
397	255	209	220
398	254	210	219
399	255	212	221
400	255	215	224
401	254	214	223
402	249	211	222
403	252	221	227
404	0	0	0
405	0	0	0
406	0	0	0
407	0	0	0
408	0	0	0
409	0	0	0
410	0	0	0
411	0	0	0
412	0	0	0
413	254	240	239
414	249	220	229
415	241	195	217
416	245	187	220
417	239	171	217
418	242	171	223
419	239	165	222
420	244	168	226
421	241	161	220
422	237	153	214
423	241	157	217
424	250	165	222
425	255	173	224
426	255	177	223
427	252	168	213
428	255	177	215
429	255	180	214
430	251	171	206
431	251	171	208
432	255	184	218
433	255	182	214
434	252	182	212
435	253	187	214
436	255	197	219
437	255	201	221
438	252	198	217
439	255	208	222
440	255	209	223
441	254	208	221
442	248	205	217
443	253	216	225
444	255	227	232
445	255	225	229
446	0	0	0
447	0	0	0
448	0	0	0
449	0	0	0
450	0	0	0
451	0	0	0
452	0	0	0
453	0	0	0
454	252	236	236
455	248	213	228
456	240	189	218
457	238	178	219
458	233	162	217
459	241	164	225
460	240	158	222
461	241	156	222
462	238	150	217
463	244	156	221
464	248	160	224
465	255	169	227
466	255	175	224
467	252	166	213
468	247	159	207
469	252	165	211
470	254	169	211
471	253	169	210
472	253	170	211
473	253	171	211
474	249	168	208
475	251	175	211
476	253	181	212
477	255	187	215
478	255	191	216
479	255	197	217
480	255	205	221
481	252	201	217
482	248	199	214
483	252	209	220
484	255	221	228
485	255	219	226
486	254	218	225
487	254	219	225
488	0	0	0
489	0	0	0
490	0	0	0
491	0	0	0
492	0	0	0
493	0	0	0
494	0	0	0
495	254	235	238
496	255	216	233
497	239	181	217
498	228	164	214
499	237	169	226
500	251	175	237
501	242	155	224
502	242	152	223
503	246	153	223
504	255	162	229
505	251	153	222
506	254	159	221
507	255	166	217
508	245	156	206
509	251	165	213
510	255	173	219
511	255	168	213
512	255	169	213
513	255	168	212
514	253	168	212
515	251	168	210
516	255	176	215
517	255	179	214
518	255	185	216
519	252	181	211
520	250	186	213
521	254	197	218
522	245	192	211
523	250	202	215
524	255	214	222
525	255	214	222
526	252	211	220
527	253	213	223
528	252	213	222
529	0	0	0
530	0	0	0
531	0	0	0
532	0	0	0
533	0	0	0
534	0	0	0
535	0	0	0
536	255	233	238
537	251	205	227
538	234	170	213
539	235	173	223
540	242	176	232
541	242	164	230
542	233	144	219
543	240	149	222
544	244	149	220
545	248	148	217
546	243	140	210
547	252	152	215
548	255	162	216
549	255	166	216
550	255	175	223
551	255	174	222
552	255	170	217
553	255	169	215
554	255	168	214
555	255	169	214
556	255	169	215
557	255	175	218
558	255	178	217
559	255	177	214
560	250	173	210
561	254	184	215
562	255	195	221
563	255	202	222
564	255	212	224
565	255	209	220
566	255	208	219
567	253	207	219
568	252	209	221
569	253	212	224
570	0	0	0
571	0	0	0
572	0	0	0
573	0	0	0
574	0	0	0
575	0	0	0
576	254	236	238
577	253	221	232
578	241	189	219
579	240	177	220
580	246	182	232
581	237	167	227
582	226	149	219
583	229	148	221
584	239	155	226
585	240	149	219
586	243	147	216
587	242	141	211
588	255	157	220
589	255	156	217
590	255	162	220
591	255	156	216
592	255	154	214
593	254	151	209
594	253	151	208
595	255	155	209
596	254	156	210
597	255	162	214
598	255	167	217
599	254	163	212
600	251	162	210
601	251	167	211
602	255	179	217
603	255	186	220
604	255	194	221
605	255	194	217
606	250	190	211
607	255	202	218
608	250	199	216
609	253	207	221
610	0	0	0
611	0	0	0
612	0	0	0
613	0	0	0
614	0	0	0
615	0	0	0
616	255	246	244
617	251	225	233
618	248	209	228
619	246	195	226
620	243	182	225
621	237	170	223
622	227	154	218
623	227	153	222
624	229	152	223
625	237	155	226
626	238	150	220
627	240	147	218
628	241	142	215
629	250	148	219
630	252	148	217
631	249	143	213
632	246	137	211
633	248	137	210
634	247	135	205
635	252	142	209
636	253	145	210
637	255	152	213
638	255	157	215
639	255	154	212
640	251	151	211
641	254	158	215
642	254	163	215
643	255	170	216
644	255	176	218
645	252	176	214
646	248	177	211
647	251	185	214
648	255	197	221
649	255	201	223
650	255	208	226
651	255	212	228
652	0	0	0
653	0	0	0
654	0	0	0
655	0	0	0
656	0	0	0
657	254	231	238
658	243	208	226
659	242	199	227
660	238	184	223
661	240	182	227
662	234	169	223
663	233	165	226
664	236	167	230
665	236	161	229
666	244	164	234
667	233	142	218
668	233	139	216
669	244	148	223
670	255	155	228
671	250	142	218
672	249	138	216
673	251	138	217
674	250	137	216
675	250	136	212
676	255	143	216
677	245	128	206
678	250	135	209
679	255	145	213
680	252	142	209
681	251	143	211
682	254	151	216
683	254	157	215
684	254	163	216
685	255	171	219
686	251	170	215
687	249	174	214
688	251	183	216
689	255	199	225
690	255	203	226
691	255	200	222
692	253	203	223
693	255	212	229
694	0	0	0
695	0	0	0
696	0	0	0
697	0	0	0
698	0	0	0
699	239	199	226
700	237	189	226
701	235	184	226
702	236	181	229
703	238	179	230
704	236	174	228
705	231	166	225
706	231	161	227
707	229	149	224
708	217	128	211
709	229	142	222
710	241	151	228
711	245	144	223
712	243	132	215
713	247	133	217
714	249	133	217
715	248	131	214
716	247	129	210
717	239	118	202
718	230	104	195
719	243	120	207
720	250	131	211
721	251	133	210
722	249	134	209
723	254	145	214
724	254	150	213
725	254	157	214
726	255	165	219
727	253	169	218
728	252	173	217
729	255	186	222
730	255	201	227
731	255	196	220
732	252	193	217
733	255	201	222
734	255	210	229
735	255	211	229
736	0	0	0
737	0	0	0
738	0	0	0
739	0	0	0
740	0	0	0
741	0	0	0
742	0	0	0
743	240	192	236
744	245	191	239
745	235	176	229
746	226	168	225
747	227	167	230
748	223	155	228
749	205	125	212
750	218	140	224
751	224	138	222
752	233	133	219
753	236	125	214
754	243	127	216
755	252	135	222
756	251	133	220
757	248	128	214
758	238	116	205
759	241	118	210
760	255	137	225
761	255	131	218
762	254	133	217
763	248	127	210
764	252	137	213
765	249	138	209
766	251	145	211
767	255	158	219
768	252	161	218
769	251	166	217
770	255	180	222
771	255	183	218
772	247	177	210
773	255	193	220
774	255	201	225
775	254	199	223
776	0	0	0
777	0	0	0
778	0	0	0
779	0	0	0
780	0	0	0
781	0	0	0
782	0	0	0
783	0	0	0
784	0	0	0
785	233	185	231
786	225	171	225
787	218	168	226
788	219	168	232
789	207	145	222
790	190	116	208
791	196	121	214
792	203	120	213
793	217	119	213
794	222	111	208
795	236	122	216
796	247	130	223
797	244	125	218
798	242	120	213
799	239	119	211
800	242	122	213
801	248	124	216
802	244	119	212
803	241	117	210
804	235	111	204
805	240	118	207
806	240	121	205
807	247	136	212
808	251	148	218
809	250	153	218
810	248	158	216
811	248	163	216
812	248	167	215
813	255	182	222
814	255	197	229
815	255	194	224
816	251	191	221
817	0	0	0
818	0	0	0
819	0	0	0
820	0	0	0
821	0	0	0
822	0	0	0
823	0	0	0
824	0	0	0
825	0	0	0
826	0	0	0
827	229	192	237
828	224	190	240
829	212	170	234
830	201	149	226
831	197	138	224
832	205	143	230
833	202	127	221
834	214	126	221
835	224	126	220
836	241	136	228
837	246	135	228
838	246	130	224
839	250	135	225
840	249	135	223
841	247	133	222
842	248	132	222
843	234	114	210
844	232	112	209
845	236	119	212
846	246	129	218
847	250	136	219
848	255	151	228
849	251	144	221
850	250	150	220
851	251	158	221
852	251	164	220
853	255	172	224
854	255	187	233
855	255	180	224
856	248	176	218
857	250	185	221
858	255	198	226
859	255	211	231
860	0	0	0
861	0	0	0
862	0	0	0
863	0	0	0
864	0	0	0
865	0	0	0
866	0	0	0
867	0	0	0
868	229	206	241
869	210	183	232
870	197	164	228
871	198	158	232
872	194	147	227
873	193	138	224
874	191	124	217
875	211	133	225
876	220	132	224
877	231	134	226
878	237	133	226
879	248	139	230
880	252	143	231
881	245	136	224
882	244	135	222
883	233	118	212
884	219	100	201
885	223	109	207
886	228	116	209
887	241	129	216
888	247	136	218
889	247	136	217
890	240	131	212
891	245	143	217
892	247	153	217
893	251	162	221
894	255	171	226
895	249	165	221
896	241	159	216
897	247	171	222
898	249	179	222
899	254	192	226
900	255	205	229
901	253	204	224
902	0	0	0
903	0	0	0
904	0	0	0
905	0	0	0
906	0	0	0
907	0	0	0
908	0	0	0
909	232	220	244
910	209	196	234
911	200	183	236
912	201	178	240
913	197	164	235
914	198	157	234
915	195	139	226
916	214	148	236
917	217	138	230
918	226	139	230
919	241	148	237
920	254	155	242
921	250	146	234
922	240	137	225
923	249	151	233
924	240	136	224
925	232	125	218
926	236	134	223
927	242	143	227
928	254	155	234
929	246	141	223
930	248	143	223
931	247	143	223
932	251	157	229
933	245	152	220
934	253	164	226
935	249	162	223
936	240	155	217
937	249	170	228
938	255	184	235
939	251	179	226
940	255	192	230
941	254	195	227
942	0	0	0
943	0	0	0
944	0	0	0
945	0	0	0
946	0	0	0
947	0	0	0
948	0	0	0
949	0	0	0
950	0	0	0
951	219	216	239
952	209	203	241
953	204	192	242
954	200	178	239
955	196	163	235
956	190	144	227
957	198	142	230
958	199	132	225
959	213	141	232
960	226	148	235
961	229	142	230
962	226	133	224
963	232	144	229
964	244	158	237
965	243	152	234
966	238	142	228
967	246	155	237
968	253	164	240
969	250	155	234
970	243	142	226
971	249	148	230
972	247	149	228
973	241	147	224
974	236	144	219
975	240	148	221
976	236	146	216
977	244	161	224
978	253	177	232
979	252	176	228
980	246	171	221
981	247	178	222
982	246	183	221
983	254	200	229
984	0	0	0
985	0	0	0
986	0	0	0
987	0	0	0
988	0	0	0
989	0	0	0
990	0	0	0
991	0	0	0
992	0	0	0
993	221	218	243
994	212	204	242
995	203	186	238
996	197	171	235
997	199	168	238
998	197	160	237
999	197	155	235
1000	211	164	242
1001	221	172	245
1002	220	164	237
1003	228	168	241
1004	242	183	252
1005	236	166	240
1006	240	162	239
1007	243	158	238
1008	255	174	248
1009	255	169	242
1010	250	158	235
1011	246	151	232
1012	251	158	237
1013	249	158	234
1014	243	157	230
1015	244	160	232
1016	245	163	233
1017	237	153	224
1018	250	171	233
1019	253	175	232
1020	251	174	228
1021	250	176	226
1022	250	183	228
1023	251	190	230
1024	255	209	239
1025	255	203	231
1026	0	0	0
1027	0	0	0
1028	0	0	0
1029	0	0	0
1030	0	0	0
1031	0	0	0
1032	0	0	0
1033	0	0	0
1034	0	0	0
1035	220	214	239
1036	210	197	240
1037	214	197	248
1038	212	192	249
1039	208	186	246
1040	205	179	243
1041	217	188	249
1042	225	196	252
1043	224	193	249
1044	230	196	251
1045	221	179	240
1046	216	164	233
1047	224	164	236
1048	226	160	233
1049	231	159	232
1050	233	155	227
1051	235	153	226
1052	233	147	224
1053	239	155	229
1054	237	156	227
1055	238	160	229
1056	241	165	232
1057	238	161	230
1058	232	152	223
1059	243	164	231
1060	246	169	230
1061	250	174	230
1062	249	177	227
1063	250	184	230
1064	253	192	233
1065	251	191	230
1066	0	0	0
1067	0	0	0
1068	0	0	0
1069	0	0	0
1070	0	0	0
1071	0	0	0
1072	0	0	0
1073	0	0	0
1074	0	0	0
1075	0	0	0
1076	0	0	0
1077	0	0	0
1078	0	0	0
1079	0	0	0
1080	0	0	0
1081	0	0	0
1082	0	0	0
1083	0	0	0
1084	0	0	0
1085	0	0	0
1086	0	0	0
1087	0	0	0
1088	0	0	0
1089	0	0	0
1090	0	0	0
1091	232	186	237
1092	242	188	241
1093	236	172	234
1094	241	179	240
1095	241	178	237
1096	247	185	242
1097	242	176	237
1098	242	173	236
1099	243	172	235
1100	253	184	243
1101	245	172	234
1102	251	179	235
1103	252	184	233
1104	254	192	235
1105	253	194	237
1106	251	192	234
1107	0	0	0
1108	0	0	0
1109	0	0	0
1110	0	0	0
1111	0	0	0
1112	0	0	0
1113	0	0	0
1114	0	0	0
1115	0	0	0
1116	0	0	0
1117	0	0	0
1118	0	0	0
1119	0	0	0
1120	0	0	0
1121	0	0	0
1122	0	0	0
1123	0	0	0
1124	0	0	0
1125	0	0	0
1126	0	0	0
1127	0	0	0
1128	0	0	0
1129	0	0	0
1130	0	0	0
1131	0	0	0
1132	0	0	0
1133	238	204	241
1134	232	189	236
1135	237	193	241
1136	238	192	240
1137	236	185	236
1138	232	176	231
1139	238	179	234
1140	239	178	230
1141	238	173	228
1142	232	164	226
1143	243	177	234
1144	244	181	229
1145	243	183	227
1146	245	186	232
1147	0	0	0
1148	0	0	0
