 	R	G	B
1	0	0	0
2	0	0	0
3	0	0	0
4	0	0	0
5	0	0	0
6	0	0	0
7	0	0	0
8	0	0	0
9	0	0	0
10	0	0	0
11	0	0	0
12	0	0	0
13	0	0	0
14	0	0	0
15	0	0	0
16	0	0	0
17	236	232	231
18	236	233	231
19	237	235	232
20	0	0	0
21	0	0	0
22	0	0	0
23	0	0	0
24	0	0	0
25	0	0	0
26	0	0	0
27	0	0	0
28	0	0	0
29	0	0	0
30	0	0	0
31	0	0	0
32	0	0	0
33	0	0	0
34	0	0	0
35	0	0	0
36	0	0	0
37	0	0	0
38	0	0	0
39	0	0	0
40	0	0	0
41	237	234	232
42	242	238	235
43	233	226	227
44	232	227	227
45	233	230	228
46	0	0	0
47	0	0	0
48	0	0	0
49	0	0	0
50	0	0	0
51	0	0	0
52	0	0	0
53	0	0	0
54	0	0	0
55	0	0	0
56	0	0	0
57	0	0	0
58	0	0	0
59	0	0	0
60	0	0	0
61	0	0	0
62	0	0	0
63	0	0	0
64	0	0	0
65	234	232	230
66	241	239	236
67	237	230	230
68	228	218	222
69	228	222	224
70	230	226	227
71	232	228	229
72	235	232	232
73	0	0	0
74	0	0	0
75	0	0	0
76	0	0	0
77	0	0	0
78	0	0	0
79	0	0	0
80	0	0	0
81	0	0	0
82	0	0	0
83	0	0	0
84	0	0	0
85	0	0	0
86	0	0	0
87	0	0	0
88	0	0	0
89	230	228	228
90	236	235	233
91	232	227	228
92	227	218	222
93	231	224	227
94	232	228	229
95	233	230	231
96	235	233	233
97	233	229	230
98	230	226	228
99	0	0	0
100	0	0	0
101	0	0	0
102	0	0	0
103	0	0	0
104	0	0	0
105	0	0	0
106	0	0	0
107	0	0	0
108	0	0	0
109	0	0	0
110	0	0	0
111	0	0	0
112	237	236	234
113	236	235	233
114	235	233	232
115	230	226	227
116	224	217	222
117	231	225	228
118	235	231	232
119	235	232	232
120	236	235	233
121	234	230	231
122	231	226	229
123	232	229	230
124	0	0	0
125	0	0	0
126	0	0	0
127	0	0	0
128	0	0	0
129	0	0	0
130	0	0	0
131	0	0	0
132	0	0	0
133	0	0	0
134	0	0	0
135	0	0	0
136	235	232	232
137	238	234	233
138	239	234	233
139	235	228	230
140	228	219	225
141	224	216	223
142	228	222	227
143	231	228	230
144	234	230	231
145	234	229	230
146	231	224	227
147	232	227	229
148	234	230	231
149	0	0	0
150	0	0	0
151	0	0	0
152	0	0	0
153	0	0	0
154	0	0	0
155	0	0	0
156	0	0	0
157	0	0	0
158	0	0	0
159	0	0	0
160	0	0	0
161	233	229	230
162	236	230	230
163	234	225	228
164	231	221	227
165	230	220	229
166	226	216	226
167	228	222	229
168	230	227	230
169	230	224	228
170	230	223	228
171	232	226	230
172	234	228	230
173	235	231	231
174	237	235	233
175	0	0	0
176	0	0	0
177	0	0	0
178	0	0	0
179	0	0	0
180	0	0	0
181	0	0	0
182	0	0	0
183	0	0	0
184	0	0	0
185	232	230	230
186	235	231	232
187	231	225	227
188	227	219	224
189	230	222	228
190	233	223	232
191	223	210	223
192	224	215	225
193	231	227	231
194	229	223	227
195	233	227	231
196	235	230	233
197	232	227	229
198	234	230	230
199	235	232	231
200	234	229	230
201	0	0	0
202	0	0	0
203	0	0	0
204	0	0	0
205	236	234	231
206	234	232	229
207	235	234	230
208	0	0	0
209	0	0	0
210	234	231	232
211	232	227	230
212	228	221	225
213	229	222	227
214	231	224	230
215	228	216	226
216	218	203	219
217	224	214	226
218	231	226	230
219	231	226	229
220	234	230	232
221	231	226	229
222	229	223	226
223	230	225	228
224	232	227	229
225	231	225	228
226	0	0	0
227	0	0	0
228	0	0	0
229	233	231	226
230	235	232	229
231	232	228	227
232	232	229	228
233	235	234	231
234	232	230	229
235	233	230	231
236	232	226	230
237	231	222	228
238	233	224	230
239	225	212	223
240	220	203	219
241	222	207	223
242	228	219	230
243	232	226	231
244	231	226	229
245	234	231	231
246	231	228	229
247	230	226	228
248	232	228	230
249	233	229	231
250	0	0	0
251	0	0	0
252	0	0	0
253	0	0	0
254	0	0	0
255	231	227	227
256	229	224	225
257	231	227	228
258	233	231	230
259	230	228	227
260	231	227	229
261	230	223	228
262	229	220	227
263	222	210	222
264	214	197	214
265	220	205	221
266	222	209	225
267	227	218	230
268	231	226	231
269	232	228	230
270	235	232	232
271	232	230	229
272	232	229	230
273	233	229	231
274	232	229	230
275	0	0	0
276	0	0	0
277	0	0	0
278	0	0	0
279	0	0	0
280	231	227	228
281	230	227	228
282	233	231	231
283	234	232	231
284	232	229	228
285	231	227	228
286	228	222	227
287	229	222	228
288	220	211	222
289	215	204	218
290	221	211	224
291	224	216	228
292	233	227	234
293	233	228	232
294	233	230	231
295	233	231	230
296	232	229	228
297	234	231	231
298	234	231	232
299	232	229	229
300	232	231	228
301	0	0	0
302	0	0	0
303	0	0	0
304	233	229	230
305	232	229	230
306	231	229	229
307	232	230	229
308	233	231	230
309	231	227	228
310	229	225	227
311	227	223	226
312	227	222	227
313	222	216	223
314	217	209	218
315	222	216	224
316	226	221	228
317	231	226	231
318	232	228	231
319	232	229	230
320	233	230	230
321	234	232	231
322	236	234	233
323	235	233	232
324	234	232	230
325	0	0	0
326	0	0	0
327	0	0	0
328	0	0	0
329	233	230	230
330	233	230	231
331	235	233	231
332	235	234	231
333	234	233	231
334	232	229	229
335	231	228	229
336	228	225	227
337	226	223	226
338	221	217	221
339	222	217	222
340	229	225	228
341	229	226	228
342	232	230	230
343	231	228	228
344	233	230	230
345	235	232	231
346	235	233	232
347	232	228	229
348	231	228	228
349	0	0	0
350	0	0	0
351	0	0	0
352	0	0	0
353	0	0	0
354	233	231	230
355	236	234	232
356	237	237	233
357	236	235	232
358	235	234	231
359	234	232	230
360	234	232	231
361	230	228	228
362	227	225	226
363	227	226	227
364	228	226	227
365	232	230	229
366	232	230	228
367	231	229	227
368	230	227	226
369	233	230	229
370	235	233	232
371	231	227	228
372	0	0	0
373	0	0	0
374	0	0	0
375	0	0	0
376	0	0	0
377	0	0	0
378	0	0	0
379	237	236	232
380	238	238	233
381	233	233	229
382	232	231	228
383	231	229	228
384	230	228	227
385	235	234	232
386	233	231	230
387	229	225	226
388	228	226	226
389	231	230	228
390	234	233	230
391	233	230	228
392	232	229	227
393	230	227	226
394	233	230	228
395	235	232	231
396	231	228	228
397	0	0	0
398	0	0	0
399	0	0	0
400	0	0	0
401	0	0	0
402	238	235	234
403	238	237	234
404	238	240	233
405	233	233	228
406	230	228	226
407	230	228	227
408	229	227	226
409	233	232	230
410	237	238	233
411	235	233	230
412	231	228	228
413	233	232	230
414	235	235	231
415	236	234	231
416	235	231	230
417	233	229	229
418	231	227	227
419	234	230	230
420	235	232	232
421	233	231	230
422	0	0	0
423	0	0	0
424	0	0	0
425	0	0	0
426	239	236	235
427	235	232	232
428	234	234	231
429	236	238	230
430	232	232	226
431	232	231	228
432	233	231	230
433	231	229	228
434	234	234	231
435	234	233	229
436	230	227	226
437	232	229	229
438	235	233	232
439	234	231	229
440	233	230	229
441	233	229	230
442	232	227	229
443	236	232	231
444	238	235	234
445	235	230	230
446	0	0	0
447	0	0	0
448	0	0	0
449	0	0	0
450	0	0	0
451	0	0	0
452	233	230	230
453	235	235	231
454	236	238	230
455	234	235	228
456	235	234	231
457	234	233	232
458	233	231	229
459	232	230	229
460	231	229	228
461	232	230	229
462	234	232	231
463	234	231	231
464	233	229	229
465	232	228	229
466	231	227	229
467	235	232	232
468	239	237	234
469	236	233	231
470	233	228	228
471	0	0	0
472	0	0	0
473	0	0	0
474	0	0	0
475	0	0	0
476	0	0	0
477	0	0	0
478	0	0	0
479	231	230	225
480	229	226	223
481	234	233	231
482	233	232	230
483	234	232	230
484	234	231	230
485	233	230	229
486	233	231	230
487	232	229	229
488	233	229	229
489	235	231	231
490	232	230	230
491	232	229	230
492	236	234	233
493	237	235	232
494	235	231	230
495	232	227	228
496	0	0	0
497	0	0	0
498	0	0	0
499	0	0	0
500	0	0	0
501	0	0	0
502	0	0	0
503	0	0	0
504	0	0	0
505	231	228	227
506	236	234	232
507	236	233	232
508	236	233	232
509	235	233	232
510	234	231	231
511	231	229	229
512	230	227	227
513	233	230	230
514	235	233	232
515	234	232	231
516	233	232	230
517	234	233	231
518	236	234	231
519	236	232	231
520	0	0	0
521	0	0	0
522	0	0	0
523	0	0	0
524	0	0	0
525	0	0	0
526	0	0	0
527	0	0	0
528	0	0	0
529	0	0	0
530	0	0	0
531	0	0	0
532	0	0	0
533	0	0	0
534	0	0	0
535	231	228	229
536	0	0	0
537	0	0	0
538	236	234	232
539	233	231	229
540	233	231	229
541	235	234	231
542	236	235	232
543	0	0	0
544	0	0	0
545	0	0	0
546	0	0	0
547	0	0	0
548	0	0	0
549	0	0	0
550	0	0	0
551	0	0	0
552	0	0	0
553	0	0	0
554	0	0	0
555	0	0	0
556	0	0	0
557	0	0	0
558	0	0	0
559	0	0	0
560	0	0	0
561	0	0	0
562	0	0	0
563	0	0	0
564	232	229	228
565	235	233	231
566	238	236	233
567	0	0	0
568	0	0	0
569	0	0	0
570	0	0	0
571	0	0	0
572	0	0	0
573	0	0	0
574	0	0	0
575	0	0	0
