 	R	G	B
1	0	0	0
2	0	0	0
3	0	0	0
4	0	0	0
5	0	0	0
6	0	0	0
7	0	0	0
8	0	0	0
9	0	0	0
10	0	0	0
11	250	220	224
12	255	229	231
13	0	0	0
14	0	0	0
15	0	0	0
16	0	0	0
17	0	0	0
18	0	0	0
19	0	0	0
20	0	0	0
21	0	0	0
22	0	0	0
23	0	0	0
24	0	0	0
25	0	0	0
26	0	0	0
27	0	0	0
28	0	0	0
29	0	0	0
30	0	0	0
31	0	0	0
32	0	0	0
33	0	0	0
34	0	0	0
35	0	0	0
36	0	0	0
37	0	0	0
38	0	0	0
39	0	0	0
40	0	0	0
41	0	0	0
42	0	0	0
43	0	0	0
44	0	0	0
45	0	0	0
46	0	0	0
47	0	0	0
48	0	0	0
49	0	0	0
50	0	0	0
51	0	0	0
52	0	0	0
53	0	0	0
54	0	0	0
55	0	0	0
56	0	0	0
57	0	0	0
58	0	0	0
59	0	0	0
60	0	0	0
61	0	0	0
62	0	0	0
63	0	0	0
64	0	0	0
65	0	0	0
66	0	0	0
67	0	0	0
68	250	222	226
69	255	234	235
70	254	223	226
71	252	223	227
72	0	0	0
73	0	0	0
74	0	0	0
75	0	0	0
76	0	0	0
77	0	0	0
78	0	0	0
79	0	0	0
80	0	0	0
81	0	0	0
82	0	0	0
83	0	0	0
84	0	0	0
85	0	0	0
86	0	0	0
87	0	0	0
88	0	0	0
89	0	0	0
90	0	0	0
91	0	0	0
92	0	0	0
93	0	0	0
94	0	0	0
95	0	0	0
96	0	0	0
97	0	0	0
98	0	0	0
99	0	0	0
100	0	0	0
101	0	0	0
102	0	0	0
103	0	0	0
104	0	0	0
105	0	0	0
106	0	0	0
107	0	0	0
108	0	0	0
109	0	0	0
110	0	0	0
111	0	0	0
112	0	0	0
113	0	0	0
114	0	0	0
115	0	0	0
116	0	0	0
117	0	0	0
118	0	0	0
119	0	0	0
120	0	0	0
121	0	0	0
122	0	0	0
123	0	0	0
124	248	218	228
125	254	227	233
126	255	237	237
127	255	228	230
128	251	216	221
129	251	218	224
130	253	221	231
131	253	220	232
132	252	219	229
133	254	221	229
134	0	0	0
135	0	0	0
136	0	0	0
137	0	0	0
138	0	0	0
139	0	0	0
140	0	0	0
141	0	0	0
142	0	0	0
143	0	0	0
144	0	0	0
145	0	0	0
146	0	0	0
147	0	0	0
148	0	0	0
149	0	0	0
150	0	0	0
151	0	0	0
152	0	0	0
153	0	0	0
154	0	0	0
155	0	0	0
156	0	0	0
157	0	0	0
158	0	0	0
159	0	0	0
160	0	0	0
161	0	0	0
162	0	0	0
163	0	0	0
164	0	0	0
165	0	0	0
166	0	0	0
167	0	0	0
168	0	0	0
169	0	0	0
170	0	0	0
171	0	0	0
172	0	0	0
173	0	0	0
174	0	0	0
175	0	0	0
176	0	0	0
177	0	0	0
178	0	0	0
179	0	0	0
180	0	0	0
181	247	217	228
182	251	221	231
183	255	232	239
184	255	223	230
185	249	212	221
186	251	214	222
187	254	217	227
188	254	217	230
189	254	217	231
190	254	217	228
191	255	219	228
192	253	216	225
193	0	0	0
194	0	0	0
195	0	0	0
196	0	0	0
197	0	0	0
198	0	0	0
199	0	0	0
200	0	0	0
201	0	0	0
202	0	0	0
203	0	0	0
204	0	0	0
205	0	0	0
206	0	0	0
207	0	0	0
208	0	0	0
209	0	0	0
210	0	0	0
211	0	0	0
212	0	0	0
213	0	0	0
214	0	0	0
215	0	0	0
216	0	0	0
217	0	0	0
218	0	0	0
219	0	0	0
220	0	0	0
221	0	0	0
222	0	0	0
223	0	0	0
224	0	0	0
225	0	0	0
226	0	0	0
227	0	0	0
228	0	0	0
229	0	0	0
230	0	0	0
231	0	0	0
232	0	0	0
233	0	0	0
234	0	0	0
235	0	0	0
236	0	0	0
237	0	0	0
238	0	0	0
239	251	220	231
240	255	223	234
241	252	215	228
242	247	207	221
243	249	209	223
244	251	211	226
245	252	212	227
246	252	211	227
247	252	212	226
248	252	211	224
249	251	210	222
250	0	0	0
251	0	0	0
252	0	0	0
253	0	0	0
254	0	0	0
255	0	0	0
256	253	223	222
257	254	231	226
258	0	0	0
259	0	0	0
260	0	0	0
261	0	0	0
262	0	0	0
263	0	0	0
264	0	0	0
265	0	0	0
266	0	0	0
267	0	0	0
268	0	0	0
269	0	0	0
270	0	0	0
271	0	0	0
272	0	0	0
273	0	0	0
274	0	0	0
275	0	0	0
276	0	0	0
277	0	0	0
278	0	0	0
279	0	0	0
280	0	0	0
281	0	0	0
282	0	0	0
283	0	0	0
284	0	0	0
285	0	0	0
286	0	0	0
287	0	0	0
288	0	0	0
289	0	0	0
290	0	0	0
291	0	0	0
292	0	0	0
293	0	0	0
294	0	0	0
295	0	0	0
296	0	0	0
297	0	0	0
298	255	223	234
299	253	214	228
300	254	215	229
301	255	218	232
302	253	213	229
303	253	213	228
304	255	218	230
305	255	218	229
306	252	211	224
307	0	0	0
308	0	0	0
309	0	0	0
310	0	0	0
311	255	221	228
312	0	0	0
313	253	214	220
314	253	217	220
315	255	226	225
316	252	225	223
317	0	0	0
318	0	0	0
319	0	0	0
320	0	0	0
321	0	0	0
322	0	0	0
323	0	0	0
324	0	0	0
325	0	0	0
326	0	0	0
327	0	0	0
328	0	0	0
329	0	0	0
330	0	0	0
331	0	0	0
332	0	0	0
333	0	0	0
334	0	0	0
335	0	0	0
336	0	0	0
337	0	0	0
338	0	0	0
339	0	0	0
340	0	0	0
341	0	0	0
342	0	0	0
343	0	0	0
344	0	0	0
345	0	0	0
346	0	0	0
347	0	0	0
348	0	0	0
349	0	0	0
350	0	0	0
351	0	0	0
352	0	0	0
353	0	0	0
354	0	0	0
355	255	219	233
356	255	223	234
357	255	222	233
358	255	223	235
359	255	217	231
360	252	211	226
361	255	217	229
362	255	222	230
363	255	216	226
364	253	210	224
365	255	220	231
366	255	226	232
367	0	0	0
368	255	218	226
369	251	208	220
370	243	196	211
371	250	206	218
372	251	210	218
373	250	211	217
374	246	210	213
375	252	224	221
376	0	0	0
377	0	0	0
378	0	0	0
379	0	0	0
380	0	0	0
381	0	0	0
382	0	0	0
383	0	0	0
384	0	0	0
385	0	0	0
386	0	0	0
387	0	0	0
388	0	0	0
389	0	0	0
390	0	0	0
391	0	0	0
392	0	0	0
393	0	0	0
394	0	0	0
395	0	0	0
396	0	0	0
397	0	0	0
398	0	0	0
399	0	0	0
400	0	0	0
401	0	0	0
402	0	0	0
403	0	0	0
404	0	0	0
405	0	0	0
406	0	0	0
407	0	0	0
408	0	0	0
409	0	0	0
410	0	0	0
411	0	0	0
412	255	219	234
413	255	226	239
414	250	209	225
415	250	208	224
416	255	222	234
417	255	215	230
418	253	211	226
419	255	218	229
420	255	219	228
421	255	213	224
422	253	209	224
423	255	218	231
424	255	212	223
425	250	207	218
426	255	219	227
427	253	209	221
428	252	206	219
429	255	217	227
430	250	205	217
431	249	207	216
432	253	216	219
433	255	231	228
434	254	226	223
435	0	0	0
436	0	0	0
437	0	0	0
438	0	0	0
439	0	0	0
440	0	0	0
441	0	0	0
442	0	0	0
443	0	0	0
444	0	0	0
445	0	0	0
446	0	0	0
447	0	0	0
448	0	0	0
449	0	0	0
450	0	0	0
451	0	0	0
452	0	0	0
453	0	0	0
454	0	0	0
455	0	0	0
456	0	0	0
457	0	0	0
458	0	0	0
459	0	0	0
460	0	0	0
461	0	0	0
462	0	0	0
463	0	0	0
464	0	0	0
465	0	0	0
466	0	0	0
467	0	0	0
468	0	0	0
469	0	0	0
470	255	224	237
471	249	210	228
472	238	193	215
473	249	207	225
474	255	221	234
475	255	216	230
476	254	212	228
477	255	215	229
478	255	217	229
479	255	212	225
480	253	207	223
481	253	206	222
482	249	201	218
483	255	211	224
484	255	222	231
485	255	217	226
486	255	214	223
487	255	208	220
488	248	199	214
489	255	213	224
490	255	224	228
491	255	223	226
492	253	217	220
493	255	230	226
494	0	0	0
495	0	0	0
496	0	0	0
497	0	0	0
498	0	0	0
499	0	0	0
500	0	0	0
501	0	0	0
502	0	0	0
503	0	0	0
504	0	0	0
505	0	0	0
506	0	0	0
507	0	0	0
508	0	0	0
509	0	0	0
510	0	0	0
511	0	0	0
512	0	0	0
513	0	0	0
514	0	0	0
515	0	0	0
516	0	0	0
517	0	0	0
518	0	0	0
519	0	0	0
520	0	0	0
521	0	0	0
522	0	0	0
523	0	0	0
524	0	0	0
525	0	0	0
526	0	0	0
527	250	217	231
528	255	226	237
529	250	212	228
530	247	205	225
531	255	220	236
532	255	219	233
533	255	215	229
534	254	212	228
535	255	214	231
536	255	212	229
537	253	207	225
538	253	206	224
539	253	205	223
540	250	200	220
541	255	210	227
542	255	210	225
543	253	205	220
544	255	207	219
545	252	201	216
546	249	196	215
547	255	212	227
548	255	210	223
549	255	209	220
550	247	201	213
551	253	215	220
552	255	227	225
553	0	0	0
554	0	0	0
555	0	0	0
556	0	0	0
557	0	0	0
558	0	0	0
559	0	0	0
560	0	0	0
561	0	0	0
562	0	0	0
563	0	0	0
564	0	0	0
565	0	0	0
566	0	0	0
567	0	0	0
568	0	0	0
569	0	0	0
570	0	0	0
571	0	0	0
572	0	0	0
573	0	0	0
574	0	0	0
575	0	0	0
576	0	0	0
577	0	0	0
578	0	0	0
579	0	0	0
580	0	0	0
581	0	0	0
582	0	0	0
583	253	219	233
584	0	0	0
585	251	219	231
586	255	227	236
587	254	221	233
588	252	215	231
589	255	216	232
590	254	215	229
591	253	212	227
592	253	209	228
593	253	208	228
594	252	205	227
595	251	204	226
596	252	203	225
597	251	200	224
598	248	195	220
599	249	197	221
600	249	197	221
601	249	197	219
602	251	199	218
603	250	196	216
604	247	191	215
605	250	194	218
606	248	192	215
607	246	190	212
608	239	184	205
609	246	198	213
610	252	210	218
611	255	218	220
612	0	0	0
613	0	0	0
614	0	0	0
615	0	0	0
616	0	0	0
617	0	0	0
618	0	0	0
619	0	0	0
620	0	0	0
621	0	0	0
622	0	0	0
623	0	0	0
624	0	0	0
625	0	0	0
626	0	0	0
627	0	0	0
628	0	0	0
629	0	0	0
630	0	0	0
631	0	0	0
632	0	0	0
633	0	0	0
634	0	0	0
635	0	0	0
636	0	0	0
637	0	0	0
638	0	0	0
639	0	0	0
640	253	223	235
641	254	221	234
642	250	214	229
643	253	221	232
644	255	224	233
645	250	216	228
646	251	215	230
647	255	218	233
648	255	217	231
649	255	214	229
650	254	211	230
651	255	210	230
652	253	206	228
653	252	204	227
654	255	209	231
655	255	206	229
656	252	200	226
657	253	202	227
658	253	202	226
659	253	202	225
660	255	207	226
661	255	204	225
662	253	195	221
663	255	199	224
664	252	193	219
665	250	191	217
666	250	194	216
667	255	209	224
668	255	207	220
669	255	215	222
670	254	212	216
671	0	0	0
672	0	0	0
673	0	0	0
674	0	0	0
675	0	0	0
676	0	0	0
677	0	0	0
678	0	0	0
679	0	0	0
680	0	0	0
681	0	0	0
682	0	0	0
683	0	0	0
684	0	0	0
685	0	0	0
686	0	0	0
687	0	0	0
688	0	0	0
689	0	0	0
690	0	0	0
691	0	0	0
692	0	0	0
693	0	0	0
694	0	0	0
695	0	0	0
696	0	0	0
697	0	0	0
698	254	225	235
699	253	221	233
700	251	215	231
701	253	220	234
702	255	223	233
703	252	219	230
704	253	218	231
705	255	220	233
706	255	218	231
707	255	214	228
708	255	211	230
709	252	207	228
710	250	203	224
711	254	207	227
712	255	213	231
713	255	208	229
714	254	203	227
715	254	204	228
716	254	204	226
717	255	207	228
718	255	213	232
719	255	206	229
720	255	197	223
721	255	195	223
722	250	188	218
723	254	194	221
724	255	197	219
725	255	200	219
726	253	199	217
727	253	200	216
728	249	198	212
729	253	208	216
730	255	216	218
731	255	222	220
732	0	0	0
733	0	0	0
734	0	0	0
735	0	0	0
736	0	0	0
737	0	0	0
738	0	0	0
739	0	0	0
740	0	0	0
741	0	0	0
742	0	0	0
743	0	0	0
744	0	0	0
745	0	0	0
746	0	0	0
747	0	0	0
748	0	0	0
749	0	0	0
750	0	0	0
751	0	0	0
752	0	0	0
753	0	0	0
754	0	0	0
755	0	0	0
756	254	226	235
757	254	222	233
758	252	216	232
759	254	220	235
760	254	221	233
761	253	218	231
762	255	219	233
763	255	219	233
764	253	212	226
765	251	208	224
766	255	213	230
767	253	209	228
768	254	210	228
769	255	215	231
770	255	212	230
771	255	207	228
772	254	204	227
773	254	205	228
774	253	203	225
775	255	208	229
776	255	207	230
777	255	199	225
778	251	189	218
779	251	187	217
780	251	188	218
781	255	194	221
782	255	197	220
783	255	200	221
784	252	191	215
785	252	193	215
786	254	199	217
787	255	209	221
788	255	207	216
789	255	213	218
790	252	213	217
791	0	0	0
792	0	0	0
793	0	0	0
794	0	0	0
795	0	0	0
796	0	0	0
797	0	0	0
798	0	0	0
799	0	0	0
800	0	0	0
801	0	0	0
802	0	0	0
803	0	0	0
804	0	0	0
805	0	0	0
806	0	0	0
807	0	0	0
808	0	0	0
809	0	0	0
810	0	0	0
811	0	0	0
812	0	0	0
813	253	226	236
814	254	226	235
815	253	221	233
816	250	215	230
817	252	217	232
818	253	219	233
819	254	219	233
820	255	219	235
821	252	212	229
822	247	205	222
823	252	210	225
824	255	215	229
825	255	217	231
826	255	219	233
827	255	216	232
828	255	213	231
829	255	208	228
830	253	204	225
831	252	203	225
832	252	202	226
833	253	200	225
834	254	198	223
835	250	189	217
836	245	179	211
837	250	184	215
838	251	186	217
839	255	193	221
840	255	197	222
841	255	191	218
842	250	183	212
843	255	192	217
844	255	198	218
845	255	199	216
846	253	197	214
847	251	198	212
848	247	197	209
849	254	210	216
850	0	0	0
851	0	0	0
852	0	0	0
853	253	225	222
854	0	0	0
855	0	0	0
856	0	0	0
857	0	0	0
858	0	0	0
859	0	0	0
860	0	0	0
861	0	0	0
862	0	0	0
863	0	0	0
864	0	0	0
865	0	0	0
866	0	0	0
867	0	0	0
868	0	0	0
869	0	0	0
870	0	0	0
871	251	223	235
872	251	223	234
873	250	217	231
874	251	217	232
875	253	220	235
876	252	217	234
877	252	216	233
878	255	221	236
879	250	213	230
880	250	212	228
881	255	217	231
882	254	214	229
883	255	217	231
884	254	209	227
885	252	205	226
886	252	206	227
887	247	200	223
888	250	205	225
889	254	206	227
890	255	204	228
891	253	201	226
892	253	198	223
893	250	189	218
894	249	185	216
895	254	190	221
896	254	187	219
897	255	195	225
898	253	182	217
899	250	177	214
900	250	178	214
901	255	188	219
902	253	184	214
903	252	185	212
904	248	183	209
905	247	184	208
906	255	202	217
907	255	215	224
908	251	203	213
909	0	0	0
910	255	220	221
911	255	224	223
912	253	223	224
913	0	0	0
914	0	0	0
915	0	0	0
916	0	0	0
917	0	0	0
918	0	0	0
919	0	0	0
920	0	0	0
921	0	0	0
922	0	0	0
923	0	0	0
924	0	0	0
925	0	0	0
926	0	0	0
927	0	0	0
928	0	0	0
929	0	0	0
930	245	217	232
931	249	218	234
932	251	218	235
933	252	218	236
934	251	215	235
935	254	219	237
936	255	224	239
937	255	222	236
938	255	221	236
939	255	218	234
940	254	214	232
941	251	206	227
942	246	197	221
943	248	200	224
944	248	200	224
945	248	203	225
946	252	208	229
947	254	206	228
948	254	204	227
949	253	200	225
950	253	197	225
951	254	194	224
952	253	190	222
953	254	189	222
954	253	186	220
955	248	175	215
956	241	163	210
957	244	167	214
958	244	167	214
959	243	167	211
960	241	164	207
961	242	166	207
962	239	164	202
963	251	185	213
964	255	202	222
965	249	191	212
966	239	181	205
967	250	200	216
968	255	220	225
969	255	217	221
970	250	215	219
971	0	0	0
972	0	0	0
973	0	0	0
974	0	0	0
975	0	0	0
976	0	0	0
977	0	0	0
978	0	0	0
979	0	0	0
980	0	0	0
981	0	0	0
982	0	0	0
983	0	0	0
984	0	0	0
985	0	0	0
986	0	0	0
987	0	0	0
988	0	0	0
989	255	227	240
990	255	222	239
991	255	222	240
992	252	215	235
993	254	219	237
994	255	222	238
995	255	221	236
996	255	217	234
997	254	214	233
998	255	214	234
999	249	205	227
1000	250	205	228
1001	252	207	230
1002	251	206	229
1003	254	210	232
1004	255	210	230
1005	254	206	228
1006	254	202	227
1007	254	200	227
1008	251	193	223
1009	250	189	222
1010	252	190	225
1011	254	189	225
1012	253	184	222
1013	246	173	216
1014	248	174	220
1015	251	178	225
1016	249	175	222
1017	248	175	221
1018	251	178	222
1019	254	182	222
1020	246	172	211
1021	255	192	221
1022	255	195	220
1023	247	184	211
1024	251	192	217
1025	255	213	229
1026	255	212	222
1027	252	208	216
1028	249	211	217
1029	0	0	0
1030	0	0	0
1031	0	0	0
1032	0	0	0
1033	0	0	0
1034	0	0	0
1035	0	0	0
1036	0	0	0
1037	0	0	0
1038	0	0	0
1039	0	0	0
1040	0	0	0
1041	0	0	0
1042	0	0	0
1043	0	0	0
1044	0	0	0
1045	0	0	0
1046	0	0	0
1047	0	0	0
1048	254	222	238
1049	252	218	235
1050	248	211	230
1051	252	216	233
1052	255	220	235
1053	253	215	232
1054	251	211	230
1055	250	210	230
1056	251	210	230
1057	252	211	231
1058	254	212	233
1059	255	213	234
1060	255	212	233
1061	255	211	232
1062	255	209	228
1063	251	202	223
1064	252	200	226
1065	252	195	226
1066	247	186	221
1067	246	185	221
1068	249	187	226
1069	251	184	226
1070	249	179	222
1071	250	179	222
1072	251	179	223
1073	250	178	223
1074	248	177	222
1075	252	181	226
1076	255	185	227
1077	253	180	222
1078	245	170	211
1079	250	179	215
1080	252	184	217
1081	255	192	220
1082	255	200	223
1083	255	202	221
1084	254	201	216
1085	255	208	218
1086	252	211	218
1087	255	223	224
1088	0	0	0
1089	0	0	0
1090	0	0	0
1091	0	0	0
1092	0	0	0
1093	0	0	0
1094	0	0	0
1095	0	0	0
1096	0	0	0
1097	0	0	0
1098	0	0	0
1099	0	0	0
1100	0	0	0
1101	0	0	0
1102	0	0	0
1103	0	0	0
1104	0	0	0
1105	0	0	0
1106	0	0	0
1107	0	0	0
1108	252	220	234
1109	255	226	238
1110	255	219	233
1111	250	213	229
1112	249	213	230
1113	246	211	229
1114	250	215	232
1115	255	218	235
1116	255	213	233
1117	255	214	235
1118	254	207	231
1119	253	206	229
1120	252	205	225
1121	247	197	221
1122	255	205	231
1123	255	201	232
1124	248	188	223
1125	243	185	222
1126	250	193	231
1127	255	191	232
1128	251	182	225
1129	251	182	223
1130	254	186	225
1131	255	186	225
1132	253	183	225
1133	255	187	228
1134	255	185	227
1135	251	180	222
1136	247	174	216
1137	255	184	221
1138	254	184	219
1139	255	193	222
1140	255	196	221
1141	255	198	219
1142	253	196	215
1143	255	202	217
1144	252	203	215
1145	255	216	222
1146	255	220	224
1147	0	0	0
1148	0	0	0
1149	0	0	0
1150	0	0	0
1151	0	0	0
1152	0	0	0
1153	0	0	0
1154	0	0	0
1155	0	0	0
1156	0	0	0
1157	0	0	0
1158	0	0	0
1159	0	0	0
1160	0	0	0
1161	0	0	0
1162	0	0	0
1163	0	0	0
1164	0	0	0
1165	0	0	0
1166	255	228	239
1167	252	221	232
1168	249	214	228
1169	251	217	230
1170	252	218	231
1171	252	220	233
1172	255	224	238
1173	255	218	235
1174	254	212	231
1175	250	205	227
1176	247	199	225
1177	250	202	229
1178	251	202	228
1179	252	205	229
1180	255	211	236
1181	255	202	232
1182	250	190	226
1183	248	193	228
1184	254	199	235
1185	254	192	231
1186	250	183	223
1187	254	188	225
1188	255	193	228
1189	255	191	227
1190	255	188	225
1191	255	190	228
1192	255	189	229
1193	255	187	229
1194	254	182	225
1195	255	185	224
1196	254	183	217
1197	254	186	216
1198	255	191	219
1199	255	191	217
1200	251	189	213
1201	252	193	214
1202	250	194	212
1203	249	198	213
1204	248	201	215
1205	0	0	0
1206	0	0	0
1207	0	0	0
1208	0	0	0
1209	0	0	0
1210	0	0	0
1211	0	0	0
1212	0	0	0
1213	0	0	0
1214	0	0	0
1215	0	0	0
1216	0	0	0
1217	0	0	0
1218	0	0	0
1219	0	0	0
1220	0	0	0
1221	0	0	0
1222	0	0	0
1223	0	0	0
1224	0	0	0
1225	242	213	225
1226	247	218	230
1227	255	225	236
1228	253	215	231
1229	255	219	234
1230	253	215	233
1231	246	206	227
1232	252	214	232
1233	247	207	228
1234	249	206	230
1235	255	211	236
1236	252	203	231
1237	253	205	232
1238	255	205	233
1239	253	195	228
1240	249	188	225
1241	248	191	228
1242	251	196	231
1243	248	187	226
1244	250	186	224
1245	255	193	228
1246	255	192	227
1247	255	191	225
1248	255	185	222
1249	255	187	225
1250	253	177	221
1251	253	176	223
1252	250	171	220
1253	251	174	219
1254	255	185	220
1255	255	189	218
1256	255	187	218
1257	255	188	218
1258	251	184	213
1259	252	189	214
1260	253	195	215
1261	253	199	216
1262	253	204	219
1263	0	0	0
1264	0	0	0
1265	0	0	0
1266	0	0	0
1267	0	0	0
1268	0	0	0
1269	0	0	0
1270	0	0	0
1271	0	0	0
1272	0	0	0
1273	0	0	0
1274	0	0	0
1275	0	0	0
1276	0	0	0
1277	0	0	0
1278	0	0	0
1279	0	0	0
1280	0	0	0
1281	0	0	0
1282	0	0	0
1283	0	0	0
1284	251	226	237
1285	253	220	235
1286	250	211	231
1287	251	210	231
1288	248	207	229
1289	251	213	233
1290	255	221	238
1291	252	215	234
1292	252	213	235
1293	253	207	233
1294	249	199	228
1295	248	198	227
1296	251	198	229
1297	249	192	227
1298	245	184	223
1299	245	187	225
1300	249	192	228
1301	251	192	229
1302	254	192	231
1303	255	194	232
1304	255	194	230
1305	255	188	225
1306	255	183	222
1307	253	175	218
1308	248	165	214
1309	250	166	217
1310	247	162	217
1311	255	178	224
1312	255	189	225
1313	255	183	216
1314	254	181	214
1315	251	179	212
1316	248	176	210
1317	254	188	216
1318	255	193	214
1319	255	199	216
1320	0	0	0
1321	0	0	0
1322	0	0	0
1323	0	0	0
1324	0	0	0
1325	0	0	0
1326	0	0	0
1327	0	0	0
1328	0	0	0
1329	0	0	0
1330	0	0	0
1331	0	0	0
1332	0	0	0
1333	0	0	0
1334	0	0	0
1335	0	0	0
1336	0	0	0
1337	0	0	0
1338	0	0	0
1339	0	0	0
1340	0	0	0
1341	0	0	0
1342	251	224	237
1343	250	216	233
1344	250	213	233
1345	0	0	0
1346	249	209	232
1347	253	216	237
1348	253	216	236
1349	249	210	232
1350	252	212	235
1351	249	205	231
1352	251	205	231
1353	253	204	232
1354	251	200	232
1355	248	193	228
1356	252	198	230
1357	254	201	232
1358	254	199	232
1359	255	200	235
1360	255	192	232
1361	255	193	232
1362	255	190	228
1363	255	185	225
1364	253	176	219
1365	251	169	217
1366	250	166	217
1367	252	167	220
1368	248	162	218
1369	255	177	226
1370	255	177	219
1371	250	172	210
1372	255	185	218
1373	255	183	217
1374	251	177	215
1375	255	189	221
1376	251	184	212
1377	253	190	212
1378	0	0	0
1379	0	0	0
1380	0	0	0
1381	0	0	0
1382	0	0	0
1383	0	0	0
1384	0	0	0
1385	0	0	0
1386	0	0	0
1387	0	0	0
1388	0	0	0
1389	0	0	0
1390	0	0	0
1391	0	0	0
1392	0	0	0
1393	0	0	0
1394	0	0	0
1395	0	0	0
1396	0	0	0
1397	0	0	0
1398	0	0	0
1399	0	0	0
1400	0	0	0
1401	247	215	233
1402	0	0	0
1403	0	0	0
1404	0	0	0
1405	246	208	232
1406	247	208	232
1407	250	210	234
1408	253	212	237
1409	254	211	237
1410	255	211	235
1411	253	206	233
1412	252	201	233
1413	255	206	236
1414	255	210	234
1415	255	205	230
1416	255	204	231
1417	255	197	230
1418	253	189	228
1419	253	186	227
1420	253	183	224
1421	250	175	219
1422	247	167	215
1423	251	168	219
1424	251	165	220
1425	251	163	220
1426	246	158	215
1427	247	162	215
1428	246	163	211
1429	254	175	217
1430	255	188	224
1431	255	183	220
1432	254	178	219
1433	254	180	220
1434	249	176	212
1435	254	187	216
1436	255	195	217
1437	254	198	217
1438	0	0	0
1439	0	0	0
1440	0	0	0
1441	0	0	0
1442	0	0	0
1443	0	0	0
1444	0	0	0
1445	0	0	0
1446	0	0	0
1447	0	0	0
1448	0	0	0
1449	0	0	0
1450	0	0	0
1451	0	0	0
1452	0	0	0
1453	0	0	0
1454	0	0	0
1455	0	0	0
1456	0	0	0
1457	0	0	0
1458	0	0	0
1459	0	0	0
1460	0	0	0
1461	0	0	0
1462	0	0	0
1463	0	0	0
1464	249	215	236
1465	255	219	240
1466	255	212	237
1467	254	210	236
1468	253	208	233
1469	250	203	230
1470	251	203	232
1471	254	207	234
1472	254	206	229
1473	253	203	226
1474	255	203	230
1475	255	196	229
1476	254	191	229
1477	255	189	229
1478	255	192	230
1479	255	184	226
1480	251	171	220
1481	255	172	225
1482	248	160	220
1483	248	159	219
1484	252	166	221
1485	253	170	221
1486	255	177	223
1487	255	190	229
1488	255	177	218
1489	252	172	214
1490	254	175	219
1491	255	177	220
1492	252	176	217
1493	255	187	222
1494	255	188	216
1495	253	191	215
1496	252	195	218
1497	0	0	0
1498	0	0	0
1499	0	0	0
1500	0	0	0
1501	0	0	0
1502	0	0	0
1503	0	0	0
1504	0	0	0
1505	0	0	0
1506	0	0	0
1507	0	0	0
1508	0	0	0
1509	0	0	0
1510	0	0	0
1511	0	0	0
1512	0	0	0
1513	0	0	0
1514	0	0	0
1515	0	0	0
1516	0	0	0
1517	0	0	0
1518	0	0	0
1519	0	0	0
1520	0	0	0
1521	0	0	0
1522	251	220	236
1523	253	215	234
1524	251	209	232
1525	252	208	232
1526	251	206	230
1527	251	206	230
1528	251	205	229
1529	252	205	229
1530	254	206	231
1531	255	206	232
1532	255	205	232
1533	255	198	229
1534	255	193	230
1535	255	195	233
1536	255	198	235
1537	255	184	226
1538	250	171	220
1539	249	164	221
1540	243	153	218
1541	252	165	227
1542	255	171	226
1543	255	178	227
1544	255	186	229
1545	255	175	220
1546	247	163	209
1547	252	169	213
1548	254	172	216
1549	255	175	219
1550	254	174	219
1551	254	178	220
1552	251	179	215
1553	249	181	213
1554	247	184	212
1555	0	0	0
1556	0	0	0
1557	0	0	0
1558	0	0	0
1559	0	0	0
1560	0	0	0
1561	0	0	0
1562	0	0	0
1563	0	0	0
1564	0	0	0
1565	0	0	0
1566	0	0	0
1567	0	0	0
1568	0	0	0
1569	0	0	0
1570	0	0	0
1571	0	0	0
1572	0	0	0
1573	0	0	0
1574	0	0	0
1575	0	0	0
1576	0	0	0
1577	0	0	0
1578	0	0	0
1579	250	223	235
1580	249	217	233
1581	246	210	229
1582	254	216	236
1583	255	217	238
1584	251	206	230
1585	250	205	229
1586	254	211	232
1587	255	212	234
1588	255	206	232
1589	255	204	233
1590	255	199	229
1591	251	192	225
1592	255	196	232
1593	255	198	234
1594	255	194	231
1595	252	179	223
1596	251	174	223
1597	250	167	223
1598	248	163	225
1599	255	175	233
1600	255	173	226
1601	255	180	228
1602	255	184	229
1603	255	174	220
1604	249	162	211
1605	255	169	216
1606	254	169	215
1607	255	171	218
1608	251	167	216
1609	252	171	218
1610	255	180	219
1611	253	183	217
1612	253	189	218
1613	0	0	0
1614	0	0	0
1615	0	0	0
1616	0	0	0
1617	0	0	0
1618	0	0	0
1619	0	0	0
1620	0	0	0
1621	0	0	0
1622	0	0	0
1623	0	0	0
1624	0	0	0
1625	0	0	0
1626	0	0	0
1627	0	0	0
1628	0	0	0
1629	0	0	0
1630	0	0	0
1631	0	0	0
1632	0	0	0
1633	0	0	0
1634	0	0	0
1635	0	0	0
1636	247	225	236
1637	247	221	234
1638	246	216	233
1639	252	220	237
1640	255	227	242
1641	255	218	238
1642	252	207	231
1643	254	212	235
1644	255	218	238
1645	254	208	232
1646	252	202	230
1647	251	198	228
1648	250	193	225
1649	253	196	228
1650	255	199	232
1651	254	192	228
1652	254	189	226
1653	251	181	223
1654	251	176	224
1655	251	173	226
1656	249	168	225
1657	253	172	228
1658	251	170	222
1659	254	174	223
1660	255	180	227
1661	254	170	220
1662	248	159	211
1663	255	165	216
1664	255	165	216
1665	255	166	218
1666	250	161	215
1667	255	173	221
1668	255	182	222
1669	255	190	223
1670	255	196	225
1671	255	200	223
1672	0	0	0
1673	0	0	0
1674	0	0	0
1675	0	0	0
1676	0	0	0
1677	0	0	0
1678	0	0	0
1679	0	0	0
1680	0	0	0
1681	0	0	0
1682	0	0	0
1683	0	0	0
1684	0	0	0
1685	0	0	0
1686	0	0	0
1687	0	0	0
1688	0	0	0
1689	0	0	0
1690	0	0	0
1691	0	0	0
1692	0	0	0
1693	250	229	238
1694	245	221	233
1695	239	214	229
1696	243	215	233
1697	254	223	240
1698	255	222	239
1699	254	212	233
1700	249	204	229
1701	251	209	233
1702	252	211	233
1703	248	202	227
1704	255	214	237
1705	255	210	236
1706	251	195	227
1707	255	199	231
1708	255	199	231
1709	252	191	226
1710	255	196	230
1711	255	189	228
1712	253	182	227
1713	253	179	228
1714	255	181	231
1715	255	186	234
1716	254	176	225
1717	255	180	227
1718	255	185	231
1719	255	177	226
1720	250	159	215
1721	255	166	221
1722	249	152	212
1723	249	153	212
1724	248	155	213
1725	254	167	219
1726	255	175	220
1727	255	182	221
1728	251	179	217
1729	0	0	0
1730	0	0	0
1731	0	0	0
1732	0	0	0
1733	0	0	0
1734	0	0	0
1735	0	0	0
1736	0	0	0
1737	0	0	0
1738	0	0	0
1739	0	0	0
1740	0	0	0
1741	0	0	0
1742	0	0	0
1743	0	0	0
1744	0	0	0
1745	0	0	0
1746	0	0	0
1747	0	0	0
1748	0	0	0
1749	0	0	0
1750	0	0	0
1751	0	0	0
1752	244	218	232
1753	243	217	234
1754	247	219	237
1755	252	219	238
1756	255	217	235
1757	251	209	229
1758	246	201	224
1759	247	203	227
1760	249	206	230
1761	255	215	236
1762	255	226	243
1763	255	210	232
1764	250	195	225
1765	252	197	229
1766	254	198	230
1767	255	200	232
1768	255	205	235
1769	255	197	233
1770	255	190	232
1771	255	196	239
1772	255	197	240
1773	255	190	234
1774	255	181	227
1775	255	183	228
1776	255	187	230
1777	255	171	222
1778	248	156	216
1779	247	149	214
1780	237	135	203
1781	244	143	209
1782	244	145	209
1783	251	159	216
1784	253	167	218
1785	248	165	214
1786	242	163	212
1787	254	185	222
1788	255	204	224
1789	255	206	219
1790	0	0	0
1791	0	0	0
1792	0	0	0
1793	0	0	0
1794	0	0	0
1795	0	0	0
1796	0	0	0
1797	0	0	0
1798	0	0	0
1799	0	0	0
1800	0	0	0
1801	0	0	0
1802	0	0	0
1803	0	0	0
1804	0	0	0
1805	0	0	0
1806	0	0	0
1807	0	0	0
1808	0	0	0
1809	0	0	0
1810	251	223	237
1811	253	224	240
1812	253	221	241
1813	255	220	240
1814	255	217	235
1815	249	208	228
1816	250	209	230
1817	254	213	234
1818	255	212	235
1819	255	220	240
1820	255	217	235
1821	250	200	224
1822	252	201	227
1823	254	202	230
1824	255	204	233
1825	255	206	235
1826	255	205	234
1827	255	197	230
1828	251	184	227
1829	255	190	233
1830	254	183	227
1831	250	176	222
1832	255	183	228
1833	255	186	231
1834	255	180	227
1835	252	165	220
1836	248	155	219
1837	246	148	218
1838	245	146	215
1839	253	155	221
1840	250	151	218
1841	255	164	225
1842	247	156	215
1843	242	155	211
1844	255	179	227
1845	255	202	236
1846	255	192	219
1847	252	194	214
1848	251	198	216
1849	0	0	0
1850	0	0	0
1851	0	0	0
1852	0	0	0
1853	0	0	0
1854	0	0	0
1855	0	0	0
1856	0	0	0
1857	0	0	0
1858	0	0	0
1859	0	0	0
1860	0	0	0
1861	0	0	0
1862	0	0	0
1863	0	0	0
1864	0	0	0
1865	0	0	0
1866	0	0	0
1867	0	0	0
1868	0	0	0
1869	252	222	237
1870	253	220	239
1871	255	220	239
1872	255	218	236
1873	253	216	234
1874	255	217	236
1875	255	220	239
1876	255	218	239
1877	255	213	236
1878	255	211	233
1879	254	208	230
1880	255	207	229
1881	255	208	231
1882	255	210	236
1883	255	207	235
1884	255	205	232
1885	252	191	225
1886	246	178	220
1887	247	176	221
1888	243	170	216
1889	249	176	221
1890	255	185	229
1891	252	176	225
1892	251	171	223
1893	244	158	218
1894	239	147	216
1895	242	148	219
1896	242	147	217
1897	246	150	220
1898	244	147	217
1899	244	147	217
1900	236	140	208
1901	252	167	223
1902	255	191	233
1903	255	184	223
1904	247	177	212
1905	249	184	214
1906	248	188	215
1907	251	201	221
1908	0	0	0
1909	0	0	0
1910	0	0	0
1911	0	0	0
1912	0	0	0
1913	0	0	0
1914	0	0	0
1915	0	0	0
1916	0	0	0
1917	0	0	0
1918	0	0	0
1919	0	0	0
1920	0	0	0
1921	0	0	0
1922	0	0	0
1923	0	0	0
1924	0	0	0
1925	0	0	0
1926	0	0	0
1927	249	222	236
1928	248	216	236
1929	252	217	237
1930	254	219	236
1931	251	216	234
1932	253	216	235
1933	255	219	238
1934	252	208	232
1935	248	203	228
1936	255	212	234
1937	255	210	232
1938	254	209	229
1939	255	210	230
1940	255	209	234
1941	255	206	233
1942	255	205	232
1943	251	192	224
1944	251	188	225
1945	252	185	225
1946	251	183	223
1947	255	189	229
1948	255	193	233
1949	255	184	229
1950	253	178	229
1951	244	164	222
1952	246	165	227
1953	247	166	230
1954	246	162	228
1955	252	166	231
1956	246	155	223
1957	249	157	224
1958	252	163	225
1959	255	190	239
1960	255	178	224
1961	248	172	215
1962	254	183	220
1963	255	191	224
1964	250	188	219
1965	0	0	0
1966	0	0	0
1967	0	0	0
1968	0	0	0
1969	0	0	0
1970	0	0	0
1971	0	0	0
1972	0	0	0
1973	0	0	0
1974	0	0	0
1975	0	0	0
1976	0	0	0
1977	0	0	0
1978	0	0	0
1979	0	0	0
1980	0	0	0
1981	0	0	0
1982	0	0	0
1983	0	0	0
1984	246	224	236
1985	247	219	236
1986	246	214	235
1987	253	219	239
1988	254	220	238
1989	251	216	234
1990	252	216	234
1991	251	209	231
1992	245	199	225
1993	251	207	231
1994	255	217	237
1995	255	215	234
1996	255	214	232
1997	255	212	232
1998	255	211	233
1999	255	208	233
2000	255	208	234
2001	255	201	230
2002	254	195	227
2003	255	195	229
2004	255	193	229
2005	255	197	232
2006	255	199	235
2007	255	191	231
2008	255	185	232
2009	255	185	235
2010	255	185	237
2011	250	178	234
2012	248	174	233
2013	248	168	230
2014	242	157	221
2015	255	170	230
2016	255	177	230
2017	253	171	223
2018	243	161	213
2019	253	176	221
2020	255	188	226
2021	255	190	224
2022	251	187	219
2023	255	202	226
2024	255	216	230
2025	255	221	229
2026	0	0	0
2027	0	0	0
2028	0	0	0
2029	0	0	0
2030	0	0	0
2031	0	0	0
2032	0	0	0
2033	0	0	0
2034	0	0	0
2035	0	0	0
2036	0	0	0
2037	0	0	0
2038	0	0	0
2039	0	0	0
2040	0	0	0
2041	0	0	0
2042	248	229	239
2043	252	226	240
2044	249	216	236
2045	252	219	239
2046	254	221	238
2047	254	219	236
2048	251	213	233
2049	247	204	228
2050	252	209	232
2051	255	218	239
2052	255	214	235
2053	255	211	232
2054	255	212	232
2055	255	210	231
2056	254	207	230
2057	253	204	229
2058	255	207	233
2059	253	199	228
2060	254	198	227
2061	255	198	228
2062	255	194	228
2063	255	198	231
2064	255	192	228
2065	252	183	224
2066	253	183	229
2067	255	184	232
2068	253	184	233
2069	245	176	228
2070	250	182	235
2071	250	176	232
2072	245	165	224
2073	255	180	233
2074	255	177	228
2075	250	172	222
2076	246	166	219
2077	255	184	230
2078	254	178	221
2079	252	179	218
2080	250	182	218
2081	255	199	226
2082	255	206	226
2083	255	211	224
2084	248	207	214
2085	0	0	0
2086	0	0	0
2087	0	0	0
2088	0	0	0
2089	0	0	0
2090	0	0	0
2091	0	0	0
2092	0	0	0
2093	0	0	0
2094	0	0	0
2095	0	0	0
2096	0	0	0
2097	0	0	0
2098	0	0	0
2099	0	0	0
2100	252	234	241
2101	253	227	239
2102	249	216	233
2103	251	219	235
2104	254	221	237
2105	251	215	234
2106	249	209	232
2107	255	214	237
2108	255	218	240
2109	255	215	237
2110	252	209	231
2111	251	208	229
2112	253	210	230
2113	252	206	228
2114	251	203	227
2115	253	205	230
2116	255	207	233
2117	255	204	230
2118	255	203	229
2119	254	199	227
2120	253	195	226
2121	251	189	224
2122	249	184	222
2123	250	184	224
2124	252	184	227
2125	255	186	231
2126	254	186	231
2127	252	187	232
2128	255	194	237
2129	253	185	233
2130	249	175	228
2131	255	179	232
2132	252	176	227
2133	247	172	223
2134	245	168	222
2135	249	170	222
2136	243	164	212
2137	247	171	215
2138	247	176	217
2139	253	188	222
2140	254	195	221
2141	250	195	217
2142	242	192	212
2143	0	0	0
2144	0	0	0
2145	0	0	0
2146	0	0	0
2147	0	0	0
2148	0	0	0
2149	0	0	0
2150	0	0	0
2151	0	0	0
2152	0	0	0
2153	0	0	0
2154	0	0	0
2155	0	0	0
2156	0	0	0
2157	0	0	0
2158	252	230	239
2159	250	222	235
2160	248	216	232
2161	250	218	234
2162	253	221	237
2163	251	215	235
2164	251	212	234
2165	255	218	239
2166	255	216	237
2167	252	211	232
2168	249	208	230
2169	247	207	228
2170	255	218	235
2171	255	215	234
2172	252	206	229
2173	255	208	231
2174	255	210	233
2175	255	206	231
2176	255	206	229
2177	254	201	227
2178	255	204	230
2179	255	198	228
2180	254	194	228
2181	255	194	229
2182	255	193	230
2183	255	195	233
2184	253	187	229
2185	253	190	231
2186	255	193	233
2187	251	183	228
2188	253	182	230
2189	255	186	235
2190	250	175	226
2191	243	170	222
2192	245	173	227
2193	250	176	228
2194	245	169	218
2195	251	178	222
2196	251	180	223
2197	255	192	229
2198	252	188	220
2199	248	188	216
2200	249	197	219
2201	0	0	0
2202	0	0	0
2203	0	0	0
2204	0	0	0
2205	0	0	0
2206	0	0	0
2207	0	0	0
2208	0	0	0
2209	0	0	0
2210	0	0	0
2211	0	0	0
2212	0	0	0
2213	0	0	0
2214	0	0	0
2215	0	0	0
2216	0	0	0
2217	249	221	236
2218	247	215	233
2219	247	216	234
2220	249	218	237
2221	250	216	235
2222	250	213	233
2223	253	214	233
2224	252	211	230
2225	253	212	231
2226	251	211	232
2227	255	219	237
2228	255	229	244
2229	255	219	237
2230	255	210	231
2231	255	212	233
2232	255	214	235
2233	255	213	235
2234	255	212	234
2235	255	214	236
2236	255	216	237
2237	255	210	234
2238	255	206	232
2239	255	204	231
2240	255	203	231
2241	255	197	229
2242	254	189	227
2243	255	193	232
2244	255	196	235
2245	255	193	234
2246	255	191	234
2247	255	183	230
2248	247	173	223
2249	244	174	225
2250	247	178	230
2251	248	177	229
2252	243	170	220
2253	247	175	222
2254	248	177	223
2255	248	178	221
2256	243	175	214
2257	249	188	220
2258	250	197	221
2259	0	0	0
2260	0	0	0
2261	0	0	0
2262	0	0	0
2263	0	0	0
2264	0	0	0
2265	0	0	0
2266	0	0	0
2267	0	0	0
2268	0	0	0
2269	0	0	0
2270	0	0	0
2271	0	0	0
2272	0	0	0
2273	0	0	0
2274	0	0	0
2275	0	0	0
2276	248	220	236
2277	247	220	236
2278	250	223	238
2279	250	220	236
2280	251	218	234
2281	254	219	235
2282	252	213	230
2283	255	216	233
2284	251	208	230
2285	255	217	236
2286	255	222	239
2287	254	211	231
2288	253	208	229
2289	255	211	231
2290	255	212	233
2291	255	210	232
2292	255	205	230
2293	255	207	231
2294	255	201	227
2295	251	195	223
2296	255	202	228
2297	255	200	227
2298	255	198	225
2299	253	192	223
2300	255	194	229
2301	255	198	234
2302	255	191	230
2303	255	188	229
2304	253	183	226
2305	247	174	222
2306	248	177	226
2307	248	180	230
2308	246	178	231
2309	244	175	229
2310	242	172	224
2311	246	178	226
2312	248	181	227
2313	248	182	226
2314	247	183	222
2315	255	197	229
2316	247	192	220
2317	0	0	0
2318	0	0	0
2319	0	0	0
2320	0	0	0
2321	0	0	0
2322	0	0	0
2323	0	0	0
2324	0	0	0
2325	0	0	0
2326	0	0	0
2327	0	0	0
2328	0	0	0
2329	0	0	0
2330	0	0	0
2331	0	0	0
2332	0	0	0
2333	0	0	0
2334	0	0	0
2335	252	228	239
2336	255	230	239
2337	253	227	237
2338	255	225	238
2339	254	220	235
2340	253	215	233
2341	252	211	231
2342	247	202	226
2343	252	209	230
2344	255	214	233
2345	254	210	230
2346	253	208	229
2347	255	209	231
2348	255	210	231
2349	254	204	227
2350	252	199	225
2351	250	195	224
2352	247	190	222
2353	252	196	227
2354	255	202	231
2355	255	199	228
2356	255	197	227
2357	255	197	228
2358	255	199	232
2359	255	192	229
2360	252	185	223
2361	251	181	222
2362	248	176	221
2363	251	180	226
2364	251	183	230
2365	247	179	230
2366	244	177	230
2367	243	176	230
2368	241	174	227
2369	245	180	230
2370	246	183	229
2371	248	186	229
2372	248	187	227
2373	248	189	226
2374	243	185	219
2375	253	202	227
2376	0	0	0
2377	0	0	0
2378	0	0	0
2379	0	0	0
2380	0	0	0
2381	0	0	0
2382	0	0	0
2383	0	0	0
2384	0	0	0
2385	0	0	0
2386	0	0	0
2387	0	0	0
2388	0	0	0
2389	0	0	0
2390	0	0	0
2391	0	0	0
2392	0	0	0
2393	255	236	244
2394	251	221	233
2395	248	217	229
2396	255	226	236
2397	255	222	235
2398	254	217	235
2399	251	212	232
2400	250	209	230
2401	255	216	235
2402	255	216	234
2403	255	212	231
2404	255	209	230
2405	255	210	231
2406	254	206	228
2407	252	201	225
2408	255	204	229
2409	253	200	227
2410	250	195	226
2411	254	200	230
2412	255	206	234
2413	255	203	232
2414	252	195	227
2415	253	194	228
2416	255	199	232
2417	255	192	229
2418	252	185	224
2419	249	181	222
2420	253	184	227
2421	255	190	235
2422	249	178	229
2423	242	173	227
2424	248	185	235
2425	248	185	236
2426	243	178	231
2427	247	184	234
2428	246	184	230
2429	247	187	229
2430	249	190	230
2431	251	193	230
2432	247	188	225
2433	255	205	233
2434	251	202	224
2435	0	0	0
2436	0	0	0
2437	0	0	0
2438	0	0	0
2439	0	0	0
2440	0	0	0
2441	0	0	0
2442	0	0	0
2443	0	0	0
2444	0	0	0
2445	0	0	0
2446	0	0	0
2447	0	0	0
2448	0	0	0
2449	0	0	0
2450	0	0	0
2451	0	0	0
2452	244	211	227
2453	251	220	232
2454	255	229	236
2455	255	224	234
2456	255	221	235
2457	254	218	235
2458	253	215	234
2459	255	215	234
2460	255	214	233
2461	255	212	231
2462	254	209	229
2463	252	204	226
2464	250	201	225
2465	253	203	227
2466	255	205	229
2467	253	201	226
2468	250	196	223
2469	254	202	228
2470	255	208	232
2471	253	199	228
2472	249	191	226
2473	251	194	229
2474	254	197	233
2475	250	189	227
2476	245	182	222
2477	246	183	224
2478	249	186	229
2479	245	178	227
2480	237	168	223
2481	242	179	231
2482	248	189	235
2483	245	185	232
2484	242	179	229
2485	245	184	232
2486	244	184	229
2487	247	188	230
2488	249	191	231
2489	250	190	230
2490	247	186	226
2491	251	193	229
2492	0	0	0
2493	0	0	0
2494	0	0	0
2495	0	0	0
2496	0	0	0
2497	0	0	0
2498	0	0	0
2499	0	0	0
2500	0	0	0
2501	0	0	0
2502	0	0	0
2503	0	0	0
2504	0	0	0
2505	0	0	0
2506	0	0	0
2507	0	0	0
2508	0	0	0
2509	0	0	0
2510	0	0	0
2511	255	232	242
2512	255	224	234
2513	254	219	230
2514	251	212	229
2515	248	209	228
2516	255	221	237
2517	255	220	236
2518	253	212	232
2519	253	210	231
2520	254	210	230
2521	251	205	227
2522	255	209	231
2523	255	211	233
2524	255	206	229
2525	253	202	226
2526	254	203	228
2527	255	208	232
2528	255	206	230
2529	250	197	226
2530	253	199	232
2531	255	202	236
2532	254	201	235
2533	245	190	227
2534	248	195	230
2535	248	196	232
2536	243	189	230
2537	237	180	227
2538	241	186	234
2539	250	198	243
2540	246	193	235
2541	246	190	232
2542	244	184	231
2543	247	189	235
2544	245	187	230
2545	249	191	232
2546	251	191	232
2547	252	192	232
2548	253	192	232
2549	255	199	235
2550	248	190	224
2551	0	0	0
2552	0	0	0
2553	0	0	0
2554	0	0	0
2555	0	0	0
2556	0	0	0
2557	0	0	0
2558	0	0	0
2559	0	0	0
2560	0	0	0
2561	0	0	0
2562	0	0	0
2563	0	0	0
2564	0	0	0
2565	0	0	0
2566	0	0	0
2567	0	0	0
2568	0	0	0
2569	0	0	0
2570	0	0	0
2571	0	0	0
2572	244	203	224
2573	253	216	233
2574	255	227	239
2575	255	218	233
2576	251	210	231
2577	254	211	233
2578	255	211	233
2579	255	213	234
2580	255	217	237
2581	255	212	233
2582	253	206	229
2583	253	206	230
2584	255	208	233
2585	254	206	232
2586	252	202	228
2587	254	204	230
2588	255	207	236
2589	255	206	237
2590	254	204	236
2591	254	207	237
2592	255	211	239
2593	249	202	235
2594	243	195	234
2595	246	200	240
2596	249	205	244
2597	246	200	239
2598	244	195	234
2599	245	192	233
2600	242	187	233
2601	241	186	232
2602	239	184	227
2603	244	186	227
2604	247	187	228
2605	252	192	232
2606	254	193	232
2607	253	192	230
2608	246	186	223
2609	253	199	229
2610	0	0	0
2611	0	0	0
2612	0	0	0
2613	0	0	0
2614	0	0	0
2615	0	0	0
2616	0	0	0
2617	0	0	0
2618	0	0	0
2619	0	0	0
2620	0	0	0
2621	0	0	0
2622	0	0	0
2623	0	0	0
2624	0	0	0
2625	0	0	0
2626	0	0	0
2627	0	0	0
2628	0	0	0
2629	0	0	0
2630	251	216	233
2631	255	229	242
2632	255	218	233
2633	249	208	226
2634	253	211	232
2635	254	212	234
2636	255	215	236
2637	255	218	237
2638	255	213	234
2639	253	208	230
2640	251	206	229
2641	248	205	229
2642	251	210	234
2643	251	209	234
2644	249	203	229
2645	254	206	232
2646	254	207	235
2647	251	204	234
2648	251	204	234
2649	254	208	237
2650	254	209	237
2651	248	201	233
2652	247	200	236
2653	249	205	241
2654	248	205	240
2655	242	199	235
2656	245	201	236
2657	247	198	237
2658	241	190	234
2659	235	188	231
2660	239	193	232
2661	248	197	235
2662	248	192	233
2663	254	197	236
2664	249	188	230
2665	251	189	230
2666	250	189	228
2667	255	203	235
2668	250	198	227
2669	0	0	0
2670	0	0	0
2671	0	0	0
2672	0	0	0
2673	0	0	0
2674	0	0	0
2675	0	0	0
2676	0	0	0
2677	0	0	0
2678	0	0	0
2679	0	0	0
2680	0	0	0
2681	0	0	0
2682	0	0	0
2683	0	0	0
2684	0	0	0
2685	0	0	0
2686	0	0	0
2687	0	0	0
2688	0	0	0
2689	248	215	230
2690	243	204	224
2691	249	209	229
2692	253	213	232
2693	255	216	235
2694	255	219	236
2695	254	212	232
2696	251	208	229
2697	254	210	231
2698	251	208	231
2699	247	209	231
2700	250	214	236
2701	251	211	235
2702	250	206	232
2703	252	207	234
2704	252	206	235
2705	247	204	233
2706	0	0	0
2707	247	204	233
2708	249	206	234
2709	249	205	234
2710	248	204	235
2711	247	205	236
2712	245	205	237
2713	242	203	235
2714	244	206	238
2715	242	199	234
2716	237	191	231
2717	238	196	234
2718	243	202	238
2719	246	198	236
2720	246	193	235
2721	244	187	232
2722	241	179	228
2723	248	186	232
2724	247	185	227
2725	245	186	224
2726	0	0	0
2727	0	0	0
2728	0	0	0
2729	0	0	0
2730	0	0	0
2731	0	0	0
2732	0	0	0
2733	0	0	0
2734	0	0	0
2735	0	0	0
2736	0	0	0
2737	0	0	0
2738	0	0	0
2739	0	0	0
2740	0	0	0
2741	0	0	0
2742	0	0	0
2743	0	0	0
2744	0	0	0
2745	0	0	0
2746	0	0	0
2747	0	0	0
2748	248	217	232
2749	255	224	239
2750	254	216	234
2751	255	219	235
2752	0	0	0
2753	248	209	228
2754	251	213	232
2755	255	216	236
2756	249	208	231
2757	246	209	231
2758	254	220	239
2759	255	218	240
2760	251	207	233
2761	248	205	233
2762	250	210	236
2763	0	0	0
2764	0	0	0
2765	0	0	0
2766	246	211	235
2767	0	0	0
2768	247	209	236
2769	248	211	238
2770	243	206	235
2771	238	204	233
2772	242	210	237
2773	238	202	232
2774	243	206	236
2775	252	215	245
2776	246	205	238
2777	0	0	0
2778	0	0	0
2779	0	0	0
2780	253	198	241
2781	255	206	246
2782	244	185	228
2783	0	0	0
2784	0	0	0
2785	0	0	0
2786	0	0	0
2787	0	0	0
2788	0	0	0
2789	0	0	0
2790	0	0	0
2791	0	0	0
2792	0	0	0
2793	0	0	0
2794	0	0	0
2795	0	0	0
2796	0	0	0
2797	0	0	0
2798	0	0	0
2799	0	0	0
2800	0	0	0
2801	0	0	0
2802	0	0	0
2803	0	0	0
2804	0	0	0
2805	0	0	0
2806	255	231	239
2807	253	223	234
2808	250	215	230
2809	0	0	0
2810	0	0	0
2811	248	214	230
2812	252	218	236
2813	253	215	236
2814	245	206	230
2815	246	213	233
2816	253	223	239
2817	250	212	233
2818	243	201	228
2819	246	207	233
2820	0	0	0
2821	0	0	0
2822	0	0	0
2823	0	0	0
2824	0	0	0
2825	0	0	0
2826	0	0	0
2827	245	212	237
2828	240	207	234
2829	241	211	237
2830	244	217	238
2831	245	218	238
2832	250	221	241
2833	247	213	236
2834	0	0	0
2835	0	0	0
2836	0	0	0
2837	0	0	0
2838	0	0	0
2839	246	195	232
2840	0	0	0
2841	0	0	0
2842	0	0	0
2843	0	0	0
2844	0	0	0
2845	0	0	0
2846	0	0	0
2847	0	0	0
2848	0	0	0
2849	0	0	0
2850	0	0	0
2851	0	0	0
2852	0	0	0
2853	0	0	0
2854	0	0	0
2855	0	0	0
2856	0	0	0
2857	0	0	0
2858	0	0	0
2859	0	0	0
2860	0	0	0
2861	0	0	0
2862	0	0	0
2863	0	0	0
2864	0	0	0
2865	237	207	222
2866	0	0	0
2867	0	0	0
2868	0	0	0
2869	0	0	0
2870	254	224	239
2871	252	219	238
2872	245	211	232
2873	246	217	235
2874	0	0	0
2875	0	0	0
2876	0	0	0
2877	0	0	0
2878	0	0	0
2879	0	0	0
2880	0	0	0
2881	0	0	0
2882	0	0	0
2883	0	0	0
2884	0	0	0
2885	0	0	0
2886	0	0	0
2887	249	225	244
2888	245	218	238
2889	245	219	237
2890	0	0	0
2891	0	0	0
2892	0	0	0
2893	0	0	0
2894	0	0	0
2895	0	0	0
2896	0	0	0
2897	0	0	0
2898	0	0	0
2899	0	0	0
2900	0	0	0
2901	0	0	0
2902	0	0	0
2903	0	0	0
2904	0	0	0
2905	0	0	0
2906	0	0	0
2907	0	0	0
2908	0	0	0
2909	0	0	0
2910	0	0	0
2911	0	0	0
2912	0	0	0
2913	0	0	0
2914	0	0	0
2915	0	0	0
2916	0	0	0
2917	0	0	0
2918	0	0	0
2919	0	0	0
2920	0	0	0
2921	0	0	0
2922	0	0	0
2923	0	0	0
2924	0	0	0
2925	0	0	0
2926	0	0	0
2927	0	0	0
2928	0	0	0
2929	249	221	236
2930	242	213	231
2931	0	0	0
2932	0	0	0
2933	0	0	0
2934	0	0	0
2935	0	0	0
2936	0	0	0
2937	0	0	0
2938	0	0	0
2939	0	0	0
2940	0	0	0
2941	0	0	0
2942	0	0	0
2943	0	0	0
2944	0	0	0
2945	0	0	0
2946	0	0	0
2947	0	0	0
2948	0	0	0
2949	0	0	0
2950	0	0	0
2951	0	0	0
2952	0	0	0
2953	0	0	0
2954	0	0	0
2955	0	0	0
2956	0	0	0
2957	0	0	0
2958	0	0	0
