 	R	G	B
1	0	0	0
2	0	0	0
3	0	0	0
4	0	0	0
5	0	0	0
6	0	0	0
7	0	0	0
8	0	0	0
9	0	0	0
10	252	219	228
11	0	0	0
12	0	0	0
13	0	0	0
14	0	0	0
15	0	0	0
16	0	0	0
17	0	0	0
18	0	0	0
19	0	0	0
20	0	0	0
21	0	0	0
22	0	0	0
23	0	0	0
24	0	0	0
25	0	0	0
26	0	0	0
27	0	0	0
28	0	0	0
29	0	0	0
30	0	0	0
31	0	0	0
32	0	0	0
33	0	0	0
34	0	0	0
35	0	0	0
36	0	0	0
37	0	0	0
38	253	218	228
39	254	219	228
40	251	215	227
41	0	0	0
42	0	0	0
43	0	0	0
44	0	0	0
45	0	0	0
46	0	0	0
47	0	0	0
48	0	0	0
49	0	0	0
50	0	0	0
51	0	0	0
52	0	0	0
53	0	0	0
54	0	0	0
55	0	0	0
56	0	0	0
57	0	0	0
58	0	0	0
59	0	0	0
60	0	0	0
61	0	0	0
62	255	220	232
63	255	220	231
64	254	217	229
65	252	214	228
66	255	218	231
67	255	218	228
68	253	214	225
69	250	210	224
70	253	216	228
71	0	0	0
72	0	0	0
73	0	0	0
74	0	0	0
75	0	0	0
76	0	0	0
77	0	0	0
78	0	0	0
79	0	0	0
80	0	0	0
81	0	0	0
82	0	0	0
83	0	0	0
84	0	0	0
85	0	0	0
86	0	0	0
87	0	0	0
88	0	0	0
89	0	0	0
90	252	218	232
91	255	223	235
92	253	214	228
93	253	213	227
94	251	209	225
95	255	213	228
96	251	208	223
97	246	203	219
98	247	206	221
99	249	211	225
100	0	0	0
101	0	0	0
102	0	0	0
103	0	0	0
104	0	0	0
105	0	0	0
106	0	0	0
107	0	0	0
108	0	0	0
109	0	0	0
110	0	0	0
111	0	0	0
112	0	0	0
113	0	0	0
114	0	0	0
115	0	0	0
116	0	0	0
117	0	0	0
118	0	0	0
119	255	222	234
120	254	217	230
121	250	209	224
122	251	207	224
123	249	203	222
124	247	201	221
125	244	197	217
126	248	202	221
127	248	205	223
128	254	215	229
129	255	221	230
130	0	0	0
131	0	0	0
132	0	0	0
133	0	0	0
134	0	0	0
135	0	0	0
136	0	0	0
137	0	0	0
138	0	0	0
139	0	0	0
140	0	0	0
141	0	0	0
142	0	0	0
143	0	0	0
144	0	0	0
145	0	0	0
146	0	0	0
147	0	0	0
148	254	220	232
149	252	215	228
150	246	203	221
151	248	203	222
152	249	204	223
153	247	201	220
154	251	206	224
155	255	214	231
156	251	203	224
157	255	212	230
158	250	211	225
159	0	0	0
160	0	0	0
161	0	0	0
162	0	0	0
163	0	0	0
164	0	0	0
165	0	0	0
166	0	0	0
167	0	0	0
168	0	0	0
169	0	0	0
170	0	0	0
171	0	0	0
172	0	0	0
173	0	0	0
174	0	0	0
175	0	0	0
176	251	223	233
177	247	212	223
178	245	205	219
179	241	196	217
180	251	205	226
181	253	206	224
182	255	213	228
183	255	218	231
184	255	211	228
185	252	200	223
186	253	204	227
187	248	203	223
188	246	210	225
189	249	219	230
190	249	223	231
191	0	0	0
192	0	0	0
193	0	0	0
194	0	0	0
195	0	0	0
196	0	0	0
197	0	0	0
198	0	0	0
199	0	0	0
200	0	0	0
201	0	0	0
202	0	0	0
203	0	0	0
204	253	240	240
205	254	232	236
206	250	220	227
207	251	216	226
208	250	207	224
209	255	217	234
210	252	198	220
211	255	206	225
212	255	201	221
213	251	193	217
214	251	193	221
215	251	197	225
216	247	198	223
217	248	207	226
218	247	211	226
219	244	213	225
220	243	215	225
221	0	0	0
222	0	0	0
223	0	0	0
224	0	0	0
225	0	0	0
226	0	0	0
227	0	0	0
228	0	0	0
229	0	0	0
230	0	0	0
231	0	0	0
232	0	0	0
233	255	252	246
234	255	239	238
235	255	229	232
236	255	224	231
237	255	215	227
238	255	207	225
239	249	190	215
240	252	190	218
241	250	186	215
242	251	188	218
243	250	187	220
244	248	191	223
245	245	193	222
246	247	200	224
247	246	204	223
248	244	208	223
249	243	210	224
250	0	0	0
251	0	0	0
252	0	0	0
253	0	0	0
254	0	0	0
255	0	0	0
256	0	0	0
257	0	0	0
258	0	0	0
259	0	0	0
260	0	0	0
261	0	0	0
262	255	253	246
263	255	241	238
264	253	224	229
265	255	220	229
266	253	205	221
267	253	197	219
268	246	181	213
269	250	183	217
270	253	185	219
271	254	187	222
272	250	185	221
273	247	188	223
274	251	198	228
275	255	206	231
276	247	199	222
277	245	202	222
278	244	206	222
279	0	0	0
280	0	0	0
281	0	0	0
282	0	0	0
283	0	0	0
284	0	0	0
285	0	0	0
286	0	0	0
287	0	0	0
288	0	0	0
289	0	0	0
290	0	0	0
291	255	253	246
292	255	235	235
293	250	218	225
294	250	208	222
295	247	194	217
296	248	186	217
297	242	171	212
298	253	183	223
299	255	185	222
300	255	190	226
301	255	188	226
302	255	198	232
303	255	207	236
304	251	198	226
305	243	190	218
306	244	196	220
307	244	200	219
308	253	216	228
309	0	0	0
310	0	0	0
311	0	0	0
312	0	0	0
313	0	0	0
314	0	0	0
315	0	0	0
316	0	0	0
317	0	0	0
318	0	0	0
319	0	0	0
320	255	253	247
321	255	236	237
322	253	221	229
323	253	211	226
324	250	195	221
325	251	188	221
326	249	177	219
327	255	189	230
328	252	174	218
329	255	178	221
330	249	171	218
331	254	182	225
332	254	190	226
333	239	178	214
334	246	194	222
335	250	202	226
336	247	201	221
337	255	216	229
338	251	212	223
339	0	0	0
340	0	0	0
341	0	0	0
342	0	0	0
343	0	0	0
344	0	0	0
345	0	0	0
346	0	0	0
347	0	0	0
348	0	0	0
349	0	0	0
350	252	233	235
351	250	219	229
352	251	208	226
353	248	192	219
354	253	188	222
355	250	177	218
356	250	171	217
357	242	158	209
358	246	160	212
359	240	153	209
360	252	170	220
361	252	178	222
362	252	189	225
363	255	205	233
364	249	200	225
365	246	198	219
366	246	199	218
367	242	196	216
368	0	0	0
369	0	0	0
370	0	0	0
371	0	0	0
372	0	0	0
373	0	0	0
374	0	0	0
375	0	0	0
376	0	0	0
377	0	0	0
378	0	0	0
379	0	0	0
380	255	232	238
381	255	223	239
382	245	186	217
383	249	183	219
384	249	176	219
385	249	171	219
386	247	164	216
387	253	167	222
388	247	156	216
389	255	174	228
390	250	166	218
391	253	178	222
392	253	191	226
393	236	181	213
394	245	198	221
395	247	200	222
396	244	196	219
397	0	0	0
398	0	0	0
399	0	0	0
400	0	0	0
401	0	0	0
402	0	0	0
403	0	0	0
404	0	0	0
405	0	0	0
406	0	0	0
407	0	0	0
408	0	0	0
409	255	245	246
410	254	214	232
411	239	177	213
412	247	179	220
413	247	173	221
414	248	172	223
415	246	165	219
416	249	163	221
417	244	153	216
418	250	158	221
419	243	152	213
420	252	169	222
421	253	180	225
422	245	187	223
423	252	203	230
424	248	198	224
425	244	193	219
426	252	205	226
427	0	0	0
428	0	0	0
429	0	0	0
430	0	0	0
431	0	0	0
432	0	0	0
433	0	0	0
434	0	0	0
435	0	0	0
436	0	0	0
437	0	0	0
438	255	240	242
439	250	209	229
440	246	187	221
441	255	190	230
442	249	176	226
443	247	174	227
444	236	155	216
445	237	153	218
446	230	139	211
447	237	145	216
448	236	143	213
449	251	163	224
450	253	173	226
451	249	180	224
452	255	201	232
453	247	191	221
454	247	194	222
455	254	206	228
456	248	201	222
457	0	0	0
458	0	0	0
459	0	0	0
460	0	0	0
461	0	0	0
462	0	0	0
463	0	0	0
464	0	0	0
465	0	0	0
466	0	0	0
467	255	237	242
468	254	216	235
469	250	195	225
470	254	189	228
471	247	175	225
472	236	160	220
473	224	143	212
474	223	137	213
475	216	124	206
476	226	133	214
477	227	132	211
478	246	153	223
479	249	162	223
480	250	175	223
481	255	195	230
482	249	190	221
483	248	192	220
484	247	193	220
485	240	188	215
486	0	0	0
487	0	0	0
488	0	0	0
489	0	0	0
490	0	0	0
491	0	0	0
492	0	0	0
493	0	0	0
494	0	0	0
495	0	0	0
496	255	243	247
497	255	219	236
498	250	196	225
499	255	192	229
500	249	177	227
501	234	161	222
502	224	147	219
503	226	144	222
504	221	133	217
505	230	142	224
506	227	134	217
507	248	156	229
508	249	160	225
509	249	172	225
510	255	190	229
511	249	187	220
512	254	197	225
513	252	196	224
514	245	193	219
515	0	0	0
516	0	0	0
517	0	0	0
518	0	0	0
519	0	0	0
520	0	0	0
521	0	0	0
522	0	0	0
523	0	0	0
524	0	0	0
525	255	245	246
526	252	218	232
527	246	195	222
528	251	188	225
529	245	174	223
530	231	160	220
531	221	145	218
532	219	142	221
533	213	131	214
534	217	133	217
535	216	126	211
536	241	149	227
537	246	155	225
538	250	170	228
539	255	188	231
540	255	192	228
541	255	201	231
542	253	197	226
543	246	193	220
544	247	201	223
545	249	208	225
546	251	212	227
547	0	0	0
548	0	0	0
549	0	0	0
550	0	0	0
551	0	0	0
552	0	0	0
553	0	0	0
554	251	241	242
555	246	217	230
556	249	204	228
557	254	197	232
558	245	178	226
559	236	166	225
560	226	154	225
561	216	147	223
562	211	142	220
563	215	144	222
564	211	130	213
565	242	155	231
566	246	157	228
567	255	175	233
568	255	184	231
569	255	186	226
570	254	191	226
571	245	187	219
572	251	198	224
573	255	209	230
574	253	205	226
575	252	209	227
576	247	205	223
577	0	0	0
578	0	0	0
579	0	0	0
580	0	0	0
581	0	0	0
582	0	0	0
583	249	243	245
584	245	224	236
585	247	211	234
586	246	196	231
587	240	178	226
588	239	173	231
589	228	161	229
590	218	156	228
591	210	150	224
592	202	138	217
593	198	124	207
594	225	143	221
595	234	146	217
596	246	162	222
597	252	173	222
598	251	178	221
599	250	183	223
600	252	193	226
601	255	204	230
602	251	199	224
603	246	196	220
604	245	195	219
605	240	192	217
606	0	0	0
607	0	0	0
608	0	0	0
609	0	0	0
610	0	0	0
611	0	0	0
612	249	244	246
613	236	221	233
614	237	211	232
615	235	195	229
616	236	185	231
617	242	183	238
618	230	166	232
619	220	161	231
620	209	153	227
621	192	138	215
622	195	136	215
623	225	157	229
624	239	164	228
625	255	183	236
626	253	175	225
627	254	181	226
628	250	179	223
629	253	189	228
630	249	192	226
631	236	183	215
632	243	197	223
633	247	200	225
634	243	194	222
635	0	0	0
636	0	0	0
637	0	0	0
638	0	0	0
639	0	0	0
640	0	0	0
641	250	247	249
642	235	226	236
643	232	214	233
644	229	200	231
645	229	189	232
646	230	180	234
647	221	163	228
648	221	164	234
649	213	158	232
650	205	156	231
651	208	155	231
652	233	173	243
653	246	180	241
654	249	177	233
655	245	169	224
656	246	171	223
657	243	170	221
658	247	178	226
659	244	182	226
660	243	190	227
661	250	203	234
662	246	198	229
663	242	193	225
664	249	203	231
665	247	205	227
666	251	219	232
667	0	0	0
668	0	0	0
669	0	0	0
670	248	246	247
671	232	223	233
672	233	222	237
673	225	205	232
674	224	198	235
675	220	186	234
676	220	177	235
677	234	185	248
678	226	170	241
679	225	171	244
680	225	168	242
681	243	182	249
682	240	173	237
683	237	168	228
684	239	169	226
685	242	173	227
686	244	174	228
687	251	184	234
688	248	183	231
689	253	194	236
690	254	201	237
691	242	191	227
692	247	199	232
693	255	212	241
694	248	199	228
695	254	214	233
696	253	220	232
697	0	0	0
698	0	0	0
699	0	0	0
700	238	234	240
701	238	232	242
702	228	218	237
703	224	209	237
704	215	196	235
705	214	186	237
706	218	180	239
707	213	164	232
708	217	166	234
709	219	164	231
710	227	165	231
711	225	159	225
712	231	164	228
713	234	167	227
714	237	171	228
715	238	173	228
716	240	174	228
717	239	173	225
718	248	186	231
719	250	193	231
720	246	195	230
721	250	203	235
722	249	197	231
723	240	186	220
724	245	198	226
725	245	204	226
726	0	0	0
727	0	0	0
728	0	0	0
729	0	0	0
730	0	0	0
731	0	0	0
732	228	221	240
733	0	0	0
734	0	0	0
735	0	0	0
736	0	0	0
737	0	0	0
738	218	182	238
739	232	187	243
740	230	173	234
741	240	182	241
742	236	174	234
743	238	177	234
744	235	175	231
745	233	175	228
746	240	185	231
747	253	199	238
748	247	191	230
749	247	196	231
750	247	197	231
751	242	189	225
752	244	194	228
753	252	207	235
754	245	204	229
755	0	0	0
756	0	0	0
757	0	0	0
758	0	0	0
759	0	0	0
760	0	0	0
761	0	0	0
762	0	0	0
763	0	0	0
764	0	0	0
765	0	0	0
766	0	0	0
767	0	0	0
768	220	186	240
769	217	172	230
770	222	172	230
771	220	165	223
772	231	174	231
773	231	175	230
774	238	186	235
775	244	195	236
776	247	193	232
777	243	187	227
778	240	187	225
779	240	188	226
780	246	195	231
781	249	200	234
782	247	202	232
783	0	0	0
784	0	0	0
785	0	0	0
786	0	0	0
787	0	0	0
788	0	0	0
789	0	0	0
790	0	0	0
791	0	0	0
792	0	0	0
793	0	0	0
794	0	0	0
795	0	0	0
796	0	0	0
797	0	0	0
798	224	204	241
799	226	204	242
800	221	185	231
801	244	201	247
802	238	186	237
803	246	198	242
804	243	192	234
805	244	189	230
806	239	183	226
807	235	182	223
808	245	198	232
809	255	207	239
810	249	199	233
811	0	0	0
812	0	0	0
813	0	0	0
814	0	0	0
815	0	0	0
816	0	0	0
817	0	0	0
818	0	0	0
819	0	0	0
820	0	0	0
821	0	0	0
822	0	0	0
823	0	0	0
824	0	0	0
825	0	0	0
826	0	0	0
827	242	241	252
828	227	218	239
829	223	201	235
830	236	200	241
831	231	184	228
832	233	184	228
833	233	181	225
834	236	182	227
835	233	177	224
836	240	191	232
837	250	205	236
838	251	202	233
839	0	0	0
840	0	0	0
841	0	0	0
842	0	0	0
843	0	0	0
844	0	0	0
845	0	0	0
846	0	0	0
847	0	0	0
848	0	0	0
849	0	0	0
850	0	0	0
851	0	0	0
852	0	0	0
853	0	0	0
854	0	0	0
855	0	0	0
856	247	245	247
857	229	220	234
858	228	213	237
859	233	208	239
860	230	195	231
861	238	200	236
862	239	195	235
863	243	196	238
864	241	191	235
865	253	208	244
866	247	200	233
867	0	0	0
868	0	0	0
869	0	0	0
870	0	0	0
871	0	0	0
872	0	0	0
873	0	0	0
874	0	0	0
875	0	0	0
876	0	0	0
877	0	0	0
878	0	0	0
879	0	0	0
880	0	0	0
881	0	0	0
882	0	0	0
883	0	0	0
884	0	0	0
885	0	0	0
886	241	237	242
887	235	227	238
888	233	217	235
889	230	205	234
890	234	204	237
891	234	198	236
892	235	197	236
893	234	192	231
894	0	0	0
895	0	0	0
896	0	0	0
897	0	0	0
898	0	0	0
899	0	0	0
