 	R	G	B
1	0	0	0
2	0	0	0
3	0	0	0
4	0	0	0
5	0	0	0
6	0	0	0
7	247	214	234
8	0	0	0
9	0	0	0
10	0	0	0
11	0	0	0
12	0	0	0
13	0	0	0
14	0	0	0
15	0	0	0
16	0	0	0
17	0	0	0
18	0	0	0
19	0	0	0
20	0	0	0
21	0	0	0
22	0	0	0
23	0	0	0
24	0	0	0
25	0	0	0
26	0	0	0
27	0	0	0
28	0	0	0
29	0	0	0
30	0	0	0
31	0	0	0
32	0	0	0
33	0	0	0
34	0	0	0
35	0	0	0
36	0	0	0
37	0	0	0
38	0	0	0
39	0	0	0
40	0	0	0
41	0	0	0
42	0	0	0
43	0	0	0
44	0	0	0
45	0	0	0
46	0	0	0
47	0	0	0
48	0	0	0
49	0	0	0
50	0	0	0
51	0	0	0
52	0	0	0
53	0	0	0
54	0	0	0
55	0	0	0
56	0	0	0
57	0	0	0
58	255	220	242
59	242	198	228
60	253	216	239
61	251	217	234
62	0	0	0
63	0	0	0
64	0	0	0
65	0	0	0
66	0	0	0
67	0	0	0
68	0	0	0
69	0	0	0
70	0	0	0
71	0	0	0
72	0	0	0
73	0	0	0
74	0	0	0
75	0	0	0
76	0	0	0
77	0	0	0
78	0	0	0
79	0	0	0
80	0	0	0
81	0	0	0
82	0	0	0
83	0	0	0
84	0	0	0
85	0	0	0
86	0	0	0
87	0	0	0
88	0	0	0
89	0	0	0
90	0	0	0
91	0	0	0
92	0	0	0
93	0	0	0
94	0	0	0
95	0	0	0
96	0	0	0
97	0	0	0
98	0	0	0
99	0	0	0
100	0	0	0
101	0	0	0
102	0	0	0
103	0	0	0
104	0	0	0
105	0	0	0
106	0	0	0
107	0	0	0
108	0	0	0
109	0	0	0
110	249	220	238
111	249	210	234
112	237	189	220
113	244	200	227
114	243	202	224
115	247	211	227
116	0	0	0
117	0	0	0
118	0	0	0
119	0	0	0
120	0	0	0
121	0	0	0
122	0	0	0
123	0	0	0
124	0	0	0
125	0	0	0
126	0	0	0
127	0	0	0
128	0	0	0
129	0	0	0
130	0	0	0
131	0	0	0
132	0	0	0
133	0	0	0
134	0	0	0
135	0	0	0
136	0	0	0
137	0	0	0
138	0	0	0
139	0	0	0
140	0	0	0
141	0	0	0
142	0	0	0
143	0	0	0
144	0	0	0
145	0	0	0
146	0	0	0
147	0	0	0
148	0	0	0
149	0	0	0
150	0	0	0
151	0	0	0
152	0	0	0
153	0	0	0
154	0	0	0
155	0	0	0
156	0	0	0
157	0	0	0
158	0	0	0
159	0	0	0
160	0	0	0
161	0	0	0
162	0	0	0
163	251	225	241
164	250	214	237
165	242	198	227
166	252	211	235
167	245	205	227
168	248	213	230
169	0	0	0
170	0	0	0
171	0	0	0
172	0	0	0
173	0	0	0
174	0	0	0
175	0	0	0
176	0	0	0
177	0	0	0
178	0	0	0
179	0	0	0
180	0	0	0
181	0	0	0
182	0	0	0
183	0	0	0
184	0	0	0
185	0	0	0
186	0	0	0
187	0	0	0
188	0	0	0
189	0	0	0
190	0	0	0
191	0	0	0
192	0	0	0
193	0	0	0
194	0	0	0
195	0	0	0
196	0	0	0
197	0	0	0
198	0	0	0
199	0	0	0
200	0	0	0
201	0	0	0
202	0	0	0
203	0	0	0
204	0	0	0
205	0	0	0
206	0	0	0
207	0	0	0
208	0	0	0
209	0	0	0
210	0	0	0
211	0	0	0
212	0	0	0
213	0	0	0
214	0	0	0
215	0	0	0
216	252	229	243
217	251	219	240
218	245	204	231
219	250	208	235
220	245	202	228
221	243	203	226
222	240	200	222
223	252	213	231
224	0	0	0
225	253	227	235
226	0	0	0
227	0	0	0
228	0	0	0
229	0	0	0
230	0	0	0
231	0	0	0
232	0	0	0
233	0	0	0
234	0	0	0
235	0	0	0
236	0	0	0
237	0	0	0
238	0	0	0
239	0	0	0
240	0	0	0
241	0	0	0
242	0	0	0
243	0	0	0
244	0	0	0
245	0	0	0
246	0	0	0
247	0	0	0
248	0	0	0
249	0	0	0
250	0	0	0
251	0	0	0
252	0	0	0
253	0	0	0
254	0	0	0
255	0	0	0
256	0	0	0
257	0	0	0
258	0	0	0
259	0	0	0
260	0	0	0
261	0	0	0
262	0	0	0
263	0	0	0
264	0	0	0
265	0	0	0
266	0	0	0
267	0	0	0
268	0	0	0
269	251	229	241
270	249	218	237
271	248	211	235
272	255	216	240
273	251	207	232
274	253	210	233
275	247	201	227
276	255	213	234
277	246	201	222
278	250	213	228
279	251	221	233
280	0	0	0
281	0	0	0
282	0	0	0
283	0	0	0
284	0	0	0
285	0	0	0
286	0	0	0
287	0	0	0
288	0	0	0
289	0	0	0
290	0	0	0
291	0	0	0
292	0	0	0
293	0	0	0
294	0	0	0
295	0	0	0
296	0	0	0
297	0	0	0
298	0	0	0
299	0	0	0
300	0	0	0
301	0	0	0
302	0	0	0
303	0	0	0
304	0	0	0
305	0	0	0
306	0	0	0
307	0	0	0
308	0	0	0
309	0	0	0
310	0	0	0
311	0	0	0
312	0	0	0
313	0	0	0
314	0	0	0
315	0	0	0
316	0	0	0
317	0	0	0
318	0	0	0
319	0	0	0
320	0	0	0
321	0	0	0
322	0	0	0
323	248	222	236
324	248	215	233
325	253	213	234
326	251	206	229
327	251	203	228
328	246	195	223
329	245	193	222
330	236	182	212
331	246	198	221
332	247	205	224
333	252	222	233
334	255	241	244
335	255	241	242
336	0	0	0
337	0	0	0
338	0	0	0
339	0	0	0
340	0	0	0
341	0	0	0
342	0	0	0
343	0	0	0
344	0	0	0
345	0	0	0
346	0	0	0
347	0	0	0
348	0	0	0
349	0	0	0
350	0	0	0
351	0	0	0
352	0	0	0
353	0	0	0
354	0	0	0
355	0	0	0
356	0	0	0
357	0	0	0
358	0	0	0
359	0	0	0
360	0	0	0
361	0	0	0
362	0	0	0
363	0	0	0
364	0	0	0
365	0	0	0
366	0	0	0
367	0	0	0
368	0	0	0
369	0	0	0
370	0	0	0
371	0	0	0
372	0	0	0
373	0	0	0
374	0	0	0
375	0	0	0
376	0	0	0
377	249	220	235
378	255	221	238
379	251	205	227
380	253	203	227
381	251	198	226
382	250	196	226
383	245	189	222
384	255	207	233
385	246	195	222
386	253	213	230
387	255	220	231
388	253	219	227
389	255	225	229
390	0	0	0
391	0	0	0
392	0	0	0
393	0	0	0
394	0	0	0
395	0	0	0
396	0	0	0
397	0	0	0
398	0	0	0
399	0	0	0
400	0	0	0
401	0	0	0
402	0	0	0
403	0	0	0
404	0	0	0
405	0	0	0
406	0	0	0
407	0	0	0
408	0	0	0
409	0	0	0
410	0	0	0
411	0	0	0
412	0	0	0
413	0	0	0
414	0	0	0
415	0	0	0
416	0	0	0
417	0	0	0
418	0	0	0
419	0	0	0
420	0	0	0
421	0	0	0
422	0	0	0
423	0	0	0
424	0	0	0
425	0	0	0
426	0	0	0
427	0	0	0
428	0	0	0
429	250	229	239
430	255	230	242
431	255	218	235
432	249	202	225
433	253	201	226
434	251	197	225
435	251	195	226
436	247	190	225
437	248	189	225
438	237	178	215
439	243	190	220
440	245	197	220
441	249	205	221
442	251	211	222
443	255	223	228
444	255	238	239
445	255	240	240
446	0	0	0
447	0	0	0
448	0	0	0
449	0	0	0
450	0	0	0
451	0	0	0
452	0	0	0
453	0	0	0
454	0	0	0
455	0	0	0
456	0	0	0
457	0	0	0
458	0	0	0
459	0	0	0
460	0	0	0
461	0	0	0
462	0	0	0
463	0	0	0
464	0	0	0
465	0	0	0
466	0	0	0
467	0	0	0
468	0	0	0
469	0	0	0
470	0	0	0
471	0	0	0
472	0	0	0
473	0	0	0
474	0	0	0
475	0	0	0
476	0	0	0
477	0	0	0
478	0	0	0
479	0	0	0
480	0	0	0
481	254	236	244
482	255	235	244
483	255	225	240
484	252	211	231
485	252	205	226
486	254	205	227
487	251	196	224
488	253	196	227
489	253	194	229
490	251	193	229
491	244	185	223
492	252	198	230
493	248	195	223
494	252	203	224
495	247	199	218
496	254	212	225
497	255	219	229
498	255	219	228
499	255	224	230
500	0	0	0
501	0	0	0
502	0	0	0
503	0	0	0
504	0	0	0
505	0	0	0
506	0	0	0
507	0	0	0
508	0	0	0
509	0	0	0
510	0	0	0
511	0	0	0
512	0	0	0
513	0	0	0
514	0	0	0
515	0	0	0
516	0	0	0
517	0	0	0
518	0	0	0
519	0	0	0
520	0	0	0
521	0	0	0
522	0	0	0
523	0	0	0
524	0	0	0
525	0	0	0
526	0	0	0
527	0	0	0
528	0	0	0
529	0	0	0
530	0	0	0
531	0	0	0
532	0	0	0
533	0	0	0
534	255	240	245
535	253	227	239
536	251	218	235
537	251	212	231
538	249	205	222
539	248	199	219
540	247	192	220
541	254	196	227
542	253	194	226
543	252	191	227
544	247	186	225
545	249	190	227
546	246	187	220
547	248	190	219
548	244	187	214
549	249	196	220
550	252	203	223
551	252	207	224
552	253	211	223
553	255	224	230
554	255	238	241
555	255	238	240
556	0	0	0
557	0	0	0
558	0	0	0
559	0	0	0
560	0	0	0
561	0	0	0
562	0	0	0
563	0	0	0
564	0	0	0
565	0	0	0
566	0	0	0
567	0	0	0
568	0	0	0
569	0	0	0
570	0	0	0
571	0	0	0
572	0	0	0
573	0	0	0
574	0	0	0
575	0	0	0
576	0	0	0
577	0	0	0
578	0	0	0
579	0	0	0
580	0	0	0
581	0	0	0
582	0	0	0
583	0	0	0
584	0	0	0
585	0	0	0
586	0	0	0
587	255	240	245
588	252	227	237
589	252	222	236
590	249	215	231
591	0	0	0
592	252	207	224
593	253	201	226
594	255	205	233
595	251	188	223
596	251	188	224
597	253	188	228
598	255	194	232
599	252	186	225
600	255	190	225
601	247	181	217
602	252	190	222
603	252	192	223
604	253	198	224
605	253	201	221
606	255	213	227
607	255	213	227
608	254	213	226
609	252	215	226
610	0	0	0
611	0	0	0
612	0	0	0
613	0	0	0
614	0	0	0
615	0	0	0
616	0	0	0
617	0	0	0
618	0	0	0
619	0	0	0
620	0	0	0
621	0	0	0
622	0	0	0
623	0	0	0
624	0	0	0
625	0	0	0
626	0	0	0
627	0	0	0
628	0	0	0
629	0	0	0
630	0	0	0
631	0	0	0
632	0	0	0
633	0	0	0
634	0	0	0
635	0	0	0
636	0	0	0
637	0	0	0
638	0	0	0
639	0	0	0
640	255	242	247
641	255	233	242
642	255	228	238
643	0	0	0
644	0	0	0
645	255	217	234
646	255	210	233
647	255	200	230
648	249	184	222
649	254	189	228
650	255	189	230
651	255	186	229
652	252	180	225
653	249	175	221
654	242	167	214
655	245	173	217
656	244	175	216
657	247	182	218
658	248	186	217
659	247	187	216
660	245	187	214
661	246	191	216
662	245	194	216
663	253	208	222
664	255	218	223
665	255	224	225
666	255	235	236
667	255	234	236
668	255	232	233
669	255	236	236
670	255	242	240
671	255	243	240
672	255	245	241
673	255	242	239
674	255	241	238
675	255	240	238
676	255	240	239
677	255	236	238
678	255	231	234
679	255	228	231
680	255	225	229
681	255	223	227
682	0	0	0
683	0	0	0
684	0	0	0
685	252	216	231
686	253	219	233
687	251	219	234
688	252	220	238
689	0	0	0
690	0	0	0
691	0	0	0
692	0	0	0
693	0	0	0
694	255	234	241
695	0	0	0
696	0	0	0
697	255	216	231
698	255	210	230
699	254	200	227
700	251	189	224
701	251	185	225
702	255	190	232
703	253	180	226
704	252	178	225
705	251	175	224
706	248	171	221
707	251	175	223
708	255	182	227
709	251	179	223
710	254	185	226
711	254	188	225
712	254	190	224
713	249	185	219
714	251	190	221
715	252	195	222
716	255	208	228
717	251	200	217
718	253	207	219
719	255	212	225
720	253	210	223
721	255	216	226
722	255	220	228
723	252	214	223
724	251	214	222
725	255	228	232
726	255	225	230
727	255	220	226
728	254	219	225
729	255	223	229
730	255	219	227
731	253	214	224
732	252	210	222
733	254	213	224
734	253	211	223
735	252	210	222
736	0	0	0
737	255	218	233
738	255	222	238
739	250	208	228
740	247	207	228
741	249	213	234
742	243	207	231
743	0	0	0
744	0	0	0
745	0	0	0
746	0	0	0
747	0	0	0
748	0	0	0
749	0	0	0
750	253	209	225
751	250	199	223
752	247	189	221
753	250	187	225
754	251	184	227
755	249	177	225
756	244	167	218
757	245	166	219
758	244	164	218
759	250	172	223
760	252	176	222
761	250	175	221
762	248	173	221
763	250	178	224
764	250	181	222
765	248	178	219
766	244	174	215
767	248	181	219
768	249	185	219
769	246	181	215
770	240	176	209
771	244	183	214
772	246	187	215
773	248	192	216
774	251	198	217
775	245	192	211
776	239	185	204
777	247	199	213
778	255	212	223
779	254	207	220
780	251	203	217
781	253	205	219
782	255	208	221
783	249	200	216
784	246	196	214
785	245	195	214
786	246	197	215
787	246	197	216
788	246	197	218
789	253	208	227
790	255	222	236
791	252	207	227
792	241	193	221
793	243	200	227
794	243	204	229
795	244	210	234
796	0	0	0
797	0	0	0
798	0	0	0
799	0	0	0
800	0	0	0
801	0	0	0
802	0	0	0
803	255	215	230
804	255	206	228
805	250	192	224
806	253	190	228
807	255	190	232
808	253	183	230
809	249	175	226
810	249	174	225
811	251	175	226
812	255	184	231
813	250	173	220
814	248	172	218
815	255	184	228
816	255	189	231
817	254	183	226
818	252	181	223
819	251	181	223
820	255	188	226
821	255	191	226
822	255	189	223
823	253	187	224
824	255	195	229
825	249	184	218
826	251	189	218
827	255	202	224
828	254	196	217
829	247	188	211
830	255	202	221
831	255	200	221
832	252	195	217
833	249	190	215
834	251	193	217
835	252	195	217
836	246	187	211
837	253	199	221
838	250	198	220
839	250	200	222
840	249	200	223
841	247	196	223
842	255	208	231
843	255	213	232
844	243	196	220
845	244	201	228
846	245	206	234
847	243	207	233
848	245	213	238
849	0	0	0
850	0	0	0
851	0	0	0
852	0	0	0
853	0	0	0
854	0	0	0
855	0	0	0
856	255	221	234
857	255	208	229
858	251	194	225
859	255	197	233
860	255	196	236
861	255	189	234
862	253	181	231
863	255	183	233
864	255	183	232
865	254	178	227
866	247	169	220
867	255	182	227
868	255	192	231
869	255	186	225
870	253	182	224
871	254	182	225
872	253	182	224
873	255	188	226
874	255	192	226
875	255	190	224
876	255	189	225
877	253	183	222
878	244	173	213
879	252	185	219
880	255	198	225
881	252	188	215
882	247	181	211
883	247	181	213
884	247	181	215
885	245	177	214
886	241	171	210
887	245	177	213
888	246	180	214
889	254	191	221
890	255	202	229
891	254	201	228
892	253	202	229
893	247	196	225
894	243	191	223
895	248	197	227
896	249	201	226
897	247	203	228
898	248	208	234
899	246	209	237
900	243	210	238
901	244	215	240
902	0	0	0
903	0	0	0
904	0	0	0
905	0	0	0
906	0	0	0
907	0	0	0
908	0	0	0
909	255	221	234
910	255	207	228
911	248	188	222
912	254	191	229
913	254	188	230
914	251	181	228
915	254	183	232
916	255	185	234
917	255	185	231
918	254	179	226
919	251	174	223
920	255	187	230
921	255	184	225
922	251	178	219
923	255	186	226
924	255	187	227
925	255	187	226
926	255	193	229
927	253	180	218
928	252	179	217
929	255	187	225
930	255	182	222
931	248	173	216
932	255	187	223
933	255	193	224
934	251	183	215
935	254	187	219
936	254	187	221
937	255	187	224
938	254	183	224
939	249	176	218
940	252	182	222
941	251	181	221
942	255	192	228
943	254	190	225
944	248	188	222
945	251	197	229
946	242	189	223
947	250	203	232
948	254	208	235
949	246	199	227
950	245	202	228
951	247	209	234
952	244	209	236
953	241	209	237
954	0	0	0
955	0	0	0
956	0	0	0
957	0	0	0
958	0	0	0
959	0	0	0
960	0	0	0
961	255	221	234
962	255	220	233
963	252	200	222
964	244	182	219
965	249	184	226
966	249	181	227
967	254	185	231
968	255	186	232
969	255	186	231
970	255	186	230
971	255	182	226
972	252	177	221
973	252	178	222
974	252	177	223
975	255	185	228
976	255	192	230
977	255	191	228
978	255	191	227
979	254	180	219
980	246	168	212
981	253	177	218
982	255	185	224
983	255	181	222
984	251	173	218
985	255	181	222
986	255	187	224
987	255	186	221
988	255	190	225
989	255	186	224
990	255	185	223
991	251	179	220
992	247	172	217
993	247	174	219
994	246	173	218
995	247	175	219
996	242	173	213
997	242	180	217
998	246	190	226
999	251	200	232
1000	255	213	237
1001	252	205	230
1002	244	196	225
1003	244	202	229
1004	245	208	232
1005	242	209	232
1006	239	208	232
1007	0	0	0
1008	0	0	0
1009	0	0	0
1010	0	0	0
1011	0	0	0
1012	0	0	0
1013	255	222	235
1014	255	219	234
1015	255	213	229
1016	247	193	218
1017	251	193	226
1018	254	194	233
1019	249	182	229
1020	254	186	233
1021	254	184	230
1022	254	183	228
1023	255	186	228
1024	254	181	223
1025	254	182	222
1026	255	184	224
1027	255	181	226
1028	255	190	232
1029	255	181	223
1030	255	180	220
1031	255	183	221
1032	249	171	213
1033	255	178	220
1034	255	187	227
1035	255	177	220
1036	253	173	218
1037	245	163	212
1038	250	171	218
1039	255	183	224
1040	254	182	221
1041	255	190	227
1042	255	186	224
1043	254	182	221
1044	249	175	218
1045	251	180	221
1046	250	181	223
1047	251	183	225
1048	254	186	227
1049	247	180	220
1050	245	187	223
1051	246	193	229
1052	255	206	237
1053	255	206	232
1054	248	197	225
1055	244	197	226
1056	241	201	228
1057	244	210	232
1058	244	213	233
1059	240	212	232
1060	0	0	0
1061	0	0	0
1062	0	0	0
1063	0	0	0
1064	0	0	0
1065	255	227	237
1066	255	220	234
1067	254	212	230
1068	253	206	227
1069	254	203	228
1070	255	202	232
1071	250	191	229
1072	245	180	227
1073	252	184	233
1074	252	182	229
1075	255	185	229
1076	255	187	228
1077	255	186	226
1078	255	188	225
1079	255	187	226
1080	255	184	226
1081	255	181	225
1082	252	172	218
1083	253	174	217
1084	255	177	218
1085	255	181	221
1086	255	187	226
1087	255	176	219
1088	249	166	213
1089	243	158	209
1090	237	149	205
1091	247	165	216
1092	254	177	221
1093	254	180	221
1094	255	188	224
1095	255	183	222
1096	253	180	222
1097	255	185	226
1098	255	189	227
1099	255	189	226
1100	255	191	229
1101	255	193	231
1102	252	188	226
1103	248	192	227
1104	249	196	231
1105	252	198	232
1106	251	199	229
1107	248	198	227
1108	243	197	227
1109	243	205	231
1110	245	214	235
1111	247	218	237
1112	242	217	235
1113	0	0	0
1114	0	0	0
1115	0	0	0
1116	0	0	0
1117	255	234	243
1118	255	226	237
1119	255	218	232
1120	252	210	229
1121	255	210	232
1122	255	206	233
1123	254	201	231
1124	248	190	227
1125	253	192	233
1126	255	195	239
1127	251	180	229
1128	254	183	229
1129	255	185	227
1130	255	185	225
1131	255	189	226
1132	255	188	226
1133	250	170	217
1134	250	167	216
1135	250	167	215
1136	251	169	215
1137	255	177	220
1138	255	180	222
1139	255	175	218
1140	248	164	212
1141	253	171	218
1142	247	163	215
1143	248	165	218
1144	255	181	228
1145	255	179	223
1146	255	182	222
1147	255	190	227
1148	255	185	224
1149	248	172	218
1150	252	178	222
1151	255	190	228
1152	255	191	228
1153	253	183	223
1154	253	183	225
1155	248	182	223
1156	247	186	226
1157	246	189	228
1158	245	189	226
1159	250	200	230
1160	245	197	226
1161	245	203	229
1162	247	212	234
1163	246	216	235
1164	245	218	235
1165	242	219	235
1166	0	0	0
1167	0	0	0
1168	0	0	0
1169	0	0	0
1170	255	237	247
1171	255	225	238
1172	253	215	230
1173	255	215	233
1174	255	216	239
1175	255	210	238
1176	255	203	235
1177	255	202	235
1178	255	202	237
1179	253	189	230
1180	245	175	223
1181	251	181	228
1182	253	183	227
1183	255	185	226
1184	255	189	227
1185	250	171	215
1186	239	153	205
1187	243	157	209
1188	244	157	208
1189	251	166	214
1190	255	174	218
1191	252	168	214
1192	248	163	213
1193	252	169	219
1194	255	177	227
1195	255	178	227
1196	255	178	227
1197	255	179	225
1198	253	177	220
1199	255	183	223
1200	255	192	229
1201	254	179	221
1202	244	165	213
1203	253	179	223
1204	255	193	232
1205	255	184	226
1206	249	175	219
1207	248	176	220
1208	244	175	220
1209	244	180	223
1210	243	183	225
1211	247	192	229
1212	251	202	231
1213	251	207	232
1214	252	212	233
1215	254	218	236
1216	252	221	236
1217	247	221	235
1218	0	0	0
1219	0	0	0
1220	0	0	0
1221	0	0	0
1222	253	221	237
1223	255	233	245
1224	253	219	235
1225	252	214	231
1226	255	213	234
1227	255	210	237
1228	254	203	236
1229	253	200	235
1230	254	198	234
1231	255	198	232
1232	247	184	223
1233	251	187	229
1234	255	194	236
1235	254	185	230
1236	255	188	230
1237	255	185	227
1238	247	167	215
1239	247	164	216
1240	252	168	220
1241	252	167	218
1242	255	177	224
1243	253	168	218
1244	249	163	214
1245	253	169	220
1246	255	174	225
1247	255	176	226
1248	255	176	225
1249	255	179	226
1250	255	180	224
1251	255	182	223
1252	255	189	227
1253	255	182	223
1254	247	169	215
1255	251	175	219
1256	255	188	229
1257	255	193	232
1258	255	185	227
1259	246	170	216
1260	243	170	217
1261	244	176	223
1262	245	181	227
1263	243	182	226
1264	245	192	229
1265	252	204	234
1266	255	211	236
1267	250	202	229
1268	253	208	231
1269	251	214	233
1270	0	0	0
1271	0	0	0
1272	0	0	0
1273	0	0	0
1274	0	0	0
1275	254	220	234
1276	255	230	243
1277	253	219	235
1278	252	213	234
1279	252	208	234
1280	251	202	234
1281	250	199	234
1282	249	195	233
1283	251	196	233
1284	251	195	230
1285	251	194	229
1286	255	196	232
1287	254	191	231
1288	251	183	228
1289	251	180	228
1290	251	177	225
1291	249	172	223
1292	250	169	225
1293	254	173	228
1294	254	172	225
1295	252	167	222
1296	247	160	218
1297	255	170	226
1298	255	175	230
1299	255	177	229
1300	255	177	226
1301	255	178	224
1302	255	182	224
1303	255	184	224
1304	255	187	227
1305	255	180	222
1306	249	172	216
1307	254	178	220
1308	255	183	223
1309	255	186	224
1310	255	190	227
1311	253	178	220
1312	242	163	212
1313	244	171	220
1314	245	177	226
1315	246	181	229
1316	242	181	226
1317	247	193	231
1318	253	206	236
1319	247	198	229
1320	240	188	223
1321	248	201	232
1322	246	207	231
1323	0	0	0
1324	0	0	0
1325	0	0	0
1326	0	0	0
1327	254	213	233
1328	254	216	234
1329	255	223	240
1330	247	210	232
1331	254	217	240
1332	254	212	239
1333	253	207	237
1334	250	202	236
1335	253	205	240
1336	254	204	239
1337	253	203	234
1338	254	203	234
1339	254	199	233
1340	253	193	231
1341	255	192	234
1342	255	189	234
1343	254	184	231
1344	253	180	230
1345	255	183	234
1346	255	186	237
1347	255	177	230
1348	255	173	228
1349	253	167	225
1350	255	177	234
1351	251	163	224
1352	251	164	223
1353	255	173	225
1354	255	175	222
1355	255	182	224
1356	255	184	224
1357	255	182	224
1358	252	174	219
1359	253	176	219
1360	255	182	223
1361	255	181	221
1362	255	182	221
1363	255	185	223
1364	249	172	217
1365	246	169	217
1366	251	179	226
1367	252	184	231
1368	252	188	232
1369	248	188	229
1370	253	200	235
1371	247	199	231
1372	234	186	221
1373	234	190	225
1374	243	203	235
1375	242	208	233
1376	0	0	0
1377	0	0	0
1378	0	0	0
1379	249	202	232
1380	248	206	232
1381	247	207	233
1382	249	213	239
1383	248	213	238
1384	253	219	242
1385	253	213	239
1386	251	208	237
1387	250	208	238
1388	252	210	240
1389	252	209	239
1390	252	208	236
1391	249	202	232
1392	250	199	233
1393	254	199	236
1394	255	197	235
1395	255	193	233
1396	255	189	233
1397	255	192	237
1398	255	195	237
1399	255	186	232
1400	255	178	229
1401	255	175	229
1402	253	168	224
1403	250	162	222
1404	241	149	216
1405	252	164	227
1406	255	174	230
1407	255	179	230
1408	255	185	232
1409	255	181	227
1410	255	179	224
1411	255	180	224
1412	255	181	223
1413	255	180	223
1414	254	180	223
1415	252	179	222
1416	254	181	224
1417	253	179	223
1418	251	176	223
1419	255	185	230
1420	255	189	231
1421	255	192	231
1422	252	193	229
1423	248	193	227
1424	242	191	224
1425	237	192	225
1426	238	196	231
1427	248	210	241
1428	247	214	238
1429	0	0	0
1430	0	0	0
1431	0	0	0
1432	0	0	0
1433	248	213	240
1434	248	215	241
1435	248	217	243
1436	247	216	242
1437	252	222	244
1438	251	216	241
1439	250	213	240
1440	248	212	240
1441	251	217	243
1442	251	216	242
1443	246	208	236
1444	242	202	233
1445	248	205	238
1446	255	207	241
1447	252	197	235
1448	251	193	232
1449	254	193	235
1450	255	197	238
1451	255	192	233
1452	254	183	228
1453	255	181	231
1454	255	179	231
1455	253	169	224
1456	251	163	223
1457	242	148	218
1458	253	164	231
1459	255	171	233
1460	255	176	232
1461	255	175	228
1462	252	170	222
1463	253	172	222
1464	253	173	222
1465	253	174	220
1466	251	173	219
1467	255	181	226
1468	254	181	225
1469	254	181	225
1470	253	179	224
1471	252	177	224
1472	255	186	230
1473	253	182	224
1474	251	184	224
1475	247	184	223
1476	242	184	221
1477	241	188	223
1478	242	192	226
1479	248	202	236
1480	255	216	245
1481	247	206	233
1482	0	0	0
1483	0	0	0
1484	0	0	0
1485	0	0	0
1486	0	0	0
1487	0	0	0
1488	241	213	239
1489	240	214	239
1490	245	220	242
1491	246	217	241
1492	244	214	241
1493	245	217	242
1494	247	221	243
1495	242	213	238
1496	238	206	236
1497	239	206	238
1498	243	208	239
1499	245	202	237
1500	244	195	234
1501	249	197	237
1502	252	197	236
1503	254	194	234
1504	255	191	232
1505	254	186	231
1506	255	184	233
1507	253	175	229
1508	248	165	223
1509	242	154	219
1510	233	140	214
1511	244	154	225
1512	248	161	228
1513	245	160	223
1514	243	159	218
1515	243	160	216
1516	245	162	217
1517	246	164	217
1518	246	165	217
1519	251	174	222
1520	255	181	226
1521	253	180	224
1522	254	181	225
1523	254	180	225
1524	253	178	225
1525	255	180	227
1526	249	175	221
1527	244	175	220
1528	242	177	222
1529	242	182	225
1530	242	186	225
1531	245	195	229
1532	250	203	234
1533	251	202	233
1534	239	194	224
1535	0	0	0
1536	0	0	0
1537	0	0	0
1538	0	0	0
1539	0	0	0
1540	0	0	0
1541	0	0	0
1542	0	0	0
1543	0	0	0
1544	0	0	0
1545	0	0	0
1546	0	0	0
1547	0	0	0
1548	0	0	0
1549	0	0	0
1550	0	0	0
1551	0	0	0
1552	0	0	0
1553	0	0	0
1554	252	210	245
1555	247	198	235
1556	252	197	235
1557	254	194	236
1558	255	190	235
1559	255	188	236
1560	252	178	231
1561	250	173	228
1562	242	161	222
1563	247	166	230
1564	255	181	242
1565	255	175	236
1566	253	174	232
1567	255	177	231
1568	255	179	229
1569	254	177	226
1570	255	179	227
1571	255	180	228
1572	255	188	233
1573	255	181	226
1574	253	179	224
1575	255	183	227
1576	255	182	228
1577	251	174	224
1578	251	176	225
1579	241	166	217
1580	237	167	217
1581	253	193	235
1582	255	200	240
1583	246	189	229
1584	245	195	230
1585	242	195	226
1586	241	194	225
1587	241	201	229
1588	0	0	0
1589	0	0	0
1590	0	0	0
1591	0	0	0
1592	0	0	0
1593	0	0	0
1594	0	0	0
1595	0	0	0
1596	0	0	0
1597	0	0	0
1598	0	0	0
1599	0	0	0
1600	0	0	0
1601	0	0	0
1602	0	0	0
1603	0	0	0
1604	0	0	0
1605	0	0	0
1606	0	0	0
1607	0	0	0
1608	233	190	226
1609	240	191	229
1610	244	189	232
1611	249	189	235
1612	252	187	236
1613	252	184	234
1614	250	178	229
1615	254	184	234
1616	255	189	240
1617	255	188	241
1618	255	182	234
1619	255	188	236
1620	255	193	239
1621	255	191	236
1622	255	188	231
1623	255	188	230
1624	255	189	233
1625	255	184	229
1626	250	176	222
1627	252	180	224
1628	255	183	226
1629	248	174	221
1630	242	166	219
1631	239	164	219
1632	230	156	213
1633	243	180	229
1634	255	205	243
1635	254	197	236
1636	245	188	226
1637	240	189	225
1638	236	189	223
1639	245	202	232
1640	245	210	236
1641	0	0	0
1642	0	0	0
1643	0	0	0
1644	0	0	0
1645	0	0	0
1646	0	0	0
1647	0	0	0
1648	0	0	0
1649	0	0	0
1650	0	0	0
1651	0	0	0
1652	0	0	0
1653	0	0	0
1654	0	0	0
1655	0	0	0
1656	0	0	0
1657	0	0	0
1658	0	0	0
1659	0	0	0
1660	0	0	0
1661	0	0	0
1662	0	0	0
1663	246	207	240
1664	255	209	245
1665	250	193	237
1666	252	190	236
1667	252	187	233
1668	255	193	238
1669	254	186	235
1670	255	185	235
1671	252	180	230
1672	255	187	233
1673	255	184	230
1674	254	183	228
1675	253	182	226
1676	254	183	226
1677	255	188	231
1678	250	181	225
1679	247	178	222
1680	252	183	226
1681	251	183	225
1682	243	173	219
1683	245	177	225
1684	242	174	226
1685	233	166	221
1686	248	191	237
1687	249	196	237
1688	244	189	229
1689	243	188	226
1690	240	190	227
1691	234	187	224
1692	242	200	233
1693	242	207	234
1694	0	0	0
1695	0	0	0
1696	0	0	0
1697	0	0	0
1698	0	0	0
1699	0	0	0
1700	0	0	0
1701	0	0	0
1702	0	0	0
1703	0	0	0
1704	0	0	0
1705	0	0	0
1706	0	0	0
1707	0	0	0
1708	0	0	0
1709	0	0	0
1710	0	0	0
1711	0	0	0
1712	0	0	0
1713	0	0	0
1714	0	0	0
1715	0	0	0
1716	0	0	0
1717	244	207	235
1718	239	192	231
1719	248	195	237
1720	250	193	235
1721	251	190	235
1722	249	184	233
1723	252	184	234
1724	250	180	231
1725	250	180	229
1726	247	176	223
1727	249	178	224
1728	251	180	228
1729	255	186	232
1730	255	190	231
1731	252	185	227
1732	249	182	226
1733	250	183	227
1734	249	183	226
1735	247	183	226
1736	249	187	230
1737	247	184	230
1738	239	176	225
1739	243	185	232
1740	245	191	235
1741	243	189	232
1742	241	188	230
1743	236	186	227
1744	231	184	226
1745	240	198	234
1746	239	205	233
1747	0	0	0
1748	0	0	0
1749	0	0	0
1750	0	0	0
1751	0	0	0
1752	0	0	0
1753	0	0	0
1754	0	0	0
1755	0	0	0
1756	0	0	0
1757	0	0	0
1758	0	0	0
1759	0	0	0
1760	0	0	0
1761	0	0	0
1762	0	0	0
1763	0	0	0
1764	0	0	0
1765	0	0	0
1766	0	0	0
1767	0	0	0
1768	0	0	0
1769	0	0	0
1770	0	0	0
1771	239	208	235
1772	250	213	243
1773	248	201	237
1774	252	200	239
1775	251	192	237
1776	255	194	240
1777	253	187	235
1778	252	186	233
1779	252	186	230
1780	255	189	233
1781	255	186	234
1782	255	192	238
1783	253	183	228
1784	249	179	224
1785	248	180	224
1786	246	178	223
1787	247	184	227
1788	246	185	227
1789	249	188	230
1790	251	188	231
1791	242	174	223
1792	245	183	230
1793	244	187	232
1794	237	183	228
1795	242	194	233
1796	239	193	231
1797	238	193	232
1798	247	209	241
1799	241	208	233
1800	0	0	0
1801	0	0	0
1802	0	0	0
1803	0	0	0
1804	0	0	0
1805	0	0	0
1806	0	0	0
1807	0	0	0
1808	0	0	0
1809	0	0	0
1810	0	0	0
1811	0	0	0
1812	0	0	0
1813	0	0	0
1814	0	0	0
1815	0	0	0
1816	0	0	0
1817	0	0	0
1818	0	0	0
1819	0	0	0
1820	0	0	0
1821	0	0	0
1822	0	0	0
1823	0	0	0
1824	0	0	0
1825	242	215	237
1826	240	203	233
1827	244	200	235
1828	245	194	235
1829	250	195	237
1830	248	189	231
1831	252	192	234
1832	255	194	235
1833	255	193	236
1834	255	189	235
1835	254	183	232
1836	249	176	228
1837	249	178	228
1838	247	178	225
1839	249	183	227
1840	251	189	231
1841	251	190	231
1842	254	193	233
1843	250	184	228
1844	241	171	220
1845	246	181	227
1846	245	184	229
1847	246	194	234
1848	251	205	239
1849	250	206	238
1850	248	206	237
1851	252	214	240
1852	245	214	233
1853	0	0	0
1854	0	0	0
1855	0	0	0
1856	0	0	0
1857	0	0	0
1858	0	0	0
1859	0	0	0
1860	0	0	0
1861	0	0	0
1862	0	0	0
1863	0	0	0
1864	0	0	0
1865	0	0	0
1866	0	0	0
1867	0	0	0
1868	0	0	0
1869	0	0	0
1870	0	0	0
1871	0	0	0
1872	0	0	0
1873	0	0	0
1874	0	0	0
1875	0	0	0
1876	0	0	0
1877	0	0	0
1878	0	0	0
1879	244	222	240
1880	247	219	242
1881	244	205	237
1882	249	206	240
1883	245	194	231
1884	254	200	237
1885	254	195	235
1886	255	194	236
1887	253	185	232
1888	252	181	232
1889	251	179	232
1890	251	181	231
1891	253	185	231
1892	255	191	233
1893	251	185	229
1894	252	187	230
1895	254	188	231
1896	246	177	223
1897	245	176	223
1898	253	186	231
1899	244	179	226
1900	247	189	231
1901	249	196	233
1902	249	198	233
1903	241	190	226
1904	242	196	228
1905	241	207	230
1906	0	0	0
1907	0	0	0
1908	0	0	0
1909	0	0	0
1910	0	0	0
1911	0	0	0
1912	0	0	0
1913	0	0	0
1914	0	0	0
1915	0	0	0
1916	0	0	0
1917	0	0	0
1918	0	0	0
1919	0	0	0
1920	0	0	0
1921	0	0	0
1922	0	0	0
1923	0	0	0
1924	0	0	0
1925	0	0	0
1926	0	0	0
1927	0	0	0
1928	0	0	0
1929	0	0	0
1930	0	0	0
1931	0	0	0
1932	0	0	0
1933	247	229	242
1934	241	214	236
1935	238	205	232
1936	236	194	226
1937	244	194	230
1938	246	189	228
1939	248	185	228
1940	246	178	227
1941	248	179	230
1942	246	177	228
1943	251	183	231
1944	253	188	232
1945	251	183	228
1946	247	177	224
1947	248	179	225
1948	249	181	226
1949	246	179	224
1950	246	178	225
1951	247	178	226
1952	241	171	221
1953	244	180	226
1954	246	187	229
1955	244	185	227
1956	234	176	221
1957	240	193	230
1958	240	204	234
1959	0	0	0
1960	0	0	0
1961	0	0	0
1962	0	0	0
1963	0	0	0
1964	0	0	0
1965	0	0	0
1966	0	0	0
1967	0	0	0
1968	0	0	0
1969	0	0	0
1970	0	0	0
1971	0	0	0
1972	0	0	0
1973	0	0	0
1974	0	0	0
1975	0	0	0
1976	0	0	0
1977	0	0	0
1978	0	0	0
1979	0	0	0
1980	0	0	0
1981	0	0	0
1982	0	0	0
1983	0	0	0
1984	0	0	0
1985	0	0	0
1986	0	0	0
1987	0	0	0
1988	0	0	0
1989	236	208	233
1990	247	211	238
1991	245	197	231
1992	250	195	234
1993	245	183	230
1994	245	183	231
1995	248	186	232
1996	253	193	235
1997	250	187	230
1998	251	185	228
1999	254	188	231
2000	253	189	231
2001	246	181	225
2002	242	178	224
2003	244	179	226
2004	248	181	229
2005	247	179	227
2006	251	189	233
2007	244	182	227
2008	241	179	225
2009	236	178	224
2010	240	194	233
2011	245	212	241
2012	0	0	0
2013	0	0	0
2014	0	0	0
2015	0	0	0
2016	0	0	0
2017	0	0	0
2018	0	0	0
2019	0	0	0
2020	0	0	0
2021	0	0	0
2022	0	0	0
2023	0	0	0
2024	0	0	0
2025	0	0	0
2026	0	0	0
2027	0	0	0
2028	0	0	0
2029	0	0	0
2030	0	0	0
2031	0	0	0
2032	0	0	0
2033	0	0	0
2034	0	0	0
2035	0	0	0
2036	0	0	0
2037	0	0	0
2038	0	0	0
2039	0	0	0
2040	0	0	0
2041	238	225	238
2042	240	223	240
2043	240	212	237
2044	239	199	231
2045	245	195	232
2046	241	184	228
2047	246	191	235
2048	248	194	234
2049	245	189	229
2050	243	184	225
2051	255	192	232
2052	255	196	234
2053	250	187	228
2054	243	180	224
2055	243	181	227
2056	245	182	230
2057	250	185	233
2058	248	182	229
2059	241	177	224
2060	235	170	220
2061	241	179	227
2062	236	179	226
2063	245	201	237
2064	249	218	242
2065	0	0	0
2066	0	0	0
2067	0	0	0
2068	0	0	0
2069	0	0	0
2070	0	0	0
2071	0	0	0
2072	0	0	0
2073	0	0	0
2074	0	0	0
2075	0	0	0
2076	0	0	0
2077	0	0	0
2078	0	0	0
2079	0	0	0
2080	0	0	0
2081	0	0	0
2082	0	0	0
2083	0	0	0
2084	0	0	0
2085	0	0	0
2086	0	0	0
2087	0	0	0
2088	0	0	0
2089	0	0	0
2090	0	0	0
2091	0	0	0
2092	0	0	0
2093	0	0	0
2094	0	0	0
2095	246	236	246
2096	240	221	239
2097	241	213	236
2098	251	211	240
2099	245	195	234
2100	251	203	239
2101	247	198	233
2102	241	191	227
2103	243	189	228
2104	255	199	237
2105	252	190	228
2106	245	181	222
2107	247	185	226
2108	249	188	231
2109	248	185	232
2110	250	185	234
2111	248	185	230
2112	239	178	224
2113	236	175	223
2114	244	186	232
2115	238	182	228
2116	249	205	240
2117	249	216	239
2118	0	0	0
2119	0	0	0
2120	0	0	0
2121	0	0	0
2122	0	0	0
2123	0	0	0
2124	0	0	0
2125	0	0	0
2126	0	0	0
2127	0	0	0
2128	0	0	0
2129	0	0	0
2130	0	0	0
2131	0	0	0
2132	0	0	0
2133	0	0	0
2134	0	0	0
2135	0	0	0
2136	0	0	0
2137	0	0	0
2138	0	0	0
2139	0	0	0
2140	0	0	0
2141	0	0	0
2142	0	0	0
2143	0	0	0
2144	0	0	0
2145	0	0	0
2146	0	0	0
2147	0	0	0
2148	0	0	0
2149	245	235	242
2150	245	226	240
2151	247	217	239
2152	242	202	232
2153	249	205	237
2154	247	201	231
2155	247	200	231
2156	250	199	236
2157	255	196	237
2158	250	186	227
2159	249	188	226
2160	251	191	227
2161	251	189	228
2162	250	186	232
2163	252	189	235
2164	249	188	232
2165	240	182	227
2166	237	179	225
2167	243	186	232
2168	237	182	228
2169	246	203	238
2170	247	214	237
2171	0	0	0
2172	0	0	0
2173	0	0	0
2174	0	0	0
2175	0	0	0
2176	0	0	0
2177	0	0	0
2178	0	0	0
2179	0	0	0
2180	0	0	0
2181	0	0	0
2182	0	0	0
2183	0	0	0
2184	0	0	0
2185	0	0	0
2186	0	0	0
2187	0	0	0
2188	0	0	0
2189	0	0	0
2190	0	0	0
2191	0	0	0
2192	0	0	0
2193	0	0	0
2194	0	0	0
2195	0	0	0
2196	0	0	0
2197	0	0	0
2198	0	0	0
2199	0	0	0
2200	0	0	0
2201	0	0	0
2202	0	0	0
2203	245	233	241
2204	241	220	236
2205	242	212	235
2206	255	220	244
2207	245	197	229
2208	251	199	233
2209	254	197	237
2210	254	192	235
2211	249	183	227
2212	248	185	226
2213	248	186	225
2214	249	184	225
2215	249	182	229
2216	250	184	232
2217	246	184	230
2218	238	179	225
2219	242	187	231
2220	245	193	235
2221	233	180	226
2222	241	200	235
2223	243	209	234
2224	0	0	0
2225	0	0	0
2226	0	0	0
2227	0	0	0
2228	0	0	0
2229	0	0	0
2230	0	0	0
2231	0	0	0
2232	0	0	0
2233	0	0	0
2234	0	0	0
2235	0	0	0
2236	0	0	0
2237	0	0	0
2238	0	0	0
2239	0	0	0
2240	0	0	0
2241	0	0	0
2242	0	0	0
2243	0	0	0
2244	0	0	0
2245	0	0	0
2246	0	0	0
2247	0	0	0
2248	0	0	0
2249	0	0	0
2250	0	0	0
2251	0	0	0
2252	0	0	0
2253	0	0	0
2254	0	0	0
2255	0	0	0
2256	0	0	0
2257	244	231	241
2258	242	221	238
2259	237	204	231
2260	0	0	0
2261	0	0	0
2262	243	184	228
2263	247	183	228
2264	244	177	224
2265	246	180	226
2266	248	182	227
2267	250	182	229
2268	249	179	228
2269	250	183	232
2270	247	183	233
2271	247	190	236
2272	249	197	239
2273	241	189	232
2274	229	176	223
2275	238	195	233
2276	240	205	233
2277	0	0	0
2278	0	0	0
2279	0	0	0
2280	0	0	0
2281	0	0	0
2282	0	0	0
2283	0	0	0
2284	0	0	0
2285	0	0	0
2286	0	0	0
2287	0	0	0
2288	0	0	0
2289	0	0	0
2290	0	0	0
2291	0	0	0
2292	0	0	0
2293	0	0	0
2294	0	0	0
2295	0	0	0
2296	0	0	0
2297	0	0	0
2298	0	0	0
2299	0	0	0
2300	0	0	0
2301	0	0	0
2302	0	0	0
2303	0	0	0
2304	0	0	0
2305	0	0	0
2306	0	0	0
2307	0	0	0
2308	0	0	0
2309	0	0	0
2310	0	0	0
2311	0	0	0
2312	0	0	0
2313	0	0	0
2314	0	0	0
2315	246	199	235
2316	255	201	239
2317	248	182	229
2318	253	188	234
2319	255	189	235
2320	255	188	235
2321	251	181	230
2322	253	186	234
2323	248	181	232
2324	248	188	236
2325	247	192	235
2326	235	182	226
2327	235	185	229
2328	248	207	241
2329	244	207	235
2330	0	0	0
2331	0	0	0
2332	0	0	0
2333	0	0	0
2334	0	0	0
2335	0	0	0
2336	0	0	0
2337	0	0	0
2338	0	0	0
2339	0	0	0
2340	0	0	0
2341	0	0	0
2342	0	0	0
2343	0	0	0
2344	0	0	0
2345	0	0	0
2346	0	0	0
2347	0	0	0
2348	0	0	0
2349	0	0	0
2350	0	0	0
2351	0	0	0
2352	0	0	0
2353	0	0	0
2354	0	0	0
2355	0	0	0
2356	0	0	0
2357	0	0	0
2358	0	0	0
2359	0	0	0
2360	0	0	0
2361	0	0	0
2362	0	0	0
2363	0	0	0
2364	0	0	0
2365	0	0	0
2366	0	0	0
2367	0	0	0
2368	244	207	234
2369	248	197	232
2370	241	179	224
2371	249	186	231
2372	252	187	231
2373	253	185	230
2374	249	180	227
2375	247	179	228
2376	241	175	225
2377	244	182	230
2378	244	187	232
2379	243	192	233
2380	243	195	234
2381	249	206	239
2382	245	206	233
2383	0	0	0
2384	0	0	0
2385	0	0	0
2386	0	0	0
2387	0	0	0
2388	0	0	0
2389	0	0	0
2390	0	0	0
2391	0	0	0
2392	0	0	0
2393	0	0	0
2394	0	0	0
2395	0	0	0
2396	0	0	0
2397	0	0	0
2398	0	0	0
2399	0	0	0
2400	0	0	0
2401	0	0	0
2402	0	0	0
2403	0	0	0
2404	0	0	0
2405	0	0	0
2406	0	0	0
2407	0	0	0
2408	0	0	0
2409	0	0	0
2410	0	0	0
2411	0	0	0
2412	0	0	0
2413	0	0	0
2414	0	0	0
2415	0	0	0
2416	0	0	0
2417	0	0	0
2418	0	0	0
2419	0	0	0
2420	0	0	0
2421	247	219	238
2422	251	210	238
2423	246	193	231
2424	254	200	238
2425	253	194	234
2426	255	194	235
2427	245	177	224
2428	238	174	222
2429	239	178	226
2430	246	189	234
2431	251	196	237
2432	253	202	240
2433	244	191	233
2434	247	200	236
2435	0	0	0
2436	0	0	0
2437	0	0	0
2438	0	0	0
2439	0	0	0
2440	0	0	0
2441	0	0	0
2442	0	0	0
2443	0	0	0
2444	0	0	0
2445	0	0	0
2446	0	0	0
2447	0	0	0
2448	0	0	0
2449	0	0	0
2450	0	0	0
2451	0	0	0
2452	0	0	0
2453	0	0	0
2454	0	0	0
2455	0	0	0
2456	0	0	0
2457	0	0	0
2458	0	0	0
2459	0	0	0
2460	0	0	0
2461	0	0	0
2462	0	0	0
2463	0	0	0
2464	0	0	0
2465	0	0	0
2466	0	0	0
2467	0	0	0
2468	0	0	0
2469	0	0	0
2470	0	0	0
2471	0	0	0
2472	0	0	0
2473	0	0	0
2474	0	0	0
2475	249	218	238
2476	243	200	230
2477	248	200	234
2478	249	195	232
2479	248	186	229
2480	236	170	219
2481	237	177	225
2482	239	182	230
2483	248	193	237
2484	253	200	238
2485	246	191	231
2486	0	0	0
2487	0	0	0
2488	0	0	0
2489	0	0	0
2490	0	0	0
2491	0	0	0
2492	0	0	0
2493	0	0	0
2494	0	0	0
2495	0	0	0
2496	0	0	0
2497	0	0	0
2498	0	0	0
2499	0	0	0
2500	0	0	0
2501	0	0	0
2502	0	0	0
2503	0	0	0
2504	0	0	0
2505	0	0	0
2506	0	0	0
2507	0	0	0
2508	0	0	0
2509	0	0	0
2510	0	0	0
2511	0	0	0
2512	0	0	0
2513	0	0	0
2514	0	0	0
2515	0	0	0
2516	0	0	0
2517	0	0	0
2518	0	0	0
2519	0	0	0
2520	0	0	0
2521	0	0	0
2522	0	0	0
2523	0	0	0
2524	0	0	0
2525	0	0	0
2526	0	0	0
2527	0	0	0
2528	0	0	0
2529	246	217	236
2530	255	220	243
2531	246	198	232
2532	243	189	228
2533	246	190	231
2534	254	202	242
2535	244	188	235
2536	249	196	240
2537	248	197	235
2538	0	0	0
2539	0	0	0
2540	0	0	0
2541	0	0	0
2542	0	0	0
2543	0	0	0
2544	0	0	0
2545	0	0	0
2546	0	0	0
2547	0	0	0
2548	0	0	0
2549	0	0	0
2550	0	0	0
2551	0	0	0
2552	0	0	0
2553	0	0	0
2554	0	0	0
2555	0	0	0
2556	0	0	0
2557	0	0	0
2558	0	0	0
2559	0	0	0
2560	0	0	0
2561	0	0	0
2562	0	0	0
2563	0	0	0
2564	0	0	0
2565	0	0	0
2566	0	0	0
2567	0	0	0
2568	0	0	0
2569	0	0	0
2570	0	0	0
2571	0	0	0
2572	0	0	0
2573	0	0	0
2574	0	0	0
2575	0	0	0
2576	0	0	0
2577	0	0	0
2578	0	0	0
2579	0	0	0
2580	0	0	0
2581	0	0	0
2582	0	0	0
2583	251	221	238
2584	243	201	230
2585	250	206	237
2586	254	208	239
2587	253	201	238
2588	244	189	234
2589	246	193	238
2590	0	0	0
2591	0	0	0
2592	0	0	0
2593	0	0	0
2594	0	0	0
2595	0	0	0
2596	0	0	0
2597	0	0	0
2598	0	0	0
2599	0	0	0
2600	0	0	0
2601	0	0	0
2602	0	0	0
2603	0	0	0
2604	0	0	0
2605	0	0	0
2606	0	0	0
2607	0	0	0
2608	0	0	0
2609	0	0	0
2610	0	0	0
2611	0	0	0
2612	0	0	0
2613	0	0	0
2614	0	0	0
2615	0	0	0
2616	0	0	0
2617	0	0	0
2618	0	0	0
2619	0	0	0
2620	0	0	0
2621	0	0	0
2622	0	0	0
2623	0	0	0
2624	0	0	0
2625	0	0	0
2626	0	0	0
2627	0	0	0
2628	0	0	0
2629	0	0	0
2630	0	0	0
2631	0	0	0
2632	0	0	0
2633	0	0	0
2634	0	0	0
2635	0	0	0
2636	0	0	0
2637	247	212	235
2638	255	219	243
2639	252	209	237
2640	252	203	236
2641	0	0	0
2642	0	0	0
2643	0	0	0
2644	0	0	0
2645	0	0	0
2646	0	0	0
2647	0	0	0
2648	0	0	0
2649	0	0	0
2650	0	0	0
2651	0	0	0
2652	0	0	0
2653	0	0	0
2654	0	0	0
2655	0	0	0
2656	0	0	0
2657	0	0	0
2658	0	0	0
2659	0	0	0
2660	0	0	0
2661	0	0	0
2662	0	0	0
2663	0	0	0
2664	0	0	0
2665	0	0	0
2666	0	0	0
2667	0	0	0
2668	0	0	0
2669	0	0	0
2670	0	0	0
2671	0	0	0
2672	0	0	0
2673	0	0	0
2674	0	0	0
2675	0	0	0
2676	0	0	0
2677	0	0	0
2678	0	0	0
2679	0	0	0
2680	0	0	0
2681	0	0	0
2682	0	0	0
2683	0	0	0
2684	0	0	0
2685	0	0	0
2686	0	0	0
2687	0	0	0
2688	0	0	0
2689	0	0	0
2690	0	0	0
2691	249	217	238
2692	246	207	232
2693	249	204	234
2694	244	195	231
2695	0	0	0
2696	0	0	0
2697	0	0	0
2698	0	0	0
2699	0	0	0
2700	0	0	0
2701	0	0	0
2702	0	0	0
2703	0	0	0
2704	0	0	0
2705	0	0	0
2706	0	0	0
2707	0	0	0
2708	0	0	0
2709	0	0	0
2710	0	0	0
2711	0	0	0
2712	0	0	0
2713	0	0	0
2714	0	0	0
2715	0	0	0
2716	0	0	0
2717	0	0	0
2718	0	0	0
2719	0	0	0
2720	0	0	0
2721	0	0	0
2722	0	0	0
2723	0	0	0
2724	0	0	0
2725	0	0	0
2726	0	0	0
2727	0	0	0
2728	0	0	0
2729	0	0	0
2730	0	0	0
2731	0	0	0
2732	0	0	0
2733	0	0	0
2734	0	0	0
2735	0	0	0
2736	0	0	0
2737	0	0	0
2738	0	0	0
2739	0	0	0
2740	0	0	0
2741	0	0	0
2742	0	0	0
2743	0	0	0
2744	0	0	0
2745	243	213	233
2746	247	210	235
2747	0	0	0
2748	0	0	0
2749	0	0	0
2750	0	0	0
2751	0	0	0
2752	0	0	0
2753	0	0	0
2754	0	0	0
2755	0	0	0
2756	0	0	0
