 	R	G	B
1	0	0	0
2	0	0	0
3	0	0	0
4	0	0	0
5	0	0	0
6	0	0	0
7	0	0	0
8	0	0	0
9	0	0	0
10	0	0	0
11	0	0	0
12	0	0	0
13	0	0	0
14	0	0	0
15	0	0	0
16	0	0	0
17	0	0	0
18	0	0	0
19	0	0	0
20	0	0	0
21	0	0	0
22	255	255	239
23	255	255	240
24	255	253	242
25	255	253	244
26	255	252	244
27	255	247	241
28	255	240	238
29	255	234	235
30	252	225	228
31	254	228	230
32	0	0	0
33	0	0	0
34	0	0	0
35	255	229	236
36	255	227	235
37	0	0	0
38	0	0	0
39	0	0	0
40	0	0	0
41	0	0	0
42	0	0	0
43	0	0	0
44	0	0	0
45	0	0	0
46	0	0	0
47	0	0	0
48	0	0	0
49	0	0	0
50	0	0	0
51	0	0	0
52	0	0	0
53	0	0	0
54	0	0	0
55	0	0	0
56	0	0	0
57	0	0	0
58	0	0	0
59	0	0	0
60	0	0	0
61	0	0	0
62	255	250	243
63	255	249	237
64	255	243	232
65	255	238	232
66	255	239	235
67	255	239	236
68	255	232	232
69	255	229	231
70	254	223	228
71	248	212	221
72	252	216	225
73	253	218	227
74	0	0	0
75	254	222	231
76	255	223	233
77	252	216	228
78	245	208	222
79	0	0	0
80	0	0	0
81	0	0	0
82	0	0	0
83	0	0	0
84	0	0	0
85	0	0	0
86	0	0	0
87	0	0	0
88	0	0	0
89	0	0	0
90	0	0	0
91	0	0	0
92	0	0	0
93	0	0	0
94	0	0	0
95	0	0	0
96	0	0	0
97	0	0	0
98	0	0	0
99	0	0	0
100	0	0	0
101	0	0	0
102	0	0	0
103	255	238	236
104	255	237	233
105	252	231	227
106	250	225	225
107	253	226	227
108	255	226	229
109	255	222	227
110	254	219	225
111	248	208	219
112	243	198	215
113	250	205	222
114	251	208	223
115	252	213	226
116	255	220	231
117	255	215	230
118	251	209	227
119	0	0	0
120	0	0	0
121	0	0	0
122	0	0	0
123	0	0	0
124	0	0	0
125	0	0	0
126	0	0	0
127	0	0	0
128	0	0	0
129	0	0	0
130	0	0	0
131	0	0	0
132	0	0	0
133	0	0	0
134	0	0	0
135	0	0	0
136	0	0	0
137	0	0	0
138	0	0	0
139	0	0	0
140	0	0	0
141	0	0	0
142	0	0	0
143	255	236	235
144	255	238	237
145	255	232	232
146	254	226	227
147	255	226	228
148	255	227	230
149	251	214	222
150	250	209	220
151	253	213	223
152	248	202	217
153	249	202	221
154	255	209	228
155	252	204	224
156	255	210	229
157	255	211	230
158	252	205	227
159	248	202	225
160	0	0	0
161	0	0	0
162	0	0	0
163	0	0	0
164	0	0	0
165	0	0	0
166	0	0	0
167	0	0	0
168	0	0	0
169	0	0	0
170	0	0	0
171	0	0	0
172	0	0	0
173	0	0	0
174	0	0	0
175	0	0	0
176	0	0	0
177	0	0	0
178	0	0	0
179	0	0	0
180	0	0	0
181	0	0	0
182	0	0	0
183	255	233	234
184	255	238	238
185	255	232	233
186	255	226	227
187	255	224	225
188	255	224	227
189	253	212	221
190	245	199	214
191	251	204	219
192	255	208	222
193	255	207	223
194	255	206	225
195	254	203	226
196	250	197	223
197	250	199	226
198	252	200	229
199	251	200	228
200	246	196	223
201	0	0	0
202	0	0	0
203	0	0	0
204	0	0	0
205	0	0	0
206	0	0	0
207	0	0	0
208	0	0	0
209	0	0	0
210	0	0	0
211	0	0	0
212	0	0	0
213	0	0	0
214	0	0	0
215	0	0	0
216	0	0	0
217	0	0	0
218	0	0	0
219	0	0	0
220	0	0	0
221	0	0	0
222	0	0	0
223	255	232	234
224	255	236	237
225	254	223	228
226	251	217	223
227	255	221	225
228	255	219	224
229	255	220	227
230	254	208	221
231	248	196	216
232	255	202	223
233	252	197	220
234	252	195	220
235	251	194	221
236	247	189	220
237	248	193	224
238	247	194	226
239	250	197	230
240	251	198	230
241	248	196	226
242	252	207	231
243	255	219	240
244	0	0	0
245	0	0	0
246	0	0	0
247	0	0	0
248	0	0	0
249	0	0	0
250	0	0	0
251	0	0	0
252	0	0	0
253	0	0	0
254	0	0	0
255	0	0	0
256	0	0	0
257	0	0	0
258	0	0	0
259	0	0	0
260	0	0	0
261	0	0	0
262	0	0	0
263	254	223	227
264	255	232	232
265	254	220	224
266	247	207	216
267	252	212	221
268	255	217	226
269	255	216	226
270	255	216	228
271	255	204	223
272	249	192	219
273	249	188	220
274	247	183	219
275	248	184	221
276	246	182	218
277	247	186	222
278	248	189	226
279	249	192	229
280	251	195	230
281	254	199	232
282	252	198	229
283	254	205	232
284	255	215	237
285	249	200	226
286	0	0	0
287	0	0	0
288	0	0	0
289	0	0	0
290	0	0	0
291	0	0	0
292	0	0	0
293	0	0	0
294	0	0	0
295	0	0	0
296	0	0	0
297	0	0	0
298	0	0	0
299	0	0	0
300	0	0	0
301	0	0	0
302	0	0	0
303	252	219	225
304	255	231	233
305	255	219	224
306	249	207	216
307	251	207	218
308	255	212	223
309	255	215	228
310	255	213	227
311	254	201	220
312	248	188	215
313	253	192	222
314	252	189	224
315	255	191	229
316	255	191	230
317	251	186	225
318	255	191	229
319	255	192	231
320	255	196	234
321	254	192	230
322	255	194	231
323	253	193	228
324	255	200	231
325	255	206	232
326	240	188	218
327	0	0	0
328	0	0	0
329	0	0	0
330	0	0	0
331	0	0	0
332	0	0	0
333	0	0	0
334	0	0	0
335	0	0	0
336	0	0	0
337	0	0	0
338	0	0	0
339	0	0	0
340	0	0	0
341	255	230	233
342	255	234	236
343	255	230	232
344	255	226	229
345	255	216	223
346	249	205	217
347	254	207	221
348	255	207	223
349	255	210	225
350	255	212	228
351	254	198	218
352	247	185	210
353	251	188	215
354	255	192	223
355	255	194	228
356	255	195	232
357	255	192	230
358	253	187	225
359	254	188	226
360	254	188	227
361	250	185	225
362	246	181	221
363	247	183	222
364	246	182	222
365	252	192	228
366	254	198	229
367	249	199	229
368	0	0	0
369	0	0	0
370	0	0	0
371	0	0	0
372	0	0	0
373	0	0	0
374	0	0	0
375	0	0	0
376	0	0	0
377	0	0	0
378	0	0	0
379	0	0	0
380	0	0	0
381	254	226	232
382	255	230	235
383	255	224	228
384	255	219	224
385	255	218	225
386	253	208	220
387	253	204	221
388	255	207	226
389	253	198	220
390	255	200	222
391	255	199	221
392	248	185	211
393	252	187	215
394	255	190	219
395	255	189	222
396	255	190	225
397	255	189	227
398	253	184	225
399	254	186	226
400	255	188	227
401	251	185	225
402	241	179	221
403	241	181	222
404	245	185	226
405	249	188	229
406	255	199	237
407	249	188	227
408	248	190	228
409	254	202	238
410	0	0	0
411	0	0	0
412	0	0	0
413	0	0	0
414	0	0	0
415	0	0	0
416	0	0	0
417	0	0	0
418	0	0	0
419	0	0	0
420	0	0	0
421	0	0	0
422	0	0	0
423	255	221	230
424	253	214	221
425	255	213	221
426	255	213	226
427	255	208	225
428	255	204	224
429	254	197	222
430	250	187	217
431	252	189	218
432	252	187	214
433	254	188	216
434	255	191	223
435	255	190	225
436	255	188	222
437	255	186	223
438	255	184	225
439	254	185	227
440	255	188	229
441	255	186	229
442	249	182	226
443	244	183	226
444	244	186	229
445	247	189	233
446	251	192	236
447	247	185	232
448	239	174	224
449	247	187	232
450	251	197	236
451	248	195	233
452	0	0	0
453	0	0	0
454	0	0	0
455	0	0	0
456	0	0	0
457	0	0	0
458	0	0	0
459	0	0	0
460	0	0	0
461	0	0	0
462	0	0	0
463	0	0	0
464	255	217	228
465	254	209	221
466	255	209	222
467	254	203	222
468	253	198	222
469	255	201	224
470	255	194	221
471	251	184	217
472	254	186	219
473	254	183	215
474	255	184	217
475	255	184	222
476	255	183	223
477	254	178	219
478	251	176	218
479	252	178	223
480	251	178	224
481	255	190	234
482	255	188	233
483	251	182	228
484	249	185	231
485	248	186	233
486	250	188	236
487	253	193	239
488	244	184	233
489	239	179	231
490	249	193	240
491	245	192	235
492	0	0	0
493	0	0	0
494	0	0	0
495	0	0	0
496	0	0	0
497	0	0	0
498	0	0	0
499	0	0	0
500	0	0	0
501	0	0	0
502	0	0	0
503	251	213	224
504	255	216	228
505	255	211	226
506	254	205	222
507	252	198	219
508	251	192	219
509	255	195	222
510	255	198	223
511	255	189	218
512	253	181	216
513	255	183	219
514	255	181	218
515	255	181	219
516	255	179	221
517	255	176	221
518	252	172	218
519	251	172	220
520	251	174	223
521	255	183	230
522	255	194	238
523	255	186	233
524	249	180	228
525	247	180	229
526	247	182	233
527	251	188	237
528	250	191	237
529	238	183	230
530	233	179	230
531	237	183	233
532	0	0	0
533	0	0	0
534	0	0	0
535	0	0	0
536	0	0	0
537	0	0	0
538	0	0	0
539	0	0	0
540	0	0	0
541	0	0	0
542	0	0	0
543	251	216	226
544	255	223	234
545	253	206	225
546	253	202	224
547	254	199	222
548	252	192	220
549	254	191	221
550	255	195	225
551	255	188	219
552	253	179	214
553	250	172	214
554	254	174	218
555	255	174	219
556	255	174	221
557	248	160	213
558	246	157	212
559	251	166	219
560	249	165	219
561	255	178	229
562	255	187	235
563	255	186	234
564	249	177	228
565	250	183	232
566	248	184	233
567	247	185	236
568	251	190	240
569	243	186	233
570	227	175	224
571	230	185	233
572	0	0	0
573	0	0	0
574	0	0	0
575	0	0	0
576	0	0	0
577	0	0	0
578	0	0	0
579	0	0	0
580	0	0	0
581	0	0	0
582	0	0	0
583	255	230	237
584	255	224	235
585	254	210	228
586	247	194	222
587	251	194	225
588	251	191	222
589	253	189	221
590	254	187	221
591	255	184	220
592	254	179	219
593	253	172	218
594	249	164	215
595	251	164	217
596	252	164	219
597	246	153	213
598	236	139	205
599	243	150	214
600	247	158	219
601	252	168	225
602	255	180	231
603	253	176	228
604	249	175	227
605	247	178	230
606	248	184	234
607	242	181	233
608	240	181	234
609	239	182	234
610	230	176	227
611	224	180	228
612	0	0	0
613	0	0	0
614	0	0	0
615	0	0	0
616	0	0	0
617	0	0	0
618	0	0	0
619	0	0	0
620	0	0	0
621	0	0	0
622	0	0	0
623	255	231	235
624	255	226	235
625	255	216	230
626	251	202	225
627	252	197	226
628	255	198	229
629	254	191	225
630	255	190	225
631	255	186	223
632	255	182	223
633	251	169	219
634	249	162	218
635	249	160	218
636	251	160	220
637	255	167	226
638	250	155	221
639	240	143	214
640	244	152	221
641	253	168	231
642	255	178	236
643	255	179	233
644	251	175	228
645	253	183	234
646	248	185	235
647	245	187	237
648	237	183	234
649	238	191	239
650	234	189	237
651	224	181	229
652	225	189	234
653	240	211	251
654	0	0	0
655	0	0	0
656	0	0	0
657	0	0	0
658	0	0	0
659	0	0	0
660	0	0	0
661	0	0	0
662	0	0	0
663	255	235	235
664	255	226	231
665	255	219	229
666	254	210	227
667	255	204	226
668	255	198	224
669	255	194	224
670	254	187	222
671	254	183	222
672	255	180	223
673	249	167	218
674	242	153	214
675	243	152	216
676	242	150	214
677	248	156	220
678	253	162	227
679	245	151	222
680	234	138	215
681	245	157	229
682	254	173	239
683	255	177	240
684	255	177	236
685	255	184	238
686	255	191	242
687	250	190	240
688	245	192	241
689	239	194	242
690	238	200	243
691	226	191	236
692	219	185	231
693	232	205	244
694	246	225	255
695	0	0	0
696	0	0	0
697	0	0	0
698	0	0	0
699	0	0	0
700	0	0	0
701	0	0	0
702	0	0	0
703	255	250	243
704	255	243	242
705	251	216	225
706	251	208	224
707	254	205	226
708	254	199	224
709	255	195	222
710	254	190	221
711	251	181	219
712	252	178	221
713	255	184	228
714	252	169	223
715	244	155	219
716	244	154	221
717	255	170	232
718	255	175	237
719	250	159	227
720	236	146	219
721	239	153	227
722	253	174	242
723	255	181	246
724	255	185	248
725	249	172	235
726	247	177	236
727	252	190	243
728	248	190	242
729	239	188	240
730	231	188	238
731	232	200	243
732	219	191	233
733	224	200	239
734	240	222	252
735	243	227	251
736	0	0	0
737	0	0	0
738	0	0	0
739	0	0	0
740	0	0	0
741	0	0	0
742	0	0	0
743	0	0	0
744	255	253	246
745	255	234	238
746	248	207	224
747	255	208	229
748	255	203	229
749	255	199	227
750	255	193	224
751	252	184	220
752	249	175	219
753	254	179	224
754	255	184	230
755	252	170	225
756	244	155	221
757	255	171	235
758	255	187	248
759	255	172	238
760	244	154	225
761	244	162	231
762	247	169	238
763	252	177	243
764	254	182	242
765	0	0	0
766	0	0	0
767	0	0	0
768	240	183	241
769	233	180	237
770	225	177	234
771	223	187	238
772	225	199	243
773	225	206	243
774	229	214	244
775	236	222	246
776	0	0	0
777	0	0	0
778	0	0	0
779	0	0	0
780	0	0	0
781	0	0	0
782	0	0	0
783	0	0	0
784	0	0	0
785	255	245	244
786	254	220	230
787	248	200	222
788	254	201	228
789	251	191	224
790	251	186	223
791	255	189	225
792	250	179	221
793	254	181	226
794	255	183	231
795	255	180	230
796	249	166	223
797	247	162	225
798	255	178	240
799	255	185	247
800	254	169	236
801	244	158	228
802	248	167	236
803	252	177	245
804	254	183	247
805	0	0	0
806	0	0	0
807	0	0	0
808	0	0	0
809	0	0	0
810	0	0	0
811	0	0	0
812	0	0	0
813	0	0	0
814	0	0	0
815	0	0	0
816	0	0	0
817	0	0	0
818	0	0	0
819	0	0	0
820	0	0	0
821	0	0	0
822	0	0	0
823	0	0	0
824	0	0	0
825	255	244	242
826	255	232	236
827	255	215	229
828	248	195	219
829	250	190	222
830	247	179	221
831	252	184	228
832	255	187	231
833	255	188	234
834	255	189	238
835	255	185	236
836	255	180	233
837	255	175	230
838	253	170	230
839	255	175	236
840	255	182	242
841	252	171	235
842	243	161	231
843	249	173	241
844	250	181	247
845	241	179	242
846	0	0	0
847	0	0	0
848	0	0	0
849	0	0	0
850	0	0	0
851	0	0	0
852	0	0	0
853	0	0	0
854	0	0	0
855	0	0	0
856	0	0	0
857	0	0	0
858	0	0	0
859	0	0	0
860	0	0	0
861	0	0	0
862	0	0	0
863	0	0	0
864	0	0	0
865	255	252	246
866	255	238	238
867	254	216	228
868	249	199	223
869	246	185	217
870	247	179	220
871	249	178	226
872	254	182	232
873	255	186	236
874	255	186	239
875	252	172	231
876	250	167	228
877	255	174	232
878	251	168	228
879	252	171	232
880	255	175	236
881	255	183	241
882	249	171	235
883	246	172	238
884	250	183	247
885	240	182	244
886	0	0	0
887	0	0	0
888	0	0	0
889	0	0	0
890	0	0	0
891	0	0	0
892	0	0	0
893	0	0	0
894	0	0	0
895	0	0	0
896	0	0	0
897	0	0	0
898	0	0	0
899	0	0	0
900	0	0	0
901	0	0	0
902	0	0	0
903	0	0	0
904	0	0	0
905	255	248	246
906	255	245	241
907	254	221	228
908	248	201	223
909	248	190	224
910	244	176	220
911	248	177	226
912	249	174	228
913	252	177	232
914	255	180	235
915	244	164	226
916	235	150	219
917	243	160	228
918	248	167	231
919	249	169	233
920	251	172	237
921	253	177	241
922	253	183	242
923	243	177	236
924	238	176	237
925	235	179	239
926	224	177	234
927	0	0	0
928	0	0	0
929	0	0	0
930	0	0	0
931	0	0	0
932	0	0	0
933	0	0	0
934	0	0	0
935	0	0	0
936	0	0	0
937	0	0	0
938	0	0	0
939	0	0	0
940	0	0	0
941	0	0	0
942	0	0	0
943	0	0	0
944	0	0	0
945	255	253	251
946	255	251	249
947	255	228	233
948	249	206	222
949	248	194	224
950	247	184	225
951	248	179	227
952	251	179	232
953	250	175	233
954	253	178	237
955	255	182	239
956	240	164	229
957	239	164	233
958	246	174	242
959	242	168	236
960	244	170	238
961	247	177	243
962	247	180	244
963	243	183	241
964	226	173	230
965	229	189	240
966	225	190	239
967	0	0	0
968	0	0	0
969	0	0	0
970	0	0	0
971	0	0	0
972	0	0	0
973	0	0	0
974	0	0	0
975	0	0	0
976	0	0	0
977	0	0	0
978	0	0	0
979	0	0	0
980	0	0	0
981	0	0	0
982	0	0	0
983	0	0	0
984	0	0	0
985	0	0	0
986	255	252	250
987	255	232	240
988	250	211	228
989	249	200	225
990	247	187	224
991	250	185	229
992	250	179	230
993	251	178	234
994	249	175	237
995	253	180	242
996	253	182	243
997	244	176	239
998	241	175	243
999	237	171	242
1000	231	164	237
1001	232	169	238
1002	233	172	238
1003	231	175	237
1004	226	178	235
1005	223	188	237
1006	0	0	0
1007	0	0	0
1008	0	0	0
1009	0	0	0
1010	0	0	0
1011	0	0	0
1012	0	0	0
1013	0	0	0
1014	0	0	0
1015	0	0	0
1016	0	0	0
1017	0	0	0
1018	0	0	0
1019	0	0	0
1020	0	0	0
1021	0	0	0
1022	0	0	0
1023	0	0	0
1024	0	0	0
1025	0	0	0
1026	0	0	0
1027	255	249	250
1028	255	228	240
1029	249	204	228
1030	248	192	227
1031	247	184	227
1032	249	181	230
1033	252	182	235
1034	252	180	238
1035	251	178	241
1036	251	181	245
1037	247	180	243
1038	236	172	238
1039	241	184	249
1040	235	178	246
1041	227	173	242
1042	0	0	0
1043	0	0	0
1044	0	0	0
1045	0	0	0
1046	0	0	0
1047	0	0	0
1048	0	0	0
1049	0	0	0
1050	0	0	0
1051	0	0	0
1052	0	0	0
1053	0	0	0
1054	0	0	0
1055	0	0	0
1056	0	0	0
1057	0	0	0
1058	0	0	0
1059	0	0	0
1060	0	0	0
1061	0	0	0
1062	0	0	0
1063	0	0	0
1064	0	0	0
1065	0	0	0
1066	0	0	0
1067	255	250	246
1068	255	244	247
1069	255	219	236
1070	246	195	227
1071	247	188	229
1072	244	178	228
1073	246	180	234
1074	247	180	237
1075	245	177	238
1076	240	173	237
1077	239	174	239
1078	235	173	238
1079	232	178	240
1080	235	187	247
1081	227	181	241
1082	0	0	0
1083	0	0	0
1084	0	0	0
1085	0	0	0
1086	0	0	0
1087	0	0	0
1088	0	0	0
1089	0	0	0
1090	0	0	0
1091	0	0	0
1092	0	0	0
1093	0	0	0
1094	0	0	0
1095	0	0	0
1096	0	0	0
1097	0	0	0
1098	0	0	0
1099	0	0	0
1100	0	0	0
1101	0	0	0
1102	0	0	0
1103	0	0	0
1104	0	0	0
1105	0	0	0
1106	0	0	0
1107	0	0	0
1108	255	245	246
1109	251	216	232
1110	240	191	222
1111	249	196	233
1112	247	188	233
1113	246	185	236
1114	244	185	239
1115	239	181	239
1116	232	175	237
1117	231	177	238
1118	229	178	239
1119	225	177	238
1120	224	182	240
1121	230	198	247
1122	0	0	0
1123	0	0	0
1124	0	0	0
1125	0	0	0
1126	0	0	0
1127	0	0	0
1128	0	0	0
1129	0	0	0
1130	0	0	0
1131	0	0	0
1132	0	0	0
1133	0	0	0
1134	0	0	0
1135	0	0	0
1136	0	0	0
1137	0	0	0
1138	0	0	0
1139	0	0	0
1140	0	0	0
1141	0	0	0
1142	0	0	0
1143	0	0	0
1144	0	0	0
1145	0	0	0
1146	0	0	0
1147	0	0	0
1148	0	0	0
1149	0	0	0
1150	235	188	221
1151	244	194	231
1152	250	196	238
1153	245	191	237
1154	241	186	235
1155	234	181	234
1156	227	177	235
1157	225	179	238
1158	222	179	239
1159	221	180	239
1160	217	178	236
1161	224	195	244
1162	0	0	0
1163	0	0	0
1164	0	0	0
1165	0	0	0
1166	0	0	0
1167	0	0	0
1168	0	0	0
1169	0	0	0
1170	0	0	0
1171	0	0	0
1172	0	0	0
1173	0	0	0
1174	0	0	0
1175	0	0	0
1176	0	0	0
1177	0	0	0
1178	0	0	0
1179	0	0	0
1180	0	0	0
1181	0	0	0
1182	0	0	0
1183	0	0	0
1184	0	0	0
1185	0	0	0
1186	0	0	0
1187	0	0	0
1188	0	0	0
1189	0	0	0
1190	0	0	0
1191	0	0	0
1192	251	202	242
1193	246	196	240
1194	0	0	0
1195	0	0	0
1196	0	0	0
1197	0	0	0
1198	0	0	0
1199	0	0	0
1200	0	0	0
1201	0	0	0
1202	0	0	0
1203	0	0	0
1204	0	0	0
1205	0	0	0
1206	0	0	0
1207	0	0	0
1208	0	0	0
1209	0	0	0
1210	0	0	0
1211	0	0	0
1212	0	0	0
1213	0	0	0
1214	0	0	0
1215	0	0	0
1216	0	0	0
1217	0	0	0
1218	0	0	0
1219	0	0	0
1220	0	0	0
1221	0	0	0
1222	0	0	0
1223	0	0	0
1224	0	0	0
1225	0	0	0
1226	0	0	0
1227	0	0	0
1228	0	0	0
1229	0	0	0
1230	0	0	0
