 	R	G	B
1	0	0	0
2	0	0	0
3	0	0	0
4	0	0	0
5	0	0	0
6	0	0	0
7	0	0	0
8	0	0	0
9	0	0	0
10	0	0	0
11	0	0	0
12	0	0	0
13	0	0	0
14	255	232	245
15	255	232	243
16	255	234	244
17	255	234	246
18	255	229	244
19	0	0	0
20	0	0	0
21	0	0	0
22	0	0	0
23	0	0	0
24	0	0	0
25	0	0	0
26	0	0	0
27	0	0	0
28	0	0	0
29	0	0	0
30	0	0	0
31	0	0	0
32	0	0	0
33	0	0	0
34	0	0	0
35	0	0	0
36	0	0	0
37	0	0	0
38	0	0	0
39	0	0	0
40	0	0	0
41	0	0	0
42	0	0	0
43	0	0	0
44	0	0	0
45	0	0	0
46	0	0	0
47	0	0	0
48	255	231	245
49	255	234	246
50	255	226	240
51	255	228	242
52	255	224	241
53	252	219	238
54	249	215	236
55	0	0	0
56	255	232	247
57	255	222	240
58	0	0	0
59	0	0	0
60	0	0	0
61	0	0	0
62	0	0	0
63	0	0	0
64	0	0	0
65	0	0	0
66	0	0	0
67	0	0	0
68	0	0	0
69	0	0	0
70	0	0	0
71	0	0	0
72	0	0	0
73	0	0	0
74	0	0	0
75	0	0	0
76	0	0	0
77	0	0	0
78	0	0	0
79	0	0	0
80	0	0	0
81	0	0	0
82	0	0	0
83	255	231	243
84	255	226	241
85	252	220	237
86	249	216	235
87	248	212	234
88	247	210	234
89	245	207	232
90	255	220	242
91	255	233	249
92	255	223	242
93	250	213	236
94	0	0	0
95	0	0	0
96	0	0	0
97	0	0	0
98	0	0	0
99	0	0	0
100	0	0	0
101	0	0	0
102	0	0	0
103	0	0	0
104	0	0	0
105	0	0	0
106	0	0	0
107	0	0	0
108	0	0	0
109	0	0	0
110	0	0	0
111	0	0	0
112	0	0	0
113	0	0	0
114	0	0	0
115	0	0	0
116	0	0	0
117	0	0	0
118	255	227	242
119	254	222	240
120	251	218	237
121	246	213	234
122	251	218	239
123	252	218	239
124	252	215	239
125	255	229	248
126	255	221	241
127	251	211	234
128	247	208	233
129	0	0	0
130	0	0	0
131	0	0	0
132	0	0	0
133	0	0	0
134	0	0	0
135	0	0	0
136	0	0	0
137	0	0	0
138	0	0	0
139	0	0	0
140	0	0	0
141	0	0	0
142	0	0	0
143	0	0	0
144	0	0	0
145	0	0	0
146	0	0	0
147	0	0	0
148	0	0	0
149	0	0	0
150	0	0	0
151	0	0	0
152	0	0	0
153	255	224	243
154	255	221	243
155	252	217	240
156	254	222	242
157	255	227	246
158	255	225	244
159	255	222	243
160	255	216	239
161	251	209	233
162	250	209	233
163	248	207	234
164	0	0	0
165	0	0	0
166	0	0	0
167	0	0	0
168	0	0	0
169	0	0	0
170	0	0	0
171	0	0	0
172	0	0	0
173	0	0	0
174	0	0	0
175	0	0	0
176	0	0	0
177	0	0	0
178	0	0	0
179	0	0	0
180	0	0	0
181	0	0	0
182	0	0	0
183	0	0	0
184	0	0	0
185	0	0	0
186	0	0	0
187	0	0	0
188	255	227	245
189	255	224	245
190	254	216	239
191	255	221	243
192	255	218	240
193	255	215	238
194	255	215	238
195	252	209	234
196	251	208	233
197	251	208	235
198	247	203	233
199	0	0	0
200	0	0	0
201	0	0	0
202	0	0	0
203	0	0	0
204	0	0	0
205	0	0	0
206	0	0	0
207	0	0	0
208	0	0	0
209	0	0	0
210	0	0	0
211	0	0	0
212	0	0	0
213	0	0	0
214	0	0	0
215	0	0	0
216	0	0	0
217	0	0	0
218	255	230	244
219	255	230	242
220	0	0	0
221	0	0	0
222	255	222	240
223	255	230	245
224	255	222	241
225	255	214	236
226	254	212	236
227	252	208	234
228	252	208	234
229	254	209	235
230	252	208	234
231	252	206	234
232	251	205	234
233	247	200	231
234	255	212	239
235	255	219	241
236	0	0	0
237	0	0	0
238	255	225	238
239	255	230	239
240	255	233	240
241	0	0	0
242	0	0	0
243	0	0	0
244	0	0	0
245	0	0	0
246	0	0	0
247	0	0	0
248	0	0	0
249	0	0	0
250	0	0	0
251	0	0	0
252	255	227	242
253	255	229	244
254	253	220	236
255	246	212	229
256	254	221	238
257	255	229	245
258	255	218	236
259	254	211	232
260	251	206	231
261	248	202	230
262	252	209	234
263	254	209	235
264	255	212	237
265	255	211	237
266	255	207	236
267	254	206	236
268	252	201	233
269	255	212	241
270	253	206	234
271	248	204	230
272	255	218	236
273	255	227	241
274	255	220	234
275	253	222	233
276	249	220	231
277	0	0	0
278	0	0	0
279	0	0	0
280	0	0	0
281	0	0	0
282	0	0	0
283	0	0	0
284	0	0	0
285	0	0	0
286	255	229	242
287	255	227	243
288	255	222	240
289	250	213	233
290	255	220	238
291	255	229	244
292	255	219	238
293	253	208	230
294	251	203	229
295	248	199	229
296	253	206	235
297	255	212	237
298	255	214	238
299	255	217	239
300	255	212	237
301	255	208	237
302	255	206	238
303	254	201	234
304	254	201	235
305	248	195	230
306	255	209	239
307	255	223	246
308	255	216	237
309	250	209	228
310	250	212	228
311	246	211	227
312	255	233	241
313	0	0	0
314	0	0	0
315	0	0	0
316	0	0	0
317	0	0	0
318	0	0	0
319	0	0	0
320	255	226	241
321	255	226	242
322	253	217	237
323	252	212	234
324	252	211	235
325	255	219	240
326	255	219	238
327	254	208	230
328	250	201	226
329	247	196	224
330	255	207	236
331	255	215	242
332	252	200	230
333	255	203	230
334	255	210	235
335	255	205	233
336	255	198	231
337	252	196	231
338	252	196	231
339	250	195	232
340	245	190	230
341	255	206	241
342	255	211	241
343	247	201	230
344	247	204	228
345	251	209	230
346	251	211	230
347	255	233	243
348	255	230	238
349	0	0	0
350	0	0	0
351	0	0	0
352	0	0	0
353	0	0	0
354	0	0	0
355	0	0	0
356	251	215	236
357	248	206	230
358	251	208	233
359	253	208	236
360	255	210	237
361	255	209	233
362	254	203	228
363	251	197	224
364	255	206	232
365	255	216	241
366	255	202	232
367	246	189	222
368	255	197	229
369	255	204	233
370	255	197	228
371	250	189	225
372	247	189	226
373	246	189	227
374	242	185	226
375	239	181	225
376	246	190	232
377	247	194	231
378	244	194	229
379	246	199	231
380	252	206	234
381	252	208	231
382	251	210	230
383	244	207	223
384	253	224	233
385	0	0	0
386	0	0	0
387	0	0	0
388	0	0	0
389	0	0	0
390	0	0	0
391	0	0	0
392	254	213	235
393	255	214	238
394	255	207	236
395	255	209	239
396	251	195	228
397	250	190	224
398	251	191	224
399	255	199	230
400	255	199	231
401	242	183	220
402	249	191	227
403	255	202	235
404	255	192	228
405	250	184	223
406	245	181	221
407	237	178	220
408	238	184	224
409	237	182	225
410	241	185	229
411	248	193	235
412	249	196	234
413	248	199	234
414	249	200	235
415	255	207	239
416	255	210	237
417	255	213	235
418	246	202	226
419	253	218	235
420	255	234	243
421	0	0	0
422	0	0	0
423	0	0	0
424	0	0	0
425	0	0	0
426	255	220	240
427	255	219	240
428	255	211	236
429	255	203	234
430	252	194	231
431	245	181	225
432	248	184	227
433	248	184	226
434	249	184	226
435	248	183	226
436	249	188	229
437	255	196	235
438	252	187	229
439	247	177	221
440	246	177	222
441	241	174	221
442	236	176	222
443	238	182	228
444	244	187	233
445	246	190	235
446	249	195	237
447	250	198	235
448	251	199	235
449	252	201	236
450	255	205	239
451	255	207	237
452	245	199	229
453	235	189	222
454	244	206	232
455	251	220	237
456	0	0	0
457	0	0	0
458	0	0	0
459	0	0	0
460	255	215	239
461	255	215	240
462	255	205	233
463	252	197	229
464	255	198	233
465	253	189	231
466	245	177	227
467	244	177	229
468	254	191	236
469	255	193	237
470	251	180	230
471	254	186	234
472	255	189	234
473	245	177	224
474	244	175	223
475	246	176	226
476	242	174	225
477	239	177	226
478	248	190	236
479	255	196	242
480	250	187	234
481	248	189	233
482	249	192	232
483	254	195	234
484	255	198	237
485	254	200	237
486	245	195	230
487	229	184	220
488	236	199	231
489	249	218	242
490	250	222	240
491	0	0	0
492	0	0	0
493	0	0	0
494	255	214	241
495	255	213	243
496	255	204	238
497	250	193	231
498	252	192	232
499	255	193	234
500	252	183	230
501	243	170	226
502	251	184	236
503	255	197	243
504	253	184	234
505	246	172	227
506	250	176	229
507	249	178	227
508	241	171	221
509	240	170	222
510	245	174	228
511	243	173	227
512	248	184	235
513	255	197	241
514	254	191	236
515	247	181	228
516	246	184	229
517	249	188	231
518	255	193	235
519	255	196	237
520	250	192	234
521	241	187	229
522	242	200	235
523	248	214	242
524	253	222	244
525	253	225	242
526	0	0	0
527	0	0	0
528	254	211	240
529	255	210	242
530	255	205	241
531	253	196	237
532	251	190	235
533	254	189	236
534	255	192	238
535	253	181	233
536	246	170	228
537	255	185	239
538	255	189	240
539	246	173	228
540	250	176	232
541	255	182	235
542	251	179	229
543	242	172	222
544	245	176	229
545	253	182	236
546	248	174	231
547	255	187	239
548	249	182	232
549	240	172	223
550	239	172	223
551	244	179	227
552	247	181	229
553	254	186	232
554	255	194	237
555	249	189	232
556	246	189	233
557	255	206	243
558	255	211	242
559	255	215	241
560	251	216	237
561	0	0	0
562	0	0	0
563	252	204	240
564	253	201	240
565	252	195	236
566	252	190	235
567	251	185	236
568	255	189	241
569	255	191	243
570	255	181	237
571	247	169	229
572	253	177	235
573	255	181	237
574	254	181	236
575	255	184	239
576	255	186	239
577	255	183	233
578	252	182	232
579	255	185	238
580	254	180	237
581	249	172	230
582	246	170	228
583	240	166	224
584	238	167	224
585	238	168	225
586	242	173	229
587	244	175	228
588	252	184	232
589	255	190	232
590	249	187	228
591	248	189	232
592	255	201	242
593	255	205	241
594	251	206	236
595	245	206	231
596	0	0	0
597	0	0	0
598	253	203	242
599	255	200	242
600	252	192	237
601	252	186	236
602	253	184	239
603	255	187	244
604	255	180	239
605	249	170	232
606	251	171	233
607	255	179	239
608	255	175	235
609	255	175	235
610	255	176	236
611	255	177	235
612	254	173	229
613	254	174	230
614	255	177	234
615	247	169	229
616	246	169	228
617	245	168	227
618	245	170	229
619	247	174	232
620	240	166	228
621	240	168	230
622	232	160	221
623	235	166	222
624	245	181	228
625	243	181	227
626	245	183	231
627	255	195	241
628	249	192	235
629	237	190	227
630	243	210	235
631	0	0	0
632	0	0	0
633	252	199	239
634	252	193	239
635	250	185	236
636	251	182	237
637	251	180	239
638	250	174	237
639	246	167	231
640	251	171	234
641	254	172	236
642	254	170	235
643	252	166	231
644	254	168	232
645	255	169	233
646	254	167	231
647	251	163	227
648	253	166	229
649	253	168	229
650	248	167	227
651	247	168	228
652	249	172	231
653	249	173	232
654	243	167	229
655	235	159	224
656	229	154	222
657	222	147	218
658	235	164	229
659	245	179	236
660	241	177	232
661	242	176	233
662	247	183	237
663	241	180	232
664	244	200	239
665	251	219	246
666	0	0	0
667	0	0	0
668	255	200	242
669	255	195	242
670	249	182	237
671	250	180	239
672	255	188	247
673	255	183	244
674	253	173	238
675	255	178	242
676	254	169	237
677	254	167	235
678	255	168	234
679	255	170	235
680	253	163	231
681	252	161	230
682	253	162	231
683	251	164	230
684	248	162	227
685	246	163	226
686	246	164	228
687	249	168	232
688	238	156	225
689	226	147	218
690	222	146	218
691	219	143	218
692	231	157	230
693	250	178	245
694	250	178	242
695	240	172	234
696	240	176	235
697	241	179	235
698	241	184	236
699	251	206	247
700	251	214	245
701	0	0	0
702	0	0	0
703	255	199	244
704	251	189	240
705	246	177	237
706	255	188	247
707	255	196	252
708	255	188	248
709	255	180	244
710	255	175	243
711	255	167	238
712	255	168	238
713	255	169	238
714	254	162	232
715	250	154	228
716	252	158	231
717	252	159	232
718	250	159	232
719	247	158	229
720	244	157	229
721	245	159	232
722	240	152	230
723	228	140	222
724	217	137	219
725	211	134	215
726	219	147	223
727	232	162	234
728	243	168	239
729	242	167	235
730	237	168	232
731	236	172	232
732	241	181	237
733	241	186	238
734	243	196	241
735	0	0	0
736	0	0	0
737	0	0	0
738	255	206	250
739	255	195	246
740	248	180	241
741	255	190	250
742	255	189	248
743	255	181	244
744	251	166	237
745	252	162	237
746	251	158	234
747	253	160	235
748	255	161	235
749	251	154	230
750	252	155	232
751	253	157	235
752	251	155	234
753	251	157	235
754	244	151	229
755	240	150	228
756	243	157	235
757	239	150	233
758	224	136	225
759	211	131	220
760	210	138	222
761	218	151	228
762	233	168	240
763	244	174	243
764	239	166	235
765	234	167	232
766	238	177	235
767	247	188	242
768	238	181	236
769	0	0	0
770	0	0	0
771	0	0	0
772	0	0	0
773	255	209	252
774	253	193	244
775	245	178	238
776	251	180	243
777	254	179	242
778	248	165	235
779	242	151	229
780	245	151	232
781	244	147	228
782	247	149	229
783	248	150	230
784	249	151	231
785	251	152	234
786	248	149	233
787	246	147	232
788	244	144	230
789	236	139	225
790	235	143	228
791	236	149	233
792	226	138	227
793	212	124	218
794	210	133	223
795	212	142	228
796	225	160	239
797	238	176	248
798	239	172	243
799	233	164	234
800	237	174	238
801	243	184	242
802	246	185	242
803	237	179	238
804	0	0	0
805	0	0	0
806	0	0	0
807	253	206	246
808	254	203	248
809	248	188	241
810	255	192	248
811	255	195	252
812	255	180	244
813	250	167	239
814	244	153	234
815	248	154	237
816	252	158	238
817	255	160	239
818	252	154	235
819	254	155	237
820	255	162	242
821	255	159	241
822	255	157	241
823	250	153	239
824	242	148	234
825	238	151	236
826	221	135	225
827	205	121	215
828	211	134	225
829	219	148	235
830	224	154	240
831	240	174	252
832	232	164	242
833	221	154	231
834	225	160	233
835	238	175	242
836	235	170	236
837	236	170	234
838	238	179	239
839	0	0	0
840	0	0	0
841	240	198	238
842	243	197	241
843	245	194	242
844	251	197	247
845	255	201	251
846	252	186	244
847	247	172	240
848	245	162	238
849	239	148	232
850	248	157	240
851	253	161	243
852	255	160	242
853	253	155	240
854	255	166	247
855	255	172	248
856	255	168	246
857	255	166	247
858	255	159	243
859	246	153	239
860	227	137	228
861	208	120	218
862	211	133	227
863	216	146	235
864	222	153	239
865	227	159	243
866	228	156	241
867	218	146	230
868	215	149	230
869	220	157	236
870	226	159	237
871	223	154	230
872	234	170	238
873	235	178	238
874	0	0	0
875	0	0	0
876	252	221	251
877	255	219	255
878	252	209	251
879	255	212	255
880	255	208	254
881	253	193	248
882	249	178	244
883	247	169	243
884	251	169	246
885	255	178	254
886	255	172	250
887	255	172	252
888	250	151	241
889	255	163	249
890	252	149	235
891	249	144	231
892	255	154	241
893	249	148	238
894	247	152	241
895	228	136	230
896	218	131	229
897	222	145	239
898	225	156	244
899	227	161	245
900	224	158	243
901	220	153	239
902	213	146	232
903	215	153	236
904	220	160	242
905	225	161	242
906	224	160	239
907	230	174	243
908	223	169	232
909	0	0	0
910	0	0	0
911	0	0	0
912	253	226	252
913	249	215	249
914	250	210	249
915	253	207	251
916	249	193	246
917	243	178	239
918	250	182	247
919	254	183	251
920	255	178	250
921	253	172	246
922	245	154	238
923	231	133	228
924	226	125	224
925	217	113	213
926	231	126	223
927	240	137	233
928	244	143	238
929	243	147	239
930	232	142	236
931	222	138	234
932	227	152	244
933	230	162	248
934	224	157	243
935	221	154	241
936	219	151	240
937	213	146	236
938	213	152	239
939	216	157	242
940	222	162	243
941	220	160	240
942	216	162	237
943	0	0	0
944	0	0	0
945	0	0	0
946	0	0	0
947	0	0	0
948	0	0	0
949	0	0	0
950	255	227	255
951	255	213	255
952	245	190	243
953	251	194	249
954	255	196	255
955	255	193	255
956	255	182	250
957	244	164	242
958	232	152	237
959	216	138	229
960	220	142	231
961	245	162	248
962	252	162	251
963	255	170	255
964	246	153	244
965	235	149	241
966	229	149	242
967	235	163	252
968	229	160	248
969	222	155	243
970	228	164	249
971	231	164	251
972	221	154	245
973	217	157	245
974	218	162	245
975	221	165	245
976	220	167	244
977	218	170	241
978	0	0	0
979	0	0	0
980	0	0	0
981	0	0	0
982	0	0	0
983	0	0	0
984	0	0	0
985	0	0	0
986	255	221	252
987	244	199	243
988	253	206	253
989	255	209	255
990	255	201	255
991	255	191	253
992	249	181	249
993	237	168	245
994	228	167	245
995	232	171	249
996	251	179	255
997	255	178	255
998	253	168	251
999	240	153	242
1000	236	156	245
1001	231	156	247
1002	224	154	245
1003	219	152	242
1004	222	158	245
1005	229	167	251
1006	227	162	249
1007	217	151	241
1008	214	156	243
1009	214	161	243
1010	219	167	245
1011	219	169	243
1012	0	0	0
1013	0	0	0
1014	0	0	0
1015	0	0	0
1016	0	0	0
1017	0	0	0
1018	0	0	0
1019	0	0	0
1020	0	0	0
1021	0	0	0
1022	252	219	251
1023	255	226	255
1024	255	211	255
1025	254	202	253
1026	251	193	249
1027	248	185	247
1028	250	187	254
1029	249	190	255
1030	251	191	255
1031	255	194	255
1032	254	179	253
1033	245	167	246
1034	242	166	248
1035	241	171	253
1036	223	155	243
1037	214	152	240
1038	227	175	255
1039	236	183	255
1040	230	175	254
1041	223	167	249
1042	216	161	244
1043	217	168	247
1044	225	180	253
1045	0	0	0
1046	0	0	0
1047	0	0	0
1048	0	0	0
1049	0	0	0
1050	0	0	0
1051	0	0	0
1052	0	0	0
1053	0	0	0
1054	0	0	0
1055	0	0	0
1056	0	0	0
1057	0	0	0
1058	255	225	255
1059	249	210	249
1060	248	203	247
1061	246	194	245
1062	255	201	254
1063	255	205	255
1064	255	205	255
1065	255	206	255
1066	255	195	255
1067	250	180	249
1068	250	181	251
1069	246	180	254
1070	234	169	248
1071	217	153	238
1072	228	177	254
1073	243	201	255
1074	239	191	255
1075	231	181	255
1076	223	176	250
1077	214	169	244
1078	218	179	248
1079	0	0	0
1080	0	0	0
1081	0	0	0
1082	0	0	0
1083	0	0	0
1084	0	0	0
1085	0	0	0
1086	0	0	0
1087	0	0	0
1088	0	0	0
1089	0	0	0
1090	0	0	0
1091	0	0	0
1092	0	0	0
1093	0	0	0
1094	0	0	0
1095	253	220	253
1096	252	214	252
1097	255	220	255
1098	254	207	254
1099	255	208	255
1100	255	209	255
1101	255	197	254
1102	249	184	248
1103	249	186	252
1104	242	180	250
1105	226	168	242
1106	220	165	242
1107	241	194	255
1108	243	197	255
1109	233	185	255
1110	227	181	251
1111	214	173	243
1112	209	175	240
1113	0	0	0
1114	0	0	0
1115	0	0	0
1116	0	0	0
1117	0	0	0
1118	0	0	0
1119	0	0	0
1120	0	0	0
1121	0	0	0
1122	0	0	0
1123	0	0	0
1124	0	0	0
1125	0	0	0
1126	0	0	0
1127	0	0	0
1128	0	0	0
1129	0	0	0
1130	0	0	0
1131	255	232	255
1132	252	219	252
1133	245	206	245
1134	250	207	249
1135	254	208	251
1136	251	198	248
1137	245	186	244
1138	244	185	247
1139	236	179	245
1140	227	177	244
1141	222	174	243
1142	229	183	250
1143	230	185	251
1144	223	180	246
1145	215	176	241
1146	209	178	238
1147	0	0	0
1148	0	0	0
1149	0	0	0
1150	0	0	0
1151	0	0	0
1152	0	0	0
1153	0	0	0
1154	0	0	0
1155	0	0	0
1156	0	0	0
1157	0	0	0
1158	0	0	0
1159	0	0	0
1160	0	0	0
1161	0	0	0
1162	0	0	0
1163	0	0	0
1164	0	0	0
1165	0	0	0
1166	0	0	0
1167	0	0	0
1168	0	0	0
1169	0	0	0
1170	255	223	255
1171	255	213	252
1172	245	195	245
1173	0	0	0
1174	249	203	255
1175	241	202	255
1176	224	184	244
1177	225	188	247
1178	225	194	249
1179	214	187	241
1180	215	194	243
1181	0	0	0
1182	0	0	0
1183	0	0	0
1184	0	0	0
1185	0	0	0
1186	0	0	0
1187	0	0	0
1188	0	0	0
1189	0	0	0
1190	0	0	0
1191	0	0	0
1192	0	0	0
1193	0	0	0
1194	0	0	0
1195	0	0	0
1196	0	0	0
1197	0	0	0
1198	0	0	0
1199	0	0	0
1200	0	0	0
1201	0	0	0
1202	0	0	0
1203	0	0	0
1204	0	0	0
1205	0	0	0
1206	254	221	253
1207	0	0	0
1208	0	0	0
1209	0	0	0
1210	240	206	251
1211	224	188	239
1212	228	198	246
1213	226	203	248
1214	226	211	250
1215	0	0	0
1216	0	0	0
1217	0	0	0
1218	0	0	0
1219	0	0	0
1220	0	0	0
1221	0	0	0
1222	0	0	0
1223	0	0	0
1224	0	0	0
1225	0	0	0
