 	R	G	B
1	0	0	0
2	0	0	0
3	0	0	0
4	0	0	0
5	0	0	0
6	0	0	0
7	0	0	0
8	0	0	0
9	0	0	0
10	0	0	0
11	0	0	0
12	255	234	242
13	255	233	241
14	255	233	241
15	255	233	242
16	255	234	244
17	255	235	247
18	0	0	0
19	0	0	0
20	0	0	0
21	0	0	0
22	0	0	0
23	0	0	0
24	0	0	0
25	0	0	0
26	0	0	0
27	0	0	0
28	0	0	0
29	0	0	0
30	0	0	0
31	0	0	0
32	0	0	0
33	0	0	0
34	255	230	241
35	255	230	240
36	253	222	233
37	254	222	234
38	254	223	236
39	254	223	237
40	255	225	239
41	249	216	234
42	0	0	0
43	0	0	0
44	0	0	0
45	0	0	0
46	0	0	0
47	0	0	0
48	0	0	0
49	0	0	0
50	0	0	0
51	0	0	0
52	255	230	245
53	0	0	0
54	0	0	0
55	0	0	0
56	255	228	240
57	255	225	237
58	252	218	232
59	248	211	228
60	248	211	229
61	249	212	229
62	252	216	232
63	253	218	235
64	255	226	241
65	255	233	245
66	0	0	0
67	0	0	0
68	0	0	0
69	0	0	0
70	0	0	0
71	0	0	0
72	0	0	0
73	0	0	0
74	255	234	247
75	255	235	246
76	253	222	237
77	0	0	0
78	255	229	241
79	255	227	239
80	252	216	230
81	249	210	227
82	255	220	237
83	255	221	238
84	254	216	233
85	255	220	236
86	253	215	234
87	255	223	241
88	251	214	234
89	0	0	0
90	0	0	0
91	0	0	0
92	0	0	0
93	0	0	0
94	0	0	0
95	0	0	0
96	0	0	0
97	255	236	246
98	254	226	239
99	248	215	230
100	254	222	236
101	255	229	242
102	255	220	236
103	249	209	227
104	255	220	236
105	255	231	247
106	255	225	243
107	255	220	237
108	255	214	234
109	251	209	233
110	249	207	233
111	243	199	230
112	253	217	242
113	0	0	0
114	0	0	0
115	0	0	0
116	0	0	0
117	0	0	0
118	0	0	0
119	0	0	0
120	255	237	246
121	255	228	240
122	250	216	231
123	255	224	238
124	255	223	239
125	254	214	233
126	250	206	227
127	255	217	236
128	255	213	235
129	252	208	231
130	255	216	236
131	254	212	233
132	255	213	236
133	254	210	238
134	248	203	236
135	255	221	249
136	251	217	242
137	0	0	0
138	0	0	0
139	0	0	0
140	0	0	0
141	0	0	0
142	0	0	0
143	255	238	246
144	255	229	240
145	252	217	232
146	254	217	233
147	255	215	233
148	254	210	232
149	250	204	228
150	251	203	228
151	247	197	223
152	253	206	230
153	255	216	238
154	255	215	237
155	255	216	238
156	255	211	236
157	250	203	234
158	251	208	239
159	242	203	233
160	0	0	0
161	0	0	0
162	0	0	0
163	0	0	0
164	0	0	0
165	0	0	0
166	0	0	0
167	255	223	236
168	254	217	233
169	255	217	235
170	255	214	234
171	255	210	233
172	252	201	230
173	252	200	229
174	252	201	227
175	255	210	233
176	255	207	233
177	255	205	232
178	255	211	234
179	254	205	231
180	250	202	232
181	249	205	236
182	242	205	234
183	0	0	0
184	0	0	0
185	0	0	0
186	0	0	0
187	0	0	0
188	0	0	0
189	255	228	239
190	255	224	239
191	255	219	238
192	255	218	238
193	255	216	238
194	255	208	234
195	253	199	231
196	255	204	235
197	255	204	232
198	255	202	230
199	254	199	230
200	255	205	233
201	255	209	232
202	255	207	231
203	253	204	233
204	254	210	239
205	248	210	239
206	252	227	247
207	0	0	0
208	0	0	0
209	0	0	0
210	0	0	0
211	255	231	242
212	254	220	235
213	255	217	235
214	252	208	231
215	255	207	233
216	255	206	232
217	252	197	227
218	254	196	230
219	255	202	235
220	254	194	227
221	253	193	226
222	255	195	230
223	255	200	234
224	253	194	226
225	249	191	224
226	249	195	229
227	251	201	237
228	249	206	239
229	254	224	248
230	254	233	248
231	0	0	0
232	0	0	0
233	0	0	0
234	0	0	0
235	249	210	229
236	249	204	226
237	246	195	224
238	250	197	227
239	252	196	225
240	254	196	226
241	255	194	227
242	255	191	227
243	251	185	222
244	254	188	226
245	255	190	230
246	254	189	230
247	250	184	226
248	251	188	231
249	250	191	236
250	253	200	243
251	249	202	241
252	249	212	244
253	0	0	0
254	0	0	0
255	0	0	0
256	0	0	0
257	0	0	0
258	254	214	231
259	253	208	229
260	250	197	226
261	254	199	230
262	255	197	229
263	255	197	230
264	250	182	221
265	250	179	221
266	253	182	225
267	255	186	230
268	255	183	229
269	253	181	230
270	250	179	229
271	252	183	234
272	253	191	242
273	253	197	246
274	246	198	241
275	0	0	0
276	0	0	0
277	0	0	0
278	0	0	0
279	0	0	0
280	0	0	0
281	252	212	228
282	250	203	224
283	248	193	222
284	253	195	229
285	255	194	230
286	250	182	225
287	242	167	216
288	250	175	224
289	253	178	228
290	251	176	227
291	249	172	226
292	250	174	229
293	247	171	227
294	251	181	235
295	251	187	240
296	247	191	241
297	240	191	237
298	0	0	0
299	0	0	0
300	0	0	0
301	0	0	0
302	0	0	0
303	0	0	0
304	255	219	232
305	255	211	230
306	252	198	226
307	255	201	234
308	255	191	232
309	250	180	227
310	251	177	227
311	255	186	235
312	253	175	229
313	248	171	227
314	248	171	229
315	250	174	233
316	243	166	227
317	245	174	233
318	245	182	238
319	241	185	239
320	239	194	240
321	0	0	0
322	0	0	0
323	0	0	0
324	0	0	0
325	0	0	0
326	255	224	237
327	255	227	241
328	255	216	236
329	255	203	232
330	255	198	233
331	254	188	232
332	255	188	234
333	255	185	234
334	255	179	231
335	249	168	225
336	248	169	228
337	248	170	231
338	247	168	233
339	238	160	227
340	241	171	235
341	241	179	240
342	244	191	246
343	242	199	246
344	0	0	0
345	0	0	0
346	0	0	0
347	0	0	0
348	255	229	240
349	255	232	244
350	255	221	239
351	255	209	233
352	254	197	229
353	255	192	230
354	252	182	229
355	254	182	233
356	251	174	228
357	248	168	226
358	246	164	226
359	248	167	230
360	250	171	234
361	247	168	234
362	238	160	230
363	237	169	236
364	240	180	243
365	246	194	250
366	243	199	247
367	0	0	0
368	0	0	0
369	0	0	0
370	0	0	0
371	255	237	245
372	255	225	239
373	255	214	236
374	254	203	232
375	251	191	226
376	252	185	227
377	249	176	227
378	249	172	228
379	244	164	225
380	244	163	227
381	243	160	228
382	249	167	234
383	250	169	235
384	246	167	235
385	237	159	231
386	240	173	241
387	243	185	247
388	249	195	251
389	245	199	248
390	0	0	0
391	0	0	0
392	0	0	0
393	0	0	0
394	255	231	242
395	255	219	236
396	253	207	233
397	251	196	229
398	255	194	230
399	255	188	230
400	250	175	228
401	251	172	231
402	248	168	230
403	243	164	230
404	244	164	233
405	252	172	241
406	243	159	231
407	237	156	229
408	234	156	232
409	242	173	244
410	244	181	247
411	249	191	250
412	246	196	247
413	0	0	0
414	0	0	0
415	0	0	0
416	0	0	0
417	254	223	239
418	251	211	234
419	247	198	228
420	251	196	230
421	255	194	230
422	252	183	227
423	247	170	226
424	251	172	233
425	248	168	231
426	242	164	229
427	242	164	233
428	242	159	233
429	234	148	226
430	235	154	232
431	231	154	233
432	234	165	240
433	236	172	241
434	241	182	244
435	239	188	243
436	0	0	0
437	0	0	0
438	0	0	0
439	0	0	0
440	255	226	242
441	254	215	238
442	252	204	233
443	255	202	234
444	255	196	232
445	253	184	229
446	249	173	229
447	253	174	235
448	248	169	231
449	242	166	229
450	246	170	236
451	245	166	237
452	235	151	230
453	237	158	238
454	228	153	235
455	225	160	237
456	231	176	244
457	237	187	247
458	238	193	246
459	0	0	0
460	0	0	0
461	0	0	0
462	0	0	0
463	255	226	240
464	255	219	239
465	255	209	236
466	255	205	237
467	255	199	236
468	255	187	233
469	251	175	233
470	255	176	237
471	251	171	232
472	253	176	236
473	255	180	240
474	250	169	238
475	239	155	234
476	238	158	240
477	227	152	235
478	229	169	244
479	234	184	250
480	235	190	249
481	0	0	0
482	0	0	0
483	0	0	0
484	0	0	0
485	0	0	0
486	255	226	237
487	255	218	236
488	251	202	230
489	254	199	232
490	255	195	233
491	253	183	230
492	255	180	235
493	255	181	239
494	255	175	235
495	255	182	241
496	250	160	228
497	241	148	225
498	240	151	232
499	234	152	236
500	227	153	235
501	234	171	246
502	234	182	249
503	0	0	0
504	0	0	0
505	0	0	0
506	0	0	0
507	0	0	0
508	0	0	0
509	255	225	235
510	253	212	229
511	248	196	223
512	253	196	228
513	255	193	229
514	255	190	232
515	255	186	236
516	255	184	239
517	255	178	235
518	255	162	228
519	242	141	220
520	245	148	229
521	242	149	232
522	237	154	235
523	230	154	236
524	238	173	248
525	238	184	250
526	0	0	0
527	0	0	0
528	0	0	0
529	0	0	0
530	0	0	0
531	0	0	0
532	255	226	234
533	255	214	229
534	249	197	224
535	255	197	229
536	255	191	229
537	255	189	232
538	255	178	231
539	255	176	234
540	255	165	228
541	249	149	222
542	241	137	221
543	244	143	229
544	244	151	234
545	241	156	238
546	232	152	236
547	240	170	248
548	235	173	244
549	0	0	0
550	0	0	0
551	0	0	0
552	0	0	0
553	0	0	0
554	0	0	0
555	255	228	235
556	255	215	230
557	252	199	227
558	255	199	235
559	255	194	237
560	255	184	235
561	255	173	232
562	255	165	231
563	253	154	228
564	251	148	228
565	244	135	225
566	250	148	236
567	250	155	239
568	244	154	239
569	235	150	238
570	234	159	243
571	229	161	239
572	0	0	0
573	0	0	0
574	0	0	0
575	0	0	0
576	0	0	0
577	0	0	0
578	254	220	230
579	253	207	227
580	250	193	226
581	255	193	235
582	255	184	233
583	254	174	231
584	255	171	234
585	255	163	234
586	246	140	224
587	244	132	224
588	250	139	232
589	255	152	243
590	249	145	236
591	243	144	235
592	242	153	242
593	236	159	244
594	228	162	241
595	0	0	0
596	0	0	0
597	0	0	0
598	0	0	0
599	0	0	0
600	0	0	0
601	250	212	228
602	251	201	227
603	249	187	227
604	252	183	230
605	251	173	227
606	255	170	230
607	255	167	233
608	250	148	226
609	238	125	219
610	250	137	233
611	254	142	238
612	251	139	237
613	242	132	230
614	246	145	238
615	244	154	242
616	239	161	244
617	230	163	242
618	0	0	0
619	0	0	0
620	0	0	0
621	0	0	0
622	0	0	0
623	0	0	0
624	253	214	233
625	255	204	233
626	249	185	228
627	253	180	231
628	253	171	230
629	255	169	233
630	254	156	229
631	245	137	222
632	245	130	226
633	255	142	240
634	253	140	239
635	247	135	235
636	246	139	237
637	250	152	244
638	245	154	244
639	245	163	247
640	231	160	240
641	0	0	0
642	0	0	0
643	0	0	0
644	0	0	0
645	0	0	0
646	0	0	0
647	252	212	234
648	252	198	231
649	246	178	225
650	251	175	229
651	252	167	231
652	251	156	229
653	248	144	226
654	253	143	232
655	251	136	233
656	254	139	238
657	251	136	237
658	249	140	239
659	247	143	240
660	244	147	242
661	241	150	243
662	242	158	247
663	229	154	237
664	0	0	0
665	0	0	0
666	0	0	0
667	0	0	0
668	0	0	0
669	0	0	0
670	253	213	236
671	253	199	234
672	248	179	228
673	253	176	234
674	255	169	237
675	255	159	236
676	250	143	230
677	254	142	235
678	243	124	225
679	244	126	229
680	250	137	238
681	248	140	240
682	251	152	247
683	246	155	247
684	241	155	247
685	244	164	251
686	234	161	242
687	0	0	0
688	0	0	0
689	0	0	0
690	0	0	0
691	0	0	0
692	255	239	247
693	254	213	236
694	254	198	234
695	249	179	231
696	254	175	237
697	255	167	239
698	252	153	236
699	245	136	229
700	242	126	226
701	229	107	213
702	242	125	228
703	248	138	239
704	254	151	248
705	255	163	254
706	249	161	250
707	244	161	250
708	245	168	252
709	235	166	243
710	0	0	0
711	0	0	0
712	0	0	0
713	0	0	0
714	255	253	251
715	255	228	240
716	248	203	229
717	248	188	228
718	252	183	235
719	255	178	241
720	253	164	239
721	250	150	236
722	251	146	238
723	244	134	233
724	232	117	222
725	245	136	238
726	247	139	242
727	255	154	251
728	255	163	254
729	252	162	251
730	247	161	249
731	244	167	249
732	241	177	249
733	0	0	0
734	0	0	0
735	0	0	0
736	0	0	0
737	255	251	253
738	249	218	235
739	241	193	223
740	248	190	230
741	252	184	235
742	253	173	237
743	249	158	234
744	254	157	241
745	255	153	244
746	248	142	240
747	236	126	233
748	243	137	243
749	243	139	243
750	252	152	250
751	255	160	251
752	251	160	248
753	244	160	245
754	246	175	251
755	242	185	249
756	0	0	0
757	0	0	0
758	0	0	0
759	0	0	0
760	255	248	252
761	248	216	234
762	252	210	235
763	255	206	242
764	248	180	235
765	250	170	237
766	250	161	238
767	255	159	243
768	253	153	243
769	248	143	242
770	243	137	242
771	247	146	250
772	243	143	246
773	253	156	252
774	255	164	253
775	249	164	249
776	242	165	246
777	243	180	251
778	239	189	249
779	0	0	0
780	0	0	0
781	0	0	0
782	0	0	0
783	255	244	249
784	255	230	242
785	255	224	244
786	254	201	239
787	246	177	238
788	255	176	248
789	254	167	246
790	255	162	247
791	253	154	246
792	253	152	248
793	247	145	246
794	242	145	246
795	237	143	242
796	249	157	251
797	252	166	253
798	248	169	251
799	241	170	248
800	242	185	252
801	240	195	252
802	0	0	0
803	0	0	0
804	0	0	0
805	0	0	0
806	255	246	250
807	255	233	245
808	255	224	245
809	255	202	241
810	245	175	239
811	252	174	249
812	250	164	246
813	251	158	246
814	251	154	245
815	251	152	247
816	249	153	248
817	242	151	247
818	244	159	251
819	255	174	255
820	247	168	251
821	242	171	249
822	242	180	252
823	248	197	255
824	242	198	253
825	0	0	0
826	0	0	0
827	0	0	0
828	0	0	0
829	255	251	255
830	255	236	250
831	255	227	251
832	254	200	243
833	241	171	234
834	243	167	240
835	242	158	241
836	249	160	247
837	249	155	246
838	255	162	252
839	253	162	253
840	250	168	255
841	251	175	255
842	249	174	255
843	241	168	248
844	240	177	250
845	240	186	252
846	239	191	250
847	0	0	0
848	0	0	0
849	0	0	0
850	0	0	0
851	0	0	0
852	255	251	255
853	255	236	251
854	255	216	245
855	245	188	235
856	243	179	238
857	241	172	242
858	246	172	248
859	255	175	255
860	248	158	246
861	253	163	251
862	252	166	252
863	251	173	255
864	245	171	251
865	239	168	247
866	0	0	0
867	0	0	0
868	0	0	0
869	0	0	0
870	0	0	0
871	0	0	0
872	0	0	0
873	0	0	0
874	0	0	0
875	255	251	255
876	255	228	245
877	249	206	236
878	253	201	242
879	251	191	246
880	249	188	251
881	251	185	254
882	252	175	251
883	243	157	241
884	251	167	249
885	250	169	250
886	244	169	248
887	237	167	244
888	0	0	0
889	0	0	0
890	0	0	0
891	0	0	0
892	0	0	0
893	0	0	0
894	0	0	0
895	0	0	0
896	0	0	0
897	0	0	0
898	255	249	255
899	254	224	244
900	246	202	235
901	249	196	240
902	246	186	242
903	244	182	245
904	251	189	254
905	248	176	249
906	247	170	246
907	255	180	255
908	253	179	253
909	247	178	250
910	0	0	0
911	0	0	0
912	0	0	0
913	0	0	0
914	0	0	0
915	0	0	0
916	0	0	0
917	0	0	0
918	0	0	0
919	0	0	0
920	0	0	0
921	0	0	0
922	251	220	241
923	244	198	236
924	248	194	242
925	243	183	241
926	249	190	250
927	255	196	255
928	255	192	255
929	253	185	254
930	254	187	255
931	249	185	251
932	0	0	0
933	0	0	0
934	0	0	0
935	0	0	0
936	0	0	0
937	0	0	0
938	0	0	0
939	0	0	0
940	0	0	0
941	0	0	0
942	0	0	0
943	0	0	0
944	0	0	0
945	0	0	0
946	252	212	247
947	255	208	252
948	248	191	246
949	255	199	255
950	254	194	255
951	252	189	253
952	245	182	248
953	0	0	0
954	0	0	0
955	0	0	0
956	0	0	0
957	0	0	0
958	0	0	0
959	0	0	0
960	0	0	0
961	0	0	0
962	0	0	0
963	0	0	0
964	0	0	0
965	0	0	0
966	0	0	0
967	0	0	0
968	0	0	0
969	255	224	254
970	255	212	252
971	248	196	246
972	250	195	250
973	247	190	249
974	247	188	250
975	239	181	244
976	0	0	0
977	0	0	0
978	0	0	0
979	0	0	0
980	0	0	0
981	0	0	0
982	0	0	0
983	0	0	0
984	0	0	0
985	0	0	0
986	0	0	0
987	0	0	0
988	0	0	0
989	0	0	0
990	0	0	0
991	0	0	0
992	255	226	253
993	252	211	249
994	245	198	246
995	244	196	248
996	244	196	250
997	245	195	250
998	240	191	247
999	0	0	0
1000	0	0	0
1001	0	0	0
1002	0	0	0
1003	0	0	0
1004	0	0	0
1005	0	0	0
1006	0	0	0
1007	0	0	0
1008	0	0	0
1009	0	0	0
1010	0	0	0
1011	0	0	0
1012	0	0	0
1013	0	0	0
1014	0	0	0
1015	0	0	0
1016	254	218	252
1017	0	0	0
1018	0	0	0
1019	245	203	251
1020	245	204	252
1021	0	0	0
1022	0	0	0
1023	0	0	0
1024	0	0	0
1025	0	0	0
1026	0	0	0
1027	0	0	0
1028	0	0	0
1029	0	0	0
1030	0	0	0
1031	0	0	0
1032	0	0	0
1033	0	0	0
1034	0	0	0
1035	0	0	0
