 	R	G	B
1	0	0	0
2	0	0	0
3	0	0	0
4	0	0	0
5	0	0	0
6	0	0	0
7	255	219	231
8	0	0	0
9	0	0	0
10	0	0	0
11	0	0	0
12	0	0	0
13	0	0	0
14	0	0	0
15	0	0	0
16	0	0	0
17	0	0	0
18	0	0	0
19	0	0	0
20	0	0	0
21	0	0	0
22	0	0	0
23	0	0	0
24	0	0	0
25	0	0	0
26	0	0	0
27	0	0	0
28	0	0	0
29	0	0	0
30	0	0	0
31	0	0	0
32	0	0	0
33	0	0	0
34	0	0	0
35	0	0	0
36	0	0	0
37	0	0	0
38	0	0	0
39	0	0	0
40	0	0	0
41	0	0	0
42	0	0	0
43	0	0	0
44	0	0	0
45	0	0	0
46	0	0	0
47	0	0	0
48	0	0	0
49	0	0	0
50	0	0	0
51	0	0	0
52	0	0	0
53	0	0	0
54	0	0	0
55	0	0	0
56	0	0	0
57	0	0	0
58	0	0	0
59	0	0	0
60	0	0	0
61	0	0	0
62	0	0	0
63	0	0	0
64	0	0	0
65	0	0	0
66	0	0	0
67	0	0	0
68	0	0	0
69	0	0	0
70	0	0	0
71	0	0	0
72	0	0	0
73	0	0	0
74	0	0	0
75	0	0	0
76	0	0	0
77	0	0	0
78	0	0	0
79	0	0	0
80	0	0	0
81	0	0	0
82	0	0	0
83	0	0	0
84	0	0	0
85	0	0	0
86	0	0	0
87	0	0	0
88	0	0	0
89	0	0	0
90	0	0	0
91	0	0	0
92	0	0	0
93	0	0	0
94	0	0	0
95	0	0	0
96	0	0	0
97	0	0	0
98	255	226	233
99	255	214	230
100	251	199	225
101	248	189	223
102	240	172	214
103	246	175	220
104	244	171	219
105	253	181	226
106	253	182	224
107	255	190	227
108	255	197	229
109	255	195	225
110	254	193	220
111	255	209	228
112	255	227	235
113	255	226	231
114	0	0	0
115	0	0	0
116	0	0	0
117	0	0	0
118	0	0	0
119	0	0	0
120	0	0	0
121	0	0	0
122	0	0	0
123	0	0	0
124	0	0	0
125	0	0	0
126	0	0	0
127	0	0	0
128	0	0	0
129	0	0	0
130	0	0	0
131	0	0	0
132	0	0	0
133	0	0	0
134	0	0	0
135	0	0	0
136	0	0	0
137	0	0	0
138	0	0	0
139	0	0	0
140	0	0	0
141	0	0	0
142	0	0	0
143	0	0	0
144	0	0	0
145	0	0	0
146	0	0	0
147	0	0	0
148	0	0	0
149	0	0	0
150	0	0	0
151	0	0	0
152	0	0	0
153	0	0	0
154	0	0	0
155	0	0	0
156	0	0	0
157	0	0	0
158	0	0	0
159	0	0	0
160	0	0	0
161	0	0	0
162	0	0	0
163	0	0	0
164	0	0	0
165	0	0	0
166	0	0	0
167	0	0	0
168	0	0	0
169	0	0	0
170	0	0	0
171	0	0	0
172	0	0	0
173	0	0	0
174	0	0	0
175	0	0	0
176	0	0	0
177	0	0	0
178	0	0	0
179	0	0	0
180	0	0	0
181	0	0	0
182	0	0	0
183	0	0	0
184	0	0	0
185	0	0	0
186	0	0	0
187	0	0	0
188	0	0	0
189	0	0	0
190	255	222	237
191	255	213	233
192	255	204	232
193	246	180	223
194	239	168	221
195	240	164	223
196	249	170	232
197	242	155	225
198	250	164	233
199	237	147	219
200	241	155	221
201	249	167	224
202	249	166	220
203	247	165	216
204	255	181	222
205	255	193	224
206	254	192	217
207	254	198	220
208	0	0	0
209	0	0	0
210	0	0	0
211	0	0	0
212	0	0	0
213	0	0	0
214	0	0	0
215	0	0	0
216	0	0	0
217	0	0	0
218	0	0	0
219	0	0	0
220	0	0	0
221	0	0	0
222	0	0	0
223	0	0	0
224	0	0	0
225	0	0	0
226	0	0	0
227	0	0	0
228	0	0	0
229	0	0	0
230	0	0	0
231	0	0	0
232	0	0	0
233	0	0	0
234	0	0	0
235	0	0	0
236	0	0	0
237	0	0	0
238	0	0	0
239	0	0	0
240	0	0	0
241	0	0	0
242	0	0	0
243	0	0	0
244	0	0	0
245	0	0	0
246	0	0	0
247	0	0	0
248	0	0	0
249	0	0	0
250	0	0	0
251	0	0	0
252	0	0	0
253	0	0	0
254	0	0	0
255	0	0	0
256	0	0	0
257	0	0	0
258	0	0	0
259	0	0	0
260	0	0	0
261	0	0	0
262	0	0	0
263	0	0	0
264	0	0	0
265	0	0	0
266	0	0	0
267	0	0	0
268	0	0	0
269	0	0	0
270	0	0	0
271	0	0	0
272	0	0	0
273	0	0	0
274	0	0	0
275	0	0	0
276	0	0	0
277	0	0	0
278	0	0	0
279	0	0	0
280	0	0	0
281	252	226	237
282	249	214	232
283	247	204	231
284	249	197	233
285	243	176	226
286	231	153	218
287	230	150	222
288	229	145	223
289	226	135	221
290	218	120	214
291	214	112	211
292	202	96	201
293	214	113	211
294	222	125	213
295	224	127	210
296	223	126	207
297	235	144	214
298	240	156	214
299	242	163	212
300	242	168	210
301	253	190	221
302	255	213	233
303	255	208	227
304	255	210	228
305	255	209	227
306	252	207	225
307	255	217	230
308	255	228	235
309	255	234	237
310	255	240	239
311	255	238	235
312	255	241	237
313	255	245	240
314	0	0	0
315	0	0	0
316	0	0	0
317	0	0	0
318	0	0	0
319	0	0	0
320	0	0	0
321	0	0	0
322	0	0	0
323	0	0	0
324	0	0	0
325	0	0	0
326	0	0	0
327	0	0	0
328	0	0	0
329	0	0	0
330	0	0	0
331	0	0	0
332	0	0	0
333	0	0	0
334	0	0	0
335	0	0	0
336	0	0	0
337	0	0	0
338	0	0	0
339	0	0	0
340	0	0	0
341	0	0	0
342	0	0	0
343	0	0	0
344	0	0	0
345	0	0	0
346	0	0	0
347	0	0	0
348	0	0	0
349	0	0	0
350	0	0	0
351	0	0	0
352	0	0	0
353	0	0	0
354	0	0	0
355	0	0	0
356	0	0	0
357	0	0	0
358	0	0	0
359	0	0	0
360	0	0	0
361	0	0	0
362	0	0	0
363	0	0	0
364	0	0	0
365	0	0	0
366	0	0	0
367	0	0	0
368	0	0	0
369	0	0	0
370	0	0	0
371	0	0	0
372	0	0	0
373	252	230	241
374	252	220	237
375	247	204	232
376	241	194	231
377	240	184	234
378	233	163	229
379	236	160	233
380	237	159	238
381	231	147	235
382	224	135	230
383	223	133	232
384	216	124	228
385	208	112	223
386	221	131	235
387	223	133	231
388	224	135	227
389	224	135	225
390	239	154	234
391	236	150	225
392	241	159	224
393	242	160	219
394	255	184	231
395	255	187	228
396	249	180	219
397	255	194	227
398	253	193	225
399	251	193	224
400	255	204	231
401	254	205	229
402	253	209	229
403	255	219	231
404	252	217	228
405	255	226	234
406	253	226	233
407	255	233	235
408	0	0	0
409	0	0	0
410	0	0	0
411	0	0	0
412	0	0	0
413	0	0	0
414	0	0	0
415	0	0	0
416	0	0	0
417	0	0	0
418	0	0	0
419	0	0	0
420	0	0	0
421	0	0	0
422	0	0	0
423	0	0	0
424	0	0	0
425	0	0	0
426	0	0	0
427	0	0	0
428	0	0	0
429	0	0	0
430	0	0	0
431	0	0	0
432	0	0	0
433	0	0	0
434	0	0	0
435	0	0	0
436	0	0	0
437	0	0	0
438	0	0	0
439	0	0	0
440	0	0	0
441	0	0	0
442	0	0	0
443	0	0	0
444	0	0	0
445	0	0	0
446	0	0	0
447	0	0	0
448	0	0	0
449	0	0	0
450	0	0	0
451	0	0	0
452	0	0	0
453	0	0	0
454	0	0	0
455	0	0	0
456	0	0	0
457	0	0	0
458	0	0	0
459	0	0	0
460	0	0	0
461	0	0	0
462	0	0	0
463	0	0	0
464	0	0	0
465	0	0	0
466	0	0	0
467	243	203	231
468	236	187	225
469	230	175	226
470	227	166	232
471	228	161	236
472	227	155	235
473	220	143	230
474	215	131	228
475	216	131	232
476	215	129	232
477	209	121	228
478	201	110	222
479	212	123	232
480	214	126	230
481	214	128	228
482	215	128	225
483	219	131	225
484	217	128	218
485	223	135	220
486	226	138	218
487	235	148	220
488	236	151	217
489	242	162	219
490	249	176	225
491	246	175	222
492	245	175	222
493	246	179	225
494	244	180	224
495	246	188	226
496	250	198	227
497	251	203	227
498	252	210	231
499	246	212	228
500	248	218	230
501	252	226	232
502	255	235	237
503	252	234	235
504	252	237	238
505	251	236	237
506	0	0	0
507	0	0	0
508	0	0	0
509	0	0	0
510	0	0	0
511	0	0	0
512	0	0	0
513	0	0	0
514	0	0	0
515	0	0	0
516	0	0	0
517	0	0	0
518	0	0	0
519	0	0	0
520	0	0	0
521	0	0	0
522	0	0	0
523	0	0	0
524	0	0	0
525	0	0	0
526	0	0	0
527	0	0	0
528	0	0	0
529	0	0	0
530	0	0	0
531	0	0	0
532	0	0	0
533	0	0	0
534	0	0	0
535	0	0	0
536	0	0	0
537	0	0	0
538	0	0	0
539	0	0	0
540	0	0	0
541	0	0	0
542	0	0	0
543	0	0	0
544	0	0	0
545	0	0	0
546	0	0	0
547	0	0	0
548	0	0	0
549	0	0	0
550	0	0	0
551	0	0	0
552	0	0	0
553	0	0	0
554	0	0	0
555	0	0	0
556	0	0	0
557	0	0	0
558	0	0	0
559	246	223	242
560	246	211	241
561	237	189	233
562	234	179	236
563	232	173	243
564	225	164	242
565	225	165	243
566	217	151	236
567	223	155	245
568	230	157	251
569	225	146	244
570	220	139	240
571	222	138	242
572	235	152	253
573	224	136	239
574	221	137	237
575	226	145	240
576	230	148	241
577	222	137	231
578	225	143	233
579	227	147	233
580	235	156	235
581	230	147	225
582	243	163	231
583	248	170	232
584	245	169	228
585	243	167	228
586	244	170	230
587	242	173	231
588	245	182	232
589	251	194	234
590	254	200	234
591	247	198	230
592	237	197	224
593	249	220	234
594	255	228	237
595	255	226	234
596	251	226	232
597	251	226	233
598	250	226	233
599	248	224	232
600	0	0	0
601	0	0	0
602	0	0	0
603	0	0	0
604	0	0	0
605	0	0	0
606	0	0	0
607	0	0	0
608	0	0	0
609	0	0	0
610	0	0	0
611	0	0	0
612	0	0	0
613	0	0	0
614	0	0	0
615	0	0	0
616	0	0	0
617	0	0	0
618	0	0	0
619	0	0	0
620	0	0	0
621	0	0	0
622	0	0	0
623	0	0	0
624	0	0	0
625	0	0	0
626	0	0	0
627	0	0	0
628	0	0	0
629	0	0	0
630	0	0	0
631	0	0	0
632	0	0	0
633	0	0	0
634	0	0	0
635	0	0	0
636	0	0	0
637	0	0	0
638	0	0	0
639	0	0	0
640	0	0	0
641	0	0	0
642	0	0	0
643	0	0	0
644	0	0	0
645	0	0	0
646	0	0	0
647	0	0	0
648	0	0	0
649	0	0	0
650	0	0	0
651	0	0	0
652	0	0	0
653	231	198	233
654	223	178	228
655	225	174	235
656	220	166	236
657	221	169	242
658	223	171	247
659	225	172	250
660	231	175	255
661	228	166	253
662	223	154	245
663	227	155	247
664	232	155	250
665	231	148	247
666	220	133	234
667	224	142	240
668	229	152	246
669	227	146	240
670	218	135	230
671	221	141	232
672	224	146	234
673	223	142	231
674	219	135	224
675	231	147	230
676	237	155	231
677	234	152	227
678	232	150	227
679	235	157	232
680	234	159	231
681	241	173	235
682	246	185	236
683	244	185	231
684	238	183	227
685	243	201	234
686	255	223	241
687	254	220	235
688	252	218	233
689	249	215	230
690	248	216	230
691	248	216	231
692	246	214	230
693	0	0	0
694	0	0	0
695	0	0	0
696	0	0	0
697	0	0	0
698	0	0	0
699	0	0	0
700	0	0	0
701	0	0	0
702	0	0	0
703	0	0	0
704	0	0	0
705	0	0	0
706	0	0	0
707	0	0	0
708	0	0	0
709	0	0	0
710	0	0	0
711	0	0	0
712	0	0	0
713	0	0	0
714	0	0	0
715	0	0	0
716	0	0	0
717	0	0	0
718	0	0	0
719	0	0	0
720	0	0	0
721	0	0	0
722	0	0	0
723	0	0	0
724	0	0	0
725	0	0	0
726	0	0	0
727	0	0	0
728	0	0	0
729	0	0	0
730	0	0	0
731	0	0	0
732	0	0	0
733	0	0	0
734	0	0	0
735	0	0	0
736	0	0	0
737	0	0	0
738	0	0	0
739	0	0	0
740	0	0	0
741	0	0	0
742	0	0	0
743	0	0	0
744	0	0	0
745	0	0	0
746	0	0	0
747	230	203	242
748	231	199	248
749	222	182	243
750	228	187	252
751	223	177	249
752	228	180	254
753	229	179	255
754	218	164	247
755	213	153	240
756	223	157	245
757	235	165	253
758	234	158	249
759	225	143	240
760	232	155	249
761	230	153	248
762	226	147	243
763	222	141	236
764	229	149	241
765	234	155	244
766	233	152	242
767	224	139	234
768	232	150	239
769	236	157	240
770	236	156	237
771	237	157	239
772	239	163	242
773	236	162	239
774	245	176	244
775	246	182	241
776	239	180	234
777	242	188	237
778	253	210	247
779	250	208	238
780	247	203	230
781	252	212	235
782	248	209	232
783	247	210	231
784	247	209	231
785	247	211	233
786	0	0	0
787	0	0	0
788	0	0	0
789	0	0	0
790	0	0	0
791	0	0	0
792	0	0	0
793	0	0	0
794	0	0	0
795	0	0	0
796	0	0	0
797	0	0	0
798	0	0	0
799	0	0	0
800	0	0	0
801	0	0	0
802	0	0	0
803	0	0	0
804	0	0	0
805	0	0	0
806	0	0	0
807	0	0	0
808	0	0	0
809	0	0	0
810	0	0	0
811	0	0	0
812	0	0	0
813	0	0	0
814	0	0	0
815	0	0	0
816	0	0	0
817	0	0	0
818	0	0	0
819	0	0	0
820	0	0	0
821	0	0	0
822	0	0	0
823	0	0	0
824	0	0	0
825	0	0	0
826	0	0	0
827	0	0	0
828	0	0	0
829	0	0	0
830	0	0	0
831	0	0	0
832	0	0	0
833	0	0	0
834	0	0	0
835	0	0	0
836	0	0	0
837	0	0	0
838	0	0	0
839	0	0	0
840	0	0	0
841	228	209	244
842	220	193	244
843	221	188	248
844	216	177	243
845	222	179	249
846	223	179	252
847	213	166	245
848	210	156	241
849	228	168	251
850	238	174	254
851	232	161	246
852	225	148	241
853	224	148	244
854	222	146	244
855	218	143	241
856	215	137	235
857	222	145	239
858	229	152	242
859	223	142	236
860	215	130	229
861	224	142	237
862	229	150	240
863	232	153	240
864	231	154	238
865	229	155	236
866	227	154	235
867	236	166	240
868	238	173	238
869	239	180	238
870	242	188	240
871	242	190	238
872	240	190	233
873	243	195	233
874	248	203	235
875	244	200	230
876	243	200	230
877	244	203	231
878	244	205	233
879	249	212	237
880	0	0	0
881	0	0	0
882	0	0	0
883	0	0	0
884	0	0	0
885	0	0	0
886	0	0	0
887	0	0	0
888	0	0	0
889	0	0	0
890	0	0	0
891	0	0	0
892	0	0	0
893	0	0	0
894	0	0	0
895	0	0	0
896	0	0	0
897	0	0	0
898	0	0	0
899	0	0	0
900	0	0	0
901	0	0	0
902	0	0	0
903	0	0	0
904	0	0	0
905	0	0	0
906	0	0	0
907	0	0	0
908	0	0	0
909	0	0	0
910	0	0	0
911	0	0	0
912	0	0	0
913	0	0	0
914	0	0	0
915	0	0	0
916	0	0	0
917	0	0	0
918	0	0	0
919	0	0	0
920	0	0	0
921	0	0	0
922	0	0	0
923	0	0	0
924	0	0	0
925	0	0	0
926	0	0	0
927	0	0	0
928	0	0	0
929	0	0	0
930	0	0	0
931	0	0	0
932	0	0	0
933	0	0	0
934	0	0	0
935	221	206	247
936	224	202	252
937	221	192	248
938	224	194	252
939	222	186	252
940	217	177	249
941	220	173	250
942	236	184	255
943	231	171	248
944	222	157	239
945	228	163	248
946	230	165	253
947	225	160	251
948	218	155	246
949	214	150	242
950	225	159	247
951	233	166	251
952	230	158	246
953	223	145	240
954	235	160	252
955	233	158	248
956	233	160	247
957	226	153	239
958	223	154	237
959	228	162	242
960	240	175	249
961	241	178	246
962	244	187	247
963	244	188	244
964	244	189	242
965	242	190	239
966	240	193	236
967	247	204	240
968	249	204	238
969	248	204	236
970	245	204	235
971	249	209	239
972	255	218	245
973	0	0	0
974	0	0	0
975	0	0	0
976	0	0	0
977	0	0	0
978	0	0	0
979	254	220	242
980	255	223	242
981	0	0	0
982	0	0	0
983	0	0	0
984	0	0	0
985	0	0	0
986	0	0	0
987	0	0	0
988	0	0	0
989	0	0	0
990	0	0	0
991	0	0	0
992	0	0	0
993	0	0	0
994	0	0	0
995	0	0	0
996	0	0	0
997	0	0	0
998	0	0	0
999	0	0	0
1000	0	0	0
1001	0	0	0
1002	0	0	0
1003	0	0	0
1004	0	0	0
1005	0	0	0
1006	0	0	0
1007	0	0	0
1008	0	0	0
1009	0	0	0
1010	0	0	0
1011	0	0	0
1012	0	0	0
1013	0	0	0
1014	0	0	0
1015	0	0	0
1016	0	0	0
1017	0	0	0
1018	0	0	0
1019	0	0	0
1020	0	0	0
1021	0	0	0
1022	0	0	0
1023	0	0	0
1024	0	0	0
1025	0	0	0
1026	0	0	0
1027	0	0	0
1028	0	0	0
1029	228	215	253
1030	222	204	247
1031	215	194	244
1032	212	187	244
1033	212	182	245
1034	215	178	245
1035	219	172	244
1036	215	161	238
1037	222	168	245
1038	228	173	251
1039	228	172	251
1040	223	167	248
1041	215	161	244
1042	213	158	242
1043	225	168	250
1044	233	175	255
1045	223	161	245
1046	215	148	239
1047	221	153	244
1048	219	151	241
1049	216	149	237
1050	211	144	231
1051	215	154	237
1052	221	162	242
1053	229	170	246
1054	231	173	243
1055	231	174	240
1056	230	175	237
1057	230	176	234
1058	228	176	230
1059	231	186	233
1060	239	198	237
1061	241	198	235
1062	240	198	233
1063	241	202	235
1064	246	208	239
1065	245	203	236
1066	0	0	0
1067	0	0	0
1068	0	0	0
1069	0	0	0
1070	0	0	0
1071	249	212	239
1072	247	210	237
1073	243	205	233
1074	238	201	229
1075	0	0	0
1076	0	0	0
1077	0	0	0
1078	0	0	0
1079	0	0	0
1080	0	0	0
1081	0	0	0
1082	0	0	0
1083	0	0	0
1084	0	0	0
1085	0	0	0
1086	0	0	0
1087	0	0	0
1088	0	0	0
1089	0	0	0
1090	0	0	0
1091	0	0	0
1092	0	0	0
1093	0	0	0
1094	0	0	0
1095	0	0	0
1096	0	0	0
1097	0	0	0
1098	0	0	0
1099	0	0	0
1100	0	0	0
1101	0	0	0
1102	0	0	0
1103	0	0	0
1104	0	0	0
1105	0	0	0
1106	0	0	0
1107	0	0	0
1108	0	0	0
1109	0	0	0
1110	0	0	0
1111	0	0	0
1112	0	0	0
1113	0	0	0
1114	0	0	0
1115	0	0	0
1116	0	0	0
1117	0	0	0
1118	0	0	0
1119	0	0	0
1120	0	0	0
1121	0	0	0
1122	0	0	0
1123	0	0	0
1124	0	0	0
1125	215	207	247
1126	214	202	248
1127	214	196	248
1128	216	190	247
1129	220	187	248
1130	234	198	255
1131	230	186	253
1132	228	184	252
1133	225	180	250
1134	220	176	248
1135	221	175	249
1136	235	186	255
1137	232	182	255
1138	214	164	241
1139	212	163	243
1140	217	167	248
1141	214	163	244
1142	212	162	242
1143	215	165	244
1144	222	176	251
1145	218	170	246
1146	225	177	248
1147	229	181	248
1148	229	182	244
1149	231	188	244
1150	228	188	240
1151	232	195	241
1152	242	209	247
1153	238	203	240
1154	233	200	235
1155	236	204	237
1156	244	212	242
1157	244	210	240
1158	242	204	237
1159	238	198	235
1160	244	207	240
1161	0	0	0
1162	0	0	0
1163	245	210	238
1164	243	208	237
1165	248	215	242
1166	243	211	238
1167	243	210	237
1168	254	224	247
1169	0	0	0
1170	0	0	0
1171	0	0	0
1172	0	0	0
1173	0	0	0
1174	0	0	0
1175	0	0	0
1176	0	0	0
1177	0	0	0
1178	0	0	0
1179	0	0	0
1180	0	0	0
1181	0	0	0
1182	0	0	0
1183	0	0	0
1184	0	0	0
1185	0	0	0
1186	0	0	0
1187	0	0	0
1188	0	0	0
1189	0	0	0
1190	0	0	0
1191	0	0	0
1192	0	0	0
1193	0	0	0
1194	0	0	0
1195	0	0	0
1196	0	0	0
1197	0	0	0
1198	0	0	0
1199	0	0	0
1200	0	0	0
1201	0	0	0
1202	0	0	0
1203	0	0	0
1204	0	0	0
1205	0	0	0
1206	0	0	0
1207	0	0	0
1208	0	0	0
1209	0	0	0
1210	0	0	0
1211	0	0	0
1212	0	0	0
1213	0	0	0
1214	0	0	0
1215	0	0	0
1216	0	0	0
1217	0	0	0
1218	233	236	255
1219	227	227	255
1220	225	221	255
1221	226	216	255
1222	228	212	255
1223	228	204	253
1224	224	193	248
1225	225	192	250
1226	223	189	249
1227	220	186	248
1228	221	185	250
1229	225	185	251
1230	221	181	247
1231	210	174	241
1232	207	173	243
1233	207	171	244
1234	204	167	240
1235	205	171	243
1236	208	174	244
1237	206	171	241
1238	202	164	236
1239	213	175	242
1240	218	180	242
1241	223	188	243
1242	225	193	241
1243	227	199	241
1244	232	207	243
1245	233	205	241
1246	229	200	235
1247	227	202	234
1248	231	207	238
1249	236	207	238
1250	236	204	235
1251	232	198	231
1252	228	193	230
1253	235	203	236
1254	240	210	237
1255	237	205	233
1256	235	201	232
1257	240	209	237
1258	244	216	240
1259	240	213	236
1260	241	213	237
1261	0	0	0
1262	0	0	0
1263	0	0	0
1264	0	0	0
1265	0	0	0
1266	0	0	0
1267	0	0	0
1268	0	0	0
1269	0	0	0
1270	0	0	0
1271	0	0	0
1272	0	0	0
1273	0	0	0
1274	0	0	0
1275	0	0	0
1276	0	0	0
1277	0	0	0
1278	0	0	0
1279	0	0	0
1280	0	0	0
1281	0	0	0
1282	0	0	0
1283	0	0	0
1284	0	0	0
1285	0	0	0
1286	0	0	0
1287	0	0	0
1288	0	0	0
1289	0	0	0
1290	0	0	0
1291	0	0	0
1292	0	0	0
1293	0	0	0
1294	0	0	0
1295	0	0	0
1296	0	0	0
1297	0	0	0
1298	0	0	0
1299	0	0	0
1300	0	0	0
1301	0	0	0
1302	0	0	0
1303	0	0	0
1304	0	0	0
1305	0	0	0
1306	0	0	0
1307	0	0	0
1308	0	0	0
1309	0	0	0
1310	0	0	0
1311	0	0	0
1312	228	223	244
1313	233	229	252
1314	0	0	0
1315	0	0	0
1316	0	0	0
1317	0	0	0
1318	0	0	0
1319	222	202	248
1320	221	200	249
1321	220	198	249
1322	218	195	247
1323	217	196	246
1324	213	193	244
1325	216	198	250
1326	214	195	248
1327	213	196	248
1328	213	199	250
1329	211	198	249
1330	208	194	247
1331	210	193	246
1332	225	206	254
1333	225	203	249
1334	230	211	250
1335	229	209	244
1336	233	217	246
1337	232	215	242
1338	233	213	240
1339	235	216	241
1340	234	219	242
1341	236	219	242
1342	241	219	244
1343	235	210	236
1344	228	203	231
1345	233	212	239
1346	242	222	246
1347	239	218	240
1348	236	213	235
1349	240	217	240
1350	248	226	246
1351	0	0	0
1352	0	0	0
1353	0	0	0
1354	0	0	0
1355	0	0	0
1356	0	0	0
1357	0	0	0
1358	0	0	0
1359	0	0	0
1360	0	0	0
1361	0	0	0
1362	0	0	0
1363	0	0	0
1364	0	0	0
1365	0	0	0
1366	0	0	0
1367	0	0	0
1368	0	0	0
1369	0	0	0
1370	0	0	0
1371	0	0	0
1372	0	0	0
1373	0	0	0
1374	0	0	0
1375	0	0	0
1376	0	0	0
1377	0	0	0
1378	0	0	0
1379	0	0	0
1380	0	0	0
1381	0	0	0
1382	0	0	0
1383	0	0	0
1384	0	0	0
1385	0	0	0
1386	0	0	0
1387	0	0	0
1388	0	0	0
1389	0	0	0
1390	0	0	0
1391	0	0	0
1392	0	0	0
1393	0	0	0
1394	0	0	0
1395	0	0	0
1396	0	0	0
1397	0	0	0
1398	0	0	0
1399	0	0	0
1400	0	0	0
1401	0	0	0
1402	0	0	0
1403	0	0	0
1404	0	0	0
1405	0	0	0
1406	0	0	0
1407	0	0	0
1408	0	0	0
1409	0	0	0
1410	0	0	0
1411	0	0	0
1412	0	0	0
1413	231	219	254
1414	228	216	252
1415	227	217	252
1416	226	218	251
1417	229	222	253
1418	232	227	255
1419	233	228	255
1420	231	229	254
1421	228	227	252
1422	226	227	255
1423	226	227	255
1424	229	226	255
1425	236	229	255
1426	235	225	252
1427	236	226	249
1428	235	225	246
1429	235	224	243
1430	235	223	241
1431	240	229	244
1432	242	232	245
1433	239	228	241
1434	239	228	242
1435	238	222	240
1436	233	214	236
1437	236	222	241
1438	241	230	245
1439	240	227	242
1440	238	223	238
1441	241	226	240
1442	244	230	243
1443	0	0	0
1444	0	0	0
1445	0	0	0
1446	0	0	0
1447	0	0	0
1448	0	0	0
1449	0	0	0
1450	0	0	0
1451	0	0	0
1452	0	0	0
1453	0	0	0
1454	0	0	0
1455	0	0	0
1456	0	0	0
1457	0	0	0
1458	0	0	0
1459	0	0	0
1460	0	0	0
1461	0	0	0
1462	0	0	0
1463	0	0	0
1464	0	0	0
1465	0	0	0
1466	0	0	0
1467	0	0	0
1468	0	0	0
1469	0	0	0
1470	0	0	0
1471	0	0	0
1472	0	0	0
1473	0	0	0
1474	0	0	0
1475	0	0	0
1476	0	0	0
1477	0	0	0
1478	0	0	0
1479	0	0	0
1480	0	0	0
1481	0	0	0
1482	0	0	0
1483	0	0	0
1484	0	0	0
1485	0	0	0
1486	0	0	0
1487	0	0	0
1488	0	0	0
1489	0	0	0
1490	0	0	0
1491	0	0	0
1492	0	0	0
1493	0	0	0
1494	0	0	0
1495	0	0	0
1496	0	0	0
1497	0	0	0
1498	0	0	0
1499	0	0	0
1500	0	0	0
1501	0	0	0
1502	0	0	0
1503	0	0	0
1504	0	0	0
1505	0	0	0
1506	0	0	0
1507	235	225	249
1508	234	225	249
1509	229	221	244
1510	231	224	246
1511	235	230	248
1512	236	231	247
1513	234	229	243
1514	233	228	243
1515	233	228	246
1516	233	228	248
1517	232	226	247
1518	235	226	246
1519	237	228	244
1520	238	229	242
1521	240	231	243
1522	240	231	242
1523	238	228	239
1524	242	232	242
1525	240	229	238
1526	239	227	237
1527	241	230	240
1528	235	222	235
1529	235	222	237
1530	243	233	244
1531	242	232	241
1532	239	227	237
1533	240	229	238
1534	243	232	241
1535	241	228	239
1536	239	224	236
1537	0	0	0
1538	0	0	0
1539	0	0	0
1540	0	0	0
1541	0	0	0
1542	0	0	0
1543	0	0	0
1544	0	0	0
1545	0	0	0
1546	0	0	0
1547	0	0	0
1548	0	0	0
1549	0	0	0
1550	0	0	0
1551	0	0	0
1552	0	0	0
1553	0	0	0
1554	0	0	0
1555	0	0	0
1556	0	0	0
1557	0	0	0
1558	0	0	0
1559	0	0	0
1560	0	0	0
1561	0	0	0
1562	0	0	0
1563	0	0	0
1564	0	0	0
1565	0	0	0
1566	0	0	0
1567	0	0	0
1568	0	0	0
1569	0	0	0
1570	0	0	0
1571	0	0	0
1572	0	0	0
1573	0	0	0
1574	0	0	0
1575	0	0	0
1576	0	0	0
1577	0	0	0
1578	0	0	0
1579	0	0	0
1580	0	0	0
1581	0	0	0
1582	0	0	0
1583	0	0	0
1584	0	0	0
1585	0	0	0
1586	0	0	0
1587	0	0	0
1588	0	0	0
1589	0	0	0
1590	0	0	0
1591	0	0	0
1592	0	0	0
1593	0	0	0
1594	0	0	0
1595	0	0	0
1596	0	0	0
1597	246	236	248
1598	244	233	248
1599	247	237	251
1600	248	240	252
1601	241	235	247
1602	238	231	245
1603	246	239	251
1604	250	245	251
1605	250	243	249
1606	249	242	247
1607	247	240	247
1608	247	239	248
1609	245	237	247
1610	243	234	245
1611	248	238	248
1612	249	240	247
1613	250	242	247
1614	252	244	248
1615	250	241	246
1616	248	238	244
1617	248	237	243
1618	246	234	241
1619	247	236	243
1620	249	240	246
1621	247	238	244
1622	246	237	243
1623	248	238	244
1624	248	238	243
1625	247	237	243
1626	247	239	244
1627	245	235	242
1628	243	231	240
1629	0	0	0
1630	0	0	0
1631	0	0	0
1632	0	0	0
1633	0	0	0
1634	0	0	0
1635	0	0	0
1636	0	0	0
1637	0	0	0
1638	0	0	0
1639	0	0	0
1640	0	0	0
1641	0	0	0
1642	0	0	0
1643	0	0	0
1644	0	0	0
1645	0	0	0
1646	0	0	0
1647	0	0	0
1648	0	0	0
1649	0	0	0
1650	0	0	0
1651	0	0	0
1652	0	0	0
1653	0	0	0
1654	0	0	0
1655	0	0	0
1656	0	0	0
1657	0	0	0
1658	0	0	0
1659	0	0	0
1660	0	0	0
1661	0	0	0
1662	0	0	0
1663	0	0	0
1664	0	0	0
1665	0	0	0
1666	0	0	0
1667	0	0	0
1668	0	0	0
1669	0	0	0
1670	0	0	0
1671	0	0	0
1672	0	0	0
1673	0	0	0
1674	0	0	0
1675	0	0	0
1676	0	0	0
1677	0	0	0
1678	0	0	0
1679	0	0	0
1680	0	0	0
1681	0	0	0
1682	0	0	0
1683	0	0	0
1684	0	0	0
1685	0	0	0
1686	0	0	0
1687	0	0	0
1688	0	0	0
1689	245	232	243
1690	244	229	242
1691	240	223	239
1692	242	227	242
1693	241	229	241
1694	235	224	236
1695	241	231	242
1696	253	241	249
1697	247	230	239
1698	247	229	238
1699	248	230	240
1700	244	228	238
1701	246	231	241
1702	245	229	239
1703	245	229	240
1704	249	234	242
1705	246	229	238
1706	247	231	239
1707	247	231	239
1708	243	227	236
1709	246	230	238
1710	247	230	239
1711	246	229	238
1712	244	229	238
1713	244	231	239
1714	245	231	239
1715	246	232	238
1716	248	233	239
1717	246	230	237
1718	242	228	236
1719	247	235	241
1720	246	232	240
1721	0	0	0
1722	0	0	0
1723	0	0	0
1724	0	0	0
1725	0	0	0
1726	0	0	0
1727	0	0	0
1728	0	0	0
1729	0	0	0
1730	0	0	0
1731	0	0	0
1732	0	0	0
1733	0	0	0
1734	0	0	0
1735	0	0	0
1736	0	0	0
1737	0	0	0
1738	0	0	0
1739	0	0	0
1740	0	0	0
1741	0	0	0
1742	0	0	0
1743	0	0	0
1744	0	0	0
1745	0	0	0
1746	0	0	0
1747	0	0	0
1748	0	0	0
1749	0	0	0
1750	0	0	0
1751	0	0	0
1752	0	0	0
1753	0	0	0
1754	0	0	0
1755	0	0	0
1756	0	0	0
1757	0	0	0
1758	0	0	0
1759	0	0	0
1760	0	0	0
1761	0	0	0
1762	0	0	0
1763	0	0	0
1764	0	0	0
1765	0	0	0
1766	0	0	0
1767	0	0	0
1768	0	0	0
1769	0	0	0
1770	0	0	0
1771	0	0	0
1772	0	0	0
1773	0	0	0
1774	0	0	0
1775	0	0	0
1776	0	0	0
1777	0	0	0
1778	0	0	0
1779	0	0	0
1780	0	0	0
1781	0	0	0
1782	0	0	0
1783	240	222	239
1784	235	216	236
1785	240	222	241
1786	241	225	240
1787	241	228	240
1788	247	235	244
1789	245	227	238
1790	240	216	232
1791	244	220	236
1792	245	222	238
1793	244	224	239
1794	246	227	241
1795	248	228	241
1796	249	229	242
1797	247	226	239
1798	244	222	236
1799	246	223	236
1800	246	223	236
1801	247	225	237
1802	249	228	238
1803	250	228	239
1804	247	226	237
1805	243	225	235
1806	243	227	236
1807	247	229	238
1808	250	231	238
1809	249	228	237
1810	245	225	235
1811	246	230	238
1812	250	236	243
1813	0	0	0
1814	0	0	0
1815	0	0	0
1816	0	0	0
1817	0	0	0
1818	0	0	0
1819	0	0	0
1820	0	0	0
1821	0	0	0
1822	0	0	0
1823	0	0	0
1824	0	0	0
1825	0	0	0
1826	0	0	0
1827	0	0	0
1828	0	0	0
1829	0	0	0
1830	0	0	0
1831	0	0	0
1832	0	0	0
1833	0	0	0
1834	0	0	0
1835	0	0	0
1836	0	0	0
1837	0	0	0
1838	0	0	0
1839	0	0	0
1840	0	0	0
1841	0	0	0
1842	0	0	0
1843	0	0	0
1844	0	0	0
1845	0	0	0
1846	0	0	0
1847	0	0	0
1848	0	0	0
1849	0	0	0
1850	0	0	0
1851	0	0	0
1852	0	0	0
1853	0	0	0
1854	0	0	0
1855	0	0	0
1856	0	0	0
1857	0	0	0
1858	0	0	0
1859	0	0	0
1860	0	0	0
1861	0	0	0
1862	0	0	0
1863	0	0	0
1864	0	0	0
1865	0	0	0
1866	0	0	0
1867	0	0	0
1868	0	0	0
1869	0	0	0
1870	0	0	0
1871	0	0	0
1872	0	0	0
1873	0	0	0
1874	0	0	0
1875	0	0	0
1876	0	0	0
1877	240	225	242
1878	247	233	248
1879	242	225	241
1880	244	230	243
1881	246	232	242
1882	239	221	234
1883	240	221	236
1884	244	225	240
1885	243	224	240
1886	244	226	242
1887	244	226	242
1888	248	228	243
1889	246	224	240
1890	245	222	238
1891	248	224	240
1892	250	226	241
1893	245	218	235
1894	250	222	238
1895	254	227	242
1896	250	224	238
1897	246	223	236
1898	242	223	234
1899	244	224	234
1900	251	228	238
1901	252	228	240
1902	248	224	236
1903	247	224	235
1904	251	231	240
1905	247	229	239
1906	0	0	0
1907	0	0	0
1908	0	0	0
1909	0	0	0
1910	0	0	0
1911	0	0	0
1912	0	0	0
1913	0	0	0
1914	0	0	0
1915	0	0	0
1916	0	0	0
1917	0	0	0
1918	0	0	0
1919	0	0	0
1920	0	0	0
1921	0	0	0
1922	0	0	0
1923	0	0	0
1924	0	0	0
1925	0	0	0
1926	0	0	0
1927	0	0	0
1928	0	0	0
1929	0	0	0
1930	0	0	0
1931	0	0	0
1932	0	0	0
1933	0	0	0
1934	0	0	0
1935	0	0	0
1936	0	0	0
1937	0	0	0
1938	0	0	0
1939	0	0	0
1940	0	0	0
1941	0	0	0
1942	0	0	0
1943	0	0	0
1944	0	0	0
1945	0	0	0
1946	0	0	0
1947	0	0	0
1948	0	0	0
1949	0	0	0
1950	0	0	0
1951	0	0	0
1952	0	0	0
1953	0	0	0
1954	0	0	0
1955	0	0	0
1956	0	0	0
1957	0	0	0
1958	0	0	0
1959	0	0	0
1960	0	0	0
1961	0	0	0
1962	0	0	0
1963	0	0	0
1964	0	0	0
1965	0	0	0
1966	0	0	0
1967	0	0	0
1968	0	0	0
1969	0	0	0
1970	244	233	244
1971	243	229	242
1972	239	222	238
1973	242	225	240
1974	243	228	241
1975	242	225	239
1976	242	225	239
1977	244	226	241
1978	243	225	240
1979	244	226	241
1980	245	226	243
1981	244	223	240
1982	241	218	235
1983	242	219	235
1984	246	222	240
1985	244	216	237
1986	239	208	231
1987	248	217	238
1988	251	223	242
1989	247	221	238
1990	244	220	236
1991	244	221	235
1992	246	223	235
1993	252	225	238
1994	253	225	241
1995	250	224	240
1996	248	224	237
1997	249	225	237
1998	246	223	234
1999	246	230	238
2000	0	0	0
2001	0	0	0
2002	0	0	0
2003	0	0	0
2004	0	0	0
2005	0	0	0
2006	0	0	0
2007	0	0	0
2008	0	0	0
2009	0	0	0
2010	0	0	0
2011	0	0	0
2012	0	0	0
2013	0	0	0
2014	0	0	0
2015	0	0	0
2016	0	0	0
2017	0	0	0
2018	0	0	0
2019	0	0	0
2020	0	0	0
2021	0	0	0
2022	0	0	0
2023	0	0	0
2024	0	0	0
2025	0	0	0
2026	0	0	0
2027	0	0	0
2028	0	0	0
2029	0	0	0
2030	0	0	0
2031	0	0	0
2032	0	0	0
2033	0	0	0
2034	0	0	0
2035	0	0	0
2036	0	0	0
2037	0	0	0
2038	0	0	0
2039	0	0	0
2040	0	0	0
2041	0	0	0
2042	0	0	0
2043	0	0	0
2044	0	0	0
2045	0	0	0
2046	0	0	0
2047	0	0	0
2048	0	0	0
2049	0	0	0
2050	0	0	0
2051	0	0	0
2052	0	0	0
2053	0	0	0
2054	0	0	0
2055	0	0	0
2056	0	0	0
2057	0	0	0
2058	0	0	0
2059	0	0	0
2060	0	0	0
2061	0	0	0
2062	0	0	0
2063	0	0	0
2064	244	231	242
2065	239	223	239
2066	241	226	242
2067	245	231	245
2068	246	231	244
2069	244	226	242
2070	245	227	242
2071	246	227	242
2072	248	229	244
2073	245	223	242
2074	241	218	238
2075	242	222	238
2076	241	222	237
2077	244	224	240
2078	246	220	240
2079	245	216	239
2080	248	222	243
2081	244	219	239
2082	241	218	236
2083	246	223	239
2084	253	228	242
2085	248	218	235
2086	249	218	235
2087	252	223	240
2088	250	222	240
2089	249	223	238
2090	249	223	237
2091	248	223	235
2092	255	233	241
2093	250	229	237
2094	0	0	0
2095	0	0	0
2096	0	0	0
2097	0	0	0
2098	0	0	0
2099	0	0	0
2100	0	0	0
2101	0	0	0
2102	0	0	0
2103	0	0	0
2104	0	0	0
2105	0	0	0
2106	0	0	0
2107	0	0	0
2108	0	0	0
2109	0	0	0
2110	0	0	0
2111	0	0	0
2112	0	0	0
2113	0	0	0
2114	0	0	0
2115	0	0	0
2116	0	0	0
2117	0	0	0
2118	0	0	0
2119	0	0	0
2120	0	0	0
2121	0	0	0
2122	0	0	0
2123	0	0	0
2124	0	0	0
2125	0	0	0
2126	0	0	0
2127	0	0	0
2128	0	0	0
2129	0	0	0
2130	0	0	0
2131	0	0	0
2132	0	0	0
2133	0	0	0
2134	0	0	0
2135	0	0	0
2136	0	0	0
2137	0	0	0
2138	0	0	0
2139	0	0	0
2140	0	0	0
2141	0	0	0
2142	0	0	0
2143	0	0	0
2144	0	0	0
2145	0	0	0
2146	0	0	0
2147	0	0	0
2148	0	0	0
2149	0	0	0
2150	0	0	0
2151	0	0	0
2152	0	0	0
2153	0	0	0
2154	0	0	0
2155	0	0	0
2156	0	0	0
2157	0	0	0
2158	237	222	240
2159	0	0	0
2160	245	234	247
2161	244	230	244
2162	242	225	242
2163	242	225	242
2164	243	225	241
2165	243	222	240
2166	241	218	238
2167	246	224	243
2168	248	229	245
2169	245	227	242
2170	247	227	244
2171	251	227	245
2172	250	223	245
2173	245	220	242
2174	241	217	237
2175	244	222	239
2176	250	227	242
2177	248	220	237
2178	243	210	231
2179	245	215	235
2180	248	219	237
2181	250	221	239
2182	250	222	238
2183	249	222	237
2184	249	222	236
2185	249	221	234
2186	245	217	230
2187	0	0	0
2188	0	0	0
2189	0	0	0
2190	0	0	0
2191	0	0	0
2192	0	0	0
2193	0	0	0
2194	0	0	0
2195	0	0	0
2196	0	0	0
2197	0	0	0
2198	0	0	0
2199	0	0	0
2200	0	0	0
2201	0	0	0
2202	0	0	0
2203	0	0	0
2204	0	0	0
2205	0	0	0
2206	0	0	0
2207	0	0	0
2208	0	0	0
2209	0	0	0
2210	0	0	0
2211	0	0	0
2212	0	0	0
2213	0	0	0
2214	0	0	0
2215	0	0	0
2216	0	0	0
2217	0	0	0
2218	0	0	0
2219	0	0	0
2220	0	0	0
2221	0	0	0
2222	0	0	0
2223	0	0	0
2224	0	0	0
2225	0	0	0
2226	0	0	0
2227	0	0	0
2228	0	0	0
2229	0	0	0
2230	0	0	0
2231	0	0	0
2232	0	0	0
2233	0	0	0
2234	0	0	0
2235	0	0	0
2236	0	0	0
2237	0	0	0
2238	0	0	0
2239	0	0	0
2240	0	0	0
2241	0	0	0
2242	0	0	0
2243	0	0	0
2244	0	0	0
2245	0	0	0
2246	0	0	0
2247	0	0	0
2248	0	0	0
2249	0	0	0
2250	0	0	0
2251	0	0	0
2252	0	0	0
2253	0	0	0
2254	244	232	245
2255	239	226	242
2256	238	226	242
2257	240	227	243
2258	242	225	242
2259	239	218	240
2260	248	226	247
2261	248	225	245
2262	248	224	244
2263	247	221	242
2264	247	218	241
2265	246	218	242
2266	243	216	239
2267	244	218	239
2268	251	225	243
2269	245	217	236
2270	236	205	228
2271	242	214	235
2272	245	219	239
2273	244	216	236
2274	250	221	240
2275	247	215	236
2276	244	214	235
2277	246	218	235
2278	243	215	231
2279	248	222	234
2280	0	0	0
2281	0	0	0
2282	0	0	0
2283	0	0	0
2284	0	0	0
2285	0	0	0
2286	0	0	0
2287	0	0	0
2288	0	0	0
2289	0	0	0
2290	0	0	0
2291	0	0	0
2292	0	0	0
2293	0	0	0
2294	0	0	0
2295	0	0	0
2296	0	0	0
2297	0	0	0
2298	0	0	0
2299	0	0	0
2300	0	0	0
2301	0	0	0
2302	0	0	0
2303	0	0	0
2304	0	0	0
2305	0	0	0
2306	0	0	0
2307	0	0	0
2308	0	0	0
2309	0	0	0
2310	0	0	0
2311	0	0	0
2312	0	0	0
2313	0	0	0
2314	0	0	0
2315	0	0	0
2316	0	0	0
2317	0	0	0
2318	0	0	0
2319	0	0	0
2320	0	0	0
2321	0	0	0
2322	0	0	0
2323	0	0	0
2324	0	0	0
2325	0	0	0
2326	0	0	0
2327	0	0	0
2328	0	0	0
2329	0	0	0
2330	0	0	0
2331	0	0	0
2332	0	0	0
2333	0	0	0
2334	0	0	0
2335	0	0	0
2336	0	0	0
2337	0	0	0
2338	0	0	0
2339	0	0	0
2340	0	0	0
2341	0	0	0
2342	0	0	0
2343	0	0	0
2344	0	0	0
2345	0	0	0
2346	0	0	0
2347	0	0	0
2348	0	0	0
2349	237	227	243
2350	0	0	0
2351	238	222	241
2352	236	216	241
2353	240	217	244
2354	241	215	241
2355	242	214	240
2356	242	212	240
2357	242	213	240
2358	241	213	239
2359	241	214	238
2360	244	217	239
2361	243	212	236
2362	238	205	230
2363	240	212	235
2364	245	219	240
2365	243	217	238
2366	244	215	237
2367	247	214	239
2368	245	209	238
2369	246	214	240
2370	247	218	239
2371	249	222	238
2372	254	228	241
2373	253	224	238
2374	247	217	233
2375	248	222	235
2376	0	0	0
2377	0	0	0
2378	0	0	0
2379	0	0	0
2380	0	0	0
2381	0	0	0
2382	0	0	0
2383	0	0	0
2384	0	0	0
2385	0	0	0
2386	0	0	0
2387	0	0	0
2388	0	0	0
2389	0	0	0
2390	0	0	0
2391	0	0	0
2392	0	0	0
2393	0	0	0
2394	0	0	0
2395	0	0	0
2396	0	0	0
2397	0	0	0
2398	0	0	0
2399	0	0	0
2400	0	0	0
2401	0	0	0
2402	0	0	0
2403	0	0	0
2404	0	0	0
2405	0	0	0
2406	0	0	0
2407	0	0	0
2408	0	0	0
2409	0	0	0
2410	0	0	0
2411	0	0	0
2412	0	0	0
2413	0	0	0
2414	0	0	0
2415	0	0	0
2416	0	0	0
2417	0	0	0
2418	0	0	0
2419	0	0	0
2420	0	0	0
2421	0	0	0
2422	0	0	0
2423	0	0	0
2424	0	0	0
2425	0	0	0
2426	0	0	0
2427	0	0	0
2428	0	0	0
2429	0	0	0
2430	0	0	0
2431	0	0	0
2432	0	0	0
2433	0	0	0
2434	0	0	0
2435	0	0	0
2436	0	0	0
2437	0	0	0
2438	0	0	0
2439	0	0	0
2440	0	0	0
2441	0	0	0
2442	0	0	0
2443	0	0	0
2444	0	0	0
2445	0	0	0
2446	243	225	248
2447	243	222	245
2448	246	223	246
2449	242	216	243
2450	241	216	243
2451	240	216	241
2452	243	219	242
2453	243	216	240
2454	241	211	237
2455	243	213	238
2456	248	221	244
2457	241	212	238
2458	241	210	237
2459	244	212	239
2460	247	211	241
2461	246	207	240
2462	248	213	243
2463	247	214	239
2464	249	218	238
2465	249	218	237
2466	247	213	234
2467	243	209	232
2468	245	214	234
2469	245	220	235
2470	0	0	0
2471	0	0	0
2472	0	0	0
2473	0	0	0
2474	0	0	0
2475	0	0	0
2476	0	0	0
2477	0	0	0
2478	0	0	0
2479	0	0	0
2480	0	0	0
2481	0	0	0
2482	0	0	0
2483	0	0	0
2484	0	0	0
2485	0	0	0
2486	0	0	0
2487	0	0	0
2488	0	0	0
2489	0	0	0
2490	0	0	0
2491	0	0	0
2492	0	0	0
2493	0	0	0
2494	0	0	0
2495	0	0	0
2496	0	0	0
2497	0	0	0
2498	0	0	0
2499	0	0	0
2500	0	0	0
2501	0	0	0
2502	0	0	0
2503	0	0	0
2504	0	0	0
2505	0	0	0
2506	0	0	0
2507	0	0	0
2508	0	0	0
2509	0	0	0
2510	0	0	0
2511	0	0	0
2512	0	0	0
2513	0	0	0
2514	0	0	0
2515	0	0	0
2516	0	0	0
2517	0	0	0
2518	0	0	0
2519	0	0	0
2520	0	0	0
2521	0	0	0
2522	0	0	0
2523	0	0	0
2524	0	0	0
2525	0	0	0
2526	0	0	0
2527	0	0	0
2528	0	0	0
2529	0	0	0
2530	0	0	0
2531	0	0	0
2532	0	0	0
2533	0	0	0
2534	0	0	0
2535	0	0	0
2536	0	0	0
2537	0	0	0
2538	0	0	0
2539	0	0	0
2540	0	0	0
2541	240	220	241
2542	237	214	240
2543	238	216	242
2544	238	216	240
2545	239	215	240
2546	239	214	239
2547	243	216	241
2548	245	218	242
2549	241	211	238
2550	236	204	235
2551	240	206	239
2552	244	208	241
2553	243	205	240
2554	240	201	237
2555	240	203	237
2556	240	205	234
2557	242	207	233
2558	244	208	234
2559	246	207	235
2560	242	203	233
2561	245	210	237
2562	247	216	238
2563	251	224	240
2564	254	230	241
2565	0	0	0
2566	0	0	0
2567	251	232	236
2568	0	0	0
2569	0	0	0
2570	0	0	0
2571	0	0	0
2572	0	0	0
2573	0	0	0
2574	0	0	0
2575	0	0	0
2576	0	0	0
2577	0	0	0
2578	0	0	0
2579	0	0	0
2580	0	0	0
2581	0	0	0
2582	0	0	0
2583	0	0	0
2584	0	0	0
2585	0	0	0
2586	0	0	0
2587	0	0	0
2588	0	0	0
2589	0	0	0
2590	0	0	0
2591	0	0	0
2592	0	0	0
2593	0	0	0
2594	0	0	0
2595	0	0	0
2596	0	0	0
2597	0	0	0
2598	0	0	0
2599	0	0	0
2600	0	0	0
2601	0	0	0
2602	0	0	0
2603	0	0	0
2604	0	0	0
2605	0	0	0
2606	0	0	0
2607	0	0	0
2608	0	0	0
2609	0	0	0
2610	0	0	0
2611	0	0	0
2612	0	0	0
2613	0	0	0
2614	0	0	0
2615	0	0	0
2616	0	0	0
2617	0	0	0
2618	0	0	0
2619	0	0	0
2620	0	0	0
2621	0	0	0
2622	0	0	0
2623	0	0	0
2624	0	0	0
2625	0	0	0
2626	0	0	0
2627	0	0	0
2628	0	0	0
2629	0	0	0
2630	0	0	0
2631	0	0	0
2632	0	0	0
2633	0	0	0
2634	0	0	0
2635	240	222	244
2636	241	225	248
2637	232	213	239
2638	235	213	240
2639	238	215	242
2640	239	217	243
2641	238	213	240
2642	239	209	240
2643	240	206	241
2644	245	209	245
2645	247	211	245
2646	240	205	240
2647	234	199	235
2648	234	202	235
2649	241	211	238
2650	247	215	241
2651	241	201	234
2652	245	201	237
2653	246	203	239
2654	248	210	241
2655	251	215	242
2656	255	224	245
2657	251	218	238
2658	246	215	232
2659	249	223	234
2660	252	227	235
2661	248	226	235
2662	0	0	0
2663	0	0	0
2664	0	0	0
2665	0	0	0
2666	0	0	0
2667	0	0	0
2668	0	0	0
2669	0	0	0
2670	0	0	0
2671	0	0	0
2672	0	0	0
2673	0	0	0
2674	0	0	0
2675	0	0	0
2676	0	0	0
2677	0	0	0
2678	0	0	0
2679	0	0	0
2680	0	0	0
2681	0	0	0
2682	0	0	0
2683	0	0	0
2684	0	0	0
2685	0	0	0
2686	0	0	0
2687	0	0	0
2688	0	0	0
2689	0	0	0
2690	0	0	0
2691	0	0	0
2692	0	0	0
2693	0	0	0
2694	0	0	0
2695	0	0	0
2696	0	0	0
2697	0	0	0
2698	0	0	0
2699	0	0	0
2700	0	0	0
2701	0	0	0
2702	0	0	0
2703	0	0	0
2704	0	0	0
2705	0	0	0
2706	0	0	0
2707	0	0	0
2708	0	0	0
2709	0	0	0
2710	0	0	0
2711	0	0	0
2712	0	0	0
2713	0	0	0
2714	0	0	0
2715	0	0	0
2716	0	0	0
2717	0	0	0
2718	0	0	0
2719	0	0	0
2720	0	0	0
2721	0	0	0
2722	0	0	0
2723	0	0	0
2724	0	0	0
2725	0	0	0
2726	0	0	0
2727	0	0	0
2728	0	0	0
2729	234	218	243
2730	227	207	238
2731	233	213	244
2732	235	215	242
2733	232	210	239
2734	233	208	241
2735	238	208	244
2736	238	204	242
2737	243	208	244
2738	243	209	243
2739	237	203	238
2740	231	198	235
2741	238	208	241
2742	245	217	243
2743	237	202	234
2744	231	188	229
2745	240	195	237
2746	242	197	238
2747	246	204	240
2748	249	209	240
2749	247	206	236
2750	241	201	232
2751	243	208	234
2752	246	215	234
2753	245	216	231
2754	242	215	229
2755	246	226	235
2756	0	0	0
2757	0	0	0
2758	0	0	0
2759	0	0	0
2760	0	0	0
2761	0	0	0
2762	0	0	0
2763	0	0	0
2764	0	0	0
2765	0	0	0
2766	0	0	0
2767	0	0	0
2768	0	0	0
2769	0	0	0
2770	0	0	0
2771	0	0	0
2772	0	0	0
2773	0	0	0
2774	0	0	0
2775	0	0	0
2776	0	0	0
2777	0	0	0
2778	0	0	0
2779	0	0	0
2780	0	0	0
2781	0	0	0
2782	0	0	0
2783	0	0	0
2784	0	0	0
2785	0	0	0
2786	0	0	0
2787	0	0	0
2788	0	0	0
2789	0	0	0
2790	0	0	0
2791	0	0	0
2792	0	0	0
2793	0	0	0
2794	0	0	0
2795	0	0	0
2796	0	0	0
2797	0	0	0
2798	0	0	0
2799	0	0	0
2800	0	0	0
2801	0	0	0
2802	0	0	0
2803	0	0	0
2804	0	0	0
2805	0	0	0
2806	0	0	0
2807	0	0	0
2808	0	0	0
2809	0	0	0
2810	0	0	0
2811	0	0	0
2812	0	0	0
2813	0	0	0
2814	0	0	0
2815	0	0	0
2816	0	0	0
2817	0	0	0
2818	0	0	0
2819	0	0	0
2820	0	0	0
2821	0	0	0
2822	0	0	0
2823	0	0	0
2824	0	0	0
2825	241	225	249
2826	240	222	247
2827	236	212	245
2828	240	212	248
2829	236	205	242
2830	236	207	242
2831	237	207	241
2832	236	205	240
2833	237	204	240
2834	245	215	247
2835	240	207	239
2836	228	189	227
2837	235	197	237
2838	242	204	244
2839	242	201	242
2840	251	211	247
2841	247	206	239
2842	241	201	233
2843	243	206	238
2844	248	215	241
2845	249	220	239
2846	245	219	234
2847	245	219	233
2848	255	234	243
2849	250	228	237
2850	0	0	0
2851	0	0	0
2852	0	0	0
2853	0	0	0
2854	0	0	0
2855	0	0	0
2856	0	0	0
2857	0	0	0
2858	0	0	0
2859	0	0	0
2860	0	0	0
2861	0	0	0
2862	0	0	0
2863	0	0	0
2864	0	0	0
2865	0	0	0
2866	0	0	0
2867	0	0	0
2868	0	0	0
2869	0	0	0
2870	0	0	0
2871	0	0	0
2872	0	0	0
2873	0	0	0
2874	0	0	0
2875	0	0	0
2876	0	0	0
2877	0	0	0
2878	0	0	0
2879	0	0	0
2880	0	0	0
2881	0	0	0
2882	0	0	0
2883	0	0	0
2884	0	0	0
2885	0	0	0
2886	0	0	0
2887	0	0	0
2888	0	0	0
2889	0	0	0
2890	0	0	0
2891	0	0	0
2892	0	0	0
2893	0	0	0
2894	0	0	0
2895	0	0	0
2896	0	0	0
2897	0	0	0
2898	0	0	0
2899	0	0	0
2900	0	0	0
2901	0	0	0
2902	0	0	0
2903	0	0	0
2904	0	0	0
2905	0	0	0
2906	0	0	0
2907	0	0	0
2908	0	0	0
2909	0	0	0
2910	0	0	0
2911	0	0	0
2912	0	0	0
2913	0	0	0
2914	0	0	0
2915	0	0	0
2916	0	0	0
2917	0	0	0
2918	0	0	0
2919	235	218	241
2920	231	208	239
2921	234	208	242
2922	230	201	237
2923	232	205	240
2924	234	207	242
2925	235	206	242
2926	236	204	241
2927	236	200	239
2928	233	194	235
2929	238	202	240
2930	243	208	246
2931	241	206	244
2932	242	204	243
2933	247	206	244
2934	243	201	236
2935	243	205	235
2936	245	210	238
2937	251	219	242
2938	253	224	240
2939	247	221	235
2940	247	222	235
2941	248	221	234
2942	242	214	227
2943	245	224	233
2944	0	0	0
2945	0	0	0
2946	0	0	0
2947	0	0	0
2948	0	0	0
2949	0	0	0
2950	0	0	0
2951	0	0	0
2952	0	0	0
2953	0	0	0
2954	0	0	0
2955	0	0	0
2956	0	0	0
2957	0	0	0
2958	0	0	0
2959	0	0	0
2960	0	0	0
2961	0	0	0
2962	0	0	0
2963	0	0	0
2964	0	0	0
2965	0	0	0
2966	0	0	0
2967	0	0	0
2968	0	0	0
2969	0	0	0
2970	0	0	0
2971	0	0	0
2972	0	0	0
2973	0	0	0
2974	0	0	0
2975	0	0	0
2976	0	0	0
2977	0	0	0
2978	0	0	0
2979	0	0	0
2980	0	0	0
2981	0	0	0
2982	0	0	0
2983	0	0	0
2984	0	0	0
2985	0	0	0
2986	0	0	0
2987	0	0	0
2988	0	0	0
2989	0	0	0
2990	0	0	0
2991	0	0	0
2992	0	0	0
2993	0	0	0
2994	0	0	0
2995	0	0	0
2996	0	0	0
2997	0	0	0
2998	0	0	0
2999	0	0	0
3000	0	0	0
3001	0	0	0
3002	0	0	0
3003	0	0	0
3004	0	0	0
3005	0	0	0
3006	0	0	0
3007	0	0	0
3008	0	0	0
3009	0	0	0
3010	0	0	0
3011	0	0	0
3012	0	0	0
3013	236	221	244
3014	237	220	246
3015	229	206	237
3016	238	213	246
3017	236	209	245
3018	232	206	243
3019	233	206	242
3020	236	203	242
3021	237	200	241
3022	247	210	250
3023	243	204	244
3024	237	199	240
3025	240	201	242
3026	246	203	243
3027	244	201	236
3028	244	205	236
3029	245	207	237
3030	253	217	242
3031	248	213	235
3032	241	209	229
3033	243	215	232
3034	241	212	229
3035	244	216	230
3036	253	230	239
3037	249	227	236
3038	0	0	0
3039	0	0	0
3040	0	0	0
3041	0	0	0
3042	0	0	0
3043	0	0	0
3044	0	0	0
3045	0	0	0
3046	0	0	0
3047	0	0	0
3048	0	0	0
3049	0	0	0
3050	0	0	0
3051	0	0	0
3052	0	0	0
3053	0	0	0
3054	0	0	0
3055	0	0	0
3056	0	0	0
3057	0	0	0
3058	0	0	0
3059	0	0	0
3060	0	0	0
3061	0	0	0
3062	0	0	0
3063	0	0	0
3064	0	0	0
3065	0	0	0
3066	0	0	0
3067	0	0	0
3068	0	0	0
3069	0	0	0
3070	0	0	0
3071	0	0	0
3072	0	0	0
3073	0	0	0
3074	0	0	0
3075	0	0	0
3076	0	0	0
3077	0	0	0
3078	0	0	0
3079	0	0	0
3080	0	0	0
3081	0	0	0
3082	0	0	0
3083	0	0	0
3084	0	0	0
3085	0	0	0
3086	0	0	0
3087	0	0	0
3088	0	0	0
3089	0	0	0
3090	0	0	0
3091	0	0	0
3092	0	0	0
3093	0	0	0
3094	0	0	0
3095	0	0	0
3096	0	0	0
3097	0	0	0
3098	0	0	0
3099	0	0	0
3100	0	0	0
3101	0	0	0
3102	0	0	0
3103	0	0	0
3104	0	0	0
3105	0	0	0
3106	239	232	245
3107	231	219	240
3108	224	206	235
3109	232	209	242
3110	231	206	241
3111	231	206	243
3112	233	207	244
3113	236	205	245
3114	237	202	244
3115	244	204	247
3116	241	199	242
3117	238	198	241
3118	240	199	242
3119	246	203	243
3120	244	201	237
3121	243	202	235
3122	245	204	238
3123	247	205	238
3124	244	202	234
3125	243	207	234
3126	244	212	234
3127	244	215	234
3128	248	220	236
3129	250	221	236
3130	246	217	231
3131	0	0	0
3132	0	0	0
3133	0	0	0
3134	0	0	0
3135	0	0	0
3136	0	0	0
3137	0	0	0
3138	0	0	0
3139	0	0	0
3140	0	0	0
3141	0	0	0
3142	0	0	0
3143	0	0	0
3144	0	0	0
3145	0	0	0
3146	0	0	0
3147	0	0	0
3148	0	0	0
3149	0	0	0
3150	0	0	0
3151	0	0	0
3152	0	0	0
3153	0	0	0
3154	0	0	0
3155	0	0	0
3156	0	0	0
3157	0	0	0
3158	0	0	0
3159	0	0	0
3160	0	0	0
3161	0	0	0
3162	0	0	0
3163	0	0	0
3164	0	0	0
3165	0	0	0
3166	0	0	0
3167	0	0	0
3168	0	0	0
3169	0	0	0
3170	0	0	0
3171	0	0	0
3172	0	0	0
3173	0	0	0
3174	0	0	0
3175	0	0	0
3176	0	0	0
3177	0	0	0
3178	0	0	0
3179	0	0	0
3180	0	0	0
3181	0	0	0
3182	0	0	0
3183	0	0	0
3184	0	0	0
3185	0	0	0
3186	0	0	0
3187	0	0	0
3188	0	0	0
3189	0	0	0
3190	0	0	0
3191	0	0	0
3192	0	0	0
3193	0	0	0
3194	0	0	0
3195	0	0	0
3196	0	0	0
3197	0	0	0
3198	0	0	0
3199	239	237	245
3200	233	226	241
3201	229	216	240
3202	234	218	246
3203	231	211	244
3204	237	215	249
3205	236	210	247
3206	234	206	246
3207	233	199	243
3208	240	201	246
3209	241	199	244
3210	242	200	245
3211	240	196	243
3212	242	198	241
3213	244	200	239
3214	248	204	240
3215	246	202	239
3216	245	201	238
3217	246	203	238
3218	250	210	240
3219	247	210	236
3220	247	212	235
3221	250	218	238
3222	253	219	238
3223	247	212	231
3224	244	218	232
3225	0	0	0
3226	0	0	0
3227	0	0	0
3228	0	0	0
3229	0	0	0
3230	0	0	0
3231	0	0	0
3232	0	0	0
3233	0	0	0
3234	0	0	0
3235	0	0	0
3236	0	0	0
3237	0	0	0
3238	0	0	0
3239	0	0	0
3240	0	0	0
3241	0	0	0
3242	0	0	0
3243	0	0	0
3244	0	0	0
3245	0	0	0
3246	0	0	0
3247	0	0	0
3248	0	0	0
3249	0	0	0
3250	0	0	0
3251	0	0	0
3252	0	0	0
3253	0	0	0
3254	0	0	0
3255	0	0	0
3256	0	0	0
3257	0	0	0
3258	0	0	0
3259	0	0	0
3260	0	0	0
3261	0	0	0
3262	0	0	0
3263	0	0	0
3264	0	0	0
3265	0	0	0
3266	0	0	0
3267	0	0	0
3268	0	0	0
3269	0	0	0
3270	0	0	0
3271	0	0	0
3272	0	0	0
3273	0	0	0
3274	0	0	0
3275	0	0	0
3276	0	0	0
3277	0	0	0
3278	0	0	0
3279	0	0	0
3280	0	0	0
3281	0	0	0
3282	0	0	0
3283	0	0	0
3284	0	0	0
3285	0	0	0
3286	0	0	0
3287	0	0	0
3288	0	0	0
3289	0	0	0
3290	0	0	0
3291	0	0	0
3292	0	0	0
3293	237	235	244
3294	233	225	244
3295	230	218	243
3296	227	211	241
3297	229	209	243
3298	227	203	240
3299	224	197	238
3300	222	190	236
3301	230	193	241
3302	231	191	240
3303	234	191	241
3304	232	188	239
3305	237	195	241
3306	241	198	240
3307	244	199	239
3308	243	197	237
3309	245	200	239
3310	247	203	240
3311	252	208	241
3312	249	207	237
3313	245	208	234
3314	249	214	238
3315	250	212	237
3316	244	206	230
3317	241	210	229
3318	0	0	0
3319	0	0	0
3320	0	0	0
3321	0	0	0
3322	0	0	0
3323	0	0	0
3324	0	0	0
3325	0	0	0
3326	0	0	0
3327	0	0	0
3328	0	0	0
3329	0	0	0
3330	0	0	0
3331	0	0	0
3332	0	0	0
3333	0	0	0
3334	0	0	0
3335	0	0	0
3336	0	0	0
3337	0	0	0
3338	0	0	0
3339	0	0	0
3340	0	0	0
3341	0	0	0
3342	0	0	0
3343	0	0	0
3344	0	0	0
3345	0	0	0
3346	0	0	0
3347	0	0	0
3348	0	0	0
3349	0	0	0
3350	0	0	0
3351	0	0	0
3352	0	0	0
3353	0	0	0
3354	0	0	0
3355	0	0	0
3356	0	0	0
3357	0	0	0
3358	0	0	0
3359	0	0	0
3360	0	0	0
3361	0	0	0
3362	0	0	0
3363	0	0	0
3364	0	0	0
3365	0	0	0
3366	0	0	0
3367	0	0	0
3368	0	0	0
3369	0	0	0
3370	0	0	0
3371	0	0	0
3372	0	0	0
3373	0	0	0
3374	0	0	0
3375	0	0	0
3376	0	0	0
3377	0	0	0
3378	0	0	0
3379	0	0	0
3380	0	0	0
3381	0	0	0
3382	0	0	0
3383	0	0	0
3384	0	0	0
3385	0	0	0
3386	0	0	0
3387	0	0	0
3388	0	0	0
3389	0	0	0
3390	0	0	0
3391	230	217	245
3392	228	212	245
3393	223	201	241
3394	229	203	246
3395	230	200	245
3396	235	202	248
3397	234	196	244
3398	239	203	248
3399	235	194	241
3400	239	196	241
3401	240	194	238
3402	245	199	241
3403	248	200	241
3404	254	206	244
3405	241	193	231
3406	232	190	225
3407	244	210	238
3408	248	209	238
3409	246	207	232
3410	0	0	0
3411	0	0	0
3412	0	0	0
3413	0	0	0
3414	0	0	0
3415	0	0	0
3416	0	0	0
3417	0	0	0
3418	0	0	0
3419	0	0	0
3420	0	0	0
3421	0	0	0
3422	0	0	0
3423	0	0	0
3424	0	0	0
3425	0	0	0
3426	0	0	0
3427	0	0	0
3428	0	0	0
3429	0	0	0
3430	0	0	0
3431	0	0	0
3432	0	0	0
3433	0	0	0
3434	0	0	0
3435	0	0	0
3436	0	0	0
3437	0	0	0
3438	0	0	0
3439	0	0	0
3440	0	0	0
3441	0	0	0
3442	0	0	0
3443	0	0	0
3444	0	0	0
3445	0	0	0
3446	0	0	0
3447	0	0	0
3448	0	0	0
3449	0	0	0
3450	0	0	0
3451	0	0	0
3452	0	0	0
3453	0	0	0
3454	0	0	0
3455	0	0	0
3456	0	0	0
3457	0	0	0
3458	0	0	0
3459	0	0	0
3460	0	0	0
3461	0	0	0
3462	0	0	0
3463	0	0	0
3464	0	0	0
3465	0	0	0
3466	0	0	0
3467	0	0	0
3468	0	0	0
3469	0	0	0
3470	0	0	0
3471	0	0	0
3472	0	0	0
3473	0	0	0
3474	0	0	0
3475	0	0	0
3476	0	0	0
3477	0	0	0
3478	0	0	0
3479	0	0	0
3480	0	0	0
3481	0	0	0
3482	0	0	0
3483	0	0	0
3484	0	0	0
3485	226	217	243
3486	221	206	239
3487	225	206	243
3488	226	204	243
3489	232	204	247
3490	231	199	244
3491	230	195	243
3492	227	188	240
3493	232	191	242
3494	233	189	237
3495	238	191	238
3496	242	193	240
3497	240	187	237
3498	228	174	224
3499	232	189	231
3500	244	208	242
3501	248	209	240
3502	246	207	234
3503	248	215	235
3504	253	224	240
3505	0	0	0
3506	0	0	0
3507	0	0	0
3508	0	0	0
3509	0	0	0
3510	0	0	0
3511	0	0	0
3512	0	0	0
3513	0	0	0
3514	0	0	0
3515	0	0	0
3516	0	0	0
3517	0	0	0
3518	0	0	0
3519	0	0	0
3520	0	0	0
3521	0	0	0
3522	0	0	0
3523	0	0	0
3524	0	0	0
3525	0	0	0
3526	0	0	0
3527	0	0	0
3528	0	0	0
3529	0	0	0
3530	0	0	0
3531	0	0	0
3532	0	0	0
3533	0	0	0
3534	0	0	0
3535	0	0	0
3536	0	0	0
3537	0	0	0
3538	0	0	0
3539	0	0	0
3540	0	0	0
3541	0	0	0
3542	0	0	0
3543	0	0	0
3544	0	0	0
3545	0	0	0
3546	0	0	0
3547	0	0	0
3548	0	0	0
3549	0	0	0
3550	0	0	0
3551	0	0	0
3552	0	0	0
3553	0	0	0
3554	0	0	0
3555	0	0	0
3556	0	0	0
3557	0	0	0
3558	0	0	0
3559	0	0	0
3560	0	0	0
3561	0	0	0
3562	0	0	0
3563	0	0	0
3564	0	0	0
3565	0	0	0
3566	0	0	0
3567	0	0	0
3568	0	0	0
3569	0	0	0
3570	0	0	0
3571	0	0	0
3572	0	0	0
3573	0	0	0
3574	0	0	0
3575	0	0	0
3576	0	0	0
3577	0	0	0
3578	0	0	0
3579	0	0	0
3580	0	0	0
3581	232	215	246
3582	237	215	250
3583	229	200	243
3584	228	197	245
3585	226	191	244
3586	229	193	245
3587	230	190	241
3588	237	194	243
3589	238	193	242
3590	234	186	237
3591	232	184	234
3592	245	204	245
3593	246	207	244
3594	246	205	239
3595	249	208	236
3596	255	219	240
3597	248	211	232
3598	238	202	225
3599	0	0	0
3600	0	0	0
3601	0	0	0
3602	0	0	0
3603	0	0	0
3604	0	0	0
3605	0	0	0
3606	0	0	0
3607	0	0	0
3608	0	0	0
3609	0	0	0
3610	0	0	0
3611	0	0	0
3612	0	0	0
3613	0	0	0
3614	0	0	0
3615	0	0	0
3616	0	0	0
3617	0	0	0
3618	0	0	0
3619	0	0	0
3620	0	0	0
3621	0	0	0
3622	0	0	0
3623	0	0	0
3624	0	0	0
3625	0	0	0
3626	0	0	0
3627	0	0	0
3628	0	0	0
3629	0	0	0
3630	0	0	0
3631	0	0	0
3632	0	0	0
3633	0	0	0
3634	0	0	0
3635	0	0	0
3636	0	0	0
3637	0	0	0
3638	0	0	0
3639	0	0	0
3640	0	0	0
3641	0	0	0
3642	0	0	0
3643	0	0	0
3644	0	0	0
3645	0	0	0
3646	0	0	0
3647	0	0	0
3648	0	0	0
3649	0	0	0
3650	0	0	0
3651	0	0	0
3652	0	0	0
3653	0	0	0
3654	0	0	0
3655	0	0	0
3656	0	0	0
3657	0	0	0
3658	0	0	0
3659	0	0	0
3660	0	0	0
3661	0	0	0
3662	0	0	0
3663	0	0	0
3664	0	0	0
3665	0	0	0
3666	0	0	0
3667	0	0	0
3668	0	0	0
3669	0	0	0
3670	0	0	0
3671	0	0	0
3672	0	0	0
3673	0	0	0
3674	0	0	0
3675	228	209	240
3676	222	196	238
3677	222	194	242
3678	219	187	238
3679	224	190	242
3680	226	190	242
3681	233	193	244
3682	235	192	241
3683	238	194	241
3684	239	193	240
3685	247	202	245
3686	249	205	245
3687	249	208	242
3688	251	210	238
3689	248	205	232
3690	242	198	227
3691	246	209	234
3692	252	223	241
3693	0	0	0
3694	0	0	0
3695	0	0	0
3696	0	0	0
3697	0	0	0
3698	0	0	0
3699	0	0	0
3700	0	0	0
3701	0	0	0
3702	0	0	0
3703	0	0	0
3704	0	0	0
3705	0	0	0
3706	0	0	0
3707	0	0	0
3708	0	0	0
3709	0	0	0
3710	0	0	0
3711	0	0	0
3712	0	0	0
3713	0	0	0
3714	0	0	0
3715	0	0	0
3716	0	0	0
3717	0	0	0
3718	0	0	0
3719	0	0	0
3720	0	0	0
3721	0	0	0
3722	0	0	0
3723	0	0	0
3724	0	0	0
3725	0	0	0
3726	0	0	0
3727	0	0	0
3728	0	0	0
3729	0	0	0
3730	0	0	0
3731	0	0	0
3732	0	0	0
3733	0	0	0
3734	0	0	0
3735	0	0	0
3736	0	0	0
3737	0	0	0
3738	0	0	0
3739	0	0	0
3740	0	0	0
3741	0	0	0
3742	0	0	0
3743	0	0	0
3744	0	0	0
3745	0	0	0
3746	0	0	0
3747	0	0	0
3748	0	0	0
3749	0	0	0
3750	0	0	0
3751	0	0	0
3752	0	0	0
3753	0	0	0
3754	0	0	0
3755	0	0	0
3756	0	0	0
3757	0	0	0
3758	0	0	0
3759	0	0	0
3760	0	0	0
3761	0	0	0
3762	0	0	0
3763	0	0	0
3764	0	0	0
3765	0	0	0
3766	0	0	0
3767	0	0	0
3768	0	0	0
3769	230	212	246
3770	231	211	250
3771	225	199	243
3772	233	204	250
3773	230	195	246
3774	236	198	249
3775	238	196	244
3776	245	200	246
3777	242	191	241
3778	251	200	247
3779	247	195	241
3780	243	196	237
3781	240	195	232
3782	237	189	225
3783	244	199	232
3784	253	214	240
3785	252	218	238
3786	0	0	0
3787	244	217	232
3788	0	0	0
3789	0	0	0
3790	0	0	0
3791	0	0	0
3792	0	0	0
3793	0	0	0
3794	0	0	0
3795	0	0	0
3796	0	0	0
3797	0	0	0
3798	0	0	0
3799	0	0	0
3800	0	0	0
3801	0	0	0
3802	0	0	0
3803	0	0	0
3804	0	0	0
3805	0	0	0
3806	0	0	0
3807	0	0	0
3808	0	0	0
3809	0	0	0
3810	0	0	0
3811	0	0	0
3812	0	0	0
3813	0	0	0
3814	0	0	0
3815	0	0	0
3816	0	0	0
3817	0	0	0
3818	0	0	0
3819	0	0	0
3820	0	0	0
3821	0	0	0
3822	0	0	0
3823	0	0	0
3824	0	0	0
3825	0	0	0
3826	0	0	0
3827	0	0	0
3828	0	0	0
3829	0	0	0
3830	0	0	0
3831	0	0	0
3832	0	0	0
3833	0	0	0
3834	0	0	0
3835	0	0	0
3836	0	0	0
3837	0	0	0
3838	0	0	0
3839	0	0	0
3840	0	0	0
3841	0	0	0
3842	0	0	0
3843	0	0	0
3844	0	0	0
3845	0	0	0
3846	0	0	0
3847	0	0	0
3848	0	0	0
3849	0	0	0
3850	0	0	0
3851	0	0	0
3852	0	0	0
3853	0	0	0
3854	0	0	0
3855	0	0	0
3856	0	0	0
3857	0	0	0
3858	0	0	0
3859	0	0	0
3860	0	0	0
3861	0	0	0
3862	235	226	249
3863	230	215	246
3864	225	205	241
3865	227	201	244
3866	225	193	242
3867	231	196	245
3868	234	195	241
3869	236	190	239
3870	235	182	236
3871	240	184	239
3872	236	179	233
3873	236	182	233
3874	235	183	232
3875	245	195	238
3876	250	204	238
3877	253	210	238
3878	254	215	238
3879	250	215	235
3880	249	218	234
3881	251	223	236
3882	0	0	0
3883	0	0	0
3884	0	0	0
3885	0	0	0
3886	0	0	0
3887	0	0	0
3888	0	0	0
3889	0	0	0
3890	0	0	0
3891	0	0	0
3892	0	0	0
3893	0	0	0
3894	0	0	0
3895	0	0	0
3896	0	0	0
3897	0	0	0
3898	0	0	0
3899	0	0	0
3900	0	0	0
3901	0	0	0
3902	0	0	0
3903	0	0	0
3904	0	0	0
3905	0	0	0
3906	0	0	0
3907	0	0	0
3908	0	0	0
3909	0	0	0
3910	0	0	0
3911	0	0	0
3912	0	0	0
3913	0	0	0
3914	0	0	0
3915	0	0	0
3916	0	0	0
3917	0	0	0
3918	0	0	0
3919	0	0	0
3920	0	0	0
3921	0	0	0
3922	0	0	0
3923	0	0	0
3924	0	0	0
3925	0	0	0
3926	0	0	0
3927	0	0	0
3928	0	0	0
3929	0	0	0
3930	0	0	0
3931	0	0	0
3932	0	0	0
3933	0	0	0
3934	0	0	0
3935	0	0	0
3936	0	0	0
3937	0	0	0
3938	0	0	0
3939	0	0	0
3940	0	0	0
3941	0	0	0
3942	0	0	0
3943	0	0	0
3944	0	0	0
3945	0	0	0
3946	0	0	0
3947	0	0	0
3948	0	0	0
3949	0	0	0
3950	0	0	0
3951	0	0	0
3952	0	0	0
3953	0	0	0
3954	0	0	0
3955	236	232	247
3956	230	221	243
3957	224	210	240
3958	225	206	242
3959	225	200	244
3960	232	205	249
3961	229	193	240
3962	231	189	239
3963	235	189	241
3964	238	191	244
3965	235	183	239
3966	244	191	245
3967	241	184	240
3968	252	197	245
3969	249	195	237
3970	249	199	234
3971	252	206	235
3972	249	207	232
3973	247	207	230
3974	250	212	232
3975	253	221	236
3976	0	0	0
3977	0	0	0
3978	0	0	0
3979	0	0	0
3980	0	0	0
3981	0	0	0
3982	0	0	0
3983	0	0	0
3984	0	0	0
3985	0	0	0
3986	0	0	0
3987	0	0	0
3988	0	0	0
3989	0	0	0
3990	0	0	0
3991	0	0	0
3992	0	0	0
3993	0	0	0
3994	0	0	0
3995	0	0	0
3996	0	0	0
3997	0	0	0
3998	0	0	0
3999	0	0	0
4000	0	0	0
4001	0	0	0
4002	0	0	0
4003	0	0	0
4004	0	0	0
4005	0	0	0
4006	0	0	0
4007	0	0	0
4008	0	0	0
4009	0	0	0
4010	0	0	0
4011	0	0	0
4012	0	0	0
4013	0	0	0
4014	0	0	0
4015	0	0	0
4016	0	0	0
4017	0	0	0
4018	0	0	0
4019	0	0	0
4020	0	0	0
4021	0	0	0
4022	0	0	0
4023	0	0	0
4024	0	0	0
4025	0	0	0
4026	0	0	0
4027	0	0	0
4028	0	0	0
4029	0	0	0
4030	0	0	0
4031	0	0	0
4032	0	0	0
4033	0	0	0
4034	0	0	0
4035	0	0	0
4036	0	0	0
4037	0	0	0
4038	0	0	0
4039	0	0	0
4040	0	0	0
4041	0	0	0
4042	0	0	0
4043	0	0	0
4044	0	0	0
4045	0	0	0
4046	0	0	0
4047	0	0	0
4048	0	0	0
4049	230	225	239
4050	224	214	237
4051	222	209	240
4052	221	203	241
4053	222	197	242
4054	220	188	237
4055	228	192	241
4056	231	191	240
4057	230	187	240
4058	231	182	240
4059	239	184	244
4060	237	177	238
4061	244	183	239
4062	242	182	234
4063	247	190	234
4064	248	197	232
4065	245	196	228
4066	245	198	229
4067	253	209	235
4068	254	215	234
4069	0	0	0
4070	0	0	0
4071	0	0	0
4072	0	0	0
4073	0	0	0
4074	0	0	0
4075	0	0	0
4076	0	0	0
4077	0	0	0
4078	0	0	0
4079	0	0	0
4080	0	0	0
4081	0	0	0
4082	0	0	0
4083	0	0	0
4084	0	0	0
4085	0	0	0
4086	0	0	0
4087	0	0	0
4088	0	0	0
4089	0	0	0
4090	0	0	0
4091	0	0	0
4092	0	0	0
4093	0	0	0
4094	0	0	0
4095	0	0	0
4096	0	0	0
4097	0	0	0
4098	0	0	0
4099	0	0	0
4100	0	0	0
4101	0	0	0
4102	0	0	0
4103	0	0	0
4104	0	0	0
4105	0	0	0
4106	0	0	0
4107	0	0	0
4108	0	0	0
4109	0	0	0
4110	0	0	0
4111	0	0	0
4112	0	0	0
4113	0	0	0
4114	0	0	0
4115	0	0	0
4116	0	0	0
4117	0	0	0
4118	0	0	0
4119	0	0	0
4120	0	0	0
4121	0	0	0
4122	0	0	0
4123	0	0	0
4124	0	0	0
4125	0	0	0
4126	0	0	0
4127	0	0	0
4128	0	0	0
4129	0	0	0
4130	0	0	0
4131	0	0	0
4132	0	0	0
4133	0	0	0
4134	0	0	0
4135	0	0	0
4136	0	0	0
4137	0	0	0
4138	0	0	0
4139	0	0	0
4140	0	0	0
4141	0	0	0
4142	0	0	0
4143	232	228	242
4144	228	222	243
4145	225	214	243
4146	226	209	245
4147	225	202	244
4148	233	206	249
4149	230	197	242
4150	232	195	243
4151	232	186	244
4152	240	188	249
4153	237	179	241
4154	244	186	244
4155	243	183	240
4156	250	193	242
4157	245	189	232
4158	242	188	228
4159	247	197	234
4160	255	208	239
4161	246	200	228
4162	0	0	0
4163	0	0	0
4164	0	0	0
4165	0	0	0
4166	0	0	0
4167	0	0	0
4168	0	0	0
4169	0	0	0
4170	0	0	0
4171	0	0	0
4172	0	0	0
4173	0	0	0
4174	0	0	0
4175	0	0	0
4176	0	0	0
4177	0	0	0
4178	0	0	0
4179	0	0	0
4180	0	0	0
4181	0	0	0
4182	0	0	0
4183	0	0	0
4184	0	0	0
4185	0	0	0
4186	0	0	0
4187	0	0	0
4188	0	0	0
4189	0	0	0
4190	0	0	0
4191	0	0	0
4192	0	0	0
4193	0	0	0
4194	0	0	0
4195	0	0	0
4196	0	0	0
4197	0	0	0
4198	0	0	0
4199	0	0	0
4200	0	0	0
4201	0	0	0
4202	0	0	0
4203	0	0	0
4204	0	0	0
4205	0	0	0
4206	0	0	0
4207	0	0	0
4208	0	0	0
4209	0	0	0
4210	0	0	0
4211	0	0	0
4212	0	0	0
4213	0	0	0
4214	0	0	0
4215	0	0	0
4216	0	0	0
4217	0	0	0
4218	0	0	0
4219	0	0	0
4220	0	0	0
4221	0	0	0
4222	0	0	0
4223	0	0	0
4224	0	0	0
4225	0	0	0
4226	0	0	0
4227	0	0	0
4228	0	0	0
4229	0	0	0
4230	0	0	0
4231	0	0	0
4232	0	0	0
4233	0	0	0
4234	0	0	0
4235	0	0	0
4236	0	0	0
4237	234	232	242
4238	229	224	242
4239	228	218	243
4240	227	212	243
4241	228	207	243
4242	227	199	239
4243	226	192	238
4244	226	184	239
4245	236	185	245
4246	233	176	239
4247	236	178	240
4248	236	176	238
4249	239	179	238
4250	235	176	230
4251	239	184	231
4252	242	191	232
4253	242	189	229
4254	236	184	223
4255	244	200	230
4256	254	217	237
4257	255	221	236
4258	254	221	235
4259	0	0	0
4260	0	0	0
4261	0	0	0
4262	0	0	0
4263	0	0	0
4264	0	0	0
4265	0	0	0
4266	0	0	0
4267	0	0	0
4268	0	0	0
4269	0	0	0
4270	0	0	0
4271	0	0	0
4272	0	0	0
4273	0	0	0
4274	0	0	0
4275	0	0	0
4276	0	0	0
4277	0	0	0
4278	0	0	0
4279	0	0	0
4280	0	0	0
4281	0	0	0
4282	0	0	0
4283	0	0	0
4284	0	0	0
4285	0	0	0
4286	0	0	0
4287	0	0	0
4288	0	0	0
4289	0	0	0
4290	0	0	0
4291	0	0	0
4292	0	0	0
4293	0	0	0
4294	0	0	0
4295	0	0	0
4296	0	0	0
4297	0	0	0
4298	0	0	0
4299	0	0	0
4300	0	0	0
4301	0	0	0
4302	0	0	0
4303	0	0	0
4304	0	0	0
4305	0	0	0
4306	0	0	0
4307	0	0	0
4308	0	0	0
4309	0	0	0
4310	0	0	0
4311	0	0	0
4312	0	0	0
4313	0	0	0
4314	0	0	0
4315	0	0	0
4316	0	0	0
4317	0	0	0
4318	0	0	0
4319	0	0	0
4320	0	0	0
4321	0	0	0
4322	0	0	0
4323	0	0	0
4324	0	0	0
4325	0	0	0
4326	0	0	0
4327	0	0	0
4328	0	0	0
4329	0	0	0
4330	0	0	0
4331	236	233	243
4332	231	225	242
4333	228	218	241
4334	229	214	242
4335	228	207	240
4336	227	200	240
4337	229	192	242
4338	242	196	252
4339	231	175	239
4340	230	175	239
4341	237	184	245
4342	242	188	246
4343	237	181	238
4344	240	189	239
4345	236	185	231
4346	234	183	227
4347	242	192	234
4348	255	212	245
4349	254	209	236
4350	254	210	233
4351	251	212	231
4352	247	218	231
4353	0	0	0
4354	0	0	0
4355	0	0	0
4356	0	0	0
4357	0	0	0
4358	0	0	0
4359	0	0	0
4360	0	0	0
4361	0	0	0
4362	0	0	0
4363	0	0	0
4364	0	0	0
4365	0	0	0
4366	0	0	0
4367	0	0	0
4368	0	0	0
4369	0	0	0
4370	0	0	0
4371	0	0	0
4372	0	0	0
4373	0	0	0
4374	0	0	0
4375	0	0	0
4376	0	0	0
4377	0	0	0
4378	0	0	0
4379	0	0	0
4380	0	0	0
4381	0	0	0
4382	0	0	0
4383	0	0	0
4384	0	0	0
4385	0	0	0
4386	0	0	0
4387	0	0	0
4388	0	0	0
4389	0	0	0
4390	0	0	0
4391	0	0	0
4392	0	0	0
4393	0	0	0
4394	0	0	0
4395	0	0	0
4396	0	0	0
4397	0	0	0
4398	0	0	0
4399	0	0	0
4400	0	0	0
4401	0	0	0
4402	0	0	0
4403	0	0	0
4404	0	0	0
4405	0	0	0
4406	0	0	0
4407	0	0	0
4408	0	0	0
4409	0	0	0
4410	0	0	0
4411	0	0	0
4412	0	0	0
4413	0	0	0
4414	0	0	0
4415	0	0	0
4416	0	0	0
4417	0	0	0
4418	0	0	0
4419	0	0	0
4420	0	0	0
4421	0	0	0
4422	0	0	0
4423	0	0	0
4424	0	0	0
4425	235	232	243
4426	231	225	241
4427	229	219	240
4428	228	213	239
4429	225	204	238
4430	228	197	241
4431	234	189	244
4432	224	170	235
4433	230	180	242
4434	236	188	246
4435	238	187	244
4436	235	182	240
4437	237	184	240
4438	234	181	233
4439	240	190	237
4440	248	200	242
4441	250	199	240
4442	248	196	233
4443	251	202	233
4444	249	203	230
4445	246	210	229
4446	247	218	231
4447	248	223	231
4448	0	0	0
4449	0	0	0
4450	0	0	0
4451	0	0	0
4452	0	0	0
4453	0	0	0
4454	0	0	0
4455	0	0	0
4456	0	0	0
4457	0	0	0
4458	0	0	0
4459	0	0	0
4460	0	0	0
4461	0	0	0
4462	0	0	0
4463	0	0	0
4464	0	0	0
4465	0	0	0
4466	0	0	0
4467	0	0	0
4468	0	0	0
4469	0	0	0
4470	0	0	0
4471	0	0	0
4472	0	0	0
4473	0	0	0
4474	0	0	0
4475	0	0	0
4476	0	0	0
4477	0	0	0
4478	0	0	0
4479	0	0	0
4480	0	0	0
4481	0	0	0
4482	0	0	0
4483	0	0	0
4484	0	0	0
4485	0	0	0
4486	0	0	0
4487	0	0	0
4488	0	0	0
4489	0	0	0
4490	0	0	0
4491	0	0	0
4492	0	0	0
4493	0	0	0
4494	0	0	0
4495	0	0	0
4496	0	0	0
4497	0	0	0
4498	0	0	0
4499	0	0	0
4500	0	0	0
4501	0	0	0
4502	0	0	0
4503	0	0	0
4504	0	0	0
4505	0	0	0
4506	0	0	0
4507	0	0	0
4508	0	0	0
4509	0	0	0
4510	0	0	0
4511	0	0	0
4512	0	0	0
4513	0	0	0
4514	0	0	0
4515	0	0	0
4516	0	0	0
4517	0	0	0
4518	0	0	0
4519	235	233	242
4520	231	226	241
4521	229	219	239
4522	226	210	238
4523	228	203	242
4524	234	195	246
4525	228	180	240
4526	236	192	250
4527	237	191	248
4528	238	190	246
4529	234	180	241
4530	241	185	245
4531	238	180	238
4532	243	190	241
4533	242	189	239
4534	241	188	234
4535	247	195	236
4536	253	202	238
4537	248	198	231
4538	247	206	231
4539	246	210	230
4540	248	215	230
4541	248	219	229
4542	0	0	0
4543	0	0	0
4544	0	0	0
4545	0	0	0
4546	0	0	0
4547	0	0	0
4548	0	0	0
4549	0	0	0
4550	0	0	0
4551	0	0	0
4552	0	0	0
4553	0	0	0
4554	0	0	0
4555	0	0	0
4556	0	0	0
4557	0	0	0
4558	0	0	0
4559	0	0	0
4560	0	0	0
4561	0	0	0
4562	0	0	0
4563	0	0	0
4564	0	0	0
4565	0	0	0
4566	0	0	0
4567	0	0	0
4568	0	0	0
4569	0	0	0
4570	0	0	0
4571	0	0	0
4572	0	0	0
4573	0	0	0
4574	0	0	0
4575	0	0	0
4576	0	0	0
4577	0	0	0
4578	0	0	0
4579	0	0	0
4580	0	0	0
4581	0	0	0
4582	0	0	0
4583	0	0	0
4584	0	0	0
4585	0	0	0
4586	0	0	0
4587	0	0	0
4588	0	0	0
4589	0	0	0
4590	0	0	0
4591	0	0	0
4592	0	0	0
4593	0	0	0
4594	0	0	0
4595	0	0	0
4596	0	0	0
4597	0	0	0
4598	0	0	0
4599	0	0	0
4600	0	0	0
4601	0	0	0
4602	0	0	0
4603	0	0	0
4604	0	0	0
4605	0	0	0
4606	0	0	0
4607	0	0	0
4608	0	0	0
4609	0	0	0
4610	0	0	0
4611	0	0	0
4612	0	0	0
4613	233	232	241
4614	230	224	240
4615	224	212	236
4616	0	0	0
4617	228	197	242
4618	222	183	237
4619	229	188	244
4620	231	189	246
4621	231	182	243
4622	228	172	237
4623	234	176	239
4624	232	172	232
4625	233	174	232
4626	232	175	231
4627	239	184	236
4628	245	191	238
4629	248	193	236
4630	243	190	229
4631	242	195	229
4632	243	201	229
4633	246	207	230
4634	247	211	228
4635	250	218	229
4636	0	0	0
4637	0	0	0
4638	0	0	0
4639	0	0	0
4640	0	0	0
4641	0	0	0
4642	0	0	0
4643	0	0	0
4644	0	0	0
4645	0	0	0
4646	0	0	0
4647	0	0	0
4648	0	0	0
4649	0	0	0
4650	0	0	0
4651	0	0	0
4652	0	0	0
4653	0	0	0
4654	0	0	0
4655	0	0	0
4656	0	0	0
4657	0	0	0
4658	0	0	0
4659	0	0	0
4660	0	0	0
4661	0	0	0
4662	0	0	0
4663	0	0	0
4664	0	0	0
4665	0	0	0
4666	0	0	0
4667	0	0	0
4668	0	0	0
4669	0	0	0
4670	0	0	0
4671	0	0	0
4672	0	0	0
4673	0	0	0
4674	0	0	0
4675	0	0	0
4676	0	0	0
4677	0	0	0
4678	0	0	0
4679	0	0	0
4680	0	0	0
4681	0	0	0
4682	0	0	0
4683	0	0	0
4684	0	0	0
4685	0	0	0
4686	0	0	0
4687	0	0	0
4688	0	0	0
4689	0	0	0
4690	0	0	0
4691	0	0	0
4692	0	0	0
4693	0	0	0
4694	0	0	0
4695	0	0	0
4696	0	0	0
4697	0	0	0
4698	0	0	0
4699	0	0	0
4700	0	0	0
4701	0	0	0
4702	0	0	0
4703	0	0	0
4704	0	0	0
4705	0	0	0
4706	0	0	0
4707	234	232	241
4708	0	0	0
4709	0	0	0
4710	0	0	0
4711	221	194	238
4712	232	203	249
4713	227	189	245
4714	230	185	244
4715	231	180	242
4716	234	182	242
4717	231	177	236
4718	234	181	237
4719	237	183	238
4720	247	194	244
4721	247	192	241
4722	247	193	238
4723	240	186	229
4724	240	192	229
4725	245	202	233
4726	250	209	235
4727	249	207	229
4728	255	216	233
4729	250	210	227
4730	0	0	0
4731	0	0	0
4732	0	0	0
4733	0	0	0
4734	0	0	0
4735	0	0	0
4736	240	223	227
4737	0	0	0
4738	0	0	0
4739	0	0	0
4740	0	0	0
4741	0	0	0
4742	0	0	0
4743	0	0	0
4744	0	0	0
4745	0	0	0
4746	0	0	0
4747	0	0	0
4748	0	0	0
4749	0	0	0
4750	0	0	0
4751	0	0	0
4752	0	0	0
4753	0	0	0
4754	0	0	0
4755	0	0	0
4756	0	0	0
4757	0	0	0
4758	0	0	0
4759	0	0	0
4760	0	0	0
4761	0	0	0
4762	0	0	0
4763	0	0	0
4764	0	0	0
4765	0	0	0
4766	0	0	0
4767	0	0	0
4768	0	0	0
4769	0	0	0
4770	0	0	0
4771	0	0	0
4772	0	0	0
4773	0	0	0
4774	0	0	0
4775	0	0	0
4776	0	0	0
4777	0	0	0
4778	0	0	0
4779	0	0	0
4780	0	0	0
4781	0	0	0
4782	0	0	0
4783	0	0	0
4784	0	0	0
4785	0	0	0
4786	0	0	0
4787	0	0	0
4788	0	0	0
4789	0	0	0
4790	0	0	0
4791	0	0	0
4792	0	0	0
4793	0	0	0
4794	0	0	0
4795	0	0	0
4796	0	0	0
4797	0	0	0
4798	0	0	0
4799	0	0	0
4800	0	0	0
4801	0	0	0
4802	0	0	0
4803	0	0	0
4804	225	207	240
4805	226	199	241
4806	224	188	240
4807	233	191	246
4808	233	186	242
4809	233	185	241
4810	231	181	238
4811	236	186	240
4812	239	187	238
4813	241	187	237
4814	241	186	235
4815	239	183	231
4816	233	177	224
4817	241	190	230
4818	247	201	234
4819	247	201	231
4820	246	199	226
4821	245	197	224
4822	241	192	221
4823	248	207	229
4824	255	221	235
4825	255	224	233
4826	255	226	233
4827	251	225	230
4828	249	226	230
4829	249	231	233
4830	254	240	241
4831	251	237	239
4832	0	0	0
4833	0	0	0
4834	0	0	0
4835	0	0	0
4836	0	0	0
4837	0	0	0
4838	0	0	0
4839	0	0	0
4840	0	0	0
4841	0	0	0
4842	0	0	0
4843	0	0	0
4844	0	0	0
4845	0	0	0
4846	0	0	0
4847	0	0	0
4848	0	0	0
4849	0	0	0
4850	0	0	0
4851	0	0	0
4852	0	0	0
4853	0	0	0
4854	0	0	0
4855	0	0	0
4856	0	0	0
4857	0	0	0
4858	0	0	0
4859	0	0	0
4860	0	0	0
4861	0	0	0
4862	0	0	0
4863	0	0	0
4864	0	0	0
4865	0	0	0
4866	0	0	0
4867	0	0	0
4868	0	0	0
4869	0	0	0
4870	0	0	0
4871	0	0	0
4872	0	0	0
4873	0	0	0
4874	0	0	0
4875	0	0	0
4876	0	0	0
4877	0	0	0
4878	0	0	0
4879	0	0	0
4880	0	0	0
4881	0	0	0
4882	0	0	0
4883	0	0	0
4884	0	0	0
4885	0	0	0
4886	0	0	0
4887	0	0	0
4888	0	0	0
4889	0	0	0
4890	0	0	0
4891	0	0	0
4892	0	0	0
4893	0	0	0
4894	0	0	0
4895	0	0	0
4896	0	0	0
4897	230	215	242
4898	233	208	244
4899	230	194	242
4900	238	196	248
4901	233	186	240
4902	232	184	238
4903	233	184	239
4904	241	190	243
4905	237	185	236
4906	236	183	232
4907	237	185	233
4908	236	183	230
4909	241	187	231
4910	253	203	241
4911	245	191	231
4912	241	190	227
4913	241	191	225
4914	239	188	222
4915	245	197	228
4916	255	214	239
4917	252	209	230
4918	252	211	228
4919	249	211	226
4920	243	209	222
4921	246	218	226
4922	248	223	229
4923	252	231	236
4924	247	227	234
4925	244	225	231
4926	0	0	0
4927	0	0	0
4928	0	0	0
4929	0	0	0
4930	0	0	0
4931	0	0	0
4932	0	0	0
4933	0	0	0
4934	0	0	0
4935	0	0	0
4936	0	0	0
4937	0	0	0
4938	0	0	0
4939	0	0	0
4940	0	0	0
4941	0	0	0
4942	0	0	0
4943	0	0	0
4944	0	0	0
4945	0	0	0
4946	0	0	0
4947	0	0	0
4948	0	0	0
4949	0	0	0
4950	0	0	0
4951	0	0	0
4952	0	0	0
4953	0	0	0
4954	0	0	0
4955	0	0	0
4956	0	0	0
4957	0	0	0
4958	0	0	0
4959	0	0	0
4960	0	0	0
4961	0	0	0
4962	0	0	0
4963	0	0	0
4964	0	0	0
4965	0	0	0
4966	0	0	0
4967	0	0	0
4968	0	0	0
4969	0	0	0
4970	0	0	0
4971	0	0	0
4972	0	0	0
4973	0	0	0
4974	0	0	0
4975	0	0	0
4976	0	0	0
4977	0	0	0
4978	0	0	0
4979	0	0	0
4980	0	0	0
4981	0	0	0
4982	0	0	0
4983	0	0	0
4984	0	0	0
4985	0	0	0
4986	0	0	0
4987	0	0	0
4988	0	0	0
4989	0	0	0
4990	0	0	0
4991	230	207	239
4992	226	192	236
4993	231	191	239
4994	227	182	234
4995	233	186	239
4996	235	186	239
4997	239	187	240
4998	237	182	234
4999	237	184	234
5000	239	186	236
5001	242	190	236
5002	245	194	234
5003	242	186	228
5004	236	176	223
5005	239	182	227
5006	240	184	227
5007	246	193	231
5008	251	201	233
5009	251	200	230
5010	246	195	224
5011	244	195	223
5012	241	195	221
5013	242	203	223
5014	245	211	225
5015	247	216	227
5016	250	223	234
5017	243	219	230
5018	0	0	0
5019	0	0	0
5020	0	0	0
5021	0	0	0
5022	0	0	0
5023	0	0	0
5024	0	0	0
5025	0	0	0
5026	0	0	0
5027	0	0	0
5028	0	0	0
5029	0	0	0
5030	0	0	0
5031	0	0	0
5032	0	0	0
5033	0	0	0
5034	0	0	0
5035	0	0	0
5036	0	0	0
5037	0	0	0
5038	0	0	0
5039	0	0	0
5040	0	0	0
5041	0	0	0
5042	0	0	0
5043	0	0	0
5044	0	0	0
5045	0	0	0
5046	0	0	0
5047	0	0	0
5048	0	0	0
5049	0	0	0
5050	0	0	0
5051	0	0	0
5052	0	0	0
5053	0	0	0
5054	0	0	0
5055	0	0	0
5056	0	0	0
5057	0	0	0
5058	0	0	0
5059	0	0	0
5060	0	0	0
5061	0	0	0
5062	0	0	0
5063	0	0	0
5064	0	0	0
5065	0	0	0
5066	0	0	0
5067	0	0	0
5068	0	0	0
5069	0	0	0
5070	0	0	0
5071	0	0	0
5072	0	0	0
5073	0	0	0
5074	0	0	0
5075	0	0	0
5076	0	0	0
5077	0	0	0
5078	0	0	0
5079	0	0	0
5080	0	0	0
5081	0	0	0
5082	0	0	0
5083	0	0	0
5084	0	0	0
5085	0	0	0
5086	0	0	0
5087	0	0	0
5088	245	202	248
5089	236	184	237
5090	237	183	236
5091	241	186	237
5092	246	191	240
5093	245	188	239
5094	246	192	238
5095	244	190	232
5096	237	180	224
5097	242	183	230
5098	251	193	239
5099	245	183	231
5100	251	193	235
5101	249	192	230
5102	246	188	225
5103	244	189	224
5104	240	189	222
5105	245	200	228
5106	248	208	230
5107	247	210	228
5108	249	215	229
5109	248	218	231
5110	239	212	226
5111	243	222	232
5112	0	0	0
5113	0	0	0
5114	0	0	0
5115	0	0	0
5116	0	0	0
5117	0	0	0
5118	0	0	0
5119	0	0	0
5120	0	0	0
5121	0	0	0
5122	0	0	0
5123	0	0	0
5124	0	0	0
5125	0	0	0
5126	0	0	0
5127	0	0	0
5128	0	0	0
5129	0	0	0
5130	0	0	0
5131	0	0	0
5132	0	0	0
5133	0	0	0
5134	0	0	0
5135	0	0	0
5136	0	0	0
5137	0	0	0
5138	0	0	0
5139	0	0	0
5140	0	0	0
5141	0	0	0
5142	0	0	0
5143	0	0	0
5144	0	0	0
5145	0	0	0
5146	0	0	0
5147	0	0	0
5148	0	0	0
5149	0	0	0
5150	0	0	0
5151	0	0	0
5152	0	0	0
5153	0	0	0
5154	0	0	0
5155	0	0	0
5156	0	0	0
5157	0	0	0
5158	0	0	0
5159	0	0	0
5160	0	0	0
5161	0	0	0
5162	0	0	0
5163	0	0	0
5164	0	0	0
5165	0	0	0
5166	0	0	0
5167	0	0	0
5168	0	0	0
5169	0	0	0
5170	0	0	0
5171	0	0	0
5172	0	0	0
5173	0	0	0
5174	0	0	0
5175	0	0	0
5176	0	0	0
5177	0	0	0
5178	0	0	0
5179	0	0	0
5180	0	0	0
5181	0	0	0
5182	227	174	228
5183	237	183	235
5184	243	188	238
5185	251	192	242
5186	250	190	240
5187	250	191	239
5188	248	190	236
5189	245	188	233
5190	248	190	236
5191	250	186	234
5192	244	177	227
5193	244	179	228
5194	242	179	225
5195	243	182	226
5196	241	182	224
5197	244	193	229
5198	249	204	233
5199	248	206	231
5200	248	209	229
5201	248	211	228
5202	246	212	227
5203	246	219	230
5204	250	228	236
5205	248	227	235
5206	0	0	0
5207	0	0	0
5208	0	0	0
5209	0	0	0
5210	0	0	0
5211	0	0	0
5212	0	0	0
5213	0	0	0
5214	0	0	0
5215	0	0	0
5216	0	0	0
5217	0	0	0
5218	0	0	0
5219	0	0	0
5220	0	0	0
5221	0	0	0
5222	0	0	0
5223	0	0	0
5224	0	0	0
5225	0	0	0
5226	0	0	0
5227	0	0	0
5228	0	0	0
5229	0	0	0
5230	0	0	0
5231	0	0	0
5232	0	0	0
5233	0	0	0
5234	0	0	0
5235	0	0	0
5236	0	0	0
5237	0	0	0
5238	0	0	0
5239	0	0	0
5240	0	0	0
5241	0	0	0
5242	0	0	0
5243	0	0	0
5244	0	0	0
5245	0	0	0
5246	0	0	0
5247	0	0	0
5248	0	0	0
5249	0	0	0
5250	0	0	0
5251	0	0	0
5252	0	0	0
5253	0	0	0
5254	0	0	0
5255	0	0	0
5256	0	0	0
5257	0	0	0
5258	0	0	0
5259	0	0	0
5260	0	0	0
5261	0	0	0
5262	0	0	0
5263	0	0	0
5264	0	0	0
5265	0	0	0
5266	0	0	0
5267	0	0	0
5268	0	0	0
5269	0	0	0
5270	0	0	0
5271	0	0	0
5272	0	0	0
5273	0	0	0
5274	0	0	0
5275	236	190	237
5276	250	202	248
5277	246	188	239
5278	254	194	243
5279	247	179	234
5280	250	182	236
5281	248	181	234
5282	243	179	230
5283	249	186	235
5284	250	182	233
5285	244	174	227
5286	241	175	227
5287	239	176	227
5288	241	179	229
5289	237	178	226
5290	241	188	230
5291	242	194	229
5292	245	197	228
5293	249	206	231
5294	245	206	227
5295	244	209	226
5296	247	217	229
5297	249	222	232
5298	246	219	229
5299	253	229	237
5300	0	0	0
5301	0	0	0
5302	0	0	0
5303	0	0	0
5304	0	0	0
5305	0	0	0
5306	0	0	0
5307	0	0	0
5308	0	0	0
5309	0	0	0
5310	0	0	0
5311	0	0	0
5312	0	0	0
5313	0	0	0
5314	0	0	0
5315	0	0	0
5316	0	0	0
5317	0	0	0
5318	0	0	0
5319	0	0	0
5320	0	0	0
5321	0	0	0
5322	0	0	0
5323	0	0	0
5324	0	0	0
5325	0	0	0
5326	0	0	0
5327	0	0	0
5328	0	0	0
5329	0	0	0
5330	0	0	0
5331	0	0	0
5332	0	0	0
5333	0	0	0
5334	0	0	0
5335	0	0	0
5336	0	0	0
5337	0	0	0
5338	0	0	0
5339	0	0	0
5340	0	0	0
5341	0	0	0
5342	0	0	0
5343	0	0	0
5344	0	0	0
5345	0	0	0
5346	0	0	0
5347	0	0	0
5348	0	0	0
5349	0	0	0
5350	0	0	0
5351	0	0	0
5352	0	0	0
5353	0	0	0
5354	0	0	0
5355	0	0	0
5356	0	0	0
5357	0	0	0
5358	0	0	0
5359	0	0	0
5360	0	0	0
5361	0	0	0
5362	0	0	0
5363	0	0	0
5364	0	0	0
5365	0	0	0
5366	0	0	0
5367	0	0	0
5368	239	202	242
5369	243	195	241
5370	241	183	234
5371	245	178	234
5372	239	165	227
5373	244	171	232
5374	243	171	231
5375	248	178	235
5376	253	186	238
5377	252	181	234
5378	245	172	229
5379	241	173	229
5380	239	173	230
5381	238	174	230
5382	234	172	227
5383	235	179	229
5384	238	185	230
5385	246	195	233
5386	249	203	232
5387	245	204	227
5388	244	207	227
5389	246	212	228
5390	248	217	231
5391	250	223	233
5392	0	0	0
5393	0	0	0
5394	0	0	0
5395	0	0	0
5396	0	0	0
5397	0	0	0
5398	0	0	0
5399	0	0	0
5400	0	0	0
5401	0	0	0
5402	0	0	0
5403	0	0	0
5404	0	0	0
5405	0	0	0
5406	0	0	0
5407	0	0	0
5408	0	0	0
5409	0	0	0
5410	0	0	0
5411	0	0	0
5412	0	0	0
5413	0	0	0
5414	0	0	0
5415	0	0	0
5416	0	0	0
5417	0	0	0
5418	0	0	0
5419	0	0	0
5420	0	0	0
5421	0	0	0
5422	0	0	0
5423	0	0	0
5424	0	0	0
5425	0	0	0
5426	0	0	0
5427	0	0	0
5428	0	0	0
5429	0	0	0
5430	0	0	0
5431	0	0	0
5432	0	0	0
5433	0	0	0
5434	0	0	0
5435	0	0	0
5436	0	0	0
5437	0	0	0
5438	0	0	0
5439	0	0	0
5440	0	0	0
5441	0	0	0
5442	0	0	0
5443	0	0	0
5444	0	0	0
5445	0	0	0
5446	0	0	0
5447	0	0	0
5448	0	0	0
5449	0	0	0
5450	0	0	0
5451	0	0	0
5452	0	0	0
5453	0	0	0
5454	0	0	0
5455	0	0	0
5456	0	0	0
5457	0	0	0
5458	0	0	0
5459	0	0	0
5460	0	0	0
5461	242	212	244
5462	248	207	245
5463	244	190	238
5464	248	186	240
5465	235	163	228
5466	239	168	233
5467	246	175	237
5468	255	187	246
5469	250	172	234
5470	242	164	227
5471	239	163	226
5472	238	165	228
5473	242	174	233
5474	239	173	232
5475	235	172	230
5476	238	180	233
5477	240	185	235
5478	246	195	237
5479	243	195	230
5480	240	196	225
5481	241	201	227
5482	243	206	228
5483	244	210	228
5484	0	0	0
5485	0	0	0
5486	0	0	0
5487	0	0	0
5488	0	0	0
5489	0	0	0
5490	0	0	0
5491	0	0	0
5492	0	0	0
5493	0	0	0
5494	0	0	0
5495	0	0	0
5496	0	0	0
5497	0	0	0
5498	0	0	0
5499	0	0	0
5500	0	0	0
5501	0	0	0
5502	0	0	0
5503	0	0	0
5504	0	0	0
5505	0	0	0
5506	0	0	0
5507	0	0	0
5508	0	0	0
5509	0	0	0
5510	0	0	0
5511	0	0	0
5512	0	0	0
5513	0	0	0
5514	0	0	0
5515	0	0	0
5516	0	0	0
5517	0	0	0
5518	0	0	0
5519	0	0	0
5520	0	0	0
5521	0	0	0
5522	0	0	0
5523	0	0	0
5524	0	0	0
5525	0	0	0
5526	0	0	0
5527	0	0	0
5528	0	0	0
5529	0	0	0
5530	0	0	0
5531	0	0	0
5532	0	0	0
5533	0	0	0
5534	0	0	0
5535	0	0	0
5536	0	0	0
5537	0	0	0
5538	0	0	0
5539	0	0	0
5540	0	0	0
5541	0	0	0
5542	0	0	0
5543	0	0	0
5544	0	0	0
5545	0	0	0
5546	0	0	0
5547	0	0	0
5548	0	0	0
5549	0	0	0
5550	0	0	0
5551	0	0	0
5552	0	0	0
5553	0	0	0
5554	0	0	0
5555	241	204	238
5556	237	189	234
5557	234	174	231
5558	222	152	221
5559	234	166	234
5560	244	174	239
5561	246	167	236
5562	238	153	227
5563	237	156	229
5564	234	156	227
5565	240	166	232
5566	242	173	234
5567	239	173	232
5568	236	172	232
5569	239	179	235
5570	241	184	235
5571	241	186	233
5572	238	186	228
5573	233	187	224
5574	234	193	226
5575	237	197	226
5576	239	201	224
5577	0	0	0
5578	0	0	0
5579	254	222	237
5580	0	0	0
5581	0	0	0
5582	0	0	0
5583	0	0	0
5584	0	0	0
5585	0	0	0
5586	0	0	0
5587	0	0	0
5588	0	0	0
5589	0	0	0
5590	0	0	0
5591	0	0	0
5592	0	0	0
5593	0	0	0
5594	0	0	0
5595	0	0	0
5596	0	0	0
5597	0	0	0
5598	0	0	0
5599	0	0	0
5600	0	0	0
5601	0	0	0
5602	0	0	0
5603	0	0	0
5604	0	0	0
5605	0	0	0
5606	0	0	0
5607	0	0	0
5608	0	0	0
5609	0	0	0
5610	0	0	0
5611	0	0	0
5612	0	0	0
5613	0	0	0
5614	0	0	0
5615	0	0	0
5616	0	0	0
5617	0	0	0
5618	0	0	0
5619	0	0	0
5620	0	0	0
5621	0	0	0
5622	0	0	0
5623	0	0	0
5624	0	0	0
5625	0	0	0
5626	0	0	0
5627	0	0	0
5628	0	0	0
5629	0	0	0
5630	0	0	0
5631	0	0	0
5632	0	0	0
5633	0	0	0
5634	0	0	0
5635	0	0	0
5636	0	0	0
5637	0	0	0
5638	0	0	0
5639	0	0	0
5640	0	0	0
5641	0	0	0
5642	0	0	0
5643	0	0	0
5644	0	0	0
5645	0	0	0
5646	0	0	0
5647	0	0	0
5648	0	0	0
5649	235	198	236
5650	230	184	234
5651	220	161	227
5652	242	180	245
5653	247	179	244
5654	245	170	240
5655	232	148	228
5656	235	154	233
5657	231	151	230
5658	235	160	233
5659	232	161	229
5660	231	161	227
5661	234	167	230
5662	237	173	233
5663	240	180	235
5664	241	182	233
5665	237	183	228
5666	227	182	222
5667	236	199	232
5668	241	205	233
5669	246	210	233
5670	255	221	239
5671	255	220	239
5672	255	220	241
5673	241	203	231
5674	0	0	0
5675	0	0	0
5676	0	0	0
5677	0	0	0
5678	0	0	0
5679	0	0	0
5680	0	0	0
5681	0	0	0
5682	0	0	0
5683	0	0	0
5684	0	0	0
5685	0	0	0
5686	0	0	0
5687	0	0	0
5688	0	0	0
5689	0	0	0
5690	0	0	0
5691	0	0	0
5692	0	0	0
5693	0	0	0
5694	0	0	0
5695	0	0	0
5696	0	0	0
5697	0	0	0
5698	0	0	0
5699	0	0	0
5700	0	0	0
5701	0	0	0
5702	0	0	0
5703	0	0	0
5704	0	0	0
5705	0	0	0
5706	0	0	0
5707	0	0	0
5708	0	0	0
5709	0	0	0
5710	0	0	0
5711	0	0	0
5712	0	0	0
5713	0	0	0
5714	0	0	0
5715	0	0	0
5716	0	0	0
5717	0	0	0
5718	0	0	0
5719	0	0	0
5720	0	0	0
5721	0	0	0
5722	0	0	0
5723	0	0	0
5724	0	0	0
5725	0	0	0
5726	0	0	0
5727	0	0	0
5728	0	0	0
5729	0	0	0
5730	0	0	0
5731	0	0	0
5732	0	0	0
5733	0	0	0
5734	0	0	0
5735	0	0	0
5736	0	0	0
5737	0	0	0
5738	0	0	0
5739	0	0	0
5740	0	0	0
5741	0	0	0
5742	237	209	240
5743	226	188	234
5744	219	167	230
5745	238	177	244
5746	243	177	242
5747	237	161	234
5748	226	142	227
5749	233	149	236
5750	229	146	233
5751	227	149	232
5752	225	150	228
5753	228	156	229
5754	230	161	230
5755	235	169	233
5756	239	176	235
5757	241	180	235
5758	237	180	228
5759	236	192	231
5760	245	210	239
5761	248	213	238
5762	254	219	240
5763	255	217	239
5764	255	215	239
5765	244	201	231
5766	226	183	221
5767	0	0	0
5768	0	0	0
5769	0	0	0
5770	0	0	0
5771	0	0	0
5772	0	0	0
5773	0	0	0
5774	0	0	0
5775	0	0	0
5776	0	0	0
5777	0	0	0
5778	0	0	0
5779	0	0	0
5780	0	0	0
5781	0	0	0
5782	0	0	0
5783	0	0	0
5784	0	0	0
5785	0	0	0
5786	0	0	0
5787	0	0	0
5788	0	0	0
5789	0	0	0
5790	0	0	0
5791	0	0	0
5792	0	0	0
5793	0	0	0
5794	0	0	0
5795	0	0	0
5796	0	0	0
5797	0	0	0
5798	0	0	0
5799	0	0	0
5800	0	0	0
5801	0	0	0
5802	0	0	0
5803	0	0	0
5804	0	0	0
5805	0	0	0
5806	0	0	0
5807	0	0	0
5808	0	0	0
5809	0	0	0
5810	0	0	0
5811	0	0	0
5812	0	0	0
5813	0	0	0
5814	0	0	0
5815	0	0	0
5816	0	0	0
5817	0	0	0
5818	0	0	0
5819	0	0	0
5820	0	0	0
5821	0	0	0
5822	0	0	0
5823	0	0	0
5824	0	0	0
5825	0	0	0
5826	0	0	0
5827	0	0	0
5828	0	0	0
5829	0	0	0
5830	0	0	0
5831	0	0	0
5832	0	0	0
5833	0	0	0
5834	0	0	0
5835	0	0	0
5836	222	185	230
5837	231	187	242
5838	250	197	255
5839	241	173	242
5840	237	160	237
5841	232	147	233
5842	240	155	243
5843	226	139	232
5844	223	141	230
5845	233	161	240
5846	236	167	241
5847	226	155	230
5848	232	164	234
5849	236	170	235
5850	237	174	233
5851	237	178	229
5852	243	193	234
5853	246	202	237
5854	247	204	235
5855	251	208	237
5856	248	204	235
5857	243	199	232
5858	226	182	221
5859	230	195	230
5860	0	0	0
5861	0	0	0
5862	0	0	0
5863	0	0	0
5864	0	0	0
5865	0	0	0
5866	0	0	0
5867	0	0	0
5868	0	0	0
5869	0	0	0
5870	0	0	0
5871	0	0	0
5872	0	0	0
5873	0	0	0
5874	0	0	0
5875	0	0	0
5876	0	0	0
5877	0	0	0
5878	0	0	0
5879	0	0	0
5880	0	0	0
5881	0	0	0
5882	0	0	0
5883	0	0	0
5884	0	0	0
5885	0	0	0
5886	0	0	0
5887	0	0	0
5888	0	0	0
5889	0	0	0
5890	0	0	0
5891	0	0	0
5892	0	0	0
5893	0	0	0
5894	0	0	0
5895	0	0	0
5896	0	0	0
5897	0	0	0
5898	0	0	0
5899	0	0	0
5900	0	0	0
5901	0	0	0
5902	0	0	0
5903	0	0	0
5904	0	0	0
5905	0	0	0
5906	0	0	0
5907	0	0	0
5908	0	0	0
5909	0	0	0
5910	0	0	0
5911	0	0	0
5912	0	0	0
5913	0	0	0
5914	0	0	0
5915	0	0	0
5916	0	0	0
5917	0	0	0
5918	0	0	0
5919	0	0	0
5920	0	0	0
5921	0	0	0
5922	0	0	0
5923	0	0	0
5924	0	0	0
5925	0	0	0
5926	0	0	0
5927	0	0	0
5928	0	0	0
5929	0	0	0
5930	240	203	249
5931	239	186	245
5932	232	165	237
5933	231	157	238
5934	225	142	230
5935	225	139	231
5936	213	125	222
5937	227	148	237
5938	238	169	245
5939	229	159	236
5940	221	148	229
5941	228	158	234
5942	232	165	235
5943	236	172	235
5944	237	176	231
5945	238	183	231
5946	242	191	235
5947	242	192	233
5948	244	196	235
5949	236	188	229
5950	228	182	226
5951	230	194	232
5952	0	0	0
5953	0	0	0
5954	0	0	0
5955	0	0	0
5956	0	0	0
5957	0	0	0
5958	0	0	0
5959	0	0	0
5960	0	0	0
5961	0	0	0
5962	0	0	0
5963	0	0	0
5964	0	0	0
5965	0	0	0
5966	0	0	0
5967	0	0	0
5968	0	0	0
5969	0	0	0
5970	0	0	0
5971	0	0	0
5972	0	0	0
5973	0	0	0
5974	0	0	0
5975	0	0	0
5976	0	0	0
5977	0	0	0
5978	0	0	0
5979	0	0	0
5980	0	0	0
5981	0	0	0
5982	0	0	0
5983	0	0	0
5984	0	0	0
5985	0	0	0
5986	0	0	0
5987	0	0	0
5988	0	0	0
5989	0	0	0
5990	0	0	0
5991	0	0	0
5992	0	0	0
5993	0	0	0
5994	0	0	0
5995	0	0	0
5996	0	0	0
5997	0	0	0
5998	0	0	0
5999	0	0	0
6000	0	0	0
6001	0	0	0
6002	0	0	0
6003	0	0	0
6004	0	0	0
6005	0	0	0
6006	0	0	0
6007	0	0	0
6008	0	0	0
6009	0	0	0
6010	0	0	0
6011	0	0	0
6012	0	0	0
6013	0	0	0
6014	0	0	0
6015	0	0	0
6016	0	0	0
6017	0	0	0
6018	0	0	0
6019	0	0	0
6020	0	0	0
6021	0	0	0
6022	0	0	0
6023	234	200	243
6024	233	183	240
6025	230	170	240
6026	225	160	240
6027	214	140	227
6028	217	139	230
6029	216	135	230
6030	235	162	247
6031	236	166	245
6032	227	156	235
6033	215	140	226
6034	222	151	232
6035	234	168	240
6036	240	175	241
6037	231	166	230
6038	230	172	228
6039	240	190	238
6040	242	192	237
6041	246	200	241
6042	234	189	233
6043	225	185	230
6044	0	0	0
6045	0	0	0
6046	0	0	0
6047	0	0	0
6048	0	0	0
6049	0	0	0
6050	0	0	0
6051	0	0	0
6052	0	0	0
6053	0	0	0
6054	0	0	0
6055	0	0	0
6056	0	0	0
6057	0	0	0
6058	0	0	0
6059	0	0	0
6060	0	0	0
6061	0	0	0
6062	0	0	0
6063	0	0	0
6064	0	0	0
6065	0	0	0
6066	0	0	0
6067	0	0	0
6068	0	0	0
6069	0	0	0
6070	0	0	0
6071	0	0	0
6072	0	0	0
6073	0	0	0
6074	0	0	0
6075	0	0	0
6076	0	0	0
6077	0	0	0
6078	0	0	0
6079	0	0	0
6080	0	0	0
6081	0	0	0
6082	0	0	0
6083	0	0	0
6084	0	0	0
6085	0	0	0
6086	0	0	0
6087	0	0	0
6088	0	0	0
6089	0	0	0
6090	0	0	0
6091	0	0	0
6092	0	0	0
6093	0	0	0
6094	0	0	0
6095	0	0	0
6096	0	0	0
6097	0	0	0
6098	0	0	0
6099	0	0	0
6100	0	0	0
6101	0	0	0
6102	0	0	0
6103	0	0	0
6104	0	0	0
6105	0	0	0
6106	0	0	0
6107	0	0	0
6108	0	0	0
6109	0	0	0
6110	0	0	0
6111	0	0	0
6112	0	0	0
6113	0	0	0
6114	0	0	0
6115	0	0	0
6116	224	193	234
6117	227	183	236
6118	224	170	236
6119	214	155	233
6120	204	137	226
6121	218	146	238
6122	218	143	236
6123	227	155	242
6124	229	159	241
6125	219	146	230
6126	209	132	222
6127	227	155	238
6128	238	171	245
6129	232	164	236
6130	224	156	228
6131	231	172	235
6132	241	190	242
6133	246	196	243
6134	248	202	244
6135	233	194	235
6136	0	0	0
6137	0	0	0
6138	0	0	0
6139	0	0	0
6140	0	0	0
6141	0	0	0
6142	0	0	0
6143	0	0	0
6144	0	0	0
6145	0	0	0
6146	0	0	0
6147	0	0	0
6148	0	0	0
6149	0	0	0
6150	0	0	0
6151	0	0	0
6152	0	0	0
6153	0	0	0
6154	0	0	0
6155	0	0	0
6156	0	0	0
6157	0	0	0
6158	0	0	0
6159	0	0	0
6160	0	0	0
6161	0	0	0
6162	0	0	0
6163	0	0	0
6164	0	0	0
6165	0	0	0
6166	0	0	0
6167	0	0	0
6168	0	0	0
6169	0	0	0
6170	0	0	0
6171	0	0	0
6172	0	0	0
6173	0	0	0
6174	0	0	0
6175	0	0	0
6176	0	0	0
6177	0	0	0
6178	0	0	0
6179	0	0	0
6180	0	0	0
6181	0	0	0
6182	0	0	0
6183	0	0	0
6184	0	0	0
6185	0	0	0
6186	0	0	0
6187	0	0	0
6188	0	0	0
6189	0	0	0
6190	0	0	0
6191	0	0	0
6192	0	0	0
6193	0	0	0
6194	0	0	0
6195	0	0	0
6196	0	0	0
6197	0	0	0
6198	0	0	0
6199	0	0	0
6200	0	0	0
6201	0	0	0
6202	0	0	0
6203	0	0	0
6204	0	0	0
6205	0	0	0
6206	0	0	0
6207	0	0	0
6208	0	0	0
6209	225	204	237
6210	227	194	240
6211	221	177	238
6212	213	163	236
6213	209	150	235
6214	226	162	248
6215	222	152	241
6216	227	161	246
6217	215	143	232
6218	209	133	225
6219	216	139	231
6220	237	164	249
6221	231	157	239
6222	220	147	228
6223	231	167	238
6224	242	185	247
6225	239	183	240
6226	242	187	239
6227	240	192	238
6228	0	0	0
6229	0	0	0
6230	0	0	0
6231	0	0	0
6232	0	0	0
6233	0	0	0
6234	0	0	0
6235	0	0	0
6236	0	0	0
6237	0	0	0
6238	0	0	0
6239	0	0	0
6240	0	0	0
6241	0	0	0
6242	0	0	0
6243	0	0	0
6244	0	0	0
6245	0	0	0
6246	0	0	0
6247	0	0	0
6248	0	0	0
6249	0	0	0
6250	0	0	0
6251	0	0	0
6252	0	0	0
6253	0	0	0
6254	0	0	0
6255	0	0	0
6256	0	0	0
6257	0	0	0
6258	0	0	0
6259	0	0	0
6260	0	0	0
6261	0	0	0
6262	0	0	0
6263	0	0	0
6264	0	0	0
6265	0	0	0
6266	0	0	0
6267	0	0	0
6268	0	0	0
6269	0	0	0
6270	0	0	0
6271	0	0	0
6272	0	0	0
6273	0	0	0
6274	0	0	0
6275	0	0	0
6276	0	0	0
6277	0	0	0
6278	0	0	0
6279	0	0	0
6280	0	0	0
6281	0	0	0
6282	0	0	0
6283	0	0	0
6284	0	0	0
6285	0	0	0
6286	0	0	0
6287	0	0	0
6288	0	0	0
6289	0	0	0
6290	0	0	0
6291	0	0	0
6292	0	0	0
6293	0	0	0
6294	0	0	0
6295	0	0	0
6296	0	0	0
6297	0	0	0
6298	0	0	0
6299	0	0	0
6300	0	0	0
6301	0	0	0
6302	227	213	240
6303	224	199	241
6304	218	182	239
6305	214	172	241
6306	210	159	238
6307	222	162	245
6308	218	153	237
6309	207	139	229
6310	198	124	223
6311	210	137	235
6312	218	143	237
6313	223	146	238
6314	218	140	231
6315	228	158	238
6316	239	177	244
6317	238	176	239
6318	236	174	237
6319	243	184	241
6320	240	189	239
6321	0	0	0
6322	0	0	0
6323	0	0	0
6324	0	0	0
6325	0	0	0
6326	0	0	0
6327	0	0	0
6328	0	0	0
6329	0	0	0
6330	0	0	0
6331	0	0	0
6332	0	0	0
6333	0	0	0
6334	0	0	0
6335	0	0	0
6336	0	0	0
6337	0	0	0
6338	0	0	0
6339	0	0	0
6340	0	0	0
6341	0	0	0
6342	0	0	0
6343	0	0	0
6344	0	0	0
6345	0	0	0
6346	0	0	0
6347	0	0	0
6348	0	0	0
6349	0	0	0
6350	0	0	0
6351	0	0	0
6352	0	0	0
6353	0	0	0
6354	0	0	0
6355	0	0	0
6356	0	0	0
6357	0	0	0
6358	0	0	0
6359	0	0	0
6360	0	0	0
6361	0	0	0
6362	0	0	0
6363	0	0	0
6364	0	0	0
6365	0	0	0
6366	0	0	0
6367	0	0	0
6368	0	0	0
6369	0	0	0
6370	0	0	0
6371	0	0	0
6372	0	0	0
6373	0	0	0
6374	0	0	0
6375	0	0	0
6376	0	0	0
6377	0	0	0
6378	0	0	0
6379	0	0	0
6380	0	0	0
6381	0	0	0
6382	0	0	0
6383	0	0	0
6384	0	0	0
6385	0	0	0
6386	0	0	0
6387	0	0	0
6388	0	0	0
6389	0	0	0
6390	0	0	0
6391	0	0	0
6392	0	0	0
6393	0	0	0
6394	0	0	0
6395	227	220	239
6396	223	205	240
6397	217	188	240
6398	215	179	243
6399	211	165	240
6400	221	168	247
6401	213	153	237
6402	204	141	231
6403	206	139	236
6404	220	154	249
6405	211	138	234
6406	211	137	231
6407	216	143	234
6408	234	166	246
6409	238	172	242
6410	237	170	237
6411	236	169	236
6412	243	179	241
6413	242	186	240
6414	0	0	0
6415	0	0	0
6416	0	0	0
6417	0	0	0
6418	0	0	0
6419	0	0	0
6420	0	0	0
6421	0	0	0
6422	0	0	0
6423	0	0	0
6424	0	0	0
6425	0	0	0
6426	0	0	0
6427	0	0	0
6428	0	0	0
6429	0	0	0
6430	0	0	0
6431	0	0	0
6432	0	0	0
6433	0	0	0
6434	0	0	0
6435	0	0	0
6436	0	0	0
6437	0	0	0
6438	0	0	0
6439	0	0	0
6440	0	0	0
6441	0	0	0
6442	0	0	0
6443	0	0	0
6444	0	0	0
6445	0	0	0
6446	0	0	0
6447	0	0	0
6448	0	0	0
6449	0	0	0
6450	0	0	0
6451	0	0	0
6452	0	0	0
6453	0	0	0
6454	0	0	0
6455	0	0	0
6456	0	0	0
6457	0	0	0
6458	0	0	0
6459	0	0	0
6460	0	0	0
6461	0	0	0
6462	0	0	0
6463	0	0	0
6464	0	0	0
6465	0	0	0
6466	0	0	0
6467	0	0	0
6468	0	0	0
6469	0	0	0
6470	0	0	0
6471	0	0	0
6472	0	0	0
6473	0	0	0
6474	0	0	0
6475	0	0	0
6476	0	0	0
6477	0	0	0
6478	0	0	0
6479	0	0	0
6480	0	0	0
6481	0	0	0
6482	0	0	0
6483	0	0	0
6484	0	0	0
6485	0	0	0
6486	0	0	0
6487	0	0	0
6488	0	0	0
6489	220	208	235
6490	215	192	238
6491	212	182	242
6492	208	168	240
6493	212	164	244
6494	207	151	237
6495	211	153	241
6496	212	150	243
6497	211	144	240
6498	202	129	227
6499	212	141	234
6500	219	147	237
6501	232	161	245
6502	238	167	242
6503	236	165	237
6504	235	163	235
6505	243	177	241
6506	243	184	239
6507	244	197	241
6508	0	0	0
6509	0	0	0
6510	0	0	0
6511	0	0	0
6512	0	0	0
6513	0	0	0
6514	0	0	0
6515	0	0	0
6516	0	0	0
6517	0	0	0
6518	0	0	0
6519	0	0	0
6520	0	0	0
6521	0	0	0
6522	0	0	0
6523	0	0	0
6524	0	0	0
6525	0	0	0
6526	0	0	0
6527	0	0	0
6528	0	0	0
6529	0	0	0
6530	0	0	0
6531	0	0	0
6532	0	0	0
6533	0	0	0
6534	0	0	0
6535	0	0	0
6536	0	0	0
6537	0	0	0
6538	0	0	0
6539	0	0	0
6540	0	0	0
6541	0	0	0
6542	0	0	0
6543	0	0	0
6544	0	0	0
6545	0	0	0
6546	0	0	0
6547	0	0	0
6548	0	0	0
6549	0	0	0
6550	0	0	0
6551	0	0	0
6552	0	0	0
6553	0	0	0
6554	0	0	0
6555	0	0	0
6556	0	0	0
6557	0	0	0
6558	0	0	0
6559	0	0	0
6560	0	0	0
6561	0	0	0
6562	0	0	0
6563	0	0	0
6564	0	0	0
6565	0	0	0
6566	0	0	0
6567	0	0	0
6568	0	0	0
6569	0	0	0
6570	0	0	0
6571	0	0	0
6572	0	0	0
6573	0	0	0
6574	0	0	0
6575	0	0	0
6576	0	0	0
6577	0	0	0
6578	0	0	0
6579	0	0	0
6580	0	0	0
6581	0	0	0
6582	0	0	0
6583	219	206	240
6584	216	196	245
6585	208	177	242
6586	210	172	247
6587	209	161	243
6588	220	166	252
6589	210	147	241
6590	207	139	236
6591	210	140	234
6592	225	156	245
6593	220	142	236
6594	232	156	244
6595	232	154	238
6596	229	151	232
6597	239	168	241
6598	247	180	246
6599	240	177	237
6600	244	192	241
6601	245	203	242
6602	0	0	0
6603	0	0	0
6604	0	0	0
6605	0	0	0
6606	0	0	0
6607	0	0	0
6608	0	0	0
6609	0	0	0
6610	0	0	0
6611	0	0	0
6612	0	0	0
6613	0	0	0
6614	0	0	0
6615	0	0	0
6616	0	0	0
6617	0	0	0
6618	0	0	0
6619	0	0	0
6620	0	0	0
6621	0	0	0
6622	0	0	0
6623	0	0	0
6624	0	0	0
6625	0	0	0
6626	0	0	0
6627	0	0	0
6628	0	0	0
6629	0	0	0
6630	0	0	0
6631	0	0	0
6632	0	0	0
6633	0	0	0
6634	0	0	0
6635	0	0	0
6636	0	0	0
6637	0	0	0
6638	0	0	0
6639	0	0	0
6640	0	0	0
6641	0	0	0
6642	0	0	0
6643	0	0	0
6644	0	0	0
6645	0	0	0
6646	0	0	0
6647	0	0	0
6648	0	0	0
6649	0	0	0
6650	0	0	0
6651	0	0	0
6652	0	0	0
6653	0	0	0
6654	0	0	0
6655	0	0	0
6656	0	0	0
6657	0	0	0
6658	0	0	0
6659	0	0	0
6660	0	0	0
6661	0	0	0
6662	0	0	0
6663	0	0	0
6664	0	0	0
6665	0	0	0
6666	0	0	0
6667	0	0	0
6668	0	0	0
6669	0	0	0
6670	0	0	0
6671	0	0	0
6672	0	0	0
6673	0	0	0
6674	0	0	0
6675	0	0	0
6676	227	221	242
6677	218	203	239
6678	210	185	242
6679	210	178	248
6680	209	167	246
6681	209	156	244
6682	201	138	233
6683	210	145	239
6684	215	148	239
6685	220	146	239
6686	216	133	232
6687	227	143	240
6688	227	143	237
6689	234	157	242
6690	242	172	247
6691	237	169	239
6692	231	166	232
6693	238	182	238
6694	240	194	240
6695	0	0	0
6696	0	0	0
6697	0	0	0
6698	0	0	0
6699	0	0	0
6700	0	0	0
6701	0	0	0
6702	0	0	0
6703	0	0	0
6704	0	0	0
6705	0	0	0
6706	0	0	0
6707	0	0	0
6708	0	0	0
6709	0	0	0
6710	0	0	0
6711	0	0	0
6712	0	0	0
6713	0	0	0
6714	0	0	0
6715	0	0	0
6716	0	0	0
6717	0	0	0
6718	0	0	0
6719	0	0	0
6720	0	0	0
6721	0	0	0
6722	0	0	0
6723	0	0	0
6724	0	0	0
6725	0	0	0
6726	0	0	0
6727	0	0	0
6728	0	0	0
6729	0	0	0
6730	0	0	0
6731	0	0	0
6732	0	0	0
6733	0	0	0
6734	0	0	0
6735	0	0	0
6736	0	0	0
6737	0	0	0
6738	0	0	0
6739	0	0	0
6740	0	0	0
6741	0	0	0
6742	0	0	0
6743	0	0	0
6744	0	0	0
6745	0	0	0
6746	0	0	0
6747	0	0	0
6748	0	0	0
6749	0	0	0
6750	0	0	0
6751	0	0	0
6752	0	0	0
6753	0	0	0
6754	0	0	0
6755	0	0	0
6756	0	0	0
6757	0	0	0
6758	0	0	0
6759	0	0	0
6760	0	0	0
6761	0	0	0
6762	0	0	0
6763	0	0	0
6764	0	0	0
6765	0	0	0
6766	0	0	0
6767	0	0	0
6768	0	0	0
6769	229	223	238
6770	218	204	234
6771	212	188	239
6772	211	182	246
6773	207	170	244
6774	204	157	241
6775	207	153	241
6776	222	165	251
6777	222	155	244
6778	227	152	245
6779	215	129	232
6780	227	139	241
6781	226	139	239
6782	231	153	243
6783	235	166	244
6784	227	161	234
6785	236	180	242
6786	246	197	249
6787	242	198	244
6788	0	0	0
6789	0	0	0
6790	0	0	0
6791	0	0	0
6792	0	0	0
6793	0	0	0
6794	0	0	0
6795	0	0	0
6796	0	0	0
6797	0	0	0
6798	0	0	0
6799	0	0	0
6800	0	0	0
6801	0	0	0
6802	0	0	0
6803	0	0	0
6804	0	0	0
6805	0	0	0
6806	0	0	0
6807	0	0	0
6808	0	0	0
6809	0	0	0
6810	0	0	0
6811	0	0	0
6812	0	0	0
6813	0	0	0
6814	0	0	0
6815	0	0	0
6816	0	0	0
6817	0	0	0
6818	0	0	0
6819	0	0	0
6820	0	0	0
6821	0	0	0
6822	0	0	0
6823	0	0	0
6824	0	0	0
6825	0	0	0
6826	0	0	0
6827	0	0	0
6828	0	0	0
6829	0	0	0
6830	0	0	0
6831	0	0	0
6832	0	0	0
6833	0	0	0
6834	0	0	0
6835	0	0	0
6836	0	0	0
6837	0	0	0
6838	0	0	0
6839	0	0	0
6840	0	0	0
6841	0	0	0
6842	0	0	0
6843	0	0	0
6844	0	0	0
6845	0	0	0
6846	0	0	0
6847	0	0	0
6848	0	0	0
6849	0	0	0
6850	0	0	0
6851	0	0	0
6852	0	0	0
6853	0	0	0
6854	0	0	0
6855	0	0	0
6856	0	0	0
6857	0	0	0
6858	0	0	0
6859	0	0	0
6860	0	0	0
6861	0	0	0
6862	233	229	240
6863	224	210	236
6864	217	194	239
6865	213	185	243
6866	208	173	243
6867	211	171	247
6868	215	168	248
6869	221	165	249
6870	220	155	243
6871	215	139	235
6872	203	116	223
6873	218	130	236
6874	218	130	233
6875	228	149	241
6876	233	163	245
6877	237	176	247
6878	246	194	252
6879	247	198	248
6880	242	198	243
6881	0	0	0
6882	0	0	0
6883	0	0	0
6884	0	0	0
6885	0	0	0
6886	0	0	0
6887	0	0	0
6888	0	0	0
6889	0	0	0
6890	0	0	0
6891	0	0	0
6892	0	0	0
6893	0	0	0
6894	0	0	0
6895	0	0	0
6896	0	0	0
6897	0	0	0
6898	0	0	0
6899	0	0	0
6900	0	0	0
6901	0	0	0
6902	0	0	0
6903	0	0	0
6904	0	0	0
6905	0	0	0
6906	0	0	0
6907	0	0	0
6908	0	0	0
6909	0	0	0
6910	0	0	0
6911	0	0	0
6912	0	0	0
6913	0	0	0
6914	0	0	0
6915	0	0	0
6916	0	0	0
6917	0	0	0
6918	0	0	0
6919	0	0	0
6920	0	0	0
6921	0	0	0
6922	0	0	0
6923	0	0	0
6924	0	0	0
6925	0	0	0
6926	0	0	0
6927	0	0	0
6928	0	0	0
6929	0	0	0
6930	0	0	0
6931	0	0	0
6932	0	0	0
6933	0	0	0
6934	0	0	0
6935	0	0	0
6936	0	0	0
6937	0	0	0
6938	0	0	0
6939	0	0	0
6940	0	0	0
6941	0	0	0
6942	0	0	0
6943	0	0	0
6944	0	0	0
6945	0	0	0
6946	0	0	0
6947	0	0	0
6948	0	0	0
6949	0	0	0
6950	0	0	0
6951	0	0	0
6952	0	0	0
6953	0	0	0
6954	0	0	0
6955	233	229	238
6956	227	212	235
6957	222	199	239
6958	217	189	243
6959	210	176	242
6960	213	175	247
6961	220	176	251
6962	225	173	253
6963	211	145	237
6964	199	127	228
6965	201	125	230
6966	216	140	242
6967	210	128	231
6968	228	150	244
6969	238	166	250
6970	242	180	252
6971	244	187	248
6972	243	190	243
6973	242	196	241
6974	0	0	0
6975	0	0	0
6976	0	0	0
6977	0	0	0
6978	0	0	0
6979	0	0	0
6980	0	0	0
6981	0	0	0
6982	0	0	0
6983	0	0	0
6984	0	0	0
6985	0	0	0
6986	0	0	0
6987	0	0	0
6988	0	0	0
6989	0	0	0
6990	0	0	0
6991	0	0	0
6992	0	0	0
6993	0	0	0
6994	0	0	0
6995	0	0	0
6996	0	0	0
6997	0	0	0
6998	0	0	0
6999	0	0	0
7000	0	0	0
7001	0	0	0
7002	0	0	0
7003	0	0	0
7004	0	0	0
7005	0	0	0
7006	0	0	0
7007	0	0	0
7008	0	0	0
7009	0	0	0
7010	0	0	0
7011	0	0	0
7012	0	0	0
7013	0	0	0
7014	0	0	0
7015	0	0	0
7016	0	0	0
7017	0	0	0
7018	0	0	0
7019	0	0	0
7020	0	0	0
7021	0	0	0
7022	0	0	0
7023	0	0	0
7024	0	0	0
7025	0	0	0
7026	0	0	0
7027	0	0	0
7028	0	0	0
7029	0	0	0
7030	0	0	0
7031	0	0	0
7032	0	0	0
7033	0	0	0
7034	0	0	0
7035	0	0	0
7036	0	0	0
7037	0	0	0
7038	0	0	0
7039	0	0	0
7040	0	0	0
7041	0	0	0
7042	0	0	0
7043	0	0	0
7044	0	0	0
7045	0	0	0
7046	0	0	0
7047	0	0	0
7048	236	232	240
7049	234	220	239
7050	229	206	242
7051	223	195	245
7052	216	182	245
7053	217	181	250
7054	222	181	252
7055	212	158	241
7056	197	132	229
7057	199	135	235
7058	199	132	235
7059	202	130	234
7060	197	118	224
7061	221	146	241
7062	232	162	247
7063	233	169	244
7064	236	177	243
7065	240	186	242
7066	239	192	237
7067	0	0	0
7068	0	0	0
7069	0	0	0
7070	0	0	0
7071	0	0	0
7072	0	0	0
7073	0	0	0
7074	0	0	0
7075	0	0	0
7076	0	0	0
7077	0	0	0
7078	0	0	0
7079	0	0	0
7080	0	0	0
7081	0	0	0
7082	0	0	0
7083	0	0	0
7084	0	0	0
7085	0	0	0
7086	0	0	0
7087	0	0	0
7088	0	0	0
7089	0	0	0
7090	0	0	0
7091	0	0	0
7092	0	0	0
7093	0	0	0
7094	0	0	0
7095	0	0	0
7096	0	0	0
7097	0	0	0
7098	0	0	0
7099	0	0	0
7100	0	0	0
7101	0	0	0
7102	0	0	0
7103	0	0	0
7104	0	0	0
7105	0	0	0
7106	0	0	0
7107	0	0	0
7108	0	0	0
7109	0	0	0
7110	0	0	0
7111	0	0	0
7112	0	0	0
7113	0	0	0
7114	0	0	0
7115	0	0	0
7116	0	0	0
7117	0	0	0
7118	0	0	0
7119	0	0	0
7120	0	0	0
7121	0	0	0
7122	0	0	0
7123	0	0	0
7124	0	0	0
7125	0	0	0
7126	0	0	0
7127	0	0	0
7128	0	0	0
7129	0	0	0
7130	0	0	0
7131	0	0	0
7132	0	0	0
7133	0	0	0
7134	0	0	0
7135	0	0	0
7136	0	0	0
7137	0	0	0
7138	0	0	0
7139	0	0	0
7140	0	0	0
7141	237	231	239
7142	234	218	238
7143	224	196	235
7144	219	186	238
7145	220	186	247
7146	218	184	249
7147	219	182	251
7148	205	157	239
7149	194	138	234
7150	198	142	241
7151	198	139	239
7152	201	137	237
7153	206	139	237
7154	229	165	254
7155	230	167	249
7156	234	176	248
7157	242	188	250
7158	246	198	250
7159	238	193	238
7160	0	0	0
7161	0	0	0
7162	0	0	0
7163	0	0	0
7164	0	0	0
7165	0	0	0
7166	0	0	0
7167	0	0	0
7168	0	0	0
7169	0	0	0
7170	0	0	0
7171	0	0	0
7172	0	0	0
7173	0	0	0
7174	0	0	0
7175	0	0	0
7176	0	0	0
7177	0	0	0
7178	0	0	0
7179	0	0	0
7180	0	0	0
7181	0	0	0
7182	0	0	0
7183	0	0	0
7184	0	0	0
7185	0	0	0
7186	0	0	0
7187	0	0	0
7188	0	0	0
7189	0	0	0
7190	0	0	0
7191	0	0	0
7192	0	0	0
7193	0	0	0
7194	0	0	0
7195	0	0	0
7196	0	0	0
7197	0	0	0
7198	0	0	0
7199	0	0	0
7200	0	0	0
7201	0	0	0
7202	0	0	0
7203	0	0	0
7204	0	0	0
7205	0	0	0
7206	0	0	0
7207	0	0	0
7208	0	0	0
7209	0	0	0
7210	0	0	0
7211	0	0	0
7212	0	0	0
7213	0	0	0
7214	0	0	0
7215	0	0	0
7216	0	0	0
7217	0	0	0
7218	0	0	0
7219	0	0	0
7220	0	0	0
7221	0	0	0
7222	0	0	0
7223	0	0	0
7224	0	0	0
7225	0	0	0
7226	0	0	0
7227	0	0	0
7228	0	0	0
7229	0	0	0
7230	0	0	0
7231	0	0	0
7232	0	0	0
7233	0	0	0
7234	236	230	240
7235	226	208	233
7236	216	186	231
7237	222	191	243
7238	222	190	247
7239	218	184	248
7240	218	183	252
7241	205	163	243
7242	194	143	236
7243	197	146	242
7244	197	143	239
7245	208	152	245
7246	213	155	245
7247	225	166	252
7248	227	168	249
7249	238	183	254
7250	244	196	254
7251	241	195	247
7252	0	0	0
7253	0	0	0
7254	0	0	0
7255	0	0	0
7256	0	0	0
7257	0	0	0
7258	0	0	0
7259	0	0	0
7260	0	0	0
7261	0	0	0
7262	0	0	0
7263	0	0	0
7264	0	0	0
7265	0	0	0
7266	0	0	0
7267	0	0	0
7268	0	0	0
7269	0	0	0
7270	0	0	0
7271	0	0	0
7272	0	0	0
7273	0	0	0
7274	0	0	0
7275	0	0	0
7276	0	0	0
7277	0	0	0
7278	0	0	0
7279	0	0	0
7280	0	0	0
7281	0	0	0
7282	0	0	0
7283	0	0	0
7284	0	0	0
7285	0	0	0
7286	0	0	0
7287	0	0	0
7288	0	0	0
7289	0	0	0
7290	0	0	0
7291	0	0	0
7292	0	0	0
7293	0	0	0
7294	0	0	0
7295	0	0	0
7296	0	0	0
7297	0	0	0
7298	0	0	0
7299	0	0	0
7300	0	0	0
7301	0	0	0
7302	0	0	0
7303	0	0	0
7304	0	0	0
7305	0	0	0
7306	0	0	0
7307	0	0	0
7308	0	0	0
7309	0	0	0
7310	0	0	0
7311	0	0	0
7312	0	0	0
7313	0	0	0
7314	0	0	0
7315	0	0	0
7316	0	0	0
7317	0	0	0
7318	0	0	0
7319	0	0	0
7320	0	0	0
7321	0	0	0
7322	0	0	0
7323	0	0	0
7324	0	0	0
7325	0	0	0
7326	0	0	0
7327	233	228	239
7328	221	205	231
7329	218	195	237
7330	224	200	249
7331	219	191	246
7332	217	186	248
7333	218	185	252
7334	206	165	244
7335	206	162	247
7336	208	164	251
7337	204	155	244
7338	216	165	251
7339	220	166	250
7340	231	177	255
7341	228	171	250
7342	238	187	255
7343	239	191	250
7344	0	0	0
7345	0	0	0
7346	0	0	0
7347	0	0	0
7348	0	0	0
7349	0	0	0
7350	0	0	0
7351	0	0	0
7352	0	0	0
7353	0	0	0
7354	0	0	0
7355	0	0	0
7356	0	0	0
7357	0	0	0
7358	0	0	0
7359	0	0	0
7360	0	0	0
7361	0	0	0
7362	0	0	0
7363	0	0	0
7364	0	0	0
7365	0	0	0
7366	0	0	0
7367	0	0	0
7368	0	0	0
7369	0	0	0
7370	0	0	0
7371	0	0	0
7372	0	0	0
7373	0	0	0
7374	0	0	0
7375	0	0	0
7376	0	0	0
7377	0	0	0
7378	0	0	0
7379	0	0	0
7380	0	0	0
7381	0	0	0
7382	0	0	0
7383	0	0	0
7384	0	0	0
7385	0	0	0
7386	0	0	0
7387	0	0	0
7388	0	0	0
7389	0	0	0
7390	0	0	0
7391	0	0	0
7392	0	0	0
7393	0	0	0
7394	0	0	0
7395	0	0	0
7396	0	0	0
7397	0	0	0
7398	0	0	0
7399	0	0	0
7400	0	0	0
7401	0	0	0
7402	0	0	0
7403	0	0	0
7404	0	0	0
7405	0	0	0
7406	0	0	0
7407	0	0	0
7408	0	0	0
7409	0	0	0
7410	0	0	0
7411	0	0	0
7412	0	0	0
7413	0	0	0
7414	0	0	0
7415	0	0	0
7416	0	0	0
7417	0	0	0
7418	0	0	0
7419	0	0	0
7420	232	228	239
7421	226	216	238
7422	222	205	241
7423	222	201	247
7424	218	193	247
7425	220	191	251
7426	222	189	254
7427	222	186	255
7428	222	182	255
7429	217	176	255
7430	213	167	250
7431	224	176	255
7432	228	177	255
7433	231	177	253
7434	226	171	247
7435	231	181	249
7436	231	186	245
7437	232	195	244
7438	0	0	0
7439	0	0	0
7440	0	0	0
7441	0	0	0
7442	0	0	0
7443	0	0	0
7444	0	0	0
7445	0	0	0
7446	0	0	0
7447	0	0	0
7448	0	0	0
7449	0	0	0
7450	0	0	0
7451	0	0	0
7452	0	0	0
7453	0	0	0
7454	0	0	0
7455	0	0	0
7456	0	0	0
7457	0	0	0
7458	0	0	0
7459	0	0	0
7460	0	0	0
7461	0	0	0
7462	0	0	0
7463	0	0	0
7464	0	0	0
7465	0	0	0
7466	0	0	0
7467	0	0	0
7468	0	0	0
7469	0	0	0
7470	0	0	0
7471	0	0	0
7472	0	0	0
7473	0	0	0
7474	0	0	0
7475	0	0	0
7476	0	0	0
7477	0	0	0
7478	0	0	0
7479	0	0	0
7480	0	0	0
7481	0	0	0
7482	0	0	0
7483	0	0	0
7484	0	0	0
7485	0	0	0
7486	0	0	0
7487	0	0	0
7488	0	0	0
7489	0	0	0
7490	0	0	0
7491	0	0	0
7492	0	0	0
7493	0	0	0
7494	0	0	0
7495	0	0	0
7496	0	0	0
7497	0	0	0
7498	0	0	0
7499	0	0	0
7500	0	0	0
7501	0	0	0
7502	0	0	0
7503	0	0	0
7504	0	0	0
7505	0	0	0
7506	0	0	0
7507	0	0	0
7508	0	0	0
7509	0	0	0
7510	0	0	0
7511	0	0	0
7512	0	0	0
7513	238	234	244
7514	231	221	242
7515	224	207	241
7516	221	202	245
7517	221	197	248
7518	225	196	253
7519	228	194	255
7520	230	191	255
7521	225	183	254
7522	219	175	250
7523	220	175	252
7524	232	185	255
7525	227	174	250
7526	228	173	248
7527	228	176	248
7528	231	185	249
7529	237	198	251
7530	239	209	251
7531	0	0	0
7532	0	0	0
7533	0	0	0
7534	0	0	0
7535	0	0	0
7536	0	0	0
7537	0	0	0
7538	0	0	0
7539	0	0	0
7540	0	0	0
7541	0	0	0
7542	0	0	0
7543	0	0	0
7544	0	0	0
7545	0	0	0
7546	0	0	0
7547	0	0	0
7548	0	0	0
7549	0	0	0
7550	0	0	0
7551	0	0	0
7552	0	0	0
7553	0	0	0
7554	0	0	0
7555	0	0	0
7556	0	0	0
7557	0	0	0
7558	0	0	0
7559	0	0	0
7560	0	0	0
7561	0	0	0
7562	0	0	0
7563	0	0	0
7564	0	0	0
7565	0	0	0
7566	0	0	0
7567	0	0	0
7568	0	0	0
7569	0	0	0
7570	0	0	0
7571	0	0	0
7572	0	0	0
7573	0	0	0
7574	0	0	0
7575	0	0	0
7576	0	0	0
7577	0	0	0
7578	0	0	0
7579	0	0	0
7580	0	0	0
7581	0	0	0
7582	0	0	0
7583	0	0	0
7584	0	0	0
7585	0	0	0
7586	0	0	0
7587	0	0	0
7588	0	0	0
7589	0	0	0
7590	0	0	0
7591	0	0	0
7592	0	0	0
7593	0	0	0
7594	0	0	0
7595	0	0	0
7596	0	0	0
7597	0	0	0
7598	0	0	0
7599	0	0	0
7600	0	0	0
7601	0	0	0
7602	0	0	0
7603	0	0	0
7604	0	0	0
7605	0	0	0
7606	242	240	248
7607	231	223	242
7608	222	208	239
7609	220	204	242
7610	220	199	245
7611	227	200	251
7612	230	196	253
7613	229	190	252
7614	224	181	248
7615	225	182	251
7616	227	183	254
7617	229	180	254
7618	223	169	245
7619	230	178	250
7620	231	182	250
7621	239	198	255
7622	243	211	254
7623	238	209	247
7624	0	0	0
7625	0	0	0
7626	0	0	0
7627	0	0	0
7628	0	0	0
7629	0	0	0
7630	0	0	0
7631	0	0	0
7632	0	0	0
7633	0	0	0
7634	0	0	0
7635	0	0	0
7636	0	0	0
7637	0	0	0
7638	0	0	0
7639	0	0	0
7640	0	0	0
7641	0	0	0
7642	0	0	0
7643	0	0	0
7644	0	0	0
7645	0	0	0
7646	0	0	0
7647	0	0	0
7648	0	0	0
7649	0	0	0
7650	0	0	0
7651	0	0	0
7652	0	0	0
7653	0	0	0
7654	0	0	0
7655	0	0	0
7656	0	0	0
7657	0	0	0
7658	0	0	0
7659	0	0	0
7660	0	0	0
7661	0	0	0
7662	0	0	0
7663	0	0	0
7664	0	0	0
7665	0	0	0
7666	0	0	0
7667	0	0	0
7668	0	0	0
7669	0	0	0
7670	0	0	0
7671	0	0	0
7672	0	0	0
7673	0	0	0
7674	0	0	0
7675	0	0	0
7676	0	0	0
7677	0	0	0
7678	0	0	0
7679	0	0	0
7680	0	0	0
7681	0	0	0
7682	0	0	0
7683	0	0	0
7684	0	0	0
7685	0	0	0
7686	0	0	0
7687	0	0	0
7688	0	0	0
7689	0	0	0
7690	0	0	0
7691	0	0	0
7692	0	0	0
7693	0	0	0
7694	0	0	0
7695	0	0	0
7696	0	0	0
7697	0	0	0
7698	0	0	0
7699	243	243	248
7700	229	224	240
7701	222	214	240
7702	221	210	243
7703	224	208	247
7704	233	210	254
7705	227	196	249
7706	221	187	246
7707	224	189	249
7708	231	193	255
7709	230	188	254
7710	229	182	252
7711	225	175	246
7712	234	186	253
7713	234	187	251
7714	243	205	255
7715	238	204	247
7716	0	0	0
7717	0	0	0
7718	0	0	0
7719	0	0	0
7720	0	0	0
7721	0	0	0
7722	0	0	0
7723	0	0	0
7724	0	0	0
7725	0	0	0
7726	0	0	0
7727	0	0	0
7728	0	0	0
7729	0	0	0
7730	0	0	0
7731	0	0	0
7732	0	0	0
7733	0	0	0
7734	0	0	0
7735	0	0	0
7736	0	0	0
7737	0	0	0
7738	0	0	0
7739	0	0	0
7740	0	0	0
7741	0	0	0
7742	0	0	0
7743	0	0	0
7744	0	0	0
7745	0	0	0
7746	0	0	0
7747	0	0	0
7748	0	0	0
7749	0	0	0
7750	0	0	0
7751	0	0	0
7752	0	0	0
7753	0	0	0
7754	0	0	0
7755	0	0	0
7756	0	0	0
7757	0	0	0
7758	0	0	0
7759	0	0	0
7760	0	0	0
7761	0	0	0
7762	0	0	0
7763	0	0	0
7764	0	0	0
7765	0	0	0
7766	0	0	0
7767	0	0	0
7768	0	0	0
7769	0	0	0
7770	0	0	0
7771	0	0	0
7772	0	0	0
7773	0	0	0
7774	0	0	0
7775	0	0	0
7776	0	0	0
7777	0	0	0
7778	0	0	0
7779	0	0	0
7780	0	0	0
7781	0	0	0
7782	0	0	0
7783	0	0	0
7784	0	0	0
7785	0	0	0
7786	0	0	0
7787	0	0	0
7788	0	0	0
7789	0	0	0
7790	0	0	0
7791	0	0	0
7792	0	0	0
7793	232	231	242
7794	225	221	241
7795	225	218	245
7796	227	216	249
7797	227	207	248
7798	221	193	244
7799	223	196	249
7800	228	199	254
7801	230	196	254
7802	229	189	251
7803	228	185	249
7804	225	179	246
7805	232	188	251
7806	232	189	248
7807	236	196	248
7808	0	0	0
7809	0	0	0
7810	0	0	0
7811	0	0	0
7812	0	0	0
7813	0	0	0
7814	0	0	0
7815	0	0	0
7816	0	0	0
7817	0	0	0
7818	0	0	0
7819	0	0	0
7820	0	0	0
7821	0	0	0
7822	0	0	0
7823	0	0	0
7824	0	0	0
7825	0	0	0
7826	0	0	0
7827	0	0	0
7828	0	0	0
7829	0	0	0
7830	0	0	0
7831	0	0	0
7832	0	0	0
7833	0	0	0
7834	0	0	0
7835	0	0	0
7836	0	0	0
7837	0	0	0
7838	0	0	0
7839	0	0	0
7840	0	0	0
7841	0	0	0
7842	0	0	0
7843	0	0	0
7844	0	0	0
7845	0	0	0
7846	0	0	0
7847	0	0	0
7848	0	0	0
7849	0	0	0
7850	0	0	0
7851	0	0	0
7852	0	0	0
7853	0	0	0
7854	0	0	0
7855	0	0	0
7856	0	0	0
7857	0	0	0
7858	0	0	0
7859	0	0	0
7860	0	0	0
7861	0	0	0
7862	0	0	0
7863	0	0	0
7864	0	0	0
7865	0	0	0
7866	0	0	0
7867	0	0	0
7868	0	0	0
7869	0	0	0
7870	0	0	0
7871	0	0	0
7872	0	0	0
7873	0	0	0
7874	0	0	0
7875	0	0	0
7876	0	0	0
7877	0	0	0
7878	0	0	0
7879	0	0	0
7880	0	0	0
7881	0	0	0
7882	0	0	0
7883	0	0	0
7884	0	0	0
7885	0	0	0
7886	0	0	0
7887	231	231	243
7888	231	228	247
7889	231	223	249
7890	225	211	246
7891	220	200	244
7892	227	206	252
7893	231	207	255
7894	232	203	254
7895	228	192	248
7896	0	0	0
7897	233	195	252
7898	238	203	255
7899	229	191	246
7900	0	0	0
7901	0	0	0
7902	0	0	0
7903	0	0	0
7904	0	0	0
7905	0	0	0
7906	0	0	0
7907	0	0	0
7908	0	0	0
7909	0	0	0
7910	0	0	0
7911	0	0	0
7912	0	0	0
7913	0	0	0
7914	0	0	0
7915	0	0	0
7916	0	0	0
7917	0	0	0
7918	0	0	0
7919	0	0	0
7920	0	0	0
7921	0	0	0
7922	0	0	0
7923	0	0	0
7924	0	0	0
7925	0	0	0
7926	0	0	0
7927	0	0	0
7928	0	0	0
7929	0	0	0
7930	0	0	0
7931	0	0	0
7932	0	0	0
7933	0	0	0
7934	0	0	0
7935	0	0	0
7936	0	0	0
7937	0	0	0
7938	0	0	0
7939	0	0	0
7940	0	0	0
7941	0	0	0
7942	0	0	0
7943	0	0	0
7944	0	0	0
7945	0	0	0
7946	0	0	0
7947	0	0	0
7948	0	0	0
7949	0	0	0
7950	0	0	0
7951	0	0	0
7952	0	0	0
7953	0	0	0
7954	0	0	0
7955	0	0	0
7956	0	0	0
7957	0	0	0
7958	0	0	0
7959	0	0	0
7960	0	0	0
7961	0	0	0
7962	0	0	0
7963	0	0	0
7964	0	0	0
7965	0	0	0
7966	0	0	0
7967	0	0	0
7968	0	0	0
7969	0	0	0
7970	0	0	0
7971	0	0	0
7972	0	0	0
7973	0	0	0
7974	0	0	0
7975	0	0	0
7976	0	0	0
7977	0	0	0
7978	0	0	0
7979	0	0	0
7980	0	0	0
7981	235	235	246
7982	234	229	249
7983	228	219	247
7984	223	208	245
7985	229	212	251
7986	0	0	0
7987	229	204	249
7988	0	0	0
7989	0	0	0
7990	0	0	0
7991	232	201	248
7992	0	0	0
7993	0	0	0
7994	0	0	0
7995	0	0	0
7996	0	0	0
7997	0	0	0
7998	0	0	0
