 	R	G	B
1	0	0	0
2	0	0	0
3	0	0	0
4	0	0	0
5	0	0	0
6	0	0	0
7	0	0	0
8	255	245	245
9	255	242	239
10	255	242	237
11	255	241	237
12	255	240	237
13	254	240	236
14	253	239	235
15	254	238	235
16	255	241	238
17	255	243	240
18	255	243	238
19	255	245	237
20	255	241	235
21	0	0	0
22	0	0	0
23	0	0	0
24	0	0	0
25	0	0	0
26	0	0	0
27	0	0	0
28	0	0	0
29	0	0	0
30	0	0	0
31	0	0	0
32	0	0	0
33	0	0	0
34	0	0	0
35	0	0	0
36	0	0	0
37	0	0	0
38	0	0	0
39	0	0	0
40	0	0	0
41	0	0	0
42	0	0	0
43	0	0	0
44	0	0	0
45	0	0	0
46	0	0	0
47	252	227	237
48	249	224	233
49	254	230	234
50	255	231	233
51	252	226	230
52	251	226	230
53	254	230	233
54	255	230	234
55	251	222	229
56	251	224	230
57	253	227	232
58	255	230	233
59	255	229	231
60	255	225	227
61	255	227	230
62	0	0	0
63	0	0	0
64	0	0	0
65	0	0	0
66	0	0	0
67	0	0	0
68	0	0	0
69	0	0	0
70	0	0	0
71	0	0	0
72	0	0	0
73	0	0	0
74	0	0	0
75	0	0	0
76	0	0	0
77	0	0	0
78	0	0	0
79	0	0	0
80	0	0	0
81	0	0	0
82	0	0	0
83	0	0	0
84	0	0	0
85	0	0	0
86	0	0	0
87	0	0	0
88	249	215	232
89	254	222	235
90	253	219	231
91	251	215	229
92	254	219	232
93	255	223	234
94	255	218	232
95	251	211	228
96	252	214	230
97	255	219	234
98	255	221	236
99	255	220	233
100	255	221	232
101	255	223	233
102	255	212	226
103	252	200	220
104	255	203	225
105	255	204	229
106	254	199	227
107	248	190	223
108	255	204	232
109	255	213	234
110	255	220	237
111	255	228	244
112	255	228	242
113	0	0	0
114	0	0	0
115	0	0	0
116	0	0	0
117	0	0	0
118	0	0	0
119	0	0	0
120	0	0	0
121	0	0	0
122	0	0	0
123	0	0	0
124	0	0	0
125	0	0	0
126	0	0	0
127	248	211	232
128	255	223	242
129	255	214	236
130	253	210	232
131	255	212	233
132	255	217	238
133	252	204	230
134	249	198	227
135	252	202	230
136	255	208	235
137	255	207	235
138	255	208	236
139	251	193	224
140	252	194	224
141	255	196	225
142	250	185	219
143	252	185	222
144	255	189	228
145	248	177	224
146	245	172	223
147	247	174	226
148	255	188	235
149	253	184	227
150	253	189	228
151	253	195	232
152	247	194	227
153	254	212	234
154	0	0	0
155	0	0	0
156	0	0	0
157	0	0	0
158	0	0	0
159	0	0	0
160	0	0	0
161	0	0	0
162	248	220	235
163	251	223	237
164	253	222	237
165	254	221	237
166	252	217	235
167	252	213	234
168	253	208	234
169	249	201	231
170	252	203	233
171	254	204	233
172	248	193	227
173	242	181	223
174	248	188	230
175	252	192	233
176	251	189	230
177	250	187	226
178	244	174	219
179	236	161	212
180	239	164	217
181	242	167	221
182	244	165	221
183	244	164	220
184	236	153	216
185	230	143	215
186	236	150	224
187	238	151	224
188	239	153	224
189	235	149	218
190	238	157	220
191	239	163	222
192	248	181	230
193	254	198	234
194	252	205	233
195	255	220	243
196	0	0	0
197	0	0	0
198	0	0	0
199	0	0	0
200	0	0	0
201	246	223	237
202	255	233	246
203	252	216	236
204	251	214	235
205	253	213	236
206	253	210	235
207	251	205	233
208	248	198	231
209	249	198	235
210	253	201	239
211	252	197	234
212	246	186	229
213	246	182	231
214	255	190	241
215	252	186	238
216	248	181	233
217	243	173	225
218	237	162	218
219	241	162	224
220	248	168	233
221	249	167	234
222	247	164	232
223	244	160	229
224	236	149	224
225	239	151	232
226	246	159	241
227	232	140	228
228	231	141	226
229	238	152	231
230	244	161	235
231	242	160	231
232	254	180	240
233	255	188	237
234	252	194	234
235	255	207	241
236	247	202	233
237	0	0	0
238	0	0	0
239	0	0	0
240	0	0	0
241	252	231	242
242	252	219	237
243	244	202	228
244	246	203	231
245	247	202	235
246	245	197	234
247	244	192	233
248	246	193	235
249	247	192	237
250	244	188	236
251	243	184	232
252	241	178	230
253	241	174	231
254	243	172	234
255	241	168	233
256	235	161	228
257	231	154	222
258	235	154	224
259	239	155	229
260	245	157	234
261	245	156	234
262	242	152	231
263	240	149	230
264	239	148	231
265	240	148	235
266	234	137	231
267	220	119	220
268	228	134	230
269	234	144	233
270	235	147	232
271	233	146	228
272	242	161	234
273	244	169	231
274	247	180	233
275	250	193	238
276	248	198	237
277	0	0	0
278	0	0	0
279	0	0	0
280	0	0	0
281	255	232	244
282	252	217	237
283	247	207	233
284	250	208	238
285	249	206	241
286	245	200	240
287	250	203	244
288	255	206	249
289	251	194	243
290	243	187	239
291	238	181	235
292	239	176	235
293	247	185	243
294	247	182	243
295	243	174	241
296	241	168	238
297	244	167	238
298	252	169	242
299	251	164	242
300	253	163	243
301	249	156	239
302	249	154	239
303	250	154	241
304	248	152	241
305	246	149	241
306	240	138	236
307	235	132	234
308	242	147	244
309	240	149	240
310	239	150	238
311	236	151	236
312	242	164	240
313	240	167	236
314	247	181	241
315	249	187	240
316	251	194	240
317	0	0	0
318	255	211	242
319	0	0	0
320	0	0	0
321	0	0	0
322	250	217	239
323	0	0	0
324	0	0	0
325	245	204	240
326	248	205	243
327	253	208	246
328	251	199	243
329	243	187	236
330	235	179	234
331	232	174	236
332	242	184	246
333	248	190	249
334	239	177	239
335	237	169	238
336	241	169	240
337	246	169	242
338	250	166	242
339	248	159	239
340	243	152	236
341	239	144	233
342	243	147	237
343	244	147	238
344	241	143	237
345	240	140	238
346	238	138	238
347	233	132	233
348	236	140	237
349	235	142	234
350	237	148	237
351	235	150	236
352	235	156	237
353	234	160	237
354	239	169	239
355	241	175	238
356	249	189	241
357	255	205	244
358	250	198	235
359	246	195	233
360	0	0	0
361	0	0	0
362	0	0	0
363	0	0	0
364	0	0	0
365	0	0	0
366	255	215	249
367	253	209	247
368	247	197	241
369	242	191	239
370	237	185	239
371	238	184	245
372	248	194	254
373	244	188	248
374	232	173	236
375	242	182	245
376	250	184	250
377	250	176	246
378	251	171	245
379	246	161	240
380	241	154	237
381	242	155	240
382	243	156	243
383	243	154	243
384	241	150	242
385	237	143	240
386	234	140	238
387	236	144	240
388	242	153	245
389	234	143	236
390	238	150	240
391	234	149	237
392	237	156	240
393	241	167	245
394	243	174	246
395	241	177	243
396	248	191	247
397	245	192	239
398	237	185	230
399	247	202	241
400	251	209	245
401	0	0	0
402	0	0	0
403	0	0	0
404	0	0	0
405	0	0	0
406	248	210	242
407	247	205	242
408	244	199	242
409	241	194	243
410	240	192	245
411	240	190	246
412	242	189	248
413	240	185	245
414	242	189	248
415	250	196	253
416	249	186	248
417	248	177	245
418	245	168	241
419	241	159	237
420	244	162	242
421	244	163	244
422	242	160	244
423	242	158	245
424	239	152	243
425	235	145	241
426	240	152	246
427	241	155	246
428	234	147	239
429	227	138	232
430	230	142	235
431	228	141	234
432	237	156	242
433	241	166	245
434	238	169	242
435	236	172	241
436	234	174	238
437	231	176	235
438	236	189	239
439	245	204	245
440	242	199	239
441	0	0	0
442	0	0	0
443	0	0	0
444	0	0	0
445	247	220	244
446	244	213	241
447	238	202	238
448	237	198	240
449	242	201	246
450	243	200	248
451	241	194	246
452	243	193	247
453	245	192	249
454	250	198	253
455	245	188	246
456	238	175	237
457	248	184	247
458	246	176	244
459	247	173	244
460	253	177	251
461	247	167	246
462	243	164	245
463	246	167	249
464	245	161	248
465	245	158	248
466	251	166	254
467	241	155	245
468	229	144	236
469	233	153	242
470	238	158	246
471	237	155	244
472	250	172	254
473	249	174	251
474	244	176	247
475	244	184	249
476	239	186	246
477	238	190	248
478	244	203	252
479	244	207	248
480	240	201	241
481	0	0	0
482	0	0	0
483	0	0	0
484	0	0	0
485	249	226	247
486	241	213	240
487	235	202	238
488	241	206	245
489	246	209	249
490	244	204	247
491	243	198	246
492	246	198	248
493	248	197	248
494	243	188	244
495	238	179	239
496	243	186	244
497	252	194	251
498	250	188	247
499	250	184	248
500	248	177	246
501	243	168	243
502	245	170	247
503	248	173	250
504	248	169	249
505	246	165	247
506	243	159	245
507	234	149	239
508	236	157	244
509	240	166	249
510	240	165	249
511	239	162	247
512	249	173	254
513	248	175	250
514	246	182	248
515	245	189	248
516	238	190	245
517	236	195	246
518	233	197	244
519	234	201	241
520	0	0	0
521	0	0	0
522	0	0	0
523	0	0	0
524	0	0	0
525	251	229	248
526	243	215	241
527	241	210	242
528	248	215	250
529	246	208	247
530	244	202	245
531	245	201	247
532	247	200	248
533	246	197	246
534	241	188	242
535	243	189	245
536	249	196	251
537	249	194	248
538	246	186	244
539	249	189	248
540	244	180	244
541	243	175	245
542	249	180	250
543	249	179	250
544	244	172	246
545	242	169	244
546	238	162	242
547	239	164	246
548	246	176	255
549	242	171	251
550	240	169	249
551	242	172	251
552	251	182	255
553	241	173	245
554	239	180	244
555	244	196	249
556	0	0	0
557	236	204	247
558	0	0	0
559	0	0	0
560	0	0	0
561	0	0	0
562	0	0	0
563	0	0	0
564	0	0	0
565	0	0	0
566	245	221	242
567	244	215	241
568	245	211	243
569	243	205	244
570	245	205	248
571	246	203	248
572	244	199	247
573	242	195	245
574	243	195	246
575	245	196	249
576	245	194	248
577	244	192	246
578	246	193	247
579	249	194	250
580	244	187	247
581	242	182	246
582	243	181	247
583	243	180	246
584	242	177	244
585	240	174	244
586	242	176	248
587	244	178	251
588	242	176	250
589	238	172	247
590	239	175	249
591	240	177	250
592	237	174	246
593	0	0	0
594	235	184	243
595	0	0	0
596	0	0	0
597	0	0	0
598	0	0	0
599	0	0	0
600	0	0	0
601	0	0	0
602	0	0	0
603	0	0	0
604	0	0	0
605	0	0	0
606	0	0	0
607	248	223	245
608	249	219	246
609	247	212	247
610	247	211	250
611	247	210	250
612	246	205	247
613	245	204	248
614	244	203	248
615	244	204	249
616	244	202	249
617	243	199	247
618	245	199	249
619	243	195	248
620	238	187	244
621	238	187	245
622	234	183	243
623	243	194	250
624	246	193	251
625	238	179	243
626	241	182	248
627	246	189	253
628	242	185	250
629	241	186	250
630	241	188	251
631	239	188	250
632	0	0	0
633	0	0	0
634	0	0	0
635	0	0	0
636	0	0	0
637	0	0	0
638	0	0	0
639	0	0	0
640	0	0	0
641	0	0	0
642	0	0	0
643	0	0	0
644	0	0	0
645	0	0	0
646	0	0	0
647	0	0	0
648	252	226	250
649	248	217	247
650	247	215	246
651	246	214	246
652	246	212	245
653	245	211	245
654	243	210	245
655	244	211	247
656	243	208	247
657	242	204	246
658	239	199	245
659	237	194	245
660	238	194	247
661	236	193	246
662	239	199	250
663	247	209	255
664	239	194	246
665	231	180	240
666	240	190	249
667	244	196	253
668	244	198	252
669	243	198	251
670	240	198	249
671	0	0	0
672	0	0	0
673	0	0	0
674	0	0	0
675	0	0	0
676	0	0	0
677	0	0	0
678	0	0	0
679	0	0	0
680	0	0	0
681	0	0	0
682	0	0	0
683	0	0	0
684	0	0	0
685	0	0	0
686	0	0	0
687	0	0	0
688	0	0	0
689	0	0	0
690	0	0	0
691	0	0	0
692	0	0	0
693	246	219	245
694	245	219	245
695	242	214	244
696	240	211	243
697	240	209	245
698	238	204	244
699	242	208	249
700	242	208	250
701	242	207	251
702	246	215	255
703	243	212	251
704	229	193	239
705	0	0	0
706	0	0	0
707	0	0	0
708	0	0	0
709	0	0	0
710	0	0	0
711	0	0	0
712	0	0	0
713	0	0	0
714	0	0	0
715	0	0	0
716	0	0	0
717	0	0	0
718	0	0	0
719	0	0	0
720	0	0	0
721	0	0	0
722	0	0	0
723	0	0	0
724	0	0	0
725	0	0	0
726	0	0	0
727	0	0	0
728	0	0	0
729	0	0	0
730	0	0	0
731	0	0	0
732	0	0	0
733	0	0	0
734	244	223	243
735	242	218	242
736	240	215	242
737	239	213	243
738	240	215	245
739	242	218	247
740	244	219	248
741	244	219	249
742	244	218	250
743	242	216	250
744	0	0	0
745	0	0	0
746	0	0	0
747	0	0	0
748	0	0	0
749	0	0	0
750	0	0	0
751	0	0	0
752	0	0	0
753	0	0	0
754	0	0	0
755	0	0	0
756	0	0	0
757	0	0	0
758	0	0	0
759	0	0	0
760	0	0	0
