 	R	G	B
1	0	0	0
2	0	0	0
3	0	0	0
4	0	0	0
5	0	0	0
6	0	0	0
7	0	0	0
8	0	0	0
9	0	0	0
10	0	0	0
11	0	0	0
12	0	0	0
13	255	223	240
14	0	0	0
15	0	0	0
16	0	0	0
17	0	0	0
18	0	0	0
19	0	0	0
20	0	0	0
21	0	0	0
22	0	0	0
23	0	0	0
24	0	0	0
25	0	0	0
26	0	0	0
27	0	0	0
28	0	0	0
29	0	0	0
30	0	0	0
31	0	0	0
32	0	0	0
33	0	0	0
34	0	0	0
35	0	0	0
36	0	0	0
37	254	218	237
38	255	219	238
39	255	225	241
40	0	0	0
41	0	0	0
42	0	0	0
43	0	0	0
44	0	0	0
45	0	0	0
46	0	0	0
47	0	0	0
48	0	0	0
49	0	0	0
50	0	0	0
51	0	0	0
52	0	0	0
53	0	0	0
54	0	0	0
55	0	0	0
56	0	0	0
57	0	0	0
58	255	232	243
59	0	0	0
60	0	0	0
61	251	211	234
62	254	215	236
63	254	215	234
64	255	217	234
65	254	217	234
66	255	225	238
67	0	0	0
68	0	0	0
69	0	0	0
70	0	0	0
71	0	0	0
72	0	0	0
73	0	0	0
74	0	0	0
75	0	0	0
76	0	0	0
77	0	0	0
78	0	0	0
79	0	0	0
80	0	0	0
81	0	0	0
82	255	228	239
83	255	227	240
84	252	212	230
85	0	0	0
86	255	216	237
87	255	220	240
88	253	210	231
89	254	212	231
90	252	211	231
91	255	219	236
92	254	219	235
93	0	0	0
94	0	0	0
95	0	0	0
96	0	0	0
97	0	0	0
98	0	0	0
99	0	0	0
100	0	0	0
101	0	0	0
102	0	0	0
103	0	0	0
104	0	0	0
105	0	0	0
106	255	220	233
107	255	227	239
108	255	213	231
109	246	198	222
110	255	212	233
111	255	224	241
112	255	215	236
113	253	207	230
114	253	207	230
115	251	206	229
116	252	209	231
117	250	210	231
118	0	0	0
119	0	0	0
120	0	0	0
121	0	0	0
122	0	0	0
123	0	0	0
124	0	0	0
125	0	0	0
126	0	0	0
127	0	0	0
128	0	0	0
129	0	0	0
130	255	215	235
131	255	219	236
132	254	208	229
133	245	193	220
134	251	200	227
135	255	213	237
136	255	206	232
137	250	198	226
138	253	203	230
139	252	203	230
140	254	208	233
141	255	211	235
142	250	208	233
143	0	0	0
144	0	0	0
145	0	0	0
146	0	0	0
147	0	0	0
148	0	0	0
149	0	0	0
150	0	0	0
151	0	0	0
152	0	0	0
153	246	195	227
154	253	204	232
155	255	211	237
156	251	200	228
157	244	189	220
158	249	194	225
159	254	200	232
160	252	196	231
161	247	189	226
162	251	196	230
163	253	200	232
164	255	206	235
165	255	210	237
166	255	209	237
167	250	206	235
168	254	216	239
169	0	0	0
170	0	0	0
171	0	0	0
172	0	0	0
173	0	0	0
174	0	0	0
175	0	0	0
176	0	0	0
177	251	200	233
178	255	203	235
179	255	212	241
180	255	201	234
181	247	189	226
182	252	196	229
183	255	201	234
184	255	203	236
185	255	198	235
186	248	188	231
187	251	193	235
188	253	198	235
189	255	203	237
190	252	200	233
191	248	198	231
192	251	206	237
193	255	217	242
194	252	215	235
195	0	0	0
196	0	0	0
197	0	0	0
198	0	0	0
199	0	0	0
200	0	0	0
201	244	192	227
202	252	201	234
203	255	205	236
204	252	196	231
205	246	186	225
206	252	194	231
207	255	200	236
208	255	200	234
209	255	200	233
210	254	193	231
211	248	184	231
212	252	192	238
213	253	196	238
214	252	195	235
215	248	191	231
216	252	200	237
217	255	209	241
218	255	212	240
219	252	210	234
220	253	219	236
221	0	0	0
222	0	0	0
223	0	0	0
224	0	0	0
225	0	0	0
226	251	203	234
227	255	213	242
228	254	200	235
229	250	192	230
230	249	189	229
231	255	198	237
232	255	196	235
233	251	193	231
234	252	194	230
235	252	188	229
236	252	186	234
237	255	195	243
238	252	191	238
239	250	189	235
240	252	193	236
241	255	204	242
242	252	198	237
243	252	200	236
244	251	203	233
245	252	212	236
246	245	210	231
247	0	0	0
248	0	0	0
249	0	0	0
250	0	0	0
251	253	209	235
252	252	202	234
253	248	191	230
254	251	193	235
255	251	190	234
256	255	193	237
257	253	191	234
258	249	189	231
259	250	189	230
260	253	188	231
261	252	186	233
262	254	188	237
263	251	186	237
264	252	190	239
265	254	194	239
266	250	190	235
267	245	184	232
268	249	192	236
269	248	196	234
270	245	198	232
271	238	196	228
272	247	220	240
273	0	0	0
274	0	0	0
275	0	0	0
276	253	214	237
277	255	208	238
278	249	193	234
279	254	196	240
280	253	191	238
281	255	195	241
282	249	182	232
283	247	182	230
284	254	192	235
285	253	189	233
286	251	184	232
287	255	188	238
288	246	175	232
289	246	179	234
290	255	196	242
291	253	192	238
292	248	186	235
293	251	194	239
294	249	195	236
295	246	197	234
296	246	203	236
297	255	228	249
298	255	231	246
299	0	0	0
300	0	0	0
301	253	217	238
302	249	204	234
303	243	189	231
304	246	189	235
305	246	185	234
306	245	180	232
307	239	169	226
308	252	185	237
309	255	195	240
310	255	189	235
311	254	185	235
312	252	179	235
313	244	167	230
314	254	185	242
315	255	201	247
316	253	191	236
317	247	185	232
318	249	190	235
319	247	192	233
320	248	199	235
321	248	205	236
322	251	213	238
323	248	215	236
324	0	0	0
325	0	0	0
326	253	223	240
327	248	209	235
328	248	202	237
329	252	204	243
330	248	194	238
331	247	188	237
332	245	180	235
333	255	199	249
334	252	180	233
335	248	174	229
336	252	176	234
337	250	170	233
338	245	163	231
339	255	183	243
340	255	184	238
341	240	171	224
342	245	183	232
343	249	189	235
344	245	187	231
345	245	194	232
346	249	206	237
347	252	213	239
348	243	206	231
349	0	0	0
350	0	0	0
351	252	228	240
352	250	220	239
353	250	213	239
354	251	208	241
355	248	200	238
356	249	195	239
357	249	188	238
358	250	179	235
359	240	161	224
360	243	163	227
361	247	165	232
362	248	163	232
363	244	156	228
364	252	167	235
365	249	169	232
366	246	176	233
367	252	188	241
368	252	189	240
369	247	186	233
370	250	198	237
371	254	208	241
372	250	206	236
373	241	199	229
374	0	0	0
375	0	0	0
376	0	0	0
377	248	224	238
378	246	214	237
379	250	211	240
380	247	198	236
381	249	195	238
382	248	184	236
383	249	176	235
384	242	163	229
385	244	165	232
386	249	169	237
387	254	169	239
388	250	160	233
389	255	170	240
390	247	162	231
391	247	170	235
392	252	182	241
393	251	182	238
394	250	184	236
395	254	195	240
396	252	197	237
397	247	194	231
398	246	199	231
399	0	0	0
400	0	0	0
401	0	0	0
402	0	0	0
403	243	215	237
404	246	207	238
405	244	195	234
406	245	188	234
407	245	179	233
408	247	173	235
409	242	161	230
410	247	167	237
411	252	171	240
412	255	169	240
413	253	161	235
414	254	161	235
415	244	153	228
416	247	164	234
417	251	174	238
418	252	178	238
419	251	180	238
420	249	182	235
421	246	184	233
422	250	193	235
423	250	198	233
424	255	213	239
425	0	0	0
426	0	0	0
427	0	0	0
428	247	226	243
429	252	219	245
430	245	198	236
431	248	192	238
432	245	178	235
433	246	172	235
434	249	170	238
435	255	179	247
436	255	169	241
437	255	166	240
438	249	152	230
439	250	152	231
440	248	153	231
441	251	164	237
442	252	170	238
443	251	173	237
444	250	176	238
445	246	177	235
446	249	186	237
447	254	196	239
448	250	193	233
449	255	209	239
450	253	211	236
451	0	0	0
452	0	0	0
453	0	0	0
454	243	213	237
455	239	193	231
456	244	187	236
457	242	175	234
458	250	178	241
459	255	178	244
460	255	172	243
461	254	163	238
462	253	156	235
463	245	142	226
464	252	151	233
465	250	151	232
466	253	160	236
467	253	166	238
468	252	169	238
469	251	172	239
470	252	180	240
471	254	188	241
472	253	189	237
473	249	187	233
474	251	194	235
475	246	197	231
476	0	0	0
477	0	0	0
478	0	0	0
479	0	0	0
480	245	209	240
481	255	206	247
482	245	179	236
483	255	184	245
484	255	178	244
485	255	172	242
486	255	162	239
487	255	156	238
488	242	135	225
489	250	145	233
490	252	149	234
491	255	158	239
492	251	156	236
493	249	159	236
494	252	168	239
495	254	176	241
496	253	179	238
497	250	180	235
498	251	186	236
499	251	192	238
500	245	193	234
501	0	0	0
502	0	0	0
503	0	0	0
504	0	0	0
505	250	223	246
506	247	202	240
507	239	176	230
508	249	178	238
509	252	173	237
510	252	165	236
511	250	155	233
512	246	143	229
513	234	123	220
514	247	138	233
515	250	143	234
516	250	145	236
517	246	144	235
518	249	154	239
519	251	162	238
520	248	164	235
521	249	168	236
522	253	178	240
523	253	183	240
524	251	188	239
525	245	189	236
526	0	0	0
527	0	0	0
528	0	0	0
529	0	0	0
530	249	229	246
531	244	207	238
532	244	191	236
533	255	195	247
534	255	178	241
535	255	171	241
536	252	159	237
537	246	146	232
538	241	134	229
539	255	151	244
540	249	140	235
541	249	143	237
542	249	146	240
543	252	156	243
544	253	163	240
545	251	165	237
546	255	174	243
547	255	184	248
548	249	173	237
549	246	178	236
550	245	185	238
551	0	0	0
552	0	0	0
553	0	0	0
554	0	0	0
555	253	239	248
556	250	220	242
557	250	205	241
558	254	195	244
559	252	179	241
560	252	169	241
561	248	156	236
562	243	147	232
563	239	136	228
564	243	136	232
565	237	126	225
566	247	138	234
567	247	142	235
568	251	153	240
569	253	161	240
570	254	168	241
571	255	175	244
572	249	168	237
573	239	159	229
574	244	172	237
575	244	180	240
576	0	0	0
577	0	0	0
578	0	0	0
579	0	0	0
580	254	240	247
581	249	221	239
582	250	208	241
583	252	197	243
584	251	184	243
585	253	175	244
586	247	162	238
587	242	152	234
588	249	157	241
589	254	158	245
590	242	135	231
591	254	150	242
592	251	146	238
593	255	157	243
594	250	156	238
595	251	163	239
596	249	165	239
597	238	156	231
598	240	163	235
599	250	178	246
600	245	179	243
601	0	0	0
602	0	0	0
603	0	0	0
604	0	0	0
605	0	0	0
606	245	222	238
607	245	209	238
608	249	199	241
609	248	185	240
610	249	179	242
611	245	166	237
612	252	172	245
613	255	178	252
614	255	163	246
615	244	141	235
616	254	149	244
617	250	146	239
618	248	147	237
619	244	147	233
620	246	152	236
621	244	155	236
622	242	161	239
623	245	168	244
624	251	177	249
625	245	176	242
626	0	0	0
627	0	0	0
628	0	0	0
629	0	0	0
630	0	0	0
631	0	0	0
632	249	227	246
633	255	219	250
634	245	189	239
635	243	180	239
636	244	174	239
637	255	183	250
638	255	173	247
639	252	158	242
640	243	140	235
641	251	147	242
642	248	145	238
643	248	148	237
644	254	159	244
645	255	167	248
646	246	154	238
647	245	160	242
648	251	171	249
649	255	180	253
650	243	169	240
651	0	0	0
652	0	0	0
653	0	0	0
654	0	0	0
655	0	0	0
656	0	0	0
657	0	0	0
658	246	216	241
659	234	187	231
660	239	185	238
661	242	180	240
662	248	175	243
663	249	165	241
664	246	153	238
665	237	135	231
666	244	142	238
667	242	141	233
668	251	154	240
669	255	166	247
670	254	159	242
671	243	148	234
672	248	161	243
673	253	172	250
674	251	170	247
675	238	160	236
676	0	0	0
677	0	0	0
678	0	0	0
679	0	0	0
680	0	0	0
681	0	0	0
682	0	0	0
683	0	0	0
684	236	208	237
685	249	211	249
686	247	193	244
687	254	188	248
688	253	176	246
689	250	164	244
690	241	147	237
691	248	154	244
692	247	153	241
693	255	169	250
694	255	168	247
695	255	161	243
696	246	150	237
697	253	165	247
698	251	166	247
699	245	163	243
700	237	160	238
701	0	0	0
702	0	0	0
703	0	0	0
704	0	0	0
705	0	0	0
706	0	0	0
707	0	0	0
708	0	0	0
709	0	0	0
710	246	216	242
711	244	199	239
712	249	191	243
713	248	179	242
714	245	168	241
715	237	151	235
716	247	161	245
717	248	161	244
718	254	165	247
719	255	164	245
720	252	158	242
721	244	149	236
722	246	155	242
723	244	158	244
724	243	162	246
725	235	160	240
726	0	0	0
727	0	0	0
728	0	0	0
729	0	0	0
730	0	0	0
731	0	0	0
732	0	0	0
733	0	0	0
734	0	0	0
735	0	0	0
736	247	213	242
737	251	205	246
738	243	184	241
739	237	172	239
740	241	171	244
741	255	183	255
742	245	162	244
743	249	166	247
744	248	161	244
745	248	158	243
746	243	151	240
747	246	158	246
748	242	158	246
749	243	164	249
750	233	160	242
751	0	0	0
752	0	0	0
753	0	0	0
754	0	0	0
755	0	0	0
756	0	0	0
757	0	0	0
758	0	0	0
759	0	0	0
760	0	0	0
761	0	0	0
762	248	211	245
763	0	0	0
764	0	0	0
765	247	190	254
766	247	178	251
767	236	158	239
768	237	157	240
769	237	154	240
770	244	156	245
771	241	151	243
772	240	155	247
773	237	155	245
774	240	163	250
775	230	158	241
776	0	0	0
777	0	0	0
778	0	0	0
779	0	0	0
780	0	0	0
781	0	0	0
782	0	0	0
783	0	0	0
784	0	0	0
785	0	0	0
786	0	0	0
787	0	0	0
788	0	0	0
789	0	0	0
790	247	197	253
791	246	185	250
792	242	174	246
793	242	173	248
794	242	169	249
795	252	173	255
796	243	158	249
797	240	161	250
798	236	158	248
799	243	168	253
800	225	156	238
801	0	0	0
802	0	0	0
803	0	0	0
804	0	0	0
805	0	0	0
806	0	0	0
807	0	0	0
808	0	0	0
809	0	0	0
810	0	0	0
811	0	0	0
812	0	0	0
813	0	0	0
814	242	209	248
815	241	200	246
816	243	193	246
817	239	182	244
818	239	180	247
819	241	177	250
820	246	172	253
821	237	158	245
822	235	159	246
823	231	157	245
824	235	162	247
825	218	150	232
826	0	0	0
827	0	0	0
828	0	0	0
829	0	0	0
830	0	0	0
831	0	0	0
832	0	0	0
833	0	0	0
834	0	0	0
835	0	0	0
836	0	0	0
837	0	0	0
838	0	0	0
839	0	0	0
840	239	212	245
841	237	202	244
842	235	192	243
843	241	193	251
844	239	182	249
845	242	176	251
846	238	168	248
847	240	172	253
848	234	166	248
849	235	169	248
850	223	163	238
851	0	0	0
852	0	0	0
853	0	0	0
854	0	0	0
855	0	0	0
856	0	0	0
857	0	0	0
858	0	0	0
859	0	0	0
860	0	0	0
861	0	0	0
862	0	0	0
863	0	0	0
864	0	0	0
865	0	0	0
866	238	214	246
867	236	205	248
868	236	195	248
869	233	183	244
870	237	181	248
871	235	173	247
872	238	175	251
873	233	169	246
874	234	175	248
875	223	170	239
876	0	0	0
877	0	0	0
878	0	0	0
879	0	0	0
880	0	0	0
881	0	0	0
882	0	0	0
883	0	0	0
884	0	0	0
885	0	0	0
886	0	0	0
887	0	0	0
888	0	0	0
889	0	0	0
890	0	0	0
891	0	0	0
892	242	219	251
893	241	209	251
894	236	196	247
895	237	192	250
896	233	181	247
897	240	185	253
898	232	175	245
899	231	181	246
900	0	0	0
901	0	0	0
902	0	0	0
903	0	0	0
904	0	0	0
905	0	0	0
906	0	0	0
907	0	0	0
908	0	0	0
909	0	0	0
910	0	0	0
911	0	0	0
912	0	0	0
913	0	0	0
914	0	0	0
915	0	0	0
916	0	0	0
917	0	0	0
918	242	219	248
919	239	208	248
920	235	198	248
921	231	186	244
922	238	189	250
923	0	0	0
924	0	0	0
925	0	0	0
