 	R	G	B
1	0	0	0
2	0	0	0
3	0	0	0
4	0	0	0
5	0	0	0
6	0	0	0
7	0	0	0
8	0	0	0
9	0	0	0
10	0	0	0
11	0	0	0
12	0	0	0
13	0	0	0
14	0	0	0
15	0	0	0
16	0	0	0
17	0	0	0
18	0	0	0
19	0	0	0
20	0	0	0
21	0	0	0
22	0	0	0
23	0	0	0
24	0	0	0
25	243	229	234
26	0	0	0
27	0	0	0
28	0	0	0
29	0	0	0
30	0	0	0
31	0	0	0
32	0	0	0
33	0	0	0
34	0	0	0
35	0	0	0
36	0	0	0
37	0	0	0
38	0	0	0
39	0	0	0
40	0	0	0
41	0	0	0
42	0	0	0
43	0	0	0
44	0	0	0
45	0	0	0
46	0	0	0
47	0	0	0
48	0	0	0
49	0	0	0
50	0	0	0
51	0	0	0
52	0	0	0
53	0	0	0
54	0	0	0
55	0	0	0
56	0	0	0
57	0	0	0
58	0	0	0
59	0	0	0
60	0	0	0
61	0	0	0
62	0	0	0
63	0	0	0
64	0	0	0
65	0	0	0
66	0	0	0
67	0	0	0
68	0	0	0
69	0	0	0
70	0	0	0
71	0	0	0
72	0	0	0
73	0	0	0
74	0	0	0
75	0	0	0
76	0	0	0
77	0	0	0
78	0	0	0
79	0	0	0
80	0	0	0
81	0	0	0
82	0	0	0
83	0	0	0
84	0	0	0
85	0	0	0
86	0	0	0
87	0	0	0
88	244	235	234
89	0	0	0
90	244	234	234
91	0	0	0
92	243	230	234
93	250	233	238
94	245	224	232
95	248	228	234
96	0	0	0
97	0	0	0
98	0	0	0
99	0	0	0
100	0	0	0
101	0	0	0
102	0	0	0
103	0	0	0
104	0	0	0
105	0	0	0
106	0	0	0
107	0	0	0
108	0	0	0
109	0	0	0
110	0	0	0
111	0	0	0
112	0	0	0
113	0	0	0
114	0	0	0
115	0	0	0
116	0	0	0
117	0	0	0
118	0	0	0
119	0	0	0
120	0	0	0
121	0	0	0
122	0	0	0
123	0	0	0
124	0	0	0
125	0	0	0
126	0	0	0
127	0	0	0
128	0	0	0
129	0	0	0
130	0	0	0
131	0	0	0
132	0	0	0
133	0	0	0
134	0	0	0
135	0	0	0
136	0	0	0
137	0	0	0
138	0	0	0
139	0	0	0
140	0	0	0
141	0	0	0
142	0	0	0
143	0	0	0
144	0	0	0
145	0	0	0
146	0	0	0
147	0	0	0
148	0	0	0
149	0	0	0
150	0	0	0
151	0	0	0
152	0	0	0
153	0	0	0
154	0	0	0
155	245	233	233
156	243	230	232
157	243	229	232
158	242	229	232
159	244	229	232
160	248	232	236
161	247	226	232
162	241	216	226
163	247	224	232
164	246	227	233
165	0	0	0
166	0	0	0
167	0	0	0
168	0	0	0
169	0	0	0
170	0	0	0
171	0	0	0
172	0	0	0
173	0	0	0
174	0	0	0
175	0	0	0
176	0	0	0
177	0	0	0
178	0	0	0
179	0	0	0
180	0	0	0
181	0	0	0
182	0	0	0
183	0	0	0
184	0	0	0
185	0	0	0
186	0	0	0
187	0	0	0
188	0	0	0
189	0	0	0
190	0	0	0
191	0	0	0
192	0	0	0
193	0	0	0
194	0	0	0
195	0	0	0
196	0	0	0
197	0	0	0
198	0	0	0
199	0	0	0
200	0	0	0
201	0	0	0
202	0	0	0
203	0	0	0
204	0	0	0
205	0	0	0
206	0	0	0
207	0	0	0
208	0	0	0
209	0	0	0
210	0	0	0
211	0	0	0
212	0	0	0
213	0	0	0
214	0	0	0
215	0	0	0
216	0	0	0
217	0	0	0
218	0	0	0
219	0	0	0
220	0	0	0
221	0	0	0
222	0	0	0
223	248	233	234
224	244	227	231
225	239	224	229
226	242	228	232
227	249	232	235
228	250	230	234
229	243	220	227
230	240	217	226
231	245	224	232
232	242	224	231
233	0	0	0
234	0	0	0
235	0	0	0
236	0	0	0
237	0	0	0
238	0	0	0
239	0	0	0
240	0	0	0
241	0	0	0
242	0	0	0
243	0	0	0
244	0	0	0
245	0	0	0
246	0	0	0
247	0	0	0
248	0	0	0
249	0	0	0
250	0	0	0
251	0	0	0
252	0	0	0
253	0	0	0
254	0	0	0
255	0	0	0
256	0	0	0
257	0	0	0
258	0	0	0
259	0	0	0
260	0	0	0
261	0	0	0
262	0	0	0
263	0	0	0
264	0	0	0
265	0	0	0
266	0	0	0
267	0	0	0
268	0	0	0
269	0	0	0
270	0	0	0
271	0	0	0
272	0	0	0
273	0	0	0
274	0	0	0
275	0	0	0
276	0	0	0
277	0	0	0
278	0	0	0
279	0	0	0
280	0	0	0
281	0	0	0
282	0	0	0
283	0	0	0
284	0	0	0
285	0	0	0
286	0	0	0
287	0	0	0
288	0	0	0
289	0	0	0
290	248	233	233
291	250	232	234
292	246	226	230
293	242	225	229
294	245	228	232
295	249	229	234
296	249	226	231
297	245	222	229
298	242	219	229
299	244	223	232
300	241	222	228
301	241	226	229
302	0	0	0
303	0	0	0
304	243	231	234
305	243	232	234
306	0	0	0
307	0	0	0
308	0	0	0
309	0	0	0
310	0	0	0
311	0	0	0
312	0	0	0
313	0	0	0
314	0	0	0
315	0	0	0
316	0	0	0
317	0	0	0
318	0	0	0
319	0	0	0
320	0	0	0
321	0	0	0
322	0	0	0
323	0	0	0
324	0	0	0
325	0	0	0
326	0	0	0
327	0	0	0
328	0	0	0
329	0	0	0
330	0	0	0
331	0	0	0
332	0	0	0
333	0	0	0
334	0	0	0
335	0	0	0
336	0	0	0
337	0	0	0
338	0	0	0
339	0	0	0
340	0	0	0
341	0	0	0
342	0	0	0
343	0	0	0
344	0	0	0
345	0	0	0
346	0	0	0
347	0	0	0
348	0	0	0
349	0	0	0
350	0	0	0
351	0	0	0
352	0	0	0
353	0	0	0
354	0	0	0
355	0	0	0
356	245	235	233
357	0	0	0
358	249	228	232
359	250	226	232
360	245	219	227
361	243	220	227
362	248	228	232
363	246	225	230
364	242	218	225
365	240	216	225
366	243	220	230
367	248	224	233
368	243	220	227
369	242	224	228
370	244	228	232
371	247	229	234
372	246	228	232
373	242	226	230
374	242	227	231
375	0	0	0
376	0	0	0
377	0	0	0
378	0	0	0
379	0	0	0
380	0	0	0
381	0	0	0
382	0	0	0
383	0	0	0
384	0	0	0
385	0	0	0
386	0	0	0
387	0	0	0
388	0	0	0
389	0	0	0
390	0	0	0
391	0	0	0
392	0	0	0
393	0	0	0
394	0	0	0
395	0	0	0
396	0	0	0
397	0	0	0
398	0	0	0
399	0	0	0
400	0	0	0
401	0	0	0
402	0	0	0
403	0	0	0
404	0	0	0
405	0	0	0
406	0	0	0
407	0	0	0
408	0	0	0
409	0	0	0
410	0	0	0
411	0	0	0
412	0	0	0
413	0	0	0
414	0	0	0
415	0	0	0
416	0	0	0
417	249	237	235
418	248	235	234
419	246	235	234
420	248	236	236
421	0	0	0
422	241	222	227
423	241	225	229
424	247	232	234
425	248	227	233
426	249	224	232
427	247	219	230
428	242	213	225
429	246	220	229
430	249	227	230
431	242	219	224
432	238	213	222
433	241	217	226
434	244	220	230
435	249	223	233
436	246	220	229
437	243	221	228
438	245	224	229
439	247	224	230
440	246	223	229
441	242	221	227
442	241	222	228
443	0	0	0
444	0	0	0
445	0	0	0
446	0	0	0
447	0	0	0
448	0	0	0
449	0	0	0
450	0	0	0
451	0	0	0
452	0	0	0
453	0	0	0
454	0	0	0
455	0	0	0
456	0	0	0
457	0	0	0
458	0	0	0
459	0	0	0
460	0	0	0
461	0	0	0
462	0	0	0
463	0	0	0
464	0	0	0
465	0	0	0
466	0	0	0
467	0	0	0
468	0	0	0
469	0	0	0
470	0	0	0
471	0	0	0
472	0	0	0
473	0	0	0
474	0	0	0
475	0	0	0
476	0	0	0
477	0	0	0
478	0	0	0
479	0	0	0
480	0	0	0
481	0	0	0
482	0	0	0
483	0	0	0
484	246	233	233
485	253	235	237
486	249	227	232
487	246	225	231
488	244	224	229
489	240	216	224
490	246	222	229
491	252	228	235
492	249	224	232
493	244	216	228
494	246	219	231
495	241	213	226
496	241	213	226
497	246	221	230
498	245	220	226
499	239	213	220
500	241	215	225
501	242	218	228
502	245	220	230
503	251	223	233
504	246	214	227
505	244	215	226
506	247	221	229
507	246	219	227
508	248	223	229
509	246	223	229
510	242	220	228
511	0	0	0
512	0	0	0
513	0	0	0
514	0	0	0
515	0	0	0
516	0	0	0
517	0	0	0
518	0	0	0
519	0	0	0
520	0	0	0
521	0	0	0
522	0	0	0
523	0	0	0
524	0	0	0
525	0	0	0
526	0	0	0
527	0	0	0
528	0	0	0
529	0	0	0
530	0	0	0
531	0	0	0
532	0	0	0
533	0	0	0
534	0	0	0
535	0	0	0
536	0	0	0
537	0	0	0
538	0	0	0
539	0	0	0
540	0	0	0
541	0	0	0
542	0	0	0
543	0	0	0
544	0	0	0
545	0	0	0
546	0	0	0
547	0	0	0
548	0	0	0
549	0	0	0
550	0	0	0
551	0	0	0
552	0	0	0
553	251	225	233
554	246	216	227
555	242	213	225
556	241	212	224
557	246	217	228
558	252	223	233
559	252	219	231
560	248	214	227
561	247	214	227
562	247	216	229
563	243	215	227
564	242	214	226
565	244	216	227
566	244	216	226
567	246	218	228
568	247	220	231
569	244	218	230
570	245	219	229
571	245	213	226
572	239	205	221
573	241	210	224
574	244	216	227
575	247	220	228
576	249	223	230
577	246	221	227
578	241	217	225
579	243	223	228
580	0	0	0
581	0	0	0
582	0	0	0
583	0	0	0
584	0	0	0
585	0	0	0
586	0	0	0
587	0	0	0
588	0	0	0
589	0	0	0
590	0	0	0
591	0	0	0
592	0	0	0
593	0	0	0
594	0	0	0
595	0	0	0
596	0	0	0
597	0	0	0
598	0	0	0
599	0	0	0
600	0	0	0
601	0	0	0
602	0	0	0
603	0	0	0
604	0	0	0
605	0	0	0
606	0	0	0
607	0	0	0
608	0	0	0
609	0	0	0
610	0	0	0
611	0	0	0
612	0	0	0
613	0	0	0
614	0	0	0
615	0	0	0
616	245	220	234
617	0	0	0
618	249	218	230
619	0	0	0
620	251	228	236
621	253	222	234
622	244	207	224
623	241	205	222
624	247	214	228
625	254	220	233
626	251	213	229
627	250	209	227
628	251	211	227
629	248	211	227
630	246	211	227
631	242	210	225
632	243	212	226
633	245	214	227
634	247	214	228
635	250	217	231
636	246	213	228
637	239	209	224
638	240	212	225
639	237	206	221
640	237	206	222
641	238	211	224
642	242	217	228
643	248	223	231
644	245	217	226
645	241	214	223
646	243	218	226
647	245	224	230
648	240	222	226
649	234	216	221
650	0	0	0
651	0	0	0
652	0	0	0
653	0	0	0
654	0	0	0
655	0	0	0
656	0	0	0
657	0	0	0
658	0	0	0
659	0	0	0
660	0	0	0
661	0	0	0
662	0	0	0
663	0	0	0
664	0	0	0
665	0	0	0
666	0	0	0
667	0	0	0
668	0	0	0
669	0	0	0
670	0	0	0
671	0	0	0
672	0	0	0
673	0	0	0
674	0	0	0
675	0	0	0
676	0	0	0
677	0	0	0
678	0	0	0
679	0	0	0
680	0	0	0
681	0	0	0
682	0	0	0
683	242	212	231
684	252	225	241
685	255	223	239
686	249	212	229
687	247	215	229
688	254	225	238
689	248	212	230
690	240	197	220
691	245	206	226
692	251	214	229
693	250	208	226
694	247	201	222
695	250	205	226
696	250	206	225
697	248	206	225
698	246	207	226
699	246	210	228
700	247	212	228
701	247	212	228
702	248	212	228
703	248	211	228
704	244	206	224
705	238	206	222
706	239	209	224
707	241	211	225
708	240	210	225
709	240	215	227
710	244	221	229
711	241	215	225
712	237	209	222
713	239	214	225
714	241	218	228
715	240	218	226
716	236	216	224
717	241	226	230
718	249	238	237
719	0	0	0
720	0	0	0
721	0	0	0
722	0	0	0
723	0	0	0
724	0	0	0
725	0	0	0
726	0	0	0
727	0	0	0
728	0	0	0
729	0	0	0
730	0	0	0
731	0	0	0
732	0	0	0
733	0	0	0
734	0	0	0
735	0	0	0
736	0	0	0
737	0	0	0
738	0	0	0
739	0	0	0
740	0	0	0
741	0	0	0
742	0	0	0
743	0	0	0
744	0	0	0
745	0	0	0
746	0	0	0
747	0	0	0
748	0	0	0
749	0	0	0
750	245	210	233
751	255	223	242
752	249	212	236
753	247	205	231
754	245	204	227
755	248	210	230
756	254	218	236
757	246	203	226
758	247	204	227
759	253	212	232
760	252	210	229
761	250	204	226
762	244	195	221
763	245	197	223
764	247	202	225
765	247	203	225
766	246	202	225
767	247	205	227
768	246	205	227
769	244	204	226
770	241	201	223
771	240	198	222
772	243	204	224
773	241	205	223
774	242	208	225
775	243	209	227
776	241	208	225
777	243	213	228
778	239	211	226
779	231	202	218
780	233	209	222
781	235	214	225
782	237	217	227
783	238	217	226
784	239	220	227
785	243	230	233
786	240	228	229
787	232	217	220
788	0	0	0
789	0	0	0
790	0	0	0
791	0	0	0
792	0	0	0
793	0	0	0
794	0	0	0
795	0	0	0
796	0	0	0
797	0	0	0
798	0	0	0
799	0	0	0
800	0	0	0
801	0	0	0
802	0	0	0
803	0	0	0
804	0	0	0
805	0	0	0
806	0	0	0
807	0	0	0
808	0	0	0
809	0	0	0
810	0	0	0
811	0	0	0
812	0	0	0
813	0	0	0
814	0	0	0
815	0	0	0
816	0	0	0
817	244	207	231
818	247	211	234
819	244	203	230
820	239	194	226
821	242	196	229
822	241	195	226
823	245	202	229
824	251	209	233
825	252	209	231
826	252	208	229
827	250	205	227
828	250	204	227
829	248	198	225
830	242	189	222
831	245	194	227
832	246	198	228
833	246	198	226
834	245	197	224
835	244	197	224
836	242	196	224
837	238	193	222
838	235	189	220
839	239	196	223
840	241	201	224
841	241	203	224
842	241	205	225
843	238	203	224
844	236	202	223
845	235	202	223
846	232	201	223
847	233	206	225
848	234	211	225
849	234	213	224
850	236	217	227
851	240	221	229
852	240	223	228
853	239	222	226
854	237	221	225
855	241	229	231
856	0	0	0
857	0	0	0
858	0	0	0
859	0	0	0
860	0	0	0
861	0	0	0
862	0	0	0
863	0	0	0
864	0	0	0
865	0	0	0
866	0	0	0
867	0	0	0
868	0	0	0
869	0	0	0
870	0	0	0
871	0	0	0
872	0	0	0
873	0	0	0
874	0	0	0
875	0	0	0
876	0	0	0
877	0	0	0
878	0	0	0
879	0	0	0
880	0	0	0
881	0	0	0
882	0	0	0
883	0	0	0
884	0	0	0
885	253	217	240
886	246	205	233
887	239	195	227
888	246	203	235
889	250	207	239
890	245	199	232
891	251	206	235
892	251	206	233
893	249	204	230
894	247	201	226
895	246	199	225
896	250	202	229
897	248	196	227
898	248	195	229
899	252	201	234
900	248	196	229
901	248	196	228
902	249	199	228
903	247	198	227
904	242	193	224
905	237	190	223
906	234	189	223
907	236	194	225
908	241	202	226
909	242	205	226
910	235	197	221
911	226	192	217
912	231	203	224
913	233	204	226
914	235	207	228
915	240	215	232
916	233	207	222
917	234	209	222
918	238	217	227
919	237	219	227
920	233	214	222
921	235	215	223
922	233	213	222
923	237	221	228
924	0	0	0
925	0	0	0
926	0	0	0
927	0	0	0
928	0	0	0
929	0	0	0
930	0	0	0
931	0	0	0
932	0	0	0
933	0	0	0
934	0	0	0
935	0	0	0
936	0	0	0
937	0	0	0
938	0	0	0
939	0	0	0
940	0	0	0
941	0	0	0
942	0	0	0
943	0	0	0
944	0	0	0
945	0	0	0
946	0	0	0
947	0	0	0
948	0	0	0
949	0	0	0
950	0	0	0
951	0	0	0
952	0	0	0
953	0	0	0
954	236	193	227
955	243	201	234
956	248	208	238
957	246	202	234
958	242	195	229
959	246	199	231
960	246	199	228
961	243	196	226
962	243	195	228
963	247	198	231
964	249	199	230
965	246	196	227
966	247	195	228
967	246	193	227
968	243	189	224
969	246	193	227
970	247	196	227
971	241	190	223
972	236	186	221
973	235	188	223
974	233	187	223
975	238	197	228
976	243	204	228
977	240	199	223
978	233	193	220
979	232	201	225
980	237	211	232
981	236	211	230
982	238	213	231
983	234	207	225
984	229	200	218
985	236	210	223
986	240	217	227
987	233	211	223
988	230	208	221
989	230	207	221
990	228	204	220
991	233	213	224
992	239	223	227
993	0	0	0
994	0	0	0
995	240	226	230
996	0	0	0
997	0	0	0
998	0	0	0
999	0	0	0
1000	0	0	0
1001	0	0	0
1002	0	0	0
1003	0	0	0
1004	0	0	0
1005	0	0	0
1006	0	0	0
1007	0	0	0
1008	0	0	0
1009	0	0	0
1010	0	0	0
1011	0	0	0
1012	0	0	0
1013	0	0	0
1014	0	0	0
1015	0	0	0
1016	0	0	0
1017	0	0	0
1018	0	0	0
1019	0	0	0
1020	0	0	0
1021	0	0	0
1022	248	211	240
1023	255	220	247
1024	248	208	237
1025	244	202	232
1026	246	202	234
1027	251	207	238
1028	243	196	228
1029	241	194	227
1030	242	193	231
1031	246	196	235
1032	240	190	227
1033	233	184	221
1034	239	192	227
1035	243	192	227
1036	241	188	224
1037	242	192	226
1038	238	189	224
1039	232	183	220
1040	235	189	224
1041	236	191	227
1042	229	182	221
1043	237	193	228
1044	237	193	223
1045	235	189	218
1046	236	191	222
1047	238	201	228
1048	233	200	226
1049	228	197	222
1050	237	211	229
1051	234	206	224
1052	233	205	222
1053	240	214	228
1054	236	209	223
1055	232	205	221
1056	236	211	226
1057	232	208	224
1058	231	210	225
1059	235	218	228
1060	235	221	225
1061	230	216	219
1062	238	225	228
1063	249	235	237
1064	241	224	229
1065	0	0	0
1066	0	0	0
1067	0	0	0
1068	0	0	0
1069	0	0	0
1070	0	0	0
1071	0	0	0
1072	0	0	0
1073	0	0	0
1074	0	0	0
1075	0	0	0
1076	0	0	0
1077	0	0	0
1078	0	0	0
1079	0	0	0
1080	0	0	0
1081	0	0	0
1082	0	0	0
1083	0	0	0
1084	0	0	0
1085	0	0	0
1086	0	0	0
1087	0	0	0
1088	0	0	0
1089	0	0	0
1090	248	220	239
1091	246	212	237
1092	239	202	230
1093	242	203	232
1094	245	205	236
1095	243	199	233
1096	236	188	224
1097	235	187	225
1098	236	186	229
1099	240	187	232
1100	237	183	229
1101	240	190	233
1102	245	197	236
1103	243	193	231
1104	240	188	226
1105	238	186	225
1106	235	184	225
1107	237	189	228
1108	240	195	230
1109	232	184	222
1110	224	174	217
1111	227	178	219
1112	228	180	217
1113	236	186	221
1114	237	189	223
1115	236	191	224
1116	232	191	223
1117	234	201	227
1118	241	215	233
1119	239	211	229
1120	239	211	228
1121	236	206	225
1122	232	201	222
1123	237	208	227
1124	239	213	229
1125	236	213	227
1126	234	214	228
1127	235	218	228
1128	234	220	225
1129	234	224	225
1130	242	232	231
1131	244	226	230
1132	238	216	226
1133	0	0	0
1134	0	0	0
1135	0	0	0
1136	0	0	0
1137	0	0	0
1138	0	0	0
1139	0	0	0
1140	0	0	0
1141	0	0	0
1142	0	0	0
1143	0	0	0
1144	0	0	0
1145	0	0	0
1146	0	0	0
1147	0	0	0
1148	0	0	0
1149	0	0	0
1150	0	0	0
1151	0	0	0
1152	0	0	0
1153	0	0	0
1154	0	0	0
1155	0	0	0
1156	0	0	0
1157	0	0	0
1158	245	227	239
1159	243	221	238
1160	238	209	233
1161	243	213	238
1162	243	209	237
1163	244	204	236
1164	238	193	230
1165	238	192	231
1166	243	197	237
1167	249	199	242
1168	243	186	235
1169	253	197	243
1170	247	189	235
1171	236	180	225
1172	237	185	226
1173	237	185	227
1174	236	183	228
1175	242	190	233
1176	242	191	230
1177	232	180	221
1178	233	183	224
1179	231	185	225
1180	233	186	225
1181	242	194	231
1182	235	182	222
1183	234	184	223
1184	235	190	226
1185	236	200	229
1186	233	200	225
1187	229	196	220
1188	233	202	224
1189	232	198	222
1190	232	199	223
1191	236	205	227
1192	235	206	226
1193	233	206	224
1194	231	208	224
1195	232	212	225
1196	235	220	226
1197	238	224	227
1198	239	224	227
1199	237	217	224
1200	235	213	225
1201	0	0	0
1202	0	0	0
1203	0	0	0
1204	0	0	0
1205	0	0	0
1206	0	0	0
1207	0	0	0
1208	0	0	0
1209	0	0	0
1210	0	0	0
1211	0	0	0
1212	0	0	0
1213	0	0	0
1214	0	0	0
1215	0	0	0
1216	0	0	0
1217	0	0	0
1218	0	0	0
1219	0	0	0
1220	0	0	0
1221	0	0	0
1222	0	0	0
1223	0	0	0
1224	0	0	0
1225	0	0	0
1226	0	0	0
1227	240	225	238
1228	236	215	234
1229	237	212	235
1230	238	208	233
1231	239	202	233
1232	236	193	231
1233	241	199	238
1234	246	202	240
1235	243	192	235
1236	237	179	228
1237	241	179	230
1238	236	174	224
1239	235	178	226
1240	237	183	228
1241	237	182	228
1242	235	180	230
1243	237	183	231
1244	237	184	228
1245	237	187	228
1246	238	190	230
1247	234	189	228
1248	235	190	230
1249	233	182	225
1250	226	170	216
1251	233	180	223
1252	234	186	225
1253	229	185	222
1254	226	185	219
1255	228	190	221
1256	232	196	224
1257	231	195	222
1258	230	195	222
1259	230	198	223
1260	230	200	223
1261	230	202	223
1262	230	204	223
1263	235	213	227
1264	239	221	230
1265	239	220	229
1266	240	220	229
1267	237	215	226
1268	233	211	225
1269	238	219	230
1270	0	0	0
1271	0	0	0
1272	0	0	0
1273	0	0	0
1274	0	0	0
1275	0	0	0
1276	0	0	0
1277	0	0	0
1278	0	0	0
1279	0	0	0
1280	0	0	0
1281	0	0	0
1282	0	0	0
1283	0	0	0
1284	0	0	0
1285	0	0	0
1286	0	0	0
1287	0	0	0
1288	0	0	0
1289	0	0	0
1290	0	0	0
1291	0	0	0
1292	0	0	0
1293	0	0	0
1294	0	0	0
1295	0	0	0
1296	0	0	0
1297	0	0	0
1298	0	0	0
1299	0	0	0
1300	242	205	238
1301	250	213	246
1302	242	198	237
1303	236	187	230
1304	235	182	229
1305	236	182	231
1306	237	182	231
1307	245	191	239
1308	235	177	229
1309	233	175	228
1310	232	176	229
1311	226	175	226
1312	227	179	227
1313	233	184	229
1314	232	184	227
1315	230	184	226
1316	227	179	225
1317	221	170	219
1318	229	178	224
1319	240	190	231
1320	236	187	227
1321	231	187	224
1322	231	188	225
1323	237	195	229
1324	236	195	226
1325	229	191	221
1326	226	191	221
1327	225	193	221
1328	228	199	224
1329	230	203	224
1330	231	204	224
1331	238	214	230
1332	237	212	227
1333	238	212	227
1334	237	211	226
1335	229	204	220
1336	232	212	226
1337	237	220	231
1338	235	220	228
1339	0	0	0
1340	0	0	0
1341	0	0	0
1342	0	0	0
1343	0	0	0
1344	0	0	0
1345	0	0	0
1346	0	0	0
1347	0	0	0
1348	0	0	0
1349	0	0	0
1350	0	0	0
1351	0	0	0
1352	0	0	0
1353	0	0	0
1354	0	0	0
1355	0	0	0
1356	0	0	0
1357	0	0	0
1358	0	0	0
1359	0	0	0
1360	0	0	0
1361	0	0	0
1362	0	0	0
1363	0	0	0
1364	0	0	0
1365	0	0	0
1366	0	0	0
1367	0	0	0
1368	0	0	0
1369	238	201	234
1370	232	189	228
1371	236	189	232
1372	235	186	232
1373	239	189	237
1374	240	189	239
1375	235	179	234
1376	227	166	227
1377	230	170	230
1378	228	170	227
1379	225	174	227
1380	227	179	230
1381	231	181	231
1382	231	181	229
1383	225	175	225
1384	223	171	223
1385	230	181	230
1386	237	189	233
1387	240	190	231
1388	238	187	226
1389	235	187	225
1390	236	190	229
1391	240	193	230
1392	237	192	225
1393	233	192	224
1394	231	193	227
1395	231	198	228
1396	232	202	227
1397	232	202	224
1398	233	204	225
1399	232	202	223
1400	231	201	221
1401	231	201	221
1402	230	200	219
1403	233	208	224
1404	237	217	230
1405	238	220	231
1406	236	220	230
1407	238	228	232
1408	0	0	0
1409	0	0	0
1410	0	0	0
1411	0	0	0
1412	0	0	0
1413	0	0	0
1414	0	0	0
1415	0	0	0
1416	0	0	0
1417	0	0	0
1418	0	0	0
1419	0	0	0
1420	0	0	0
1421	0	0	0
1422	0	0	0
1423	0	0	0
1424	0	0	0
1425	0	0	0
1426	0	0	0
1427	0	0	0
1428	0	0	0
1429	0	0	0
1430	0	0	0
1431	0	0	0
1432	0	0	0
1433	0	0	0
1434	0	0	0
1435	0	0	0
1436	237	218	234
1437	239	212	235
1438	237	200	233
1439	243	203	239
1440	239	191	236
1441	246	196	243
1442	236	182	235
1443	224	168	228
1444	228	174	235
1445	237	181	240
1446	238	182	236
1447	240	188	238
1448	232	177	231
1449	231	177	230
1450	231	178	230
1451	226	173	226
1452	228	174	228
1453	238	185	235
1454	234	179	228
1455	236	178	225
1456	236	180	223
1457	236	181	223
1458	235	183	226
1459	234	184	226
1460	230	180	220
1461	231	183	222
1462	230	184	225
1463	232	189	226
1464	242	206	231
1465	240	205	227
1466	237	201	225
1467	232	198	222
1468	233	202	224
1469	229	200	221
1470	231	203	221
1471	242	216	230
1472	240	213	229
1473	239	215	229
1474	238	217	229
1475	241	225	232
1476	243	230	233
1477	0	0	0
1478	0	0	0
1479	0	0	0
1480	0	0	0
1481	0	0	0
1482	0	0	0
1483	0	0	0
1484	0	0	0
1485	0	0	0
1486	0	0	0
1487	0	0	0
1488	0	0	0
1489	0	0	0
1490	0	0	0
1491	0	0	0
1492	0	0	0
1493	0	0	0
1494	0	0	0
1495	0	0	0
1496	0	0	0
1497	0	0	0
1498	0	0	0
1499	0	0	0
1500	0	0	0
1501	0	0	0
1502	0	0	0
1503	0	0	0
1504	0	0	0
1505	235	215	231
1506	234	205	230
1507	236	199	232
1508	233	188	231
1509	235	183	233
1510	225	170	228
1511	226	175	234
1512	230	181	239
1513	239	187	243
1514	240	188	238
1515	232	178	229
1516	224	167	222
1517	227	171	224
1518	229	173	225
1519	231	175	227
1520	234	177	229
1521	234	174	229
1522	231	169	226
1523	237	174	228
1524	238	175	226
1525	236	175	223
1526	234	175	223
1527	230	173	221
1528	227	170	219
1529	227	173	221
1530	228	175	223
1531	239	193	231
1532	248	208	234
1533	240	200	224
1534	237	197	223
1535	238	201	226
1536	238	205	229
1537	234	205	226
1538	235	208	224
1539	239	209	225
1540	238	206	223
1541	237	209	225
1542	236	211	226
1543	238	217	228
1544	240	222	229
1545	0	0	0
1546	0	0	0
1547	0	0	0
1548	0	0	0
1549	0	0	0
1550	0	0	0
1551	0	0	0
1552	0	0	0
1553	0	0	0
1554	0	0	0
1555	0	0	0
1556	0	0	0
1557	0	0	0
1558	0	0	0
1559	0	0	0
1560	0	0	0
1561	0	0	0
1562	0	0	0
1563	0	0	0
1564	0	0	0
1565	0	0	0
1566	0	0	0
1567	0	0	0
1568	0	0	0
1569	0	0	0
1570	0	0	0
1571	0	0	0
1572	0	0	0
1573	0	0	0
1574	236	219	234
1575	240	214	238
1576	232	194	232
1577	236	190	237
1578	227	175	232
1579	229	182	239
1580	224	176	236
1581	232	182	238
1582	233	183	234
1583	223	171	223
1584	223	170	224
1585	231	177	230
1586	233	176	229
1587	240	180	233
1588	235	170	226
1589	230	165	224
1590	232	165	227
1591	240	172	232
1592	239	170	227
1593	234	168	223
1594	232	168	222
1595	231	167	222
1596	232	172	225
1597	229	172	224
1598	231	177	226
1599	242	195	235
1600	237	191	225
1601	228	182	214
1602	235	193	222
1603	240	200	226
1604	240	202	228
1605	238	203	226
1606	239	207	225
1607	239	206	223
1608	236	203	222
1609	235	206	223
1610	237	213	227
1611	240	219	230
1612	238	219	228
1613	0	0	0
1614	0	0	0
1615	0	0	0
1616	0	0	0
1617	0	0	0
1618	0	0	0
1619	0	0	0
1620	0	0	0
1621	0	0	0
1622	0	0	0
1623	0	0	0
1624	0	0	0
1625	0	0	0
1626	0	0	0
1627	0	0	0
1628	0	0	0
1629	0	0	0
1630	0	0	0
1631	0	0	0
1632	0	0	0
1633	0	0	0
1634	0	0	0
1635	0	0	0
1636	0	0	0
1637	0	0	0
1638	0	0	0
1639	0	0	0
1640	0	0	0
1641	0	0	0
1642	0	0	0
1643	233	213	232
1644	226	193	226
1645	231	189	233
1646	224	176	231
1647	224	177	235
1648	220	171	232
1649	227	177	236
1650	228	178	233
1651	224	175	229
1652	225	175	231
1653	231	177	233
1654	236	177	234
1655	239	172	231
1656	233	161	222
1657	230	159	221
1658	231	160	226
1659	238	164	229
1660	237	162	224
1661	236	163	223
1662	235	164	225
1663	241	171	231
1664	241	175	231
1665	237	177	230
1666	236	180	229
1667	234	178	225
1668	230	176	221
1669	234	184	223
1670	240	194	226
1671	241	197	225
1672	241	199	225
1673	240	201	225
1674	241	206	225
1675	239	204	224
1676	236	201	223
1677	237	208	226
1678	239	214	227
1679	239	217	228
1680	238	217	227
1681	242	225	232
1682	0	0	0
1683	0	0	0
1684	0	0	0
1685	0	0	0
1686	0	0	0
1687	0	0	0
1688	0	0	0
1689	0	0	0
1690	0	0	0
1691	0	0	0
1692	0	0	0
1693	0	0	0
1694	0	0	0
1695	0	0	0
1696	0	0	0
1697	0	0	0
1698	0	0	0
1699	0	0	0
1700	0	0	0
1701	0	0	0
1702	0	0	0
1703	0	0	0
1704	0	0	0
1705	0	0	0
1706	0	0	0
1707	0	0	0
1708	0	0	0
1709	0	0	0
1710	0	0	0
1711	0	0	0
1712	232	210	233
1713	240	207	242
1714	231	187	236
1715	234	190	244
1716	225	177	236
1717	229	181	240
1718	226	178	235
1719	224	176	234
1720	223	172	232
1721	230	173	234
1722	237	175	237
1723	239	170	233
1724	231	155	221
1725	230	155	222
1726	235	160	229
1727	240	163	231
1728	242	164	228
1729	246	168	230
1730	240	158	226
1731	246	165	232
1732	244	168	231
1733	239	169	227
1734	238	173	226
1735	232	170	221
1736	242	185	231
1737	249	195	235
1738	244	191	226
1739	239	191	222
1740	239	194	223
1741	239	197	223
1742	241	202	225
1743	237	200	222
1744	238	203	225
1745	241	211	229
1746	239	212	227
1747	239	213	226
1748	238	213	226
1749	243	223	232
1750	243	227	232
1751	0	0	0
1752	0	0	0
1753	0	0	0
1754	0	0	0
1755	0	0	0
1756	0	0	0
1757	0	0	0
1758	0	0	0
1759	0	0	0
1760	0	0	0
1761	0	0	0
1762	0	0	0
1763	0	0	0
1764	0	0	0
1765	0	0	0
1766	0	0	0
1767	0	0	0
1768	0	0	0
1769	0	0	0
1770	0	0	0
1771	0	0	0
1772	0	0	0
1773	0	0	0
1774	0	0	0
1775	0	0	0
1776	0	0	0
1777	0	0	0
1778	0	0	0
1779	0	0	0
1780	0	0	0
1781	235	209	236
1782	226	188	230
1783	224	183	233
1784	217	171	229
1785	223	176	236
1786	222	174	235
1787	221	171	234
1788	221	167	232
1789	227	169	234
1790	233	169	235
1791	230	158	228
1792	224	145	218
1793	231	153	225
1794	236	158	230
1795	241	162	232
1796	244	163	228
1797	241	155	223
1798	236	146	220
1799	243	155	228
1800	243	158	226
1801	241	163	226
1802	240	168	226
1803	243	178	229
1804	250	192	235
1805	248	189	229
1806	243	186	223
1807	238	186	221
1808	237	190	223
1809	240	195	226
1810	240	199	224
1811	238	201	223
1812	238	204	225
1813	238	206	225
1814	237	207	225
1815	237	208	224
1816	235	208	223
1817	238	215	227
1818	239	220	229
1819	0	0	0
1820	0	0	0
1821	0	0	0
1822	0	0	0
1823	0	0	0
1824	0	0	0
1825	0	0	0
1826	0	0	0
1827	0	0	0
1828	0	0	0
1829	0	0	0
1830	0	0	0
1831	0	0	0
1832	0	0	0
1833	0	0	0
1834	0	0	0
1835	0	0	0
1836	0	0	0
1837	0	0	0
1838	0	0	0
1839	0	0	0
1840	0	0	0
1841	0	0	0
1842	0	0	0
1843	0	0	0
1844	0	0	0
1845	0	0	0
1846	0	0	0
1847	0	0	0
1848	0	0	0
1849	0	0	0
1850	230	206	235
1851	228	200	238
1852	223	187	237
1853	236	197	249
1854	225	177	238
1855	225	175	238
1856	227	174	239
1857	231	174	239
1858	231	169	235
1859	228	158	227
1860	235	160	230
1861	246	170	239
1862	240	158	232
1863	244	161	233
1864	244	158	227
1865	238	150	221
1866	234	142	219
1867	241	151	227
1868	243	155	226
1869	246	163	228
1870	246	169	229
1871	248	179	231
1872	247	181	228
1873	243	178	223
1874	244	184	224
1875	239	184	222
1876	243	195	230
1877	246	201	232
1878	239	195	223
1879	235	195	220
1880	236	201	223
1881	236	203	224
1882	239	209	227
1883	238	210	226
1884	235	209	224
1885	238	215	227
1886	241	221	231
1887	249	230	236
1888	0	0	0
1889	0	0	0
1890	0	0	0
1891	0	0	0
1892	0	0	0
1893	0	0	0
1894	0	0	0
1895	0	0	0
1896	0	0	0
1897	0	0	0
1898	0	0	0
1899	0	0	0
1900	0	0	0
1901	0	0	0
1902	0	0	0
1903	0	0	0
1904	0	0	0
1905	0	0	0
1906	0	0	0
1907	0	0	0
1908	0	0	0
1909	0	0	0
1910	0	0	0
1911	0	0	0
1912	0	0	0
1913	0	0	0
1914	0	0	0
1915	0	0	0
1916	0	0	0
1917	0	0	0
1918	0	0	0
1919	228	209	238
1920	223	196	237
1921	222	186	237
1922	213	167	227
1923	221	172	234
1924	224	172	234
1925	227	170	233
1926	227	165	230
1927	236	170	234
1928	243	173	237
1929	242	165	233
1930	239	154	229
1931	244	156	232
1932	245	154	229
1933	239	146	224
1934	234	138	220
1935	242	149	228
1936	245	154	228
1937	250	163	231
1938	249	168	228
1939	244	168	224
1940	243	172	226
1941	247	179	229
1942	246	184	228
1943	243	189	228
1944	246	199	232
1945	241	193	226
1946	235	189	221
1947	236	195	223
1948	238	200	225
1949	240	206	227
1950	242	211	229
1951	239	210	227
1952	235	209	225
1953	235	213	226
1954	239	219	230
1955	243	220	230
1956	241	217	227
1957	0	0	0
1958	0	0	0
1959	0	0	0
1960	0	0	0
1961	0	0	0
1962	0	0	0
1963	0	0	0
1964	0	0	0
1965	0	0	0
1966	0	0	0
1967	0	0	0
1968	0	0	0
1969	0	0	0
1970	0	0	0
1971	0	0	0
1972	0	0	0
1973	0	0	0
1974	0	0	0
1975	0	0	0
1976	0	0	0
1977	0	0	0
1978	0	0	0
1979	0	0	0
1980	0	0	0
1981	0	0	0
1982	0	0	0
1983	0	0	0
1984	0	0	0
1985	0	0	0
1986	0	0	0
1987	0	0	0
1988	230	215	242
1989	226	203	240
1990	216	182	232
1991	229	191	243
1992	228	182	238
1993	233	181	239
1994	232	170	233
1995	242	176	239
1996	239	165	233
1997	236	156	228
1998	239	152	229
1999	249	157	235
2000	246	149	230
2001	240	141	225
2002	239	140	226
2003	250	152	234
2004	248	152	231
2005	251	160	231
2006	246	160	223
2007	240	160	219
2008	246	173	229
2009	248	179	232
2010	244	180	228
2011	241	185	227
2012	242	193	229
2013	235	187	222
2014	239	194	226
2015	246	203	231
2016	242	200	227
2017	242	204	228
2018	238	203	226
2019	233	202	223
2020	232	206	224
2021	231	209	224
2022	234	215	227
2023	235	215	226
2024	235	213	225
2025	241	220	230
2026	0	0	0
2027	0	0	0
2028	0	0	0
2029	0	0	0
2030	0	0	0
2031	0	0	0
2032	0	0	0
2033	0	0	0
2034	0	0	0
2035	0	0	0
2036	0	0	0
2037	0	0	0
2038	0	0	0
2039	0	0	0
2040	0	0	0
2041	0	0	0
2042	0	0	0
2043	0	0	0
2044	0	0	0
2045	0	0	0
2046	0	0	0
2047	0	0	0
2048	0	0	0
2049	0	0	0
2050	0	0	0
2051	0	0	0
2052	0	0	0
2053	0	0	0
2054	0	0	0
2055	0	0	0
2056	0	0	0
2057	226	212	236
2058	217	193	232
2059	224	191	238
2060	225	183	234
2061	231	179	235
2062	231	169	233
2063	234	163	232
2064	231	153	228
2065	231	148	226
2066	234	145	224
2067	241	144	227
2068	239	137	224
2069	242	140	228
2070	242	140	229
2071	250	148	234
2072	247	147	229
2073	246	151	227
2074	242	152	222
2075	247	163	225
2076	252	175	231
2077	250	178	230
2078	245	178	228
2079	241	183	228
2080	242	191	232
2081	242	194	231
2082	246	201	232
2083	243	198	228
2084	239	195	226
2085	237	195	225
2086	233	194	224
2087	233	200	226
2088	233	205	227
2089	233	209	228
2090	235	215	229
2091	235	213	227
2092	234	211	225
2093	237	216	227
2094	0	0	0
2095	0	0	0
2096	0	0	0
2097	0	0	0
2098	0	0	0
2099	0	0	0
2100	0	0	0
2101	0	0	0
2102	0	0	0
2103	0	0	0
2104	0	0	0
2105	0	0	0
2106	0	0	0
2107	0	0	0
2108	0	0	0
2109	0	0	0
2110	0	0	0
2111	0	0	0
2112	0	0	0
2113	0	0	0
2114	0	0	0
2115	0	0	0
2116	0	0	0
2117	0	0	0
2118	0	0	0
2119	0	0	0
2120	0	0	0
2121	0	0	0
2122	0	0	0
2123	0	0	0
2124	0	0	0
2125	0	0	0
2126	229	215	239
2127	233	212	244
2128	229	194	236
2129	238	192	241
2130	237	178	237
2131	241	173	238
2132	244	171	239
2133	243	166	237
2134	245	162	234
2135	252	161	237
2136	245	144	229
2137	250	150	236
2138	246	142	232
2139	251	149	236
2140	238	135	223
2141	237	139	222
2142	245	155	228
2143	255	169	233
2144	253	169	229
2145	249	170	226
2146	244	171	225
2147	239	175	225
2148	245	191	233
2149	247	195	233
2150	243	194	229
2151	235	188	222
2152	238	196	228
2153	236	197	227
2154	236	199	228
2155	240	207	232
2156	239	208	232
2157	241	214	234
2158	238	211	230
2159	238	209	227
2160	237	211	227
2161	233	211	225
2162	0	0	0
2163	241	225	230
2164	238	221	228
2165	0	0	0
2166	0	0	0
2167	0	0	0
2168	0	0	0
2169	0	0	0
2170	0	0	0
2171	0	0	0
2172	0	0	0
2173	0	0	0
2174	0	0	0
2175	0	0	0
2176	0	0	0
2177	0	0	0
2178	0	0	0
2179	0	0	0
2180	0	0	0
2181	0	0	0
2182	0	0	0
2183	0	0	0
2184	0	0	0
2185	0	0	0
2186	0	0	0
2187	0	0	0
2188	0	0	0
2189	0	0	0
2190	0	0	0
2191	0	0	0
2192	0	0	0
2193	0	0	0
2194	244	238	246
2195	233	217	236
2196	229	201	232
2197	0	0	0
2198	234	180	233
2199	246	184	240
2200	249	181	239
2201	247	175	236
2202	250	173	235
2203	251	162	233
2204	244	145	226
2205	246	145	230
2206	242	138	227
2207	239	133	225
2208	228	121	215
2209	237	140	225
2210	247	155	231
2211	251	159	229
2212	249	159	225
2213	247	163	224
2214	241	163	221
2215	244	177	227
2216	251	193	234
2217	247	191	230
2218	244	190	228
2219	243	195	230
2220	245	202	235
2221	243	203	233
2222	240	204	229
2223	240	206	229
2224	241	208	232
2225	239	207	231
2226	237	204	228
2227	242	210	231
2228	241	211	230
2229	240	217	231
2230	244	227	235
2231	242	224	231
2232	237	219	227
2233	240	225	231
2234	0	0	0
2235	0	0	0
2236	0	0	0
2237	0	0	0
2238	0	0	0
2239	0	0	0
2240	0	0	0
2241	0	0	0
2242	0	0	0
2243	0	0	0
2244	0	0	0
2245	0	0	0
2246	0	0	0
2247	0	0	0
2248	0	0	0
2249	0	0	0
2250	0	0	0
2251	0	0	0
2252	0	0	0
2253	0	0	0
2254	0	0	0
2255	0	0	0
2256	0	0	0
2257	0	0	0
2258	0	0	0
2259	0	0	0
2260	0	0	0
2261	0	0	0
2262	0	0	0
2263	227	214	226
2264	0	0	0
2265	0	0	0
2266	240	194	236
2267	253	199	245
2268	242	176	231
2269	240	171	229
2270	250	177	235
2271	252	166	234
2272	241	143	223
2273	242	143	227
2274	242	141	228
2275	239	137	227
2276	234	131	224
2277	247	152	236
2278	246	153	231
2279	247	155	228
2280	247	158	226
2281	246	162	226
2282	238	158	220
2283	246	174	228
2284	248	183	230
2285	242	179	224
2286	245	187	228
2287	247	193	232
2288	249	200	236
2289	245	200	232
2290	239	197	225
2291	236	197	224
2292	239	203	229
2293	237	202	229
2294	235	199	227
2295	240	205	231
2296	241	207	230
2297	245	216	234
2298	245	218	233
2299	238	212	227
2300	236	213	226
2301	0	0	0
2302	0	0	0
2303	0	0	0
2304	0	0	0
2305	0	0	0
2306	0	0	0
2307	0	0	0
2308	0	0	0
2309	0	0	0
2310	0	0	0
2311	0	0	0
2312	0	0	0
2313	0	0	0
2314	0	0	0
2315	0	0	0
2316	0	0	0
2317	0	0	0
2318	0	0	0
2319	0	0	0
2320	0	0	0
2321	0	0	0
2322	0	0	0
2323	0	0	0
2324	0	0	0
2325	0	0	0
2326	0	0	0
2327	0	0	0
2328	0	0	0
2329	0	0	0
2330	0	0	0
2331	0	0	0
2332	0	0	0
2333	0	0	0
2334	0	0	0
2335	244	192	235
2336	236	172	226
2337	242	176	233
2338	251	181	239
2339	246	161	230
2340	235	138	220
2341	238	141	226
2342	238	139	227
2343	240	140	229
2344	237	135	226
2345	243	143	230
2346	242	145	226
2347	249	153	229
2348	248	157	228
2349	241	154	223
2350	235	151	220
2351	240	162	225
2352	243	171	228
2353	245	177	228
2354	246	184	229
2355	244	187	228
2356	246	194	231
2357	240	191	227
2358	237	189	224
2359	238	194	227
2360	239	199	229
2361	232	194	226
2362	231	193	226
2363	238	200	232
2364	239	201	230
2365	241	205	230
2366	241	207	230
2367	240	209	229
2368	239	211	229
2369	240	217	232
2370	242	223	234
2371	241	226	233
2372	0	0	0
2373	0	0	0
2374	0	0	0
2375	0	0	0
2376	0	0	0
2377	0	0	0
2378	0	0	0
2379	0	0	0
2380	0	0	0
2381	0	0	0
2382	0	0	0
2383	0	0	0
2384	0	0	0
2385	0	0	0
2386	0	0	0
2387	0	0	0
2388	0	0	0
2389	0	0	0
2390	0	0	0
2391	0	0	0
2392	0	0	0
2393	0	0	0
2394	0	0	0
2395	0	0	0
2396	0	0	0
2397	0	0	0
2398	0	0	0
2399	0	0	0
2400	0	0	0
2401	0	0	0
2402	243	215	235
2403	248	204	237
2404	244	186	233
2405	252	191	242
2406	254	186	240
2407	245	164	230
2408	242	154	229
2409	246	157	236
2410	246	154	236
2411	253	157	240
2412	251	151	236
2413	255	160	240
2414	250	149	231
2415	255	159	237
2416	246	147	225
2417	236	143	219
2418	242	158	229
2419	246	169	234
2420	243	169	231
2421	247	177	233
2422	244	179	228
2423	236	179	223
2424	244	195	231
2425	242	194	229
2426	244	197	232
2427	249	203	236
2428	241	197	230
2429	230	189	224
2430	236	200	233
2431	245	208	239
2432	236	196	229
2433	236	198	228
2434	239	203	231
2435	245	209	234
2436	246	212	235
2437	248	218	237
2438	246	220	235
2439	244	222	234
2440	243	225	232
2441	0	0	0
2442	0	0	0
2443	0	0	0
2444	0	0	0
2445	0	0	0
2446	0	0	0
2447	0	0	0
2448	0	0	0
2449	0	0	0
2450	0	0	0
2451	0	0	0
2452	0	0	0
2453	0	0	0
2454	0	0	0
2455	0	0	0
2456	0	0	0
2457	0	0	0
2458	0	0	0
2459	0	0	0
2460	0	0	0
2461	0	0	0
2462	0	0	0
2463	0	0	0
2464	0	0	0
2465	0	0	0
2466	0	0	0
2467	0	0	0
2468	0	0	0
2469	0	0	0
2470	246	226	239
2471	245	210	234
2472	242	193	231
2473	249	192	237
2474	251	187	236
2475	251	179	235
2476	248	169	234
2477	250	169	239
2478	252	166	240
2479	255	165	242
2480	254	159	236
2481	250	152	231
2482	245	143	226
2483	243	140	224
2484	232	128	213
2485	239	146	224
2486	245	161	232
2487	241	162	231
2488	240	164	231
2489	246	172	234
2490	243	175	230
2491	241	184	229
2492	247	199	235
2493	244	198	232
2494	247	201	234
2495	246	198	233
2496	239	192	229
2497	237	197	231
2498	242	207	236
2499	238	198	230
2500	230	187	223
2501	233	194	228
2502	238	199	231
2503	246	207	236
2504	247	209	235
2505	242	209	231
2506	240	210	230
2507	239	213	229
2508	238	216	228
2509	0	0	0
2510	0	0	0
2511	0	0	0
2512	0	0	0
2513	0	0	0
2514	0	0	0
2515	0	0	0
2516	0	0	0
2517	0	0	0
2518	0	0	0
2519	0	0	0
2520	0	0	0
2521	0	0	0
2522	0	0	0
2523	0	0	0
2524	0	0	0
2525	0	0	0
2526	0	0	0
2527	0	0	0
2528	0	0	0
2529	0	0	0
2530	0	0	0
2531	0	0	0
2532	0	0	0
2533	0	0	0
2534	0	0	0
2535	0	0	0
2536	0	0	0
2537	0	0	0
2538	0	0	0
2539	235	211	229
2540	240	205	232
2541	253	207	242
2542	248	188	234
2543	247	179	233
2544	247	172	233
2545	251	173	239
2546	247	163	237
2547	249	161	237
2548	250	160	234
2549	250	155	232
2550	248	152	232
2551	243	147	229
2552	237	142	224
2553	251	164	238
2554	245	161	233
2555	241	162	232
2556	240	162	233
2557	247	172	238
2558	244	174	233
2559	243	184	233
2560	244	193	232
2561	238	190	226
2562	243	197	231
2563	242	194	230
2564	238	189	228
2565	240	197	232
2566	245	207	236
2567	238	196	228
2568	236	193	228
2569	242	202	236
2570	240	199	234
2571	245	205	237
2572	237	198	229
2573	229	196	224
2574	235	210	231
2575	237	214	232
2576	0	0	0
2577	0	0	0
2578	0	0	0
2579	0	0	0
2580	0	0	0
2581	0	0	0
2582	0	0	0
2583	0	0	0
2584	0	0	0
2585	0	0	0
2586	0	0	0
2587	0	0	0
2588	0	0	0
2589	0	0	0
2590	0	0	0
2591	0	0	0
2592	0	0	0
2593	0	0	0
2594	0	0	0
2595	0	0	0
2596	0	0	0
2597	0	0	0
2598	0	0	0
2599	0	0	0
2600	0	0	0
2601	0	0	0
2602	0	0	0
2603	0	0	0
2604	0	0	0
2605	0	0	0
2606	0	0	0
2607	0	0	0
2608	242	219	236
2609	243	203	233
2610	238	184	228
2611	242	181	232
2612	242	174	232
2613	243	168	233
2614	240	158	232
2615	244	162	237
2616	247	162	237
2617	251	163	238
2618	250	160	237
2619	247	159	236
2620	243	155	233
2621	246	159	235
2622	242	157	231
2623	241	159	232
2624	240	160	234
2625	246	170	238
2626	244	173	233
2627	242	179	231
2628	242	188	231
2629	239	189	228
2630	243	197	232
2631	241	192	230
2632	237	188	227
2633	242	197	233
2634	247	207	237
2635	241	200	232
2636	239	197	232
2637	238	196	232
2638	234	191	228
2639	232	190	226
2640	226	185	222
2641	232	200	231
2642	239	214	237
2643	240	217	237
2644	241	220	235
2645	0	0	0
2646	0	0	0
2647	0	0	0
2648	0	0	0
2649	0	0	0
2650	0	0	0
2651	0	0	0
2652	0	0	0
2653	0	0	0
2654	0	0	0
2655	0	0	0
2656	0	0	0
2657	0	0	0
2658	0	0	0
2659	0	0	0
2660	0	0	0
2661	0	0	0
2662	0	0	0
2663	0	0	0
2664	0	0	0
2665	0	0	0
2666	0	0	0
2667	0	0	0
2668	0	0	0
2669	0	0	0
2670	0	0	0
2671	0	0	0
2672	0	0	0
2673	0	0	0
2674	0	0	0
2675	0	0	0
2676	0	0	0
2677	0	0	0
2678	0	0	0
2679	0	0	0
2680	247	191	239
2681	249	186	240
2682	245	174	239
2683	249	178	245
2684	245	167	239
2685	250	168	241
2686	246	160	235
2687	247	161	236
2688	243	157	235
2689	245	160	236
2690	247	163	237
2691	252	169	241
2692	243	159	235
2693	245	166	237
2694	246	174	236
2695	247	182	236
2696	241	182	231
2697	236	183	228
2698	241	192	233
2699	240	189	230
2700	240	189	230
2701	245	199	235
2702	244	200	233
2703	237	193	228
2704	237	196	232
2705	234	193	231
2706	233	193	230
2707	229	191	228
2708	238	204	236
2709	253	223	249
2710	241	208	237
2711	241	210	236
2712	243	216	236
2713	239	213	231
2714	0	0	0
2715	0	0	0
2716	0	0	0
2717	0	0	0
2718	0	0	0
2719	0	0	0
2720	0	0	0
2721	0	0	0
2722	0	0	0
2723	0	0	0
2724	0	0	0
2725	0	0	0
2726	0	0	0
2727	0	0	0
2728	0	0	0
2729	0	0	0
2730	0	0	0
2731	0	0	0
2732	0	0	0
2733	0	0	0
2734	0	0	0
2735	0	0	0
2736	0	0	0
2737	0	0	0
2738	0	0	0
2739	0	0	0
2740	0	0	0
2741	0	0	0
2742	0	0	0
2743	0	0	0
2744	0	0	0
2745	0	0	0
2746	0	0	0
2747	245	211	238
2748	246	203	237
2749	246	194	237
2750	243	183	236
2751	241	176	237
2752	238	166	234
2753	240	164	235
2754	237	156	230
2755	240	157	232
2756	239	155	233
2757	243	160	237
2758	244	163	237
2759	242	158	233
2760	234	149	226
2761	240	162	233
2762	243	170	234
2763	243	174	233
2764	239	175	232
2765	236	180	233
2766	241	190	236
2767	244	191	236
2768	243	190	233
2769	242	192	232
2770	240	193	230
2771	237	193	229
2772	237	195	235
2773	237	197	237
2774	235	197	236
2775	241	208	242
2776	248	219	245
2777	242	208	237
2778	233	194	228
2779	237	203	233
2780	239	208	233
2781	244	217	236
2782	246	225	237
2783	0	0	0
2784	237	224	232
2785	0	0	0
2786	0	0	0
2787	0	0	0
2788	0	0	0
2789	0	0	0
2790	0	0	0
2791	0	0	0
2792	0	0	0
2793	0	0	0
2794	0	0	0
2795	0	0	0
2796	0	0	0
2797	0	0	0
2798	0	0	0
2799	0	0	0
2800	0	0	0
2801	0	0	0
2802	0	0	0
2803	0	0	0
2804	0	0	0
2805	0	0	0
2806	0	0	0
2807	0	0	0
2808	0	0	0
2809	0	0	0
2810	0	0	0
2811	0	0	0
2812	0	0	0
2813	0	0	0
2814	0	0	0
2815	0	0	0
2816	242	212	237
2817	243	203	237
2818	241	192	237
2819	242	187	239
2820	239	178	238
2821	242	175	240
2822	241	171	238
2823	244	172	241
2824	242	166	240
2825	248	173	245
2826	243	167	238
2827	234	159	231
2828	236	162	234
2829	250	179	245
2830	246	175	238
2831	249	180	240
2832	244	179	238
2833	242	184	239
2834	244	190	241
2835	246	191	240
2836	242	187	234
2837	237	186	230
2838	236	189	229
2839	234	189	229
2840	239	198	238
2841	239	200	240
2842	235	196	236
2843	241	207	241
2844	240	208	237
2845	230	194	225
2846	234	201	232
2847	239	210	239
2848	237	207	234
2849	246	219	240
2850	242	218	235
2851	231	213	226
2852	237	227	234
2853	242	231	237
2854	0	0	0
2855	0	0	0
2856	0	0	0
2857	0	0	0
2858	0	0	0
2859	0	0	0
2860	0	0	0
2861	0	0	0
2862	0	0	0
2863	0	0	0
2864	0	0	0
2865	0	0	0
2866	0	0	0
2867	0	0	0
2868	0	0	0
2869	0	0	0
2870	0	0	0
2871	0	0	0
2872	0	0	0
2873	0	0	0
2874	0	0	0
2875	0	0	0
2876	0	0	0
2877	0	0	0
2878	0	0	0
2879	0	0	0
2880	0	0	0
2881	0	0	0
2882	0	0	0
2883	0	0	0
2884	0	0	0
2885	241	212	239
2886	238	201	238
2887	238	193	239
2888	235	183	237
2889	239	183	240
2890	238	178	239
2891	235	173	237
2892	233	166	235
2893	237	167	237
2894	232	162	231
2895	234	168	235
2896	238	172	239
2897	242	175	241
2898	240	171	235
2899	242	175	235
2900	238	174	233
2901	239	180	236
2902	243	187	240
2903	243	185	237
2904	239	181	232
2905	237	184	232
2906	236	187	233
2907	239	194	237
2908	243	202	242
2909	240	199	239
2910	236	195	234
2911	238	199	235
2912	237	200	233
2913	237	204	234
2914	240	210	238
2915	235	206	235
2916	233	203	233
2917	240	210	237
2918	236	210	231
2919	234	218	232
2920	241	231	237
2921	240	226	234
2922	236	220	232
2923	241	229	238
2924	0	0	0
2925	0	0	0
2926	0	0	0
2927	0	0	0
2928	0	0	0
2929	0	0	0
2930	0	0	0
2931	0	0	0
2932	0	0	0
2933	0	0	0
2934	0	0	0
2935	0	0	0
2936	0	0	0
2937	0	0	0
2938	0	0	0
2939	0	0	0
2940	0	0	0
2941	0	0	0
2942	0	0	0
2943	0	0	0
2944	0	0	0
2945	0	0	0
2946	0	0	0
2947	0	0	0
2948	0	0	0
2949	0	0	0
2950	0	0	0
2951	0	0	0
2952	0	0	0
2953	0	0	0
2954	0	0	0
2955	0	0	0
2956	0	0	0
2957	0	0	0
2958	0	0	0
2959	0	0	0
2960	239	193	245
2961	245	195	248
2962	237	180	238
2963	246	190	246
2964	245	186	245
2965	245	187	245
2966	238	178	236
2967	237	180	237
2968	234	176	234
2969	243	187	241
2970	242	185	240
2971	241	182	237
2972	244	188	239
2973	247	193	242
2974	241	189	238
2975	241	194	239
2976	244	200	241
2977	243	198	238
2978	245	200	238
2979	246	203	240
2980	240	199	235
2981	239	202	235
2982	239	206	237
2983	233	202	233
2984	237	210	237
2985	240	214	239
2986	237	213	235
2987	240	224	238
2988	243	230	238
2989	241	224	233
2990	241	223	235
2991	245	232	242
2992	244	232	240
2993	0	0	0
2994	0	0	0
2995	0	0	0
2996	0	0	0
2997	0	0	0
2998	0	0	0
2999	0	0	0
3000	0	0	0
3001	0	0	0
3002	0	0	0
3003	0	0	0
3004	0	0	0
3005	0	0	0
3006	0	0	0
3007	0	0	0
3008	0	0	0
3009	0	0	0
3010	0	0	0
3011	0	0	0
3012	0	0	0
3013	0	0	0
3014	0	0	0
3015	0	0	0
3016	0	0	0
3017	0	0	0
3018	0	0	0
3019	0	0	0
3020	0	0	0
3021	0	0	0
3022	0	0	0
3023	0	0	0
3024	0	0	0
3025	0	0	0
3026	0	0	0
3027	0	0	0
3028	0	0	0
3029	241	206	244
3030	236	192	238
3031	244	196	244
3032	243	192	241
3033	238	187	238
3034	232	180	233
3035	230	178	233
3036	230	176	234
3037	237	181	239
3038	236	179	236
3039	241	185	239
3040	244	190	241
3041	240	187	237
3042	236	184	234
3043	240	191	237
3044	243	196	237
3045	245	199	238
3046	246	201	240
3047	242	197	237
3048	237	193	234
3049	240	200	237
3050	239	204	237
3051	237	208	237
3052	239	214	238
3053	238	215	237
3054	236	215	234
3055	238	220	235
3056	242	226	235
3057	242	224	234
3058	241	222	236
3059	241	224	237
3060	239	224	235
3061	0	0	0
3062	0	0	0
3063	0	0	0
3064	0	0	0
3065	0	0	0
3066	0	0	0
3067	0	0	0
3068	0	0	0
3069	0	0	0
3070	0	0	0
3071	0	0	0
3072	0	0	0
3073	0	0	0
3074	0	0	0
3075	0	0	0
3076	0	0	0
3077	0	0	0
3078	0	0	0
3079	0	0	0
3080	0	0	0
3081	0	0	0
3082	0	0	0
3083	0	0	0
3084	0	0	0
3085	0	0	0
3086	0	0	0
3087	0	0	0
3088	0	0	0
3089	0	0	0
3090	0	0	0
3091	0	0	0
3092	0	0	0
3093	0	0	0
3094	0	0	0
3095	0	0	0
3096	0	0	0
3097	0	0	0
3098	234	203	237
3099	243	207	245
3100	236	194	236
3101	0	0	0
3102	236	193	237
3103	237	194	241
3104	233	185	239
3105	240	189	244
3106	236	183	238
3107	241	190	242
3108	240	191	240
3109	233	186	236
3110	237	190	240
3111	248	202	247
3112	244	194	237
3113	242	195	236
3114	236	190	234
3115	228	184	229
3116	240	202	240
3117	250	213	247
3118	240	202	236
3119	234	204	234
3120	238	215	237
3121	238	216	235
3122	239	218	236
3123	242	224	238
3124	240	222	234
3125	239	219	232
3126	239	221	235
3127	239	223	236
3128	240	226	237
3129	0	0	0
3130	0	0	0
3131	0	0	0
3132	0	0	0
3133	0	0	0
3134	0	0	0
3135	0	0	0
3136	0	0	0
3137	0	0	0
3138	0	0	0
3139	0	0	0
3140	0	0	0
3141	0	0	0
3142	0	0	0
3143	0	0	0
3144	0	0	0
3145	0	0	0
3146	0	0	0
3147	0	0	0
3148	0	0	0
3149	0	0	0
3150	0	0	0
3151	0	0	0
3152	0	0	0
3153	0	0	0
3154	0	0	0
3155	0	0	0
3156	0	0	0
3157	0	0	0
3158	0	0	0
3159	0	0	0
3160	0	0	0
3161	0	0	0
3162	0	0	0
3163	0	0	0
3164	0	0	0
3165	0	0	0
3166	0	0	0
3167	234	207	237
3168	0	0	0
3169	0	0	0
3170	0	0	0
3171	231	194	234
3172	228	185	233
3173	231	186	237
3174	229	181	234
3175	236	188	240
3176	236	190	240
3177	235	192	241
3178	240	197	246
3179	243	195	244
3180	239	188	236
3181	233	183	232
3182	227	179	231
3183	235	196	241
3184	246	213	247
3185	246	207	241
3186	237	197	233
3187	235	205	234
3188	239	216	238
3189	239	217	236
3190	240	219	236
3191	239	219	235
3192	238	218	234
3193	236	217	234
3194	0	0	0
3195	238	223	236
3196	0	0	0
3197	0	0	0
3198	0	0	0
3199	0	0	0
3200	0	0	0
3201	0	0	0
3202	0	0	0
3203	0	0	0
3204	0	0	0
3205	0	0	0
3206	0	0	0
3207	0	0	0
3208	0	0	0
3209	0	0	0
3210	0	0	0
3211	0	0	0
3212	0	0	0
3213	0	0	0
3214	0	0	0
3215	0	0	0
3216	0	0	0
3217	0	0	0
3218	0	0	0
3219	0	0	0
3220	0	0	0
3221	0	0	0
3222	0	0	0
3223	0	0	0
3224	0	0	0
3225	0	0	0
3226	0	0	0
3227	0	0	0
3228	0	0	0
3229	0	0	0
3230	0	0	0
3231	0	0	0
3232	0	0	0
3233	0	0	0
3234	0	0	0
3235	0	0	0
3236	0	0	0
3237	0	0	0
3238	0	0	0
3239	0	0	0
3240	0	0	0
3241	0	0	0
3242	0	0	0
3243	241	204	249
3244	233	190	241
3245	237	195	244
3246	242	199	247
3247	242	195	243
3248	247	202	245
3249	241	197	242
3250	236	192	241
3251	249	211	254
3252	246	208	245
3253	242	200	236
3254	238	199	233
3255	237	208	236
3256	242	220	240
3257	241	221	238
3258	238	217	235
3259	240	218	236
3260	241	221	238
3261	0	0	0
3262	0	0	0
3263	0	0	0
3264	0	0	0
3265	0	0	0
3266	0	0	0
3267	0	0	0
3268	0	0	0
3269	0	0	0
3270	0	0	0
3271	0	0	0
3272	0	0	0
3273	0	0	0
3274	0	0	0
3275	0	0	0
3276	0	0	0
3277	0	0	0
3278	0	0	0
3279	0	0	0
3280	0	0	0
3281	0	0	0
3282	0	0	0
3283	0	0	0
3284	0	0	0
3285	0	0	0
3286	0	0	0
3287	0	0	0
3288	0	0	0
3289	0	0	0
3290	0	0	0
3291	0	0	0
3292	0	0	0
3293	0	0	0
3294	0	0	0
3295	0	0	0
3296	0	0	0
3297	0	0	0
3298	0	0	0
3299	0	0	0
3300	0	0	0
3301	0	0	0
3302	0	0	0
3303	0	0	0
3304	0	0	0
3305	0	0	0
3306	0	0	0
3307	0	0	0
3308	0	0	0
3309	0	0	0
3310	0	0	0
3311	0	0	0
3312	222	183	235
3313	229	190	240
3314	233	193	239
3315	245	203	243
3316	250	210	246
3317	243	204	241
3318	238	199	241
3319	239	199	241
3320	236	197	237
3321	237	198	235
3322	233	196	230
3323	239	210	236
3324	244	223	240
3325	239	217	235
3326	236	214	236
3327	239	218	239
3328	239	221	238
3329	0	0	0
3330	0	0	0
3331	0	0	0
3332	0	0	0
3333	0	0	0
3334	0	0	0
3335	0	0	0
3336	0	0	0
3337	0	0	0
3338	0	0	0
3339	0	0	0
3340	0	0	0
3341	0	0	0
3342	0	0	0
3343	0	0	0
3344	0	0	0
3345	0	0	0
3346	0	0	0
3347	0	0	0
3348	0	0	0
3349	0	0	0
3350	0	0	0
3351	0	0	0
3352	0	0	0
3353	0	0	0
3354	0	0	0
3355	0	0	0
3356	0	0	0
3357	0	0	0
3358	0	0	0
3359	0	0	0
3360	0	0	0
3361	0	0	0
3362	0	0	0
3363	0	0	0
3364	0	0	0
3365	0	0	0
3366	0	0	0
3367	0	0	0
3368	0	0	0
3369	0	0	0
3370	0	0	0
3371	0	0	0
3372	0	0	0
3373	0	0	0
3374	0	0	0
3375	0	0	0
3376	0	0	0
3377	0	0	0
3378	0	0	0
3379	0	0	0
3380	0	0	0
3381	0	0	0
3382	0	0	0
3383	249	217	249
3384	242	204	239
3385	237	199	236
3386	240	205	241
3387	238	203	240
3388	240	209	242
3389	238	209	240
3390	235	207	235
3391	248	225	245
3392	244	220	238
3393	238	214	233
3394	237	216	238
3395	235	218	238
3396	0	0	0
3397	0	0	0
3398	0	0	0
3399	0	0	0
3400	0	0	0
3401	0	0	0
3402	0	0	0
3403	0	0	0
3404	0	0	0
3405	0	0	0
3406	0	0	0
3407	0	0	0
3408	0	0	0
3409	0	0	0
3410	0	0	0
3411	0	0	0
3412	0	0	0
3413	0	0	0
3414	0	0	0
3415	0	0	0
3416	0	0	0
3417	0	0	0
3418	0	0	0
3419	0	0	0
3420	0	0	0
3421	0	0	0
3422	0	0	0
3423	0	0	0
3424	0	0	0
3425	0	0	0
3426	0	0	0
3427	0	0	0
3428	0	0	0
3429	0	0	0
3430	0	0	0
3431	0	0	0
3432	0	0	0
3433	0	0	0
3434	0	0	0
3435	0	0	0
3436	0	0	0
3437	0	0	0
3438	0	0	0
3439	0	0	0
3440	0	0	0
3441	0	0	0
3442	0	0	0
3443	0	0	0
3444	0	0	0
3445	0	0	0
3446	0	0	0
3447	0	0	0
3448	0	0	0
3449	0	0	0
3450	0	0	0
3451	0	0	0
3452	0	0	0
3453	0	0	0
3454	240	209	242
3455	243	216	245
3456	244	221	245
3457	241	218	241
3458	239	217	239
3459	241	218	239
3460	238	214	234
3461	238	216	235
3462	236	218	237
3463	0	0	0
3464	0	0	0
3465	0	0	0
3466	0	0	0
3467	0	0	0
3468	0	0	0
3469	0	0	0
3470	0	0	0
3471	0	0	0
3472	0	0	0
3473	0	0	0
3474	0	0	0
3475	0	0	0
3476	0	0	0
3477	0	0	0
3478	0	0	0
3479	0	0	0
3480	0	0	0
3481	0	0	0
3482	0	0	0
3483	0	0	0
3484	0	0	0
3485	0	0	0
3486	0	0	0
3487	0	0	0
3488	0	0	0
3489	0	0	0
3490	0	0	0
3491	0	0	0
3492	0	0	0
3493	0	0	0
3494	0	0	0
3495	0	0	0
3496	0	0	0
3497	0	0	0
3498	0	0	0
3499	0	0	0
3500	0	0	0
3501	0	0	0
3502	0	0	0
3503	0	0	0
3504	0	0	0
3505	0	0	0
3506	0	0	0
3507	0	0	0
3508	0	0	0
3509	0	0	0
3510	0	0	0
3511	0	0	0
3512	0	0	0
3513	0	0	0
3514	0	0	0
3515	0	0	0
3516	0	0	0
3517	0	0	0
3518	0	0	0
3519	0	0	0
3520	0	0	0
3521	0	0	0
3522	0	0	0
3523	0	0	0
3524	241	217	239
3525	237	215	235
3526	240	220	239
3527	240	219	238
3528	236	216	234
3529	236	218	235
3530	0	0	0
3531	0	0	0
3532	0	0	0
3533	0	0	0
3534	0	0	0
3535	0	0	0
3536	0	0	0
3537	0	0	0
3538	0	0	0
3539	0	0	0
3540	0	0	0
3541	0	0	0
3542	0	0	0
3543	0	0	0
3544	0	0	0
3545	0	0	0
3546	0	0	0
3547	0	0	0
3548	0	0	0
3549	0	0	0
3550	0	0	0
3551	0	0	0
3552	0	0	0
3553	0	0	0
3554	0	0	0
3555	0	0	0
3556	0	0	0
3557	0	0	0
3558	0	0	0
3559	0	0	0
3560	0	0	0
3561	0	0	0
3562	0	0	0
3563	0	0	0
3564	0	0	0
3565	0	0	0
3566	0	0	0
3567	0	0	0
3568	0	0	0
3569	0	0	0
3570	0	0	0
3571	0	0	0
3572	0	0	0
3573	0	0	0
3574	0	0	0
3575	0	0	0
3576	0	0	0
3577	0	0	0
3578	0	0	0
3579	0	0	0
3580	0	0	0
3581	0	0	0
3582	0	0	0
3583	0	0	0
3584	0	0	0
3585	0	0	0
3586	0	0	0
3587	0	0	0
3588	0	0	0
3589	0	0	0
3590	0	0	0
3591	0	0	0
3592	0	0	0
3593	237	217	236
3594	240	222	238
3595	238	219	235
3596	0	0	0
3597	0	0	0
3598	0	0	0
3599	0	0	0
3600	0	0	0
3601	0	0	0
3602	0	0	0
3603	0	0	0
3604	0	0	0
