 	R	G	B
1	0	0	0
2	0	0	0
3	0	0	0
4	0	0	0
5	0	0	0
6	0	0	0
7	0	0	0
8	0	0	0
9	0	0	0
10	0	0	0
11	0	0	0
12	0	0	0
13	0	0	0
14	0	0	0
15	251	255	241
16	0	0	0
17	0	0	0
18	0	0	0
19	0	0	0
20	0	0	0
21	0	0	0
22	0	0	0
23	0	0	0
24	0	0	0
25	0	0	0
26	0	0	0
27	0	0	0
28	0	0	0
29	0	0	0
30	0	0	0
31	0	0	0
32	0	0	0
33	0	0	0
34	0	0	0
35	0	0	0
36	223	208	218
37	0	0	0
38	0	0	0
39	0	0	0
40	0	0	0
41	0	0	0
42	0	0	0
43	0	0	0
44	0	0	0
45	0	0	0
46	0	0	0
47	0	0	0
48	0	0	0
49	0	0	0
50	0	0	0
51	0	0	0
52	246	249	238
53	0	0	0
54	0	0	0
55	0	0	0
56	0	0	0
57	0	0	0
58	0	0	0
59	0	0	0
60	0	0	0
61	0	0	0
62	0	0	0
63	0	0	0
64	0	0	0
65	0	0	0
66	0	0	0
67	0	0	0
68	0	0	0
69	0	0	0
70	0	0	0
71	0	0	0
72	0	0	0
73	224	209	218
74	0	0	0
75	0	0	0
76	0	0	0
77	0	0	0
78	0	0	0
79	0	0	0
80	0	0	0
81	0	0	0
82	0	0	0
83	0	0	0
84	0	0	0
85	0	0	0
86	0	0	0
87	0	0	0
88	0	0	0
89	241	244	235
90	0	0	0
91	0	0	0
92	0	0	0
93	0	0	0
94	0	0	0
95	0	0	0
96	0	0	0
97	0	0	0
98	0	0	0
99	0	0	0
100	0	0	0
101	0	0	0
102	199	159	207
103	197	160	209
104	0	0	0
105	0	0	0
106	0	0	0
107	0	0	0
108	0	0	0
109	0	0	0
110	228	215	222
111	0	0	0
112	0	0	0
113	0	0	0
114	0	0	0
115	0	0	0
116	0	0	0
117	0	0	0
118	0	0	0
119	0	0	0
120	0	0	0
121	0	0	0
122	0	0	0
123	0	0	0
124	0	0	0
125	0	0	0
126	237	240	234
127	0	0	0
128	0	0	0
129	0	0	0
130	0	0	0
131	0	0	0
132	0	0	0
133	0	0	0
134	0	0	0
135	0	0	0
136	0	0	0
137	0	0	0
138	0	0	0
139	199	161	212
140	185	145	202
141	0	0	0
142	0	0	0
143	0	0	0
144	0	0	0
145	0	0	0
146	0	0	0
147	230	217	223
148	0	0	0
149	0	0	0
150	0	0	0
151	0	0	0
152	0	0	0
153	0	0	0
154	0	0	0
155	0	0	0
156	0	0	0
157	0	0	0
158	0	0	0
159	0	0	0
160	0	0	0
161	0	0	0
162	0	0	0
163	231	235	230
164	0	0	0
165	0	0	0
166	0	0	0
167	0	0	0
168	0	0	0
169	0	0	0
170	0	0	0
171	0	0	0
172	0	0	0
173	0	0	0
174	0	0	0
175	195	157	210
176	186	146	204
177	173	129	193
178	0	0	0
179	0	0	0
180	0	0	0
181	0	0	0
182	0	0	0
183	0	0	0
184	0	0	0
185	236	227	226
186	0	0	0
187	0	0	0
188	0	0	0
189	0	0	0
190	0	0	0
191	0	0	0
192	0	0	0
193	0	0	0
194	0	0	0
195	0	0	0
196	0	0	0
197	0	0	0
198	0	0	0
199	0	0	0
200	221	224	223
201	0	0	0
202	0	0	0
203	0	0	0
204	0	0	0
205	0	0	0
206	0	0	0
207	0	0	0
208	0	0	0
209	0	0	0
210	0	0	0
211	195	154	209
212	192	152	208
213	181	140	201
214	0	0	0
215	0	0	0
216	0	0	0
217	0	0	0
218	0	0	0
219	0	0	0
220	0	0	0
221	0	0	0
222	232	226	223
223	0	0	0
224	0	0	0
225	0	0	0
226	0	0	0
227	0	0	0
228	0	0	0
229	0	0	0
230	0	0	0
231	0	0	0
232	0	0	0
233	0	0	0
234	0	0	0
235	0	0	0
236	0	0	0
237	213	215	219
238	0	0	0
239	0	0	0
240	0	0	0
241	0	0	0
242	0	0	0
243	0	0	0
244	0	0	0
245	0	0	0
246	194	148	206
247	194	149	206
248	188	146	203
249	184	144	203
250	178	139	200
251	0	0	0
252	0	0	0
253	0	0	0
254	0	0	0
255	0	0	0
256	215	202	218
257	0	0	0
258	222	215	215
259	0	0	0
260	0	0	0
261	0	0	0
262	0	0	0
263	0	0	0
264	0	0	0
265	0	0	0
266	0	0	0
267	0	0	0
268	0	0	0
269	0	0	0
270	0	0	0
271	0	0	0
272	0	0	0
273	0	0	0
274	211	210	218
275	0	0	0
276	0	0	0
277	0	0	0
278	0	0	0
279	0	0	0
280	0	0	0
281	196	149	208
282	191	142	204
283	194	146	208
284	187	141	202
285	179	137	197
286	176	139	199
287	169	134	196
288	0	0	0
289	0	0	0
290	0	0	0
291	0	0	0
292	206	187	214
293	0	0	0
294	222	213	217
295	0	0	0
296	0	0	0
297	0	0	0
298	0	0	0
299	0	0	0
300	0	0	0
301	0	0	0
302	0	0	0
303	0	0	0
304	0	0	0
305	0	0	0
306	0	0	0
307	0	0	0
308	0	0	0
309	0	0	0
310	216	219	221
311	0	0	0
312	0	0	0
313	0	0	0
314	0	0	0
315	0	0	0
316	0	0	0
317	0	0	0
318	192	144	205
319	186	136	201
320	186	138	203
321	179	133	199
322	173	134	197
323	170	135	197
324	170	140	199
325	167	139	198
326	0	0	0
327	0	0	0
328	0	0	0
329	203	181	210
330	0	0	0
331	0	0	0
332	0	0	0
333	0	0	0
334	0	0	0
335	0	0	0
336	0	0	0
337	0	0	0
338	0	0	0
339	0	0	0
340	0	0	0
341	0	0	0
342	0	0	0
343	0	0	0
344	0	0	0
345	0	0	0
346	225	228	225
347	0	0	0
348	0	0	0
349	0	0	0
350	0	0	0
351	0	0	0
352	0	0	0
353	0	0	0
354	192	151	208
355	189	145	206
356	180	133	199
357	180	134	201
358	178	137	202
359	171	137	200
360	161	129	192
361	163	134	195
362	164	136	195
363	0	0	0
364	0	0	0
365	0	0	0
366	210	188	216
367	0	0	0
368	0	0	0
369	0	0	0
370	0	0	0
371	0	0	0
372	0	0	0
373	0	0	0
374	0	0	0
375	0	0	0
376	0	0	0
377	0	0	0
378	0	0	0
379	0	0	0
380	0	0	0
381	0	0	0
382	0	0	0
383	219	222	223
384	0	0	0
385	0	0	0
386	0	0	0
387	0	0	0
388	197	169	213
389	191	157	207
390	191	156	209
391	191	154	211
392	183	143	205
393	173	130	197
394	178	138	204
395	176	141	204
396	164	133	196
397	155	125	191
398	161	133	196
399	163	133	194
400	0	0	0
401	0	0	0
402	0	0	0
403	213	193	217
404	0	0	0
405	0	0	0
406	0	0	0
407	0	0	0
408	0	0	0
409	0	0	0
410	0	0	0
411	0	0	0
412	0	0	0
413	0	0	0
414	0	0	0
415	0	0	0
416	0	0	0
417	0	0	0
418	0	0	0
419	0	0	0
420	211	210	219
421	0	0	0
422	0	0	0
423	0	0	0
424	188	169	210
425	187	161	209
426	177	144	199
427	176	143	200
428	178	143	204
429	170	132	198
430	165	126	195
431	168	133	200
432	162	129	195
433	154	123	190
434	155	125	193
435	162	133	198
436	161	130	192
437	0	0	0
438	0	0	0
439	199	178	210
440	0	0	0
441	0	0	0
442	0	0	0
443	0	0	0
444	0	0	0
445	0	0	0
446	0	0	0
447	0	0	0
448	0	0	0
449	0	0	0
450	0	0	0
451	0	0	0
452	0	0	0
453	0	0	0
454	0	0	0
455	0	0	0
456	0	0	0
457	202	198	215
458	0	0	0
459	0	0	0
460	183	169	210
461	181	163	208
462	175	151	203
463	166	134	195
464	169	137	200
465	169	137	201
466	164	131	199
467	160	125	196
468	159	125	197
469	155	122	194
470	153	123	194
471	155	125	194
472	159	129	195
473	0	0	0
474	0	0	0
475	188	167	206
476	0	0	0
477	0	0	0
478	0	0	0
479	0	0	0
480	0	0	0
481	0	0	0
482	0	0	0
483	0	0	0
484	0	0	0
485	0	0	0
486	0	0	0
487	0	0	0
488	0	0	0
489	0	0	0
490	0	0	0
491	0	0	0
492	0	0	0
493	0	0	0
494	198	192	215
495	0	0	0
496	178	166	208
497	176	162	209
498	170	152	205
499	162	138	198
500	157	129	196
501	162	133	201
502	153	121	193
503	144	113	188
504	148	118	191
505	154	120	195
506	152	118	193
507	149	117	191
508	155	127	196
509	159	130	195
510	164	135	194
511	0	0	0
512	186	163	202
513	0	0	0
514	0	0	0
515	0	0	0
516	0	0	0
517	0	0	0
518	0	0	0
519	0	0	0
520	0	0	0
521	0	0	0
522	0	0	0
523	0	0	0
524	0	0	0
525	0	0	0
526	0	0	0
527	0	0	0
528	0	0	0
529	0	0	0
530	0	0	0
531	193	185	214
532	185	174	213
533	173	159	208
534	169	153	208
535	162	143	204
536	154	133	200
537	148	122	196
538	147	118	195
539	138	105	186
540	137	108	187
541	141	112	188
542	147	114	191
543	146	111	188
544	149	120	193
545	154	128	196
546	162	137	198
547	166	141	194
548	177	152	197
549	0	0	0
550	0	0	0
551	0	0	0
552	0	0	0
553	0	0	0
554	0	0	0
555	0	0	0
556	0	0	0
557	0	0	0
558	0	0	0
559	0	0	0
560	0	0	0
561	0	0	0
562	0	0	0
563	0	0	0
564	0	0	0
565	0	0	0
566	222	219	227
567	0	0	0
568	189	179	214
569	181	168	214
570	165	148	205
571	162	141	205
572	157	137	204
573	146	125	198
574	143	121	198
575	141	115	196
576	136	106	190
577	140	111	192
578	146	119	195
579	148	118	193
580	143	110	187
581	147	120	192
582	152	128	194
583	158	135	195
584	162	138	190
585	0	0	0
586	0	0	0
587	0	0	0
588	0	0	0
589	0	0	0
590	0	0	0
591	0	0	0
592	0	0	0
593	0	0	0
594	0	0	0
595	0	0	0
596	0	0	0
597	0	0	0
598	0	0	0
599	0	0	0
600	0	0	0
601	0	0	0
602	229	224	230
603	215	207	223
604	198	188	216
605	185	173	215
606	171	155	210
607	155	134	199
608	154	133	201
609	148	127	198
610	139	120	194
611	135	115	192
612	134	111	192
613	130	103	188
614	143	116	197
615	149	122	198
616	146	117	192
617	140	109	186
618	147	120	191
619	151	128	192
620	158	135	194
621	162	138	192
622	0	0	0
623	0	0	0
624	0	0	0
625	0	0	0
626	0	0	0
627	0	0	0
628	0	0	0
629	0	0	0
630	0	0	0
631	0	0	0
632	0	0	0
633	0	0	0
634	0	0	0
635	0	0	0
636	0	0	0
637	0	0	0
638	234	228	232
639	218	208	224
640	204	192	217
641	187	173	211
642	176	163	212
643	162	145	206
644	153	135	201
645	150	132	202
646	147	130	200
647	140	124	196
648	139	122	196
649	136	117	195
650	133	109	192
651	148	122	202
652	143	113	192
653	138	106	185
654	144	116	190
655	152	127	195
656	154	129	193
657	161	136	194
658	166	141	193
659	0	0	0
660	0	0	0
661	0	0	0
662	0	0	0
663	0	0	0
664	0	0	0
665	0	0	0
666	0	0	0
667	0	0	0
668	0	0	0
669	0	0	0
670	0	0	0
671	0	0	0
672	0	0	0
673	0	0	0
674	0	0	0
675	219	208	221
676	206	192	216
677	193	177	213
678	182	165	212
679	171	153	211
680	163	146	210
681	152	135	202
682	151	136	203
683	148	134	201
684	146	132	200
685	143	129	199
686	137	120	195
687	135	113	193
688	140	111	194
689	136	102	185
690	144	114	192
691	149	123	194
692	151	127	193
693	153	129	191
694	163	139	195
695	170	144	193
696	0	0	0
697	0	0	0
698	0	0	0
699	0	0	0
700	0	0	0
701	0	0	0
702	0	0	0
703	0	0	0
704	0	0	0
705	0	0	0
706	0	0	0
707	0	0	0
708	0	0	0
709	0	0	0
710	0	0	0
711	0	0	0
712	217	209	223
713	206	194	219
714	196	180	218
715	187	169	218
716	171	150	211
717	161	142	208
718	151	133	202
719	149	133	202
720	148	134	202
721	146	132	201
722	134	115	189
723	125	105	184
724	138	119	196
725	146	118	198
726	143	110	191
727	151	122	197
728	149	122	193
729	148	124	190
730	155	132	192
731	167	144	196
732	179	156	200
733	0	0	0
734	0	0	0
735	0	0	0
736	0	0	0
737	0	0	0
738	0	0	0
739	0	0	0
740	0	0	0
741	0	0	0
742	0	0	0
743	0	0	0
744	0	0	0
745	0	0	0
746	0	0	0
747	0	0	0
748	231	225	230
749	222	213	226
750	206	193	218
751	195	179	218
752	182	161	213
753	166	142	207
754	161	140	208
755	151	131	202
756	151	134	204
757	150	134	204
758	140	120	195
759	128	104	185
760	133	114	193
761	144	126	200
762	147	122	198
763	144	114	191
764	149	120	194
765	149	121	192
766	155	131	195
767	161	138	194
768	175	156	201
769	187	168	205
770	0	0	0
771	0	0	0
772	0	0	0
773	0	0	0
774	0	0	0
775	0	0	0
776	0	0	0
777	0	0	0
778	0	0	0
779	0	0	0
780	0	0	0
781	0	0	0
782	0	0	0
783	0	0	0
784	232	227	230
785	232	218	229
786	213	192	215
787	192	169	204
788	199	184	221
789	185	166	216
790	173	150	212
791	169	149	215
792	154	132	204
793	154	135	206
794	145	124	198
795	134	109	189
796	136	113	193
797	144	125	201
798	144	124	199
799	140	116	191
800	142	116	191
801	151	124	196
802	153	125	194
803	163	137	199
804	164	140	195
805	173	154	199
806	182	165	200
807	0	0	0
808	0	0	0
809	0	0	0
810	0	0	0
811	0	0	0
812	0	0	0
813	0	0	0
814	0	0	0
815	0	0	0
816	0	0	0
817	0	0	0
818	0	0	0
819	0	0	0
820	234	229	228
821	231	219	225
822	223	198	219
823	205	172	208
824	201	178	215
825	206	191	227
826	191	172	218
827	177	156	213
828	169	146	212
829	155	130	202
830	148	123	199
831	139	113	192
832	143	119	197
833	144	122	198
834	146	124	199
835	145	123	197
836	142	121	195
837	143	121	194
838	152	126	197
839	155	126	194
840	164	137	198
841	167	140	196
842	176	154	200
843	184	165	200
844	0	0	0
845	0	0	0
846	0	0	0
847	0	0	0
848	0	0	0
849	0	0	0
850	0	0	0
851	0	0	0
852	0	0	0
853	0	0	0
854	248	247	230
855	247	243	230
856	246	236	231
857	238	223	227
858	228	203	218
859	215	179	209
860	213	180	216
861	209	185	222
862	208	191	227
863	192	171	216
864	179	155	212
865	169	145	210
866	154	127	200
867	148	121	199
868	145	118	198
869	148	124	201
870	144	119	195
871	145	121	196
872	143	120	195
873	139	117	192
874	147	127	197
875	157	132	200
876	162	134	198
877	169	143	201
878	173	146	199
879	188	163	207
880	197	175	207
881	0	0	0
882	0	0	0
883	0	0	0
884	0	0	0
885	0	0	0
886	0	0	0
887	0	0	0
888	0	0	0
889	0	0	0
890	247	246	234
891	247	244	233
892	245	234	229
893	243	227	227
894	231	205	217
895	221	185	210
896	224	187	218
897	221	186	221
898	214	187	223
899	212	192	227
900	193	170	216
901	179	153	211
902	164	138	205
903	149	119	196
904	149	122	200
905	145	119	198
906	146	120	198
907	141	115	192
908	142	117	193
909	140	116	193
910	148	127	200
911	156	136	203
912	164	141	204
913	169	142	202
914	174	147	202
915	177	150	200
916	194	169	208
917	0	0	0
918	0	0	0
919	0	0	0
920	0	0	0
921	0	0	0
922	0	0	0
923	0	0	0
924	0	0	0
925	0	0	0
926	252	250	240
927	248	244	236
928	243	233	231
929	240	223	227
930	239	215	223
931	227	193	211
932	230	193	217
933	233	195	224
934	229	192	225
935	223	193	226
936	211	184	222
937	188	160	209
938	178	152	210
939	162	136	204
940	157	133	205
941	156	135	207
942	148	125	200
943	151	127	201
944	146	121	196
945	143	122	196
946	147	125	199
947	160	138	208
948	153	125	195
949	157	127	193
950	177	152	207
951	185	158	208
952	183	153	201
953	0	0	0
954	0	0	0
955	0	0	0
956	0	0	0
957	0	0	0
958	0	0	0
959	0	0	0
960	0	0	0
961	0	0	0
962	0	0	0
963	0	0	0
964	245	233	232
965	241	224	229
966	241	216	227
967	239	207	223
968	239	203	222
969	241	202	226
970	242	202	229
971	236	198	227
972	222	186	221
973	211	178	219
974	194	164	214
975	183	155	215
976	174	151	216
977	167	147	213
978	159	140	208
979	151	130	201
980	156	132	203
981	151	127	199
982	150	129	200
983	152	131	201
984	152	125	196
985	146	112	185
986	167	138	200
987	186	162	210
988	185	157	203
989	0	0	0
990	0	0	0
991	0	0	0
992	0	0	0
993	0	0	0
994	0	0	0
995	0	0	0
996	0	0	0
997	0	0	0
998	0	0	0
999	0	0	0
1000	0	0	0
1001	0	0	0
1002	0	0	0
1003	0	0	0
1004	239	198	221
1005	237	194	219
1006	241	198	224
1007	241	196	226
1008	227	181	217
1009	211	168	210
1010	207	169	215
1011	195	157	212
1012	193	163	221
1013	179	155	218
1014	166	145	210
1015	158	137	204
1016	153	130	200
1017	158	132	203
1018	155	129	201
1019	153	131	201
1020	149	125	195
1021	145	116	188
1022	159	131	197
1023	186	160	214
1024	187	159	207
1025	0	0	0
1026	0	0	0
1027	0	0	0
1028	0	0	0
1029	0	0	0
1030	0	0	0
1031	0	0	0
1032	0	0	0
1033	0	0	0
1034	0	0	0
1035	0	0	0
1036	0	0	0
1037	0	0	0
1038	0	0	0
1039	0	0	0
1040	0	0	0
1041	0	0	0
1042	237	189	218
1043	240	192	222
1044	230	178	216
1045	217	164	210
1046	211	163	212
1047	206	164	216
1048	204	166	220
1049	199	169	223
1050	178	153	213
1051	167	143	209
1052	160	137	206
1053	154	129	201
1054	158	131	202
1055	155	127	198
1056	152	125	195
1057	148	119	190
1058	159	134	199
1059	173	149	207
1060	185	155	209
1061	186	154	203
1062	0	0	0
1063	214	198	223
1064	212	196	216
1065	0	0	0
1066	0	0	0
1067	0	0	0
1068	0	0	0
1069	0	0	0
1070	0	0	0
1071	0	0	0
1072	0	0	0
1073	0	0	0
1074	0	0	0
1075	0	0	0
1076	0	0	0
1077	0	0	0
1078	238	194	222
1079	245	199	227
1080	235	183	219
1081	223	168	210
1082	225	174	218
1083	222	174	221
1084	207	160	215
1085	199	159	215
1086	197	167	219
1087	177	151	208
1088	175	153	214
1089	170	147	213
1090	163	139	207
1091	161	137	205
1092	160	134	201
1093	163	135	201
1094	163	133	199
1095	174	148	207
1096	185	161	212
1097	195	166	213
1098	201	173	214
1099	213	194	223
1100	214	199	219
1101	210	196	211
1102	218	207	215
1103	0	0	0
1104	0	0	0
1105	0	0	0
1106	0	0	0
1107	0	0	0
1108	0	0	0
1109	0	0	0
1110	0	0	0
1111	0	0	0
1112	0	0	0
1113	0	0	0
1114	245	205	229
1115	245	202	229
1116	239	189	223
1117	230	173	216
1118	232	178	220
1119	233	182	223
1120	221	169	216
1121	205	155	210
1122	202	162	216
1123	199	168	218
1124	187	163	213
1125	185	163	218
1126	179	156	215
1127	171	147	211
1128	167	144	208
1129	165	140	203
1130	173	146	206
1131	173	144	203
1132	184	158	210
1133	195	171	215
1134	206	181	219
1135	211	188	219
1136	214	196	218
1137	214	201	214
1138	220	211	215
1139	228	222	220
1140	0	0	0
1141	0	0	0
1142	0	0	0
1143	0	0	0
1144	0	0	0
1145	0	0	0
1146	0	0	0
1147	0	0	0
1148	0	0	0
1149	0	0	0
1150	247	209	228
1151	249	207	230
1152	243	194	225
1153	235	179	219
1154	237	178	221
1155	242	185	227
1156	237	179	221
1157	222	164	212
1158	212	160	213
1159	207	166	218
1160	200	167	216
1161	190	161	212
1162	187	161	214
1163	179	152	210
1164	181	157	215
1165	179	154	213
1166	178	153	209
1167	182	156	210
1168	181	152	205
1169	194	168	213
1170	203	180	217
1171	208	188	218
1172	210	193	216
1173	214	201	216
1174	213	202	210
1175	223	215	215
1176	225	217	214
1177	0	0	0
1178	0	0	0
1179	0	0	0
1180	0	0	0
1181	0	0	0
1182	0	0	0
1183	0	0	0
1184	0	0	0
1185	0	0	0
1186	0	0	0
1187	248	211	230
1188	244	197	225
1189	239	184	221
1190	241	184	224
1191	242	182	224
1192	242	180	224
1193	237	175	221
1194	231	172	220
1195	221	167	217
1196	211	167	217
1197	204	168	217
1198	195	163	215
1199	191	162	215
1200	191	166	218
1201	193	169	220
1202	191	169	218
1203	191	167	215
1204	191	166	213
1205	189	162	209
1206	203	179	218
1207	210	190	219
1208	213	196	217
1209	216	201	215
1210	217	205	214
1211	218	207	210
1212	221	211	211
1213	0	0	0
1214	0	0	0
1215	0	0	0
1216	0	0	0
1217	0	0	0
1218	0	0	0
1219	0	0	0
1220	0	0	0
1221	0	0	0
1222	0	0	0
1223	0	0	0
1224	244	206	228
1225	241	194	224
1226	241	186	223
1227	244	186	226
1228	242	180	223
1229	241	177	222
1230	237	172	220
1231	233	170	220
1232	224	165	217
1233	214	165	216
1234	208	167	217
1235	197	161	213
1236	197	166	217
1237	196	169	219
1238	189	162	213
1239	187	160	210
1240	191	165	210
1241	192	165	208
1242	195	170	210
1243	205	185	217
1244	207	189	214
1245	214	198	215
1246	215	197	211
1247	218	202	211
1248	219	204	209
1249	0	0	0
1250	0	0	0
1251	0	0	0
1252	0	0	0
1253	0	0	0
1254	0	0	0
1255	0	0	0
1256	0	0	0
1257	0	0	0
1258	0	0	0
1259	0	0	0
1260	231	196	220
1261	239	201	226
1262	242	193	224
1263	242	186	223
1264	243	182	224
1265	240	177	221
1266	238	173	220
1267	235	169	217
1268	235	170	219
1269	227	165	218
1270	219	167	218
1271	213	168	217
1272	208	170	217
1273	206	173	220
1274	196	165	215
1275	190	159	211
1276	194	165	215
1277	197	169	213
1278	205	178	216
1279	208	183	215
1280	212	190	217
1281	217	195	218
1282	222	199	219
1283	222	199	216
1284	222	201	214
1285	0	0	0
1286	0	0	0
1287	0	0	0
1288	0	0	0
1289	0	0	0
1290	0	0	0
1291	0	0	0
1292	0	0	0
1293	0	0	0
1294	0	0	0
1295	0	0	0
1296	0	0	0
1297	237	209	230
1298	239	202	227
1299	244	195	226
1300	249	193	227
1301	247	188	227
1302	239	176	221
1303	236	172	219
1304	236	172	219
1305	238	173	222
1306	223	157	213
1307	215	158	212
1308	213	164	213
1309	211	167	214
1310	207	168	214
1311	195	158	208
1312	201	171	217
1313	206	177	220
1314	204	174	214
1315	214	184	217
1316	219	188	217
1317	227	197	221
1318	229	196	220
1319	235	200	222
1320	229	196	216
1321	0	0	0
1322	0	0	0
1323	0	0	0
1324	0	0	0
1325	0	0	0
1326	0	0	0
1327	0	0	0
1328	0	0	0
1329	0	0	0
1330	0	0	0
1331	0	0	0
1332	0	0	0
1333	0	0	0
1334	0	0	0
1335	238	200	226
1336	250	201	230
1337	253	198	229
1338	245	185	222
1339	237	173	218
1340	237	173	220
1341	237	173	220
1342	231	163	214
1343	217	147	205
1344	218	157	210
1345	217	163	211
1346	216	165	212
1347	213	166	214
1348	215	176	220
1349	220	187	224
1350	216	185	220
1351	214	182	217
1352	223	190	220
1353	229	195	221
1354	231	193	217
1355	234	193	217
1356	237	195	218
1357	230	190	211
1358	0	0	0
1359	0	0	0
1360	0	0	0
1361	0	0	0
1362	0	0	0
1363	0	0	0
1364	0	0	0
1365	0	0	0
1366	0	0	0
1367	0	0	0
1368	0	0	0
1369	0	0	0
1370	0	0	0
1371	0	0	0
1372	242	204	229
1373	254	205	234
1374	249	190	224
1375	238	176	216
1376	239	177	221
1377	243	180	226
1378	241	175	222
1379	232	163	215
1380	227	157	212
1381	233	169	221
1382	225	163	214
1383	224	164	214
1384	226	172	219
1385	231	183	225
1386	225	181	219
1387	217	176	212
1388	216	176	211
1389	224	184	216
1390	229	189	216
1391	231	187	213
1392	239	197	218
1393	240	198	217
1394	234	195	213
1395	0	0	0
1396	0	0	0
1397	0	0	0
1398	0	0	0
1399	0	0	0
1400	0	0	0
1401	0	0	0
1402	0	0	0
1403	0	0	0
1404	0	0	0
1405	0	0	0
1406	0	0	0
1407	0	0	0
1408	239	211	230
1409	243	206	232
1410	248	197	230
1411	244	183	222
1412	244	183	225
1413	246	184	227
1414	244	179	226
1415	241	175	223
1416	236	168	219
1417	232	163	216
1418	233	164	218
1419	227	158	213
1420	231	167	218
1421	232	174	221
1422	227	173	217
1423	222	171	211
1424	216	170	208
1425	215	170	207
1426	223	178	213
1427	228	183	214
1428	236	192	217
1429	241	200	217
1430	241	201	215
1431	235	199	212
1432	0	0	0
1433	0	0	0
1434	0	0	0
1435	0	0	0
1436	0	0	0
1437	0	0	0
1438	0	0	0
1439	0	0	0
1440	0	0	0
1441	0	0	0
1442	0	0	0
1443	0	0	0
1444	0	0	0
1445	0	0	0
1446	245	211	234
1447	249	201	233
1448	249	192	230
1449	255	194	235
1450	248	182	227
1451	240	174	222
1452	241	176	223
1453	238	171	221
1454	240	172	223
1455	243	174	226
1456	236	165	219
1457	237	173	223
1458	231	173	219
1459	222	170	212
1460	222	176	213
1461	221	177	213
1462	220	176	211
1463	228	184	216
1464	230	185	215
1465	235	193	215
1466	238	200	213
1467	236	200	209
1468	234	203	212
1469	0	0	0
1470	0	0	0
1471	0	0	0
1472	0	0	0
1473	0	0	0
1474	0	0	0
1475	0	0	0
1476	0	0	0
1477	0	0	0
1478	0	0	0
1479	0	0	0
1480	0	0	0
1481	0	0	0
1482	0	0	0
1483	0	0	0
1484	246	204	233
1485	246	194	230
1486	246	186	227
1487	240	174	219
1488	242	177	222
1489	244	180	225
1490	242	178	224
1491	244	179	227
1492	244	176	226
1493	235	166	218
1494	231	168	217
1495	225	168	213
1496	224	175	214
1497	226	182	217
1498	226	182	216
1499	226	181	216
1500	234	188	220
1501	235	189	216
1502	242	199	217
1503	244	206	214
1504	242	209	212
1505	240	212	215
1506	0	0	0
1507	0	0	0
1508	0	0	0
1509	0	0	0
1510	0	0	0
1511	0	0	0
1512	0	0	0
1513	0	0	0
1514	0	0	0
1515	0	0	0
1516	0	0	0
1517	0	0	0
1518	0	0	0
1519	0	0	0
1520	0	0	0
1521	0	0	0
1522	242	201	230
1523	243	193	227
1524	245	187	225
1525	255	195	233
1526	251	187	229
1527	246	184	226
1528	245	184	228
1529	242	179	226
1530	234	172	219
1531	228	173	217
1532	228	179	217
1533	236	190	224
1534	229	180	217
1535	226	179	215
1536	234	188	221
1537	244	196	225
1538	240	189	216
1539	248	200	218
1540	244	199	210
1541	239	200	206
1542	243	214	214
1543	0	0	0
1544	0	0	0
1545	0	0	0
1546	0	0	0
1547	0	0	0
1548	0	0	0
1549	0	0	0
1550	0	0	0
1551	0	0	0
1552	0	0	0
1553	0	0	0
1554	0	0	0
1555	0	0	0
1556	0	0	0
1557	0	0	0
1558	0	0	0
1559	0	0	0
1560	243	203	228
1561	247	199	227
1562	254	198	231
1563	251	190	227
1564	244	187	226
1565	242	186	226
1566	241	184	226
1567	234	178	221
1568	231	183	221
1569	233	189	222
1570	235	185	221
1571	229	177	217
1572	234	186	222
1573	239	193	222
1574	238	188	216
1575	235	182	210
1576	242	190	213
1577	239	190	207
1578	244	205	211
1579	245	216	215
1580	0	0	0
1581	0	0	0
1582	0	0	0
1583	0	0	0
1584	0	0	0
1585	0	0	0
1586	0	0	0
1587	0	0	0
1588	0	0	0
1589	0	0	0
1590	0	0	0
1591	0	0	0
1592	0	0	0
1593	0	0	0
1594	0	0	0
1595	0	0	0
1596	0	0	0
1597	0	0	0
1598	245	205	228
1599	252	204	231
1600	245	192	225
1601	239	189	223
1602	240	192	226
1603	240	191	226
1604	239	190	225
1605	240	196	228
1606	238	193	224
1607	239	189	223
1608	235	182	221
1609	240	191	226
1610	236	190	220
1611	229	182	210
1612	235	189	214
1613	244	199	218
1614	241	196	212
1615	249	212	218
1616	0	0	0
1617	0	0	0
1618	0	0	0
1619	0	0	0
1620	0	0	0
1621	0	0	0
1622	0	0	0
1623	0	0	0
1624	0	0	0
1625	0	0	0
1626	0	0	0
1627	0	0	0
1628	0	0	0
1629	0	0	0
1630	0	0	0
1631	0	0	0
1632	0	0	0
1633	0	0	0
1634	242	213	227
1635	248	215	233
1636	247	206	230
1637	240	194	224
1638	237	196	225
1639	239	199	226
1640	243	202	229
1641	243	201	229
1642	239	197	226
1643	239	195	224
1644	241	191	223
1645	236	184	218
1646	236	187	220
1647	234	187	219
1648	237	194	221
1649	241	201	222
1650	246	204	221
1651	243	201	216
1652	248	212	219
1653	0	0	0
1654	0	0	0
1655	0	0	0
1656	0	0	0
1657	0	0	0
1658	0	0	0
1659	0	0	0
1660	0	0	0
1661	0	0	0
1662	0	0	0
1663	0	0	0
1664	0	0	0
1665	0	0	0
1666	0	0	0
1667	0	0	0
1668	0	0	0
1669	0	0	0
1670	0	0	0
1671	0	0	0
1672	243	215	230
1673	238	203	225
1674	237	202	226
1675	237	205	228
1676	236	203	226
1677	242	207	229
1678	238	198	224
1679	236	195	222
1680	238	196	224
1681	239	192	223
1682	238	189	220
1683	239	193	223
1684	237	191	222
1685	243	201	227
1686	241	197	220
1687	241	198	217
1688	239	197	213
1689	0	0	0
1690	0	0	0
1691	0	0	0
1692	0	0	0
1693	0	0	0
1694	0	0	0
1695	0	0	0
1696	0	0	0
1697	0	0	0
1698	0	0	0
1699	0	0	0
1700	0	0	0
1701	0	0	0
1702	0	0	0
1703	0	0	0
1704	0	0	0
1705	0	0	0
1706	0	0	0
1707	0	0	0
1708	0	0	0
1709	0	0	0
1710	247	218	234
1711	246	217	235
1712	241	214	232
1713	240	212	231
1714	240	206	229
1715	237	198	224
1716	237	198	224
1717	239	198	226
1718	241	198	226
1719	240	194	224
1720	239	195	224
1721	238	193	222
1722	240	195	222
1723	238	192	216
1724	239	195	215
1725	236	193	211
1726	0	0	0
1727	0	0	0
1728	0	0	0
1729	0	0	0
1730	0	0	0
1731	0	0	0
1732	0	0	0
1733	0	0	0
1734	0	0	0
1735	0	0	0
1736	0	0	0
1737	0	0	0
1738	0	0	0
1739	0	0	0
1740	0	0	0
1741	0	0	0
1742	0	0	0
1743	0	0	0
1744	0	0	0
1745	0	0	0
1746	0	0	0
1747	0	0	0
1748	245	213	230
1749	237	208	227
1750	239	210	229
1751	239	204	227
1752	238	200	225
1753	237	199	225
1754	242	204	229
1755	242	203	229
1756	240	198	225
1757	241	199	226
1758	243	200	226
1759	247	202	225
1760	244	199	220
1761	245	201	220
1762	240	199	215
1763	0	0	0
1764	0	0	0
1765	0	0	0
1766	0	0	0
1767	0	0	0
1768	0	0	0
1769	0	0	0
1770	0	0	0
1771	0	0	0
1772	0	0	0
1773	0	0	0
1774	0	0	0
1775	0	0	0
1776	0	0	0
1777	0	0	0
1778	0	0	0
1779	0	0	0
1780	0	0	0
1781	0	0	0
1782	0	0	0
1783	0	0	0
1784	0	0	0
1785	0	0	0
1786	238	207	224
1787	239	209	227
1788	240	206	227
1789	239	201	225
1790	242	206	229
1791	244	211	232
1792	239	204	228
1793	236	199	224
1794	241	202	227
1795	244	204	226
1796	248	205	226
1797	246	202	221
1798	247	205	221
1799	0	0	0
1800	0	0	0
1801	0	0	0
1802	0	0	0
1803	0	0	0
1804	0	0	0
1805	0	0	0
1806	0	0	0
1807	0	0	0
1808	0	0	0
1809	0	0	0
1810	0	0	0
1811	0	0	0
1812	0	0	0
1813	0	0	0
1814	0	0	0
1815	0	0	0
1816	0	0	0
1817	0	0	0
1818	0	0	0
1819	0	0	0
1820	0	0	0
1821	0	0	0
1822	0	0	0
1823	0	0	0
1824	0	0	0
1825	0	0	0
1826	244	210	229
1827	247	215	233
1828	238	206	227
1829	226	196	218
1830	232	205	225
1831	241	210	230
1832	239	202	223
1833	243	203	223
1834	241	199	218
1835	0	0	0
1836	0	0	0
1837	0	0	0
1838	0	0	0
1839	0	0	0
1840	0	0	0
1841	0	0	0
1842	0	0	0
1843	0	0	0
1844	0	0	0
1845	0	0	0
1846	0	0	0
1847	0	0	0
1848	0	0	0
1849	0	0	0
1850	0	0	0
1851	0	0	0
1852	0	0	0
1853	0	0	0
1854	0	0	0
1855	0	0	0
1856	0	0	0
1857	0	0	0
1858	0	0	0
1859	0	0	0
1860	0	0	0
1861	0	0	0
1862	0	0	0
1863	0	0	0
1864	241	210	226
1865	231	201	220
1866	0	0	0
1867	0	0	0
1868	237	209	226
1869	236	200	220
1870	238	200	221
1871	0	0	0
1872	0	0	0
1873	0	0	0
1874	0	0	0
1875	0	0	0
1876	0	0	0
1877	0	0	0
1878	0	0	0
1879	0	0	0
1880	0	0	0
1881	0	0	0
1882	0	0	0
1883	0	0	0
1884	0	0	0
1885	0	0	0
1886	0	0	0
1887	0	0	0
