 	R	G	B
1	0	0	0
2	0	0	0
3	0	0	0
4	0	0	0
5	0	0	0
6	0	0	0
7	0	0	0
8	246	211	225
9	244	210	223
10	0	0	0
11	0	0	0
12	0	0	0
13	0	0	0
14	0	0	0
15	0	0	0
16	0	0	0
17	0	0	0
18	0	0	0
19	0	0	0
20	0	0	0
21	0	0	0
22	0	0	0
23	0	0	0
24	0	0	0
25	0	0	0
26	0	0	0
27	0	0	0
28	0	0	0
29	0	0	0
30	0	0	0
31	0	0	0
32	0	0	0
33	0	0	0
34	0	0	0
35	0	0	0
36	0	0	0
37	0	0	0
38	0	0	0
39	0	0	0
40	0	0	0
41	0	0	0
42	0	0	0
43	0	0	0
44	0	0	0
45	0	0	0
46	0	0	0
47	0	0	0
48	0	0	0
49	0	0	0
50	0	0	0
51	0	0	0
52	0	0	0
53	0	0	0
54	0	0	0
55	0	0	0
56	0	0	0
57	248	212	232
58	244	204	228
59	248	208	229
60	245	205	223
61	240	202	219
62	244	206	224
63	0	0	0
64	0	0	0
65	0	0	0
66	0	0	0
67	0	0	0
68	0	0	0
69	0	0	0
70	0	0	0
71	0	0	0
72	0	0	0
73	0	0	0
74	0	0	0
75	0	0	0
76	0	0	0
77	0	0	0
78	0	0	0
79	0	0	0
80	0	0	0
81	0	0	0
82	0	0	0
83	0	0	0
84	0	0	0
85	0	0	0
86	0	0	0
87	0	0	0
88	0	0	0
89	0	0	0
90	0	0	0
91	0	0	0
92	0	0	0
93	0	0	0
94	0	0	0
95	0	0	0
96	0	0	0
97	0	0	0
98	0	0	0
99	0	0	0
100	0	0	0
101	0	0	0
102	0	0	0
103	0	0	0
104	0	0	0
105	0	0	0
106	0	0	0
107	0	0	0
108	238	204	228
109	240	203	229
110	237	195	223
111	242	199	225
112	241	198	223
113	242	201	224
114	244	203	225
115	244	201	222
116	0	0	0
117	0	0	0
118	0	0	0
119	0	0	0
120	0	0	0
121	0	0	0
122	0	0	0
123	0	0	0
124	0	0	0
125	0	0	0
126	0	0	0
127	0	0	0
128	0	0	0
129	0	0	0
130	0	0	0
131	0	0	0
132	0	0	0
133	0	0	0
134	0	0	0
135	0	0	0
136	0	0	0
137	0	0	0
138	0	0	0
139	0	0	0
140	0	0	0
141	0	0	0
142	0	0	0
143	0	0	0
144	0	0	0
145	0	0	0
146	0	0	0
147	0	0	0
148	0	0	0
149	0	0	0
150	0	0	0
151	0	0	0
152	0	0	0
153	0	0	0
154	0	0	0
155	0	0	0
156	0	0	0
157	0	0	0
158	0	0	0
159	0	0	0
160	235	205	229
161	235	203	229
162	233	196	223
163	240	201	227
164	241	199	227
165	248	205	231
166	243	200	224
167	234	193	215
168	0	0	0
169	0	0	0
170	0	0	0
171	0	0	0
172	0	0	0
173	0	0	0
174	0	0	0
175	0	0	0
176	0	0	0
177	0	0	0
178	0	0	0
179	0	0	0
180	0	0	0
181	0	0	0
182	0	0	0
183	0	0	0
184	0	0	0
185	0	0	0
186	0	0	0
187	0	0	0
188	0	0	0
189	0	0	0
190	0	0	0
191	0	0	0
192	0	0	0
193	0	0	0
194	0	0	0
195	0	0	0
196	0	0	0
197	0	0	0
198	0	0	0
199	0	0	0
200	0	0	0
201	0	0	0
202	0	0	0
203	0	0	0
204	0	0	0
205	0	0	0
206	0	0	0
207	0	0	0
208	0	0	0
209	0	0	0
210	0	0	0
211	0	0	0
212	233	204	227
213	232	202	227
214	229	195	222
215	231	196	223
216	233	195	222
217	238	197	223
218	235	192	216
219	0	0	0
220	0	0	0
221	0	0	0
222	0	0	0
223	0	0	0
224	0	0	0
225	0	0	0
226	0	0	0
227	0	0	0
228	0	0	0
229	0	0	0
230	0	0	0
231	0	0	0
232	0	0	0
233	0	0	0
234	0	0	0
235	0	0	0
236	0	0	0
237	0	0	0
238	0	0	0
239	0	0	0
240	0	0	0
241	0	0	0
242	0	0	0
243	0	0	0
244	0	0	0
245	0	0	0
246	0	0	0
247	0	0	0
248	0	0	0
249	0	0	0
250	0	0	0
251	0	0	0
252	0	0	0
253	0	0	0
254	0	0	0
255	0	0	0
256	0	0	0
257	0	0	0
258	0	0	0
259	0	0	0
260	0	0	0
261	0	0	0
262	0	0	0
263	241	219	237
264	235	207	230
265	232	204	229
266	223	191	220
267	221	190	219
268	225	195	221
269	228	195	220
270	231	195	219
271	242	208	226
272	0	0	0
273	0	0	0
274	0	0	0
275	0	0	0
276	0	0	0
277	0	0	0
278	0	0	0
279	0	0	0
280	0	0	0
281	0	0	0
282	0	0	0
283	0	0	0
284	0	0	0
285	0	0	0
286	0	0	0
287	0	0	0
288	0	0	0
289	0	0	0
290	0	0	0
291	0	0	0
292	0	0	0
293	0	0	0
294	0	0	0
295	0	0	0
296	0	0	0
297	0	0	0
298	0	0	0
299	0	0	0
300	0	0	0
301	0	0	0
302	0	0	0
303	0	0	0
304	0	0	0
305	0	0	0
306	0	0	0
307	0	0	0
308	0	0	0
309	0	0	0
310	0	0	0
311	0	0	0
312	0	0	0
313	0	0	0
314	237	225	238
315	237	217	236
316	231	205	229
317	226	198	227
318	217	187	221
319	222	195	226
320	223	198	225
321	223	197	222
322	227	199	224
323	235	199	225
324	0	0	0
325	0	0	0
326	231	194	214
327	241	204	220
328	0	0	0
329	0	0	0
330	0	0	0
331	0	0	0
332	0	0	0
333	0	0	0
334	0	0	0
335	0	0	0
336	0	0	0
337	0	0	0
338	0	0	0
339	0	0	0
340	0	0	0
341	0	0	0
342	0	0	0
343	0	0	0
344	0	0	0
345	0	0	0
346	0	0	0
347	0	0	0
348	0	0	0
349	0	0	0
350	0	0	0
351	0	0	0
352	0	0	0
353	0	0	0
354	0	0	0
355	0	0	0
356	0	0	0
357	0	0	0
358	0	0	0
359	0	0	0
360	0	0	0
361	0	0	0
362	0	0	0
363	0	0	0
364	0	0	0
365	0	0	0
366	238	228	240
367	232	217	236
368	226	207	230
369	226	203	230
370	220	194	227
371	229	204	234
372	222	197	226
373	217	194	221
374	224	201	227
375	232	202	228
376	227	191	218
377	229	194	218
378	226	188	213
379	238	198	219
380	237	200	216
381	0	0	0
382	0	0	0
383	0	0	0
384	0	0	0
385	0	0	0
386	0	0	0
387	0	0	0
388	0	0	0
389	0	0	0
390	0	0	0
391	0	0	0
392	0	0	0
393	0	0	0
394	0	0	0
395	0	0	0
396	0	0	0
397	0	0	0
398	0	0	0
399	0	0	0
400	0	0	0
401	0	0	0
402	0	0	0
403	0	0	0
404	0	0	0
405	0	0	0
406	0	0	0
407	0	0	0
408	0	0	0
409	0	0	0
410	0	0	0
411	0	0	0
412	0	0	0
413	0	0	0
414	0	0	0
415	0	0	0
416	0	0	0
417	0	0	0
418	238	231	241
419	231	220	236
420	225	210	231
421	224	205	231
422	219	196	227
423	223	199	230
424	217	193	223
425	214	196	223
426	220	203	228
427	223	197	225
428	218	186	217
429	216	183	213
430	214	177	210
431	228	190	218
432	229	193	215
433	233	205	218
434	241	218	224
435	246	222	226
436	0	0	0
437	0	0	0
438	0	0	0
439	0	0	0
440	0	0	0
441	0	0	0
442	0	0	0
443	0	0	0
444	0	0	0
445	0	0	0
446	0	0	0
447	0	0	0
448	0	0	0
449	0	0	0
450	0	0	0
451	0	0	0
452	0	0	0
453	0	0	0
454	0	0	0
455	0	0	0
456	0	0	0
457	0	0	0
458	0	0	0
459	0	0	0
460	0	0	0
461	0	0	0
462	0	0	0
463	0	0	0
464	0	0	0
465	0	0	0
466	0	0	0
467	0	0	0
468	0	0	0
469	0	0	0
470	239	233	242
471	233	223	238
472	226	213	233
473	222	207	232
474	214	195	226
475	216	198	229
476	212	194	225
477	213	199	226
478	213	197	225
479	213	191	222
480	204	176	212
481	200	172	208
482	209	183	216
483	224	196	224
484	225	195	219
485	236	210	225
486	236	210	221
487	236	211	219
488	239	218	221
489	0	0	0
490	0	0	0
491	0	0	0
492	0	0	0
493	0	0	0
494	0	0	0
495	0	0	0
496	0	0	0
497	0	0	0
498	0	0	0
499	0	0	0
500	0	0	0
501	0	0	0
502	0	0	0
503	0	0	0
504	0	0	0
505	0	0	0
506	0	0	0
507	0	0	0
508	0	0	0
509	0	0	0
510	0	0	0
511	0	0	0
512	0	0	0
513	0	0	0
514	0	0	0
515	0	0	0
516	0	0	0
517	0	0	0
518	0	0	0
519	0	0	0
520	0	0	0
521	0	0	0
522	240	236	244
523	233	225	239
524	225	214	233
525	218	205	230
526	210	195	226
527	212	198	231
528	210	196	228
529	209	196	227
530	208	193	223
531	201	180	216
532	192	166	209
533	200	179	218
534	209	190	222
535	218	194	223
536	221	194	220
537	228	199	221
538	228	199	215
539	232	206	217
540	0	0	0
541	0	0	0
542	0	0	0
543	0	0	0
544	0	0	0
545	0	0	0
546	0	0	0
547	0	0	0
548	0	0	0
549	0	0	0
550	0	0	0
551	0	0	0
552	0	0	0
553	0	0	0
554	0	0	0
555	0	0	0
556	0	0	0
557	0	0	0
558	0	0	0
559	0	0	0
560	0	0	0
561	0	0	0
562	0	0	0
563	0	0	0
564	0	0	0
565	0	0	0
566	0	0	0
567	0	0	0
568	0	0	0
569	0	0	0
570	0	0	0
571	0	0	0
572	0	0	0
573	0	0	0
574	241	239	245
575	233	228	240
576	223	215	233
577	216	207	230
578	213	202	230
579	215	207	236
580	209	196	230
581	212	198	232
582	201	182	220
583	190	168	211
584	197	178	220
585	206	193	230
586	205	187	223
587	213	191	223
588	220	195	223
589	228	200	224
590	225	195	216
591	228	202	217
592	236	215	222
593	0	0	0
594	0	0	0
595	0	0	0
596	0	0	0
597	0	0	0
598	0	0	0
599	0	0	0
600	0	0	0
601	0	0	0
602	0	0	0
603	0	0	0
604	0	0	0
605	0	0	0
606	0	0	0
607	0	0	0
608	0	0	0
609	0	0	0
610	0	0	0
611	0	0	0
612	0	0	0
613	0	0	0
614	0	0	0
615	0	0	0
616	0	0	0
617	0	0	0
618	0	0	0
619	0	0	0
620	0	0	0
621	0	0	0
622	0	0	0
623	0	0	0
624	0	0	0
625	0	0	0
626	243	242	245
627	231	228	238
628	222	216	233
629	220	214	234
630	215	209	231
631	208	200	228
632	202	191	226
633	197	182	224
634	188	168	216
635	197	182	226
636	203	190	230
637	201	188	227
638	200	183	223
639	210	190	225
640	216	193	222
641	218	192	218
642	216	188	213
643	227	204	221
644	235	216	224
645	240	223	224
646	0	0	0
647	0	0	0
648	0	0	0
649	0	0	0
650	0	0	0
651	0	0	0
652	0	0	0
653	0	0	0
654	0	0	0
655	0	0	0
656	0	0	0
657	0	0	0
658	0	0	0
659	0	0	0
660	0	0	0
661	0	0	0
662	0	0	0
663	0	0	0
664	0	0	0
665	0	0	0
666	0	0	0
667	0	0	0
668	0	0	0
669	0	0	0
670	0	0	0
671	0	0	0
672	0	0	0
673	0	0	0
674	0	0	0
675	0	0	0
676	0	0	0
677	0	0	0
678	241	239	242
679	228	224	234
680	224	221	235
681	223	220	238
682	208	201	227
683	200	193	224
684	200	194	229
685	191	183	225
686	188	177	224
687	204	194	238
688	197	183	227
689	195	180	222
690	200	184	224
691	206	190	225
692	206	186	218
693	206	184	213
694	213	192	217
695	228	210	226
696	228	209	220
697	235	217	221
698	239	223	222
699	0	0	0
700	0	0	0
701	0	0	0
702	0	0	0
703	0	0	0
704	0	0	0
705	0	0	0
706	0	0	0
707	0	0	0
708	0	0	0
709	0	0	0
710	0	0	0
711	0	0	0
712	0	0	0
713	0	0	0
714	0	0	0
715	0	0	0
716	0	0	0
717	0	0	0
718	0	0	0
719	0	0	0
720	0	0	0
721	0	0	0
722	0	0	0
723	0	0	0
724	0	0	0
725	0	0	0
726	0	0	0
727	0	0	0
728	0	0	0
729	244	240	242
730	240	237	242
731	230	228	236
732	226	224	235
733	214	209	229
734	202	193	225
735	203	198	233
736	200	197	234
737	191	190	229
738	188	184	227
739	190	181	227
740	185	170	219
741	192	178	222
742	196	181	220
743	197	181	218
744	197	179	217
745	208	191	222
746	215	197	220
747	222	203	220
748	225	204	218
749	232	211	219
750	234	216	218
751	0	0	0
752	0	0	0
753	0	0	0
754	0	0	0
755	0	0	0
756	0	0	0
757	0	0	0
758	0	0	0
759	0	0	0
760	0	0	0
761	0	0	0
762	0	0	0
763	0	0	0
764	0	0	0
765	0	0	0
766	0	0	0
767	0	0	0
768	0	0	0
769	0	0	0
770	0	0	0
771	0	0	0
772	0	0	0
773	0	0	0
774	0	0	0
775	0	0	0
776	0	0	0
777	0	0	0
778	0	0	0
779	0	0	0
780	0	0	0
781	0	0	0
782	246	245	246
783	235	235	240
784	230	231	238
785	218	216	233
786	207	202	233
787	209	207	242
788	197	195	233
789	188	188	228
790	189	189	231
791	189	185	230
792	187	179	225
793	196	188	229
794	191	179	219
795	192	179	217
796	198	183	222
797	212	196	229
798	212	192	219
799	221	198	219
800	223	198	217
801	227	203	217
802	230	209	216
803	0	0	0
804	0	0	0
805	0	0	0
806	0	0	0
807	0	0	0
808	0	0	0
809	0	0	0
810	0	0	0
811	0	0	0
812	0	0	0
813	0	0	0
814	0	0	0
815	0	0	0
816	0	0	0
817	0	0	0
818	0	0	0
819	0	0	0
820	0	0	0
821	0	0	0
822	0	0	0
823	0	0	0
824	0	0	0
825	0	0	0
826	0	0	0
827	0	0	0
828	0	0	0
829	0	0	0
830	0	0	0
831	0	0	0
832	0	0	0
833	0	0	0
834	0	0	0
835	243	244	246
836	237	239	244
837	221	221	236
838	208	207	235
839	204	202	237
840	193	191	230
841	191	192	233
842	191	194	236
843	190	190	234
844	188	184	228
845	192	184	227
846	188	177	220
847	194	183	223
848	198	186	225
849	203	186	222
850	204	183	215
851	212	186	215
852	214	186	213
853	221	195	216
854	225	203	215
855	0	0	0
856	0	0	0
857	0	0	0
858	0	0	0
859	0	0	0
860	0	0	0
861	0	0	0
862	0	0	0
863	0	0	0
864	0	0	0
865	0	0	0
866	0	0	0
867	0	0	0
868	0	0	0
869	0	0	0
870	0	0	0
871	0	0	0
872	0	0	0
873	0	0	0
874	0	0	0
875	0	0	0
876	0	0	0
877	0	0	0
878	0	0	0
879	0	0	0
880	0	0	0
881	0	0	0
882	0	0	0
883	0	0	0
884	0	0	0
885	0	0	0
886	0	0	0
887	244	242	245
888	234	232	240
889	212	212	229
890	206	208	234
891	205	205	237
892	199	199	235
893	198	202	239
894	190	192	235
895	187	188	232
896	189	187	230
897	195	189	232
898	186	172	221
899	191	178	224
900	194	181	224
901	195	180	220
902	200	182	216
903	206	185	216
904	210	186	215
905	220	198	220
906	227	206	221
907	239	220	228
908	0	0	0
909	0	0	0
910	0	0	0
911	0	0	0
912	0	0	0
913	0	0	0
914	0	0	0
915	0	0	0
916	0	0	0
917	0	0	0
918	0	0	0
919	0	0	0
920	0	0	0
921	0	0	0
922	0	0	0
923	0	0	0
924	0	0	0
925	0	0	0
926	0	0	0
927	0	0	0
928	0	0	0
929	0	0	0
930	0	0	0
931	0	0	0
932	0	0	0
933	0	0	0
934	0	0	0
935	0	0	0
936	0	0	0
937	0	0	0
938	0	0	0
939	0	0	0
940	230	226	238
941	215	216	233
942	209	213	236
943	209	212	240
944	204	206	238
945	199	200	237
946	191	191	234
947	191	192	236
948	191	190	232
949	187	178	224
950	179	164	217
951	186	172	223
952	188	174	222
953	193	179	222
954	197	181	218
955	204	185	218
956	208	187	217
957	218	198	222
958	226	206	223
959	231	208	221
960	234	209	219
961	0	0	0
962	0	0	0
963	0	0	0
964	0	0	0
965	0	0	0
966	0	0	0
967	0	0	0
968	0	0	0
969	0	0	0
970	0	0	0
971	0	0	0
972	0	0	0
973	0	0	0
974	0	0	0
975	0	0	0
976	0	0	0
977	0	0	0
978	0	0	0
979	0	0	0
980	0	0	0
981	0	0	0
982	0	0	0
983	0	0	0
984	0	0	0
985	0	0	0
986	0	0	0
987	0	0	0
988	0	0	0
989	0	0	0
990	0	0	0
991	0	0	0
992	0	0	0
993	0	0	0
994	217	221	239
995	214	219	241
996	202	202	234
997	200	198	236
998	196	194	237
999	195	194	239
1000	185	180	227
1001	177	167	217
1002	188	180	229
1003	196	189	235
1004	187	174	223
1005	192	179	223
1006	199	184	222
1007	209	190	223
1008	210	187	219
1009	216	196	221
1010	222	203	221
1011	228	206	220
1012	228	203	217
1013	0	0	0
1014	0	0	0
1015	0	0	0
1016	0	0	0
1017	0	0	0
1018	0	0	0
1019	0	0	0
1020	0	0	0
1021	0	0	0
1022	0	0	0
1023	0	0	0
1024	0	0	0
1025	0	0	0
1026	0	0	0
1027	0	0	0
1028	0	0	0
1029	0	0	0
1030	0	0	0
1031	0	0	0
1032	0	0	0
1033	0	0	0
1034	0	0	0
1035	0	0	0
1036	0	0	0
1037	0	0	0
1038	0	0	0
1039	0	0	0
1040	0	0	0
1041	0	0	0
1042	0	0	0
1043	0	0	0
1044	0	0	0
1045	0	0	0
1046	225	229	240
1047	213	214	235
1048	202	199	232
1049	203	198	237
1050	199	194	237
1051	192	185	233
1052	182	172	226
1053	191	185	234
1054	199	196	238
1055	193	185	229
1056	185	171	220
1057	196	182	226
1058	204	188	225
1059	211	190	224
1060	212	188	220
1061	218	196	221
1062	224	203	221
1063	228	203	219
1064	228	201	220
1065	0	0	0
1066	0	0	0
1067	0	0	0
1068	0	0	0
1069	0	0	0
1070	0	0	0
1071	0	0	0
1072	0	0	0
1073	0	0	0
1074	0	0	0
1075	0	0	0
1076	0	0	0
1077	0	0	0
1078	0	0	0
1079	0	0	0
1080	0	0	0
1081	0	0	0
1082	0	0	0
1083	0	0	0
1084	0	0	0
1085	0	0	0
1086	0	0	0
1087	0	0	0
1088	0	0	0
1089	0	0	0
1090	0	0	0
1091	0	0	0
1092	0	0	0
1093	0	0	0
1094	0	0	0
1095	0	0	0
1096	0	0	0
1097	0	0	0
1098	225	225	236
1099	214	210	231
1100	209	204	234
1101	209	203	239
1102	207	200	240
1103	201	192	237
1104	190	177	231
1105	197	190	239
1106	195	188	232
1107	188	176	223
1108	185	166	220
1109	199	180	229
1110	202	179	224
1111	205	180	221
1112	210	182	220
1113	222	193	223
1114	228	199	220
1115	229	197	218
1116	235	203	225
1117	245	217	233
1118	0	0	0
1119	0	0	0
1120	0	0	0
1121	0	0	0
1122	0	0	0
1123	0	0	0
1124	0	0	0
1125	0	0	0
1126	0	0	0
1127	0	0	0
1128	0	0	0
1129	0	0	0
1130	0	0	0
1131	0	0	0
1132	0	0	0
1133	0	0	0
1134	0	0	0
1135	0	0	0
1136	0	0	0
1137	0	0	0
1138	0	0	0
1139	0	0	0
1140	0	0	0
1141	0	0	0
1142	0	0	0
1143	0	0	0
1144	0	0	0
1145	0	0	0
1146	0	0	0
1147	0	0	0
1148	0	0	0
1149	0	0	0
1150	225	222	236
1151	219	215	236
1152	214	207	236
1153	214	207	239
1154	212	204	237
1155	202	191	231
1156	192	178	228
1157	193	180	232
1158	191	179	229
1159	186	170	223
1160	182	160	220
1161	194	169	227
1162	198	169	225
1163	202	173	225
1164	206	175	221
1165	216	184	222
1166	222	188	216
1167	228	193	216
1168	233	199	222
1169	237	205	224
1170	0	0	0
1171	0	0	0
1172	0	0	0
1173	0	0	0
1174	0	0	0
1175	0	0	0
1176	0	0	0
1177	0	0	0
1178	0	0	0
1179	0	0	0
1180	0	0	0
1181	0	0	0
1182	0	0	0
1183	0	0	0
1184	0	0	0
1185	0	0	0
1186	0	0	0
1187	0	0	0
1188	0	0	0
1189	0	0	0
1190	0	0	0
1191	0	0	0
1192	0	0	0
1193	0	0	0
1194	0	0	0
1195	0	0	0
1196	0	0	0
1197	0	0	0
1198	0	0	0
1199	0	0	0
1200	0	0	0
1201	0	0	0
1202	228	226	238
1203	222	219	238
1204	212	204	232
1205	214	205	236
1206	207	197	231
1207	196	183	224
1208	200	187	233
1209	205	192	240
1210	199	184	234
1211	191	174	228
1212	191	170	228
1213	203	179	236
1214	205	177	233
1215	208	181	233
1216	206	178	225
1217	213	185	223
1218	219	190	218
1219	226	196	218
1220	227	194	217
1221	231	200	218
1222	0	0	0
1223	0	0	0
1224	0	0	0
1225	0	0	0
1226	0	0	0
1227	0	0	0
1228	0	0	0
1229	0	0	0
1230	0	0	0
1231	0	0	0
1232	0	0	0
1233	0	0	0
1234	0	0	0
1235	0	0	0
1236	0	0	0
1237	0	0	0
1238	0	0	0
1239	0	0	0
1240	0	0	0
1241	0	0	0
1242	0	0	0
1243	0	0	0
1244	0	0	0
1245	0	0	0
1246	0	0	0
1247	0	0	0
1248	0	0	0
1249	0	0	0
1250	0	0	0
1251	0	0	0
1252	0	0	0
1253	0	0	0
1254	0	0	0
1255	220	215	232
1256	211	201	229
1257	211	198	233
1258	205	190	231
1259	205	193	235
1260	208	196	240
1261	206	192	238
1262	201	184	234
1263	197	180	232
1264	197	176	229
1265	206	181	233
1266	208	180	231
1267	207	179	228
1268	206	177	222
1269	214	186	224
1270	221	192	222
1271	228	195	220
1272	228	193	216
1273	231	199	217
1274	0	0	0
1275	0	0	0
1276	0	0	0
1277	0	0	0
1278	0	0	0
1279	0	0	0
1280	0	0	0
1281	0	0	0
1282	0	0	0
1283	0	0	0
1284	0	0	0
1285	0	0	0
1286	0	0	0
1287	0	0	0
1288	0	0	0
1289	0	0	0
1290	0	0	0
1291	0	0	0
1292	0	0	0
1293	0	0	0
1294	0	0	0
1295	0	0	0
1296	0	0	0
1297	0	0	0
1298	0	0	0
1299	0	0	0
1300	0	0	0
1301	0	0	0
1302	0	0	0
1303	0	0	0
1304	0	0	0
1305	0	0	0
1306	0	0	0
1307	0	0	0
1308	221	213	235
1309	221	209	239
1310	214	200	237
1311	214	202	241
1312	208	195	237
1313	203	188	233
1314	205	189	235
1315	205	187	235
1316	200	176	228
1317	208	181	232
1318	211	180	230
1319	211	181	227
1320	214	183	225
1321	223	193	228
1322	224	189	222
1323	233	194	222
1324	231	189	215
1325	0	0	0
1326	0	0	0
1327	0	0	0
1328	0	0	0
1329	0	0	0
1330	0	0	0
1331	0	0	0
1332	0	0	0
1333	0	0	0
1334	0	0	0
1335	0	0	0
1336	0	0	0
1337	0	0	0
1338	0	0	0
1339	0	0	0
1340	0	0	0
1341	0	0	0
1342	0	0	0
1343	0	0	0
1344	0	0	0
1345	0	0	0
1346	0	0	0
1347	0	0	0
1348	0	0	0
1349	0	0	0
1350	0	0	0
1351	0	0	0
1352	0	0	0
1353	0	0	0
1354	0	0	0
1355	0	0	0
1356	0	0	0
1357	0	0	0
1358	0	0	0
1359	0	0	0
1360	228	222	237
1361	223	213	235
1362	217	204	234
1363	214	200	236
1364	209	193	233
1365	211	195	236
1366	212	196	236
1367	207	186	231
1368	203	176	229
1369	212	182	235
1370	213	181	231
1371	217	186	230
1372	220	188	227
1373	218	184	221
1374	220	181	216
1375	231	185	218
1376	230	182	213
1377	237	195	219
1378	0	0	0
1379	248	211	224
1380	0	0	0
1381	0	0	0
1382	0	0	0
1383	0	0	0
1384	0	0	0
1385	0	0	0
1386	0	0	0
1387	0	0	0
1388	0	0	0
1389	0	0	0
1390	0	0	0
1391	0	0	0
1392	0	0	0
1393	0	0	0
1394	0	0	0
1395	0	0	0
1396	0	0	0
1397	0	0	0
1398	0	0	0
1399	0	0	0
1400	0	0	0
1401	0	0	0
1402	0	0	0
1403	0	0	0
1404	0	0	0
1405	0	0	0
1406	0	0	0
1407	0	0	0
1408	0	0	0
1409	0	0	0
1410	0	0	0
1411	0	0	0
1412	229	225	235
1413	223	215	232
1414	216	203	230
1415	217	201	234
1416	215	196	234
1417	217	198	237
1418	215	194	234
1419	208	183	229
1420	207	179	231
1421	215	184	237
1422	216	182	232
1423	222	188	232
1424	217	180	222
1425	213	175	215
1426	221	182	218
1427	232	187	221
1428	232	183	217
1429	242	197	225
1430	242	196	221
1431	251	204	224
1432	244	197	215
1433	0	0	0
1434	0	0	0
1435	0	0	0
1436	0	0	0
1437	0	0	0
1438	0	0	0
1439	0	0	0
1440	0	0	0
1441	0	0	0
1442	0	0	0
1443	0	0	0
1444	0	0	0
1445	0	0	0
1446	0	0	0
1447	0	0	0
1448	0	0	0
1449	0	0	0
1450	0	0	0
1451	0	0	0
1452	0	0	0
1453	0	0	0
1454	0	0	0
1455	0	0	0
1456	0	0	0
1457	0	0	0
1458	0	0	0
1459	0	0	0
1460	0	0	0
1461	0	0	0
1462	0	0	0
1463	0	0	0
1464	0	0	0
1465	224	215	232
1466	218	203	229
1467	220	202	233
1468	218	197	234
1469	219	195	236
1470	217	191	233
1471	212	185	231
1472	210	180	232
1473	215	183	235
1474	217	182	231
1475	221	180	228
1476	218	173	220
1477	220	178	220
1478	227	184	222
1479	234	185	222
1480	233	181	218
1481	230	180	215
1482	231	180	213
1483	240	184	215
1484	236	179	207
1485	247	201	218
1486	0	0	0
1487	0	0	0
1488	0	0	0
1489	0	0	0
1490	0	0	0
1491	0	0	0
1492	0	0	0
1493	0	0	0
1494	0	0	0
1495	0	0	0
1496	0	0	0
1497	0	0	0
1498	0	0	0
1499	0	0	0
1500	0	0	0
1501	0	0	0
1502	0	0	0
1503	0	0	0
1504	0	0	0
1505	0	0	0
1506	0	0	0
1507	0	0	0
1508	0	0	0
1509	0	0	0
1510	0	0	0
1511	0	0	0
1512	0	0	0
1513	0	0	0
1514	0	0	0
1515	0	0	0
1516	0	0	0
1517	0	0	0
1518	228	214	236
1519	228	212	238
1520	221	198	234
1521	223	197	236
1522	224	197	236
1523	218	190	233
1524	217	187	234
1525	221	189	238
1526	223	186	234
1527	232	187	235
1528	230	180	226
1529	234	185	227
1530	239	189	227
1531	242	189	226
1532	236	182	220
1533	228	179	215
1534	234	186	218
1535	245	192	222
1536	243	187	216
1537	255	210	228
1538	248	205	217
1539	0	0	0
1540	0	0	0
1541	0	0	0
1542	0	0	0
1543	0	0	0
1544	0	0	0
1545	0	0	0
1546	0	0	0
1547	0	0	0
1548	0	0	0
1549	0	0	0
1550	0	0	0
1551	0	0	0
1552	0	0	0
1553	0	0	0
1554	0	0	0
1555	0	0	0
1556	0	0	0
1557	0	0	0
1558	0	0	0
1559	0	0	0
1560	0	0	0
1561	0	0	0
1562	0	0	0
1563	0	0	0
1564	0	0	0
1565	0	0	0
1566	0	0	0
1567	0	0	0
1568	0	0	0
1569	0	0	0
1570	0	0	0
1571	229	211	235
1572	222	198	231
1573	227	201	236
1574	227	200	234
1575	223	195	232
1576	222	193	234
1577	222	190	234
1578	225	188	234
1579	235	187	233
1580	235	181	225
1581	242	186	227
1582	246	191	229
1583	245	188	226
1584	239	182	220
1585	237	186	220
1586	241	193	223
1587	245	193	222
1588	242	187	217
1589	243	190	216
1590	235	185	208
1591	0	0	0
1592	0	0	0
1593	0	0	0
1594	0	0	0
1595	0	0	0
1596	0	0	0
1597	0	0	0
1598	0	0	0
1599	0	0	0
1600	0	0	0
1601	0	0	0
1602	0	0	0
1603	0	0	0
1604	0	0	0
1605	0	0	0
1606	0	0	0
1607	0	0	0
1608	0	0	0
1609	0	0	0
1610	0	0	0
1611	0	0	0
1612	0	0	0
1613	0	0	0
1614	0	0	0
1615	0	0	0
1616	0	0	0
1617	0	0	0
1618	0	0	0
1619	0	0	0
1620	0	0	0
1621	0	0	0
1622	0	0	0
1623	0	0	0
1624	230	207	235
1625	232	208	238
1626	225	199	231
1627	224	196	231
1628	225	195	233
1629	225	192	233
1630	226	187	230
1631	234	186	230
1632	241	186	227
1633	253	195	231
1634	251	189	227
1635	247	185	223
1636	245	184	221
1637	249	192	225
1638	244	186	219
1639	239	182	214
1640	243	190	218
1641	242	192	217
1642	238	190	214
1643	252	213	226
1644	0	0	0
1645	0	0	0
1646	0	0	0
1647	0	0	0
1648	0	0	0
1649	0	0	0
1650	0	0	0
1651	0	0	0
1652	0	0	0
1653	0	0	0
1654	0	0	0
1655	0	0	0
1656	0	0	0
1657	0	0	0
1658	0	0	0
1659	0	0	0
1660	0	0	0
1661	0	0	0
1662	0	0	0
1663	0	0	0
1664	0	0	0
1665	0	0	0
1666	0	0	0
1667	0	0	0
1668	0	0	0
1669	0	0	0
1670	0	0	0
1671	0	0	0
1672	0	0	0
1673	0	0	0
1674	0	0	0
1675	0	0	0
1676	0	0	0
1677	231	207	234
1678	226	199	231
1679	229	201	235
1680	231	200	235
1681	228	193	231
1682	229	187	228
1683	240	192	231
1684	247	192	229
1685	251	190	227
1686	249	184	221
1687	250	185	221
1688	250	185	221
1689	250	185	221
1690	246	180	217
1691	248	189	221
1692	249	196	221
1693	243	194	217
1694	240	193	215
1695	248	205	221
1696	250	212	220
1697	0	0	0
1698	0	0	0
1699	0	0	0
1700	0	0	0
1701	0	0	0
1702	0	0	0
1703	0	0	0
1704	0	0	0
1705	0	0	0
1706	0	0	0
1707	0	0	0
1708	0	0	0
1709	0	0	0
1710	0	0	0
1711	0	0	0
1712	0	0	0
1713	0	0	0
1714	0	0	0
1715	0	0	0
1716	0	0	0
1717	0	0	0
1718	0	0	0
1719	0	0	0
1720	0	0	0
1721	0	0	0
1722	0	0	0
1723	0	0	0
1724	0	0	0
1725	0	0	0
1726	0	0	0
1727	0	0	0
1728	0	0	0
1729	0	0	0
1730	233	207	235
1731	238	209	240
1732	235	200	234
1733	232	193	230
1734	234	190	228
1735	245	194	231
1736	246	189	227
1737	245	185	222
1738	244	179	218
1739	251	184	221
1740	248	178	218
1741	249	178	217
1742	250	180	217
1743	255	191	222
1744	243	182	212
1745	232	178	205
1746	242	196	216
1747	253	209	224
1748	247	206	216
1749	0	0	0
1750	0	0	0
1751	0	0	0
1752	0	0	0
1753	0	0	0
1754	0	0	0
1755	0	0	0
1756	0	0	0
1757	0	0	0
1758	0	0	0
1759	0	0	0
1760	0	0	0
1761	0	0	0
1762	0	0	0
1763	0	0	0
1764	0	0	0
1765	0	0	0
1766	0	0	0
1767	0	0	0
1768	0	0	0
1769	0	0	0
1770	0	0	0
1771	0	0	0
1772	0	0	0
1773	0	0	0
1774	0	0	0
1775	0	0	0
1776	0	0	0
1777	0	0	0
1778	0	0	0
1779	0	0	0
1780	0	0	0
1781	0	0	0
1782	237	211	235
1783	238	206	235
1784	235	198	232
1785	238	196	232
1786	239	193	228
1787	244	191	227
1788	244	186	223
1789	244	182	222
1790	244	178	220
1791	246	176	219
1792	245	171	215
1793	250	177	217
1794	250	178	214
1795	245	175	210
1796	236	168	204
1797	241	185	213
1798	250	202	221
1799	255	206	221
1800	249	203	215
1801	0	0	0
1802	0	0	0
1803	0	0	0
1804	0	0	0
1805	0	0	0
1806	0	0	0
1807	0	0	0
1808	0	0	0
1809	0	0	0
1810	0	0	0
1811	0	0	0
1812	0	0	0
1813	0	0	0
1814	0	0	0
1815	0	0	0
1816	0	0	0
1817	0	0	0
1818	0	0	0
1819	0	0	0
1820	0	0	0
1821	0	0	0
1822	0	0	0
1823	0	0	0
1824	0	0	0
1825	0	0	0
1826	0	0	0
1827	0	0	0
1828	0	0	0
1829	0	0	0
1830	0	0	0
1831	0	0	0
1832	0	0	0
1833	0	0	0
1834	241	216	236
1835	241	210	236
1836	236	197	232
1837	241	197	234
1838	242	194	230
1839	243	190	226
1840	247	188	227
1841	251	188	229
1842	245	176	222
1843	243	172	219
1844	243	170	217
1845	250	176	220
1846	246	171	211
1847	240	168	206
1848	243	175	213
1849	255	196	225
1850	250	191	217
1851	251	193	215
1852	246	192	211
1853	0	0	0
1854	0	0	0
1855	0	0	0
1856	0	0	0
1857	0	0	0
1858	0	0	0
1859	0	0	0
1860	0	0	0
1861	0	0	0
1862	0	0	0
1863	0	0	0
1864	0	0	0
1865	0	0	0
1866	0	0	0
1867	0	0	0
1868	0	0	0
1869	0	0	0
1870	0	0	0
1871	0	0	0
1872	0	0	0
1873	0	0	0
1874	0	0	0
1875	0	0	0
1876	0	0	0
1877	0	0	0
1878	0	0	0
1879	0	0	0
1880	0	0	0
1881	0	0	0
1882	0	0	0
1883	0	0	0
1884	0	0	0
1885	0	0	0
1886	241	218	237
1887	236	205	233
1888	231	192	231
1889	235	193	233
1890	237	190	228
1891	241	189	228
1892	246	188	230
1893	246	180	227
1894	239	168	218
1895	237	166	216
1896	237	164	215
1897	244	168	216
1898	241	164	209
1899	243	171	212
1900	245	178	217
1901	244	178	216
1902	240	174	209
1903	243	180	210
1904	0	0	0
1905	0	0	0
1906	0	0	0
1907	0	0	0
1908	0	0	0
1909	0	0	0
1910	0	0	0
1911	0	0	0
1912	0	0	0
1913	0	0	0
1914	0	0	0
1915	0	0	0
1916	0	0	0
1917	0	0	0
1918	0	0	0
1919	0	0	0
1920	0	0	0
1921	0	0	0
1922	0	0	0
1923	0	0	0
1924	0	0	0
1925	0	0	0
1926	0	0	0
1927	0	0	0
1928	0	0	0
1929	0	0	0
1930	0	0	0
1931	0	0	0
1932	0	0	0
1933	0	0	0
1934	0	0	0
1935	0	0	0
1936	0	0	0
1937	0	0	0
1938	239	221	237
1939	235	210	234
1940	229	198	232
1941	0	0	0
1942	235	199	233
1943	248	203	238
1944	246	189	232
1945	244	180	227
1946	240	174	222
1947	237	171	220
1948	240	173	222
1949	251	178	226
1950	244	168	216
1951	245	175	218
1952	244	178	220
1953	242	178	218
1954	238	175	212
1955	0	0	0
1956	0	0	0
1957	0	0	0
1958	0	0	0
1959	0	0	0
1960	0	0	0
1961	0	0	0
1962	0	0	0
1963	0	0	0
1964	0	0	0
1965	0	0	0
1966	0	0	0
1967	0	0	0
1968	0	0	0
1969	0	0	0
1970	0	0	0
1971	0	0	0
1972	0	0	0
1973	0	0	0
1974	0	0	0
1975	0	0	0
1976	0	0	0
1977	0	0	0
1978	0	0	0
1979	0	0	0
1980	0	0	0
1981	0	0	0
1982	0	0	0
1983	0	0	0
1984	0	0	0
1985	0	0	0
1986	0	0	0
1987	0	0	0
1988	0	0	0
1989	0	0	0
1990	0	0	0
1991	235	215	234
1992	0	0	0
1993	0	0	0
1994	236	208	237
1995	241	199	235
1996	240	185	229
1997	244	185	231
1998	242	179	225
1999	241	179	225
2000	245	180	229
2001	249	178	227
2002	242	168	217
2003	242	172	218
2004	242	176	220
2005	239	176	219
2006	235	174	215
2007	0	0	0
2008	0	0	0
2009	0	0	0
2010	0	0	0
2011	0	0	0
2012	0	0	0
2013	0	0	0
2014	0	0	0
2015	0	0	0
2016	0	0	0
2017	0	0	0
2018	0	0	0
2019	0	0	0
2020	0	0	0
2021	0	0	0
2022	0	0	0
2023	0	0	0
2024	0	0	0
2025	0	0	0
2026	0	0	0
2027	0	0	0
2028	0	0	0
2029	0	0	0
2030	0	0	0
2031	0	0	0
2032	0	0	0
2033	0	0	0
2034	0	0	0
2035	0	0	0
2036	0	0	0
2037	0	0	0
2038	0	0	0
2039	0	0	0
2040	0	0	0
2041	0	0	0
2042	0	0	0
2043	0	0	0
2044	0	0	0
2045	0	0	0
2046	236	209	236
2047	237	197	232
2048	238	189	231
2049	245	190	234
2050	242	181	227
2051	246	183	229
2052	248	183	230
2053	245	176	224
2054	246	177	221
2055	252	186	226
2056	249	183	224
2057	244	183	223
2058	240	180	220
2059	250	195	226
2060	0	0	0
2061	0	0	0
2062	0	0	0
2063	0	0	0
2064	0	0	0
2065	0	0	0
2066	0	0	0
2067	0	0	0
2068	0	0	0
2069	0	0	0
2070	0	0	0
2071	0	0	0
2072	0	0	0
2073	0	0	0
2074	0	0	0
2075	0	0	0
2076	0	0	0
2077	0	0	0
2078	0	0	0
2079	0	0	0
2080	0	0	0
2081	0	0	0
2082	0	0	0
2083	0	0	0
2084	0	0	0
2085	0	0	0
2086	0	0	0
2087	0	0	0
2088	0	0	0
2089	0	0	0
2090	0	0	0
2091	0	0	0
2092	0	0	0
2093	0	0	0
2094	0	0	0
2095	0	0	0
2096	0	0	0
2097	0	0	0
2098	232	208	233
2099	234	200	231
2100	234	190	228
2101	236	186	228
2102	235	178	224
2103	243	183	228
2104	244	182	225
2105	248	186	226
2106	250	188	223
2107	255	191	224
2108	253	189	222
2109	244	185	219
2110	239	183	218
2111	237	181	215
2112	231	173	204
2113	243	188	211
2114	0	0	0
2115	0	0	0
2116	0	0	0
2117	0	0	0
2118	0	0	0
2119	0	0	0
2120	0	0	0
2121	0	0	0
2122	0	0	0
2123	0	0	0
2124	0	0	0
2125	0	0	0
2126	0	0	0
2127	0	0	0
2128	0	0	0
2129	0	0	0
2130	0	0	0
2131	0	0	0
2132	0	0	0
2133	0	0	0
2134	0	0	0
2135	0	0	0
2136	0	0	0
2137	0	0	0
2138	0	0	0
2139	0	0	0
2140	0	0	0
2141	0	0	0
2142	0	0	0
2143	0	0	0
2144	0	0	0
2145	0	0	0
2146	0	0	0
2147	0	0	0
2148	0	0	0
2149	0	0	0
2150	0	0	0
2151	230	202	231
2152	231	197	230
2153	230	191	228
2154	228	181	225
2155	238	187	230
2156	238	181	223
2157	244	187	225
2158	238	173	214
2159	246	178	217
2160	243	177	215
2161	232	172	209
2162	231	178	214
2163	228	176	211
2164	229	176	208
2165	247	194	219
2166	241	185	208
2167	0	0	0
2168	0	0	0
2169	0	0	0
2170	0	0	0
2171	0	0	0
2172	0	0	0
2173	0	0	0
2174	0	0	0
2175	0	0	0
2176	0	0	0
2177	0	0	0
2178	0	0	0
2179	0	0	0
2180	0	0	0
2181	0	0	0
2182	0	0	0
2183	0	0	0
2184	0	0	0
2185	0	0	0
2186	0	0	0
2187	0	0	0
2188	0	0	0
2189	0	0	0
2190	0	0	0
2191	0	0	0
2192	0	0	0
2193	0	0	0
2194	0	0	0
2195	0	0	0
2196	0	0	0
2197	0	0	0
2198	0	0	0
2199	0	0	0
2200	0	0	0
2201	0	0	0
2202	0	0	0
2203	235	212	236
2204	234	206	235
2205	229	196	230
2206	227	187	228
2207	234	188	231
2208	235	182	225
2209	233	173	219
2210	228	161	213
2211	237	168	219
2212	234	167	214
2213	226	169	211
2214	225	174	212
2215	223	176	212
2216	226	176	211
2217	236	182	214
2218	232	174	204
2219	0	0	0
2220	0	0	0
2221	0	0	0
2222	0	0	0
2223	0	0	0
2224	0	0	0
2225	0	0	0
2226	0	0	0
2227	0	0	0
2228	0	0	0
2229	0	0	0
2230	0	0	0
2231	0	0	0
2232	0	0	0
2233	0	0	0
2234	0	0	0
2235	0	0	0
2236	0	0	0
2237	0	0	0
2238	0	0	0
2239	0	0	0
2240	0	0	0
2241	0	0	0
2242	0	0	0
2243	0	0	0
2244	0	0	0
2245	0	0	0
2246	0	0	0
2247	0	0	0
2248	0	0	0
2249	0	0	0
2250	0	0	0
2251	0	0	0
2252	0	0	0
2253	0	0	0
2254	237	218	238
2255	235	211	236
2256	232	204	234
2257	227	195	230
2258	229	192	232
2259	236	193	234
2260	236	185	228
2261	236	177	225
2262	232	168	222
2263	236	173	226
2264	235	176	222
2265	230	180	220
2266	228	182	219
2267	227	184	219
2268	221	173	210
2269	229	178	212
2270	227	173	205
2271	0	0	0
2272	0	0	0
2273	0	0	0
2274	0	0	0
2275	0	0	0
2276	0	0	0
2277	0	0	0
2278	0	0	0
2279	0	0	0
2280	0	0	0
2281	0	0	0
2282	0	0	0
2283	0	0	0
2284	0	0	0
2285	0	0	0
2286	0	0	0
2287	0	0	0
2288	0	0	0
2289	0	0	0
2290	0	0	0
2291	0	0	0
2292	0	0	0
2293	0	0	0
2294	0	0	0
2295	0	0	0
2296	0	0	0
2297	0	0	0
2298	0	0	0
2299	0	0	0
2300	0	0	0
2301	0	0	0
2302	0	0	0
2303	0	0	0
2304	0	0	0
2305	0	0	0
2306	237	216	237
2307	232	209	235
2308	229	202	233
2309	228	198	233
2310	229	195	233
2311	231	190	232
2312	231	183	228
2313	234	180	227
2314	231	171	224
2315	241	183	232
2316	241	187	230
2317	237	189	227
2318	234	191	225
2319	222	179	215
2320	213	168	207
2321	219	172	208
2322	219	168	202
2323	241	193	214
2324	0	0	0
2325	0	0	0
2326	0	0	0
2327	0	0	0
2328	0	0	0
2329	0	0	0
2330	0	0	0
2331	0	0	0
2332	0	0	0
2333	0	0	0
2334	0	0	0
2335	0	0	0
2336	0	0	0
2337	0	0	0
2338	0	0	0
2339	0	0	0
2340	0	0	0
2341	0	0	0
2342	0	0	0
2343	0	0	0
2344	0	0	0
2345	0	0	0
2346	0	0	0
2347	0	0	0
2348	0	0	0
2349	0	0	0
2350	0	0	0
2351	0	0	0
2352	0	0	0
2353	0	0	0
2354	0	0	0
2355	0	0	0
2356	0	0	0
2357	0	0	0
2358	239	222	240
2359	234	214	238
2360	231	209	237
2361	231	206	237
2362	229	199	234
2363	229	193	233
2364	226	183	228
2365	230	180	229
2366	233	178	228
2367	249	193	239
2368	241	181	228
2369	238	184	227
2370	227	177	219
2371	209	163	206
2372	206	164	205
2373	209	167	206
2374	215	170	205
2375	243	198	220
2376	242	195	210
2377	0	0	0
2378	0	0	0
2379	0	0	0
2380	0	0	0
2381	0	0	0
2382	0	0	0
2383	0	0	0
2384	0	0	0
2385	0	0	0
2386	0	0	0
2387	0	0	0
2388	0	0	0
2389	0	0	0
2390	0	0	0
2391	0	0	0
2392	0	0	0
2393	0	0	0
2394	0	0	0
2395	0	0	0
2396	0	0	0
2397	0	0	0
2398	0	0	0
2399	0	0	0
2400	0	0	0
2401	0	0	0
2402	0	0	0
2403	0	0	0
2404	0	0	0
2405	0	0	0
2406	0	0	0
2407	0	0	0
2408	0	0	0
2409	0	0	0
2410	0	0	0
2411	235	219	237
2412	0	0	0
2413	230	208	234
2414	228	200	232
2415	224	192	230
2416	221	182	229
2417	228	184	233
2418	231	182	230
2419	233	177	227
2420	228	167	220
2421	225	167	219
2422	216	161	211
2423	207	161	209
2424	204	162	208
2425	208	169	210
2426	214	172	210
2427	230	181	213
2428	231	179	204
2429	242	196	208
2430	0	0	0
2431	0	0	0
2432	0	0	0
2433	0	0	0
2434	0	0	0
2435	0	0	0
2436	0	0	0
2437	0	0	0
2438	0	0	0
2439	0	0	0
2440	0	0	0
2441	0	0	0
2442	0	0	0
2443	0	0	0
2444	0	0	0
2445	0	0	0
2446	0	0	0
2447	0	0	0
2448	0	0	0
2449	0	0	0
2450	0	0	0
2451	0	0	0
2452	0	0	0
2453	0	0	0
2454	0	0	0
2455	0	0	0
2456	0	0	0
2457	0	0	0
2458	0	0	0
2459	0	0	0
2460	0	0	0
2461	0	0	0
2462	0	0	0
2463	0	0	0
2464	0	0	0
2465	0	0	0
2466	233	209	235
2467	228	200	234
2468	221	186	232
2469	225	187	235
2470	224	184	230
2471	224	178	226
2472	225	176	226
2473	228	178	228
2474	216	165	218
2475	212	168	218
2476	207	164	213
2477	213	172	216
2478	214	170	212
2479	225	178	214
2480	227	177	207
2481	240	194	211
2482	241	200	205
2483	0	0	0
2484	0	0	0
2485	0	0	0
2486	0	0	0
2487	0	0	0
2488	0	0	0
2489	0	0	0
2490	0	0	0
2491	0	0	0
2492	0	0	0
2493	0	0	0
2494	0	0	0
2495	0	0	0
2496	0	0	0
2497	0	0	0
2498	0	0	0
2499	0	0	0
2500	0	0	0
2501	0	0	0
2502	0	0	0
2503	0	0	0
2504	0	0	0
2505	0	0	0
2506	0	0	0
2507	0	0	0
2508	0	0	0
2509	0	0	0
2510	0	0	0
2511	0	0	0
2512	0	0	0
2513	0	0	0
2514	0	0	0
2515	0	0	0
2516	0	0	0
2517	0	0	0
2518	236	215	237
2519	228	202	232
2520	220	188	231
2521	221	189	235
2522	220	185	232
2523	222	184	231
2524	223	182	229
2525	219	175	226
2526	210	164	220
2527	208	165	220
2528	203	161	212
2529	205	162	210
2530	206	161	207
2531	216	169	210
2532	219	170	204
2533	232	184	207
2534	236	191	204
2535	246	207	209
2536	0	0	0
2537	0	0	0
2538	0	0	0
2539	0	0	0
2540	0	0	0
2541	0	0	0
2542	0	0	0
2543	0	0	0
2544	0	0	0
2545	0	0	0
2546	0	0	0
2547	0	0	0
2548	0	0	0
2549	0	0	0
2550	0	0	0
2551	0	0	0
2552	0	0	0
2553	0	0	0
2554	0	0	0
2555	0	0	0
2556	0	0	0
2557	0	0	0
2558	0	0	0
2559	0	0	0
2560	0	0	0
2561	0	0	0
2562	0	0	0
2563	0	0	0
2564	0	0	0
2565	0	0	0
2566	0	0	0
2567	0	0	0
2568	0	0	0
2569	0	0	0
2570	237	218	237
2571	230	206	234
2572	224	196	236
2573	222	196	239
2574	217	187	233
2575	220	187	233
2576	222	188	232
2577	217	179	228
2578	204	162	220
2579	204	164	221
2580	205	167	217
2581	206	169	215
2582	205	165	211
2583	215	174	214
2584	215	170	206
2585	231	186	213
2586	233	185	206
2587	245	202	211
2588	251	212	210
2589	0	0	0
2590	0	0	0
2591	0	0	0
2592	0	0	0
2593	0	0	0
2594	0	0	0
2595	0	0	0
2596	0	0	0
2597	0	0	0
2598	0	0	0
2599	0	0	0
2600	0	0	0
2601	0	0	0
2602	0	0	0
2603	0	0	0
2604	0	0	0
2605	0	0	0
2606	0	0	0
2607	0	0	0
2608	0	0	0
2609	0	0	0
2610	0	0	0
2611	0	0	0
2612	0	0	0
2613	0	0	0
2614	0	0	0
2615	0	0	0
2616	0	0	0
2617	0	0	0
2618	0	0	0
2619	0	0	0
2620	0	0	0
2621	0	0	0
2622	0	0	0
2623	231	210	237
2624	224	200	236
2625	217	194	235
2626	212	186	230
2627	219	190	235
2628	222	191	235
2629	210	175	225
2630	198	158	219
2631	207	170	227
2632	209	173	223
2633	208	172	218
2634	207	168	213
2635	213	172	214
2636	215	169	210
2637	224	177	212
2638	227	176	206
2639	242	193	211
2640	248	202	207
2641	0	0	0
2642	0	0	0
2643	0	0	0
2644	0	0	0
2645	0	0	0
2646	0	0	0
2647	0	0	0
2648	0	0	0
2649	0	0	0
2650	0	0	0
2651	0	0	0
2652	0	0	0
2653	0	0	0
2654	0	0	0
2655	0	0	0
2656	0	0	0
2657	0	0	0
2658	0	0	0
2659	0	0	0
2660	0	0	0
2661	0	0	0
2662	0	0	0
2663	0	0	0
2664	0	0	0
2665	0	0	0
2666	0	0	0
2667	0	0	0
2668	0	0	0
2669	0	0	0
2670	0	0	0
2671	0	0	0
2672	0	0	0
2673	0	0	0
2674	0	0	0
2675	0	0	0
2676	228	212	240
2677	223	206	240
2678	215	194	235
2679	223	199	240
2680	220	192	236
2681	208	176	227
2682	206	171	228
2683	219	185	239
2684	210	172	224
2685	208	170	219
2686	209	167	215
2687	220	174	220
2688	220	170	215
2689	223	174	215
2690	226	174	209
2691	246	193	217
2692	245	193	206
2693	0	0	0
2694	0	0	0
2695	0	0	0
2696	0	0	0
2697	0	0	0
2698	0	0	0
2699	0	0	0
2700	0	0	0
2701	0	0	0
2702	0	0	0
2703	0	0	0
2704	0	0	0
2705	0	0	0
2706	0	0	0
2707	0	0	0
2708	0	0	0
2709	0	0	0
2710	0	0	0
2711	0	0	0
2712	0	0	0
2713	0	0	0
2714	0	0	0
2715	0	0	0
2716	0	0	0
2717	0	0	0
2718	0	0	0
2719	0	0	0
2720	0	0	0
2721	0	0	0
2722	0	0	0
2723	0	0	0
2724	0	0	0
2725	0	0	0
2726	0	0	0
2727	0	0	0
2728	0	0	0
2729	226	212	240
2730	219	200	237
2731	221	197	239
2732	217	190	235
2733	212	184	232
2734	208	178	230
2735	209	174	229
2736	202	163	219
2737	205	164	219
2738	207	163	217
2739	217	168	221
2740	216	164	215
2741	219	168	214
2742	223	169	209
2743	241	183	214
2744	242	184	205
2745	249	203	209
2746	0	0	0
2747	0	0	0
2748	0	0	0
2749	0	0	0
2750	0	0	0
2751	0	0	0
2752	0	0	0
2753	0	0	0
2754	0	0	0
2755	0	0	0
2756	0	0	0
2757	0	0	0
2758	0	0	0
2759	0	0	0
2760	0	0	0
2761	0	0	0
2762	0	0	0
2763	0	0	0
2764	0	0	0
2765	0	0	0
2766	0	0	0
2767	0	0	0
2768	0	0	0
2769	0	0	0
2770	0	0	0
2771	0	0	0
2772	0	0	0
2773	0	0	0
2774	0	0	0
2775	0	0	0
2776	0	0	0
2777	0	0	0
2778	0	0	0
2779	0	0	0
2780	0	0	0
2781	0	0	0
2782	231	212	243
2783	229	208	244
2784	222	198	239
2785	215	192	236
2786	208	181	231
2787	205	176	228
2788	208	177	228
2789	217	183	233
2790	212	169	225
2791	216	171	225
2792	213	162	217
2793	222	170	219
2794	226	170	214
2795	243	184	219
2796	242	180	208
2797	254	202	214
2798	252	206	207
2799	0	0	0
2800	0	0	0
2801	0	0	0
2802	0	0	0
2803	0	0	0
2804	0	0	0
2805	0	0	0
2806	0	0	0
2807	0	0	0
2808	0	0	0
2809	0	0	0
2810	0	0	0
2811	0	0	0
2812	0	0	0
2813	0	0	0
2814	0	0	0
2815	0	0	0
2816	0	0	0
2817	0	0	0
2818	0	0	0
2819	0	0	0
2820	0	0	0
2821	0	0	0
2822	0	0	0
2823	0	0	0
2824	0	0	0
2825	0	0	0
2826	0	0	0
2827	0	0	0
2828	0	0	0
2829	0	0	0
2830	0	0	0
2831	0	0	0
2832	0	0	0
2833	0	0	0
2834	0	0	0
2835	231	213	240
2836	224	204	238
2837	217	196	236
2838	209	185	232
2839	212	188	236
2840	215	189	236
2841	214	180	231
2842	208	168	223
2843	209	165	220
2844	206	157	212
2845	216	163	215
2846	222	164	213
2847	234	172	214
2848	233	170	204
2849	241	182	205
2850	241	188	200
2851	249	206	207
2852	255	227	218
2853	255	228	217
2854	0	0	0
2855	0	0	0
2856	0	0	0
2857	0	0	0
2858	0	0	0
2859	0	0	0
2860	0	0	0
2861	0	0	0
2862	0	0	0
2863	0	0	0
2864	0	0	0
2865	0	0	0
2866	0	0	0
2867	0	0	0
2868	0	0	0
2869	0	0	0
2870	0	0	0
2871	0	0	0
2872	0	0	0
2873	0	0	0
2874	0	0	0
2875	0	0	0
2876	0	0	0
2877	0	0	0
2878	0	0	0
2879	0	0	0
2880	0	0	0
2881	0	0	0
2882	0	0	0
2883	0	0	0
2884	0	0	0
2885	0	0	0
2886	0	0	0
2887	0	0	0
2888	231	214	240
2889	225	207	240
2890	214	191	234
2891	218	194	240
2892	215	188	236
2893	209	178	228
2894	208	172	225
2895	213	172	226
2896	210	163	217
2897	218	169	220
2898	219	165	216
2899	230	173	217
2900	231	172	209
2901	241	185	211
2902	243	188	207
2903	255	211	218
2904	255	212	214
2905	253	210	209
2906	253	215	210
2907	0	0	0
2908	0	0	0
2909	0	0	0
2910	0	0	0
2911	0	0	0
2912	0	0	0
2913	0	0	0
2914	0	0	0
2915	0	0	0
2916	0	0	0
2917	0	0	0
2918	0	0	0
2919	0	0	0
2920	0	0	0
2921	0	0	0
2922	0	0	0
2923	0	0	0
2924	0	0	0
2925	0	0	0
2926	0	0	0
2927	0	0	0
2928	0	0	0
2929	0	0	0
2930	0	0	0
2931	0	0	0
2932	0	0	0
2933	0	0	0
2934	0	0	0
2935	0	0	0
2936	0	0	0
2937	0	0	0
2938	0	0	0
2939	0	0	0
2940	0	0	0
2941	226	209	237
2942	217	194	234
2943	218	193	238
2944	214	187	236
2945	211	182	232
2946	209	176	228
2947	212	174	227
2948	209	164	219
2949	213	166	219
2950	214	162	215
2951	224	170	217
2952	226	169	209
2953	234	178	209
2954	239	182	208
2955	248	190	210
2956	248	192	206
2957	248	198	205
2958	249	203	205
2959	255	219	213
2960	0	0	0
2961	0	0	0
2962	0	0	0
2963	0	0	0
2964	0	0	0
2965	0	0	0
2966	0	0	0
2967	0	0	0
2968	0	0	0
2969	0	0	0
2970	0	0	0
2971	0	0	0
2972	0	0	0
2973	0	0	0
2974	0	0	0
2975	0	0	0
2976	0	0	0
2977	0	0	0
2978	0	0	0
2979	0	0	0
2980	0	0	0
2981	0	0	0
2982	0	0	0
2983	0	0	0
2984	0	0	0
2985	0	0	0
2986	0	0	0
2987	0	0	0
2988	0	0	0
2989	0	0	0
2990	0	0	0
2991	0	0	0
2992	0	0	0
2993	0	0	0
2994	226	207	240
2995	229	207	246
2996	221	193	239
2997	216	188	236
2998	215	184	233
2999	216	181	231
3000	210	167	222
3001	214	169	223
3002	216	169	221
3003	226	177	224
3004	226	171	215
3005	238	182	218
3006	244	186	217
3007	252	194	217
3008	249	191	211
3009	251	198	211
3010	247	193	204
3011	255	210	214
3012	253	204	206
3013	0	0	0
3014	0	0	0
3015	0	0	0
3016	0	0	0
3017	0	0	0
3018	0	0	0
3019	0	0	0
3020	0	0	0
3021	0	0	0
3022	0	0	0
3023	0	0	0
3024	0	0	0
3025	0	0	0
3026	0	0	0
3027	0	0	0
3028	0	0	0
3029	0	0	0
3030	0	0	0
3031	0	0	0
3032	0	0	0
3033	0	0	0
3034	0	0	0
3035	0	0	0
3036	0	0	0
3037	0	0	0
3038	0	0	0
3039	0	0	0
3040	0	0	0
3041	0	0	0
3042	0	0	0
3043	0	0	0
3044	0	0	0
3045	0	0	0
3046	0	0	0
3047	228	208	240
3048	219	194	233
3049	217	191	234
3050	216	188	232
3051	213	180	229
3052	208	168	223
3053	216	174	228
3054	220	175	225
3055	226	175	224
3056	226	171	220
3057	236	180	222
3058	241	184	219
3059	245	185	215
3060	244	183	209
3061	242	182	206
3062	239	178	201
3063	240	179	201
3064	236	174	195
3065	248	194	206
3066	0	0	0
3067	0	0	0
3068	0	0	0
3069	0	0	0
3070	0	0	0
3071	0	0	0
3072	0	0	0
3073	0	0	0
3074	0	0	0
3075	0	0	0
3076	0	0	0
3077	0	0	0
3078	0	0	0
3079	0	0	0
3080	0	0	0
3081	0	0	0
3082	0	0	0
3083	0	0	0
3084	0	0	0
3085	0	0	0
3086	0	0	0
3087	0	0	0
3088	0	0	0
3089	0	0	0
3090	0	0	0
3091	0	0	0
3092	0	0	0
3093	0	0	0
3094	0	0	0
3095	0	0	0
3096	0	0	0
3097	0	0	0
3098	0	0	0
3099	0	0	0
3100	223	203	236
3101	224	202	239
3102	218	192	234
3103	213	184	230
3104	209	172	227
3105	221	181	234
3106	229	184	232
3107	238	187	234
3108	231	173	224
3109	233	178	223
3110	238	183	222
3111	245	187	220
3112	244	182	213
3113	245	183	212
3114	238	174	207
3115	235	173	205
3116	242	183	209
3117	255	205	221
3118	245	191	202
3119	0	0	0
3120	0	0	0
3121	0	0	0
3122	0	0	0
3123	0	0	0
3124	0	0	0
3125	0	0	0
3126	0	0	0
3127	0	0	0
3128	0	0	0
3129	0	0	0
3130	0	0	0
3131	0	0	0
3132	0	0	0
3133	0	0	0
3134	0	0	0
3135	0	0	0
3136	0	0	0
3137	0	0	0
3138	0	0	0
3139	0	0	0
3140	0	0	0
3141	0	0	0
3142	0	0	0
3143	0	0	0
3144	0	0	0
3145	0	0	0
3146	0	0	0
3147	0	0	0
3148	0	0	0
3149	0	0	0
3150	0	0	0
3151	0	0	0
3152	231	215	244
3153	226	206	242
3154	219	196	236
3155	212	185	231
3156	208	175	227
3157	223	184	235
3158	231	187	233
3159	237	182	229
3160	230	169	219
3161	233	177	223
3162	239	184	225
3163	242	181	221
3164	240	176	214
3165	238	171	210
3166	233	164	208
3167	240	177	216
3168	245	186	217
3169	247	185	212
3170	233	172	196
3171	0	0	0
3172	0	0	0
3173	0	0	0
3174	0	0	0
3175	0	0	0
3176	0	0	0
3177	0	0	0
3178	0	0	0
3179	0	0	0
3180	0	0	0
3181	0	0	0
3182	0	0	0
3183	0	0	0
3184	0	0	0
3185	0	0	0
3186	0	0	0
3187	0	0	0
3188	0	0	0
3189	0	0	0
3190	0	0	0
3191	0	0	0
3192	0	0	0
3193	0	0	0
3194	0	0	0
3195	0	0	0
3196	0	0	0
3197	0	0	0
3198	0	0	0
3199	0	0	0
3200	0	0	0
3201	0	0	0
3202	0	0	0
3203	0	0	0
3204	234	220	245
3205	228	210	243
3206	224	204	240
3207	215	193	235
3208	216	188	235
3209	231	199	244
3210	227	183	231
3211	232	179	227
3212	234	175	224
3213	244	186	231
3214	239	178	225
3215	238	173	220
3216	239	174	217
3217	237	170	214
3218	237	170	217
3219	247	184	227
3220	240	175	216
3221	236	172	207
3222	237	178	206
3223	255	209	222
3224	0	0	0
3225	0	0	0
3226	0	0	0
3227	0	0	0
3228	0	0	0
3229	0	0	0
3230	0	0	0
3231	0	0	0
3232	0	0	0
3233	0	0	0
3234	0	0	0
3235	0	0	0
3236	0	0	0
3237	0	0	0
3238	0	0	0
3239	0	0	0
3240	0	0	0
3241	0	0	0
3242	0	0	0
3243	0	0	0
3244	0	0	0
3245	0	0	0
3246	0	0	0
3247	0	0	0
3248	0	0	0
3249	0	0	0
3250	0	0	0
3251	0	0	0
3252	0	0	0
3253	0	0	0
3254	0	0	0
3255	0	0	0
3256	0	0	0
3257	233	217	242
3258	229	212	241
3259	225	206	240
3260	225	201	239
3261	224	191	236
3262	221	177	228
3263	229	178	229
3264	230	174	224
3265	232	170	221
3266	228	163	217
3267	231	165	218
3268	232	166	215
3269	232	166	214
3270	233	166	216
3271	232	165	216
3272	226	158	207
3273	235	172	214
3274	237	178	212
3275	243	193	216
3276	245	204	217
3277	0	0	0
3278	0	0	0
3279	0	0	0
3280	0	0	0
3281	0	0	0
3282	0	0	0
3283	0	0	0
3284	0	0	0
3285	0	0	0
3286	0	0	0
3287	0	0	0
3288	0	0	0
3289	0	0	0
3290	0	0	0
3291	0	0	0
3292	0	0	0
3293	0	0	0
3294	0	0	0
3295	0	0	0
3296	0	0	0
3297	0	0	0
3298	0	0	0
3299	0	0	0
3300	0	0	0
3301	0	0	0
3302	0	0	0
3303	0	0	0
3304	0	0	0
3305	0	0	0
3306	0	0	0
3307	0	0	0
3308	0	0	0
3309	0	0	0
3310	238	224	245
3311	239	221	247
3312	230	204	239
3313	225	192	234
3314	224	185	233
3315	228	186	234
3316	228	179	227
3317	231	177	225
3318	232	173	224
3319	236	177	226
3320	234	173	222
3321	233	173	221
3322	231	170	219
3323	229	168	218
3324	228	165	216
3325	244	183	227
3326	238	180	218
3327	238	191	218
3328	241	205	221
3329	0	0	0
3330	0	0	0
3331	0	0	0
3332	0	0	0
3333	0	0	0
3334	0	0	0
3335	0	0	0
3336	0	0	0
3337	0	0	0
3338	0	0	0
3339	0	0	0
3340	0	0	0
3341	0	0	0
3342	0	0	0
3343	0	0	0
3344	0	0	0
3345	0	0	0
3346	0	0	0
3347	0	0	0
3348	0	0	0
3349	0	0	0
3350	0	0	0
3351	0	0	0
3352	0	0	0
3353	0	0	0
3354	0	0	0
3355	0	0	0
3356	0	0	0
3357	0	0	0
3358	0	0	0
3359	0	0	0
3360	0	0	0
3361	0	0	0
3362	0	0	0
3363	239	219	240
3364	230	202	234
3365	228	197	236
3366	226	191	234
3367	229	190	236
3368	229	185	232
3369	235	186	233
3370	235	182	228
3371	238	182	228
3372	238	180	227
3373	237	178	226
3374	234	174	222
3375	232	173	221
3376	229	169	220
3377	236	177	224
3378	0	0	0
3379	231	188	218
3380	0	0	0
3381	0	0	0
3382	0	0	0
3383	0	0	0
3384	0	0	0
3385	0	0	0
3386	0	0	0
3387	0	0	0
3388	0	0	0
3389	0	0	0
3390	0	0	0
3391	0	0	0
3392	0	0	0
3393	0	0	0
3394	0	0	0
3395	0	0	0
3396	0	0	0
3397	0	0	0
3398	0	0	0
3399	0	0	0
3400	0	0	0
3401	0	0	0
3402	0	0	0
3403	0	0	0
3404	0	0	0
3405	0	0	0
3406	0	0	0
3407	0	0	0
3408	0	0	0
3409	0	0	0
3410	0	0	0
3411	0	0	0
3412	0	0	0
3413	0	0	0
3414	0	0	0
3415	0	0	0
3416	0	0	0
3417	0	0	0
3418	235	204	241
3419	240	204	244
3420	230	184	233
3421	233	184	233
3422	232	178	226
3423	239	180	228
3424	242	180	229
3425	242	179	228
3426	241	178	226
3427	238	176	225
3428	232	173	223
3429	0	0	0
3430	0	0	0
3431	0	0	0
3432	0	0	0
3433	0	0	0
3434	0	0	0
3435	0	0	0
3436	0	0	0
3437	0	0	0
3438	0	0	0
3439	0	0	0
3440	0	0	0
3441	0	0	0
3442	0	0	0
3443	0	0	0
3444	0	0	0
3445	0	0	0
3446	0	0	0
3447	0	0	0
3448	0	0	0
3449	0	0	0
3450	0	0	0
3451	0	0	0
3452	0	0	0
3453	0	0	0
3454	0	0	0
3455	0	0	0
3456	0	0	0
3457	0	0	0
3458	0	0	0
3459	0	0	0
3460	0	0	0
3461	0	0	0
3462	0	0	0
3463	0	0	0
3464	0	0	0
3465	0	0	0
3466	0	0	0
3467	0	0	0
3468	0	0	0
3469	0	0	0
3470	0	0	0
3471	232	196	237
3472	221	177	227
3473	0	0	0
3474	225	172	225
3475	236	177	229
3476	239	176	226
3477	242	179	226
3478	242	178	225
3479	237	176	223
3480	231	173	223
3481	0	0	0
3482	0	0	0
3483	0	0	0
3484	0	0	0
3485	0	0	0
3486	0	0	0
3487	0	0	0
3488	0	0	0
3489	0	0	0
3490	0	0	0
3491	0	0	0
3492	0	0	0
3493	0	0	0
3494	0	0	0
3495	0	0	0
3496	0	0	0
3497	0	0	0
3498	0	0	0
3499	0	0	0
3500	0	0	0
3501	0	0	0
3502	0	0	0
3503	0	0	0
3504	0	0	0
3505	0	0	0
3506	0	0	0
3507	0	0	0
3508	0	0	0
3509	0	0	0
3510	0	0	0
3511	0	0	0
3512	0	0	0
3513	0	0	0
3514	0	0	0
3515	0	0	0
3516	0	0	0
3517	0	0	0
3518	0	0	0
3519	0	0	0
3520	0	0	0
3521	0	0	0
3522	0	0	0
3523	0	0	0
3524	0	0	0
3525	0	0	0
3526	229	185	234
3527	241	191	239
3528	235	176	226
3529	240	179	226
3530	243	184	225
3531	236	181	221
3532	239	190	228
3533	249	210	239
3534	0	0	0
3535	0	0	0
3536	0	0	0
3537	0	0	0
3538	0	0	0
3539	0	0	0
3540	0	0	0
3541	0	0	0
3542	0	0	0
3543	0	0	0
3544	0	0	0
3545	0	0	0
3546	0	0	0
3547	0	0	0
3548	0	0	0
3549	0	0	0
3550	0	0	0
3551	0	0	0
3552	0	0	0
3553	0	0	0
3554	0	0	0
3555	0	0	0
3556	0	0	0
3557	0	0	0
3558	0	0	0
3559	0	0	0
3560	0	0	0
3561	0	0	0
3562	0	0	0
3563	0	0	0
3564	0	0	0
3565	0	0	0
3566	0	0	0
3567	0	0	0
3568	0	0	0
3569	0	0	0
3570	0	0	0
3571	0	0	0
3572	0	0	0
3573	0	0	0
3574	0	0	0
3575	0	0	0
3576	0	0	0
3577	0	0	0
3578	0	0	0
3579	231	185	232
3580	226	172	223
3581	240	186	231
3582	242	191	226
3583	248	202	229
3584	252	211	232
3585	253	215	232
3586	250	214	226
3587	0	0	0
3588	0	0	0
3589	0	0	0
3590	0	0	0
3591	0	0	0
3592	0	0	0
3593	0	0	0
3594	0	0	0
3595	0	0	0
3596	0	0	0
3597	0	0	0
3598	0	0	0
3599	0	0	0
3600	0	0	0
3601	0	0	0
3602	0	0	0
3603	0	0	0
3604	0	0	0
3605	0	0	0
3606	0	0	0
3607	0	0	0
3608	0	0	0
3609	0	0	0
3610	0	0	0
3611	0	0	0
3612	0	0	0
3613	0	0	0
3614	0	0	0
3615	0	0	0
3616	0	0	0
3617	0	0	0
3618	0	0	0
3619	0	0	0
3620	0	0	0
3621	0	0	0
3622	0	0	0
3623	0	0	0
3624	0	0	0
3625	0	0	0
3626	0	0	0
3627	0	0	0
3628	0	0	0
3629	0	0	0
3630	0	0	0
3631	0	0	0
3632	0	0	0
3633	241	200	238
3634	231	183	219
3635	245	199	226
3636	244	196	220
3637	244	199	218
3638	243	200	215
3639	0	0	0
3640	0	0	0
3641	0	0	0
3642	0	0	0
3643	0	0	0
3644	0	0	0
3645	0	0	0
3646	0	0	0
3647	0	0	0
3648	0	0	0
3649	0	0	0
3650	0	0	0
3651	0	0	0
3652	0	0	0
3653	0	0	0
3654	0	0	0
3655	0	0	0
3656	0	0	0
3657	0	0	0
3658	0	0	0
3659	0	0	0
3660	0	0	0
3661	0	0	0
3662	0	0	0
3663	0	0	0
3664	0	0	0
3665	0	0	0
3666	0	0	0
3667	0	0	0
3668	0	0	0
3669	0	0	0
3670	0	0	0
3671	0	0	0
3672	0	0	0
3673	0	0	0
3674	0	0	0
3675	0	0	0
3676	0	0	0
3677	0	0	0
3678	0	0	0
3679	0	0	0
3680	0	0	0
3681	0	0	0
3682	0	0	0
3683	0	0	0
3684	0	0	0
3685	0	0	0
3686	220	175	216
3687	233	185	222
3688	234	183	216
3689	238	189	217
3690	238	192	214
3691	0	0	0
3692	0	0	0
3693	0	0	0
3694	0	0	0
3695	0	0	0
3696	0	0	0
3697	0	0	0
3698	0	0	0
3699	0	0	0
3700	0	0	0
3701	0	0	0
3702	0	0	0
3703	0	0	0
3704	0	0	0
3705	0	0	0
3706	0	0	0
3707	0	0	0
3708	0	0	0
3709	0	0	0
3710	0	0	0
3711	0	0	0
3712	0	0	0
3713	0	0	0
3714	0	0	0
3715	0	0	0
3716	0	0	0
3717	0	0	0
3718	0	0	0
3719	0	0	0
3720	0	0	0
3721	0	0	0
3722	0	0	0
3723	0	0	0
3724	0	0	0
3725	0	0	0
3726	0	0	0
3727	0	0	0
3728	0	0	0
3729	0	0	0
3730	0	0	0
3731	0	0	0
3732	0	0	0
3733	0	0	0
3734	0	0	0
3735	0	0	0
3736	0	0	0
3737	0	0	0
3738	0	0	0
3739	236	195	233
3740	230	182	221
3741	236	190	222
3742	0	0	0
3743	0	0	0
3744	0	0	0
