 	R	G	B
1	0	0	0
2	0	0	0
3	0	0	0
4	0	0	0
5	0	0	0
6	0	0	0
7	0	0	0
8	0	0	0
9	0	0	0
10	0	0	0
11	0	0	0
12	0	0	0
13	0	0	0
14	0	0	0
15	0	0	0
16	0	0	0
17	0	0	0
18	0	0	0
19	0	0	0
20	0	0	0
21	0	0	0
22	0	0	0
23	0	0	0
24	0	0	0
25	0	0	0
26	0	0	0
27	0	0	0
28	0	0	0
29	0	0	0
30	248	217	234
31	0	0	0
32	0	0	0
33	0	0	0
34	0	0	0
35	0	0	0
36	0	0	0
37	0	0	0
38	0	0	0
39	0	0	0
40	0	0	0
41	0	0	0
42	0	0	0
43	0	0	0
44	0	0	0
45	0	0	0
46	0	0	0
47	0	0	0
48	0	0	0
49	0	0	0
50	0	0	0
51	0	0	0
52	0	0	0
53	0	0	0
54	0	0	0
55	0	0	0
56	0	0	0
57	0	0	0
58	0	0	0
59	0	0	0
60	0	0	0
61	0	0	0
62	0	0	0
63	0	0	0
64	0	0	0
65	246	224	242
66	249	227	242
67	255	233	245
68	250	221	238
69	239	206	229
70	245	219	237
71	0	0	0
72	0	0	0
73	0	0	0
74	0	0	0
75	0	0	0
76	0	0	0
77	0	0	0
78	0	0	0
79	0	0	0
80	0	0	0
81	0	0	0
82	0	0	0
83	0	0	0
84	0	0	0
85	0	0	0
86	0	0	0
87	0	0	0
88	0	0	0
89	0	0	0
90	0	0	0
91	0	0	0
92	0	0	0
93	0	0	0
94	0	0	0
95	0	0	0
96	0	0	0
97	0	0	0
98	0	0	0
99	0	0	0
100	0	0	0
101	0	0	0
102	0	0	0
103	238	211	237
104	246	222	242
105	253	227	243
106	247	217	235
107	233	201	223
108	240	213	234
109	249	228	244
110	243	223	237
111	0	0	0
112	0	0	0
113	0	0	0
114	0	0	0
115	0	0	0
116	0	0	0
117	0	0	0
118	0	0	0
119	0	0	0
120	0	0	0
121	0	0	0
122	0	0	0
123	0	0	0
124	0	0	0
125	0	0	0
126	0	0	0
127	0	0	0
128	0	0	0
129	0	0	0
130	0	0	0
131	0	0	0
132	0	0	0
133	0	0	0
134	0	0	0
135	0	0	0
136	247	226	237
137	251	230	242
138	250	225	242
139	248	219	241
140	245	213	240
141	0	0	0
142	241	211	241
143	248	221	242
144	247	214	236
145	241	205	230
146	244	215	235
147	248	225	242
148	244	223	238
149	239	219	233
150	244	228	237
151	0	0	0
152	0	0	0
153	0	0	0
154	0	0	0
155	0	0	0
156	0	0	0
157	0	0	0
158	0	0	0
159	0	0	0
160	0	0	0
161	0	0	0
162	0	0	0
163	0	0	0
164	0	0	0
165	0	0	0
166	0	0	0
167	0	0	0
168	0	0	0
169	0	0	0
170	0	0	0
171	0	0	0
172	0	0	0
173	0	0	0
174	242	219	232
175	253	228	242
176	247	216	235
177	244	209	233
178	245	208	235
179	240	201	234
180	239	201	237
181	245	212	244
182	247	214	239
183	243	206	232
184	245	207	233
185	251	219	241
186	247	219	238
187	239	214	231
188	244	224	237
189	251	235	243
190	245	227	235
191	0	0	0
192	0	0	0
193	0	0	0
194	0	0	0
195	0	0	0
196	0	0	0
197	0	0	0
198	0	0	0
199	0	0	0
200	0	0	0
201	0	0	0
202	0	0	0
203	0	0	0
204	0	0	0
205	0	0	0
206	0	0	0
207	0	0	0
208	0	0	0
209	0	0	0
210	0	0	0
211	0	0	0
212	242	225	236
213	240	216	234
214	241	209	232
215	236	197	226
216	241	199	230
217	242	198	232
218	241	199	235
219	240	199	237
220	241	203	238
221	242	205	233
222	244	206	231
223	245	207	232
224	250	214	238
225	248	214	237
226	247	222	239
227	253	233	244
228	247	226	237
229	240	218	229
230	245	228	235
231	0	0	0
232	0	0	0
233	0	0	0
234	0	0	0
235	0	0	0
236	0	0	0
237	0	0	0
238	0	0	0
239	0	0	0
240	0	0	0
241	0	0	0
242	0	0	0
243	0	0	0
244	0	0	0
245	0	0	0
246	0	0	0
247	0	0	0
248	0	0	0
249	0	0	0
250	248	240	244
251	248	232	242
252	240	214	234
253	236	204	230
254	245	211	237
255	255	216	244
256	244	197	233
257	241	197	234
258	247	207	243
259	250	212	244
260	246	208	235
261	245	208	232
262	247	209	234
263	255	217	240
264	248	209	235
265	250	218	239
266	255	230	243
267	248	222	235
268	243	218	232
269	246	227	238
270	245	226	237
271	0	0	0
272	0	0	0
273	0	0	0
274	0	0	0
275	0	0	0
276	0	0	0
277	0	0	0
278	0	0	0
279	0	0	0
280	0	0	0
281	0	0	0
282	0	0	0
283	0	0	0
284	0	0	0
285	0	0	0
286	0	0	0
287	0	0	0
288	0	0	0
289	0	0	0
290	243	226	237
291	235	209	230
292	244	216	238
293	253	223	244
294	251	211	239
295	239	192	229
296	244	203	238
297	250	213	245
298	253	215	244
299	251	212	239
300	250	212	237
301	252	214	238
302	252	210	236
303	245	202	232
304	246	212	235
305	250	223	237
306	246	218	232
307	245	217	235
308	243	217	236
309	0	0	0
310	0	0	0
311	0	0	0
312	0	0	0
313	0	0	0
314	0	0	0
315	0	0	0
316	0	0	0
317	0	0	0
318	0	0	0
319	0	0	0
320	0	0	0
321	0	0	0
322	0	0	0
323	0	0	0
324	0	0	0
325	0	0	0
326	0	0	0
327	0	0	0
328	0	0	0
329	0	0	0
330	238	216	233
331	251	226	243
332	248	215	237
333	242	200	231
334	237	192	229
335	240	203	238
336	242	205	239
337	250	209	241
338	243	197	232
339	244	198	231
340	248	204	234
341	246	200	231
342	244	202	233
343	240	209	233
344	242	217	232
345	242	214	230
346	249	221	239
347	253	225	243
348	249	218	238
349	0	0	0
350	0	0	0
351	0	0	0
352	0	0	0
353	0	0	0
354	0	0	0
355	0	0	0
356	0	0	0
357	0	0	0
358	0	0	0
359	0	0	0
360	0	0	0
361	0	0	0
362	0	0	0
363	0	0	0
364	0	0	0
365	0	0	0
366	0	0	0
367	0	0	0
368	246	228	238
369	250	230	242
370	247	220	238
371	243	209	234
372	246	206	235
373	240	198	233
374	237	198	235
375	239	200	237
376	240	193	234
377	235	182	227
378	241	190	231
379	244	195	232
380	245	199	233
381	242	202	234
382	241	209	236
383	244	217	237
384	249	221	237
385	255	226	240
386	255	222	238
387	251	216	237
388	250	219	238
389	0	0	0
390	0	0	0
391	0	0	0
392	0	0	0
393	0	0	0
394	0	0	0
395	0	0	0
396	0	0	0
397	0	0	0
398	0	0	0
399	0	0	0
400	0	0	0
401	0	0	0
402	0	0	0
403	0	0	0
404	0	0	0
405	0	0	0
406	246	226	236
407	255	233	245
408	241	208	231
409	228	192	221
410	238	203	232
411	244	202	236
412	240	194	233
413	237	195	235
414	238	195	236
415	236	187	232
416	243	193	236
417	251	202	241
418	246	198	235
419	242	199	233
420	244	206	237
421	251	217	243
422	244	208	235
423	247	210	234
424	254	219	236
425	251	213	232
426	247	211	234
427	0	0	0
428	0	0	0
429	0	0	0
430	0	0	0
431	0	0	0
432	0	0	0
433	0	0	0
434	0	0	0
435	0	0	0
436	0	0	0
437	0	0	0
438	0	0	0
439	0	0	0
440	0	0	0
441	0	0	0
442	0	0	0
443	0	0	0
444	0	0	0
445	247	225	236
446	243	208	231
447	230	185	222
448	235	194	233
449	243	204	240
450	241	197	237
451	237	189	232
452	238	190	234
453	238	190	235
454	244	196	239
455	249	202	240
456	251	202	238
457	246	198	234
458	245	204	235
459	248	210	239
460	246	204	235
461	240	195	230
462	247	205	235
463	253	213	236
464	249	209	233
465	244	206	233
466	0	0	0
467	0	0	0
468	0	0	0
469	0	0	0
470	0	0	0
471	0	0	0
472	0	0	0
473	0	0	0
474	0	0	0
475	0	0	0
476	0	0	0
477	0	0	0
478	0	0	0
479	0	0	0
480	0	0	0
481	0	0	0
482	0	0	0
483	0	0	0
484	243	220	234
485	236	201	227
486	235	192	231
487	251	207	248
488	247	200	242
489	235	187	232
490	243	196	239
491	250	201	244
492	240	186	234
493	241	190	234
494	245	196	234
495	245	195	232
496	246	198	233
497	251	206	238
498	249	203	236
499	246	196	232
500	249	201	236
501	253	209	240
502	253	212	239
503	247	207	233
504	247	212	236
505	0	0	0
506	0	0	0
507	0	0	0
508	0	0	0
509	0	0	0
510	0	0	0
511	0	0	0
512	0	0	0
513	0	0	0
514	0	0	0
515	0	0	0
516	0	0	0
517	0	0	0
518	0	0	0
519	0	0	0
520	242	226	238
521	0	0	0
522	241	218	235
523	245	218	236
524	240	206	232
525	240	197	236
526	248	198	242
527	243	190	235
528	242	194	237
529	249	203	244
530	250	196	241
531	240	181	230
532	243	189	233
533	245	195	235
534	245	196	233
535	246	199	233
536	246	196	232
537	246	194	233
538	252	201	239
539	254	204	238
540	253	208	239
541	254	212	241
542	255	217	242
543	253	221	240
544	255	230	242
545	0	0	0
546	0	0	0
547	0	0	0
548	0	0	0
549	0	0	0
550	0	0	0
551	0	0	0
552	0	0	0
553	0	0	0
554	0	0	0
555	0	0	0
556	0	0	0
557	0	0	0
558	250	241	245
559	248	235	245
560	241	218	236
561	249	220	240
562	244	208	233
563	237	194	227
564	245	200	238
565	249	199	241
566	247	195	238
567	250	202	243
568	246	194	239
569	244	186	234
570	237	174	226
571	242	183	231
572	246	194	235
573	243	194	232
574	240	191	229
575	241	190	229
576	243	191	233
577	249	197	238
578	248	197	234
579	248	200	234
580	252	208	239
581	255	214	241
582	253	217	237
583	255	226	239
584	252	229	237
585	0	0	0
586	0	0	0
587	0	0	0
588	0	0	0
589	0	0	0
590	0	0	0
591	0	0	0
592	0	0	0
593	0	0	0
594	0	0	0
595	0	0	0
596	0	0	0
597	253	247	247
598	243	228	238
599	238	212	231
600	241	207	233
601	237	195	228
602	241	198	233
603	247	203	240
604	251	203	243
605	250	200	241
606	244	192	236
607	241	184	232
608	241	179	230
609	235	169	227
610	244	184	236
611	247	193	235
612	239	187	228
613	238	186	230
614	242	188	233
615	243	188	234
616	247	191	236
617	246	192	234
618	247	197	235
619	249	203	235
620	250	207	235
621	250	211	234
622	248	214	232
623	0	0	0
624	0	0	0
625	0	0	0
626	0	0	0
627	0	0	0
628	0	0	0
629	0	0	0
630	0	0	0
631	0	0	0
632	0	0	0
633	0	0	0
634	0	0	0
635	0	0	0
636	254	245	247
637	242	226	235
638	234	207	228
639	237	202	230
640	237	196	231
641	239	199	235
642	244	202	239
643	250	203	243
644	241	186	233
645	236	179	229
646	239	181	231
647	240	176	229
648	240	174	231
649	249	188	239
650	244	186	232
651	237	181	226
652	241	186	233
653	245	188	236
654	246	186	235
655	250	190	237
656	250	194	237
657	246	197	234
658	249	206	236
659	250	210	235
660	252	217	237
661	252	221	237
662	252	225	237
663	0	0	0
664	0	0	0
665	0	0	0
666	0	0	0
667	0	0	0
668	0	0	0
669	0	0	0
670	0	0	0
671	0	0	0
672	0	0	0
673	0	0	0
674	0	0	0
675	255	245	249
676	244	225	237
677	236	206	228
678	240	204	232
679	240	199	233
680	245	203	239
681	250	206	244
682	244	192	238
683	235	176	230
684	237	178	233
685	239	179	233
686	242	180	232
687	241	176	228
688	245	180	231
689	243	180	230
690	238	179	229
691	242	184	232
692	246	185	234
693	247	183	233
694	252	190	236
695	250	193	233
696	249	199	233
697	252	210	238
698	254	216	239
699	255	222	239
700	255	227	241
701	255	232	243
702	0	0	0
703	0	0	0
704	0	0	0
705	0	0	0
706	0	0	0
707	0	0	0
708	0	0	0
709	0	0	0
710	0	0	0
711	0	0	0
712	0	0	0
713	0	0	0
714	250	235	242
715	245	218	235
716	237	200	227
717	238	197	228
718	251	209	241
719	255	216	249
720	254	200	241
721	243	183	232
722	237	175	232
723	239	177	235
724	239	177	233
725	239	175	230
726	239	173	227
727	248	180	232
728	243	175	230
729	236	172	226
730	250	192	238
731	255	194	240
732	245	177	229
733	245	181	228
734	254	201	235
735	255	209	237
736	255	213	238
737	255	218	239
738	252	217	235
739	255	223	237
740	255	228	240
741	0	0	0
742	0	0	0
743	0	0	0
744	0	0	0
745	0	0	0
746	0	0	0
747	0	0	0
748	0	0	0
749	0	0	0
750	0	0	0
751	0	0	0
752	242	228	234
753	244	224	236
754	241	210	231
755	235	193	226
756	248	207	239
757	255	218	247
758	255	203	238
759	248	187	228
760	243	179	227
761	239	172	230
762	242	176	237
763	241	176	236
764	241	174	234
765	242	172	233
766	244	172	232
767	239	166	227
768	244	180	234
769	255	199	242
770	255	188	234
771	243	170	223
772	254	193	235
773	255	212	241
774	255	212	236
775	255	215	236
776	252	213	231
777	249	212	229
778	253	219	234
779	254	224	237
780	0	0	0
781	0	0	0
782	0	0	0
783	0	0	0
784	0	0	0
785	0	0	0
786	0	0	0
787	0	0	0
788	0	0	0
789	0	0	0
790	249	237	241
791	247	230	237
792	243	220	233
793	234	202	226
794	240	203	233
795	255	220	250
796	246	195	234
797	235	177	220
798	247	188	229
799	248	184	231
800	242	171	231
801	246	176	238
802	242	170	233
803	243	169	232
804	247	175	237
805	242	170	232
806	242	173	231
807	254	191	241
808	255	189	237
809	248	176	227
810	245	172	224
811	255	196	238
812	255	198	231
813	248	196	224
814	255	213	233
815	250	211	229
816	251	215	232
817	255	222	237
818	253	224	236
819	0	0	0
820	0	0	0
821	0	0	0
822	0	0	0
823	0	0	0
824	0	0	0
825	0	0	0
826	0	0	0
827	0	0	0
828	0	0	0
829	249	236	242
830	247	227	238
831	244	217	233
832	245	215	235
833	250	215	240
834	243	196	233
835	231	173	223
836	240	183	231
837	251	194	236
838	248	181	230
839	243	169	231
840	241	166	232
841	237	160	225
842	248	172	234
843	251	178	237
844	248	179	235
845	248	182	234
846	250	181	233
847	251	180	233
848	252	178	232
849	248	174	228
850	250	182	229
851	246	184	224
852	250	197	228
853	255	214	237
854	255	216	236
855	255	220	238
856	255	224	240
857	253	225	238
858	0	0	0
859	0	0	0
860	0	0	0
861	0	0	0
862	0	0	0
863	0	0	0
864	0	0	0
865	0	0	0
866	0	0	0
867	0	0	0
868	251	238	244
869	249	228	240
870	240	209	228
871	248	210	234
872	247	204	234
873	233	181	223
874	239	184	232
875	250	196	244
876	240	177	228
877	238	164	221
878	250	177	235
879	246	173	234
880	239	162	226
881	252	175	237
882	240	160	226
883	238	162	224
884	247	175	232
885	250	175	231
886	254	178	234
887	251	176	231
888	252	179	232
889	253	186	233
890	255	195	233
891	255	209	237
892	255	212	237
893	255	214	236
894	255	216	236
895	255	220	237
896	251	223	236
897	0	0	0
898	0	0	0
899	0	0	0
900	0	0	0
901	0	0	0
902	0	0	0
903	0	0	0
904	0	0	0
905	0	0	0
906	0	0	0
907	249	235	239
908	243	218	232
909	238	201	225
910	247	201	233
911	248	196	234
912	249	196	238
913	253	197	242
914	244	181	234
915	236	164	226
916	249	176	235
917	255	185	237
918	246	172	227
919	241	163	226
920	242	158	228
921	232	144	219
922	242	160	230
923	252	174	239
924	255	177	238
925	255	178	234
926	255	181	233
927	255	185	235
928	255	196	239
929	255	204	236
930	255	205	232
931	255	208	233
932	255	210	233
933	253	212	232
934	254	219	234
935	252	223	235
936	0	0	0
937	0	0	0
938	0	0	0
939	0	0	0
940	0	0	0
941	0	0	0
942	0	0	0
943	0	0	0
944	0	0	0
945	0	0	0
946	244	230	236
947	244	216	232
948	240	197	228
949	250	197	236
950	251	190	235
951	254	191	237
952	252	185	234
953	244	169	226
954	248	171	233
955	254	179	238
956	253	179	232
957	245	167	223
958	243	161	225
959	243	156	227
960	245	156	231
961	255	175	245
962	252	165	236
963	251	165	232
964	251	170	228
965	250	172	225
966	255	187	234
967	255	198	237
968	254	194	227
969	251	196	224
970	255	211	235
971	255	213	235
972	250	207	228
973	251	214	232
974	252	222	236
975	252	231	239
976	0	0	0
977	0	0	0
978	0	0	0
979	0	0	0
980	0	0	0
981	0	0	0
982	0	0	0
983	0	0	0
984	243	234	238
985	246	229	238
986	240	208	231
987	237	190	231
988	245	187	236
989	244	179	229
990	244	173	225
991	244	167	220
992	250	171	224
993	251	171	225
994	249	171	226
995	251	174	231
996	248	167	229
997	245	158	226
998	249	162	231
999	252	163	234
1000	249	157	230
1001	241	147	220
1002	244	155	223
1003	246	161	223
1004	252	174	227
1005	255	187	228
1006	252	186	222
1007	247	184	218
1008	253	198	226
1009	255	213	237
1010	253	207	231
1011	246	201	227
1012	251	213	234
1013	252	220	237
1014	249	225	237
1015	0	0	0
1016	0	0	0
1017	0	0	0
1018	0	0	0
1019	0	0	0
1020	0	0	0
1021	0	0	0
1022	246	234	239
1023	241	222	233
1024	239	213	231
1025	230	190	222
1026	242	197	238
1027	246	193	240
1028	244	181	231
1029	248	178	229
1030	252	178	228
1031	255	180	229
1032	249	168	219
1033	247	168	221
1034	255	182	238
1035	255	175	237
1036	242	149	220
1037	244	152	222
1038	252	163	231
1039	247	156	227
1040	249	160	227
1041	254	169	231
1042	254	173	230
1043	255	187	234
1044	255	187	226
1045	251	185	220
1046	250	189	223
1047	255	203	231
1048	255	210	234
1049	251	204	229
1050	253	211	234
1051	255	221	241
1052	249	219	237
1053	0	0	0
1054	0	0	0
1055	0	0	0
1056	0	0	0
1057	0	0	0
1058	0	0	0
1059	0	0	0
1060	245	227	237
1061	246	224	237
1062	239	211	231
1063	236	201	228
1064	242	202	233
1065	251	206	242
1066	248	195	237
1067	246	185	233
1068	255	187	236
1069	255	186	235
1070	255	178	228
1071	247	165	219
1072	253	174	227
1073	255	186	239
1074	251	162	225
1075	234	136	207
1076	244	151	219
1077	251	162	229
1078	254	167	232
1079	255	171	233
1080	255	177	234
1081	255	180	230
1082	255	182	227
1083	252	183	223
1084	251	186	223
1085	251	191	226
1086	253	198	229
1087	254	204	230
1088	255	212	233
1089	255	218	238
1090	253	218	237
1091	0	0	0
1092	0	0	0
1093	0	0	0
1094	0	0	0
1095	0	0	0
1096	251	247	246
1097	0	0	0
1098	246	234	240
1099	255	237	248
1100	250	216	236
1101	240	201	229
1102	243	202	233
1103	249	203	236
1104	254	204	238
1105	249	191	232
1106	248	183	230
1107	254	184	233
1108	255	187	234
1109	255	179	228
1110	247	164	220
1111	255	174	228
1112	255	181	234
1113	246	156	217
1114	248	156	219
1115	255	172	232
1116	250	161	227
1117	251	165	229
1118	255	174	232
1119	255	180	233
1120	254	178	226
1121	252	180	224
1122	252	186	224
1123	252	190	225
1124	255	205	236
1125	255	212	239
1126	255	206	231
1127	255	214	235
1128	252	212	232
1129	0	0	0
1130	0	0	0
1131	0	0	0
1132	0	0	0
1133	0	0	0
1134	251	247	246
1135	255	254	251
1136	250	243	245
1137	253	238	245
1138	253	222	238
1139	244	201	228
1140	242	199	229
1141	246	200	233
1142	254	203	237
1143	255	202	236
1144	253	192	229
1145	250	183	227
1146	255	185	229
1147	255	187	229
1148	252	174	221
1149	245	161	218
1150	253	170	226
1151	255	176	229
1152	255	175	227
1153	255	176	230
1154	255	170	228
1155	248	159	224
1156	253	169	231
1157	255	178	234
1158	255	177	230
1159	252	177	226
1160	255	185	229
1161	254	190	227
1162	255	202	233
1163	255	217	242
1164	255	212	236
1165	255	208	232
1166	254	209	232
1167	247	205	228
1168	0	0	0
1169	0	0	0
1170	0	0	0
1171	0	0	0
1172	247	244	242
1173	250	249	247
1174	248	242	243
1175	249	234	241
1176	252	228	240
1177	246	208	230
1178	246	204	231
1179	245	203	232
1180	247	201	233
1181	255	204	239
1182	252	190	229
1183	247	179	222
1184	253	184	227
1185	255	185	227
1186	255	187	226
1187	251	173	219
1188	250	168	222
1189	255	177	231
1190	255	174	227
1191	255	173	226
1192	253	167	224
1193	249	161	221
1194	249	162	225
1195	255	174	233
1196	255	178	232
1197	253	177	228
1198	254	181	230
1199	255	190	232
1200	249	184	223
1201	254	197	229
1202	255	214	239
1203	255	209	233
1204	251	202	229
1205	250	204	229
1206	251	211	231
1207	0	0	0
1208	0	0	0
1209	0	0	0
1210	253	249	247
1211	253	249	248
1212	241	236	238
1213	239	229	234
1214	245	223	234
1215	249	217	236
1216	252	214	237
1217	251	209	235
1218	247	203	232
1219	249	200	231
1220	251	191	229
1221	247	179	225
1222	252	184	230
1223	255	187	229
1224	255	186	226
1225	255	188	226
1226	255	180	223
1227	253	174	224
1228	254	174	227
1229	253	171	226
1230	251	166	225
1231	248	161	223
1232	250	165	226
1233	250	165	226
1234	252	172	228
1235	252	175	226
1236	251	178	226
1237	252	182	227
1238	249	181	224
1239	242	177	217
1240	250	192	226
1241	255	210	237
1242	252	203	230
1243	246	197	224
1244	253	210	231
1245	254	217	234
1246	255	229	239
1247	0	0	0
1248	0	0	0
1249	255	249	250
1250	252	241	244
1251	234	225	231
1252	240	229	235
1253	248	224	237
1254	250	215	236
1255	252	212	237
1256	249	203	232
1257	246	198	229
1258	251	200	230
1259	251	189	227
1260	248	180	227
1261	252	184	232
1262	255	188	231
1263	255	187	228
1264	255	186	227
1265	253	178	222
1266	253	176	222
1267	254	175	224
1268	255	179	230
1269	255	174	229
1270	251	168	226
1271	253	171	228
1272	254	175	228
1273	255	181	230
1274	253	181	227
1275	253	184	227
1276	255	192	230
1277	253	191	227
1278	252	194	227
1279	255	211	236
1280	255	217	241
1281	255	210	234
1282	249	203	228
1283	255	216	235
1284	253	216	232
1285	255	229	239
1286	253	229	236
1287	0	0	0
1288	0	0	0
1289	245	229	236
1290	238	225	233
1291	244	230	237
1292	248	222	236
1293	248	211	232
1294	249	205	231
1295	247	197	229
1296	249	197	230
1297	254	199	231
1298	251	188	226
1299	245	177	222
1300	251	184	229
1301	255	188	234
1302	255	187	233
1303	255	187	232
1304	255	182	227
1305	253	178	220
1306	255	181	222
1307	255	184	229
1308	255	179	227
1309	250	172	219
1310	253	177	222
1311	255	182	226
1312	255	185	228
1313	254	186	227
1314	255	195	231
1315	255	202	234
1316	255	207	234
1317	255	210	232
1318	255	215	234
1319	255	221	240
1320	255	214	235
1321	251	208	231
1322	251	211	233
1323	248	211	230
1324	250	217	233
1325	246	218	231
1326	0	0	0
1327	0	0	0
1328	251	237	241
1329	252	237	242
1330	244	221	235
1331	241	209	229
1332	247	209	232
1333	249	204	231
1334	251	200	232
1335	255	201	234
1336	254	197	231
1337	248	185	223
1338	252	188	227
1339	255	195	235
1340	255	188	233
1341	255	186	233
1342	255	185	232
1343	253	181	227
1344	255	183	223
1345	255	184	224
1346	251	175	222
1347	247	170	218
1348	251	178	218
1349	254	183	220
1350	255	188	226
1351	255	191	229
1352	252	186	226
1353	255	195	231
1354	254	196	228
1355	255	201	228
1356	255	206	228
1357	255	211	231
1358	254	209	228
1359	0	0	0
1360	0	0	0
1361	0	0	0
1362	254	220	237
1363	255	226	240
1364	248	221	234
1365	0	0	0
1366	248	234	241
1367	255	243	246
1368	249	227	237
1369	242	211	232
1370	245	210	234
1371	250	210	236
1372	253	206	235
1373	253	201	232
1374	253	198	230
1375	252	194	228
1376	254	195	230
1377	255	198	231
1378	254	190	226
1379	249	182	223
1380	247	180	223
1381	248	179	224
1382	252	183	227
1383	255	186	228
1384	249	177	221
1385	243	167	217
1386	250	177	222
1387	253	185	221
1388	255	189	222
1389	255	194	228
1390	255	191	228
1391	250	187	227
1392	250	190	227
1393	248	190	223
1394	251	197	226
1395	253	203	230
1396	252	203	228
1397	245	199	221
1398	249	211	227
1399	0	0	0
1400	0	0	0
1401	0	0	0
1402	252	224	238
1403	0	0	0
1404	0	0	0
1405	250	236	243
1406	251	232	239
1407	243	214	229
1408	245	210	233
1409	249	210	236
1410	255	216	241
1411	255	210	237
1412	251	199	228
1413	0	0	0
1414	253	199	231
1415	255	200	232
1416	252	195	226
1417	248	188	221
1418	250	190	224
1419	249	187	223
1420	255	194	230
1421	255	199	235
1422	254	188	228
1423	0	0	0
1424	0	0	0
1425	255	193	229
1426	255	195	225
1427	255	199	227
1428	254	193	226
1429	252	191	227
1430	253	195	231
1431	252	198	231
1432	254	204	231
1433	255	211	235
1434	255	207	233
1435	254	208	232
1436	249	207	226
1437	251	218	231
1438	0	0	0
1439	0	0	0
1440	0	0	0
1441	0	0	0
1442	0	0	0
1443	0	0	0
1444	0	0	0
1445	242	218	230
1446	242	211	228
1447	245	207	232
1448	254	214	240
1449	0	0	0
1450	254	207	232
1451	0	0	0
1452	0	0	0
1453	0	0	0
1454	252	199	229
1455	249	194	225
1456	251	196	226
1457	0	0	0
1458	0	0	0
1459	255	209	233
1460	255	197	227
1461	0	0	0
1462	0	0	0
1463	0	0	0
1464	0	0	0
1465	255	203	227
1466	253	196	222
1467	248	190	222
1468	251	196	228
1469	252	200	231
1470	254	207	233
1471	255	213	233
1472	254	210	229
1473	251	206	228
1474	255	214	233
1475	253	215	231
1476	250	219	233
1477	0	0	0
1478	0	0	0
1479	0	0	0
1480	0	0	0
1481	0	0	0
1482	0	0	0
1483	0	0	0
1484	0	0	0
1485	0	0	0
1486	0	0	0
1487	0	0	0
1488	0	0	0
1489	0	0	0
1490	0	0	0
1491	0	0	0
1492	0	0	0
1493	0	0	0
1494	0	0	0
1495	0	0	0
1496	0	0	0
1497	0	0	0
1498	0	0	0
1499	0	0	0
1500	0	0	0
1501	0	0	0
1502	0	0	0
1503	0	0	0
1504	0	0	0
1505	0	0	0
1506	250	198	226
1507	251	203	230
1508	255	211	234
1509	255	219	237
1510	255	219	234
1511	255	215	230
1512	252	211	229
1513	255	219	236
1514	250	212	231
1515	0	0	0
1516	0	0	0
1517	0	0	0
1518	0	0	0
1519	0	0	0
1520	0	0	0
1521	0	0	0
1522	0	0	0
1523	0	0	0
1524	0	0	0
1525	0	0	0
1526	0	0	0
1527	0	0	0
1528	0	0	0
1529	0	0	0
1530	0	0	0
1531	0	0	0
1532	0	0	0
1533	0	0	0
1534	0	0	0
1535	0	0	0
1536	0	0	0
1537	0	0	0
1538	0	0	0
1539	0	0	0
1540	0	0	0
1541	0	0	0
1542	0	0	0
1543	0	0	0
1544	0	0	0
1545	0	0	0
1546	253	214	234
1547	255	222	237
1548	255	222	234
1549	255	222	231
1550	253	217	228
1551	250	213	230
1552	249	212	232
1553	0	0	0
1554	0	0	0
1555	0	0	0
1556	0	0	0
1557	0	0	0
1558	0	0	0
1559	0	0	0
1560	0	0	0
1561	0	0	0
1562	0	0	0
1563	0	0	0
1564	0	0	0
1565	0	0	0
1566	0	0	0
1567	0	0	0
1568	0	0	0
1569	0	0	0
1570	0	0	0
1571	0	0	0
1572	0	0	0
1573	0	0	0
1574	0	0	0
1575	0	0	0
1576	0	0	0
1577	0	0	0
1578	0	0	0
1579	0	0	0
1580	0	0	0
1581	0	0	0
1582	0	0	0
1583	0	0	0
1584	0	0	0
1585	0	0	0
1586	255	228	236
1587	255	227	233
1588	255	226	230
1589	0	0	0
1590	0	0	0
1591	0	0	0
1592	0	0	0
1593	0	0	0
1594	0	0	0
1595	0	0	0
1596	0	0	0
1597	0	0	0
1598	0	0	0
1599	0	0	0
