 	R	G	B
1	0	0	0
2	255	234	212
3	255	225	205
4	255	211	200
5	245	191	191
6	255	201	202
7	255	204	205
8	255	201	203
9	253	196	197
10	255	204	202
11	255	212	206
12	255	213	206
13	255	216	207
14	255	220	209
15	0	0	0
16	0	0	0
17	0	0	0
18	255	233	214
19	255	229	213
20	253	203	199
21	250	191	197
22	243	173	192
23	254	183	204
24	251	178	199
25	249	174	195
26	250	176	195
27	254	184	199
28	252	186	198
29	248	186	195
30	253	198	201
31	252	201	201
32	250	207	202
33	0	0	0
34	0	0	0
35	251	219	206
36	245	197	196
37	237	173	189
38	237	163	192
39	229	146	187
40	234	149	193
41	232	143	188
42	239	150	191
43	240	153	191
44	246	160	195
45	245	162	194
46	250	174	198
47	253	185	202
48	252	189	201
49	249	193	201
50	0	0	0
51	0	0	0
52	247	214	207
53	241	192	199
54	237	174	198
55	237	164	202
56	232	152	200
57	238	155	206
58	239	153	204
59	249	162	210
60	243	149	200
61	252	159	205
62	248	155	200
63	253	167	204
64	253	173	204
65	249	175	201
66	248	184	202
67	249	196	207
68	0	0	0
69	239	202	205
70	237	186	203
71	231	167	199
72	234	162	205
73	229	150	201
74	236	155	208
75	239	154	209
76	240	148	206
77	234	135	196
78	240	140	198
79	239	138	196
80	248	151	203
81	249	158	204
82	251	169	207
83	249	177	206
84	251	189	209
85	250	201	212
86	238	204	212
87	239	189	211
88	230	164	205
89	232	159	209
90	227	148	205
91	236	154	213
92	238	150	212
93	238	144	209
94	233	134	200
95	236	137	202
96	245	146	208
97	255	163	219
98	248	147	206
99	249	157	208
100	249	168	208
101	251	180	210
102	248	193	211
103	232	199	212
104	233	182	211
105	225	158	207
106	229	156	214
107	226	145	211
108	232	146	215
109	233	142	212
110	236	139	210
111	230	129	202
112	238	140	208
113	247	149	214
114	246	142	209
115	234	127	196
116	242	145	205
117	245	157	207
118	253	177	214
119	249	188	211
120	234	206	217
121	238	190	219
122	234	168	217
123	239	167	226
124	233	151	220
125	237	152	223
126	233	141	215
127	235	137	212
128	230	127	204
129	240	139	212
130	244	144	215
131	238	135	207
132	234	130	202
133	246	151	213
134	242	151	208
135	252	171	216
136	244	175	207
137	239	214	221
138	242	197	222
139	236	173	220
140	236	165	223
141	230	150	218
142	231	144	217
143	227	133	210
144	231	132	210
145	227	122	203
146	237	133	211
147	241	138	213
148	239	137	212
149	234	132	207
150	238	140	210
151	234	141	206
152	242	157	211
153	236	161	202
154	240	213	221
155	240	193	220
156	226	162	212
157	221	151	213
158	227	152	218
159	232	149	220
160	230	136	214
161	234	136	216
162	231	125	209
163	243	137	217
164	237	129	211
165	233	127	208
166	228	125	205
167	231	133	208
168	233	140	210
169	239	155	215
170	230	153	204
171	239	211	221
172	228	181	212
173	215	150	207
174	223	156	220
175	228	156	223
176	230	148	220
177	227	135	214
178	227	130	213
179	223	119	208
180	227	119	208
181	221	111	200
182	221	114	201
183	217	113	198
184	228	130	209
185	229	137	210
186	228	143	211
187	221	142	206
188	235	208	219
189	219	175	207
190	220	163	216
191	236	173	233
192	233	160	226
193	230	149	221
194	225	138	216
195	222	131	214
196	220	126	212
197	222	125	212
198	224	126	210
199	228	132	213
200	223	124	208
201	235	141	220
202	221	127	206
203	219	133	207
204	227	154	218
205	235	207	220
206	228	190	218
207	228	177	223
208	235	172	228
209	231	159	223
210	228	150	220
211	222	138	216
212	221	136	217
213	219	132	214
214	226	138	218
215	229	139	218
216	228	136	215
217	223	128	211
218	222	126	211
219	208	112	198
220	221	140	213
221	227	159	220
222	238	207	223
223	232	191	220
224	231	179	223
225	234	172	227
226	229	159	222
227	224	150	219
228	222	145	219
229	223	144	221
230	217	133	214
231	228	141	221
232	228	137	217
233	224	133	214
234	220	126	211
235	217	124	211
236	210	121	206
237	221	147	220
238	219	156	217
239	237	206	224
240	231	190	221
241	229	178	223
242	228	169	224
243	223	157	221
244	223	155	223
245	221	149	221
246	216	141	217
247	212	130	212
248	222	135	218
249	222	132	215
250	216	126	211
251	211	119	209
252	215	127	214
253	208	124	209
254	213	141	216
255	212	150	216
256	0	0	0
257	227	190	219
258	229	187	226
259	225	176	226
260	226	171	228
261	229	171	232
262	217	150	221
263	211	141	216
264	217	144	222
265	228	149	229
266	219	134	218
267	212	127	214
268	212	129	216
269	218	138	222
270	218	143	222
271	225	162	231
272	214	156	222
273	234	209	223
274	230	201	222
275	231	197	228
276	227	188	228
277	228	183	231
278	222	168	227
279	212	148	219
280	214	151	224
281	218	152	227
282	215	142	223
283	206	127	214
284	209	133	219
285	209	135	219
286	219	150	228
287	219	156	228
288	216	159	226
289	205	153	217
290	0	0	0
291	229	202	220
292	233	205	229
293	228	196	230
294	225	186	230
295	221	172	228
296	219	164	230
297	223	167	236
298	218	160	232
299	207	145	222
300	211	151	228
301	219	160	236
302	210	147	226
303	216	160	233
304	210	157	227
305	208	160	225
306	207	167	225
307	0	0	0
308	232	212	225
309	234	213	232
310	223	197	227
311	219	186	228
312	218	179	231
313	215	171	233
314	214	168	234
315	207	160	230
316	207	163	232
317	211	169	236
318	209	163	232
319	198	149	223
320	197	153	224
321	192	150	220
322	202	167	228
323	0	0	0
324	0	0	0
325	0	0	0
326	231	217	230
327	218	200	224
328	217	198	230
329	211	188	230
330	208	184	234
331	207	180	236
332	204	178	235
333	208	183	240
334	208	184	240
335	203	176	234
336	190	162	225
337	0	0	0
338	0	0	0
339	0	0	0
340	0	0	0
341	0	0	0
342	0	0	0
343	0	0	0
344	0	0	0
345	0	0	0
346	0	0	0
347	212	202	236
348	208	199	238
349	204	195	238
350	202	195	238
351	203	196	238
352	199	188	235
353	0	0	0
354	0	0	0
355	0	0	0
356	0	0	0
357	0	0	0
