 	R	G	B
1	0	0	0
2	0	0	0
3	0	0	0
4	0	0	0
5	0	0	0
6	0	0	0
7	0	0	0
8	0	0	0
9	0	0	0
10	0	0	0
11	0	0	0
12	0	0	0
13	0	0	0
14	0	0	0
15	0	0	0
16	0	0	0
17	0	0	0
18	0	0	0
19	0	0	0
20	0	0	0
21	0	0	0
22	0	0	0
23	0	0	0
24	0	0	0
25	0	0	0
26	0	0	0
27	0	0	0
28	0	0	0
29	0	0	0
30	0	0	0
31	0	0	0
32	0	0	0
33	0	0	0
34	0	0	0
35	0	0	0
36	0	0	0
37	0	0	0
38	0	0	0
39	0	0	0
40	240	228	226
41	235	220	222
42	232	219	222
43	233	220	226
44	0	0	0
45	0	0	0
46	0	0	0
47	0	0	0
48	0	0	0
49	0	0	0
50	0	0	0
51	0	0	0
52	0	0	0
53	0	0	0
54	0	0	0
55	0	0	0
56	0	0	0
57	0	0	0
58	0	0	0
59	0	0	0
60	0	0	0
61	0	0	0
62	0	0	0
63	0	0	0
64	0	0	0
65	0	0	0
66	0	0	0
67	0	0	0
68	0	0	0
69	0	0	0
70	0	0	0
71	0	0	0
72	0	0	0
73	0	0	0
74	0	0	0
75	0	0	0
76	0	0	0
77	0	0	0
78	0	0	0
79	0	0	0
80	0	0	0
81	0	0	0
82	0	0	0
83	0	0	0
84	0	0	0
85	0	0	0
86	0	0	0
87	0	0	0
88	0	0	0
89	0	0	0
90	0	0	0
91	0	0	0
92	0	0	0
93	0	0	0
94	0	0	0
95	0	0	0
96	0	0	0
97	0	0	0
98	0	0	0
99	0	0	0
100	0	0	0
101	0	0	0
102	0	0	0
103	0	0	0
104	0	0	0
105	0	0	0
106	0	0	0
107	0	0	0
108	0	0	0
109	0	0	0
110	0	0	0
111	0	0	0
112	0	0	0
113	0	0	0
114	240	227	224
115	243	225	225
116	239	217	222
117	238	217	225
118	236	217	225
119	232	214	223
120	0	0	0
121	237	223	227
122	0	0	0
123	0	0	0
124	0	0	0
125	0	0	0
126	0	0	0
127	0	0	0
128	0	0	0
129	0	0	0
130	0	0	0
131	0	0	0
132	0	0	0
133	0	0	0
134	0	0	0
135	0	0	0
136	0	0	0
137	0	0	0
138	0	0	0
139	0	0	0
140	0	0	0
141	0	0	0
142	0	0	0
143	0	0	0
144	0	0	0
145	0	0	0
146	0	0	0
147	0	0	0
148	0	0	0
149	0	0	0
150	0	0	0
151	0	0	0
152	0	0	0
153	0	0	0
154	0	0	0
155	0	0	0
156	0	0	0
157	0	0	0
158	0	0	0
159	0	0	0
160	0	0	0
161	0	0	0
162	0	0	0
163	0	0	0
164	0	0	0
165	0	0	0
166	0	0	0
167	0	0	0
168	0	0	0
169	0	0	0
170	0	0	0
171	0	0	0
172	0	0	0
173	0	0	0
174	0	0	0
175	0	0	0
176	0	0	0
177	0	0	0
178	0	0	0
179	0	0	0
180	0	0	0
181	0	0	0
182	0	0	0
183	0	0	0
184	241	233	228
185	244	236	230
186	245	232	229
187	244	228	229
188	243	227	228
189	245	227	226
190	244	220	223
191	241	213	223
192	241	214	226
193	237	212	224
194	237	216	225
195	239	221	229
196	238	220	229
197	233	215	224
198	0	0	0
199	0	0	0
200	0	0	0
201	0	0	0
202	0	0	0
203	0	0	0
204	0	0	0
205	0	0	0
206	0	0	0
207	0	0	0
208	0	0	0
209	0	0	0
210	0	0	0
211	0	0	0
212	0	0	0
213	0	0	0
214	0	0	0
215	0	0	0
216	0	0	0
217	0	0	0
218	0	0	0
219	0	0	0
220	0	0	0
221	0	0	0
222	0	0	0
223	0	0	0
224	0	0	0
225	0	0	0
226	0	0	0
227	0	0	0
228	0	0	0
229	0	0	0
230	0	0	0
231	0	0	0
232	0	0	0
233	0	0	0
234	0	0	0
235	0	0	0
236	0	0	0
237	0	0	0
238	0	0	0
239	0	0	0
240	0	0	0
241	0	0	0
242	0	0	0
243	0	0	0
244	0	0	0
245	0	0	0
246	237	211	223
247	242	214	225
248	0	0	0
249	0	0	0
250	0	0	0
251	0	0	0
252	0	0	0
253	0	0	0
254	0	0	0
255	0	0	0
256	0	0	0
257	0	0	0
258	241	224	222
259	242	225	224
260	240	220	221
261	242	217	221
262	246	220	225
263	246	219	225
264	243	214	221
265	236	204	215
266	241	210	223
267	243	212	226
268	240	210	223
269	242	215	226
270	241	216	228
271	237	212	225
272	235	213	225
273	0	0	0
274	0	0	0
275	0	0	0
276	0	0	0
277	0	0	0
278	0	0	0
279	0	0	0
280	0	0	0
281	0	0	0
282	0	0	0
283	0	0	0
284	0	0	0
285	0	0	0
286	0	0	0
287	0	0	0
288	0	0	0
289	0	0	0
290	0	0	0
291	0	0	0
292	0	0	0
293	0	0	0
294	0	0	0
295	0	0	0
296	0	0	0
297	0	0	0
298	0	0	0
299	0	0	0
300	0	0	0
301	0	0	0
302	0	0	0
303	0	0	0
304	0	0	0
305	0	0	0
306	0	0	0
307	0	0	0
308	0	0	0
309	0	0	0
310	0	0	0
311	0	0	0
312	0	0	0
313	0	0	0
314	0	0	0
315	0	0	0
316	0	0	0
317	0	0	0
318	0	0	0
319	0	0	0
320	238	209	224
321	240	208	224
322	242	208	224
323	237	201	218
324	244	212	225
325	247	220	228
326	245	219	226
327	247	222	228
328	248	221	227
329	248	219	225
330	247	217	223
331	244	213	220
332	244	216	222
333	246	219	225
334	239	211	219
335	237	205	216
336	243	209	219
337	247	211	221
338	244	206	218
339	241	202	217
340	242	206	221
341	244	209	224
342	243	208	223
343	241	207	220
344	240	208	221
345	240	208	223
346	241	213	226
347	239	213	225
348	0	0	0
349	0	0	0
350	0	0	0
351	0	0	0
352	0	0	0
353	0	0	0
354	0	0	0
355	0	0	0
356	0	0	0
357	0	0	0
358	0	0	0
359	0	0	0
360	0	0	0
361	0	0	0
362	0	0	0
363	0	0	0
364	0	0	0
365	0	0	0
366	0	0	0
367	0	0	0
368	0	0	0
369	0	0	0
370	0	0	0
371	0	0	0
372	0	0	0
373	0	0	0
374	0	0	0
375	0	0	0
376	0	0	0
377	0	0	0
378	0	0	0
379	0	0	0
380	0	0	0
381	0	0	0
382	0	0	0
383	0	0	0
384	0	0	0
385	0	0	0
386	0	0	0
387	236	229	227
388	239	230	230
389	0	0	0
390	0	0	0
391	0	0	0
392	0	0	0
393	241	212	224
394	241	208	223
395	247	212	228
396	241	201	223
397	243	200	222
398	246	202	224
399	255	215	233
400	248	203	222
401	245	202	219
402	248	209	223
403	243	204	219
404	246	209	221
405	248	208	221
406	247	206	220
407	247	209	223
408	244	206	221
409	236	197	215
410	242	204	220
411	248	207	223
412	247	203	220
413	243	198	217
414	244	200	220
415	247	204	224
416	245	204	222
417	240	201	218
418	241	206	220
419	242	207	222
420	242	207	223
421	247	212	228
422	239	207	223
423	0	0	0
424	0	0	0
425	0	0	0
426	0	0	0
427	0	0	0
428	0	0	0
429	0	0	0
430	0	0	0
431	0	0	0
432	0	0	0
433	0	0	0
434	0	0	0
435	0	0	0
436	0	0	0
437	0	0	0
438	0	0	0
439	0	0	0
440	0	0	0
441	0	0	0
442	0	0	0
443	0	0	0
444	0	0	0
445	0	0	0
446	0	0	0
447	0	0	0
448	0	0	0
449	0	0	0
450	0	0	0
451	0	0	0
452	0	0	0
453	0	0	0
454	0	0	0
455	0	0	0
456	0	0	0
457	0	0	0
458	0	0	0
459	0	0	0
460	0	0	0
461	237	229	229
462	243	231	232
463	246	232	234
464	245	229	232
465	246	227	232
466	246	222	228
467	246	218	226
468	246	213	225
469	247	210	225
470	247	204	225
471	242	193	221
472	244	196	224
473	247	197	224
474	244	189	219
475	237	178	211
476	242	187	217
477	245	194	219
478	242	195	218
479	246	200	221
480	248	200	220
481	246	197	217
482	243	194	216
483	241	192	218
484	243	197	222
485	248	203	224
486	247	198	221
487	245	195	221
488	245	195	221
489	245	196	221
490	246	198	222
491	244	198	222
492	243	201	222
493	243	205	222
494	242	204	221
495	242	204	223
496	245	206	226
497	237	201	221
498	0	0	0
499	0	0	0
500	0	0	0
501	0	0	0
502	0	0	0
503	0	0	0
504	0	0	0
505	0	0	0
506	0	0	0
507	0	0	0
508	0	0	0
509	0	0	0
510	0	0	0
511	0	0	0
512	0	0	0
513	0	0	0
514	0	0	0
515	0	0	0
516	0	0	0
517	0	0	0
518	0	0	0
519	0	0	0
520	0	0	0
521	0	0	0
522	0	0	0
523	0	0	0
524	0	0	0
525	0	0	0
526	0	0	0
527	0	0	0
528	0	0	0
529	0	0	0
530	0	0	0
531	0	0	0
532	0	0	0
533	0	0	0
534	0	0	0
535	0	0	0
536	242	229	231
537	252	233	237
538	242	216	226
539	238	211	223
540	243	216	227
541	243	211	223
542	245	209	222
543	247	206	222
544	249	202	224
545	249	196	225
546	241	184	220
547	238	184	220
548	243	192	224
549	238	183	218
550	241	185	220
551	251	197	229
552	246	190	223
553	245	192	222
554	248	196	224
555	248	194	221
556	247	191	218
557	246	189	218
558	248	192	224
559	251	198	228
560	250	197	225
561	247	191	221
562	249	194	225
563	246	194	224
564	245	195	222
565	247	197	223
566	245	197	223
567	244	200	223
568	241	199	221
569	240	198	219
570	242	201	223
571	242	202	224
572	237	200	222
573	0	0	0
574	0	0	0
575	0	0	0
576	0	0	0
577	0	0	0
578	0	0	0
579	0	0	0
580	0	0	0
581	0	0	0
582	0	0	0
583	0	0	0
584	0	0	0
585	0	0	0
586	0	0	0
587	0	0	0
588	0	0	0
589	0	0	0
590	0	0	0
591	0	0	0
592	0	0	0
593	0	0	0
594	0	0	0
595	0	0	0
596	0	0	0
597	0	0	0
598	0	0	0
599	0	0	0
600	0	0	0
601	0	0	0
602	0	0	0
603	0	0	0
604	0	0	0
605	0	0	0
606	0	0	0
607	0	0	0
608	0	0	0
609	0	0	0
610	0	0	0
611	247	228	232
612	246	216	227
613	238	200	220
614	242	206	226
615	247	210	229
616	249	208	228
617	251	206	226
618	249	200	223
619	250	196	226
620	246	186	224
621	237	173	217
622	241	182	223
623	245	190	229
624	243	189	226
625	244	190	225
626	242	185	222
627	239	179	219
628	244	185	223
629	247	188	223
630	247	187	222
631	248	185	222
632	252	190	225
633	254	192	227
634	253	192	227
635	252	191	225
636	254	194	227
637	255	197	230
638	253	197	229
639	251	197	226
640	250	197	225
641	249	198	225
642	246	197	224
643	243	196	222
644	242	198	223
645	243	200	224
646	245	203	226
647	241	202	224
648	243	212	230
649	0	0	0
650	0	0	0
651	0	0	0
652	0	0	0
653	0	0	0
654	0	0	0
655	0	0	0
656	0	0	0
657	0	0	0
658	0	0	0
659	0	0	0
660	0	0	0
661	0	0	0
662	0	0	0
663	0	0	0
664	0	0	0
665	0	0	0
666	0	0	0
667	0	0	0
668	0	0	0
669	0	0	0
670	0	0	0
671	0	0	0
672	0	0	0
673	0	0	0
674	0	0	0
675	0	0	0
676	0	0	0
677	0	0	0
678	0	0	0
679	0	0	0
680	0	0	0
681	0	0	0
682	0	0	0
683	0	0	0
684	243	220	227
685	244	220	229
686	248	220	230
687	244	207	225
688	240	195	222
689	248	203	231
690	251	202	230
691	254	200	229
692	249	190	222
693	242	181	218
694	247	188	227
695	239	176	221
696	243	180	225
697	253	192	235
698	247	185	229
699	242	182	224
700	248	193	228
701	242	186	222
702	244	186	226
703	253	194	233
704	248	184	225
705	249	183	225
706	249	180	224
707	255	185	228
708	252	181	225
709	250	180	223
710	251	183	224
711	254	186	227
712	252	183	225
713	251	184	225
714	246	182	221
715	243	181	219
716	247	189	224
717	247	189	224
718	243	188	221
719	238	188	219
720	243	197	224
721	246	201	227
722	240	194	222
723	243	205	228
724	239	207	226
725	0	0	0
726	0	0	0
727	0	0	0
728	0	0	0
729	0	0	0
730	0	0	0
731	0	0	0
732	0	0	0
733	0	0	0
734	0	0	0
735	0	0	0
736	0	0	0
737	0	0	0
738	0	0	0
739	0	0	0
740	0	0	0
741	0	0	0
742	0	0	0
743	0	0	0
744	0	0	0
745	0	0	0
746	0	0	0
747	0	0	0
748	0	0	0
749	0	0	0
750	0	0	0
751	0	0	0
752	0	0	0
753	0	0	0
754	0	0	0
755	0	0	0
756	0	0	0
757	245	225	229
758	246	220	227
759	244	213	224
760	243	211	225
761	246	212	229
762	241	198	224
763	237	187	221
764	243	189	225
765	246	187	223
766	243	179	219
767	238	169	215
768	238	172	219
769	240	177	225
770	239	178	226
771	243	182	228
772	246	180	227
773	240	172	221
774	244	183	226
775	250	195	229
776	247	191	225
777	250	192	228
778	250	186	228
779	246	176	224
780	248	175	226
781	248	173	224
782	251	173	225
783	247	168	221
784	245	169	220
785	246	172	221
786	246	171	220
787	245	168	219
788	244	169	220
789	242	168	220
790	243	174	223
791	246	181	226
792	248	182	225
793	244	181	221
794	245	188	224
795	248	197	230
796	241	190	224
797	234	184	218
798	238	192	222
799	233	195	220
800	0	0	0
801	0	0	0
802	0	0	0
803	0	0	0
804	0	0	0
805	0	0	0
806	0	0	0
807	0	0	0
808	0	0	0
809	0	0	0
810	0	0	0
811	0	0	0
812	0	0	0
813	0	0	0
814	0	0	0
815	0	0	0
816	0	0	0
817	0	0	0
818	0	0	0
819	0	0	0
820	0	0	0
821	0	0	0
822	0	0	0
823	0	0	0
824	0	0	0
825	0	0	0
826	0	0	0
827	0	0	0
828	0	0	0
829	0	0	0
830	0	0	0
831	239	215	226
832	243	217	228
833	244	212	226
834	242	206	223
835	243	204	225
836	246	206	230
837	238	191	224
838	241	190	228
839	248	193	233
840	245	184	226
841	239	174	220
842	241	177	225
843	241	179	229
844	240	181	231
845	240	182	231
846	243	185	232
847	244	182	229
848	239	174	224
849	245	186	230
850	248	191	230
851	248	188	227
852	250	187	228
853	249	180	227
854	244	170	224
855	246	169	227
856	251	172	229
857	255	173	230
858	247	163	223
859	241	163	220
860	247	173	225
861	249	173	225
862	247	168	223
863	247	169	225
864	246	169	226
865	248	176	230
866	251	182	232
867	253	183	230
868	250	180	225
869	254	190	230
870	249	189	228
871	231	177	217
872	236	190	224
873	245	201	231
874	235	194	221
875	0	0	0
876	0	0	0
877	0	0	0
878	0	0	0
879	0	0	0
880	0	0	0
881	0	0	0
882	0	0	0
883	0	0	0
884	0	0	0
885	0	0	0
886	0	0	0
887	0	0	0
888	0	0	0
889	0	0	0
890	0	0	0
891	0	0	0
892	0	0	0
893	0	0	0
894	0	0	0
895	0	0	0
896	0	0	0
897	0	0	0
898	0	0	0
899	0	0	0
900	0	0	0
901	0	0	0
902	244	230	235
903	250	231	238
904	247	221	234
905	241	209	228
906	241	209	229
907	244	212	231
908	242	204	227
909	239	197	223
910	239	196	224
911	242	198	229
912	240	192	229
913	241	190	231
914	239	183	228
915	236	174	223
916	239	177	226
917	240	178	228
918	241	182	232
919	241	184	235
920	240	185	235
921	243	188	235
922	244	184	232
923	239	176	227
924	241	181	230
925	245	186	233
926	245	182	229
927	247	181	229
928	245	172	225
929	241	161	223
930	247	167	230
931	252	170	232
932	252	166	230
933	244	156	222
934	245	165	225
935	252	176	232
936	252	172	229
937	250	167	227
938	251	169	229
939	249	169	228
940	249	173	230
941	252	178	232
942	252	178	229
943	250	176	225
944	251	179	226
945	245	178	223
946	240	186	225
947	245	198	232
948	246	200	231
949	236	193	222
950	241	212	230
951	0	0	0
952	0	0	0
953	0	0	0
954	0	0	0
955	0	0	0
956	0	0	0
957	0	0	0
958	0	0	0
959	0	0	0
960	0	0	0
961	0	0	0
962	0	0	0
963	0	0	0
964	0	0	0
965	0	0	0
966	0	0	0
967	0	0	0
968	0	0	0
969	0	0	0
970	0	0	0
971	0	0	0
972	0	0	0
973	0	0	0
974	0	0	0
975	0	0	0
976	241	224	233
977	250	228	238
978	247	216	233
979	242	206	228
980	244	205	230
981	244	205	232
982	244	205	233
983	239	196	227
984	241	198	228
985	239	196	229
986	241	196	233
987	241	192	234
988	241	190	234
989	232	178	227
990	238	185	233
991	244	190	238
992	239	181	233
993	244	186	237
994	241	184	236
995	238	183	235
996	241	185	235
997	243	182	234
998	239	175	229
999	240	179	232
1000	245	187	237
1001	244	183	234
1002	249	183	234
1003	249	175	232
1004	244	161	226
1005	251	167	233
1006	251	165	233
1007	248	160	229
1008	246	157	225
1009	253	168	232
1010	255	171	233
1011	253	165	229
1012	248	158	225
1013	249	161	227
1014	254	170	231
1015	252	173	231
1016	247	170	228
1017	245	168	225
1018	249	176	228
1019	251	179	228
1020	245	176	224
1021	247	187	230
1022	245	191	231
1023	241	189	227
1024	236	190	222
1025	245	211	233
1026	242	215	230
1027	0	0	0
1028	0	0	0
1029	0	0	0
1030	0	0	0
1031	0	0	0
1032	0	0	0
1033	0	0	0
1034	0	0	0
1035	0	0	0
1036	0	0	0
1037	0	0	0
1038	0	0	0
1039	0	0	0
1040	0	0	0
1041	0	0	0
1042	0	0	0
1043	0	0	0
1044	0	0	0
1045	0	0	0
1046	0	0	0
1047	0	0	0
1048	0	0	0
1049	0	0	0
1050	0	0	0
1051	0	0	0
1052	236	206	227
1053	233	194	222
1054	235	194	224
1055	236	192	225
1056	234	191	225
1057	234	191	228
1058	237	193	230
1059	237	195	230
1060	232	190	227
1061	233	189	231
1062	235	188	233
1063	234	185	231
1064	234	188	234
1065	240	195	239
1066	237	187	236
1067	233	178	232
1068	234	178	234
1069	232	176	231
1070	231	176	230
1071	234	178	232
1072	234	175	230
1073	231	168	226
1074	235	175	230
1075	239	182	233
1076	237	177	230
1077	242	178	232
1078	239	164	226
1079	233	150	219
1080	239	153	224
1081	239	152	223
1082	241	153	224
1083	240	151	222
1084	247	156	226
1085	249	159	228
1086	243	151	222
1087	239	145	218
1088	251	159	227
1089	255	168	229
1090	248	164	225
1091	243	161	225
1092	245	168	229
1093	248	175	232
1094	246	174	229
1095	243	172	225
1096	244	179	228
1097	243	183	228
1098	241	186	228
1099	237	187	225
1100	239	196	227
1101	236	200	223
1102	239	212	226
1103	0	0	0
1104	0	0	0
1105	0	0	0
1106	0	0	0
1107	0	0	0
1108	0	0	0
1109	0	0	0
1110	0	0	0
1111	0	0	0
1112	0	0	0
1113	0	0	0
1114	0	0	0
1115	0	0	0
1116	0	0	0
1117	0	0	0
1118	0	0	0
1119	0	0	0
1120	0	0	0
1121	0	0	0
1122	0	0	0
1123	0	0	0
1124	0	0	0
1125	0	0	0
1126	0	0	0
1127	0	0	0
1128	0	0	0
1129	0	0	0
1130	0	0	0
1131	0	0	0
1132	0	0	0
1133	244	207	242
1134	236	196	233
1135	227	189	228
1136	233	198	237
1137	0	0	0
1138	0	0	0
1139	240	200	242
1140	240	200	241
1141	234	190	236
1142	233	188	238
1143	232	187	238
1144	235	190	239
1145	241	194	242
1146	235	184	236
1147	229	177	231
1148	235	183	235
1149	243	193	241
1150	241	188	237
1151	236	182	231
1152	240	184	235
1153	235	170	228
1154	240	171	231
1155	246	174	236
1156	236	155	226
1157	240	158	229
1158	243	159	230
1159	251	165	235
1160	247	158	230
1161	239	149	223
1162	249	161	230
1163	255	177	240
1164	248	158	224
1165	241	154	221
1166	243	161	229
1167	244	167	232
1168	247	176	234
1169	244	174	229
1170	246	178	230
1171	252	186	235
1172	245	180	230
1173	241	183	229
1174	241	190	230
1175	244	199	232
1176	241	199	226
1177	245	213	231
1178	241	214	227
1179	0	0	0
1180	0	0	0
1181	0	0	0
1182	0	0	0
1183	0	0	0
1184	0	0	0
1185	0	0	0
1186	0	0	0
1187	0	0	0
1188	0	0	0
1189	0	0	0
1190	0	0	0
1191	0	0	0
1192	0	0	0
1193	0	0	0
1194	0	0	0
1195	0	0	0
1196	0	0	0
1197	0	0	0
1198	0	0	0
1199	0	0	0
1200	0	0	0
1201	0	0	0
1202	0	0	0
1203	0	0	0
1204	0	0	0
1205	0	0	0
1206	0	0	0
1207	0	0	0
1208	0	0	0
1209	0	0	0
1210	0	0	0
1211	0	0	0
1212	0	0	0
1213	0	0	0
1214	0	0	0
1215	232	198	236
1216	229	194	235
1217	229	193	237
1218	230	195	239
1219	232	198	239
1220	230	190	236
1221	225	180	233
1222	228	187	237
1223	233	193	238
1224	237	192	236
1225	236	189	234
1226	235	187	232
1227	239	189	235
1228	242	187	235
1229	247	188	238
1230	238	171	231
1231	229	154	224
1232	237	159	232
1233	241	161	234
1234	243	158	233
1235	239	151	228
1236	245	161	233
1237	252	172	237
1238	243	157	226
1239	231	140	215
1240	237	151	223
1241	239	157	228
1242	241	165	230
1243	244	174	230
1244	243	175	228
1245	245	178	228
1246	245	178	229
1247	240	173	226
1248	239	180	229
1249	239	187	228
1250	239	190	227
1251	237	192	224
1252	238	198	225
1253	235	199	220
1254	236	207	222
1255	0	0	0
1256	0	0	0
1257	0	0	0
1258	0	0	0
1259	0	0	0
1260	0	0	0
1261	0	0	0
1262	0	0	0
1263	0	0	0
1264	0	0	0
1265	0	0	0
1266	0	0	0
1267	0	0	0
1268	0	0	0
1269	0	0	0
1270	0	0	0
1271	0	0	0
1272	0	0	0
1273	0	0	0
1274	0	0	0
1275	0	0	0
1276	0	0	0
1277	0	0	0
1278	0	0	0
1279	0	0	0
1280	0	0	0
1281	0	0	0
1282	0	0	0
1283	0	0	0
1284	0	0	0
1285	0	0	0
1286	0	0	0
1287	0	0	0
1288	0	0	0
1289	227	203	235
1290	228	207	235
1291	226	204	233
1292	230	209	239
1293	234	212	243
1294	230	206	239
1295	223	195	233
1296	222	193	236
1297	229	202	243
1298	230	200	238
1299	234	199	237
1300	230	189	231
1301	232	189	231
1302	239	194	235
1303	243	192	236
1304	243	187	235
1305	233	170	228
1306	235	167	233
1307	243	173	241
1308	243	170	240
1309	243	166	238
1310	241	160	235
1311	249	172	241
1312	247	171	235
1313	233	153	222
1314	233	153	225
1315	244	167	236
1316	242	166	234
1317	247	175	236
1318	249	180	235
1319	248	182	232
1320	246	179	229
1321	243	177	227
1322	238	174	227
1323	237	182	230
1324	237	188	229
1325	237	192	228
1326	236	192	226
1327	239	198	228
1328	239	201	225
1329	242	210	228
1330	238	211	225
1331	0	0	0
1332	0	0	0
1333	0	0	0
1334	0	0	0
1335	0	0	0
1336	0	0	0
1337	0	0	0
1338	0	0	0
1339	0	0	0
1340	0	0	0
1341	0	0	0
1342	0	0	0
1343	0	0	0
1344	0	0	0
1345	0	0	0
1346	0	0	0
1347	0	0	0
1348	0	0	0
1349	0	0	0
1350	0	0	0
1351	0	0	0
1352	0	0	0
1353	0	0	0
1354	0	0	0
1355	0	0	0
1356	0	0	0
1357	0	0	0
1358	0	0	0
1359	0	0	0
1360	0	0	0
1361	0	0	0
1362	0	0	0
1363	0	0	0
1364	0	0	0
1365	230	219	235
1366	231	220	235
1367	236	226	241
1368	233	219	239
1369	229	213	236
1370	225	209	236
1371	224	206	239
1372	224	205	239
1373	226	204	236
1374	223	195	230
1375	221	186	225
1376	228	191	230
1377	235	195	233
1378	236	189	232
1379	237	184	234
1380	236	180	235
1381	237	177	237
1382	240	176	240
1383	240	173	238
1384	239	169	237
1385	238	164	235
1386	242	168	237
1387	241	167	233
1388	236	165	230
1389	236	165	233
1390	242	170	237
1391	241	169	233
1392	246	177	236
1393	250	184	236
1394	246	180	231
1395	242	177	227
1396	239	175	226
1397	233	172	225
1398	235	181	229
1399	236	188	230
1400	236	189	229
1401	235	189	226
1402	240	197	229
1403	242	201	228
1404	243	205	229
1405	241	206	228
1406	240	213	231
1407	0	0	0
1408	0	0	0
1409	0	0	0
1410	0	0	0
1411	0	0	0
1412	0	0	0
1413	0	0	0
1414	0	0	0
1415	0	0	0
1416	0	0	0
1417	0	0	0
1418	0	0	0
1419	0	0	0
1420	0	0	0
1421	0	0	0
1422	0	0	0
1423	0	0	0
1424	0	0	0
1425	0	0	0
1426	0	0	0
1427	0	0	0
1428	0	0	0
1429	0	0	0
1430	0	0	0
1431	0	0	0
1432	0	0	0
1433	0	0	0
1434	0	0	0
1435	0	0	0
1436	0	0	0
1437	0	0	0
1438	0	0	0
1439	0	0	0
1440	0	0	0
1441	0	0	0
1442	0	0	0
1443	0	0	0
1444	0	0	0
1445	0	0	0
1446	0	0	0
1447	0	0	0
1448	0	0	0
1449	0	0	0
1450	229	207	236
1451	238	213	242
1452	233	201	236
1453	234	195	235
1454	238	196	240
1455	239	192	241
1456	235	182	238
1457	238	182	240
1458	241	182	241
1459	240	179	239
1460	240	176	240
1461	246	181	244
1462	242	173	236
1463	241	173	236
1464	241	173	238
1465	242	176	239
1466	239	171	233
1467	247	181	237
1468	247	182	235
1469	242	178	230
1470	238	177	228
1471	233	175	226
1472	234	179	229
1473	241	191	236
1474	239	190	234
1475	240	192	234
1476	235	185	228
1477	240	192	231
1478	240	193	228
1479	244	198	230
1480	243	199	230
1481	245	208	233
1482	242	210	230
1483	0	0	0
1484	0	0	0
1485	0	0	0
1486	0	0	0
1487	241	224	231
1488	0	0	0
1489	0	0	0
1490	0	0	0
1491	0	0	0
1492	0	0	0
1493	0	0	0
1494	0	0	0
1495	0	0	0
1496	0	0	0
1497	0	0	0
1498	0	0	0
1499	0	0	0
1500	0	0	0
1501	0	0	0
1502	0	0	0
1503	0	0	0
1504	0	0	0
1505	0	0	0
1506	0	0	0
1507	0	0	0
1508	0	0	0
1509	0	0	0
1510	0	0	0
1511	0	0	0
1512	0	0	0
1513	0	0	0
1514	0	0	0
1515	0	0	0
1516	0	0	0
1517	0	0	0
1518	0	0	0
1519	0	0	0
1520	0	0	0
1521	0	0	0
1522	0	0	0
1523	0	0	0
1524	0	0	0
1525	0	0	0
1526	232	215	237
1527	228	204	236
1528	231	203	239
1529	235	202	240
1530	232	194	237
1531	229	185	234
1532	237	189	240
1533	239	189	241
1534	238	186	239
1535	239	184	240
1536	240	181	240
1537	237	174	235
1538	241	178	239
1539	241	178	238
1540	237	175	235
1541	235	172	231
1542	240	176	234
1543	241	178	231
1544	238	177	229
1545	235	177	230
1546	236	182	233
1547	237	186	236
1548	238	188	236
1549	237	187	233
1550	233	182	229
1551	229	176	228
1552	233	180	230
1553	233	181	226
1554	237	185	226
1555	236	186	226
1556	237	191	227
1557	236	194	225
1558	242	206	230
1559	0	0	0
1560	0	0	0
1561	237	215	227
1562	240	217	228
1563	237	214	225
1564	238	221	228
1565	0	0	0
1566	0	0	0
1567	0	0	0
1568	0	0	0
1569	0	0	0
1570	0	0	0
1571	0	0	0
1572	0	0	0
1573	0	0	0
1574	0	0	0
1575	0	0	0
1576	0	0	0
1577	0	0	0
1578	0	0	0
1579	0	0	0
1580	0	0	0
1581	0	0	0
1582	0	0	0
1583	0	0	0
1584	0	0	0
1585	0	0	0
1586	0	0	0
1587	0	0	0
1588	0	0	0
1589	0	0	0
1590	0	0	0
1591	0	0	0
1592	0	0	0
1593	0	0	0
1594	0	0	0
1595	0	0	0
1596	0	0	0
1597	0	0	0
1598	0	0	0
1599	0	0	0
1600	0	0	0
1601	0	0	0
1602	0	0	0
1603	0	0	0
1604	233	214	241
1605	232	206	238
1606	232	200	238
1607	240	204	245
1608	234	193	239
1609	232	190	237
1610	239	196	243
1611	241	193	243
1612	234	179	236
1613	240	184	241
1614	238	180	238
1615	234	178	234
1616	239	185	237
1617	245	190	240
1618	240	183	233
1619	238	182	233
1620	238	183	235
1621	244	192	242
1622	239	187	237
1623	235	186	234
1624	231	182	231
1625	227	177	228
1626	236	187	237
1627	241	193	241
1628	235	185	232
1629	237	188	232
1630	238	190	232
1631	240	196	233
1632	238	196	231
1633	246	209	236
1634	242	207	229
1635	0	0	0
1636	244	219	232
1637	245	219	232
1638	237	210	226
1639	239	218	229
1640	238	222	229
1641	0	0	0
1642	0	0	0
1643	0	0	0
1644	0	0	0
1645	0	0	0
1646	0	0	0
1647	0	0	0
1648	0	0	0
1649	0	0	0
1650	0	0	0
1651	0	0	0
1652	0	0	0
1653	0	0	0
1654	0	0	0
1655	0	0	0
1656	0	0	0
1657	0	0	0
1658	0	0	0
1659	0	0	0
1660	0	0	0
1661	0	0	0
1662	0	0	0
1663	0	0	0
1664	0	0	0
1665	0	0	0
1666	0	0	0
1667	0	0	0
1668	0	0	0
1669	0	0	0
1670	0	0	0
1671	0	0	0
1672	0	0	0
1673	0	0	0
1674	0	0	0
1675	0	0	0
1676	0	0	0
1677	0	0	0
1678	0	0	0
1679	0	0	0
1680	235	220	239
1681	233	213	239
1682	231	204	237
1683	226	195	234
1684	230	199	239
1685	235	204	242
1686	229	190	234
1687	225	178	231
1688	231	182	237
1689	230	179	234
1690	235	187	237
1691	240	194	237
1692	238	189	233
1693	235	183	231
1694	237	186	235
1695	238	187	236
1696	236	184	234
1697	231	179	230
1698	226	177	228
1699	223	174	227
1700	228	183	233
1701	234	191	236
1702	234	188	233
1703	231	182	230
1704	236	188	234
1705	237	191	233
1706	238	193	232
1707	237	193	229
1708	239	196	228
1709	235	195	224
1710	237	205	227
1711	246	219	234
1712	240	211	228
1713	233	203	224
1714	235	210	227
1715	234	214	225
1716	236	220	227
1717	0	0	0
1718	0	0	0
1719	0	0	0
1720	0	0	0
1721	0	0	0
1722	0	0	0
1723	0	0	0
1724	0	0	0
1725	0	0	0
1726	0	0	0
1727	0	0	0
1728	0	0	0
1729	0	0	0
1730	0	0	0
1731	0	0	0
1732	0	0	0
1733	0	0	0
1734	0	0	0
1735	0	0	0
1736	0	0	0
1737	0	0	0
1738	0	0	0
1739	0	0	0
1740	0	0	0
1741	0	0	0
1742	0	0	0
1743	0	0	0
1744	0	0	0
1745	0	0	0
1746	0	0	0
1747	0	0	0
1748	0	0	0
1749	0	0	0
1750	0	0	0
1751	0	0	0
1752	0	0	0
1753	0	0	0
1754	0	0	0
1755	0	0	0
1756	233	222	237
1757	0	0	0
1758	0	0	0
1759	0	0	0
1760	0	0	0
1761	0	0	0
1762	233	205	240
1763	241	209	248
1764	232	193	238
1765	239	202	243
1766	239	201	238
1767	236	196	234
1768	235	190	234
1769	242	196	241
1770	236	189	236
1771	228	183	230
1772	233	192	234
1773	233	192	235
1774	228	186	234
1775	230	193	238
1776	229	192	234
1777	230	189	232
1778	227	181	229
1779	234	189	235
1780	237	192	235
1781	239	195	234
1782	237	192	230
1783	239	194	230
1784	238	198	228
1785	238	207	229
1786	241	215	232
1787	236	208	226
1788	233	205	226
1789	236	211	230
1790	235	214	227
1791	239	222	230
1792	237	222	229
1793	0	0	0
1794	0	0	0
1795	0	0	0
1796	0	0	0
1797	0	0	0
1798	0	0	0
1799	0	0	0
1800	0	0	0
1801	0	0	0
1802	0	0	0
1803	0	0	0
1804	0	0	0
1805	0	0	0
1806	0	0	0
1807	0	0	0
1808	0	0	0
1809	0	0	0
1810	0	0	0
1811	0	0	0
1812	0	0	0
1813	0	0	0
1814	0	0	0
1815	0	0	0
1816	0	0	0
1817	0	0	0
1818	0	0	0
1819	0	0	0
1820	0	0	0
1821	0	0	0
1822	0	0	0
1823	0	0	0
1824	0	0	0
1825	0	0	0
1826	0	0	0
1827	0	0	0
1828	0	0	0
1829	0	0	0
1830	0	0	0
1831	0	0	0
1832	0	0	0
1833	0	0	0
1834	0	0	0
1835	0	0	0
1836	0	0	0
1837	243	231	245
1838	238	218	240
1839	230	203	233
1840	235	206	238
1841	236	206	237
1842	231	199	234
1843	230	193	234
1844	233	193	236
1845	229	187	232
1846	232	195	236
1847	236	204	237
1848	234	200	234
1849	230	194	234
1850	228	194	236
1851	229	194	237
1852	227	187	233
1853	222	178	228
1854	228	184	232
1855	232	188	233
1856	235	189	232
1857	234	187	230
1858	239	195	232
1859	237	198	227
1860	236	203	225
1861	240	213	230
1862	239	210	228
1863	237	207	228
1864	237	211	229
1865	237	214	228
1866	236	215	227
1867	234	216	226
1868	234	221	228
1869	238	229	231
1870	236	226	230
1871	0	0	0
1872	0	0	0
1873	0	0	0
1874	0	0	0
1875	0	0	0
1876	0	0	0
1877	0	0	0
1878	0	0	0
1879	0	0	0
1880	0	0	0
1881	0	0	0
1882	0	0	0
1883	0	0	0
1884	0	0	0
1885	0	0	0
1886	0	0	0
1887	0	0	0
1888	0	0	0
1889	0	0	0
1890	0	0	0
1891	0	0	0
1892	0	0	0
1893	0	0	0
1894	0	0	0
1895	0	0	0
1896	0	0	0
1897	0	0	0
1898	0	0	0
1899	0	0	0
1900	0	0	0
1901	0	0	0
1902	0	0	0
1903	0	0	0
1904	0	0	0
1905	0	0	0
1906	0	0	0
1907	0	0	0
1908	0	0	0
1909	0	0	0
1910	0	0	0
1911	0	0	0
1912	236	229	235
1913	227	213	227
1914	229	212	231
1915	237	218	239
1916	235	213	238
1917	227	204	234
1918	225	200	234
1919	229	200	236
1920	231	200	237
1921	239	212	244
1922	228	197	230
1923	223	191	226
1924	230	199	234
1925	236	203	240
1926	233	196	238
1927	226	187	233
1928	228	190	235
1929	231	195	237
1930	233	195	236
1931	241	199	239
1932	234	187	231
1933	235	194	232
1934	237	200	229
1935	241	208	230
1936	240	206	228
1937	240	204	226
1938	239	205	227
1939	238	208	228
1940	241	216	231
1941	240	217	229
1942	237	216	227
1943	239	223	230
1944	239	225	231
1945	239	223	230
1946	238	222	229
1947	235	220	228
1948	0	0	0
1949	0	0	0
1950	0	0	0
1951	0	0	0
1952	0	0	0
1953	0	0	0
1954	0	0	0
1955	0	0	0
1956	0	0	0
1957	0	0	0
1958	0	0	0
1959	0	0	0
1960	0	0	0
1961	0	0	0
1962	0	0	0
1963	0	0	0
1964	0	0	0
1965	0	0	0
1966	0	0	0
1967	0	0	0
1968	0	0	0
1969	0	0	0
1970	0	0	0
1971	0	0	0
1972	0	0	0
1973	0	0	0
1974	0	0	0
1975	0	0	0
1976	0	0	0
1977	0	0	0
1978	0	0	0
1979	0	0	0
1980	0	0	0
1981	0	0	0
1982	0	0	0
1983	0	0	0
1984	0	0	0
1985	0	0	0
1986	0	0	0
1987	0	0	0
1988	233	228	234
1989	233	226	234
1990	234	222	234
1991	232	218	234
1992	225	211	232
1993	224	208	234
1994	231	212	239
1995	233	212	238
1996	227	201	231
1997	218	189	224
1998	223	196	231
1999	230	203	236
2000	233	200	236
2001	230	194	235
2002	232	198	238
2003	233	200	237
2004	231	199	235
2005	234	199	235
2006	235	194	233
2007	228	183	226
2008	232	193	231
2009	238	201	232
2010	240	201	230
2011	239	199	227
2012	240	201	227
2013	239	201	227
2014	241	209	230
2015	244	217	232
2016	241	217	229
2017	239	216	228
2018	237	217	228
2019	238	219	228
2020	237	218	228
2021	234	215	226
2022	236	222	230
2023	239	228	233
2024	0	0	0
2025	0	0	0
2026	0	0	0
2027	0	0	0
2028	0	0	0
2029	0	0	0
2030	0	0	0
2031	0	0	0
2032	0	0	0
2033	0	0	0
2034	0	0	0
2035	0	0	0
2036	0	0	0
2037	0	0	0
2038	0	0	0
2039	0	0	0
2040	0	0	0
2041	0	0	0
2042	0	0	0
2043	0	0	0
2044	0	0	0
2045	0	0	0
2046	0	0	0
2047	0	0	0
2048	0	0	0
2049	0	0	0
2050	0	0	0
2051	0	0	0
2052	0	0	0
2053	0	0	0
2054	0	0	0
2055	0	0	0
2056	0	0	0
2057	0	0	0
2058	0	0	0
2059	0	0	0
2060	0	0	0
2061	0	0	0
2062	0	0	0
2063	0	0	0
2064	0	0	0
2065	0	0	0
2066	232	226	235
2067	227	221	234
2068	225	215	233
2069	232	219	238
2070	230	213	233
2071	222	202	227
2072	224	203	232
2073	229	211	240
2074	227	205	236
2075	228	200	235
2076	227	195	233
2077	231	200	238
2078	231	199	235
2079	232	199	235
2080	231	196	233
2081	227	188	229
2082	229	190	231
2083	239	203	239
2084	241	203	237
2085	247	205	237
2086	241	196	229
2087	236	194	226
2088	237	200	228
2089	241	209	231
2090	240	211	229
2091	238	211	226
2092	238	212	227
2093	237	213	227
2094	238	219	229
2095	234	215	226
2096	233	216	227
2097	237	223	232
2098	236	223	230
2099	0	0	0
2100	0	0	0
2101	0	0	0
2102	0	0	0
2103	0	0	0
2104	0	0	0
2105	0	0	0
2106	0	0	0
2107	0	0	0
2108	0	0	0
2109	0	0	0
2110	0	0	0
2111	0	0	0
2112	0	0	0
2113	0	0	0
2114	0	0	0
2115	0	0	0
2116	0	0	0
2117	0	0	0
2118	0	0	0
2119	0	0	0
2120	0	0	0
2121	0	0	0
2122	0	0	0
2123	0	0	0
2124	0	0	0
2125	0	0	0
2126	0	0	0
2127	0	0	0
2128	0	0	0
2129	0	0	0
2130	0	0	0
2131	0	0	0
2132	0	0	0
2133	0	0	0
2134	0	0	0
2135	0	0	0
2136	0	0	0
2137	0	0	0
2138	0	0	0
2139	0	0	0
2140	0	0	0
2141	0	0	0
2142	231	230	237
2143	228	223	233
2144	229	219	233
2145	227	215	231
2146	227	214	233
2147	229	215	236
2148	226	210	235
2149	223	204	233
2150	224	200	233
2151	223	195	232
2152	226	197	235
2153	228	197	236
2154	230	197	237
2155	230	194	235
2156	233	197	238
2157	235	199	239
2158	235	198	237
2159	237	198	235
2160	240	195	233
2161	235	187	227
2162	237	195	231
2163	238	201	230
2164	238	203	229
2165	237	205	227
2166	237	207	227
2167	237	209	227
2168	239	214	229
2169	241	219	230
2170	237	219	229
2171	236	219	231
2172	236	220	231
2173	234	220	228
2174	236	224	229
2175	0	0	0
2176	0	0	0
2177	0	0	0
2178	0	0	0
2179	0	0	0
2180	0	0	0
2181	0	0	0
2182	0	0	0
2183	0	0	0
2184	0	0	0
2185	0	0	0
2186	0	0	0
2187	0	0	0
2188	0	0	0
2189	0	0	0
2190	0	0	0
2191	0	0	0
2192	0	0	0
2193	0	0	0
2194	0	0	0
2195	0	0	0
2196	0	0	0
2197	0	0	0
2198	0	0	0
2199	0	0	0
2200	0	0	0
2201	0	0	0
2202	0	0	0
2203	0	0	0
2204	0	0	0
2205	0	0	0
2206	0	0	0
2207	0	0	0
2208	0	0	0
2209	0	0	0
2210	0	0	0
2211	0	0	0
2212	0	0	0
2213	0	0	0
2214	0	0	0
2215	0	0	0
2216	0	0	0
2217	0	0	0
2218	0	0	0
2219	0	0	0
2220	0	0	0
2221	0	0	0
2222	232	223	237
2223	232	219	237
2224	226	209	234
2225	0	0	0
2226	228	207	237
2227	232	210	241
2228	230	204	239
2229	234	204	241
2230	232	198	238
2231	240	204	243
2232	239	202	241
2233	235	199	236
2234	240	204	238
2235	241	200	236
2236	239	194	233
2237	246	206	240
2238	241	201	232
2239	240	203	231
2240	241	207	232
2241	239	208	230
2242	237	207	228
2243	240	213	231
2244	240	214	230
2245	238	214	228
2246	235	213	228
2247	234	213	227
2248	238	221	231
2249	239	226	232
2250	238	227	232
2251	0	0	0
2252	0	0	0
2253	0	0	0
2254	0	0	0
2255	0	0	0
2256	0	0	0
2257	0	0	0
2258	0	0	0
2259	0	0	0
2260	0	0	0
2261	0	0	0
2262	0	0	0
2263	0	0	0
2264	0	0	0
2265	0	0	0
2266	0	0	0
2267	0	0	0
2268	0	0	0
2269	0	0	0
2270	0	0	0
2271	0	0	0
2272	0	0	0
2273	0	0	0
2274	0	0	0
2275	0	0	0
2276	0	0	0
2277	0	0	0
2278	0	0	0
2279	0	0	0
2280	0	0	0
2281	0	0	0
2282	0	0	0
2283	0	0	0
2284	0	0	0
2285	0	0	0
2286	0	0	0
2287	0	0	0
2288	0	0	0
2289	0	0	0
2290	0	0	0
2291	0	0	0
2292	0	0	0
2293	0	0	0
2294	0	0	0
2295	0	0	0
2296	0	0	0
2297	0	0	0
2298	230	220	234
2299	0	0	0
2300	0	0	0
2301	231	216	236
2302	229	211	234
2303	228	205	233
2304	230	203	234
2305	229	197	233
2306	236	201	237
2307	236	199	234
2308	238	204	235
2309	243	210	239
2310	242	205	236
2311	240	200	232
2312	240	199	232
2313	237	196	229
2314	241	202	232
2315	242	207	233
2316	239	205	230
2317	236	204	228
2318	237	206	229
2319	237	208	230
2320	234	207	228
2321	231	205	224
2322	236	214	228
2323	240	223	234
2324	239	224	232
2325	236	224	229
2326	0	0	0
2327	0	0	0
2328	0	0	0
2329	0	0	0
2330	0	0	0
2331	0	0	0
2332	0	0	0
2333	0	0	0
2334	0	0	0
2335	0	0	0
2336	0	0	0
2337	0	0	0
2338	0	0	0
2339	0	0	0
2340	0	0	0
2341	0	0	0
2342	0	0	0
2343	0	0	0
2344	0	0	0
2345	0	0	0
2346	0	0	0
2347	0	0	0
2348	0	0	0
2349	0	0	0
2350	0	0	0
2351	0	0	0
2352	0	0	0
2353	0	0	0
2354	0	0	0
2355	0	0	0
2356	0	0	0
2357	0	0	0
2358	0	0	0
2359	0	0	0
2360	0	0	0
2361	0	0	0
2362	0	0	0
2363	0	0	0
2364	0	0	0
2365	0	0	0
2366	0	0	0
2367	0	0	0
2368	0	0	0
2369	0	0	0
2370	0	0	0
2371	0	0	0
2372	0	0	0
2373	0	0	0
2374	0	0	0
2375	0	0	0
2376	231	222	234
2377	229	216	232
2378	229	211	232
2379	232	209	234
2380	231	204	233
2381	235	206	236
2382	236	205	234
2383	243	213	239
2384	239	204	234
2385	238	199	231
2386	242	204	233
2387	241	203	232
2388	239	200	231
2389	244	207	236
2390	242	205	233
2391	242	205	232
2392	241	207	232
2393	239	208	232
2394	238	210	234
2395	235	209	232
2396	233	208	228
2397	239	218	233
2398	238	219	233
2399	234	219	230
2400	233	221	227
2401	0	0	0
2402	0	0	0
2403	0	0	0
2404	0	0	0
2405	0	0	0
2406	0	0	0
2407	0	0	0
2408	0	0	0
2409	0	0	0
2410	0	0	0
2411	0	0	0
2412	0	0	0
2413	0	0	0
2414	0	0	0
2415	0	0	0
2416	0	0	0
2417	0	0	0
2418	0	0	0
2419	0	0	0
2420	0	0	0
2421	0	0	0
2422	0	0	0
2423	0	0	0
2424	0	0	0
2425	0	0	0
2426	0	0	0
2427	0	0	0
2428	0	0	0
2429	0	0	0
2430	0	0	0
2431	0	0	0
2432	0	0	0
2433	0	0	0
2434	0	0	0
2435	0	0	0
2436	0	0	0
2437	0	0	0
2438	0	0	0
2439	0	0	0
2440	0	0	0
2441	0	0	0
2442	0	0	0
2443	0	0	0
2444	0	0	0
2445	0	0	0
2446	0	0	0
2447	0	0	0
2448	0	0	0
2449	0	0	0
2450	0	0	0
2451	0	0	0
2452	231	221	232
2453	231	217	233
2454	232	214	234
2455	231	209	232
2456	234	211	234
2457	236	211	234
2458	234	203	231
2459	230	194	228
2460	236	201	233
2461	239	205	231
2462	238	202	228
2463	236	200	228
2464	235	200	228
2465	234	199	228
2466	240	204	231
2467	241	207	230
2468	240	209	232
2469	239	211	233
2470	237	212	233
2471	235	212	232
2472	238	215	234
2473	236	215	233
2474	234	217	231
2475	233	220	229
2476	0	0	0
2477	0	0	0
2478	0	0	0
2479	0	0	0
2480	0	0	0
2481	0	0	0
2482	0	0	0
2483	0	0	0
2484	0	0	0
2485	0	0	0
2486	0	0	0
2487	0	0	0
2488	0	0	0
2489	0	0	0
2490	0	0	0
2491	0	0	0
2492	0	0	0
2493	0	0	0
2494	0	0	0
2495	0	0	0
2496	0	0	0
2497	0	0	0
2498	0	0	0
2499	0	0	0
2500	0	0	0
2501	0	0	0
2502	0	0	0
2503	0	0	0
2504	0	0	0
2505	0	0	0
2506	0	0	0
2507	0	0	0
2508	0	0	0
2509	0	0	0
2510	0	0	0
2511	0	0	0
2512	0	0	0
2513	0	0	0
2514	0	0	0
2515	0	0	0
2516	0	0	0
2517	0	0	0
2518	0	0	0
2519	0	0	0
2520	0	0	0
2521	0	0	0
2522	0	0	0
2523	0	0	0
2524	0	0	0
2525	0	0	0
2526	0	0	0
2527	0	0	0
2528	233	224	234
2529	232	219	233
2530	231	215	232
2531	237	218	236
2532	235	212	233
2533	230	203	228
2534	233	205	233
2535	237	211	237
2536	234	206	229
2537	234	205	227
2538	235	205	228
2539	232	204	228
2540	233	205	231
2541	241	212	236
2542	241	210	232
2543	245	214	235
2544	238	206	230
2545	233	205	229
2546	237	213	233
2547	240	217	236
2548	237	214	233
2549	235	216	232
2550	0	0	0
2551	0	0	0
2552	0	0	0
2553	0	0	0
2554	0	0	0
2555	0	0	0
2556	0	0	0
2557	0	0	0
2558	0	0	0
2559	0	0	0
2560	0	0	0
2561	0	0	0
2562	0	0	0
2563	0	0	0
2564	0	0	0
2565	0	0	0
2566	0	0	0
2567	0	0	0
2568	0	0	0
2569	0	0	0
2570	0	0	0
2571	0	0	0
2572	0	0	0
2573	0	0	0
2574	0	0	0
2575	0	0	0
2576	0	0	0
2577	0	0	0
2578	0	0	0
2579	0	0	0
2580	0	0	0
2581	0	0	0
2582	0	0	0
2583	0	0	0
2584	0	0	0
2585	0	0	0
2586	0	0	0
2587	0	0	0
2588	0	0	0
2589	0	0	0
2590	0	0	0
2591	0	0	0
2592	0	0	0
2593	0	0	0
2594	0	0	0
2595	0	0	0
2596	0	0	0
2597	0	0	0
2598	0	0	0
2599	0	0	0
2600	0	0	0
2601	0	0	0
2602	0	0	0
2603	0	0	0
2604	233	225	234
2605	232	221	232
2606	233	216	231
2607	230	210	229
2608	232	212	231
2609	234	214	234
2610	232	210	231
2611	230	206	228
2612	235	210	231
2613	236	211	231
2614	236	212	232
2615	238	214	235
2616	240	213	236
2617	239	211	232
2618	236	205	228
2619	230	197	224
2620	233	205	229
2621	0	0	0
2622	238	212	233
2623	234	210	231
2624	237	217	234
2625	241	225	236
2626	0	0	0
2627	0	0	0
2628	0	0	0
2629	0	0	0
2630	0	0	0
2631	0	0	0
2632	0	0	0
2633	0	0	0
2634	0	0	0
2635	0	0	0
2636	0	0	0
2637	0	0	0
2638	0	0	0
2639	0	0	0
2640	0	0	0
2641	0	0	0
2642	0	0	0
2643	0	0	0
2644	0	0	0
2645	0	0	0
2646	0	0	0
2647	0	0	0
2648	0	0	0
2649	0	0	0
2650	0	0	0
2651	0	0	0
2652	0	0	0
2653	0	0	0
2654	0	0	0
2655	0	0	0
2656	0	0	0
2657	0	0	0
2658	0	0	0
2659	0	0	0
2660	0	0	0
2661	0	0	0
2662	0	0	0
2663	0	0	0
2664	0	0	0
2665	0	0	0
2666	0	0	0
2667	0	0	0
2668	0	0	0
2669	0	0	0
2670	0	0	0
2671	0	0	0
2672	0	0	0
2673	0	0	0
2674	0	0	0
2675	0	0	0
2676	0	0	0
2677	0	0	0
2678	0	0	0
2679	0	0	0
2680	0	0	0
2681	0	0	0
2682	0	0	0
2683	0	0	0
2684	0	0	0
2685	0	0	0
2686	235	215	232
2687	240	219	236
2688	236	212	231
2689	240	215	235
2690	237	209	233
2691	235	207	231
2692	235	209	231
2693	228	201	224
2694	234	209	230
2695	0	0	0
2696	0	0	0
2697	0	0	0
2698	233	210	231
2699	237	218	235
2700	0	0	0
2701	0	0	0
2702	0	0	0
2703	0	0	0
2704	0	0	0
2705	0	0	0
2706	0	0	0
2707	0	0	0
2708	0	0	0
2709	0	0	0
2710	0	0	0
2711	0	0	0
2712	0	0	0
2713	0	0	0
2714	0	0	0
2715	0	0	0
2716	0	0	0
2717	0	0	0
2718	0	0	0
2719	0	0	0
2720	0	0	0
2721	0	0	0
2722	0	0	0
2723	0	0	0
2724	0	0	0
2725	0	0	0
2726	0	0	0
2727	0	0	0
2728	0	0	0
2729	0	0	0
2730	0	0	0
2731	0	0	0
2732	0	0	0
2733	0	0	0
2734	0	0	0
2735	0	0	0
2736	0	0	0
2737	0	0	0
2738	0	0	0
2739	0	0	0
2740	0	0	0
2741	0	0	0
2742	0	0	0
2743	0	0	0
2744	0	0	0
2745	0	0	0
2746	0	0	0
2747	0	0	0
2748	0	0	0
2749	0	0	0
2750	0	0	0
2751	0	0	0
2752	0	0	0
2753	0	0	0
2754	0	0	0
2755	0	0	0
2756	0	0	0
2757	0	0	0
2758	0	0	0
2759	0	0	0
2760	0	0	0
2761	0	0	0
2762	234	215	231
2763	231	208	228
2764	0	0	0
2765	0	0	0
2766	232	205	230
2767	0	0	0
2768	0	0	0
2769	0	0	0
2770	0	0	0
2771	0	0	0
2772	0	0	0
2773	0	0	0
2774	0	0	0
2775	0	0	0
