 	R	G	B
1	0	0	0
2	0	0	0
3	0	0	0
4	0	0	0
5	0	0	0
6	0	0	0
7	0	0	0
8	0	0	0
9	0	0	0
10	0	0	0
11	0	0	0
12	0	0	0
13	0	0	0
14	0	0	0
15	0	0	0
16	0	0	0
17	0	0	0
18	0	0	0
19	0	0	0
20	0	0	0
21	0	0	0
22	0	0	0
23	0	0	0
24	0	0	0
25	0	0	0
26	0	0	0
27	0	0	0
28	0	0	0
29	0	0	0
30	0	0	0
31	0	0	0
32	0	0	0
33	0	0	0
34	255	221	233
35	253	213	230
36	254	214	232
37	254	212	233
38	255	215	236
39	0	0	0
40	0	0	0
41	0	0	0
42	0	0	0
43	0	0	0
44	0	0	0
45	0	0	0
46	0	0	0
47	0	0	0
48	0	0	0
49	0	0	0
50	0	0	0
51	0	0	0
52	0	0	0
53	0	0	0
54	0	0	0
55	0	0	0
56	0	0	0
57	0	0	0
58	0	0	0
59	0	0	0
60	0	0	0
61	0	0	0
62	0	0	0
63	0	0	0
64	0	0	0
65	0	0	0
66	0	0	0
67	0	0	0
68	0	0	0
69	0	0	0
70	0	0	0
71	0	0	0
72	0	0	0
73	0	0	0
74	0	0	0
75	251	218	229
76	254	214	231
77	249	203	227
78	251	205	230
79	252	204	231
80	254	206	233
81	251	204	232
82	0	0	0
83	0	0	0
84	0	0	0
85	0	0	0
86	0	0	0
87	0	0	0
88	0	0	0
89	0	0	0
90	0	0	0
91	0	0	0
92	0	0	0
93	0	0	0
94	0	0	0
95	0	0	0
96	0	0	0
97	0	0	0
98	0	0	0
99	0	0	0
100	0	0	0
101	0	0	0
102	0	0	0
103	0	0	0
104	0	0	0
105	0	0	0
106	0	0	0
107	0	0	0
108	0	0	0
109	0	0	0
110	0	0	0
111	0	0	0
112	0	0	0
113	0	0	0
114	0	0	0
115	0	0	0
116	0	0	0
117	248	210	226
118	250	205	229
119	247	195	228
120	251	199	233
121	251	198	232
122	251	198	232
123	247	196	229
124	0	0	0
125	0	0	0
126	0	0	0
127	0	0	0
128	0	0	0
129	0	0	0
130	0	0	0
131	0	0	0
132	0	0	0
133	0	0	0
134	0	0	0
135	0	0	0
136	0	0	0
137	0	0	0
138	0	0	0
139	0	0	0
140	0	0	0
141	0	0	0
142	0	0	0
143	0	0	0
144	0	0	0
145	0	0	0
146	0	0	0
147	0	0	0
148	0	0	0
149	0	0	0
150	0	0	0
151	0	0	0
152	0	0	0
153	0	0	0
154	0	0	0
155	0	0	0
156	0	0	0
157	246	223	227
158	0	0	0
159	249	209	229
160	252	204	232
161	247	192	229
162	251	195	234
163	250	195	233
164	249	194	232
165	249	197	232
166	0	0	0
167	0	0	0
168	0	0	0
169	0	0	0
170	0	0	0
171	0	0	0
172	0	0	0
173	0	0	0
174	0	0	0
175	0	0	0
176	0	0	0
177	0	0	0
178	0	0	0
179	0	0	0
180	0	0	0
181	0	0	0
182	0	0	0
183	0	0	0
184	0	0	0
185	0	0	0
186	0	0	0
187	0	0	0
188	0	0	0
189	0	0	0
190	0	0	0
191	0	0	0
192	0	0	0
193	0	0	0
194	0	0	0
195	0	0	0
196	0	0	0
197	0	0	0
198	251	232	233
199	251	223	232
200	251	216	231
201	252	209	231
202	250	199	229
203	244	185	225
204	248	189	230
205	247	188	229
206	249	194	231
207	249	197	231
208	252	205	234
209	255	211	236
210	0	0	0
211	0	0	0
212	0	0	0
213	0	0	0
214	0	0	0
215	0	0	0
216	0	0	0
217	0	0	0
218	0	0	0
219	0	0	0
220	0	0	0
221	0	0	0
222	0	0	0
223	0	0	0
224	0	0	0
225	0	0	0
226	0	0	0
227	0	0	0
228	0	0	0
229	0	0	0
230	0	0	0
231	0	0	0
232	0	0	0
233	0	0	0
234	0	0	0
235	0	0	0
236	0	0	0
237	0	0	0
238	0	0	0
239	253	234	233
240	255	229	236
241	247	209	226
242	245	200	224
243	253	206	232
244	249	195	228
245	246	187	226
246	250	191	231
247	250	192	231
248	250	196	233
249	249	197	231
250	255	206	236
251	252	204	232
252	254	208	233
253	0	0	0
254	0	0	0
255	0	0	0
256	0	0	0
257	0	0	0
258	0	0	0
259	0	0	0
260	0	0	0
261	0	0	0
262	0	0	0
263	0	0	0
264	0	0	0
265	0	0	0
266	0	0	0
267	0	0	0
268	0	0	0
269	0	0	0
270	0	0	0
271	0	0	0
272	0	0	0
273	0	0	0
274	0	0	0
275	0	0	0
276	0	0	0
277	0	0	0
278	0	0	0
279	0	0	0
280	250	234	230
281	252	227	231
282	248	212	227
283	239	192	218
284	246	198	226
285	253	204	233
286	252	198	231
287	249	190	229
288	254	196	234
289	253	197	234
290	252	198	234
291	251	198	233
292	251	198	232
293	248	195	229
294	0	0	0
295	0	0	0
296	0	0	0
297	0	0	0
298	0	0	0
299	0	0	0
300	0	0	0
301	0	0	0
302	0	0	0
303	0	0	0
304	0	0	0
305	0	0	0
306	0	0	0
307	0	0	0
308	0	0	0
309	0	0	0
310	0	0	0
311	0	0	0
312	0	0	0
313	0	0	0
314	0	0	0
315	0	0	0
316	0	0	0
317	0	0	0
318	0	0	0
319	0	0	0
320	0	0	0
321	253	244	235
322	255	237	235
323	248	216	226
324	240	198	220
325	242	196	223
326	250	203	233
327	246	193	229
328	245	186	227
329	247	188	228
330	252	193	233
331	250	190	231
332	251	192	232
333	251	194	232
334	0	0	0
335	0	0	0
336	0	0	0
337	0	0	0
338	0	0	0
339	0	0	0
340	0	0	0
341	0	0	0
342	0	0	0
343	0	0	0
344	0	0	0
345	0	0	0
346	0	0	0
347	0	0	0
348	0	0	0
349	0	0	0
350	0	0	0
351	0	0	0
352	0	0	0
353	0	0	0
354	0	0	0
355	0	0	0
356	0	0	0
357	0	0	0
358	0	0	0
359	0	0	0
360	0	0	0
361	0	0	0
362	251	244	237
363	255	248	242
364	255	229	234
365	247	207	224
366	250	207	229
367	251	203	232
368	245	194	230
369	240	184	230
370	244	186	233
371	246	186	230
372	247	185	229
373	245	182	229
374	245	185	230
375	246	187	230
376	0	0	0
377	0	0	0
378	0	0	0
379	0	0	0
380	0	0	0
381	0	0	0
382	0	0	0
383	0	0	0
384	0	0	0
385	0	0	0
386	0	0	0
387	0	0	0
388	0	0	0
389	0	0	0
390	0	0	0
391	0	0	0
392	0	0	0
393	0	0	0
394	0	0	0
395	0	0	0
396	0	0	0
397	0	0	0
398	0	0	0
399	0	0	0
400	0	0	0
401	0	0	0
402	0	0	0
403	252	245	238
404	255	248	244
405	255	231	236
406	248	210	226
407	245	197	222
408	251	198	229
409	249	192	230
410	238	179	225
411	242	186	235
412	243	187	236
413	245	188	233
414	249	188	233
415	246	184	231
416	241	184	229
417	248	196	236
418	0	0	0
419	0	0	0
420	0	0	0
421	0	0	0
422	0	0	0
423	0	0	0
424	0	0	0
425	0	0	0
426	0	0	0
427	0	0	0
428	0	0	0
429	0	0	0
430	0	0	0
431	0	0	0
432	0	0	0
433	0	0	0
434	0	0	0
435	0	0	0
436	0	0	0
437	0	0	0
438	0	0	0
439	0	0	0
440	0	0	0
441	0	0	0
442	0	0	0
443	0	0	0
444	249	245	237
445	253	244	239
446	250	228	233
447	245	210	226
448	242	197	223
449	239	184	222
450	246	185	229
451	242	178	227
452	242	183	232
453	244	188	237
454	241	186	235
455	243	188	234
456	247	188	233
457	242	182	228
458	243	192	231
459	250	204	239
460	251	201	236
461	0	0	0
462	0	0	0
463	0	0	0
464	0	0	0
465	0	0	0
466	0	0	0
467	0	0	0
468	0	0	0
469	0	0	0
470	0	0	0
471	0	0	0
472	0	0	0
473	0	0	0
474	0	0	0
475	0	0	0
476	0	0	0
477	0	0	0
478	0	0	0
479	0	0	0
480	0	0	0
481	0	0	0
482	0	0	0
483	0	0	0
484	0	0	0
485	255	251	241
486	252	245	237
487	249	234	234
488	244	217	228
489	240	202	223
490	234	188	220
491	242	191	230
492	249	191	236
493	241	178	230
494	242	183	234
495	244	188	236
496	240	186	233
497	242	189	235
498	244	187	232
499	244	189	230
500	248	200	236
501	246	200	235
502	0	0	0
503	0	0	0
504	0	0	0
505	0	0	0
506	0	0	0
507	0	0	0
508	0	0	0
509	0	0	0
510	0	0	0
511	0	0	0
512	0	0	0
513	0	0	0
514	0	0	0
515	0	0	0
516	0	0	0
517	0	0	0
518	0	0	0
519	0	0	0
520	0	0	0
521	0	0	0
522	0	0	0
523	0	0	0
524	0	0	0
525	0	0	0
526	0	0	0
527	255	250	239
528	248	234	230
529	246	224	230
530	242	210	227
531	237	195	222
532	243	197	229
533	249	198	235
534	249	191	235
535	241	177	230
536	246	186	237
537	247	190	237
538	244	190	235
539	245	192	236
540	250	197	239
541	248	197	236
542	242	195	231
543	0	0	0
544	0	0	0
545	0	0	0
546	0	0	0
547	0	0	0
548	0	0	0
549	0	0	0
550	0	0	0
551	0	0	0
552	0	0	0
553	0	0	0
554	0	0	0
555	0	0	0
556	0	0	0
557	0	0	0
558	0	0	0
559	0	0	0
560	0	0	0
561	0	0	0
562	0	0	0
563	0	0	0
564	0	0	0
565	0	0	0
566	0	0	0
567	0	0	0
568	0	0	0
569	255	242	235
570	250	229	229
571	245	215	226
572	238	199	221
573	246	200	229
574	255	206	238
575	254	194	233
576	248	183	230
577	241	173	229
578	248	182	237
579	249	188	237
580	244	186	233
581	243	187	233
582	248	191	236
583	244	191	232
584	0	0	0
585	0	0	0
586	0	0	0
587	0	0	0
588	0	0	0
589	0	0	0
590	0	0	0
591	0	0	0
592	0	0	0
593	0	0	0
594	0	0	0
595	0	0	0
596	0	0	0
597	0	0	0
598	0	0	0
599	0	0	0
600	0	0	0
601	0	0	0
602	0	0	0
603	0	0	0
604	0	0	0
605	0	0	0
606	0	0	0
607	0	0	0
608	0	0	0
609	0	0	0
610	253	238	236
611	255	236	235
612	252	221	228
613	247	207	224
614	250	207	229
615	255	208	236
616	255	200	235
617	252	187	229
618	244	177	226
619	238	167	226
620	246	178	235
621	248	184	235
622	243	182	231
623	242	182	232
624	246	188	235
625	241	187	230
626	0	0	0
627	0	0	0
628	0	0	0
629	0	0	0
630	0	0	0
631	0	0	0
632	0	0	0
633	0	0	0
634	0	0	0
635	0	0	0
636	0	0	0
637	0	0	0
638	0	0	0
639	0	0	0
640	0	0	0
641	0	0	0
642	0	0	0
643	0	0	0
644	0	0	0
645	0	0	0
646	0	0	0
647	0	0	0
648	0	0	0
649	0	0	0
650	0	0	0
651	255	241	238
652	255	240	239
653	255	226	233
654	251	210	226
655	248	199	223
656	254	201	229
657	254	196	230
658	248	183	225
659	244	177	223
660	235	166	220
661	238	172	229
662	247	183	238
663	247	185	236
664	246	184	234
665	246	187	236
666	247	191	237
667	241	187	230
668	0	0	0
669	0	0	0
670	0	0	0
671	0	0	0
672	0	0	0
673	0	0	0
674	0	0	0
675	0	0	0
676	0	0	0
677	0	0	0
678	0	0	0
679	0	0	0
680	0	0	0
681	0	0	0
682	0	0	0
683	0	0	0
684	0	0	0
685	0	0	0
686	0	0	0
687	0	0	0
688	0	0	0
689	0	0	0
690	0	0	0
691	0	0	0
692	0	0	0
693	255	241	237
694	255	227	231
695	253	213	227
696	250	202	225
697	247	191	222
698	249	187	224
699	247	181	225
700	243	175	224
701	238	169	222
702	242	176	229
703	244	180	235
704	247	184	237
705	248	185	236
706	249	188	236
707	249	190	236
708	245	189	234
709	239	186	230
710	0	0	0
711	0	0	0
712	0	0	0
713	0	0	0
714	0	0	0
715	0	0	0
716	0	0	0
717	0	0	0
718	0	0	0
719	0	0	0
720	0	0	0
721	0	0	0
722	0	0	0
723	0	0	0
724	0	0	0
725	0	0	0
726	0	0	0
727	0	0	0
728	0	0	0
729	0	0	0
730	0	0	0
731	0	0	0
732	0	0	0
733	0	0	0
734	0	0	0
735	255	231	232
736	253	215	226
737	252	206	226
738	249	195	224
739	250	191	226
740	251	186	227
741	252	187	231
742	246	180	229
743	241	173	227
744	249	181	236
745	247	179	235
746	247	180	235
747	248	184	235
748	248	186	235
749	246	186	233
750	241	185	230
751	246	196	237
752	255	212	245
753	0	0	0
754	0	0	0
755	0	0	0
756	0	0	0
757	0	0	0
758	0	0	0
759	0	0	0
760	0	0	0
761	0	0	0
762	0	0	0
763	0	0	0
764	0	0	0
765	0	0	0
766	0	0	0
767	0	0	0
768	0	0	0
769	0	0	0
770	0	0	0
771	0	0	0
772	0	0	0
773	0	0	0
774	0	0	0
775	0	0	0
776	0	0	0
777	0	0	0
778	255	211	228
779	254	202	226
780	255	199	230
781	255	195	233
782	255	197	238
783	255	195	238
784	251	185	232
785	247	178	232
786	249	178	235
787	245	174	233
788	245	178	234
789	246	181	233
790	246	183	233
791	244	183	232
792	248	194	237
793	251	204	240
794	243	197	233
795	0	0	0
796	0	0	0
797	0	0	0
798	0	0	0
799	0	0	0
800	0	0	0
801	0	0	0
802	0	0	0
803	0	0	0
804	0	0	0
805	0	0	0
806	0	0	0
807	0	0	0
808	0	0	0
809	0	0	0
810	0	0	0
811	0	0	0
812	0	0	0
813	0	0	0
814	0	0	0
815	0	0	0
816	0	0	0
817	0	0	0
818	0	0	0
819	255	215	230
820	255	206	228
821	249	188	222
822	251	185	225
823	254	185	230
824	255	184	233
825	250	176	227
826	243	166	221
827	255	184	236
828	253	181	237
829	247	177	234
830	245	179	234
831	248	188	235
832	249	190	236
833	247	189	235
834	254	201	242
835	250	203	238
836	0	0	0
837	0	0	0
838	0	0	0
839	0	0	0
840	0	0	0
841	0	0	0
842	0	0	0
843	0	0	0
844	0	0	0
845	0	0	0
846	0	0	0
847	0	0	0
848	0	0	0
849	0	0	0
850	0	0	0
851	0	0	0
852	0	0	0
853	0	0	0
854	0	0	0
855	0	0	0
856	0	0	0
857	0	0	0
858	0	0	0
859	255	227	232
860	255	218	231
861	255	208	228
862	253	193	224
863	246	176	219
864	250	177	225
865	251	174	226
866	248	168	224
867	242	159	219
868	252	175	230
869	255	190	239
870	255	184	235
871	249	180	235
872	250	188	238
873	252	194	236
874	249	192	233
875	247	191	234
876	251	199	239
877	246	201	235
878	0	0	0
879	0	0	0
880	0	0	0
881	0	0	0
882	0	0	0
883	0	0	0
884	0	0	0
885	0	0	0
886	0	0	0
887	0	0	0
888	0	0	0
889	0	0	0
890	0	0	0
891	0	0	0
892	0	0	0
893	0	0	0
894	0	0	0
895	0	0	0
896	0	0	0
897	0	0	0
898	0	0	0
899	255	232	231
900	255	230	233
901	255	215	228
902	255	205	226
903	253	194	224
904	248	179	220
905	247	173	222
906	252	173	228
907	251	170	227
908	247	163	224
909	247	164	225
910	255	178	234
911	255	185	234
912	251	178	228
913	252	183	235
914	254	191	240
915	251	192	234
916	245	188	228
917	246	194	233
918	248	201	237
919	243	204	234
920	0	0	0
921	0	0	0
922	0	0	0
923	0	0	0
924	0	0	0
925	0	0	0
926	0	0	0
927	0	0	0
928	0	0	0
929	0	0	0
930	0	0	0
931	0	0	0
932	0	0	0
933	0	0	0
934	0	0	0
935	0	0	0
936	0	0	0
937	0	0	0
938	0	0	0
939	0	0	0
940	255	240	239
941	255	231	235
942	255	216	229
943	251	202	224
944	249	190	222
945	247	180	221
946	248	174	223
947	247	167	224
948	250	167	228
949	248	163	227
950	250	166	229
951	250	167	228
952	253	174	231
953	255	181	233
954	255	184	234
955	255	188	237
956	254	190	237
957	250	191	235
958	246	193	233
959	244	197	233
960	245	205	235
961	0	0	0
962	0	0	0
963	0	0	0
964	0	0	0
965	0	0	0
966	0	0	0
967	0	0	0
968	0	0	0
969	0	0	0
970	0	0	0
971	0	0	0
972	0	0	0
973	0	0	0
974	0	0	0
975	0	0	0
976	0	0	0
977	0	0	0
978	0	0	0
979	0	0	0
980	0	0	0
981	0	0	0
982	255	228	233
983	255	221	232
984	253	206	226
985	254	199	226
986	251	188	224
987	253	184	227
988	253	178	229
989	251	169	229
990	252	168	232
991	249	164	229
992	251	166	231
993	255	174	234
994	255	181	236
995	254	179	232
996	255	183	233
997	251	181	231
998	249	183	231
999	252	196	238
1000	245	196	235
1001	244	204	235
1002	244	211	236
1003	0	0	0
1004	0	0	0
1005	0	0	0
1006	0	0	0
1007	0	0	0
1008	0	0	0
1009	0	0	0
1010	0	0	0
1011	0	0	0
1012	0	0	0
1013	0	0	0
1014	0	0	0
1015	0	0	0
1016	0	0	0
1017	0	0	0
1018	0	0	0
1019	0	0	0
1020	0	0	0
1021	0	0	0
1022	254	232	230
1023	0	0	0
1024	254	218	226
1025	255	212	228
1026	255	204	227
1027	255	197	226
1028	255	191	227
1029	255	186	229
1030	255	179	231
1031	253	170	232
1032	254	170	235
1033	250	163	229
1034	255	172	234
1035	255	180	238
1036	255	178	234
1037	251	175	229
1038	249	175	227
1039	244	173	226
1040	248	186	234
1041	250	198	238
1042	244	203	236
1043	243	211	237
1044	0	0	0
1045	0	0	0
1046	0	0	0
1047	0	0	0
1048	0	0	0
1049	0	0	0
1050	0	0	0
1051	0	0	0
1052	0	0	0
1053	0	0	0
1054	0	0	0
1055	0	0	0
1056	0	0	0
1057	0	0	0
1058	0	0	0
1059	0	0	0
1060	0	0	0
1061	0	0	0
1062	0	0	0
1063	255	244	240
1064	255	237	236
1065	255	220	227
1066	255	214	227
1067	253	202	225
1068	253	195	225
1069	254	189	224
1070	253	182	224
1071	253	177	226
1072	251	169	227
1073	247	160	227
1074	247	158	228
1075	251	166	231
1076	255	175	235
1077	255	178	235
1078	252	175	231
1079	251	177	230
1080	248	176	228
1081	250	186	234
1082	251	197	238
1083	245	201	236
1084	0	0	0
1085	0	0	0
1086	0	0	0
1087	0	0	0
1088	0	0	0
1089	0	0	0
1090	0	0	0
1091	0	0	0
1092	0	0	0
1093	0	0	0
1094	0	0	0
1095	0	0	0
1096	0	0	0
1097	0	0	0
1098	0	0	0
1099	0	0	0
1100	0	0	0
1101	0	0	0
1102	0	0	0
1103	0	0	0
1104	0	0	0
1105	255	246	240
1106	255	229	232
1107	254	214	227
1108	255	206	227
1109	252	193	225
1110	255	190	227
1111	254	183	226
1112	251	175	225
1113	251	169	227
1114	246	160	225
1115	239	148	221
1116	248	160	230
1117	252	169	234
1118	252	171	233
1119	251	173	230
1120	250	175	229
1121	249	177	230
1122	252	187	234
1123	252	196	237
1124	251	203	237
1125	245	206	234
1126	0	0	0
1127	0	0	0
1128	0	0	0
1129	0	0	0
1130	0	0	0
1131	0	0	0
1132	0	0	0
1133	0	0	0
1134	0	0	0
1135	0	0	0
1136	0	0	0
1137	0	0	0
1138	0	0	0
1139	0	0	0
1140	0	0	0
1141	0	0	0
1142	0	0	0
1143	0	0	0
1144	0	0	0
1145	0	0	0
1146	0	0	0
1147	255	238	236
1148	255	223	228
1149	255	211	227
1150	255	203	229
1151	246	179	221
1152	249	176	223
1153	250	174	224
1154	247	165	222
1155	255	173	233
1156	249	163	229
1157	246	159	228
1158	254	170	236
1159	255	179	239
1160	255	180	237
1161	251	176	230
1162	0	0	0
1163	252	186	234
1164	251	194	235
1165	255	207	239
1166	255	215	241
1167	246	208	232
1168	0	0	0
1169	0	0	0
1170	0	0	0
1171	0	0	0
1172	0	0	0
1173	0	0	0
1174	0	0	0
1175	0	0	0
1176	0	0	0
1177	0	0	0
1178	0	0	0
1179	0	0	0
1180	0	0	0
1181	0	0	0
1182	0	0	0
1183	0	0	0
1184	0	0	0
1185	0	0	0
1186	0	0	0
1187	0	0	0
1188	255	237	234
1189	255	232	234
1190	255	219	229
1191	255	205	223
1192	246	184	216
1193	237	162	213
1194	244	166	222
1195	244	162	220
1196	250	169	225
1197	255	175	233
1198	253	171	232
1199	250	167	230
1200	255	177	236
1201	255	184	237
1202	255	182	233
1203	250	177	229
1204	0	0	0
1205	0	0	0
1206	255	206	238
1207	255	219	241
1208	253	215	234
1209	0	0	0
1210	0	0	0
1211	0	0	0
1212	0	0	0
1213	0	0	0
1214	0	0	0
1215	0	0	0
1216	0	0	0
1217	0	0	0
1218	0	0	0
1219	0	0	0
1220	0	0	0
1221	0	0	0
1222	0	0	0
1223	0	0	0
1224	0	0	0
1225	0	0	0
1226	0	0	0
1227	0	0	0
1228	0	0	0
1229	255	244	237
1230	255	235	234
1231	255	223	232
1232	254	208	226
1233	251	195	219
1234	241	173	212
1235	247	173	224
1236	253	176	233
1237	249	168	227
1238	254	173	231
1239	251	170	229
1240	247	165	226
1241	255	178	235
1242	255	188	239
1243	255	184	233
1244	252	181	229
1245	248	180	228
1246	0	0	0
1247	0	0	0
1248	0	0	0
1249	0	0	0
1250	0	0	0
1251	0	0	0
1252	0	0	0
1253	0	0	0
1254	0	0	0
1255	0	0	0
1256	0	0	0
1257	0	0	0
1258	0	0	0
1259	0	0	0
1260	0	0	0
1261	0	0	0
1262	0	0	0
1263	0	0	0
1264	0	0	0
1265	0	0	0
1266	0	0	0
1267	0	0	0
1268	0	0	0
1269	0	0	0
1270	255	243	236
1271	255	240	237
1272	255	225	232
1273	255	213	231
1274	250	199	226
1275	247	185	221
1276	249	182	224
1277	252	180	230
1278	253	177	233
1279	249	168	229
1280	250	169	230
1281	247	166	227
1282	255	180	236
1283	255	192	242
1284	255	189	237
1285	254	185	232
1286	251	184	230
1287	0	0	0
1288	0	0	0
1289	0	0	0
1290	0	0	0
1291	0	0	0
1292	0	0	0
1293	0	0	0
1294	0	0	0
1295	0	0	0
1296	0	0	0
1297	0	0	0
1298	0	0	0
1299	0	0	0
1300	0	0	0
1301	0	0	0
1302	0	0	0
1303	0	0	0
1304	0	0	0
1305	0	0	0
1306	0	0	0
1307	0	0	0
1308	0	0	0
1309	0	0	0
1310	0	0	0
1311	255	245	238
1312	255	241	237
1313	255	229	233
1314	253	214	228
1315	253	206	230
1316	248	192	225
1317	252	191	229
1318	253	186	230
1319	255	186	233
1320	255	181	234
1321	251	174	231
1322	252	174	233
1323	254	178	235
1324	255	191	243
1325	252	178	231
1326	247	174	225
1327	253	188	233
1328	0	0	0
1329	0	0	0
1330	0	0	0
1331	0	0	0
1332	0	0	0
1333	0	0	0
1334	0	0	0
1335	0	0	0
1336	0	0	0
1337	0	0	0
1338	0	0	0
1339	0	0	0
1340	0	0	0
1341	0	0	0
1342	0	0	0
1343	0	0	0
1344	0	0	0
1345	0	0	0
1346	0	0	0
1347	0	0	0
1348	0	0	0
1349	0	0	0
1350	0	0	0
1351	0	0	0
1352	0	0	0
1353	255	242	238
1354	255	229	232
1355	253	218	229
1356	253	209	229
1357	252	201	228
1358	255	199	232
1359	255	198	236
1360	255	196	238
1361	255	193	237
1362	255	187	235
1363	253	179	231
1364	255	184	235
1365	255	187	238
1366	251	177	230
1367	240	164	221
1368	249	181	231
1369	255	194	237
1370	0	0	0
1371	0	0	0
1372	0	0	0
1373	0	0	0
1374	0	0	0
1375	0	0	0
1376	0	0	0
1377	0	0	0
1378	0	0	0
1379	0	0	0
1380	0	0	0
1381	0	0	0
1382	0	0	0
1383	0	0	0
1384	0	0	0
1385	0	0	0
1386	0	0	0
1387	0	0	0
1388	0	0	0
1389	0	0	0
1390	0	0	0
1391	0	0	0
1392	0	0	0
1393	0	0	0
1394	0	0	0
1395	255	241	239
1396	255	229	235
1397	254	213	229
1398	253	205	229
1399	251	196	226
1400	254	193	229
1401	255	193	233
1402	255	190	234
1403	253	183	231
1404	250	176	226
1405	250	176	227
1406	253	180	231
1407	255	188	236
1408	249	178	228
1409	250	181	231
1410	255	197	241
1411	253	195	235
1412	0	0	0
1413	0	0	0
1414	0	0	0
1415	0	0	0
1416	0	0	0
1417	0	0	0
1418	0	0	0
1419	0	0	0
1420	0	0	0
1421	0	0	0
1422	0	0	0
1423	0	0	0
1424	0	0	0
1425	0	0	0
1426	0	0	0
1427	0	0	0
1428	0	0	0
1429	0	0	0
1430	0	0	0
1431	0	0	0
1432	0	0	0
1433	0	0	0
1434	0	0	0
1435	0	0	0
1436	255	244	242
1437	255	242	242
1438	255	225	234
1439	255	209	229
1440	255	204	230
1441	253	194	226
1442	255	193	230
1443	255	192	235
1444	254	184	232
1445	250	177	230
1446	251	177	231
1447	250	176	229
1448	255	184	234
1449	255	191	237
1450	255	192	236
1451	255	194	236
1452	251	193	232
1453	0	0	0
1454	0	0	0
1455	0	0	0
1456	0	0	0
1457	0	0	0
1458	0	0	0
1459	0	0	0
1460	0	0	0
1461	0	0	0
1462	0	0	0
1463	0	0	0
1464	0	0	0
1465	0	0	0
1466	0	0	0
1467	0	0	0
1468	0	0	0
1469	0	0	0
1470	0	0	0
1471	0	0	0
1472	0	0	0
1473	0	0	0
1474	0	0	0
1475	0	0	0
1476	0	0	0
1477	0	0	0
1478	255	232	236
1479	255	225	233
1480	252	208	225
1481	252	199	225
1482	252	192	226
1483	249	183	223
1484	251	182	226
1485	252	182	230
1486	247	173	227
1487	255	184	236
1488	255	183	236
1489	253	181	234
1490	255	188	237
1491	251	184	232
1492	249	185	230
1493	254	199	235
1494	0	0	0
1495	0	0	0
1496	0	0	0
1497	0	0	0
1498	0	0	0
1499	0	0	0
1500	0	0	0
1501	0	0	0
1502	0	0	0
1503	0	0	0
1504	0	0	0
1505	0	0	0
1506	0	0	0
1507	0	0	0
1508	0	0	0
1509	0	0	0
1510	0	0	0
1511	0	0	0
1512	0	0	0
1513	0	0	0
1514	0	0	0
1515	0	0	0
1516	0	0	0
1517	0	0	0
1518	0	0	0
1519	0	0	0
1520	250	214	226
1521	251	208	225
1522	250	198	224
1523	249	189	224
1524	249	182	225
1525	244	172	222
1526	247	174	227
1527	247	173	229
1528	254	182	236
1529	255	190	240
1530	255	188	237
1531	254	185	236
1532	250	183	234
1533	0	0	0
1534	0	0	0
1535	0	0	0
1536	0	0	0
1537	0	0	0
1538	0	0	0
1539	0	0	0
1540	0	0	0
1541	0	0	0
1542	0	0	0
1543	0	0	0
1544	0	0	0
1545	0	0	0
1546	0	0	0
1547	0	0	0
1548	0	0	0
1549	0	0	0
1550	0	0	0
1551	0	0	0
1552	0	0	0
1553	0	0	0
1554	0	0	0
1555	0	0	0
1556	0	0	0
1557	0	0	0
1558	0	0	0
1559	0	0	0
1560	0	0	0
1561	254	226	234
1562	255	222	235
1563	252	202	226
1564	250	193	226
1565	249	184	226
1566	248	177	227
1567	249	177	231
1568	251	177	234
1569	252	178	236
1570	255	187	241
1571	255	184	236
1572	251	180	232
1573	253	186	236
1574	0	0	0
1575	0	0	0
1576	0	0	0
1577	0	0	0
1578	0	0	0
1579	0	0	0
1580	0	0	0
1581	0	0	0
1582	0	0	0
1583	0	0	0
1584	0	0	0
1585	0	0	0
1586	0	0	0
1587	0	0	0
1588	0	0	0
1589	0	0	0
1590	0	0	0
1591	0	0	0
1592	0	0	0
1593	0	0	0
1594	0	0	0
1595	0	0	0
1596	0	0	0
1597	0	0	0
1598	0	0	0
1599	0	0	0
1600	0	0	0
1601	255	246	243
1602	255	238	241
1603	255	232	241
1604	254	212	232
1605	247	192	224
1606	248	186	226
1607	246	177	227
1608	251	180	234
1609	252	179	236
1610	255	182	240
1611	255	182	239
1612	255	182	238
1613	251	178	235
1614	251	183	236
1615	251	188	236
1616	0	0	0
1617	0	0	0
1618	0	0	0
1619	0	0	0
1620	0	0	0
1621	0	0	0
1622	0	0	0
1623	0	0	0
1624	0	0	0
1625	0	0	0
1626	0	0	0
1627	0	0	0
1628	0	0	0
1629	0	0	0
1630	0	0	0
1631	0	0	0
1632	0	0	0
1633	0	0	0
1634	0	0	0
1635	0	0	0
1636	0	0	0
1637	0	0	0
1638	0	0	0
1639	0	0	0
1640	0	0	0
1641	252	241	240
1642	255	241	242
1643	254	234	238
1644	255	225	235
1645	255	218	235
1646	245	195	223
1647	251	196	230
1648	253	190	232
1649	251	181	233
1650	255	183	239
1651	253	178	238
1652	255	181	240
1653	253	178	237
1654	251	177	236
1655	249	178	236
1656	245	181	235
1657	249	192	238
1658	0	0	0
1659	0	0	0
1660	0	0	0
1661	0	0	0
1662	0	0	0
1663	0	0	0
1664	0	0	0
1665	0	0	0
1666	0	0	0
1667	0	0	0
1668	0	0	0
1669	0	0	0
1670	0	0	0
1671	0	0	0
1672	0	0	0
1673	0	0	0
1674	0	0	0
1675	0	0	0
1676	0	0	0
1677	0	0	0
1678	0	0	0
1679	0	0	0
1680	0	0	0
1681	0	0	0
1682	252	242	237
1683	250	234	236
1684	248	226	233
1685	247	218	230
1686	247	210	227
1687	247	202	228
1688	249	200	231
1689	254	200	235
1690	252	191	233
1691	248	181	233
1692	250	179	236
1693	247	173	233
1694	247	174	234
1695	245	171	232
1696	247	175	234
1697	0	0	0
1698	242	184	236
1699	0	0	0
1700	0	0	0
1701	0	0	0
1702	0	0	0
1703	0	0	0
1704	0	0	0
1705	0	0	0
1706	0	0	0
1707	0	0	0
1708	0	0	0
1709	0	0	0
1710	0	0	0
1711	0	0	0
1712	0	0	0
1713	0	0	0
1714	0	0	0
1715	0	0	0
1716	0	0	0
1717	0	0	0
1718	0	0	0
1719	0	0	0
1720	0	0	0
1721	0	0	0
1722	0	0	0
1723	255	248	241
1724	254	240	238
1725	251	230	234
1726	247	221	232
1727	249	219	233
1728	246	209	229
1729	247	204	231
1730	251	203	235
1731	250	197	233
1732	244	185	229
1733	246	184	234
1734	248	183	237
1735	245	176	235
1736	245	176	237
1737	243	175	235
1738	0	0	0
1739	0	0	0
1740	0	0	0
1741	0	0	0
1742	0	0	0
1743	0	0	0
1744	0	0	0
1745	0	0	0
1746	0	0	0
1747	0	0	0
1748	0	0	0
1749	0	0	0
1750	0	0	0
1751	0	0	0
1752	0	0	0
1753	0	0	0
1754	0	0	0
1755	0	0	0
1756	0	0	0
1757	0	0	0
1758	0	0	0
1759	0	0	0
1760	0	0	0
1761	0	0	0
1762	0	0	0
1763	0	0	0
1764	0	0	0
1765	0	0	0
1766	247	231	233
1767	244	220	228
1768	248	220	232
1769	250	218	235
1770	246	210	233
1771	246	204	233
1772	250	202	235
1773	248	195	231
1774	244	191	230
1775	246	189	235
1776	248	186	239
1777	245	180	240
1778	243	180	241
1779	0	0	0
1780	0	0	0
1781	0	0	0
1782	0	0	0
1783	0	0	0
1784	0	0	0
1785	0	0	0
1786	0	0	0
1787	0	0	0
1788	0	0	0
1789	0	0	0
1790	0	0	0
1791	0	0	0
1792	0	0	0
1793	0	0	0
1794	0	0	0
1795	0	0	0
1796	0	0	0
1797	0	0	0
1798	0	0	0
1799	0	0	0
1800	0	0	0
1801	0	0	0
1802	0	0	0
1803	0	0	0
1804	0	0	0
1805	0	0	0
1806	0	0	0
1807	0	0	0
1808	0	0	0
1809	249	228	235
1810	255	231	241
1811	248	211	232
1812	239	201	228
1813	246	205	234
1814	252	204	238
1815	242	187	227
1816	235	180	225
1817	245	192	238
1818	250	190	242
1819	246	183	242
1820	0	0	0
1821	0	0	0
1822	0	0	0
1823	0	0	0
1824	0	0	0
1825	0	0	0
1826	0	0	0
1827	0	0	0
1828	0	0	0
1829	0	0	0
1830	0	0	0
1831	0	0	0
1832	0	0	0
1833	0	0	0
1834	0	0	0
1835	0	0	0
1836	0	0	0
1837	0	0	0
1838	0	0	0
1839	0	0	0
1840	0	0	0
1841	0	0	0
1842	0	0	0
1843	0	0	0
1844	0	0	0
1845	0	0	0
1846	0	0	0
1847	0	0	0
1848	0	0	0
1849	0	0	0
1850	0	0	0
1851	255	237	240
1852	253	223	235
1853	243	203	225
1854	246	206	232
1855	251	209	239
1856	246	197	235
1857	235	179	227
1858	239	187	235
1859	248	197	244
1860	247	191	242
1861	0	0	0
1862	0	0	0
1863	0	0	0
1864	0	0	0
1865	0	0	0
1866	0	0	0
1867	0	0	0
1868	0	0	0
1869	0	0	0
1870	0	0	0
1871	0	0	0
1872	0	0	0
1873	0	0	0
1874	0	0	0
1875	0	0	0
1876	0	0	0
1877	0	0	0
1878	0	0	0
1879	0	0	0
1880	0	0	0
1881	0	0	0
1882	0	0	0
1883	0	0	0
1884	0	0	0
1885	0	0	0
1886	0	0	0
1887	0	0	0
1888	0	0	0
1889	0	0	0
1890	0	0	0
1891	0	0	0
1892	0	0	0
1893	252	229	236
1894	246	212	229
1895	246	204	229
1896	255	210	239
1897	248	199	236
1898	234	181	227
1899	237	185	234
1900	245	196	245
1901	243	194	243
1902	232	182	234
1903	0	0	0
1904	0	0	0
1905	0	0	0
1906	0	0	0
1907	0	0	0
1908	0	0	0
1909	0	0	0
1910	0	0	0
1911	0	0	0
1912	0	0	0
1913	0	0	0
1914	0	0	0
1915	0	0	0
1916	0	0	0
1917	0	0	0
1918	0	0	0
1919	0	0	0
1920	0	0	0
1921	0	0	0
1922	0	0	0
1923	0	0	0
1924	0	0	0
1925	0	0	0
1926	0	0	0
1927	0	0	0
1928	0	0	0
1929	0	0	0
1930	0	0	0
1931	0	0	0
1932	0	0	0
1933	0	0	0
1934	0	0	0
1935	248	220	233
1936	249	214	234
1937	249	205	235
1938	249	199	236
1939	240	186	230
1940	239	188	234
1941	240	191	240
1942	240	191	241
1943	235	188	238
1944	234	195	239
1945	0	0	0
1946	0	0	0
1947	0	0	0
1948	0	0	0
1949	0	0	0
1950	0	0	0
1951	0	0	0
1952	0	0	0
1953	0	0	0
1954	0	0	0
1955	0	0	0
1956	0	0	0
1957	0	0	0
1958	0	0	0
1959	0	0	0
1960	0	0	0
1961	0	0	0
1962	0	0	0
1963	0	0	0
1964	0	0	0
1965	0	0	0
1966	0	0	0
1967	0	0	0
1968	0	0	0
1969	0	0	0
1970	0	0	0
1971	0	0	0
1972	0	0	0
1973	0	0	0
1974	0	0	0
1975	0	0	0
1976	0	0	0
1977	251	221	236
1978	252	215	238
1979	247	201	236
1980	243	191	234
1981	244	193	236
1982	246	196	241
1983	243	196	243
1984	237	192	240
1985	239	202	243
1986	0	0	0
1987	0	0	0
1988	0	0	0
1989	0	0	0
1990	0	0	0
1991	0	0	0
1992	0	0	0
1993	0	0	0
1994	0	0	0
1995	0	0	0
1996	0	0	0
1997	0	0	0
1998	0	0	0
1999	0	0	0
2000	0	0	0
2001	0	0	0
2002	0	0	0
2003	0	0	0
2004	0	0	0
2005	0	0	0
2006	0	0	0
2007	0	0	0
2008	0	0	0
2009	0	0	0
2010	0	0	0
2011	0	0	0
2012	0	0	0
2013	0	0	0
2014	0	0	0
2015	0	0	0
2016	0	0	0
2017	0	0	0
2018	0	0	0
2019	249	218	235
2020	248	208	235
2021	242	194	235
2022	247	198	242
2023	246	198	241
2024	242	197	239
2025	239	196	239
2026	241	205	243
2027	0	0	0
2028	0	0	0
2029	0	0	0
2030	0	0	0
2031	0	0	0
2032	0	0	0
2033	0	0	0
2034	0	0	0
2035	0	0	0
2036	0	0	0
2037	0	0	0
2038	0	0	0
2039	0	0	0
2040	0	0	0
2041	0	0	0
2042	0	0	0
2043	0	0	0
2044	0	0	0
2045	0	0	0
2046	0	0	0
2047	0	0	0
2048	0	0	0
2049	0	0	0
2050	0	0	0
2051	0	0	0
2052	0	0	0
2053	0	0	0
2054	0	0	0
2055	0	0	0
2056	0	0	0
2057	0	0	0
2058	0	0	0
2059	0	0	0
2060	0	0	0
2061	248	218	235
2062	246	207	235
2063	244	198	237
2064	249	203	245
2065	243	199	240
2066	0	0	0
2067	0	0	0
2068	0	0	0
2069	0	0	0
2070	0	0	0
2071	0	0	0
2072	0	0	0
2073	0	0	0
2074	0	0	0
2075	0	0	0
2076	0	0	0
2077	0	0	0
2078	0	0	0
2079	0	0	0
2080	0	0	0
2081	0	0	0
2082	0	0	0
2083	0	0	0
2084	0	0	0
2085	0	0	0
2086	0	0	0
2087	0	0	0
2088	0	0	0
2089	0	0	0
2090	0	0	0
2091	0	0	0
2092	0	0	0
2093	0	0	0
2094	0	0	0
2095	0	0	0
2096	0	0	0
2097	0	0	0
2098	0	0	0
2099	0	0	0
2100	0	0	0
2101	0	0	0
2102	0	0	0
2103	0	0	0
2104	247	211	236
2105	242	200	234
2106	244	203	239
2107	0	0	0
2108	0	0	0
2109	0	0	0
2110	0	0	0
2111	0	0	0
2112	0	0	0
2113	0	0	0
2114	0	0	0
2115	0	0	0
2116	0	0	0
2117	0	0	0
2118	0	0	0
2119	0	0	0
2120	0	0	0
2121	0	0	0
2122	0	0	0
2123	0	0	0
2124	0	0	0
2125	0	0	0
2126	0	0	0
2127	0	0	0
2128	0	0	0
2129	0	0	0
2130	0	0	0
2131	0	0	0
2132	0	0	0
2133	0	0	0
2134	0	0	0
2135	0	0	0
2136	0	0	0
2137	0	0	0
2138	0	0	0
2139	0	0	0
2140	0	0	0
2141	0	0	0
2142	0	0	0
2143	0	0	0
2144	0	0	0
2145	0	0	0
2146	0	0	0
2147	241	208	235
2148	0	0	0
2149	0	0	0
2150	0	0	0
2151	0	0	0
2152	0	0	0
2153	0	0	0
2154	0	0	0
2155	0	0	0
2156	0	0	0
2157	0	0	0
2158	0	0	0
2159	0	0	0
2160	0	0	0
2161	0	0	0
2162	0	0	0
2163	0	0	0
2164	0	0	0
2165	0	0	0
2166	0	0	0
2167	0	0	0
2168	0	0	0
2169	0	0	0
2170	0	0	0
2171	0	0	0
2172	0	0	0
2173	0	0	0
2174	0	0	0
2175	0	0	0
2176	0	0	0
2177	0	0	0
2178	0	0	0
2179	0	0	0
2180	0	0	0
2181	0	0	0
2182	0	0	0
2183	0	0	0
2184	0	0	0
