 	R	G	B
1	0	0	0
2	0	0	0
3	0	0	0
4	0	0	0
5	0	0	0
6	0	0	0
7	0	0	0
8	0	0	0
9	0	0	0
10	0	0	0
11	0	0	0
12	0	0	0
13	0	0	0
14	0	0	0
15	255	233	226
16	255	234	227
17	255	237	230
18	255	227	226
19	255	214	220
20	255	211	221
21	255	205	220
22	255	209	226
23	255	211	229
24	0	0	0
25	252	202	225
26	253	206	226
27	0	0	0
28	0	0	0
29	0	0	0
30	0	0	0
31	0	0	0
32	0	0	0
33	0	0	0
34	0	0	0
35	0	0	0
36	0	0	0
37	0	0	0
38	0	0	0
39	0	0	0
40	0	0	0
41	255	228	228
42	255	217	220
43	255	220	223
44	255	209	219
45	253	198	214
46	251	191	212
47	251	188	213
48	250	185	215
49	253	188	221
50	249	184	219
51	244	179	216
52	253	195	226
53	252	197	226
54	249	200	225
55	0	0	0
56	0	0	0
57	0	0	0
58	0	0	0
59	0	0	0
60	0	0	0
61	0	0	0
62	0	0	0
63	0	0	0
64	255	241	233
65	255	238	231
66	255	233	231
67	255	222	224
68	255	216	222
69	255	206	218
70	255	194	214
71	250	183	211
72	249	177	211
73	247	170	210
74	247	169	212
75	245	165	214
76	243	162	215
77	238	157	213
78	246	172	223
79	253	186	229
80	249	188	226
81	246	190	225
82	0	0	0
83	0	0	0
84	0	0	0
85	0	0	0
86	0	0	0
87	0	0	0
88	0	0	0
89	0	0	0
90	255	236	231
91	255	235	232
92	255	211	219
93	255	206	219
94	248	184	207
95	248	179	207
96	250	177	211
97	245	166	207
98	253	173	216
99	251	166	215
100	247	159	213
101	246	156	215
102	250	162	223
103	246	158	222
104	248	164	226
105	255	178	234
106	254	182	231
107	249	183	227
108	250	193	231
109	0	0	0
110	0	0	0
111	0	0	0
112	0	0	0
113	0	0	0
114	0	0	0
115	0	0	0
116	255	234	228
117	255	224	223
118	253	205	215
119	244	183	205
120	241	168	203
121	232	148	197
122	237	149	204
123	239	148	208
124	244	152	212
125	249	156	215
126	244	147	211
127	239	139	211
128	244	146	218
129	247	151	222
130	249	157	226
131	249	161	227
132	248	167	227
133	246	171	225
134	249	182	229
135	250	191	231
136	0	0	0
137	0	0	0
138	0	0	0
139	0	0	0
140	0	0	0
141	0	0	0
142	255	236	230
143	255	227	227
144	255	216	223
145	255	198	217
146	243	170	206
147	241	156	207
148	244	153	213
149	248	154	221
150	251	155	224
151	254	157	227
152	253	155	223
153	247	145	217
154	247	145	222
155	251	151	228
156	251	154	229
157	252	159	230
158	250	163	229
159	247	167	229
160	250	178	233
161	255	190	237
162	248	190	232
163	0	0	0
164	0	0	0
165	0	0	0
166	0	0	0
167	0	0	0
168	0	0	0
169	253	225	227
170	253	212	222
171	254	202	219
172	238	170	204
173	226	143	197
174	237	147	210
175	240	142	215
176	248	149	224
177	249	148	224
178	249	147	223
179	248	145	221
180	247	144	221
181	247	143	224
182	250	149	229
183	249	151	227
184	249	157	229
185	247	161	230
186	251	173	236
187	253	183	239
188	249	186	237
189	0	0	0
190	0	0	0
191	0	0	0
192	0	0	0
193	0	0	0
194	0	0	0
195	0	0	0
196	254	224	229
197	255	211	226
198	251	196	220
199	229	162	203
200	240	166	218
201	254	172	233
202	244	148	223
203	252	154	231
204	250	149	228
205	249	147	227
206	249	147	226
207	248	145	226
208	250	149	230
209	253	155	233
210	250	156	231
211	249	161	232
212	250	167	234
213	255	181	242
214	251	182	239
215	242	181	234
216	0	0	0
217	0	0	0
218	0	0	0
219	0	0	0
220	0	0	0
221	250	228	228
222	250	222	225
223	255	221	230
224	255	206	225
225	250	190	220
226	249	188	225
227	255	191	238
228	254	173	235
229	243	148	224
230	250	151	231
231	249	146	229
232	249	147	230
233	249	147	229
234	252	151	232
235	252	154	234
236	253	158	235
237	249	158	233
238	247	163	233
239	245	168	232
240	248	174	234
241	243	176	233
242	0	0	0
243	0	0	0
244	0	0	0
245	0	0	0
246	0	0	0
247	254	228	231
248	255	225	230
249	254	218	227
250	255	214	229
251	252	197	223
252	249	184	221
253	254	184	228
254	255	180	234
255	246	157	225
256	245	149	226
257	251	153	233
258	247	145	229
259	249	147	231
260	251	150	234
261	253	154	236
262	250	153	233
263	250	156	233
264	248	161	234
265	241	164	233
266	238	167	231
267	240	173	233
268	240	181	235
269	0	0	0
270	0	0	0
271	0	0	0
272	0	0	0
273	0	0	0
274	253	221	229
275	255	219	231
276	253	210	227
277	255	205	228
278	251	191	224
279	248	178	223
280	248	172	226
281	249	166	228
282	247	158	227
283	244	150	226
284	243	146	227
285	239	138	225
286	246	145	231
287	248	148	234
288	248	150	234
289	244	148	228
290	247	157	232
291	245	162	234
292	238	165	234
293	235	169	235
294	239	179	239
295	0	0	0
296	0	0	0
297	0	0	0
298	0	0	0
299	0	0	0
300	254	227	232
301	255	226	235
302	254	213	229
303	251	204	227
304	255	203	230
305	251	188	225
306	251	182	228
307	250	174	229
308	252	173	233
309	250	165	232
310	242	152	227
311	239	147	227
312	241	149	231
313	250	157	239
314	252	160	241
315	251	160	239
316	244	155	232
317	247	163	236
318	245	168	238
319	242	173	239
320	240	178	241
321	242	187	244
322	242	195	244
323	0	0	0
324	0	0	0
325	0	0	0
326	0	0	0
327	255	232	236
328	254	217	229
329	248	203	223
330	249	199	224
331	252	198	227
332	250	188	224
333	249	180	224
334	250	177	226
335	251	175	231
336	245	164	230
337	237	151	227
338	239	155	234
339	241	156	237
340	248	163	242
341	250	165	240
342	246	163	237
343	241	158	233
344	244	167	238
345	243	172	237
346	243	179	240
347	241	183	241
348	242	193	244
349	242	201	244
350	244	209	242
351	0	0	0
352	0	0	0
353	0	0	0
354	255	229	235
355	252	213	227
356	250	204	224
357	251	201	226
358	255	201	230
359	250	190	225
360	254	190	228
361	255	187	231
362	250	176	230
363	239	162	226
364	242	167	235
365	246	172	242
366	242	165	239
367	246	170	241
368	247	172	239
369	245	171	238
370	240	166	236
371	244	175	241
372	243	179	240
373	245	186	242
374	239	185	238
375	239	193	240
376	244	209	245
377	245	217	243
378	240	217	236
379	0	0	0
380	0	0	0
381	255	226	234
382	255	215	229
383	252	206	227
384	255	205	230
385	255	204	231
386	253	199	229
387	255	199	232
388	254	188	230
389	247	177	228
390	247	180	234
391	249	183	240
392	247	180	240
393	242	173	237
394	246	177	240
395	247	180	239
396	244	177	237
397	239	172	235
398	240	179	239
399	240	183	238
400	239	185	237
401	233	184	233
402	241	202	241
403	247	218	244
404	242	218	239
405	0	0	0
406	0	0	0
407	0	0	0
408	255	222	234
409	253	210	228
410	250	202	226
411	251	201	227
412	252	202	229
413	247	195	225
414	254	203	233
415	252	193	231
416	249	185	230
417	250	189	236
418	249	187	237
419	247	184	237
420	245	179	236
421	248	184	240
422	247	185	239
423	245	182	237
424	238	178	235
425	236	183	236
426	238	192	239
427	237	194	237
428	237	197	237
429	249	218	247
430	245	218	240
431	0	0	0
432	0	0	0
433	0	0	0
434	255	221	233
435	255	218	234
436	253	209	230
437	250	201	227
438	252	203	231
439	253	204	233
440	252	205	234
441	255	212	239
442	255	204	235
443	252	195	232
444	251	194	234
445	250	193	235
446	247	189	235
447	243	184	235
448	244	187	238
449	244	187	237
450	241	186	236
451	235	182	232
452	235	191	236
453	238	200	239
454	240	206	240
455	240	209	239
456	242	214	239
457	0	0	0
458	0	0	0
459	0	0	0
460	251	220	231
461	255	218	234
462	254	211	232
463	249	201	227
464	253	206	232
465	255	208	235
466	253	204	233
467	252	205	233
468	255	210	236
469	248	199	228
470	251	200	231
471	254	201	235
472	250	196	233
473	242	190	231
474	240	191	234
475	240	193	236
476	238	192	235
477	236	191	234
478	235	194	234
479	238	204	238
480	237	206	237
481	242	213	239
482	240	213	237
483	0	0	0
484	0	0	0
485	0	0	0
486	0	0	0
487	251	217	230
488	250	210	229
489	248	203	228
490	253	207	233
491	255	211	235
492	255	208	233
493	252	204	232
494	252	207	233
495	254	210	233
496	251	207	231
497	254	209	235
498	253	205	234
499	248	200	232
500	243	199	233
501	241	199	235
502	240	200	236
503	238	199	236
504	244	207	241
505	244	211	240
506	244	214	239
507	243	215	237
508	245	219	238
509	244	220	237
510	0	0	0
511	0	0	0
512	0	0	0
513	0	0	0
514	0	0	0
515	243	202	224
516	251	211	233
517	255	217	239
518	252	206	231
519	249	202	229
520	254	209	235
521	255	212	236
522	253	210	232
523	247	205	227
524	250	210	231
525	247	205	229
526	247	206	232
527	244	207	233
528	244	208	236
529	243	209	238
530	241	205	236
531	248	213	241
532	248	213	238
533	251	218	238
534	245	213	232
535	243	214	232
536	241	216	233
537	0	0	0
538	0	0	0
539	0	0	0
540	0	0	0
541	0	0	0
542	0	0	0
543	255	221	241
544	255	213	236
545	248	202	229
546	251	207	233
547	255	214	239
548	255	214	239
549	254	212	235
550	249	211	231
551	249	214	231
552	249	215	230
553	249	216	233
554	249	218	236
555	250	220	241
556	248	217	240
557	246	212	236
558	251	216	239
559	252	216	237
560	253	216	236
561	248	211	231
562	247	216	234
563	244	218	236
564	0	0	0
565	0	0	0
566	0	0	0
567	0	0	0
568	0	0	0
569	255	218	238
570	255	213	236
571	248	203	230
572	251	207	232
573	253	212	236
574	254	213	238
575	255	214	240
576	252	211	234
577	245	209	229
578	248	218	231
579	248	217	230
580	246	216	230
581	248	218	234
582	250	219	237
583	249	216	237
584	249	215	235
585	254	218	237
586	253	216	234
587	255	216	235
588	247	208	230
589	247	213	234
590	245	217	236
591	0	0	0
592	0	0	0
593	0	0	0
594	0	0	0
595	0	0	0
596	252	210	234
597	249	205	232
598	253	210	235
599	254	213	235
600	252	212	234
601	253	213	238
602	254	214	239
603	249	209	233
604	249	216	234
605	252	225	238
606	245	219	232
607	244	216	231
608	248	219	234
609	250	219	236
610	249	218	236
611	251	218	236
612	255	218	236
613	255	215	232
614	254	212	231
615	248	206	230
616	251	214	237
617	249	217	238
618	0	0	0
619	0	0	0
620	0	0	0
621	0	0	0
622	0	0	0
623	0	0	0
624	250	209	237
625	255	215	240
626	254	214	236
627	252	213	235
628	251	212	238
629	249	210	237
630	248	213	234
631	252	221	238
632	249	222	237
633	237	213	228
634	245	224	235
635	254	229	240
636	247	217	232
637	242	213	229
638	251	221	236
639	255	225	240
640	250	207	226
641	249	204	226
642	252	208	233
643	255	217	242
644	248	209	235
645	0	0	0
646	0	0	0
647	0	0	0
648	0	0	0
649	0	0	0
650	0	0	0
651	0	0	0
652	249	211	237
653	248	210	234
654	244	208	232
655	0	0	0
656	246	212	236
657	246	215	235
658	246	218	235
659	244	219	234
660	242	224	235
661	251	235	242
662	251	226	237
663	245	214	228
664	246	219	231
665	255	228	239
666	253	215	232
667	245	198	221
668	251	204	228
669	0	0	0
670	255	209	239
671	0	0	0
672	0	0	0
673	0	0	0
674	0	0	0
675	0	0	0
676	0	0	0
677	0	0	0
678	0	0	0
679	0	0	0
680	0	0	0
681	0	0	0
682	0	0	0
683	250	224	241
684	245	219	236
685	243	220	234
686	244	224	236
687	249	232	241
688	252	234	241
689	247	223	233
690	247	219	231
691	254	227	237
692	254	222	236
693	249	207	228
694	252	207	229
695	255	215	237
696	0	0	0
697	0	0	0
698	0	0	0
699	0	0	0
700	0	0	0
701	0	0	0
702	0	0	0
703	0	0	0
704	0	0	0
705	0	0	0
706	0	0	0
707	0	0	0
708	0	0	0
709	246	227	238
710	249	227	239
711	245	222	235
712	243	224	236
713	245	228	237
714	246	228	237
715	249	231	238
716	248	226	235
717	248	222	234
718	246	216	232
719	246	212	231
720	252	213	234
721	255	214	234
722	254	209	232
723	0	0	0
724	0	0	0
725	0	0	0
726	0	0	0
727	0	0	0
728	0	0	0
729	0	0	0
730	0	0	0
731	0	0	0
732	0	0	0
733	0	0	0
734	0	0	0
735	250	233	241
736	244	222	234
737	244	221	234
738	248	227	237
739	248	230	239
740	247	231	239
741	245	229	237
742	247	232	238
743	247	228	236
744	246	223	234
745	242	217	230
746	245	217	233
747	251	219	237
748	251	213	233
749	254	210	233
750	249	198	228
751	0	0	0
752	0	0	0
753	0	0	0
754	0	0	0
755	0	0	0
756	0	0	0
757	0	0	0
758	0	0	0
759	0	0	0
760	0	0	0
761	0	0	0
762	0	0	0
763	240	217	232
764	246	225	239
765	248	230	240
766	246	230	239
767	244	230	238
768	242	229	236
769	245	232	238
770	244	227	234
771	243	223	231
772	245	223	232
773	248	223	234
774	246	216	233
775	248	211	233
776	251	206	233
777	247	195	229
778	249	195	233
779	0	0	0
780	0	0	0
781	0	0	0
782	0	0	0
783	0	0	0
784	0	0	0
785	0	0	0
786	0	0	0
787	0	0	0
788	0	0	0
789	0	0	0
790	0	0	0
791	250	235	246
792	245	231	240
793	242	230	237
794	0	0	0
795	0	0	0
796	248	240	243
797	0	0	0
798	245	229	234
799	253	231	237
800	252	225	235
801	248	217	233
802	249	214	235
803	252	208	236
804	251	200	234
805	254	202	238
806	0	0	0
807	0	0	0
808	0	0	0
809	0	0	0
810	0	0	0
811	0	0	0
812	0	0	0
813	0	0	0
814	0	0	0
815	0	0	0
816	0	0	0
817	0	0	0
818	0	0	0
819	0	0	0
820	0	0	0
821	0	0	0
822	0	0	0
823	0	0	0
824	0	0	0
825	0	0	0
826	248	228	235
827	248	222	232
828	245	216	231
829	247	212	233
830	249	208	235
831	248	201	234
832	251	201	237
833	0	0	0
834	0	0	0
835	0	0	0
836	0	0	0
837	0	0	0
838	0	0	0
839	0	0	0
840	0	0	0
841	0	0	0
842	0	0	0
843	0	0	0
844	0	0	0
845	0	0	0
846	0	0	0
847	0	0	0
848	0	0	0
849	0	0	0
850	0	0	0
851	0	0	0
852	0	0	0
853	0	0	0
854	249	231	237
855	251	227	238
856	247	215	235
857	247	209	235
858	250	209	237
859	252	208	240
860	0	0	0
861	0	0	0
862	0	0	0
863	0	0	0
864	0	0	0
865	0	0	0
866	0	0	0
867	0	0	0
868	0	0	0
869	0	0	0
870	0	0	0
871	0	0	0
872	0	0	0
873	0	0	0
874	0	0	0
875	0	0	0
876	0	0	0
877	0	0	0
878	0	0	0
879	0	0	0
880	0	0	0
881	0	0	0
882	247	227	237
883	243	215	235
884	247	216	239
885	250	215	239
886	250	209	238
887	0	0	0
888	0	0	0
889	0	0	0
890	0	0	0
891	0	0	0
892	0	0	0
893	0	0	0
894	0	0	0
895	0	0	0
896	0	0	0
897	0	0	0
898	0	0	0
899	0	0	0
900	0	0	0
901	0	0	0
902	0	0	0
903	0	0	0
904	0	0	0
905	0	0	0
906	0	0	0
907	0	0	0
908	0	0	0
909	0	0	0
910	243	224	238
911	249	226	243
912	247	215	237
913	248	211	237
914	243	204	235
915	0	0	0
916	0	0	0
917	0	0	0
918	0	0	0
919	0	0	0
920	0	0	0
921	0	0	0
922	0	0	0
923	0	0	0
924	0	0	0
925	0	0	0
926	0	0	0
927	0	0	0
928	0	0	0
929	0	0	0
930	0	0	0
931	0	0	0
932	0	0	0
933	0	0	0
934	0	0	0
935	0	0	0
936	0	0	0
937	0	0	0
938	243	223	237
939	240	213	234
940	245	213	237
941	0	0	0
942	0	0	0
943	0	0	0
944	0	0	0
945	0	0	0
