 	R	G	B
1	0	0	0
2	0	0	0
3	0	0	0
4	0	0	0
5	0	0	0
6	0	0	0
7	0	0	0
8	0	0	0
9	0	0	0
10	0	0	0
11	0	0	0
12	0	0	0
13	0	0	0
14	0	0	0
15	0	0	0
16	0	0	0
17	0	0	0
18	0	0	0
19	0	0	0
20	0	0	0
21	0	0	0
22	0	0	0
23	0	0	0
24	0	0	0
25	0	0	0
26	0	0	0
27	0	0	0
28	0	0	0
29	0	0	0
30	0	0	0
31	0	0	0
32	0	0	0
33	0	0	0
34	0	0	0
35	0	0	0
36	0	0	0
37	0	0	0
38	0	0	0
39	0	0	0
40	0	0	0
41	254	230	232
42	254	224	229
43	0	0	0
44	0	0	0
45	253	220	231
46	253	225	234
47	249	226	234
48	0	0	0
49	0	0	0
50	0	0	0
51	0	0	0
52	0	0	0
53	0	0	0
54	0	0	0
55	0	0	0
56	0	0	0
57	0	0	0
58	0	0	0
59	0	0	0
60	0	0	0
61	0	0	0
62	0	0	0
63	0	0	0
64	0	0	0
65	0	0	0
66	0	0	0
67	0	0	0
68	0	0	0
69	0	0	0
70	0	0	0
71	0	0	0
72	0	0	0
73	0	0	0
74	0	0	0
75	0	0	0
76	0	0	0
77	0	0	0
78	0	0	0
79	0	0	0
80	0	0	0
81	0	0	0
82	0	0	0
83	0	0	0
84	0	0	0
85	0	0	0
86	0	0	0
87	0	0	0
88	255	227	231
89	255	224	231
90	248	203	220
91	249	200	222
92	250	201	224
93	255	210	231
94	254	209	229
95	251	210	229
96	247	212	230
97	0	0	0
98	0	0	0
99	0	0	0
100	0	0	0
101	0	0	0
102	0	0	0
103	0	0	0
104	0	0	0
105	0	0	0
106	0	0	0
107	0	0	0
108	0	0	0
109	0	0	0
110	0	0	0
111	0	0	0
112	0	0	0
113	0	0	0
114	0	0	0
115	0	0	0
116	0	0	0
117	0	0	0
118	0	0	0
119	0	0	0
120	0	0	0
121	0	0	0
122	0	0	0
123	0	0	0
124	0	0	0
125	0	0	0
126	0	0	0
127	0	0	0
128	0	0	0
129	0	0	0
130	0	0	0
131	0	0	0
132	0	0	0
133	249	238	234
134	255	238	234
135	255	228	229
136	255	217	226
137	250	201	221
138	239	181	212
139	246	187	221
140	247	188	223
141	248	190	224
142	244	187	217
143	242	191	218
144	236	191	220
145	0	0	0
146	0	0	0
147	0	0	0
148	0	0	0
149	0	0	0
150	0	0	0
151	0	0	0
152	0	0	0
153	0	0	0
154	0	0	0
155	0	0	0
156	0	0	0
157	0	0	0
158	0	0	0
159	0	0	0
160	0	0	0
161	0	0	0
162	0	0	0
163	239	197	220
164	229	178	215
165	240	192	228
166	0	0	0
167	0	0	0
168	0	0	0
169	0	0	0
170	0	0	0
171	0	0	0
172	0	0	0
173	0	0	0
174	0	0	0
175	0	0	0
176	0	0	0
177	0	0	0
178	0	0	0
179	0	0	0
180	250	235	233
181	253	234	232
182	251	223	225
183	248	211	220
184	252	206	223
185	250	193	222
186	241	176	217
187	246	181	226
188	244	181	226
189	241	181	224
190	236	180	218
191	232	182	217
192	231	191	222
193	0	0	0
194	0	0	0
195	0	0	0
196	0	0	0
197	0	0	0
198	0	0	0
199	0	0	0
200	0	0	0
201	0	0	0
202	0	0	0
203	0	0	0
204	0	0	0
205	0	0	0
206	0	0	0
207	0	0	0
208	0	0	0
209	0	0	0
210	233	202	217
211	230	190	215
212	221	172	212
213	231	184	224
214	230	184	220
215	245	203	229
216	249	213	228
217	248	218	226
218	0	0	0
219	249	227	228
220	0	0	0
221	0	0	0
222	0	0	0
223	0	0	0
224	0	0	0
225	0	0	0
226	0	0	0
227	250	227	228
228	255	234	233
229	252	221	226
230	251	212	223
231	249	203	221
232	251	197	224
233	244	181	220
234	235	163	218
235	237	168	225
236	232	165	221
237	230	168	221
238	226	169	220
239	230	183	225
240	227	190	224
241	0	0	0
242	0	0	0
243	0	0	0
244	0	0	0
245	0	0	0
246	0	0	0
247	0	0	0
248	0	0	0
249	0	0	0
250	0	0	0
251	0	0	0
252	0	0	0
253	0	0	0
254	0	0	0
255	0	0	0
256	0	0	0
257	0	0	0
258	237	216	225
259	236	205	224
260	229	189	221
261	238	200	232
262	237	195	227
263	255	217	239
264	247	203	223
265	249	211	223
266	255	220	227
267	255	221	226
268	248	212	220
269	0	0	0
270	0	0	0
271	0	0	0
272	0	0	0
273	0	0	0
274	250	218	225
275	255	227	232
276	255	217	226
277	249	203	219
278	252	202	223
279	251	193	223
280	251	190	225
281	238	170	218
282	239	172	228
283	240	175	234
284	235	174	230
285	232	177	231
286	230	180	232
287	237	194	238
288	233	199	233
289	0	0	0
290	0	0	0
291	0	0	0
292	0	0	0
293	0	0	0
294	0	0	0
295	0	0	0
296	0	0	0
297	0	0	0
298	0	0	0
299	0	0	0
300	0	0	0
301	0	0	0
302	0	0	0
303	0	0	0
304	239	233	232
305	237	229	231
306	244	231	235
307	240	217	228
308	232	200	221
309	236	203	226
310	238	200	224
311	246	200	225
312	240	190	217
313	248	201	222
314	253	210	223
315	245	200	214
316	238	190	207
317	246	202	216
318	253	213	223
319	253	213	223
320	253	215	223
321	251	213	222
322	255	216	226
323	252	206	222
324	248	195	217
325	246	190	216
326	248	188	221
327	248	183	222
328	245	178	224
329	240	175	225
330	237	174	229
331	235	176	232
332	231	176	231
333	230	180	233
334	227	183	234
335	233	196	238
336	0	0	0
337	0	0	0
338	0	0	0
339	0	0	0
340	0	0	0
341	0	0	0
342	0	0	0
343	0	0	0
344	0	0	0
345	0	0	0
346	0	0	0
347	0	0	0
348	0	0	0
349	0	0	0
350	0	0	0
351	239	233	231
352	241	236	233
353	238	230	229
354	237	226	228
355	231	211	219
356	231	205	218
357	239	210	224
358	242	205	223
359	253	208	228
360	245	191	219
361	253	204	226
362	254	208	223
363	243	196	212
364	243	196	213
365	254	209	223
366	254	209	222
367	254	209	223
368	252	206	221
369	254	206	223
370	255	205	224
371	248	193	218
372	251	195	223
373	250	190	223
374	249	187	226
375	246	180	226
376	247	183	231
377	240	179	230
378	237	181	233
379	234	181	234
380	235	188	238
381	235	193	240
382	232	196	240
383	0	0	0
384	0	0	0
385	0	0	0
386	0	0	0
387	0	0	0
388	0	0	0
389	0	0	0
390	0	0	0
391	0	0	0
392	0	0	0
393	0	0	0
394	0	0	0
395	0	0	0
396	0	0	0
397	0	0	0
398	0	0	0
399	0	0	0
400	250	243	236
401	244	235	229
402	244	231	228
403	245	227	228
404	246	221	227
405	249	218	227
406	252	214	226
407	254	205	224
408	247	190	218
409	255	201	225
410	255	204	222
411	248	200	215
412	247	200	217
413	249	201	219
414	250	200	219
415	249	197	219
416	249	194	220
417	248	192	221
418	247	189	220
419	245	187	219
420	247	188	223
421	242	182	222
422	239	177	224
423	239	179	228
424	238	181	229
425	232	180	229
426	229	181	232
427	231	188	237
428	232	195	239
429	232	200	240
430	0	0	0
431	0	0	0
432	0	0	0
433	0	0	0
434	0	0	0
435	0	0	0
436	0	0	0
437	0	0	0
438	0	0	0
439	0	0	0
440	0	0	0
441	0	0	0
442	0	0	0
443	0	0	0
444	0	0	0
445	0	0	0
446	0	0	0
447	0	0	0
448	0	0	0
449	0	0	0
450	244	222	221
451	248	218	222
452	247	210	220
453	251	208	220
454	255	207	221
455	250	195	216
456	248	187	216
457	255	199	226
458	251	192	216
459	243	187	210
460	249	199	219
461	248	198	219
462	249	197	220
463	250	195	221
464	251	195	225
465	249	191	225
466	248	192	225
467	244	188	223
468	246	193	228
469	238	185	226
470	235	184	229
471	231	183	230
472	235	195	235
473	230	193	233
474	230	198	237
475	0	0	0
476	0	0	0
477	0	0	0
478	0	0	0
479	0	0	0
480	0	0	0
481	0	0	0
482	0	0	0
483	0	0	0
484	0	0	0
485	0	0	0
486	0	0	0
487	0	0	0
488	0	0	0
489	0	0	0
490	0	0	0
491	0	0	0
492	0	0	0
493	0	0	0
494	0	0	0
495	0	0	0
496	0	0	0
497	249	223	220
498	251	219	220
499	253	213	220
500	253	205	218
501	255	206	222
502	255	205	222
503	255	197	219
504	253	188	218
505	252	187	219
506	245	180	213
507	247	188	217
508	253	199	225
509	248	195	221
510	248	193	221
511	247	190	220
512	246	189	222
513	243	187	222
514	242	188	222
515	241	190	225
516	243	195	229
517	237	192	229
518	233	190	232
519	235	201	238
520	237	210	239
521	233	212	236
522	0	0	0
523	0	0	0
524	0	0	0
525	0	0	0
526	0	0	0
527	0	0	0
528	0	0	0
529	0	0	0
530	0	0	0
531	0	0	0
532	0	0	0
533	0	0	0
534	0	0	0
535	0	0	0
536	0	0	0
537	0	0	0
538	0	0	0
539	0	0	0
540	0	0	0
541	0	0	0
542	0	0	0
543	0	0	0
544	247	224	218
545	255	226	224
546	251	204	213
547	250	197	212
548	251	193	214
549	255	194	218
550	254	187	215
551	251	180	213
552	248	176	213
553	243	171	211
554	249	183	219
555	253	193	224
556	252	194	225
557	248	190	221
558	248	191	222
559	242	186	218
560	245	194	224
561	240	191	223
562	241	195	226
563	243	199	230
564	243	201	232
565	238	197	231
566	237	203	236
567	239	212	241
568	235	215	236
569	0	0	0
570	0	0	0
571	0	0	0
572	0	0	0
573	0	0	0
574	0	0	0
575	0	0	0
576	0	0	0
577	0	0	0
578	0	0	0
579	0	0	0
580	0	0	0
581	0	0	0
582	0	0	0
583	0	0	0
584	0	0	0
585	0	0	0
586	0	0	0
587	0	0	0
588	0	0	0
589	0	0	0
590	0	0	0
591	252	230	222
592	255	228	222
593	255	212	216
594	249	190	206
595	251	188	211
596	252	185	215
597	253	181	217
598	250	174	215
599	249	171	215
600	245	166	213
601	249	177	219
602	254	188	224
603	251	187	222
604	251	189	223
605	252	190	224
606	250	191	224
607	248	195	226
608	249	202	230
609	245	202	229
610	244	204	232
611	243	205	232
612	241	206	234
613	239	209	234
614	238	213	236
615	236	217	236
616	0	0	0
617	0	0	0
618	0	0	0
619	0	0	0
620	0	0	0
621	0	0	0
622	0	0	0
623	0	0	0
624	0	0	0
625	0	0	0
626	0	0	0
627	0	0	0
628	0	0	0
629	0	0	0
630	0	0	0
631	0	0	0
632	0	0	0
633	0	0	0
634	0	0	0
635	0	0	0
636	0	0	0
637	0	0	0
638	255	225	220
639	255	222	219
640	255	207	212
641	247	187	203
642	246	178	204
643	250	178	211
644	251	175	215
645	252	170	217
646	248	165	215
647	243	159	213
648	246	167	218
649	253	179	225
650	252	180	222
651	248	179	218
652	255	190	226
653	255	191	227
654	247	183	221
655	245	187	222
656	249	200	230
657	244	199	228
658	244	205	231
659	236	202	228
660	236	210	232
661	0	0	0
662	0	0	0
663	0	0	0
664	0	0	0
665	0	0	0
666	0	0	0
667	0	0	0
668	0	0	0
669	0	0	0
670	0	0	0
671	0	0	0
672	0	0	0
673	0	0	0
674	0	0	0
675	0	0	0
676	0	0	0
677	0	0	0
678	0	0	0
679	0	0	0
680	0	0	0
681	0	0	0
682	0	0	0
683	0	0	0
684	255	235	225
685	255	228	222
686	255	218	215
687	255	204	210
688	252	190	208
689	250	181	208
690	247	172	208
691	247	169	212
692	247	165	215
693	247	161	216
694	244	155	214
695	247	163	220
696	249	169	223
697	249	171	223
698	248	173	222
699	252	181	224
700	255	191	228
701	249	182	221
702	241	174	218
703	246	188	227
704	248	199	231
705	242	201	228
706	240	205	231
707	236	210	231
708	0	0	0
709	0	0	0
710	0	0	0
711	0	0	0
712	0	0	0
713	0	0	0
714	0	0	0
715	0	0	0
716	0	0	0
717	0	0	0
718	0	0	0
719	0	0	0
720	0	0	0
721	0	0	0
722	0	0	0
723	0	0	0
724	0	0	0
725	0	0	0
726	0	0	0
727	0	0	0
728	0	0	0
729	0	0	0
730	0	0	0
731	255	241	231
732	255	216	216
733	255	208	212
734	252	194	205
735	246	179	202
736	241	167	202
737	240	159	205
738	242	160	210
739	239	155	211
740	236	150	211
741	236	146	211
742	246	159	221
743	252	167	227
744	246	162	222
745	243	162	221
746	246	170	223
747	250	177	226
748	251	183	226
749	239	172	216
750	241	179	223
751	249	195	233
752	243	196	229
753	0	0	0
754	0	0	0
755	0	0	0
756	0	0	0
757	0	0	0
758	0	0	0
759	0	0	0
760	0	0	0
761	0	0	0
762	0	0	0
763	0	0	0
764	0	0	0
765	0	0	0
766	0	0	0
767	0	0	0
768	0	0	0
769	0	0	0
770	0	0	0
771	0	0	0
772	0	0	0
773	0	0	0
774	0	0	0
775	0	0	0
776	0	0	0
777	255	239	227
778	255	243	229
779	255	225	221
780	255	202	210
781	255	192	210
782	250	178	207
783	241	163	205
784	235	151	207
785	240	153	215
786	240	151	216
787	235	147	215
788	231	141	214
789	240	153	222
790	249	164	229
791	244	158	224
792	239	153	220
793	241	159	223
794	244	166	225
795	245	170	225
796	245	176	226
797	239	177	224
798	239	183	227
799	240	189	229
800	0	0	0
801	0	0	0
802	0	0	0
803	0	0	0
804	0	0	0
805	0	0	0
806	0	0	0
807	0	0	0
808	0	0	0
809	0	0	0
810	0	0	0
811	0	0	0
812	0	0	0
813	0	0	0
814	0	0	0
815	0	0	0
816	0	0	0
817	0	0	0
818	0	0	0
819	0	0	0
820	0	0	0
821	0	0	0
822	0	0	0
823	0	0	0
824	255	232	223
825	255	240	232
826	255	210	214
827	253	190	206
828	243	167	199
829	240	158	201
830	230	142	197
831	220	126	194
832	236	148	217
833	238	147	222
834	223	127	208
835	217	121	205
836	224	131	214
837	231	142	221
838	235	149	222
839	228	141	215
840	232	149	220
841	239	157	225
842	244	168	229
843	244	170	228
844	244	178	230
845	236	178	227
846	237	189	230
847	0	0	0
848	0	0	0
849	0	0	0
850	0	0	0
851	0	0	0
852	0	0	0
853	0	0	0
854	0	0	0
855	0	0	0
856	0	0	0
857	0	0	0
858	0	0	0
859	0	0	0
860	0	0	0
861	0	0	0
862	0	0	0
863	0	0	0
864	0	0	0
865	0	0	0
866	0	0	0
867	0	0	0
868	0	0	0
869	0	0	0
870	0	0	0
871	255	235	225
872	255	229	222
873	255	206	212
874	250	179	204
875	238	158	200
876	225	135	196
877	216	121	195
878	205	104	190
879	218	122	206
880	231	139	220
881	216	119	207
882	201	98	194
883	207	109	203
884	213	119	211
885	217	127	215
886	219	133	214
887	218	136	212
888	223	143	217
889	234	156	225
890	241	166	230
891	244	174	232
892	243	180	232
893	239	187	232
894	239	197	235
895	0	0	0
896	0	0	0
897	0	0	0
898	0	0	0
899	0	0	0
900	0	0	0
901	0	0	0
902	0	0	0
903	0	0	0
904	0	0	0
905	0	0	0
906	0	0	0
907	0	0	0
908	0	0	0
909	0	0	0
910	0	0	0
911	0	0	0
912	0	0	0
913	0	0	0
914	0	0	0
915	0	0	0
916	0	0	0
917	0	0	0
918	255	232	225
919	255	233	230
920	255	195	209
921	242	168	198
922	226	142	193
923	211	120	190
924	208	117	197
925	197	101	193
926	202	109	203
927	218	127	219
928	214	121	214
929	198	98	198
930	203	107	205
931	209	118	214
932	209	121	216
933	212	128	218
934	212	132	216
935	211	135	214
936	221	149	222
937	233	162	230
938	236	165	231
939	240	172	234
940	238	177	231
941	234	183	230
942	236	197	234
943	0	0	0
944	0	0	0
945	0	0	0
946	0	0	0
947	0	0	0
948	0	0	0
949	0	0	0
950	0	0	0
951	0	0	0
952	0	0	0
953	0	0	0
954	0	0	0
955	0	0	0
956	0	0	0
957	0	0	0
958	0	0	0
959	0	0	0
960	0	0	0
961	0	0	0
962	0	0	0
963	0	0	0
964	0	0	0
965	255	234	227
966	255	227	225
967	254	193	210
968	235	158	199
969	219	132	193
970	202	105	187
971	200	103	194
972	195	97	195
973	198	104	203
974	203	110	210
975	204	107	210
976	201	100	207
977	207	109	213
978	210	116	216
979	207	118	215
980	204	119	214
981	205	125	216
982	205	130	218
983	211	141	222
984	219	154	228
985	222	156	227
986	224	158	228
987	229	165	230
988	228	170	230
989	232	185	233
990	234	198	233
991	0	0	0
992	0	0	0
993	0	0	0
994	0	0	0
995	0	0	0
996	0	0	0
997	0	0	0
998	0	0	0
999	0	0	0
1000	0	0	0
1001	0	0	0
1002	0	0	0
1003	0	0	0
1004	0	0	0
1005	0	0	0
1006	0	0	0
1007	0	0	0
1008	0	0	0
1009	0	0	0
1010	0	0	0
1011	0	0	0
1012	255	229	225
1013	255	228	231
1014	248	183	206
1015	217	142	187
1016	212	132	196
1017	201	110	194
1018	206	112	206
1019	208	111	212
1020	201	100	206
1021	207	108	214
1022	209	109	215
1023	206	102	212
1024	207	103	215
1025	215	112	221
1026	214	116	220
1027	206	114	216
1028	204	119	216
1029	202	124	217
1030	209	138	225
1031	214	149	231
1032	213	151	229
1033	210	150	225
1034	221	167	233
1035	225	174	235
1036	232	187	238
1037	239	203	243
1038	234	202	234
1039	0	0	0
1040	0	0	0
1041	0	0	0
1042	0	0	0
1043	0	0	0
1044	0	0	0
1045	0	0	0
1046	0	0	0
1047	0	0	0
1048	0	0	0
1049	0	0	0
1050	0	0	0
1051	0	0	0
1052	0	0	0
1053	0	0	0
1054	0	0	0
1055	0	0	0
1056	0	0	0
1057	0	0	0
1058	0	0	0
1059	255	227	223
1060	255	216	222
1061	246	179	208
1062	219	136	192
1063	205	121	193
1064	198	110	199
1065	203	113	210
1066	207	114	216
1067	204	107	214
1068	199	95	208
1069	205	100	214
1070	207	100	215
1071	207	100	216
1072	207	100	216
1073	216	110	222
1074	215	113	221
1075	211	117	221
1076	208	122	222
1077	208	132	226
1078	212	144	231
1079	210	146	230
1080	208	148	229
1081	212	161	233
1082	220	176	238
1083	227	188	239
1084	233	199	239
1085	231	200	233
1086	0	0	0
1087	0	0	0
1088	0	0	0
1089	0	0	0
1090	0	0	0
1091	0	0	0
1092	0	0	0
1093	0	0	0
1094	0	0	0
1095	0	0	0
1096	0	0	0
1097	0	0	0
1098	0	0	0
1099	0	0	0
1100	0	0	0
1101	0	0	0
1102	0	0	0
1103	0	0	0
1104	0	0	0
1105	0	0	0
1106	255	233	228
1107	255	226	230
1108	249	189	215
1109	221	146	198
1110	211	127	201
1111	207	119	208
1112	205	115	214
1113	207	114	220
1114	201	105	216
1115	195	95	211
1116	195	91	210
1117	205	98	218
1118	208	100	220
1119	205	98	218
1120	205	97	217
1121	212	106	222
1122	209	104	218
1123	210	110	220
1124	213	124	227
1125	209	132	228
1126	213	145	233
1127	212	148	232
1128	217	161	239
1129	217	171	240
1130	222	184	241
1131	230	196	242
1132	230	201	235
1133	0	0	0
1134	0	0	0
1135	0	0	0
1136	0	0	0
1137	0	0	0
1138	0	0	0
1139	0	0	0
1140	0	0	0
1141	0	0	0
1142	0	0	0
1143	0	0	0
1144	0	0	0
1145	0	0	0
1146	0	0	0
1147	0	0	0
1148	0	0	0
1149	0	0	0
1150	0	0	0
1151	0	0	0
1152	0	0	0
1153	248	230	226
1154	255	226	228
1155	246	191	216
1156	228	154	207
1157	209	132	203
1158	197	112	202
1159	203	114	214
1160	201	108	215
1161	196	101	214
1162	190	91	209
1163	189	88	209
1164	191	85	211
1165	204	95	220
1166	205	96	221
1167	198	92	217
1168	196	90	214
1169	198	91	214
1170	194	88	210
1171	203	104	218
1172	204	116	221
1173	201	126	222
1174	205	140	229
1175	212	154	235
1176	216	167	240
1177	215	176	239
1178	219	188	239
1179	224	195	237
1180	0	0	0
1181	0	0	0
1182	0	0	0
1183	0	0	0
1184	0	0	0
1185	0	0	0
1186	0	0	0
1187	0	0	0
1188	0	0	0
1189	0	0	0
1190	0	0	0
1191	0	0	0
1192	0	0	0
1193	0	0	0
1194	0	0	0
1195	0	0	0
1196	0	0	0
1197	0	0	0
1198	0	0	0
1199	0	0	0
1200	0	0	0
1201	0	0	0
1202	250	208	224
1203	231	168	209
1204	222	151	215
1205	203	129	212
1206	196	117	213
1207	203	119	223
1208	194	103	215
1209	189	95	212
1210	191	96	215
1211	192	94	217
1212	194	90	217
1213	207	99	226
1214	202	93	221
1215	190	86	214
1216	195	97	219
1217	197	98	219
1218	205	112	226
1219	210	126	232
1220	206	131	228
1221	202	140	229
1222	205	152	235
1223	211	166	241
1224	216	178	242
1225	219	189	242
1226	223	200	241
1227	0	0	0
1228	0	0	0
1229	0	0	0
1230	0	0	0
1231	0	0	0
1232	0	0	0
1233	0	0	0
1234	0	0	0
1235	0	0	0
1236	0	0	0
1237	0	0	0
1238	0	0	0
1239	0	0	0
1240	0	0	0
1241	0	0	0
1242	0	0	0
1243	0	0	0
1244	0	0	0
1245	0	0	0
1246	0	0	0
1247	0	0	0
1248	0	0	0
1249	0	0	0
1250	229	178	212
1251	221	159	210
1252	212	141	212
1253	202	130	217
1254	195	118	219
1255	195	111	221
1256	185	93	211
1257	190	98	217
1258	194	99	221
1259	194	96	221
1260	193	90	218
1261	199	92	221
1262	192	85	215
1263	188	92	216
1264	191	101	220
1265	201	116	227
1266	207	128	231
1267	206	135	231
1268	203	140	230
1269	203	151	234
1270	206	164	240
1271	213	177	245
1272	218	189	245
1273	220	198	242
1274	0	0	0
1275	0	0	0
1276	0	0	0
1277	0	0	0
1278	0	0	0
1279	0	0	0
1280	0	0	0
1281	0	0	0
1282	0	0	0
1283	0	0	0
1284	0	0	0
1285	0	0	0
1286	0	0	0
1287	0	0	0
1288	0	0	0
1289	0	0	0
1290	0	0	0
1291	0	0	0
1292	0	0	0
1293	0	0	0
1294	0	0	0
1295	0	0	0
1296	0	0	0
1297	0	0	0
1298	228	187	224
1299	224	169	223
1300	217	151	223
1301	213	143	229
1302	198	119	222
1303	193	108	221
1304	194	105	221
1305	204	112	230
1306	201	104	227
1307	197	99	225
1308	191	89	217
1309	192	88	218
1310	195	96	222
1311	192	103	224
1312	190	109	223
1313	195	121	227
1314	202	136	232
1315	204	144	232
1316	211	160	240
1317	215	173	246
1318	212	175	245
1319	0	0	0
1320	0	0	0
1321	0	0	0
1322	0	0	0
1323	0	0	0
1324	0	0	0
1325	0	0	0
1326	0	0	0
1327	0	0	0
1328	0	0	0
1329	0	0	0
1330	0	0	0
1331	0	0	0
1332	0	0	0
1333	0	0	0
1334	0	0	0
1335	0	0	0
1336	0	0	0
1337	0	0	0
1338	0	0	0
1339	0	0	0
1340	0	0	0
1341	0	0	0
1342	0	0	0
1343	0	0	0
1344	0	0	0
1345	0	0	0
1346	228	192	231
1347	223	173	229
1348	217	155	228
1349	207	135	224
1350	192	109	215
1351	193	110	222
1352	193	107	223
1353	197	105	225
1354	193	97	222
1355	185	89	217
1356	178	78	210
1357	191	96	223
1358	193	103	226
1359	190	109	227
1360	187	115	226
1361	191	129	231
1362	196	143	234
1363	205	159	240
1364	213	176	247
1365	209	177	242
1366	0	0	0
1367	0	0	0
1368	0	0	0
1369	0	0	0
1370	0	0	0
1371	0	0	0
1372	0	0	0
1373	0	0	0
1374	0	0	0
1375	0	0	0
1376	0	0	0
1377	0	0	0
1378	0	0	0
1379	0	0	0
1380	0	0	0
1381	0	0	0
1382	0	0	0
1383	0	0	0
1384	0	0	0
1385	0	0	0
1386	0	0	0
1387	0	0	0
1388	0	0	0
1389	0	0	0
1390	0	0	0
1391	0	0	0
1392	0	0	0
1393	0	0	0
1394	232	198	235
1395	225	178	232
1396	222	163	233
1397	212	143	229
1398	203	127	226
1399	202	127	231
1400	196	119	228
1401	199	116	230
1402	196	112	230
1403	186	102	224
1404	188	106	226
1405	203	123	239
1406	191	111	228
1407	190	117	230
1408	199	141	241
1409	199	153	244
1410	198	160	242
1411	204	175	247
1412	205	182	244
1413	0	0	0
1414	0	0	0
1415	0	0	0
1416	0	0	0
1417	0	0	0
1418	0	0	0
1419	0	0	0
1420	0	0	0
1421	0	0	0
1422	0	0	0
1423	0	0	0
1424	0	0	0
1425	0	0	0
1426	0	0	0
1427	0	0	0
1428	0	0	0
1429	0	0	0
1430	0	0	0
1431	0	0	0
1432	0	0	0
1433	0	0	0
1434	0	0	0
1435	0	0	0
1436	0	0	0
1437	0	0	0
1438	0	0	0
1439	0	0	0
1440	0	0	0
1441	0	0	0
1442	232	200	232
1443	229	184	232
1444	224	169	234
1445	219	156	235
1446	208	139	231
1447	202	133	231
1448	195	124	226
1449	199	126	232
1450	195	122	233
1451	191	124	234
1452	191	126	235
1453	187	120	230
1454	175	107	219
1455	192	136	237
1456	202	159	247
1457	199	166	246
1458	198	174	246
1459	200	182	245
1460	0	0	0
1461	0	0	0
1462	0	0	0
1463	0	0	0
1464	0	0	0
1465	0	0	0
1466	0	0	0
1467	0	0	0
1468	0	0	0
1469	0	0	0
1470	0	0	0
1471	0	0	0
1472	0	0	0
1473	0	0	0
1474	0	0	0
1475	0	0	0
1476	0	0	0
1477	0	0	0
1478	0	0	0
1479	0	0	0
1480	0	0	0
1481	0	0	0
1482	0	0	0
1483	0	0	0
1484	0	0	0
1485	0	0	0
1486	0	0	0
1487	0	0	0
1488	0	0	0
1489	0	0	0
1490	233	204	232
1491	232	189	233
1492	226	173	234
1493	216	158	232
1494	211	151	233
1495	205	145	234
1496	201	141	233
1497	201	141	237
1498	187	125	230
1499	186	128	233
1500	190	141	239
1501	177	129	229
1502	180	137	233
1503	202	169	252
1504	201	173	249
1505	201	182	249
1506	202	189	249
1507	0	0	0
1508	0	0	0
1509	0	0	0
1510	0	0	0
1511	0	0	0
1512	0	0	0
1513	0	0	0
1514	0	0	0
1515	0	0	0
1516	0	0	0
1517	0	0	0
1518	0	0	0
1519	0	0	0
1520	0	0	0
1521	0	0	0
1522	0	0	0
1523	0	0	0
1524	0	0	0
1525	0	0	0
1526	0	0	0
1527	0	0	0
1528	0	0	0
1529	0	0	0
1530	0	0	0
1531	0	0	0
1532	0	0	0
1533	0	0	0
1534	0	0	0
1535	0	0	0
1536	0	0	0
1537	0	0	0
1538	240	213	239
1539	235	196	236
1540	226	178	233
1541	221	172	236
1542	216	165	238
1543	214	163	241
1544	210	158	242
1545	200	147	238
1546	184	130	230
1547	189	145	239
1548	191	157	244
1549	190	163	245
1550	193	171	249
1551	201	183	255
1552	0	0	0
1553	0	0	0
1554	0	0	0
1555	0	0	0
1556	0	0	0
1557	0	0	0
1558	0	0	0
1559	0	0	0
1560	0	0	0
1561	0	0	0
1562	0	0	0
1563	0	0	0
1564	0	0	0
1565	0	0	0
1566	0	0	0
1567	0	0	0
1568	0	0	0
1569	0	0	0
1570	0	0	0
1571	0	0	0
1572	0	0	0
1573	0	0	0
1574	0	0	0
1575	0	0	0
1576	0	0	0
1577	0	0	0
1578	0	0	0
1579	0	0	0
1580	0	0	0
1581	0	0	0
1582	0	0	0
1583	0	0	0
1584	0	0	0
1585	0	0	0
1586	240	213	238
1587	226	190	230
1588	219	179	230
1589	217	173	233
1590	223	181	243
1591	223	179	248
1592	211	164	242
1593	200	152	238
1594	190	147	236
1595	189	159	241
1596	195	176	248
1597	199	186	251
1598	0	0	0
1599	0	0	0
1600	0	0	0
1601	0	0	0
1602	0	0	0
1603	0	0	0
1604	0	0	0
1605	0	0	0
1606	0	0	0
1607	0	0	0
1608	0	0	0
1609	0	0	0
1610	0	0	0
1611	0	0	0
1612	0	0	0
1613	0	0	0
1614	0	0	0
1615	0	0	0
1616	0	0	0
1617	0	0	0
1618	0	0	0
1619	0	0	0
1620	0	0	0
1621	0	0	0
1622	0	0	0
1623	0	0	0
1624	0	0	0
1625	0	0	0
1626	0	0	0
1627	0	0	0
1628	0	0	0
1629	0	0	0
1630	0	0	0
1631	0	0	0
1632	0	0	0
1633	0	0	0
1634	0	0	0
1635	224	195	231
1636	0	0	0
1637	220	189	240
1638	225	194	247
1639	215	179	241
1640	204	163	237
1641	202	167	243
1642	0	0	0
1643	0	0	0
1644	0	0	0
1645	0	0	0
1646	0	0	0
1647	0	0	0
1648	0	0	0
1649	0	0	0
1650	0	0	0
1651	0	0	0
1652	0	0	0
1653	0	0	0
1654	0	0	0
1655	0	0	0
1656	0	0	0
1657	0	0	0
1658	0	0	0
1659	0	0	0
1660	0	0	0
1661	0	0	0
1662	0	0	0
1663	0	0	0
1664	0	0	0
1665	0	0	0
1666	0	0	0
1667	0	0	0
1668	0	0	0
1669	0	0	0
1670	0	0	0
1671	0	0	0
1672	0	0	0
1673	0	0	0
1674	0	0	0
1675	0	0	0
1676	0	0	0
1677	0	0	0
1678	0	0	0
1679	0	0	0
1680	0	0	0
1681	0	0	0
1682	0	0	0
1683	0	0	0
1684	0	0	0
1685	0	0	0
1686	219	202	242
1687	0	0	0
1688	0	0	0
1689	0	0	0
1690	0	0	0
1691	0	0	0
1692	0	0	0
1693	0	0	0
1694	0	0	0
1695	0	0	0
1696	0	0	0
1697	0	0	0
1698	0	0	0
1699	0	0	0
1700	0	0	0
1701	0	0	0
1702	0	0	0
1703	0	0	0
1704	0	0	0
1705	0	0	0
1706	0	0	0
1707	0	0	0
1708	0	0	0
1709	0	0	0
1710	0	0	0
1711	0	0	0
1712	0	0	0
1713	0	0	0
1714	0	0	0
1715	0	0	0
1716	0	0	0
1717	0	0	0
1718	0	0	0
1719	0	0	0
1720	0	0	0
1721	0	0	0
1722	0	0	0
1723	0	0	0
1724	0	0	0
1725	0	0	0
1726	0	0	0
1727	0	0	0
1728	0	0	0
