 	R	G	B
1	0	0	0
2	0	0	0
3	0	0	0
4	0	0	0
5	0	0	0
6	0	0	0
7	0	0	0
8	0	0	0
9	249	211	227
10	0	0	0
11	0	0	0
12	0	0	0
13	0	0	0
14	0	0	0
15	0	0	0
16	0	0	0
17	0	0	0
18	0	0	0
19	0	0	0
20	0	0	0
21	0	0	0
22	0	0	0
23	0	0	0
24	0	0	0
25	0	0	0
26	0	0	0
27	0	0	0
28	0	0	0
29	0	0	0
30	0	0	0
31	0	0	0
32	0	0	0
33	0	0	0
34	0	0	0
35	0	0	0
36	0	0	0
37	0	0	0
38	0	0	0
39	0	0	0
40	0	0	0
41	0	0	0
42	0	0	0
43	0	0	0
44	0	0	0
45	0	0	0
46	0	0	0
47	0	0	0
48	0	0	0
49	0	0	0
50	0	0	0
51	0	0	0
52	0	0	0
53	0	0	0
54	0	0	0
55	0	0	0
56	0	0	0
57	0	0	0
58	0	0	0
59	0	0	0
60	0	0	0
61	0	0	0
62	0	0	0
63	0	0	0
64	0	0	0
65	0	0	0
66	0	0	0
67	0	0	0
68	250	210	225
69	248	206	226
70	255	217	233
71	255	223	235
72	255	227	234
73	0	0	0
74	0	0	0
75	0	0	0
76	0	0	0
77	0	0	0
78	0	0	0
79	0	0	0
80	0	0	0
81	0	0	0
82	0	0	0
83	0	0	0
84	0	0	0
85	0	0	0
86	0	0	0
87	0	0	0
88	0	0	0
89	0	0	0
90	0	0	0
91	0	0	0
92	0	0	0
93	0	0	0
94	0	0	0
95	0	0	0
96	0	0	0
97	0	0	0
98	0	0	0
99	0	0	0
100	0	0	0
101	0	0	0
102	0	0	0
103	0	0	0
104	0	0	0
105	0	0	0
106	0	0	0
107	0	0	0
108	0	0	0
109	0	0	0
110	0	0	0
111	0	0	0
112	0	0	0
113	0	0	0
114	0	0	0
115	0	0	0
116	0	0	0
117	0	0	0
118	0	0	0
119	0	0	0
120	0	0	0
121	0	0	0
122	0	0	0
123	0	0	0
124	255	223	236
125	0	0	0
126	0	0	0
127	254	215	229
128	252	212	229
129	253	212	231
130	255	222	238
131	255	217	230
132	255	221	229
133	254	220	226
134	0	0	0
135	0	0	0
136	0	0	0
137	0	0	0
138	0	0	0
139	0	0	0
140	0	0	0
141	0	0	0
142	0	0	0
143	0	0	0
144	0	0	0
145	0	0	0
146	0	0	0
147	0	0	0
148	0	0	0
149	0	0	0
150	0	0	0
151	0	0	0
152	0	0	0
153	0	0	0
154	0	0	0
155	0	0	0
156	0	0	0
157	0	0	0
158	0	0	0
159	0	0	0
160	0	0	0
161	0	0	0
162	0	0	0
163	0	0	0
164	0	0	0
165	0	0	0
166	0	0	0
167	0	0	0
168	0	0	0
169	0	0	0
170	0	0	0
171	0	0	0
172	0	0	0
173	0	0	0
174	0	0	0
175	0	0	0
176	0	0	0
177	0	0	0
178	0	0	0
179	0	0	0
180	0	0	0
181	0	0	0
182	0	0	0
183	252	217	233
184	254	217	233
185	254	216	230
186	255	216	230
187	255	217	233
188	255	219	236
189	255	219	237
190	255	217	234
191	253	212	226
192	253	213	225
193	252	213	225
194	0	0	0
195	0	0	0
196	255	224	233
197	0	0	0
198	0	0	0
199	0	0	0
200	0	0	0
201	0	0	0
202	0	0	0
203	0	0	0
204	0	0	0
205	0	0	0
206	0	0	0
207	0	0	0
208	0	0	0
209	0	0	0
210	0	0	0
211	0	0	0
212	0	0	0
213	0	0	0
214	0	0	0
215	0	0	0
216	0	0	0
217	0	0	0
218	0	0	0
219	0	0	0
220	0	0	0
221	0	0	0
222	0	0	0
223	0	0	0
224	0	0	0
225	0	0	0
226	0	0	0
227	0	0	0
228	0	0	0
229	0	0	0
230	0	0	0
231	0	0	0
232	0	0	0
233	0	0	0
234	0	0	0
235	0	0	0
236	0	0	0
237	0	0	0
238	0	0	0
239	0	0	0
240	0	0	0
241	0	0	0
242	0	0	0
243	254	218	235
244	255	219	236
245	254	215	231
246	255	216	232
247	253	211	230
248	255	212	233
249	255	213	234
250	255	211	231
251	253	210	225
252	254	211	225
253	252	210	226
254	0	0	0
255	255	225	234
256	255	226	234
257	254	220	227
258	0	0	0
259	0	0	0
260	0	0	0
261	0	0	0
262	0	0	0
263	0	0	0
264	0	0	0
265	0	0	0
266	0	0	0
267	0	0	0
268	0	0	0
269	0	0	0
270	0	0	0
271	0	0	0
272	0	0	0
273	0	0	0
274	0	0	0
275	0	0	0
276	0	0	0
277	0	0	0
278	0	0	0
279	0	0	0
280	0	0	0
281	0	0	0
282	0	0	0
283	0	0	0
284	0	0	0
285	0	0	0
286	0	0	0
287	0	0	0
288	0	0	0
289	0	0	0
290	0	0	0
291	0	0	0
292	0	0	0
293	0	0	0
294	0	0	0
295	0	0	0
296	0	0	0
297	0	0	0
298	0	0	0
299	0	0	0
300	0	0	0
301	0	0	0
302	0	0	0
303	0	0	0
304	254	216	235
305	253	213	232
306	252	209	230
307	249	204	228
308	252	206	230
309	252	207	230
310	253	207	228
311	252	206	224
312	252	207	224
313	251	206	224
314	255	218	230
315	255	227	234
316	255	221	227
317	253	216	223
318	255	223	228
319	0	0	0
320	0	0	0
321	0	0	0
322	0	0	0
323	0	0	0
324	0	0	0
325	0	0	0
326	0	0	0
327	0	0	0
328	0	0	0
329	0	0	0
330	0	0	0
331	0	0	0
332	0	0	0
333	0	0	0
334	0	0	0
335	0	0	0
336	0	0	0
337	0	0	0
338	0	0	0
339	0	0	0
340	0	0	0
341	0	0	0
342	0	0	0
343	0	0	0
344	0	0	0
345	0	0	0
346	0	0	0
347	0	0	0
348	0	0	0
349	0	0	0
350	0	0	0
351	0	0	0
352	0	0	0
353	0	0	0
354	0	0	0
355	0	0	0
356	0	0	0
357	0	0	0
358	0	0	0
359	0	0	0
360	0	0	0
361	0	0	0
362	0	0	0
363	255	224	240
364	255	222	239
365	253	212	232
366	252	208	231
367	253	208	232
368	255	211	234
369	253	206	229
370	253	207	228
371	255	211	229
372	255	212	230
373	248	201	222
374	255	213	228
375	255	216	227
376	252	211	221
377	252	212	222
378	255	220	227
379	252	216	224
380	0	0	0
381	0	0	0
382	0	0	0
383	0	0	0
384	0	0	0
385	0	0	0
386	0	0	0
387	0	0	0
388	0	0	0
389	0	0	0
390	0	0	0
391	0	0	0
392	0	0	0
393	0	0	0
394	0	0	0
395	0	0	0
396	0	0	0
397	0	0	0
398	0	0	0
399	0	0	0
400	0	0	0
401	0	0	0
402	0	0	0
403	0	0	0
404	0	0	0
405	0	0	0
406	0	0	0
407	0	0	0
408	0	0	0
409	0	0	0
410	0	0	0
411	0	0	0
412	0	0	0
413	0	0	0
414	0	0	0
415	0	0	0
416	0	0	0
417	0	0	0
418	0	0	0
419	0	0	0
420	0	0	0
421	0	0	0
422	0	0	0
423	255	227	240
424	255	217	234
425	250	208	229
426	253	210	232
427	254	210	233
428	254	208	232
429	251	204	226
430	255	209	230
431	255	215	235
432	253	206	229
433	245	194	219
434	249	200	222
435	250	204	222
436	251	207	223
437	253	209	225
438	252	210	226
439	248	207	223
440	0	0	0
441	0	0	0
442	0	0	0
443	0	0	0
444	0	0	0
445	0	0	0
446	0	0	0
447	0	0	0
448	0	0	0
449	0	0	0
450	0	0	0
451	0	0	0
452	0	0	0
453	0	0	0
454	0	0	0
455	0	0	0
456	0	0	0
457	0	0	0
458	0	0	0
459	0	0	0
460	0	0	0
461	0	0	0
462	0	0	0
463	0	0	0
464	0	0	0
465	0	0	0
466	0	0	0
467	0	0	0
468	0	0	0
469	0	0	0
470	0	0	0
471	0	0	0
472	0	0	0
473	0	0	0
474	0	0	0
475	0	0	0
476	0	0	0
477	0	0	0
478	0	0	0
479	0	0	0
480	0	0	0
481	0	0	0
482	0	0	0
483	0	0	0
484	249	210	228
485	255	217	234
486	255	219	236
487	253	208	230
488	253	207	229
489	254	208	228
490	255	214	232
491	255	208	232
492	251	200	226
493	251	202	225
494	255	208	227
495	255	212	229
496	255	215	231
497	254	208	227
498	254	209	228
499	250	206	225
500	0	0	0
501	0	0	0
502	0	0	0
503	0	0	0
504	0	0	0
505	0	0	0
506	0	0	0
507	0	0	0
508	0	0	0
509	0	0	0
510	0	0	0
511	0	0	0
512	0	0	0
513	0	0	0
514	0	0	0
515	0	0	0
516	0	0	0
517	0	0	0
518	0	0	0
519	0	0	0
520	0	0	0
521	0	0	0
522	0	0	0
523	0	0	0
524	0	0	0
525	0	0	0
526	0	0	0
527	0	0	0
528	0	0	0
529	0	0	0
530	0	0	0
531	0	0	0
532	0	0	0
533	0	0	0
534	0	0	0
535	0	0	0
536	0	0	0
537	0	0	0
538	0	0	0
539	0	0	0
540	0	0	0
541	0	0	0
542	251	220	234
543	249	212	231
544	255	221	237
545	255	227	238
546	255	217	230
547	252	207	226
548	255	210	230
549	255	211	229
550	254	206	226
551	251	201	226
552	255	206	230
553	255	208	227
554	255	212	229
555	255	216	231
556	255	210	227
557	252	203	223
558	253	205	225
559	249	203	222
560	0	0	0
561	0	0	0
562	0	0	0
563	0	0	0
564	0	0	0
565	0	0	0
566	0	0	0
567	0	0	0
568	0	0	0
569	0	0	0
570	0	0	0
571	0	0	0
572	0	0	0
573	0	0	0
574	0	0	0
575	0	0	0
576	0	0	0
577	0	0	0
578	0	0	0
579	0	0	0
580	0	0	0
581	0	0	0
582	0	0	0
583	0	0	0
584	0	0	0
585	0	0	0
586	0	0	0
587	0	0	0
588	0	0	0
589	0	0	0
590	0	0	0
591	0	0	0
592	0	0	0
593	0	0	0
594	0	0	0
595	0	0	0
596	0	0	0
597	0	0	0
598	0	0	0
599	0	0	0
600	0	0	0
601	255	231	237
602	255	226	238
603	250	214	232
604	255	222	239
605	254	215	231
606	249	205	223
607	251	205	225
608	255	209	229
609	255	210	228
610	253	204	225
611	251	201	225
612	255	207	229
613	254	203	222
614	255	207	224
615	255	211	227
616	254	205	223
617	254	203	224
618	255	206	226
619	250	202	221
620	255	212	227
621	0	0	0
622	0	0	0
623	0	0	0
624	0	0	0
625	0	0	0
626	0	0	0
627	0	0	0
628	0	0	0
629	0	0	0
630	0	0	0
631	0	0	0
632	0	0	0
633	0	0	0
634	0	0	0
635	0	0	0
636	0	0	0
637	0	0	0
638	0	0	0
639	0	0	0
640	0	0	0
641	0	0	0
642	0	0	0
643	0	0	0
644	0	0	0
645	0	0	0
646	0	0	0
647	0	0	0
648	0	0	0
649	0	0	0
650	0	0	0
651	0	0	0
652	0	0	0
653	0	0	0
654	0	0	0
655	0	0	0
656	0	0	0
657	0	0	0
658	0	0	0
659	0	0	0
660	0	0	0
661	0	0	0
662	253	224	236
663	246	211	228
664	247	208	229
665	246	203	227
666	250	205	230
667	250	204	228
668	251	205	227
669	252	207	226
670	253	204	225
671	252	201	224
672	255	203	226
673	253	200	220
674	255	205	222
675	255	208	225
676	255	207	224
677	255	205	225
678	255	204	224
679	250	200	220
680	252	206	223
681	0	0	0
682	0	0	0
683	0	0	0
684	0	0	0
685	0	0	0
686	0	0	0
687	0	0	0
688	0	0	0
689	0	0	0
690	0	0	0
691	0	0	0
692	0	0	0
693	0	0	0
694	0	0	0
695	0	0	0
696	0	0	0
697	0	0	0
698	0	0	0
699	0	0	0
700	0	0	0
701	0	0	0
702	0	0	0
703	0	0	0
704	0	0	0
705	0	0	0
706	0	0	0
707	0	0	0
708	0	0	0
709	0	0	0
710	0	0	0
711	0	0	0
712	0	0	0
713	0	0	0
714	0	0	0
715	0	0	0
716	0	0	0
717	0	0	0
718	0	0	0
719	0	0	0
720	0	0	0
721	252	238	242
722	255	231	240
723	249	217	231
724	251	216	233
725	252	213	234
726	255	215	237
727	252	208	231
728	248	206	227
729	253	212	230
730	255	212	231
731	250	195	221
732	253	198	222
733	255	201	222
734	255	205	225
735	251	193	216
736	249	191	216
737	254	199	222
738	251	197	220
739	253	202	222
740	0	0	0
741	0	0	0
742	0	0	0
743	0	0	0
744	0	0	0
745	0	0	0
746	0	0	0
747	0	0	0
748	0	0	0
749	0	0	0
750	0	0	0
751	0	0	0
752	0	0	0
753	0	0	0
754	0	0	0
755	0	0	0
756	0	0	0
757	0	0	0
758	0	0	0
759	0	0	0
760	0	0	0
761	0	0	0
762	0	0	0
763	0	0	0
764	0	0	0
765	0	0	0
766	0	0	0
767	0	0	0
768	0	0	0
769	0	0	0
770	0	0	0
771	0	0	0
772	0	0	0
773	0	0	0
774	0	0	0
775	0	0	0
776	0	0	0
777	0	0	0
778	0	0	0
779	0	0	0
780	0	0	0
781	255	247	247
782	255	237	244
783	253	224	235
784	255	223	236
785	255	219	235
786	255	217	234
787	253	211	229
788	254	214	232
789	255	220	238
790	255	207	230
791	248	190	220
792	254	196	224
793	255	200	224
794	249	188	216
795	241	176	210
796	248	186	218
797	252	193	223
798	255	201	226
799	255	206	224
800	255	212	225
801	255	217	228
802	255	221	228
803	0	0	0
804	0	0	0
805	0	0	0
806	0	0	0
807	0	0	0
808	0	0	0
809	0	0	0
810	0	0	0
811	0	0	0
812	0	0	0
813	0	0	0
814	0	0	0
815	0	0	0
816	0	0	0
817	0	0	0
818	0	0	0
819	0	0	0
820	0	0	0
821	0	0	0
822	0	0	0
823	0	0	0
824	0	0	0
825	0	0	0
826	0	0	0
827	0	0	0
828	0	0	0
829	0	0	0
830	0	0	0
831	0	0	0
832	0	0	0
833	0	0	0
834	0	0	0
835	0	0	0
836	0	0	0
837	0	0	0
838	0	0	0
839	0	0	0
840	0	0	0
841	255	248	247
842	255	237	243
843	249	219	230
844	253	219	232
845	253	215	229
846	252	211	227
847	253	209	227
848	255	216	233
849	255	211	233
850	251	196	224
851	251	192	222
852	255	199	227
853	255	195	223
854	248	184	216
855	251	188	222
856	255	198	230
857	255	194	226
858	255	202	228
859	253	197	219
860	255	204	221
861	252	203	219
862	252	206	220
863	254	215	225
864	0	0	0
865	0	0	0
866	0	0	0
867	0	0	0
868	0	0	0
869	0	0	0
870	0	0	0
871	0	0	0
872	0	0	0
873	0	0	0
874	0	0	0
875	0	0	0
876	0	0	0
877	0	0	0
878	0	0	0
879	0	0	0
880	0	0	0
881	0	0	0
882	0	0	0
883	0	0	0
884	0	0	0
885	0	0	0
886	0	0	0
887	0	0	0
888	0	0	0
889	0	0	0
890	0	0	0
891	0	0	0
892	0	0	0
893	0	0	0
894	0	0	0
895	0	0	0
896	0	0	0
897	0	0	0
898	0	0	0
899	0	0	0
900	0	0	0
901	0	0	0
902	250	230	236
903	242	212	225
904	247	212	226
905	247	208	223
906	250	208	224
907	252	207	225
908	254	205	226
909	253	200	224
910	252	196	223
911	251	193	222
912	249	190	220
913	247	186	218
914	254	192	224
915	255	197	229
916	255	196	228
917	254	192	224
918	253	191	221
919	249	187	215
920	249	190	216
921	246	190	215
922	252	202	222
923	254	211	226
924	254	220	230
925	0	0	0
926	0	0	0
927	0	0	0
928	0	0	0
929	0	0	0
930	0	0	0
931	0	0	0
932	0	0	0
933	0	0	0
934	0	0	0
935	0	0	0
936	0	0	0
937	0	0	0
938	0	0	0
939	0	0	0
940	0	0	0
941	0	0	0
942	0	0	0
943	0	0	0
944	0	0	0
945	0	0	0
946	0	0	0
947	0	0	0
948	0	0	0
949	0	0	0
950	0	0	0
951	0	0	0
952	0	0	0
953	0	0	0
954	0	0	0
955	0	0	0
956	0	0	0
957	0	0	0
958	0	0	0
959	0	0	0
960	0	0	0
961	0	0	0
962	0	0	0
963	244	222	231
964	251	223	233
965	249	214	228
966	255	217	231
967	253	207	227
968	255	204	227
969	252	197	222
970	249	193	220
971	250	195	223
972	247	191	221
973	248	191	222
974	255	199	230
975	255	192	225
976	255	191	224
977	254	189	221
978	254	190	220
979	254	192	219
980	255	195	222
981	249	189	218
982	254	201	225
983	255	212	228
984	255	221	232
985	254	220	229
986	0	0	0
987	0	0	0
988	0	0	0
989	0	0	0
990	0	0	0
991	0	0	0
992	0	0	0
993	0	0	0
994	0	0	0
995	0	0	0
996	0	0	0
997	0	0	0
998	0	0	0
999	0	0	0
1000	0	0	0
1001	0	0	0
1002	0	0	0
1003	0	0	0
1004	0	0	0
1005	0	0	0
1006	0	0	0
1007	0	0	0
1008	0	0	0
1009	0	0	0
1010	0	0	0
1011	0	0	0
1012	0	0	0
1013	0	0	0
1014	0	0	0
1015	0	0	0
1016	0	0	0
1017	0	0	0
1018	0	0	0
1019	0	0	0
1020	0	0	0
1021	0	0	0
1022	252	238	240
1023	254	236	241
1024	255	229	239
1025	253	221	234
1026	254	214	232
1027	251	204	227
1028	252	201	227
1029	249	194	222
1030	251	197	224
1031	252	199	225
1032	249	197	224
1033	251	196	226
1034	253	192	225
1035	250	185	219
1036	252	186	219
1037	252	186	217
1038	255	191	220
1039	255	193	221
1040	255	192	219
1041	248	186	216
1042	255	200	224
1043	255	209	226
1044	253	209	223
1045	0	0	0
1046	0	0	0
1047	0	0	0
1048	0	0	0
1049	0	0	0
1050	0	0	0
1051	0	0	0
1052	0	0	0
1053	0	0	0
1054	0	0	0
1055	0	0	0
1056	0	0	0
1057	0	0	0
1058	0	0	0
1059	0	0	0
1060	0	0	0
1061	0	0	0
1062	0	0	0
1063	0	0	0
1064	0	0	0
1065	0	0	0
1066	0	0	0
1067	0	0	0
1068	0	0	0
1069	0	0	0
1070	0	0	0
1071	0	0	0
1072	0	0	0
1073	0	0	0
1074	0	0	0
1075	0	0	0
1076	0	0	0
1077	0	0	0
1078	0	0	0
1079	0	0	0
1080	0	0	0
1081	255	248	245
1082	255	244	244
1083	255	232	239
1084	255	225	237
1085	255	222	236
1086	254	213	232
1087	251	205	229
1088	252	202	228
1089	251	199	226
1090	254	202	229
1091	247	193	222
1092	246	191	221
1093	250	194	226
1094	251	189	224
1095	255	192	224
1096	255	195	225
1097	251	183	216
1098	255	188	220
1099	252	185	218
1100	251	183	216
1101	250	186	216
1102	255	199	223
1103	255	203	221
1104	0	0	0
1105	0	0	0
1106	0	0	0
1107	0	0	0
1108	0	0	0
1109	0	0	0
1110	0	0	0
1111	0	0	0
1112	0	0	0
1113	0	0	0
1114	0	0	0
1115	0	0	0
1116	0	0	0
1117	0	0	0
1118	0	0	0
1119	0	0	0
1120	0	0	0
1121	0	0	0
1122	0	0	0
1123	0	0	0
1124	0	0	0
1125	0	0	0
1126	0	0	0
1127	0	0	0
1128	0	0	0
1129	0	0	0
1130	0	0	0
1131	0	0	0
1132	0	0	0
1133	0	0	0
1134	0	0	0
1135	0	0	0
1136	0	0	0
1137	0	0	0
1138	0	0	0
1139	0	0	0
1140	0	0	0
1141	255	253	248
1142	255	240	242
1143	254	228	237
1144	255	226	237
1145	255	222	234
1146	255	215	231
1147	252	207	228
1148	254	207	231
1149	254	204	229
1150	250	197	225
1151	244	187	220
1152	246	189	223
1153	250	192	227
1154	253	194	228
1155	255	197	228
1156	255	190	224
1157	250	179	219
1158	253	181	222
1159	250	178	221
1160	253	185	223
1161	251	185	217
1162	252	191	217
1163	0	0	0
1164	0	0	0
1165	0	0	0
1166	0	0	0
1167	0	0	0
1168	0	0	0
1169	0	0	0
1170	0	0	0
1171	0	0	0
1172	0	0	0
1173	0	0	0
1174	0	0	0
1175	0	0	0
1176	0	0	0
1177	0	0	0
1178	0	0	0
1179	0	0	0
1180	0	0	0
1181	0	0	0
1182	0	0	0
1183	0	0	0
1184	0	0	0
1185	0	0	0
1186	0	0	0
1187	0	0	0
1188	0	0	0
1189	0	0	0
1190	0	0	0
1191	0	0	0
1192	0	0	0
1193	0	0	0
1194	0	0	0
1195	0	0	0
1196	0	0	0
1197	0	0	0
1198	0	0	0
1199	0	0	0
1200	0	0	0
1201	255	249	246
1202	254	235	239
1203	255	230	239
1204	255	228	239
1205	255	218	231
1206	253	211	228
1207	245	197	223
1208	245	196	224
1209	246	196	226
1210	246	190	223
1211	249	192	226
1212	252	195	228
1213	254	198	230
1214	253	199	229
1215	254	195	226
1216	255	190	224
1217	252	179	220
1218	254	181	225
1219	249	174	221
1220	252	180	222
1221	252	185	219
1222	253	190	217
1223	0	0	0
1224	0	0	0
1225	0	0	0
1226	0	0	0
1227	0	0	0
1228	0	0	0
1229	0	0	0
1230	0	0	0
1231	0	0	0
1232	0	0	0
1233	0	0	0
1234	0	0	0
1235	0	0	0
1236	0	0	0
1237	0	0	0
1238	0	0	0
1239	0	0	0
1240	0	0	0
1241	0	0	0
1242	0	0	0
1243	0	0	0
1244	0	0	0
1245	0	0	0
1246	0	0	0
1247	0	0	0
1248	0	0	0
1249	0	0	0
1250	0	0	0
1251	0	0	0
1252	0	0	0
1253	0	0	0
1254	0	0	0
1255	0	0	0
1256	0	0	0
1257	0	0	0
1258	0	0	0
1259	0	0	0
1260	0	0	0
1261	0	0	0
1262	252	234	240
1263	253	230	239
1264	252	221	234
1265	249	210	227
1266	245	200	223
1267	236	186	218
1268	238	189	223
1269	241	190	226
1270	250	196	231
1271	254	198	230
1272	255	203	231
1273	255	205	230
1274	253	198	224
1275	254	195	224
1276	252	185	220
1277	248	173	215
1278	248	172	216
1279	244	166	213
1280	252	178	220
1281	253	184	221
1282	255	194	223
1283	0	0	0
1284	0	0	0
1285	0	0	0
1286	0	0	0
1287	0	0	0
1288	0	0	0
1289	0	0	0
1290	0	0	0
1291	0	0	0
1292	0	0	0
1293	0	0	0
1294	0	0	0
1295	0	0	0
1296	0	0	0
1297	0	0	0
1298	0	0	0
1299	0	0	0
1300	0	0	0
1301	0	0	0
1302	0	0	0
1303	0	0	0
1304	0	0	0
1305	0	0	0
1306	0	0	0
1307	0	0	0
1308	0	0	0
1309	0	0	0
1310	0	0	0
1311	0	0	0
1312	0	0	0
1313	0	0	0
1314	0	0	0
1315	0	0	0
1316	0	0	0
1317	0	0	0
1318	0	0	0
1319	0	0	0
1320	0	0	0
1321	0	0	0
1322	0	0	0
1323	255	239	244
1324	255	232	241
1325	249	213	229
1326	244	202	225
1327	241	197	226
1328	244	200	232
1329	246	198	233
1330	255	205	239
1331	253	195	228
1332	255	199	228
1333	253	193	221
1334	249	187	216
1335	252	189	220
1336	244	176	213
1337	248	177	217
1338	251	177	218
1339	251	176	218
1340	255	189	226
1341	251	178	218
1342	255	188	222
1343	0	0	0
1344	0	0	0
1345	0	0	0
1346	0	0	0
1347	0	0	0
1348	0	0	0
1349	0	0	0
1350	0	0	0
1351	0	0	0
1352	0	0	0
1353	0	0	0
1354	0	0	0
1355	0	0	0
1356	0	0	0
1357	0	0	0
1358	0	0	0
1359	0	0	0
1360	0	0	0
1361	0	0	0
1362	0	0	0
1363	0	0	0
1364	0	0	0
1365	0	0	0
1366	0	0	0
1367	0	0	0
1368	0	0	0
1369	0	0	0
1370	0	0	0
1371	0	0	0
1372	0	0	0
1373	0	0	0
1374	0	0	0
1375	0	0	0
1376	0	0	0
1377	0	0	0
1378	0	0	0
1379	0	0	0
1380	0	0	0
1381	0	0	0
1382	0	0	0
1383	255	248	248
1384	252	229	237
1385	243	211	225
1386	247	211	229
1387	247	207	231
1388	249	207	235
1389	250	204	234
1390	253	199	231
1391	248	189	223
1392	247	185	220
1393	244	179	215
1394	245	180	215
1395	247	182	216
1396	248	182	218
1397	251	183	224
1398	254	184	224
1399	253	182	218
1400	251	177	215
1401	244	168	211
1402	253	183	222
1403	255	191	223
1404	255	198	223
1405	0	0	0
1406	0	0	0
1407	0	0	0
1408	0	0	0
1409	0	0	0
1410	0	0	0
1411	0	0	0
1412	0	0	0
1413	0	0	0
1414	0	0	0
1415	0	0	0
1416	0	0	0
1417	0	0	0
1418	0	0	0
1419	0	0	0
1420	0	0	0
1421	0	0	0
1422	0	0	0
1423	0	0	0
1424	0	0	0
1425	0	0	0
1426	0	0	0
1427	0	0	0
1428	0	0	0
1429	0	0	0
1430	0	0	0
1431	0	0	0
1432	0	0	0
1433	0	0	0
1434	0	0	0
1435	0	0	0
1436	0	0	0
1437	0	0	0
1438	0	0	0
1439	0	0	0
1440	0	0	0
1441	0	0	0
1442	0	0	0
1443	0	0	0
1444	241	224	230
1445	246	222	231
1446	255	226	239
1447	247	203	228
1448	250	204	231
1449	252	203	231
1450	251	197	227
1451	248	190	224
1452	245	186	222
1453	244	184	220
1454	245	184	221
1455	246	182	218
1456	250	184	222
1457	247	178	221
1458	245	177	218
1459	248	180	215
1460	249	177	213
1461	250	177	218
1462	255	192	230
1463	254	185	222
1464	255	192	223
1465	248	189	213
1466	0	0	0
1467	0	0	0
1468	0	0	0
1469	0	0	0
1470	0	0	0
1471	0	0	0
1472	0	0	0
1473	0	0	0
1474	0	0	0
1475	0	0	0
1476	0	0	0
1477	0	0	0
1478	0	0	0
1479	0	0	0
1480	0	0	0
1481	0	0	0
1482	0	0	0
1483	0	0	0
1484	0	0	0
1485	0	0	0
1486	0	0	0
1487	0	0	0
1488	0	0	0
1489	0	0	0
1490	0	0	0
1491	0	0	0
1492	0	0	0
1493	0	0	0
1494	0	0	0
1495	0	0	0
1496	0	0	0
1497	0	0	0
1498	0	0	0
1499	0	0	0
1500	0	0	0
1501	0	0	0
1502	0	0	0
1503	0	0	0
1504	250	238	237
1505	255	238	241
1506	254	221	235
1507	243	197	224
1508	248	201	228
1509	248	200	226
1510	246	194	223
1511	243	188	221
1512	241	186	221
1513	241	184	221
1514	244	185	223
1515	247	184	223
1516	252	184	225
1517	247	177	221
1518	248	182	222
1519	252	186	222
1520	255	186	222
1521	255	185	224
1522	252	181	222
1523	246	175	215
1524	248	179	217
1525	242	177	211
1526	0	0	0
1527	0	0	0
1528	0	0	0
1529	0	0	0
1530	0	0	0
1531	0	0	0
1532	0	0	0
1533	0	0	0
1534	0	0	0
1535	0	0	0
1536	0	0	0
1537	0	0	0
1538	0	0	0
1539	0	0	0
1540	0	0	0
1541	0	0	0
1542	0	0	0
1543	0	0	0
1544	0	0	0
1545	0	0	0
1546	0	0	0
1547	0	0	0
1548	0	0	0
1549	0	0	0
1550	0	0	0
1551	0	0	0
1552	0	0	0
1553	0	0	0
1554	0	0	0
1555	0	0	0
1556	0	0	0
1557	0	0	0
1558	0	0	0
1559	0	0	0
1560	0	0	0
1561	0	0	0
1562	0	0	0
1563	255	249	243
1564	255	241	239
1565	255	233	238
1566	249	214	229
1567	248	206	228
1568	250	208	231
1569	239	194	221
1570	236	188	218
1571	242	195	225
1572	242	194	225
1573	243	191	225
1574	251	195	230
1575	247	181	225
1576	252	181	227
1577	243	167	217
1578	244	172	219
1579	241	170	215
1580	243	169	214
1581	250	178	220
1582	244	173	216
1583	247	177	219
1584	252	183	223
1585	244	177	215
1586	0	0	0
1587	0	0	0
1588	0	0	0
1589	0	0	0
1590	0	0	0
1591	0	0	0
1592	0	0	0
1593	0	0	0
1594	0	0	0
1595	0	0	0
1596	0	0	0
1597	0	0	0
1598	0	0	0
1599	0	0	0
1600	0	0	0
1601	0	0	0
1602	0	0	0
1603	0	0	0
1604	0	0	0
1605	0	0	0
1606	0	0	0
1607	0	0	0
1608	0	0	0
1609	0	0	0
1610	0	0	0
1611	0	0	0
1612	0	0	0
1613	0	0	0
1614	0	0	0
1615	0	0	0
1616	0	0	0
1617	0	0	0
1618	0	0	0
1619	0	0	0
1620	0	0	0
1621	0	0	0
1622	0	0	0
1623	255	250	247
1624	254	237	239
1625	254	228	236
1626	255	223	235
1627	252	214	229
1628	244	203	225
1629	234	190	221
1630	239	198	228
1631	244	204	229
1632	243	199	225
1633	246	197	225
1634	243	184	221
1635	239	172	218
1636	239	165	218
1637	229	151	208
1638	228	152	209
1639	227	152	208
1640	240	165	216
1641	247	173	220
1642	248	176	221
1643	251	181	224
1644	253	182	225
1645	245	175	217
1646	0	0	0
1647	0	0	0
1648	0	0	0
1649	0	0	0
1650	0	0	0
1651	0	0	0
1652	0	0	0
1653	0	0	0
1654	0	0	0
1655	0	0	0
1656	0	0	0
1657	0	0	0
1658	0	0	0
1659	0	0	0
1660	0	0	0
1661	0	0	0
1662	0	0	0
1663	0	0	0
1664	0	0	0
1665	0	0	0
1666	0	0	0
1667	0	0	0
1668	0	0	0
1669	0	0	0
1670	0	0	0
1671	0	0	0
1672	0	0	0
1673	0	0	0
1674	0	0	0
1675	0	0	0
1676	0	0	0
1677	0	0	0
1678	0	0	0
1679	0	0	0
1680	0	0	0
1681	0	0	0
1682	0	0	0
1683	255	252	250
1684	255	239	243
1685	255	230	238
1686	255	224	236
1687	248	209	225
1688	240	199	221
1689	236	195	225
1690	238	201	230
1691	239	201	227
1692	244	199	226
1693	243	192	223
1694	236	178	217
1695	239	177	221
1696	236	169	220
1697	228	159	213
1698	227	160	214
1699	231	163	217
1700	251	180	230
1701	253	177	225
1702	254	180	226
1703	249	172	221
1704	249	172	220
1705	247	175	217
1706	0	0	0
1707	0	0	0
1708	0	0	0
1709	0	0	0
1710	0	0	0
1711	0	0	0
1712	0	0	0
1713	0	0	0
1714	0	0	0
1715	0	0	0
1716	0	0	0
1717	0	0	0
1718	0	0	0
1719	0	0	0
1720	0	0	0
1721	0	0	0
1722	0	0	0
1723	0	0	0
1724	0	0	0
1725	0	0	0
1726	0	0	0
1727	0	0	0
1728	0	0	0
1729	0	0	0
1730	0	0	0
1731	0	0	0
1732	0	0	0
1733	0	0	0
1734	0	0	0
1735	0	0	0
1736	0	0	0
1737	0	0	0
1738	0	0	0
1739	0	0	0
1740	0	0	0
1741	0	0	0
1742	0	0	0
1743	0	0	0
1744	253	238	243
1745	251	229	238
1746	248	217	232
1747	241	203	223
1748	243	204	226
1749	239	199	226
1750	237	200	227
1751	240	202	229
1752	245	197	229
1753	244	191	227
1754	242	186	225
1755	242	184	225
1756	238	176	222
1757	232	167	217
1758	236	172	223
1759	240	175	225
1760	250	179	229
1761	252	177	225
1762	248	170	220
1763	244	162	215
1764	250	172	220
1765	247	174	215
1766	0	0	0
1767	0	0	0
1768	0	0	0
1769	0	0	0
1770	0	0	0
1771	0	0	0
1772	0	0	0
1773	0	0	0
1774	0	0	0
1775	0	0	0
1776	0	0	0
1777	0	0	0
1778	0	0	0
1779	0	0	0
1780	0	0	0
1781	0	0	0
1782	0	0	0
1783	0	0	0
1784	0	0	0
1785	0	0	0
1786	0	0	0
1787	0	0	0
1788	0	0	0
1789	0	0	0
1790	0	0	0
1791	0	0	0
1792	0	0	0
1793	0	0	0
1794	0	0	0
1795	0	0	0
1796	0	0	0
1797	0	0	0
1798	0	0	0
1799	0	0	0
1800	0	0	0
1801	0	0	0
1802	0	0	0
1803	0	0	0
1804	0	0	0
1805	249	236	241
1806	247	225	235
1807	241	210	226
1808	249	213	232
1809	241	200	226
1810	241	201	229
1811	246	204	233
1812	249	199	232
1813	246	190	228
1814	242	185	225
1815	242	184	224
1816	239	177	221
1817	240	173	222
1818	251	183	231
1819	242	167	221
1820	241	165	220
1821	241	164	217
1822	240	159	214
1823	247	167	219
1824	254	177	224
1825	247	172	214
1826	0	0	0
1827	0	0	0
1828	0	0	0
1829	0	0	0
1830	0	0	0
1831	0	0	0
1832	0	0	0
1833	0	0	0
1834	0	0	0
1835	0	0	0
1836	0	0	0
1837	0	0	0
1838	0	0	0
1839	0	0	0
1840	0	0	0
1841	0	0	0
1842	0	0	0
1843	0	0	0
1844	0	0	0
1845	0	0	0
1846	0	0	0
1847	0	0	0
1848	0	0	0
1849	0	0	0
1850	0	0	0
1851	0	0	0
1852	0	0	0
1853	0	0	0
1854	0	0	0
1855	0	0	0
1856	0	0	0
1857	0	0	0
1858	0	0	0
1859	0	0	0
1860	0	0	0
1861	0	0	0
1862	0	0	0
1863	0	0	0
1864	0	0	0
1865	254	246	244
1866	249	231	236
1867	244	217	228
1868	245	210	227
1869	237	197	224
1870	235	196	225
1871	240	199	228
1872	244	193	227
1873	241	184	222
1874	240	184	223
1875	241	183	223
1876	242	182	224
1877	244	178	224
1878	245	171	222
1879	235	156	213
1880	234	156	215
1881	234	154	214
1882	242	164	219
1883	248	170	221
1884	253	174	221
1885	248	171	216
1886	0	0	0
1887	0	0	0
1888	0	0	0
1889	0	0	0
1890	0	0	0
1891	0	0	0
1892	0	0	0
1893	0	0	0
1894	0	0	0
1895	0	0	0
1896	0	0	0
1897	0	0	0
1898	0	0	0
1899	0	0	0
1900	0	0	0
1901	0	0	0
1902	0	0	0
1903	0	0	0
1904	0	0	0
1905	0	0	0
1906	0	0	0
1907	0	0	0
1908	0	0	0
1909	0	0	0
1910	0	0	0
1911	0	0	0
1912	0	0	0
1913	0	0	0
1914	0	0	0
1915	0	0	0
1916	0	0	0
1917	0	0	0
1918	0	0	0
1919	0	0	0
1920	0	0	0
1921	0	0	0
1922	0	0	0
1923	0	0	0
1924	0	0	0
1925	254	244	242
1926	250	230	234
1927	243	212	224
1928	239	203	222
1929	238	203	227
1930	232	201	226
1931	237	204	229
1932	244	201	229
1933	239	187	222
1934	239	187	223
1935	235	179	219
1936	236	177	221
1937	226	159	211
1938	224	150	208
1939	229	152	212
1940	235	156	217
1941	236	157	219
1942	238	162	220
1943	242	166	218
1944	252	173	221
1945	246	167	215
1946	0	0	0
1947	0	0	0
1948	0	0	0
1949	0	0	0
1950	0	0	0
1951	0	0	0
1952	0	0	0
1953	0	0	0
1954	0	0	0
1955	0	0	0
1956	0	0	0
1957	0	0	0
1958	0	0	0
1959	0	0	0
1960	0	0	0
1961	0	0	0
1962	0	0	0
1963	0	0	0
1964	0	0	0
1965	0	0	0
1966	0	0	0
1967	0	0	0
1968	0	0	0
1969	0	0	0
1970	0	0	0
1971	0	0	0
1972	0	0	0
1973	0	0	0
1974	0	0	0
1975	0	0	0
1976	0	0	0
1977	0	0	0
1978	0	0	0
1979	0	0	0
1980	0	0	0
1981	0	0	0
1982	0	0	0
1983	0	0	0
1984	0	0	0
1985	0	0	0
1986	248	226	233
1987	0	0	0
1988	246	213	229
1989	245	213	233
1990	239	210	231
1991	244	214	233
1992	246	204	230
1993	242	192	223
1994	238	185	221
1995	234	177	219
1996	225	161	212
1997	215	143	204
1998	225	150	213
1999	230	153	217
2000	239	160	223
2001	239	160	223
2002	237	161	221
2003	241	166	221
2004	252	170	223
2005	245	163	214
2006	0	0	0
2007	0	0	0
2008	0	0	0
2009	0	0	0
2010	0	0	0
2011	0	0	0
2012	0	0	0
2013	0	0	0
2014	0	0	0
2015	0	0	0
2016	0	0	0
2017	0	0	0
2018	0	0	0
2019	0	0	0
2020	0	0	0
2021	0	0	0
2022	0	0	0
2023	0	0	0
2024	0	0	0
2025	0	0	0
2026	0	0	0
2027	0	0	0
2028	0	0	0
2029	0	0	0
2030	0	0	0
2031	0	0	0
2032	0	0	0
2033	0	0	0
2034	0	0	0
2035	0	0	0
2036	0	0	0
2037	0	0	0
2038	0	0	0
2039	0	0	0
2040	0	0	0
2041	0	0	0
2042	0	0	0
2043	0	0	0
2044	0	0	0
2045	0	0	0
2046	0	0	0
2047	0	0	0
2048	253	223	235
2049	247	212	231
2050	248	213	233
2051	252	214	235
2052	250	202	229
2053	244	188	222
2054	240	182	222
2055	233	170	218
2056	223	154	212
2057	223	149	212
2058	233	157	221
2059	231	150	218
2060	239	155	223
2061	235	151	218
2062	232	152	216
2063	241	163	222
2064	249	166	223
2065	243	157	213
2066	0	0	0
2067	0	0	0
2068	0	0	0
2069	0	0	0
2070	0	0	0
2071	0	0	0
2072	0	0	0
2073	0	0	0
2074	0	0	0
2075	0	0	0
2076	0	0	0
2077	0	0	0
2078	0	0	0
2079	0	0	0
2080	0	0	0
2081	0	0	0
2082	0	0	0
2083	0	0	0
2084	0	0	0
2085	0	0	0
2086	0	0	0
2087	0	0	0
2088	0	0	0
2089	0	0	0
2090	0	0	0
2091	0	0	0
2092	0	0	0
2093	0	0	0
2094	0	0	0
2095	0	0	0
2096	0	0	0
2097	0	0	0
2098	0	0	0
2099	0	0	0
2100	0	0	0
2101	0	0	0
2102	0	0	0
2103	0	0	0
2104	0	0	0
2105	0	0	0
2106	0	0	0
2107	0	0	0
2108	255	223	233
2109	252	213	232
2110	255	215	237
2111	255	217	239
2112	253	200	229
2113	245	185	222
2114	235	172	217
2115	227	160	216
2116	227	157	218
2117	223	149	214
2118	220	144	211
2119	219	137	209
2120	229	143	214
2121	226	138	208
2122	229	146	212
2123	238	158	220
2124	241	156	218
2125	236	148	209
2126	248	168	219
2127	0	0	0
2128	0	0	0
2129	0	0	0
2130	0	0	0
2131	0	0	0
2132	0	0	0
2133	0	0	0
2134	0	0	0
2135	0	0	0
2136	0	0	0
2137	0	0	0
2138	0	0	0
2139	0	0	0
2140	0	0	0
2141	0	0	0
2142	0	0	0
2143	0	0	0
2144	0	0	0
2145	0	0	0
2146	0	0	0
2147	0	0	0
2148	0	0	0
2149	0	0	0
2150	0	0	0
2151	0	0	0
2152	0	0	0
2153	0	0	0
2154	0	0	0
2155	0	0	0
2156	0	0	0
2157	0	0	0
2158	0	0	0
2159	0	0	0
2160	0	0	0
2161	0	0	0
2162	0	0	0
2163	0	0	0
2164	0	0	0
2165	0	0	0
2166	0	0	0
2167	253	226	232
2168	255	221	233
2169	252	204	228
2170	255	208	235
2171	255	203	232
2172	245	184	220
2173	245	184	223
2174	234	169	218
2175	228	160	218
2176	228	157	221
2177	218	145	212
2178	207	136	204
2179	221	150	217
2180	238	160	226
2181	227	140	209
2182	232	150	215
2183	239	161	222
2184	238	157	219
2185	240	158	217
2186	255	180	229
2187	241	168	212
2188	0	0	0
2189	0	0	0
2190	0	0	0
2191	0	0	0
2192	0	0	0
2193	0	0	0
2194	0	0	0
2195	0	0	0
2196	0	0	0
2197	0	0	0
2198	0	0	0
2199	0	0	0
2200	0	0	0
2201	0	0	0
2202	0	0	0
2203	0	0	0
2204	0	0	0
2205	0	0	0
2206	0	0	0
2207	0	0	0
2208	0	0	0
2209	0	0	0
2210	0	0	0
2211	0	0	0
2212	0	0	0
2213	0	0	0
2214	0	0	0
2215	0	0	0
2216	0	0	0
2217	0	0	0
2218	0	0	0
2219	0	0	0
2220	0	0	0
2221	0	0	0
2222	0	0	0
2223	0	0	0
2224	0	0	0
2225	0	0	0
2226	251	230	235
2227	249	220	229
2228	245	205	223
2229	239	188	218
2230	243	186	221
2231	240	181	217
2232	236	175	214
2233	237	176	219
2234	232	166	218
2235	227	157	218
2236	230	157	223
2237	221	146	215
2238	222	154	219
2239	234	168	230
2240	238	161	226
2241	229	142	211
2242	237	155	219
2243	243	165	224
2244	243	166	222
2245	244	166	220
2246	246	167	218
2247	233	157	206
2248	248	189	221
2249	0	0	0
2250	0	0	0
2251	0	0	0
2252	0	0	0
2253	0	0	0
2254	0	0	0
2255	0	0	0
2256	0	0	0
2257	0	0	0
2258	0	0	0
2259	0	0	0
2260	0	0	0
2261	0	0	0
2262	0	0	0
2263	0	0	0
2264	0	0	0
2265	0	0	0
2266	0	0	0
2267	0	0	0
2268	0	0	0
2269	0	0	0
2270	0	0	0
2271	0	0	0
2272	0	0	0
2273	0	0	0
2274	0	0	0
2275	0	0	0
2276	0	0	0
2277	0	0	0
2278	0	0	0
2279	0	0	0
2280	0	0	0
2281	0	0	0
2282	0	0	0
2283	0	0	0
2284	0	0	0
2285	255	242	243
2286	249	229	235
2287	245	219	230
2288	236	202	221
2289	235	194	222
2290	237	192	224
2291	237	190	223
2292	232	184	220
2293	236	185	225
2294	241	180	228
2295	234	161	221
2296	238	161	226
2297	231	150	219
2298	237	161	226
2299	241	165	229
2300	236	153	220
2301	224	132	205
2302	234	147	215
2303	239	158	219
2304	237	157	216
2305	234	154	211
2306	233	154	208
2307	237	164	211
2308	255	200	230
2309	254	205	222
2310	0	0	0
2311	0	0	0
2312	0	0	0
2313	0	0	0
2314	0	0	0
2315	0	0	0
2316	0	0	0
2317	0	0	0
2318	0	0	0
2319	0	0	0
2320	0	0	0
2321	0	0	0
2322	0	0	0
2323	0	0	0
2324	0	0	0
2325	0	0	0
2326	0	0	0
2327	0	0	0
2328	0	0	0
2329	0	0	0
2330	0	0	0
2331	0	0	0
2332	0	0	0
2333	0	0	0
2334	0	0	0
2335	0	0	0
2336	0	0	0
2337	0	0	0
2338	0	0	0
2339	0	0	0
2340	0	0	0
2341	0	0	0
2342	0	0	0
2343	0	0	0
2344	0	0	0
2345	0	0	0
2346	248	227	234
2347	242	218	231
2348	235	208	227
2349	233	199	225
2350	239	202	230
2351	241	201	232
2352	238	196	231
2353	243	196	235
2354	241	180	229
2355	235	161	220
2356	243	162	225
2357	238	153	219
2358	244	159	225
2359	247	163	228
2360	233	145	215
2361	218	124	201
2362	231	142	213
2363	237	153	217
2364	235	151	213
2365	231	148	209
2366	239	162	215
2367	243	171	216
2368	253	187	220
2369	247	192	212
2370	0	0	0
2371	0	0	0
2372	0	0	0
2373	0	0	0
2374	0	0	0
2375	0	0	0
2376	0	0	0
2377	0	0	0
2378	0	0	0
2379	0	0	0
2380	0	0	0
2381	0	0	0
2382	0	0	0
2383	0	0	0
2384	0	0	0
2385	0	0	0
2386	0	0	0
2387	0	0	0
2388	0	0	0
2389	0	0	0
2390	0	0	0
2391	0	0	0
2392	0	0	0
2393	0	0	0
2394	0	0	0
2395	0	0	0
2396	0	0	0
2397	0	0	0
2398	0	0	0
2399	0	0	0
2400	0	0	0
2401	0	0	0
2402	0	0	0
2403	0	0	0
2404	0	0	0
2405	255	243	242
2406	251	232	237
2407	244	221	234
2408	232	208	227
2409	233	206	228
2410	246	211	235
2411	252	212	240
2412	254	209	241
2413	247	193	234
2414	238	174	224
2415	235	161	219
2416	244	163	226
2417	235	143	214
2418	247	153	223
2419	245	152	222
2420	224	130	206
2421	217	123	202
2422	230	143	215
2423	228	140	210
2424	231	141	209
2425	236	148	212
2426	242	162	217
2427	243	167	214
2428	252	182	218
2429	246	187	211
2430	0	0	0
2431	0	0	0
2432	0	0	0
2433	0	0	0
2434	0	0	0
2435	0	0	0
2436	0	0	0
2437	0	0	0
2438	0	0	0
2439	0	0	0
2440	0	0	0
2441	0	0	0
2442	0	0	0
2443	0	0	0
2444	0	0	0
2445	0	0	0
2446	0	0	0
2447	0	0	0
2448	0	0	0
2449	0	0	0
2450	0	0	0
2451	0	0	0
2452	0	0	0
2453	0	0	0
2454	0	0	0
2455	0	0	0
2456	0	0	0
2457	0	0	0
2458	0	0	0
2459	0	0	0
2460	0	0	0
2461	0	0	0
2462	0	0	0
2463	0	0	0
2464	0	0	0
2465	255	245	243
2466	252	235	239
2467	245	224	235
2468	238	219	233
2469	240	217	234
2470	250	218	238
2471	255	218	240
2472	251	202	232
2473	245	186	226
2474	237	172	221
2475	233	159	218
2476	230	145	214
2477	222	126	205
2478	238	137	216
2479	238	137	213
2480	228	131	209
2481	220	126	206
2482	221	129	209
2483	219	126	205
2484	232	140	212
2485	237	147	213
2486	242	157	215
2487	244	164	216
2488	253	180	221
2489	248	185	215
2490	0	0	0
2491	0	0	0
2492	0	0	0
2493	0	0	0
2494	0	0	0
2495	0	0	0
2496	0	0	0
2497	0	0	0
2498	0	0	0
2499	0	0	0
2500	0	0	0
2501	0	0	0
2502	0	0	0
2503	0	0	0
2504	0	0	0
2505	0	0	0
2506	0	0	0
2507	0	0	0
2508	0	0	0
2509	0	0	0
2510	0	0	0
2511	0	0	0
2512	0	0	0
2513	0	0	0
2514	0	0	0
2515	0	0	0
2516	0	0	0
2517	0	0	0
2518	0	0	0
2519	0	0	0
2520	0	0	0
2521	0	0	0
2522	0	0	0
2523	0	0	0
2524	0	0	0
2525	0	0	0
2526	246	230	235
2527	240	220	231
2528	239	217	232
2529	246	222	237
2530	252	220	238
2531	254	215	236
2532	248	199	228
2533	240	181	221
2534	233	168	218
2535	235	166	222
2536	227	151	217
2537	227	141	216
2538	246	154	228
2539	239	138	216
2540	237	137	215
2541	224	124	207
2542	218	123	206
2543	218	125	207
2544	232	140	216
2545	237	145	214
2546	246	157	219
2547	244	157	215
2548	249	171	219
2549	247	180	216
2550	0	0	0
2551	0	0	0
2552	0	0	0
2553	0	0	0
2554	0	0	0
2555	0	0	0
2556	0	0	0
2557	0	0	0
2558	0	0	0
2559	0	0	0
2560	0	0	0
2561	0	0	0
2562	0	0	0
2563	0	0	0
2564	0	0	0
2565	0	0	0
2566	0	0	0
2567	0	0	0
2568	0	0	0
2569	0	0	0
2570	0	0	0
2571	0	0	0
2572	0	0	0
2573	0	0	0
2574	0	0	0
2575	0	0	0
2576	0	0	0
2577	0	0	0
2578	0	0	0
2579	0	0	0
2580	0	0	0
2581	0	0	0
2582	0	0	0
2583	0	0	0
2584	0	0	0
2585	0	0	0
2586	0	0	0
2587	238	218	230
2588	248	225	238
2589	255	230	242
2590	255	222	238
2591	255	217	236
2592	247	197	226
2593	239	179	220
2594	239	177	223
2595	239	174	226
2596	230	161	221
2597	229	152	221
2598	236	147	222
2599	232	133	213
2600	233	129	211
2601	222	116	202
2602	221	122	206
2603	221	124	209
2604	230	136	216
2605	234	140	215
2606	236	144	213
2607	233	143	208
2608	243	162	215
2609	243	173	215
2610	0	0	0
2611	0	0	0
2612	0	0	0
2613	0	0	0
2614	0	0	0
2615	0	0	0
2616	0	0	0
2617	0	0	0
2618	0	0	0
2619	0	0	0
2620	0	0	0
2621	0	0	0
2622	0	0	0
2623	0	0	0
2624	0	0	0
2625	0	0	0
2626	0	0	0
2627	0	0	0
2628	0	0	0
2629	0	0	0
2630	0	0	0
2631	0	0	0
2632	0	0	0
2633	0	0	0
2634	0	0	0
2635	0	0	0
2636	0	0	0
2637	0	0	0
2638	0	0	0
2639	0	0	0
2640	0	0	0
2641	0	0	0
2642	0	0	0
2643	0	0	0
2644	0	0	0
2645	0	0	0
2646	0	0	0
2647	245	227	236
2648	255	237	246
2649	255	222	236
2650	254	214	232
2651	255	210	232
2652	244	189	222
2653	243	183	224
2654	242	180	226
2655	235	170	223
2656	226	156	217
2657	229	154	221
2658	232	148	221
2659	225	128	210
2660	231	128	211
2661	226	119	205
2662	231	128	212
2663	228	126	212
2664	232	134	216
2665	228	134	211
2666	225	136	207
2667	232	150	212
2668	245	171	222
2669	239	168	214
2670	0	0	0
2671	0	0	0
2672	0	0	0
2673	0	0	0
2674	0	0	0
2675	0	0	0
2676	0	0	0
2677	0	0	0
2678	0	0	0
2679	0	0	0
2680	0	0	0
2681	0	0	0
2682	0	0	0
2683	0	0	0
2684	0	0	0
2685	0	0	0
2686	0	0	0
2687	0	0	0
2688	0	0	0
2689	0	0	0
2690	0	0	0
2691	0	0	0
2692	0	0	0
2693	0	0	0
2694	0	0	0
2695	0	0	0
2696	0	0	0
2697	0	0	0
2698	0	0	0
2699	0	0	0
2700	0	0	0
2701	0	0	0
2702	0	0	0
2703	0	0	0
2704	0	0	0
2705	0	0	0
2706	0	0	0
2707	251	235	239
2708	254	226	236
2709	249	212	227
2710	249	206	225
2711	250	201	226
2712	244	191	222
2713	243	185	225
2714	238	176	224
2715	233	166	221
2716	231	161	222
2717	234	159	225
2718	229	143	218
2719	221	124	207
2720	229	125	211
2721	226	117	207
2722	232	124	212
2723	228	121	207
2724	231	128	209
2725	227	129	206
2726	235	147	214
2727	242	162	219
2728	245	167	220
2729	241	166	216
2730	0	0	0
2731	0	0	0
2732	0	0	0
2733	0	0	0
2734	0	0	0
2735	0	0	0
2736	0	0	0
2737	0	0	0
2738	0	0	0
2739	0	0	0
2740	0	0	0
2741	0	0	0
2742	0	0	0
2743	0	0	0
2744	0	0	0
2745	0	0	0
2746	0	0	0
2747	0	0	0
2748	0	0	0
2749	0	0	0
2750	0	0	0
2751	0	0	0
2752	0	0	0
2753	0	0	0
2754	0	0	0
2755	0	0	0
2756	0	0	0
2757	0	0	0
2758	0	0	0
2759	0	0	0
2760	0	0	0
2761	0	0	0
2762	0	0	0
2763	0	0	0
2764	0	0	0
2765	0	0	0
2766	0	0	0
2767	252	235	239
2768	253	225	235
2769	243	205	223
2770	241	198	221
2771	245	201	226
2772	239	190	221
2773	246	194	228
2774	245	186	227
2775	245	179	229
2776	249	177	233
2777	246	166	230
2778	238	149	221
2779	226	127	210
2780	231	128	213
2781	230	123	212
2782	238	130	217
2783	234	124	210
2784	238	134	213
2785	234	131	208
2786	246	151	218
2787	246	154	216
2788	248	160	217
2789	246	163	216
2790	0	0	0
2791	0	0	0
2792	0	0	0
2793	0	0	0
2794	0	0	0
2795	0	0	0
2796	0	0	0
2797	0	0	0
2798	0	0	0
2799	0	0	0
2800	0	0	0
2801	0	0	0
2802	0	0	0
2803	0	0	0
2804	0	0	0
2805	0	0	0
2806	0	0	0
2807	0	0	0
2808	0	0	0
2809	0	0	0
2810	0	0	0
2811	0	0	0
2812	0	0	0
2813	0	0	0
2814	0	0	0
2815	0	0	0
2816	0	0	0
2817	0	0	0
2818	0	0	0
2819	0	0	0
2820	0	0	0
2821	0	0	0
2822	0	0	0
2823	0	0	0
2824	0	0	0
2825	0	0	0
2826	0	0	0
2827	251	233	238
2828	245	215	229
2829	235	195	219
2830	239	199	225
2831	244	202	230
2832	248	203	231
2833	253	204	231
2834	252	195	228
2835	255	190	232
2836	255	181	232
2837	253	170	228
2838	243	152	219
2839	231	130	211
2840	234	131	215
2841	233	126	212
2842	237	128	214
2843	234	124	210
2844	236	128	210
2845	231	126	202
2846	238	136	207
2847	241	142	210
2848	250	154	217
2849	247	157	214
2850	255	178	221
2851	0	0	0
2852	255	213	224
2853	0	0	0
2854	0	0	0
2855	0	0	0
2856	0	0	0
2857	0	0	0
2858	0	0	0
2859	0	0	0
2860	0	0	0
2861	0	0	0
2862	0	0	0
2863	0	0	0
2864	0	0	0
2865	0	0	0
2866	0	0	0
2867	0	0	0
2868	0	0	0
2869	0	0	0
2870	0	0	0
2871	0	0	0
2872	0	0	0
2873	0	0	0
2874	0	0	0
2875	0	0	0
2876	0	0	0
2877	0	0	0
2878	0	0	0
2879	0	0	0
2880	0	0	0
2881	0	0	0
2882	0	0	0
2883	0	0	0
2884	0	0	0
2885	0	0	0
2886	0	0	0
2887	254	239	242
2888	247	221	233
2889	241	206	226
2890	245	210	231
2891	253	215	238
2892	255	217	240
2893	254	199	226
2894	250	189	221
2895	255	186	227
2896	254	176	226
2897	245	157	217
2898	238	140	211
2899	234	131	211
2900	236	131	214
2901	239	134	216
2902	242	135	217
2903	236	129	212
2904	236	132	211
2905	231	129	204
2906	240	141	211
2907	236	136	207
2908	248	151	216
2909	249	155	214
2910	255	177	223
2911	251	177	213
2912	255	198	218
2913	255	224	227
2914	0	0	0
2915	0	0	0
2916	0	0	0
2917	0	0	0
2918	0	0	0
2919	0	0	0
2920	0	0	0
2921	0	0	0
2922	0	0	0
2923	0	0	0
2924	0	0	0
2925	0	0	0
2926	0	0	0
2927	0	0	0
2928	0	0	0
2929	0	0	0
2930	0	0	0
2931	0	0	0
2932	0	0	0
2933	0	0	0
2934	0	0	0
2935	0	0	0
2936	0	0	0
2937	0	0	0
2938	0	0	0
2939	0	0	0
2940	0	0	0
2941	0	0	0
2942	0	0	0
2943	0	0	0
2944	0	0	0
2945	0	0	0
2946	0	0	0
2947	0	0	0
2948	250	230	237
2949	244	215	228
2950	252	220	234
2951	255	225	239
2952	255	212	234
2953	255	196	227
2954	255	192	228
2955	255	188	229
2956	251	168	220
2957	243	149	215
2958	243	143	218
2959	239	133	214
2960	244	139	219
2961	246	142	220
2962	245	139	217
2963	240	133	211
2964	239	135	212
2965	236	134	209
2966	234	132	207
2967	229	127	202
2968	241	142	212
2969	244	148	211
2970	250	161	214
2971	242	161	206
2972	253	189	217
2973	255	214	227
2974	0	0	0
2975	0	0	0
2976	0	0	0
2977	0	0	0
2978	0	0	0
2979	0	0	0
2980	0	0	0
2981	0	0	0
2982	0	0	0
2983	0	0	0
2984	0	0	0
2985	0	0	0
2986	0	0	0
2987	0	0	0
2988	0	0	0
2989	0	0	0
2990	0	0	0
2991	0	0	0
2992	0	0	0
2993	0	0	0
2994	0	0	0
2995	0	0	0
2996	0	0	0
2997	0	0	0
2998	0	0	0
2999	0	0	0
3000	0	0	0
3001	0	0	0
3002	0	0	0
3003	0	0	0
3004	0	0	0
3005	0	0	0
3006	0	0	0
3007	0	0	0
3008	0	0	0
3009	245	222	230
3010	255	230	238
3011	255	216	231
3012	255	202	226
3013	255	194	228
3014	255	191	231
3015	249	167	217
3016	239	146	207
3017	250	155	222
3018	249	148	223
3019	239	132	214
3020	244	138	218
3021	250	145	221
3022	248	142	217
3023	240	130	209
3024	246	136	214
3025	242	134	212
3026	236	131	209
3027	234	133	209
3028	242	148	217
3029	233	138	205
3030	241	152	211
3031	237	152	205
3032	251	181	219
3033	255	207	227
3034	0	0	0
3035	0	0	0
3036	0	0	0
3037	0	0	0
3038	0	0	0
3039	0	0	0
3040	0	0	0
3041	0	0	0
3042	0	0	0
3043	0	0	0
3044	0	0	0
3045	0	0	0
3046	0	0	0
3047	0	0	0
3048	0	0	0
3049	0	0	0
3050	0	0	0
3051	0	0	0
3052	0	0	0
3053	0	0	0
3054	0	0	0
3055	0	0	0
3056	0	0	0
3057	0	0	0
3058	0	0	0
3059	0	0	0
3060	0	0	0
3061	0	0	0
3062	0	0	0
3063	0	0	0
3064	0	0	0
3065	0	0	0
3066	0	0	0
3067	0	0	0
3068	0	0	0
3069	254	234	238
3070	252	220	230
3071	250	206	223
3072	252	196	223
3073	254	188	226
3074	246	167	218
3075	235	143	204
3076	245	152	215
3077	254	159	225
3078	248	145	220
3079	238	129	212
3080	246	139	219
3081	251	146	221
3082	244	135	212
3083	237	124	206
3084	243	130	212
3085	241	129	211
3086	241	135	214
3087	237	136	212
3088	229	133	207
3089	218	123	197
3090	227	136	204
3091	224	137	200
3092	241	168	215
3093	249	194	222
3094	0	0	0
3095	0	0	0
3096	0	0	0
3097	0	0	0
3098	0	0	0
3099	0	0	0
3100	0	0	0
3101	0	0	0
3102	0	0	0
3103	0	0	0
3104	0	0	0
3105	0	0	0
3106	0	0	0
3107	0	0	0
3108	0	0	0
3109	0	0	0
3110	0	0	0
3111	0	0	0
3112	0	0	0
3113	0	0	0
3114	0	0	0
3115	0	0	0
3116	0	0	0
3117	0	0	0
3118	0	0	0
3119	0	0	0
3120	0	0	0
3121	0	0	0
3122	0	0	0
3123	0	0	0
3124	0	0	0
3125	0	0	0
3126	0	0	0
3127	0	0	0
3128	0	0	0
3129	255	235	239
3130	252	219	229
3131	253	209	226
3132	255	200	226
3133	255	189	227
3134	247	169	219
3135	248	162	219
3136	255	170	229
3137	253	157	223
3138	247	143	217
3139	249	144	220
3140	255	153	226
3141	255	152	223
3142	248	141	216
3143	242	132	212
3144	247	137	217
3145	247	138	217
3146	250	146	222
3147	233	129	209
3148	221	124	203
3149	207	113	193
3150	213	126	199
3151	219	140	204
3152	238	172	219
3153	252	203	228
3154	0	0	0
3155	0	0	0
3156	0	0	0
3157	0	0	0
3158	0	0	0
3159	0	0	0
3160	0	0	0
3161	0	0	0
3162	0	0	0
3163	0	0	0
3164	0	0	0
3165	0	0	0
3166	0	0	0
3167	0	0	0
3168	0	0	0
3169	0	0	0
3170	0	0	0
3171	0	0	0
3172	0	0	0
3173	0	0	0
3174	0	0	0
3175	0	0	0
3176	0	0	0
3177	0	0	0
3178	0	0	0
3179	0	0	0
3180	0	0	0
3181	0	0	0
3182	0	0	0
3183	0	0	0
3184	0	0	0
3185	0	0	0
3186	0	0	0
3187	0	0	0
3188	0	0	0
3189	0	0	0
3190	252	219	230
3191	252	209	226
3192	253	198	224
3193	254	188	226
3194	255	184	229
3195	255	177	228
3196	255	167	224
3197	250	153	220
3198	255	157	224
3199	255	157	223
3200	255	156	222
3201	255	156	224
3202	253	148	220
3203	248	139	218
3204	250	143	221
3205	249	142	217
3206	238	131	209
3207	224	116	201
3208	216	114	200
3209	202	104	191
3210	215	129	205
3211	220	143	208
3212	245	182	226
3213	255	212	233
3214	0	0	0
3215	0	0	0
3216	0	0	0
3217	0	0	0
3218	0	0	0
3219	0	0	0
3220	0	0	0
3221	0	0	0
3222	0	0	0
3223	0	0	0
3224	0	0	0
3225	0	0	0
3226	0	0	0
3227	0	0	0
3228	0	0	0
3229	0	0	0
3230	0	0	0
3231	0	0	0
3232	0	0	0
3233	0	0	0
3234	0	0	0
3235	0	0	0
3236	0	0	0
3237	0	0	0
3238	0	0	0
3239	0	0	0
3240	0	0	0
3241	0	0	0
3242	0	0	0
3243	0	0	0
3244	0	0	0
3245	0	0	0
3246	0	0	0
3247	0	0	0
3248	0	0	0
3249	0	0	0
3250	0	0	0
3251	250	209	226
3252	252	198	224
3253	254	190	227
3254	255	186	230
3255	252	171	222
3256	249	160	219
3257	250	156	220
3258	255	159	223
3259	255	159	222
3260	255	159	221
3261	255	159	223
3262	255	152	221
3263	250	141	217
3264	250	144	219
3265	248	143	216
3266	238	131	208
3267	235	129	210
3268	236	132	214
3269	226	124	206
3270	235	148	219
3271	231	150	214
3272	255	190	233
3273	255	205	228
3274	0	0	0
3275	0	0	0
3276	0	0	0
3277	0	0	0
3278	0	0	0
3279	0	0	0
3280	0	0	0
3281	0	0	0
3282	0	0	0
3283	0	0	0
3284	0	0	0
3285	0	0	0
3286	0	0	0
3287	0	0	0
3288	0	0	0
3289	0	0	0
3290	0	0	0
3291	0	0	0
3292	0	0	0
3293	0	0	0
3294	0	0	0
3295	0	0	0
3296	0	0	0
3297	0	0	0
3298	0	0	0
3299	0	0	0
3300	0	0	0
3301	0	0	0
3302	0	0	0
3303	0	0	0
3304	0	0	0
3305	0	0	0
3306	0	0	0
3307	0	0	0
3308	0	0	0
3309	0	0	0
3310	0	0	0
3311	250	209	227
3312	255	203	229
3313	255	193	228
3314	252	180	225
3315	248	166	221
3316	251	165	223
3317	251	161	221
3318	255	163	223
3319	255	163	224
3320	255	162	223
3321	255	162	223
3322	255	155	220
3323	252	144	215
3324	252	145	217
3325	251	146	218
3326	246	142	215
3327	244	139	212
3328	247	144	216
3329	238	137	210
3330	241	150	217
3331	237	153	214
3332	255	183	227
3333	255	198	223
3334	0	0	0
3335	0	0	0
3336	0	0	0
3337	0	0	0
3338	0	0	0
3339	0	0	0
3340	0	0	0
3341	0	0	0
3342	0	0	0
3343	0	0	0
3344	0	0	0
3345	0	0	0
3346	0	0	0
3347	0	0	0
3348	0	0	0
3349	0	0	0
3350	0	0	0
3351	0	0	0
3352	0	0	0
3353	0	0	0
3354	0	0	0
3355	0	0	0
3356	0	0	0
3357	0	0	0
3358	0	0	0
3359	0	0	0
3360	0	0	0
3361	0	0	0
3362	0	0	0
3363	0	0	0
3364	0	0	0
3365	0	0	0
3366	0	0	0
3367	0	0	0
3368	0	0	0
3369	0	0	0
3370	0	0	0
3371	255	216	231
3372	255	208	232
3373	250	187	224
3374	247	175	221
3375	254	178	227
3376	255	176	229
3377	250	163	220
3378	254	165	222
3379	255	173	227
3380	255	171	227
3381	255	157	217
3382	255	149	213
3383	250	140	209
3384	253	143	213
3385	255	152	221
3386	251	146	216
3387	245	138	208
3388	248	142	211
3389	243	139	209
3390	249	155	219
3391	241	152	213
3392	255	180	226
3393	252	185	216
3394	0	0	0
3395	0	0	0
3396	0	0	0
3397	0	0	0
3398	0	0	0
3399	0	0	0
3400	0	0	0
3401	0	0	0
3402	0	0	0
3403	0	0	0
3404	0	0	0
3405	0	0	0
3406	0	0	0
3407	0	0	0
3408	0	0	0
3409	0	0	0
3410	0	0	0
3411	0	0	0
3412	0	0	0
3413	0	0	0
3414	0	0	0
3415	0	0	0
3416	0	0	0
3417	0	0	0
3418	0	0	0
3419	0	0	0
3420	0	0	0
3421	0	0	0
3422	0	0	0
3423	0	0	0
3424	0	0	0
3425	0	0	0
3426	0	0	0
3427	0	0	0
3428	0	0	0
3429	0	0	0
3430	0	0	0
3431	255	221	233
3432	251	201	225
3433	244	181	220
3434	255	187	229
3435	255	188	230
3436	255	178	225
3437	252	167	220
3438	255	176	227
3439	255	182	229
3440	255	166	218
3441	254	153	213
3442	255	150	213
3443	251	141	208
3444	255	153	218
3445	255	161	225
3446	255	151	217
3447	250	143	210
3448	254	148	214
3449	250	145	212
3450	249	151	215
3451	242	149	211
3452	251	167	218
3453	247	173	210
3454	0	0	0
3455	0	0	0
3456	0	0	0
3457	0	0	0
3458	0	0	0
3459	0	0	0
3460	0	0	0
3461	0	0	0
3462	0	0	0
3463	0	0	0
3464	0	0	0
3465	0	0	0
3466	0	0	0
3467	0	0	0
3468	0	0	0
3469	0	0	0
3470	0	0	0
3471	0	0	0
3472	0	0	0
3473	0	0	0
3474	0	0	0
3475	0	0	0
3476	0	0	0
3477	0	0	0
3478	0	0	0
3479	0	0	0
3480	0	0	0
3481	0	0	0
3482	0	0	0
3483	0	0	0
3484	0	0	0
3485	0	0	0
3486	0	0	0
3487	0	0	0
3488	0	0	0
3489	0	0	0
3490	0	0	0
3491	255	220	232
3492	247	199	222
3493	247	190	225
3494	255	196	235
3495	253	181	224
3496	249	171	217
3497	255	175	224
3498	255	184	231
3499	255	166	217
3500	249	151	207
3501	255	156	215
3502	255	153	216
3503	243	128	200
3504	253	139	210
3505	255	145	215
3506	250	137	208
3507	253	142	211
3508	254	146	214
3509	240	130	204
3510	239	137	207
3511	241	147	211
3512	252	167	219
3513	249	171	213
3514	255	195	221
3515	0	0	0
3516	0	0	0
3517	0	0	0
3518	0	0	0
3519	0	0	0
3520	0	0	0
3521	0	0	0
3522	0	0	0
3523	0	0	0
3524	0	0	0
3525	0	0	0
3526	0	0	0
3527	0	0	0
3528	0	0	0
3529	0	0	0
3530	0	0	0
3531	0	0	0
3532	0	0	0
3533	0	0	0
3534	0	0	0
3535	0	0	0
3536	0	0	0
3537	0	0	0
3538	0	0	0
3539	0	0	0
3540	0	0	0
3541	0	0	0
3542	0	0	0
3543	0	0	0
3544	0	0	0
3545	0	0	0
3546	0	0	0
3547	0	0	0
3548	0	0	0
3549	0	0	0
3550	0	0	0
3551	255	220	232
3552	253	209	230
3553	253	199	232
3554	254	191	232
3555	248	176	223
3556	255	180	227
3557	255	183	228
3558	252	166	217
3559	245	151	209
3560	251	154	214
3561	255	158	217
3562	249	139	206
3563	235	114	193
3564	246	127	206
3565	250	133	210
3566	253	136	212
3567	255	142	213
3568	247	132	207
3569	234	118	201
3570	243	137	213
3571	244	147	213
3572	250	160	216
3573	247	165	211
3574	250	180	214
3575	0	0	0
3576	0	0	0
3577	0	0	0
3578	0	0	0
3579	0	0	0
3580	0	0	0
3581	0	0	0
3582	0	0	0
3583	0	0	0
3584	0	0	0
3585	0	0	0
3586	0	0	0
3587	0	0	0
3588	0	0	0
3589	0	0	0
3590	0	0	0
3591	0	0	0
3592	0	0	0
3593	0	0	0
3594	0	0	0
3595	0	0	0
3596	0	0	0
3597	0	0	0
3598	0	0	0
3599	0	0	0
3600	0	0	0
3601	0	0	0
3602	0	0	0
3603	0	0	0
3604	0	0	0
3605	0	0	0
3606	0	0	0
3607	0	0	0
3608	0	0	0
3609	0	0	0
3610	0	0	0
3611	255	225	236
3612	255	215	235
3613	252	198	230
3614	251	189	229
3615	252	183	228
3616	255	187	232
3617	255	179	224
3618	248	162	213
3619	255	166	221
3620	255	170	227
3621	255	155	217
3622	248	136	207
3623	240	121	201
3624	252	134	213
3625	255	138	215
3626	255	142	216
3627	255	150	219
3628	255	141	214
3629	244	127	209
3630	255	147	222
3631	250	147	215
3632	251	158	215
3633	247	162	210
3634	251	177	213
3635	0	0	0
3636	0	0	0
3637	0	0	0
3638	0	0	0
3639	0	0	0
3640	0	0	0
3641	0	0	0
3642	0	0	0
3643	0	0	0
3644	0	0	0
3645	0	0	0
3646	0	0	0
3647	0	0	0
3648	0	0	0
3649	0	0	0
3650	0	0	0
3651	0	0	0
3652	0	0	0
3653	0	0	0
3654	0	0	0
3655	0	0	0
3656	0	0	0
3657	0	0	0
3658	0	0	0
3659	0	0	0
3660	0	0	0
3661	0	0	0
3662	0	0	0
3663	0	0	0
3664	0	0	0
3665	0	0	0
3666	0	0	0
3667	0	0	0
3668	0	0	0
3669	0	0	0
3670	255	235	240
3671	255	234	244
3672	255	216	236
3673	251	197	227
3674	255	194	230
3675	255	188	230
3676	254	182	226
3677	251	173	219
3678	255	174	221
3679	255	178	227
3680	255	162	220
3681	251	148	214
3682	248	137	211
3683	241	122	202
3684	253	136	213
3685	255	140	213
3686	255	149	218
3687	255	158	223
3688	255	145	215
3689	249	131	208
3690	254	142	215
3691	250	142	211
3692	252	154	213
3693	248	159	209
3694	255	185	219
3695	255	204	223
3696	0	0	0
3697	0	0	0
3698	0	0	0
3699	0	0	0
3700	0	0	0
3701	0	0	0
3702	0	0	0
3703	0	0	0
3704	0	0	0
3705	0	0	0
3706	0	0	0
3707	0	0	0
3708	0	0	0
3709	0	0	0
3710	0	0	0
3711	0	0	0
3712	0	0	0
3713	0	0	0
3714	0	0	0
3715	0	0	0
3716	0	0	0
3717	0	0	0
3718	0	0	0
3719	0	0	0
3720	0	0	0
3721	0	0	0
3722	0	0	0
3723	0	0	0
3724	0	0	0
3725	0	0	0
3726	0	0	0
3727	0	0	0
3728	0	0	0
3729	255	240	243
3730	255	234	241
3731	255	226	239
3732	251	206	228
3733	251	198	226
3734	254	195	228
3735	255	190	229
3736	254	184	226
3737	254	179	223
3738	255	180	225
3739	255	177	225
3740	253	161	217
3741	255	156	220
3742	253	146	217
3743	250	136	212
3744	255	150	222
3745	247	127	205
3746	255	137	211
3747	255	140	211
3748	247	127	202
3749	246	127	204
3750	252	137	211
3751	253	144	213
3752	255	159	218
3753	243	146	203
3754	254	172	213
3755	253	185	212
3756	0	0	0
3757	0	0	0
3758	0	0	0
3759	0	0	0
3760	0	0	0
3761	0	0	0
3762	0	0	0
3763	0	0	0
3764	0	0	0
3765	0	0	0
3766	0	0	0
3767	0	0	0
3768	0	0	0
3769	0	0	0
3770	0	0	0
3771	0	0	0
3772	0	0	0
3773	0	0	0
3774	0	0	0
3775	0	0	0
3776	0	0	0
3777	0	0	0
3778	0	0	0
3779	0	0	0
3780	0	0	0
3781	0	0	0
3782	0	0	0
3783	0	0	0
3784	0	0	0
3785	0	0	0
3786	0	0	0
3787	0	0	0
3788	0	0	0
3789	255	239	242
3790	255	227	236
3791	254	218	232
3792	254	209	229
3793	253	201	226
3794	255	198	229
3795	255	195	232
3796	255	192	233
3797	255	188	230
3798	255	182	227
3799	255	178	225
3800	255	168	220
3801	255	163	222
3802	255	155	220
3803	254	145	217
3804	248	131	210
3805	234	110	195
3806	241	118	201
3807	243	120	201
3808	243	122	202
3809	243	122	204
3810	251	135	212
3811	253	143	212
3812	248	141	208
3813	235	130	196
3814	245	155	207
3815	245	169	207
3816	0	0	0
3817	0	0	0
3818	0	0	0
3819	0	0	0
3820	0	0	0
3821	0	0	0
3822	0	0	0
3823	0	0	0
3824	0	0	0
3825	0	0	0
3826	0	0	0
3827	0	0	0
3828	0	0	0
3829	0	0	0
3830	0	0	0
3831	0	0	0
3832	0	0	0
3833	0	0	0
3834	0	0	0
3835	0	0	0
3836	0	0	0
3837	0	0	0
3838	0	0	0
3839	0	0	0
3840	0	0	0
3841	0	0	0
3842	0	0	0
3843	0	0	0
3844	0	0	0
3845	0	0	0
3846	0	0	0
3847	0	0	0
3848	0	0	0
3849	255	239	242
3850	254	226	236
3851	255	219	233
3852	254	210	231
3853	250	198	225
3854	253	195	227
3855	255	191	230
3856	255	189	231
3857	254	180	225
3858	253	173	221
3859	255	175	223
3860	253	165	218
3861	255	166	223
3862	255	157	221
3863	252	145	217
3864	246	132	211
3865	247	130	212
3866	255	139	219
3867	248	128	210
3868	249	131	211
3869	255	139	217
3870	255	152	224
3871	254	143	212
3872	251	143	210
3873	243	139	205
3874	254	164	219
3875	248	169	212
3876	0	0	0
3877	0	0	0
3878	0	0	0
3879	0	0	0
3880	0	0	0
3881	0	0	0
3882	0	0	0
3883	0	0	0
3884	0	0	0
3885	0	0	0
3886	0	0	0
3887	0	0	0
3888	0	0	0
3889	0	0	0
3890	0	0	0
3891	0	0	0
3892	0	0	0
3893	0	0	0
3894	0	0	0
3895	0	0	0
3896	0	0	0
3897	0	0	0
3898	0	0	0
3899	0	0	0
3900	0	0	0
3901	0	0	0
3902	0	0	0
3903	0	0	0
3904	0	0	0
3905	0	0	0
3906	0	0	0
3907	0	0	0
3908	0	0	0
3909	255	238	241
3910	254	225	234
3911	254	218	234
3912	253	208	231
3913	249	196	227
3914	251	192	228
3915	252	187	228
3916	250	180	225
3917	247	171	221
3918	252	173	223
3919	255	174	223
3920	255	171	223
3921	255	172	229
3922	253	156	221
3923	248	143	216
3924	252	144	219
3925	253	142	220
3926	250	137	216
3927	243	127	209
3928	253	140	217
3929	255	149	220
3930	255	147	217
3931	251	139	207
3932	252	145	210
3933	245	142	208
3934	249	157	215
3935	244	162	210
3936	255	185	219
3937	0	0	0
3938	0	0	0
3939	0	0	0
3940	0	0	0
3941	0	0	0
3942	0	0	0
3943	0	0	0
3944	0	0	0
3945	0	0	0
3946	0	0	0
3947	0	0	0
3948	0	0	0
3949	0	0	0
3950	0	0	0
3951	0	0	0
3952	0	0	0
3953	0	0	0
3954	0	0	0
3955	0	0	0
3956	0	0	0
3957	0	0	0
3958	0	0	0
3959	0	0	0
3960	0	0	0
3961	0	0	0
3962	0	0	0
3963	0	0	0
3964	0	0	0
3965	0	0	0
3966	0	0	0
3967	0	0	0
3968	0	0	0
3969	255	241	242
3970	255	228	235
3971	253	218	234
3972	253	209	233
3973	251	199	230
3974	253	195	230
3975	255	195	233
3976	255	188	230
3977	253	179	227
3978	255	181	230
3979	253	171	222
3980	253	167	221
3981	255	171	228
3982	250	154	219
3983	254	157	224
3984	255	157	225
3985	254	150	220
3986	250	144	217
3987	253	147	221
3988	255	162	231
3989	255	149	219
3990	255	149	216
3991	245	131	202
3992	246	137	206
3993	242	139	207
3994	246	154	214
3995	246	163	214
3996	255	188	225
3997	247	185	214
3998	0	0	0
3999	0	0	0
4000	0	0	0
4001	0	0	0
4002	0	0	0
4003	0	0	0
4004	0	0	0
4005	0	0	0
4006	0	0	0
4007	0	0	0
4008	0	0	0
4009	0	0	0
4010	0	0	0
4011	0	0	0
4012	0	0	0
4013	0	0	0
4014	0	0	0
4015	0	0	0
4016	0	0	0
4017	0	0	0
4018	0	0	0
4019	0	0	0
4020	0	0	0
4021	0	0	0
4022	0	0	0
4023	0	0	0
4024	0	0	0
4025	0	0	0
4026	0	0	0
4027	0	0	0
4028	0	0	0
4029	255	243	244
4030	255	228	236
4031	253	219	235
4032	254	211	235
4033	252	201	231
4034	255	201	233
4035	255	201	236
4036	255	193	233
4037	255	184	228
4038	253	177	225
4039	248	167	218
4040	252	168	221
4041	255	171	226
4042	255	170	227
4043	255	172	230
4044	255	167	226
4045	255	159	220
4046	255	164	224
4047	255	168	231
4048	255	159	225
4049	254	147	215
4050	249	136	208
4051	237	121	197
4052	245	135	208
4053	242	137	208
4054	246	153	215
4055	247	163	217
4056	250	172	218
4057	240	170	207
4058	0	0	0
4059	0	0	0
4060	0	0	0
4061	0	0	0
4062	0	0	0
4063	0	0	0
4064	0	0	0
4065	0	0	0
4066	0	0	0
4067	0	0	0
4068	0	0	0
4069	0	0	0
4070	0	0	0
4071	0	0	0
4072	0	0	0
4073	0	0	0
4074	0	0	0
4075	0	0	0
4076	0	0	0
4077	0	0	0
4078	0	0	0
4079	0	0	0
4080	0	0	0
4081	0	0	0
4082	0	0	0
4083	0	0	0
4084	0	0	0
4085	0	0	0
4086	0	0	0
4087	0	0	0
4088	0	0	0
4089	255	242	244
4090	255	227	237
4091	252	216	235
4092	251	208	233
4093	253	205	233
4094	255	205	234
4095	255	200	233
4096	255	192	231
4097	253	182	228
4098	251	175	225
4099	249	170	221
4100	252	171	223
4101	255	176	227
4102	255	174	227
4103	255	173	226
4104	255	168	222
4105	253	159	216
4106	255	165	222
4107	255	162	224
4108	255	153	219
4109	255	151	216
4110	251	141	211
4111	245	131	207
4112	255	147	220
4113	242	134	208
4114	247	151	216
4115	246	158	216
4116	248	166	217
4117	243	169	210
4118	255	203	226
4119	0	0	0
4120	0	0	0
4121	0	0	0
4122	0	0	0
4123	0	0	0
4124	0	0	0
4125	0	0	0
4126	0	0	0
4127	0	0	0
4128	0	0	0
4129	0	0	0
4130	0	0	0
4131	0	0	0
4132	0	0	0
4133	0	0	0
4134	0	0	0
4135	0	0	0
4136	0	0	0
4137	0	0	0
4138	0	0	0
4139	0	0	0
4140	0	0	0
4141	0	0	0
4142	0	0	0
4143	0	0	0
4144	0	0	0
4145	0	0	0
4146	0	0	0
4147	0	0	0
4148	0	0	0
4149	0	0	0
4150	253	225	237
4151	249	213	235
4152	252	211	236
4153	254	208	235
4154	255	205	234
4155	255	198	230
4156	252	189	228
4157	251	182	230
4158	251	178	230
4159	249	172	224
4160	255	178	228
4161	255	182	230
4162	255	181	229
4163	255	180	228
4164	255	173	223
4165	255	166	220
4166	255	162	220
4167	255	160	221
4168	255	158	221
4169	255	156	217
4170	255	147	214
4171	249	138	215
4172	250	139	218
4173	238	127	204
4174	245	143	213
4175	246	152	215
4176	249	163	218
4177	244	167	213
4178	255	192	221
4179	255	213	223
4180	0	0	0
4181	0	0	0
4182	0	0	0
4183	0	0	0
4184	0	0	0
4185	0	0	0
4186	0	0	0
4187	0	0	0
4188	0	0	0
4189	0	0	0
4190	0	0	0
4191	0	0	0
4192	0	0	0
4193	0	0	0
4194	0	0	0
4195	0	0	0
4196	0	0	0
4197	0	0	0
4198	0	0	0
4199	0	0	0
4200	0	0	0
4201	0	0	0
4202	0	0	0
4203	0	0	0
4204	0	0	0
4205	0	0	0
4206	0	0	0
4207	0	0	0
4208	0	0	0
4209	0	0	0
4210	0	0	0
4211	0	0	0
4212	0	0	0
4213	255	218	241
4214	255	213	240
4215	248	190	225
4216	0	0	0
4217	255	193	236
4218	255	189	236
4219	255	185	232
4220	255	191	235
4221	255	177	224
4222	255	177	224
4223	253	168	219
4224	251	162	216
4225	255	165	220
4226	255	161	219
4227	255	163	223
4228	255	162	222
4229	253	148	210
4230	250	141	209
4231	255	145	220
4232	254	145	222
4233	243	132	210
4234	255	152	222
4235	247	145	213
4236	247	156	215
4237	247	166	215
4238	255	191	222
4239	255	208	219
4240	0	0	0
4241	0	0	0
4242	0	0	0
4243	0	0	0
4244	0	0	0
4245	0	0	0
4246	0	0	0
4247	0	0	0
4248	0	0	0
4249	0	0	0
4250	0	0	0
4251	0	0	0
4252	0	0	0
4253	0	0	0
4254	0	0	0
4255	0	0	0
4256	0	0	0
4257	0	0	0
4258	0	0	0
4259	0	0	0
4260	0	0	0
4261	0	0	0
4262	0	0	0
4263	0	0	0
4264	0	0	0
4265	0	0	0
4266	0	0	0
4267	0	0	0
4268	0	0	0
4269	0	0	0
4270	0	0	0
4271	0	0	0
4272	0	0	0
4273	0	0	0
4274	248	202	231
4275	0	0	0
4276	0	0	0
4277	0	0	0
4278	255	198	234
4279	255	194	232
4280	255	183	224
4281	248	170	215
4282	248	165	214
4283	246	158	213
4284	251	163	219
4285	255	165	221
4286	255	165	221
4287	255	167	224
4288	255	156	216
4289	248	142	206
4290	253	147	212
4291	255	151	220
4292	253	145	219
4293	244	134	211
4294	250	141	215
4295	240	133	206
4296	247	152	214
4297	247	163	214
4298	255	188	222
4299	255	205	220
4300	0	0	0
4301	0	0	0
4302	0	0	0
4303	0	0	0
4304	0	0	0
4305	0	0	0
4306	0	0	0
4307	0	0	0
4308	0	0	0
4309	0	0	0
4310	0	0	0
4311	0	0	0
4312	0	0	0
4313	0	0	0
4314	0	0	0
4315	0	0	0
4316	0	0	0
4317	0	0	0
4318	0	0	0
4319	0	0	0
4320	0	0	0
4321	0	0	0
4322	0	0	0
4323	0	0	0
4324	0	0	0
4325	0	0	0
4326	0	0	0
4327	0	0	0
4328	0	0	0
4329	0	0	0
4330	0	0	0
4331	0	0	0
4332	0	0	0
4333	0	0	0
4334	0	0	0
4335	0	0	0
4336	0	0	0
4337	255	205	235
4338	255	201	232
4339	255	193	228
4340	252	182	223
4341	253	178	221
4342	253	174	220
4343	251	166	220
4344	255	171	225
4345	255	167	222
4346	255	168	222
4347	255	163	221
4348	253	152	214
4349	249	144	209
4350	251	147	213
4351	247	140	212
4352	244	136	211
4353	244	135	212
4354	247	140	217
4355	234	127	204
4356	244	148	214
4357	248	161	216
4358	255	186	224
4359	254	193	215
4360	0	0	0
4361	0	0	0
4362	0	0	0
4363	0	0	0
4364	0	0	0
4365	0	0	0
4366	0	0	0
4367	0	0	0
4368	0	0	0
4369	0	0	0
4370	0	0	0
4371	0	0	0
4372	0	0	0
4373	0	0	0
4374	0	0	0
4375	0	0	0
4376	0	0	0
4377	0	0	0
4378	0	0	0
4379	0	0	0
4380	0	0	0
4381	0	0	0
4382	0	0	0
4383	0	0	0
4384	0	0	0
4385	0	0	0
4386	0	0	0
4387	0	0	0
4388	0	0	0
4389	0	0	0
4390	0	0	0
4391	0	0	0
4392	0	0	0
4393	0	0	0
4394	0	0	0
4395	0	0	0
4396	0	0	0
4397	255	208	235
4398	254	200	231
4399	253	192	229
4400	255	189	230
4401	255	186	229
4402	255	179	226
4403	252	171	221
4404	254	170	222
4405	254	166	219
4406	255	163	219
4407	255	159	218
4408	253	153	216
4409	249	145	214
4410	242	138	210
4411	237	130	207
4412	242	134	212
4413	242	133	212
4414	239	131	211
4415	228	119	201
4416	243	144	216
4417	248	158	218
4418	253	174	220
4419	249	180	212
4420	0	0	0
4421	0	0	0
4422	0	0	0
4423	0	0	0
4424	0	0	0
4425	0	0	0
4426	0	0	0
4427	0	0	0
4428	0	0	0
4429	0	0	0
4430	0	0	0
4431	0	0	0
4432	0	0	0
4433	0	0	0
4434	0	0	0
4435	0	0	0
4436	0	0	0
4437	0	0	0
4438	0	0	0
4439	0	0	0
4440	0	0	0
4441	0	0	0
4442	0	0	0
4443	0	0	0
4444	0	0	0
4445	0	0	0
4446	0	0	0
4447	0	0	0
4448	0	0	0
4449	0	0	0
4450	0	0	0
4451	0	0	0
4452	0	0	0
4453	0	0	0
4454	0	0	0
4455	0	0	0
4456	255	222	243
4457	255	212	236
4458	253	203	232
4459	252	194	231
4460	255	193	233
4461	255	187	231
4462	253	180	227
4463	254	177	226
4464	255	176	227
4465	255	169	223
4466	255	166	223
4467	252	155	217
4468	248	148	214
4469	249	149	219
4470	244	143	216
4471	243	141	216
4472	249	146	221
4473	244	137	215
4474	241	134	214
4475	238	131	212
4476	255	158	228
4477	250	157	221
4478	255	172	222
4479	248	175	213
4480	0	0	0
4481	0	0	0
4482	0	0	0
4483	0	0	0
4484	0	0	0
4485	0	0	0
4486	0	0	0
4487	0	0	0
4488	0	0	0
4489	0	0	0
4490	0	0	0
4491	0	0	0
4492	0	0	0
4493	0	0	0
4494	0	0	0
4495	0	0	0
4496	0	0	0
4497	0	0	0
4498	0	0	0
4499	0	0	0
4500	0	0	0
4501	0	0	0
4502	0	0	0
4503	0	0	0
4504	0	0	0
4505	0	0	0
4506	0	0	0
4507	0	0	0
4508	0	0	0
4509	0	0	0
4510	0	0	0
4511	0	0	0
4512	0	0	0
4513	0	0	0
4514	0	0	0
4515	254	231	244
4516	251	220	238
4517	248	209	232
4518	246	200	228
4519	245	193	228
4520	249	190	230
4521	248	184	227
4522	248	180	227
4523	250	178	227
4524	252	174	227
4525	251	167	225
4526	247	157	219
4527	241	146	211
4528	246	150	216
4529	248	151	220
4530	247	151	222
4531	247	150	221
4532	250	147	221
4533	246	139	216
4534	249	144	220
4535	246	142	218
4536	252	152	223
4537	247	151	216
4538	254	166	220
4539	248	170	213
4540	0	0	0
4541	0	0	0
4542	0	0	0
4543	0	0	0
4544	0	0	0
4545	0	0	0
4546	0	0	0
4547	0	0	0
4548	0	0	0
4549	0	0	0
4550	0	0	0
4551	0	0	0
4552	0	0	0
4553	0	0	0
4554	0	0	0
4555	0	0	0
4556	0	0	0
4557	0	0	0
4558	0	0	0
4559	0	0	0
4560	0	0	0
4561	0	0	0
4562	0	0	0
4563	0	0	0
4564	0	0	0
4565	0	0	0
4566	0	0	0
4567	0	0	0
4568	0	0	0
4569	0	0	0
4570	0	0	0
4571	0	0	0
4572	0	0	0
4573	0	0	0
4574	0	0	0
4575	253	239	246
4576	248	227	239
4577	245	218	235
4578	0	0	0
4579	0	0	0
4580	0	0	0
4581	0	0	0
4582	0	0	0
4583	253	192	235
4584	255	189	237
4585	248	170	227
4586	240	159	220
4587	246	163	222
4588	255	170	230
4589	250	156	223
4590	247	154	223
4591	245	148	220
4592	250	147	221
4593	248	140	217
4594	254	146	222
4595	247	138	216
4596	250	147	220
4597	246	146	215
4598	254	163	220
4599	246	162	211
4600	0	0	0
4601	0	0	0
4602	0	0	0
4603	0	0	0
4604	0	0	0
4605	0	0	0
4606	0	0	0
4607	0	0	0
4608	0	0	0
4609	0	0	0
4610	0	0	0
4611	0	0	0
4612	0	0	0
4613	0	0	0
4614	0	0	0
4615	0	0	0
4616	0	0	0
4617	0	0	0
4618	0	0	0
4619	0	0	0
4620	0	0	0
4621	0	0	0
4622	0	0	0
4623	0	0	0
4624	0	0	0
4625	0	0	0
4626	0	0	0
4627	0	0	0
4628	0	0	0
4629	0	0	0
4630	0	0	0
4631	0	0	0
4632	0	0	0
4633	0	0	0
4634	0	0	0
4635	0	0	0
4636	251	238	244
4637	0	0	0
4638	0	0	0
4639	0	0	0
4640	0	0	0
4641	0	0	0
4642	0	0	0
4643	252	200	235
4644	253	188	232
4645	245	172	225
4646	252	179	233
4647	255	183	236
4648	255	173	230
4649	250	159	223
4650	245	152	221
4651	245	148	222
4652	251	147	225
4653	248	139	217
4654	246	137	215
4655	239	129	209
4656	239	135	211
4657	235	135	206
4658	243	148	211
4659	238	150	204
4660	253	180	218
4661	0	0	0
4662	0	0	0
4663	0	0	0
4664	0	0	0
4665	0	0	0
4666	0	0	0
4667	0	0	0
4668	0	0	0
4669	0	0	0
4670	0	0	0
4671	0	0	0
4672	0	0	0
4673	0	0	0
4674	0	0	0
4675	0	0	0
4676	0	0	0
4677	0	0	0
4678	0	0	0
4679	0	0	0
4680	0	0	0
4681	0	0	0
4682	0	0	0
4683	0	0	0
4684	0	0	0
4685	0	0	0
4686	0	0	0
4687	0	0	0
4688	0	0	0
4689	0	0	0
4690	0	0	0
4691	0	0	0
4692	0	0	0
4693	0	0	0
4694	0	0	0
4695	0	0	0
4696	0	0	0
4697	0	0	0
4698	0	0	0
4699	0	0	0
4700	0	0	0
4701	0	0	0
4702	0	0	0
4703	252	206	235
4704	254	195	233
4705	252	181	230
4706	255	193	242
4707	250	167	227
4708	242	153	218
4709	253	164	228
4710	254	161	228
4711	251	151	226
4712	253	149	227
4713	244	136	215
4714	239	133	211
4715	238	137	213
4716	238	144	216
4717	231	137	209
4718	242	152	216
4719	242	157	213
4720	255	189	228
4721	253	188	216
4722	0	0	0
4723	0	0	0
4724	0	0	0
4725	0	0	0
4726	0	0	0
4727	0	0	0
4728	0	0	0
4729	0	0	0
4730	0	0	0
4731	0	0	0
4732	0	0	0
4733	0	0	0
4734	0	0	0
4735	0	0	0
4736	0	0	0
4737	0	0	0
4738	0	0	0
4739	0	0	0
4740	0	0	0
4741	0	0	0
4742	0	0	0
4743	0	0	0
4744	0	0	0
4745	0	0	0
4746	0	0	0
4747	0	0	0
4748	0	0	0
4749	0	0	0
4750	0	0	0
4751	0	0	0
4752	0	0	0
4753	0	0	0
4754	0	0	0
4755	0	0	0
4756	0	0	0
4757	0	0	0
4758	0	0	0
4759	0	0	0
4760	0	0	0
4761	0	0	0
4762	0	0	0
4763	249	210	234
4764	253	200	233
4765	251	186	228
4766	245	169	224
4767	232	146	215
4768	243	158	227
4769	253	169	233
4770	249	157	225
4771	245	146	221
4772	245	142	220
4773	237	131	210
4774	241	141	216
4775	240	145	218
4776	233	143	216
4777	228	138	212
4778	244	156	223
4779	246	161	219
4780	254	174	222
4781	247	173	213
4782	0	0	0
4783	0	0	0
4784	0	0	0
4785	0	0	0
4786	0	0	0
4787	0	0	0
4788	0	0	0
4789	0	0	0
4790	0	0	0
4791	0	0	0
4792	0	0	0
4793	0	0	0
4794	0	0	0
4795	0	0	0
4796	0	0	0
4797	0	0	0
4798	0	0	0
4799	0	0	0
4800	0	0	0
4801	0	0	0
4802	0	0	0
4803	0	0	0
4804	0	0	0
4805	0	0	0
4806	0	0	0
4807	0	0	0
4808	0	0	0
4809	0	0	0
4810	0	0	0
4811	0	0	0
4812	0	0	0
4813	0	0	0
4814	0	0	0
4815	0	0	0
4816	0	0	0
4817	0	0	0
4818	0	0	0
4819	0	0	0
4820	0	0	0
4821	0	0	0
4822	0	0	0
4823	250	219	237
4824	255	210	238
4825	245	186	226
4826	234	166	219
4827	234	161	224
4828	250	176	240
4829	253	176	237
4830	246	162	227
4831	243	152	222
4832	244	149	222
4833	239	140	215
4834	249	152	224
4835	243	148	221
4836	234	145	218
4837	231	143	217
4838	250	163	231
4839	241	150	216
4840	249	163	218
4841	246	167	214
4842	0	0	0
4843	0	0	0
4844	0	0	0
4845	0	0	0
4846	0	0	0
4847	0	0	0
4848	0	0	0
4849	0	0	0
4850	0	0	0
4851	0	0	0
4852	0	0	0
4853	0	0	0
4854	0	0	0
4855	0	0	0
4856	0	0	0
4857	0	0	0
4858	0	0	0
4859	0	0	0
4860	0	0	0
4861	0	0	0
4862	0	0	0
4863	0	0	0
4864	0	0	0
4865	0	0	0
4866	0	0	0
4867	0	0	0
4868	0	0	0
4869	0	0	0
4870	0	0	0
4871	0	0	0
4872	0	0	0
4873	0	0	0
4874	0	0	0
4875	0	0	0
4876	0	0	0
4877	0	0	0
4878	0	0	0
4879	0	0	0
4880	0	0	0
4881	0	0	0
4882	0	0	0
4883	0	0	0
4884	244	204	231
4885	232	180	221
4886	232	176	224
4887	232	170	226
4888	244	177	234
4889	250	178	235
4890	248	169	230
4891	244	159	226
4892	245	156	225
4893	241	147	219
4894	248	153	224
4895	244	150	222
4896	236	147	219
4897	234	145	219
4898	239	146	220
4899	231	134	207
4900	242	150	214
4901	239	155	210
4902	252	184	220
4903	0	0	0
4904	0	0	0
4905	0	0	0
4906	0	0	0
4907	0	0	0
4908	0	0	0
4909	0	0	0
4910	0	0	0
4911	0	0	0
4912	0	0	0
4913	0	0	0
4914	0	0	0
4915	0	0	0
4916	0	0	0
4917	0	0	0
4918	0	0	0
4919	0	0	0
4920	0	0	0
4921	0	0	0
4922	0	0	0
4923	0	0	0
4924	0	0	0
4925	0	0	0
4926	0	0	0
4927	0	0	0
4928	0	0	0
4929	0	0	0
4930	0	0	0
4931	0	0	0
4932	0	0	0
4933	0	0	0
4934	0	0	0
4935	0	0	0
4936	0	0	0
4937	0	0	0
4938	0	0	0
4939	0	0	0
4940	0	0	0
4941	0	0	0
4942	0	0	0
4943	0	0	0
4944	0	0	0
4945	240	207	235
4946	243	205	240
4947	235	184	231
4948	248	192	239
4949	254	189	239
4950	255	183	239
4951	244	158	226
4952	241	153	224
4953	240	149	221
4954	248	155	227
4955	241	146	220
4956	236	146	219
4957	235	145	220
4958	240	145	220
4959	235	139	212
4960	243	154	218
4961	239	156	213
4962	255	186	226
4963	253	194	217
4964	0	0	0
4965	0	0	0
4966	0	0	0
4967	0	0	0
4968	0	0	0
4969	0	0	0
4970	0	0	0
4971	0	0	0
4972	0	0	0
4973	0	0	0
4974	0	0	0
4975	0	0	0
4976	0	0	0
4977	0	0	0
4978	0	0	0
4979	0	0	0
4980	0	0	0
4981	0	0	0
4982	0	0	0
4983	0	0	0
4984	0	0	0
4985	0	0	0
4986	0	0	0
4987	0	0	0
4988	0	0	0
4989	0	0	0
4990	0	0	0
4991	0	0	0
4992	0	0	0
4993	0	0	0
4994	0	0	0
4995	0	0	0
4996	0	0	0
4997	0	0	0
4998	0	0	0
4999	0	0	0
5000	0	0	0
5001	0	0	0
5002	0	0	0
5003	0	0	0
5004	0	0	0
5005	0	0	0
5006	241	214	239
5007	233	194	230
5008	243	195	236
5009	250	192	237
5010	246	173	230
5011	234	150	220
5012	237	152	226
5013	238	150	224
5014	241	149	225
5015	236	140	218
5016	235	142	219
5017	235	141	219
5018	241	146	221
5019	236	139	213
5020	240	150	216
5021	238	153	213
5022	249	172	220
5023	248	181	215
5024	0	0	0
5025	0	0	0
5026	0	0	0
5027	0	0	0
5028	0	0	0
5029	0	0	0
5030	0	0	0
5031	0	0	0
5032	0	0	0
5033	0	0	0
5034	0	0	0
5035	0	0	0
5036	0	0	0
5037	0	0	0
5038	0	0	0
5039	0	0	0
5040	0	0	0
5041	0	0	0
5042	0	0	0
5043	0	0	0
5044	0	0	0
5045	0	0	0
5046	0	0	0
5047	0	0	0
5048	0	0	0
5049	0	0	0
5050	0	0	0
5051	0	0	0
5052	0	0	0
5053	0	0	0
5054	0	0	0
5055	0	0	0
5056	0	0	0
5057	0	0	0
5058	0	0	0
5059	0	0	0
5060	0	0	0
5061	0	0	0
5062	0	0	0
5063	0	0	0
5064	0	0	0
5065	0	0	0
5066	0	0	0
5067	238	211	235
5068	248	213	242
5069	245	196	235
5070	237	176	227
5071	235	164	227
5072	245	170	237
5073	241	158	231
5074	245	157	231
5075	242	149	226
5076	245	153	228
5077	239	143	222
5078	243	146	223
5079	236	138	214
5080	241	150	218
5081	243	157	218
5082	255	177	227
5083	249	176	218
5084	0	0	0
5085	0	0	0
5086	0	0	0
5087	0	0	0
5088	0	0	0
5089	0	0	0
5090	0	0	0
5091	0	0	0
5092	0	0	0
5093	0	0	0
5094	0	0	0
5095	0	0	0
5096	0	0	0
5097	0	0	0
5098	0	0	0
5099	0	0	0
5100	0	0	0
5101	0	0	0
5102	0	0	0
5103	0	0	0
5104	0	0	0
5105	0	0	0
5106	0	0	0
5107	0	0	0
5108	0	0	0
5109	0	0	0
5110	0	0	0
5111	0	0	0
5112	0	0	0
5113	0	0	0
5114	0	0	0
5115	0	0	0
5116	0	0	0
5117	0	0	0
5118	0	0	0
5119	0	0	0
5120	0	0	0
5121	0	0	0
5122	0	0	0
5123	0	0	0
5124	0	0	0
5125	0	0	0
5126	0	0	0
5127	248	232	244
5128	243	215	237
5129	239	198	232
5130	238	187	232
5131	236	175	231
5132	240	170	234
5133	237	160	229
5134	243	159	231
5135	240	152	225
5136	238	146	222
5137	233	137	217
5138	237	140	219
5139	231	133	212
5140	240	148	219
5141	243	156	218
5142	248	165	220
5143	244	166	214
5144	254	188	223
5145	253	201	222
5146	0	0	0
5147	0	0	0
5148	0	0	0
5149	0	0	0
5150	0	0	0
5151	0	0	0
5152	0	0	0
5153	0	0	0
5154	0	0	0
5155	0	0	0
5156	0	0	0
5157	0	0	0
5158	0	0	0
5159	0	0	0
5160	0	0	0
5161	0	0	0
5162	0	0	0
5163	0	0	0
5164	0	0	0
5165	0	0	0
5166	0	0	0
5167	0	0	0
5168	0	0	0
5169	0	0	0
5170	0	0	0
5171	0	0	0
5172	0	0	0
5173	0	0	0
5174	0	0	0
5175	0	0	0
5176	0	0	0
5177	0	0	0
5178	0	0	0
5179	0	0	0
5180	0	0	0
5181	0	0	0
5182	0	0	0
5183	0	0	0
5184	0	0	0
5185	0	0	0
5186	0	0	0
5187	251	241	246
5188	242	221	236
5189	236	202	230
5190	236	193	231
5191	240	189	235
5192	243	184	237
5193	238	168	232
5194	245	168	235
5195	236	153	224
5196	231	147	220
5197	233	146	221
5198	239	151	226
5199	229	135	215
5200	241	152	224
5201	244	157	222
5202	249	167	223
5203	243	162	216
5204	255	186	226
5205	249	188	218
5206	254	210	225
5207	0	0	0
5208	0	0	0
5209	0	0	0
5210	0	0	0
5211	0	0	0
5212	0	0	0
5213	0	0	0
5214	0	0	0
5215	0	0	0
5216	0	0	0
5217	0	0	0
5218	0	0	0
5219	0	0	0
5220	0	0	0
5221	0	0	0
5222	0	0	0
5223	0	0	0
5224	0	0	0
5225	0	0	0
5226	0	0	0
5227	0	0	0
5228	0	0	0
5229	0	0	0
5230	0	0	0
5231	0	0	0
5232	0	0	0
5233	0	0	0
5234	0	0	0
5235	0	0	0
5236	0	0	0
5237	0	0	0
5238	0	0	0
5239	0	0	0
5240	0	0	0
5241	0	0	0
5242	0	0	0
5243	0	0	0
5244	0	0	0
5245	0	0	0
5246	0	0	0
5247	255	254	254
5248	243	228	239
5249	235	208	230
5250	240	206	235
5251	244	202	237
5252	241	188	234
5253	237	173	232
5254	238	166	232
5255	231	152	222
5256	234	155	224
5257	235	154	225
5258	234	148	223
5259	225	134	214
5260	238	149	224
5261	242	155	223
5262	241	157	219
5263	235	153	212
5264	245	169	219
5265	240	172	212
5266	250	198	222
5267	255	225	233
5268	0	0	0
5269	0	0	0
5270	0	0	0
5271	0	0	0
5272	0	0	0
5273	0	0	0
5274	0	0	0
5275	0	0	0
5276	0	0	0
5277	0	0	0
5278	0	0	0
5279	0	0	0
5280	0	0	0
5281	0	0	0
5282	0	0	0
5283	0	0	0
5284	0	0	0
5285	0	0	0
5286	0	0	0
5287	0	0	0
5288	0	0	0
5289	0	0	0
5290	0	0	0
5291	0	0	0
5292	0	0	0
5293	0	0	0
5294	0	0	0
5295	0	0	0
5296	0	0	0
5297	0	0	0
5298	0	0	0
5299	0	0	0
5300	0	0	0
5301	0	0	0
5302	0	0	0
5303	0	0	0
5304	0	0	0
5305	0	0	0
5306	0	0	0
5307	0	0	0
5308	238	224	234
5309	237	217	234
5310	242	214	237
5311	241	204	234
5312	240	192	232
5313	239	181	234
5314	238	173	234
5315	239	169	231
5316	248	175	238
5317	234	153	224
5318	229	145	220
5319	229	142	219
5320	246	160	232
5321	246	161	229
5322	244	162	225
5323	236	155	217
5324	247	172	225
5325	242	172	218
5326	253	198	227
5327	255	219	231
5328	0	0	0
5329	0	0	0
5330	0	0	0
5331	0	0	0
5332	0	0	0
5333	0	0	0
5334	0	0	0
5335	0	0	0
5336	0	0	0
5337	0	0	0
5338	0	0	0
5339	0	0	0
5340	0	0	0
5341	0	0	0
5342	0	0	0
5343	0	0	0
5344	0	0	0
5345	0	0	0
5346	0	0	0
5347	0	0	0
5348	0	0	0
5349	0	0	0
5350	0	0	0
5351	0	0	0
5352	0	0	0
5353	0	0	0
5354	0	0	0
5355	0	0	0
5356	0	0	0
5357	0	0	0
5358	0	0	0
5359	0	0	0
5360	0	0	0
5361	0	0	0
5362	0	0	0
5363	0	0	0
5364	0	0	0
5365	0	0	0
5366	0	0	0
5367	0	0	0
5368	0	0	0
5369	245	231	244
5370	241	218	239
5371	239	207	234
5372	238	197	232
5373	237	186	233
5374	242	186	239
5375	244	182	238
5376	239	167	231
5377	227	146	218
5378	230	150	223
5379	230	147	222
5380	245	160	231
5381	247	163	230
5382	242	160	225
5383	235	153	218
5384	240	164	222
5385	236	165	217
5386	251	193	229
5387	255	214	231
5388	0	0	0
5389	0	0	0
5390	0	0	0
5391	0	0	0
5392	0	0	0
5393	0	0	0
5394	0	0	0
5395	0	0	0
5396	0	0	0
5397	0	0	0
5398	0	0	0
5399	0	0	0
5400	0	0	0
5401	0	0	0
5402	0	0	0
5403	0	0	0
5404	0	0	0
5405	0	0	0
5406	0	0	0
5407	0	0	0
5408	0	0	0
5409	0	0	0
5410	0	0	0
5411	0	0	0
5412	0	0	0
5413	0	0	0
5414	0	0	0
5415	0	0	0
5416	0	0	0
5417	0	0	0
5418	0	0	0
5419	0	0	0
5420	0	0	0
5421	0	0	0
5422	0	0	0
5423	0	0	0
5424	0	0	0
5425	0	0	0
5426	0	0	0
5427	0	0	0
5428	0	0	0
5429	0	0	0
5430	239	221	238
5431	240	217	236
5432	237	205	233
5433	238	197	234
5434	246	199	241
5435	241	183	235
5436	234	168	229
5437	230	156	225
5438	237	163	232
5439	232	151	224
5440	245	164	233
5441	242	157	227
5442	241	157	225
5443	238	156	222
5444	237	164	223
5445	236	169	222
5446	255	199	237
5447	254	204	228
5448	0	0	0
5449	0	0	0
5450	0	0	0
5451	0	0	0
5452	0	0	0
5453	0	0	0
5454	0	0	0
5455	0	0	0
5456	0	0	0
5457	0	0	0
5458	0	0	0
5459	0	0	0
5460	0	0	0
5461	0	0	0
5462	0	0	0
5463	0	0	0
5464	0	0	0
5465	0	0	0
5466	0	0	0
5467	0	0	0
5468	0	0	0
5469	0	0	0
5470	0	0	0
5471	0	0	0
5472	0	0	0
5473	0	0	0
5474	0	0	0
5475	0	0	0
5476	0	0	0
5477	0	0	0
5478	0	0	0
5479	0	0	0
5480	0	0	0
5481	0	0	0
5482	0	0	0
5483	0	0	0
5484	0	0	0
5485	0	0	0
5486	0	0	0
5487	0	0	0
5488	0	0	0
5489	0	0	0
5490	0	0	0
5491	246	230	240
5492	240	218	234
5493	239	208	232
5494	238	196	231
5495	234	183	231
5496	236	177	234
5497	233	166	231
5498	233	161	231
5499	228	150	223
5500	232	151	225
5501	230	145	221
5502	238	155	226
5503	235	154	221
5504	236	164	223
5505	237	170	224
5506	251	187	232
5507	250	193	225
5508	255	215	231
5509	0	0	0
5510	0	0	0
5511	0	0	0
5512	0	0	0
5513	0	0	0
5514	0	0	0
5515	0	0	0
5516	0	0	0
5517	0	0	0
5518	0	0	0
5519	0	0	0
5520	0	0	0
5521	0	0	0
5522	0	0	0
5523	0	0	0
5524	0	0	0
5525	0	0	0
5526	0	0	0
5527	0	0	0
5528	0	0	0
5529	0	0	0
5530	0	0	0
5531	0	0	0
5532	0	0	0
5533	0	0	0
5534	0	0	0
5535	0	0	0
5536	0	0	0
5537	0	0	0
5538	0	0	0
5539	0	0	0
5540	0	0	0
5541	0	0	0
5542	0	0	0
5543	0	0	0
5544	0	0	0
5545	0	0	0
5546	0	0	0
5547	0	0	0
5548	0	0	0
5549	0	0	0
5550	0	0	0
5551	249	237	242
5552	241	223	234
5553	237	211	229
5554	232	198	227
5555	232	188	231
5556	238	185	237
5557	235	174	235
5558	236	170	234
5559	232	160	229
5560	234	160	229
5561	232	155	227
5562	239	165	232
5563	232	156	221
5564	240	169	228
5565	244	175	230
5566	255	193	238
5567	250	188	225
5568	255	210	230
5569	255	221	229
5570	0	0	0
5571	0	0	0
5572	0	0	0
5573	0	0	0
5574	0	0	0
5575	0	0	0
5576	0	0	0
5577	0	0	0
5578	0	0	0
5579	0	0	0
5580	0	0	0
5581	0	0	0
5582	0	0	0
5583	0	0	0
5584	0	0	0
5585	0	0	0
5586	0	0	0
5587	0	0	0
5588	0	0	0
5589	0	0	0
5590	0	0	0
5591	0	0	0
5592	0	0	0
5593	0	0	0
5594	0	0	0
5595	0	0	0
5596	0	0	0
5597	0	0	0
5598	0	0	0
5599	0	0	0
5600	0	0	0
5601	0	0	0
5602	0	0	0
5603	0	0	0
5604	0	0	0
5605	0	0	0
5606	0	0	0
5607	0	0	0
5608	0	0	0
5609	0	0	0
5610	0	0	0
5611	0	0	0
5612	243	229	237
5613	237	217	233
5614	230	203	230
5615	229	193	231
5616	234	189	236
5617	233	179	233
5618	238	177	236
5619	235	169	232
5620	236	168	233
5621	234	164	231
5622	236	164	231
5623	231	157	222
5624	240	168	229
5625	245	175	231
5626	250	180	230
5627	243	176	217
5628	251	193	220
5629	251	204	220
5630	0	0	0
5631	0	0	0
5632	0	0	0
5633	0	0	0
5634	0	0	0
5635	0	0	0
5636	0	0	0
5637	0	0	0
5638	0	0	0
5639	0	0	0
5640	0	0	0
5641	0	0	0
5642	0	0	0
5643	0	0	0
5644	0	0	0
5645	0	0	0
5646	0	0	0
5647	0	0	0
5648	0	0	0
5649	0	0	0
5650	0	0	0
5651	0	0	0
5652	0	0	0
5653	0	0	0
5654	0	0	0
5655	0	0	0
5656	0	0	0
5657	0	0	0
5658	0	0	0
5659	0	0	0
5660	0	0	0
5661	0	0	0
5662	0	0	0
5663	0	0	0
5664	0	0	0
5665	0	0	0
5666	0	0	0
5667	0	0	0
5668	0	0	0
5669	0	0	0
5670	0	0	0
5671	0	0	0
5672	0	0	0
5673	240	227	238
5674	0	0	0
5675	230	205	235
5676	234	200	238
5677	229	182	231
5678	240	184	237
5679	236	172	233
5680	239	173	235
5681	240	171	235
5682	243	172	236
5683	235	160	226
5684	244	172	233
5685	246	177	233
5686	249	181	231
5687	245	178	221
5688	255	197	228
5689	248	194	218
5690	0	0	0
5691	0	0	0
5692	0	0	0
5693	0	0	0
5694	0	0	0
5695	0	0	0
5696	0	0	0
5697	0	0	0
5698	0	0	0
5699	0	0	0
5700	0	0	0
5701	0	0	0
5702	0	0	0
5703	0	0	0
5704	0	0	0
5705	0	0	0
5706	0	0	0
5707	0	0	0
5708	0	0	0
5709	0	0	0
5710	0	0	0
5711	0	0	0
5712	0	0	0
5713	0	0	0
5714	0	0	0
5715	0	0	0
5716	0	0	0
5717	0	0	0
5718	0	0	0
5719	0	0	0
5720	0	0	0
5721	0	0	0
5722	0	0	0
5723	0	0	0
5724	0	0	0
5725	0	0	0
5726	0	0	0
5727	0	0	0
5728	0	0	0
5729	0	0	0
5730	0	0	0
5731	0	0	0
5732	0	0	0
5733	0	0	0
5734	0	0	0
5735	234	216	236
5736	228	200	231
5737	224	184	226
5738	233	182	232
5739	230	171	229
5740	234	173	233
5741	235	171	232
5742	235	167	230
5743	229	156	224
5744	239	168	231
5745	241	172	229
5746	241	174	226
5747	240	174	221
5748	248	183	224
5749	241	181	215
5750	0	0	0
5751	0	0	0
5752	0	0	0
5753	0	0	0
5754	0	0	0
5755	0	0	0
5756	0	0	0
5757	0	0	0
5758	0	0	0
5759	0	0	0
5760	0	0	0
5761	0	0	0
5762	0	0	0
5763	0	0	0
5764	0	0	0
5765	0	0	0
5766	0	0	0
5767	0	0	0
5768	0	0	0
5769	0	0	0
5770	0	0	0
5771	0	0	0
5772	0	0	0
5773	0	0	0
5774	0	0	0
5775	0	0	0
5776	0	0	0
5777	0	0	0
5778	0	0	0
5779	0	0	0
5780	0	0	0
5781	0	0	0
5782	0	0	0
5783	0	0	0
5784	0	0	0
5785	0	0	0
5786	0	0	0
5787	0	0	0
5788	0	0	0
5789	0	0	0
5790	0	0	0
5791	0	0	0
5792	0	0	0
5793	0	0	0
5794	0	0	0
5795	237	224	237
5796	227	207	231
5797	223	192	228
5798	231	190	234
5799	226	177	230
5800	229	179	233
5801	229	176	232
5802	230	172	231
5803	228	164	228
5804	241	179	237
5805	236	171	228
5806	235	173	226
5807	238	175	225
5808	248	187	230
5809	243	182	221
5810	255	210	235
5811	0	0	0
5812	0	0	0
5813	0	0	0
5814	0	0	0
5815	0	0	0
5816	0	0	0
5817	0	0	0
5818	0	0	0
5819	0	0	0
5820	0	0	0
5821	0	0	0
5822	0	0	0
5823	0	0	0
5824	0	0	0
5825	0	0	0
5826	0	0	0
5827	0	0	0
5828	0	0	0
5829	0	0	0
5830	0	0	0
5831	0	0	0
5832	0	0	0
5833	0	0	0
5834	0	0	0
5835	0	0	0
5836	0	0	0
5837	0	0	0
5838	0	0	0
5839	0	0	0
5840	0	0	0
5841	0	0	0
5842	0	0	0
5843	0	0	0
5844	0	0	0
5845	0	0	0
5846	0	0	0
5847	0	0	0
5848	0	0	0
5849	0	0	0
5850	0	0	0
5851	0	0	0
5852	0	0	0
5853	0	0	0
5854	0	0	0
5855	0	0	0
5856	231	216	234
5857	226	202	233
5858	232	198	237
5859	228	185	232
5860	230	186	235
5861	231	184	236
5862	232	180	236
5863	230	173	231
5864	234	174	233
5865	230	167	227
5866	232	171	227
5867	234	173	226
5868	242	181	229
5869	239	177	221
5870	250	197	229
5871	250	207	230
5872	0	0	0
5873	0	0	0
5874	0	0	0
5875	0	0	0
5876	0	0	0
5877	0	0	0
5878	0	0	0
5879	0	0	0
5880	0	0	0
5881	0	0	0
5882	0	0	0
5883	0	0	0
5884	0	0	0
5885	0	0	0
5886	0	0	0
5887	0	0	0
5888	0	0	0
5889	0	0	0
5890	0	0	0
5891	0	0	0
5892	0	0	0
5893	0	0	0
5894	0	0	0
5895	0	0	0
5896	0	0	0
5897	0	0	0
5898	0	0	0
5899	0	0	0
5900	0	0	0
5901	0	0	0
5902	0	0	0
5903	0	0	0
5904	0	0	0
5905	0	0	0
5906	0	0	0
5907	0	0	0
5908	0	0	0
5909	0	0	0
5910	0	0	0
5911	0	0	0
5912	0	0	0
5913	0	0	0
5914	0	0	0
5915	0	0	0
5916	0	0	0
5917	235	217	239
5918	243	214	244
5919	235	194	235
5920	240	197	241
5921	236	187	238
5922	234	182	236
5923	233	178	233
5924	238	180	235
5925	236	176	232
5926	238	181	234
5927	235	176	230
5928	243	183	232
5929	240	181	226
5930	251	200	234
5931	248	205	230
5932	0	0	0
5933	0	0	0
5934	0	0	0
5935	0	0	0
5936	0	0	0
5937	0	0	0
5938	0	0	0
5939	0	0	0
5940	0	0	0
5941	0	0	0
5942	0	0	0
5943	0	0	0
5944	0	0	0
5945	0	0	0
5946	0	0	0
5947	0	0	0
5948	0	0	0
5949	0	0	0
5950	0	0	0
5951	0	0	0
5952	0	0	0
5953	0	0	0
5954	0	0	0
5955	0	0	0
5956	0	0	0
5957	0	0	0
5958	0	0	0
5959	0	0	0
5960	0	0	0
5961	0	0	0
5962	0	0	0
5963	0	0	0
5964	0	0	0
5965	0	0	0
5966	0	0	0
5967	0	0	0
5968	0	0	0
5969	0	0	0
5970	0	0	0
5971	0	0	0
5972	0	0	0
5973	0	0	0
5974	0	0	0
5975	0	0	0
5976	0	0	0
5977	246	234	246
5978	241	217	239
5979	234	198	231
5980	237	195	236
5981	233	186	234
5982	233	184	236
5983	232	180	233
5984	238	184	236
5985	237	181	231
5986	238	181	231
5987	238	179	231
5988	246	186	236
5989	245	185	229
5990	252	198	233
5991	250	203	229
5992	255	218	234
5993	0	0	0
5994	0	0	0
5995	0	0	0
5996	0	0	0
5997	0	0	0
5998	0	0	0
5999	0	0	0
6000	0	0	0
6001	0	0	0
6002	0	0	0
6003	0	0	0
6004	0	0	0
6005	0	0	0
6006	0	0	0
6007	0	0	0
6008	0	0	0
6009	0	0	0
6010	0	0	0
6011	0	0	0
6012	0	0	0
6013	0	0	0
6014	0	0	0
6015	0	0	0
6016	0	0	0
6017	0	0	0
6018	0	0	0
6019	0	0	0
6020	0	0	0
6021	0	0	0
6022	0	0	0
6023	0	0	0
6024	0	0	0
6025	0	0	0
6026	0	0	0
6027	0	0	0
6028	0	0	0
6029	0	0	0
6030	0	0	0
6031	0	0	0
6032	0	0	0
6033	0	0	0
6034	0	0	0
6035	0	0	0
6036	0	0	0
6037	245	233	241
6038	232	211	229
6039	229	201	227
6040	234	199	233
6041	232	192	234
6042	234	192	237
6043	233	188	235
6044	238	191	237
6045	231	175	225
6046	239	180	230
6047	243	179	234
6048	252	187	239
6049	250	185	232
6050	255	198	235
6051	248	193	227
6052	255	210	232
6053	255	219	232
6054	0	0	0
6055	0	0	0
6056	0	0	0
6057	0	0	0
6058	0	0	0
6059	0	0	0
6060	0	0	0
6061	0	0	0
6062	0	0	0
6063	0	0	0
6064	0	0	0
6065	0	0	0
6066	0	0	0
6067	0	0	0
6068	0	0	0
6069	0	0	0
6070	0	0	0
6071	0	0	0
6072	0	0	0
6073	0	0	0
6074	0	0	0
6075	0	0	0
6076	0	0	0
6077	0	0	0
6078	0	0	0
6079	0	0	0
6080	0	0	0
6081	0	0	0
6082	0	0	0
6083	0	0	0
6084	0	0	0
6085	0	0	0
6086	0	0	0
6087	0	0	0
6088	0	0	0
6089	0	0	0
6090	0	0	0
6091	0	0	0
6092	0	0	0
6093	0	0	0
6094	0	0	0
6095	0	0	0
6096	0	0	0
6097	0	0	0
6098	232	218	230
6099	228	207	227
6100	235	206	232
6101	234	199	233
6102	236	198	237
6103	234	194	235
6104	228	182	228
6105	223	169	221
6106	234	175	229
6107	238	174	231
6108	245	179	234
6109	244	177	227
6110	243	180	224
6111	238	177	217
6112	244	191	223
6113	244	200	222
6114	0	0	0
6115	0	0	0
6116	0	0	0
6117	0	0	0
6118	0	0	0
6119	0	0	0
6120	0	0	0
6121	0	0	0
6122	0	0	0
6123	0	0	0
6124	0	0	0
6125	0	0	0
6126	0	0	0
6127	0	0	0
6128	0	0	0
6129	0	0	0
6130	0	0	0
6131	0	0	0
6132	0	0	0
6133	0	0	0
6134	0	0	0
6135	0	0	0
6136	0	0	0
6137	0	0	0
6138	0	0	0
6139	0	0	0
6140	0	0	0
6141	0	0	0
6142	0	0	0
6143	0	0	0
6144	0	0	0
6145	0	0	0
6146	0	0	0
6147	0	0	0
6148	0	0	0
6149	0	0	0
6150	0	0	0
6151	0	0	0
6152	0	0	0
6153	0	0	0
6154	0	0	0
6155	0	0	0
6156	0	0	0
6157	0	0	0
6158	0	0	0
6159	233	218	231
6160	243	219	238
6161	235	201	232
6162	235	199	234
6163	231	192	231
6164	224	180	226
6165	227	179	230
6166	236	184	236
6167	235	178	233
6168	242	183	235
6169	239	179	228
6170	243	184	227
6171	244	188	226
6172	251	203	232
6173	246	202	226
6174	0	0	0
6175	0	0	0
6176	0	0	0
6177	0	0	0
6178	0	0	0
6179	0	0	0
6180	0	0	0
6181	0	0	0
6182	0	0	0
6183	0	0	0
6184	0	0	0
6185	0	0	0
6186	0	0	0
6187	0	0	0
6188	0	0	0
6189	0	0	0
6190	0	0	0
6191	0	0	0
6192	0	0	0
6193	0	0	0
6194	0	0	0
6195	0	0	0
6196	0	0	0
6197	0	0	0
6198	0	0	0
6199	0	0	0
6200	0	0	0
6201	0	0	0
6202	0	0	0
6203	0	0	0
6204	0	0	0
6205	0	0	0
6206	0	0	0
6207	0	0	0
6208	0	0	0
6209	0	0	0
6210	0	0	0
6211	0	0	0
6212	0	0	0
6213	0	0	0
6214	0	0	0
6215	0	0	0
6216	0	0	0
6217	0	0	0
6218	0	0	0
6219	242	232	239
6220	245	222	239
6221	237	204	232
6222	235	200	234
6223	232	193	232
6224	233	192	235
6225	236	191	240
6226	241	192	242
6227	238	184	235
6228	239	185	234
6229	239	183	231
6230	249	194	235
6231	251	197	230
6232	251	201	229
6233	0	0	0
6234	0	0	0
6235	251	224	231
6236	254	235	235
6237	0	0	0
6238	0	0	0
6239	0	0	0
6240	0	0	0
6241	0	0	0
6242	0	0	0
6243	0	0	0
6244	0	0	0
6245	0	0	0
6246	0	0	0
6247	0	0	0
6248	0	0	0
6249	0	0	0
6250	0	0	0
6251	0	0	0
6252	0	0	0
6253	0	0	0
6254	0	0	0
6255	0	0	0
6256	0	0	0
6257	0	0	0
6258	0	0	0
6259	0	0	0
6260	0	0	0
6261	0	0	0
6262	0	0	0
6263	0	0	0
6264	0	0	0
6265	0	0	0
6266	0	0	0
6267	0	0	0
6268	0	0	0
6269	0	0	0
6270	0	0	0
6271	0	0	0
6272	0	0	0
6273	0	0	0
6274	0	0	0
6275	0	0	0
6276	0	0	0
6277	0	0	0
6278	0	0	0
6279	240	229	236
6280	242	218	235
6281	234	199	229
6282	234	196	232
6283	236	196	235
6284	240	196	240
6285	241	192	241
6286	245	192	243
6287	234	176	230
6288	232	176	228
6289	241	185	234
6290	255	198	241
6291	248	188	226
6292	247	192	223
6293	253	207	231
6294	255	221	236
6295	251	218	229
6296	255	230	234
6297	255	240	239
6298	0	0	0
6299	0	0	0
6300	0	0	0
6301	0	0	0
6302	0	0	0
6303	0	0	0
6304	0	0	0
6305	0	0	0
6306	0	0	0
6307	0	0	0
6308	0	0	0
6309	0	0	0
6310	0	0	0
6311	0	0	0
6312	0	0	0
6313	0	0	0
6314	0	0	0
6315	0	0	0
6316	0	0	0
6317	0	0	0
6318	0	0	0
6319	0	0	0
6320	0	0	0
6321	0	0	0
6322	0	0	0
6323	0	0	0
6324	0	0	0
6325	0	0	0
6326	0	0	0
6327	0	0	0
6328	0	0	0
6329	0	0	0
6330	0	0	0
6331	0	0	0
6332	0	0	0
6333	0	0	0
6334	0	0	0
6335	0	0	0
6336	0	0	0
6337	0	0	0
6338	0	0	0
6339	239	227	235
6340	235	211	230
6341	227	191	223
6342	233	195	231
6343	237	197	237
6344	241	195	239
6345	241	189	238
6346	237	180	233
6347	227	166	224
6348	234	177	231
6349	243	186	237
6350	249	187	236
6351	243	179	225
6352	252	196	231
6353	255	210	233
6354	253	210	228
6355	248	209	226
6356	251	219	229
6357	253	227	231
6358	0	0	0
6359	0	0	0
6360	0	0	0
6361	0	0	0
6362	0	0	0
6363	0	0	0
6364	0	0	0
6365	0	0	0
6366	0	0	0
6367	0	0	0
6368	0	0	0
6369	0	0	0
6370	0	0	0
6371	0	0	0
6372	0	0	0
6373	0	0	0
6374	0	0	0
6375	0	0	0
6376	0	0	0
6377	0	0	0
6378	0	0	0
6379	0	0	0
6380	0	0	0
6381	0	0	0
6382	0	0	0
6383	0	0	0
6384	0	0	0
6385	0	0	0
6386	0	0	0
6387	0	0	0
6388	0	0	0
6389	0	0	0
6390	0	0	0
6391	0	0	0
6392	0	0	0
6393	0	0	0
6394	0	0	0
6395	0	0	0
6396	0	0	0
6397	0	0	0
6398	0	0	0
6399	242	230	238
6400	233	211	229
6401	231	203	230
6402	239	208	239
6403	243	206	241
6404	250	205	245
6405	241	188	236
6406	232	176	230
6407	234	177	232
6408	246	192	242
6409	245	187	238
6410	247	185	235
6411	248	187	232
6412	255	206	240
6413	251	199	228
6414	245	199	223
6415	247	207	226
6416	252	217	230
6417	252	223	230
6418	0	0	0
6419	0	0	0
6420	0	0	0
6421	0	0	0
6422	0	0	0
6423	0	0	0
6424	0	0	0
6425	0	0	0
6426	0	0	0
6427	0	0	0
6428	0	0	0
6429	0	0	0
6430	0	0	0
6431	0	0	0
6432	0	0	0
6433	0	0	0
6434	0	0	0
6435	0	0	0
6436	0	0	0
6437	0	0	0
6438	0	0	0
6439	0	0	0
6440	0	0	0
6441	0	0	0
6442	0	0	0
6443	0	0	0
6444	0	0	0
6445	0	0	0
6446	0	0	0
6447	0	0	0
6448	0	0	0
6449	0	0	0
6450	0	0	0
6451	0	0	0
6452	0	0	0
6453	0	0	0
6454	0	0	0
6455	0	0	0
6456	0	0	0
6457	0	0	0
6458	0	0	0
6459	248	236	242
6460	242	225	238
6461	238	216	237
6462	241	214	239
6463	246	212	240
6464	247	201	238
6465	239	184	232
6466	237	185	235
6467	239	187	237
6468	242	186	237
6469	239	180	232
6470	244	186	233
6471	246	188	230
6472	248	190	229
6473	243	187	224
6474	245	196	226
6475	246	203	226
6476	250	212	228
6477	252	219	230
6478	255	232	235
6479	0	0	0
6480	0	0	0
6481	0	0	0
6482	0	0	0
6483	0	0	0
6484	0	0	0
6485	0	0	0
6486	0	0	0
6487	0	0	0
6488	0	0	0
6489	0	0	0
6490	0	0	0
6491	0	0	0
6492	0	0	0
6493	0	0	0
6494	0	0	0
6495	0	0	0
6496	0	0	0
6497	0	0	0
6498	0	0	0
6499	0	0	0
6500	0	0	0
6501	0	0	0
6502	0	0	0
6503	0	0	0
6504	0	0	0
6505	0	0	0
6506	0	0	0
6507	0	0	0
6508	0	0	0
6509	0	0	0
6510	0	0	0
6511	0	0	0
6512	0	0	0
6513	0	0	0
6514	0	0	0
6515	0	0	0
6516	0	0	0
6517	0	0	0
6518	0	0	0
6519	252	239	244
6520	244	227	239
6521	237	215	234
6522	237	211	234
6523	244	212	237
6524	249	203	237
6525	242	188	232
6526	239	188	234
6527	245	197	241
6528	247	196	241
6529	241	186	233
6530	244	192	234
6531	249	197	234
6532	255	202	237
6533	249	192	229
6534	252	202	233
6535	253	209	231
6536	255	218	233
6537	252	215	229
6538	255	227	234
6539	255	236	235
6540	0	0	0
6541	0	0	0
6542	0	0	0
6543	0	0	0
6544	0	0	0
6545	0	0	0
6546	0	0	0
6547	0	0	0
6548	0	0	0
6549	0	0	0
6550	0	0	0
6551	0	0	0
6552	0	0	0
6553	0	0	0
6554	0	0	0
6555	0	0	0
6556	0	0	0
6557	0	0	0
6558	0	0	0
6559	0	0	0
6560	0	0	0
6561	0	0	0
6562	0	0	0
6563	0	0	0
6564	0	0	0
6565	0	0	0
6566	0	0	0
6567	0	0	0
6568	0	0	0
6569	0	0	0
6570	0	0	0
6571	0	0	0
6572	0	0	0
6573	0	0	0
6574	0	0	0
6575	0	0	0
6576	0	0	0
6577	0	0	0
6578	0	0	0
6579	0	0	0
6580	243	227	236
6581	236	214	233
6582	238	213	235
6583	245	214	239
6584	247	204	236
6585	239	188	227
6586	246	198	236
6587	252	207	242
6588	249	201	239
6589	243	192	234
6590	245	198	236
6591	250	203	237
6592	253	200	233
6593	247	190	224
6594	253	202	229
6595	255	210	231
6596	255	212	230
6597	250	209	226
6598	253	220	230
6599	255	228	231
6600	0	0	0
6601	0	0	0
6602	0	0	0
6603	0	0	0
6604	0	0	0
6605	0	0	0
6606	0	0	0
6607	0	0	0
6608	0	0	0
6609	0	0	0
6610	0	0	0
6611	0	0	0
6612	0	0	0
6613	0	0	0
6614	0	0	0
6615	0	0	0
6616	0	0	0
6617	0	0	0
6618	0	0	0
6619	0	0	0
6620	0	0	0
6621	0	0	0
6622	0	0	0
6623	0	0	0
6624	0	0	0
6625	0	0	0
6626	0	0	0
6627	0	0	0
6628	0	0	0
6629	0	0	0
6630	0	0	0
6631	0	0	0
6632	0	0	0
6633	0	0	0
6634	0	0	0
6635	0	0	0
6636	0	0	0
6637	0	0	0
6638	0	0	0
6639	0	0	0
6640	0	0	0
6641	242	224	237
6642	247	225	242
6643	244	214	236
6644	238	199	229
6645	240	197	230
6646	255	212	243
6647	252	204	236
6648	246	196	231
6649	246	198	234
6650	246	203	237
6651	244	199	233
6652	247	196	230
6653	248	194	226
6654	255	207	234
6655	254	205	229
6656	253	207	228
6657	252	208	227
6658	255	220	231
6659	253	221	228
6660	0	0	0
6661	0	0	0
6662	0	0	0
6663	0	0	0
6664	0	0	0
6665	0	0	0
6666	0	0	0
6667	0	0	0
6668	0	0	0
6669	0	0	0
6670	0	0	0
6671	0	0	0
6672	0	0	0
6673	0	0	0
6674	0	0	0
6675	0	0	0
6676	0	0	0
6677	0	0	0
6678	0	0	0
6679	0	0	0
6680	0	0	0
6681	0	0	0
6682	0	0	0
6683	0	0	0
6684	0	0	0
6685	0	0	0
6686	0	0	0
6687	0	0	0
6688	0	0	0
6689	0	0	0
6690	0	0	0
6691	0	0	0
6692	0	0	0
6693	0	0	0
6694	0	0	0
6695	0	0	0
6696	0	0	0
6697	0	0	0
6698	0	0	0
6699	0	0	0
6700	0	0	0
6701	250	235	244
6702	250	227	241
6703	245	215	234
6704	243	211	233
6705	247	210	238
6706	251	208	239
6707	248	200	231
6708	250	203	233
6709	251	205	235
6710	245	200	233
6711	243	197	232
6712	250	200	236
6713	251	199	234
6714	253	201	233
6715	250	199	227
6716	252	204	228
6717	251	205	227
6718	254	212	228
6719	250	214	224
6720	0	0	0
6721	0	0	0
6722	0	0	0
6723	0	0	0
6724	0	0	0
6725	0	0	0
6726	0	0	0
6727	0	0	0
6728	0	0	0
6729	0	0	0
6730	0	0	0
6731	0	0	0
6732	0	0	0
6733	0	0	0
6734	0	0	0
6735	0	0	0
6736	0	0	0
6737	0	0	0
6738	0	0	0
6739	0	0	0
6740	0	0	0
6741	0	0	0
6742	0	0	0
6743	0	0	0
6744	0	0	0
6745	0	0	0
6746	0	0	0
6747	0	0	0
6748	0	0	0
6749	0	0	0
6750	0	0	0
6751	0	0	0
6752	0	0	0
6753	0	0	0
6754	0	0	0
6755	0	0	0
6756	0	0	0
6757	0	0	0
6758	0	0	0
6759	0	0	0
6760	0	0	0
6761	248	231	240
6762	246	222	236
6763	244	214	231
6764	243	210	232
6765	248	213	238
6766	249	209	237
6767	252	208	234
6768	255	213	238
6769	254	207	235
6770	252	204	235
6771	250	200	235
6772	254	202	238
6773	254	202	237
6774	255	204	237
6775	253	202	232
6776	255	207	233
6777	251	203	227
6778	253	210	228
6779	249	210	224
6780	0	0	0
6781	0	0	0
6782	0	0	0
6783	0	0	0
6784	0	0	0
6785	0	0	0
6786	0	0	0
6787	0	0	0
6788	0	0	0
6789	0	0	0
6790	0	0	0
6791	0	0	0
6792	0	0	0
6793	0	0	0
6794	0	0	0
6795	0	0	0
6796	0	0	0
6797	0	0	0
6798	0	0	0
6799	0	0	0
6800	0	0	0
6801	0	0	0
6802	0	0	0
6803	0	0	0
6804	0	0	0
6805	0	0	0
6806	0	0	0
6807	0	0	0
6808	0	0	0
6809	0	0	0
6810	0	0	0
6811	0	0	0
6812	0	0	0
6813	0	0	0
6814	0	0	0
6815	0	0	0
6816	0	0	0
6817	0	0	0
6818	0	0	0
6819	0	0	0
6820	247	234	238
6821	245	226	236
6822	243	220	234
6823	241	212	231
6824	244	214	234
6825	247	215	237
6826	250	215	237
6827	253	215	235
6828	255	211	234
6829	254	206	232
6830	253	204	233
6831	251	200	233
6832	251	200	234
6833	251	200	233
6834	253	201	234
6835	252	200	232
6836	251	199	230
6837	246	196	224
6838	249	203	226
6839	245	204	222
6840	0	0	0
6841	0	0	0
6842	0	0	0
6843	0	0	0
6844	0	0	0
6845	0	0	0
6846	0	0	0
6847	0	0	0
6848	0	0	0
6849	0	0	0
6850	0	0	0
6851	0	0	0
6852	0	0	0
6853	0	0	0
6854	0	0	0
6855	0	0	0
6856	0	0	0
6857	0	0	0
6858	0	0	0
6859	0	0	0
6860	0	0	0
6861	0	0	0
6862	0	0	0
6863	0	0	0
6864	0	0	0
6865	0	0	0
6866	0	0	0
6867	0	0	0
6868	0	0	0
6869	0	0	0
6870	0	0	0
6871	0	0	0
6872	0	0	0
6873	0	0	0
6874	0	0	0
6875	0	0	0
6876	0	0	0
6877	0	0	0
6878	0	0	0
6879	0	0	0
6880	0	0	0
6881	245	228	236
6882	238	218	232
6883	240	218	234
6884	245	221	238
6885	245	218	236
6886	247	218	235
6887	247	213	232
6888	251	211	232
6889	253	208	232
6890	254	206	233
6891	250	200	231
6892	247	199	231
6893	254	208	237
6894	255	211	239
6895	251	200	232
6896	250	200	230
6897	254	206	231
6898	255	214	234
6899	246	203	224
6900	0	0	0
6901	0	0	0
6902	0	0	0
6903	0	0	0
6904	0	0	0
6905	0	0	0
6906	0	0	0
6907	0	0	0
6908	0	0	0
6909	0	0	0
6910	0	0	0
6911	0	0	0
6912	0	0	0
6913	0	0	0
6914	0	0	0
6915	0	0	0
6916	0	0	0
6917	0	0	0
6918	0	0	0
6919	0	0	0
6920	0	0	0
6921	0	0	0
6922	0	0	0
6923	0	0	0
6924	0	0	0
6925	0	0	0
6926	0	0	0
6927	0	0	0
6928	0	0	0
6929	0	0	0
6930	0	0	0
6931	0	0	0
6932	0	0	0
6933	0	0	0
6934	0	0	0
6935	0	0	0
6936	0	0	0
6937	0	0	0
6938	0	0	0
6939	0	0	0
6940	0	0	0
6941	246	230	238
6942	247	231	240
6943	248	230	241
6944	251	230	241
6945	251	227	239
6946	248	221	235
6947	249	217	236
6948	252	214	236
6949	252	210	233
6950	254	208	234
6951	250	202	232
6952	254	209	238
6953	255	219	244
6954	255	208	236
6955	248	197	229
6956	254	207	234
6957	255	213	233
6958	252	207	228
6959	243	198	223
6960	0	0	0
6961	0	0	0
6962	0	0	0
6963	0	0	0
6964	0	0	0
6965	0	0	0
6966	0	0	0
6967	0	0	0
6968	0	0	0
6969	0	0	0
6970	0	0	0
6971	0	0	0
6972	0	0	0
6973	0	0	0
6974	0	0	0
6975	0	0	0
6976	0	0	0
6977	0	0	0
6978	0	0	0
6979	0	0	0
6980	0	0	0
6981	0	0	0
6982	0	0	0
6983	0	0	0
6984	0	0	0
6985	0	0	0
6986	0	0	0
6987	0	0	0
6988	0	0	0
6989	0	0	0
6990	0	0	0
6991	0	0	0
6992	0	0	0
6993	0	0	0
6994	0	0	0
6995	0	0	0
6996	0	0	0
6997	0	0	0
6998	0	0	0
6999	0	0	0
7000	0	0	0
7001	0	0	0
7002	255	240	248
7003	249	223	237
7004	249	221	236
7005	250	221	234
7006	248	216	232
7007	254	220	239
7008	251	214	236
7009	249	208	232
7010	251	206	233
7011	248	200	232
7012	255	210	239
7013	255	216	242
7014	251	204	232
7015	254	208	235
7016	255	218	240
7017	254	209	230
7018	249	203	225
7019	254	210	232
7020	255	222	241
7021	0	0	0
7022	0	0	0
7023	0	0	0
7024	0	0	0
7025	0	0	0
7026	0	0	0
7027	0	0	0
7028	0	0	0
7029	0	0	0
7030	0	0	0
7031	0	0	0
7032	0	0	0
7033	0	0	0
7034	0	0	0
7035	0	0	0
7036	0	0	0
7037	0	0	0
7038	0	0	0
7039	0	0	0
7040	0	0	0
7041	0	0	0
7042	0	0	0
7043	0	0	0
7044	0	0	0
7045	0	0	0
7046	0	0	0
7047	0	0	0
7048	0	0	0
7049	0	0	0
7050	0	0	0
7051	0	0	0
7052	0	0	0
7053	0	0	0
7054	0	0	0
7055	0	0	0
7056	0	0	0
7057	0	0	0
7058	0	0	0
7059	0	0	0
7060	0	0	0
7061	0	0	0
7062	0	0	0
7063	0	0	0
7064	0	0	0
7065	244	213	231
7066	252	218	235
7067	255	222	239
7068	251	214	235
7069	247	207	231
7070	248	204	232
7071	247	199	232
7072	255	209	239
7073	255	215	240
7074	255	216	239
7075	255	220	241
7076	255	213	235
7077	251	205	229
7078	255	212	233
7079	255	217	237
7080	0	0	0
7081	0	0	0
7082	0	0	0
7083	0	0	0
7084	0	0	0
7085	0	0	0
7086	0	0	0
7087	0	0	0
7088	0	0	0
7089	0	0	0
7090	0	0	0
7091	0	0	0
7092	0	0	0
7093	0	0	0
7094	0	0	0
7095	0	0	0
7096	0	0	0
7097	0	0	0
7098	0	0	0
7099	0	0	0
7100	0	0	0
7101	0	0	0
7102	0	0	0
7103	0	0	0
7104	0	0	0
7105	0	0	0
7106	0	0	0
7107	0	0	0
7108	0	0	0
7109	0	0	0
7110	0	0	0
7111	0	0	0
7112	0	0	0
7113	0	0	0
7114	0	0	0
7115	0	0	0
7116	0	0	0
7117	0	0	0
7118	0	0	0
7119	0	0	0
7120	0	0	0
7121	0	0	0
7122	0	0	0
7123	0	0	0
7124	0	0	0
7125	246	220	236
7126	255	226	241
7127	254	219	237
7128	249	212	233
7129	247	207	231
7130	246	204	231
7131	255	213	240
7132	255	222	247
7133	253	208	235
7134	253	209	234
7135	255	214	236
7136	252	208	231
7137	253	208	232
7138	255	215	237
7139	255	213	233
7140	0	0	0
7141	0	0	0
7142	0	0	0
7143	0	0	0
7144	0	0	0
7145	0	0	0
7146	0	0	0
7147	0	0	0
7148	0	0	0
7149	0	0	0
7150	0	0	0
7151	0	0	0
7152	0	0	0
7153	0	0	0
7154	0	0	0
7155	0	0	0
7156	0	0	0
7157	0	0	0
7158	0	0	0
7159	0	0	0
7160	0	0	0
7161	0	0	0
7162	0	0	0
7163	0	0	0
7164	0	0	0
7165	0	0	0
7166	0	0	0
7167	0	0	0
7168	0	0	0
7169	0	0	0
7170	0	0	0
7171	0	0	0
7172	0	0	0
7173	0	0	0
7174	0	0	0
7175	0	0	0
7176	0	0	0
7177	0	0	0
7178	0	0	0
7179	0	0	0
7180	0	0	0
7181	0	0	0
7182	0	0	0
7183	0	0	0
7184	0	0	0
7185	0	0	0
7186	247	218	236
7187	245	211	231
7188	244	208	230
7189	243	204	229
7190	253	215	238
7191	255	224	244
7192	255	214	238
7193	247	201	228
7194	250	205	231
7195	253	210	233
7196	253	210	233
7197	254	210	234
7198	252	209	232
7199	250	207	228
7200	0	0	0
7201	0	0	0
7202	0	0	0
7203	0	0	0
7204	0	0	0
7205	0	0	0
7206	0	0	0
7207	0	0	0
7208	0	0	0
7209	0	0	0
7210	0	0	0
7211	0	0	0
7212	0	0	0
7213	0	0	0
7214	0	0	0
7215	0	0	0
7216	0	0	0
7217	0	0	0
7218	0	0	0
7219	0	0	0
7220	0	0	0
7221	0	0	0
7222	0	0	0
7223	0	0	0
7224	0	0	0
7225	0	0	0
7226	0	0	0
7227	0	0	0
7228	0	0	0
7229	0	0	0
7230	0	0	0
7231	0	0	0
7232	0	0	0
7233	0	0	0
7234	0	0	0
7235	0	0	0
7236	0	0	0
7237	0	0	0
7238	0	0	0
7239	0	0	0
7240	0	0	0
7241	0	0	0
7242	0	0	0
7243	0	0	0
7244	0	0	0
7245	0	0	0
7246	0	0	0
7247	0	0	0
7248	0	0	0
7249	246	214	233
7250	255	226	244
7251	255	215	236
7252	250	205	230
7253	250	204	231
7254	253	209	235
7255	255	213	237
7256	254	212	236
7257	250	208	232
7258	246	206	229
7259	252	214	232
7260	0	0	0
7261	0	0	0
7262	0	0	0
7263	0	0	0
7264	0	0	0
7265	0	0	0
7266	0	0	0
7267	0	0	0
7268	0	0	0
7269	0	0	0
7270	0	0	0
7271	0	0	0
7272	0	0	0
7273	0	0	0
7274	0	0	0
7275	0	0	0
7276	0	0	0
7277	0	0	0
7278	0	0	0
7279	0	0	0
7280	0	0	0
7281	0	0	0
7282	0	0	0
7283	0	0	0
7284	0	0	0
7285	0	0	0
7286	0	0	0
7287	0	0	0
7288	0	0	0
7289	0	0	0
7290	0	0	0
7291	0	0	0
7292	0	0	0
7293	0	0	0
7294	0	0	0
7295	0	0	0
7296	0	0	0
7297	0	0	0
7298	0	0	0
7299	0	0	0
7300	0	0	0
7301	0	0	0
7302	0	0	0
7303	0	0	0
7304	0	0	0
7305	0	0	0
7306	0	0	0
7307	0	0	0
7308	0	0	0
7309	0	0	0
7310	249	214	232
7311	245	203	228
7312	248	205	232
7313	249	204	233
7314	252	210	238
7315	254	213	239
7316	251	210	235
7317	247	206	231
7318	251	214	234
7319	0	0	0
7320	0	0	0
7321	0	0	0
7322	0	0	0
7323	0	0	0
7324	0	0	0
7325	0	0	0
7326	0	0	0
7327	0	0	0
7328	0	0	0
7329	0	0	0
7330	0	0	0
7331	0	0	0
7332	0	0	0
7333	0	0	0
7334	0	0	0
7335	0	0	0
7336	0	0	0
7337	0	0	0
7338	0	0	0
7339	0	0	0
7340	0	0	0
7341	0	0	0
7342	0	0	0
7343	0	0	0
7344	0	0	0
7345	0	0	0
7346	0	0	0
7347	0	0	0
7348	0	0	0
7349	0	0	0
7350	0	0	0
7351	0	0	0
7352	0	0	0
7353	0	0	0
7354	0	0	0
7355	0	0	0
7356	0	0	0
7357	0	0	0
7358	0	0	0
7359	0	0	0
7360	0	0	0
7361	0	0	0
7362	0	0	0
7363	0	0	0
7364	0	0	0
7365	0	0	0
7366	0	0	0
7367	0	0	0
7368	0	0	0
7369	0	0	0
7370	0	0	0
7371	0	0	0
7372	0	0	0
7373	0	0	0
7374	255	219	242
7375	252	215	239
7376	249	211	235
7377	0	0	0
7378	0	0	0
7379	0	0	0
7380	0	0	0
