 	R	G	B
1	0	0	0
2	0	0	0
3	0	0	0
4	255	221	233
5	0	0	0
6	0	0	0
7	0	0	0
8	0	0	0
9	0	0	0
10	0	0	0
11	0	0	0
12	0	0	0
13	0	0	0
14	0	0	0
15	0	0	0
16	0	0	0
17	0	0	0
18	0	0	0
19	0	0	0
20	0	0	0
21	0	0	0
22	0	0	0
23	0	0	0
24	0	0	0
25	0	0	0
26	0	0	0
27	0	0	0
28	0	0	0
29	0	0	0
30	0	0	0
31	0	0	0
32	0	0	0
33	0	0	0
34	249	219	229
35	255	222	233
36	250	210	225
37	0	0	0
38	0	0	0
39	0	0	0
40	0	0	0
41	0	0	0
42	0	0	0
43	0	0	0
44	0	0	0
45	0	0	0
46	0	0	0
47	0	0	0
48	0	0	0
49	0	0	0
50	0	0	0
51	0	0	0
52	0	0	0
53	0	0	0
54	0	0	0
55	0	0	0
56	0	0	0
57	0	0	0
58	0	0	0
59	0	0	0
60	0	0	0
61	0	0	0
62	0	0	0
63	0	0	0
64	253	224	230
65	254	221	230
66	255	215	229
67	250	204	224
68	255	213	229
69	255	221	231
70	255	216	225
71	0	0	0
72	0	0	0
73	0	0	0
74	0	0	0
75	0	0	0
76	0	0	0
77	0	0	0
78	0	0	0
79	0	0	0
80	0	0	0
81	0	0	0
82	0	0	0
83	0	0	0
84	0	0	0
85	0	0	0
86	0	0	0
87	0	0	0
88	0	0	0
89	0	0	0
90	0	0	0
91	0	0	0
92	0	0	0
93	0	0	0
94	254	221	229
95	255	221	230
96	251	206	222
97	250	200	220
98	251	199	222
99	255	210	229
100	255	208	224
101	255	202	218
102	250	196	213
103	0	0	0
104	0	0	0
105	0	0	0
106	0	0	0
107	0	0	0
108	0	0	0
109	0	0	0
110	0	0	0
111	0	0	0
112	0	0	0
113	0	0	0
114	0	0	0
115	0	0	0
116	0	0	0
117	0	0	0
118	0	0	0
119	0	0	0
120	0	0	0
121	0	0	0
122	0	0	0
123	0	0	0
124	0	0	0
125	0	0	0
126	246	201	218
127	241	188	213
128	250	194	219
129	251	194	217
130	255	197	220
131	255	196	220
132	252	192	218
133	249	187	216
134	254	195	220
135	255	199	217
136	0	0	0
137	0	0	0
138	255	211	226
139	0	0	0
140	0	0	0
141	0	0	0
142	0	0	0
143	0	0	0
144	0	0	0
145	0	0	0
146	0	0	0
147	0	0	0
148	0	0	0
149	0	0	0
150	0	0	0
151	0	0	0
152	0	0	0
153	0	0	0
154	0	0	0
155	0	0	0
156	0	0	0
157	0	0	0
158	250	199	222
159	255	207	230
160	251	188	215
161	254	191	218
162	251	184	216
163	249	181	216
164	253	188	221
165	255	195	224
166	254	193	217
167	255	197	217
168	255	200	220
169	255	202	222
170	252	196	217
171	0	0	0
172	0	0	0
173	0	0	0
174	0	0	0
175	0	0	0
176	0	0	0
177	0	0	0
178	0	0	0
179	0	0	0
180	0	0	0
181	0	0	0
182	0	0	0
183	0	0	0
184	0	0	0
185	0	0	0
186	0	0	0
187	0	0	0
188	255	216	232
189	255	207	229
190	255	196	224
191	246	178	210
192	247	176	211
193	244	170	210
194	252	180	218
195	255	186	221
196	255	187	220
197	253	186	216
198	255	189	217
199	255	192	219
200	250	186	213
201	244	180	207
202	253	194	216
203	255	205	221
204	254	207	220
205	0	0	0
206	0	0	0
207	0	0	0
208	0	0	0
209	0	0	0
210	0	0	0
211	0	0	0
212	0	0	0
213	0	0	0
214	0	0	0
215	0	0	0
216	0	0	0
217	0	0	0
218	255	223	235
219	255	216	232
220	252	195	221
221	250	184	216
222	247	175	213
223	249	174	215
224	252	176	218
225	255	187	226
226	251	174	216
227	251	176	215
228	254	181	218
229	255	185	220
230	253	182	216
231	245	175	209
232	250	185	214
233	255	199	223
234	254	194	216
235	255	198	219
236	251	199	220
237	0	0	0
238	0	0	0
239	0	0	0
240	0	0	0
241	0	0	0
242	0	0	0
243	0	0	0
244	0	0	0
245	0	0	0
246	0	0	0
247	0	0	0
248	0	0	0
249	255	217	229
250	248	197	218
251	240	177	207
252	243	175	211
253	243	169	213
254	252	176	222
255	255	178	221
256	253	172	218
257	245	161	211
258	253	171	220
259	255	178	224
260	255	176	220
261	251	173	215
262	253	180	217
263	255	190	224
264	254	187	221
265	249	182	215
266	250	186	217
267	246	186	215
268	0	0	0
269	0	0	0
270	250	208	226
271	250	210	227
272	250	213	228
273	0	0	0
274	0	0	0
275	0	0	0
276	0	0	0
277	0	0	0
278	0	0	0
279	0	0	0
280	255	221	231
281	251	202	221
282	244	184	213
283	247	182	218
284	252	182	225
285	255	191	234
286	254	173	221
287	253	168	218
288	250	161	217
289	255	173	228
290	249	158	218
291	246	156	214
292	253	171	218
293	255	178	221
294	255	181	224
295	250	176	220
296	247	177	218
297	246	179	219
298	247	185	220
299	251	197	225
300	254	203	227
301	253	203	227
302	251	203	226
303	250	206	227
304	247	208	227
305	0	0	0
306	0	0	0
307	0	0	0
308	0	0	0
309	0	0	0
310	0	0	0
311	255	225	236
312	254	209	227
313	248	191	220
314	255	193	227
315	255	192	231
316	255	180	227
317	249	163	216
318	251	162	217
319	249	155	216
320	247	150	216
321	238	136	209
322	249	155	221
323	255	168	224
324	253	168	220
325	252	171	223
326	249	171	222
327	246	171	221
328	246	177	223
329	248	183	224
330	253	191	227
331	255	196	225
332	253	195	223
333	250	195	222
334	249	198	224
335	0	0	0
336	0	0	0
337	0	0	0
338	0	0	0
339	0	0	0
340	0	0	0
341	0	0	0
342	252	219	233
343	248	202	225
344	247	191	222
345	255	194	229
346	255	186	228
347	253	174	223
348	251	164	220
349	253	163	223
350	249	153	219
351	248	148	219
352	242	137	215
353	255	157	227
354	255	166	226
355	254	165	221
356	253	168	223
357	250	168	222
358	251	175	226
359	253	182	229
360	251	182	227
361	255	190	229
362	251	184	221
363	248	183	217
364	250	190	222
365	248	192	222
366	0	0	0
367	0	0	0
368	0	0	0
369	0	0	0
370	0	0	0
371	0	0	0
372	0	0	0
373	247	214	232
374	248	203	229
375	248	192	225
376	252	186	226
377	252	178	224
378	251	170	222
379	249	162	221
380	245	152	219
381	242	143	218
382	245	142	220
383	237	130	209
384	248	147	219
385	253	157	222
386	253	160	220
387	252	163	218
388	253	170	221
389	255	178	227
390	253	177	226
391	251	177	224
392	249	174	221
393	244	170	216
394	247	177	219
395	248	184	222
396	252	193	226
397	0	0	0
398	0	0	0
399	0	0	0
400	0	0	0
401	0	0	0
402	0	0	0
403	0	0	0
404	248	218	235
405	252	209	235
406	253	197	231
407	255	191	231
408	251	178	226
409	251	170	226
410	251	166	227
411	245	156	224
412	250	158	231
413	254	157	233
414	239	134	215
415	251	152	225
416	255	159	227
417	255	163	225
418	250	157	217
419	253	165	220
420	255	173	226
421	255	173	226
422	254	174	225
423	249	171	221
424	251	176	223
425	254	184	227
426	254	188	227
427	255	198	231
428	250	191	223
429	0	0	0
430	247	201	225
431	0	0	0
432	0	0	0
433	0	0	0
434	0	0	0
435	250	222	236
436	253	210	235
437	253	198	233
438	251	187	232
439	247	174	227
440	249	170	229
441	248	166	229
442	250	166	232
443	254	167	238
444	247	153	231
445	233	131	215
446	242	144	224
447	247	152	226
448	248	152	223
449	245	149	216
450	251	159	222
451	255	167	226
452	253	167	225
453	252	168	224
454	253	174	226
455	255	180	226
456	255	187	229
457	255	191	229
458	255	188	226
459	247	182	220
460	250	193	225
461	249	199	225
462	248	209	228
463	0	0	0
464	0	0	0
465	0	0	0
466	253	226	238
467	254	213	236
468	252	199	234
469	249	187	232
470	251	183	234
471	251	179	234
472	255	180	237
473	255	180	241
474	254	170	238
475	244	154	229
476	239	147	226
477	248	161	236
478	251	164	235
479	255	168	236
480	250	156	226
481	255	167	232
482	250	159	225
483	246	159	222
484	252	171	228
485	255	178	230
486	253	176	225
487	255	183	228
488	251	176	221
489	248	173	219
490	248	178	221
491	251	188	226
492	249	194	225
493	250	204	228
494	250	212	231
495	0	0	0
496	0	0	0
497	0	0	0
498	253	213	234
499	249	198	232
500	252	195	236
501	253	190	236
502	255	190	238
503	255	190	239
504	255	180	235
505	250	170	232
506	249	167	234
507	244	161	233
508	250	169	240
509	253	173	238
510	254	166	234
511	249	157	229
512	249	155	227
513	241	148	219
514	246	160	224
515	252	172	229
516	251	171	226
517	249	169	222
518	246	165	219
519	241	159	215
520	248	169	223
521	248	174	224
522	250	183	228
523	249	190	227
524	246	195	226
525	246	202	228
526	251	214	233
527	0	0	0
528	0	0	0
529	0	0	0
530	252	206	237
531	255	204	240
532	252	195	236
533	254	194	237
534	255	193	237
535	251	182	233
536	248	173	232
537	250	172	236
538	253	175	241
539	255	183	248
540	240	156	229
541	239	150	225
542	255	168	239
543	255	167	237
544	248	158	227
545	252	170	232
546	252	173	231
547	253	173	230
548	252	171	227
549	247	166	224
550	242	160	221
551	250	171	230
552	246	168	226
553	248	178	229
554	246	184	228
555	242	189	226
556	247	201	231
557	254	213	236
558	244	209	229
559	0	0	0
560	0	0	0
561	0	0	0
562	248	204	236
563	244	194	232
564	245	193	233
565	247	192	234
566	245	183	232
567	243	175	234
568	251	181	242
569	253	183	243
570	237	160	230
571	221	135	219
572	240	157	236
573	254	174	244
574	255	170	238
575	249	162	228
576	249	166	229
577	250	171	232
578	251	170	231
579	249	168	228
580	240	161	223
581	235	154	221
582	237	158	224
583	233	155	220
584	239	168	227
585	240	176	228
586	241	186	230
587	245	198	233
588	243	198	229
589	235	195	224
590	0	0	0
591	0	0	0
592	0	0	0
593	0	0	0
594	0	0	0
595	0	0	0
596	247	206	240
597	245	198	240
598	243	187	241
599	253	194	250
600	251	189	245
601	235	166	232
602	230	157	234
603	246	178	250
604	251	181	247
605	255	180	244
606	249	165	231
607	253	172	235
608	251	171	235
609	249	169	234
610	244	166	231
611	235	158	225
612	234	161	228
613	234	163	230
614	236	168	231
615	246	183	239
616	240	177	233
617	245	190	237
618	243	195	235
619	236	193	228
620	236	199	229
621	0	0	0
622	0	0	0
623	0	0	0
624	0	0	0
625	0	0	0
626	0	0	0
627	0	0	0
628	240	205	241
629	238	194	242
630	241	192	245
631	240	187	242
632	236	180	238
633	231	171	236
634	237	178	242
635	243	182	242
636	246	174	238
637	240	160	230
638	239	161	230
639	237	159	229
640	235	158	228
641	232	157	227
642	232	161	230
643	230	162	231
644	232	170	235
645	235	175	236
646	239	177	236
647	234	173	230
648	239	184	235
649	238	189	234
650	236	196	233
651	235	201	230
652	0	0	0
653	0	0	0
654	0	0	0
655	0	0	0
656	0	0	0
657	0	0	0
658	0	0	0
659	0	0	0
660	0	0	0
661	0	0	0
662	242	208	248
663	242	203	247
664	235	189	242
665	243	198	250
666	241	189	245
667	240	179	240
668	236	172	238
669	233	171	238
670	235	175	239
671	237	176	240
672	239	178	241
673	242	183	245
674	228	166	233
675	230	173	236
676	241	188	244
677	246	192	245
678	233	174	232
679	238	184	237
680	238	191	237
681	237	198	237
682	234	200	232
683	0	0	0
684	0	0	0
685	0	0	0
686	0	0	0
687	0	0	0
688	0	0	0
689	0	0	0
690	0	0	0
691	0	0	0
692	0	0	0
693	0	0	0
694	243	218	249
695	238	205	247
696	235	198	246
697	231	189	243
698	230	183	241
699	225	175	238
700	225	179	241
701	227	182	242
702	231	186	243
703	0	0	0
704	229	177	236
705	218	161	226
706	233	182	240
707	243	197	246
708	237	185	237
709	226	169	228
710	236	184	239
711	237	191	239
712	236	196	238
713	233	199	236
714	0	0	0
715	0	0	0
716	0	0	0
717	0	0	0
718	0	0	0
719	0	0	0
720	0	0	0
721	0	0	0
722	0	0	0
723	0	0	0
724	0	0	0
725	0	0	0
726	0	0	0
727	0	0	0
728	0	0	0
729	0	0	0
730	0	0	0
731	0	0	0
732	0	0	0
733	0	0	0
734	0	0	0
735	0	0	0
736	229	185	238
737	248	209	255
738	236	191	240
739	226	177	230
740	228	178	235
741	244	196	249
742	239	192	242
743	238	198	241
744	233	199	237
745	0	0	0
746	0	0	0
747	0	0	0
748	0	0	0
749	0	0	0
750	0	0	0
751	0	0	0
752	0	0	0
753	0	0	0
754	0	0	0
755	0	0	0
756	0	0	0
757	0	0	0
758	0	0	0
759	0	0	0
760	0	0	0
761	0	0	0
762	0	0	0
763	0	0	0
764	0	0	0
765	0	0	0
766	235	211	242
767	231	200	238
768	228	191	236
769	218	175	227
770	221	179	232
771	223	180	236
772	233	188	242
773	230	185	236
774	229	191	234
775	0	0	0
776	0	0	0
777	0	0	0
778	0	0	0
779	0	0	0
780	0	0	0
781	0	0	0
782	0	0	0
783	0	0	0
784	0	0	0
785	0	0	0
786	0	0	0
787	0	0	0
788	0	0	0
789	0	0	0
790	0	0	0
791	0	0	0
792	0	0	0
793	0	0	0
794	0	0	0
795	0	0	0
796	0	0	0
797	0	0	0
798	231	213	239
799	226	204	237
800	221	194	235
801	228	200	244
802	227	196	244
803	236	204	249
804	228	193	238
805	0	0	0
806	0	0	0
807	0	0	0
808	0	0	0
809	0	0	0
810	0	0	0
811	0	0	0
812	0	0	0
813	0	0	0
814	0	0	0
815	0	0	0
816	0	0	0
817	0	0	0
818	0	0	0
819	0	0	0
820	0	0	0
821	0	0	0
822	0	0	0
823	0	0	0
824	0	0	0
825	0	0	0
826	0	0	0
827	0	0	0
828	0	0	0
829	0	0	0
830	232	222	242
831	227	212	239
832	229	211	243
833	229	208	244
834	230	205	244
835	0	0	0
836	0	0	0
837	0	0	0
