 	R	G	B
1	0	0	0
2	0	0	0
3	0	0	0
4	0	0	0
5	0	0	0
6	0	0	0
7	0	0	0
8	0	0	0
9	0	0	0
10	0	0	0
11	0	0	0
12	0	0	0
13	0	0	0
14	0	0	0
15	0	0	0
16	0	0	0
17	0	0	0
18	0	0	0
19	0	0	0
20	0	0	0
21	0	0	0
22	0	0	0
23	0	0	0
24	0	0	0
25	0	0	0
26	0	0	0
27	0	0	0
28	0	0	0
29	0	0	0
30	0	0	0
31	0	0	0
32	0	0	0
33	0	0	0
34	0	0	0
35	0	0	0
36	0	0	0
37	0	0	0
38	0	0	0
39	0	0	0
40	0	0	0
41	0	0	0
42	0	0	0
43	0	0	0
44	0	0	0
45	0	0	0
46	0	0	0
47	0	0	0
48	0	0	0
49	0	0	0
50	0	0	0
51	0	0	0
52	0	0	0
53	0	0	0
54	0	0	0
55	0	0	0
56	0	0	0
57	0	0	0
58	0	0	0
59	0	0	0
60	0	0	0
61	0	0	0
62	0	0	0
63	0	0	0
64	0	0	0
65	0	0	0
66	0	0	0
67	0	0	0
68	0	0	0
69	0	0	0
70	0	0	0
71	0	0	0
72	0	0	0
73	0	0	0
74	0	0	0
75	0	0	0
76	0	0	0
77	0	0	0
78	0	0	0
79	0	0	0
80	0	0	0
81	254	210	235
82	0	0	0
83	0	0	0
84	0	0	0
85	0	0	0
86	0	0	0
87	0	0	0
88	0	0	0
89	0	0	0
90	0	0	0
91	0	0	0
92	0	0	0
93	0	0	0
94	0	0	0
95	0	0	0
96	0	0	0
97	0	0	0
98	0	0	0
99	0	0	0
100	0	0	0
101	0	0	0
102	0	0	0
103	0	0	0
104	0	0	0
105	0	0	0
106	0	0	0
107	0	0	0
108	0	0	0
109	0	0	0
110	0	0	0
111	0	0	0
112	0	0	0
113	0	0	0
114	0	0	0
115	0	0	0
116	0	0	0
117	0	0	0
118	0	0	0
119	0	0	0
120	0	0	0
121	0	0	0
122	0	0	0
123	0	0	0
124	0	0	0
125	0	0	0
126	0	0	0
127	0	0	0
128	0	0	0
129	0	0	0
130	0	0	0
131	0	0	0
132	0	0	0
133	0	0	0
134	0	0	0
135	0	0	0
136	0	0	0
137	0	0	0
138	0	0	0
139	0	0	0
140	0	0	0
141	0	0	0
142	0	0	0
143	0	0	0
144	0	0	0
145	0	0	0
146	0	0	0
147	0	0	0
148	0	0	0
149	0	0	0
150	0	0	0
151	0	0	0
152	0	0	0
153	0	0	0
154	0	0	0
155	0	0	0
156	0	0	0
157	0	0	0
158	0	0	0
159	0	0	0
160	0	0	0
161	255	205	231
162	255	206	232
163	251	202	230
164	240	191	224
165	0	0	0
166	0	0	0
167	0	0	0
168	0	0	0
169	0	0	0
170	0	0	0
171	0	0	0
172	0	0	0
173	0	0	0
174	0	0	0
175	0	0	0
176	0	0	0
177	0	0	0
178	0	0	0
179	0	0	0
180	0	0	0
181	0	0	0
182	0	0	0
183	0	0	0
184	0	0	0
185	0	0	0
186	0	0	0
187	0	0	0
188	0	0	0
189	0	0	0
190	0	0	0
191	0	0	0
192	0	0	0
193	0	0	0
194	0	0	0
195	0	0	0
196	0	0	0
197	0	0	0
198	0	0	0
199	0	0	0
200	0	0	0
201	0	0	0
202	0	0	0
203	0	0	0
204	0	0	0
205	0	0	0
206	0	0	0
207	0	0	0
208	0	0	0
209	0	0	0
210	0	0	0
211	0	0	0
212	0	0	0
213	0	0	0
214	0	0	0
215	0	0	0
216	0	0	0
217	0	0	0
218	0	0	0
219	0	0	0
220	0	0	0
221	0	0	0
222	0	0	0
223	0	0	0
224	0	0	0
225	0	0	0
226	0	0	0
227	0	0	0
228	0	0	0
229	0	0	0
230	0	0	0
231	0	0	0
232	0	0	0
233	0	0	0
234	0	0	0
235	0	0	0
236	0	0	0
237	0	0	0
238	0	0	0
239	0	0	0
240	0	0	0
241	0	0	0
242	253	195	227
243	254	198	229
244	250	194	227
245	244	188	223
246	244	197	229
247	0	0	0
248	0	0	0
249	0	0	0
250	0	0	0
251	0	0	0
252	0	0	0
253	0	0	0
254	0	0	0
255	0	0	0
256	0	0	0
257	0	0	0
258	0	0	0
259	0	0	0
260	0	0	0
261	0	0	0
262	0	0	0
263	0	0	0
264	0	0	0
265	0	0	0
266	0	0	0
267	0	0	0
268	0	0	0
269	0	0	0
270	0	0	0
271	0	0	0
272	0	0	0
273	0	0	0
274	0	0	0
275	0	0	0
276	0	0	0
277	0	0	0
278	0	0	0
279	0	0	0
280	0	0	0
281	0	0	0
282	0	0	0
283	0	0	0
284	0	0	0
285	0	0	0
286	0	0	0
287	0	0	0
288	0	0	0
289	0	0	0
290	0	0	0
291	0	0	0
292	0	0	0
293	0	0	0
294	0	0	0
295	0	0	0
296	0	0	0
297	0	0	0
298	0	0	0
299	0	0	0
300	0	0	0
301	0	0	0
302	0	0	0
303	0	0	0
304	0	0	0
305	0	0	0
306	0	0	0
307	0	0	0
308	0	0	0
309	0	0	0
310	0	0	0
311	0	0	0
312	0	0	0
313	0	0	0
314	0	0	0
315	0	0	0
316	0	0	0
317	0	0	0
318	0	0	0
319	0	0	0
320	0	0	0
321	255	201	232
322	255	200	232
323	255	196	231
324	253	189	226
325	251	188	227
326	247	184	227
327	254	198	235
328	252	205	236
329	0	0	0
330	0	0	0
331	0	0	0
332	0	0	0
333	0	0	0
334	0	0	0
335	0	0	0
336	0	0	0
337	0	0	0
338	0	0	0
339	0	0	0
340	0	0	0
341	0	0	0
342	0	0	0
343	0	0	0
344	0	0	0
345	0	0	0
346	0	0	0
347	0	0	0
348	0	0	0
349	0	0	0
350	0	0	0
351	0	0	0
352	0	0	0
353	0	0	0
354	0	0	0
355	0	0	0
356	0	0	0
357	0	0	0
358	0	0	0
359	0	0	0
360	0	0	0
361	0	0	0
362	0	0	0
363	0	0	0
364	0	0	0
365	0	0	0
366	0	0	0
367	0	0	0
368	0	0	0
369	0	0	0
370	0	0	0
371	0	0	0
372	0	0	0
373	0	0	0
374	0	0	0
375	0	0	0
376	0	0	0
377	0	0	0
378	0	0	0
379	0	0	0
380	0	0	0
381	0	0	0
382	0	0	0
383	0	0	0
384	0	0	0
385	0	0	0
386	0	0	0
387	0	0	0
388	0	0	0
389	0	0	0
390	0	0	0
391	0	0	0
392	0	0	0
393	0	0	0
394	0	0	0
395	0	0	0
396	0	0	0
397	0	0	0
398	0	0	0
399	0	0	0
400	0	0	0
401	0	0	0
402	252	195	225
403	255	197	232
404	253	187	226
405	252	183	225
406	250	179	223
407	248	177	223
408	250	184	230
409	255	197	237
410	248	199	232
411	0	0	0
412	0	0	0
413	0	0	0
414	0	0	0
415	0	0	0
416	0	0	0
417	0	0	0
418	0	0	0
419	0	0	0
420	0	0	0
421	0	0	0
422	0	0	0
423	0	0	0
424	0	0	0
425	0	0	0
426	0	0	0
427	0	0	0
428	0	0	0
429	0	0	0
430	0	0	0
431	0	0	0
432	0	0	0
433	0	0	0
434	0	0	0
435	0	0	0
436	0	0	0
437	0	0	0
438	0	0	0
439	0	0	0
440	0	0	0
441	0	0	0
442	0	0	0
443	0	0	0
444	0	0	0
445	0	0	0
446	0	0	0
447	0	0	0
448	0	0	0
449	0	0	0
450	0	0	0
451	0	0	0
452	0	0	0
453	0	0	0
454	0	0	0
455	0	0	0
456	0	0	0
457	0	0	0
458	0	0	0
459	0	0	0
460	0	0	0
461	0	0	0
462	0	0	0
463	0	0	0
464	0	0	0
465	0	0	0
466	0	0	0
467	0	0	0
468	0	0	0
469	0	0	0
470	0	0	0
471	0	0	0
472	0	0	0
473	0	0	0
474	0	0	0
475	0	0	0
476	0	0	0
477	0	0	0
478	0	0	0
479	0	0	0
480	0	0	0
481	0	0	0
482	245	188	216
483	255	194	223
484	255	194	226
485	254	185	222
486	249	174	220
487	249	173	222
488	244	168	219
489	247	176	224
490	247	181	227
491	246	187	229
492	240	189	227
493	0	0	0
494	0	0	0
495	0	0	0
496	0	0	0
497	0	0	0
498	0	0	0
499	0	0	0
500	0	0	0
501	0	0	0
502	0	0	0
503	0	0	0
504	0	0	0
505	0	0	0
506	0	0	0
507	0	0	0
508	0	0	0
509	0	0	0
510	0	0	0
511	0	0	0
512	0	0	0
513	0	0	0
514	0	0	0
515	0	0	0
516	0	0	0
517	0	0	0
518	0	0	0
519	0	0	0
520	0	0	0
521	0	0	0
522	0	0	0
523	0	0	0
524	0	0	0
525	0	0	0
526	0	0	0
527	0	0	0
528	0	0	0
529	0	0	0
530	0	0	0
531	0	0	0
532	0	0	0
533	0	0	0
534	0	0	0
535	0	0	0
536	0	0	0
537	0	0	0
538	0	0	0
539	0	0	0
540	0	0	0
541	0	0	0
542	0	0	0
543	0	0	0
544	0	0	0
545	0	0	0
546	0	0	0
547	0	0	0
548	0	0	0
549	0	0	0
550	0	0	0
551	0	0	0
552	0	0	0
553	0	0	0
554	0	0	0
555	0	0	0
556	0	0	0
557	0	0	0
558	0	0	0
559	0	0	0
560	0	0	0
561	0	0	0
562	255	222	231
563	255	202	224
564	247	180	214
565	255	186	222
566	253	178	217
567	248	168	213
568	250	170	220
569	247	167	221
570	245	168	221
571	245	174	224
572	246	184	228
573	243	189	228
574	0	0	0
575	0	0	0
576	0	0	0
577	0	0	0
578	0	0	0
579	0	0	0
580	0	0	0
581	0	0	0
582	0	0	0
583	0	0	0
584	0	0	0
585	0	0	0
586	0	0	0
587	0	0	0
588	0	0	0
589	0	0	0
590	0	0	0
591	0	0	0
592	0	0	0
593	0	0	0
594	0	0	0
595	0	0	0
596	0	0	0
597	0	0	0
598	0	0	0
599	0	0	0
600	0	0	0
601	0	0	0
602	0	0	0
603	0	0	0
604	0	0	0
605	0	0	0
606	0	0	0
607	0	0	0
608	0	0	0
609	0	0	0
610	0	0	0
611	0	0	0
612	0	0	0
613	0	0	0
614	0	0	0
615	0	0	0
616	0	0	0
617	0	0	0
618	0	0	0
619	0	0	0
620	0	0	0
621	0	0	0
622	0	0	0
623	0	0	0
624	0	0	0
625	0	0	0
626	0	0	0
627	0	0	0
628	0	0	0
629	0	0	0
630	0	0	0
631	0	0	0
632	0	0	0
633	0	0	0
634	0	0	0
635	0	0	0
636	0	0	0
637	0	0	0
638	0	0	0
639	0	0	0
640	0	0	0
641	0	0	0
642	0	0	0
643	255	230	230
644	255	212	223
645	255	197	220
646	251	176	213
647	255	175	218
648	252	167	216
649	254	169	219
650	253	168	222
651	254	172	226
652	251	173	228
653	255	185	234
654	254	193	234
655	253	203	236
656	250	211	239
657	0	0	0
658	0	0	0
659	0	0	0
660	0	0	0
661	0	0	0
662	0	0	0
663	0	0	0
664	0	0	0
665	0	0	0
666	0	0	0
667	0	0	0
668	0	0	0
669	0	0	0
670	0	0	0
671	0	0	0
672	0	0	0
673	0	0	0
674	0	0	0
675	0	0	0
676	0	0	0
677	0	0	0
678	0	0	0
679	0	0	0
680	0	0	0
681	0	0	0
682	0	0	0
683	0	0	0
684	0	0	0
685	0	0	0
686	0	0	0
687	0	0	0
688	0	0	0
689	0	0	0
690	0	0	0
691	0	0	0
692	0	0	0
693	0	0	0
694	0	0	0
695	0	0	0
696	0	0	0
697	0	0	0
698	0	0	0
699	0	0	0
700	0	0	0
701	0	0	0
702	0	0	0
703	0	0	0
704	0	0	0
705	0	0	0
706	0	0	0
707	0	0	0
708	0	0	0
709	0	0	0
710	0	0	0
711	0	0	0
712	0	0	0
713	0	0	0
714	0	0	0
715	0	0	0
716	0	0	0
717	0	0	0
718	0	0	0
719	0	0	0
720	0	0	0
721	0	0	0
722	0	0	0
723	0	0	0
724	255	242	236
725	255	225	228
726	249	184	207
727	248	170	207
728	243	155	206
729	247	154	212
730	252	158	217
731	251	158	218
732	245	152	214
733	247	155	218
734	253	169	227
735	255	180	232
736	251	183	228
737	252	193	230
738	247	200	231
739	0	0	0
740	0	0	0
741	0	0	0
742	0	0	0
743	0	0	0
744	0	0	0
745	0	0	0
746	0	0	0
747	0	0	0
748	0	0	0
749	0	0	0
750	0	0	0
751	0	0	0
752	0	0	0
753	0	0	0
754	0	0	0
755	0	0	0
756	0	0	0
757	0	0	0
758	0	0	0
759	0	0	0
760	0	0	0
761	0	0	0
762	0	0	0
763	0	0	0
764	0	0	0
765	0	0	0
766	0	0	0
767	0	0	0
768	0	0	0
769	0	0	0
770	0	0	0
771	0	0	0
772	0	0	0
773	0	0	0
774	0	0	0
775	0	0	0
776	0	0	0
777	0	0	0
778	0	0	0
779	0	0	0
780	0	0	0
781	0	0	0
782	0	0	0
783	0	0	0
784	0	0	0
785	0	0	0
786	0	0	0
787	0	0	0
788	0	0	0
789	0	0	0
790	0	0	0
791	0	0	0
792	0	0	0
793	0	0	0
794	0	0	0
795	0	0	0
796	0	0	0
797	0	0	0
798	0	0	0
799	0	0	0
800	0	0	0
801	0	0	0
802	0	0	0
803	0	0	0
804	0	0	0
805	255	238	234
806	255	237	232
807	255	197	212
808	238	159	197
809	242	152	205
810	237	137	206
811	247	148	218
812	250	150	220
813	248	147	217
814	241	139	213
815	249	154	221
816	252	165	225
817	249	168	222
818	245	171	219
819	246	182	222
820	0	0	0
821	0	0	0
822	0	0	0
823	0	0	0
824	0	0	0
825	0	0	0
826	0	0	0
827	0	0	0
828	0	0	0
829	0	0	0
830	0	0	0
831	0	0	0
832	0	0	0
833	0	0	0
834	0	0	0
835	0	0	0
836	0	0	0
837	0	0	0
838	0	0	0
839	0	0	0
840	0	0	0
841	0	0	0
842	0	0	0
843	0	0	0
844	0	0	0
845	0	0	0
846	0	0	0
847	0	0	0
848	0	0	0
849	0	0	0
850	0	0	0
851	0	0	0
852	0	0	0
853	0	0	0
854	0	0	0
855	0	0	0
856	0	0	0
857	0	0	0
858	0	0	0
859	0	0	0
860	0	0	0
861	0	0	0
862	0	0	0
863	0	0	0
864	0	0	0
865	0	0	0
866	0	0	0
867	0	0	0
868	0	0	0
869	0	0	0
870	0	0	0
871	0	0	0
872	0	0	0
873	0	0	0
874	0	0	0
875	0	0	0
876	0	0	0
877	0	0	0
878	0	0	0
879	0	0	0
880	0	0	0
881	0	0	0
882	0	0	0
883	0	0	0
884	0	0	0
885	0	0	0
886	255	236	236
887	255	235	237
888	252	197	214
889	232	157	194
890	237	151	203
891	241	145	212
892	234	130	210
893	242	138	219
894	246	142	220
895	247	139	219
896	242	134	215
897	244	145	220
898	254	167	229
899	250	170	224
900	248	174	223
901	249	185	226
902	250	195	228
903	0	0	0
904	0	0	0
905	0	0	0
906	0	0	0
907	0	0	0
908	0	0	0
909	0	0	0
910	0	0	0
911	0	0	0
912	0	0	0
913	0	0	0
914	0	0	0
915	0	0	0
916	0	0	0
917	0	0	0
918	0	0	0
919	0	0	0
920	0	0	0
921	0	0	0
922	0	0	0
923	0	0	0
924	0	0	0
925	0	0	0
926	0	0	0
927	0	0	0
928	0	0	0
929	0	0	0
930	0	0	0
931	0	0	0
932	0	0	0
933	0	0	0
934	0	0	0
935	0	0	0
936	0	0	0
937	0	0	0
938	0	0	0
939	0	0	0
940	0	0	0
941	0	0	0
942	0	0	0
943	0	0	0
944	0	0	0
945	0	0	0
946	0	0	0
947	0	0	0
948	0	0	0
949	0	0	0
950	0	0	0
951	0	0	0
952	0	0	0
953	0	0	0
954	0	0	0
955	0	0	0
956	0	0	0
957	0	0	0
958	0	0	0
959	0	0	0
960	0	0	0
961	0	0	0
962	0	0	0
963	0	0	0
964	0	0	0
965	0	0	0
966	0	0	0
967	255	236	236
968	255	227	232
969	246	192	215
970	231	157	201
971	234	150	207
972	235	142	212
973	234	133	214
974	223	115	205
975	227	122	212
976	231	125	212
977	239	129	215
978	236	124	212
979	250	150	227
980	255	171	236
981	254	173	230
982	251	177	227
983	254	189	231
984	254	199	232
985	0	0	0
986	0	0	0
987	0	0	0
988	0	0	0
989	0	0	0
990	0	0	0
991	0	0	0
992	0	0	0
993	0	0	0
994	0	0	0
995	0	0	0
996	0	0	0
997	0	0	0
998	0	0	0
999	0	0	0
1000	0	0	0
1001	0	0	0
1002	0	0	0
1003	0	0	0
1004	0	0	0
1005	0	0	0
1006	0	0	0
1007	0	0	0
1008	0	0	0
1009	0	0	0
1010	0	0	0
1011	0	0	0
1012	0	0	0
1013	0	0	0
1014	0	0	0
1015	0	0	0
1016	0	0	0
1017	0	0	0
1018	0	0	0
1019	0	0	0
1020	0	0	0
1021	0	0	0
1022	0	0	0
1023	0	0	0
1024	0	0	0
1025	0	0	0
1026	0	0	0
1027	0	0	0
1028	0	0	0
1029	0	0	0
1030	0	0	0
1031	0	0	0
1032	0	0	0
1033	0	0	0
1034	0	0	0
1035	0	0	0
1036	0	0	0
1037	0	0	0
1038	0	0	0
1039	0	0	0
1040	0	0	0
1041	0	0	0
1042	0	0	0
1043	0	0	0
1044	0	0	0
1045	0	0	0
1046	0	0	0
1047	0	0	0
1048	255	247	241
1049	255	238	240
1050	255	210	225
1051	240	176	209
1052	241	164	215
1053	246	158	223
1054	236	139	218
1055	227	126	214
1056	220	118	211
1057	220	122	214
1058	223	123	213
1059	234	127	216
1060	242	134	221
1061	255	162	238
1062	253	159	230
1063	246	159	224
1064	253	179	231
1065	255	192	235
1066	247	189	227
1067	0	0	0
1068	0	0	0
1069	0	0	0
1070	0	0	0
1071	0	0	0
1072	0	0	0
1073	0	0	0
1074	0	0	0
1075	0	0	0
1076	0	0	0
1077	0	0	0
1078	0	0	0
1079	0	0	0
1080	0	0	0
1081	0	0	0
1082	0	0	0
1083	0	0	0
1084	0	0	0
1085	0	0	0
1086	0	0	0
1087	0	0	0
1088	0	0	0
1089	0	0	0
1090	0	0	0
1091	0	0	0
1092	0	0	0
1093	0	0	0
1094	0	0	0
1095	0	0	0
1096	0	0	0
1097	0	0	0
1098	0	0	0
1099	0	0	0
1100	0	0	0
1101	0	0	0
1102	0	0	0
1103	0	0	0
1104	0	0	0
1105	0	0	0
1106	0	0	0
1107	0	0	0
1108	0	0	0
1109	0	0	0
1110	0	0	0
1111	0	0	0
1112	0	0	0
1113	0	0	0
1114	0	0	0
1115	0	0	0
1116	0	0	0
1117	0	0	0
1118	0	0	0
1119	0	0	0
1120	0	0	0
1121	0	0	0
1122	0	0	0
1123	0	0	0
1124	0	0	0
1125	0	0	0
1126	0	0	0
1127	0	0	0
1128	0	0	0
1129	0	0	0
1130	255	246	243
1131	255	219	230
1132	248	191	215
1133	249	180	216
1134	250	167	221
1135	246	153	222
1136	233	131	216
1137	229	128	219
1138	221	120	216
1139	220	123	218
1140	222	123	217
1141	240	137	226
1142	247	142	227
1143	249	145	226
1144	243	143	220
1145	247	160	227
1146	255	180	235
1147	251	181	231
1148	241	178	224
1149	0	0	0
1150	0	0	0
1151	0	0	0
1152	0	0	0
1153	0	0	0
1154	0	0	0
1155	0	0	0
1156	0	0	0
1157	0	0	0
1158	0	0	0
1159	0	0	0
1160	0	0	0
1161	0	0	0
1162	0	0	0
1163	0	0	0
1164	0	0	0
1165	0	0	0
1166	0	0	0
1167	0	0	0
1168	0	0	0
1169	0	0	0
1170	0	0	0
1171	0	0	0
1172	0	0	0
1173	0	0	0
1174	0	0	0
1175	0	0	0
1176	0	0	0
1177	0	0	0
1178	0	0	0
1179	0	0	0
1180	0	0	0
1181	0	0	0
1182	0	0	0
1183	0	0	0
1184	0	0	0
1185	0	0	0
1186	0	0	0
1187	0	0	0
1188	0	0	0
1189	0	0	0
1190	0	0	0
1191	0	0	0
1192	0	0	0
1193	0	0	0
1194	0	0	0
1195	0	0	0
1196	0	0	0
1197	0	0	0
1198	0	0	0
1199	0	0	0
1200	0	0	0
1201	0	0	0
1202	0	0	0
1203	0	0	0
1204	0	0	0
1205	0	0	0
1206	0	0	0
1207	0	0	0
1208	0	0	0
1209	0	0	0
1210	0	0	0
1211	0	0	0
1212	255	239	242
1213	255	211	228
1214	248	182	215
1215	252	171	218
1216	244	149	214
1217	236	131	212
1218	236	131	219
1219	232	128	221
1220	227	122	220
1221	229	126	224
1222	231	126	223
1223	244	138	230
1224	245	138	226
1225	246	140	223
1226	252	155	230
1227	255	174	238
1228	255	180	237
1229	251	180	233
1230	244	183	230
1231	0	0	0
1232	0	0	0
1233	0	0	0
1234	0	0	0
1235	0	0	0
1236	0	0	0
1237	0	0	0
1238	0	0	0
1239	0	0	0
1240	0	0	0
1241	0	0	0
1242	0	0	0
1243	0	0	0
1244	0	0	0
1245	0	0	0
1246	0	0	0
1247	0	0	0
1248	0	0	0
1249	0	0	0
1250	0	0	0
1251	0	0	0
1252	0	0	0
1253	0	0	0
1254	0	0	0
1255	0	0	0
1256	0	0	0
1257	0	0	0
1258	0	0	0
1259	0	0	0
1260	0	0	0
1261	0	0	0
1262	0	0	0
1263	0	0	0
1264	0	0	0
1265	0	0	0
1266	0	0	0
1267	0	0	0
1268	0	0	0
1269	0	0	0
1270	0	0	0
1271	0	0	0
1272	0	0	0
1273	0	0	0
1274	0	0	0
1275	0	0	0
1276	0	0	0
1277	0	0	0
1278	0	0	0
1279	0	0	0
1280	0	0	0
1281	0	0	0
1282	0	0	0
1283	0	0	0
1284	0	0	0
1285	0	0	0
1286	0	0	0
1287	0	0	0
1288	0	0	0
1289	0	0	0
1290	0	0	0
1291	0	0	0
1292	0	0	0
1293	255	235	237
1294	255	230	237
1295	253	199	223
1296	247	172	217
1297	247	154	217
1298	237	130	211
1299	241	133	220
1300	240	131	222
1301	233	125	220
1302	227	119	217
1303	230	123	222
1304	232	124	222
1305	240	131	227
1306	240	131	223
1307	251	149	231
1308	255	163	235
1309	254	168	233
1310	252	174	234
1311	247	179	232
1312	240	181	228
1313	0	0	0
1314	0	0	0
1315	0	0	0
1316	0	0	0
1317	0	0	0
1318	0	0	0
1319	0	0	0
1320	0	0	0
1321	0	0	0
1322	0	0	0
1323	0	0	0
1324	0	0	0
1325	0	0	0
1326	0	0	0
1327	0	0	0
1328	0	0	0
1329	0	0	0
1330	0	0	0
1331	0	0	0
1332	0	0	0
1333	0	0	0
1334	0	0	0
1335	0	0	0
1336	0	0	0
1337	0	0	0
1338	0	0	0
1339	0	0	0
1340	0	0	0
1341	0	0	0
1342	0	0	0
1343	0	0	0
1344	0	0	0
1345	0	0	0
1346	0	0	0
1347	0	0	0
1348	0	0	0
1349	0	0	0
1350	0	0	0
1351	0	0	0
1352	0	0	0
1353	0	0	0
1354	0	0	0
1355	0	0	0
1356	0	0	0
1357	0	0	0
1358	0	0	0
1359	0	0	0
1360	0	0	0
1361	0	0	0
1362	0	0	0
1363	0	0	0
1364	0	0	0
1365	0	0	0
1366	0	0	0
1367	0	0	0
1368	0	0	0
1369	0	0	0
1370	0	0	0
1371	0	0	0
1372	0	0	0
1373	0	0	0
1374	255	245	245
1375	255	237	242
1376	253	206	225
1377	244	176	214
1378	252	170	223
1379	248	150	221
1380	243	134	219
1381	247	136	226
1382	243	131	224
1383	235	125	220
1384	237	131	224
1385	239	134	228
1386	236	129	226
1387	243	136	231
1388	243	138	228
1389	253	155	235
1390	255	165	235
1391	254	171	233
1392	254	181	237
1393	246	184	234
1394	0	0	0
1395	0	0	0
1396	0	0	0
1397	0	0	0
1398	0	0	0
1399	0	0	0
1400	0	0	0
1401	0	0	0
1402	0	0	0
1403	0	0	0
1404	0	0	0
1405	0	0	0
1406	0	0	0
1407	0	0	0
1408	0	0	0
1409	0	0	0
1410	0	0	0
1411	0	0	0
1412	0	0	0
1413	0	0	0
1414	0	0	0
1415	0	0	0
1416	0	0	0
1417	0	0	0
1418	0	0	0
1419	0	0	0
1420	0	0	0
1421	0	0	0
1422	0	0	0
1423	0	0	0
1424	0	0	0
1425	0	0	0
1426	0	0	0
1427	0	0	0
1428	0	0	0
1429	0	0	0
1430	0	0	0
1431	0	0	0
1432	0	0	0
1433	0	0	0
1434	0	0	0
1435	0	0	0
1436	0	0	0
1437	0	0	0
1438	0	0	0
1439	0	0	0
1440	0	0	0
1441	0	0	0
1442	0	0	0
1443	0	0	0
1444	0	0	0
1445	0	0	0
1446	0	0	0
1447	0	0	0
1448	0	0	0
1449	0	0	0
1450	0	0	0
1451	0	0	0
1452	0	0	0
1453	0	0	0
1454	0	0	0
1455	0	0	0
1456	255	242	243
1457	249	210	227
1458	242	182	218
1459	250	176	223
1460	255	168	227
1461	253	154	225
1462	246	136	221
1463	249	137	227
1464	244	131	224
1465	245	136	227
1466	247	141	230
1467	244	138	229
1468	240	132	226
1469	244	139	231
1470	242	141	229
1471	251	156	235
1472	254	166	235
1473	255	178	237
1474	255	188	238
1475	0	0	0
1476	0	0	0
1477	0	0	0
1478	0	0	0
1479	0	0	0
1480	0	0	0
1481	0	0	0
1482	0	0	0
1483	0	0	0
1484	0	0	0
1485	0	0	0
1486	0	0	0
1487	0	0	0
1488	0	0	0
1489	0	0	0
1490	0	0	0
1491	0	0	0
1492	0	0	0
1493	0	0	0
1494	0	0	0
1495	0	0	0
1496	0	0	0
1497	0	0	0
1498	0	0	0
1499	0	0	0
1500	0	0	0
1501	0	0	0
1502	0	0	0
1503	0	0	0
1504	0	0	0
1505	0	0	0
1506	0	0	0
1507	0	0	0
1508	0	0	0
1509	0	0	0
1510	0	0	0
1511	0	0	0
1512	0	0	0
1513	0	0	0
1514	0	0	0
1515	0	0	0
1516	0	0	0
1517	0	0	0
1518	0	0	0
1519	0	0	0
1520	0	0	0
1521	0	0	0
1522	0	0	0
1523	0	0	0
1524	0	0	0
1525	0	0	0
1526	0	0	0
1527	0	0	0
1528	0	0	0
1529	0	0	0
1530	0	0	0
1531	0	0	0
1532	0	0	0
1533	0	0	0
1534	0	0	0
1535	0	0	0
1536	0	0	0
1537	0	0	0
1538	255	230	236
1539	245	200	222
1540	243	178	221
1541	251	172	227
1542	249	156	222
1543	245	140	217
1544	248	138	223
1545	251	138	227
1546	248	134	226
1547	250	139	229
1548	255	149	234
1549	254	146	233
1550	245	137	227
1551	242	140	229
1552	246	151	234
1553	255	168	243
1554	252	165	235
1555	255	177	237
1556	251	181	232
1557	0	0	0
1558	0	0	0
1559	0	0	0
1560	0	0	0
1561	0	0	0
1562	0	0	0
1563	0	0	0
1564	0	0	0
1565	0	0	0
1566	0	0	0
1567	0	0	0
1568	0	0	0
1569	0	0	0
1570	0	0	0
1571	0	0	0
1572	0	0	0
1573	0	0	0
1574	0	0	0
1575	0	0	0
1576	0	0	0
1577	0	0	0
1578	0	0	0
1579	0	0	0
1580	0	0	0
1581	0	0	0
1582	0	0	0
1583	0	0	0
1584	0	0	0
1585	0	0	0
1586	0	0	0
1587	0	0	0
1588	0	0	0
1589	0	0	0
1590	0	0	0
1591	0	0	0
1592	0	0	0
1593	0	0	0
1594	0	0	0
1595	0	0	0
1596	0	0	0
1597	0	0	0
1598	0	0	0
1599	0	0	0
1600	0	0	0
1601	0	0	0
1602	0	0	0
1603	0	0	0
1604	0	0	0
1605	0	0	0
1606	0	0	0
1607	0	0	0
1608	0	0	0
1609	0	0	0
1610	0	0	0
1611	0	0	0
1612	0	0	0
1613	0	0	0
1614	0	0	0
1615	0	0	0
1616	0	0	0
1617	0	0	0
1618	0	0	0
1619	254	234	235
1620	253	220	229
1621	248	196	222
1622	245	174	221
1623	247	162	224
1624	244	145	219
1625	250	145	224
1626	252	142	226
1627	255	143	230
1628	253	140	229
1629	255	150	236
1630	255	158	240
1631	255	151	234
1632	249	141	228
1633	249	151	233
1634	252	162	239
1635	250	162	237
1636	244	159	231
1637	244	167	232
1638	0	0	0
1639	0	0	0
1640	0	0	0
1641	0	0	0
1642	0	0	0
1643	0	0	0
1644	0	0	0
1645	0	0	0
1646	0	0	0
1647	0	0	0
1648	0	0	0
1649	0	0	0
1650	0	0	0
1651	0	0	0
1652	0	0	0
1653	0	0	0
1654	0	0	0
1655	0	0	0
1656	0	0	0
1657	0	0	0
1658	0	0	0
1659	0	0	0
1660	0	0	0
1661	0	0	0
1662	0	0	0
1663	0	0	0
1664	0	0	0
1665	0	0	0
1666	0	0	0
1667	0	0	0
1668	0	0	0
1669	0	0	0
1670	0	0	0
1671	0	0	0
1672	0	0	0
1673	0	0	0
1674	0	0	0
1675	0	0	0
1676	0	0	0
1677	0	0	0
1678	0	0	0
1679	0	0	0
1680	0	0	0
1681	0	0	0
1682	0	0	0
1683	0	0	0
1684	0	0	0
1685	0	0	0
1686	0	0	0
1687	0	0	0
1688	0	0	0
1689	0	0	0
1690	0	0	0
1691	0	0	0
1692	0	0	0
1693	0	0	0
1694	0	0	0
1695	0	0	0
1696	0	0	0
1697	0	0	0
1698	0	0	0
1699	0	0	0
1700	255	249	244
1701	255	230	235
1702	251	203	222
1703	245	179	216
1704	247	168	221
1705	244	153	220
1706	247	149	223
1707	253	148	228
1708	252	141	225
1709	254	141	228
1710	250	135	225
1711	255	145	233
1712	254	144	229
1713	245	134	221
1714	250	146	229
1715	255	159	237
1716	255	166	240
1717	246	162	235
1718	244	169	237
1719	0	0	0
1720	0	0	0
1721	0	0	0
1722	0	0	0
1723	0	0	0
1724	0	0	0
1725	0	0	0
1726	0	0	0
1727	0	0	0
1728	0	0	0
1729	0	0	0
1730	0	0	0
1731	0	0	0
1732	0	0	0
1733	0	0	0
1734	0	0	0
1735	0	0	0
1736	0	0	0
1737	0	0	0
1738	0	0	0
1739	0	0	0
1740	0	0	0
1741	0	0	0
1742	0	0	0
1743	0	0	0
1744	0	0	0
1745	0	0	0
1746	0	0	0
1747	0	0	0
1748	0	0	0
1749	0	0	0
1750	0	0	0
1751	0	0	0
1752	0	0	0
1753	0	0	0
1754	0	0	0
1755	0	0	0
1756	0	0	0
1757	0	0	0
1758	0	0	0
1759	0	0	0
1760	0	0	0
1761	0	0	0
1762	0	0	0
1763	0	0	0
1764	0	0	0
1765	0	0	0
1766	0	0	0
1767	0	0	0
1768	0	0	0
1769	0	0	0
1770	0	0	0
1771	0	0	0
1772	0	0	0
1773	0	0	0
1774	0	0	0
1775	0	0	0
1776	0	0	0
1777	0	0	0
1778	0	0	0
1779	0	0	0
1780	0	0	0
1781	255	240	241
1782	255	242	242
1783	253	211	226
1784	244	184	216
1785	247	174	218
1786	246	161	219
1787	246	156	222
1788	248	150	225
1789	250	146	226
1790	248	138	224
1791	247	134	223
1792	242	127	218
1793	244	130	221
1794	240	128	219
1795	243	139	224
1796	246	149	229
1797	247	156	232
1798	247	163	235
1799	246	171	237
1800	244	178	239
1801	0	0	0
1802	0	0	0
1803	0	0	0
1804	0	0	0
1805	0	0	0
1806	0	0	0
1807	0	0	0
1808	0	0	0
1809	0	0	0
1810	0	0	0
1811	0	0	0
1812	0	0	0
1813	0	0	0
1814	0	0	0
1815	0	0	0
1816	0	0	0
1817	0	0	0
1818	0	0	0
1819	0	0	0
1820	0	0	0
1821	0	0	0
1822	0	0	0
1823	0	0	0
1824	0	0	0
1825	0	0	0
1826	0	0	0
1827	0	0	0
1828	0	0	0
1829	0	0	0
1830	0	0	0
1831	0	0	0
1832	0	0	0
1833	0	0	0
1834	0	0	0
1835	0	0	0
1836	0	0	0
1837	0	0	0
1838	0	0	0
1839	0	0	0
1840	0	0	0
1841	0	0	0
1842	0	0	0
1843	0	0	0
1844	0	0	0
1845	0	0	0
1846	0	0	0
1847	0	0	0
1848	0	0	0
1849	0	0	0
1850	0	0	0
1851	0	0	0
1852	0	0	0
1853	0	0	0
1854	0	0	0
1855	0	0	0
1856	0	0	0
1857	0	0	0
1858	0	0	0
1859	0	0	0
1860	0	0	0
1861	0	0	0
1862	255	247	247
1863	255	246	248
1864	255	220	231
1865	240	189	214
1866	243	180	217
1867	245	169	219
1868	241	155	216
1869	241	148	218
1870	251	158	230
1871	252	152	230
1872	250	145	228
1873	248	141	227
1874	248	140	228
1875	250	143	231
1876	241	136	225
1877	240	145	229
1878	241	156	233
1879	239	161	233
1880	247	178	241
1881	252	189	247
1882	241	182	239
1883	0	0	0
1884	0	0	0
1885	0	0	0
1886	0	0	0
1887	0	0	0
1888	0	0	0
1889	0	0	0
1890	0	0	0
1891	0	0	0
1892	0	0	0
1893	0	0	0
1894	0	0	0
1895	0	0	0
1896	0	0	0
1897	0	0	0
1898	0	0	0
1899	0	0	0
1900	0	0	0
1901	0	0	0
1902	0	0	0
1903	0	0	0
1904	0	0	0
1905	0	0	0
1906	0	0	0
1907	0	0	0
1908	0	0	0
1909	0	0	0
1910	0	0	0
1911	0	0	0
1912	0	0	0
1913	0	0	0
1914	0	0	0
1915	0	0	0
1916	0	0	0
1917	0	0	0
1918	0	0	0
1919	0	0	0
1920	0	0	0
1921	0	0	0
1922	0	0	0
1923	0	0	0
1924	0	0	0
1925	0	0	0
1926	0	0	0
1927	0	0	0
1928	0	0	0
1929	0	0	0
1930	0	0	0
1931	0	0	0
1932	0	0	0
1933	0	0	0
1934	0	0	0
1935	0	0	0
1936	0	0	0
1937	0	0	0
1938	0	0	0
1939	0	0	0
1940	0	0	0
1941	0	0	0
1942	0	0	0
1943	0	0	0
1944	255	249	247
1945	253	223	233
1946	245	198	220
1947	247	189	221
1948	249	180	223
1949	246	168	222
1950	240	152	219
1951	249	161	230
1952	255	168	239
1953	255	161	236
1954	252	153	232
1955	254	154	235
1956	254	153	238
1957	250	151	237
1958	240	143	232
1959	244	157	240
1960	242	167	244
1961	242	179	246
1962	247	194	249
1963	240	188	240
1964	0	0	0
1965	0	0	0
1966	0	0	0
1967	0	0	0
1968	0	0	0
1969	0	0	0
1970	0	0	0
1971	0	0	0
1972	0	0	0
1973	0	0	0
1974	0	0	0
1975	0	0	0
1976	0	0	0
1977	0	0	0
1978	0	0	0
1979	0	0	0
1980	0	0	0
1981	0	0	0
1982	0	0	0
1983	0	0	0
1984	0	0	0
1985	0	0	0
1986	0	0	0
1987	0	0	0
1988	0	0	0
1989	0	0	0
1990	0	0	0
1991	0	0	0
1992	0	0	0
1993	0	0	0
1994	0	0	0
1995	0	0	0
1996	0	0	0
1997	0	0	0
1998	0	0	0
1999	0	0	0
2000	0	0	0
2001	0	0	0
2002	0	0	0
2003	0	0	0
2004	0	0	0
2005	0	0	0
2006	0	0	0
2007	0	0	0
2008	0	0	0
2009	0	0	0
2010	0	0	0
2011	0	0	0
2012	0	0	0
2013	0	0	0
2014	0	0	0
2015	0	0	0
2016	0	0	0
2017	0	0	0
2018	0	0	0
2019	0	0	0
2020	0	0	0
2021	0	0	0
2022	0	0	0
2023	0	0	0
2024	0	0	0
2025	0	0	0
2026	255	243	243
2027	254	218	230
2028	245	190	219
2029	251	183	223
2030	246	167	220
2031	240	152	217
2032	243	153	223
2033	251	161	233
2034	252	160	234
2035	245	149	228
2036	247	150	230
2037	251	152	234
2038	249	151	235
2039	242	146	233
2040	246	158	240
2041	253	173	251
2042	242	170	246
2043	236	179	245
2044	237	194	246
2045	0	0	0
2046	0	0	0
2047	0	0	0
2048	0	0	0
2049	0	0	0
2050	0	0	0
2051	0	0	0
2052	0	0	0
2053	0	0	0
2054	0	0	0
2055	0	0	0
2056	0	0	0
2057	0	0	0
2058	0	0	0
2059	0	0	0
2060	0	0	0
2061	0	0	0
2062	0	0	0
2063	0	0	0
2064	0	0	0
2065	0	0	0
2066	0	0	0
2067	0	0	0
2068	0	0	0
2069	0	0	0
2070	0	0	0
2071	0	0	0
2072	0	0	0
2073	0	0	0
2074	0	0	0
2075	0	0	0
2076	0	0	0
2077	0	0	0
2078	0	0	0
2079	0	0	0
2080	0	0	0
2081	0	0	0
2082	0	0	0
2083	0	0	0
2084	0	0	0
2085	0	0	0
2086	0	0	0
2087	0	0	0
2088	0	0	0
2089	0	0	0
2090	0	0	0
2091	0	0	0
2092	0	0	0
2093	0	0	0
2094	0	0	0
2095	0	0	0
2096	0	0	0
2097	0	0	0
2098	0	0	0
2099	0	0	0
2100	0	0	0
2101	0	0	0
2102	0	0	0
2103	0	0	0
2104	0	0	0
2105	0	0	0
2106	0	0	0
2107	255	240	240
2108	255	238	239
2109	254	208	225
2110	246	181	218
2111	248	171	221
2112	242	154	218
2113	246	157	226
2114	248	157	230
2115	251	158	233
2116	250	156	232
2117	247	153	232
2118	248	153	235
2119	250	154	237
2120	244	149	232
2121	243	158	236
2122	245	169	243
2123	243	171	244
2124	232	166	238
2125	227	178	241
2126	0	0	0
2127	0	0	0
2128	0	0	0
2129	0	0	0
2130	0	0	0
2131	0	0	0
2132	0	0	0
2133	0	0	0
2134	0	0	0
2135	0	0	0
2136	0	0	0
2137	0	0	0
2138	0	0	0
2139	0	0	0
2140	0	0	0
2141	0	0	0
2142	0	0	0
2143	0	0	0
2144	0	0	0
2145	0	0	0
2146	0	0	0
2147	0	0	0
2148	0	0	0
2149	0	0	0
2150	0	0	0
2151	0	0	0
2152	0	0	0
2153	0	0	0
2154	0	0	0
2155	0	0	0
2156	0	0	0
2157	0	0	0
2158	0	0	0
2159	0	0	0
2160	0	0	0
2161	0	0	0
2162	0	0	0
2163	0	0	0
2164	0	0	0
2165	0	0	0
2166	0	0	0
2167	0	0	0
2168	0	0	0
2169	0	0	0
2170	0	0	0
2171	0	0	0
2172	0	0	0
2173	0	0	0
2174	0	0	0
2175	0	0	0
2176	0	0	0
2177	0	0	0
2178	0	0	0
2179	0	0	0
2180	0	0	0
2181	0	0	0
2182	0	0	0
2183	0	0	0
2184	0	0	0
2185	0	0	0
2186	0	0	0
2187	0	0	0
2188	255	245	245
2189	255	241	244
2190	255	216	228
2191	247	187	216
2192	245	173	218
2193	243	160	220
2194	244	156	224
2195	250	160	232
2196	247	153	230
2197	249	153	232
2198	246	148	230
2199	243	145	229
2200	250	157	240
2201	247	155	238
2202	238	151	232
2203	231	156	233
2204	233	170	241
2205	231	172	240
2206	229	180	242
2207	0	0	0
2208	0	0	0
2209	0	0	0
2210	0	0	0
2211	0	0	0
2212	0	0	0
2213	0	0	0
2214	0	0	0
2215	0	0	0
2216	0	0	0
2217	0	0	0
2218	0	0	0
2219	0	0	0
2220	0	0	0
2221	0	0	0
2222	0	0	0
2223	0	0	0
2224	0	0	0
2225	0	0	0
2226	0	0	0
2227	0	0	0
2228	0	0	0
2229	0	0	0
2230	0	0	0
2231	0	0	0
2232	0	0	0
2233	0	0	0
2234	0	0	0
2235	0	0	0
2236	0	0	0
2237	0	0	0
2238	0	0	0
2239	0	0	0
2240	0	0	0
2241	0	0	0
2242	0	0	0
2243	0	0	0
2244	0	0	0
2245	0	0	0
2246	0	0	0
2247	0	0	0
2248	0	0	0
2249	0	0	0
2250	0	0	0
2251	0	0	0
2252	0	0	0
2253	0	0	0
2254	0	0	0
2255	0	0	0
2256	0	0	0
2257	0	0	0
2258	0	0	0
2259	0	0	0
2260	0	0	0
2261	0	0	0
2262	0	0	0
2263	0	0	0
2264	0	0	0
2265	0	0	0
2266	0	0	0
2267	0	0	0
2268	0	0	0
2269	0	0	0
2270	255	243	244
2271	255	220	233
2272	251	196	220
2273	249	181	219
2274	247	166	222
2275	248	163	229
2276	245	156	228
2277	241	150	227
2278	237	142	223
2279	238	141	226
2280	236	137	226
2281	244	149	235
2282	248	159	240
2283	243	158	238
2284	232	154	234
2285	228	164	239
2286	229	177	246
2287	230	186	247
2288	0	0	0
2289	0	0	0
2290	0	0	0
2291	0	0	0
2292	0	0	0
2293	0	0	0
2294	0	0	0
2295	0	0	0
2296	0	0	0
2297	0	0	0
2298	0	0	0
2299	0	0	0
2300	0	0	0
2301	0	0	0
2302	0	0	0
2303	0	0	0
2304	0	0	0
2305	0	0	0
2306	0	0	0
2307	0	0	0
2308	0	0	0
2309	0	0	0
2310	0	0	0
2311	0	0	0
2312	0	0	0
2313	0	0	0
2314	0	0	0
2315	0	0	0
2316	0	0	0
2317	0	0	0
2318	0	0	0
2319	0	0	0
2320	0	0	0
2321	0	0	0
2322	0	0	0
2323	0	0	0
2324	0	0	0
2325	0	0	0
2326	0	0	0
2327	0	0	0
2328	0	0	0
2329	0	0	0
2330	0	0	0
2331	0	0	0
2332	0	0	0
2333	0	0	0
2334	0	0	0
2335	0	0	0
2336	0	0	0
2337	0	0	0
2338	0	0	0
2339	0	0	0
2340	0	0	0
2341	0	0	0
2342	0	0	0
2343	0	0	0
2344	0	0	0
2345	0	0	0
2346	0	0	0
2347	0	0	0
2348	0	0	0
2349	0	0	0
2350	0	0	0
2351	0	0	0
2352	255	231	238
2353	255	208	229
2354	245	178	214
2355	243	163	214
2356	249	164	226
2357	248	159	230
2358	243	155	229
2359	231	144	223
2360	232	146	226
2361	235	147	229
2362	238	148	233
2363	247	161	243
2364	241	158	238
2365	232	154	234
2366	230	163	239
2367	230	175	245
2368	231	188	250
2369	0	0	0
2370	0	0	0
2371	0	0	0
2372	0	0	0
2373	0	0	0
2374	0	0	0
2375	0	0	0
2376	0	0	0
2377	0	0	0
2378	0	0	0
2379	0	0	0
2380	0	0	0
2381	0	0	0
2382	0	0	0
2383	0	0	0
2384	0	0	0
2385	0	0	0
2386	0	0	0
2387	0	0	0
2388	0	0	0
2389	0	0	0
2390	0	0	0
2391	0	0	0
2392	0	0	0
2393	0	0	0
2394	0	0	0
2395	0	0	0
2396	0	0	0
2397	0	0	0
2398	0	0	0
2399	0	0	0
2400	0	0	0
2401	0	0	0
2402	0	0	0
2403	0	0	0
2404	0	0	0
2405	0	0	0
2406	0	0	0
2407	0	0	0
2408	0	0	0
2409	0	0	0
2410	0	0	0
2411	0	0	0
2412	0	0	0
2413	0	0	0
2414	0	0	0
2415	0	0	0
2416	0	0	0
2417	0	0	0
2418	0	0	0
2419	0	0	0
2420	0	0	0
2421	0	0	0
2422	0	0	0
2423	0	0	0
2424	0	0	0
2425	0	0	0
2426	0	0	0
2427	0	0	0
2428	0	0	0
2429	0	0	0
2430	0	0	0
2431	0	0	0
2432	0	0	0
2433	255	232	236
2434	255	217	231
2435	251	191	221
2436	240	162	211
2437	247	163	221
2438	249	160	227
2439	249	159	231
2440	244	155	230
2441	238	154	230
2442	237	156	233
2443	240	158	237
2444	241	158	238
2445	240	159	239
2446	232	155	235
2447	228	162	238
2448	225	169	241
2449	229	185	247
2450	0	0	0
2451	0	0	0
2452	0	0	0
2453	0	0	0
2454	0	0	0
2455	0	0	0
2456	0	0	0
2457	0	0	0
2458	0	0	0
2459	0	0	0
2460	0	0	0
2461	0	0	0
2462	0	0	0
2463	0	0	0
2464	0	0	0
2465	0	0	0
2466	0	0	0
2467	0	0	0
2468	0	0	0
2469	0	0	0
2470	0	0	0
2471	0	0	0
2472	0	0	0
2473	0	0	0
2474	0	0	0
2475	0	0	0
2476	0	0	0
2477	0	0	0
2478	0	0	0
2479	0	0	0
2480	0	0	0
2481	0	0	0
2482	0	0	0
2483	0	0	0
2484	0	0	0
2485	0	0	0
2486	0	0	0
2487	0	0	0
2488	0	0	0
2489	0	0	0
2490	0	0	0
2491	0	0	0
2492	0	0	0
2493	0	0	0
2494	0	0	0
2495	0	0	0
2496	0	0	0
2497	0	0	0
2498	0	0	0
2499	0	0	0
2500	0	0	0
2501	0	0	0
2502	0	0	0
2503	0	0	0
2504	0	0	0
2505	0	0	0
2506	0	0	0
2507	0	0	0
2508	0	0	0
2509	0	0	0
2510	0	0	0
2511	0	0	0
2512	0	0	0
2513	0	0	0
2514	255	251	248
2515	255	235	242
2516	251	196	220
2517	242	169	211
2518	240	156	214
2519	245	155	222
2520	254	165	232
2521	252	162	234
2522	246	155	231
2523	244	157	234
2524	240	155	234
2525	239	155	234
2526	240	161	238
2527	233	158	236
2528	227	161	237
2529	220	166	238
2530	222	181	243
2531	0	0	0
2532	0	0	0
2533	0	0	0
2534	0	0	0
2535	0	0	0
2536	0	0	0
2537	0	0	0
2538	0	0	0
2539	0	0	0
2540	0	0	0
2541	0	0	0
2542	0	0	0
2543	0	0	0
2544	0	0	0
2545	0	0	0
2546	0	0	0
2547	0	0	0
2548	0	0	0
2549	0	0	0
2550	0	0	0
2551	0	0	0
2552	0	0	0
2553	0	0	0
2554	0	0	0
2555	0	0	0
2556	0	0	0
2557	0	0	0
2558	0	0	0
2559	0	0	0
2560	0	0	0
2561	0	0	0
2562	0	0	0
2563	0	0	0
2564	0	0	0
2565	0	0	0
2566	0	0	0
2567	0	0	0
2568	0	0	0
2569	0	0	0
2570	0	0	0
2571	0	0	0
2572	0	0	0
2573	0	0	0
2574	0	0	0
2575	0	0	0
2576	0	0	0
2577	0	0	0
2578	0	0	0
2579	0	0	0
2580	0	0	0
2581	0	0	0
2582	0	0	0
2583	0	0	0
2584	0	0	0
2585	0	0	0
2586	0	0	0
2587	0	0	0
2588	0	0	0
2589	0	0	0
2590	0	0	0
2591	0	0	0
2592	0	0	0
2593	0	0	0
2594	0	0	0
2595	255	250	246
2596	255	249	247
2597	255	214	231
2598	242	174	212
2599	243	164	215
2600	240	150	218
2601	251	162	231
2602	255	169	235
2603	252	162	232
2604	246	154	230
2605	243	154	232
2606	238	151	231
2607	241	159	237
2608	239	164	239
2609	234	167	240
2610	226	169	239
2611	222	181	243
2612	0	0	0
2613	0	0	0
2614	0	0	0
2615	0	0	0
2616	0	0	0
2617	0	0	0
2618	0	0	0
2619	0	0	0
2620	0	0	0
2621	0	0	0
2622	0	0	0
2623	0	0	0
2624	0	0	0
2625	0	0	0
2626	0	0	0
2627	0	0	0
2628	0	0	0
2629	0	0	0
2630	0	0	0
2631	0	0	0
2632	0	0	0
2633	0	0	0
2634	0	0	0
2635	0	0	0
2636	0	0	0
2637	0	0	0
2638	0	0	0
2639	0	0	0
2640	0	0	0
2641	0	0	0
2642	0	0	0
2643	0	0	0
2644	0	0	0
2645	0	0	0
2646	0	0	0
2647	0	0	0
2648	0	0	0
2649	0	0	0
2650	0	0	0
2651	0	0	0
2652	0	0	0
2653	0	0	0
2654	0	0	0
2655	0	0	0
2656	0	0	0
2657	0	0	0
2658	0	0	0
2659	0	0	0
2660	0	0	0
2661	0	0	0
2662	0	0	0
2663	0	0	0
2664	0	0	0
2665	0	0	0
2666	0	0	0
2667	0	0	0
2668	0	0	0
2669	0	0	0
2670	0	0	0
2671	0	0	0
2672	0	0	0
2673	0	0	0
2674	0	0	0
2675	0	0	0
2676	255	250	245
2677	255	249	247
2678	255	221	232
2679	243	181	212
2680	240	164	211
2681	240	153	214
2682	248	159	228
2683	255	168	238
2684	255	168	236
2685	252	161	232
2686	243	151	229
2687	238	149	230
2688	240	159	236
2689	242	166	241
2690	234	164	238
2691	227	166	237
2692	224	176	241
2693	0	0	0
2694	0	0	0
2695	0	0	0
2696	0	0	0
2697	0	0	0
2698	0	0	0
2699	0	0	0
2700	0	0	0
2701	0	0	0
2702	0	0	0
2703	0	0	0
2704	0	0	0
2705	0	0	0
2706	0	0	0
2707	0	0	0
2708	0	0	0
2709	0	0	0
2710	0	0	0
2711	0	0	0
2712	0	0	0
2713	0	0	0
2714	0	0	0
2715	0	0	0
2716	0	0	0
2717	0	0	0
2718	0	0	0
2719	0	0	0
2720	0	0	0
2721	0	0	0
2722	0	0	0
2723	0	0	0
2724	0	0	0
2725	0	0	0
2726	0	0	0
2727	0	0	0
2728	0	0	0
2729	0	0	0
2730	0	0	0
2731	0	0	0
2732	0	0	0
2733	0	0	0
2734	0	0	0
2735	0	0	0
2736	0	0	0
2737	0	0	0
2738	0	0	0
2739	0	0	0
2740	0	0	0
2741	0	0	0
2742	0	0	0
2743	0	0	0
2744	0	0	0
2745	0	0	0
2746	0	0	0
2747	0	0	0
2748	0	0	0
2749	0	0	0
2750	0	0	0
2751	0	0	0
2752	0	0	0
2753	0	0	0
2754	0	0	0
2755	0	0	0
2756	0	0	0
2757	0	0	0
2758	255	249	246
2759	255	218	229
2760	246	189	215
2761	243	172	212
2762	239	155	213
2763	249	163	226
2764	254	166	234
2765	255	166	236
2766	255	166	236
2767	247	156	231
2768	238	146	228
2769	242	158	237
2770	243	166	242
2771	236	166	241
2772	227	163	237
2773	224	174	240
2774	0	0	0
2775	0	0	0
2776	0	0	0
2777	0	0	0
2778	0	0	0
2779	0	0	0
2780	0	0	0
2781	0	0	0
2782	0	0	0
2783	0	0	0
2784	0	0	0
2785	0	0	0
2786	0	0	0
2787	0	0	0
2788	0	0	0
2789	0	0	0
2790	0	0	0
2791	0	0	0
2792	0	0	0
2793	0	0	0
2794	0	0	0
2795	0	0	0
2796	0	0	0
2797	0	0	0
2798	0	0	0
2799	0	0	0
2800	0	0	0
2801	0	0	0
2802	0	0	0
2803	0	0	0
2804	0	0	0
2805	0	0	0
2806	0	0	0
2807	0	0	0
2808	0	0	0
2809	0	0	0
2810	0	0	0
2811	0	0	0
2812	0	0	0
2813	0	0	0
2814	0	0	0
2815	0	0	0
2816	0	0	0
2817	0	0	0
2818	0	0	0
2819	0	0	0
2820	0	0	0
2821	0	0	0
2822	0	0	0
2823	0	0	0
2824	0	0	0
2825	0	0	0
2826	0	0	0
2827	0	0	0
2828	0	0	0
2829	0	0	0
2830	0	0	0
2831	0	0	0
2832	0	0	0
2833	0	0	0
2834	0	0	0
2835	0	0	0
2836	0	0	0
2837	0	0	0
2838	0	0	0
2839	0	0	0
2840	255	233	238
2841	252	201	221
2842	245	179	213
2843	240	161	211
2844	245	160	221
2845	253	166	232
2846	255	167	235
2847	255	167	236
2848	255	169	239
2849	244	158	233
2850	239	154	234
2851	246	167	245
2852	241	168	243
2853	229	165	238
2854	225	172	240
2855	0	0	0
2856	0	0	0
2857	0	0	0
2858	0	0	0
2859	0	0	0
2860	0	0	0
2861	0	0	0
2862	0	0	0
2863	0	0	0
2864	0	0	0
2865	0	0	0
2866	0	0	0
2867	0	0	0
2868	0	0	0
2869	0	0	0
2870	0	0	0
2871	0	0	0
2872	0	0	0
2873	0	0	0
2874	0	0	0
2875	0	0	0
2876	0	0	0
2877	0	0	0
2878	0	0	0
2879	0	0	0
2880	0	0	0
2881	0	0	0
2882	0	0	0
2883	0	0	0
2884	0	0	0
2885	0	0	0
2886	0	0	0
2887	0	0	0
2888	0	0	0
2889	0	0	0
2890	0	0	0
2891	0	0	0
2892	0	0	0
2893	0	0	0
2894	0	0	0
2895	0	0	0
2896	0	0	0
2897	0	0	0
2898	0	0	0
2899	0	0	0
2900	0	0	0
2901	0	0	0
2902	0	0	0
2903	0	0	0
2904	0	0	0
2905	0	0	0
2906	0	0	0
2907	0	0	0
2908	0	0	0
2909	0	0	0
2910	0	0	0
2911	0	0	0
2912	0	0	0
2913	0	0	0
2914	0	0	0
2915	0	0	0
2916	0	0	0
2917	0	0	0
2918	0	0	0
2919	255	251	244
2920	255	251	245
2921	255	235	238
2922	255	215	226
2923	251	191	217
2924	245	170	215
2925	250	170	225
2926	251	165	229
2927	254	168	234
2928	255	168	235
2929	255	170	238
2930	255	171	240
2931	245	165	237
2932	238	160	237
2933	241	168	244
2934	236	168	242
2935	233	178	244
2936	227	185	244
2937	0	0	0
2938	0	0	0
2939	0	0	0
2940	0	0	0
2941	0	0	0
2942	0	0	0
2943	0	0	0
2944	0	0	0
2945	0	0	0
2946	0	0	0
2947	0	0	0
2948	0	0	0
2949	0	0	0
2950	0	0	0
2951	0	0	0
2952	0	0	0
2953	0	0	0
2954	0	0	0
2955	0	0	0
2956	0	0	0
2957	0	0	0
2958	0	0	0
2959	0	0	0
2960	0	0	0
2961	0	0	0
2962	0	0	0
2963	0	0	0
2964	0	0	0
2965	0	0	0
2966	0	0	0
2967	0	0	0
2968	0	0	0
2969	0	0	0
2970	0	0	0
2971	0	0	0
2972	0	0	0
2973	0	0	0
2974	0	0	0
2975	0	0	0
2976	0	0	0
2977	0	0	0
2978	0	0	0
2979	0	0	0
2980	0	0	0
2981	0	0	0
2982	0	0	0
2983	0	0	0
2984	0	0	0
2985	0	0	0
2986	0	0	0
2987	0	0	0
2988	0	0	0
2989	0	0	0
2990	0	0	0
2991	0	0	0
2992	0	0	0
2993	0	0	0
2994	0	0	0
2995	0	0	0
2996	0	0	0
2997	0	0	0
2998	0	0	0
2999	0	0	0
3000	255	249	243
3001	255	251	245
3002	255	230	235
3003	254	209	224
3004	249	190	215
3005	240	166	206
3006	246	166	218
3007	249	164	226
3008	250	163	229
3009	251	164	231
3010	255	170	236
3011	255	171	238
3012	249	169	237
3013	237	161	233
3014	238	168	240
3015	239	174	245
3016	234	177	244
3017	233	187	246
3018	231	196	246
3019	0	0	0
3020	0	0	0
3021	0	0	0
3022	0	0	0
3023	0	0	0
3024	0	0	0
3025	0	0	0
3026	0	0	0
3027	0	0	0
3028	0	0	0
3029	0	0	0
3030	0	0	0
3031	0	0	0
3032	0	0	0
3033	0	0	0
3034	0	0	0
3035	0	0	0
3036	0	0	0
3037	0	0	0
3038	0	0	0
3039	0	0	0
3040	0	0	0
3041	0	0	0
3042	0	0	0
3043	0	0	0
3044	0	0	0
3045	0	0	0
3046	0	0	0
3047	0	0	0
3048	0	0	0
3049	0	0	0
3050	0	0	0
3051	0	0	0
3052	0	0	0
3053	0	0	0
3054	0	0	0
3055	0	0	0
3056	0	0	0
3057	0	0	0
3058	0	0	0
3059	0	0	0
3060	0	0	0
3061	0	0	0
3062	0	0	0
3063	0	0	0
3064	0	0	0
3065	0	0	0
3066	0	0	0
3067	0	0	0
3068	0	0	0
3069	0	0	0
3070	0	0	0
3071	0	0	0
3072	0	0	0
3073	0	0	0
3074	0	0	0
3075	0	0	0
3076	0	0	0
3077	0	0	0
3078	0	0	0
3079	0	0	0
3080	0	0	0
3081	255	248	243
3082	255	251	246
3083	255	227	234
3084	251	205	223
3085	245	186	216
3086	241	168	211
3087	245	167	216
3088	247	163	222
3089	249	163	226
3090	247	160	227
3091	252	166	233
3092	254	171	237
3093	252	170	237
3094	246	168	236
3095	244	174	241
3096	242	180	245
3097	239	183	246
3098	0	0	0
3099	235	198	248
3100	0	0	0
3101	0	0	0
3102	0	0	0
3103	0	0	0
3104	0	0	0
3105	0	0	0
3106	0	0	0
3107	0	0	0
3108	0	0	0
3109	0	0	0
3110	0	0	0
3111	0	0	0
3112	0	0	0
3113	0	0	0
3114	0	0	0
3115	0	0	0
3116	0	0	0
3117	0	0	0
3118	0	0	0
3119	0	0	0
3120	0	0	0
3121	0	0	0
3122	0	0	0
3123	0	0	0
3124	0	0	0
3125	0	0	0
3126	0	0	0
3127	0	0	0
3128	0	0	0
3129	0	0	0
3130	0	0	0
3131	0	0	0
3132	0	0	0
3133	0	0	0
3134	0	0	0
3135	0	0	0
3136	0	0	0
3137	0	0	0
3138	0	0	0
3139	0	0	0
3140	0	0	0
3141	0	0	0
3142	0	0	0
3143	0	0	0
3144	0	0	0
3145	0	0	0
3146	0	0	0
3147	0	0	0
3148	0	0	0
3149	0	0	0
3150	0	0	0
3151	0	0	0
3152	0	0	0
3153	0	0	0
3154	0	0	0
3155	0	0	0
3156	0	0	0
3157	0	0	0
3158	0	0	0
3159	0	0	0
3160	0	0	0
3161	0	0	0
3162	255	248	243
3163	255	250	246
3164	255	232	237
3165	253	208	226
3166	249	192	221
3167	244	174	216
3168	246	169	219
3169	248	165	223
3170	248	163	226
3171	247	160	227
3172	253	169	234
3173	255	173	238
3174	254	175	239
3175	250	172	238
3176	248	175	241
3177	249	182	246
3178	240	179	242
3179	0	0	0
3180	0	0	0
3181	0	0	0
3182	0	0	0
3183	0	0	0
3184	0	0	0
3185	0	0	0
3186	0	0	0
3187	0	0	0
3188	0	0	0
3189	0	0	0
3190	0	0	0
3191	0	0	0
3192	0	0	0
3193	0	0	0
3194	0	0	0
3195	0	0	0
3196	0	0	0
3197	0	0	0
3198	0	0	0
3199	0	0	0
3200	0	0	0
3201	0	0	0
3202	0	0	0
3203	0	0	0
3204	0	0	0
3205	0	0	0
3206	0	0	0
3207	0	0	0
3208	0	0	0
3209	0	0	0
3210	0	0	0
3211	0	0	0
3212	0	0	0
3213	0	0	0
3214	0	0	0
3215	254	243	239
3216	0	0	0
3217	0	0	0
3218	0	0	0
3219	0	0	0
3220	0	0	0
3221	0	0	0
3222	0	0	0
3223	0	0	0
3224	0	0	0
3225	0	0	0
3226	0	0	0
3227	0	0	0
3228	0	0	0
3229	0	0	0
3230	0	0	0
3231	0	0	0
3232	0	0	0
3233	0	0	0
3234	0	0	0
3235	0	0	0
3236	0	0	0
3237	0	0	0
3238	0	0	0
3239	0	0	0
3240	0	0	0
3241	0	0	0
3242	0	0	0
3243	255	253	245
3244	255	250	245
3245	255	230	234
3246	254	211	226
3247	248	193	220
3248	245	178	220
3249	246	172	222
3250	245	164	222
3251	248	164	227
3252	247	160	230
3253	252	169	237
3254	255	175	240
3255	253	174	237
3256	250	175	236
3257	248	176	238
3258	246	178	241
3259	242	179	243
3260	0	0	0
3261	0	0	0
3262	0	0	0
3263	0	0	0
3264	0	0	0
3265	0	0	0
3266	0	0	0
3267	0	0	0
3268	0	0	0
3269	0	0	0
3270	0	0	0
3271	0	0	0
3272	0	0	0
3273	0	0	0
3274	0	0	0
3275	0	0	0
3276	0	0	0
3277	0	0	0
3278	0	0	0
3279	0	0	0
3280	0	0	0
3281	0	0	0
3282	0	0	0
3283	0	0	0
3284	0	0	0
3285	0	0	0
3286	0	0	0
3287	0	0	0
3288	0	0	0
3289	0	0	0
3290	0	0	0
3291	0	0	0
3292	0	0	0
3293	0	0	0
3294	0	0	0
3295	0	0	0
3296	255	242	239
3297	255	244	240
3298	249	223	225
3299	0	0	0
3300	0	0	0
3301	0	0	0
3302	0	0	0
3303	0	0	0
3304	0	0	0
3305	0	0	0
3306	0	0	0
3307	0	0	0
3308	0	0	0
3309	0	0	0
3310	0	0	0
3311	0	0	0
3312	0	0	0
3313	0	0	0
3314	0	0	0
3315	0	0	0
3316	0	0	0
3317	0	0	0
3318	0	0	0
3319	0	0	0
3320	0	0	0
3321	0	0	0
3322	0	0	0
3323	0	0	0
3324	255	248	241
3325	255	243	240
3326	255	226	231
3327	250	205	221
3328	250	196	221
3329	244	178	217
3330	248	177	226
3331	248	170	228
3332	250	170	230
3333	250	167	233
3334	249	165	235
3335	254	173	241
3336	255	180	242
3337	250	177	237
3338	251	184	240
3339	247	184	240
3340	0	0	0
3341	0	0	0
3342	0	0	0
3343	0	0	0
3344	0	0	0
3345	0	0	0
3346	0	0	0
3347	0	0	0
3348	0	0	0
3349	0	0	0
3350	0	0	0
3351	0	0	0
3352	0	0	0
3353	0	0	0
3354	0	0	0
3355	0	0	0
3356	0	0	0
3357	0	0	0
3358	0	0	0
3359	0	0	0
3360	0	0	0
3361	0	0	0
3362	0	0	0
3363	0	0	0
3364	0	0	0
3365	0	0	0
3366	0	0	0
3367	0	0	0
3368	0	0	0
3369	0	0	0
3370	0	0	0
3371	0	0	0
3372	0	0	0
3373	0	0	0
3374	0	0	0
3375	255	247	238
3376	255	252	244
3377	255	251	245
3378	255	247	242
3379	255	230	230
3380	246	209	216
3381	0	0	0
3382	0	0	0
3383	255	231	232
3384	255	233	230
3385	0	0	0
3386	0	0	0
3387	255	242	238
3388	255	239	236
3389	255	244	238
3390	0	0	0
3391	0	0	0
3392	0	0	0
3393	0	0	0
3394	0	0	0
3395	0	0	0
3396	0	0	0
3397	0	0	0
3398	0	0	0
3399	255	244	241
3400	255	246	242
3401	255	248	243
3402	255	250	243
3403	255	249	241
3404	255	246	237
3405	255	241	235
3406	255	240	237
3407	253	218	224
3408	247	201	216
3409	244	189	213
3410	244	180	218
3411	247	177	225
3412	249	174	231
3413	253	175	236
3414	253	173	236
3415	251	171	236
3416	248	167	236
3417	254	177	242
3418	254	183	242
3419	252	187	242
3420	253	194	244
3421	249	196	244
3422	0	0	0
3423	0	0	0
3424	0	0	0
3425	0	0	0
3426	0	0	0
3427	0	0	0
3428	0	0	0
3429	0	0	0
3430	0	0	0
3431	0	0	0
3432	0	0	0
3433	0	0	0
3434	0	0	0
3435	0	0	0
3436	0	0	0
3437	0	0	0
3438	0	0	0
3439	0	0	0
3440	0	0	0
3441	0	0	0
3442	0	0	0
3443	0	0	0
3444	0	0	0
3445	0	0	0
3446	0	0	0
3447	0	0	0
3448	0	0	0
3449	0	0	0
3450	0	0	0
3451	0	0	0
3452	0	0	0
3453	0	0	0
3454	0	0	0
3455	0	0	0
3456	253	236	231
3457	255	246	240
3458	255	224	227
3459	255	221	226
3460	255	217	223
3461	245	199	211
3462	248	202	213
3463	0	0	0
3464	255	220	226
3465	255	223	227
3466	249	209	215
3467	250	213	217
3468	255	229	228
3469	255	226	226
3470	255	226	225
3471	255	231	229
3472	255	232	229
3473	0	0	0
3474	0	0	0
3475	0	0	0
3476	0	0	0
3477	0	0	0
3478	0	0	0
3479	0	0	0
3480	255	241	239
3481	255	246	244
3482	255	233	236
3483	255	236	237
3484	255	233	233
3485	255	230	230
3486	255	227	229
3487	255	222	228
3488	251	211	224
3489	237	188	210
3490	251	201	222
3491	248	189	220
3492	249	182	225
3493	249	177	230
3494	253	178	237
3495	254	178	240
3496	247	168	234
3497	244	165	232
3498	253	179	243
3499	255	188	248
3500	252	185	241
3501	248	188	240
3502	251	199	245
3503	0	0	0
3504	0	0	0
3505	0	0	0
3506	0	0	0
3507	0	0	0
3508	0	0	0
3509	0	0	0
3510	0	0	0
3511	0	0	0
3512	0	0	0
3513	0	0	0
3514	0	0	0
3515	0	0	0
3516	0	0	0
3517	0	0	0
3518	0	0	0
3519	0	0	0
3520	0	0	0
3521	0	0	0
3522	0	0	0
3523	0	0	0
3524	0	0	0
3525	0	0	0
3526	0	0	0
3527	0	0	0
3528	0	0	0
3529	0	0	0
3530	0	0	0
3531	0	0	0
3532	0	0	0
3533	0	0	0
3534	0	0	0
3535	0	0	0
3536	0	0	0
3537	255	240	238
3538	255	238	236
3539	255	221	227
3540	247	198	215
3541	248	196	215
3542	248	193	213
3543	251	196	216
3544	254	199	218
3545	255	208	222
3546	255	214	222
3547	253	201	212
3548	242	188	204
3549	251	204	214
3550	255	218	221
3551	255	216	217
3552	255	216	217
3553	255	219	221
3554	255	221	223
3555	255	231	230
3556	255	243	237
3557	255	242	235
3558	255	245	238
3559	255	242	237
3560	255	239	238
3561	255	243	242
3562	255	247	245
3563	255	235	238
3564	255	222	230
3565	253	219	227
3566	252	215	224
3567	247	208	219
3568	248	205	222
3569	239	190	216
3570	233	177	212
3571	239	185	218
3572	251	197	228
3573	248	186	223
3574	246	177	224
3575	248	178	230
3576	251	177	235
3577	247	171	234
3578	241	162	229
3579	250	177	241
3580	255	190	249
3581	255	191	247
3582	250	187	240
3583	248	195	242
3584	0	0	0
3585	0	0	0
3586	0	0	0
3587	0	0	0
3588	0	0	0
3589	0	0	0
3590	0	0	0
3591	0	0	0
3592	0	0	0
3593	0	0	0
3594	0	0	0
3595	0	0	0
3596	0	0	0
3597	0	0	0
3598	0	0	0
3599	0	0	0
3600	0	0	0
3601	0	0	0
3602	0	0	0
3603	0	0	0
3604	0	0	0
3605	0	0	0
3606	0	0	0
3607	0	0	0
3608	0	0	0
3609	0	0	0
3610	0	0	0
3611	0	0	0
3612	0	0	0
3613	0	0	0
3614	0	0	0
3615	0	0	0
3616	0	0	0
3617	0	0	0
3618	255	229	231
3619	255	227	232
3620	255	212	225
3621	249	193	215
3622	245	182	211
3623	246	181	212
3624	253	188	217
3625	255	192	219
3626	252	187	216
3627	255	195	219
3628	253	190	212
3629	243	178	201
3630	250	190	211
3631	255	206	221
3632	255	202	214
3633	251	200	209
3634	255	206	214
3635	255	210	218
3636	251	206	217
3637	255	217	224
3638	255	226	229
3639	255	226	227
3640	255	227	228
3641	255	223	227
3642	255	222	228
3643	255	227	233
3644	255	219	230
3645	247	205	222
3646	251	209	225
3647	250	206	223
3648	251	208	224
3649	246	200	220
3650	252	208	231
3651	244	192	224
3652	251	199	232
3653	255	206	238
3654	255	204	237
3655	252	191	230
3656	250	185	229
3657	250	183	232
3658	254	187	238
3659	251	180	237
3660	249	177	236
3661	255	193	248
3662	255	194	248
3663	255	194	246
3664	246	188	237
3665	0	0	0
3666	0	0	0
3667	0	0	0
3668	0	0	0
3669	0	0	0
3670	0	0	0
3671	0	0	0
3672	0	0	0
3673	0	0	0
3674	0	0	0
3675	0	0	0
3676	0	0	0
3677	0	0	0
3678	0	0	0
3679	0	0	0
3680	0	0	0
3681	0	0	0
3682	0	0	0
3683	0	0	0
3684	0	0	0
3685	0	0	0
3686	0	0	0
3687	0	0	0
3688	0	0	0
3689	0	0	0
3690	0	0	0
3691	0	0	0
3692	0	0	0
3693	0	0	0
3694	0	0	0
3695	255	248	243
3696	255	243	240
3697	255	239	239
3698	255	227	230
3699	255	221	226
3700	255	216	223
3701	253	200	216
3702	249	186	213
3703	247	177	212
3704	242	166	208
3705	249	175	215
3706	254	181	218
3707	251	176	214
3708	248	172	213
3709	246	170	211
3710	242	166	204
3711	249	177	210
3712	255	189	217
3713	255	189	216
3714	251	186	211
3715	253	192	212
3716	255	199	216
3717	252	195	214
3718	247	191	211
3719	252	202	219
3720	255	212	225
3721	255	210	222
3722	255	211	222
3723	254	208	219
3724	253	206	219
3725	248	197	216
3726	243	190	216
3727	245	193	221
3728	248	197	224
3729	248	197	223
3730	247	197	224
3731	242	195	222
3732	248	202	231
3733	254	207	237
3734	255	212	240
3735	255	207	237
3736	255	205	239
3737	255	199	238
3738	253	191	233
3739	255	194	237
3740	255	197	241
3741	255	194	240
3742	253	190	237
3743	255	194	241
3744	255	196	244
3745	253	196	244
3746	243	190	235
3747	0	0	0
3748	0	0	0
3749	0	0	0
3750	0	0	0
3751	0	0	0
3752	0	0	0
3753	0	0	0
3754	0	0	0
3755	0	0	0
3756	0	0	0
3757	0	0	0
3758	0	0	0
3759	0	0	0
3760	0	0	0
3761	0	0	0
3762	0	0	0
3763	0	0	0
3764	0	0	0
3765	0	0	0
3766	0	0	0
3767	0	0	0
3768	0	0	0
3769	0	0	0
3770	0	0	0
3771	0	0	0
3772	0	0	0
3773	0	0	0
3774	0	0	0
3775	0	0	0
3776	255	249	245
3777	255	250	247
3778	255	222	229
3779	255	218	228
3780	249	198	214
3781	247	192	211
3782	255	198	218
3783	250	183	212
3784	249	174	213
3785	247	166	213
3786	246	163	213
3787	253	171	219
3788	255	175	221
3789	252	170	217
3790	252	170	219
3791	251	169	217
3792	254	175	217
3793	255	187	223
3794	254	178	217
3795	253	178	216
3796	250	177	213
3797	253	183	216
3798	255	189	218
3799	251	185	215
3800	251	188	218
3801	255	199	225
3802	255	197	222
3803	252	196	220
3804	253	197	220
3805	250	193	218
3806	251	195	219
3807	245	185	215
3808	248	189	223
3809	250	192	227
3810	251	194	228
3811	249	193	228
3812	248	196	229
3813	237	191	224
3814	254	215	242
3815	255	221	246
3816	255	208	236
3817	252	202	232
3818	255	206	239
3819	255	199	237
3820	249	188	231
3821	252	191	235
3822	253	194	236
3823	250	189	232
3824	252	193	235
3825	254	198	239
3826	255	200	243
3827	251	199	242
3828	245	197	237
3829	0	0	0
3830	0	0	0
3831	0	0	0
3832	0	0	0
3833	0	0	0
3834	0	0	0
3835	0	0	0
3836	0	0	0
3837	0	0	0
3838	0	0	0
3839	0	0	0
3840	0	0	0
3841	0	0	0
3842	0	0	0
3843	0	0	0
3844	0	0	0
3845	0	0	0
3846	0	0	0
3847	0	0	0
3848	0	0	0
3849	0	0	0
3850	0	0	0
3851	0	0	0
3852	0	0	0
3853	0	0	0
3854	0	0	0
3855	0	0	0
3856	0	0	0
3857	0	0	0
3858	255	246	245
3859	254	225	233
3860	244	198	218
3861	244	188	215
3862	235	169	204
3863	241	174	210
3864	250	180	218
3865	248	169	214
3866	246	159	212
3867	248	160	216
3868	248	156	216
3869	253	164	222
3870	255	169	226
3871	255	168	224
3872	255	167	222
3873	255	173	222
3874	255	178	222
3875	253	170	215
3876	247	162	212
3877	248	164	215
3878	246	163	214
3879	249	169	216
3880	250	175	217
3881	249	176	217
3882	250	179	222
3883	248	178	221
3884	244	175	216
3885	242	174	214
3886	243	176	217
3887	241	175	217
3888	242	177	220
3889	243	177	221
3890	244	179	223
3891	244	180	224
3892	0	0	0
3893	0	0	0
3894	0	0	0
3895	248	207	240
3896	255	229	252
3897	255	216	241
3898	252	204	232
3899	254	204	232
3900	255	206	236
3901	252	196	232
3902	247	187	231
3903	252	192	237
3904	251	193	235
3905	252	197	237
3906	255	202	242
3907	255	205	245
3908	255	206	245
3909	252	207	244
3910	0	0	0
3911	0	0	0
3912	0	0	0
3913	0	0	0
3914	0	0	0
3915	0	0	0
3916	0	0	0
3917	0	0	0
3918	0	0	0
3919	0	0	0
3920	0	0	0
3921	0	0	0
3922	0	0	0
3923	0	0	0
3924	0	0	0
3925	0	0	0
3926	0	0	0
3927	0	0	0
3928	0	0	0
3929	0	0	0
3930	0	0	0
3931	0	0	0
3932	0	0	0
3933	0	0	0
3934	0	0	0
3935	0	0	0
3936	0	0	0
3937	0	0	0
3938	0	0	0
3939	0	0	0
3940	255	244	247
3941	254	222	237
3942	234	180	214
3943	235	171	214
3944	240	171	217
3945	249	177	225
3946	252	173	226
3947	248	161	221
3948	247	153	219
3949	249	153	221
3950	252	156	223
3951	255	163	229
3952	249	152	221
3953	248	151	219
3954	253	160	223
3955	255	165	224
3956	255	167	221
3957	248	158	214
3958	251	162	220
3959	252	165	223
3960	250	163	221
3961	253	169	224
3962	255	177	225
3963	254	178	226
3964	254	180	229
3965	251	178	227
3966	255	185	229
3967	253	185	228
3968	252	185	229
3969	248	183	229
3970	253	191	237
3971	254	192	238
3972	251	189	234
3973	0	0	0
3974	0	0	0
3975	0	0	0
3976	0	0	0
3977	0	0	0
3978	255	224	248
3979	251	208	235
3980	251	205	233
3981	254	206	235
3982	254	204	234
3983	248	193	230
3984	251	195	238
3985	255	200	243
3986	252	197	237
3987	253	201	239
3988	255	208	246
3989	255	211	248
3990	252	205	242
3991	0	0	0
3992	0	0	0
3993	0	0	0
3994	0	0	0
3995	0	0	0
3996	0	0	0
3997	0	0	0
3998	0	0	0
3999	0	0	0
4000	0	0	0
4001	0	0	0
4002	0	0	0
4003	0	0	0
4004	0	0	0
4005	0	0	0
4006	0	0	0
4007	0	0	0
4008	0	0	0
4009	0	0	0
4010	0	0	0
4011	0	0	0
4012	0	0	0
4013	0	0	0
4014	0	0	0
4015	0	0	0
4016	0	0	0
4017	0	0	0
4018	0	0	0
4019	0	0	0
4020	0	0	0
4021	251	240	245
4022	254	236	243
4023	236	197	224
4024	218	157	209
4025	233	166	224
4026	239	166	226
4027	242	162	226
4028	245	158	228
4029	245	151	226
4030	243	143	224
4031	248	147	227
4032	250	149	226
4033	244	139	218
4034	236	128	209
4035	246	142	219
4036	252	152	226
4037	254	156	228
4038	253	158	227
4039	250	157	224
4040	252	161	228
4041	251	160	226
4042	248	157	221
4043	252	165	225
4044	255	173	227
4045	252	172	225
4046	251	174	225
4047	254	180	229
4048	255	188	233
4049	254	186	231
4050	252	185	231
4051	253	190	234
4052	255	197	241
4053	254	195	239
4054	250	192	236
4055	251	198	237
4056	0	0	0
4057	0	0	0
4058	0	0	0
4059	0	0	0
4060	0	0	0
4061	246	205	233
4062	246	203	234
4063	247	201	235
4064	247	198	235
4065	250	200	238
4066	251	200	241
4067	251	201	241
4068	0	0	0
4069	254	206	242
4070	255	213	247
4071	252	208	242
4072	0	0	0
4073	0	0	0
4074	0	0	0
4075	0	0	0
4076	0	0	0
4077	0	0	0
4078	0	0	0
4079	0	0	0
4080	0	0	0
4081	0	0	0
4082	0	0	0
4083	0	0	0
4084	0	0	0
4085	0	0	0
4086	0	0	0
4087	0	0	0
4088	0	0	0
4089	0	0	0
4090	0	0	0
4091	0	0	0
4092	0	0	0
4093	0	0	0
4094	0	0	0
4095	0	0	0
4096	0	0	0
4097	0	0	0
4098	0	0	0
4099	0	0	0
4100	0	0	0
4101	0	0	0
4102	0	0	0
4103	248	234	243
4104	243	220	237
4105	223	180	219
4106	217	158	219
4107	235	169	236
4108	237	162	233
4109	241	159	233
4110	250	162	239
4111	248	154	237
4112	248	149	235
4113	254	153	238
4114	254	151	234
4115	247	141	224
4116	251	147	228
4117	255	162	239
4118	250	144	229
4119	252	148	231
4120	248	146	227
4121	243	145	224
4122	255	166	237
4123	255	165	235
4124	247	155	225
4125	251	163	228
4126	255	176	233
4127	254	174	229
4128	253	176	228
4129	255	182	231
4130	254	183	232
4131	250	181	229
4132	255	191	235
4133	255	196	238
4134	255	197	239
4135	250	194	236
4136	251	199	238
4137	0	0	0
4138	0	0	0
4139	0	0	0
4140	0	0	0
4141	0	0	0
4142	0	0	0
4143	0	0	0
4144	0	0	0
4145	0	0	0
4146	0	0	0
4147	0	0	0
4148	0	0	0
4149	0	0	0
4150	0	0	0
4151	0	0	0
4152	252	212	243
4153	0	0	0
4154	0	0	0
4155	0	0	0
4156	0	0	0
4157	0	0	0
4158	0	0	0
4159	0	0	0
4160	0	0	0
4161	0	0	0
4162	0	0	0
4163	0	0	0
4164	0	0	0
4165	0	0	0
4166	0	0	0
4167	0	0	0
4168	0	0	0
4169	0	0	0
4170	0	0	0
4171	0	0	0
4172	0	0	0
4173	0	0	0
4174	0	0	0
4175	0	0	0
4176	0	0	0
4177	0	0	0
4178	0	0	0
4179	0	0	0
4180	0	0	0
4181	0	0	0
4182	0	0	0
4183	0	0	0
4184	251	237	244
4185	234	214	233
4186	230	201	231
4187	218	176	224
4188	211	153	222
4189	223	156	233
4190	226	150	233
4191	236	154	238
4192	242	155	239
4193	239	147	233
4194	238	142	231
4195	244	144	233
4196	246	143	230
4197	252	150	234
4198	255	156	238
4199	249	142	230
4200	237	125	220
4201	239	129	223
4202	235	127	220
4203	246	147	230
4204	255	166	240
4205	247	155	229
4206	240	147	224
4207	250	162	233
4208	255	174	236
4209	255	175	233
4210	253	176	231
4211	252	177	230
4212	250	178	230
4213	253	186	234
4214	255	196	238
4215	254	195	236
4216	251	195	233
4217	249	200	235
4218	0	0	0
4219	0	0	0
4220	0	0	0
4221	0	0	0
4222	0	0	0
4223	0	0	0
4224	0	0	0
4225	0	0	0
4226	0	0	0
4227	0	0	0
4228	0	0	0
4229	0	0	0
4230	0	0	0
4231	0	0	0
4232	0	0	0
4233	0	0	0
4234	0	0	0
4235	0	0	0
4236	0	0	0
4237	0	0	0
4238	0	0	0
4239	0	0	0
4240	0	0	0
4241	0	0	0
4242	0	0	0
4243	0	0	0
4244	0	0	0
4245	0	0	0
4246	0	0	0
4247	0	0	0
4248	0	0	0
4249	0	0	0
4250	0	0	0
4251	0	0	0
4252	0	0	0
4253	0	0	0
4254	0	0	0
4255	0	0	0
4256	0	0	0
4257	0	0	0
4258	0	0	0
4259	0	0	0
4260	0	0	0
4261	0	0	0
4262	0	0	0
4263	0	0	0
4264	0	0	0
4265	255	248	251
4266	248	232	245
4267	229	208	234
4268	225	198	236
4269	214	173	229
4270	221	172	239
4271	233	174	249
4272	235	167	249
4273	244	170	252
4274	242	164	246
4275	236	155	238
4276	241	158	242
4277	250	162	246
4278	249	155	241
4279	255	163	247
4280	253	153	240
4281	244	139	231
4282	247	142	234
4283	249	146	238
4284	250	149	239
4285	255	168	249
4286	254	162	239
4287	240	149	226
4288	248	163	238
4289	255	179	248
4290	255	175	240
4291	255	176	238
4292	249	171	231
4293	247	172	230
4294	253	185	237
4295	255	192	239
4296	255	198	240
4297	251	197	236
4298	250	201	235
4299	0	0	0
4300	0	0	0
4301	0	0	0
4302	0	0	0
4303	0	0	0
4304	0	0	0
4305	0	0	0
4306	0	0	0
4307	0	0	0
4308	0	0	0
4309	0	0	0
4310	0	0	0
4311	0	0	0
4312	0	0	0
4313	0	0	0
4314	0	0	0
4315	0	0	0
4316	0	0	0
4317	0	0	0
4318	0	0	0
4319	0	0	0
4320	0	0	0
4321	0	0	0
4322	0	0	0
4323	0	0	0
4324	0	0	0
4325	0	0	0
4326	0	0	0
4327	0	0	0
4328	0	0	0
4329	0	0	0
4330	0	0	0
4331	0	0	0
4332	0	0	0
4333	0	0	0
4334	0	0	0
4335	0	0	0
4336	0	0	0
4337	0	0	0
4338	0	0	0
4339	0	0	0
4340	0	0	0
4341	0	0	0
4342	0	0	0
4343	0	0	0
4344	0	0	0
4345	0	0	0
4346	0	0	0
4347	243	232	243
4348	234	216	239
4349	215	196	230
4350	209	185	232
4351	207	179	235
4352	212	175	240
4353	220	173	244
4354	222	165	242
4355	228	166	245
4356	229	162	243
4357	232	164	244
4358	238	167	248
4359	242	164	246
4360	243	157	242
4361	241	149	238
4362	236	140	233
4363	242	145	237
4364	245	147	238
4365	250	154	241
4366	251	158	243
4367	249	156	240
4368	241	150	230
4369	243	160	234
4370	251	174	244
4371	252	172	242
4372	248	168	237
4373	244	165	234
4374	239	161	230
4375	249	177	240
4376	254	189	244
4377	252	193	242
4378	0	0	0
4379	0	0	0
4380	0	0	0
4381	0	0	0
4382	0	0	0
4383	0	0	0
4384	0	0	0
4385	0	0	0
4386	0	0	0
4387	0	0	0
4388	0	0	0
4389	0	0	0
4390	0	0	0
4391	0	0	0
4392	0	0	0
4393	0	0	0
4394	0	0	0
4395	0	0	0
4396	0	0	0
4397	0	0	0
4398	0	0	0
4399	0	0	0
4400	0	0	0
4401	0	0	0
4402	0	0	0
4403	0	0	0
4404	0	0	0
4405	0	0	0
4406	0	0	0
4407	0	0	0
4408	0	0	0
4409	0	0	0
4410	0	0	0
4411	0	0	0
4412	0	0	0
4413	0	0	0
4414	0	0	0
4415	0	0	0
4416	0	0	0
4417	0	0	0
4418	0	0	0
4419	0	0	0
4420	0	0	0
4421	0	0	0
4422	0	0	0
4423	0	0	0
4424	0	0	0
4425	0	0	0
4426	0	0	0
4427	0	0	0
4428	0	0	0
4429	0	0	0
4430	237	231	248
4431	218	210	239
4432	212	207	244
4433	204	197	243
4434	208	196	247
4435	215	193	250
4436	216	184	247
4437	224	185	250
4438	227	182	250
4439	236	186	255
4440	233	175	249
4441	237	171	248
4442	245	176	253
4443	242	168	248
4444	237	157	243
4445	245	164	249
4446	242	157	242
4447	249	165	246
4448	253	169	249
4449	251	168	246
4450	247	166	241
4451	250	177	246
4452	251	181	247
4453	252	180	245
4454	254	183	246
4455	249	179	243
4456	249	180	244
4457	255	198	255
4458	252	191	245
4459	248	194	242
4460	0	0	0
4461	0	0	0
4462	0	0	0
4463	0	0	0
4464	0	0	0
4465	0	0	0
4466	0	0	0
4467	0	0	0
4468	0	0	0
4469	0	0	0
4470	0	0	0
4471	0	0	0
4472	0	0	0
4473	0	0	0
4474	0	0	0
4475	0	0	0
4476	0	0	0
4477	0	0	0
4478	0	0	0
4479	0	0	0
4480	0	0	0
4481	0	0	0
4482	0	0	0
4483	0	0	0
4484	0	0	0
4485	0	0	0
4486	0	0	0
4487	0	0	0
4488	0	0	0
4489	0	0	0
4490	0	0	0
4491	0	0	0
4492	0	0	0
4493	0	0	0
4494	0	0	0
4495	0	0	0
4496	0	0	0
4497	0	0	0
4498	0	0	0
4499	0	0	0
4500	0	0	0
4501	0	0	0
4502	0	0	0
4503	0	0	0
4504	0	0	0
4505	0	0	0
4506	0	0	0
4507	0	0	0
4508	0	0	0
4509	0	0	0
4510	0	0	0
4511	0	0	0
4512	0	0	0
4513	233	236	251
4514	226	231	255
4515	216	224	254
4516	216	221	255
4517	219	213	255
4518	219	204	251
4519	222	200	252
4520	226	197	252
4521	226	188	248
4522	224	177	243
4523	236	184	250
4524	244	189	255
4525	238	178	249
4526	233	167	245
4527	237	168	246
4528	235	162	241
4529	244	171	247
4530	249	175	250
4531	250	178	251
4532	248	178	247
4533	246	181	246
4534	247	184	246
4535	250	187	246
4536	252	190	245
4537	249	189	243
4538	248	190	245
4539	249	191	245
4540	240	184	237
4541	0	0	0
4542	0	0	0
4543	0	0	0
4544	0	0	0
4545	0	0	0
4546	0	0	0
4547	0	0	0
4548	0	0	0
4549	0	0	0
4550	0	0	0
4551	0	0	0
4552	0	0	0
4553	0	0	0
4554	0	0	0
4555	0	0	0
4556	0	0	0
4557	0	0	0
4558	0	0	0
4559	0	0	0
4560	0	0	0
4561	0	0	0
4562	0	0	0
4563	0	0	0
4564	0	0	0
4565	0	0	0
4566	0	0	0
4567	0	0	0
4568	0	0	0
4569	0	0	0
4570	0	0	0
4571	0	0	0
4572	0	0	0
4573	0	0	0
4574	0	0	0
4575	0	0	0
4576	0	0	0
4577	0	0	0
4578	0	0	0
4579	0	0	0
4580	0	0	0
4581	0	0	0
4582	0	0	0
4583	0	0	0
4584	0	0	0
4585	0	0	0
4586	0	0	0
4587	0	0	0
4588	0	0	0
4589	0	0	0
4590	0	0	0
4591	0	0	0
4592	0	0	0
4593	0	0	0
4594	0	0	0
4595	0	0	0
4596	0	0	0
4597	0	0	0
4598	0	0	0
4599	0	0	0
4600	0	0	0
4601	0	0	0
4602	0	0	0
4603	0	0	0
4604	0	0	0
4605	0	0	0
4606	0	0	0
4607	0	0	0
4608	0	0	0
4609	0	0	0
4610	0	0	0
4611	0	0	0
4612	0	0	0
4613	0	0	0
4614	0	0	0
4615	0	0	0
4616	246	193	248
4617	248	195	246
4618	249	198	244
4619	0	0	0
4620	0	0	0
4621	0	0	0
4622	0	0	0
4623	0	0	0
4624	0	0	0
4625	0	0	0
4626	0	0	0
4627	0	0	0
4628	0	0	0
4629	0	0	0
4630	0	0	0
4631	0	0	0
4632	0	0	0
4633	0	0	0
4634	0	0	0
4635	0	0	0
4636	0	0	0
4637	0	0	0
4638	0	0	0
4639	0	0	0
4640	0	0	0
4641	0	0	0
4642	0	0	0
4643	0	0	0
4644	0	0	0
4645	0	0	0
4646	0	0	0
4647	0	0	0
4648	0	0	0
4649	0	0	0
4650	0	0	0
4651	0	0	0
4652	0	0	0
4653	0	0	0
4654	0	0	0
4655	0	0	0
4656	0	0	0
4657	0	0	0
4658	0	0	0
4659	0	0	0
4660	0	0	0
4661	0	0	0
4662	0	0	0
4663	0	0	0
4664	0	0	0
4665	0	0	0
4666	0	0	0
4667	0	0	0
4668	0	0	0
4669	0	0	0
4670	0	0	0
4671	0	0	0
4672	0	0	0
4673	0	0	0
4674	0	0	0
4675	0	0	0
4676	0	0	0
4677	0	0	0
4678	0	0	0
4679	0	0	0
4680	0	0	0
4681	0	0	0
4682	0	0	0
4683	0	0	0
4684	0	0	0
4685	0	0	0
4686	0	0	0
4687	0	0	0
4688	0	0	0
4689	0	0	0
4690	0	0	0
4691	0	0	0
4692	0	0	0
4693	0	0	0
4694	0	0	0
4695	0	0	0
4696	0	0	0
4697	0	0	0
4698	0	0	0
4699	247	205	248
4700	0	0	0
4701	0	0	0
4702	0	0	0
4703	0	0	0
4704	0	0	0
4705	0	0	0
4706	0	0	0
4707	0	0	0
4708	0	0	0
4709	0	0	0
4710	0	0	0
4711	0	0	0
4712	0	0	0
4713	0	0	0
4714	0	0	0
4715	0	0	0
4716	0	0	0
4717	0	0	0
4718	0	0	0
4719	0	0	0
4720	0	0	0
4721	0	0	0
4722	0	0	0
4723	0	0	0
4724	0	0	0
4725	0	0	0
4726	0	0	0
4727	0	0	0
4728	0	0	0
4729	0	0	0
4730	0	0	0
4731	0	0	0
4732	0	0	0
4733	0	0	0
4734	0	0	0
4735	0	0	0
4736	0	0	0
4737	0	0	0
4738	0	0	0
4739	0	0	0
4740	0	0	0
4741	0	0	0
4742	0	0	0
4743	0	0	0
4744	0	0	0
4745	0	0	0
4746	0	0	0
4747	0	0	0
4748	0	0	0
4749	0	0	0
4750	0	0	0
4751	0	0	0
4752	0	0	0
4753	0	0	0
4754	0	0	0
4755	0	0	0
4756	0	0	0
