 	R	G	B
1	0	0	0
2	0	0	0
3	0	0	0
4	0	0	0
5	0	0	0
6	0	0	0
7	0	0	0
8	0	0	0
9	0	0	0
10	0	0	0
11	0	0	0
12	0	0	0
13	0	0	0
14	0	0	0
15	0	0	0
16	0	0	0
17	0	0	0
18	0	0	0
19	0	0	0
20	0	0	0
21	0	0	0
22	0	0	0
23	0	0	0
24	0	0	0
25	0	0	0
26	0	0	0
27	0	0	0
28	0	0	0
29	0	0	0
30	0	0	0
31	0	0	0
32	0	0	0
33	0	0	0
34	0	0	0
35	0	0	0
36	0	0	0
37	246	235	235
38	0	0	0
39	0	0	0
40	0	0	0
41	0	0	0
42	0	0	0
43	0	0	0
44	0	0	0
45	0	0	0
46	0	0	0
47	0	0	0
48	0	0	0
49	0	0	0
50	0	0	0
51	0	0	0
52	0	0	0
53	0	0	0
54	0	0	0
55	0	0	0
56	0	0	0
57	0	0	0
58	0	0	0
59	0	0	0
60	0	0	0
61	0	0	0
62	0	0	0
63	0	0	0
64	0	0	0
65	0	0	0
66	0	0	0
67	0	0	0
68	0	0	0
69	0	0	0
70	0	0	0
71	0	0	0
72	0	0	0
73	0	0	0
74	0	0	0
75	0	0	0
76	0	0	0
77	254	245	239
78	255	247	241
79	249	235	234
80	245	226	231
81	244	214	227
82	237	199	220
83	0	0	0
84	0	0	0
85	0	0	0
86	0	0	0
87	0	0	0
88	0	0	0
89	0	0	0
90	0	0	0
91	0	0	0
92	0	0	0
93	0	0	0
94	0	0	0
95	0	0	0
96	0	0	0
97	0	0	0
98	0	0	0
99	0	0	0
100	0	0	0
101	0	0	0
102	0	0	0
103	0	0	0
104	0	0	0
105	0	0	0
106	0	0	0
107	0	0	0
108	0	0	0
109	0	0	0
110	0	0	0
111	0	0	0
112	0	0	0
113	0	0	0
114	0	0	0
115	0	0	0
116	0	0	0
117	0	0	0
118	249	237	237
119	245	224	229
120	255	231	234
121	250	221	228
122	239	207	220
123	236	202	220
124	230	187	215
125	236	192	222
126	240	190	225
127	0	0	0
128	0	0	0
129	0	0	0
130	0	0	0
131	0	0	0
132	0	0	0
133	0	0	0
134	0	0	0
135	0	0	0
136	0	0	0
137	0	0	0
138	0	0	0
139	0	0	0
140	0	0	0
141	0	0	0
142	0	0	0
143	0	0	0
144	0	0	0
145	0	0	0
146	0	0	0
147	0	0	0
148	0	0	0
149	0	0	0
150	0	0	0
151	0	0	0
152	0	0	0
153	0	0	0
154	0	0	0
155	0	0	0
156	0	0	0
157	250	246	240
158	249	241	237
159	250	239	238
160	252	237	240
161	249	225	234
162	245	212	225
163	244	204	221
164	240	194	216
165	231	184	212
166	228	178	214
167	229	178	218
168	233	181	222
169	231	173	219
170	229	166	218
171	236	173	225
172	0	0	0
173	0	0	0
174	0	0	0
175	0	0	0
176	0	0	0
177	0	0	0
178	0	0	0
179	0	0	0
180	0	0	0
181	0	0	0
182	0	0	0
183	0	0	0
184	0	0	0
185	0	0	0
186	0	0	0
187	0	0	0
188	0	0	0
189	0	0	0
190	0	0	0
191	0	0	0
192	0	0	0
193	0	0	0
194	0	0	0
195	0	0	0
196	0	0	0
197	0	0	0
198	0	0	0
199	249	236	234
200	252	234	235
201	246	218	227
202	249	217	230
203	248	211	229
204	239	196	220
205	236	190	217
206	232	180	213
207	239	187	219
208	235	179	217
209	240	184	225
210	238	182	227
211	236	180	227
212	229	169	221
213	233	173	225
214	240	179	231
215	241	186	233
216	0	0	0
217	0	0	0
218	0	0	0
219	0	0	0
220	0	0	0
221	0	0	0
222	0	0	0
223	0	0	0
224	0	0	0
225	0	0	0
226	0	0	0
227	0	0	0
228	0	0	0
229	0	0	0
230	0	0	0
231	0	0	0
232	0	0	0
233	0	0	0
234	0	0	0
235	0	0	0
236	0	0	0
237	0	0	0
238	0	0	0
239	250	240	239
240	248	234	234
241	246	228	230
242	246	222	227
243	241	207	221
244	236	192	215
245	238	188	216
246	236	181	214
247	230	173	211
248	226	166	211
249	230	170	215
250	235	175	219
251	238	177	221
252	241	180	226
253	237	177	225
254	234	174	225
255	234	176	227
256	237	178	231
257	245	189	237
258	243	194	235
259	0	0	0
260	0	0	0
261	0	0	0
262	0	0	0
263	0	0	0
264	0	0	0
265	0	0	0
266	0	0	0
267	0	0	0
268	0	0	0
269	0	0	0
270	0	0	0
271	0	0	0
272	0	0	0
273	0	0	0
274	0	0	0
275	0	0	0
276	0	0	0
277	0	0	0
278	0	0	0
279	0	0	0
280	0	0	0
281	244	229	231
282	247	227	231
283	240	214	223
284	236	206	219
285	234	199	217
286	229	185	212
287	236	186	217
288	238	182	219
289	236	175	216
290	231	166	213
291	238	174	223
292	241	178	228
293	242	179	227
294	240	178	225
295	241	181	228
296	238	177	227
297	232	169	224
298	232	171	227
299	240	184	234
300	245	192	238
301	239	193	231
302	0	0	0
303	0	0	0
304	0	0	0
305	0	0	0
306	0	0	0
307	0	0	0
308	0	0	0
309	0	0	0
310	0	0	0
311	0	0	0
312	0	0	0
313	0	0	0
314	0	0	0
315	0	0	0
316	0	0	0
317	0	0	0
318	0	0	0
319	0	0	0
320	0	0	0
321	246	231	234
322	245	226	231
323	246	224	230
324	247	221	228
325	243	209	222
326	235	196	215
327	227	185	210
328	225	178	212
329	228	175	215
330	232	175	218
331	229	167	215
332	226	159	212
333	233	166	218
334	238	173	226
335	240	174	227
336	239	175	225
337	236	174	224
338	237	176	227
339	231	169	224
340	226	161	223
341	234	175	232
342	239	185	234
343	238	190	232
344	0	0	0
345	0	0	0
346	0	0	0
347	0	0	0
348	0	0	0
349	0	0	0
350	0	0	0
351	0	0	0
352	0	0	0
353	0	0	0
354	0	0	0
355	0	0	0
356	0	0	0
357	0	0	0
358	0	0	0
359	0	0	0
360	0	0	0
361	0	0	0
362	0	0	0
363	238	217	225
364	246	218	229
365	239	202	220
366	241	201	221
367	242	198	220
368	235	184	213
369	232	179	213
370	224	168	209
371	233	179	221
372	233	174	222
373	236	177	226
374	228	166	219
375	232	170	223
376	240	177	230
377	239	174	229
378	238	174	228
379	239	179	230
380	236	178	228
381	236	178	229
382	231	171	226
383	237	181	235
384	244	194	242
385	0	0	0
386	0	0	0
387	0	0	0
388	0	0	0
389	0	0	0
390	0	0	0
391	0	0	0
392	0	0	0
393	0	0	0
394	0	0	0
395	0	0	0
396	0	0	0
397	0	0	0
398	0	0	0
399	0	0	0
400	0	0	0
401	0	0	0
402	0	0	0
403	0	0	0
404	0	0	0
405	238	209	223
406	241	207	224
407	235	191	215
408	228	175	208
409	229	172	210
410	230	169	211
411	226	163	210
412	222	158	211
413	226	165	218
414	232	173	225
415	231	172	224
416	234	174	226
417	235	175	228
418	239	179	232
419	238	176	231
420	235	172	229
421	237	177	231
422	239	181	232
423	233	178	228
424	232	178	228
425	238	187	234
426	242	195	237
427	0	0	0
428	0	0	0
429	0	0	0
430	0	0	0
431	0	0	0
432	0	0	0
433	0	0	0
434	0	0	0
435	0	0	0
436	0	0	0
437	0	0	0
438	0	0	0
439	0	0	0
440	0	0	0
441	243	232	234
442	0	0	0
443	0	0	0
444	0	0	0
445	240	211	227
446	243	207	226
447	243	201	223
448	244	198	224
449	238	186	219
450	226	167	208
451	238	181	221
452	239	177	222
453	237	174	224
454	230	166	222
455	228	164	223
456	233	171	229
457	233	174	230
458	227	170	225
459	232	175	229
460	242	181	234
461	243	182	236
462	236	175	231
463	235	177	232
464	0	0	0
465	242	189	236
466	0	0	0
467	0	0	0
468	0	0	0
469	0	0	0
470	0	0	0
471	0	0	0
472	0	0	0
473	0	0	0
474	0	0	0
475	0	0	0
476	0	0	0
477	0	0	0
478	0	0	0
479	248	246	239
480	245	239	238
481	245	239	240
482	246	238	240
483	250	235	239
484	250	230	234
485	245	216	227
486	238	201	221
487	239	199	223
488	243	199	225
489	242	192	223
490	241	184	220
491	234	171	214
492	228	160	212
493	234	169	221
494	243	181	229
495	240	174	226
496	236	170	227
497	230	166	226
498	226	162	226
499	232	169	231
500	231	171	230
501	226	170	227
502	230	174	229
503	238	178	232
504	237	178	230
505	231	176	228
506	0	0	0
507	0	0	0
508	0	0	0
509	0	0	0
510	0	0	0
511	0	0	0
512	0	0	0
513	0	0	0
514	0	0	0
515	0	0	0
516	0	0	0
517	0	0	0
518	0	0	0
519	0	0	0
520	0	0	0
521	246	244	238
522	251	243	239
523	242	224	230
524	241	223	232
525	240	217	230
526	245	215	231
527	243	203	223
528	238	190	217
529	241	187	220
530	243	186	222
531	248	189	226
532	245	180	222
533	241	174	219
534	230	158	212
535	242	175	229
536	249	184	237
537	245	179	232
538	239	171	227
539	242	176	234
540	234	171	232
541	232	170	233
542	239	177	238
543	239	180	237
544	232	178	232
545	233	182	234
546	234	182	233
547	230	178	229
548	0	0	0
549	0	0	0
550	0	0	0
551	0	0	0
552	0	0	0
553	0	0	0
554	0	0	0
555	0	0	0
556	0	0	0
557	0	0	0
558	0	0	0
559	0	0	0
560	0	0	0
561	249	247	243
562	248	244	242
563	248	243	241
564	252	244	241
565	247	228	233
566	238	209	224
567	236	203	223
568	236	197	224
569	236	187	220
570	234	175	214
571	235	171	214
572	237	168	216
573	241	170	220
574	244	172	221
575	242	166	218
576	237	160	216
577	244	172	226
578	253	186	238
579	246	178	231
580	240	172	226
581	241	174	229
582	242	178	235
583	232	173	232
584	230	172	233
585	236	178	237
586	235	180	233
587	230	179	229
588	229	182	230
589	224	178	227
590	0	0	0
591	0	0	0
592	0	0	0
593	0	0	0
594	0	0	0
595	0	0	0
596	0	0	0
597	0	0	0
598	0	0	0
599	0	0	0
600	0	0	0
601	0	0	0
602	0	0	0
603	246	240	239
604	247	240	240
605	240	226	232
606	244	227	234
607	243	221	230
608	235	202	220
609	236	197	222
610	239	193	225
611	238	184	223
612	237	174	220
613	243	176	224
614	242	170	223
615	247	175	229
616	250	176	231
617	246	169	226
618	242	162	222
619	240	159	222
620	247	171	230
621	250	179	235
622	239	168	226
623	241	174	229
624	242	176	232
625	238	177	235
626	225	169	229
627	231	183	238
628	236	188	240
629	234	188	235
630	232	188	232
631	234	196	236
632	0	0	0
633	0	0	0
634	0	0	0
635	0	0	0
636	0	0	0
637	0	0	0
638	0	0	0
639	0	0	0
640	0	0	0
641	0	0	0
642	0	0	0
643	0	0	0
644	0	0	0
645	0	0	0
646	0	0	0
647	243	224	231
648	237	211	225
649	237	205	223
650	237	198	222
651	236	191	221
652	238	186	224
653	238	177	223
654	236	167	221
655	241	169	224
656	243	169	226
657	245	170	228
658	248	174	232
659	243	165	228
660	237	157	223
661	236	154	223
662	232	150	221
663	237	158	226
664	240	166	230
665	237	167	229
666	238	173	232
667	237	174	234
668	232	174	234
669	228	181	236
670	232	192	239
671	230	190	235
672	229	191	232
673	233	200	236
674	0	0	0
675	0	0	0
676	0	0	0
677	0	0	0
678	0	0	0
679	0	0	0
680	0	0	0
681	0	0	0
682	0	0	0
683	0	0	0
684	0	0	0
685	0	0	0
686	0	0	0
687	0	0	0
688	0	0	0
689	0	0	0
690	0	0	0
691	0	0	0
692	239	194	224
693	0	0	0
694	0	0	0
695	0	0	0
696	242	168	226
697	243	166	227
698	244	165	227
699	252	177	236
700	249	176	236
701	241	166	231
702	234	157	227
703	235	159	230
704	232	156	228
705	237	165	233
706	242	173	238
707	247	184	243
708	243	184	241
709	241	185	240
710	238	185	240
711	236	188	242
712	235	196	244
713	0	0	0
714	0	0	0
715	0	0	0
716	0	0	0
717	0	0	0
718	0	0	0
719	0	0	0
720	0	0	0
721	0	0	0
722	0	0	0
723	0	0	0
724	0	0	0
725	0	0	0
726	0	0	0
727	0	0	0
728	0	0	0
729	0	0	0
730	0	0	0
731	0	0	0
732	0	0	0
733	0	0	0
734	0	0	0
735	0	0	0
736	0	0	0
737	0	0	0
738	0	0	0
739	0	0	0
740	234	153	221
741	243	165	229
742	249	176	236
743	233	160	226
744	225	150	224
745	228	155	230
746	228	157	232
747	230	165	235
748	234	173	237
749	239	181	240
750	243	190	244
751	236	187	238
752	233	187	236
753	233	192	239
754	232	195	240
755	0	0	0
756	0	0	0
757	0	0	0
758	0	0	0
759	0	0	0
760	0	0	0
761	0	0	0
762	0	0	0
763	0	0	0
764	0	0	0
765	0	0	0
766	0	0	0
767	0	0	0
768	0	0	0
769	0	0	0
770	0	0	0
771	0	0	0
772	0	0	0
773	0	0	0
774	0	0	0
775	0	0	0
776	0	0	0
777	0	0	0
778	0	0	0
779	0	0	0
780	0	0	0
781	0	0	0
782	0	0	0
783	0	0	0
784	0	0	0
785	245	180	239
786	228	163	228
787	231	170	239
788	235	175	245
789	227	167	238
790	227	173	239
791	233	187	243
792	236	194	243
793	238	201	245
794	0	0	0
795	0	0	0
796	0	0	0
797	0	0	0
798	0	0	0
799	0	0	0
800	0	0	0
801	0	0	0
802	0	0	0
803	0	0	0
804	0	0	0
805	0	0	0
806	0	0	0
807	0	0	0
808	0	0	0
809	0	0	0
810	0	0	0
811	0	0	0
812	0	0	0
813	0	0	0
814	0	0	0
815	0	0	0
816	0	0	0
817	0	0	0
818	0	0	0
819	0	0	0
820	0	0	0
821	0	0	0
822	0	0	0
823	0	0	0
824	0	0	0
825	0	0	0
826	0	0	0
827	0	0	0
828	0	0	0
829	227	176	236
830	230	182	244
831	226	177	242
832	217	168	234
833	225	184	241
834	231	197	244
835	235	205	244
836	0	0	0
837	0	0	0
838	0	0	0
839	0	0	0
840	0	0	0
841	0	0	0
842	0	0	0
843	0	0	0
844	0	0	0
845	0	0	0
846	0	0	0
847	0	0	0
848	0	0	0
849	0	0	0
850	0	0	0
851	0	0	0
852	0	0	0
853	0	0	0
854	0	0	0
855	0	0	0
856	0	0	0
857	0	0	0
858	0	0	0
859	0	0	0
860	0	0	0
