 	R	G	B
1	0	0	0
2	0	0	0
3	247	180	223
4	255	192	230
5	0	0	0
6	255	203	227
7	0	0	0
8	255	216	228
9	0	0	0
10	0	0	0
11	0	0	0
12	0	0	0
13	0	0	0
14	0	0	0
15	0	0	0
16	0	0	0
17	0	0	0
18	0	0	0
19	0	0	0
20	0	0	0
21	0	0	0
22	0	0	0
23	0	0	0
24	0	0	0
25	0	0	0
26	0	0	0
27	0	0	0
28	0	0	0
29	0	0	0
30	0	0	0
31	0	0	0
32	0	0	0
33	0	0	0
34	0	0	0
35	0	0	0
36	0	0	0
37	0	0	0
38	0	0	0
39	0	0	0
40	0	0	0
41	0	0	0
42	0	0	0
43	0	0	0
44	0	0	0
45	0	0	0
46	0	0	0
47	0	0	0
48	0	0	0
49	255	193	229
50	248	180	225
51	255	193	233
52	253	190	226
53	255	197	226
54	250	194	220
55	254	205	223
56	253	211	221
57	0	0	0
58	0	0	0
59	0	0	0
60	0	0	0
61	0	0	0
62	0	0	0
63	0	0	0
64	0	0	0
65	0	0	0
66	0	0	0
67	0	0	0
68	0	0	0
69	0	0	0
70	0	0	0
71	0	0	0
72	0	0	0
73	0	0	0
74	0	0	0
75	0	0	0
76	0	0	0
77	0	0	0
78	0	0	0
79	0	0	0
80	0	0	0
81	0	0	0
82	0	0	0
83	0	0	0
84	0	0	0
85	0	0	0
86	0	0	0
87	0	0	0
88	0	0	0
89	0	0	0
90	0	0	0
91	0	0	0
92	0	0	0
93	0	0	0
94	0	0	0
95	0	0	0
96	249	186	224
97	243	174	220
98	248	181	226
99	246	179	219
100	247	182	218
101	243	180	213
102	250	195	221
103	251	202	221
104	0	0	0
105	0	0	0
106	0	0	0
107	0	0	0
108	0	0	0
109	0	0	0
110	0	0	0
111	0	0	0
112	0	0	0
113	0	0	0
114	0	0	0
115	0	0	0
116	0	0	0
117	0	0	0
118	0	0	0
119	0	0	0
120	0	0	0
121	0	0	0
122	0	0	0
123	0	0	0
124	0	0	0
125	0	0	0
126	0	0	0
127	0	0	0
128	0	0	0
129	0	0	0
130	0	0	0
131	0	0	0
132	0	0	0
133	0	0	0
134	0	0	0
135	0	0	0
136	0	0	0
137	0	0	0
138	0	0	0
139	0	0	0
140	0	0	0
141	0	0	0
142	251	197	226
143	252	191	226
144	249	184	225
145	255	192	231
146	255	190	227
147	255	195	228
148	250	185	220
149	255	201	229
150	250	194	219
151	0	0	0
152	0	0	0
153	0	0	0
154	0	0	0
155	0	0	0
156	0	0	0
157	0	0	0
158	0	0	0
159	0	0	0
160	0	0	0
161	0	0	0
162	0	0	0
163	0	0	0
164	0	0	0
165	0	0	0
166	0	0	0
167	0	0	0
168	0	0	0
169	0	0	0
170	0	0	0
171	0	0	0
172	0	0	0
173	0	0	0
174	0	0	0
175	0	0	0
176	0	0	0
177	0	0	0
178	0	0	0
179	0	0	0
180	0	0	0
181	0	0	0
182	0	0	0
183	0	0	0
184	0	0	0
185	0	0	0
186	0	0	0
187	0	0	0
188	0	0	0
189	251	200	229
190	252	196	229
191	250	189	223
192	255	195	229
193	255	195	229
194	255	195	229
195	253	187	223
196	255	190	224
197	247	184	215
198	255	201	223
199	0	0	0
200	0	0	0
201	0	0	0
202	0	0	0
203	0	0	0
204	0	0	0
205	0	0	0
206	0	0	0
207	0	0	0
208	0	0	0
209	0	0	0
210	0	0	0
211	0	0	0
212	0	0	0
213	0	0	0
214	0	0	0
215	0	0	0
216	0	0	0
217	0	0	0
218	0	0	0
219	0	0	0
220	0	0	0
221	0	0	0
222	0	0	0
223	0	0	0
224	0	0	0
225	0	0	0
226	0	0	0
227	0	0	0
228	0	0	0
229	0	0	0
230	0	0	0
231	0	0	0
232	0	0	0
233	0	0	0
234	0	0	0
235	0	0	0
236	0	0	0
237	254	206	233
238	251	195	225
239	255	203	233
240	253	186	222
241	255	187	224
242	249	176	217
243	252	181	220
244	249	180	216
245	255	198	225
246	252	196	219
247	0	0	0
248	0	0	0
249	0	0	0
250	0	0	0
251	0	0	0
252	0	0	0
253	0	0	0
254	0	0	0
255	0	0	0
256	0	0	0
257	0	0	0
258	0	0	0
259	0	0	0
260	0	0	0
261	0	0	0
262	0	0	0
263	0	0	0
264	0	0	0
265	0	0	0
266	0	0	0
267	0	0	0
268	0	0	0
269	0	0	0
270	0	0	0
271	0	0	0
272	0	0	0
273	0	0	0
274	0	0	0
275	0	0	0
276	0	0	0
277	0	0	0
278	0	0	0
279	0	0	0
280	0	0	0
281	0	0	0
282	0	0	0
283	0	0	0
284	0	0	0
285	254	202	230
286	253	191	226
287	246	175	216
288	248	173	217
289	243	164	209
290	249	172	215
291	248	173	214
292	250	179	216
293	245	178	210
294	253	197	218
295	0	0	0
296	0	0	0
297	0	0	0
298	0	0	0
299	0	0	0
300	0	0	0
301	0	0	0
302	0	0	0
303	0	0	0
304	0	0	0
305	0	0	0
306	0	0	0
307	0	0	0
308	0	0	0
309	0	0	0
310	0	0	0
311	0	0	0
312	0	0	0
313	0	0	0
314	0	0	0
315	0	0	0
316	0	0	0
317	0	0	0
318	0	0	0
319	0	0	0
320	0	0	0
321	0	0	0
322	0	0	0
323	0	0	0
324	0	0	0
325	0	0	0
326	0	0	0
327	0	0	0
328	0	0	0
329	0	0	0
330	0	0	0
331	0	0	0
332	255	204	232
333	255	194	229
334	250	178	221
335	253	178	223
336	246	165	213
337	253	174	220
338	250	170	216
339	253	177	219
340	248	174	212
341	255	194	220
342	251	193	213
343	0	0	0
344	0	0	0
345	0	0	0
346	0	0	0
347	0	0	0
348	0	0	0
349	0	0	0
350	0	0	0
351	0	0	0
352	0	0	0
353	0	0	0
354	0	0	0
355	0	0	0
356	0	0	0
357	0	0	0
358	0	0	0
359	0	0	0
360	0	0	0
361	0	0	0
362	0	0	0
363	0	0	0
364	0	0	0
365	0	0	0
366	0	0	0
367	0	0	0
368	0	0	0
369	0	0	0
370	0	0	0
371	0	0	0
372	0	0	0
373	0	0	0
374	0	0	0
375	0	0	0
376	0	0	0
377	0	0	0
378	253	207	232
379	255	205	234
380	254	192	228
381	249	177	222
382	251	172	223
383	244	160	214
384	248	163	217
385	245	159	213
386	247	164	213
387	243	163	206
388	246	171	208
389	242	173	205
390	255	197	220
391	255	217	231
392	255	225	233
393	0	0	0
394	0	0	0
395	0	0	0
396	0	0	0
397	0	0	0
398	0	0	0
399	0	0	0
400	0	0	0
401	0	0	0
402	0	0	0
403	0	0	0
404	0	0	0
405	0	0	0
406	0	0	0
407	0	0	0
408	0	0	0
409	0	0	0
410	0	0	0
411	0	0	0
412	0	0	0
413	0	0	0
414	0	0	0
415	0	0	0
416	0	0	0
417	0	0	0
418	0	0	0
419	0	0	0
420	0	0	0
421	0	0	0
422	0	0	0
423	0	0	0
424	252	214	236
425	255	212	238
426	255	201	232
427	251	187	226
428	252	181	226
429	254	177	227
430	247	162	219
431	252	167	223
432	251	165	220
433	255	172	221
434	250	167	213
435	255	178	216
436	252	176	214
437	255	201	229
438	251	186	216
439	251	193	217
440	253	204	220
441	0	0	0
442	0	0	0
443	0	0	0
444	0	0	0
445	0	0	0
446	0	0	0
447	0	0	0
448	0	0	0
449	0	0	0
450	0	0	0
451	0	0	0
452	0	0	0
453	0	0	0
454	0	0	0
455	0	0	0
456	0	0	0
457	0	0	0
458	0	0	0
459	0	0	0
460	0	0	0
461	0	0	0
462	0	0	0
463	0	0	0
464	0	0	0
465	0	0	0
466	0	0	0
467	0	0	0
468	0	0	0
469	0	0	0
470	0	0	0
471	0	0	0
472	250	204	234
473	249	194	230
474	249	187	227
475	249	179	224
476	248	171	221
477	242	158	216
478	251	165	223
479	251	164	221
480	254	168	221
481	252	166	215
482	255	172	217
483	253	171	215
484	246	165	210
485	233	151	200
486	241	168	209
487	242	178	210
488	0	0	0
489	0	0	0
490	0	0	0
491	0	0	0
492	0	0	0
493	0	0	0
494	0	0	0
495	0	0	0
496	0	0	0
497	0	0	0
498	0	0	0
499	0	0	0
500	0	0	0
501	0	0	0
502	0	0	0
503	0	0	0
504	0	0	0
505	0	0	0
506	0	0	0
507	0	0	0
508	0	0	0
509	0	0	0
510	0	0	0
511	0	0	0
512	0	0	0
513	0	0	0
514	0	0	0
515	0	0	0
516	0	0	0
517	0	0	0
518	0	0	0
519	0	0	0
520	255	207	239
521	255	200	236
522	254	188	229
523	252	180	226
524	251	173	225
525	255	180	232
526	251	165	221
527	255	170	224
528	254	166	218
529	255	174	222
530	250	160	212
531	245	156	209
532	246	160	212
533	255	178	222
534	244	173	212
535	0	0	0
536	0	0	0
537	0	0	0
538	0	0	0
539	0	0	0
540	0	0	0
541	0	0	0
542	0	0	0
543	0	0	0
544	0	0	0
545	0	0	0
546	0	0	0
547	0	0	0
548	0	0	0
549	0	0	0
550	0	0	0
551	0	0	0
552	0	0	0
553	0	0	0
554	0	0	0
555	0	0	0
556	0	0	0
557	0	0	0
558	0	0	0
559	0	0	0
560	0	0	0
561	0	0	0
562	0	0	0
563	0	0	0
564	0	0	0
565	0	0	0
566	0	0	0
567	255	217	241
568	255	206	237
569	255	195	231
570	255	191	231
571	255	184	228
572	254	174	224
573	246	160	216
574	251	163	219
575	251	161	216
576	249	155	212
577	241	144	205
578	250	156	213
579	250	159	211
580	249	164	211
581	240	161	206
582	0	0	0
583	0	0	0
584	0	0	0
585	0	0	0
586	0	0	0
587	0	0	0
588	0	0	0
589	0	0	0
590	0	0	0
591	0	0	0
592	0	0	0
593	0	0	0
594	0	0	0
595	0	0	0
596	0	0	0
597	0	0	0
598	0	0	0
599	0	0	0
600	0	0	0
601	0	0	0
602	0	0	0
603	0	0	0
604	0	0	0
605	0	0	0
606	0	0	0
607	0	0	0
608	0	0	0
609	0	0	0
610	0	0	0
611	0	0	0
612	0	0	0
613	0	0	0
614	255	219	239
615	255	209	236
616	252	193	228
617	254	189	228
618	253	181	224
619	251	173	221
620	251	168	223
621	255	172	228
622	254	163	221
623	252	158	218
624	243	143	209
625	252	155	216
626	248	153	209
627	248	158	209
628	246	163	211
629	0	0	0
630	0	0	0
631	0	0	0
632	0	0	0
633	0	0	0
634	0	0	0
635	0	0	0
636	0	0	0
637	0	0	0
638	0	0	0
639	0	0	0
640	0	0	0
641	0	0	0
642	0	0	0
643	0	0	0
644	0	0	0
645	0	0	0
646	0	0	0
647	0	0	0
648	0	0	0
649	0	0	0
650	0	0	0
651	0	0	0
652	0	0	0
653	0	0	0
654	0	0	0
655	0	0	0
656	0	0	0
657	0	0	0
658	0	0	0
659	0	0	0
660	0	0	0
661	0	0	0
662	251	205	231
663	246	189	224
664	249	185	225
665	248	178	221
666	251	176	224
667	253	173	228
668	254	167	228
669	250	158	220
670	246	149	214
671	237	134	205
672	243	142	209
673	240	141	205
674	248	155	211
675	247	160	210
676	254	176	218
677	252	184	217
678	255	201	222
679	255	216	226
680	255	226	227
681	0	0	0
682	0	0	0
683	0	0	0
684	0	0	0
685	0	0	0
686	0	0	0
687	0	0	0
688	0	0	0
689	0	0	0
690	0	0	0
691	0	0	0
692	0	0	0
693	0	0	0
694	0	0	0
695	0	0	0
696	0	0	0
697	0	0	0
698	0	0	0
699	0	0	0
700	0	0	0
701	0	0	0
702	0	0	0
703	0	0	0
704	0	0	0
705	0	0	0
706	0	0	0
707	0	0	0
708	0	0	0
709	0	0	0
710	254	205	233
711	255	201	234
712	250	184	224
713	253	183	227
714	255	180	232
715	255	175	232
716	249	158	221
717	246	150	216
718	249	152	218
719	255	160	223
720	252	156	219
721	255	171	227
722	249	158	213
723	255	175	221
724	248	170	214
725	255	188	220
726	253	195	216
727	252	205	216
728	255	226	226
729	0	0	0
730	0	0	0
731	0	0	0
732	0	0	0
733	0	0	0
734	0	0	0
735	0	0	0
736	0	0	0
737	0	0	0
738	0	0	0
739	0	0	0
740	0	0	0
741	0	0	0
742	0	0	0
743	0	0	0
744	0	0	0
745	0	0	0
746	0	0	0
747	0	0	0
748	0	0	0
749	0	0	0
750	0	0	0
751	0	0	0
752	0	0	0
753	0	0	0
754	0	0	0
755	0	0	0
756	0	0	0
757	0	0	0
758	252	201	231
759	246	185	223
760	250	183	224
761	252	180	226
762	248	167	221
763	242	152	215
764	252	162	224
765	255	164	225
766	255	166	226
767	255	163	224
768	253	160	222
769	243	148	209
770	244	153	211
771	237	149	204
772	244	165	210
773	242	174	207
774	249	193	213
775	255	213	220
776	255	220	220
777	0	0	0
778	0	0	0
779	0	0	0
780	0	0	0
781	0	0	0
782	0	0	0
783	0	0	0
784	0	0	0
785	0	0	0
786	0	0	0
787	0	0	0
788	0	0	0
789	0	0	0
790	0	0	0
791	0	0	0
792	0	0	0
793	0	0	0
794	0	0	0
795	0	0	0
796	0	0	0
797	0	0	0
798	0	0	0
799	0	0	0
800	0	0	0
801	0	0	0
802	0	0	0
803	0	0	0
804	252	223	236
805	253	211	234
806	252	200	230
807	255	198	232
808	255	195	230
809	255	183	225
810	247	165	220
811	255	175	230
812	255	168	225
813	255	171	227
814	253	160	222
815	252	158	221
816	248	154	215
817	252	161	219
818	249	161	217
819	255	178	224
820	246	172	212
821	253	192	218
822	255	209	222
823	255	216	221
824	255	223	224
825	0	0	0
826	0	0	0
827	0	0	0
828	0	0	0
829	0	0	0
830	0	0	0
831	0	0	0
832	0	0	0
833	0	0	0
834	0	0	0
835	0	0	0
836	0	0	0
837	0	0	0
838	0	0	0
839	0	0	0
840	0	0	0
841	0	0	0
842	0	0	0
843	0	0	0
844	0	0	0
845	0	0	0
846	0	0	0
847	0	0	0
848	0	0	0
849	0	0	0
850	0	0	0
851	255	236	242
852	255	224	238
853	255	214	237
854	255	213	239
855	255	209	234
856	255	192	225
857	250	175	221
858	254	175	225
859	252	169	221
860	250	162	219
861	245	153	214
862	249	156	217
863	246	152	211
864	252	160	216
865	250	161	217
866	250	166	218
867	241	162	208
868	251	183	217
869	255	201	221
870	255	205	219
871	253	211	218
872	255	220	221
873	0	0	0
874	0	0	0
875	0	0	0
876	0	0	0
877	0	0	0
878	0	0	0
879	0	0	0
880	0	0	0
881	0	0	0
882	0	0	0
883	0	0	0
884	0	0	0
885	0	0	0
886	0	0	0
887	0	0	0
888	0	0	0
889	0	0	0
890	0	0	0
891	0	0	0
892	0	0	0
893	0	0	0
894	0	0	0
895	0	0	0
896	0	0	0
897	0	0	0
898	255	237	240
899	251	224	234
900	253	218	236
901	255	218	238
902	255	202	226
903	249	186	217
904	252	183	222
905	255	184	227
906	255	178	224
907	254	172	223
908	249	161	219
909	254	165	222
910	251	161	216
911	255	169	221
912	246	156	212
913	248	162	215
914	252	174	218
915	255	197	229
916	255	193	221
917	254	199	219
918	252	203	216
919	253	211	218
920	255	222	222
921	0	0	0
922	0	0	0
923	0	0	0
924	0	0	0
925	0	0	0
926	0	0	0
927	0	0	0
928	0	0	0
929	0	0	0
930	0	0	0
931	0	0	0
932	0	0	0
933	0	0	0
934	0	0	0
935	0	0	0
936	0	0	0
937	0	0	0
938	0	0	0
939	0	0	0
940	0	0	0
941	0	0	0
942	0	0	0
943	0	0	0
944	0	0	0
945	255	244	244
946	254	232	238
947	255	226	237
948	255	215	233
949	251	200	223
950	255	198	225
951	255	195	228
952	255	191	228
953	255	185	225
954	254	176	223
955	250	167	221
956	254	169	224
957	252	165	219
958	248	158	212
959	237	145	202
960	250	166	214
961	255	180	218
962	254	182	216
963	248	180	213
964	250	188	216
965	249	193	214
966	251	203	217
967	253	213	221
968	253	219	223
969	255	231	232
970	255	234	233
971	255	239	234
972	0	0	0
973	0	0	0
974	0	0	0
975	0	0	0
976	0	0	0
977	0	0	0
978	0	0	0
979	0	0	0
980	0	0	0
981	0	0	0
982	0	0	0
983	0	0	0
984	0	0	0
985	0	0	0
986	0	0	0
987	0	0	0
988	0	0	0
989	0	0	0
990	0	0	0
991	0	0	0
992	0	0	0
993	255	235	239
994	255	230	239
995	255	218	234
996	248	198	223
997	252	197	225
998	254	194	226
999	254	189	225
1000	255	187	225
1001	252	178	222
1002	254	176	225
1003	255	179	228
1004	253	169	219
1005	249	163	214
1006	249	163	212
1007	255	185	226
1008	255	177	217
1009	254	180	217
1010	250	178	216
1011	253	188	221
1012	252	192	219
1013	254	202	221
1014	255	211	223
1015	255	218	225
1016	255	225	229
1017	253	226	228
1018	253	232	229
1019	250	232	228
1020	0	0	0
1021	0	0	0
1022	0	0	0
1023	0	0	0
1024	0	0	0
1025	0	0	0
1026	0	0	0
1027	0	0	0
1028	0	0	0
1029	0	0	0
1030	0	0	0
1031	0	0	0
1032	0	0	0
1033	0	0	0
1034	0	0	0
1035	0	0	0
1036	0	0	0
1037	0	0	0
1038	0	0	0
1039	0	0	0
1040	0	0	0
1041	255	234	243
1042	253	217	235
1043	245	197	223
1044	251	198	227
1045	252	195	227
1046	255	194	229
1047	255	192	230
1048	255	189	229
1049	255	185	226
1050	255	180	223
1051	251	171	217
1052	255	178	222
1053	255	179	222
1054	255	179	222
1055	253	174	218
1056	253	176	220
1057	249	174	218
1058	252	182	221
1059	250	187	217
1060	252	196	219
1061	254	205	220
1062	254	211	221
1063	255	219	226
1064	253	223	227
1065	254	229	229
1066	255	239	235
1067	0	0	0
1068	0	0	0
1069	0	0	0
1070	0	0	0
1071	0	0	0
1072	0	0	0
1073	0	0	0
1074	0	0	0
1075	0	0	0
1076	0	0	0
1077	0	0	0
1078	0	0	0
1079	0	0	0
1080	0	0	0
1081	0	0	0
1082	0	0	0
1083	0	0	0
1084	0	0	0
1085	0	0	0
1086	0	0	0
1087	0	0	0
1088	255	243	247
1089	255	224	239
1090	248	205	229
1091	254	206	232
1092	255	204	231
1093	255	202	233
1094	253	191	228
1095	254	188	227
1096	255	192	228
1097	255	186	225
1098	249	170	215
1099	255	178	222
1100	255	177	220
1101	255	177	222
1102	249	167	216
1103	250	170	218
1104	254	179	222
1105	255	188	224
1106	253	188	219
1107	255	199	221
1108	255	205	221
1109	255	211	222
1110	255	216	224
1111	255	221	226
1112	255	229	230
1113	255	237	235
1114	255	237	235
1115	0	0	0
1116	0	0	0
1117	0	0	0
1118	0	0	0
1119	0	0	0
1120	0	0	0
1121	0	0	0
1122	0	0	0
1123	0	0	0
1124	0	0	0
1125	0	0	0
1126	0	0	0
1127	0	0	0
1128	0	0	0
1129	0	0	0
1130	0	0	0
1131	0	0	0
1132	0	0	0
1133	0	0	0
1134	0	0	0
1135	0	0	0
1136	254	228	236
1137	247	210	229
1138	254	212	233
1139	255	208	229
1140	252	199	224
1141	248	188	221
1142	255	195	229
1143	255	200	233
1144	255	186	226
1145	248	170	217
1146	254	176	223
1147	254	174	221
1148	248	166	215
1149	239	155	207
1150	249	170	216
1151	253	179	217
1152	252	183	216
1153	251	185	216
1154	254	195	220
1155	255	203	220
1156	255	208	221
1157	254	212	221
1158	252	216	221
1159	253	223	225
1160	246	219	221
1161	0	0	0
1162	0	0	0
1163	0	0	0
1164	0	0	0
1165	0	0	0
1166	0	0	0
1167	0	0	0
1168	0	0	0
1169	0	0	0
1170	0	0	0
1171	0	0	0
1172	0	0	0
1173	0	0	0
1174	0	0	0
1175	0	0	0
1176	0	0	0
1177	0	0	0
1178	0	0	0
1179	0	0	0
1180	0	0	0
1181	0	0	0
1182	0	0	0
1183	0	0	0
1184	0	0	0
1185	255	224	238
1186	253	211	227
1187	250	201	222
1188	252	198	226
1189	255	205	234
1190	255	199	230
1191	253	185	223
1192	250	175	222
1193	255	181	229
1194	248	168	217
1195	238	159	209
1196	238	160	211
1197	251	177	220
1198	255	184	218
1199	255	189	218
1200	255	190	219
1201	255	201	224
1202	255	199	219
1203	255	205	219
1204	249	203	214
1205	0	0	0
1206	0	0	0
1207	0	0	0
1208	0	0	0
1209	0	0	0
1210	0	0	0
1211	0	0	0
1212	0	0	0
1213	0	0	0
1214	0	0	0
1215	0	0	0
1216	0	0	0
1217	0	0	0
1218	0	0	0
1219	0	0	0
1220	0	0	0
1221	0	0	0
1222	0	0	0
1223	0	0	0
1224	0	0	0
1225	0	0	0
1226	0	0	0
1227	0	0	0
1228	0	0	0
1229	0	0	0
1230	0	0	0
1231	0	0	0
1232	0	0	0
1233	0	0	0
1234	255	213	232
1235	255	210	234
1236	255	205	231
1237	255	198	225
1238	251	186	219
1239	249	177	222
1240	249	172	222
1241	239	159	210
1242	239	163	212
1243	241	167	216
1244	254	182	225
1245	255	190	223
1246	255	193	222
1247	255	194	222
1248	255	196	221
1249	253	194	216
1250	251	196	214
1251	244	195	210
1252	0	0	0
1253	0	0	0
1254	0	0	0
1255	0	0	0
1256	0	0	0
1257	0	0	0
1258	0	0	0
1259	0	0	0
1260	0	0	0
1261	0	0	0
1262	0	0	0
1263	0	0	0
1264	0	0	0
1265	0	0	0
1266	0	0	0
1267	0	0	0
1268	0	0	0
1269	0	0	0
1270	0	0	0
1271	0	0	0
1272	0	0	0
1273	0	0	0
1274	0	0	0
1275	0	0	0
1276	0	0	0
1277	0	0	0
1278	0	0	0
1279	0	0	0
1280	0	0	0
1281	0	0	0
1282	248	197	224
1283	246	191	220
1284	255	202	226
1285	252	190	221
1286	250	181	222
1287	249	176	221
1288	252	179	222
1289	255	186	228
1290	248	173	221
1291	255	188	229
1292	255	184	221
1293	255	187	219
1294	252	184	216
1295	251	185	215
1296	254	195	218
1297	253	197	217
1298	249	199	214
1299	0	0	0
1300	0	0	0
1301	0	0	0
1302	0	0	0
1303	0	0	0
1304	0	0	0
1305	0	0	0
1306	0	0	0
1307	0	0	0
1308	0	0	0
1309	0	0	0
1310	0	0	0
1311	0	0	0
1312	0	0	0
1313	0	0	0
1314	0	0	0
1315	0	0	0
1316	0	0	0
1317	0	0	0
1318	0	0	0
1319	0	0	0
1320	0	0	0
1321	0	0	0
1322	0	0	0
1323	0	0	0
1324	0	0	0
1325	0	0	0
1326	0	0	0
1327	0	0	0
1328	0	0	0
1329	0	0	0
1330	240	190	220
1331	252	202	229
1332	248	191	222
1333	244	180	215
1334	251	187	221
1335	255	191	225
1336	253	183	222
1337	245	171	216
1338	250	176	220
1339	247	173	214
1340	247	174	213
1341	243	171	209
1342	251	185	216
1343	255	195	220
1344	255	202	222
1345	253	202	218
1346	0	0	0
1347	0	0	0
1348	0	0	0
1349	0	0	0
1350	0	0	0
1351	0	0	0
1352	0	0	0
1353	0	0	0
1354	0	0	0
1355	0	0	0
1356	0	0	0
1357	0	0	0
1358	0	0	0
1359	0	0	0
1360	0	0	0
1361	0	0	0
1362	0	0	0
1363	0	0	0
1364	0	0	0
1365	0	0	0
1366	0	0	0
1367	0	0	0
1368	0	0	0
1369	0	0	0
1370	0	0	0
1371	0	0	0
1372	0	0	0
1373	0	0	0
1374	0	0	0
1375	0	0	0
1376	0	0	0
1377	0	0	0
1378	252	214	234
1379	250	204	227
1380	246	193	219
1381	253	199	224
1382	255	202	227
1383	255	195	225
1384	250	181	219
1385	255	188	225
1386	251	181	219
1387	252	183	219
1388	248	179	214
1389	255	192	221
1390	255	194	220
1391	255	201	223
1392	246	190	211
1393	0	0	0
1394	0	0	0
1395	0	0	0
1396	0	0	0
1397	0	0	0
1398	0	0	0
1399	0	0	0
1400	0	0	0
1401	0	0	0
1402	0	0	0
1403	0	0	0
1404	0	0	0
1405	0	0	0
1406	0	0	0
1407	0	0	0
1408	0	0	0
1409	0	0	0
1410	0	0	0
1411	0	0	0
1412	0	0	0
1413	0	0	0
1414	0	0	0
1415	0	0	0
1416	0	0	0
1417	0	0	0
1418	0	0	0
1419	0	0	0
1420	0	0	0
1421	0	0	0
1422	0	0	0
1423	0	0	0
1424	0	0	0
1425	0	0	0
1426	254	218	232
1427	250	207	224
1428	252	208	225
1429	255	209	227
1430	250	196	219
1431	244	182	212
1432	243	180	212
1433	241	175	209
1434	244	178	212
1435	241	174	207
1436	249	184	213
1437	250	188	214
1438	248	186	213
1439	238	176	204
1440	253	204	221
1441	0	0	0
1442	0	0	0
1443	0	0	0
1444	0	0	0
1445	0	0	0
1446	0	0	0
1447	0	0	0
1448	0	0	0
1449	0	0	0
1450	0	0	0
1451	0	0	0
1452	0	0	0
1453	0	0	0
1454	0	0	0
1455	0	0	0
1456	0	0	0
1457	0	0	0
1458	0	0	0
1459	0	0	0
1460	0	0	0
1461	0	0	0
1462	0	0	0
1463	0	0	0
1464	0	0	0
1465	0	0	0
1466	0	0	0
1467	0	0	0
1468	0	0	0
1469	0	0	0
1470	0	0	0
1471	0	0	0
1472	0	0	0
1473	0	0	0
1474	251	215	224
1475	248	213	222
1476	253	218	225
1477	248	205	217
1478	248	202	217
1479	248	199	217
1480	251	201	221
1481	255	205	225
1482	249	191	215
1483	255	203	223
1484	253	193	216
1485	253	192	216
1486	241	178	207
1487	255	206	224
1488	255	212	222
1489	0	0	0
1490	0	0	0
1491	0	0	0
1492	0	0	0
1493	0	0	0
1494	0	0	0
1495	0	0	0
1496	0	0	0
1497	0	0	0
1498	0	0	0
1499	0	0	0
1500	0	0	0
1501	0	0	0
1502	0	0	0
1503	0	0	0
1504	0	0	0
1505	0	0	0
1506	0	0	0
1507	0	0	0
1508	0	0	0
1509	0	0	0
1510	0	0	0
1511	0	0	0
1512	0	0	0
1513	0	0	0
1514	0	0	0
1515	0	0	0
1516	0	0	0
1517	0	0	0
1518	0	0	0
1519	0	0	0
1520	255	238	236
1521	255	231	232
1522	255	232	230
1523	255	236	233
1524	255	230	228
1525	255	227	229
1526	255	226	229
1527	255	227	232
1528	255	214	224
1529	250	201	215
1530	250	195	212
1531	245	186	205
1532	244	183	206
1533	234	171	199
1534	246	190	212
1535	245	197	210
1536	0	0	0
1537	0	0	0
1538	0	0	0
1539	0	0	0
1540	0	0	0
1541	0	0	0
1542	0	0	0
1543	0	0	0
1544	0	0	0
1545	0	0	0
1546	0	0	0
1547	0	0	0
1548	0	0	0
1549	0	0	0
1550	0	0	0
1551	0	0	0
1552	0	0	0
1553	0	0	0
1554	0	0	0
1555	0	0	0
1556	0	0	0
1557	0	0	0
1558	0	0	0
1559	0	0	0
1560	0	0	0
1561	0	0	0
1562	0	0	0
1563	0	0	0
1564	0	0	0
1565	0	0	0
1566	0	0	0
1567	255	222	223
1568	254	221	222
1569	252	221	220
1570	255	229	224
1571	253	221	218
1572	255	228	223
1573	255	228	225
1574	255	223	223
1575	248	208	214
1576	253	213	218
1577	254	209	216
1578	255	206	215
1579	255	204	216
1580	244	187	208
1581	255	207	222
1582	249	202	211
1583	0	0	0
1584	0	0	0
1585	0	0	0
1586	0	0	0
1587	0	0	0
1588	0	0	0
1589	0	0	0
1590	0	0	0
1591	0	0	0
1592	0	0	0
1593	0	0	0
1594	0	0	0
1595	0	0	0
1596	0	0	0
1597	0	0	0
1598	0	0	0
1599	0	0	0
1600	0	0	0
1601	0	0	0
1602	0	0	0
1603	0	0	0
1604	0	0	0
1605	0	0	0
1606	0	0	0
1607	0	0	0
1608	0	0	0
1609	0	0	0
1610	0	0	0
1611	0	0	0
1612	0	0	0
1613	251	218	221
1614	255	224	227
1615	255	222	224
1616	255	231	228
1617	255	238	231
1618	255	240	230
1619	255	245	234
1620	255	238	230
1621	255	232	228
1622	255	231	227
1623	255	236	232
1624	255	230	228
1625	255	226	224
1626	255	213	217
1627	248	197	210
1628	254	205	215
1629	0	0	0
1630	0	0	0
1631	0	0	0
1632	0	0	0
1633	0	0	0
1634	0	0	0
1635	0	0	0
1636	0	0	0
1637	0	0	0
1638	0	0	0
1639	0	0	0
1640	0	0	0
1641	0	0	0
1642	0	0	0
1643	0	0	0
1644	0	0	0
1645	0	0	0
1646	0	0	0
1647	0	0	0
1648	0	0	0
1649	0	0	0
1650	0	0	0
1651	0	0	0
1652	0	0	0
1653	0	0	0
1654	0	0	0
1655	0	0	0
1656	0	0	0
1657	0	0	0
1658	0	0	0
1659	0	0	0
1660	253	215	221
1661	255	222	227
1662	251	204	213
1663	255	213	218
1664	255	214	217
1665	255	215	215
1666	255	224	220
1667	255	216	213
1668	255	217	216
1669	255	216	215
1670	255	223	220
1671	253	215	214
1672	255	221	217
1673	252	208	211
1674	250	203	210
1675	255	211	216
1676	246	201	204
1677	0	0	0
1678	0	0	0
1679	0	0	0
1680	0	0	0
1681	0	0	0
1682	0	0	0
1683	0	0	0
1684	0	0	0
1685	0	0	0
1686	0	0	0
1687	0	0	0
1688	0	0	0
1689	0	0	0
1690	0	0	0
1691	0	0	0
1692	0	0	0
1693	0	0	0
1694	0	0	0
1695	0	0	0
1696	0	0	0
1697	0	0	0
1698	0	0	0
1699	0	0	0
1700	0	0	0
1701	0	0	0
1702	0	0	0
1703	0	0	0
1704	0	0	0
1705	0	0	0
1706	255	224	229
1707	255	218	226
1708	255	210	222
1709	250	192	208
1710	255	200	214
1711	255	202	215
1712	255	212	219
1713	255	220	221
1714	255	220	219
1715	255	222	221
1716	255	226	224
1717	255	231	226
1718	255	230	224
1719	255	235	231
1720	255	226	225
1721	255	220	222
1722	255	218	220
1723	253	209	210
1724	0	0	0
1725	0	0	0
1726	0	0	0
1727	0	0	0
1728	0	0	0
1729	0	0	0
1730	0	0	0
1731	0	0	0
1732	0	0	0
1733	0	0	0
1734	0	0	0
1735	0	0	0
1736	0	0	0
1737	0	0	0
1738	0	0	0
1739	0	0	0
1740	0	0	0
1741	0	0	0
1742	0	0	0
1743	0	0	0
1744	0	0	0
1745	0	0	0
1746	0	0	0
1747	0	0	0
1748	0	0	0
1749	0	0	0
1750	0	0	0
1751	0	0	0
1752	255	216	223
1753	255	215	227
1754	254	197	218
1755	253	189	214
1756	247	176	205
1757	255	185	212
1758	255	186	212
1759	255	196	217
1760	255	188	208
1761	255	188	206
1762	255	192	208
1763	255	196	209
1764	255	197	208
1765	253	194	205
1766	255	212	217
1767	255	200	210
1768	255	208	215
1769	255	206	213
1770	248	195	204
1771	0	0	0
1772	0	0	0
1773	0	0	0
1774	0	0	0
1775	0	0	0
1776	0	0	0
1777	0	0	0
1778	0	0	0
1779	0	0	0
1780	0	0	0
1781	0	0	0
1782	0	0	0
1783	0	0	0
1784	0	0	0
1785	0	0	0
1786	0	0	0
1787	0	0	0
1788	0	0	0
1789	0	0	0
1790	0	0	0
1791	0	0	0
1792	0	0	0
1793	0	0	0
1794	0	0	0
1795	0	0	0
1796	0	0	0
1797	0	0	0
1798	255	220	225
1799	254	206	219
1800	252	193	215
1801	246	176	210
1802	247	172	212
1803	242	160	206
1804	253	170	213
1805	254	170	209
1806	253	168	206
1807	248	162	203
1808	253	169	208
1809	254	172	207
1810	255	175	207
1811	254	176	206
1812	255	190	213
1813	255	205	221
1814	255	205	218
1815	255	212	223
1816	255	202	215
1817	253	191	207
1818	255	209	218
1819	0	0	0
1820	0	0	0
1821	0	0	0
1822	0	0	0
1823	0	0	0
1824	0	0	0
1825	0	0	0
1826	0	0	0
1827	0	0	0
1828	0	0	0
1829	0	0	0
1830	0	0	0
1831	0	0	0
1832	0	0	0
1833	0	0	0
1834	0	0	0
1835	0	0	0
1836	0	0	0
1837	0	0	0
1838	0	0	0
1839	0	0	0
1840	0	0	0
1841	0	0	0
1842	0	0	0
1843	0	0	0
1844	255	227	229
1845	255	217	227
1846	252	193	216
1847	251	181	214
1848	254	178	219
1849	252	173	221
1850	245	157	214
1851	255	169	223
1852	253	158	212
1853	253	156	210
1854	246	146	207
1855	251	153	211
1856	250	153	207
1857	249	155	206
1858	248	154	203
1859	255	169	212
1860	255	173	209
1861	255	172	205
1862	255	184	211
1863	250	172	201
1864	255	187	209
1865	255	203	218
1866	255	194	206
1867	0	0	0
1868	0	0	0
1869	0	0	0
1870	0	0	0
1871	0	0	0
1872	0	0	0
1873	0	0	0
1874	0	0	0
1875	0	0	0
1876	0	0	0
1877	0	0	0
1878	0	0	0
1879	0	0	0
1880	0	0	0
1881	0	0	0
1882	0	0	0
1883	0	0	0
1884	0	0	0
1885	0	0	0
1886	0	0	0
1887	0	0	0
1888	0	0	0
1889	0	0	0
1890	0	0	0
1891	255	221	227
1892	255	202	221
1893	249	180	215
1894	255	183	225
1895	255	179	228
1896	246	163	220
1897	236	146	212
1898	239	144	213
1899	236	135	206
1900	234	129	204
1901	230	120	201
1902	234	126	205
1903	233	126	200
1904	235	129	199
1905	235	128	197
1906	244	140	203
1907	247	144	203
1908	255	158	210
1909	255	170	215
1910	255	181	216
1911	255	193	219
1912	255	185	208
1913	251	176	200
1914	255	191	208
1915	0	0	0
1916	0	0	0
1917	0	0	0
1918	0	0	0
1919	0	0	0
1920	0	0	0
1921	0	0	0
1922	0	0	0
1923	0	0	0
1924	0	0	0
1925	0	0	0
1926	0	0	0
1927	0	0	0
1928	0	0	0
1929	0	0	0
1930	0	0	0
1931	0	0	0
1932	0	0	0
1933	0	0	0
1934	0	0	0
1935	0	0	0
1936	0	0	0
1937	0	0	0
1938	254	210	225
1939	252	191	220
1940	248	173	218
1941	255	175	229
1942	242	155	219
1943	225	138	209
1944	218	129	206
1945	216	125	206
1946	216	121	203
1947	219	117	203
1948	223	119	207
1949	230	126	212
1950	227	120	205
1951	232	125	206
1952	227	116	199
1953	235	126	204
1954	234	121	200
1955	253	140	211
1956	254	141	208
1957	255	150	207
1958	255	158	204
1959	247	148	193
1960	246	154	196
1961	249	167	202
1962	252	186	206
1963	0	0	0
1964	0	0	0
1965	0	0	0
1966	0	0	0
1967	0	0	0
1968	0	0	0
1969	0	0	0
1970	0	0	0
1971	0	0	0
1972	0	0	0
1973	0	0	0
1974	0	0	0
1975	0	0	0
1976	0	0	0
1977	0	0	0
1978	0	0	0
1979	0	0	0
1980	0	0	0
1981	0	0	0
1982	0	0	0
1983	0	0	0
1984	242	210	227
1985	242	193	221
1986	242	178	218
1987	236	159	215
1988	233	146	215
1989	220	128	207
1990	213	122	207
1991	206	115	205
1992	206	114	206
1993	205	109	202
1994	214	114	206
1995	218	115	207
1996	213	109	202
1997	212	104	198
1998	212	100	195
1999	208	92	189
2000	213	94	191
2001	214	90	188
2002	227	100	194
2003	230	101	191
2004	238	113	194
2005	242	122	194
2006	242	129	195
2007	241	134	196
2008	251	158	207
2009	253	174	210
2010	0	0	0
2011	0	0	0
2012	0	0	0
2013	0	0	0
2014	0	0	0
2015	0	0	0
2016	0	0	0
2017	0	0	0
2018	0	0	0
2019	0	0	0
2020	0	0	0
2021	0	0	0
2022	0	0	0
2023	0	0	0
2024	0	0	0
2025	0	0	0
2026	0	0	0
2027	0	0	0
2028	0	0	0
2029	0	0	0
2030	236	222	234
2031	237	208	231
2032	224	175	216
2033	222	159	214
2034	222	150	215
2035	218	138	214
2036	214	129	214
2037	215	128	218
2038	206	113	211
2039	209	114	213
2040	202	100	202
2041	211	105	206
2042	218	113	211
2043	209	104	203
2044	216	113	209
2045	214	109	206
2046	206	91	194
2047	216	96	200
2048	216	91	197
2049	221	97	199
2050	225	99	198
2051	240	115	205
2052	241	116	202
2053	244	124	203
2054	245	131	204
2055	255	155	215
2056	254	161	210
2057	0	0	0
2058	0	0	0
2059	0	0	0
2060	0	0	0
2061	0	0	0
2062	0	0	0
2063	0	0	0
2064	0	0	0
2065	0	0	0
2066	0	0	0
2067	0	0	0
2068	0	0	0
2069	0	0	0
2070	0	0	0
2071	0	0	0
2072	0	0	0
2073	0	0	0
2074	0	0	0
2075	0	0	0
2076	235	230	236
2077	228	216	233
2078	214	184	220
2079	202	152	210
2080	210	150	217
2081	210	140	216
2082	210	134	216
2083	207	124	214
2084	202	114	210
2085	196	100	203
2086	195	95	202
2087	190	82	195
2088	207	99	208
2089	214	108	213
2090	216	113	214
2091	222	121	218
2092	209	101	203
2093	200	83	192
2094	208	86	196
2095	207	81	194
2096	211	86	196
2097	215	89	195
2098	229	100	201
2099	231	101	197
2100	242	116	203
2101	245	124	204
2102	251	138	208
2103	250	146	205
2104	255	170	212
2105	0	0	0
2106	0	0	0
2107	0	0	0
2108	0	0	0
2109	0	0	0
2110	0	0	0
2111	0	0	0
2112	0	0	0
2113	0	0	0
2114	0	0	0
2115	0	0	0
2116	0	0	0
2117	0	0	0
2118	0	0	0
2119	0	0	0
2120	0	0	0
2121	0	0	0
2122	254	253	249
2123	232	227	236
2124	217	203	227
2125	197	169	213
2126	204	165	223
2127	218	166	234
2128	207	139	219
2129	208	133	219
2130	207	127	219
2131	202	116	214
2132	200	108	210
2133	200	103	210
2134	191	86	200
2135	205	102	212
2136	202	94	206
2137	211	103	211
2138	212	102	209
2139	198	81	193
2140	199	80	193
2141	204	81	194
2142	209	84	197
2143	216	92	202
2144	221	95	203
2145	230	103	207
2146	218	83	190
2147	231	99	198
2148	235	107	197
2149	242	121	200
2150	249	138	205
2151	255	164	215
2152	255	171	209
2153	0	0	0
2154	0	0	0
2155	0	0	0
2156	0	0	0
2157	0	0	0
2158	0	0	0
2159	0	0	0
2160	0	0	0
2161	0	0	0
2162	0	0	0
2163	0	0	0
2164	0	0	0
2165	0	0	0
2166	0	0	0
2167	0	0	0
2168	0	0	0
2169	0	0	0
2170	226	214	229
2171	211	190	221
2172	207	180	223
2173	212	176	230
2174	210	156	225
2175	197	128	211
2176	200	126	215
2177	200	121	215
2178	202	118	216
2179	200	111	211
2180	197	101	207
2181	187	83	198
2182	189	83	199
2183	186	76	193
2184	196	81	197
2185	199	81	197
2186	197	77	194
2187	199	76	193
2188	205	82	196
2189	210	84	197
2190	215	89	200
2191	219	92	201
2192	211	77	190
2193	200	58	176
2194	216	76	186
2195	220	84	185
2196	232	106	193
2197	240	123	198
2198	250	141	204
2199	250	151	204
2200	255	173	211
2201	0	0	0
2202	0	0	0
2203	0	0	0
2204	0	0	0
2205	0	0	0
2206	0	0	0
2207	0	0	0
2208	0	0	0
2209	0	0	0
2210	0	0	0
2211	0	0	0
2212	0	0	0
2213	0	0	0
2214	0	0	0
2215	0	0	0
2216	0	0	0
2217	0	0	0
2218	0	0	0
2219	0	0	0
2220	0	0	0
2221	223	165	230
2222	214	149	225
2223	211	145	227
2224	202	129	220
2225	208	128	224
2226	200	110	212
2227	198	100	208
2228	190	86	201
2229	189	85	202
2230	186	77	197
2231	198	83	202
2232	194	72	195
2233	193	70	192
2234	201	77	197
2235	210	84	201
2236	211	82	197
2237	214	85	198
2238	211	79	194
2239	203	65	184
2240	209	70	188
2241	226	89	198
2242	233	101	200
2243	244	123	208
2244	236	116	197
2245	247	134	205
2246	243	133	199
2247	255	158	210
2248	255	173	211
2249	0	0	0
2250	0	0	0
2251	0	0	0
2252	0	0	0
2253	0	0	0
2254	0	0	0
2255	0	0	0
2256	0	0	0
2257	0	0	0
2258	0	0	0
2259	0	0	0
2260	0	0	0
2261	0	0	0
2262	0	0	0
2263	0	0	0
2264	0	0	0
2265	0	0	0
2266	0	0	0
2267	0	0	0
2268	236	181	237
2269	227	165	234
2270	213	149	228
2271	203	132	222
2272	202	121	219
2273	195	104	209
2274	195	97	208
2275	188	84	202
2276	183	78	199
2277	181	71	195
2278	188	70	197
2279	184	59	190
2280	194	69	196
2281	203	77	202
2282	211	80	203
2283	213	78	199
2284	209	73	194
2285	206	67	191
2286	212	74	195
2287	217	78	195
2288	233	98	205
2289	240	111	208
2290	236	109	201
2291	230	103	193
2292	236	112	197
2293	232	111	191
2294	245	135	203
2295	248	150	205
2296	255	175	213
2297	0	0	0
2298	0	0	0
2299	0	0	0
2300	0	0	0
2301	0	0	0
2302	0	0	0
2303	0	0	0
2304	0	0	0
2305	0	0	0
2306	0	0	0
2307	0	0	0
2308	0	0	0
2309	0	0	0
2310	0	0	0
2311	0	0	0
2312	0	0	0
2313	0	0	0
2314	0	0	0
2315	238	181	234
2316	230	168	233
2317	218	153	229
2318	204	132	221
2319	198	118	217
2320	196	109	214
2321	200	105	215
2322	190	87	206
2323	185	81	203
2324	188	81	206
2325	194	79	207
2326	183	57	192
2327	195	68	200
2328	203	74	203
2329	211	76	204
2330	205	62	193
2331	203	58	190
2332	208	64	194
2333	215	71	197
2334	220	80	199
2335	233	98	207
2336	232	96	201
2337	231	97	198
2338	229	95	194
2339	234	104	198
2340	228	100	191
2341	242	124	202
2342	247	141	206
2343	255	166	214
2344	255	188	220
2345	0	0	0
2346	0	0	0
2347	0	0	0
2348	0	0	0
2349	0	0	0
2350	0	0	0
2351	0	0	0
2352	0	0	0
2353	0	0	0
2354	0	0	0
2355	0	0	0
2356	0	0	0
2357	0	0	0
2358	0	0	0
2359	0	0	0
2360	0	0	0
2361	0	0	0
2362	239	184	235
2363	231	170	232
2364	218	151	225
2365	204	131	219
2366	199	121	218
2367	195	110	216
2368	192	99	212
2369	182	81	202
2370	185	82	205
2371	189	83	208
2372	186	68	201
2373	175	46	187
2374	186	56	194
2375	194	61	196
2376	190	49	187
2377	185	36	177
2378	195	47	186
2379	201	53	189
2380	213	69	198
2381	220	78	200
2382	220	78	196
2383	221	79	194
2384	224	81	194
2385	222	79	189
2386	223	83	189
2387	217	80	183
2388	234	109	197
2389	240	126	199
2390	251	152	208
2391	255	174	214
2392	255	194	218
2393	0	0	0
2394	0	0	0
2395	0	0	0
2396	0	0	0
2397	0	0	0
2398	0	0	0
2399	0	0	0
2400	0	0	0
2401	0	0	0
2402	0	0	0
2403	0	0	0
2404	0	0	0
2405	0	0	0
2406	0	0	0
2407	0	0	0
2408	238	192	231
2409	234	181	233
2410	223	161	226
2411	214	144	221
2412	211	137	223
2413	204	127	222
2414	197	116	219
2415	187	100	211
2416	187	95	210
2417	198	102	218
2418	195	90	214
2419	190	75	206
2420	182	57	196
2421	193	68	203
2422	202	75	206
2423	199	63	197
2424	204	66	199
2425	212	77	206
2426	198	55	190
2427	212	71	200
2428	217	75	200
2429	222	78	199
2430	234	90	207
2431	238	93	207
2432	232	86	198
2433	230	89	197
2434	227	90	194
2435	244	120	209
2436	243	125	204
2437	255	152	214
2438	254	160	210
2439	255	180	214
2440	255	199	218
2441	0	0	0
2442	0	0	0
2443	0	0	0
2444	0	0	0
2445	0	0	0
2446	0	0	0
2447	0	0	0
2448	0	0	0
2449	0	0	0
2450	0	0	0
2451	0	0	0
2452	0	0	0
2453	0	0	0
2454	0	0	0
2455	235	190	231
2456	224	171	227
2457	213	151	222
2458	218	149	228
2459	216	142	227
2460	211	133	225
2461	202	121	221
2462	194	114	218
2463	192	108	215
2464	194	99	213
2465	192	89	211
2466	189	78	207
2467	180	60	195
2468	191	71	201
2469	200	79	205
2470	209	84	207
2471	214	86	209
2472	202	69	197
2473	190	49	183
2474	201	60	190
2475	209	66	193
2476	226	81	204
2477	237	93	209
2478	236	90	205
2479	230	83	197
2480	232	90	199
2481	230	92	196
2482	241	110	204
2483	241	118	203
2484	250	134	208
2485	247	142	204
2486	250	160	207
2487	252	178	209
2488	0	0	0
2489	0	0	0
2490	0	0	0
2491	0	0	0
2492	0	0	0
2493	0	0	0
2494	0	0	0
2495	0	0	0
2496	0	0	0
2497	0	0	0
2498	0	0	0
2499	0	0	0
2500	0	0	0
2501	0	0	0
2502	248	207	242
2503	231	184	235
2504	222	167	233
2505	230	166	241
2506	227	154	236
2507	225	146	234
2508	213	129	226
2509	200	119	219
2510	197	116	217
2511	194	105	213
2512	197	101	217
2513	195	92	214
2514	182	70	197
2515	190	80	203
2516	204	94	212
2517	215	100	215
2518	202	76	199
2519	193	60	188
2520	204	71	197
2521	218	84	207
2522	224	85	207
2523	239	100	217
2524	221	72	195
2525	217	67	188
2526	236	94	205
2527	244	104	210
2528	234	92	198
2529	245	110	208
2530	246	116	208
2531	254	134	213
2532	249	137	208
2533	253	156	211
2534	253	171	210
2535	0	0	0
2536	0	0	0
2537	0	0	0
2538	0	0	0
2539	0	0	0
2540	0	0	0
2541	0	0	0
2542	0	0	0
2543	0	0	0
2544	0	0	0
2545	0	0	0
2546	0	0	0
2547	0	0	0
2548	0	0	0
2549	0	0	0
2550	231	191	233
2551	222	173	233
2552	223	165	237
2553	220	152	231
2554	219	143	229
2555	207	126	219
2556	200	122	217
2557	196	119	215
2558	194	112	213
2559	196	108	215
2560	191	95	210
2561	179	74	196
2562	194	91	208
2563	208	106	217
2564	199	85	202
2565	187	61	188
2566	199	75	198
2567	210	86	206
2568	216	87	206
2569	221	87	204
2570	211	67	190
2571	193	40	170
2572	213	69	190
2573	233	97	207
2574	231	90	200
2575	223	78	190
2576	233	94	198
2577	235	101	197
2578	242	115	202
2579	240	122	201
2580	249	145	210
2581	250	160	208
2582	255	181	214
2583	0	0	0
2584	0	0	0
2585	0	0	0
2586	0	0	0
2587	0	0	0
2588	0	0	0
2589	0	0	0
2590	0	0	0
2591	0	0	0
2592	0	0	0
2593	0	0	0
2594	0	0	0
2595	0	0	0
2596	0	0	0
2597	0	0	0
2598	232	197	241
2599	225	184	241
2600	219	170	236
2601	220	161	235
2602	208	140	224
2603	207	140	226
2604	201	130	221
2605	196	122	217
2606	198	122	220
2607	193	109	214
2608	187	93	205
2609	207	114	221
2610	208	110	217
2611	196	86	200
2612	197	83	201
2613	209	97	211
2614	208	92	206
2615	211	92	205
2616	224	103	211
2617	216	84	198
2618	213	77	193
2619	232	106	213
2620	231	104	210
2621	229	98	204
2622	231	97	203
2623	242	114	211
2624	243	118	210
2625	253	134	217
2626	248	132	212
2627	255	157	222
2628	247	149	207
2629	253	171	214
2630	255	186	216
2631	0	0	0
2632	0	0	0
2633	0	0	0
2634	0	0	0
2635	0	0	0
2636	0	0	0
2637	0	0	0
2638	0	0	0
2639	0	0	0
2640	0	0	0
2641	0	0	0
2642	0	0	0
2643	0	0	0
2644	0	0	0
2645	0	0	0
2646	228	201	238
2647	221	186	236
2648	216	169	232
2649	206	149	225
2650	211	149	231
2651	207	141	230
2652	206	140	230
2653	205	137	228
2654	198	123	219
2655	192	108	211
2656	202	112	216
2657	203	108	211
2658	204	105	209
2659	207	102	211
2660	210	102	211
2661	208	97	205
2662	217	106	210
2663	229	118	218
2664	231	114	215
2665	226	105	207
2666	224	104	205
2667	224	102	204
2668	231	108	208
2669	232	108	206
2670	238	117	210
2671	240	122	211
2672	243	126	211
2673	239	125	205
2674	239	130	204
2675	230	126	194
2676	241	150	206
2677	245	166	210
2678	0	0	0
2679	0	0	0
2680	0	0	0
2681	0	0	0
2682	0	0	0
2683	0	0	0
2684	0	0	0
2685	0	0	0
2686	0	0	0
2687	0	0	0
2688	0	0	0
2689	0	0	0
2690	0	0	0
2691	0	0	0
2692	0	0	0
2693	0	0	0
2694	233	209	241
2695	225	191	237
2696	222	176	237
2697	231	179	248
2698	218	156	237
2699	216	154	238
2700	211	147	232
2701	200	131	221
2702	202	128	222
2703	212	132	226
2704	207	117	215
2705	209	115	213
2706	219	122	220
2707	227	125	222
2708	227	120	217
2709	233	128	221
2710	229	121	216
2711	227	115	212
2712	227	113	208
2713	227	113	208
2714	234	121	215
2715	243	128	220
2716	241	126	216
2717	243	133	218
2718	242	134	217
2719	246	140	218
2720	251	147	220
2721	254	155	222
2722	243	144	212
2723	255	171	225
2724	249	169	218
2725	254	187	222
2726	0	0	0
2727	0	0	0
2728	0	0	0
2729	0	0	0
2730	0	0	0
2731	0	0	0
2732	0	0	0
2733	0	0	0
2734	0	0	0
2735	0	0	0
2736	0	0	0
2737	0	0	0
2738	0	0	0
2739	0	0	0
2740	0	0	0
2741	0	0	0
2742	236	214	241
2743	232	199	242
2744	227	181	239
2745	213	157	229
2746	212	155	231
2747	207	149	229
2748	200	142	225
2749	200	138	222
2750	205	132	220
2751	203	121	214
2752	217	131	221
2753	227	138	224
2754	236	140	225
2755	236	136	221
2756	229	127	214
2757	224	119	210
2758	225	120	212
2759	227	120	213
2760	235	129	219
2761	241	136	222
2762	243	137	222
2763	240	135	217
2764	238	136	216
2765	237	138	217
2766	245	150	223
2767	251	159	226
2768	248	155	221
2769	239	145	212
2770	240	153	213
2771	234	153	206
2772	241	168	212
2773	0	0	0
2774	0	0	0
2775	0	0	0
2776	0	0	0
2777	0	0	0
2778	0	0	0
2779	0	0	0
2780	0	0	0
2781	0	0	0
2782	0	0	0
2783	0	0	0
2784	0	0	0
2785	0	0	0
2786	0	0	0
2787	0	0	0
2788	0	0	0
2789	0	0	0
2790	0	0	0
2791	0	0	0
2792	0	0	0
2793	0	0	0
2794	0	0	0
2795	0	0	0
2796	0	0	0
2797	0	0	0
2798	0	0	0
2799	237	164	241
2800	233	149	227
2801	238	149	226
2802	238	144	223
2803	230	136	217
2804	235	142	223
2805	237	144	225
2806	238	143	227
2807	249	153	234
2808	244	147	226
2809	239	144	221
2810	243	153	224
2811	244	157	225
2812	244	160	226
2813	252	171	232
2814	252	171	230
2815	250	168	227
2816	245	164	222
2817	246	172	224
2818	248	180	223
2819	255	199	233
2820	247	186	222
2821	0	0	0
2822	0	0	0
2823	0	0	0
2824	0	0	0
2825	0	0	0
2826	0	0	0
2827	0	0	0
2828	0	0	0
2829	0	0	0
2830	0	0	0
2831	0	0	0
2832	0	0	0
2833	0	0	0
2834	0	0	0
2835	0	0	0
2836	0	0	0
2837	0	0	0
2838	0	0	0
2839	0	0	0
2840	0	0	0
2841	0	0	0
2842	0	0	0
2843	0	0	0
2844	0	0	0
2845	0	0	0
2846	0	0	0
2847	220	147	218
2848	224	146	218
2849	225	143	219
2850	230	150	225
2851	234	155	228
2852	232	153	225
2853	232	151	225
2854	234	150	223
2855	229	143	216
2856	234	154	220
2857	238	164	223
2858	238	166	222
2859	238	168	221
2860	237	169	220
2861	238	170	220
2862	239	170	221
2863	235	168	218
2864	241	180	223
2865	244	189	223
2866	241	185	217
2867	0	0	0
