 	R	G	B
1	0	0	0
2	0	0	0
3	0	0	0
4	0	0	0
5	0	0	0
6	0	0	0
7	0	0	0
8	0	0	0
9	0	0	0
10	0	0	0
11	0	0	0
12	0	0	0
13	0	0	0
14	0	0	0
15	0	0	0
16	0	0	0
17	0	0	0
18	255	229	231
19	0	0	0
20	0	0	0
21	0	0	0
22	0	0	0
23	0	0	0
24	0	0	0
25	0	0	0
26	0	0	0
27	0	0	0
28	0	0	0
29	0	0	0
30	0	0	0
31	0	0	0
32	0	0	0
33	0	0	0
34	0	0	0
35	0	0	0
36	0	0	0
37	0	0	0
38	0	0	0
39	0	0	0
40	0	0	0
41	0	0	0
42	0	0	0
43	0	0	0
44	0	0	0
45	0	0	0
46	0	0	0
47	0	0	0
48	0	0	0
49	0	0	0
50	0	0	0
51	0	0	0
52	0	0	0
53	0	0	0
54	0	0	0
55	0	0	0
56	0	0	0
57	0	0	0
58	0	0	0
59	0	0	0
60	0	0	0
61	0	0	0
62	0	0	0
63	0	0	0
64	0	0	0
65	0	0	0
66	0	0	0
67	0	0	0
68	0	0	0
69	0	0	0
70	0	0	0
71	0	0	0
72	0	0	0
73	0	0	0
74	255	227	230
75	255	232	231
76	255	229	228
77	0	0	0
78	255	233	231
79	0	0	0
80	0	0	0
81	0	0	0
82	0	0	0
83	0	0	0
84	0	0	0
85	0	0	0
86	0	0	0
87	0	0	0
88	0	0	0
89	0	0	0
90	0	0	0
91	0	0	0
92	0	0	0
93	0	0	0
94	0	0	0
95	0	0	0
96	0	0	0
97	0	0	0
98	0	0	0
99	0	0	0
100	0	0	0
101	0	0	0
102	0	0	0
103	0	0	0
104	0	0	0
105	0	0	0
106	0	0	0
107	0	0	0
108	0	0	0
109	0	0	0
110	0	0	0
111	0	0	0
112	0	0	0
113	0	0	0
114	0	0	0
115	0	0	0
116	0	0	0
117	0	0	0
118	0	0	0
119	0	0	0
120	0	0	0
121	0	0	0
122	0	0	0
123	0	0	0
124	0	0	0
125	0	0	0
126	0	0	0
127	0	0	0
128	0	0	0
129	0	0	0
130	255	220	227
131	255	229	232
132	255	222	224
133	252	220	221
134	254	223	224
135	255	231	230
136	253	228	226
137	0	0	0
138	0	0	0
139	0	0	0
140	0	0	0
141	0	0	0
142	0	0	0
143	0	0	0
144	0	0	0
145	0	0	0
146	0	0	0
147	0	0	0
148	0	0	0
149	0	0	0
150	0	0	0
151	0	0	0
152	0	0	0
153	0	0	0
154	0	0	0
155	0	0	0
156	0	0	0
157	0	0	0
158	0	0	0
159	0	0	0
160	0	0	0
161	0	0	0
162	0	0	0
163	0	0	0
164	0	0	0
165	0	0	0
166	0	0	0
167	0	0	0
168	0	0	0
169	0	0	0
170	0	0	0
171	0	0	0
172	0	0	0
173	0	0	0
174	0	0	0
175	0	0	0
176	0	0	0
177	0	0	0
178	0	0	0
179	0	0	0
180	0	0	0
181	0	0	0
182	0	0	0
183	0	0	0
184	0	0	0
185	0	0	0
186	0	0	0
187	255	222	228
188	255	219	225
189	251	212	220
190	255	219	224
191	255	222	225
192	255	222	224
193	251	219	220
194	255	232	228
195	255	244	236
196	255	246	237
197	0	0	0
198	0	0	0
199	0	0	0
200	0	0	0
201	0	0	0
202	0	0	0
203	0	0	0
204	0	0	0
205	0	0	0
206	0	0	0
207	0	0	0
208	0	0	0
209	0	0	0
210	0	0	0
211	0	0	0
212	0	0	0
213	0	0	0
214	0	0	0
215	0	0	0
216	0	0	0
217	0	0	0
218	0	0	0
219	0	0	0
220	0	0	0
221	0	0	0
222	0	0	0
223	0	0	0
224	0	0	0
225	0	0	0
226	0	0	0
227	0	0	0
228	0	0	0
229	0	0	0
230	0	0	0
231	0	0	0
232	0	0	0
233	0	0	0
234	0	0	0
235	0	0	0
236	0	0	0
237	0	0	0
238	0	0	0
239	0	0	0
240	0	0	0
241	0	0	0
242	0	0	0
243	0	0	0
244	255	218	226
245	255	215	224
246	251	206	218
247	255	213	223
248	255	214	223
249	254	214	221
250	251	212	218
251	255	225	226
252	255	227	225
253	254	228	225
254	255	238	232
255	0	0	0
256	0	0	0
257	0	0	0
258	0	0	0
259	0	0	0
260	0	0	0
261	0	0	0
262	0	0	0
263	0	0	0
264	0	0	0
265	0	0	0
266	0	0	0
267	0	0	0
268	0	0	0
269	0	0	0
270	0	0	0
271	0	0	0
272	0	0	0
273	0	0	0
274	0	0	0
275	0	0	0
276	0	0	0
277	0	0	0
278	0	0	0
279	0	0	0
280	0	0	0
281	0	0	0
282	0	0	0
283	0	0	0
284	0	0	0
285	0	0	0
286	0	0	0
287	0	0	0
288	0	0	0
289	0	0	0
290	0	0	0
291	0	0	0
292	255	220	229
293	0	0	0
294	0	0	0
295	0	0	0
296	254	207	227
297	247	197	219
298	254	206	225
299	255	209	226
300	255	213	227
301	255	218	229
302	255	209	223
303	251	200	217
304	255	205	221
305	255	206	223
306	254	207	223
307	251	206	220
308	253	210	220
309	251	212	218
310	255	222	223
311	0	0	0
312	0	0	0
313	0	0	0
314	0	0	0
315	0	0	0
316	0	0	0
317	0	0	0
318	0	0	0
319	0	0	0
320	0	0	0
321	0	0	0
322	0	0	0
323	0	0	0
324	0	0	0
325	0	0	0
326	0	0	0
327	0	0	0
328	0	0	0
329	0	0	0
330	0	0	0
331	0	0	0
332	0	0	0
333	0	0	0
334	0	0	0
335	0	0	0
336	0	0	0
337	0	0	0
338	0	0	0
339	0	0	0
340	0	0	0
341	0	0	0
342	0	0	0
343	0	0	0
344	0	0	0
345	0	0	0
346	0	0	0
347	0	0	0
348	255	222	228
349	255	218	228
350	249	206	224
351	0	0	0
352	255	219	235
353	255	213	231
354	248	192	218
355	255	202	226
356	255	201	224
357	255	205	226
358	255	202	222
359	251	193	216
360	253	196	218
361	255	200	222
362	253	197	221
363	253	198	221
364	255	203	222
365	255	208	223
366	253	206	219
367	255	216	224
368	253	215	220
369	0	0	0
370	0	0	0
371	0	0	0
372	0	0	0
373	0	0	0
374	0	0	0
375	0	0	0
376	0	0	0
377	0	0	0
378	0	0	0
379	0	0	0
380	0	0	0
381	0	0	0
382	0	0	0
383	0	0	0
384	0	0	0
385	0	0	0
386	0	0	0
387	0	0	0
388	0	0	0
389	0	0	0
390	0	0	0
391	0	0	0
392	0	0	0
393	0	0	0
394	0	0	0
395	0	0	0
396	0	0	0
397	0	0	0
398	0	0	0
399	0	0	0
400	0	0	0
401	0	0	0
402	0	0	0
403	0	0	0
404	255	228	230
405	255	219	226
406	252	210	223
407	246	199	220
408	255	211	230
409	255	225	238
410	255	205	225
411	245	185	213
412	252	191	220
413	252	191	220
414	253	190	220
415	251	187	217
416	253	190	219
417	255	192	221
418	253	190	220
419	251	187	219
420	255	195	223
421	255	199	221
422	255	200	220
423	253	199	219
424	252	201	218
425	247	199	213
426	255	215	221
427	255	230	227
428	255	230	226
429	255	232	228
430	255	243	236
431	0	0	0
432	0	0	0
433	0	0	0
434	0	0	0
435	0	0	0
436	0	0	0
437	0	0	0
438	0	0	0
439	0	0	0
440	0	0	0
441	0	0	0
442	0	0	0
443	0	0	0
444	0	0	0
445	0	0	0
446	0	0	0
447	0	0	0
448	0	0	0
449	0	0	0
450	0	0	0
451	0	0	0
452	0	0	0
453	0	0	0
454	0	0	0
455	0	0	0
456	0	0	0
457	0	0	0
458	0	0	0
459	0	0	0
460	255	230	232
461	255	221	226
462	252	212	222
463	250	203	219
464	250	201	223
465	255	215	233
466	255	217	233
467	253	197	220
468	247	183	214
469	254	190	221
470	255	189	222
471	255	189	223
472	250	179	216
473	253	183	219
474	255	186	221
475	253	183	219
476	255	187	222
477	255	195	226
478	251	185	216
479	250	186	214
480	255	196	221
481	255	198	220
482	252	197	216
483	255	213	224
484	254	208	217
485	251	208	215
486	254	216	219
487	255	226	226
488	255	225	225
489	0	0	0
490	0	0	0
491	0	0	0
492	0	0	0
493	0	0	0
494	0	0	0
495	0	0	0
496	0	0	0
497	0	0	0
498	0	0	0
499	0	0	0
500	0	0	0
501	0	0	0
502	0	0	0
503	0	0	0
504	0	0	0
505	0	0	0
506	0	0	0
507	0	0	0
508	0	0	0
509	0	0	0
510	0	0	0
511	0	0	0
512	0	0	0
513	0	0	0
514	0	0	0
515	0	0	0
516	0	0	0
517	255	223	231
518	254	215	226
519	251	206	220
520	255	207	224
521	255	205	226
522	255	207	229
523	255	209	230
524	254	194	220
525	249	181	216
526	254	185	221
527	255	183	219
528	252	177	216
529	246	169	211
530	250	174	216
531	252	177	218
532	255	181	220
533	255	183	220
534	251	177	216
535	245	170	212
536	251	181	218
537	255	189	219
538	253	189	216
539	251	189	214
540	248	188	212
541	242	183	208
542	247	193	212
543	249	200	214
544	246	200	212
545	243	199	211
546	255	220	224
547	255	240	236
548	255	236	229
549	255	235	225
550	255	242	229
551	255	251	239
552	255	251	239
553	255	251	240
554	255	251	240
555	255	253	239
556	255	249	237
557	255	246	235
558	255	246	237
559	0	0	0
560	0	0	0
561	255	248	241
562	255	248	243
563	255	248	243
564	255	248	242
565	255	245	236
566	255	242	234
567	255	244	238
568	255	239	236
569	0	0	0
570	0	0	0
571	0	0	0
572	0	0	0
573	0	0	0
574	255	224	233
575	255	216	229
576	251	203	220
577	255	204	223
578	253	197	223
579	255	199	225
580	255	201	226
581	252	186	218
582	253	183	220
583	255	186	224
584	252	175	217
585	249	169	213
586	250	170	215
587	254	175	219
588	255	177	221
589	255	181	224
590	254	175	217
591	249	170	213
592	252	175	219
593	255	186	225
594	254	182	217
595	252	183	214
596	255	191	220
597	254	190	219
598	248	183	214
599	253	193	220
600	255	204	223
601	254	203	220
602	249	199	216
603	255	219	228
604	255	220	224
605	253	216	218
606	253	220	218
607	255	226	222
608	255	231	227
609	255	230	226
610	255	233	228
611	255	234	228
612	255	237	229
613	255	234	226
614	255	234	227
615	255	235	230
616	255	231	230
617	255	232	232
618	255	240	237
619	255	240	239
620	255	231	235
621	255	231	234
622	252	226	227
623	250	223	224
624	255	235	235
625	255	229	232
626	255	226	230
627	0	0	0
628	0	0	0
629	0	0	0
630	0	0	0
631	255	222	232
632	255	211	227
633	249	198	218
634	251	195	219
635	249	189	219
636	254	192	224
637	255	194	225
638	255	188	223
639	255	184	223
640	253	176	219
641	248	166	214
642	251	168	216
643	251	168	215
644	255	172	217
645	255	174	220
646	255	172	219
647	251	167	215
648	254	172	217
649	255	176	220
650	254	176	217
651	251	173	213
652	254	181	217
653	255	189	224
654	255	185	221
655	248	178	214
656	254	190	221
657	255	202	228
658	254	197	221
659	248	192	215
660	249	196	216
661	247	198	213
662	249	202	215
663	251	207	218
664	252	211	220
665	253	215	220
666	254	218	221
667	255	221	223
668	255	224	224
669	255	228	225
670	255	226	222
671	255	225	220
672	251	220	217
673	249	216	219
674	255	226	227
675	255	233	232
676	254	222	226
677	248	214	223
678	247	211	223
679	244	207	221
680	251	216	227
681	255	227	234
682	254	221	231
683	253	218	231
684	0	0	0
685	0	0	0
686	0	0	0
687	0	0	0
688	255	217	231
689	254	207	226
690	251	197	220
691	252	194	221
692	254	191	223
693	255	195	228
694	253	184	222
695	252	178	219
696	255	179	220
697	251	170	216
698	250	166	216
699	254	170	220
700	255	172	219
701	255	176	222
702	254	166	217
703	253	164	216
704	252	163	214
705	254	168	215
706	255	172	216
707	253	171	214
708	254	173	215
709	255	181	221
710	255	181	221
711	253	177	218
712	246	171	213
713	253	183	220
714	255	201	229
715	255	195	223
716	253	194	220
717	255	198	221
718	254	199	221
719	255	205	224
720	253	202	222
721	255	206	224
722	253	205	219
723	254	208	219
724	253	209	218
725	253	212	219
726	255	215	221
727	252	212	217
728	255	217	218
729	250	211	215
730	254	216	222
731	255	224	230
732	254	215	223
733	246	204	216
734	251	211	224
735	250	208	224
736	252	213	228
737	255	221	234
738	255	221	233
739	253	215	230
740	253	213	231
741	0	0	0
742	0	0	0
743	0	0	0
744	0	0	0
745	255	212	228
746	253	204	226
747	250	194	222
748	253	193	222
749	253	189	221
750	249	179	218
751	245	169	216
752	250	172	219
753	251	172	216
754	251	168	214
755	251	165	216
756	255	172	222
757	255	175	222
758	255	167	218
759	251	158	214
760	254	161	217
761	252	159	212
762	253	163	212
763	255	167	212
764	253	167	210
765	253	170	213
766	251	168	212
767	250	168	214
768	248	167	214
769	243	162	211
770	254	181	221
771	255	197	227
772	255	191	219
773	253	190	218
774	252	191	220
775	253	193	222
776	251	192	221
777	247	188	217
778	247	190	216
779	246	189	212
780	246	190	211
781	245	191	211
782	247	195	214
783	249	199	217
784	251	204	219
785	254	209	221
786	254	209	221
787	255	212	226
788	250	203	220
789	243	195	214
790	246	199	218
791	251	205	224
792	253	208	226
793	254	212	228
794	252	210	226
795	252	210	226
796	251	208	226
797	250	206	227
798	255	216	235
799	0	0	0
800	0	0	0
801	0	0	0
802	255	214	230
803	255	206	228
804	250	192	221
805	252	191	222
806	255	195	226
807	255	186	222
808	251	176	222
809	255	179	226
810	254	173	219
811	252	169	216
812	255	170	219
813	255	177	225
814	255	166	220
815	253	159	216
816	248	150	212
817	251	152	214
818	249	152	210
819	251	156	210
820	254	163	211
821	252	163	209
822	255	173	217
823	255	171	217
824	254	171	218
825	253	170	218
826	249	167	216
827	255	185	227
828	254	183	220
829	247	178	212
830	255	197	224
831	255	198	225
832	254	192	222
833	253	191	222
834	255	194	224
835	255	196	224
836	251	192	218
837	252	194	218
838	252	196	219
839	254	199	222
840	252	198	221
841	254	202	224
842	255	205	224
843	255	205	224
844	255	206	227
845	249	197	222
846	252	202	224
847	254	206	227
848	252	203	226
849	253	206	228
850	254	209	228
851	252	208	226
852	255	213	230
853	254	210	230
854	247	201	225
855	0	0	0
856	0	0	0
857	0	0	0
858	255	218	227
859	255	213	228
860	254	203	225
861	248	189	218
862	255	195	224
863	255	200	229
864	255	188	224
865	253	178	222
866	255	178	227
867	255	174	223
868	255	174	223
869	255	173	220
870	254	164	216
871	250	155	215
872	247	148	214
873	241	138	206
874	244	141	207
875	243	141	206
876	248	150	210
877	251	158	211
878	254	165	214
879	255	174	221
880	255	172	220
881	255	171	220
882	253	169	218
883	248	166	215
884	248	168	215
885	245	168	213
886	253	184	221
887	255	202	228
888	254	191	217
889	249	184	213
890	252	188	217
891	255	193	222
892	253	191	221
893	250	188	218
894	251	190	219
895	252	192	220
896	250	190	219
897	247	188	216
898	249	191	218
899	250	194	218
900	249	194	220
901	250	195	225
902	253	200	229
903	255	203	228
904	250	199	224
905	248	197	224
906	250	201	227
907	251	204	226
908	252	206	227
909	255	212	233
910	249	203	227
911	0	0	0
912	0	0	0
913	0	0	0
914	255	229	230
915	255	223	230
916	251	205	223
917	249	195	220
918	250	191	219
919	255	197	225
920	255	199	228
921	255	187	223
922	252	176	220
923	255	177	225
924	254	171	223
925	255	171	223
926	255	170	220
927	252	160	215
928	250	154	218
929	248	147	216
930	249	148	215
931	251	151	216
932	252	153	216
933	255	163	220
934	255	164	217
935	255	172	220
936	255	170	220
937	254	167	218
938	254	169	219
939	252	167	216
940	253	171	218
941	252	174	219
942	254	179	222
943	255	195	230
944	255	195	224
945	250	184	213
946	255	193	220
947	255	197	224
948	253	189	220
949	251	187	219
950	255	193	222
951	255	195	224
952	255	196	225
953	254	195	224
954	254	196	224
955	255	200	225
956	254	198	223
957	253	197	224
958	252	196	227
959	253	199	230
960	255	206	231
961	253	202	226
962	255	206	231
963	255	210	235
964	254	208	231
965	255	211	231
966	0	0	0
967	0	0	0
968	0	0	0
969	0	0	0
970	0	0	0
971	255	232	231
972	251	213	223
973	244	195	216
974	249	196	221
975	250	192	219
976	255	195	223
977	255	197	228
978	255	186	223
979	250	174	217
980	252	171	219
981	250	165	219
982	253	166	222
983	255	166	223
984	250	156	218
985	247	148	217
986	250	151	220
987	251	153	221
988	255	158	223
989	255	160	220
990	255	165	221
991	255	167	219
992	255	166	217
993	254	165	217
994	253	166	217
995	253	167	216
996	254	171	218
997	255	175	220
998	255	181	222
999	255	185	222
1000	255	186	221
1001	255	187	219
1002	255	194	223
1003	255	204	231
1004	255	194	225
1005	250	185	219
1006	254	191	223
1007	255	196	223
1008	255	195	222
1009	255	197	225
1010	255	199	226
1011	255	200	226
1012	255	198	224
1013	253	196	223
1014	251	194	222
1015	248	191	221
1016	253	200	227
1017	255	207	229
1018	255	209	230
1019	255	214	236
1020	255	213	236
1021	255	210	232
1022	0	0	0
1023	0	0	0
1024	0	0	0
1025	0	0	0
1026	0	0	0
1027	0	0	0
1028	255	237	234
1029	254	218	226
1030	252	207	224
1031	255	208	229
1032	253	197	222
1033	255	200	226
1034	255	193	227
1035	253	182	222
1036	252	176	220
1037	253	173	221
1038	251	167	221
1039	255	168	225
1040	254	165	224
1041	249	155	219
1042	251	156	222
1043	253	159	225
1044	255	166	230
1045	255	171	232
1046	252	157	218
1047	255	163	220
1048	253	160	216
1049	252	159	214
1050	253	163	217
1051	252	164	217
1052	255	171	219
1053	255	174	221
1054	254	174	220
1055	255	179	222
1056	255	183	221
1057	254	184	219
1058	254	186	219
1059	255	193	224
1060	255	194	226
1061	250	183	220
1062	253	187	223
1063	255	194	226
1064	254	193	222
1065	253	192	220
1066	255	198	225
1067	255	200	227
1068	255	197	224
1069	253	195	223
1070	253	197	224
1071	251	195	222
1072	253	199	225
1073	255	208	231
1074	255	205	227
1075	255	207	228
1076	255	212	234
1077	255	211	234
1078	251	206	227
1079	0	0	0
1080	0	0	0
1081	0	0	0
1082	0	0	0
1083	0	0	0
1084	255	239	233
1085	255	244	239
1086	255	230	233
1087	255	218	230
1088	255	211	229
1089	254	200	222
1090	253	194	222
1091	253	188	224
1092	253	183	226
1093	253	178	226
1094	252	172	224
1095	249	165	220
1096	250	163	220
1097	249	159	218
1098	252	162	222
1099	254	163	225
1100	255	170	232
1101	255	177	238
1102	255	166	229
1103	248	153	214
1104	248	153	213
1105	247	151	212
1106	251	157	217
1107	252	160	218
1108	255	168	221
1109	255	174	223
1110	255	173	222
1111	253	173	223
1112	253	177	225
1113	254	180	224
1114	252	180	220
1115	251	181	216
1116	249	180	215
1117	249	181	218
1118	251	185	222
1119	254	189	225
1120	254	190	225
1121	252	190	223
1122	255	195	225
1123	255	200	226
1124	253	195	223
1125	251	193	223
1126	252	195	224
1127	252	196	225
1128	255	202	228
1129	255	207	230
1130	255	205	228
1131	252	202	225
1132	253	205	227
1133	255	210	231
1134	252	207	227
1135	247	202	223
1136	255	217	233
1137	0	0	0
1138	0	0	0
1139	0	0	0
1140	0	0	0
1141	255	243	237
1142	255	236	234
1143	255	221	227
1144	255	214	227
1145	254	207	225
1146	254	200	223
1147	253	194	223
1148	255	190	227
1149	255	185	229
1150	254	180	229
1151	252	174	226
1152	255	177	227
1153	255	174	226
1154	250	164	221
1155	253	166	224
1156	255	168	226
1157	255	175	232
1158	255	171	232
1159	252	161	224
1160	252	161	220
1161	254	162	220
1162	253	160	220
1163	255	166	225
1164	250	159	218
1165	253	166	221
1166	254	170	222
1167	251	169	219
1168	255	178	226
1169	255	181	228
1170	255	187	230
1171	255	187	227
1172	255	189	223
1173	254	188	221
1174	252	186	222
1175	255	190	226
1176	255	195	228
1177	255	195	228
1178	253	191	224
1179	255	196	226
1180	255	197	225
1181	251	193	222
1182	255	200	228
1183	255	202	230
1184	255	202	229
1185	255	208	231
1186	255	205	229
1187	253	203	227
1188	252	203	226
1189	253	206	227
1190	255	215	233
1191	254	212	230
1192	250	208	227
1193	255	222	237
1194	254	218	234
1195	0	0	0
1196	0	0	0
1197	0	0	0
1198	0	0	0
1199	255	228	230
1200	254	220	229
1201	254	213	228
1202	255	209	229
1203	255	202	227
1204	255	198	228
1205	255	193	229
1206	255	188	230
1207	254	183	228
1208	255	185	230
1209	255	187	230
1210	255	177	225
1211	251	168	224
1212	255	171	228
1213	255	172	227
1214	254	168	225
1215	253	165	225
1216	255	167	227
1217	255	168	227
1218	255	166	225
1219	254	164	223
1220	251	160	221
1221	244	152	215
1222	246	158	217
1223	247	163	218
1224	249	169	219
1225	252	177	221
1226	255	183	224
1227	255	189	229
1228	255	192	229
1229	255	195	228
1230	255	192	225
1231	254	190	224
1232	254	192	226
1233	255	196	227
1234	252	192	223
1235	248	187	218
1236	250	191	220
1237	251	193	222
1238	255	200	227
1239	255	206	233
1240	255	208	234
1241	255	207	231
1242	255	205	229
1243	253	202	229
1244	251	203	228
1245	249	202	225
1246	253	210	228
1247	255	218	233
1248	253	214	230
1249	250	210	229
1250	249	210	230
1251	0	0	0
1252	0	0	0
1253	0	0	0
1254	0	0	0
1255	0	0	0
1256	255	237	237
1257	255	229	237
1258	252	209	226
1259	254	205	228
1260	255	202	229
1261	255	197	228
1262	254	191	228
1263	253	186	227
1264	254	184	227
1265	255	186	228
1266	255	181	223
1267	249	170	217
1268	253	174	226
1269	255	178	231
1270	255	179	230
1271	255	176	228
1272	251	165	223
1273	253	167	225
1274	254	168	226
1275	253	165	224
1276	254	167	224
1277	251	163	221
1278	249	162	220
1279	251	169	223
1280	255	182	230
1281	255	188	231
1282	255	186	225
1283	255	191	228
1284	254	186	226
1285	254	189	227
1286	255	192	225
1287	252	189	222
1288	251	188	222
1289	251	191	223
1290	255	207	232
1291	255	202	227
1292	249	191	219
1293	252	196	223
1294	255	202	228
1295	255	208	233
1296	255	203	231
1297	255	204	231
1298	253	202	228
1299	250	199	226
1300	252	204	230
1301	250	204	229
1302	255	213	232
1303	255	220	235
1304	255	219	232
1305	251	215	229
1306	254	219	236
1307	254	220	236
1308	0	0	0
1309	0	0	0
1310	0	0	0
1311	0	0	0
1312	255	235	228
1313	255	246	243
1314	255	226	235
1315	250	206	225
1316	255	206	230
1317	255	203	231
1318	255	198	229
1319	254	191	228
1320	255	190	229
1321	255	187	228
1322	254	182	225
1323	251	177	221
1324	253	178	222
1325	255	180	226
1326	255	182	229
1327	255	185	232
1328	254	173	226
1329	246	162	219
1330	248	164	221
1331	249	165	222
1332	251	167	223
1333	252	169	223
1334	253	171	223
1335	250	169	219
1336	255	183	227
1337	255	197	237
1338	255	194	233
1339	255	191	229
1340	250	184	223
1341	246	179	221
1342	247	183	222
1343	248	185	219
1344	247	186	218
1345	246	185	218
1346	255	200	227
1347	255	215	233
1348	254	202	223
1349	247	192	220
1350	254	202	228
1351	255	207	230
1352	254	203	228
1353	250	198	225
1354	248	196	225
1355	246	195	225
1356	246	198	226
1357	247	202	228
1358	253	212	234
1359	255	221	237
1360	253	219	233
1361	250	217	230
1362	249	219	231
1363	252	223	235
1364	0	0	0
1365	0	0	0
1366	0	0	0
1367	0	0	0
1368	0	0	0
1369	0	0	0
1370	255	236	236
1371	253	215	227
1372	250	204	225
1373	255	204	230
1374	251	195	226
1375	250	189	223
1376	255	193	228
1377	255	191	229
1378	252	183	226
1379	250	178	223
1380	254	184	226
1381	255	184	227
1382	255	184	227
1383	255	185	230
1384	255	183	230
1385	250	171	224
1386	249	170	223
1387	251	172	225
1388	255	181	231
1389	255	183	232
1390	253	174	226
1391	254	177	226
1392	248	172	219
1393	255	186	227
1394	255	196	233
1395	255	192	229
1396	255	195	229
1397	0	0	0
1398	0	0	0
1399	0	0	0
1400	0	0	0
1401	0	0	0
1402	250	195	224
1403	255	209	232
1404	255	218	234
1405	253	205	224
1406	253	205	227
1407	255	214	236
1408	255	206	229
1409	251	202	226
1410	251	203	227
1411	0	0	0
1412	0	0	0
1413	0	0	0
1414	0	0	0
1415	255	229	243
1416	254	223	236
1417	0	0	0
1418	0	0	0
1419	0	0	0
1420	0	0	0
1421	0	0	0
1422	0	0	0
1423	0	0	0
1424	0	0	0
1425	0	0	0
1426	0	0	0
1427	0	0	0
1428	251	212	223
1429	249	202	224
1430	249	195	225
1431	244	185	218
1432	250	190	223
1433	255	193	227
1434	251	186	224
1435	248	179	224
1436	255	186	230
1437	255	191	231
1438	255	189	230
1439	255	189	232
1440	253	183	229
1441	253	180	230
1442	252	179	230
1443	251	177	228
1444	255	186	234
1445	255	195	237
1446	255	187	231
1447	253	180	229
1448	255	182	231
1449	250	178	226
1450	255	189	231
1451	255	198	235
1452	255	198	231
1453	0	0	0
1454	0	0	0
1455	0	0	0
1456	0	0	0
1457	0	0	0
1458	0	0	0
1459	253	203	231
1460	255	214	237
1461	255	223	238
1462	255	219	233
1463	255	218	235
1464	255	211	231
1465	250	203	226
1466	251	206	227
1467	0	0	0
1468	0	0	0
1469	0	0	0
1470	0	0	0
1471	0	0	0
1472	0	0	0
1473	0	0	0
1474	0	0	0
1475	0	0	0
1476	0	0	0
1477	0	0	0
1478	0	0	0
1479	0	0	0
1480	0	0	0
1481	0	0	0
1482	0	0	0
1483	0	0	0
1484	0	0	0
1485	0	0	0
1486	253	208	230
1487	252	201	229
1488	250	194	224
1489	255	199	228
1490	255	195	227
1491	252	188	225
1492	253	188	230
1493	255	195	236
1494	255	188	229
1495	254	186	227
1496	254	188	230
1497	250	181	227
1498	255	193	236
1499	255	192	236
1500	253	184	230
1501	255	193	234
1502	255	196	233
1503	255	188	227
1504	254	185	230
1505	255	188	235
1506	249	179	228
1507	255	191	233
1508	255	195	232
1509	252	195	227
1510	0	0	0
1511	0	0	0
1512	0	0	0
1513	0	0	0
1514	0	0	0
1515	0	0	0
1516	0	0	0
1517	255	221	241
1518	255	215	232
1519	253	210	227
1520	255	215	231
1521	0	0	0
1522	0	0	0
1523	0	0	0
1524	0	0	0
1525	0	0	0
1526	0	0	0
1527	0	0	0
1528	0	0	0
1529	0	0	0
1530	0	0	0
1531	0	0	0
1532	0	0	0
1533	0	0	0
1534	0	0	0
1535	0	0	0
1536	0	0	0
1537	0	0	0
1538	0	0	0
1539	0	0	0
1540	0	0	0
1541	0	0	0
1542	0	0	0
1543	255	214	236
1544	255	208	233
1545	252	199	224
1546	254	198	225
1547	254	196	226
1548	255	196	230
1549	255	196	234
1550	255	192	232
1551	251	185	226
1552	252	187	227
1553	253	188	229
1554	255	197	236
1555	255	208	242
1556	255	200	236
1557	255	192	230
1558	255	195	231
1559	255	198	229
1560	255	192	225
1561	254	189	230
1562	251	185	230
1563	245	178	225
1564	249	186	228
1565	249	190	226
1566	0	0	0
1567	0	0	0
1568	0	0	0
1569	0	0	0
1570	0	0	0
1571	0	0	0
1572	0	0	0
1573	0	0	0
1574	0	0	0
1575	247	205	223
1576	248	208	223
1577	0	0	0
1578	0	0	0
1579	0	0	0
1580	0	0	0
1581	0	0	0
1582	0	0	0
1583	0	0	0
1584	0	0	0
1585	0	0	0
1586	0	0	0
1587	0	0	0
1588	0	0	0
1589	0	0	0
1590	0	0	0
1591	0	0	0
1592	0	0	0
1593	0	0	0
1594	0	0	0
1595	0	0	0
1596	0	0	0
1597	0	0	0
1598	0	0	0
1599	0	0	0
1600	255	218	238
1601	255	211	234
1602	253	203	226
1603	255	202	227
1604	250	192	224
1605	253	193	229
1606	255	196	234
1607	254	191	232
1608	249	185	225
1609	250	187	226
1610	254	193	231
1611	255	201	236
1612	255	199	233
1613	251	191	226
1614	252	192	228
1615	255	196	229
1616	255	201	228
1617	254	195	225
1618	250	189	227
1619	0	0	0
1620	0	0	0
1621	0	0	0
1622	0	0	0
1623	0	0	0
1624	0	0	0
1625	0	0	0
1626	0	0	0
1627	0	0	0
1628	0	0	0
1629	0	0	0
1630	0	0	0
1631	0	0	0
1632	0	0	0
1633	0	0	0
1634	0	0	0
1635	0	0	0
1636	0	0	0
1637	0	0	0
1638	0	0	0
1639	0	0	0
1640	0	0	0
1641	0	0	0
1642	0	0	0
1643	0	0	0
1644	0	0	0
1645	0	0	0
1646	0	0	0
1647	0	0	0
1648	0	0	0
1649	0	0	0
1650	0	0	0
1651	0	0	0
1652	0	0	0
1653	0	0	0
1654	0	0	0
1655	0	0	0
1656	0	0	0
1657	0	0	0
1658	255	213	232
1659	253	206	228
1660	250	198	225
1661	245	188	222
1662	250	192	230
1663	253	195	235
1664	249	188	230
1665	243	181	221
1666	248	188	224
1667	251	194	228
1668	250	192	226
1669	248	190	224
1670	249	192	226
1671	251	194	229
1672	255	199	232
1673	255	204	232
1674	251	196	226
1675	0	0	0
1676	0	0	0
1677	0	0	0
1678	0	0	0
1679	0	0	0
1680	0	0	0
1681	0	0	0
1682	0	0	0
1683	0	0	0
1684	0	0	0
1685	0	0	0
1686	0	0	0
1687	0	0	0
1688	0	0	0
1689	0	0	0
1690	0	0	0
1691	0	0	0
1692	0	0	0
1693	0	0	0
1694	0	0	0
1695	0	0	0
1696	0	0	0
1697	0	0	0
1698	0	0	0
1699	0	0	0
1700	0	0	0
1701	0	0	0
1702	0	0	0
1703	0	0	0
1704	0	0	0
1705	0	0	0
1706	0	0	0
1707	0	0	0
1708	0	0	0
1709	0	0	0
1710	0	0	0
1711	0	0	0
1712	0	0	0
1713	0	0	0
1714	0	0	0
1715	0	0	0
1716	0	0	0
1717	254	206	230
1718	249	197	229
1719	254	201	236
1720	255	203	239
1721	251	196	233
1722	252	199	231
1723	255	205	233
1724	255	205	234
1725	255	204	233
1726	252	199	229
1727	253	202	230
1728	255	209	236
1729	255	213	239
1730	254	204	230
1731	0	0	0
1732	0	0	0
1733	0	0	0
1734	0	0	0
1735	0	0	0
1736	0	0	0
1737	0	0	0
1738	0	0	0
1739	0	0	0
1740	0	0	0
1741	0	0	0
1742	0	0	0
1743	0	0	0
1744	0	0	0
1745	0	0	0
1746	0	0	0
1747	0	0	0
1748	0	0	0
1749	0	0	0
1750	0	0	0
1751	0	0	0
1752	0	0	0
1753	0	0	0
1754	0	0	0
1755	0	0	0
1756	0	0	0
1757	0	0	0
1758	0	0	0
1759	0	0	0
1760	0	0	0
1761	0	0	0
1762	0	0	0
1763	0	0	0
1764	0	0	0
1765	0	0	0
1766	0	0	0
1767	0	0	0
1768	0	0	0
1769	0	0	0
1770	0	0	0
1771	0	0	0
1772	0	0	0
1773	0	0	0
1774	255	214	233
1775	251	204	232
1776	253	206	237
1777	253	207	237
1778	255	210	238
1779	255	214	236
1780	255	213	235
1781	255	214	238
1782	255	212	237
1783	253	207	231
1784	255	214	235
1785	255	220	238
1786	255	213	233
1787	250	204	225
1788	0	0	0
1789	0	0	0
1790	0	0	0
1791	0	0	0
1792	0	0	0
1793	0	0	0
1794	0	0	0
1795	0	0	0
1796	0	0	0
1797	0	0	0
1798	0	0	0
1799	0	0	0
1800	0	0	0
1801	0	0	0
1802	0	0	0
1803	0	0	0
1804	0	0	0
1805	0	0	0
1806	0	0	0
1807	0	0	0
1808	0	0	0
1809	0	0	0
1810	0	0	0
1811	0	0	0
1812	0	0	0
1813	0	0	0
1814	0	0	0
1815	0	0	0
1816	0	0	0
1817	0	0	0
1818	0	0	0
1819	0	0	0
1820	0	0	0
1821	0	0	0
1822	0	0	0
1823	0	0	0
1824	0	0	0
1825	0	0	0
1826	0	0	0
1827	0	0	0
1828	0	0	0
1829	0	0	0
1830	0	0	0
1831	0	0	0
1832	246	203	228
1833	0	0	0
1834	0	0	0
1835	0	0	0
1836	0	0	0
1837	0	0	0
1838	0	0	0
1839	0	0	0
1840	255	215	234
1841	255	223	238
1842	255	214	231
1843	249	206	225
1844	248	206	225
1845	0	0	0
1846	0	0	0
1847	0	0	0
1848	0	0	0
1849	0	0	0
1850	0	0	0
1851	0	0	0
1852	0	0	0
1853	0	0	0
1854	0	0	0
1855	0	0	0
1856	0	0	0
1857	0	0	0
1858	0	0	0
1859	0	0	0
1860	0	0	0
1861	0	0	0
1862	0	0	0
1863	0	0	0
1864	0	0	0
1865	0	0	0
1866	0	0	0
1867	0	0	0
1868	0	0	0
1869	0	0	0
1870	0	0	0
1871	0	0	0
1872	0	0	0
1873	0	0	0
1874	0	0	0
1875	0	0	0
1876	0	0	0
1877	0	0	0
1878	0	0	0
1879	0	0	0
1880	0	0	0
1881	0	0	0
1882	0	0	0
1883	0	0	0
1884	0	0	0
1885	0	0	0
1886	0	0	0
1887	0	0	0
1888	0	0	0
1889	0	0	0
1890	0	0	0
1891	0	0	0
1892	0	0	0
1893	0	0	0
1894	0	0	0
1895	0	0	0
1896	255	228	240
1897	255	225	238
1898	255	218	233
1899	249	210	227
1900	249	210	228
1901	248	210	229
1902	253	217	233
1903	0	0	0
1904	0	0	0
1905	0	0	0
1906	0	0	0
1907	0	0	0
1908	0	0	0
1909	0	0	0
1910	0	0	0
1911	0	0	0
1912	0	0	0
1913	0	0	0
1914	0	0	0
1915	0	0	0
1916	0	0	0
1917	0	0	0
1918	0	0	0
1919	0	0	0
1920	0	0	0
1921	0	0	0
1922	0	0	0
1923	0	0	0
1924	0	0	0
1925	0	0	0
1926	0	0	0
1927	0	0	0
1928	0	0	0
1929	0	0	0
1930	0	0	0
1931	0	0	0
1932	0	0	0
1933	0	0	0
1934	0	0	0
1935	0	0	0
1936	0	0	0
1937	0	0	0
1938	0	0	0
1939	0	0	0
1940	0	0	0
1941	0	0	0
1942	0	0	0
1943	0	0	0
1944	0	0	0
1945	0	0	0
1946	0	0	0
1947	0	0	0
1948	0	0	0
1949	0	0	0
1950	0	0	0
1951	0	0	0
1952	0	0	0
1953	0	0	0
1954	250	215	230
1955	243	207	225
1956	251	219	233
1957	253	220	235
1958	250	218	234
1959	0	0	0
1960	0	0	0
1961	0	0	0
1962	0	0	0
1963	0	0	0
1964	0	0	0
1965	0	0	0
1966	0	0	0
1967	0	0	0
1968	0	0	0
1969	0	0	0
1970	0	0	0
1971	0	0	0
1972	0	0	0
1973	0	0	0
1974	0	0	0
1975	0	0	0
1976	0	0	0
1977	0	0	0
1978	0	0	0
1979	0	0	0
1980	0	0	0
1981	0	0	0
1982	0	0	0
1983	0	0	0
1984	0	0	0
1985	0	0	0
1986	0	0	0
1987	0	0	0
1988	0	0	0
1989	0	0	0
1990	0	0	0
1991	0	0	0
1992	0	0	0
1993	0	0	0
1994	0	0	0
1995	0	0	0
1996	0	0	0
1997	0	0	0
1998	0	0	0
1999	0	0	0
2000	0	0	0
2001	0	0	0
2002	0	0	0
2003	0	0	0
2004	0	0	0
2005	0	0	0
2006	0	0	0
2007	0	0	0
2008	0	0	0
2009	0	0	0
2010	0	0	0
2011	0	0	0
2012	245	215	231
2013	252	226	238
2014	251	225	237
2015	0	0	0
2016	0	0	0
2017	0	0	0
2018	0	0	0
2019	0	0	0
2020	0	0	0
2021	0	0	0
2022	0	0	0
2023	0	0	0
2024	0	0	0
2025	0	0	0
2026	0	0	0
2027	0	0	0
2028	0	0	0
2029	0	0	0
2030	0	0	0
2031	0	0	0
2032	0	0	0
2033	0	0	0
2034	0	0	0
2035	0	0	0
2036	0	0	0
2037	0	0	0
2038	0	0	0
2039	0	0	0
2040	0	0	0
2041	0	0	0
2042	0	0	0
2043	0	0	0
2044	0	0	0
2045	0	0	0
2046	0	0	0
2047	0	0	0
2048	0	0	0
2049	0	0	0
2050	0	0	0
2051	0	0	0
2052	0	0	0
