 	R	G	B
1	0	0	0
2	220	177	220
3	220	174	216
4	234	189	227
5	0	0	0
6	0	0	0
7	0	0	0
8	0	0	0
9	0	0	0
10	0	0	0
11	0	0	0
12	0	0	0
13	0	0	0
14	0	0	0
15	0	0	0
16	0	0	0
17	0	0	0
18	0	0	0
19	0	0	0
20	0	0	0
21	0	0	0
22	216	188	224
23	237	204	242
24	224	177	225
25	239	193	236
26	234	185	228
27	0	0	0
28	0	0	0
29	0	0	0
30	0	0	0
31	0	0	0
32	0	0	0
33	0	0	0
34	0	0	0
35	0	0	0
36	0	0	0
37	0	0	0
38	0	0	0
39	0	0	0
40	0	0	0
41	0	0	0
42	0	0	0
43	0	0	0
44	220	186	227
45	208	161	213
46	220	170	222
47	218	165	215
48	237	188	231
49	0	0	0
50	0	0	0
51	0	0	0
52	0	0	0
53	0	0	0
54	0	0	0
55	0	0	0
56	0	0	0
57	0	0	0
58	0	0	0
59	0	0	0
60	0	0	0
61	0	0	0
62	0	0	0
63	0	0	0
64	0	0	0
65	0	0	0
66	218	184	225
67	231	195	237
68	221	175	223
69	242	199	240
70	230	182	225
71	0	0	0
72	0	0	0
73	0	0	0
74	0	0	0
75	0	0	0
76	0	0	0
77	0	0	0
78	0	0	0
79	0	0	0
80	0	0	0
81	0	0	0
82	0	0	0
83	0	0	0
84	0	0	0
85	0	0	0
86	0	0	0
87	221	198	227
88	223	190	228
89	216	173	219
90	224	176	225
91	215	162	214
92	234	187	230
93	0	0	0
94	0	0	0
95	0	0	0
96	0	0	0
97	0	0	0
98	0	0	0
99	0	0	0
100	0	0	0
101	0	0	0
102	0	0	0
103	0	0	0
104	0	0	0
105	0	0	0
106	0	0	0
107	0	0	0
108	225	211	229
109	229	206	233
110	225	187	228
111	237	192	238
112	219	162	219
113	237	188	236
114	232	185	228
115	0	0	0
116	0	0	0
117	0	0	0
118	0	0	0
119	0	0	0
120	0	0	0
121	0	0	0
122	0	0	0
123	0	0	0
124	0	0	0
125	0	0	0
126	0	0	0
127	0	0	0
128	0	0	0
129	232	226	235
130	227	208	230
131	223	190	226
132	223	177	226
133	207	150	213
134	220	165	225
135	217	164	217
136	236	191	230
137	0	0	0
138	0	0	0
139	0	0	0
140	0	0	0
141	0	0	0
142	0	0	0
143	0	0	0
144	0	0	0
145	0	0	0
146	0	0	0
147	0	0	0
148	0	0	0
149	0	0	0
150	232	227	234
151	222	206	226
152	220	194	226
153	220	182	227
154	215	167	225
155	229	184	239
156	218	166	223
157	245	198	241
158	238	191	227
159	0	0	0
160	0	0	0
161	0	0	0
162	0	0	0
163	0	0	0
164	0	0	0
165	0	0	0
166	0	0	0
167	0	0	0
168	0	0	0
169	0	0	0
170	0	0	0
171	0	0	0
172	221	210	227
173	218	197	227
174	223	191	231
175	217	176	228
176	216	172	229
177	208	156	219
178	225	169	227
179	220	164	214
180	234	188	225
181	0	0	0
182	241	216	236
183	0	0	0
184	0	0	0
185	0	0	0
186	0	0	0
187	0	0	0
188	0	0	0
189	0	0	0
190	0	0	0
191	0	0	0
192	0	0	0
193	0	0	0
194	227	212	234
195	232	206	239
196	221	183	231
197	219	179	233
198	213	166	228
199	225	178	235
200	222	172	224
201	242	199	239
202	233	190	229
203	236	200	231
204	240	215	236
205	0	0	0
206	0	0	0
207	0	0	0
208	0	0	0
209	0	0	0
210	0	0	0
211	0	0	0
212	0	0	0
213	0	0	0
214	0	0	0
215	234	225	239
216	226	205	232
217	217	184	227
218	219	181	232
219	214	170	229
220	224	177	236
221	221	172	228
222	225	175	228
223	218	167	219
224	230	188	229
225	236	203	232
226	0	0	0
227	0	0	0
228	0	0	0
229	0	0	0
230	0	0	0
231	0	0	0
232	0	0	0
233	0	0	0
234	0	0	0
235	0	0	0
236	229	225	234
237	217	203	224
238	221	197	230
239	232	200	240
240	230	188	238
241	241	196	247
242	231	180	235
243	232	182	236
244	223	172	226
245	236	194	237
246	235	198	231
247	0	0	0
248	0	0	0
249	0	0	0
250	0	0	0
251	0	0	0
252	0	0	0
253	0	0	0
254	0	0	0
255	0	0	0
256	0	0	0
257	0	0	0
258	225	218	230
259	226	211	232
260	231	205	234
261	230	193	232
262	234	189	234
263	228	176	228
264	232	180	233
265	224	170	226
266	231	185	231
267	231	190	224
268	241	204	229
269	0	0	0
270	244	223	235
271	0	0	0
272	0	0	0
273	0	0	0
274	0	0	0
275	0	0	0
276	0	0	0
277	0	0	0
278	0	0	0
279	0	0	0
280	231	222	233
281	227	211	230
282	228	201	230
283	237	200	236
284	236	188	234
285	246	195	243
286	229	171	227
287	234	185	233
288	228	180	223
289	238	195	228
290	236	195	225
291	243	209	232
292	245	220	237
293	0	0	0
294	0	0	0
295	0	0	0
296	0	0	0
297	0	0	0
298	0	0	0
299	0	0	0
300	0	0	0
301	0	0	0
302	230	221	233
303	229	211	232
304	230	201	232
305	230	189	230
306	234	181	230
307	221	160	217
308	225	168	225
309	222	167	222
310	231	177	228
311	229	177	224
312	237	192	230
313	239	202	232
314	0	0	0
315	0	0	0
316	0	0	0
317	0	0	0
318	0	0	0
319	0	0	0
320	0	0	0
321	0	0	0
322	0	0	0
323	0	0	0
324	228	219	233
325	223	205	228
326	228	201	232
327	237	197	236
328	231	178	228
329	244	191	242
330	233	173	233
331	239	184	240
332	231	175	230
333	239	190	236
334	237	196	232
335	0	0	0
336	0	0	0
337	0	0	0
338	0	0	0
339	0	0	0
340	0	0	0
341	0	0	0
342	0	0	0
343	0	0	0
344	0	0	0
345	0	0	0
346	225	218	229
347	229	214	234
348	231	200	232
349	227	182	225
350	230	177	228
351	220	161	221
352	224	166	227
353	218	160	222
354	232	179	233
355	0	0	0
356	0	0	0
357	0	0	0
358	0	0	0
359	0	0	0
360	0	0	0
361	0	0	0
362	0	0	0
363	0	0	0
364	0	0	0
365	0	0	0
366	0	0	0
367	0	0	0
368	231	223	236
369	225	205	230
370	223	192	227
371	227	188	231
372	222	176	228
373	227	182	237
374	218	165	228
375	239	189	244
376	233	182	231
377	0	0	0
378	0	0	0
379	0	0	0
380	0	0	0
381	0	0	0
382	0	0	0
383	0	0	0
384	0	0	0
385	0	0	0
386	0	0	0
387	0	0	0
388	0	0	0
389	0	0	0
390	227	217	235
391	224	204	233
392	226	197	235
393	221	185	231
394	217	176	230
395	210	161	225
396	225	173	235
397	221	168	223
398	234	187	230
399	0	0	0
400	0	0	0
401	0	0	0
402	0	0	0
403	0	0	0
404	0	0	0
405	0	0	0
406	0	0	0
407	0	0	0
408	0	0	0
409	0	0	0
410	0	0	0
411	0	0	0
412	0	0	0
413	0	0	0
414	227	200	236
415	227	194	238
416	221	179	235
417	231	189	243
418	225	178	230
419	242	201	242
420	233	191	229
421	0	0	0
422	0	0	0
423	0	0	0
424	0	0	0
425	0	0	0
426	0	0	0
427	0	0	0
428	0	0	0
429	0	0	0
430	0	0	0
431	0	0	0
432	0	0	0
433	0	0	0
434	0	0	0
435	0	0	0
436	225	200	232
437	219	186	229
438	225	187	234
439	221	179	227
440	229	184	231
441	223	176	223
442	0	0	0
443	0	0	0
444	0	0	0
445	0	0	0
446	0	0	0
447	0	0	0
448	0	0	0
449	0	0	0
450	0	0	0
451	0	0	0
452	0	0	0
453	0	0	0
454	0	0	0
455	0	0	0
456	0	0	0
457	0	0	0
458	0	0	0
459	0	0	0
460	235	198	238
461	243	204	244
462	225	178	227
463	0	0	0
464	0	0	0
465	0	0	0
466	0	0	0
467	0	0	0
468	0	0	0
469	0	0	0
470	0	0	0
471	0	0	0
472	0	0	0
473	0	0	0
474	0	0	0
475	0	0	0
476	0	0	0
477	0	0	0
478	0	0	0
479	0	0	0
480	0	0	0
481	0	0	0
482	232	192	231
483	0	0	0
