 	R	G	B
1	0	0	0
2	0	0	0
3	0	0	0
4	0	0	0
5	0	0	0
6	0	0	0
7	0	0	0
8	0	0	0
9	0	0	0
10	0	0	0
11	0	0	0
12	0	0	0
13	0	0	0
14	0	0	0
15	0	0	0
16	0	0	0
17	0	0	0
18	0	0	0
19	0	0	0
20	0	0	0
21	0	0	0
22	0	0	0
23	0	0	0
24	0	0	0
25	0	0	0
26	0	0	0
27	0	0	0
28	0	0	0
29	0	0	0
30	0	0	0
31	0	0	0
32	245	225	230
33	0	0	0
34	0	0	0
35	0	0	0
36	0	0	0
37	0	0	0
38	0	0	0
39	0	0	0
40	0	0	0
41	0	0	0
42	0	0	0
43	0	0	0
44	0	0	0
45	0	0	0
46	0	0	0
47	0	0	0
48	0	0	0
49	0	0	0
50	0	0	0
51	0	0	0
52	0	0	0
53	0	0	0
54	0	0	0
55	0	0	0
56	0	0	0
57	0	0	0
58	0	0	0
59	0	0	0
60	0	0	0
61	0	0	0
62	0	0	0
63	0	0	0
64	0	0	0
65	0	0	0
66	0	0	0
67	0	0	0
68	0	0	0
69	251	224	229
70	251	224	230
71	252	226	233
72	254	227	235
73	254	227	236
74	251	223	233
75	250	220	231
76	249	215	228
77	0	0	0
78	0	0	0
79	0	0	0
80	0	0	0
81	0	0	0
82	0	0	0
83	0	0	0
84	0	0	0
85	0	0	0
86	0	0	0
87	0	0	0
88	0	0	0
89	0	0	0
90	0	0	0
91	0	0	0
92	0	0	0
93	0	0	0
94	0	0	0
95	0	0	0
96	0	0	0
97	0	0	0
98	0	0	0
99	0	0	0
100	0	0	0
101	0	0	0
102	0	0	0
103	0	0	0
104	244	231	230
105	0	0	0
106	0	0	0
107	0	0	0
108	0	0	0
109	0	0	0
110	0	0	0
111	255	215	229
112	251	204	223
113	250	205	224
114	255	211	229
115	255	212	231
116	250	202	225
117	245	197	221
118	249	205	226
119	243	197	221
120	241	200	223
121	0	0	0
122	0	0	0
123	0	0	0
124	0	0	0
125	0	0	0
126	0	0	0
127	0	0	0
128	0	0	0
129	0	0	0
130	0	0	0
131	0	0	0
132	0	0	0
133	0	0	0
134	0	0	0
135	0	0	0
136	0	0	0
137	0	0	0
138	0	0	0
139	0	0	0
140	0	0	0
141	0	0	0
142	0	0	0
143	0	0	0
144	0	0	0
145	0	0	0
146	253	235	236
147	255	240	238
148	255	227	231
149	252	213	226
150	255	211	228
151	254	206	224
152	253	203	223
153	254	201	224
154	254	195	223
155	248	186	220
156	250	190	224
157	255	196	227
158	250	187	220
159	242	176	214
160	245	183	219
161	248	191	224
162	244	191	224
163	242	194	227
164	244	201	230
165	248	210	233
166	246	208	229
167	245	208	227
168	244	211	228
169	0	0	0
170	0	0	0
171	0	0	0
172	0	0	0
173	0	0	0
174	0	0	0
175	0	0	0
176	0	0	0
177	0	0	0
178	0	0	0
179	0	0	0
180	0	0	0
181	0	0	0
182	0	0	0
183	0	0	0
184	0	0	0
185	0	0	0
186	0	0	0
187	0	0	0
188	253	222	230
189	255	228	236
190	254	212	224
191	244	195	214
192	250	198	222
193	253	197	225
194	250	188	219
195	250	186	219
196	252	186	222
197	250	180	221
198	250	178	223
199	252	183	227
200	255	186	229
201	248	176	222
202	245	172	219
203	249	180	225
204	250	186	228
205	245	186	227
206	245	190	230
207	247	198	234
208	247	201	232
209	245	199	227
210	248	205	229
211	248	208	230
212	244	207	231
213	0	0	0
214	0	0	0
215	0	0	0
216	0	0	0
217	0	0	0
218	0	0	0
219	0	0	0
220	0	0	0
221	0	0	0
222	0	0	0
223	0	0	0
224	252	238	237
225	255	239	237
226	255	230	233
227	253	221	229
228	255	219	231
229	254	211	227
230	255	213	228
231	255	216	230
232	255	201	222
233	248	187	215
234	247	185	218
235	251	186	224
236	249	179	223
237	244	170	217
238	243	168	217
239	245	168	220
240	247	167	222
241	244	164	220
242	245	167	222
243	247	170	225
244	244	166	223
245	240	161	220
246	244	169	225
247	244	174	227
248	241	177	226
249	240	180	226
250	240	184	226
251	241	188	227
252	242	193	228
253	244	198	227
254	241	197	225
255	236	196	225
256	0	0	0
257	0	0	0
258	0	0	0
259	0	0	0
260	0	0	0
261	0	0	0
262	0	0	0
263	0	0	0
264	0	0	0
265	0	0	0
266	247	222	230
267	255	227	235
268	255	217	228
269	251	207	223
270	251	202	223
271	254	199	225
272	250	189	221
273	254	192	225
274	253	189	222
275	242	171	212
276	250	180	222
277	253	179	226
278	251	174	226
279	245	165	222
280	246	167	224
281	244	164	223
282	251	172	231
283	252	172	232
284	246	163	226
285	244	164	226
286	246	169	231
287	243	165	228
288	245	170	231
289	249	177	235
290	248	179	234
291	244	181	232
292	241	182	230
293	242	186	230
294	245	195	234
295	244	198	233
296	240	196	229
297	237	195	226
298	238	202	230
299	239	212	234
300	0	0	0
301	0	0	0
302	0	0	0
303	251	232	236
304	243	227	231
305	244	227	232
306	248	225	232
307	248	220	230
308	247	215	228
309	249	212	227
310	250	203	224
311	248	193	220
312	246	186	218
313	246	181	219
314	244	172	218
315	240	162	216
316	241	161	218
317	239	158	217
318	240	161	220
319	247	167	226
320	244	161	224
321	241	155	222
322	242	157	225
323	243	158	226
324	245	163	229
325	250	170	234
326	243	161	228
327	237	153	223
328	237	157	227
329	240	162	231
330	243	168	234
331	245	172	234
332	250	178	237
333	248	180	235
334	244	181	233
335	242	182	232
336	245	190	235
337	247	197	235
338	239	193	229
339	236	193	230
340	240	202	235
341	240	208	236
342	234	207	231
343	233	209	230
344	0	0	0
345	255	225	240
346	248	213	231
347	240	207	225
348	245	212	229
349	252	212	231
350	250	202	227
351	247	197	225
352	250	197	227
353	244	185	221
354	245	183	223
355	246	177	223
356	252	181	229
357	249	172	227
358	249	168	230
359	249	167	232
360	243	159	229
361	242	161	230
362	252	174	238
363	249	166	234
364	245	158	231
365	246	160	233
366	247	163	234
367	249	168	236
368	249	170	236
369	238	159	227
370	242	167	233
371	246	173	238
372	247	176	240
373	251	181	243
374	245	173	236
375	251	180	240
376	247	176	235
377	245	178	234
378	246	185	236
379	247	192	237
380	244	194	233
381	234	189	226
382	239	201	234
383	245	210	240
384	241	210	236
385	236	210	232
386	239	216	236
387	246	223	240
388	0	0	0
389	232	185	219
390	230	186	220
391	235	190	223
392	237	183	220
393	235	174	217
394	238	175	220
395	240	176	223
396	235	169	221
397	235	166	223
398	242	169	228
399	247	171	229
400	245	165	227
401	245	161	228
402	242	157	228
403	235	149	225
404	241	159	232
405	249	171	239
406	243	161	232
407	238	153	229
408	241	157	233
409	242	160	232
410	245	164	233
411	243	166	233
412	240	169	232
413	244	177	236
414	247	180	238
415	249	183	239
416	243	176	235
417	238	168	231
418	239	168	233
419	236	166	230
420	238	173	232
421	239	180	231
422	240	185	230
423	238	188	229
424	240	198	232
425	243	208	235
426	241	209	233
427	239	210	231
428	238	213	232
429	243	220	236
430	0	0	0
431	0	0	0
432	0	0	0
433	0	0	0
434	245	203	238
435	241	193	232
436	236	180	227
437	242	183	233
438	245	184	235
439	240	177	233
440	241	176	236
441	247	178	239
442	249	177	237
443	247	171	234
444	248	168	236
445	246	164	236
446	243	160	235
447	251	172	243
448	251	175	242
449	240	162	233
450	238	160	234
451	241	165	238
452	246	173	240
453	251	177	242
454	240	167	233
455	236	170	232
456	245	184	239
457	249	188	241
458	242	178	234
459	235	170	229
460	237	175	235
461	236	175	235
462	239	182	238
463	241	190	240
464	241	193	236
465	246	200	238
466	244	198	236
467	250	210	241
468	241	203	231
469	234	202	225
470	239	213	232
471	244	219	235
472	0	0	0
473	0	0	0
474	0	0	0
475	0	0	0
476	0	0	0
477	0	0	0
478	226	183	226
479	0	0	0
480	233	178	233
481	236	179	231
482	235	175	230
483	235	173	232
484	238	174	234
485	240	172	234
486	240	169	233
487	241	167	235
488	243	167	238
489	241	163	235
490	243	168	238
491	244	171	237
492	240	168	235
493	238	166	238
494	244	176	245
495	249	183	246
496	245	176	240
497	236	167	234
498	241	180	240
499	248	193	245
500	239	181	235
501	233	172	231
502	235	177	235
503	236	182	238
504	241	191	242
505	243	198	243
506	242	201	241
507	243	205	239
508	242	203	235
509	241	202	234
510	241	202	234
511	235	197	227
512	238	208	233
513	243	219	237
514	0	0	0
515	0	0	0
516	0	0	0
517	0	0	0
518	0	0	0
519	0	0	0
520	0	0	0
521	0	0	0
522	0	0	0
523	242	203	247
524	239	192	238
525	240	190	237
526	238	184	236
527	237	182	237
528	240	184	239
529	239	181	239
530	240	178	240
531	244	179	242
532	241	173	238
533	243	177	240
534	246	182	242
535	246	182	242
536	240	172	240
537	245	182	247
538	244	182	243
539	237	174	236
540	239	177	239
541	247	192	248
542	240	186	239
543	225	171	227
544	234	185	238
545	240	192	244
546	237	190	241
547	242	199	245
548	239	197	239
549	239	201	237
550	239	205	236
551	234	201	231
552	238	208	234
553	240	209	235
554	238	205	233
555	246	219	242
556	0	0	0
557	0	0	0
558	0	0	0
559	0	0	0
560	0	0	0
561	0	0	0
562	0	0	0
563	0	0	0
564	0	0	0
565	0	0	0
566	234	205	240
567	231	195	234
568	234	192	234
569	233	187	233
570	237	191	239
571	239	194	242
572	237	189	240
573	238	186	239
574	242	186	241
575	240	181	239
576	245	188	243
577	249	194	245
578	243	184	239
579	235	174	237
580	235	176	239
581	233	175	236
582	233	178	236
583	235	181	238
584	235	181	237
585	228	176	230
586	230	185	234
587	237	198	243
588	237	198	242
589	236	196	241
590	236	197	241
591	233	195	236
592	236	202	237
593	237	207	237
594	237	210	237
595	241	217	239
596	242	215	238
597	240	212	236
598	239	210	235
599	232	202	229
600	0	0	0
601	0	0	0
602	0	0	0
603	0	0	0
604	0	0	0
605	0	0	0
606	0	0	0
607	0	0	0
608	0	0	0
609	0	0	0
610	234	214	238
611	238	212	240
612	236	203	238
613	244	210	246
614	237	198	240
615	0	0	0
616	239	198	241
617	244	198	243
618	240	188	239
619	247	196	245
620	245	193	241
621	236	182	234
622	236	185	240
623	234	186	240
624	235	191	241
625	235	193	241
626	236	193	241
627	239	194	242
628	234	189	237
629	235	199	240
630	236	206	241
631	235	204	239
632	235	204	241
633	237	206	242
634	237	208	241
635	241	215	243
636	235	209	238
637	238	215	239
638	239	216	237
639	241	214	236
640	239	210	235
641	239	208	235
642	234	204	231
643	0	0	0
644	0	0	0
645	0	0	0
646	0	0	0
647	0	0	0
648	0	0	0
649	0	0	0
650	0	0	0
651	0	0	0
652	0	0	0
653	0	0	0
654	238	225	239
655	236	216	237
656	236	209	237
657	0	0	0
658	0	0	0
659	0	0	0
660	241	202	240
661	237	192	237
662	239	193	240
663	236	189	236
664	233	191	236
665	0	0	0
666	0	0	0
667	237	204	244
668	233	202	240
669	233	202	240
670	237	203	241
671	233	198	237
672	232	205	238
673	233	210	236
674	232	209	233
675	233	210	236
676	236	214	239
677	237	217	239
678	234	212	236
679	230	208	232
680	0	0	0
681	0	0	0
682	0	0	0
683	232	204	231
684	234	205	233
685	0	0	0
686	0	0	0
687	0	0	0
688	0	0	0
689	0	0	0
690	0	0	0
691	0	0	0
692	0	0	0
693	0	0	0
694	0	0	0
695	0	0	0
696	0	0	0
697	0	0	0
698	0	0	0
699	0	0	0
700	0	0	0
701	0	0	0
702	0	0	0
703	0	0	0
704	236	199	237
705	0	0	0
706	0	0	0
707	0	0	0
708	0	0	0
709	0	0	0
710	0	0	0
711	0	0	0
712	0	0	0
713	0	0	0
714	0	0	0
715	0	0	0
716	0	0	0
717	0	0	0
718	0	0	0
719	0	0	0
720	0	0	0
721	0	0	0
722	0	0	0
723	0	0	0
724	0	0	0
725	0	0	0
726	0	0	0
727	0	0	0
728	0	0	0
729	0	0	0
730	0	0	0
731	0	0	0
