 	R	G	B
1	0	0	0
2	0	0	0
3	0	0	0
4	0	0	0
5	0	0	0
6	0	0	0
7	0	0	0
8	0	0	0
9	0	0	0
10	240	217	228
11	0	0	0
12	0	0	0
13	0	0	0
14	0	0	0
15	0	0	0
16	0	0	0
17	0	0	0
18	0	0	0
19	0	0	0
20	0	0	0
21	0	0	0
22	0	0	0
23	0	0	0
24	0	0	0
25	0	0	0
26	0	0	0
27	0	0	0
28	0	0	0
29	0	0	0
30	0	0	0
31	0	0	0
32	0	0	0
33	0	0	0
34	0	0	0
35	0	0	0
36	0	0	0
37	233	210	224
38	238	215	228
39	246	220	232
40	239	210	224
41	0	0	0
42	0	0	0
43	0	0	0
44	0	0	0
45	0	0	0
46	0	0	0
47	0	0	0
48	0	0	0
49	0	0	0
50	0	0	0
51	0	0	0
52	0	0	0
53	0	0	0
54	0	0	0
55	0	0	0
56	0	0	0
57	0	0	0
58	0	0	0
59	0	0	0
60	241	233	236
61	0	0	0
62	0	0	0
63	0	0	0
64	0	0	0
65	233	205	222
66	239	212	227
67	244	217	231
68	244	213	228
69	238	203	220
70	241	209	224
71	0	0	0
72	0	0	0
73	0	0	0
74	0	0	0
75	0	0	0
76	0	0	0
77	0	0	0
78	0	0	0
79	0	0	0
80	0	0	0
81	0	0	0
82	0	0	0
83	0	0	0
84	0	0	0
85	0	0	0
86	0	0	0
87	0	0	0
88	239	230	235
89	243	231	236
90	236	222	229
91	0	0	0
92	0	0	0
93	238	220	230
94	238	212	227
95	250	223	237
96	242	207	227
97	239	201	223
98	242	203	223
99	249	211	228
100	0	0	0
101	0	0	0
102	0	0	0
103	0	0	0
104	0	0	0
105	0	0	0
106	0	0	0
107	0	0	0
108	0	0	0
109	0	0	0
110	0	0	0
111	0	0	0
112	0	0	0
113	0	0	0
114	0	0	0
115	0	0	0
116	0	0	0
117	235	223	229
118	236	220	229
119	230	212	223
120	235	222	229
121	245	235	238
122	243	226	233
123	243	219	232
124	244	209	229
125	238	195	223
126	243	201	228
127	246	204	227
128	247	200	225
129	242	193	222
130	249	202	228
131	246	204	225
132	246	212	227
133	0	0	0
134	0	0	0
135	0	0	0
136	0	0	0
137	0	0	0
138	0	0	0
139	0	0	0
140	0	0	0
141	0	0	0
142	0	0	0
143	0	0	0
144	0	0	0
145	0	0	0
146	239	231	234
147	241	228	234
148	235	216	227
149	246	230	237
150	244	226	233
151	237	213	225
152	240	211	227
153	241	202	226
154	244	200	229
155	252	207	236
156	246	196	227
157	246	192	226
158	243	186	223
159	248	195	229
160	246	195	225
161	250	205	229
162	244	204	225
163	0	0	0
164	0	0	0
165	0	0	0
166	0	0	0
167	0	0	0
168	0	0	0
169	0	0	0
170	0	0	0
171	0	0	0
172	0	0	0
173	0	0	0
174	0	0	0
175	0	0	0
176	238	227	233
177	233	216	226
178	236	215	227
179	235	211	223
180	231	205	220
181	235	203	223
182	241	202	227
183	243	199	228
184	242	192	226
185	238	183	223
186	242	183	226
187	239	177	223
188	243	183	228
189	243	184	226
190	245	190	227
191	240	189	222
192	246	206	229
193	251	223	235
194	246	225	231
195	0	0	0
196	0	0	0
197	0	0	0
198	0	0	0
199	0	0	0
200	0	0	0
201	0	0	0
202	0	0	0
203	0	0	0
204	0	0	0
205	0	0	0
206	233	221	229
207	237	221	230
208	234	212	225
209	232	207	222
210	238	209	228
211	243	207	230
212	243	201	229
213	242	194	228
214	240	185	227
215	245	187	233
216	243	180	229
217	248	187	234
218	243	180	229
219	244	185	230
220	247	191	229
221	255	213	239
222	255	210	231
223	249	211	227
224	246	215	227
225	0	0	0
226	0	0	0
227	0	0	0
228	0	0	0
229	0	0	0
230	0	0	0
231	0	0	0
232	0	0	0
233	0	0	0
234	236	227	232
235	240	231	235
236	237	222	230
237	234	214	227
238	236	213	228
239	240	214	231
240	241	207	229
241	241	202	228
242	237	191	225
243	236	182	224
244	242	183	229
245	240	176	226
246	242	176	228
247	237	170	226
248	243	181	231
249	246	186	227
250	251	191	225
251	247	190	219
252	249	197	221
253	245	202	221
254	0	0	0
255	0	0	0
256	0	0	0
257	0	0	0
258	0	0	0
259	0	0	0
260	0	0	0
261	0	0	0
262	237	226	232
263	240	228	234
264	239	224	231
265	234	214	225
266	237	216	229
267	236	214	229
268	235	208	227
269	234	201	224
270	239	202	227
271	235	192	224
272	236	186	226
273	245	188	233
274	244	180	228
275	245	179	230
276	243	177	231
277	248	187	236
278	246	185	228
279	251	190	227
280	246	183	220
281	251	192	224
282	244	191	220
283	0	0	0
284	0	0	0
285	0	0	0
286	0	0	0
287	0	0	0
288	0	0	0
289	0	0	0
290	0	0	0
291	235	222	230
292	235	220	229
293	234	215	226
294	236	216	227
295	238	218	229
296	234	210	226
297	233	204	226
298	239	205	230
299	242	205	229
300	237	196	225
301	239	191	229
302	243	187	231
303	241	178	226
304	246	181	229
305	244	178	228
306	244	180	229
307	243	180	226
308	244	178	224
309	241	172	221
310	246	180	225
311	240	178	220
312	246	196	226
313	253	212	229
314	252	214	227
315	0	0	0
316	0	0	0
317	0	0	0
318	0	0	0
319	0	0	0
320	235	225	231
321	237	223	231
322	235	217	228
323	236	218	229
324	236	216	228
325	235	209	227
326	237	206	230
327	243	208	234
328	243	202	228
329	238	192	224
330	239	190	228
331	238	183	226
332	242	184	228
333	250	188	233
334	245	179	227
335	247	182	230
336	245	179	228
337	246	177	228
338	247	178	230
339	251	185	236
340	242	176	226
341	251	195	234
342	249	198	227
343	247	199	222
344	245	201	222
345	0	0	0
346	0	0	0
347	0	0	0
348	0	0	0
349	238	229	234
350	237	224	232
351	235	218	229
352	234	216	229
353	236	215	231
354	236	210	230
355	238	206	230
356	240	202	230
357	240	197	227
358	240	194	227
359	241	191	228
360	243	192	230
361	247	193	231
362	250	188	232
363	247	180	230
364	247	179	231
365	246	176	230
366	248	178	233
367	248	178	232
368	243	174	230
369	236	166	225
370	241	176	229
371	241	180	224
372	242	184	221
373	241	186	220
374	248	201	227
375	252	214	232
376	246	214	229
377	0	0	0
378	241	230	235
379	237	224	232
380	232	215	227
381	232	213	228
382	235	213	231
383	235	208	230
384	237	206	230
385	238	201	229
386	238	197	228
387	239	194	228
388	237	187	226
389	243	189	229
390	246	186	230
391	246	181	229
392	244	174	228
393	245	174	231
394	248	176	233
395	251	179	236
396	248	177	234
397	241	171	230
398	240	172	233
399	248	184	240
400	243	179	231
401	245	184	230
402	246	188	229
403	253	202	235
404	249	201	230
405	246	203	228
406	245	209	231
407	241	230	236
408	235	221	230
409	230	212	225
410	231	211	227
411	233	211	230
412	233	207	229
413	234	204	228
414	235	200	227
415	236	196	228
416	235	189	227
417	235	182	227
418	240	182	231
419	242	180	230
420	240	173	228
421	237	166	226
422	241	170	230
423	244	172	231
424	249	175	234
425	247	173	234
426	241	172	233
427	239	173	233
428	238	172	232
429	234	168	228
430	238	175	230
431	238	178	227
432	237	179	224
433	233	179	221
434	234	185	223
435	0	0	0
436	237	228	233
437	235	220	230
438	231	212	226
439	232	211	228
440	235	214	232
441	232	209	230
442	231	204	227
443	233	200	227
444	235	196	228
445	237	191	229
446	244	193	236
447	250	194	240
448	245	183	235
449	238	174	230
450	238	172	231
451	242	177	235
452	243	174	233
453	250	178	237
454	248	175	236
455	242	174	234
456	242	179	237
457	240	177	236
458	237	176	235
459	240	183	237
460	240	187	235
461	237	188	232
462	235	189	231
463	0	0	0
464	0	0	0
465	0	0	0
466	232	217	228
467	230	210	226
468	234	214	231
469	236	216	233
470	231	209	229
471	231	204	228
472	233	201	229
473	236	197	230
474	244	200	235
475	251	202	239
476	250	193	237
477	244	182	233
478	241	180	233
479	240	178	234
480	241	177	235
481	241	174	233
482	246	176	235
483	242	172	232
484	239	175	232
485	240	181	236
486	239	181	235
487	235	179	233
488	233	182	233
489	231	186	232
490	229	187	229
491	0	0	0
492	0	0	0
493	0	0	0
494	0	0	0
495	0	0	0
496	234	218	231
497	238	222	236
498	236	217	233
499	233	211	229
500	236	210	232
501	238	206	233
502	237	198	230
503	246	200	235
504	249	198	235
505	245	188	231
506	241	179	229
507	240	178	232
508	246	185	238
509	247	184	239
510	241	175	234
511	241	174	234
512	237	173	232
513	234	176	232
514	238	186	237
515	239	186	237
516	234	185	234
517	0	0	0
518	0	0	0
519	0	0	0
520	0	0	0
521	0	0	0
522	0	0	0
523	0	0	0
524	0	0	0
525	239	227	236
526	238	223	235
527	237	218	232
528	237	215	231
529	240	215	233
530	236	204	229
531	236	196	228
532	243	196	233
533	245	193	231
534	241	185	228
535	238	177	228
536	246	186	237
537	250	191	241
538	244	182	236
539	238	174	234
540	239	177	237
541	236	177	237
542	237	184	240
543	240	192	243
544	235	190	238
545	0	0	0
546	0	0	0
547	0	0	0
548	0	0	0
549	0	0	0
550	0	0	0
551	0	0	0
552	0	0	0
553	0	0	0
554	236	223	233
555	236	219	232
556	235	214	229
557	236	212	229
558	237	210	230
559	232	199	225
560	239	203	233
561	245	203	237
562	239	188	229
563	234	180	226
564	242	186	235
565	253	196	245
566	242	182	234
567	231	170	226
568	236	179	236
569	240	183	241
570	238	182	241
571	242	191	246
572	236	191	241
573	0	0	0
574	0	0	0
575	0	0	0
576	0	0	0
577	0	0	0
578	0	0	0
579	0	0	0
580	0	0	0
581	0	0	0
582	0	0	0
583	0	0	0
584	231	213	228
585	231	209	228
586	233	208	230
587	234	207	230
588	236	207	232
589	242	210	237
590	241	199	234
591	235	185	229
592	238	189	235
593	244	194	241
594	244	187	237
595	234	172	228
596	236	180	234
597	240	188	242
598	236	186	241
599	233	183	238
600	233	187	238
601	0	0	0
602	0	0	0
603	0	0	0
604	0	0	0
605	0	0	0
606	0	0	0
607	0	0	0
608	0	0	0
609	0	0	0
610	0	0	0
611	0	0	0
612	0	0	0
613	228	210	226
614	234	217	233
615	234	215	234
616	233	209	232
617	237	210	234
618	239	207	234
619	238	195	231
620	237	191	234
621	239	194	239
622	240	194	239
623	238	184	235
624	234	175	231
625	242	186	241
626	241	190	243
627	230	183	236
628	228	188	237
629	0	0	0
630	0	0	0
631	0	0	0
632	0	0	0
633	0	0	0
634	0	0	0
635	0	0	0
636	0	0	0
637	0	0	0
638	0	0	0
639	0	0	0
640	0	0	0
641	229	214	227
642	232	218	231
643	236	223	234
644	233	216	231
645	232	211	231
646	232	206	230
647	235	202	230
648	240	200	234
649	239	195	236
650	237	193	237
651	237	192	237
652	234	185	234
653	230	176	231
654	237	184	238
655	234	186	238
656	228	189	236
657	0	0	0
658	0	0	0
659	0	0	0
660	0	0	0
661	0	0	0
662	0	0	0
663	0	0	0
664	0	0	0
665	0	0	0
666	0	0	0
667	0	0	0
668	0	0	0
669	0	0	0
670	234	222	232
671	238	227	236
672	234	220	231
673	232	213	228
674	233	212	231
675	231	206	229
676	236	207	232
677	242	205	235
678	240	198	236
679	239	197	238
680	236	192	236
681	231	183	232
682	234	189	237
683	235	194	240
684	230	194	237
685	0	0	0
686	0	0	0
687	0	0	0
688	0	0	0
689	0	0	0
690	0	0	0
691	0	0	0
692	0	0	0
693	0	0	0
694	0	0	0
695	0	0	0
696	0	0	0
697	0	0	0
698	0	0	0
699	0	0	0
700	237	225	233
701	235	219	232
702	236	218	233
703	237	216	235
704	236	213	234
705	239	212	234
706	240	206	233
707	237	197	232
708	234	194	233
709	231	190	233
710	236	197	239
711	237	200	240
712	235	203	239
713	230	203	235
714	0	0	0
715	0	0	0
716	0	0	0
717	0	0	0
718	0	0	0
719	0	0	0
720	0	0	0
721	0	0	0
722	0	0	0
723	0	0	0
724	0	0	0
725	0	0	0
726	0	0	0
727	0	0	0
728	237	228	233
729	237	224	232
730	235	216	231
731	236	214	232
732	238	215	233
733	237	211	232
734	240	213	234
735	236	204	231
736	231	196	228
737	227	192	229
738	229	196	234
739	234	203	239
740	232	203	236
741	231	206	235
742	0	0	0
743	0	0	0
744	0	0	0
745	0	0	0
746	0	0	0
747	0	0	0
748	0	0	0
749	0	0	0
750	0	0	0
751	0	0	0
752	0	0	0
753	0	0	0
754	0	0	0
755	0	0	0
756	0	0	0
757	0	0	0
758	232	217	228
759	230	209	226
760	232	211	229
761	233	210	228
762	236	212	230
763	239	214	234
764	233	205	231
765	228	197	230
766	231	203	236
767	232	206	238
768	233	209	238
769	231	209	236
770	0	0	0
771	0	0	0
772	0	0	0
773	0	0	0
774	0	0	0
775	0	0	0
776	0	0	0
777	0	0	0
778	0	0	0
779	0	0	0
780	0	0	0
781	0	0	0
782	0	0	0
783	0	0	0
784	0	0	0
785	0	0	0
786	0	0	0
787	0	0	0
788	0	0	0
789	0	0	0
790	234	216	230
791	237	218	232
792	233	211	230
793	227	202	228
794	230	205	233
795	237	212	240
796	233	209	237
797	230	210	236
798	227	208	232
799	0	0	0
800	0	0	0
801	0	0	0
802	0	0	0
803	0	0	0
804	0	0	0
805	0	0	0
806	0	0	0
807	0	0	0
808	0	0	0
809	0	0	0
810	0	0	0
811	0	0	0
812	0	0	0
813	0	0	0
814	0	0	0
815	0	0	0
816	0	0	0
817	0	0	0
818	236	224	234
819	239	224	236
820	236	218	233
821	232	211	230
822	233	213	234
823	235	215	238
824	237	215	239
825	233	212	236
826	228	210	233
827	0	0	0
828	0	0	0
829	0	0	0
830	0	0	0
831	0	0	0
832	0	0	0
833	0	0	0
834	0	0	0
835	0	0	0
836	0	0	0
837	0	0	0
838	0	0	0
839	0	0	0
840	0	0	0
841	0	0	0
842	0	0	0
843	0	0	0
844	0	0	0
845	0	0	0
846	0	0	0
847	0	0	0
848	234	217	231
849	231	210	228
850	233	212	231
851	235	214	234
852	231	210	232
853	229	208	231
854	232	215	234
855	0	0	0
856	0	0	0
857	0	0	0
858	0	0	0
859	0	0	0
860	0	0	0
861	0	0	0
862	0	0	0
863	0	0	0
864	0	0	0
865	0	0	0
866	0	0	0
867	0	0	0
868	0	0	0
869	0	0	0
870	0	0	0
871	0	0	0
872	0	0	0
873	0	0	0
874	0	0	0
875	0	0	0
876	0	0	0
877	0	0	0
878	235	214	233
879	237	216	234
880	233	212	232
881	0	0	0
882	0	0	0
883	0	0	0
884	0	0	0
885	0	0	0
886	0	0	0
887	0	0	0
888	0	0	0
889	0	0	0
890	0	0	0
891	0	0	0
892	0	0	0
893	0	0	0
894	0	0	0
895	0	0	0
896	0	0	0
897	0	0	0
898	0	0	0
899	0	0	0
