 	R	G	B
1	0	0	0
2	0	0	0
3	0	0	0
4	0	0	0
5	0	0	0
6	0	0	0
7	0	0	0
8	0	0	0
9	0	0	0
10	0	0	0
11	0	0	0
12	0	0	0
13	244	237	237
14	0	0	0
15	0	0	0
16	0	0	0
17	0	0	0
18	0	0	0
19	0	0	0
20	0	0	0
21	0	0	0
22	0	0	0
23	0	0	0
24	0	0	0
25	0	0	0
26	0	0	0
27	0	0	0
28	0	0	0
29	0	0	0
30	0	0	0
31	0	0	0
32	0	0	0
33	0	0	0
34	0	0	0
35	0	0	0
36	0	0	0
37	0	0	0
38	0	0	0
39	0	0	0
40	0	0	0
41	0	0	0
42	0	0	0
43	0	0	0
44	0	0	0
45	0	0	0
46	0	0	0
47	0	0	0
48	0	0	0
49	0	0	0
50	0	0	0
51	0	0	0
52	0	0	0
53	0	0	0
54	0	0	0
55	0	0	0
56	0	0	0
57	0	0	0
58	0	0	0
59	0	0	0
60	0	0	0
61	0	0	0
62	0	0	0
63	0	0	0
64	0	0	0
65	0	0	0
66	0	0	0
67	0	0	0
68	0	0	0
69	0	0	0
70	0	0	0
71	0	0	0
72	0	0	0
73	0	0	0
74	250	231	239
75	0	0	0
76	0	0	0
77	0	0	0
78	0	0	0
79	0	0	0
80	0	0	0
81	243	231	232
82	244	229	232
83	241	224	229
84	0	0	0
85	0	0	0
86	0	0	0
87	0	0	0
88	0	0	0
89	0	0	0
90	0	0	0
91	0	0	0
92	0	0	0
93	0	0	0
94	0	0	0
95	0	0	0
96	0	0	0
97	0	0	0
98	0	0	0
99	0	0	0
100	0	0	0
101	0	0	0
102	0	0	0
103	0	0	0
104	0	0	0
105	0	0	0
106	0	0	0
107	0	0	0
108	0	0	0
109	0	0	0
110	0	0	0
111	0	0	0
112	0	0	0
113	0	0	0
114	0	0	0
115	0	0	0
116	0	0	0
117	0	0	0
118	0	0	0
119	0	0	0
120	0	0	0
121	0	0	0
122	0	0	0
123	0	0	0
124	0	0	0
125	0	0	0
126	0	0	0
127	0	0	0
128	0	0	0
129	0	0	0
130	0	0	0
131	0	0	0
132	0	0	0
133	0	0	0
134	0	0	0
135	0	0	0
136	0	0	0
137	0	0	0
138	0	0	0
139	0	0	0
140	238	204	224
141	240	212	229
142	244	221	234
143	244	218	232
144	239	212	226
145	243	220	231
146	250	230	237
147	248	227	234
148	244	222	230
149	244	224	231
150	247	228	233
151	246	223	230
152	243	217	227
153	244	221	229
154	246	224	231
155	250	227	233
156	0	0	0
157	0	0	0
158	0	0	0
159	0	0	0
160	0	0	0
161	0	0	0
162	243	227	231
163	243	229	232
164	243	232	233
165	0	0	0
166	0	0	0
167	0	0	0
168	0	0	0
169	0	0	0
170	0	0	0
171	0	0	0
172	0	0	0
173	0	0	0
174	0	0	0
175	0	0	0
176	0	0	0
177	0	0	0
178	0	0	0
179	0	0	0
180	0	0	0
181	0	0	0
182	0	0	0
183	0	0	0
184	0	0	0
185	0	0	0
186	0	0	0
187	0	0	0
188	0	0	0
189	0	0	0
190	0	0	0
191	0	0	0
192	0	0	0
193	0	0	0
194	0	0	0
195	0	0	0
196	0	0	0
197	0	0	0
198	0	0	0
199	0	0	0
200	0	0	0
201	0	0	0
202	0	0	0
203	0	0	0
204	0	0	0
205	0	0	0
206	0	0	0
207	0	0	0
208	245	213	232
209	242	207	229
210	248	218	236
211	246	216	234
212	244	212	230
213	244	212	229
214	251	223	236
215	250	220	235
216	249	217	233
217	247	214	230
218	247	216	230
219	249	218	230
220	247	213	227
221	251	218	230
222	252	221	233
223	245	211	226
224	248	213	228
225	248	215	230
226	0	0	0
227	0	0	0
228	0	0	0
229	242	215	224
230	248	223	229
231	245	221	228
232	243	222	229
233	241	223	227
234	240	225	228
235	241	228	232
236	236	222	228
237	242	231	234
238	0	0	0
239	0	0	0
240	0	0	0
241	0	0	0
242	0	0	0
243	0	0	0
244	0	0	0
245	0	0	0
246	0	0	0
247	0	0	0
248	0	0	0
249	0	0	0
250	0	0	0
251	0	0	0
252	0	0	0
253	0	0	0
254	0	0	0
255	0	0	0
256	0	0	0
257	0	0	0
258	0	0	0
259	0	0	0
260	0	0	0
261	0	0	0
262	0	0	0
263	0	0	0
264	0	0	0
265	0	0	0
266	0	0	0
267	0	0	0
268	0	0	0
269	0	0	0
270	0	0	0
271	0	0	0
272	0	0	0
273	0	0	0
274	0	0	0
275	0	0	0
276	0	0	0
277	245	214	235
278	242	208	230
279	244	209	230
280	243	207	229
281	243	208	229
282	243	208	226
283	243	207	226
284	243	204	228
285	244	204	229
286	243	202	228
287	245	205	228
288	246	207	227
289	250	211	228
290	253	215	232
291	245	204	224
292	238	194	219
293	243	200	224
294	243	202	226
295	245	208	228
296	248	215	231
297	245	215	228
298	246	217	227
299	247	216	227
300	244	213	225
301	245	217	227
302	244	218	227
303	244	222	229
304	245	226	232
305	247	231	236
306	253	240	242
307	250	237	240
308	0	0	0
309	0	0	0
310	0	0	0
311	0	0	0
312	0	0	0
313	0	0	0
314	0	0	0
315	0	0	0
316	0	0	0
317	0	0	0
318	0	0	0
319	0	0	0
320	0	0	0
321	0	0	0
322	0	0	0
323	0	0	0
324	0	0	0
325	0	0	0
326	0	0	0
327	0	0	0
328	0	0	0
329	0	0	0
330	0	0	0
331	0	0	0
332	0	0	0
333	0	0	0
334	0	0	0
335	0	0	0
336	0	0	0
337	0	0	0
338	0	0	0
339	0	0	0
340	0	0	0
341	0	0	0
342	0	0	0
343	0	0	0
344	0	0	0
345	0	0	0
346	241	210	232
347	241	207	230
348	246	209	233
349	246	209	233
350	244	208	231
351	243	207	228
352	244	206	229
353	243	202	230
354	243	201	231
355	245	203	232
356	250	208	235
357	245	200	228
358	246	203	229
359	246	204	229
360	238	193	221
361	241	197	225
362	246	202	230
363	246	202	230
364	251	211	235
365	251	211	232
366	248	211	229
367	246	209	226
368	242	207	223
369	242	207	223
370	247	212	227
371	247	213	227
372	248	217	229
373	247	216	228
374	249	222	232
375	250	225	234
376	0	0	0
377	0	0	0
378	0	0	0
379	0	0	0
380	0	0	0
381	0	0	0
382	0	0	0
383	0	0	0
384	0	0	0
385	0	0	0
386	0	0	0
387	0	0	0
388	0	0	0
389	0	0	0
390	0	0	0
391	0	0	0
392	0	0	0
393	0	0	0
394	0	0	0
395	0	0	0
396	0	0	0
397	0	0	0
398	0	0	0
399	0	0	0
400	0	0	0
401	0	0	0
402	0	0	0
403	0	0	0
404	0	0	0
405	0	0	0
406	0	0	0
407	0	0	0
408	0	0	0
409	0	0	0
410	0	0	0
411	0	0	0
412	0	0	0
413	0	0	0
414	0	0	0
415	0	0	0
416	240	206	232
417	247	209	236
418	247	207	234
419	244	205	232
420	243	205	231
421	242	200	229
422	239	196	228
423	241	198	230
424	243	199	231
425	242	195	229
426	238	188	226
427	238	190	227
428	238	191	227
429	239	194	228
430	242	197	229
431	245	199	230
432	245	199	230
433	249	203	232
434	249	204	231
435	246	203	228
436	244	202	225
437	243	201	223
438	244	202	223
439	249	206	227
440	250	207	226
441	251	209	227
442	249	209	225
443	250	211	227
444	250	214	229
445	247	212	228
446	0	0	0
447	0	0	0
448	251	220	229
449	0	0	0
450	0	0	0
451	0	0	0
452	0	0	0
453	0	0	0
454	0	0	0
455	0	0	0
456	0	0	0
457	0	0	0
458	0	0	0
459	0	0	0
460	0	0	0
461	0	0	0
462	0	0	0
463	0	0	0
464	0	0	0
465	0	0	0
466	0	0	0
467	0	0	0
468	0	0	0
469	0	0	0
470	0	0	0
471	0	0	0
472	0	0	0
473	0	0	0
474	0	0	0
475	0	0	0
476	0	0	0
477	0	0	0
478	0	0	0
479	0	0	0
480	0	0	0
481	0	0	0
482	0	0	0
483	0	0	0
484	0	0	0
485	0	0	0
486	249	212	240
487	246	205	234
488	247	205	234
489	248	206	235
490	243	201	233
491	242	199	233
492	244	201	235
493	246	202	235
494	243	197	232
495	243	196	235
496	244	199	237
497	243	199	236
498	246	202	236
499	244	199	232
500	247	201	233
501	247	201	233
502	249	203	234
503	245	198	230
504	245	198	229
505	248	201	230
506	250	203	230
507	249	199	227
508	253	202	228
509	251	199	225
510	253	202	227
511	249	197	223
512	252	201	226
513	251	203	227
514	247	200	224
515	249	206	227
516	252	210	227
517	251	212	226
518	247	210	223
519	0	0	0
520	0	0	0
521	0	0	0
522	0	0	0
523	0	0	0
524	0	0	0
525	0	0	0
526	0	0	0
527	0	0	0
528	0	0	0
529	0	0	0
530	0	0	0
531	0	0	0
532	0	0	0
533	0	0	0
534	0	0	0
535	0	0	0
536	0	0	0
537	0	0	0
538	0	0	0
539	0	0	0
540	0	0	0
541	0	0	0
542	0	0	0
543	0	0	0
544	0	0	0
545	0	0	0
546	0	0	0
547	0	0	0
548	0	0	0
549	0	0	0
550	0	0	0
551	0	0	0
552	0	0	0
553	0	0	0
554	0	0	0
555	0	0	0
556	241	200	231
557	245	203	233
558	246	203	233
559	242	200	232
560	241	198	234
561	243	200	236
562	245	202	236
563	244	201	235
564	244	200	236
565	246	202	239
566	246	202	238
567	245	200	235
568	244	197	232
569	247	199	232
570	248	199	232
571	244	195	229
572	241	190	227
573	245	195	230
574	249	198	232
575	247	194	229
576	246	190	224
577	247	189	223
578	246	186	221
579	246	185	221
580	244	182	220
581	247	187	223
582	246	188	223
583	248	194	224
584	251	200	225
585	252	203	226
586	252	204	225
587	246	202	222
588	243	200	221
589	249	209	226
590	252	216	229
591	247	213	226
592	245	213	226
593	243	213	226
594	242	213	225
595	240	214	225
596	239	214	226
597	246	224	233
598	0	0	0
599	0	0	0
600	0	0	0
601	0	0	0
602	0	0	0
603	0	0	0
604	0	0	0
605	0	0	0
606	0	0	0
607	0	0	0
608	0	0	0
609	0	0	0
610	0	0	0
611	0	0	0
612	0	0	0
613	0	0	0
614	0	0	0
615	0	0	0
616	0	0	0
617	0	0	0
618	0	0	0
619	0	0	0
620	0	0	0
621	0	0	0
622	0	0	0
623	0	0	0
624	0	0	0
625	242	205	234
626	246	207	236
627	242	201	232
628	241	199	232
629	244	203	237
630	244	204	239
631	244	203	237
632	245	204	237
633	244	200	235
634	247	202	238
635	242	196	234
636	239	193	231
637	245	200	235
638	251	203	238
639	245	192	230
640	240	187	227
641	245	193	233
642	251	199	238
643	247	193	233
644	243	187	227
645	250	195	231
646	254	196	231
647	253	191	229
648	253	190	230
649	248	184	227
650	249	188	229
651	251	191	229
652	255	198	232
653	251	192	226
654	253	196	227
655	252	197	226
656	246	194	222
657	244	194	222
658	251	203	227
659	252	207	227
660	249	205	224
661	249	207	227
662	248	207	227
663	246	207	226
664	247	209	228
665	245	210	229
666	246	217	232
667	243	217	228
668	0	0	0
669	0	0	0
670	0	0	0
671	0	0	0
672	0	0	0
673	0	0	0
674	0	0	0
675	0	0	0
676	0	0	0
677	0	0	0
678	0	0	0
679	0	0	0
680	0	0	0
681	0	0	0
682	0	0	0
683	0	0	0
684	0	0	0
685	0	0	0
686	0	0	0
687	0	0	0
688	0	0	0
689	0	0	0
690	0	0	0
691	0	0	0
692	0	0	0
693	0	0	0
694	241	208	235
695	240	203	233
696	237	197	229
697	242	202	234
698	244	206	238
699	243	205	238
700	243	204	237
701	240	199	234
702	239	196	232
703	240	193	232
704	236	186	229
705	238	192	233
706	244	200	238
707	243	191	233
708	238	181	228
709	243	188	234
710	248	194	237
711	245	189	233
712	241	183	230
713	247	192	234
714	255	201	238
715	255	197	236
716	255	192	232
717	252	187	230
718	247	181	228
719	249	185	230
720	250	189	231
721	249	186	227
722	246	181	224
723	249	185	227
724	249	186	226
725	246	187	225
726	244	187	224
727	247	192	226
728	249	195	225
729	250	197	224
730	250	199	225
731	247	198	225
732	246	199	225
733	247	202	227
734	244	202	227
735	241	203	225
736	238	203	222
737	244	213	226
738	0	0	0
739	0	0	0
740	0	0	0
741	0	0	0
742	0	0	0
743	0	0	0
744	0	0	0
745	0	0	0
746	0	0	0
747	0	0	0
748	0	0	0
749	0	0	0
750	0	0	0
751	0	0	0
752	0	0	0
753	0	0	0
754	0	0	0
755	0	0	0
756	0	0	0
757	0	0	0
758	0	0	0
759	0	0	0
760	0	0	0
761	0	0	0
762	0	0	0
763	241	214	238
764	243	211	238
765	241	205	234
766	245	210	239
767	246	210	239
768	246	209	240
769	243	206	238
770	236	199	232
771	0	0	0
772	249	208	242
773	239	192	234
774	239	197	238
775	0	0	0
776	0	0	0
777	0	0	0
778	255	202	246
779	248	193	239
780	241	186	232
781	249	194	239
782	255	205	247
783	255	194	239
784	254	190	235
785	250	182	230
786	245	176	226
787	249	184	232
788	252	190	234
789	253	191	233
790	251	187	230
791	251	186	232
792	255	191	235
793	252	186	231
794	252	188	231
795	249	188	230
796	248	190	230
797	249	193	228
798	253	196	230
799	248	191	226
800	244	190	224
801	246	196	228
802	246	198	229
803	244	198	227
804	243	201	227
805	241	200	225
806	0	0	0
807	0	0	0
808	0	0	0
809	0	0	0
810	0	0	0
811	0	0	0
812	0	0	0
813	0	0	0
814	0	0	0
815	0	0	0
816	0	0	0
817	0	0	0
818	0	0	0
819	0	0	0
820	0	0	0
821	0	0	0
822	0	0	0
823	0	0	0
824	0	0	0
825	0	0	0
826	0	0	0
827	0	0	0
828	0	0	0
829	0	0	0
830	0	0	0
831	0	0	0
832	0	0	0
833	244	216	240
834	241	210	235
835	241	210	235
836	242	210	238
837	241	208	237
838	238	204	234
839	0	0	0
840	0	0	0
841	0	0	0
842	236	193	233
843	0	0	0
844	0	0	0
845	0	0	0
846	0	0	0
847	0	0	0
848	240	184	231
849	245	193	237
850	0	0	0
851	0	0	0
852	0	0	0
853	0	0	0
854	241	169	226
855	246	178	231
856	250	185	233
857	252	188	233
858	252	189	232
859	250	186	230
860	252	186	232
861	253	185	232
862	250	181	229
863	251	183	230
864	248	183	229
865	246	184	228
866	247	187	229
867	249	187	229
868	246	183	227
869	247	189	230
870	248	194	231
871	245	193	228
872	243	193	226
873	242	194	225
874	241	194	223
875	0	0	0
876	0	0	0
877	0	0	0
878	0	0	0
879	0	0	0
880	0	0	0
881	0	0	0
882	0	0	0
883	0	0	0
884	0	0	0
885	0	0	0
886	0	0	0
887	0	0	0
888	0	0	0
889	0	0	0
890	0	0	0
891	0	0	0
892	0	0	0
893	0	0	0
894	0	0	0
895	0	0	0
896	0	0	0
897	0	0	0
898	0	0	0
899	0	0	0
900	0	0	0
901	0	0	0
902	0	0	0
903	236	208	232
904	0	0	0
905	0	0	0
906	234	209	234
907	0	0	0
908	0	0	0
909	0	0	0
910	0	0	0
911	0	0	0
912	0	0	0
913	0	0	0
914	0	0	0
915	0	0	0
916	0	0	0
917	0	0	0
918	0	0	0
919	0	0	0
920	0	0	0
921	0	0	0
922	0	0	0
923	0	0	0
924	254	193	243
925	250	186	236
926	253	189	236
927	247	181	228
928	243	177	225
929	252	188	234
930	255	188	236
931	251	181	231
932	251	182	233
933	251	184	233
934	249	186	233
935	254	192	237
936	255	191	237
937	250	183	232
938	252	189	235
939	250	189	233
940	246	188	229
941	248	195	231
942	248	196	230
943	245	194	226
944	246	199	228
945	0	0	0
946	0	0	0
947	0	0	0
948	0	0	0
949	0	0	0
950	246	212	229
951	0	0	0
952	0	0	0
953	0	0	0
954	0	0	0
955	0	0	0
956	0	0	0
957	0	0	0
958	0	0	0
959	0	0	0
960	0	0	0
961	0	0	0
962	0	0	0
963	0	0	0
964	0	0	0
965	0	0	0
966	0	0	0
967	0	0	0
968	0	0	0
969	0	0	0
970	0	0	0
971	0	0	0
972	0	0	0
973	0	0	0
974	0	0	0
975	0	0	0
976	0	0	0
977	0	0	0
978	0	0	0
979	0	0	0
980	0	0	0
981	0	0	0
982	0	0	0
983	0	0	0
984	0	0	0
985	0	0	0
986	0	0	0
987	0	0	0
988	0	0	0
989	0	0	0
990	0	0	0
991	0	0	0
992	0	0	0
993	0	0	0
994	0	0	0
995	0	0	0
996	235	168	223
997	242	178	229
998	251	188	236
999	250	182	233
1000	246	175	230
1001	247	179	234
1002	247	180	235
1003	248	184	236
1004	252	190	238
1005	248	182	231
1006	243	173	225
1007	245	178	228
1008	244	180	227
1009	247	187	231
1010	250	193	233
1011	248	193	231
1012	245	190	227
1013	243	191	226
1014	240	189	225
1015	245	198	229
1016	250	207	230
1017	246	201	224
1018	241	195	220
1019	245	203	226
1020	246	207	227
1021	249	215	230
1022	250	222	232
1023	247	223	230
1024	246	228	233
1025	246	231	235
1026	248	238	239
1027	248	237	238
1028	0	0	0
1029	0	0	0
1030	0	0	0
1031	0	0	0
1032	0	0	0
1033	0	0	0
1034	0	0	0
1035	0	0	0
1036	0	0	0
1037	0	0	0
1038	0	0	0
1039	0	0	0
1040	0	0	0
1041	0	0	0
1042	0	0	0
1043	0	0	0
1044	0	0	0
1045	0	0	0
1046	0	0	0
1047	0	0	0
1048	0	0	0
1049	0	0	0
1050	0	0	0
1051	0	0	0
1052	0	0	0
1053	0	0	0
1054	0	0	0
1055	0	0	0
1056	0	0	0
1057	0	0	0
1058	0	0	0
1059	0	0	0
1060	0	0	0
1061	0	0	0
1062	0	0	0
1063	0	0	0
1064	0	0	0
1065	0	0	0
1066	254	197	246
1067	249	188	237
1068	244	180	232
1069	247	183	237
1070	249	187	241
1071	249	188	241
1072	252	193	243
1073	247	187	237
1074	241	179	229
1075	248	186	233
1076	255	193	238
1077	249	185	232
1078	253	193	236
1079	252	195	235
1080	250	194	233
1081	244	186	228
1082	246	188	229
1083	248	193	231
1084	251	201	235
1085	247	199	229
1086	242	192	223
1087	242	193	224
1088	247	202	230
1089	243	199	225
1090	246	207	228
1091	249	213	228
1092	251	217	230
1093	251	219	232
1094	251	223	234
1095	249	224	233
1096	246	222	230
1097	244	225	232
1098	0	0	0
1099	0	0	0
1100	0	0	0
1101	0	0	0
1102	0	0	0
1103	0	0	0
1104	0	0	0
1105	0	0	0
1106	0	0	0
1107	0	0	0
1108	0	0	0
1109	0	0	0
1110	0	0	0
1111	0	0	0
1112	0	0	0
1113	0	0	0
1114	0	0	0
1115	0	0	0
1116	0	0	0
1117	0	0	0
1118	0	0	0
1119	0	0	0
1120	0	0	0
1121	0	0	0
1122	0	0	0
1123	0	0	0
1124	0	0	0
1125	0	0	0
1126	0	0	0
1127	0	0	0
1128	0	0	0
1129	0	0	0
1130	0	0	0
1131	0	0	0
1132	0	0	0
1133	234	189	237
1134	236	188	239
1135	237	184	237
1136	233	175	228
1137	236	180	231
1138	239	183	235
1139	242	186	238
1140	243	188	237
1141	244	187	236
1142	242	183	233
1143	248	191	239
1144	254	199	243
1145	252	194	238
1146	247	186	229
1147	248	189	230
1148	249	191	230
1149	245	185	228
1150	242	180	227
1151	249	188	233
1152	249	191	230
1153	244	189	226
1154	242	188	226
1155	244	190	229
1156	244	192	231
1157	245	193	231
1158	240	190	224
1159	243	197	225
1160	246	203	225
1161	247	204	225
1162	247	206	227
1163	245	207	227
1164	243	208	227
1165	244	213	228
1166	242	216	228
1167	239	220	228
1168	0	0	0
1169	0	0	0
1170	0	0	0
1171	0	0	0
1172	0	0	0
1173	0	0	0
1174	0	0	0
1175	0	0	0
1176	0	0	0
1177	0	0	0
1178	0	0	0
1179	0	0	0
1180	0	0	0
1181	0	0	0
1182	0	0	0
1183	0	0	0
1184	0	0	0
1185	0	0	0
1186	0	0	0
1187	0	0	0
1188	0	0	0
1189	0	0	0
1190	0	0	0
1191	0	0	0
1192	0	0	0
1193	0	0	0
1194	0	0	0
1195	0	0	0
1196	0	0	0
1197	0	0	0
1198	0	0	0
1199	0	0	0
1200	0	0	0
1201	240	213	247
1202	239	212	246
1203	234	203	243
1204	233	198	240
1205	236	198	239
1206	242	204	243
1207	238	196	239
1208	242	199	243
1209	244	198	242
1210	250	200	244
1211	245	189	238
1212	252	198	244
1213	247	191	239
1214	241	184	232
1215	244	187	232
1216	247	192	233
1217	247	189	231
1218	246	185	230
1219	243	180	231
1220	250	188	237
1221	248	189	231
1222	243	186	227
1223	245	189	231
1224	250	193	236
1225	249	193	236
1226	249	194	235
1227	247	193	231
1228	251	200	233
1229	248	200	228
1230	243	199	224
1231	244	202	227
1232	242	204	227
1233	244	209	229
1234	245	214	231
1235	242	213	228
1236	243	219	230
1237	240	220	229
1238	0	0	0
1239	0	0	0
1240	0	0	0
1241	0	0	0
1242	0	0	0
1243	0	0	0
1244	0	0	0
1245	0	0	0
1246	0	0	0
1247	0	0	0
1248	0	0	0
1249	0	0	0
1250	0	0	0
1251	0	0	0
1252	0	0	0
1253	0	0	0
1254	0	0	0
1255	0	0	0
1256	0	0	0
1257	0	0	0
1258	0	0	0
1259	0	0	0
1260	0	0	0
1261	0	0	0
1262	0	0	0
1263	0	0	0
1264	0	0	0
1265	0	0	0
1266	0	0	0
1267	0	0	0
1268	0	0	0
1269	0	0	0
1270	0	0	0
1271	241	227	246
1272	237	219	244
1273	239	219	245
1274	241	219	245
1275	236	210	240
1276	233	202	237
1277	235	202	239
1278	239	202	242
1279	240	196	240
1280	236	185	233
1281	236	183	233
1282	232	177	230
1283	236	182	234
1284	240	187	236
1285	240	185	234
1286	240	183	232
1287	240	179	231
1288	238	174	230
1289	243	181	234
1290	242	182	230
1291	242	183	229
1292	244	187	232
1293	246	188	232
1294	246	187	231
1295	247	189	231
1296	247	190	232
1297	248	192	231
1298	244	192	225
1299	242	195	224
1300	242	199	227
1301	244	204	230
1302	245	209	232
1303	244	209	230
1304	240	208	227
1305	240	211	228
1306	237	213	228
1307	0	0	0
1308	0	0	0
1309	0	0	0
1310	0	0	0
1311	0	0	0
1312	0	0	0
1313	0	0	0
1314	0	0	0
1315	0	0	0
1316	0	0	0
1317	0	0	0
1318	0	0	0
1319	0	0	0
1320	0	0	0
1321	0	0	0
1322	0	0	0
1323	0	0	0
1324	0	0	0
1325	0	0	0
1326	0	0	0
1327	0	0	0
1328	0	0	0
1329	0	0	0
1330	0	0	0
1331	0	0	0
1332	0	0	0
1333	0	0	0
1334	0	0	0
1335	0	0	0
1336	0	0	0
1337	0	0	0
1338	0	0	0
1339	0	0	0
1340	0	0	0
1341	0	0	0
1342	0	0	0
1343	0	0	0
1344	0	0	0
1345	0	0	0
1346	0	0	0
1347	240	216	245
1348	238	208	242
1349	236	201	239
1350	241	201	242
1351	238	194	240
1352	243	201	246
1353	244	200	246
1354	246	199	245
1355	243	192	239
1356	242	188	237
1357	242	186	238
1358	246	192	242
1359	244	188	236
1360	247	192	238
1361	245	188	235
1362	245	187	234
1363	248	190	234
1364	251	193	235
1365	247	190	233
1366	247	192	233
1367	247	195	230
1368	250	201	232
1369	247	198	230
1370	247	203	232
1371	247	206	232
1372	245	206	230
1373	239	204	227
1374	235	204	226
1375	241	217	233
1376	248	229	239
1377	0	0	0
1378	0	0	0
1379	0	0	0
1380	0	0	0
1381	0	0	0
1382	0	0	0
1383	0	0	0
1384	0	0	0
1385	0	0	0
1386	0	0	0
1387	0	0	0
1388	0	0	0
1389	0	0	0
1390	0	0	0
1391	0	0	0
1392	0	0	0
1393	0	0	0
1394	0	0	0
1395	0	0	0
1396	0	0	0
1397	0	0	0
1398	0	0	0
1399	0	0	0
1400	0	0	0
1401	0	0	0
1402	0	0	0
1403	0	0	0
1404	0	0	0
1405	0	0	0
1406	0	0	0
1407	0	0	0
1408	0	0	0
1409	0	0	0
1410	0	0	0
1411	0	0	0
1412	0	0	0
1413	0	0	0
1414	0	0	0
1415	0	0	0
1416	0	0	0
1417	239	221	242
1418	237	214	240
1419	238	210	241
1420	235	203	240
1421	237	204	242
1422	239	203	243
1423	238	198	239
1424	234	191	234
1425	235	190	234
1426	235	189	235
1427	236	188	235
1428	234	185	230
1429	236	184	230
1430	235	181	230
1431	242	187	235
1432	245	190	234
1433	245	188	232
1434	242	185	229
1435	245	190	232
1436	248	195	233
1437	250	197	233
1438	247	194	229
1439	244	196	229
1440	244	199	228
1441	243	201	228
1442	238	199	227
1443	239	209	231
1444	245	221	235
1445	246	222	234
1446	241	219	231
1447	0	0	0
1448	0	0	0
1449	0	0	0
1450	0	0	0
1451	0	0	0
1452	0	0	0
1453	0	0	0
1454	0	0	0
1455	0	0	0
1456	0	0	0
1457	0	0	0
1458	0	0	0
1459	0	0	0
1460	0	0	0
1461	0	0	0
1462	0	0	0
1463	0	0	0
1464	0	0	0
1465	0	0	0
1466	0	0	0
1467	0	0	0
1468	0	0	0
1469	0	0	0
1470	0	0	0
1471	0	0	0
1472	0	0	0
1473	0	0	0
1474	0	0	0
1475	0	0	0
1476	0	0	0
1477	0	0	0
1478	0	0	0
1479	0	0	0
1480	0	0	0
1481	0	0	0
1482	0	0	0
1483	0	0	0
1484	0	0	0
1485	0	0	0
1486	0	0	0
1487	0	0	0
1488	0	0	0
1489	0	0	0
1490	0	0	0
1491	0	0	0
1492	0	0	0
1493	0	0	0
1494	0	0	0
1495	237	205	239
1496	239	206	240
1497	231	193	232
1498	233	192	233
1499	235	191	236
1500	245	199	243
1501	244	193	237
1502	244	192	234
1503	245	191	233
1504	250	198	237
1505	250	197	236
1506	254	199	237
1507	246	191	230
1508	241	192	227
1509	243	199	229
1510	246	202	230
1511	241	200	229
1512	243	211	233
1513	245	217	233
1514	245	217	232
1515	241	215	229
1516	0	0	0
1517	0	0	0
1518	0	0	0
1519	0	0	0
1520	0	0	0
1521	0	0	0
1522	0	0	0
1523	0	0	0
1524	0	0	0
1525	0	0	0
1526	0	0	0
1527	0	0	0
1528	0	0	0
1529	0	0	0
1530	0	0	0
1531	0	0	0
1532	0	0	0
1533	0	0	0
1534	0	0	0
1535	0	0	0
1536	0	0	0
1537	0	0	0
1538	0	0	0
1539	0	0	0
1540	0	0	0
1541	0	0	0
1542	0	0	0
1543	0	0	0
1544	0	0	0
1545	0	0	0
1546	0	0	0
1547	0	0	0
1548	0	0	0
1549	0	0	0
1550	0	0	0
1551	0	0	0
1552	0	0	0
1553	0	0	0
1554	0	0	0
1555	0	0	0
1556	0	0	0
1557	0	0	0
1558	0	0	0
1559	0	0	0
1560	0	0	0
1561	0	0	0
1562	0	0	0
1563	0	0	0
1564	0	0	0
1565	232	207	234
1566	226	196	231
1567	227	196	234
1568	229	194	234
1569	234	194	235
1570	235	189	232
1571	242	194	236
1572	243	193	233
1573	243	193	232
1574	244	192	232
1575	246	191	232
1576	240	184	226
1577	242	192	229
1578	244	200	230
1579	246	202	230
1580	243	200	228
1581	245	208	232
1582	248	216	235
1583	248	216	234
1584	242	213	229
1585	0	0	0
1586	0	0	0
1587	0	0	0
1588	0	0	0
1589	0	0	0
1590	0	0	0
1591	0	0	0
1592	0	0	0
1593	0	0	0
1594	0	0	0
1595	0	0	0
1596	0	0	0
1597	0	0	0
1598	0	0	0
1599	0	0	0
1600	0	0	0
1601	0	0	0
1602	0	0	0
1603	0	0	0
1604	0	0	0
1605	0	0	0
1606	0	0	0
1607	0	0	0
1608	0	0	0
1609	0	0	0
1610	0	0	0
1611	0	0	0
1612	0	0	0
1613	0	0	0
1614	0	0	0
1615	0	0	0
1616	0	0	0
1617	0	0	0
1618	0	0	0
1619	0	0	0
1620	0	0	0
1621	0	0	0
1622	0	0	0
1623	0	0	0
1624	0	0	0
1625	0	0	0
1626	0	0	0
1627	0	0	0
1628	0	0	0
1629	0	0	0
1630	0	0	0
1631	0	0	0
1632	0	0	0
1633	0	0	0
1634	0	0	0
1635	0	0	0
1636	0	0	0
1637	236	216	242
1638	241	215	244
1639	236	199	237
1640	246	206	244
1641	243	200	237
1642	241	198	234
1643	240	194	233
1644	243	194	233
1645	244	193	232
1646	252	205	239
1647	246	197	230
1648	244	197	228
1649	245	198	229
1650	252	209	236
1651	246	204	231
1652	242	203	228
1653	241	210	229
1654	0	0	0
1655	0	0	0
1656	0	0	0
1657	0	0	0
1658	0	0	0
1659	0	0	0
1660	0	0	0
1661	0	0	0
1662	0	0	0
1663	0	0	0
1664	0	0	0
1665	0	0	0
1666	0	0	0
1667	0	0	0
1668	0	0	0
1669	0	0	0
1670	0	0	0
1671	0	0	0
1672	0	0	0
1673	0	0	0
1674	0	0	0
1675	0	0	0
1676	0	0	0
1677	0	0	0
1678	0	0	0
1679	0	0	0
1680	0	0	0
1681	0	0	0
1682	0	0	0
1683	0	0	0
1684	0	0	0
1685	0	0	0
1686	0	0	0
1687	0	0	0
1688	0	0	0
1689	0	0	0
1690	0	0	0
1691	0	0	0
1692	0	0	0
1693	0	0	0
1694	0	0	0
1695	0	0	0
1696	0	0	0
1697	0	0	0
1698	0	0	0
1699	0	0	0
1700	0	0	0
1701	0	0	0
1702	0	0	0
1703	0	0	0
1704	0	0	0
1705	0	0	0
1706	0	0	0
1707	237	219	239
1708	231	204	236
1709	237	204	239
1710	0	0	0
1711	231	194	229
1712	231	191	229
1713	242	198	235
1714	245	198	234
1715	244	195	232
1716	239	189	226
1717	241	191	227
1718	241	193	227
1719	242	192	227
1720	237	188	223
1721	241	199	229
1722	241	207	229
1723	241	212	229
1724	241	218	230
1725	0	0	0
1726	0	0	0
1727	0	0	0
1728	0	0	0
1729	0	0	0
1730	0	0	0
1731	0	0	0
1732	0	0	0
1733	0	0	0
1734	0	0	0
1735	0	0	0
1736	0	0	0
1737	0	0	0
1738	0	0	0
1739	0	0	0
1740	0	0	0
1741	0	0	0
1742	0	0	0
1743	0	0	0
1744	0	0	0
1745	0	0	0
1746	0	0	0
1747	0	0	0
1748	0	0	0
1749	0	0	0
1750	0	0	0
1751	0	0	0
1752	0	0	0
1753	0	0	0
1754	0	0	0
1755	0	0	0
1756	0	0	0
1757	0	0	0
1758	0	0	0
1759	0	0	0
1760	0	0	0
1761	0	0	0
1762	0	0	0
1763	0	0	0
1764	0	0	0
1765	0	0	0
1766	0	0	0
1767	0	0	0
1768	0	0	0
1769	0	0	0
1770	0	0	0
1771	0	0	0
1772	0	0	0
1773	0	0	0
1774	0	0	0
1775	0	0	0
1776	0	0	0
1777	0	0	0
1778	0	0	0
1779	0	0	0
1780	0	0	0
1781	237	206	237
1782	251	214	245
1783	244	199	234
1784	241	195	231
1785	240	193	230
1786	245	198	234
1787	244	198	233
1788	243	196	232
1789	241	196	231
1790	247	209	237
1791	243	206	232
1792	248	214	235
1793	245	214	232
1794	243	216	230
1795	0	0	0
1796	0	0	0
1797	0	0	0
1798	0	0	0
1799	0	0	0
1800	0	0	0
1801	0	0	0
1802	0	0	0
1803	0	0	0
1804	0	0	0
1805	0	0	0
1806	0	0	0
1807	0	0	0
1808	0	0	0
1809	0	0	0
1810	0	0	0
1811	0	0	0
1812	0	0	0
1813	0	0	0
1814	0	0	0
1815	0	0	0
1816	0	0	0
1817	0	0	0
1818	0	0	0
1819	0	0	0
1820	0	0	0
1821	0	0	0
1822	0	0	0
1823	0	0	0
1824	0	0	0
1825	0	0	0
1826	0	0	0
1827	0	0	0
1828	0	0	0
1829	0	0	0
1830	0	0	0
1831	0	0	0
1832	0	0	0
1833	0	0	0
1834	0	0	0
1835	0	0	0
1836	0	0	0
1837	0	0	0
1838	0	0	0
1839	0	0	0
1840	0	0	0
1841	0	0	0
1842	0	0	0
1843	0	0	0
1844	0	0	0
1845	0	0	0
1846	0	0	0
1847	0	0	0
1848	0	0	0
1849	0	0	0
1850	0	0	0
1851	238	204	235
1852	231	190	225
1853	234	192	228
1854	234	191	228
1855	238	195	232
1856	238	195	232
1857	240	198	233
1858	240	198	232
1859	242	201	233
1860	241	200	232
1861	243	203	232
1862	240	203	228
1863	0	0	0
1864	0	0	0
1865	0	0	0
1866	0	0	0
1867	0	0	0
1868	0	0	0
1869	0	0	0
1870	0	0	0
1871	0	0	0
1872	0	0	0
1873	0	0	0
1874	0	0	0
1875	0	0	0
1876	0	0	0
1877	0	0	0
1878	0	0	0
1879	0	0	0
1880	0	0	0
1881	0	0	0
1882	0	0	0
1883	0	0	0
1884	0	0	0
1885	0	0	0
1886	0	0	0
1887	0	0	0
1888	0	0	0
1889	0	0	0
1890	0	0	0
1891	0	0	0
1892	0	0	0
1893	0	0	0
1894	0	0	0
1895	0	0	0
1896	0	0	0
1897	0	0	0
1898	0	0	0
1899	0	0	0
1900	0	0	0
1901	0	0	0
1902	0	0	0
1903	0	0	0
1904	0	0	0
1905	0	0	0
1906	0	0	0
1907	0	0	0
1908	0	0	0
1909	0	0	0
1910	0	0	0
1911	0	0	0
1912	0	0	0
1913	0	0	0
1914	0	0	0
1915	0	0	0
1916	0	0	0
1917	0	0	0
1918	0	0	0
1919	0	0	0
1920	0	0	0
1921	235	210	234
1922	243	215	240
1923	237	204	234
1924	239	207	237
1925	239	205	236
1926	244	210	239
1927	241	203	235
1928	248	208	240
1929	241	197	234
1930	238	199	233
1931	0	0	0
1932	0	0	0
1933	0	0	0
1934	0	0	0
1935	0	0	0
1936	0	0	0
1937	0	0	0
1938	0	0	0
1939	0	0	0
1940	0	0	0
1941	0	0	0
1942	0	0	0
1943	0	0	0
1944	0	0	0
1945	0	0	0
1946	0	0	0
1947	0	0	0
1948	0	0	0
1949	0	0	0
1950	0	0	0
1951	0	0	0
1952	0	0	0
1953	0	0	0
1954	0	0	0
1955	0	0	0
1956	0	0	0
1957	0	0	0
1958	0	0	0
1959	0	0	0
1960	0	0	0
1961	0	0	0
1962	0	0	0
1963	0	0	0
1964	0	0	0
1965	0	0	0
1966	0	0	0
1967	0	0	0
1968	0	0	0
1969	0	0	0
1970	0	0	0
1971	0	0	0
1972	0	0	0
1973	0	0	0
1974	0	0	0
1975	0	0	0
1976	0	0	0
1977	0	0	0
1978	0	0	0
1979	0	0	0
1980	0	0	0
1981	0	0	0
1982	0	0	0
1983	0	0	0
1984	0	0	0
1985	0	0	0
1986	0	0	0
1987	0	0	0
1988	0	0	0
1989	0	0	0
1990	0	0	0
1991	244	224	239
1992	239	214	235
1993	241	215	239
1994	240	213	237
1995	238	208	235
1996	238	203	235
1997	240	199	235
1998	233	189	230
1999	0	0	0
2000	0	0	0
2001	0	0	0
2002	0	0	0
2003	0	0	0
2004	0	0	0
2005	0	0	0
2006	0	0	0
2007	0	0	0
2008	0	0	0
2009	0	0	0
2010	0	0	0
2011	0	0	0
2012	0	0	0
2013	0	0	0
2014	0	0	0
2015	0	0	0
2016	0	0	0
2017	0	0	0
2018	0	0	0
2019	0	0	0
2020	0	0	0
2021	0	0	0
2022	0	0	0
2023	0	0	0
2024	0	0	0
2025	0	0	0
2026	0	0	0
2027	0	0	0
2028	0	0	0
2029	0	0	0
2030	0	0	0
2031	0	0	0
2032	0	0	0
2033	0	0	0
2034	0	0	0
2035	0	0	0
2036	0	0	0
2037	0	0	0
2038	0	0	0
2039	0	0	0
2040	0	0	0
2041	0	0	0
2042	0	0	0
2043	0	0	0
2044	0	0	0
2045	0	0	0
2046	0	0	0
2047	0	0	0
2048	0	0	0
2049	0	0	0
2050	0	0	0
2051	0	0	0
2052	0	0	0
2053	0	0	0
2054	0	0	0
2055	0	0	0
2056	0	0	0
2057	0	0	0
2058	0	0	0
2059	0	0	0
2060	0	0	0
2061	240	219	235
2062	245	222	240
2063	235	208	231
2064	0	0	0
2065	239	210	237
2066	0	0	0
2067	0	0	0
2068	0	0	0
2069	0	0	0
2070	0	0	0
2071	0	0	0
2072	0	0	0
2073	0	0	0
2074	0	0	0
2075	0	0	0
2076	0	0	0
2077	0	0	0
2078	0	0	0
2079	0	0	0
2080	0	0	0
2081	0	0	0
2082	0	0	0
2083	0	0	0
2084	0	0	0
2085	0	0	0
2086	0	0	0
2087	0	0	0
2088	0	0	0
2089	0	0	0
2090	0	0	0
2091	0	0	0
2092	0	0	0
2093	0	0	0
2094	0	0	0
2095	0	0	0
2096	0	0	0
2097	0	0	0
2098	0	0	0
2099	0	0	0
2100	0	0	0
2101	0	0	0
2102	0	0	0
2103	0	0	0
2104	0	0	0
2105	0	0	0
2106	0	0	0
2107	0	0	0
2108	0	0	0
2109	0	0	0
2110	0	0	0
2111	0	0	0
2112	0	0	0
2113	0	0	0
2114	0	0	0
2115	0	0	0
2116	0	0	0
2117	0	0	0
2118	0	0	0
2119	0	0	0
2120	0	0	0
2121	0	0	0
2122	0	0	0
2123	0	0	0
2124	0	0	0
2125	0	0	0
2126	0	0	0
2127	0	0	0
2128	0	0	0
2129	0	0	0
2130	0	0	0
2131	238	216	234
2132	0	0	0
2133	0	0	0
2134	0	0	0
2135	0	0	0
2136	0	0	0
2137	0	0	0
2138	0	0	0
2139	0	0	0
