 	R	G	B
1	0	0	0
2	0	0	0
3	0	0	0
4	255	242	242
5	0	0	0
6	0	0	0
7	0	0	0
8	0	0	0
9	0	0	0
10	0	0	0
11	0	0	0
12	0	0	0
13	0	0	0
14	0	0	0
15	0	0	0
16	0	0	0
17	0	0	0
18	0	0	0
19	0	0	0
20	0	0	0
21	0	0	0
22	252	235	237
23	255	234	238
24	245	220	227
25	0	0	0
26	0	0	0
27	0	0	0
28	0	0	0
29	0	0	0
30	0	0	0
31	0	0	0
32	0	0	0
33	0	0	0
34	0	0	0
35	0	0	0
36	0	0	0
37	0	0	0
38	0	0	0
39	0	0	0
40	0	0	0
41	251	226	233
42	254	223	233
43	243	208	221
44	0	0	0
45	0	0	0
46	0	0	0
47	0	0	0
48	0	0	0
49	0	0	0
50	0	0	0
51	0	0	0
52	0	0	0
53	0	0	0
54	0	0	0
55	0	0	0
56	0	0	0
57	0	0	0
58	0	0	0
59	255	232	238
60	251	216	229
61	251	212	227
62	244	201	219
63	0	0	0
64	255	230	238
65	0	0	0
66	0	0	0
67	0	0	0
68	0	0	0
69	0	0	0
70	0	0	0
71	0	0	0
72	0	0	0
73	0	0	0
74	0	0	0
75	0	0	0
76	0	0	0
77	0	0	0
78	250	217	232
79	245	202	221
80	249	203	223
81	244	194	217
82	254	209	227
83	255	218	231
84	251	214	227
85	0	0	0
86	0	0	0
87	0	0	0
88	0	0	0
89	0	0	0
90	0	0	0
91	0	0	0
92	0	0	0
93	0	0	0
94	0	0	0
95	0	0	0
96	251	230	239
97	255	224	239
98	244	196	222
99	249	197	225
100	244	188	219
101	255	204	229
102	254	205	226
103	247	200	222
104	0	0	0
105	0	0	0
106	0	0	0
107	0	0	0
108	0	0	0
109	0	0	0
110	0	0	0
111	0	0	0
112	0	0	0
113	0	0	0
114	0	0	0
115	251	230	238
116	250	212	233
117	240	186	222
118	248	190	229
119	244	181	223
120	252	192	229
121	251	193	226
122	0	0	0
123	0	0	0
124	0	0	0
125	0	0	0
126	0	0	0
127	0	0	0
128	0	0	0
129	0	0	0
130	0	0	0
131	0	0	0
132	0	0	0
133	0	0	0
134	255	235	242
135	255	217	237
136	243	185	224
137	253	191	235
138	248	180	228
139	255	191	235
140	248	181	224
141	0	0	0
142	0	0	0
143	0	0	0
144	0	0	0
145	0	0	0
146	0	0	0
147	0	0	0
148	0	0	0
149	0	0	0
150	0	0	0
151	0	0	0
152	0	0	0
153	255	235	243
154	249	208	231
155	237	176	216
156	249	182	228
157	245	173	224
158	251	176	228
159	243	168	220
160	253	185	228
161	255	193	228
162	255	206	231
163	0	0	0
164	0	0	0
165	0	0	0
166	0	0	0
167	0	0	0
168	0	0	0
169	0	0	0
170	0	0	0
171	0	0	0
172	255	239	245
173	250	212	233
174	246	190	225
175	255	196	237
176	244	166	222
177	251	171	229
178	244	162	221
179	255	180	230
180	250	179	223
181	254	191	226
182	250	198	225
183	0	0	0
184	0	0	0
185	0	0	0
186	0	0	0
187	0	0	0
188	0	0	0
189	0	0	0
190	0	0	0
191	255	243	249
192	255	222	240
193	253	199	230
194	251	182	227
195	237	153	217
196	246	160	226
197	241	152	218
198	247	162	222
199	242	161	215
200	248	176	220
201	245	183	220
202	0	0	0
203	0	0	0
204	0	0	0
205	0	0	0
206	0	0	0
207	0	0	0
208	0	0	0
209	0	0	0
210	255	239	246
211	254	218	238
212	250	194	228
213	249	177	226
214	242	157	222
215	252	165	233
216	248	157	226
217	255	168	230
218	244	156	217
219	249	171	222
220	246	179	222
221	0	0	0
222	0	0	0
223	0	0	0
224	0	0	0
225	0	0	0
226	0	0	0
227	0	0	0
228	0	0	0
229	252	235	244
230	249	210	235
231	246	187	228
232	251	178	231
233	243	157	225
234	250	161	231
235	247	155	226
236	247	155	223
237	237	145	212
238	249	165	223
239	248	174	223
240	255	198	234
241	0	0	0
242	0	0	0
243	0	0	0
244	0	0	0
245	0	0	0
246	0	0	0
247	0	0	0
248	0	0	0
249	253	218	241
250	0	0	0
251	255	182	236
252	240	152	222
253	244	155	227
254	249	161	230
255	251	163	229
256	244	152	221
257	255	176	235
258	247	163	222
259	255	187	232
260	248	186	222
261	0	0	0
262	0	0	0
263	0	0	0
264	0	0	0
265	0	0	0
266	0	0	0
267	0	0	0
268	0	0	0
269	0	0	0
270	251	177	232
271	237	147	219
272	251	163	234
273	255	170	236
274	255	169	235
275	253	160	228
276	254	161	229
277	242	149	216
278	248	162	221
279	239	162	215
280	0	0	0
281	0	0	0
282	0	0	0
283	0	0	0
284	0	0	0
285	0	0	0
286	0	0	0
287	0	0	0
288	0	0	0
289	249	174	231
290	241	151	224
291	255	169	241
292	255	168	238
293	255	167	238
294	239	133	216
295	236	133	215
296	239	140	217
297	247	154	223
298	241	157	218
299	0	0	0
300	0	0	0
301	0	0	0
302	0	0	0
303	0	0	0
304	0	0	0
305	0	0	0
306	0	0	0
307	0	0	0
308	243	171	231
309	238	149	223
310	253	159	236
311	255	158	235
312	237	131	218
313	214	98	199
314	225	116	212
315	230	126	215
316	244	145	224
317	0	0	0
318	0	0	0
319	0	0	0
320	0	0	0
321	0	0	0
322	0	0	0
323	0	0	0
324	0	0	0
325	0	0	0
326	0	0	0
327	242	180	238
328	238	157	231
329	254	168	245
330	237	141	228
331	215	113	210
332	216	113	214
333	235	136	231
334	240	140	230
335	255	160	239
336	236	138	215
337	0	0	0
338	0	0	0
339	0	0	0
340	0	0	0
341	0	0	0
342	0	0	0
343	0	0	0
344	0	0	0
345	230	196	236
346	240	184	242
347	238	162	236
348	238	149	236
349	224	123	223
350	225	129	229
351	226	129	230
352	239	143	238
353	243	147	234
354	243	142	228
355	227	123	210
356	249	162	229
357	0	0	0
358	0	0	0
359	0	0	0
360	0	0	0
361	0	0	0
362	0	0	0
363	0	0	0
364	234	202	239
365	242	190	245
366	242	170	242
367	246	159	245
368	236	136	234
369	241	143	242
370	237	138	238
371	245	148	243
372	239	139	231
373	235	133	224
374	229	126	217
375	255	168	240
376	251	173	228
377	0	0	0
378	0	0	0
379	0	0	0
380	0	0	0
381	0	0	0
382	0	0	0
383	237	207	239
384	240	191	242
385	239	171	241
386	243	160	243
387	233	137	229
388	239	141	236
389	237	137	234
390	235	134	231
391	228	126	223
392	228	127	222
393	222	120	215
394	242	148	228
395	238	153	217
396	0	0	0
397	0	0	0
398	0	0	0
399	0	0	0
400	0	0	0
401	0	0	0
402	241	213	241
403	239	194	240
404	232	170	237
405	231	156	237
406	223	136	226
407	236	144	235
408	233	136	233
409	231	134	231
410	233	138	233
411	232	140	233
412	225	131	224
413	245	158	237
414	236	153	221
415	0	0	0
416	0	0	0
417	0	0	0
418	0	0	0
419	0	0	0
420	0	0	0
421	244	219	242
422	238	195	238
423	231	171	237
424	229	159	240
425	222	139	231
426	233	143	238
427	230	134	233
428	233	142	238
429	235	146	238
430	231	143	234
431	224	135	226
432	236	150	234
433	231	148	224
434	251	182	238
435	0	0	0
436	0	0	0
437	0	0	0
438	0	0	0
439	0	0	0
440	247	226	245
441	245	204	242
442	237	178	240
443	237	167	244
444	233	153	240
445	242	155	246
446	234	143	238
447	235	149	241
448	239	156	243
449	237	155	241
450	227	142	230
451	238	157	239
452	231	149	230
453	255	188	249
454	254	193	237
455	0	0	0
456	0	0	0
457	0	0	0
458	0	0	0
459	251	234	249
460	246	208	242
461	239	183	238
462	244	178	247
463	241	165	246
464	247	164	250
465	239	152	240
466	244	161	246
467	248	169	250
468	240	160	243
469	228	146	230
470	226	147	229
471	221	141	225
472	243	167	238
473	241	174	227
474	0	0	0
475	0	0	0
476	0	0	0
477	0	0	0
478	248	233	247
479	239	205	237
480	236	185	236
481	245	183	247
482	236	158	239
483	240	157	243
484	242	156	241
485	252	168	250
486	247	163	246
487	235	152	236
488	227	147	230
489	222	148	228
490	225	153	232
491	248	180	247
492	239	173	231
493	0	0	0
494	0	0	0
495	0	0	0
496	0	0	0
497	247	234	247
498	239	210	239
499	236	190	238
500	237	176	240
501	228	151	233
502	239	159	244
503	241	158	242
504	243	158	241
505	238	152	236
506	233	152	235
507	227	150	233
508	228	158	237
509	230	163	237
510	241	173	240
511	235	168	230
512	0	0	0
513	0	0	0
514	0	0	0
515	0	0	0
516	248	239	248
517	240	214	241
518	237	195	240
519	235	180	241
520	227	158	236
521	238	167	247
522	237	162	243
523	236	160	241
524	231	154	236
525	231	156	238
526	231	158	239
527	237	169	245
528	234	164	238
529	243	174	241
530	241	174	236
531	0	0	0
532	0	0	0
533	0	0	0
534	0	0	0
535	250	244	251
536	238	218	241
537	233	199	239
538	232	184	241
539	224	163	236
540	238	172	249
541	238	168	247
542	237	166	247
543	233	160	244
544	236	166	246
545	236	167	244
546	235	166	241
547	231	162	236
548	236	169	238
549	234	169	231
550	247	190	239
551	0	0	0
552	0	0	0
553	0	0	0
554	246	244	248
555	230	216	235
556	229	203	238
557	228	189	241
558	223	170	238
559	242	181	254
560	239	169	249
561	239	168	249
562	233	160	245
563	236	165	247
564	236	167	245
565	234	166	242
566	230	164	239
567	228	168	237
568	231	176	236
569	249	200	247
570	242	197	235
571	0	0	0
572	0	0	0
573	251	249	250
574	238	227	241
575	234	214	244
576	228	196	244
577	223	176	240
578	237	178	250
579	234	166	244
580	230	161	241
581	224	153	237
582	227	159	241
583	228	162	242
584	231	166	244
585	226	164	239
586	228	175	243
587	232	185	245
588	239	191	244
589	0	0	0
590	0	0	0
591	0	0	0
592	252	244	247
593	238	222	238
594	237	214	244
595	225	193	240
596	222	179	240
597	233	179	248
598	230	170	243
599	226	164	240
600	229	171	245
601	232	176	250
602	226	170	246
603	230	175	249
604	226	172	245
605	234	187	252
606	232	184	247
607	236	190	245
608	242	200	244
609	0	0	0
610	0	0	0
611	0	0	0
612	243	224	242
613	0	0	0
614	0	0	0
615	223	183	242
616	233	184	249
617	229	174	243
618	233	183	249
619	236	189	253
620	232	184	252
621	227	178	250
622	230	181	253
623	227	179	248
624	227	180	246
625	224	178	241
626	236	194	248
627	243	206	248
628	0	0	0
629	0	0	0
630	0	0	0
631	0	0	0
632	0	0	0
633	0	0	0
634	234	198	249
635	240	197	254
636	230	180	244
637	232	188	249
638	230	186	249
639	229	183	249
640	227	180	249
641	229	183	252
642	229	184	250
643	227	184	247
644	230	191	248
645	242	208	255
646	241	210	248
647	0	0	0
648	0	0	0
649	0	0	0
650	0	0	0
651	0	0	0
652	0	0	0
653	0	0	0
654	235	198	247
655	224	182	240
656	224	183	244
657	223	183	246
658	224	182	248
659	223	178	246
660	227	185	250
661	227	186	248
662	231	195	251
663	235	203	253
664	240	209	252
665	0	0	0
666	0	0	0
667	0	0	0
668	0	0	0
669	0	0	0
670	0	0	0
671	0	0	0
672	0	0	0
673	0	0	0
674	225	195	243
675	228	199	250
676	222	190	248
677	224	189	250
678	227	193	252
679	232	200	255
680	226	193	248
681	232	203	252
682	235	207	251
683	0	0	0
684	0	0	0
685	0	0	0
686	0	0	0
687	0	0	0
688	0	0	0
689	0	0	0
690	0	0	0
691	0	0	0
692	0	0	0
693	0	0	0
694	226	204	247
695	221	194	245
696	228	202	253
697	231	206	254
698	228	202	250
699	0	0	0
700	0	0	0
701	0	0	0
702	0	0	0
703	0	0	0
