 	R	G	B
1	0	0	0
2	0	0	0
3	0	0	0
4	253	205	229
5	251	202	222
6	255	208	224
7	0	0	0
8	255	217	227
9	255	222	229
10	255	234	235
11	0	0	0
12	0	0	0
13	0	0	0
14	0	0	0
15	0	0	0
16	0	0	0
17	0	0	0
18	0	0	0
19	0	0	0
20	0	0	0
21	0	0	0
22	0	0	0
23	0	0	0
24	0	0	0
25	0	0	0
26	0	0	0
27	0	0	0
28	0	0	0
29	0	0	0
30	0	0	0
31	0	0	0
32	0	0	0
33	0	0	0
34	0	0	0
35	0	0	0
36	0	0	0
37	0	0	0
38	245	199	226
39	255	210	233
40	248	194	219
41	253	202	222
42	250	199	219
43	254	209	224
44	252	212	224
45	255	224	231
46	255	235	239
47	0	0	0
48	0	0	0
49	0	0	0
50	0	0	0
51	0	0	0
52	0	0	0
53	0	0	0
54	0	0	0
55	0	0	0
56	0	0	0
57	0	0	0
58	0	0	0
59	0	0	0
60	0	0	0
61	0	0	0
62	0	0	0
63	0	0	0
64	0	0	0
65	0	0	0
66	0	0	0
67	0	0	0
68	0	0	0
69	0	0	0
70	0	0	0
71	0	0	0
72	0	0	0
73	245	199	225
74	249	197	225
75	240	182	211
76	247	190	216
77	245	187	213
78	250	198	220
79	250	202	220
80	253	212	225
81	255	221	230
82	0	0	0
83	0	0	0
84	0	0	0
85	0	0	0
86	0	0	0
87	0	0	0
88	0	0	0
89	0	0	0
90	0	0	0
91	0	0	0
92	0	0	0
93	0	0	0
94	0	0	0
95	0	0	0
96	0	0	0
97	0	0	0
98	0	0	0
99	0	0	0
100	0	0	0
101	0	0	0
102	0	0	0
103	0	0	0
104	0	0	0
105	0	0	0
106	0	0	0
107	0	0	0
108	250	206	230
109	255	205	231
110	244	185	216
111	253	194	222
112	248	188	217
113	255	199	224
114	251	198	220
115	254	208	225
116	253	215	227
117	0	0	0
118	0	0	0
119	0	0	0
120	0	0	0
121	0	0	0
122	0	0	0
123	0	0	0
124	0	0	0
125	0	0	0
126	0	0	0
127	0	0	0
128	0	0	0
129	0	0	0
130	0	0	0
131	0	0	0
132	0	0	0
133	0	0	0
134	0	0	0
135	0	0	0
136	0	0	0
137	0	0	0
138	0	0	0
139	0	0	0
140	0	0	0
141	0	0	0
142	0	0	0
143	254	212	233
144	253	202	228
145	244	183	217
146	252	190	223
147	249	185	218
148	253	192	221
149	249	191	218
150	253	202	223
151	253	209	224
152	0	0	0
153	0	0	0
154	0	0	0
155	0	0	0
156	0	0	0
157	0	0	0
158	0	0	0
159	0	0	0
160	0	0	0
161	0	0	0
162	0	0	0
163	0	0	0
164	0	0	0
165	0	0	0
166	0	0	0
167	0	0	0
168	0	0	0
169	0	0	0
170	0	0	0
171	0	0	0
172	0	0	0
173	0	0	0
174	0	0	0
175	0	0	0
176	0	0	0
177	0	0	0
178	255	214	232
179	254	204	228
180	246	184	219
181	255	192	227
182	248	180	216
183	253	188	220
184	248	185	215
185	252	196	219
186	253	205	221
187	0	0	0
188	0	0	0
189	0	0	0
190	0	0	0
191	0	0	0
192	0	0	0
193	0	0	0
194	0	0	0
195	0	0	0
196	0	0	0
197	0	0	0
198	0	0	0
199	0	0	0
200	0	0	0
201	0	0	0
202	0	0	0
203	0	0	0
204	0	0	0
205	0	0	0
206	0	0	0
207	0	0	0
208	0	0	0
209	0	0	0
210	0	0	0
211	0	0	0
212	0	0	0
213	255	215	230
214	251	200	224
215	244	182	217
216	250	182	221
217	242	171	210
218	248	178	214
219	245	176	211
220	253	192	218
221	253	200	216
222	0	0	0
223	0	0	0
224	0	0	0
225	0	0	0
226	0	0	0
227	0	0	0
228	0	0	0
229	0	0	0
230	0	0	0
231	0	0	0
232	0	0	0
233	0	0	0
234	0	0	0
235	0	0	0
236	0	0	0
237	0	0	0
238	0	0	0
239	0	0	0
240	0	0	0
241	0	0	0
242	0	0	0
243	0	0	0
244	0	0	0
245	0	0	0
246	0	0	0
247	0	0	0
248	255	220	234
249	255	206	228
250	247	184	220
251	253	186	225
252	246	174	213
253	253	182	218
254	247	175	213
255	255	191	220
256	250	191	212
257	0	0	0
258	0	0	0
259	0	0	0
260	0	0	0
261	0	0	0
262	0	0	0
263	0	0	0
264	0	0	0
265	0	0	0
266	0	0	0
267	0	0	0
268	0	0	0
269	0	0	0
270	0	0	0
271	0	0	0
272	0	0	0
273	0	0	0
274	0	0	0
275	0	0	0
276	0	0	0
277	0	0	0
278	0	0	0
279	0	0	0
280	0	0	0
281	0	0	0
282	0	0	0
283	255	227	239
284	255	207	230
285	248	186	224
286	255	187	228
287	248	174	215
288	251	177	215
289	246	171	213
290	251	181	217
291	247	182	210
292	255	199	218
293	0	0	0
294	0	0	0
295	0	0	0
296	0	0	0
297	0	0	0
298	0	0	0
299	0	0	0
300	0	0	0
301	0	0	0
302	0	0	0
303	0	0	0
304	0	0	0
305	0	0	0
306	0	0	0
307	0	0	0
308	0	0	0
309	0	0	0
310	0	0	0
311	0	0	0
312	0	0	0
313	0	0	0
314	0	0	0
315	0	0	0
316	0	0	0
317	0	0	0
318	255	224	237
319	254	205	228
320	249	187	225
321	255	188	230
322	244	167	212
323	248	170	213
324	251	175	217
325	255	186	222
326	250	182	213
327	255	200	221
328	255	202	218
329	0	0	0
330	0	0	0
331	0	0	0
332	0	0	0
333	0	0	0
334	0	0	0
335	0	0	0
336	0	0	0
337	0	0	0
338	0	0	0
339	0	0	0
340	0	0	0
341	0	0	0
342	0	0	0
343	0	0	0
344	0	0	0
345	0	0	0
346	0	0	0
347	0	0	0
348	0	0	0
349	0	0	0
350	0	0	0
351	0	0	0
352	0	0	0
353	255	221	232
354	253	203	224
355	248	185	221
356	250	178	222
357	240	159	210
358	252	173	219
359	255	177	218
360	255	181	217
361	250	178	209
362	252	186	211
363	249	188	210
364	255	205	220
365	0	0	0
366	0	0	0
367	0	0	0
368	0	0	0
369	0	0	0
370	0	0	0
371	0	0	0
372	0	0	0
373	0	0	0
374	0	0	0
375	0	0	0
376	0	0	0
377	0	0	0
378	0	0	0
379	0	0	0
380	0	0	0
381	0	0	0
382	0	0	0
383	0	0	0
384	0	0	0
385	0	0	0
386	0	0	0
387	0	0	0
388	255	217	230
389	250	199	222
390	249	185	220
391	251	179	222
392	246	166	216
393	255	181	226
394	251	170	213
395	253	175	213
396	249	172	208
397	252	181	211
398	252	185	212
399	255	202	222
400	255	204	221
401	0	0	0
402	0	0	0
403	0	0	0
404	0	0	0
405	0	0	0
406	0	0	0
407	0	0	0
408	0	0	0
409	0	0	0
410	0	0	0
411	0	0	0
412	0	0	0
413	0	0	0
414	0	0	0
415	0	0	0
416	0	0	0
417	0	0	0
418	0	0	0
419	0	0	0
420	0	0	0
421	0	0	0
422	0	0	0
423	250	210	230
424	250	198	227
425	247	184	221
426	252	181	223
427	248	169	216
428	253	170	217
429	247	161	208
430	252	168	212
431	249	167	210
432	254	177	216
433	253	182	216
434	253	187	216
435	248	188	214
436	0	0	0
437	0	0	0
438	0	0	0
439	0	0	0
440	0	0	0
441	0	0	0
442	0	0	0
443	0	0	0
444	0	0	0
445	0	0	0
446	0	0	0
447	0	0	0
448	0	0	0
449	0	0	0
450	0	0	0
451	0	0	0
452	0	0	0
453	0	0	0
454	0	0	0
455	0	0	0
456	0	0	0
457	0	0	0
458	255	225	242
459	255	214	240
460	251	190	226
461	255	187	227
462	248	168	217
463	253	170	219
464	248	160	211
465	254	167	217
466	246	158	210
467	252	169	216
468	254	177	217
469	253	182	217
470	248	182	212
471	0	0	0
472	0	0	0
473	0	0	0
474	0	0	0
475	0	0	0
476	0	0	0
477	0	0	0
478	0	0	0
479	0	0	0
480	0	0	0
481	0	0	0
482	0	0	0
483	0	0	0
484	0	0	0
485	0	0	0
486	0	0	0
487	0	0	0
488	0	0	0
489	0	0	0
490	0	0	0
491	0	0	0
492	0	0	0
493	255	240	252
494	255	218	242
495	253	194	229
496	254	184	227
497	247	166	220
498	252	166	222
499	247	155	213
500	247	153	211
501	240	145	207
502	248	159	215
503	250	167	213
504	250	173	213
505	246	174	209
506	255	196	219
507	255	215	224
508	255	221	223
509	0	0	0
510	0	0	0
511	0	0	0
512	0	0	0
513	0	0	0
514	0	0	0
515	0	0	0
516	0	0	0
517	0	0	0
518	0	0	0
519	0	0	0
520	0	0	0
521	0	0	0
522	0	0	0
523	0	0	0
524	0	0	0
525	0	0	0
526	0	0	0
527	0	0	0
528	255	231	245
529	255	209	234
530	249	188	226
531	250	179	225
532	251	170	224
533	255	170	227
534	245	151	213
535	245	149	212
536	251	158	219
537	255	173	227
538	251	165	216
539	252	172	215
540	248	173	211
541	255	195	220
542	255	203	217
543	255	210	216
544	255	220	224
545	0	0	0
546	0	0	0
547	0	0	0
548	0	0	0
549	0	0	0
550	0	0	0
551	0	0	0
552	0	0	0
553	0	0	0
554	0	0	0
555	0	0	0
556	0	0	0
557	0	0	0
558	0	0	0
559	0	0	0
560	0	0	0
561	0	0	0
562	0	0	0
563	255	223	237
564	249	202	229
565	245	183	224
566	252	180	227
567	251	170	221
568	248	160	216
569	239	142	208
570	250	157	219
571	255	165	222
572	253	163	219
573	247	157	213
574	252	167	217
575	247	168	211
576	252	182	214
577	252	191	213
578	251	197	213
579	0	0	0
580	0	0	0
581	255	227	233
582	255	231	234
583	0	0	0
584	0	0	0
585	0	0	0
586	0	0	0
587	0	0	0
588	0	0	0
589	0	0	0
590	0	0	0
591	0	0	0
592	0	0	0
593	0	0	0
594	0	0	0
595	0	0	0
596	0	0	0
597	0	0	0
598	255	231	243
599	255	210	235
600	250	190	230
601	255	187	233
602	247	166	217
603	245	155	213
604	244	150	214
605	255	165	225
606	255	170	225
607	255	169	223
608	248	157	215
609	254	168	220
610	249	168	213
611	255	182	217
612	255	190	216
613	255	196	216
614	255	206	221
615	255	215	225
616	255	219	228
617	255	222	229
618	254	224	229
619	0	0	0
620	0	0	0
621	0	0	0
622	0	0	0
623	0	0	0
624	0	0	0
625	0	0	0
626	0	0	0
627	0	0	0
628	0	0	0
629	0	0	0
630	0	0	0
631	0	0	0
632	0	0	0
633	255	239	248
634	255	214	237
635	252	193	232
636	251	180	229
637	242	159	215
638	249	162	220
639	248	157	219
640	255	168	228
641	255	173	228
642	255	165	221
643	246	154	214
644	251	162	218
645	248	163	212
646	254	177	216
647	254	185	215
648	255	195	217
649	255	205	220
650	255	207	220
651	255	211	223
652	252	213	223
653	0	0	0
654	0	0	0
655	0	0	0
656	0	0	0
657	0	0	0
658	0	0	0
659	0	0	0
660	0	0	0
661	0	0	0
662	0	0	0
663	0	0	0
664	0	0	0
665	0	0	0
666	0	0	0
667	0	0	0
668	255	234	244
669	252	208	232
670	254	199	235
671	253	186	232
672	244	164	219
673	251	167	225
674	252	164	225
675	255	176	232
676	255	167	224
677	251	159	218
678	249	157	216
679	255	166	221
680	254	169	219
681	255	183	224
682	250	175	212
683	253	185	214
684	255	197	218
685	254	199	217
686	252	203	220
687	0	0	0
688	0	0	0
689	0	0	0
690	0	0	0
691	0	0	0
692	0	0	0
693	0	0	0
694	0	0	0
695	0	0	0
696	0	0	0
697	0	0	0
698	0	0	0
699	0	0	0
700	0	0	0
701	0	0	0
702	0	0	0
703	255	229	240
704	255	214	235
705	255	204	236
706	254	189	233
707	246	169	223
708	255	174	230
709	255	171	229
710	255	168	227
711	251	160	219
712	253	162	219
713	252	160	216
714	255	168	222
715	255	172	223
716	254	171	220
717	245	164	211
718	252	178	216
719	255	190	218
720	252	192	216
721	251	196	219
722	255	211	227
723	0	0	0
724	0	0	0
725	0	0	0
726	0	0	0
727	0	0	0
728	0	0	0
729	0	0	0
730	0	0	0
731	0	0	0
732	0	0	0
733	0	0	0
734	0	0	0
735	0	0	0
736	0	0	0
737	0	0	0
738	255	238	247
739	255	222	241
740	252	200	232
741	250	186	229
742	251	178	229
743	255	184	237
744	252	167	225
745	253	165	223
746	252	160	219
747	255	163	220
748	253	161	215
749	255	169	220
750	255	165	220
751	252	165	219
752	250	166	216
753	255	181	222
754	255	186	219
755	252	187	217
756	253	195	222
757	255	209	228
758	255	212	223
759	0	0	0
760	0	0	0
761	0	0	0
762	0	0	0
763	0	0	0
764	0	0	0
765	0	0	0
766	0	0	0
767	0	0	0
768	0	0	0
769	0	0	0
770	0	0	0
771	0	0	0
772	0	0	0
773	255	247	254
774	255	222	240
775	250	199	231
776	255	197	235
777	255	190	236
778	255	179	230
779	247	162	217
780	252	164	220
781	253	161	219
782	255	165	221
783	255	162	214
784	254	161	212
785	251	158	214
786	253	163	217
787	250	164	212
788	251	171	214
789	252	177	216
790	253	185	219
791	253	192	221
792	253	198	221
793	250	201	218
794	0	0	0
795	0	0	0
796	0	0	0
797	0	0	0
798	0	0	0
799	0	0	0
800	0	0	0
801	0	0	0
802	0	0	0
803	0	0	0
804	0	0	0
805	0	0	0
806	0	0	0
807	0	0	0
808	255	240	247
809	252	215	234
810	252	203	232
811	255	200	236
812	254	186	231
813	252	175	225
814	254	171	222
815	255	174	226
816	252	158	216
817	255	163	219
818	250	152	207
819	249	151	206
820	253	158	214
821	255	163	217
822	251	162	212
823	252	170	214
824	255	180	220
825	255	188	223
826	255	191	221
827	255	197	222
828	253	202	221
829	0	0	0
830	0	0	0
831	0	0	0
832	0	0	0
833	0	0	0
834	0	0	0
835	0	0	0
836	0	0	0
837	0	0	0
838	0	0	0
839	0	0	0
840	0	0	0
841	0	0	0
842	0	0	0
843	255	234	240
844	255	220	236
845	255	209	235
846	255	199	234
847	252	184	227
848	255	184	230
849	255	181	229
850	255	170	223
851	250	154	212
852	253	154	212
853	248	145	204
854	254	154	211
855	255	160	217
856	255	162	218
857	253	162	216
858	255	173	221
859	255	183	225
860	255	186	223
861	255	189	220
862	255	195	220
863	254	200	220
864	255	208	222
865	0	0	0
866	0	0	0
867	0	0	0
868	0	0	0
869	0	0	0
870	0	0	0
871	0	0	0
872	0	0	0
873	0	0	0
874	0	0	0
875	0	0	0
876	0	0	0
877	0	0	0
878	255	239	243
879	255	225	239
880	252	203	231
881	252	192	229
882	250	181	225
883	255	182	229
884	255	176	227
885	255	165	221
886	247	146	208
887	251	146	210
888	243	135	203
889	250	144	209
890	251	148	212
891	249	150	212
892	254	162	217
893	255	172	222
894	255	176	221
895	255	180	219
896	255	187	219
897	255	193	219
898	253	196	219
899	254	204	220
900	251	208	216
901	0	0	0
902	0	0	0
903	0	0	0
904	0	0	0
905	0	0	0
906	0	0	0
907	0	0	0
908	0	0	0
909	0	0	0
910	0	0	0
911	0	0	0
912	255	247	244
913	255	246	249
914	255	219	236
915	247	196	227
916	250	189	228
917	249	179	225
918	254	176	228
919	255	170	227
920	251	155	219
921	241	135	206
922	242	132	207
923	236	122	202
924	242	131	208
925	242	134	207
926	248	147	212
927	252	158	215
928	252	163	215
929	251	168	214
930	254	176	217
931	255	184	219
932	253	187	218
933	251	191	216
934	250	196	215
935	248	200	213
936	255	219	223
937	0	0	0
938	0	0	0
939	0	0	0
940	0	0	0
941	0	0	0
942	0	0	0
943	0	0	0
944	0	0	0
945	0	0	0
946	255	251	247
947	255	241	241
948	255	237	243
949	249	210	230
950	254	208	235
951	255	201	237
952	252	183	229
953	255	181	232
954	255	168	228
955	250	153	221
956	243	137	212
957	244	134	213
958	247	137	218
959	253	146	223
960	253	149	221
961	255	162	224
962	255	163	218
963	255	168	216
964	255	172	216
965	255	181	220
966	250	174	215
967	248	178	215
968	255	201	225
969	255	206	223
970	253	204	217
971	255	223	227
972	255	223	225
973	0	0	0
974	0	0	0
975	0	0	0
976	0	0	0
977	0	0	0
978	0	0	0
979	0	0	0
980	0	0	0
981	255	244	243
982	252	233	236
983	255	229	237
984	255	221	237
985	255	218	241
986	255	201	234
987	250	182	226
988	250	171	225
989	248	159	223
990	246	148	220
991	239	133	211
992	249	142	221
993	251	145	224
994	255	155	230
995	255	159	227
996	255	164	224
997	255	164	216
998	255	171	216
999	255	175	216
1000	252	171	212
1001	245	165	211
1002	255	189	226
1003	255	211	234
1004	255	210	227
1005	255	208	220
1006	255	210	220
1007	250	209	218
1008	0	0	0
1009	0	0	0
1010	0	0	0
1011	0	0	0
1012	0	0	0
1013	0	0	0
1014	0	0	0
1015	0	0	0
1016	0	0	0
1017	255	237	239
1018	255	233	241
1019	255	225	240
1020	255	218	240
1021	254	200	232
1022	252	187	227
1023	252	176	226
1024	251	166	226
1025	249	155	224
1026	249	150	223
1027	255	159	231
1028	253	151	226
1029	255	162	232
1030	255	157	223
1031	255	163	222
1032	253	159	213
1033	255	166	214
1034	253	165	210
1035	247	160	206
1036	251	171	216
1037	255	196	232
1038	255	201	228
1039	255	199	221
1040	252	196	215
1041	250	199	215
1042	251	207	219
1043	0	0	0
1044	0	0	0
1045	0	0	0
1046	0	0	0
1047	0	0	0
1048	0	0	0
1049	0	0	0
1050	0	0	0
1051	0	0	0
1052	255	244	244
1053	255	239	246
1054	255	228	243
1055	255	221	242
1056	255	205	235
1057	254	191	229
1058	254	181	227
1059	253	171	226
1060	255	171	231
1061	255	166	230
1062	255	166	232
1063	255	158	226
1064	255	159	225
1065	254	155	219
1066	254	156	217
1067	251	154	214
1068	252	157	214
1069	249	156	209
1070	254	168	215
1071	255	178	219
1072	255	184	221
1073	255	191	222
1074	255	190	220
1075	249	188	215
1076	253	199	219
1077	253	206	221
1078	255	220	228
1079	0	0	0
1080	0	0	0
1081	0	0	0
1082	0	0	0
1083	0	0	0
1084	0	0	0
1085	0	0	0
1086	0	0	0
1087	0	0	0
1088	255	231	240
1089	255	220	237
1090	255	215	238
1091	252	199	230
1092	253	191	228
1093	252	181	226
1094	255	177	228
1095	255	177	233
1096	251	159	224
1097	254	158	225
1098	250	150	219
1099	252	152	219
1100	254	154	219
1101	255	156	219
1102	253	155	217
1103	255	158	217
1104	250	155	211
1105	255	168	216
1106	255	172	215
1107	255	179	217
1108	255	190	223
1109	255	190	221
1110	245	178	211
1111	249	189	216
1112	255	208	224
1113	255	221	229
1114	255	224	229
1115	0	0	0
1116	0	0	0
1117	0	0	0
1118	0	0	0
1119	0	0	0
1120	0	0	0
1121	0	0	0
1122	0	0	0
1123	252	224	235
1124	252	216	234
1125	254	211	233
1126	253	201	231
1127	254	194	232
1128	255	191	236
1129	255	187	236
1130	255	172	230
1131	247	154	222
1132	248	151	222
1133	244	143	215
1134	250	149	218
1135	253	153	221
1136	255	155	221
1137	252	152	215
1138	251	154	213
1139	247	151	208
1140	250	159	211
1141	251	164	212
1142	255	175	216
1143	255	185	218
1144	251	177	210
1145	239	165	203
1146	252	189	218
1147	255	208	226
1148	252	208	221
1149	0	0	0
1150	0	0	0
1151	0	0	0
1152	0	0	0
1153	0	0	0
1154	0	0	0
1155	0	0	0
1156	0	0	0
1157	0	0	0
1158	255	228	238
1159	255	220	237
1160	254	211	234
1161	253	202	233
1162	255	201	239
1163	255	198	242
1164	253	177	229
1165	248	162	223
1166	249	158	225
1167	251	156	226
1168	253	156	223
1169	255	162	227
1170	254	154	222
1171	255	156	223
1172	251	150	215
1173	250	151	213
1174	249	153	213
1175	253	162	217
1176	255	170	219
1177	255	180	222
1178	253	173	212
1179	245	165	205
1180	245	170	210
1181	255	194	224
1182	255	203	224
1183	0	0	0
1184	0	0	0
1185	0	0	0
1186	0	0	0
1187	0	0	0
1188	0	0	0
1189	0	0	0
1190	0	0	0
1191	0	0	0
1192	0	0	0
1193	0	0	0
1194	253	220	236
1195	253	212	237
1196	255	209	241
1197	255	207	243
1198	253	187	232
1199	243	164	219
1200	248	164	222
1201	250	161	226
1202	255	165	231
1203	255	165	228
1204	254	159	222
1205	250	150	216
1206	251	150	217
1207	247	146	214
1208	250	151	218
1209	250	154	220
1210	255	164	225
1211	255	171	224
1212	252	165	216
1213	246	160	210
1214	250	169	216
1215	249	173	217
1216	255	189	224
1217	255	198	222
1218	0	0	0
1219	0	0	0
1220	0	0	0
1221	0	0	0
1222	0	0	0
1223	0	0	0
1224	0	0	0
1225	0	0	0
1226	0	0	0
1227	0	0	0
1228	0	0	0
1229	0	0	0
1230	255	220	242
1231	255	217	246
1232	255	201	240
1233	247	180	229
1234	248	173	226
1235	253	173	230
1236	250	164	227
1237	255	168	231
1238	255	167	228
1239	254	160	222
1240	250	152	216
1241	252	153	219
1242	250	150	218
1243	253	155	223
1244	255	162	228
1245	255	172	232
1246	255	169	225
1247	252	164	218
1248	252	166	220
1249	255	176	225
1250	250	171	219
1251	255	186	224
1252	252	190	218
1253	0	0	0
1254	0	0	0
1255	0	0	0
1256	0	0	0
1257	0	0	0
1258	0	0	0
1259	0	0	0
1260	0	0	0
1261	0	0	0
1262	0	0	0
1263	0	0	0
1264	0	0	0
1265	255	225	243
1266	251	206	235
1267	247	191	234
1268	249	186	236
1269	251	180	235
1270	252	175	234
1271	248	165	227
1272	253	167	229
1273	255	167	229
1274	254	162	225
1275	250	154	219
1276	253	156	222
1277	251	152	221
1278	255	162	228
1279	255	167	227
1280	255	165	223
1281	254	164	221
1282	255	167	223
1283	255	169	224
1284	254	170	223
1285	246	165	215
1286	251	177	218
1287	248	181	214
1288	253	197	218
1289	0	0	0
1290	0	0	0
1291	0	0	0
1292	0	0	0
1293	0	0	0
1294	0	0	0
1295	0	0	0
1296	0	0	0
1297	0	0	0
1298	0	0	0
1299	0	0	0
1300	255	230	244
1301	251	210	236
1302	254	206	242
1303	255	201	245
1304	254	189	241
1305	255	185	240
1306	250	172	231
1307	255	175	234
1308	254	169	230
1309	253	164	227
1310	254	161	225
1311	255	162	228
1312	248	150	221
1313	255	160	226
1314	255	163	223
1315	253	161	219
1316	255	166	223
1317	255	170	225
1318	254	167	222
1319	252	167	221
1320	250	169	219
1321	255	182	224
1322	250	181	217
1323	255	197	222
1324	250	198	217
1325	0	0	0
1326	0	0	0
1327	0	0	0
1328	0	0	0
1329	0	0	0
1330	0	0	0
1331	0	0	0
1332	0	0	0
1333	0	0	0
1334	0	0	0
1335	0	0	0
1336	255	221	241
1337	255	215	241
1338	253	204	239
1339	252	193	238
1340	253	187	239
1341	249	175	232
1342	253	174	233
1343	251	168	229
1344	255	168	230
1345	255	167	230
1346	252	158	226
1347	244	145	218
1348	252	155	225
1349	253	159	224
1350	255	164	224
1351	255	169	224
1352	254	166	220
1353	250	162	217
1354	252	168	220
1355	251	170	220
1356	252	175	221
1357	247	175	216
1358	247	182	216
1359	242	184	212
1360	251	205	222
1361	0	0	0
1362	0	0	0
1363	0	0	0
1364	0	0	0
1365	0	0	0
1366	0	0	0
1367	0	0	0
1368	0	0	0
1369	0	0	0
1370	0	0	0
1371	0	0	0
1372	255	226	243
1373	0	0	0
1374	255	207	243
1375	255	202	245
1376	248	179	233
1377	252	178	235
1378	253	174	232
1379	255	175	233
1380	254	166	229
1381	251	158	225
1382	250	156	225
1383	255	166	232
1384	252	158	224
1385	254	163	224
1386	255	170	224
1387	254	166	220
1388	250	162	216
1389	253	169	220
1390	255	178	224
1391	255	182	226
1392	249	178	220
1393	250	186	221
1394	255	200	226
1395	255	222	237
1396	255	216	229
1397	0	0	0
1398	0	0	0
1399	0	0	0
1400	0	0	0
1401	0	0	0
1402	0	0	0
1403	0	0	0
1404	0	0	0
1405	0	0	0
1406	0	0	0
1407	0	0	0
1408	0	0	0
1409	0	0	0
1410	249	197	235
1411	240	176	227
1412	248	178	234
1413	249	174	229
1414	251	170	226
1415	248	162	222
1416	251	163	225
1417	252	162	226
1418	253	161	226
1419	247	153	218
1420	254	163	223
1421	255	169	223
1422	255	167	219
1423	251	164	217
1424	255	176	224
1425	255	184	226
1426	255	182	222
1427	249	178	218
1428	255	194	226
1429	255	209	231
1430	255	206	226
1431	248	202	221
1432	0	0	0
1433	0	0	0
1434	0	0	0
1435	0	0	0
1436	0	0	0
1437	0	0	0
1438	0	0	0
1439	0	0	0
1440	0	0	0
1441	0	0	0
1442	0	0	0
1443	0	0	0
1444	0	0	0
1445	0	0	0
1446	253	203	243
1447	255	207	250
1448	249	180	232
1449	252	177	230
1450	249	167	224
1451	253	170	226
1452	255	171	229
1453	255	170	229
1454	250	159	222
1455	255	169	228
1456	254	165	221
1457	253	164	218
1458	251	163	217
1459	255	174	223
1460	253	173	218
1461	247	170	214
1462	253	185	223
1463	255	201	230
1464	255	212	233
1465	255	209	229
1466	248	200	222
1467	0	0	0
1468	0	0	0
1469	0	0	0
1470	0	0	0
1471	0	0	0
1472	0	0	0
1473	0	0	0
1474	0	0	0
1475	0	0	0
1476	0	0	0
1477	0	0	0
1478	0	0	0
1479	0	0	0
1480	0	0	0
1481	0	0	0
1482	255	207	246
1483	245	181	232
1484	250	180	234
1485	247	170	225
1486	255	176	229
1487	255	177	229
1488	255	171	226
1489	250	161	222
1490	253	163	224
1491	250	160	220
1492	251	162	220
1493	249	161	218
1494	252	166	220
1495	247	164	216
1496	255	182	225
1497	255	197	231
1498	255	205	233
1499	255	216	236
1500	255	206	227
1501	247	197	220
1502	255	214	229
1503	0	0	0
1504	0	0	0
1505	0	0	0
1506	0	0	0
1507	0	0	0
1508	0	0	0
1509	0	0	0
1510	0	0	0
1511	0	0	0
1512	0	0	0
1513	0	0	0
1514	0	0	0
1515	0	0	0
1516	0	0	0
1517	0	0	0
1518	251	196	240
1519	254	194	242
1520	248	179	230
1521	255	186	234
1522	253	175	226
1523	252	169	223
1524	250	164	223
1525	254	166	227
1526	254	167	226
1527	255	169	226
1528	251	164	221
1529	254	169	223
1530	249	165	218
1531	255	183	227
1532	255	187	224
1533	255	195	225
1534	255	208	231
1535	253	198	222
1536	249	197	220
1537	255	214	229
1538	255	216	223
1539	0	0	0
1540	0	0	0
1541	0	0	0
1542	0	0	0
1543	0	0	0
1544	0	0	0
1545	0	0	0
1546	0	0	0
1547	0	0	0
1548	0	0	0
1549	0	0	0
1550	0	0	0
1551	0	0	0
1552	0	0	0
1553	0	0	0
1554	251	197	239
1555	245	183	230
1556	248	179	229
1557	245	169	221
1558	248	169	223
1559	248	164	223
1560	253	168	228
1561	254	169	227
1562	253	166	224
1563	249	162	219
1564	252	166	220
1565	247	163	215
1566	252	173	218
1567	250	177	216
1568	253	188	219
1569	255	201	224
1570	253	197	219
1571	249	196	218
1572	251	203	221
1573	248	206	217
1574	0	0	0
1575	0	0	0
1576	0	0	0
1577	0	0	0
1578	0	0	0
1579	0	0	0
1580	0	0	0
1581	0	0	0
1582	0	0	0
1583	0	0	0
1584	0	0	0
1585	0	0	0
1586	0	0	0
1587	0	0	0
1588	0	0	0
1589	0	0	0
1590	253	200	239
1591	255	197	239
1592	250	181	230
1593	254	181	232
1594	249	169	226
1595	255	175	231
1596	255	172	228
1597	254	170	225
1598	254	170	224
1599	255	174	226
1600	247	162	216
1601	252	173	220
1602	250	176	217
1603	254	187	220
1604	255	197	223
1605	252	194	218
1606	253	200	221
1607	254	207	224
1608	252	210	222
1609	0	0	0
1610	0	0	0
1611	0	0	0
1612	0	0	0
1613	0	0	0
1614	0	0	0
1615	0	0	0
1616	0	0	0
1617	0	0	0
1618	0	0	0
1619	0	0	0
1620	0	0	0
1621	0	0	0
1622	0	0	0
1623	0	0	0
1624	0	0	0
1625	255	216	246
1626	255	204	241
1627	251	189	233
1628	251	183	232
1629	245	171	225
1630	251	174	228
1631	252	173	226
1632	254	174	226
1633	254	173	225
1634	251	168	222
1635	243	158	216
1636	248	167	220
1637	246	170	216
1638	252	183	221
1639	255	193	225
1640	255	199	225
1641	255	204	225
1642	255	211	227
1643	255	214	227
1644	0	0	0
1645	0	0	0
1646	0	0	0
1647	0	0	0
1648	0	0	0
1649	0	0	0
1650	0	0	0
1651	0	0	0
1652	0	0	0
1653	0	0	0
1654	0	0	0
1655	0	0	0
1656	0	0	0
1657	0	0	0
1658	0	0	0
1659	0	0	0
1660	255	219	245
1661	255	207	241
1662	248	191	234
1663	246	184	232
1664	245	178	229
1665	253	183	232
1666	255	183	230
1667	255	185	231
1668	251	172	224
1669	248	167	222
1670	248	168	223
1671	254	178	229
1672	255	182	227
1673	255	195	231
1674	252	187	223
1675	253	193	224
1676	255	202	227
1677	255	207	227
1678	250	205	223
1679	0	0	0
1680	0	0	0
1681	0	0	0
1682	0	0	0
1683	0	0	0
1684	0	0	0
1685	0	0	0
1686	0	0	0
1687	0	0	0
1688	0	0	0
1689	0	0	0
1690	0	0	0
1691	0	0	0
1692	0	0	0
1693	0	0	0
1694	0	0	0
1695	0	0	0
1696	245	204	236
1697	239	189	231
1698	244	189	235
1699	245	184	233
1700	255	191	237
1701	255	191	232
1702	253	180	225
1703	247	169	221
1704	249	173	227
1705	249	174	226
1706	255	183	230
1707	255	188	230
1708	253	184	225
1709	245	177	217
1710	251	189	225
1711	255	199	230
1712	250	198	225
1713	0	0	0
1714	0	0	0
1715	0	0	0
1716	0	0	0
1717	0	0	0
1718	0	0	0
1719	0	0	0
1720	0	0	0
1721	0	0	0
1722	0	0	0
1723	0	0	0
1724	0	0	0
1725	0	0	0
1726	0	0	0
1727	0	0	0
1728	0	0	0
1729	0	0	0
1730	0	0	0
1731	0	0	0
1732	244	210	241
1733	255	214	248
1734	250	196	238
1735	255	203	243
1736	253	187	228
1737	249	177	222
1738	247	173	224
1739	248	177	228
1740	247	178	227
1741	255	188	232
1742	255	190	230
1743	254	187	226
1744	248	180	221
1745	255	194	229
1746	255	201	232
1747	0	0	0
1748	0	0	0
1749	0	0	0
1750	0	0	0
1751	0	0	0
1752	0	0	0
1753	0	0	0
1754	0	0	0
1755	0	0	0
1756	0	0	0
1757	0	0	0
1758	0	0	0
1759	0	0	0
1760	0	0	0
1761	0	0	0
1762	0	0	0
1763	0	0	0
1764	0	0	0
1765	0	0	0
1766	0	0	0
1767	255	235	251
1768	255	221	246
1769	251	203	235
1770	253	196	233
1771	247	182	226
1772	252	184	229
1773	249	179	227
1774	250	184	231
1775	251	185	232
1776	255	190	234
1777	255	191	229
1778	253	187	225
1779	248	182	221
1780	254	194	228
1781	255	200	228
1782	255	212	231
1783	0	0	0
1784	0	0	0
1785	0	0	0
1786	0	0	0
1787	0	0	0
1788	0	0	0
1789	0	0	0
1790	0	0	0
1791	0	0	0
1792	0	0	0
1793	0	0	0
1794	0	0	0
1795	0	0	0
1796	0	0	0
1797	0	0	0
1798	0	0	0
1799	0	0	0
1800	0	0	0
1801	0	0	0
1802	255	239	250
1803	254	222	242
1804	249	206	234
1805	251	199	234
1806	246	185	229
1807	253	189	234
1808	251	184	230
1809	255	190	235
1810	253	186	233
1811	255	189	233
1812	255	190	228
1813	252	187	224
1814	251	186	224
1815	255	198	231
1816	253	197	225
1817	255	208	229
1818	255	211	227
1819	0	0	0
1820	0	0	0
1821	0	0	0
1822	0	0	0
1823	0	0	0
1824	0	0	0
1825	0	0	0
1826	0	0	0
1827	0	0	0
1828	0	0	0
1829	0	0	0
1830	0	0	0
1831	0	0	0
1832	0	0	0
1833	0	0	0
1834	0	0	0
1835	0	0	0
1836	0	0	0
1837	0	0	0
1838	251	223	240
1839	245	208	234
1840	245	198	233
1841	241	185	228
1842	250	190	235
1843	250	185	231
1844	253	187	232
1845	250	182	228
1846	253	187	229
1847	254	189	227
1848	255	191	227
1849	253	190	226
1850	254	194	228
1851	250	193	225
1852	250	198	225
1853	0	0	0
1854	0	0	0
1855	0	0	0
1856	0	0	0
1857	0	0	0
1858	0	0	0
1859	0	0	0
1860	0	0	0
1861	0	0	0
1862	0	0	0
1863	0	0	0
1864	0	0	0
1865	0	0	0
1866	0	0	0
1867	0	0	0
1868	0	0	0
1869	0	0	0
1870	0	0	0
1871	0	0	0
1872	0	0	0
1873	0	0	0
1874	0	0	0
1875	0	0	0
1876	250	203	240
1877	255	208	246
1878	246	184	230
1879	250	187	231
1880	252	188	230
1881	255	194	232
1882	254	191	228
1883	255	193	229
1884	252	190	225
1885	253	194	228
1886	251	196	230
1887	252	201	230
1888	0	0	0
1889	0	0	0
1890	0	0	0
1891	0	0	0
1892	0	0	0
1893	0	0	0
1894	0	0	0
1895	0	0	0
1896	0	0	0
1897	0	0	0
1898	0	0	0
1899	0	0	0
1900	0	0	0
1901	0	0	0
1902	0	0	0
1903	0	0	0
1904	0	0	0
1905	0	0	0
1906	0	0	0
1907	0	0	0
1908	0	0	0
1909	0	0	0
1910	0	0	0
1911	255	218	245
1912	250	202	238
1913	239	180	224
1914	251	191	233
1915	254	194	234
1916	255	194	232
1917	253	191	229
1918	253	191	227
1919	249	188	222
1920	251	193	225
1921	251	197	231
1922	255	210	238
1923	255	220	237
1924	255	217	231
1925	0	0	0
1926	0	0	0
1927	0	0	0
1928	0	0	0
1929	0	0	0
1930	0	0	0
1931	0	0	0
1932	0	0	0
1933	0	0	0
1934	0	0	0
1935	0	0	0
1936	0	0	0
1937	0	0	0
1938	0	0	0
1939	0	0	0
1940	0	0	0
1941	0	0	0
1942	0	0	0
1943	0	0	0
1944	0	0	0
1945	0	0	0
1946	255	228	246
1947	255	213	241
1948	246	193	231
1949	255	205	242
1950	250	191	231
1951	252	192	230
1952	255	196	232
1953	255	196	230
1954	249	189	222
1955	249	194	224
1956	253	203	233
1957	255	216	240
1958	255	215	232
1959	251	212	227
1960	254	222	234
1961	0	0	0
1962	0	0	0
1963	0	0	0
1964	0	0	0
1965	0	0	0
1966	0	0	0
1967	0	0	0
1968	0	0	0
1969	0	0	0
1970	0	0	0
1971	0	0	0
1972	0	0	0
1973	0	0	0
1974	0	0	0
1975	0	0	0
1976	0	0	0
1977	0	0	0
1978	0	0	0
1979	0	0	0
1980	0	0	0
1981	0	0	0
1982	254	220	239
1983	248	202	233
1984	250	198	234
1985	242	184	223
1986	250	193	230
1987	254	197	233
1988	253	196	230
1989	247	190	221
1990	252	200	226
1991	255	208	231
1992	255	212	232
1993	253	212	229
1994	255	221	233
1995	255	229	238
1996	0	0	0
1997	0	0	0
1998	0	0	0
1999	0	0	0
2000	0	0	0
2001	0	0	0
2002	0	0	0
2003	0	0	0
2004	0	0	0
2005	0	0	0
2006	0	0	0
2007	0	0	0
2008	0	0	0
2009	0	0	0
2010	0	0	0
2011	0	0	0
2012	0	0	0
2013	0	0	0
2014	0	0	0
2015	0	0	0
2016	0	0	0
2017	0	0	0
2018	250	213	238
2019	254	211	241
2020	248	197	231
2021	255	206	238
2022	254	200	233
2023	253	199	230
2024	252	199	226
2025	255	209	231
2026	253	205	227
2027	253	209	229
2028	253	212	230
2029	255	220	234
2030	255	226	236
2031	0	0	0
2032	0	0	0
2033	0	0	0
2034	0	0	0
2035	0	0	0
2036	0	0	0
2037	0	0	0
2038	0	0	0
2039	0	0	0
2040	0	0	0
2041	0	0	0
2042	0	0	0
2043	0	0	0
2044	0	0	0
2045	0	0	0
2046	0	0	0
2047	0	0	0
2048	0	0	0
2049	0	0	0
2050	0	0	0
2051	0	0	0
2052	0	0	0
2053	255	227	245
2054	255	220	244
2055	252	207	236
2056	255	208	238
2057	253	201	231
2058	255	206	232
2059	255	207	230
2060	255	206	228
2061	250	202	224
2062	252	208	227
2063	251	211	230
2064	252	217	233
2065	0	0	0
2066	0	0	0
2067	0	0	0
2068	0	0	0
2069	0	0	0
2070	0	0	0
2071	0	0	0
2072	0	0	0
2073	0	0	0
2074	0	0	0
2075	0	0	0
2076	0	0	0
2077	0	0	0
2078	0	0	0
2079	0	0	0
2080	0	0	0
2081	0	0	0
2082	0	0	0
2083	0	0	0
2084	0	0	0
2085	0	0	0
2086	0	0	0
2087	0	0	0
2088	255	236	248
2089	255	228	246
2090	250	207	234
2091	255	208	236
2092	249	198	228
2093	254	204	230
2094	254	204	227
2095	252	204	225
2096	0	0	0
2097	0	0	0
2098	253	215	233
2099	0	0	0
2100	0	0	0
2101	0	0	0
2102	0	0	0
2103	0	0	0
2104	0	0	0
2105	0	0	0
2106	0	0	0
2107	0	0	0
2108	0	0	0
2109	0	0	0
2110	0	0	0
2111	0	0	0
2112	0	0	0
2113	0	0	0
2114	0	0	0
2115	0	0	0
2116	0	0	0
2117	0	0	0
2118	0	0	0
2119	0	0	0
2120	0	0	0
2121	0	0	0
2122	0	0	0
2123	0	0	0
2124	255	226	240
2125	246	205	231
2126	250	205	234
2127	246	196	227
2128	252	203	230
2129	252	203	227
2130	255	209	229
2131	255	211	232
2132	0	0	0
2133	0	0	0
2134	0	0	0
2135	0	0	0
2136	0	0	0
2137	0	0	0
2138	0	0	0
2139	0	0	0
2140	0	0	0
2141	0	0	0
2142	0	0	0
2143	0	0	0
2144	0	0	0
2145	0	0	0
2146	0	0	0
2147	0	0	0
2148	0	0	0
2149	0	0	0
2150	0	0	0
2151	0	0	0
2152	0	0	0
2153	0	0	0
2154	0	0	0
2155	0	0	0
2156	0	0	0
2157	0	0	0
2158	0	0	0
2159	0	0	0
2160	252	217	239
2161	255	217	243
2162	248	200	231
2163	255	208	235
2164	250	200	226
2165	252	205	228
2166	252	207	230
2167	0	0	0
2168	0	0	0
2169	0	0	0
2170	0	0	0
2171	0	0	0
2172	0	0	0
2173	0	0	0
2174	0	0	0
2175	0	0	0
2176	0	0	0
2177	0	0	0
2178	0	0	0
2179	0	0	0
2180	0	0	0
2181	0	0	0
2182	0	0	0
2183	0	0	0
2184	0	0	0
2185	0	0	0
2186	0	0	0
2187	0	0	0
2188	0	0	0
2189	0	0	0
2190	0	0	0
2191	0	0	0
2192	0	0	0
2193	0	0	0
2194	0	0	0
2195	0	0	0
2196	254	217	243
2197	244	199	230
2198	248	200	230
2199	0	0	0
2200	248	200	226
2201	0	0	0
2202	0	0	0
2203	0	0	0
2204	0	0	0
2205	0	0	0
