 	R	G	B
1	0	0	0
2	0	0	0
3	0	0	0
4	0	0	0
5	0	0	0
6	252	228	234
7	0	0	0
8	0	0	0
9	0	0	0
10	0	0	0
11	0	0	0
12	0	0	0
13	0	0	0
14	0	0	0
15	0	0	0
16	0	0	0
17	0	0	0
18	0	0	0
19	0	0	0
20	249	221	229
21	255	228	236
22	251	222	231
23	0	0	0
24	0	0	0
25	0	0	0
26	0	0	0
27	0	0	0
28	0	0	0
29	0	0	0
30	0	0	0
31	0	0	0
32	0	0	0
33	0	0	0
34	0	0	0
35	250	219	231
36	252	218	231
37	246	211	224
38	252	221	231
39	255	229	238
40	0	0	0
41	0	0	0
42	0	0	0
43	0	0	0
44	0	0	0
45	0	0	0
46	0	0	0
47	0	0	0
48	0	0	0
49	0	0	0
50	254	225	236
51	255	225	237
52	251	213	227
53	255	224	235
54	253	214	230
55	250	209	227
56	252	214	231
57	0	0	0
58	0	0	0
59	0	0	0
60	0	0	0
61	0	0	0
62	255	237	244
63	253	228	237
64	255	230	238
65	255	232	240
66	255	224	235
67	254	213	228
68	254	209	228
69	248	199	223
70	255	211	233
71	255	215	235
72	255	218	235
73	0	0	0
74	0	0	0
75	0	0	0
76	255	240	246
77	255	233	242
78	251	221	233
79	255	224	235
80	255	224	235
81	255	216	230
82	255	211	229
83	255	208	231
84	246	191	222
85	255	203	232
86	250	198	227
87	249	201	228
88	253	215	236
89	0	0	0
90	0	0	0
91	0	0	0
92	249	222	234
93	245	211	227
94	252	215	230
95	255	216	230
96	255	212	229
97	255	209	231
98	253	198	227
99	242	179	217
100	246	184	223
101	242	181	222
102	252	199	233
103	253	211	236
104	0	0	0
105	0	0	0
106	0	0	0
107	0	0	0
108	251	219	232
109	255	224	237
110	255	214	231
111	255	211	232
112	254	200	228
113	251	189	225
114	243	176	220
115	246	181	226
116	247	185	230
117	255	202	240
118	247	199	232
119	0	0	0
120	0	0	0
121	0	0	0
122	255	233	241
123	255	225	235
124	255	218	233
125	255	210	230
126	252	199	227
127	248	188	223
128	244	180	222
129	238	169	220
130	246	180	230
131	246	182	231
132	250	190	236
133	241	188	230
134	0	0	0
135	0	0	0
136	253	237	243
137	255	233	242
138	251	215	230
139	250	208	228
140	255	209	233
141	255	200	231
142	246	185	224
143	238	175	221
144	238	175	226
145	250	188	238
146	245	181	231
147	250	189	237
148	237	182	230
149	0	0	0
150	0	0	0
151	0	0	0
152	248	219	233
153	243	202	224
154	249	204	229
155	255	206	233
156	253	196	231
157	243	181	224
158	242	183	228
159	242	182	232
160	249	185	236
161	246	179	232
162	249	185	236
163	235	177	228
164	0	0	0
165	0	0	0
166	0	0	0
167	0	0	0
168	252	216	234
169	255	219	241
170	252	202	233
171	249	191	231
172	242	179	227
173	242	181	231
174	243	179	232
175	252	184	238
176	247	175	232
177	247	179	234
178	232	170	225
179	0	0	0
180	0	0	0
181	0	0	0
182	0	0	0
183	255	224	237
184	248	207	230
185	241	191	227
186	243	186	232
187	238	176	229
188	239	177	232
189	241	175	232
190	249	176	236
191	243	167	229
192	241	172	230
193	226	163	222
194	0	0	0
195	0	0	0
196	0	0	0
197	0	0	0
198	251	222	233
199	239	203	225
200	237	194	229
201	242	191	236
202	240	182	235
203	246	185	241
204	239	171	234
205	244	171	236
206	237	163	228
207	232	166	228
208	223	164	224
209	0	0	0
210	0	0	0
211	0	0	0
212	0	0	0
213	250	222	234
214	241	208	229
215	238	198	233
216	241	193	237
217	239	184	235
218	236	174	234
219	231	161	230
220	238	166	236
221	231	158	229
222	234	170	234
223	226	168	229
224	245	202	245
225	0	0	0
226	0	0	0
227	0	0	0
228	248	221	235
229	244	210	233
230	242	200	235
231	240	193	236
232	239	186	236
233	235	176	234
234	232	167	234
235	239	172	242
236	232	161	233
237	239	175	242
238	218	153	222
239	234	185	236
240	0	0	0
241	0	0	0
242	0	0	0
243	249	221	238
244	247	212	237
245	245	202	237
246	245	197	239
247	243	190	238
248	240	182	238
249	236	173	239
250	237	171	242
251	229	159	234
252	224	155	231
253	205	135	214
254	236	185	242
255	254	224	253
256	0	0	0
257	0	0	0
258	252	224	241
259	251	214	239
260	251	206	240
261	252	202	242
262	247	189	237
263	245	182	238
264	242	175	241
265	241	172	244
266	228	157	234
267	220	151	230
268	215	150	228
269	251	204	255
270	247	211	247
271	0	0	0
272	0	0	0
273	249	222	237
274	249	213	236
275	249	205	237
276	249	196	237
277	244	184	232
278	243	179	235
279	241	173	237
280	238	167	239
281	227	154	233
282	231	166	243
283	227	165	240
284	245	192	254
285	243	200	246
286	0	0	0
287	0	0	0
288	246	226	238
289	247	217	236
290	246	206	236
291	247	198	236
292	243	186	232
293	241	180	233
294	243	179	238
295	244	176	243
296	230	155	234
297	238	170	247
298	227	158	238
299	244	184	252
300	240	190	245
301	0	0	0
302	0	0	0
303	248	231	242
304	247	219	238
305	246	208	238
306	249	202	240
307	245	190	234
308	248	190	238
309	251	189	242
310	246	176	240
311	234	156	233
312	236	161	241
313	225	150	233
314	237	172	245
315	232	177	240
316	0	0	0
317	0	0	0
318	253	237	247
319	253	225	243
320	250	211	241
321	250	204	241
322	243	186	233
323	249	188	239
324	250	182	239
325	244	168	235
326	242	162	238
327	245	167	247
328	224	143	231
329	230	162	241
330	231	179	242
331	0	0	0
332	0	0	0
333	255	241	248
334	252	225	242
335	249	210	239
336	244	196	236
337	237	179	231
338	244	179	237
339	244	172	236
340	246	170	239
341	243	163	240
342	235	154	239
343	213	130	223
344	227	162	241
345	229	179	243
346	0	0	0
347	0	0	0
348	253	242	248
349	250	226	242
350	252	217	242
351	248	204	240
352	242	188	238
353	246	187	244
354	241	173	239
355	243	171	242
356	233	156	237
357	223	146	233
358	213	139	228
359	231	172	248
360	232	184	246
361	0	0	0
362	0	0	0
363	0	0	0
364	253	232	245
365	252	222	243
366	244	205	236
367	239	189	235
368	240	182	239
369	235	170	237
370	233	162	238
371	223	147	233
372	222	152	238
373	212	144	230
374	228	172	245
375	230	185	243
376	0	0	0
377	0	0	0
378	0	0	0
379	251	231	244
380	250	225	243
381	238	205	234
382	241	200	240
383	247	195	246
384	242	181	244
385	238	172	245
386	229	161	242
387	229	166	247
388	216	154	236
389	232	183	250
390	229	184	242
391	0	0	0
392	0	0	0
393	0	0	0
394	249	234	246
395	248	227	246
396	240	215	242
397	242	209	245
398	247	201	249
399	242	187	245
400	240	182	248
401	231	170	244
402	229	172	247
403	219	162	238
404	227	178	246
405	225	180	240
406	0	0	0
407	0	0	0
408	0	0	0
409	0	0	0
410	247	236	249
411	0	0	0
412	245	221	251
413	249	212	253
414	236	185	241
415	233	180	244
416	229	174	243
417	232	177	248
418	225	171	243
419	234	188	252
420	225	181	240
421	0	0	0
422	0	0	0
423	0	0	0
424	0	0	0
425	0	0	0
426	0	0	0
427	0	0	0
428	239	207	243
429	226	181	235
430	232	183	245
431	230	178	244
432	236	184	251
433	230	178	246
434	231	184	247
435	222	178	236
436	0	0	0
437	0	0	0
438	0	0	0
439	0	0	0
440	0	0	0
441	0	0	0
442	0	0	0
443	0	0	0
444	235	203	246
445	247	209	255
446	236	188	249
447	244	194	255
448	233	181	245
449	231	186	246
450	227	186	241
451	0	0	0
452	0	0	0
453	0	0	0
454	0	0	0
455	0	0	0
456	0	0	0
457	0	0	0
458	0	0	0
459	0	0	0
460	240	208	251
461	230	187	241
462	235	188	246
463	227	178	238
464	233	191	246
465	0	0	0
466	0	0	0
467	0	0	0
468	0	0	0
469	0	0	0
470	0	0	0
471	0	0	0
472	0	0	0
473	0	0	0
474	0	0	0
475	0	0	0
476	0	0	0
477	239	206	250
478	234	196	245
479	0	0	0
480	0	0	0
