 	R	G	B
1	0	0	0
2	0	0	0
3	0	0	0
4	0	0	0
5	0	0	0
6	0	0	0
7	0	0	0
8	250	220	239
9	0	0	0
10	0	0	0
11	0	0	0
12	0	0	0
13	0	0	0
14	0	0	0
15	0	0	0
16	0	0	0
17	0	0	0
18	0	0	0
19	0	0	0
20	0	0	0
21	0	0	0
22	0	0	0
23	0	0	0
24	0	0	0
25	0	0	0
26	0	0	0
27	0	0	0
28	0	0	0
29	0	0	0
30	0	0	0
31	0	0	0
32	0	0	0
33	0	0	0
34	0	0	0
35	0	0	0
36	0	0	0
37	0	0	0
38	0	0	0
39	0	0	0
40	0	0	0
41	0	0	0
42	0	0	0
43	0	0	0
44	0	0	0
45	0	0	0
46	0	0	0
47	0	0	0
48	0	0	0
49	0	0	0
50	0	0	0
51	0	0	0
52	0	0	0
53	0	0	0
54	0	0	0
55	0	0	0
56	0	0	0
57	0	0	0
58	0	0	0
59	0	0	0
60	0	0	0
61	0	0	0
62	247	222	237
63	255	234	248
64	248	214	234
65	0	0	0
66	246	217	234
67	0	0	0
68	0	0	0
69	0	0	0
70	0	0	0
71	0	0	0
72	0	0	0
73	0	0	0
74	0	0	0
75	0	0	0
76	0	0	0
77	0	0	0
78	0	0	0
79	0	0	0
80	0	0	0
81	0	0	0
82	0	0	0
83	0	0	0
84	0	0	0
85	0	0	0
86	0	0	0
87	0	0	0
88	0	0	0
89	0	0	0
90	0	0	0
91	0	0	0
92	0	0	0
93	0	0	0
94	0	0	0
95	0	0	0
96	0	0	0
97	0	0	0
98	0	0	0
99	0	0	0
100	0	0	0
101	0	0	0
102	0	0	0
103	0	0	0
104	0	0	0
105	0	0	0
106	0	0	0
107	0	0	0
108	0	0	0
109	0	0	0
110	0	0	0
111	0	0	0
112	0	0	0
113	0	0	0
114	0	0	0
115	0	0	0
116	251	230	239
117	255	235	242
118	254	223	236
119	243	205	226
120	247	212	233
121	245	211	232
122	252	226	240
123	0	0	0
124	0	0	0
125	0	0	0
126	0	0	0
127	0	0	0
128	0	0	0
129	0	0	0
130	0	0	0
131	0	0	0
132	0	0	0
133	0	0	0
134	0	0	0
135	0	0	0
136	0	0	0
137	0	0	0
138	0	0	0
139	0	0	0
140	0	0	0
141	0	0	0
142	0	0	0
143	0	0	0
144	0	0	0
145	0	0	0
146	0	0	0
147	0	0	0
148	0	0	0
149	0	0	0
150	0	0	0
151	0	0	0
152	0	0	0
153	0	0	0
154	0	0	0
155	0	0	0
156	0	0	0
157	0	0	0
158	0	0	0
159	0	0	0
160	0	0	0
161	0	0	0
162	0	0	0
163	0	0	0
164	0	0	0
165	0	0	0
166	0	0	0
167	0	0	0
168	0	0	0
169	0	0	0
170	254	232	241
171	255	239	246
172	252	222	233
173	243	207	224
174	246	209	229
175	253	217	238
176	246	209	231
177	253	223	239
178	250	227	237
179	0	0	0
180	0	0	0
181	0	0	0
182	0	0	0
183	0	0	0
184	0	0	0
185	0	0	0
186	0	0	0
187	0	0	0
188	0	0	0
189	0	0	0
190	0	0	0
191	0	0	0
192	0	0	0
193	0	0	0
194	0	0	0
195	0	0	0
196	0	0	0
197	0	0	0
198	0	0	0
199	0	0	0
200	0	0	0
201	0	0	0
202	0	0	0
203	0	0	0
204	0	0	0
205	0	0	0
206	0	0	0
207	0	0	0
208	0	0	0
209	0	0	0
210	0	0	0
211	0	0	0
212	0	0	0
213	0	0	0
214	0	0	0
215	0	0	0
216	0	0	0
217	0	0	0
218	0	0	0
219	0	0	0
220	0	0	0
221	0	0	0
222	251	236	240
223	254	237	241
224	254	236	240
225	255	237	242
226	252	223	234
227	244	208	225
228	247	211	229
229	250	213	233
230	251	213	235
231	243	204	227
232	248	215	234
233	246	219	233
234	0	0	0
235	0	0	0
236	0	0	0
237	0	0	0
238	0	0	0
239	0	0	0
240	0	0	0
241	0	0	0
242	0	0	0
243	0	0	0
244	0	0	0
245	0	0	0
246	0	0	0
247	0	0	0
248	0	0	0
249	0	0	0
250	0	0	0
251	0	0	0
252	0	0	0
253	0	0	0
254	0	0	0
255	0	0	0
256	0	0	0
257	0	0	0
258	0	0	0
259	0	0	0
260	0	0	0
261	0	0	0
262	0	0	0
263	0	0	0
264	0	0	0
265	0	0	0
266	0	0	0
267	0	0	0
268	0	0	0
269	0	0	0
270	0	0	0
271	0	0	0
272	0	0	0
273	0	0	0
274	0	0	0
275	0	0	0
276	244	234	238
277	251	238	242
278	248	231	236
279	251	231	237
280	254	231	238
281	246	216	229
282	249	216	231
283	255	220	236
284	252	213	233
285	251	212	234
286	240	199	225
287	245	210	231
288	247	217	233
289	0	0	0
290	0	0	0
291	0	0	0
292	0	0	0
293	0	0	0
294	0	0	0
295	0	0	0
296	0	0	0
297	0	0	0
298	0	0	0
299	0	0	0
300	0	0	0
301	0	0	0
302	0	0	0
303	0	0	0
304	0	0	0
305	0	0	0
306	0	0	0
307	0	0	0
308	0	0	0
309	0	0	0
310	0	0	0
311	0	0	0
312	0	0	0
313	0	0	0
314	0	0	0
315	0	0	0
316	0	0	0
317	0	0	0
318	0	0	0
319	0	0	0
320	0	0	0
321	0	0	0
322	0	0	0
323	0	0	0
324	0	0	0
325	0	0	0
326	0	0	0
327	0	0	0
328	0	0	0
329	0	0	0
330	0	0	0
331	247	237	241
332	246	232	239
333	244	225	234
334	248	225	235
335	251	226	236
336	253	224	235
337	255	224	235
338	255	219	233
339	251	212	230
340	248	206	229
341	239	195	224
342	247	209	233
343	248	216	233
344	0	0	0
345	0	0	0
346	0	0	0
347	0	0	0
348	0	0	0
349	0	0	0
350	0	0	0
351	0	0	0
352	0	0	0
353	0	0	0
354	0	0	0
355	0	0	0
356	0	0	0
357	0	0	0
358	0	0	0
359	0	0	0
360	0	0	0
361	0	0	0
362	0	0	0
363	0	0	0
364	0	0	0
365	0	0	0
366	0	0	0
367	0	0	0
368	0	0	0
369	0	0	0
370	0	0	0
371	0	0	0
372	0	0	0
373	0	0	0
374	0	0	0
375	0	0	0
376	0	0	0
377	0	0	0
378	0	0	0
379	0	0	0
380	0	0	0
381	0	0	0
382	0	0	0
383	0	0	0
384	0	0	0
385	0	0	0
386	0	0	0
387	251	235	242
388	250	230	239
389	252	230	239
390	252	226	236
391	255	225	236
392	255	220	233
393	254	215	230
394	249	207	227
395	247	203	228
396	242	196	227
397	250	210	236
398	248	212	231
399	252	221	234
400	0	0	0
401	0	0	0
402	0	0	0
403	0	0	0
404	0	0	0
405	0	0	0
406	0	0	0
407	0	0	0
408	0	0	0
409	0	0	0
410	0	0	0
411	0	0	0
412	0	0	0
413	0	0	0
414	0	0	0
415	0	0	0
416	0	0	0
417	0	0	0
418	0	0	0
419	0	0	0
420	0	0	0
421	0	0	0
422	0	0	0
423	0	0	0
424	0	0	0
425	0	0	0
426	0	0	0
427	0	0	0
428	0	0	0
429	0	0	0
430	0	0	0
431	0	0	0
432	0	0	0
433	0	0	0
434	0	0	0
435	0	0	0
436	0	0	0
437	0	0	0
438	0	0	0
439	0	0	0
440	0	0	0
441	250	240	241
442	252	237	241
443	252	232	240
444	253	229	239
445	252	224	235
446	254	221	233
447	254	218	232
448	252	211	230
449	249	203	228
450	250	202	231
451	244	195	228
452	249	204	233
453	247	206	229
454	251	216	233
455	250	222	232
456	0	0	0
457	0	0	0
458	0	0	0
459	0	0	0
460	0	0	0
461	0	0	0
462	0	0	0
463	0	0	0
464	0	0	0
465	0	0	0
466	0	0	0
467	0	0	0
468	0	0	0
469	0	0	0
470	0	0	0
471	0	0	0
472	0	0	0
473	0	0	0
474	0	0	0
475	0	0	0
476	0	0	0
477	0	0	0
478	0	0	0
479	0	0	0
480	0	0	0
481	0	0	0
482	0	0	0
483	0	0	0
484	0	0	0
485	0	0	0
486	0	0	0
487	0	0	0
488	0	0	0
489	0	0	0
490	0	0	0
491	0	0	0
492	0	0	0
493	0	0	0
494	0	0	0
495	0	0	0
496	251	242	242
497	253	238	241
498	251	230	238
499	253	228	238
500	253	223	234
501	253	220	232
502	253	215	231
503	252	209	230
504	251	203	229
505	252	202	232
506	248	197	230
507	253	206	235
508	251	208	232
509	254	218	235
510	246	213	228
511	0	0	0
512	0	0	0
513	0	0	0
514	0	0	0
515	0	0	0
516	0	0	0
517	0	0	0
518	0	0	0
519	0	0	0
520	0	0	0
521	0	0	0
522	0	0	0
523	0	0	0
524	0	0	0
525	0	0	0
526	0	0	0
527	0	0	0
528	0	0	0
529	0	0	0
530	0	0	0
531	0	0	0
532	0	0	0
533	0	0	0
534	0	0	0
535	0	0	0
536	0	0	0
537	0	0	0
538	0	0	0
539	0	0	0
540	0	0	0
541	0	0	0
542	0	0	0
543	0	0	0
544	0	0	0
545	0	0	0
546	0	0	0
547	0	0	0
548	0	0	0
549	0	0	0
550	0	0	0
551	255	247	246
552	253	238	242
553	252	229	238
554	255	227	239
555	255	223	235
556	252	217	231
557	252	212	232
558	254	209	232
559	252	202	228
560	255	204	232
561	253	200	232
562	255	208	237
563	255	210	232
564	250	209	229
565	244	206	226
566	252	223	235
567	0	0	0
568	0	0	0
569	0	0	0
570	0	0	0
571	0	0	0
572	0	0	0
573	0	0	0
574	0	0	0
575	0	0	0
576	0	0	0
577	0	0	0
578	0	0	0
579	0	0	0
580	0	0	0
581	0	0	0
582	0	0	0
583	0	0	0
584	0	0	0
585	0	0	0
586	0	0	0
587	0	0	0
588	0	0	0
589	0	0	0
590	0	0	0
591	0	0	0
592	0	0	0
593	0	0	0
594	0	0	0
595	0	0	0
596	0	0	0
597	0	0	0
598	0	0	0
599	0	0	0
600	0	0	0
601	0	0	0
602	0	0	0
603	0	0	0
604	0	0	0
605	0	0	0
606	254	243	244
607	254	235	241
608	254	228	238
609	255	226	239
610	253	218	233
611	249	210	229
612	255	215	235
613	255	212	236
614	248	193	224
615	251	195	228
616	251	193	230
617	255	202	236
618	249	196	226
619	243	195	222
620	246	204	228
621	255	222	238
622	253	226	234
623	0	0	0
624	0	0	0
625	0	0	0
626	0	0	0
627	0	0	0
628	0	0	0
629	0	0	0
630	0	0	0
631	0	0	0
632	0	0	0
633	0	0	0
634	0	0	0
635	0	0	0
636	0	0	0
637	0	0	0
638	0	0	0
639	0	0	0
640	0	0	0
641	0	0	0
642	0	0	0
643	0	0	0
644	0	0	0
645	0	0	0
646	0	0	0
647	0	0	0
648	0	0	0
649	0	0	0
650	0	0	0
651	0	0	0
652	0	0	0
653	0	0	0
654	0	0	0
655	0	0	0
656	0	0	0
657	0	0	0
658	0	0	0
659	0	0	0
660	0	0	0
661	253	240	244
662	255	234	242
663	255	226	239
664	253	219	235
665	250	211	230
666	251	212	232
667	255	216	237
668	250	200	230
669	241	182	222
670	245	186	227
671	245	184	227
672	248	187	229
673	242	183	222
674	246	194	227
675	249	204	232
676	253	212	235
677	250	216	231
678	0	0	0
679	0	0	0
680	0	0	0
681	0	0	0
682	0	0	0
683	0	0	0
684	0	0	0
685	0	0	0
686	0	0	0
687	0	0	0
688	0	0	0
689	0	0	0
690	0	0	0
691	0	0	0
692	0	0	0
693	0	0	0
694	0	0	0
695	0	0	0
696	0	0	0
697	0	0	0
698	0	0	0
699	0	0	0
700	0	0	0
701	0	0	0
702	0	0	0
703	0	0	0
704	0	0	0
705	0	0	0
706	0	0	0
707	0	0	0
708	0	0	0
709	0	0	0
710	0	0	0
711	0	0	0
712	0	0	0
713	0	0	0
714	0	0	0
715	0	0	0
716	0	0	0
717	254	229	241
718	252	220	236
719	248	212	232
720	252	215	235
721	255	217	238
722	255	213	237
723	248	196	229
724	245	190	230
725	249	193	236
726	247	188	234
727	254	194	237
728	246	185	227
729	251	197	232
730	248	197	231
731	253	206	234
732	252	213	232
733	0	0	0
734	0	0	0
735	0	0	0
736	0	0	0
737	0	0	0
738	0	0	0
739	0	0	0
740	0	0	0
741	0	0	0
742	0	0	0
743	0	0	0
744	0	0	0
745	0	0	0
746	0	0	0
747	0	0	0
748	0	0	0
749	0	0	0
750	0	0	0
751	0	0	0
752	0	0	0
753	0	0	0
754	0	0	0
755	0	0	0
756	0	0	0
757	0	0	0
758	0	0	0
759	0	0	0
760	0	0	0
761	0	0	0
762	0	0	0
763	0	0	0
764	0	0	0
765	0	0	0
766	0	0	0
767	0	0	0
768	0	0	0
769	0	0	0
770	0	0	0
771	0	0	0
772	0	0	0
773	246	213	234
774	250	215	238
775	253	217	240
776	250	210	236
777	249	206	233
778	249	200	233
779	248	194	234
780	249	194	238
781	248	190	237
782	252	190	237
783	244	181	225
784	243	185	225
785	242	187	225
786	252	202	233
787	252	209	230
788	255	223	234
789	0	0	0
790	0	0	0
791	0	0	0
792	0	0	0
793	0	0	0
794	0	0	0
795	0	0	0
796	0	0	0
797	0	0	0
798	0	0	0
799	0	0	0
800	0	0	0
801	0	0	0
802	0	0	0
803	0	0	0
804	0	0	0
805	0	0	0
806	0	0	0
807	0	0	0
808	0	0	0
809	0	0	0
810	0	0	0
811	0	0	0
812	0	0	0
813	0	0	0
814	0	0	0
815	0	0	0
816	0	0	0
817	0	0	0
818	0	0	0
819	0	0	0
820	0	0	0
821	0	0	0
822	0	0	0
823	0	0	0
824	0	0	0
825	0	0	0
826	0	0	0
827	0	0	0
828	0	0	0
829	255	225	246
830	247	213	238
831	239	203	230
832	249	212	237
833	254	210	239
834	251	198	237
835	253	198	241
836	247	187	236
837	249	187	235
838	245	183	228
839	245	188	228
840	244	190	228
841	255	206	237
842	246	198	224
843	247	211	227
844	252	228	233
845	0	0	0
846	0	0	0
847	0	0	0
848	0	0	0
849	0	0	0
850	0	0	0
851	0	0	0
852	0	0	0
853	0	0	0
854	0	0	0
855	0	0	0
856	0	0	0
857	0	0	0
858	0	0	0
859	0	0	0
860	0	0	0
861	0	0	0
862	0	0	0
863	0	0	0
864	0	0	0
865	0	0	0
866	0	0	0
867	0	0	0
868	0	0	0
869	0	0	0
870	0	0	0
871	0	0	0
872	0	0	0
873	0	0	0
874	0	0	0
875	0	0	0
876	0	0	0
877	0	0	0
878	0	0	0
879	0	0	0
880	0	0	0
881	0	0	0
882	0	0	0
883	0	0	0
884	0	0	0
885	243	208	233
886	247	214	238
887	255	224	245
888	255	213	242
889	253	201	239
890	248	192	236
891	242	181	230
892	247	186	234
893	245	184	231
894	247	190	233
895	246	191	229
896	248	193	229
897	238	185	220
898	244	204	227
899	249	221	232
900	0	0	0
901	0	0	0
902	0	0	0
903	0	0	0
904	0	0	0
905	0	0	0
906	0	0	0
907	0	0	0
908	0	0	0
909	0	0	0
910	0	0	0
911	0	0	0
912	0	0	0
913	0	0	0
914	0	0	0
915	0	0	0
916	0	0	0
917	0	0	0
918	0	0	0
919	0	0	0
920	0	0	0
921	0	0	0
922	0	0	0
923	0	0	0
924	0	0	0
925	0	0	0
926	0	0	0
927	0	0	0
928	0	0	0
929	0	0	0
930	0	0	0
931	0	0	0
932	0	0	0
933	0	0	0
934	0	0	0
935	0	0	0
936	0	0	0
937	0	0	0
938	0	0	0
939	0	0	0
940	250	215	238
941	255	226	247
942	254	213	239
943	248	199	232
944	248	196	234
945	242	187	230
946	245	190	233
947	253	196	239
948	247	186	233
949	251	193	237
950	244	184	227
951	243	185	225
952	243	191	225
953	252	212	235
954	250	218	232
955	253	229	235
956	0	0	0
957	0	0	0
958	0	0	0
959	0	0	0
960	0	0	0
961	0	0	0
962	0	0	0
963	0	0	0
964	0	0	0
965	0	0	0
966	0	0	0
967	0	0	0
968	0	0	0
969	0	0	0
970	0	0	0
971	0	0	0
972	0	0	0
973	0	0	0
974	0	0	0
975	0	0	0
976	0	0	0
977	0	0	0
978	0	0	0
979	0	0	0
980	0	0	0
981	0	0	0
982	0	0	0
983	0	0	0
984	0	0	0
985	0	0	0
986	0	0	0
987	0	0	0
988	0	0	0
989	0	0	0
990	0	0	0
991	0	0	0
992	0	0	0
993	0	0	0
994	251	224	241
995	252	220	241
996	249	209	235
997	243	196	229
998	246	196	231
999	245	192	231
1000	247	196	235
1001	251	199	238
1002	251	193	236
1003	246	184	232
1004	245	182	231
1005	239	175	223
1006	247	189	229
1007	248	195	229
1008	254	209	233
1009	254	217	232
1010	255	225	234
1011	0	0	0
1012	0	0	0
1013	0	0	0
1014	0	0	0
1015	0	0	0
1016	0	0	0
1017	0	0	0
1018	0	0	0
1019	0	0	0
1020	0	0	0
1021	0	0	0
1022	0	0	0
1023	0	0	0
1024	0	0	0
1025	0	0	0
1026	0	0	0
1027	0	0	0
1028	0	0	0
1029	0	0	0
1030	0	0	0
1031	0	0	0
1032	0	0	0
1033	0	0	0
1034	0	0	0
1035	0	0	0
1036	0	0	0
1037	0	0	0
1038	0	0	0
1039	0	0	0
1040	0	0	0
1041	0	0	0
1042	0	0	0
1043	0	0	0
1044	0	0	0
1045	0	0	0
1046	0	0	0
1047	0	0	0
1048	246	225	239
1049	248	223	239
1050	252	224	241
1051	247	211	235
1052	250	209	237
1053	254	209	240
1054	247	197	233
1055	250	200	237
1056	246	192	233
1057	246	186	232
1058	249	186	234
1059	248	185	233
1060	245	182	229
1061	255	197	237
1062	249	192	228
1063	255	207	234
1064	248	199	224
1065	251	209	226
1066	255	226	233
1067	0	0	0
1068	0	0	0
1069	0	0	0
1070	0	0	0
1071	0	0	0
1072	0	0	0
1073	0	0	0
1074	0	0	0
1075	0	0	0
1076	0	0	0
1077	0	0	0
1078	0	0	0
1079	0	0	0
1080	0	0	0
1081	0	0	0
1082	0	0	0
1083	0	0	0
1084	0	0	0
1085	0	0	0
1086	0	0	0
1087	0	0	0
1088	0	0	0
1089	0	0	0
1090	0	0	0
1091	0	0	0
1092	0	0	0
1093	0	0	0
1094	0	0	0
1095	0	0	0
1096	0	0	0
1097	0	0	0
1098	0	0	0
1099	0	0	0
1100	0	0	0
1101	0	0	0
1102	0	0	0
1103	244	226	239
1104	245	224	239
1105	250	225	241
1106	251	221	240
1107	253	218	240
1108	250	209	236
1109	244	197	231
1110	243	191	231
1111	242	184	231
1112	250	189	237
1113	251	188	235
1114	253	190	236
1115	251	187	234
1116	252	189	233
1117	246	185	224
1118	245	185	222
1119	238	179	217
1120	253	203	230
1121	255	219	231
1122	0	0	0
1123	0	0	0
1124	0	0	0
1125	0	0	0
1126	0	0	0
1127	0	0	0
1128	0	0	0
1129	0	0	0
1130	0	0	0
1131	0	0	0
1132	0	0	0
1133	0	0	0
1134	0	0	0
1135	0	0	0
1136	0	0	0
1137	0	0	0
1138	0	0	0
1139	0	0	0
1140	0	0	0
1141	0	0	0
1142	0	0	0
1143	0	0	0
1144	0	0	0
1145	0	0	0
1146	0	0	0
1147	0	0	0
1148	0	0	0
1149	0	0	0
1150	0	0	0
1151	0	0	0
1152	0	0	0
1153	0	0	0
1154	0	0	0
1155	0	0	0
1156	0	0	0
1157	0	0	0
1158	0	0	0
1159	242	224	238
1160	248	230	243
1161	253	228	243
1162	248	215	237
1163	241	204	231
1164	241	199	231
1165	246	197	234
1166	251	196	239
1167	255	200	245
1168	255	190	236
1169	255	192	238
1170	249	180	230
1171	249	182	230
1172	247	183	226
1173	244	183	224
1174	241	182	223
1175	255	207	237
1176	251	206	226
1177	0	0	0
1178	0	0	0
1179	0	0	0
1180	0	0	0
1181	0	0	0
1182	0	0	0
1183	0	0	0
1184	0	0	0
1185	0	0	0
1186	0	0	0
1187	0	0	0
1188	0	0	0
1189	0	0	0
1190	0	0	0
1191	0	0	0
1192	0	0	0
1193	0	0	0
1194	0	0	0
1195	0	0	0
1196	0	0	0
1197	0	0	0
1198	0	0	0
1199	0	0	0
1200	0	0	0
1201	0	0	0
1202	0	0	0
1203	0	0	0
1204	0	0	0
1205	0	0	0
1206	0	0	0
1207	0	0	0
1208	0	0	0
1209	0	0	0
1210	0	0	0
1211	0	0	0
1212	0	0	0
1213	0	0	0
1214	0	0	0
1215	248	235	245
1216	244	222	238
1217	239	210	233
1218	237	205	233
1219	240	201	233
1220	252	205	240
1221	255	204	243
1222	255	197	241
1223	254	187	233
1224	252	181	230
1225	245	171	225
1226	250	179	231
1227	248	181	228
1228	246	183	227
1229	243	182	226
1230	251	193	230
1231	245	192	221
1232	253	213	229
1233	0	0	0
1234	0	0	0
1235	0	0	0
1236	0	0	0
1237	0	0	0
1238	0	0	0
1239	0	0	0
1240	0	0	0
1241	0	0	0
1242	0	0	0
1243	0	0	0
1244	0	0	0
1245	0	0	0
1246	0	0	0
1247	0	0	0
1248	0	0	0
1249	0	0	0
1250	0	0	0
1251	0	0	0
1252	0	0	0
1253	0	0	0
1254	0	0	0
1255	0	0	0
1256	0	0	0
1257	0	0	0
1258	0	0	0
1259	0	0	0
1260	0	0	0
1261	0	0	0
1262	0	0	0
1263	0	0	0
1264	0	0	0
1265	0	0	0
1266	0	0	0
1267	0	0	0
1268	0	0	0
1269	0	0	0
1270	0	0	0
1271	0	0	0
1272	239	221	237
1273	244	219	241
1274	245	210	238
1275	255	214	246
1276	253	198	238
1277	253	192	235
1278	253	187	233
1279	251	181	230
1280	249	175	229
1281	255	186	237
1282	249	177	229
1283	246	179	229
1284	241	174	224
1285	248	184	229
1286	246	189	224
1287	255	210	231
1288	255	224	233
1289	0	0	0
1290	0	0	0
1291	0	0	0
1292	0	0	0
1293	0	0	0
1294	0	0	0
1295	0	0	0
1296	0	0	0
1297	0	0	0
1298	0	0	0
1299	0	0	0
1300	0	0	0
1301	0	0	0
1302	0	0	0
1303	0	0	0
1304	0	0	0
1305	0	0	0
1306	0	0	0
1307	0	0	0
1308	0	0	0
1309	0	0	0
1310	0	0	0
1311	0	0	0
1312	0	0	0
1313	0	0	0
1314	0	0	0
1315	0	0	0
1316	0	0	0
1317	0	0	0
1318	0	0	0
1319	0	0	0
1320	0	0	0
1321	0	0	0
1322	0	0	0
1323	0	0	0
1324	0	0	0
1325	0	0	0
1326	0	0	0
1327	0	0	0
1328	245	224	240
1329	247	215	239
1330	248	204	237
1331	244	189	231
1332	247	187	233
1333	248	183	231
1334	251	182	232
1335	249	176	228
1336	249	174	228
1337	242	166	224
1338	239	166	224
1339	233	161	219
1340	242	175	225
1341	241	180	221
1342	251	199	226
1343	254	213	227
1344	250	219	226
1345	0	0	0
1346	0	0	0
1347	0	0	0
1348	0	0	0
1349	0	0	0
1350	0	0	0
1351	0	0	0
1352	0	0	0
1353	0	0	0
1354	0	0	0
1355	0	0	0
1356	0	0	0
1357	0	0	0
1358	0	0	0
1359	0	0	0
1360	0	0	0
1361	0	0	0
1362	0	0	0
1363	0	0	0
1364	0	0	0
1365	0	0	0
1366	0	0	0
1367	0	0	0
1368	0	0	0
1369	0	0	0
1370	0	0	0
1371	0	0	0
1372	0	0	0
1373	0	0	0
1374	0	0	0
1375	0	0	0
1376	0	0	0
1377	0	0	0
1378	0	0	0
1379	0	0	0
1380	0	0	0
1381	0	0	0
1382	247	233	241
1383	245	222	237
1384	247	217	239
1385	244	204	235
1386	245	198	236
1387	248	196	237
1388	248	188	233
1389	255	189	237
1390	250	177	229
1391	248	174	228
1392	248	175	232
1393	246	176	233
1394	237	166	225
1395	243	179	230
1396	247	188	228
1397	255	209	235
1398	251	204	223
1399	245	209	221
1400	251	228	232
1401	0	0	0
1402	0	0	0
1403	0	0	0
1404	0	0	0
1405	0	0	0
1406	0	0	0
1407	0	0	0
1408	0	0	0
1409	0	0	0
1410	0	0	0
1411	0	0	0
1412	0	0	0
1413	0	0	0
1414	0	0	0
1415	0	0	0
1416	0	0	0
1417	0	0	0
1418	0	0	0
1419	0	0	0
1420	0	0	0
1421	0	0	0
1422	0	0	0
1423	0	0	0
1424	0	0	0
1425	0	0	0
1426	0	0	0
1427	0	0	0
1428	0	0	0
1429	0	0	0
1430	0	0	0
1431	0	0	0
1432	0	0	0
1433	0	0	0
1434	0	0	0
1435	0	0	0
1436	0	0	0
1437	249	234	243
1438	249	227	242
1439	249	221	242
1440	249	214	241
1441	249	208	240
1442	248	200	237
1443	247	192	233
1444	250	185	231
1445	244	173	224
1446	246	176	228
1447	247	178	234
1448	243	174	233
1449	233	163	224
1450	240	178	229
1451	243	187	226
1452	247	192	222
1453	241	189	213
1454	249	210	223
1455	255	229	234
1456	253	235	235
1457	0	0	0
1458	0	0	0
1459	0	0	0
1460	0	0	0
1461	0	0	0
1462	0	0	0
1463	0	0	0
1464	0	0	0
1465	0	0	0
1466	0	0	0
1467	0	0	0
1468	0	0	0
1469	0	0	0
1470	0	0	0
1471	0	0	0
1472	0	0	0
1473	0	0	0
1474	0	0	0
1475	0	0	0
1476	0	0	0
1477	0	0	0
1478	0	0	0
1479	0	0	0
1480	0	0	0
1481	0	0	0
1482	0	0	0
1483	0	0	0
1484	0	0	0
1485	0	0	0
1486	0	0	0
1487	0	0	0
1488	0	0	0
1489	0	0	0
1490	0	0	0
1491	0	0	0
1492	250	234	244
1493	248	226	242
1494	246	218	240
1495	244	210	238
1496	248	208	239
1497	250	202	238
1498	249	194	234
1499	247	185	230
1500	244	179	226
1501	247	182	231
1502	250	186	236
1503	247	183	235
1504	236	172	228
1505	242	187	233
1506	242	190	227
1507	245	195	223
1508	242	191	216
1509	255	217	231
1510	250	213	226
1511	0	0	0
1512	0	0	0
1513	0	0	0
1514	0	0	0
1515	0	0	0
1516	0	0	0
1517	0	0	0
1518	0	0	0
1519	0	0	0
1520	0	0	0
1521	0	0	0
1522	0	0	0
1523	0	0	0
1524	0	0	0
1525	0	0	0
1526	0	0	0
1527	0	0	0
1528	0	0	0
1529	0	0	0
1530	0	0	0
1531	0	0	0
1532	0	0	0
1533	0	0	0
1534	0	0	0
1535	0	0	0
1536	0	0	0
1537	0	0	0
1538	0	0	0
1539	0	0	0
1540	0	0	0
1541	0	0	0
1542	0	0	0
1543	0	0	0
1544	0	0	0
1545	0	0	0
1546	0	0	0
1547	0	0	0
1548	241	220	238
1549	238	211	236
1550	238	208	235
1551	242	207	237
1552	248	202	237
1553	248	194	234
1554	249	192	234
1555	247	186	232
1556	254	193	238
1557	255	196	238
1558	251	190	234
1559	242	181	229
1560	245	189	233
1561	245	194	230
1562	246	195	226
1563	243	192	219
1564	250	200	223
1565	243	196	217
1566	248	215	226
1567	0	0	0
1568	0	0	0
1569	0	0	0
1570	0	0	0
1571	0	0	0
1572	0	0	0
1573	0	0	0
1574	0	0	0
1575	0	0	0
1576	0	0	0
1577	0	0	0
1578	0	0	0
1579	0	0	0
1580	0	0	0
1581	0	0	0
1582	0	0	0
1583	0	0	0
1584	0	0	0
1585	0	0	0
1586	0	0	0
1587	0	0	0
1588	0	0	0
1589	0	0	0
1590	0	0	0
1591	0	0	0
1592	0	0	0
1593	0	0	0
1594	0	0	0
1595	0	0	0
1596	0	0	0
1597	0	0	0
1598	0	0	0
1599	0	0	0
1600	0	0	0
1601	0	0	0
1602	0	0	0
1603	0	0	0
1604	241	225	242
1605	240	221	241
1606	242	215	239
1607	251	213	241
1608	246	196	232
1609	247	194	234
1610	248	189	233
1611	255	198	240
1612	252	187	230
1613	246	180	224
1614	247	182	228
1615	254	194	235
1616	251	193	230
1617	247	192	225
1618	243	188	220
1619	250	196	224
1620	244	191	219
1621	254	213	229
1622	255	224	230
1623	0	0	0
1624	0	0	0
1625	0	0	0
1626	0	0	0
1627	0	0	0
1628	0	0	0
1629	0	0	0
1630	0	0	0
1631	0	0	0
1632	0	0	0
1633	0	0	0
1634	0	0	0
1635	0	0	0
1636	0	0	0
1637	0	0	0
1638	0	0	0
1639	0	0	0
1640	0	0	0
1641	0	0	0
1642	0	0	0
1643	0	0	0
1644	0	0	0
1645	0	0	0
1646	0	0	0
1647	0	0	0
1648	0	0	0
1649	0	0	0
1650	0	0	0
1651	0	0	0
1652	0	0	0
1653	0	0	0
1654	0	0	0
1655	0	0	0
1656	0	0	0
1657	0	0	0
1658	0	0	0
1659	0	0	0
1660	239	228	241
1661	241	222	239
1662	246	212	236
1663	243	197	230
1664	251	199	236
1665	253	195	236
1666	255	193	237
1667	253	183	229
1668	254	186	230
1669	254	188	232
1670	255	190	231
1671	253	189	227
1672	246	185	221
1673	241	182	218
1674	243	186	220
1675	238	182	216
1676	250	201	226
1677	251	212	225
1678	253	226	227
1679	0	0	0
1680	0	0	0
1681	0	0	0
1682	0	0	0
1683	0	0	0
1684	0	0	0
1685	0	0	0
1686	0	0	0
1687	0	0	0
1688	0	0	0
1689	0	0	0
1690	0	0	0
1691	0	0	0
1692	0	0	0
1693	0	0	0
1694	0	0	0
1695	0	0	0
1696	0	0	0
1697	0	0	0
1698	0	0	0
1699	0	0	0
1700	0	0	0
1701	0	0	0
1702	0	0	0
1703	0	0	0
1704	0	0	0
1705	0	0	0
1706	0	0	0
1707	0	0	0
1708	0	0	0
1709	0	0	0
1710	0	0	0
1711	0	0	0
1712	0	0	0
1713	0	0	0
1714	0	0	0
1715	0	0	0
1716	240	226	238
1717	244	216	236
1718	243	199	231
1719	255	205	241
1720	253	188	233
1721	255	184	233
1722	247	171	223
1723	250	175	225
1724	254	182	229
1725	254	183	226
1726	254	187	226
1727	249	185	222
1728	245	184	221
1729	243	185	221
1730	240	184	220
1731	255	206	231
1732	251	206	223
1733	255	222	226
1734	255	231	226
1735	0	0	0
1736	0	0	0
1737	0	0	0
1738	0	0	0
1739	0	0	0
1740	0	0	0
1741	0	0	0
1742	0	0	0
1743	0	0	0
1744	0	0	0
1745	0	0	0
1746	0	0	0
1747	0	0	0
1748	0	0	0
1749	0	0	0
1750	0	0	0
1751	0	0	0
1752	0	0	0
1753	0	0	0
1754	0	0	0
1755	0	0	0
1756	0	0	0
1757	0	0	0
1758	0	0	0
1759	0	0	0
1760	0	0	0
1761	0	0	0
1762	0	0	0
1763	0	0	0
1764	0	0	0
1765	0	0	0
1766	0	0	0
1767	0	0	0
1768	0	0	0
1769	0	0	0
1770	0	0	0
1771	242	232	240
1772	239	214	233
1773	239	198	229
1774	247	191	231
1775	244	174	224
1776	246	171	225
1777	240	158	217
1778	252	173	227
1779	255	180	229
1780	255	183	228
1781	255	187	228
1782	250	184	222
1783	246	184	221
1784	245	186	222
1785	242	185	220
1786	248	195	224
1787	246	197	217
1788	254	211	220
1789	254	219	220
1790	251	228	224
1791	0	0	0
1792	0	0	0
1793	0	0	0
1794	0	0	0
1795	0	0	0
1796	0	0	0
1797	0	0	0
1798	0	0	0
1799	0	0	0
1800	0	0	0
1801	0	0	0
1802	0	0	0
1803	0	0	0
1804	0	0	0
1805	0	0	0
1806	0	0	0
1807	0	0	0
1808	0	0	0
1809	0	0	0
1810	0	0	0
1811	0	0	0
1812	0	0	0
1813	0	0	0
1814	0	0	0
1815	0	0	0
1816	0	0	0
1817	0	0	0
1818	0	0	0
1819	0	0	0
1820	0	0	0
1821	0	0	0
1822	0	0	0
1823	0	0	0
1824	0	0	0
1825	0	0	0
1826	246	238	244
1827	240	219	234
1828	238	202	230
1829	245	195	233
1830	243	179	228
1831	249	177	232
1832	243	162	223
1833	255	178	235
1834	252	170	226
1835	251	173	225
1836	251	179	224
1837	243	175	217
1838	249	187	223
1839	255	193	228
1840	245	183	220
1841	244	189	220
1842	243	191	216
1843	254	207	223
1844	247	203	214
1845	247	214	218
1846	0	0	0
1847	0	0	0
1848	0	0	0
1849	0	0	0
1850	0	0	0
1851	0	0	0
1852	0	0	0
1853	0	0	0
1854	0	0	0
1855	0	0	0
1856	0	0	0
1857	0	0	0
1858	0	0	0
1859	0	0	0
1860	0	0	0
1861	0	0	0
1862	0	0	0
1863	0	0	0
1864	0	0	0
1865	0	0	0
1866	0	0	0
1867	0	0	0
1868	0	0	0
1869	0	0	0
1870	0	0	0
1871	0	0	0
1872	0	0	0
1873	0	0	0
1874	0	0	0
1875	0	0	0
1876	0	0	0
1877	0	0	0
1878	0	0	0
1879	0	0	0
1880	0	0	0
1881	248	243	247
1882	238	221	234
1883	236	204	229
1884	242	195	231
1885	240	179	228
1886	243	173	230
1887	238	159	222
1888	247	163	227
1889	242	156	222
1890	247	166	225
1891	247	173	223
1892	248	180	223
1893	254	191	227
1894	249	184	221
1895	238	174	213
1896	235	178	214
1897	235	182	214
1898	242	189	217
1899	237	185	209
1900	252	212	222
1901	255	235	233
1902	0	0	0
1903	0	0	0
1904	0	0	0
1905	0	0	0
1906	0	0	0
1907	0	0	0
1908	0	0	0
1909	0	0	0
1910	0	0	0
1911	0	0	0
1912	0	0	0
1913	0	0	0
1914	0	0	0
1915	0	0	0
1916	0	0	0
1917	0	0	0
1918	0	0	0
1919	0	0	0
1920	0	0	0
1921	0	0	0
1922	0	0	0
1923	0	0	0
1924	0	0	0
1925	0	0	0
1926	0	0	0
1927	0	0	0
1928	0	0	0
1929	0	0	0
1930	0	0	0
1931	0	0	0
1932	0	0	0
1933	0	0	0
1934	0	0	0
1935	0	0	0
1936	247	244	246
1937	236	222	233
1938	237	210	231
1939	245	202	234
1940	239	181	228
1941	239	174	230
1942	236	163	225
1943	247	169	233
1944	245	163	228
1945	250	173	232
1946	248	173	226
1947	252	183	228
1948	245	179	221
1949	232	167	210
1950	235	176	216
1951	236	183	219
1952	240	190	223
1953	246	196	225
1954	237	183	212
1955	255	213	228
1956	255	218	222
1957	0	0	0
1958	0	0	0
1959	0	0	0
1960	0	0	0
1961	0	0	0
1962	0	0	0
1963	0	0	0
1964	0	0	0
1965	0	0	0
1966	0	0	0
1967	0	0	0
1968	0	0	0
1969	0	0	0
1970	0	0	0
1971	0	0	0
1972	0	0	0
1973	0	0	0
1974	0	0	0
1975	0	0	0
1976	0	0	0
1977	0	0	0
1978	0	0	0
1979	0	0	0
1980	0	0	0
1981	0	0	0
1982	0	0	0
1983	0	0	0
1984	0	0	0
1985	0	0	0
1986	0	0	0
1987	0	0	0
1988	0	0	0
1989	0	0	0
1990	0	0	0
1991	0	0	0
1992	239	228	236
1993	242	217	235
1994	247	205	236
1995	241	183	229
1996	241	179	233
1997	238	169	232
1998	246	172	237
1999	242	165	228
2000	243	168	226
2001	242	169	224
2002	238	167	220
2003	232	163	216
2004	234	173	220
2005	238	182	225
2006	240	188	225
2007	243	194	225
2008	238	187	217
2009	231	176	208
2010	248	196	219
2011	248	201	213
2012	252	217	217
2013	0	0	0
2014	0	0	0
2015	0	0	0
2016	0	0	0
2017	0	0	0
2018	0	0	0
2019	0	0	0
2020	0	0	0
2021	0	0	0
2022	0	0	0
2023	0	0	0
2024	0	0	0
2025	0	0	0
2026	0	0	0
2027	0	0	0
2028	0	0	0
2029	0	0	0
2030	0	0	0
2031	0	0	0
2032	0	0	0
2033	0	0	0
2034	0	0	0
2035	0	0	0
2036	0	0	0
2037	0	0	0
2038	0	0	0
2039	0	0	0
2040	0	0	0
2041	0	0	0
2042	0	0	0
2043	0	0	0
2044	0	0	0
2045	0	0	0
2046	0	0	0
2047	0	0	0
2048	247	222	239
2049	255	211	241
2050	243	181	229
2051	243	177	233
2052	236	165	230
2053	236	164	231
2054	231	158	222
2055	235	164	223
2056	239	172	226
2057	231	167	221
2058	231	170	223
2059	242	184	232
2060	238	180	226
2061	240	186	225
2062	241	190	223
2063	233	181	213
2064	234	181	214
2065	252	201	225
2066	242	189	208
2067	251	207	215
2068	255	223	221
2069	0	0	0
2070	0	0	0
2071	0	0	0
2072	0	0	0
2073	0	0	0
2074	0	0	0
2075	0	0	0
2076	0	0	0
2077	0	0	0
2078	0	0	0
2079	0	0	0
2080	0	0	0
2081	0	0	0
2082	0	0	0
2083	0	0	0
2084	0	0	0
2085	0	0	0
2086	0	0	0
2087	0	0	0
2088	0	0	0
2089	0	0	0
2090	0	0	0
2091	0	0	0
2092	0	0	0
2093	0	0	0
2094	0	0	0
2095	0	0	0
2096	0	0	0
2097	0	0	0
2098	0	0	0
2099	0	0	0
2100	0	0	0
2101	0	0	0
2102	0	0	0
2103	247	224	241
2104	250	204	238
2105	240	175	226
2106	242	173	232
2107	232	160	227
2108	227	159	226
2109	223	154	221
2110	238	170	230
2111	243	178	232
2112	237	178	228
2113	238	180	230
2114	238	179	228
2115	235	175	222
2116	237	179	222
2117	238	184	221
2118	234	182	217
2119	234	182	215
2120	238	182	214
2121	232	173	203
2122	251	199	216
2123	255	213	217
2124	253	223	219
2125	0	0	0
2126	0	0	0
2127	0	0	0
2128	0	0	0
2129	0	0	0
2130	0	0	0
2131	0	0	0
2132	0	0	0
2133	0	0	0
2134	0	0	0
2135	0	0	0
2136	0	0	0
2137	0	0	0
2138	0	0	0
2139	0	0	0
2140	0	0	0
2141	0	0	0
2142	0	0	0
2143	0	0	0
2144	0	0	0
2145	0	0	0
2146	0	0	0
2147	0	0	0
2148	0	0	0
2149	0	0	0
2150	0	0	0
2151	0	0	0
2152	0	0	0
2153	0	0	0
2154	0	0	0
2155	0	0	0
2156	0	0	0
2157	0	0	0
2158	244	226	241
2159	247	206	238
2160	237	175	227
2161	242	175	236
2162	226	154	224
2163	217	152	222
2164	223	161	227
2165	244	179	239
2166	238	168	228
2167	236	169	226
2168	234	170	225
2169	230	166	220
2170	240	181	227
2171	244	186	228
2172	241	186	225
2173	235	183	220
2174	230	176	215
2175	233	177	214
2176	239	180	215
2177	255	209	231
2178	247	191	208
2179	246	201	209
2180	255	228	227
2181	0	0	0
2182	0	0	0
2183	0	0	0
2184	0	0	0
2185	0	0	0
2186	0	0	0
2187	0	0	0
2188	0	0	0
2189	0	0	0
2190	0	0	0
2191	0	0	0
2192	0	0	0
2193	0	0	0
2194	0	0	0
2195	0	0	0
2196	0	0	0
2197	0	0	0
2198	0	0	0
2199	0	0	0
2200	0	0	0
2201	0	0	0
2202	0	0	0
2203	0	0	0
2204	0	0	0
2205	0	0	0
2206	0	0	0
2207	0	0	0
2208	0	0	0
2209	0	0	0
2210	0	0	0
2211	0	0	0
2212	0	0	0
2213	243	228	241
2214	242	203	235
2215	232	173	226
2216	232	167	232
2217	217	147	221
2218	221	159	230
2219	227	168	234
2220	232	166	232
2221	227	155	222
2222	229	159	222
2223	229	160	220
2224	240	176	228
2225	249	190	235
2226	244	186	229
2227	240	185	226
2228	230	176	219
2229	225	169	215
2230	231	175	218
2231	237	179	218
2232	242	177	214
2233	229	162	196
2234	244	191	211
2235	255	216	221
2236	250	219	219
2237	0	0	0
2238	0	0	0
2239	0	0	0
2240	0	0	0
2241	0	0	0
2242	0	0	0
2243	0	0	0
2244	0	0	0
2245	0	0	0
2246	0	0	0
2247	0	0	0
2248	0	0	0
2249	0	0	0
2250	0	0	0
2251	0	0	0
2252	0	0	0
2253	0	0	0
2254	0	0	0
2255	0	0	0
2256	0	0	0
2257	0	0	0
2258	0	0	0
2259	0	0	0
2260	0	0	0
2261	0	0	0
2262	0	0	0
2263	0	0	0
2264	0	0	0
2265	0	0	0
2266	0	0	0
2267	0	0	0
2268	245	234	243
2269	242	208	237
2270	227	172	226
2271	225	165	230
2272	223	160	231
2273	234	176	244
2274	223	160	231
2275	221	154	225
2276	225	157	226
2277	228	162	227
2278	226	157	221
2279	243	176	232
2280	244	179	230
2281	232	171	220
2282	235	179	224
2283	229	173	220
2284	234	179	224
2285	237	184	226
2286	239	184	224
2287	240	182	220
2288	232	168	207
2289	255	201	224
2290	252	205	217
2291	245	207	212
2292	250	224	223
2293	244	223	222
2294	0	0	0
2295	0	0	0
2296	0	0	0
2297	0	0	0
2298	0	0	0
2299	0	0	0
2300	0	0	0
2301	0	0	0
2302	0	0	0
2303	0	0	0
2304	0	0	0
2305	0	0	0
2306	0	0	0
2307	0	0	0
2308	0	0	0
2309	0	0	0
2310	0	0	0
2311	0	0	0
2312	0	0	0
2313	0	0	0
2314	0	0	0
2315	0	0	0
2316	0	0	0
2317	0	0	0
2318	0	0	0
2319	0	0	0
2320	0	0	0
2321	0	0	0
2322	0	0	0
2323	246	239	246
2324	231	202	230
2325	214	166	220
2326	223	172	233
2327	223	168	234
2328	224	163	234
2329	216	149	226
2330	226	159	234
2331	228	162	233
2332	222	156	226
2333	221	152	222
2334	235	164	228
2335	235	166	224
2336	227	166	218
2337	231	175	223
2338	235	180	226
2339	239	186	228
2340	237	185	225
2341	238	185	224
2342	235	178	218
2343	227	166	207
2344	245	186	217
2345	246	192	213
2346	254	210	219
2347	255	226	227
2348	255	233	229
2349	255	249	241
2350	0	0	0
2351	0	0	0
2352	0	0	0
2353	0	0	0
2354	0	0	0
2355	0	0	0
2356	0	0	0
2357	0	0	0
2358	0	0	0
2359	0	0	0
2360	0	0	0
2361	0	0	0
2362	0	0	0
2363	0	0	0
2364	0	0	0
2365	0	0	0
2366	0	0	0
2367	0	0	0
2368	0	0	0
2369	0	0	0
2370	0	0	0
2371	0	0	0
2372	0	0	0
2373	0	0	0
2374	0	0	0
2375	0	0	0
2376	0	0	0
2377	0	0	0
2378	239	234	243
2379	215	193	222
2380	213	181	227
2381	226	190	243
2382	219	169	235
2383	225	167	238
2384	219	150	231
2385	233	163	241
2386	227	155	231
2387	215	147	221
2388	222	157	227
2389	235	168	232
2390	235	170	227
2391	228	170	222
2392	230	176	225
2393	236	182	228
2394	237	183	226
2395	236	182	223
2396	239	186	224
2397	233	179	217
2398	232	174	214
2399	252	196	227
2400	247	188	215
2401	255	209	225
2402	251	202	213
2403	248	209	213
2404	255	235	230
2405	254	227	224
2406	0	0	0
2407	0	0	0
2408	0	0	0
2409	0	0	0
2410	0	0	0
2411	0	0	0
2412	0	0	0
2413	0	0	0
2414	0	0	0
2415	0	0	0
2416	0	0	0
2417	0	0	0
2418	0	0	0
2419	0	0	0
2420	0	0	0
2421	0	0	0
2422	0	0	0
2423	0	0	0
2424	0	0	0
2425	0	0	0
2426	0	0	0
2427	0	0	0
2428	0	0	0
2429	0	0	0
2430	0	0	0
2431	0	0	0
2432	236	235	241
2433	235	232	242
2434	219	210	231
2435	215	197	234
2436	214	184	236
2437	210	166	233
2438	217	161	237
2439	212	145	227
2440	225	153	234
2441	221	146	226
2442	221	154	227
2443	228	164	231
2444	239	173	234
2445	241	176	231
2446	237	177	229
2447	241	184	234
2448	241	183	232
2449	242	184	229
2450	244	188	228
2451	245	191	226
2452	238	185	220
2453	237	181	220
2454	242	183	220
2455	239	176	211
2456	245	181	209
2457	238	175	197
2458	253	203	211
2459	255	228	225
2460	255	232	226
2461	255	241	232
2462	0	0	0
2463	0	0	0
2464	0	0	0
2465	0	0	0
2466	0	0	0
2467	0	0	0
2468	0	0	0
2469	0	0	0
2470	0	0	0
2471	0	0	0
2472	0	0	0
2473	0	0	0
2474	0	0	0
2475	0	0	0
2476	0	0	0
2477	0	0	0
2478	0	0	0
2479	0	0	0
2480	0	0	0
2481	0	0	0
2482	0	0	0
2483	0	0	0
2484	0	0	0
2485	0	0	0
2486	0	0	0
2487	0	0	0
2488	230	231	240
2489	211	207	228
2490	213	205	236
2491	213	192	239
2492	210	174	238
2493	216	169	244
2494	207	145	229
2495	222	154	237
2496	218	144	228
2497	225	155	231
2498	229	160	229
2499	237	166	231
2500	237	163	225
2501	241	168	227
2502	251	183	236
2503	247	180	231
2504	247	183	230
2505	248	186	228
2506	237	174	215
2507	229	169	210
2508	233	174	217
2509	235	174	218
2510	240	178	217
2511	246	184	217
2512	244	179	207
2513	255	210	225
2514	250	191	206
2515	245	192	203
2516	255	220	219
2517	249	213	213
2518	255	234	229
2519	255	240	234
2520	254	237	229
2521	249	235	227
2522	0	0	0
2523	0	0	0
2524	0	0	0
2525	0	0	0
2526	0	0	0
2527	0	0	0
2528	0	0	0
2529	0	0	0
2530	0	0	0
2531	0	0	0
2532	0	0	0
2533	0	0	0
2534	0	0	0
2535	0	0	0
2536	0	0	0
2537	0	0	0
2538	0	0	0
2539	0	0	0
2540	0	0	0
2541	0	0	0
2542	0	0	0
2543	0	0	0
2544	216	218	235
2545	217	215	242
2546	214	198	241
2547	208	179	240
2548	204	163	238
2549	195	140	227
2550	210	146	235
2551	208	136	225
2552	217	146	229
2553	223	151	227
2554	229	152	226
2555	231	150	223
2556	245	165	230
2557	255	179	233
2558	251	177	227
2559	251	179	227
2560	242	171	220
2561	232	160	211
2562	231	165	214
2563	234	170	220
2564	237	174	223
2565	239	178	222
2566	239	176	218
2567	238	172	212
2568	236	165	205
2569	221	146	188
2570	238	175	202
2571	253	203	214
2572	255	218	220
2573	255	238	232
2574	255	234	228
2575	255	232	227
2576	255	236	231
2577	255	241	236
2578	0	0	0
2579	0	0	0
2580	0	0	0
2581	0	0	0
2582	0	0	0
2583	0	0	0
2584	0	0	0
2585	0	0	0
2586	0	0	0
2587	0	0	0
2588	0	0	0
2589	0	0	0
2590	0	0	0
2591	0	0	0
2592	0	0	0
2593	0	0	0
2594	0	0	0
2595	0	0	0
2596	0	0	0
2597	0	0	0
2598	0	0	0
2599	225	227	240
2600	223	222	244
2601	217	203	242
2602	206	180	239
2603	195	161	235
2604	194	151	234
2605	211	158	244
2606	206	142	232
2607	217	154	236
2608	223	154	232
2609	234	158	233
2610	236	153	229
2611	249	168	235
2612	255	179	235
2613	255	178	230
2614	251	171	224
2615	240	161	217
2616	236	160	216
2617	237	165	221
2618	234	164	221
2619	236	168	224
2620	237	174	224
2621	231	170	219
2622	230	168	217
2623	228	161	212
2624	229	162	209
2625	251	194	225
2626	255	206	225
2627	255	222	229
2628	255	211	217
2629	251	207	212
2630	252	211	217
2631	252	216	222
2632	249	219	225
2633	0	0	0
2634	0	0	0
2635	0	0	0
2636	0	0	0
2637	0	0	0
2638	0	0	0
2639	0	0	0
2640	0	0	0
2641	0	0	0
2642	0	0	0
2643	0	0	0
2644	0	0	0
2645	0	0	0
2646	0	0	0
2647	0	0	0
2648	0	0	0
2649	0	0	0
2650	0	0	0
2651	0	0	0
2652	0	0	0
2653	0	0	0
2654	228	231	240
2655	224	224	241
2656	212	200	236
2657	200	178	235
2658	198	171	241
2659	196	161	239
2660	205	159	243
2661	201	144	233
2662	210	151	235
2663	217	152	231
2664	228	154	231
2665	232	151	227
2666	247	166	234
2667	255	178	237
2668	251	167	227
2669	246	160	221
2670	240	157	219
2671	236	155	217
2672	233	155	218
2673	228	153	217
2674	232	161	222
2675	232	167	223
2676	221	160	217
2677	218	158	217
2678	224	165	222
2679	226	166	219
2680	242	184	226
2681	251	197	226
2682	244	187	212
2683	236	177	200
2684	241	184	203
2685	244	190	208
2686	248	199	216
2687	244	201	217
2688	0	0	0
2689	0	0	0
2690	0	0	0
2691	0	0	0
2692	0	0	0
2693	0	0	0
2694	0	0	0
2695	0	0	0
2696	0	0	0
2697	0	0	0
2698	0	0	0
2699	0	0	0
2700	0	0	0
2701	0	0	0
2702	0	0	0
2703	0	0	0
2704	0	0	0
2705	0	0	0
2706	0	0	0
2707	0	0	0
2708	0	0	0
2709	0	0	0
2710	228	231	243
2711	208	204	233
2712	204	191	239
2713	209	190	250
2714	198	165	240
2715	204	162	243
2716	201	150	236
2717	210	157	240
2718	214	154	234
2719	226	157	235
2720	228	150	228
2721	245	167	237
2722	250	169	235
2723	245	159	225
2724	248	163	227
2725	244	161	225
2726	240	159	223
2727	236	158	223
2728	233	159	224
2729	237	168	229
2730	232	169	227
2731	218	160	220
2732	214	161	222
2733	217	166	225
2734	225	176	228
2735	245	197	238
2736	248	198	232
2737	240	188	218
2738	241	185	214
2739	252	196	220
2740	249	190	216
2741	253	198	222
2742	243	194	217
2743	0	0	0
2744	0	0	0
2745	0	0	0
2746	0	0	0
2747	0	0	0
2748	0	0	0
2749	0	0	0
2750	0	0	0
2751	0	0	0
2752	0	0	0
2753	0	0	0
2754	0	0	0
2755	0	0	0
2756	0	0	0
2757	0	0	0
2758	0	0	0
2759	0	0	0
2760	0	0	0
2761	0	0	0
2762	0	0	0
2763	0	0	0
2764	0	0	0
2765	238	244	251
2766	219	222	242
2767	214	208	245
2768	212	193	247
2769	204	171	241
2770	213	171	249
2771	210	160	243
2772	214	161	244
2773	217	158	240
2774	223	157	238
2775	223	149	230
2776	231	153	229
2777	237	155	229
2778	241	157	228
2779	244	162	228
2780	240	159	225
2781	236	157	222
2782	237	161	225
2783	236	162	226
2784	236	167	229
2785	231	168	227
2786	221	166	224
2787	216	165	225
2788	221	175	230
2789	229	185	233
2790	237	189	233
2791	239	190	229
2792	231	183	220
2793	233	182	218
2794	239	183	219
2795	236	176	213
2796	240	184	217
2797	231	179	211
2798	0	0	0
2799	0	0	0
2800	0	0	0
2801	0	0	0
2802	0	0	0
2803	0	0	0
2804	0	0	0
2805	0	0	0
2806	0	0	0
2807	0	0	0
2808	0	0	0
2809	0	0	0
2810	0	0	0
2811	0	0	0
2812	0	0	0
2813	0	0	0
2814	0	0	0
2815	0	0	0
2816	0	0	0
2817	0	0	0
2818	0	0	0
2819	0	0	0
2820	242	246	251
2821	222	222	240
2822	212	203	239
2823	212	188	242
2824	210	171	242
2825	223	174	252
2826	217	158	243
2827	217	158	243
2828	218	156	241
2829	218	152	237
2830	214	142	227
2831	219	144	225
2832	239	167	239
2833	245	170	239
2834	244	168	233
2835	237	163	227
2836	230	156	223
2837	237	163	229
2838	237	163	229
2839	237	167	230
2840	230	164	225
2841	222	163	223
2842	220	166	225
2843	225	176	231
2844	235	189	236
2845	239	192	235
2846	235	188	229
2847	221	179	219
2848	228	189	226
2849	235	190	228
2850	226	175	216
2851	230	182	219
2852	228	185	218
2853	246	216	234
2854	0	0	0
2855	0	0	0
2856	0	0	0
2857	0	0	0
2858	0	0	0
2859	0	0	0
2860	0	0	0
2861	0	0	0
2862	0	0	0
2863	0	0	0
2864	0	0	0
2865	0	0	0
2866	0	0	0
2867	0	0	0
2868	0	0	0
2869	0	0	0
2870	0	0	0
2871	0	0	0
2872	0	0	0
2873	0	0	0
2874	0	0	0
2875	247	250	252
2876	220	217	235
2877	211	199	238
2878	213	186	243
2879	211	169	240
2880	221	167	246
2881	214	151	237
2882	212	150	236
2883	210	146	234
2884	207	141	229
2885	203	132	222
2886	224	156	237
2887	243	179	248
2888	244	175	241
2889	243	172	236
2890	232	162	227
2891	227	155	225
2892	236	162	232
2893	235	162	231
2894	232	161	228
2895	226	158	223
2896	227	165	226
2897	228	169	229
2898	236	182	236
2899	243	194	239
2900	241	192	234
2901	236	189	231
2902	228	189	229
2903	233	198	236
2904	227	187	228
2905	218	172	218
2906	229	187	226
2907	230	191	223
2908	249	217	236
2909	255	237	243
2910	0	0	0
2911	0	0	0
2912	0	0	0
2913	0	0	0
2914	0	0	0
2915	0	0	0
2916	0	0	0
2917	0	0	0
2918	0	0	0
2919	0	0	0
2920	0	0	0
2921	0	0	0
2922	0	0	0
2923	0	0	0
2924	0	0	0
2925	0	0	0
2926	0	0	0
2927	0	0	0
2928	0	0	0
2929	0	0	0
2930	0	0	0
2931	215	209	229
2932	220	212	245
2933	221	198	249
2934	213	174	242
2935	222	171	248
2936	211	150	235
2937	207	149	235
2938	209	153	238
2939	208	149	235
2940	212	150	236
2941	236	176	252
2942	238	174	246
2943	237	169	238
2944	244	177	240
2945	235	168	233
2946	229	159	230
2947	236	165	236
2948	230	159	231
2949	225	157	227
2950	226	159	226
2951	234	169	232
2952	236	171	232
2953	245	185	239
2954	242	182	232
2955	236	178	225
2956	240	188	232
2957	239	193	234
2958	242	203	240
2959	225	185	228
2960	218	177	224
2961	233	194	235
2962	231	189	225
2963	255	218	241
2964	254	221	235
2965	0	0	0
2966	0	0	0
2967	0	0	0
2968	0	0	0
2969	0	0	0
2970	0	0	0
2971	0	0	0
2972	0	0	0
2973	0	0	0
2974	0	0	0
2975	0	0	0
2976	0	0	0
2977	0	0	0
2978	0	0	0
2979	0	0	0
2980	0	0	0
2981	0	0	0
2982	0	0	0
2983	0	0	0
2984	0	0	0
2985	0	0	0
2986	222	220	235
2987	226	221	248
2988	217	197	243
2989	210	173	239
2990	218	168	245
2991	208	148	235
2992	215	158	243
2993	218	163	246
2994	219	165	247
2995	222	167	247
2996	231	170	248
2997	231	167	243
2998	236	172	242
2999	242	180	244
3000	231	167	233
3001	225	158	229
3002	227	158	231
3003	222	152	227
3004	221	155	228
3005	223	158	227
3006	232	165	231
3007	234	167	230
3008	236	169	228
3009	234	168	223
3010	240	179	228
3011	244	189	233
3012	245	196	236
3013	244	204	239
3014	223	187	226
3015	217	180	227
3016	224	185	231
3017	225	181	223
3018	246	199	232
3019	246	203	226
3020	0	0	0
3021	0	0	0
3022	0	0	0
3023	0	0	0
3024	0	0	0
3025	0	0	0
3026	0	0	0
3027	0	0	0
3028	0	0	0
3029	0	0	0
3030	0	0	0
3031	0	0	0
3032	0	0	0
3033	0	0	0
3034	0	0	0
3035	0	0	0
3036	0	0	0
3037	0	0	0
3038	0	0	0
3039	0	0	0
3040	0	0	0
3041	0	0	0
3042	230	232	250
3043	220	206	244
3044	215	184	242
3045	224	179	251
3046	219	162	244
3047	235	177	255
3048	231	171	252
3049	226	170	249
3050	223	166	245
3051	231	169	247
3052	234	172	247
3053	234	175	245
3054	237	182	246
3055	228	170	236
3056	224	163	233
3057	225	163	235
3058	222	158	233
3059	224	163	235
3060	226	165	234
3061	232	171	237
3062	230	165	230
3063	231	167	228
3064	234	171	228
3065	246	185	235
3066	240	181	230
3067	237	184	229
3068	232	190	230
3069	209	172	216
3070	225	196	236
3071	235	203	243
3072	230	187	229
3073	251	206	240
3074	245	197	226
3075	252	215	232
3076	255	230	237
3077	0	0	0
3078	0	0	0
3079	0	0	0
3080	0	0	0
3081	0	0	0
3082	0	0	0
3083	0	0	0
3084	0	0	0
3085	0	0	0
3086	0	0	0
3087	0	0	0
3088	0	0	0
3089	0	0	0
3090	0	0	0
3091	0	0	0
3092	0	0	0
3093	0	0	0
3094	0	0	0
3095	0	0	0
3096	0	0	0
3097	240	245	255
3098	225	216	245
3099	219	193	243
3100	225	185	249
3101	222	169	243
3102	239	178	255
3103	235	172	250
3104	226	168	246
3105	222	164	242
3106	231	172	247
3107	234	176	247
3108	233	179	246
3109	237	186	250
3110	229	175	242
3111	225	168	239
3112	223	165	238
3113	220	161	236
3114	223	164	237
3115	225	166	236
3116	226	165	234
3117	223	160	228
3118	224	165	228
3119	227	168	226
3120	232	170	226
3121	230	168	223
3122	234	178	230
3123	231	184	233
3124	226	195	235
3125	238	215	246
3126	232	201	235
3127	229	188	228
3128	243	195	235
3129	239	188	224
3130	254	209	234
3131	255	224	236
3132	255	226	234
3133	0	0	0
3134	0	0	0
3135	0	0	0
3136	0	0	0
3137	0	0	0
3138	0	0	0
3139	0	0	0
3140	0	0	0
3141	0	0	0
3142	0	0	0
3143	0	0	0
3144	0	0	0
3145	0	0	0
3146	0	0	0
3147	0	0	0
3148	0	0	0
3149	0	0	0
3150	0	0	0
3151	0	0	0
3152	241	244	251
3153	223	212	237
3154	222	201	242
3155	225	192	247
3156	228	181	247
3157	247	192	255
3158	235	172	248
3159	226	168	244
3160	220	163	240
3161	226	170	243
3162	236	184	250
3163	240	189	252
3164	237	185	249
3165	227	174	241
3166	226	173	242
3167	224	170	241
3168	226	172	243
3169	230	177	245
3170	234	180	246
3171	235	179	244
3172	222	163	232
3173	219	166	231
3174	224	174	232
3175	229	177	231
3176	231	174	230
3177	244	189	241
3178	234	182	235
3179	229	192	237
3180	234	205	239
3181	224	188	226
3182	234	194	234
3183	247	202	242
3184	238	184	226
3185	255	208	238
3186	253	208	230
3187	248	210	226
3188	251	223	234
3189	0	0	0
3190	0	0	0
3191	0	0	0
3192	0	0	0
3193	0	0	0
3194	0	0	0
3195	0	0	0
3196	0	0	0
3197	0	0	0
3198	0	0	0
3199	0	0	0
3200	0	0	0
3201	0	0	0
3202	0	0	0
3203	0	0	0
3204	0	0	0
3205	0	0	0
3206	0	0	0
3207	244	244	249
3208	232	224	241
3209	230	212	245
3210	231	203	248
3211	232	192	250
3212	238	185	253
3213	227	165	241
3214	224	166	242
3215	219	162	239
3216	232	179	249
3217	241	192	254
3218	236	186	247
3219	234	183	245
3220	233	181	245
3221	232	181	246
3222	232	182	247
3223	233	184	248
3224	234	186	248
3225	237	189	249
3226	230	178	241
3227	217	162	230
3228	217	170	234
3229	222	179	237
3230	227	179	235
3231	229	176	231
3232	237	180	235
3233	228	173	229
3234	226	183	232
3235	232	197	238
3236	232	196	237
3237	240	201	242
3238	237	190	235
3239	228	172	220
3240	241	185	226
3241	240	186	220
3242	249	204	227
3243	252	218	232
3244	254	234	240
3245	0	0	0
3246	0	0	0
3247	0	0	0
3248	0	0	0
3249	0	0	0
3250	0	0	0
3251	0	0	0
3252	0	0	0
3253	0	0	0
3254	0	0	0
3255	0	0	0
3256	0	0	0
3257	0	0	0
3258	0	0	0
3259	0	0	0
3260	0	0	0
3261	0	0	0
3262	0	0	0
3263	234	224	239
3264	237	221	245
3265	237	212	248
3266	235	200	250
3267	234	190	250
3268	226	173	242
3269	232	179	249
3270	235	182	252
3271	247	198	255
3272	237	187	249
3273	229	179	241
3274	234	186	247
3275	237	187	249
3276	232	179	246
3277	232	181	246
3278	234	185	248
3279	232	185	247
3280	233	189	248
3281	223	176	238
3282	216	169	234
3283	222	180	241
3284	225	184	243
3285	228	184	241
3286	225	174	232
3287	230	176	233
3288	226	173	230
3289	228	185	236
3290	238	202	246
3291	239	202	245
3292	239	198	242
3293	232	185	233
3294	233	184	231
3295	245	197	238
3296	238	186	226
3297	254	207	237
3298	255	216	235
3299	255	232	241
3300	254	232	240
3301	0	0	0
3302	0	0	0
3303	0	0	0
3304	0	0	0
3305	0	0	0
3306	0	0	0
3307	0	0	0
3308	0	0	0
3309	0	0	0
3310	0	0	0
3311	0	0	0
3312	0	0	0
3313	0	0	0
3314	0	0	0
3315	0	0	0
3316	0	0	0
3317	0	0	0
3318	0	0	0
3319	247	234	250
3320	240	220	247
3321	237	208	248
3322	232	195	247
3323	225	180	242
3324	239	192	254
3325	242	194	255
3326	239	189	252
3327	230	179	243
3328	230	183	244
3329	235	189	249
3330	230	181	244
3331	226	174	242
3332	229	179	247
3333	230	183	249
3334	227	184	247
3335	227	188	246
3336	220	180	240
3337	216	174	238
3338	223	182	244
3339	227	186	245
3340	223	178	239
3341	219	169	232
3342	227	174	236
3343	225	172	233
3344	236	190	243
3345	245	206	251
3346	238	197	243
3347	235	192	239
3348	232	190	237
3349	232	189	236
3350	231	185	234
3351	227	177	227
3352	247	198	238
3353	251	206	232
3354	248	208	228
3355	242	208	227
3356	0	0	0
3357	0	0	0
3358	0	0	0
3359	0	0	0
3360	0	0	0
3361	0	0	0
3362	0	0	0
3363	0	0	0
3364	0	0	0
3365	0	0	0
3366	0	0	0
3367	0	0	0
3368	0	0	0
3369	0	0	0
3370	0	0	0
3371	0	0	0
3372	0	0	0
3373	0	0	0
3374	0	0	0
3375	0	0	0
3376	239	217	248
3377	237	206	248
3378	235	196	248
3379	248	207	255
3380	241	195	252
3381	236	189	248
3382	236	191	249
3383	239	197	253
3384	231	188	247
3385	222	178	239
3386	236	197	255
3387	241	204	255
3388	231	193	252
3389	225	192	249
3390	225	195	248
3391	221	189	244
3392	227	192	249
3393	240	203	255
3394	229	186	246
3395	219	175	237
3396	223	178	240
3397	234	186	246
3398	235	181	242
3399	251	202	254
3400	245	197	247
3401	230	184	235
3402	232	192	240
3403	226	188	237
3404	225	190	238
3405	223	187	236
3406	227	187	238
3407	250	210	252
3408	244	200	234
3409	245	203	231
3410	245	210	233
3411	0	0	0
3412	0	0	0
3413	0	0	0
3414	0	0	0
3415	0	0	0
3416	0	0	0
3417	0	0	0
3418	0	0	0
3419	0	0	0
3420	0	0	0
3421	0	0	0
3422	0	0	0
3423	0	0	0
3424	0	0	0
3425	0	0	0
3426	0	0	0
3427	0	0	0
3428	0	0	0
3429	0	0	0
3430	0	0	0
3431	0	0	0
3432	244	220	253
3433	240	209	250
3434	239	202	249
3435	232	191	244
3436	236	195	249
3437	236	197	249
3438	230	191	245
3439	222	183	239
3440	232	199	251
3441	244	217	255
3442	238	208	255
3443	229	198	248
3444	224	198	247
3445	224	201	248
3446	224	200	248
3447	230	202	252
3448	228	192	247
3449	218	175	236
3450	219	179	239
3451	225	183	244
3452	233	186	247
3453	234	183	241
3454	242	187	243
3455	238	183	238
3456	236	188	240
3457	236	196	246
3458	229	194	244
3459	227	195	244
3460	222	191	241
3461	223	190	241
3462	226	188	238
3463	222	180	226
3464	234	194	231
3465	0	0	0
3466	0	0	0
3467	0	0	0
3468	0	0	0
3469	0	0	0
3470	0	0	0
3471	0	0	0
3472	0	0	0
3473	0	0	0
3474	0	0	0
3475	0	0	0
3476	0	0	0
3477	0	0	0
3478	0	0	0
3479	0	0	0
3480	0	0	0
3481	0	0	0
3482	0	0	0
3483	0	0	0
3484	0	0	0
3485	0	0	0
3486	0	0	0
3487	0	0	0
3488	0	0	0
3489	0	0	0
3490	236	206	248
3491	241	212	254
3492	237	208	251
3493	229	200	245
3494	227	199	245
3495	238	216	255
3496	240	220	255
3497	234	210	248
3498	235	212	250
3499	233	214	251
3500	228	210	249
3501	227	208	248
3502	231	212	252
3503	223	198	244
3504	222	191	242
3505	232	200	252
3506	231	193	249
3507	235	194	250
3508	236	187	244
3509	246	193	248
3510	240	183	240
3511	241	191	244
3512	242	199	249
3513	236	197	247
3514	231	198	246
3515	224	192	241
3516	232	210	250
3517	223	201	241
3518	217	193	233
3519	0	0	0
3520	0	0	0
3521	0	0	0
3522	0	0	0
3523	0	0	0
3524	0	0	0
3525	0	0	0
3526	0	0	0
3527	0	0	0
3528	0	0	0
3529	0	0	0
3530	0	0	0
3531	0	0	0
3532	0	0	0
3533	0	0	0
3534	0	0	0
3535	0	0	0
3536	0	0	0
3537	0	0	0
3538	0	0	0
3539	0	0	0
3540	0	0	0
3541	0	0	0
3542	0	0	0
3543	0	0	0
3544	0	0	0
3545	0	0	0
3546	0	0	0
3547	0	0	0
3548	0	0	0
3549	233	215	248
3550	236	220	250
3551	239	224	252
3552	241	225	252
3553	242	227	251
3554	237	223	249
3555	234	220	249
3556	234	221	251
3557	236	224	254
3558	229	214	248
3559	229	207	249
3560	232	204	250
3561	230	196	245
3562	231	192	244
3563	232	187	243
3564	237	186	244
3565	231	176	236
3566	237	188	242
3567	238	195	245
3568	232	194	242
3569	229	196	242
3570	234	210	248
3571	240	225	252
3572	225	213	240
3573	220	206	237
3574	236	222	248
3575	0	0	0
3576	0	0	0
3577	0	0	0
3578	0	0	0
3579	0	0	0
3580	0	0	0
3581	0	0	0
3582	0	0	0
3583	0	0	0
3584	0	0	0
3585	0	0	0
3586	0	0	0
3587	0	0	0
3588	0	0	0
3589	0	0	0
3590	0	0	0
3591	0	0	0
3592	0	0	0
3593	0	0	0
3594	0	0	0
3595	0	0	0
3596	0	0	0
3597	0	0	0
3598	0	0	0
3599	0	0	0
3600	0	0	0
3601	0	0	0
3602	0	0	0
3603	0	0	0
3604	0	0	0
3605	0	0	0
3606	0	0	0
3607	0	0	0
3608	0	0	0
3609	236	224	243
3610	234	222	244
3611	233	222	245
3612	237	227	249
3613	231	217	245
3614	234	216	249
3615	235	212	250
3616	233	204	246
3617	234	201	247
3618	236	199	250
3619	237	196	250
3620	232	188	243
3621	240	200	250
3622	230	190	240
3623	223	189	236
3624	232	208	247
3625	240	223	252
3626	236	222	245
3627	227	214	236
3628	230	216	240
3629	243	231	251
3630	0	0	0
3631	0	0	0
3632	0	0	0
3633	0	0	0
3634	0	0	0
3635	0	0	0
3636	0	0	0
3637	0	0	0
3638	0	0	0
3639	0	0	0
3640	0	0	0
3641	0	0	0
3642	0	0	0
3643	0	0	0
3644	0	0	0
3645	0	0	0
3646	0	0	0
3647	0	0	0
3648	0	0	0
3649	0	0	0
3650	0	0	0
3651	0	0	0
3652	0	0	0
3653	0	0	0
3654	0	0	0
3655	0	0	0
3656	0	0	0
3657	0	0	0
3658	0	0	0
3659	0	0	0
3660	0	0	0
3661	0	0	0
3662	0	0	0
3663	0	0	0
3664	0	0	0
3665	0	0	0
3666	0	0	0
3667	242	233	248
3668	240	228	247
3669	242	227	250
3670	238	219	249
3671	237	212	248
3672	238	210	251
3673	238	208	252
3674	235	202	250
3675	230	195	245
3676	229	193	244
3677	220	184	236
3678	229	204	246
3679	239	222	253
3680	237	222	248
3681	237	223	245
3682	239	225	246
3683	241	226	246
3684	0	0	0
3685	0	0	0
3686	0	0	0
3687	0	0	0
3688	0	0	0
3689	0	0	0
3690	0	0	0
3691	0	0	0
3692	0	0	0
3693	0	0	0
3694	0	0	0
3695	0	0	0
3696	0	0	0
3697	0	0	0
3698	0	0	0
3699	0	0	0
3700	0	0	0
3701	0	0	0
3702	0	0	0
3703	0	0	0
3704	0	0	0
3705	0	0	0
3706	0	0	0
3707	0	0	0
3708	0	0	0
3709	0	0	0
3710	0	0	0
3711	0	0	0
3712	0	0	0
3713	0	0	0
3714	0	0	0
3715	0	0	0
3716	0	0	0
3717	0	0	0
3718	0	0	0
3719	0	0	0
3720	0	0	0
3721	0	0	0
3722	0	0	0
3723	0	0	0
3724	0	0	0
3725	0	0	0
3726	0	0	0
3727	240	219	250
3728	237	213	250
3729	232	207	248
3730	231	206	247
3731	230	204	247
3732	226	200	244
3733	241	222	255
3734	243	228	253
3735	242	228	249
3736	244	228	249
3737	0	0	0
3738	0	0	0
3739	0	0	0
3740	0	0	0
3741	0	0	0
3742	0	0	0
3743	0	0	0
3744	0	0	0
3745	0	0	0
3746	0	0	0
3747	0	0	0
3748	0	0	0
3749	0	0	0
3750	0	0	0
3751	0	0	0
3752	0	0	0
3753	0	0	0
3754	0	0	0
3755	0	0	0
3756	0	0	0
3757	0	0	0
3758	0	0	0
3759	0	0	0
3760	0	0	0
3761	0	0	0
3762	0	0	0
3763	0	0	0
3764	0	0	0
3765	0	0	0
3766	0	0	0
3767	0	0	0
3768	0	0	0
3769	0	0	0
3770	0	0	0
3771	0	0	0
3772	0	0	0
3773	0	0	0
3774	0	0	0
3775	0	0	0
3776	0	0	0
3777	0	0	0
3778	0	0	0
3779	0	0	0
3780	0	0	0
3781	0	0	0
3782	0	0	0
3783	0	0	0
3784	0	0	0
3785	236	218	249
3786	236	218	249
3787	233	214	248
3788	241	225	253
3789	244	231	250
3790	243	229	246
3791	246	231	247
3792	0	0	0
3793	0	0	0
3794	0	0	0
3795	0	0	0
3796	0	0	0
3797	0	0	0
3798	0	0	0
3799	0	0	0
3800	0	0	0
3801	0	0	0
3802	0	0	0
3803	0	0	0
3804	0	0	0
3805	0	0	0
3806	0	0	0
3807	0	0	0
3808	0	0	0
3809	0	0	0
3810	0	0	0
3811	0	0	0
3812	0	0	0
3813	0	0	0
3814	0	0	0
3815	0	0	0
3816	0	0	0
3817	0	0	0
3818	0	0	0
3819	0	0	0
3820	0	0	0
3821	0	0	0
3822	0	0	0
3823	0	0	0
3824	0	0	0
3825	0	0	0
3826	0	0	0
3827	0	0	0
3828	0	0	0
3829	0	0	0
3830	0	0	0
3831	0	0	0
3832	0	0	0
3833	0	0	0
3834	0	0	0
3835	0	0	0
3836	0	0	0
3837	0	0	0
3838	0	0	0
3839	242	224	247
3840	239	222	245
3841	238	221	246
3842	239	224	249
3843	246	235	255
3844	242	229	246
3845	242	229	243
3846	0	0	0
3847	0	0	0
3848	0	0	0
3849	0	0	0
3850	0	0	0
3851	0	0	0
3852	0	0	0
3853	0	0	0
3854	0	0	0
3855	0	0	0
3856	0	0	0
3857	0	0	0
3858	0	0	0
3859	0	0	0
3860	0	0	0
3861	0	0	0
3862	0	0	0
3863	0	0	0
3864	0	0	0
3865	0	0	0
3866	0	0	0
3867	0	0	0
3868	0	0	0
3869	0	0	0
3870	0	0	0
3871	0	0	0
3872	0	0	0
3873	0	0	0
3874	0	0	0
3875	0	0	0
3876	0	0	0
3877	0	0	0
3878	0	0	0
3879	0	0	0
3880	0	0	0
3881	0	0	0
3882	0	0	0
3883	0	0	0
3884	0	0	0
3885	0	0	0
3886	0	0	0
3887	0	0	0
3888	0	0	0
3889	0	0	0
3890	0	0	0
3891	0	0	0
3892	0	0	0
3893	0	0	0
3894	0	0	0
3895	241	226	243
3896	243	230	246
3897	244	233	249
3898	243	231	248
3899	241	228	245
3900	0	0	0
3901	0	0	0
3902	0	0	0
3903	0	0	0
3904	0	0	0
3905	0	0	0
