 	R	G	B
1	0	0	0
2	0	0	0
3	0	0	0
4	0	0	0
5	0	0	0
6	0	0	0
7	0	0	0
8	0	0	0
9	0	0	0
10	0	0	0
11	0	0	0
12	0	0	0
13	0	0	0
14	0	0	0
15	0	0	0
16	0	0	0
17	0	0	0
18	0	0	0
19	0	0	0
20	0	0	0
21	0	0	0
22	0	0	0
23	0	0	0
24	0	0	0
25	0	0	0
26	0	0	0
27	0	0	0
28	0	0	0
29	0	0	0
30	0	0	0
31	0	0	0
32	0	0	0
33	0	0	0
34	0	0	0
35	0	0	0
36	0	0	0
37	0	0	0
38	0	0	0
39	0	0	0
40	0	0	0
41	0	0	0
42	0	0	0
43	0	0	0
44	0	0	0
45	0	0	0
46	0	0	0
47	0	0	0
48	0	0	0
49	0	0	0
50	255	213	234
51	0	0	0
52	0	0	0
53	0	0	0
54	0	0	0
55	0	0	0
56	0	0	0
57	0	0	0
58	0	0	0
59	0	0	0
60	0	0	0
61	0	0	0
62	0	0	0
63	0	0	0
64	0	0	0
65	0	0	0
66	0	0	0
67	0	0	0
68	0	0	0
69	0	0	0
70	0	0	0
71	0	0	0
72	0	0	0
73	0	0	0
74	0	0	0
75	0	0	0
76	0	0	0
77	0	0	0
78	0	0	0
79	0	0	0
80	0	0	0
81	0	0	0
82	0	0	0
83	0	0	0
84	0	0	0
85	0	0	0
86	0	0	0
87	0	0	0
88	0	0	0
89	0	0	0
90	0	0	0
91	0	0	0
92	0	0	0
93	0	0	0
94	0	0	0
95	0	0	0
96	0	0	0
97	0	0	0
98	0	0	0
99	0	0	0
100	0	0	0
101	0	0	0
102	0	0	0
103	0	0	0
104	0	0	0
105	0	0	0
106	0	0	0
107	0	0	0
108	0	0	0
109	0	0	0
110	252	206	230
111	255	205	232
112	248	194	224
113	255	204	230
114	255	209	231
115	255	210	230
116	0	0	0
117	0	0	0
118	0	0	0
119	0	0	0
120	0	0	0
121	0	0	0
122	0	0	0
123	0	0	0
124	0	0	0
125	0	0	0
126	0	0	0
127	0	0	0
128	0	0	0
129	0	0	0
130	0	0	0
131	0	0	0
132	0	0	0
133	0	0	0
134	0	0	0
135	0	0	0
136	0	0	0
137	0	0	0
138	0	0	0
139	0	0	0
140	0	0	0
141	0	0	0
142	0	0	0
143	0	0	0
144	0	0	0
145	0	0	0
146	0	0	0
147	0	0	0
148	0	0	0
149	0	0	0
150	0	0	0
151	0	0	0
152	0	0	0
153	0	0	0
154	0	0	0
155	0	0	0
156	0	0	0
157	0	0	0
158	0	0	0
159	0	0	0
160	0	0	0
161	0	0	0
162	0	0	0
163	0	0	0
164	0	0	0
165	0	0	0
166	0	0	0
167	0	0	0
168	0	0	0
169	0	0	0
170	255	225	240
171	250	200	227
172	253	200	229
173	248	190	222
174	255	200	229
175	255	201	229
176	254	201	228
177	251	201	225
178	0	0	0
179	0	0	0
180	0	0	0
181	0	0	0
182	0	0	0
183	0	0	0
184	0	0	0
185	0	0	0
186	0	0	0
187	0	0	0
188	0	0	0
189	0	0	0
190	0	0	0
191	0	0	0
192	0	0	0
193	0	0	0
194	0	0	0
195	0	0	0
196	0	0	0
197	0	0	0
198	0	0	0
199	0	0	0
200	0	0	0
201	0	0	0
202	0	0	0
203	0	0	0
204	0	0	0
205	0	0	0
206	0	0	0
207	0	0	0
208	0	0	0
209	0	0	0
210	0	0	0
211	0	0	0
212	0	0	0
213	0	0	0
214	0	0	0
215	0	0	0
216	0	0	0
217	0	0	0
218	0	0	0
219	0	0	0
220	0	0	0
221	0	0	0
222	0	0	0
223	0	0	0
224	0	0	0
225	0	0	0
226	0	0	0
227	0	0	0
228	0	0	0
229	0	0	0
230	255	234	240
231	255	217	233
232	245	192	220
233	252	194	225
234	248	185	219
235	252	190	223
236	252	191	225
237	253	195	227
238	249	194	222
239	0	0	0
240	0	0	0
241	0	0	0
242	0	0	0
243	0	0	0
244	0	0	0
245	0	0	0
246	0	0	0
247	0	0	0
248	0	0	0
249	0	0	0
250	0	0	0
251	0	0	0
252	0	0	0
253	0	0	0
254	0	0	0
255	0	0	0
256	0	0	0
257	0	0	0
258	0	0	0
259	0	0	0
260	0	0	0
261	0	0	0
262	0	0	0
263	0	0	0
264	0	0	0
265	0	0	0
266	0	0	0
267	0	0	0
268	0	0	0
269	0	0	0
270	0	0	0
271	0	0	0
272	0	0	0
273	0	0	0
274	0	0	0
275	0	0	0
276	0	0	0
277	0	0	0
278	0	0	0
279	0	0	0
280	0	0	0
281	0	0	0
282	0	0	0
283	0	0	0
284	0	0	0
285	0	0	0
286	0	0	0
287	0	0	0
288	0	0	0
289	0	0	0
290	0	0	0
291	255	233	237
292	255	217	232
293	240	180	212
294	248	184	219
295	252	187	220
296	255	192	225
297	253	187	225
298	254	191	227
299	250	190	222
300	0	0	0
301	0	0	0
302	0	0	0
303	0	0	0
304	0	0	0
305	0	0	0
306	0	0	0
307	0	0	0
308	0	0	0
309	0	0	0
310	0	0	0
311	0	0	0
312	0	0	0
313	0	0	0
314	0	0	0
315	0	0	0
316	0	0	0
317	0	0	0
318	0	0	0
319	0	0	0
320	0	0	0
321	0	0	0
322	0	0	0
323	0	0	0
324	0	0	0
325	0	0	0
326	0	0	0
327	0	0	0
328	0	0	0
329	0	0	0
330	0	0	0
331	0	0	0
332	0	0	0
333	0	0	0
334	0	0	0
335	0	0	0
336	0	0	0
337	0	0	0
338	0	0	0
339	0	0	0
340	0	0	0
341	0	0	0
342	0	0	0
343	0	0	0
344	0	0	0
345	0	0	0
346	0	0	0
347	0	0	0
348	0	0	0
349	0	0	0
350	0	0	0
351	0	0	0
352	255	232	233
353	254	206	224
354	237	171	209
355	255	188	225
356	255	190	224
357	255	189	224
358	255	185	225
359	255	189	228
360	252	188	224
361	255	201	229
362	0	0	0
363	0	0	0
364	0	0	0
365	0	0	0
366	0	0	0
367	0	0	0
368	0	0	0
369	0	0	0
370	0	0	0
371	0	0	0
372	0	0	0
373	0	0	0
374	0	0	0
375	0	0	0
376	0	0	0
377	0	0	0
378	0	0	0
379	0	0	0
380	0	0	0
381	0	0	0
382	0	0	0
383	0	0	0
384	0	0	0
385	0	0	0
386	0	0	0
387	0	0	0
388	0	0	0
389	0	0	0
390	0	0	0
391	0	0	0
392	0	0	0
393	0	0	0
394	0	0	0
395	0	0	0
396	0	0	0
397	0	0	0
398	0	0	0
399	0	0	0
400	0	0	0
401	0	0	0
402	0	0	0
403	0	0	0
404	0	0	0
405	0	0	0
406	0	0	0
407	0	0	0
408	0	0	0
409	0	0	0
410	0	0	0
411	0	0	0
412	0	0	0
413	255	225	229
414	253	200	221
415	239	168	210
416	255	186	228
417	251	173	217
418	250	171	216
419	252	176	221
420	254	180	224
421	249	178	221
422	254	191	225
423	255	202	227
424	0	0	0
425	0	0	0
426	0	0	0
427	0	0	0
428	0	0	0
429	0	0	0
430	0	0	0
431	0	0	0
432	0	0	0
433	0	0	0
434	0	0	0
435	0	0	0
436	0	0	0
437	0	0	0
438	0	0	0
439	0	0	0
440	0	0	0
441	0	0	0
442	0	0	0
443	0	0	0
444	0	0	0
445	0	0	0
446	0	0	0
447	0	0	0
448	0	0	0
449	0	0	0
450	0	0	0
451	0	0	0
452	0	0	0
453	0	0	0
454	0	0	0
455	0	0	0
456	0	0	0
457	0	0	0
458	0	0	0
459	0	0	0
460	0	0	0
461	0	0	0
462	0	0	0
463	0	0	0
464	0	0	0
465	0	0	0
466	0	0	0
467	0	0	0
468	0	0	0
469	0	0	0
470	0	0	0
471	0	0	0
472	0	0	0
473	0	0	0
474	255	221	231
475	255	198	225
476	243	167	213
477	252	171	223
478	246	159	216
479	252	166	221
480	252	169	220
481	251	170	219
482	247	169	218
483	252	182	225
484	255	193	228
485	0	0	0
486	0	0	0
487	0	0	0
488	0	0	0
489	0	0	0
490	0	0	0
491	0	0	0
492	0	0	0
493	0	0	0
494	255	202	225
495	0	0	0
496	0	0	0
497	0	0	0
498	0	0	0
499	0	0	0
500	0	0	0
501	0	0	0
502	0	0	0
503	0	0	0
504	0	0	0
505	0	0	0
506	0	0	0
507	0	0	0
508	0	0	0
509	0	0	0
510	0	0	0
511	0	0	0
512	0	0	0
513	0	0	0
514	0	0	0
515	0	0	0
516	0	0	0
517	0	0	0
518	0	0	0
519	0	0	0
520	0	0	0
521	0	0	0
522	0	0	0
523	0	0	0
524	0	0	0
525	0	0	0
526	0	0	0
527	0	0	0
528	0	0	0
529	0	0	0
530	0	0	0
531	0	0	0
532	0	0	0
533	0	0	0
534	0	0	0
535	255	211	230
536	255	189	225
537	239	153	209
538	248	157	219
539	246	152	218
540	252	159	223
541	250	160	219
542	249	161	218
543	251	169	223
544	255	182	229
545	254	188	229
546	0	0	0
547	0	0	0
548	0	0	0
549	0	0	0
550	0	0	0
551	0	0	0
552	248	190	224
553	253	194	227
554	249	188	223
555	249	188	223
556	238	176	212
557	0	0	0
558	0	0	0
559	0	0	0
560	0	0	0
561	0	0	0
562	0	0	0
563	0	0	0
564	0	0	0
565	0	0	0
566	0	0	0
567	0	0	0
568	0	0	0
569	0	0	0
570	0	0	0
571	0	0	0
572	0	0	0
573	0	0	0
574	0	0	0
575	0	0	0
576	0	0	0
577	0	0	0
578	0	0	0
579	0	0	0
580	0	0	0
581	0	0	0
582	0	0	0
583	0	0	0
584	0	0	0
585	0	0	0
586	0	0	0
587	0	0	0
588	0	0	0
589	0	0	0
590	0	0	0
591	0	0	0
592	0	0	0
593	0	0	0
594	0	0	0
595	255	221	234
596	255	205	233
597	252	177	224
598	235	141	208
599	246	147	219
600	243	141	217
601	249	150	222
602	249	151	221
603	254	162	226
604	255	169	228
605	255	177	229
606	254	183	228
607	254	192	229
608	0	0	0
609	0	0	0
610	0	0	0
611	0	0	0
612	255	209	239
613	247	186	225
614	253	190	230
615	251	185	227
616	252	186	228
617	240	172	215
618	0	0	0
619	0	0	0
620	0	0	0
621	0	0	0
622	0	0	0
623	0	0	0
624	0	0	0
625	0	0	0
626	0	0	0
627	0	0	0
628	0	0	0
629	0	0	0
630	0	0	0
631	0	0	0
632	0	0	0
633	0	0	0
634	0	0	0
635	0	0	0
636	0	0	0
637	0	0	0
638	0	0	0
639	0	0	0
640	0	0	0
641	0	0	0
642	0	0	0
643	0	0	0
644	0	0	0
645	0	0	0
646	0	0	0
647	0	0	0
648	0	0	0
649	0	0	0
650	0	0	0
651	0	0	0
652	0	0	0
653	0	0	0
654	0	0	0
655	255	234	236
656	255	215	233
657	252	184	224
658	242	155	216
659	240	142	215
660	250	147	225
661	247	141	221
662	253	149	227
663	251	149	226
664	255	160	230
665	253	162	226
666	252	169	226
667	255	181	228
668	255	189	227
669	255	202	230
670	0	0	0
671	0	0	0
672	0	0	0
673	0	0	0
674	240	177	222
675	247	180	228
676	246	176	225
677	247	174	224
678	236	162	211
679	0	0	0
680	0	0	0
681	0	0	0
682	0	0	0
683	0	0	0
684	0	0	0
685	0	0	0
686	0	0	0
687	0	0	0
688	0	0	0
689	0	0	0
690	0	0	0
691	0	0	0
692	0	0	0
693	0	0	0
694	0	0	0
695	0	0	0
696	0	0	0
697	0	0	0
698	0	0	0
699	0	0	0
700	0	0	0
701	0	0	0
702	0	0	0
703	0	0	0
704	0	0	0
705	0	0	0
706	0	0	0
707	0	0	0
708	0	0	0
709	0	0	0
710	0	0	0
711	0	0	0
712	0	0	0
713	0	0	0
714	0	0	0
715	255	234	234
716	255	223	228
717	252	192	217
718	243	162	214
719	249	157	223
720	246	142	220
721	252	146	227
722	249	139	224
723	253	145	229
724	251	145	227
725	253	152	228
726	250	154	224
727	254	167	226
728	255	178	225
729	255	189	225
730	255	201	229
731	0	0	0
732	0	0	0
733	0	0	0
734	0	0	0
735	250	190	232
736	255	195	239
737	251	181	231
738	253	181	231
739	246	170	222
740	255	191	232
741	0	0	0
742	0	0	0
743	0	0	0
744	0	0	0
745	0	0	0
746	0	0	0
747	0	0	0
748	0	0	0
749	0	0	0
750	0	0	0
751	0	0	0
752	0	0	0
753	0	0	0
754	0	0	0
755	0	0	0
756	0	0	0
757	0	0	0
758	0	0	0
759	0	0	0
760	0	0	0
761	0	0	0
762	0	0	0
763	0	0	0
764	0	0	0
765	0	0	0
766	0	0	0
767	0	0	0
768	0	0	0
769	0	0	0
770	0	0	0
771	0	0	0
772	0	0	0
773	0	0	0
774	0	0	0
775	255	249	242
776	255	237	237
777	255	204	219
778	245	173	208
779	245	157	215
780	250	151	225
781	247	139	222
782	252	141	228
783	247	132	223
784	251	138	227
785	253	144	230
786	255	151	231
787	247	146	221
788	251	160	224
789	254	173	225
790	254	182	223
791	254	192	223
792	0	0	0
793	0	0	0
794	0	0	0
795	255	209	237
796	255	200	234
797	255	194	235
798	251	180	229
799	255	181	233
800	249	172	227
801	250	174	226
802	238	163	210
803	250	186	219
804	0	0	0
805	0	0	0
806	0	0	0
807	0	0	0
808	0	0	0
809	0	0	0
810	0	0	0
811	0	0	0
812	0	0	0
813	0	0	0
814	0	0	0
815	0	0	0
816	0	0	0
817	0	0	0
818	0	0	0
819	0	0	0
820	0	0	0
821	0	0	0
822	0	0	0
823	0	0	0
824	0	0	0
825	0	0	0
826	0	0	0
827	0	0	0
828	0	0	0
829	0	0	0
830	0	0	0
831	0	0	0
832	0	0	0
833	0	0	0
834	0	0	0
835	0	0	0
836	255	247	237
837	255	215	223
838	250	186	213
839	251	172	217
840	249	154	221
841	254	150	229
842	250	137	226
843	252	135	229
844	245	125	222
845	251	134	227
846	252	140	230
847	250	140	226
848	241	135	216
849	247	152	222
850	252	167	227
851	251	175	224
852	249	182	220
853	0	0	0
854	0	0	0
855	0	0	0
856	255	211	237
857	253	195	229
858	254	189	230
859	248	175	226
860	253	176	232
861	251	171	231
862	253	175	231
863	243	164	217
864	255	188	228
865	250	187	220
866	0	0	0
867	0	0	0
868	0	0	0
869	0	0	0
870	0	0	0
871	0	0	0
872	0	0	0
873	0	0	0
874	0	0	0
875	0	0	0
876	0	0	0
877	0	0	0
878	0	0	0
879	0	0	0
880	0	0	0
881	0	0	0
882	0	0	0
883	0	0	0
884	0	0	0
885	0	0	0
886	0	0	0
887	0	0	0
888	0	0	0
889	0	0	0
890	0	0	0
891	0	0	0
892	0	0	0
893	0	0	0
894	0	0	0
895	0	0	0
896	0	0	0
897	255	235	231
898	255	204	219
899	246	171	210
900	248	157	216
901	249	146	222
902	252	140	228
903	246	126	223
904	247	124	224
905	249	127	225
906	253	135	229
907	254	139	231
908	251	140	227
909	246	141	221
910	253	158	227
911	255	174	234
912	255	182	232
913	253	186	225
914	0	0	0
915	0	0	0
916	0	0	0
917	254	206	234
918	249	190	227
919	249	182	228
920	245	169	225
921	250	172	232
922	249	167	231
923	251	168	231
924	243	160	221
925	250	172	225
926	244	172	218
927	255	195	226
928	0	0	0
929	0	0	0
930	0	0	0
931	0	0	0
932	0	0	0
933	0	0	0
934	0	0	0
935	0	0	0
936	0	0	0
937	0	0	0
938	0	0	0
939	0	0	0
940	0	0	0
941	0	0	0
942	0	0	0
943	0	0	0
944	0	0	0
945	0	0	0
946	0	0	0
947	0	0	0
948	0	0	0
949	0	0	0
950	0	0	0
951	0	0	0
952	0	0	0
953	0	0	0
954	0	0	0
955	0	0	0
956	0	0	0
957	255	234	230
958	255	226	230
959	255	192	219
960	245	159	211
961	250	152	220
962	249	139	224
963	249	131	226
964	242	116	218
965	250	125	226
966	251	128	227
967	254	134	229
968	253	137	229
969	254	143	229
970	250	145	224
971	255	162	229
972	255	178	232
973	255	182	228
974	254	187	226
975	255	199	230
976	0	0	0
977	255	224	241
978	255	213	239
979	248	190	228
980	249	182	229
981	251	178	233
982	255	181	239
983	251	170	233
984	254	172	235
985	252	169	230
986	255	182	236
987	244	164	218
988	255	188	228
989	252	193	222
990	0	0	0
991	0	0	0
992	0	0	0
993	0	0	0
994	0	0	0
995	0	0	0
996	0	0	0
997	0	0	0
998	0	0	0
999	0	0	0
1000	0	0	0
1001	0	0	0
1002	0	0	0
1003	0	0	0
1004	0	0	0
1005	0	0	0
1006	0	0	0
1007	0	0	0
1008	0	0	0
1009	0	0	0
1010	0	0	0
1011	0	0	0
1012	0	0	0
1013	0	0	0
1014	0	0	0
1015	0	0	0
1016	0	0	0
1017	255	247	236
1018	255	235	236
1019	255	195	217
1020	243	162	207
1021	246	151	214
1022	249	142	221
1023	251	135	226
1024	249	126	225
1025	246	118	221
1026	253	127	228
1027	251	126	226
1028	253	131	228
1029	253	136	228
1030	253	141	228
1031	249	143	223
1032	255	161	229
1033	255	172	229
1034	253	177	225
1035	255	189	228
1036	255	201	233
1037	255	205	232
1038	0	0	0
1039	252	207	233
1040	243	185	224
1041	250	186	231
1042	252	182	234
1043	253	177	235
1044	248	167	228
1045	255	173	233
1046	255	171	228
1047	251	166	223
1048	237	150	209
1049	247	169	218
1050	245	176	215
1051	0	0	0
1052	0	0	0
1053	0	0	0
1054	0	0	0
1055	0	0	0
1056	0	0	0
1057	0	0	0
1058	0	0	0
1059	0	0	0
1060	0	0	0
1061	0	0	0
1062	0	0	0
1063	0	0	0
1064	0	0	0
1065	0	0	0
1066	0	0	0
1067	0	0	0
1068	0	0	0
1069	0	0	0
1070	0	0	0
1071	0	0	0
1072	0	0	0
1073	0	0	0
1074	0	0	0
1075	0	0	0
1076	0	0	0
1077	0	0	0
1078	255	244	236
1079	255	204	220
1080	242	166	206
1081	248	159	215
1082	250	146	220
1083	254	142	226
1084	253	132	225
1085	254	130	228
1086	251	121	224
1087	253	125	227
1088	250	123	225
1089	253	130	228
1090	253	135	228
1091	252	140	228
1092	248	142	224
1093	251	155	227
1094	253	167	230
1095	254	177	229
1096	255	189	230
1097	253	193	227
1098	250	197	224
1099	0	0	0
1100	0	0	0
1101	250	198	232
1102	255	199	239
1103	248	181	231
1104	250	177	232
1105	249	170	229
1106	255	178	236
1107	251	162	223
1108	248	158	219
1109	243	153	215
1110	255	173	226
1111	249	173	220
1112	0	0	0
1113	0	0	0
1114	0	0	0
1115	0	0	0
1116	0	0	0
1117	0	0	0
1118	0	0	0
1119	0	0	0
1120	0	0	0
1121	0	0	0
1122	0	0	0
1123	0	0	0
1124	0	0	0
1125	0	0	0
1126	0	0	0
1127	0	0	0
1128	0	0	0
1129	0	0	0
1130	0	0	0
1131	0	0	0
1132	0	0	0
1133	0	0	0
1134	0	0	0
1135	0	0	0
1136	0	0	0
1137	0	0	0
1138	0	0	0
1139	255	222	228
1140	250	184	213
1141	241	154	208
1142	247	146	217
1143	249	137	222
1144	251	130	224
1145	249	122	221
1146	249	118	221
1147	249	116	221
1148	250	119	224
1149	252	124	226
1150	253	130	228
1151	252	134	228
1152	251	139	228
1153	250	145	227
1154	253	159	231
1155	255	175	236
1156	255	186	237
1157	255	191	233
1158	254	194	229
1159	250	197	226
1160	0	0	0
1161	0	0	0
1162	254	208	237
1163	252	196	234
1164	244	179	227
1165	249	178	232
1166	249	172	231
1167	250	164	228
1168	243	150	217
1169	247	154	220
1170	244	150	217
1171	252	164	225
1172	249	165	221
1173	255	183	227
1174	0	0	0
1175	255	207	222
1176	0	0	0
1177	0	0	0
1178	0	0	0
1179	0	0	0
1180	0	0	0
1181	0	0	0
1182	0	0	0
1183	0	0	0
1184	0	0	0
1185	0	0	0
1186	0	0	0
1187	0	0	0
1188	0	0	0
1189	0	0	0
1190	0	0	0
1191	0	0	0
1192	0	0	0
1193	0	0	0
1194	0	0	0
1195	0	0	0
1196	0	0	0
1197	0	0	0
1198	0	0	0
1199	255	223	230
1200	255	201	222
1201	250	172	215
1202	241	143	212
1203	247	138	222
1204	246	126	223
1205	248	122	225
1206	245	112	219
1207	249	115	223
1208	248	112	222
1209	252	120	227
1210	252	124	227
1211	252	128	227
1212	250	132	227
1213	251	141	229
1214	250	147	227
1215	255	165	234
1216	255	181	238
1217	255	184	234
1218	255	191	235
1219	253	193	233
1220	249	196	228
1221	0	0	0
1222	0	0	0
1223	254	212	238
1224	253	201	236
1225	245	181	228
1226	250	180	233
1227	249	171	231
1228	249	164	229
1229	249	158	226
1230	255	164	230
1231	252	157	225
1232	255	171	233
1233	249	158	222
1234	255	177	229
1235	244	164	209
1236	250	182	213
1237	255	200	217
1238	0	0	0
1239	0	0	0
1240	0	0	0
1241	0	0	0
1242	0	0	0
1243	0	0	0
1244	0	0	0
1245	0	0	0
1246	0	0	0
1247	0	0	0
1248	0	0	0
1249	0	0	0
1250	0	0	0
1251	0	0	0
1252	0	0	0
1253	0	0	0
1254	0	0	0
1255	0	0	0
1256	0	0	0
1257	0	0	0
1258	0	0	0
1259	255	240	243
1260	255	214	231
1261	249	177	216
1262	241	148	210
1263	245	141	220
1264	249	133	228
1265	249	126	229
1266	250	120	228
1267	248	113	223
1268	251	115	225
1269	243	106	219
1270	246	113	223
1271	249	122	226
1272	249	126	226
1273	253	138	231
1274	254	147	233
1275	253	153	231
1276	255	171	237
1277	252	169	229
1278	248	173	226
1279	255	196	238
1280	255	199	236
1281	251	200	231
1282	0	0	0
1283	0	0	0
1284	254	216	240
1285	253	201	237
1286	246	182	231
1287	250	178	234
1288	248	170	231
1289	255	171	236
1290	255	166	234
1291	255	166	235
1292	255	159	226
1293	250	153	220
1294	241	141	211
1295	239	141	208
1296	227	131	195
1297	243	160	208
1298	248	178	211
1299	255	202	218
1300	0	0	0
1301	0	0	0
1302	0	0	0
1303	0	0	0
1304	0	0	0
1305	0	0	0
1306	0	0	0
1307	0	0	0
1308	0	0	0
1309	0	0	0
1310	0	0	0
1311	0	0	0
1312	0	0	0
1313	0	0	0
1314	0	0	0
1315	0	0	0
1316	0	0	0
1317	0	0	0
1318	0	0	0
1319	255	238	239
1320	255	229	237
1321	254	190	220
1322	242	155	212
1323	246	147	222
1324	248	137	228
1325	248	129	230
1326	245	119	227
1327	246	115	225
1328	243	107	218
1329	240	102	215
1330	232	92	210
1331	240	106	219
1332	243	115	222
1333	249	130	229
1334	253	142	234
1335	253	149	233
1336	251	154	229
1337	246	155	224
1338	240	155	219
1339	248	175	227
1340	255	196	234
1341	251	196	228
1342	0	0	0
1343	0	0	0
1344	0	0	0
1345	255	218	239
1346	254	203	236
1347	251	189	233
1348	255	186	238
1349	252	172	232
1350	255	173	237
1351	251	156	229
1352	254	157	230
1353	253	154	224
1354	249	148	218
1355	251	151	220
1356	251	153	221
1357	245	148	215
1358	255	178	231
1359	247	165	212
1360	255	189	219
1361	255	199	216
1362	0	0	0
1363	0	0	0
1364	0	0	0
1365	0	0	0
1366	0	0	0
1367	0	0	0
1368	0	0	0
1369	0	0	0
1370	0	0	0
1371	0	0	0
1372	0	0	0
1373	0	0	0
1374	0	0	0
1375	0	0	0
1376	0	0	0
1377	0	0	0
1378	0	0	0
1379	255	233	237
1380	255	219	232
1381	255	196	222
1382	238	156	207
1383	241	146	216
1384	244	136	223
1385	250	137	232
1386	247	127	230
1387	252	129	234
1388	251	124	231
1389	245	113	221
1390	242	108	218
1391	249	120	229
1392	255	134	238
1393	249	127	230
1394	254	141	236
1395	255	149	237
1396	255	156	236
1397	252	160	232
1398	247	161	226
1399	252	176	232
1400	255	197	240
1401	254	197	231
1402	248	197	225
1403	0	0	0
1404	0	0	0
1405	0	0	0
1406	251	216	234
1407	252	204	232
1408	250	189	227
1409	254	183	229
1410	251	170	225
1411	251	161	225
1412	243	144	219
1413	252	151	227
1414	251	149	223
1415	255	154	225
1416	255	157	226
1417	255	157	226
1418	252	154	223
1419	249	153	220
1420	235	141	204
1421	244	160	211
1422	245	172	209
1423	255	194	216
1424	255	217	226
1425	255	225	227
1426	0	0	0
1427	0	0	0
1428	0	0	0
1429	255	241	232
1430	255	241	230
1431	255	245	233
1432	255	252	238
1433	255	248	238
1434	255	246	239
1435	255	246	240
1436	255	243	238
1437	0	0	0
1438	0	0	0
1439	0	0	0
1440	255	214	231
1441	246	184	218
1442	239	161	213
1443	238	147	214
1444	237	134	216
1445	243	135	224
1446	246	132	227
1447	249	133	231
1448	254	135	236
1449	250	126	231
1450	243	115	221
1451	253	129	231
1452	255	141	241
1453	255	140	239
1454	248	133	230
1455	252	144	234
1456	253	152	237
1457	251	157	235
1458	249	161	232
1459	253	176	235
1460	255	190	236
1461	251	191	230
1462	245	192	225
1463	0	0	0
1464	0	0	0
1465	0	0	0
1466	0	0	0
1467	255	234	243
1468	255	223	242
1469	248	190	225
1470	254	185	228
1471	252	172	225
1472	253	164	227
1473	245	144	221
1474	254	151	230
1475	249	143	222
1476	253	148	224
1477	255	152	224
1478	255	153	224
1479	254	151	223
1480	252	152	223
1481	249	152	219
1482	255	174	228
1483	251	168	216
1484	255	191	223
1485	255	192	215
1486	254	199	214
1487	255	212	221
1488	0	0	0
1489	255	237	233
1490	255	232	228
1491	254	224	221
1492	255	229	225
1493	255	235	232
1494	255	232	231
1495	255	222	226
1496	255	221	228
1497	254	216	226
1498	249	207	222
1499	0	0	0
1500	0	0	0
1501	255	207	235
1502	247	176	222
1503	247	165	226
1504	243	149	224
1505	246	145	229
1506	248	143	232
1507	246	136	229
1508	248	135	231
1509	254	141	238
1510	249	132	232
1511	243	122	224
1512	253	136	234
1513	255	147	240
1514	255	145	237
1515	246	138	229
1516	251	149	234
1517	255	163	240
1518	254	168	239
1519	252	174	237
1520	255	188	239
1521	255	199	237
1522	0	0	0
1523	0	0	0
1524	0	0	0
1525	0	0	0
1526	0	0	0
1527	0	0	0
1528	255	251	253
1529	255	222	240
1530	247	191	226
1531	253	185	231
1532	253	173	229
1533	251	160	227
1534	243	141	221
1535	247	141	225
1536	243	133	219
1537	252	144	224
1538	255	148	222
1539	255	150	221
1540	255	149	221
1541	255	155	225
1542	255	157	225
1543	255	160	223
1544	248	156	212
1545	249	164	212
1546	245	166	206
1547	249	180	211
1548	253	193	216
1549	255	210	223
1550	255	234	236
1551	255	219	222
1552	252	211	217
1553	255	216	222
1554	255	221	225
1555	252	210	219
1556	247	200	216
1557	245	195	216
1558	242	190	217
1559	248	197	225
1560	0	0	0
1561	0	0	0
1562	255	195	236
1563	248	174	228
1564	244	160	227
1565	241	151	226
1566	241	144	227
1567	237	135	224
1568	234	128	222
1569	240	133	229
1570	246	138	233
1571	245	134	231
1572	239	125	225
1573	249	140	234
1574	254	149	236
1575	250	146	231
1576	243	140	225
1577	251	157	234
1578	254	170	239
1579	252	176	237
1580	250	182	236
1581	252	194	237
1582	0	0	0
1583	0	0	0
1584	0	0	0
1585	0	0	0
1586	0	0	0
1587	0	0	0
1588	0	0	0
1589	255	250	252
1590	251	215	233
1591	254	203	234
1592	255	198	240
1593	247	166	225
1594	246	153	223
1595	250	152	228
1596	255	153	233
1597	253	145	229
1598	255	157	236
1599	252	140	220
1600	253	141	219
1601	249	137	216
1602	253	144	220
1603	255	149	223
1604	255	153	222
1605	251	151	214
1606	254	161	216
1607	247	158	210
1608	253	172	217
1609	251	178	216
1610	255	195	222
1611	255	215	228
1612	251	199	213
1613	255	211	224
1614	255	216	229
1615	249	196	217
1616	242	184	211
1617	251	196	222
1618	248	190	221
1619	250	193	227
1620	255	199	234
1621	255	206	242
1622	255	193	237
1623	250	182	232
1624	236	158	221
1625	244	166	232
1626	238	153	228
1627	252	171	242
1628	246	161	237
1629	255	170	245
1630	255	176	252
1631	251	157	240
1632	250	153	238
1633	251	152	238
1634	255	167	247
1635	251	154	234
1636	248	152	230
1637	248	156	231
1638	255	173	240
1639	254	180	239
1640	250	185	236
1641	0	0	0
1642	0	0	0
1643	0	0	0
1644	0	0	0
1645	0	0	0
1646	0	0	0
1647	0	0	0
1648	0	0	0
1649	0	0	0
1650	255	248	248
1651	255	227	239
1652	255	213	238
1653	250	186	228
1654	237	155	217
1655	250	161	229
1656	255	160	230
1657	255	160	235
1658	255	152	232
1659	255	144	229
1660	247	130	219
1661	248	130	219
1662	244	125	214
1663	249	133	218
1664	251	138	220
1665	251	141	218
1666	247	139	210
1667	245	141	208
1668	240	140	206
1669	244	151	212
1670	243	158	211
1671	251	176	218
1672	255	195	222
1673	255	197	220
1674	255	209	229
1675	248	185	216
1676	235	167	211
1677	242	177	221
1678	249	187	227
1679	247	185	225
1680	247	185	224
1681	245	184	225
1682	250	190	234
1683	235	169	222
1684	227	155	215
1685	227	156	219
1686	233	162	229
1687	241	174	239
1688	252	190	247
1689	251	189	245
1690	255	198	251
1691	254	182	242
1692	246	165	234
1693	254	172	242
1694	254	170	238
1695	251	165	235
1696	243	154	229
1697	250	165	236
1698	250	170	235
1699	254	182	239
1700	0	0	0
1701	0	0	0
1702	0	0	0
1703	0	0	0
1704	0	0	0
1705	0	0	0
1706	0	0	0
1707	0	0	0
1708	0	0	0
1709	0	0	0
1710	0	0	0
1711	255	248	247
1712	255	227	239
1713	255	212	236
1714	248	184	225
1715	249	173	228
1716	255	180	241
1717	255	161	231
1718	255	161	235
1719	244	130	219
1720	243	124	218
1721	251	133	226
1722	253	134	227
1723	250	130	223
1724	255	138	226
1725	254	138	224
1726	254	141	222
1727	248	135	213
1728	247	138	213
1729	250	146	219
1730	254	159	225
1731	253	164	223
1732	255	182	229
1733	255	180	220
1734	253	182	217
1735	255	194	226
1736	241	169	213
1737	248	180	229
1738	254	189	238
1739	255	194	238
1740	251	189	232
1741	246	186	228
1742	242	184	227
1743	248	196	238
1744	229	173	223
1745	234	184	231
1746	234	184	233
1747	0	0	0
1748	0	0	0
1749	0	0	0
1750	0	0	0
1751	0	0	0
1752	0	0	0
1753	254	192	241
1754	255	200	250
1755	250	177	233
1756	247	172	231
1757	249	174	235
1758	255	187	244
1759	249	180	234
1760	252	192	237
1761	0	0	0
1762	0	0	0
1763	0	0	0
1764	0	0	0
1765	0	0	0
1766	0	0	0
1767	0	0	0
1768	0	0	0
1769	0	0	0
1770	0	0	0
1771	0	0	0
1772	255	251	250
1773	255	230	241
1774	255	215	240
1775	255	206	241
1776	255	193	240
1777	255	179	236
1778	253	160	230
1779	242	135	220
1780	227	106	206
1781	242	122	222
1782	250	131	228
1783	252	131	228
1784	249	128	223
1785	251	131	223
1786	250	131	220
1787	247	129	217
1788	243	125	214
1789	250	138	223
1790	252	146	226
1791	255	155	227
1792	253	159	222
1793	248	158	215
1794	243	156	210
1795	244	164	213
1796	250	175	222
1797	247	175	223
1798	250	182	232
1799	245	181	230
1800	243	184	229
1801	234	176	221
1802	230	173	221
1803	234	183	227
1804	239	193	233
1805	239	200	236
1806	243	210	243
1807	0	0	0
1808	0	0	0
1809	0	0	0
1810	0	0	0
1811	0	0	0
1812	0	0	0
1813	0	0	0
1814	0	0	0
1815	255	204	240
1816	0	0	0
1817	253	192	237
1818	254	193	240
1819	254	195	239
1820	246	189	230
1821	0	0	0
1822	0	0	0
1823	0	0	0
1824	0	0	0
1825	0	0	0
1826	0	0	0
1827	0	0	0
1828	0	0	0
1829	0	0	0
1830	0	0	0
1831	0	0	0
1832	0	0	0
1833	255	249	249
1834	255	226	239
1835	255	210	237
1836	255	200	238
1837	251	179	230
1838	248	164	226
1839	253	160	230
1840	243	137	222
1841	246	134	227
1842	255	150	243
1843	251	133	230
1844	252	133	229
1845	251	130	226
1846	253	133	226
1847	250	130	221
1848	248	129	219
1849	253	137	227
1850	255	150	236
1851	249	139	225
1852	252	148	226
1853	255	159	225
1854	251	158	219
1855	249	160	219
1856	250	167	222
1857	250	174	225
1858	246	173	224
1859	252	191	236
1860	0	0	0
1861	0	0	0
1862	0	0	0
1863	0	0	0
1864	0	0	0
1865	0	0	0
1866	0	0	0
1867	0	0	0
1868	0	0	0
1869	0	0	0
1870	0	0	0
1871	0	0	0
1872	0	0	0
1873	0	0	0
1874	0	0	0
1875	0	0	0
1876	0	0	0
1877	0	0	0
1878	0	0	0
1879	249	196	233
1880	0	0	0
1881	0	0	0
1882	0	0	0
1883	0	0	0
1884	0	0	0
1885	0	0	0
1886	0	0	0
1887	0	0	0
1888	0	0	0
1889	0	0	0
1890	0	0	0
1891	0	0	0
1892	0	0	0
1893	0	0	0
1894	0	0	0
1895	255	222	237
1896	252	205	234
1897	249	187	231
1898	243	167	225
1899	247	164	229
1900	251	159	230
1901	254	157	233
1902	255	154	238
1903	253	143	234
1904	242	125	221
1905	246	127	223
1906	244	124	220
1907	245	125	220
1908	243	123	217
1909	248	132	222
1910	252	139	226
1911	247	134	222
1912	237	124	214
1913	245	139	221
1914	249	151	222
1915	246	152	218
1916	244	154	218
1917	244	160	219
1918	242	164	219
1919	244	177	224
1920	0	0	0
1921	0	0	0
1922	0	0	0
1923	0	0	0
1924	0	0	0
1925	0	0	0
1926	0	0	0
1927	0	0	0
1928	0	0	0
1929	0	0	0
1930	0	0	0
1931	0	0	0
1932	0	0	0
1933	0	0	0
1934	0	0	0
1935	0	0	0
1936	0	0	0
1937	0	0	0
1938	0	0	0
1939	0	0	0
1940	0	0	0
1941	0	0	0
1942	0	0	0
1943	0	0	0
1944	0	0	0
1945	0	0	0
1946	0	0	0
1947	0	0	0
1948	0	0	0
1949	0	0	0
1950	0	0	0
1951	0	0	0
1952	0	0	0
1953	0	0	0
1954	0	0	0
1955	0	0	0
1956	0	0	0
1957	253	207	236
1958	249	188	232
1959	248	177	232
1960	252	173	235
1961	254	168	234
1962	255	164	235
1963	254	155	234
1964	249	143	229
1965	252	143	231
1966	255	146	234
1967	248	133	226
1968	249	135	226
1969	252	140	229
1970	255	149	234
1971	254	145	229
1972	248	140	225
1973	246	140	224
1974	255	156	233
1975	254	159	230
1976	251	160	226
1977	250	165	226
1978	248	170	226
1979	245	176	224
1980	0	0	0
1981	0	0	0
1982	0	0	0
1983	0	0	0
1984	0	0	0
1985	0	0	0
1986	0	0	0
1987	0	0	0
1988	0	0	0
1989	0	0	0
1990	0	0	0
1991	0	0	0
1992	0	0	0
1993	0	0	0
1994	0	0	0
1995	0	0	0
1996	0	0	0
1997	0	0	0
1998	0	0	0
1999	0	0	0
2000	0	0	0
2001	0	0	0
2002	0	0	0
2003	0	0	0
2004	0	0	0
2005	0	0	0
2006	0	0	0
2007	0	0	0
2008	0	0	0
2009	0	0	0
2010	0	0	0
2011	0	0	0
2012	0	0	0
2013	0	0	0
2014	0	0	0
2015	0	0	0
2016	0	0	0
2017	0	0	0
2018	0	0	0
2019	251	195	235
2020	250	183	233
2021	255	181	237
2022	255	176	236
2023	255	167	234
2024	252	157	232
2025	255	160	238
2026	255	160	240
2027	254	150	234
2028	246	138	227
2029	251	144	232
2030	254	150	235
2031	252	148	233
2032	248	144	227
2033	250	148	229
2034	249	149	229
2035	253	157	232
2036	251	160	229
2037	251	166	229
2038	250	170	229
2039	249	178	229
2040	0	0	0
2041	0	0	0
2042	0	0	0
2043	0	0	0
2044	0	0	0
2045	0	0	0
2046	0	0	0
2047	0	0	0
2048	0	0	0
2049	0	0	0
2050	0	0	0
2051	0	0	0
2052	0	0	0
2053	0	0	0
2054	0	0	0
2055	0	0	0
2056	0	0	0
2057	0	0	0
2058	0	0	0
2059	0	0	0
2060	0	0	0
2061	0	0	0
2062	0	0	0
2063	0	0	0
2064	0	0	0
2065	0	0	0
2066	0	0	0
2067	0	0	0
2068	0	0	0
2069	0	0	0
2070	0	0	0
2071	0	0	0
2072	0	0	0
2073	0	0	0
2074	0	0	0
2075	0	0	0
2076	0	0	0
2077	0	0	0
2078	0	0	0
2079	0	0	0
2080	0	0	0
2081	253	193	236
2082	255	191	240
2083	251	174	233
2084	250	166	231
2085	251	161	232
2086	255	163	237
2087	250	152	231
2088	243	141	225
2089	253	157	236
2090	255	162	240
2091	255	163	240
2092	254	160	237
2093	248	152	230
2094	251	157	232
2095	253	161	234
2096	255	170	237
2097	246	160	226
2098	246	166	225
2099	251	182	231
2100	0	0	0
2101	0	0	0
2102	0	0	0
2103	0	0	0
2104	0	0	0
2105	0	0	0
2106	0	0	0
2107	0	0	0
2108	0	0	0
2109	0	0	0
2110	0	0	0
2111	0	0	0
2112	0	0	0
2113	0	0	0
2114	0	0	0
2115	0	0	0
2116	0	0	0
2117	0	0	0
2118	0	0	0
2119	0	0	0
2120	0	0	0
2121	0	0	0
2122	0	0	0
2123	0	0	0
2124	0	0	0
2125	0	0	0
2126	0	0	0
2127	0	0	0
2128	0	0	0
2129	0	0	0
2130	0	0	0
2131	0	0	0
2132	0	0	0
2133	0	0	0
2134	0	0	0
2135	0	0	0
2136	0	0	0
2137	0	0	0
2138	0	0	0
2139	0	0	0
2140	0	0	0
2141	0	0	0
2142	0	0	0
2143	251	187	234
2144	244	170	228
2145	248	168	231
2146	249	163	232
2147	247	157	231
2148	239	144	223
2149	250	160	234
2150	255	173	241
2151	251	167	234
2152	250	166	235
2153	244	158	229
2154	238	151	223
2155	244	160	228
2156	246	164	229
2157	245	163	226
2158	235	154	217
2159	246	176	226
2160	0	0	0
2161	0	0	0
2162	0	0	0
2163	0	0	0
2164	0	0	0
2165	0	0	0
2166	0	0	0
2167	0	0	0
2168	0	0	0
2169	0	0	0
2170	0	0	0
2171	0	0	0
2172	0	0	0
2173	0	0	0
2174	0	0	0
2175	0	0	0
2176	0	0	0
2177	0	0	0
2178	0	0	0
2179	0	0	0
2180	0	0	0
2181	0	0	0
2182	0	0	0
2183	0	0	0
2184	0	0	0
2185	0	0	0
2186	0	0	0
2187	0	0	0
2188	0	0	0
2189	0	0	0
2190	0	0	0
2191	0	0	0
2192	0	0	0
2193	0	0	0
2194	0	0	0
2195	0	0	0
2196	0	0	0
2197	0	0	0
2198	0	0	0
2199	0	0	0
2200	0	0	0
2201	0	0	0
2202	0	0	0
2203	0	0	0
2204	0	0	0
2205	0	0	0
2206	0	0	0
2207	0	0	0
2208	251	169	235
2209	241	155	227
2210	252	170	236
2211	255	183	239
2212	0	0	0
2213	0	0	0
2214	0	0	0
2215	0	0	0
2216	0	0	0
2217	0	0	0
2218	0	0	0
2219	0	0	0
2220	0	0	0
2221	0	0	0
2222	0	0	0
2223	0	0	0
2224	0	0	0
2225	0	0	0
2226	0	0	0
2227	0	0	0
2228	0	0	0
2229	0	0	0
2230	0	0	0
2231	0	0	0
2232	0	0	0
2233	0	0	0
2234	0	0	0
2235	0	0	0
2236	0	0	0
2237	0	0	0
2238	0	0	0
2239	0	0	0
2240	0	0	0
2241	0	0	0
2242	0	0	0
2243	0	0	0
2244	0	0	0
2245	0	0	0
2246	0	0	0
2247	0	0	0
2248	0	0	0
2249	0	0	0
2250	0	0	0
2251	0	0	0
2252	0	0	0
2253	0	0	0
2254	0	0	0
2255	0	0	0
2256	0	0	0
2257	0	0	0
2258	0	0	0
2259	0	0	0
2260	0	0	0
2261	0	0	0
2262	0	0	0
2263	0	0	0
2264	0	0	0
2265	0	0	0
2266	0	0	0
2267	0	0	0
2268	0	0	0
2269	0	0	0
2270	240	163	227
2271	251	182	238
2272	255	192	238
2273	0	0	0
2274	0	0	0
2275	0	0	0
2276	0	0	0
2277	0	0	0
2278	0	0	0
2279	0	0	0
2280	0	0	0
2281	0	0	0
2282	0	0	0
2283	0	0	0
2284	0	0	0
2285	0	0	0
2286	0	0	0
2287	0	0	0
2288	0	0	0
2289	0	0	0
2290	0	0	0
2291	0	0	0
2292	0	0	0
2293	0	0	0
2294	0	0	0
2295	0	0	0
2296	0	0	0
2297	0	0	0
2298	0	0	0
2299	0	0	0
2300	0	0	0
2301	0	0	0
2302	0	0	0
2303	0	0	0
2304	0	0	0
2305	0	0	0
2306	0	0	0
2307	0	0	0
2308	0	0	0
2309	0	0	0
2310	0	0	0
2311	0	0	0
2312	0	0	0
2313	0	0	0
2314	0	0	0
2315	0	0	0
2316	0	0	0
2317	0	0	0
2318	0	0	0
2319	0	0	0
2320	0	0	0
2321	0	0	0
2322	0	0	0
2323	0	0	0
2324	0	0	0
2325	0	0	0
2326	0	0	0
2327	0	0	0
2328	0	0	0
2329	0	0	0
2330	0	0	0
2331	0	0	0
2332	253	197	241
2333	0	0	0
2334	0	0	0
2335	0	0	0
2336	0	0	0
2337	0	0	0
2338	0	0	0
2339	0	0	0
2340	0	0	0
2341	0	0	0
2342	0	0	0
2343	0	0	0
2344	0	0	0
2345	0	0	0
2346	0	0	0
2347	0	0	0
2348	0	0	0
2349	0	0	0
2350	0	0	0
2351	0	0	0
2352	0	0	0
2353	0	0	0
2354	0	0	0
2355	0	0	0
2356	0	0	0
2357	0	0	0
2358	0	0	0
2359	0	0	0
2360	0	0	0
2361	0	0	0
2362	0	0	0
2363	0	0	0
2364	0	0	0
2365	0	0	0
2366	0	0	0
2367	0	0	0
2368	0	0	0
2369	0	0	0
2370	0	0	0
2371	0	0	0
2372	0	0	0
2373	0	0	0
2374	0	0	0
2375	0	0	0
2376	0	0	0
2377	0	0	0
2378	0	0	0
2379	0	0	0
