 	R	G	B
1	0	0	0
2	0	0	0
3	0	0	0
4	0	0	0
5	0	0	0
6	0	0	0
7	254	202	226
8	254	204	225
9	255	213	230
10	0	0	0
11	0	0	0
12	0	0	0
13	0	0	0
14	0	0	0
15	0	0	0
16	0	0	0
17	0	0	0
18	0	0	0
19	0	0	0
20	0	0	0
21	0	0	0
22	0	0	0
23	0	0	0
24	0	0	0
25	0	0	0
26	0	0	0
27	0	0	0
28	0	0	0
29	0	0	0
30	0	0	0
31	0	0	0
32	0	0	0
33	0	0	0
34	251	196	223
35	255	208	233
36	249	190	217
37	254	199	222
38	250	196	220
39	0	0	0
40	0	0	0
41	0	0	0
42	0	0	0
43	0	0	0
44	0	0	0
45	0	0	0
46	0	0	0
47	0	0	0
48	0	0	0
49	0	0	0
50	0	0	0
51	0	0	0
52	0	0	0
53	0	0	0
54	0	0	0
55	0	0	0
56	0	0	0
57	0	0	0
58	0	0	0
59	0	0	0
60	0	0	0
61	255	206	227
62	253	197	225
63	251	190	222
64	239	172	208
65	246	179	214
66	242	176	212
67	0	0	0
68	0	0	0
69	255	220	233
70	0	0	0
71	0	0	0
72	0	0	0
73	0	0	0
74	0	0	0
75	0	0	0
76	0	0	0
77	0	0	0
78	0	0	0
79	0	0	0
80	0	0	0
81	0	0	0
82	0	0	0
83	0	0	0
84	0	0	0
85	0	0	0
86	0	0	0
87	0	0	0
88	0	0	0
89	0	0	0
90	253	195	227
91	252	188	226
92	245	175	217
93	252	183	223
94	243	171	214
95	0	0	0
96	255	200	228
97	255	210	230
98	249	205	219
99	0	0	0
100	0	0	0
101	0	0	0
102	0	0	0
103	0	0	0
104	0	0	0
105	0	0	0
106	0	0	0
107	0	0	0
108	0	0	0
109	0	0	0
110	0	0	0
111	0	0	0
112	0	0	0
113	0	0	0
114	0	0	0
115	0	0	0
116	0	0	0
117	0	0	0
118	248	189	227
119	248	182	228
120	243	170	219
121	246	171	221
122	238	160	212
123	252	181	224
124	255	191	225
125	253	193	221
126	242	187	211
127	0	0	0
128	0	0	0
129	0	0	0
130	0	0	0
131	0	0	0
132	0	0	0
133	0	0	0
134	0	0	0
135	0	0	0
136	0	0	0
137	0	0	0
138	0	0	0
139	0	0	0
140	0	0	0
141	0	0	0
142	0	0	0
143	0	0	0
144	0	0	0
145	0	0	0
146	253	197	235
147	254	191	236
148	247	177	227
149	253	180	230
150	247	168	222
151	255	189	234
152	249	174	218
153	247	176	215
154	240	178	210
155	0	0	0
156	0	0	0
157	0	0	0
158	0	0	0
159	0	0	0
160	0	0	0
161	0	0	0
162	0	0	0
163	0	0	0
164	0	0	0
165	0	0	0
166	0	0	0
167	0	0	0
168	0	0	0
169	0	0	0
170	0	0	0
171	0	0	0
172	0	0	0
173	0	0	0
174	255	204	238
175	251	191	233
176	245	177	227
177	251	177	230
178	246	166	222
179	248	165	221
180	236	151	206
181	242	164	211
182	237	166	207
183	254	200	225
184	0	0	0
185	0	0	0
186	0	0	0
187	0	0	0
188	0	0	0
189	0	0	0
190	0	0	0
191	0	0	0
192	0	0	0
193	0	0	0
194	0	0	0
195	0	0	0
196	0	0	0
197	0	0	0
198	0	0	0
199	0	0	0
200	0	0	0
201	0	0	0
202	255	201	234
203	245	186	226
204	251	189	233
205	255	189	239
206	244	162	223
207	247	162	224
208	240	153	213
209	247	167	219
210	246	173	218
211	255	207	235
212	255	208	226
213	0	0	0
214	0	0	0
215	0	0	0
216	0	0	0
217	0	0	0
218	0	0	0
219	0	0	0
220	0	0	0
221	0	0	0
222	0	0	0
223	0	0	0
224	0	0	0
225	0	0	0
226	0	0	0
227	0	0	0
228	0	0	0
229	0	0	0
230	252	199	230
231	252	197	231
232	255	200	238
233	247	176	228
234	235	150	218
235	244	157	227
236	238	149	218
237	250	168	228
238	250	175	225
239	252	185	225
240	245	186	216
241	255	211	226
242	0	0	0
243	0	0	0
244	0	0	0
245	0	0	0
246	0	0	0
247	0	0	0
248	0	0	0
249	0	0	0
250	0	0	0
251	0	0	0
252	0	0	0
253	0	0	0
254	0	0	0
255	0	0	0
256	0	0	0
257	0	0	0
258	255	205	233
259	255	205	236
260	254	193	231
261	240	167	220
262	245	167	230
263	255	175	241
264	244	156	226
265	255	177	237
266	251	170	226
267	253	181	226
268	248	182	218
269	255	209	229
270	255	219	230
271	0	0	0
272	0	0	0
273	0	0	0
274	0	0	0
275	0	0	0
276	0	0	0
277	0	0	0
278	0	0	0
279	0	0	0
280	0	0	0
281	0	0	0
282	0	0	0
283	0	0	0
284	0	0	0
285	255	215	238
286	255	211	237
287	253	196	228
288	248	184	223
289	249	182	228
290	254	182	236
291	254	174	236
292	243	156	223
293	249	163	226
294	243	158	217
295	250	171	221
296	247	174	215
297	253	190	219
298	253	200	218
299	255	213	223
300	0	0	0
301	0	0	0
302	0	0	0
303	0	0	0
304	0	0	0
305	0	0	0
306	0	0	0
307	0	0	0
308	0	0	0
309	0	0	0
310	0	0	0
311	0	0	0
312	0	0	0
313	0	0	0
314	255	210	234
315	249	194	225
316	255	197	230
317	255	196	235
318	253	179	231
319	251	171	230
320	248	162	226
321	255	170	231
322	249	162	222
323	255	178	229
324	249	170	218
325	255	187	223
326	250	185	214
327	0	0	0
328	0	0	0
329	0	0	0
330	0	0	0
331	0	0	0
332	0	0	0
333	0	0	0
334	0	0	0
335	0	0	0
336	0	0	0
337	0	0	0
338	0	0	0
339	0	0	0
340	247	205	229
341	249	205	229
342	254	209	233
343	255	207	233
344	255	209	237
345	254	191	228
346	247	174	225
347	251	172	229
348	249	165	225
349	253	167	228
350	249	161	221
351	251	164	223
352	245	159	217
353	251	170	221
354	245	170	213
355	254	189	220
356	0	0	0
357	0	0	0
358	0	0	0
359	0	0	0
360	0	0	0
361	0	0	0
362	0	0	0
363	0	0	0
364	0	0	0
365	0	0	0
366	0	0	0
367	242	207	228
368	248	214	232
369	252	215	234
370	255	217	237
371	255	216	239
372	255	203	232
373	246	184	222
374	252	186	231
375	255	186	236
376	249	167	226
377	255	171	230
378	251	163	224
379	255	169	228
380	250	159	223
381	255	172	230
382	247	162	217
383	255	181	224
384	246	176	212
385	0	0	0
386	0	0	0
387	0	0	0
388	0	0	0
389	0	0	0
390	0	0	0
391	0	0	0
392	0	0	0
393	0	0	0
394	251	217	232
395	250	220	232
396	255	227	236
397	255	225	237
398	255	226	241
399	255	212	235
400	251	199	230
401	253	197	233
402	255	199	238
403	254	184	232
404	246	166	224
405	251	167	226
406	248	159	219
407	249	158	221
408	245	151	219
409	247	153	221
410	238	144	210
411	241	152	211
412	232	148	200
413	248	180	215
414	0	0	0
415	0	0	0
416	0	0	0
417	0	0	0
418	0	0	0
419	0	0	0
420	0	0	0
421	253	218	234
422	255	222	234
423	255	226	235
424	255	224	233
425	255	221	233
426	255	223	237
427	252	207	231
428	251	201	232
429	253	199	234
430	255	202	238
431	254	187	231
432	250	173	227
433	255	174	231
434	253	167	227
435	255	167	229
436	247	151	222
437	251	155	225
438	249	153	221
439	253	162	224
440	243	154	213
441	255	187	228
442	254	191	219
443	0	0	0
444	0	0	0
445	0	0	0
446	0	0	0
447	0	0	0
448	0	0	0
449	0	0	0
450	255	227	235
451	255	224	232
452	255	222	233
453	255	221	234
454	255	221	236
455	254	211	232
456	253	206	236
457	255	205	239
458	255	206	240
459	255	191	231
460	250	177	228
461	254	175	231
462	254	170	232
463	251	160	228
464	242	144	218
465	250	152	224
466	250	152	221
467	253	158	223
468	245	152	216
469	253	169	222
470	247	173	211
471	254	192	217
472	0	0	0
473	0	0	0
474	0	0	0
475	0	0	0
476	0	0	0
477	255	229	237
478	255	225	234
479	255	224	233
480	255	217	230
481	255	216	231
482	255	213	230
483	247	202	225
484	255	216	241
485	255	215	244
486	255	202	235
487	249	185	226
488	254	186	231
489	255	183	234
490	255	177	235
491	255	168	233
492	246	150	222
493	255	160	230
494	252	154	224
495	255	161	228
496	246	148	218
497	255	167	226
498	247	161	211
499	254	182	218
500	254	192	220
501	0	0	0
502	0	0	0
503	0	0	0
504	0	0	0
505	0	0	0
506	255	228	238
507	255	219	232
508	252	212	227
509	252	210	227
510	252	208	227
511	255	216	234
512	255	228	244
513	255	211	235
514	253	199	232
515	252	194	231
516	255	194	233
517	255	185	230
518	255	178	228
519	252	166	225
520	245	151	219
521	251	154	225
522	249	149	221
523	248	147	220
524	240	136	212
525	247	147	218
526	241	145	210
527	249	164	217
528	247	173	214
529	0	0	0
530	0	0	0
531	0	0	0
532	0	0	0
533	0	0	0
534	0	0	0
535	248	208	226
536	255	218	232
537	255	216	231
538	252	207	227
539	255	216	234
540	255	214	232
541	247	195	221
542	254	202	232
543	252	197	232
544	255	205	238
545	255	195	233
546	254	182	227
547	252	171	225
548	250	161	224
549	255	165	231
550	253	155	226
551	254	155	227
552	247	141	219
553	255	155	228
554	245	143	216
555	255	163	224
556	245	159	212
557	0	0	0
558	0	0	0
559	0	0	0
560	0	0	0
561	0	0	0
562	0	0	0
563	254	215	234
564	255	224	239
565	255	214	231
566	250	205	226
567	251	204	227
568	250	201	224
569	251	203	227
570	255	209	236
571	255	210	239
572	255	217	245
573	255	199	235
574	254	186	229
575	255	179	230
576	253	169	227
577	255	165	228
578	252	156	226
579	251	150	225
580	244	138	218
581	247	140	220
582	237	129	209
583	244	142	214
584	236	140	204
585	248	167	216
586	0	0	0
587	0	0	0
588	0	0	0
589	0	0	0
590	0	0	0
591	252	211	232
592	255	227	241
593	255	216	233
594	252	208	229
595	253	206	229
596	253	207	229
597	254	208	231
598	255	210	234
599	255	210	236
600	255	220	245
601	255	202	234
602	255	193	233
603	255	186	233
604	251	169	226
605	253	165	228
606	252	158	229
607	252	154	229
608	251	147	227
609	254	150	230
610	244	135	218
611	253	149	226
612	238	136	209
613	251	164	221
614	250	176	220
615	0	0	0
616	0	0	0
617	0	0	0
618	254	207	232
619	255	219	238
620	255	235	246
621	255	220	235
622	255	211	232
623	255	211	234
624	255	212	234
625	255	214	235
626	255	214	234
627	255	219	238
628	255	228	247
629	255	211	238
630	255	201	235
631	253	183	228
632	247	167	224
633	249	164	229
634	250	158	231
635	252	156	233
636	250	149	229
637	250	144	228
638	242	131	221
639	243	133	222
640	229	121	206
641	241	146	216
642	241	158	213
643	255	189	223
644	0	0	0
645	255	208	238
646	247	192	226
647	254	205	232
648	255	217	236
649	247	200	222
650	255	214	234
651	255	214	235
652	255	214	236
653	255	216	237
654	254	208	229
655	255	212	232
656	255	215	236
657	251	197	226
658	255	200	232
659	249	182	225
660	254	182	232
661	255	179	237
662	255	170	238
663	255	168	241
664	251	152	232
665	251	148	232
666	245	137	227
667	247	140	229
668	243	139	223
669	255	166	235
670	248	162	223
671	255	195	235
672	253	193	221
673	244	187	226
674	235	173	217
675	246	190	228
676	252	202	230
677	255	210	232
678	255	223	241
679	255	220	238
680	255	219	238
681	255	212	234
682	253	205	228
683	252	204	228
684	255	205	231
685	252	200	229
686	255	202	233
687	255	196	231
688	255	195	235
689	255	184	234
690	254	175	235
691	250	163	233
692	244	149	228
693	244	144	228
694	238	133	221
695	246	144	228
696	244	145	225
697	248	154	228
698	242	154	221
699	245	166	222
700	237	165	210
701	252	199	235
702	244	186	230
703	255	203	241
704	253	199	233
705	255	208	234
706	255	210	234
707	254	206	229
708	255	212	233
709	253	205	229
710	252	203	228
711	251	201	229
712	255	209	236
713	254	204	233
714	255	206	236
715	253	198	231
716	255	206	239
717	255	194	235
718	254	182	235
719	250	170	234
720	250	163	235
721	250	159	236
722	248	155	233
723	255	166	240
724	250	158	232
725	255	171	239
726	252	167	233
727	255	181	237
728	0	0	0
729	0	0	0
730	244	187	231
731	250	193	236
732	246	190	229
733	249	195	229
734	250	198	229
735	252	202	230
736	255	207	231
737	252	203	228
738	252	201	230
739	255	207	236
740	255	214	241
741	255	211	239
742	255	213	241
743	255	212	240
744	255	218	245
745	255	200	235
746	251	187	234
747	251	181	237
748	250	174	238
749	255	175	243
750	253	171	239
751	255	171	239
752	250	165	234
753	255	171	237
754	251	168	231
755	249	167	228
756	236	156	214
757	0	0	0
758	0	0	0
759	255	207	245
760	250	195	234
761	254	201	236
762	255	205	236
763	255	209	237
764	251	199	228
765	248	195	226
766	255	206	235
767	255	210	239
768	254	209	237
769	250	204	234
770	255	216	242
771	252	213	239
772	255	219	242
773	247	200	231
774	255	203	240
775	255	197	242
776	255	189	243
777	255	191	247
778	254	181	240
779	255	182	241
780	254	176	238
781	255	183	243
782	247	165	229
783	247	167	228
784	244	167	225
785	0	0	0
786	0	0	0
787	0	0	0
788	247	193	231
789	254	202	236
790	255	205	235
791	250	197	229
792	245	189	226
793	251	200	234
794	255	209	238
795	250	204	232
796	246	201	229
797	249	209	234
798	254	220	242
799	249	218	238
800	253	223	240
801	253	218	239
802	255	221	245
803	255	212	244
804	255	204	244
805	253	196	242
806	249	186	236
807	247	182	234
808	246	176	232
809	242	167	228
810	231	151	219
811	238	162	227
812	0	0	0
813	0	0	0
814	0	0	0
815	0	0	0
816	0	0	0
817	255	208	241
818	251	198	233
819	0	0	0
820	251	198	237
821	255	208	243
822	255	211	239
823	247	204	231
824	252	215	237
825	255	223	241
826	252	225	241
827	0	0	0
828	0	0	0
829	253	227	240
830	0	0	0
831	0	0	0
832	0	0	0
833	0	0	0
834	0	0	0
835	0	0	0
836	0	0	0
837	0	0	0
838	0	0	0
839	0	0	0
840	0	0	0
841	0	0	0
842	0	0	0
843	0	0	0
844	0	0	0
845	0	0	0
846	0	0	0
847	0	0	0
848	0	0	0
849	247	204	237
850	0	0	0
851	247	214	236
852	251	224	240
853	250	226	239
854	0	0	0
855	0	0	0
856	0	0	0
857	0	0	0
858	0	0	0
859	0	0	0
860	0	0	0
861	0	0	0
862	0	0	0
863	0	0	0
864	0	0	0
865	0	0	0
866	0	0	0
867	0	0	0
868	0	0	0
