 	R	G	B
1	0	0	0
2	0	0	0
3	0	0	0
4	0	0	0
5	0	0	0
6	255	233	231
7	0	0	0
8	0	0	0
9	0	0	0
10	0	0	0
11	0	0	0
12	0	0	0
13	0	0	0
14	0	0	0
15	0	0	0
16	0	0	0
17	0	0	0
18	0	0	0
19	0	0	0
20	0	0	0
21	0	0	0
22	0	0	0
23	0	0	0
24	0	0	0
25	0	0	0
26	0	0	0
27	0	0	0
28	0	0	0
29	0	0	0
30	0	0	0
31	0	0	0
32	0	0	0
33	0	0	0
34	248	215	223
35	255	225	229
36	252	221	226
37	0	0	0
38	0	0	0
39	0	0	0
40	0	0	0
41	0	0	0
42	0	0	0
43	0	0	0
44	0	0	0
45	0	0	0
46	0	0	0
47	0	0	0
48	0	0	0
49	0	0	0
50	0	0	0
51	0	0	0
52	0	0	0
53	0	0	0
54	0	0	0
55	0	0	0
56	0	0	0
57	0	0	0
58	0	0	0
59	0	0	0
60	0	0	0
61	0	0	0
62	249	214	228
63	244	203	219
64	250	209	224
65	246	206	220
66	255	222	228
67	0	0	0
68	0	0	0
69	0	0	0
70	0	0	0
71	0	0	0
72	0	0	0
73	0	0	0
74	0	0	0
75	0	0	0
76	0	0	0
77	0	0	0
78	0	0	0
79	0	0	0
80	0	0	0
81	0	0	0
82	0	0	0
83	0	0	0
84	0	0	0
85	0	0	0
86	0	0	0
87	0	0	0
88	0	0	0
89	0	0	0
90	250	223	235
91	255	225	239
92	244	197	222
93	251	204	227
94	248	200	221
95	255	216	228
96	255	216	221
97	0	0	0
98	0	0	0
99	0	0	0
100	0	0	0
101	0	0	0
102	0	0	0
103	0	0	0
104	0	0	0
105	0	0	0
106	0	0	0
107	0	0	0
108	0	0	0
109	0	0	0
110	0	0	0
111	0	0	0
112	0	0	0
113	0	0	0
114	0	0	0
115	0	0	0
116	0	0	0
117	0	0	0
118	0	0	0
119	251	227	237
120	250	210	231
121	237	183	216
122	247	193	224
123	245	189	219
124	249	196	219
125	247	197	212
126	254	210	217
127	255	222	222
128	255	223	221
129	255	225	222
130	255	236	228
131	0	0	0
132	0	0	0
133	0	0	0
134	0	0	0
135	0	0	0
136	0	0	0
137	0	0	0
138	0	0	0
139	0	0	0
140	0	0	0
141	0	0	0
142	0	0	0
143	0	0	0
144	0	0	0
145	0	0	0
146	0	0	0
147	0	0	0
148	255	232	242
149	255	217	238
150	241	185	221
151	253	196	230
152	250	190	224
153	255	198	225
154	251	193	216
155	255	208	222
156	254	203	215
157	253	204	213
158	254	210	217
159	255	220	222
160	255	221	216
161	0	0	0
162	0	0	0
163	0	0	0
164	0	0	0
165	0	0	0
166	0	0	0
167	0	0	0
168	0	0	0
169	0	0	0
170	0	0	0
171	0	0	0
172	0	0	0
173	0	0	0
174	0	0	0
175	0	0	0
176	0	0	0
177	255	235	244
178	252	212	234
179	238	180	217
180	250	189	227
181	248	184	222
182	252	188	222
183	249	184	216
184	251	187	215
185	246	182	208
186	249	190	211
187	250	194	212
188	249	197	211
189	248	200	210
190	0	0	0
191	0	0	0
192	0	0	0
193	0	0	0
194	0	0	0
195	0	0	0
196	0	0	0
197	0	0	0
198	0	0	0
199	0	0	0
200	0	0	0
201	0	0	0
202	0	0	0
203	0	0	0
204	0	0	0
205	0	0	0
206	255	236	243
207	253	213	235
208	243	185	222
209	255	195	232
210	250	182	224
211	255	187	227
212	253	183	222
213	255	186	222
214	245	171	209
215	249	179	211
216	254	190	215
217	252	193	214
218	0	0	0
219	0	0	0
220	0	0	0
221	0	0	0
222	0	0	0
223	0	0	0
224	0	0	0
225	0	0	0
226	0	0	0
227	0	0	0
228	0	0	0
229	0	0	0
230	0	0	0
231	0	0	0
232	0	0	0
233	0	0	0
234	254	238	240
235	255	240	246
236	255	216	236
237	246	189	224
238	252	188	229
239	248	176	223
240	252	178	226
241	251	174	222
242	248	168	216
243	237	153	203
244	247	169	210
245	252	180	214
246	254	186	214
247	253	189	213
248	255	198	216
249	255	205	214
250	255	209	214
251	255	216	216
252	255	223	219
253	0	0	0
254	0	0	0
255	0	0	0
256	0	0	0
257	0	0	0
258	0	0	0
259	0	0	0
260	0	0	0
261	0	0	0
262	255	250	247
263	255	247	249
264	255	227	239
265	248	201	226
266	249	192	227
267	255	191	232
268	251	177	226
269	255	180	230
270	255	176	226
271	253	169	221
272	243	156	210
273	254	173	219
274	255	181	220
275	255	187	220
276	248	173	208
277	252	184	211
278	255	194	213
279	255	199	213
280	255	207	217
281	255	213	219
282	250	205	210
283	0	0	0
284	0	0	0
285	0	0	0
286	0	0	0
287	0	0	0
288	0	0	0
289	0	0	0
290	0	0	0
291	255	253	250
292	255	234	242
293	252	214	232
294	254	206	232
295	254	196	231
296	255	190	232
297	252	177	226
298	255	177	227
299	255	173	222
300	252	165	217
301	244	154	211
302	255	168	220
303	255	176	221
304	250	166	211
305	239	154	200
306	246	168	206
307	250	179	208
308	252	186	208
309	255	194	211
310	248	188	205
311	240	181	199
312	251	200	211
313	255	218	224
314	255	212	219
315	249	207	217
316	255	221	227
317	0	0	0
318	0	0	0
319	0	0	0
320	255	250	249
321	254	226	236
322	255	217	235
323	255	209	236
324	254	192	230
325	255	186	230
326	249	170	222
327	253	170	224
328	252	165	219
329	249	159	215
330	250	159	217
331	255	174	227
332	254	165	218
333	246	156	209
334	248	161	212
335	255	177	219
336	255	179	215
337	255	186	215
338	254	184	211
339	248	179	206
340	250	184	209
341	255	203	222
342	254	197	217
343	246	190	211
344	246	196	213
345	251	209	221
346	255	223	227
347	0	0	0
348	0	0	0
349	0	0	0
350	255	229	236
351	255	221	239
352	255	208	237
353	255	190	231
354	253	179	228
355	246	163	219
356	250	163	222
357	250	160	221
358	254	163	224
359	254	162	222
360	252	158	219
361	247	151	213
362	252	160	219
363	255	165	222
364	255	171	222
365	255	173	217
366	252	171	212
367	249	169	208
368	252	176	212
369	254	182	216
370	247	177	211
371	239	169	205
372	239	175	206
373	238	179	204
374	242	192	209
375	247	207	218
376	252	220	226
377	0	0	0
378	0	0	0
379	0	0	0
380	255	209	232
381	253	195	230
382	248	178	224
383	247	167	221
384	252	168	224
385	255	167	226
386	255	164	226
387	255	167	228
388	252	157	219
389	250	153	216
390	253	156	219
391	255	165	226
392	252	158	221
393	254	164	222
394	255	170	221
395	254	169	217
396	249	164	212
397	253	171	216
398	255	178	219
399	248	171	213
400	246	175	214
401	246	180	214
402	252	197	218
403	255	210	222
404	255	218	226
405	255	231	233
406	255	229	230
407	0	0	0
408	0	0	0
409	248	195	225
410	248	183	224
411	243	166	218
412	254	173	227
413	255	173	230
414	255	171	229
415	255	166	226
416	254	159	219
417	248	149	212
418	252	154	215
419	254	157	217
420	251	153	215
421	245	146	213
422	249	154	218
423	252	162	220
424	248	157	214
425	243	152	210
426	247	161	214
427	249	166	215
428	248	171	215
429	247	174	215
430	254	192	224
431	255	209	229
432	255	215	227
433	255	222	225
434	252	219	220
435	0	0	0
436	0	0	0
437	0	0	0
438	253	198	229
439	253	186	228
440	245	165	220
441	255	171	230
442	253	163	226
443	253	160	224
444	253	158	220
445	249	150	214
446	251	152	214
447	255	156	217
448	253	155	216
449	250	151	214
450	251	154	219
451	255	163	225
452	255	168	226
453	254	164	222
454	251	161	220
455	255	170	224
456	251	168	219
457	249	171	217
458	252	182	220
459	255	200	227
460	255	208	227
461	255	214	225
462	255	219	221
463	0	0	0
464	0	0	0
465	0	0	0
466	0	0	0
467	255	198	230
468	252	182	227
469	245	162	221
470	250	161	226
471	247	152	222
472	252	154	224
473	252	152	221
474	254	154	220
475	255	155	219
476	254	154	217
477	253	153	217
478	255	157	220
479	255	161	222
480	255	166	225
481	255	171	227
482	255	168	225
483	254	166	224
484	255	170	225
485	251	168	221
486	255	180	224
487	255	190	223
488	255	197	221
489	255	206	222
490	255	212	222
491	255	218	221
492	0	0	0
493	0	0	0
494	0	0	0
495	0	0	0
496	252	192	229
497	250	176	226
498	247	163	226
499	252	161	231
500	252	156	229
501	255	158	230
502	247	143	217
503	249	145	216
504	254	153	219
505	252	151	216
506	255	155	219
507	255	160	222
508	254	157	220
509	255	162	222
510	255	166	224
511	254	164	223
512	252	162	222
513	252	166	223
514	248	164	218
515	252	177	222
516	255	192	224
517	255	200	222
518	255	209	223
519	255	215	223
520	250	210	217
521	0	0	0
522	0	0	0
523	0	0	0
524	0	0	0
525	250	186	230
526	252	177	232
527	249	162	229
528	253	161	233
529	252	155	229
530	245	143	220
531	236	129	208
532	245	140	214
533	250	148	216
534	253	153	217
535	255	157	220
536	255	157	220
537	252	154	218
538	252	157	220
539	254	162	223
540	252	160	222
541	249	158	219
542	249	162	220
543	245	160	216
544	255	181	226
545	255	198	229
546	255	204	225
547	255	212	223
548	250	205	215
549	0	0	0
550	0	0	0
551	0	0	0
552	0	0	0
553	0	0	0
554	249	182	230
555	251	173	232
556	248	161	229
557	251	159	231
558	252	157	229
559	246	145	221
560	250	150	223
561	255	161	229
562	255	158	223
563	255	163	225
564	250	149	217
565	249	149	217
566	252	156	220
567	253	159	222
568	254	163	226
569	252	162	224
570	253	165	225
571	254	169	225
572	247	164	219
573	255	185	229
574	255	190	224
575	253	195	220
576	255	207	220
577	0	0	0
578	0	0	0
579	0	0	0
580	0	0	0
581	0	0	0
582	0	0	0
583	243	175	224
584	248	170	229
585	245	158	225
586	251	160	230
587	252	158	228
588	255	163	231
589	255	168	233
590	255	167	231
591	255	163	227
592	251	152	219
593	241	138	212
594	247	147	218
595	250	154	222
596	251	158	223
597	252	161	225
598	253	165	227
599	254	169	228
600	250	167	224
601	244	163	218
602	247	173	220
603	245	178	216
604	249	191	218
605	252	203	219
606	255	217	224
607	0	0	0
608	0	0	0
609	0	0	0
610	0	0	0
611	0	0	0
612	243	179	227
613	250	175	233
614	248	163	229
615	253	165	232
616	250	159	228
617	255	164	230
618	255	169	232
619	255	167	230
620	252	156	222
621	245	145	216
622	251	154	224
623	255	163	230
624	255	167	230
625	255	170	231
626	252	163	227
627	250	166	227
628	252	173	229
629	250	172	226
630	253	179	226
631	255	190	229
632	255	192	225
633	255	205	228
634	255	208	224
635	255	223	230
636	255	224	230
637	0	0	0
638	0	0	0
639	0	0	0
640	0	0	0
641	243	181	232
642	251	178	237
643	248	166	231
644	252	166	233
645	250	160	229
646	255	168	233
647	255	171	233
648	254	161	225
649	248	152	221
650	255	162	228
651	255	170	234
652	255	173	233
653	255	175	232
654	255	170	229
655	250	164	226
656	253	173	232
657	255	180	233
658	255	190	236
659	255	196	234
660	255	202	233
661	255	205	230
662	255	208	228
663	255	212	227
664	255	213	225
665	252	214	223
666	0	0	0
667	0	0	0
668	0	0	0
669	0	0	0
670	246	190	237
671	254	186	240
672	252	174	235
673	255	174	237
674	252	165	232
675	255	172	236
676	254	164	228
677	248	154	221
678	250	156	225
679	255	166	232
680	255	167	229
681	255	169	227
682	255	177	230
683	255	173	227
684	253	170	227
685	255	179	233
686	253	177	230
687	255	187	233
688	253	183	223
689	254	188	222
690	251	191	220
691	248	195	218
692	255	215	230
693	255	217	229
694	252	215	224
695	0	0	0
696	0	0	0
697	0	0	0
698	0	0	0
699	242	192	233
700	251	189	238
701	251	178	235
702	255	176	236
703	252	167	231
704	251	163	229
705	247	155	225
706	251	160	228
707	253	162	230
708	255	166	231
709	254	166	226
710	255	175	230
711	255	183	233
712	255	179	227
713	254	175	225
714	253	176	225
715	250	174	223
716	250	175	223
717	245	171	218
718	246	178	218
719	243	180	216
720	250	198	223
721	255	218	235
722	253	213	227
723	0	0	0
724	0	0	0
725	0	0	0
726	0	0	0
727	0	0	0
728	241	200	234
729	250	197	240
730	244	176	232
731	252	176	236
732	252	169	232
733	251	165	230
734	251	163	230
735	255	167	233
736	255	169	234
737	255	173	235
738	251	163	225
739	255	173	228
740	255	173	225
741	249	168	219
742	253	176	224
743	252	177	224
744	250	176	224
745	251	178	225
746	250	180	225
747	250	185	225
748	249	191	223
749	255	210	232
750	255	216	233
751	0	0	0
752	0	0	0
753	0	0	0
754	0	0	0
755	0	0	0
756	0	0	0
757	243	209	239
758	243	194	237
759	239	175	232
760	251	177	239
761	250	170	232
762	252	170	231
763	252	168	230
764	255	172	233
765	255	174	234
766	252	167	229
767	246	159	222
768	249	164	224
769	248	164	221
770	250	171	223
771	254	180	229
772	251	178	227
773	250	178	227
774	252	182	228
775	250	183	225
776	252	191	226
777	251	196	224
778	254	205	227
779	254	213	229
780	0	0	0
781	0	0	0
782	0	0	0
783	0	0	0
784	0	0	0
785	0	0	0
786	240	213	239
787	243	199	238
788	243	184	237
789	254	187	244
790	251	175	234
791	253	175	233
792	254	175	233
793	255	179	236
794	255	175	232
795	250	168	228
796	251	170	230
797	255	175	234
798	248	167	225
799	252	175	228
800	255	183	233
801	250	180	230
802	248	179	227
803	250	184	228
804	253	191	228
805	255	199	230
806	252	200	225
807	254	208	227
808	254	215	228
809	0	0	0
810	0	0	0
811	0	0	0
812	0	0	0
813	0	0	0
814	0	0	0
815	0	0	0
816	241	204	237
817	240	188	233
818	248	186	238
819	246	176	232
820	252	180	236
821	254	180	236
822	253	178	233
823	250	174	230
824	252	176	231
825	253	177	233
826	249	172	230
827	243	166	224
828	252	177	232
829	255	184	235
830	249	182	231
831	247	181	228
832	253	191	232
833	255	198	232
834	255	202	230
835	253	203	228
836	254	211	229
837	0	0	0
838	0	0	0
839	0	0	0
840	0	0	0
841	0	0	0
842	0	0	0
843	0	0	0
844	0	0	0
845	0	0	0
846	243	201	237
847	249	199	241
848	242	181	233
849	250	187	240
850	247	179	234
851	245	177	231
852	248	180	233
853	253	183	236
854	247	176	231
855	242	170	227
856	248	179	234
857	255	192	243
858	250	179	232
859	0	0	0
860	254	195	236
861	255	205	239
862	250	194	228
863	250	198	227
864	253	207	230
865	0	0	0
866	0	0	0
867	0	0	0
868	0	0	0
869	0	0	0
870	0	0	0
871	0	0	0
872	0	0	0
873	0	0	0
874	0	0	0
875	0	0	0
876	243	201	237
877	236	183	232
878	242	185	238
879	239	177	231
880	243	182	234
881	247	185	236
882	246	181	234
883	241	173	230
884	244	180	234
885	251	189	240
886	251	184	236
887	241	171	224
888	0	0	0
889	0	0	0
890	249	196	228
891	0	0	0
892	248	199	227
893	0	0	0
894	0	0	0
895	0	0	0
896	0	0	0
897	0	0	0
898	0	0	0
899	0	0	0
900	0	0	0
901	0	0	0
902	0	0	0
903	0	0	0
904	0	0	0
905	0	0	0
906	241	200	239
907	249	202	246
908	241	187	236
909	247	193	241
910	245	189	238
911	243	184	234
912	244	186	236
913	247	193	241
914	248	193	240
915	249	187	235
916	0	0	0
917	0	0	0
918	0	0	0
919	0	0	0
920	0	0	0
921	0	0	0
922	0	0	0
923	0	0	0
924	0	0	0
925	0	0	0
926	0	0	0
927	0	0	0
928	0	0	0
929	0	0	0
930	0	0	0
931	0	0	0
932	0	0	0
933	0	0	0
934	0	0	0
935	252	219	245
936	251	210	244
937	245	196	239
938	245	196	241
939	242	191	237
940	243	193	237
941	244	196	237
942	244	195	237
943	246	196	238
944	253	200	241
945	252	200	236
946	0	0	0
947	0	0	0
948	0	0	0
949	0	0	0
950	0	0	0
951	0	0	0
952	0	0	0
953	0	0	0
954	0	0	0
955	0	0	0
956	0	0	0
957	0	0	0
958	0	0	0
959	0	0	0
960	0	0	0
961	0	0	0
962	0	0	0
963	0	0	0
964	0	0	0
965	247	205	236
966	246	200	238
967	0	0	0
968	0	0	0
969	0	0	0
970	244	205	237
971	249	207	240
972	244	197	235
973	246	200	236
974	0	0	0
975	0	0	0
976	0	0	0
977	0	0	0
978	0	0	0
979	0	0	0
980	0	0	0
981	0	0	0
982	0	0	0
983	0	0	0
984	0	0	0
985	0	0	0
986	0	0	0
987	0	0	0
988	0	0	0
989	0	0	0
990	0	0	0
991	0	0	0
992	0	0	0
993	0	0	0
994	0	0	0
995	0	0	0
996	0	0	0
997	0	0	0
998	0	0	0
999	0	0	0
1000	243	205	232
1001	238	196	229
1002	0	0	0
1003	0	0	0
1004	0	0	0
1005	0	0	0
1006	0	0	0
1007	0	0	0
1008	0	0	0
1009	0	0	0
1010	0	0	0
1011	0	0	0
1012	0	0	0
1013	0	0	0
1014	0	0	0
1015	0	0	0
