 	R	G	B
1	0	0	0
2	0	0	0
3	0	0	0
4	0	0	0
5	0	0	0
6	0	0	0
7	0	0	0
8	0	0	0
9	0	0	0
10	0	0	0
11	0	0	0
12	0	0	0
13	0	0	0
14	0	0	0
15	0	0	0
16	0	0	0
17	0	0	0
18	0	0	0
19	0	0	0
20	0	0	0
21	0	0	0
22	0	0	0
23	0	0	0
24	0	0	0
25	0	0	0
26	0	0	0
27	0	0	0
28	0	0	0
29	0	0	0
30	0	0	0
31	0	0	0
32	0	0	0
33	0	0	0
34	0	0	0
35	0	0	0
36	0	0	0
37	255	243	239
38	255	248	242
39	255	248	241
40	0	0	0
41	0	0	0
42	255	247	239
43	255	248	241
44	0	0	0
45	0	0	0
46	0	0	0
47	0	0	0
48	0	0	0
49	0	0	0
50	0	0	0
51	0	0	0
52	0	0	0
53	0	0	0
54	0	0	0
55	0	0	0
56	0	0	0
57	0	0	0
58	0	0	0
59	0	0	0
60	0	0	0
61	0	0	0
62	0	0	0
63	0	0	0
64	0	0	0
65	0	0	0
66	0	0	0
67	0	0	0
68	0	0	0
69	0	0	0
70	0	0	0
71	0	0	0
72	0	0	0
73	0	0	0
74	0	0	0
75	0	0	0
76	0	0	0
77	0	0	0
78	0	0	0
79	0	0	0
80	0	0	0
81	0	0	0
82	0	0	0
83	0	0	0
84	0	0	0
85	0	0	0
86	0	0	0
87	0	0	0
88	0	0	0
89	255	237	235
90	255	227	229
91	255	231	233
92	254	222	225
93	253	221	222
94	255	229	227
95	255	229	228
96	254	221	225
97	252	219	223
98	0	0	0
99	0	0	0
100	0	0	0
101	0	0	0
102	0	0	0
103	0	0	0
104	0	0	0
105	0	0	0
106	0	0	0
107	0	0	0
108	0	0	0
109	0	0	0
110	0	0	0
111	0	0	0
112	0	0	0
113	0	0	0
114	0	0	0
115	0	0	0
116	0	0	0
117	0	0	0
118	0	0	0
119	0	0	0
120	0	0	0
121	0	0	0
122	0	0	0
123	0	0	0
124	0	0	0
125	0	0	0
126	0	0	0
127	0	0	0
128	0	0	0
129	0	0	0
130	0	0	0
131	0	0	0
132	0	0	0
133	0	0	0
134	0	0	0
135	0	0	0
136	0	0	0
137	0	0	0
138	0	0	0
139	0	0	0
140	255	239	236
141	255	231	232
142	255	224	229
143	253	214	222
144	252	210	220
145	246	201	213
146	253	210	219
147	255	218	223
148	253	209	218
149	248	201	217
150	0	0	0
151	0	0	0
152	0	0	0
153	0	0	0
154	0	0	0
155	0	0	0
156	0	0	0
157	0	0	0
158	0	0	0
159	0	0	0
160	0	0	0
161	0	0	0
162	0	0	0
163	0	0	0
164	0	0	0
165	0	0	0
166	0	0	0
167	0	0	0
168	0	0	0
169	0	0	0
170	0	0	0
171	0	0	0
172	0	0	0
173	0	0	0
174	0	0	0
175	0	0	0
176	0	0	0
177	0	0	0
178	0	0	0
179	0	0	0
180	0	0	0
181	0	0	0
182	0	0	0
183	0	0	0
184	0	0	0
185	0	0	0
186	0	0	0
187	0	0	0
188	0	0	0
189	0	0	0
190	0	0	0
191	0	0	0
192	255	234	231
193	255	230	232
194	255	215	224
195	255	209	222
196	251	199	216
197	250	196	215
198	250	194	215
199	255	203	221
200	254	199	217
201	248	190	213
202	250	192	219
203	255	203	227
204	255	200	220
205	247	190	212
206	251	194	216
207	246	188	213
208	250	193	219
209	249	191	221
210	0	0	0
211	0	0	0
212	0	0	0
213	0	0	0
214	0	0	0
215	0	0	0
216	0	0	0
217	0	0	0
218	0	0	0
219	0	0	0
220	0	0	0
221	0	0	0
222	0	0	0
223	0	0	0
224	0	0	0
225	0	0	0
226	0	0	0
227	0	0	0
228	0	0	0
229	0	0	0
230	0	0	0
231	0	0	0
232	0	0	0
233	0	0	0
234	0	0	0
235	0	0	0
236	0	0	0
237	0	0	0
238	0	0	0
239	0	0	0
240	0	0	0
241	0	0	0
242	0	0	0
243	255	241	232
244	255	236	231
245	255	230	232
246	255	217	227
247	255	203	219
248	253	195	217
249	249	186	213
250	252	187	216
251	251	185	216
252	249	181	213
253	245	176	211
254	245	176	213
255	246	177	217
256	244	175	216
257	241	172	210
258	241	173	209
259	244	177	213
260	244	178	215
261	246	182	221
262	243	179	219
263	240	177	218
264	246	188	226
265	0	0	0
266	0	0	0
267	0	0	0
268	0	0	0
269	0	0	0
270	0	0	0
271	0	0	0
272	0	0	0
273	0	0	0
274	0	0	0
275	0	0	0
276	0	0	0
277	0	0	0
278	0	0	0
279	0	0	0
280	0	0	0
281	0	0	0
282	0	0	0
283	0	0	0
284	0	0	0
285	0	0	0
286	0	0	0
287	0	0	0
288	0	0	0
289	0	0	0
290	0	0	0
291	0	0	0
292	0	0	0
293	0	0	0
294	0	0	0
295	255	240	234
296	255	222	223
297	255	217	222
298	255	204	218
299	252	192	214
300	250	183	212
301	248	175	211
302	249	174	214
303	250	174	216
304	251	175	217
305	247	170	215
306	253	178	222
307	253	178	224
308	252	178	225
309	249	175	223
310	250	178	223
311	249	178	222
312	249	180	223
313	247	180	223
314	253	191	232
315	249	187	229
316	251	194	232
317	255	204	238
318	252	204	236
319	0	0	0
320	0	0	0
321	0	0	0
322	0	0	0
323	0	0	0
324	0	0	0
325	0	0	0
326	0	0	0
327	0	0	0
328	0	0	0
329	0	0	0
330	0	0	0
331	0	0	0
332	0	0	0
333	0	0	0
334	0	0	0
335	0	0	0
336	0	0	0
337	0	0	0
338	0	0	0
339	0	0	0
340	0	0	0
341	0	0	0
342	0	0	0
343	0	0	0
344	0	0	0
345	0	0	0
346	255	250	241
347	255	240	235
348	255	226	229
349	255	209	219
350	254	195	214
351	249	181	208
352	247	172	207
353	244	163	208
354	246	162	212
355	246	160	215
356	247	161	217
357	246	161	217
358	249	166	221
359	254	174	227
360	250	171	226
361	248	169	225
362	248	171	225
363	248	174	226
364	244	172	223
365	243	173	222
366	247	182	227
367	251	191	232
368	253	198	235
369	254	203	236
370	249	203	234
371	0	0	0
372	0	0	0
373	0	0	0
374	0	0	0
375	0	0	0
376	0	0	0
377	0	0	0
378	0	0	0
379	0	0	0
380	0	0	0
381	0	0	0
382	0	0	0
383	0	0	0
384	0	0	0
385	0	0	0
386	0	0	0
387	0	0	0
388	0	0	0
389	0	0	0
390	0	0	0
391	0	0	0
392	0	0	0
393	0	0	0
394	0	0	0
395	0	0	0
396	0	0	0
397	0	0	0
398	255	235	233
399	255	226	228
400	254	202	214
401	250	189	210
402	252	183	211
403	247	170	207
404	248	166	207
405	244	156	205
406	251	162	215
407	250	159	218
408	252	162	223
409	251	161	224
410	252	164	226
411	254	169	229
412	254	172	232
413	250	168	229
414	249	170	229
415	247	170	228
416	253	183	235
417	248	181	230
418	255	196	238
419	255	204	242
420	250	196	234
421	251	201	235
422	252	210	237
423	0	0	0
424	0	0	0
425	0	0	0
426	0	0	0
427	0	0	0
428	0	0	0
429	0	0	0
430	0	0	0
431	0	0	0
432	0	0	0
433	0	0	0
434	0	0	0
435	0	0	0
436	0	0	0
437	0	0	0
438	0	0	0
439	0	0	0
440	0	0	0
441	0	0	0
442	0	0	0
443	0	0	0
444	0	0	0
445	0	0	0
446	0	0	0
447	255	252	242
448	255	250	242
449	255	245	236
450	255	231	229
451	255	217	224
452	253	194	212
453	242	169	200
454	244	164	202
455	246	159	206
456	247	156	209
457	246	150	210
458	250	155	216
459	254	159	221
460	252	157	221
461	252	157	223
462	251	159	225
463	251	161	225
464	249	161	225
465	249	164	229
466	246	164	229
467	243	164	227
468	246	174	231
469	0	0	0
470	253	196	237
471	255	208	241
472	246	198	231
473	237	190	225
474	244	203	233
475	0	0	0
476	0	0	0
477	0	0	0
478	0	0	0
479	0	0	0
480	0	0	0
481	0	0	0
482	0	0	0
483	0	0	0
484	0	0	0
485	0	0	0
486	0	0	0
487	0	0	0
488	0	0	0
489	0	0	0
490	0	0	0
491	0	0	0
492	0	0	0
493	0	0	0
494	0	0	0
495	0	0	0
496	0	0	0
497	0	0	0
498	0	0	0
499	255	250	244
500	255	232	233
501	255	225	228
502	254	203	213
503	250	190	208
504	253	186	212
505	243	162	202
506	244	156	203
507	245	150	206
508	250	153	214
509	250	148	215
510	244	139	213
511	247	141	217
512	253	152	223
513	249	149	220
514	252	156	225
515	250	156	225
516	252	163	228
517	248	162	227
518	252	171	235
519	248	170	233
520	249	179	235
521	0	0	0
522	0	0	0
523	0	0	0
524	0	0	0
525	0	0	0
526	0	0	0
527	0	0	0
528	0	0	0
529	0	0	0
530	0	0	0
531	0	0	0
532	0	0	0
533	0	0	0
534	0	0	0
535	0	0	0
536	0	0	0
537	0	0	0
538	0	0	0
539	0	0	0
540	0	0	0
541	0	0	0
542	0	0	0
543	0	0	0
544	0	0	0
545	0	0	0
546	0	0	0
547	0	0	0
548	0	0	0
549	0	0	0
550	255	249	242
551	255	248	242
552	255	229	233
553	255	207	219
554	248	185	208
555	240	165	200
556	238	157	200
557	240	151	202
558	238	143	202
559	238	136	204
560	243	138	210
561	246	138	214
562	241	130	211
563	235	120	208
564	243	132	218
565	248	142	222
566	247	145	222
567	249	151	225
568	248	155	227
569	249	161	230
570	246	165	231
571	247	172	234
572	245	177	233
573	0	0	0
574	0	0	0
575	0	0	0
576	0	0	0
577	0	0	0
578	0	0	0
579	0	0	0
580	0	0	0
581	0	0	0
582	0	0	0
583	0	0	0
584	0	0	0
585	0	0	0
586	0	0	0
587	0	0	0
588	0	0	0
589	0	0	0
590	0	0	0
591	0	0	0
592	0	0	0
593	0	0	0
594	0	0	0
595	0	0	0
596	0	0	0
597	0	0	0
598	0	0	0
599	0	0	0
600	0	0	0
601	0	0	0
602	255	229	228
603	255	230	232
604	254	200	216
605	245	180	206
606	248	177	208
607	239	156	200
608	247	161	210
609	245	152	209
610	252	157	217
611	248	146	215
612	247	141	217
613	250	141	221
614	250	139	221
615	244	130	217
616	245	131	221
617	251	143	230
618	251	147	229
619	250	149	228
620	249	154	229
621	247	157	229
622	249	169	234
623	0	0	0
624	0	0	0
625	0	0	0
626	0	0	0
627	0	0	0
628	0	0	0
629	0	0	0
630	0	0	0
631	0	0	0
632	0	0	0
633	0	0	0
634	0	0	0
635	0	0	0
636	0	0	0
637	0	0	0
638	0	0	0
639	0	0	0
640	0	0	0
641	0	0	0
642	0	0	0
643	0	0	0
644	0	0	0
645	0	0	0
646	0	0	0
647	0	0	0
648	0	0	0
649	0	0	0
650	0	0	0
651	0	0	0
652	255	249	243
653	255	242	239
654	255	227	231
655	255	211	221
656	246	181	204
657	232	152	194
658	233	147	197
659	236	144	201
660	240	146	206
661	245	147	210
662	248	148	214
663	253	151	219
664	246	140	215
665	243	133	215
666	244	132	218
667	243	129	216
668	243	131	218
669	243	131	222
670	246	139	227
671	244	141	226
672	243	146	225
673	241	149	225
674	240	158	226
675	0	0	0
676	0	0	0
677	0	0	0
678	0	0	0
679	0	0	0
680	0	0	0
681	0	0	0
682	0	0	0
683	0	0	0
684	0	0	0
685	0	0	0
686	0	0	0
687	0	0	0
688	0	0	0
689	0	0	0
690	0	0	0
691	0	0	0
692	0	0	0
693	0	0	0
694	0	0	0
695	0	0	0
696	0	0	0
697	0	0	0
698	0	0	0
699	0	0	0
700	0	0	0
701	0	0	0
702	0	0	0
703	0	0	0
704	255	225	229
705	255	222	231
706	253	195	217
707	248	181	211
708	251	178	209
709	233	146	193
710	241	151	207
711	241	145	210
712	254	160	224
713	255	159	225
714	243	139	213
715	244	138	214
716	255	153	225
717	247	140	218
718	252	146	226
719	251	144	227
720	249	142	225
721	249	143	227
722	251	149	233
723	253	155	237
724	248	154	233
725	246	157	231
726	248	170	235
727	0	0	0
728	0	0	0
729	0	0	0
730	0	0	0
731	0	0	0
732	0	0	0
733	0	0	0
734	0	0	0
735	0	0	0
736	0	0	0
737	0	0	0
738	0	0	0
739	0	0	0
740	0	0	0
741	0	0	0
742	0	0	0
743	0	0	0
744	0	0	0
745	0	0	0
746	0	0	0
747	0	0	0
748	0	0	0
749	0	0	0
750	0	0	0
751	0	0	0
752	255	250	247
753	255	249	246
754	255	248	244
755	255	247	239
756	255	224	225
757	255	200	215
758	243	174	205
759	232	149	197
760	233	144	199
761	235	140	200
762	234	137	202
763	239	139	213
764	248	149	223
765	255	162	231
766	245	141	218
767	232	121	207
768	243	136	220
769	253	150	228
770	253	151	228
771	255	155	232
772	254	153	232
773	251	151	230
774	253	156	234
775	254	160	238
776	248	159	236
777	241	156	231
778	242	169	233
779	0	0	0
780	0	0	0
781	0	0	0
782	0	0	0
783	0	0	0
784	0	0	0
785	0	0	0
786	0	0	0
787	0	0	0
788	0	0	0
789	0	0	0
790	0	0	0
791	0	0	0
792	0	0	0
793	0	0	0
794	0	0	0
795	0	0	0
796	0	0	0
797	0	0	0
798	0	0	0
799	0	0	0
800	0	0	0
801	0	0	0
802	0	0	0
803	0	0	0
804	255	231	236
805	255	234	240
806	255	214	229
807	255	215	230
808	255	201	218
809	244	175	203
810	247	171	207
811	235	146	198
812	243	150	210
813	242	144	212
814	245	147	216
815	243	142	216
816	253	156	230
817	255	164	237
818	255	164	234
819	245	142	220
820	244	140	223
821	255	154	235
822	255	162	238
823	255	161	236
824	250	152	229
825	247	149	226
826	255	164	236
827	255	167	238
828	247	163	233
829	0	0	0
830	0	0	0
831	0	0	0
832	0	0	0
833	0	0	0
834	0	0	0
835	0	0	0
836	0	0	0
837	0	0	0
838	0	0	0
839	0	0	0
840	0	0	0
841	0	0	0
842	0	0	0
843	0	0	0
844	0	0	0
845	0	0	0
846	0	0	0
847	0	0	0
848	0	0	0
849	0	0	0
850	0	0	0
851	0	0	0
852	255	251	244
853	255	251	244
854	255	250	244
855	255	249	242
856	255	234	235
857	255	217	227
858	253	198	219
859	243	178	209
860	237	163	202
861	233	151	198
862	232	143	197
863	234	138	201
864	237	138	206
865	241	140	211
866	242	140	214
867	243	141	219
868	250	152	227
869	255	164	236
870	255	160	231
871	254	159	230
872	252	156	229
873	250	152	230
874	255	162	237
875	255	169	241
876	251	159	231
877	243	149	223
878	249	161	230
879	255	174	237
880	249	170	232
881	0	0	0
882	0	0	0
883	0	0	0
884	0	0	0
885	0	0	0
886	0	0	0
887	0	0	0
888	0	0	0
889	0	0	0
890	0	0	0
891	0	0	0
892	0	0	0
893	0	0	0
894	0	0	0
895	0	0	0
896	0	0	0
897	0	0	0
898	0	0	0
899	0	0	0
900	0	0	0
901	0	0	0
902	0	0	0
903	0	0	0
904	255	239	236
905	255	245	241
906	255	222	229
907	255	222	231
908	255	211	223
909	252	195	215
910	243	175	209
911	235	158	203
912	248	170	215
913	241	155	209
914	249	161	219
915	246	151	217
916	242	141	215
917	242	138	216
918	251	152	224
919	249	150	223
920	251	153	228
921	255	163	236
922	255	171	238
923	255	166	233
924	255	163	231
925	252	159	229
926	251	159	232
927	255	167	238
928	255	168	236
929	246	157	227
930	247	163	229
931	252	175	235
932	255	186	239
933	248	181	233
934	244	187	233
935	0	0	0
936	0	0	0
937	0	0	0
938	0	0	0
939	0	0	0
940	0	0	0
941	0	0	0
942	0	0	0
943	0	0	0
944	0	0	0
945	0	0	0
946	0	0	0
947	0	0	0
948	0	0	0
949	0	0	0
950	0	0	0
951	0	0	0
952	0	0	0
953	0	0	0
954	0	0	0
955	0	0	0
956	255	238	237
957	255	236	234
958	255	213	221
959	245	191	212
960	241	180	208
961	239	170	207
962	227	147	197
963	218	128	193
964	230	139	207
965	241	150	216
966	243	150	217
967	248	153	223
968	239	140	216
969	233	128	211
970	243	142	221
971	251	154	225
972	252	157	226
973	253	160	230
974	255	170	237
975	255	177	240
976	255	170	233
977	254	167	231
978	252	165	231
979	251	164	233
980	249	165	232
981	246	164	228
982	247	169	230
983	248	175	232
984	251	186	236
985	253	196	239
986	255	205	241
987	0	0	0
988	0	0	0
989	0	0	0
990	0	0	0
991	0	0	0
992	0	0	0
993	0	0	0
994	0	0	0
995	0	0	0
996	0	0	0
997	0	0	0
998	0	0	0
999	0	0	0
1000	0	0	0
1001	0	0	0
1002	0	0	0
1003	0	0	0
1004	0	0	0
1005	0	0	0
1006	0	0	0
1007	0	0	0
1008	255	221	229
1009	255	220	229
1010	252	202	218
1011	241	180	207
1012	244	178	213
1013	240	166	211
1014	248	174	221
1015	235	150	211
1016	245	159	225
1017	255	169	237
1018	249	159	229
1019	249	157	228
1020	252	160	231
1021	240	144	221
1022	245	151	228
1023	255	166	238
1024	255	167	234
1025	255	170	235
1026	252	162	232
1027	255	172	238
1028	253	167	232
1029	246	160	225
1030	254	173	234
1031	251	170	233
1032	251	172	235
1033	248	171	232
1034	254	184	237
1035	254	189	238
1036	252	193	238
1037	0	0	0
1038	0	0	0
1039	0	0	0
1040	0	0	0
1041	0	0	0
1042	0	0	0
1043	0	0	0
1044	0	0	0
1045	0	0	0
1046	0	0	0
1047	0	0	0
1048	0	0	0
1049	0	0	0
1050	0	0	0
1051	0	0	0
1052	0	0	0
1053	0	0	0
1054	0	0	0
1055	0	0	0
1056	0	0	0
1057	0	0	0
1058	0	0	0
1059	0	0	0
1060	0	0	0
1061	0	0	0
1062	237	178	206
1063	229	161	200
1064	226	154	201
1065	227	150	206
1066	229	151	211
1067	235	157	216
1068	239	159	220
1069	248	167	231
1070	246	161	230
1071	240	150	222
1072	244	155	226
1073	246	157	229
1074	246	160	231
1075	250	167	236
1076	254	171	239
1077	253	172	235
1078	245	164	229
1079	240	156	227
1080	241	157	228
1081	237	152	222
1082	243	163	227
1083	251	176	237
1084	246	174	234
1085	244	174	232
1086	253	190	240
1087	255	202	244
1088	255	207	242
1089	0	0	0
1090	0	0	0
1091	0	0	0
1092	0	0	0
1093	0	0	0
1094	0	0	0
1095	0	0	0
1096	0	0	0
1097	0	0	0
1098	0	0	0
1099	0	0	0
1100	0	0	0
1101	0	0	0
1102	0	0	0
1103	0	0	0
1104	0	0	0
1105	0	0	0
1106	0	0	0
1107	0	0	0
1108	0	0	0
1109	0	0	0
1110	0	0	0
1111	0	0	0
1112	0	0	0
1113	0	0	0
1114	0	0	0
1115	0	0	0
1116	247	183	224
1117	0	0	0
1118	0	0	0
1119	0	0	0
1120	0	0	0
1121	0	0	0
1122	255	190	244
1123	255	185	243
1124	244	162	228
1125	0	0	0
1126	0	0	0
1127	0	0	0
1128	255	191	247
1129	255	195	249
1130	249	178	236
1131	236	167	228
1132	241	175	236
1133	246	177	239
1134	243	172	232
1135	250	183	239
1136	253	191	244
1137	245	187	239
1138	247	194	242
1139	255	211	250
1140	252	206	240
1141	0	0	0
1142	0	0	0
1143	0	0	0
1144	0	0	0
1145	0	0	0
1146	0	0	0
1147	0	0	0
1148	0	0	0
1149	0	0	0
1150	0	0	0
1151	0	0	0
1152	0	0	0
1153	0	0	0
1154	0	0	0
1155	0	0	0
1156	0	0	0
1157	0	0	0
1158	0	0	0
1159	0	0	0
1160	0	0	0
1161	0	0	0
1162	0	0	0
1163	0	0	0
1164	0	0	0
1165	0	0	0
1166	0	0	0
1167	0	0	0
1168	0	0	0
1169	0	0	0
1170	0	0	0
1171	0	0	0
1172	0	0	0
1173	0	0	0
1174	255	210	250
1175	255	210	252
1176	255	194	245
1177	246	172	231
1178	0	0	0
1179	0	0	0
1180	255	205	251
1181	255	216	255
1182	255	202	245
1183	248	185	236
1184	240	185	236
1185	242	191	242
1186	240	187	238
1187	238	182	232
1188	246	192	238
1189	250	200	244
1190	250	207	247
1191	253	214	251
1192	252	214	248
1193	0	0	0
1194	0	0	0
1195	0	0	0
1196	0	0	0
1197	0	0	0
1198	0	0	0
1199	0	0	0
1200	0	0	0
1201	0	0	0
1202	0	0	0
1203	0	0	0
1204	0	0	0
1205	0	0	0
1206	0	0	0
1207	0	0	0
1208	0	0	0
1209	0	0	0
1210	0	0	0
1211	0	0	0
1212	0	0	0
1213	0	0	0
1214	0	0	0
1215	0	0	0
1216	0	0	0
1217	0	0	0
1218	0	0	0
1219	0	0	0
1220	0	0	0
1221	0	0	0
1222	0	0	0
1223	0	0	0
1224	0	0	0
1225	0	0	0
1226	255	223	253
1227	255	220	250
1228	255	205	243
1229	250	189	235
1230	244	178	230
1231	0	0	0
1232	255	203	246
1233	255	214	251
1234	253	193	234
1235	242	178	225
1236	244	187	234
1237	234	187	233
1238	235	197	239
1239	0	0	0
1240	0	0	0
1241	0	0	0
1242	0	0	0
1243	0	0	0
1244	0	0	0
1245	0	0	0
1246	0	0	0
1247	0	0	0
1248	0	0	0
1249	0	0	0
1250	0	0	0
1251	0	0	0
1252	0	0	0
1253	0	0	0
1254	0	0	0
1255	0	0	0
1256	0	0	0
1257	0	0	0
1258	0	0	0
1259	0	0	0
1260	0	0	0
1261	0	0	0
1262	0	0	0
1263	0	0	0
1264	0	0	0
1265	0	0	0
1266	0	0	0
1267	0	0	0
1268	0	0	0
1269	0	0	0
1270	0	0	0
1271	0	0	0
1272	0	0	0
1273	0	0	0
1274	0	0	0
1275	0	0	0
1276	0	0	0
1277	0	0	0
1278	0	0	0
1279	0	0	0
1280	253	213	237
1281	247	198	229
1282	246	193	230
1283	0	0	0
1284	0	0	0
1285	0	0	0
1286	247	190	228
1287	232	169	218
1288	236	180	226
1289	236	188	231
1290	232	195	233
1291	0	0	0
1292	0	0	0
1293	0	0	0
1294	0	0	0
1295	0	0	0
1296	0	0	0
1297	0	0	0
1298	0	0	0
1299	0	0	0
1300	0	0	0
1301	0	0	0
1302	0	0	0
1303	0	0	0
1304	0	0	0
1305	0	0	0
1306	0	0	0
1307	0	0	0
1308	0	0	0
1309	0	0	0
1310	0	0	0
1311	0	0	0
1312	0	0	0
1313	0	0	0
1314	0	0	0
1315	0	0	0
1316	0	0	0
1317	0	0	0
1318	0	0	0
1319	0	0	0
1320	0	0	0
1321	0	0	0
1322	0	0	0
1323	0	0	0
1324	0	0	0
1325	0	0	0
1326	0	0	0
1327	0	0	0
1328	0	0	0
1329	0	0	0
1330	0	0	0
1331	0	0	0
1332	0	0	0
1333	0	0	0
1334	248	211	233
1335	0	0	0
1336	0	0	0
1337	0	0	0
1338	0	0	0
1339	0	0	0
1340	0	0	0
1341	0	0	0
1342	0	0	0
1343	0	0	0
1344	0	0	0
1345	0	0	0
1346	0	0	0
1347	0	0	0
1348	0	0	0
1349	0	0	0
1350	0	0	0
1351	0	0	0
1352	0	0	0
1353	0	0	0
1354	0	0	0
1355	0	0	0
1356	0	0	0
1357	0	0	0
1358	0	0	0
1359	0	0	0
1360	0	0	0
1361	0	0	0
1362	0	0	0
1363	0	0	0
1364	0	0	0
1365	0	0	0
1366	0	0	0
1367	0	0	0
1368	0	0	0
1369	0	0	0
1370	0	0	0
1371	0	0	0
1372	0	0	0
1373	0	0	0
1374	0	0	0
1375	0	0	0
1376	0	0	0
1377	0	0	0
1378	0	0	0
