 	R	G	B
1	0	0	0
2	0	0	0
3	0	0	0
4	0	0	0
5	0	0	0
6	0	0	0
7	0	0	0
8	0	0	0
9	0	0	0
10	0	0	0
11	255	253	237
12	255	251	239
13	255	247	241
14	255	239	239
15	255	225	228
16	255	226	230
17	255	224	230
18	255	228	233
19	0	0	0
20	0	0	0
21	0	0	0
22	0	0	0
23	0	0	0
24	0	0	0
25	0	0	0
26	0	0	0
27	0	0	0
28	0	0	0
29	0	0	0
30	255	251	239
31	255	230	228
32	255	226	229
33	254	206	221
34	253	198	219
35	246	185	211
36	247	186	211
37	253	195	217
38	252	196	218
39	247	193	216
40	0	0	0
41	0	0	0
42	0	0	0
43	0	0	0
44	0	0	0
45	0	0	0
46	0	0	0
47	0	0	0
48	255	250	244
49	255	250	242
50	255	234	237
51	255	208	221
52	251	191	215
53	241	169	205
54	239	162	205
55	232	150	200
56	239	160	207
57	242	167	211
58	235	161	206
59	228	156	205
60	235	175	215
61	0	0	0
62	0	0	0
63	0	0	0
64	0	0	0
65	0	0	0
66	0	0	0
67	255	235	235
68	255	247	247
69	255	216	228
70	253	194	217
71	248	177	211
72	242	160	206
73	241	153	207
74	239	145	207
75	244	153	215
76	248	161	221
77	247	165	219
78	237	156	212
79	243	174	224
80	0	0	0
81	0	0	0
82	0	0	0
83	0	0	0
84	0	0	0
85	0	0	0
86	255	242	237
87	255	230	233
88	255	205	222
89	244	175	207
90	240	160	204
91	236	144	200
92	236	138	203
93	234	129	204
94	242	140	215
95	244	144	219
96	244	149	220
97	239	150	214
98	242	164	218
99	0	0	0
100	0	0	0
101	0	0	0
102	0	0	0
103	0	0	0
104	0	0	0
105	255	240	236
106	255	233	237
107	254	198	220
108	246	174	211
109	243	158	208
110	240	143	206
111	244	142	211
112	241	134	211
113	248	142	221
114	253	149	229
115	244	140	223
116	240	143	221
117	243	158	223
118	0	0	0
119	0	0	0
120	0	0	0
121	0	0	0
122	0	0	0
123	0	0	0
124	255	244	239
125	255	230	236
126	255	200	224
127	244	167	212
128	244	155	213
129	239	138	212
130	243	137	216
131	243	133	216
132	246	137	219
133	249	141	224
134	243	136	221
135	232	126	214
136	237	145	223
137	0	0	0
138	0	0	0
139	0	0	0
140	0	0	0
141	0	0	0
142	0	0	0
143	255	250	242
144	255	238	240
145	255	199	222
146	246	170	214
147	245	154	215
148	244	141	217
149	242	132	220
150	242	128	221
151	245	135	224
152	244	136	223
153	248	145	227
154	241	138	223
155	234	138	222
156	0	0	0
157	0	0	0
158	0	0	0
159	0	0	0
160	0	0	0
161	0	0	0
162	255	243	240
163	255	247	243
164	255	205	222
165	243	167	209
166	244	153	213
167	241	137	214
168	242	131	219
169	237	120	219
170	244	130	228
171	244	135	228
172	242	138	226
173	242	143	227
174	236	143	223
175	0	0	0
176	0	0	0
177	0	0	0
178	0	0	0
179	0	0	0
180	0	0	0
181	255	241	242
182	255	244	247
183	255	210	226
184	242	168	206
185	240	151	210
186	240	137	214
187	242	133	220
188	237	123	220
189	234	119	221
190	241	128	229
191	243	137	231
192	236	137	226
193	237	149	228
194	0	0	0
195	0	0	0
196	0	0	0
197	0	0	0
198	0	0	0
199	0	0	0
200	0	0	0
201	0	0	0
202	255	208	230
203	247	175	214
204	238	152	209
205	235	134	213
206	242	134	222
207	239	125	221
208	233	119	219
209	226	112	217
210	232	124	224
211	231	130	224
212	229	140	224
213	0	0	0
214	0	0	0
215	0	0	0
216	0	0	0
217	0	0	0
218	0	0	0
219	0	0	0
220	0	0	0
221	0	0	0
222	0	0	0
223	242	157	215
224	229	132	208
225	242	140	225
226	248	137	232
227	238	123	223
228	228	114	217
229	234	131	228
230	232	138	230
231	228	145	229
232	0	0	0
233	0	0	0
234	0	0	0
235	0	0	0
236	0	0	0
237	0	0	0
238	0	0	0
239	0	0	0
240	0	0	0
241	0	0	0
242	0	0	0
243	0	0	0
244	238	138	222
245	245	142	232
246	242	132	229
247	229	114	219
248	234	131	228
249	235	144	233
250	225	148	228
251	0	0	0
252	0	0	0
253	0	0	0
254	0	0	0
255	0	0	0
256	0	0	0
257	0	0	0
258	0	0	0
259	0	0	0
260	0	0	0
261	0	0	0
262	0	0	0
263	0	0	0
264	0	0	0
265	248	144	234
266	236	127	225
267	230	126	223
268	234	141	231
269	232	157	233
270	0	0	0
271	0	0	0
272	0	0	0
273	0	0	0
274	0	0	0
275	0	0	0
276	0	0	0
277	0	0	0
278	0	0	0
279	0	0	0
280	0	0	0
281	0	0	0
282	0	0	0
283	0	0	0
284	0	0	0
285	0	0	0
286	237	138	227
287	227	134	223
288	228	152	229
289	0	0	0
290	0	0	0
291	0	0	0
292	0	0	0
293	0	0	0
294	0	0	0
295	0	0	0
296	0	0	0
297	0	0	0
298	0	0	0
299	0	0	0
300	0	0	0
301	0	0	0
302	0	0	0
303	0	0	0
304	0	0	0
305	0	0	0
306	0	0	0
307	235	163	232
308	0	0	0
309	0	0	0
310	0	0	0
311	0	0	0
312	0	0	0
313	0	0	0
314	0	0	0
315	0	0	0
316	0	0	0
317	0	0	0
318	0	0	0
319	0	0	0
320	0	0	0
