 	R	G	B
1	0	0	0
2	0	0	0
3	0	0	0
4	0	0	0
5	0	0	0
6	0	0	0
7	0	0	0
8	0	0	0
9	0	0	0
10	0	0	0
11	0	0	0
12	0	0	0
13	0	0	0
14	0	0	0
15	0	0	0
16	0	0	0
17	0	0	0
18	255	223	235
19	255	229	238
20	255	223	236
21	0	0	0
22	0	0	0
23	0	0	0
24	0	0	0
25	0	0	0
26	0	0	0
27	0	0	0
28	0	0	0
29	0	0	0
30	0	0	0
31	0	0	0
32	0	0	0
33	0	0	0
34	0	0	0
35	0	0	0
36	0	0	0
37	0	0	0
38	0	0	0
39	0	0	0
40	0	0	0
41	0	0	0
42	254	224	232
43	255	234	242
44	255	216	231
45	255	210	229
46	247	195	221
47	0	0	0
48	0	0	0
49	0	0	0
50	0	0	0
51	0	0	0
52	0	0	0
53	0	0	0
54	0	0	0
55	0	0	0
56	0	0	0
57	0	0	0
58	0	0	0
59	0	0	0
60	0	0	0
61	0	0	0
62	0	0	0
63	0	0	0
64	0	0	0
65	0	0	0
66	0	0	0
67	255	236	241
68	255	222	235
69	253	205	227
70	249	195	223
71	241	181	216
72	252	197	228
73	255	209	235
74	0	0	0
75	0	0	0
76	0	0	0
77	0	0	0
78	0	0	0
79	0	0	0
80	0	0	0
81	0	0	0
82	0	0	0
83	0	0	0
84	0	0	0
85	0	0	0
86	0	0	0
87	0	0	0
88	0	0	0
89	0	0	0
90	0	0	0
91	255	223	230
92	255	225	237
93	255	210	230
94	248	193	222
95	245	184	219
96	252	191	226
97	255	206	236
98	253	196	226
99	246	189	221
100	0	0	0
101	0	0	0
102	0	0	0
103	0	0	0
104	0	0	0
105	0	0	0
106	0	0	0
107	0	0	0
108	0	0	0
109	0	0	0
110	0	0	0
111	0	0	0
112	0	0	0
113	0	0	0
114	0	0	0
115	0	0	0
116	253	213	227
117	255	211	230
118	251	198	226
119	243	181	218
120	254	193	229
121	255	200	232
122	254	192	225
123	245	182	219
124	249	191	225
125	252	198	233
126	0	0	0
127	0	0	0
128	0	0	0
129	0	0	0
130	0	0	0
131	0	0	0
132	0	0	0
133	0	0	0
134	0	0	0
135	0	0	0
136	0	0	0
137	0	0	0
138	0	0	0
139	0	0	0
140	255	225	234
141	255	219	233
142	252	205	228
143	250	193	225
144	247	183	222
145	255	195	232
146	251	186	224
147	243	178	217
148	247	185	223
149	253	194	231
150	254	198	232
151	0	0	0
152	0	0	0
153	0	0	0
154	0	0	0
155	0	0	0
156	0	0	0
157	0	0	0
158	0	0	0
159	0	0	0
160	0	0	0
161	0	0	0
162	0	0	0
163	0	0	0
164	255	230	236
165	255	231	238
166	255	211	228
167	251	199	226
168	255	195	228
169	250	185	224
170	248	181	224
171	242	173	219
172	248	182	226
173	252	188	231
174	255	194	234
175	254	196	231
176	0	0	0
177	0	0	0
178	0	0	0
179	0	0	0
180	0	0	0
181	0	0	0
182	0	0	0
183	0	0	0
184	0	0	0
185	0	0	0
186	0	0	0
187	0	0	0
188	0	0	0
189	0	0	0
190	255	217	231
191	252	199	223
192	249	190	223
193	250	185	225
194	245	175	220
195	240	170	219
196	242	173	223
197	249	182	230
198	251	185	233
199	254	190	233
200	249	190	227
201	0	0	0
202	0	0	0
203	0	0	0
204	0	0	0
205	0	0	0
206	0	0	0
207	0	0	0
208	0	0	0
209	0	0	0
210	0	0	0
211	0	0	0
212	0	0	0
213	0	0	0
214	255	215	227
215	255	206	228
216	255	196	228
217	249	183	225
218	249	179	228
219	243	169	224
220	248	175	230
221	249	177	231
222	252	182	234
223	253	184	236
224	253	187	234
225	248	186	227
226	0	0	0
227	0	0	0
228	0	0	0
229	0	0	0
230	0	0	0
231	0	0	0
232	0	0	0
233	0	0	0
234	0	0	0
235	0	0	0
236	0	0	0
237	0	0	0
238	255	221	229
239	255	212	227
240	253	195	225
241	251	185	225
242	248	176	226
243	246	170	228
244	241	161	224
245	250	170	233
246	248	168	230
247	249	171	230
248	252	179	233
249	250	180	230
250	251	189	229
251	0	0	0
252	0	0	0
253	0	0	0
254	0	0	0
255	0	0	0
256	0	0	0
257	0	0	0
258	0	0	0
259	0	0	0
260	0	0	0
261	0	0	0
262	255	223	232
263	255	217	228
264	253	200	221
265	247	183	217
266	250	179	223
267	243	165	223
268	240	160	225
269	236	151	222
270	245	158	229
271	244	156	225
272	249	166	229
273	250	173	228
274	253	184	229
275	253	193	227
276	0	0	0
277	0	0	0
278	0	0	0
279	0	0	0
280	0	0	0
281	0	0	0
282	0	0	0
283	0	0	0
284	0	0	0
285	0	0	0
286	255	229	235
287	255	223	234
288	255	205	224
289	249	188	217
290	250	181	220
291	249	177	224
292	243	164	226
293	241	160	228
294	239	154	227
295	247	160	232
296	245	157	228
297	250	167	231
298	246	168	225
299	250	179	226
300	252	191	225
301	0	0	0
302	0	0	0
303	0	0	0
304	0	0	0
305	0	0	0
306	0	0	0
307	0	0	0
308	0	0	0
309	0	0	0
310	0	0	0
311	255	225	233
312	254	209	226
313	250	192	220
314	254	188	224
315	253	181	226
316	246	170	224
317	246	165	229
318	243	161	230
319	240	154	227
320	247	160	232
321	245	157	227
322	248	163	229
323	244	164	227
324	248	178	230
325	0	0	0
326	0	0	0
327	0	0	0
328	0	0	0
329	0	0	0
330	0	0	0
331	0	0	0
332	0	0	0
333	0	0	0
334	0	0	0
335	0	0	0
336	255	223	232
337	255	207	226
338	250	187	221
339	255	184	226
340	254	177	226
341	246	165	224
342	246	160	228
343	241	155	227
344	241	154	228
345	246	158	231
346	240	150	223
347	244	157	227
348	244	164	228
349	0	0	0
350	0	0	0
351	0	0	0
352	0	0	0
353	0	0	0
354	0	0	0
355	0	0	0
356	0	0	0
357	0	0	0
358	0	0	0
359	0	0	0
360	0	0	0
361	255	220	231
362	255	202	225
363	251	182	220
364	255	181	226
365	254	173	225
366	251	169	227
367	245	156	228
368	245	158	231
369	244	156	231
370	242	152	228
371	237	144	221
372	246	158	229
373	243	162	227
374	0	0	0
375	0	0	0
376	0	0	0
377	0	0	0
378	0	0	0
379	0	0	0
380	0	0	0
381	0	0	0
382	0	0	0
383	0	0	0
384	0	0	0
385	0	0	0
386	255	211	228
387	255	194	223
388	247	171	218
389	251	169	223
390	249	163	222
391	244	157	222
392	242	152	227
393	245	155	231
394	240	147	225
395	237	142	222
396	244	153	228
397	253	166	235
398	247	167	229
399	0	0	0
400	0	0	0
401	0	0	0
402	0	0	0
403	0	0	0
404	0	0	0
405	0	0	0
406	0	0	0
407	0	0	0
408	0	0	0
409	0	0	0
410	255	213	232
411	255	205	231
412	254	185	225
413	246	163	220
414	251	163	227
415	247	156	224
416	243	152	224
417	242	149	227
418	241	145	226
419	235	137	219
420	246	152	229
421	252	162	233
422	254	169	235
423	0	0	0
424	0	0	0
425	0	0	0
426	0	0	0
427	0	0	0
428	0	0	0
429	0	0	0
430	0	0	0
431	0	0	0
432	0	0	0
433	0	0	0
434	255	216	233
435	255	210	235
436	254	188	226
437	246	167	219
438	250	163	226
439	254	163	233
440	246	149	225
441	243	145	224
442	245	149	229
443	241	143	226
444	243	146	226
445	254	161	235
446	245	152	226
447	0	0	0
448	0	0	0
449	0	0	0
450	0	0	0
451	0	0	0
452	0	0	0
453	0	0	0
454	0	0	0
455	0	0	0
456	0	0	0
457	0	0	0
458	0	0	0
459	253	206	228
460	249	188	222
461	241	166	214
462	246	165	221
463	250	161	228
464	250	155	230
465	243	142	224
466	252	153	233
467	249	152	232
468	250	154	232
469	251	155	231
470	249	153	229
471	240	143	221
472	0	0	0
473	0	0	0
474	0	0	0
475	0	0	0
476	0	0	0
477	0	0	0
478	0	0	0
479	0	0	0
480	0	0	0
481	0	0	0
482	0	0	0
483	0	0	0
484	252	201	227
485	244	181	221
486	237	162	216
487	243	162	225
488	245	156	228
489	246	150	229
490	242	138	224
491	254	150	234
492	242	140	225
493	242	141	223
494	249	153	229
495	248	150	226
496	244	148	225
497	0	0	0
498	0	0	0
499	0	0	0
500	0	0	0
501	0	0	0
502	0	0	0
503	0	0	0
504	0	0	0
505	0	0	0
506	0	0	0
507	0	0	0
508	0	0	0
509	251	195	227
510	245	179	226
511	236	160	224
512	238	157	229
513	238	150	227
514	239	144	226
515	236	131	220
516	240	132	222
517	235	129	218
518	242	141	225
519	249	152	230
520	251	155	230
521	247	153	226
522	0	0	0
523	0	0	0
524	0	0	0
525	0	0	0
526	0	0	0
527	0	0	0
528	0	0	0
529	0	0	0
530	0	0	0
531	0	0	0
532	255	229	237
533	0	0	0
534	252	191	228
535	247	176	228
536	240	161	229
537	235	155	231
538	231	145	226
539	232	138	224
540	230	128	219
541	233	128	220
542	236	132	221
543	242	143	228
544	242	146	226
545	244	148	225
546	245	154	225
547	0	0	0
548	0	0	0
549	0	0	0
550	0	0	0
551	0	0	0
552	0	0	0
553	0	0	0
554	0	0	0
555	0	0	0
556	255	231	238
557	255	226	238
558	255	206	231
559	250	186	227
560	246	173	227
561	237	157	226
562	230	148	226
563	224	138	222
564	225	133	222
565	222	123	217
566	235	136	227
567	234	132	222
568	237	138	224
569	238	141	224
570	247	153	230
571	247	157	229
572	251	173	231
573	0	0	0
574	0	0	0
575	0	0	0
576	0	0	0
577	0	0	0
578	0	0	0
579	0	0	0
580	255	242	242
581	255	235	242
582	255	213	231
583	246	190	222
584	241	175	221
585	236	162	220
586	239	163	228
587	235	155	229
588	223	137	222
589	219	130	220
590	224	133	224
591	241	148	235
592	236	138	225
593	241	145	228
594	238	141	224
595	249	154	231
596	246	157	228
597	0	0	0
598	0	0	0
599	0	0	0
600	0	0	0
601	0	0	0
602	0	0	0
603	0	0	0
604	0	0	0
605	255	242	242
606	255	219	231
607	248	196	220
608	239	180	216
609	233	166	216
610	239	168	226
611	243	169	231
612	237	156	228
613	226	139	222
614	231	145	230
615	234	147	232
616	240	148	233
617	241	146	229
618	240	145	227
619	238	140	222
620	246	152	227
621	242	154	222
622	0	0	0
623	0	0	0
624	0	0	0
625	0	0	0
626	0	0	0
627	0	0	0
628	0	0	0
629	0	0	0
630	255	237	240
631	255	215	230
632	245	190	218
633	234	173	213
634	237	173	223
635	244	176	232
636	241	165	228
637	239	153	226
638	229	135	219
639	234	142	228
640	234	140	228
641	234	137	226
642	231	132	220
643	233	132	220
644	239	142	223
645	240	150	224
646	243	162	225
647	0	0	0
648	0	0	0
649	0	0	0
650	0	0	0
651	0	0	0
652	0	0	0
653	0	0	0
654	0	0	0
655	255	230	237
656	255	209	230
657	245	186	222
658	249	188	231
659	252	188	237
660	249	177	235
661	247	166	233
662	244	152	229
663	233	132	218
664	233	134	222
665	230	132	223
666	226	126	219
667	221	119	215
668	235	136	226
669	240	145	227
670	246	161	231
671	248	173	231
672	0	0	0
673	0	0	0
674	0	0	0
675	0	0	0
676	0	0	0
677	0	0	0
678	0	0	0
679	0	0	0
680	255	224	235
681	253	203	228
682	249	184	225
683	255	190	238
684	254	174	233
685	249	162	230
686	247	153	229
687	241	138	224
688	235	129	219
689	230	128	219
690	222	122	217
691	216	115	213
692	222	125	219
693	235	141	229
694	241	151	230
695	251	169	235
696	251	177	232
697	0	0	0
698	0	0	0
699	0	0	0
700	0	0	0
701	0	0	0
702	0	0	0
703	0	0	0
704	0	0	0
705	255	218	233
706	254	200	228
707	251	181	226
708	255	174	231
709	250	159	228
710	247	150	227
711	245	141	226
712	247	138	228
713	240	128	223
714	230	123	220
715	221	116	217
716	225	126	223
717	227	133	223
718	240	149	232
719	246	159	233
720	253	172	235
721	253	180	231
722	0	0	0
723	0	0	0
724	0	0	0
725	0	0	0
726	0	0	0
727	0	0	0
728	0	0	0
729	0	0	0
730	255	210	231
731	253	193	228
732	252	178	228
733	255	170	233
734	246	149	225
735	242	139	224
736	248	142	230
737	253	140	232
738	244	127	224
739	236	122	221
740	234	124	224
741	236	133	229
742	230	132	221
743	241	148	228
744	250	163	233
745	254	174	233
746	252	181	228
747	0	0	0
748	0	0	0
749	0	0	0
750	0	0	0
751	0	0	0
752	0	0	0
753	0	0	0
754	0	0	0
755	253	203	231
756	253	188	230
757	251	172	230
758	251	159	230
759	242	138	223
760	247	142	230
761	251	142	232
762	250	135	228
763	242	122	218
764	244	128	222
765	242	129	225
766	240	134	227
767	233	131	218
768	245	151	228
769	250	165	231
770	249	172	227
771	246	179	223
772	0	0	0
773	0	0	0
774	0	0	0
775	0	0	0
776	0	0	0
777	0	0	0
778	0	0	0
779	0	0	0
780	255	203	233
781	255	188	233
782	252	170	231
783	251	156	231
784	247	142	228
785	253	146	235
786	243	128	224
787	235	116	215
788	242	125	220
789	251	134	226
790	248	132	225
791	244	136	226
792	240	135	220
793	247	153	228
794	247	164	228
795	239	169	222
796	0	0	0
797	0	0	0
798	0	0	0
799	0	0	0
800	0	0	0
801	0	0	0
802	0	0	0
803	0	0	0
804	0	0	0
805	255	201	231
806	254	183	228
807	250	165	226
808	251	155	229
809	248	140	226
810	245	131	225
811	234	113	215
812	243	125	224
813	251	134	229
814	255	139	233
815	253	136	228
816	248	139	227
817	242	137	219
818	244	152	225
819	0	0	0
820	0	0	0
821	0	0	0
822	0	0	0
823	0	0	0
824	0	0	0
825	0	0	0
826	0	0	0
827	0	0	0
828	0	0	0
829	0	0	0
830	252	193	225
831	250	175	223
832	249	162	224
833	251	152	227
834	254	148	231
835	253	139	230
836	243	121	221
837	254	134	232
838	255	138	234
839	255	139	234
840	237	115	214
841	232	118	212
842	242	141	220
843	0	0	0
844	0	0	0
845	0	0	0
846	0	0	0
847	0	0	0
848	0	0	0
849	0	0	0
850	0	0	0
851	0	0	0
852	0	0	0
853	0	0	0
854	0	0	0
855	249	185	222
856	251	175	225
857	251	162	226
858	255	161	234
859	255	157	236
860	255	144	231
861	247	125	221
862	255	135	231
863	255	137	232
864	245	121	220
865	224	96	203
866	242	133	223
867	246	148	224
868	0	0	0
869	0	0	0
870	0	0	0
871	0	0	0
872	0	0	0
873	0	0	0
874	0	0	0
875	0	0	0
876	0	0	0
877	0	0	0
878	0	0	0
879	0	0	0
880	255	192	228
881	255	181	230
882	249	157	224
883	255	156	230
884	255	149	229
885	252	136	224
886	246	124	219
887	255	133	228
888	250	127	224
889	236	109	212
890	240	121	218
891	255	158	240
892	251	157	229
893	0	0	0
894	0	0	0
895	0	0	0
896	0	0	0
897	0	0	0
898	0	0	0
899	0	0	0
900	0	0	0
901	0	0	0
902	0	0	0
903	0	0	0
904	0	0	0
905	255	198	232
906	255	177	227
907	246	153	221
908	253	151	227
909	253	144	225
910	252	136	224
911	247	124	218
912	248	123	220
913	243	117	217
914	251	133	227
915	254	143	230
916	255	160	236
917	253	164	231
918	0	0	0
919	0	0	0
920	0	0	0
921	0	0	0
922	0	0	0
923	0	0	0
924	0	0	0
925	0	0	0
926	0	0	0
927	0	0	0
928	255	218	236
929	0	0	0
930	255	188	227
931	250	167	221
932	247	152	222
933	253	150	228
934	252	142	225
935	251	133	223
936	243	119	216
937	243	118	217
938	248	127	224
939	255	142	232
940	251	144	228
941	255	160	232
942	251	167	230
943	0	0	0
944	0	0	0
945	0	0	0
946	0	0	0
947	0	0	0
948	0	0	0
949	0	0	0
950	0	0	0
951	0	0	0
952	255	230	240
953	255	224	242
954	255	202	233
955	252	180	226
956	250	165	225
957	247	150	224
958	251	147	229
959	250	138	226
960	247	128	223
961	239	114	216
962	250	130	228
963	253	137	232
964	254	145	233
965	249	146	227
966	251	158	229
967	250	171	229
968	0	0	0
969	0	0	0
970	0	0	0
971	0	0	0
972	0	0	0
973	0	0	0
974	0	0	0
975	0	0	0
976	255	241	245
977	255	230	242
978	254	206	231
979	247	183	223
980	252	178	228
981	249	163	226
982	252	157	231
983	255	153	235
984	249	137	227
985	246	127	223
986	244	124	223
987	255	139	234
988	251	138	230
989	251	144	230
990	249	150	228
991	250	162	229
992	249	174	228
993	0	0	0
994	0	0	0
995	0	0	0
996	0	0	0
997	0	0	0
998	0	0	0
999	0	0	0
1000	0	0	0
1001	255	239	243
1002	251	211	229
1003	242	186	219
1004	247	181	225
1005	252	176	231
1006	255	171	234
1007	255	162	234
1008	252	150	231
1009	246	134	224
1010	249	135	228
1011	246	130	225
1012	249	136	228
1013	244	134	223
1014	246	144	226
1015	0	0	0
1016	250	168	230
1017	0	0	0
1018	0	0	0
1019	0	0	0
1020	0	0	0
1021	0	0	0
1022	0	0	0
1023	0	0	0
1024	0	0	0
1025	0	0	0
1026	0	0	0
1027	248	204	227
1028	250	195	228
1029	255	190	233
1030	255	180	234
1031	255	173	236
1032	249	154	228
1033	245	141	223
1034	250	144	230
1035	252	144	232
1036	250	140	229
1037	252	146	232
1038	245	142	226
1039	0	0	0
1040	0	0	0
1041	0	0	0
1042	0	0	0
1043	0	0	0
1044	0	0	0
1045	0	0	0
1046	0	0	0
1047	0	0	0
1048	0	0	0
1049	0	0	0
1050	0	0	0
1051	0	0	0
1052	255	213	239
1053	255	204	238
1054	255	195	238
1055	255	183	236
1056	251	166	230
1057	244	147	224
1058	252	153	232
1059	255	155	235
1060	255	155	236
1061	253	151	233
1062	254	154	235
1063	247	151	230
1064	0	0	0
1065	0	0	0
1066	0	0	0
1067	0	0	0
1068	0	0	0
1069	0	0	0
1070	0	0	0
1071	0	0	0
1072	0	0	0
1073	0	0	0
1074	0	0	0
1075	0	0	0
1076	255	225	242
1077	255	217	243
1078	252	194	232
1079	252	184	231
1080	252	175	231
1081	246	158	225
1082	251	159	232
1083	255	164	239
1084	251	152	231
1085	251	151	230
1086	252	154	231
1087	252	157	233
1088	247	157	231
1089	0	0	0
1090	0	0	0
1091	0	0	0
1092	0	0	0
1093	0	0	0
1094	0	0	0
1095	0	0	0
1096	0	0	0
1097	0	0	0
1098	0	0	0
1099	0	0	0
1100	0	0	0
1101	255	225	240
1102	252	205	233
1103	244	182	223
1104	247	177	226
1105	248	169	227
1106	254	172	235
1107	255	172	241
1108	255	165	239
1109	248	152	229
1110	254	159	233
1111	254	161	234
1112	255	168	236
1113	250	168	233
1114	0	0	0
1115	0	0	0
1116	0	0	0
1117	0	0	0
1118	0	0	0
1119	0	0	0
1120	0	0	0
1121	0	0	0
1122	0	0	0
1123	0	0	0
1124	0	0	0
1125	0	0	0
1126	255	224	237
1127	251	204	231
1128	250	190	228
1129	253	185	231
1130	250	174	230
1131	255	175	237
1132	255	170	238
1133	253	162	234
1134	245	150	226
1135	250	157	230
1136	254	165	232
1137	255	171	234
1138	245	165	227
1139	0	0	0
1140	0	0	0
1141	0	0	0
1142	0	0	0
1143	0	0	0
1144	0	0	0
1145	0	0	0
1146	0	0	0
1147	0	0	0
1148	0	0	0
1149	0	0	0
1150	0	0	0
1151	252	221	233
1152	254	210	233
1153	253	196	231
1154	255	189	233
1155	252	177	232
1156	254	175	235
1157	253	168	233
1158	250	161	229
1159	243	149	223
1160	252	163	232
1161	253	168	231
1162	248	167	227
1163	0	0	0
1164	0	0	0
1165	0	0	0
1166	0	0	0
1167	0	0	0
1168	0	0	0
1169	0	0	0
1170	0	0	0
1171	0	0	0
1172	0	0	0
1173	0	0	0
1174	0	0	0
1175	0	0	0
1176	251	223	234
1177	255	212	234
1178	253	196	230
1179	254	189	232
1180	249	174	229
1181	251	171	231
1182	252	170	232
1183	249	163	229
1184	248	161	229
1185	255	173	237
1186	247	165	227
1187	0	0	0
1188	0	0	0
1189	0	0	0
1190	0	0	0
1191	0	0	0
1192	0	0	0
1193	0	0	0
1194	0	0	0
1195	0	0	0
1196	0	0	0
1197	0	0	0
1198	0	0	0
1199	0	0	0
1200	0	0	0
1201	255	228	240
1202	255	214	237
1203	253	197	230
1204	251	186	229
1205	245	171	226
1206	251	174	232
1207	252	173	233
1208	253	172	234
1209	251	169	233
1210	249	168	232
1211	240	161	225
1212	0	0	0
1213	0	0	0
1214	0	0	0
1215	0	0	0
1216	0	0	0
1217	0	0	0
1218	0	0	0
1219	0	0	0
1220	0	0	0
1221	0	0	0
1222	0	0	0
1223	0	0	0
1224	0	0	0
1225	0	0	0
1226	255	227	242
1227	254	211	237
1228	249	194	229
1229	247	182	227
1230	248	177	229
1231	253	179	235
1232	255	180	235
1233	255	179	235
1234	249	172	230
1235	246	170	229
1236	0	0	0
1237	0	0	0
1238	0	0	0
1239	0	0	0
1240	0	0	0
1241	0	0	0
1242	0	0	0
1243	0	0	0
1244	0	0	0
1245	0	0	0
1246	0	0	0
1247	0	0	0
1248	0	0	0
1249	0	0	0
1250	0	0	0
1251	0	0	0
1252	253	209	238
1253	248	192	231
1254	251	190	234
1255	250	183	234
1256	255	188	238
1257	255	187	236
1258	253	182	232
1259	247	174	226
1260	0	0	0
1261	0	0	0
1262	0	0	0
1263	0	0	0
1264	0	0	0
1265	0	0	0
1266	0	0	0
1267	0	0	0
1268	0	0	0
1269	0	0	0
1270	0	0	0
1271	0	0	0
1272	0	0	0
1273	0	0	0
1274	0	0	0
1275	0	0	0
1276	0	0	0
1277	0	0	0
1278	253	201	238
1279	255	198	240
1280	249	183	233
1281	254	187	237
1282	253	186	233
1283	249	180	228
1284	246	179	227
1285	0	0	0
1286	0	0	0
1287	0	0	0
1288	0	0	0
1289	0	0	0
1290	0	0	0
1291	0	0	0
1292	0	0	0
1293	0	0	0
1294	0	0	0
1295	0	0	0
1296	0	0	0
1297	0	0	0
1298	0	0	0
1299	0	0	0
1300	0	0	0
1301	0	0	0
1302	0	0	0
1303	255	209	242
1304	253	197	238
1305	245	182	231
1306	251	187	237
1307	251	186	234
1308	252	189	235
1309	249	188	234
1310	0	0	0
1311	0	0	0
1312	0	0	0
1313	0	0	0
1314	0	0	0
1315	0	0	0
1316	0	0	0
1317	0	0	0
1318	0	0	0
1319	0	0	0
1320	0	0	0
1321	0	0	0
1322	0	0	0
1323	0	0	0
1324	0	0	0
1325	0	0	0
1326	0	0	0
1327	0	0	0
1328	255	214	242
1329	254	202	238
1330	246	187	232
1331	252	192	239
1332	249	189	236
1333	250	192	237
1334	248	193	235
1335	0	0	0
1336	0	0	0
1337	0	0	0
1338	0	0	0
1339	0	0	0
1340	0	0	0
1341	0	0	0
1342	0	0	0
1343	0	0	0
1344	0	0	0
1345	0	0	0
1346	0	0	0
1347	0	0	0
1348	0	0	0
1349	0	0	0
1350	0	0	0
1351	0	0	0
1352	0	0	0
1353	255	221	242
1354	255	207	236
1355	247	192	233
1356	249	194	238
1357	246	190	235
1358	248	196	237
1359	0	0	0
1360	0	0	0
1361	0	0	0
1362	0	0	0
1363	0	0	0
1364	0	0	0
1365	0	0	0
1366	0	0	0
1367	0	0	0
1368	0	0	0
1369	0	0	0
1370	0	0	0
1371	0	0	0
1372	0	0	0
1373	0	0	0
1374	0	0	0
1375	0	0	0
1376	0	0	0
1377	0	0	0
1378	0	0	0
1379	244	194	226
1380	248	197	234
1381	249	198	237
1382	0	0	0
1383	0	0	0
1384	0	0	0
1385	0	0	0
1386	0	0	0
1387	0	0	0
1388	0	0	0
1389	0	0	0
1390	0	0	0
1391	0	0	0
1392	0	0	0
1393	0	0	0
1394	0	0	0
1395	0	0	0
1396	0	0	0
1397	0	0	0
1398	0	0	0
1399	0	0	0
1400	0	0	0
