 	R	G	B
1	0	0	0
2	0	0	0
3	0	0	0
4	0	0	0
5	0	0	0
6	0	0	0
7	0	0	0
8	0	0	0
9	0	0	0
10	255	222	235
11	255	217	233
12	254	208	231
13	0	0	0
14	0	0	0
15	0	0	0
16	0	0	0
17	0	0	0
18	0	0	0
19	0	0	0
20	0	0	0
21	0	0	0
22	0	0	0
23	0	0	0
24	0	0	0
25	0	0	0
26	0	0	0
27	0	0	0
28	255	220	235
29	255	217	236
30	253	203	229
31	250	194	227
32	253	192	231
33	0	0	0
34	0	0	0
35	0	0	0
36	0	0	0
37	0	0	0
38	0	0	0
39	0	0	0
40	0	0	0
41	0	0	0
42	0	0	0
43	0	0	0
44	0	0	0
45	0	0	0
46	0	0	0
47	250	208	229
48	250	198	227
49	245	185	221
50	248	184	225
51	250	182	229
52	247	174	227
53	0	0	0
54	0	0	0
55	0	0	0
56	0	0	0
57	0	0	0
58	0	0	0
59	0	0	0
60	0	0	0
61	0	0	0
62	0	0	0
63	0	0	0
64	0	0	0
65	0	0	0
66	246	204	231
67	252	198	232
68	248	182	225
69	250	180	228
70	253	181	232
71	250	173	230
72	250	171	232
73	255	179	239
74	253	176	236
75	0	0	0
76	0	0	0
77	0	0	0
78	0	0	0
79	0	0	0
80	0	0	0
81	0	0	0
82	0	0	0
83	0	0	0
84	245	210	235
85	247	201	234
86	251	191	234
87	246	175	225
88	251	177	230
89	254	177	234
90	255	178	237
91	255	175	239
92	255	177	241
93	253	173	236
94	251	174	235
95	0	0	0
96	0	0	0
97	0	0	0
98	0	0	0
99	0	0	0
100	0	0	0
101	0	0	0
102	0	0	0
103	0	0	0
104	252	196	237
105	250	183	233
106	248	173	229
107	253	176	234
108	255	176	237
109	255	176	240
110	250	163	234
111	251	165	235
112	248	163	231
113	245	164	230
114	247	174	233
115	0	0	0
116	0	0	0
117	0	0	0
118	0	0	0
119	0	0	0
120	0	0	0
121	0	0	0
122	0	0	0
123	247	185	232
124	249	179	234
125	247	170	231
126	253	173	237
127	255	173	238
128	249	162	232
129	241	148	226
130	244	153	230
131	241	151	226
132	248	167	232
133	247	175	230
134	0	0	0
135	0	0	0
136	0	0	0
137	0	0	0
138	0	0	0
139	0	0	0
140	0	0	0
141	0	0	0
142	248	188	237
143	253	184	240
144	250	172	236
145	255	176	241
146	254	168	237
147	248	158	231
148	249	158	234
149	251	162	238
150	249	163	235
151	255	177	239
152	248	176	229
153	0	0	0
154	0	0	0
155	0	0	0
156	0	0	0
157	0	0	0
158	0	0	0
159	0	0	0
160	0	0	0
161	251	193	242
162	253	183	240
163	250	171	235
164	253	169	238
165	250	162	234
166	255	167	239
167	255	166	242
168	255	171	244
169	254	171	238
170	252	176	235
171	246	175	227
172	0	0	0
173	0	0	0
174	0	0	0
175	0	0	0
176	0	0	0
177	0	0	0
178	0	0	0
179	0	0	0
180	255	196	245
181	255	185	242
182	253	174	238
183	255	173	240
184	249	159	232
185	253	163	237
186	248	156	235
187	249	160	236
188	252	171	237
189	251	176	234
190	249	183	232
191	0	0	0
192	0	0	0
193	0	0	0
194	0	0	0
195	0	0	0
196	0	0	0
197	0	0	0
198	254	197	243
199	255	199	247
200	255	187	243
201	255	177	241
202	254	169	238
203	247	155	229
204	248	155	232
205	242	148	231
206	250	163	240
207	253	173	240
208	254	183	240
209	252	190	237
210	0	0	0
211	0	0	0
212	0	0	0
213	0	0	0
214	254	209	239
215	0	0	0
216	0	0	0
217	251	191	239
218	255	195	244
219	255	183	240
220	255	175	239
221	254	167	238
222	243	149	227
223	245	149	230
224	246	153	236
225	253	168	243
226	254	178	242
227	254	186	240
228	250	191	236
229	0	0	0
230	0	0	0
231	0	0	0
232	253	210	240
233	255	212	243
234	253	200	237
235	0	0	0
236	254	192	240
237	255	195	245
238	255	183	239
239	254	174	237
240	248	160	233
241	239	143	227
242	247	154	238
243	247	156	239
244	254	172	245
245	254	180	240
246	252	187	237
247	0	0	0
248	0	0	0
249	0	0	0
250	254	213	241
251	255	216	246
252	255	204	239
253	249	191	233
254	251	190	238
255	255	195	245
256	253	182	238
257	247	168	230
258	255	175	238
259	248	161	234
260	245	153	235
261	252	163	245
262	250	165	242
263	255	179	246
264	251	180	237
265	0	0	0
266	0	0	0
267	0	0	0
268	250	214	235
269	253	213	238
270	252	204	236
271	248	193	233
272	248	190	235
273	251	189	238
274	248	179	235
275	243	166	229
276	251	172	236
277	255	178	242
278	254	170	240
279	249	161	240
280	254	170	246
281	250	169	240
282	252	177	240
283	248	180	235
284	0	0	0
285	0	0	0
286	250	221	237
287	251	219	239
288	249	211	236
289	249	202	235
290	247	195	236
291	248	193	238
292	251	191	241
293	249	181	238
294	249	175	237
295	255	181	243
296	254	174	240
297	248	165	236
298	250	167	240
299	254	175	245
300	251	174	239
301	253	182	240
302	248	184	235
303	0	0	0
304	0	0	0
305	0	0	0
306	246	215	235
307	244	207	235
308	248	202	238
309	246	195	237
310	246	192	239
311	248	191	242
312	251	186	242
313	250	179	239
314	250	176	238
315	247	169	235
316	250	172	238
317	250	173	238
318	252	177	240
319	249	177	238
320	249	183	238
321	0	0	0
322	0	0	0
323	0	0	0
324	0	0	0
325	0	0	0
326	252	218	243
327	255	214	246
328	250	201	241
329	248	197	242
330	246	191	243
331	247	186	242
332	247	180	239
333	247	176	237
334	247	174	237
335	250	177	239
336	251	181	240
337	252	184	240
338	248	183	238
339	0	0	0
340	0	0	0
341	0	0	0
342	0	0	0
343	0	0	0
344	0	0	0
345	255	228	248
346	255	216	244
347	249	203	240
348	243	194	239
349	242	188	241
350	246	187	243
351	245	180	239
352	247	182	241
353	247	180	240
354	250	185	242
355	251	188	242
356	250	189	240
357	0	0	0
358	0	0	0
359	0	0	0
360	0	0	0
361	0	0	0
362	0	0	0
363	0	0	0
364	255	226	246
365	249	211	239
366	247	206	240
367	242	198	239
368	250	203	249
369	255	202	253
370	246	185	241
371	247	184	242
372	243	181	239
373	0	0	0
374	0	0	0
375	0	0	0
376	0	0	0
377	0	0	0
378	0	0	0
379	0	0	0
380	0	0	0
381	0	0	0
382	0	0	0
383	0	0	0
384	252	217	244
385	248	210	242
386	244	207	242
387	250	211	248
388	249	199	245
389	241	183	238
390	243	185	242
391	0	0	0
392	0	0	0
393	0	0	0
394	0	0	0
395	0	0	0
396	0	0	0
397	0	0	0
398	0	0	0
399	0	0	0
