 	R	G	B
1	0	0	0
2	0	0	0
3	0	0	0
4	0	0	0
5	0	0	0
6	0	0	0
7	0	0	0
8	0	0	0
9	0	0	0
10	0	0	0
11	0	0	0
12	0	0	0
13	0	0	0
14	0	0	0
15	0	0	0
16	0	0	0
17	0	0	0
18	0	0	0
19	0	0	0
20	0	0	0
21	0	0	0
22	0	0	0
23	0	0	0
24	0	0	0
25	0	0	0
26	0	0	0
27	0	0	0
28	0	0	0
29	0	0	0
30	0	0	0
31	0	0	0
32	0	0	0
33	0	0	0
34	0	0	0
35	0	0	0
36	0	0	0
37	0	0	0
38	0	0	0
39	0	0	0
40	0	0	0
41	251	235	234
42	252	234	235
43	253	234	237
44	250	229	234
45	0	0	0
46	0	0	0
47	0	0	0
48	0	0	0
49	0	0	0
50	0	0	0
51	0	0	0
52	0	0	0
53	0	0	0
54	0	0	0
55	0	0	0
56	0	0	0
57	0	0	0
58	0	0	0
59	0	0	0
60	0	0	0
61	0	0	0
62	0	0	0
63	0	0	0
64	0	0	0
65	0	0	0
66	0	0	0
67	0	0	0
68	0	0	0
69	0	0	0
70	0	0	0
71	0	0	0
72	0	0	0
73	0	0	0
74	0	0	0
75	0	0	0
76	0	0	0
77	0	0	0
78	0	0	0
79	0	0	0
80	0	0	0
81	0	0	0
82	0	0	0
83	0	0	0
84	0	0	0
85	253	235	237
86	249	226	231
87	249	224	231
88	251	226	234
89	248	220	230
90	247	218	228
91	0	0	0
92	0	0	0
93	0	0	0
94	0	0	0
95	0	0	0
96	0	0	0
97	0	0	0
98	0	0	0
99	0	0	0
100	0	0	0
101	0	0	0
102	0	0	0
103	0	0	0
104	0	0	0
105	0	0	0
106	0	0	0
107	0	0	0
108	0	0	0
109	0	0	0
110	0	0	0
111	0	0	0
112	0	0	0
113	0	0	0
114	0	0	0
115	0	0	0
116	0	0	0
117	0	0	0
118	0	0	0
119	0	0	0
120	0	0	0
121	0	0	0
122	0	0	0
123	0	0	0
124	0	0	0
125	0	0	0
126	0	0	0
127	0	0	0
128	249	234	231
129	250	230	232
130	251	225	232
131	248	217	228
132	250	218	230
133	252	220	233
134	248	215	231
135	247	213	229
136	0	0	0
137	0	0	0
138	0	0	0
139	0	0	0
140	0	0	0
141	0	0	0
142	0	0	0
143	0	0	0
144	0	0	0
145	0	0	0
146	0	0	0
147	0	0	0
148	0	0	0
149	0	0	0
150	0	0	0
151	0	0	0
152	0	0	0
153	0	0	0
154	0	0	0
155	0	0	0
156	0	0	0
157	0	0	0
158	0	0	0
159	0	0	0
160	0	0	0
161	0	0	0
162	0	0	0
163	0	0	0
164	0	0	0
165	0	0	0
166	0	0	0
167	0	0	0
168	0	0	0
169	0	0	0
170	0	0	0
171	0	0	0
172	252	235	233
173	255	233	233
174	252	221	227
175	249	213	225
176	253	216	229
177	255	218	233
178	252	215	232
179	247	210	229
180	0	0	0
181	0	0	0
182	0	0	0
183	0	0	0
184	0	0	0
185	0	0	0
186	0	0	0
187	0	0	0
188	0	0	0
189	0	0	0
190	0	0	0
191	0	0	0
192	0	0	0
193	0	0	0
194	0	0	0
195	0	0	0
196	0	0	0
197	0	0	0
198	0	0	0
199	0	0	0
200	0	0	0
201	0	0	0
202	0	0	0
203	0	0	0
204	0	0	0
205	0	0	0
206	0	0	0
207	0	0	0
208	0	0	0
209	0	0	0
210	0	0	0
211	0	0	0
212	0	0	0
213	0	0	0
214	0	0	0
215	0	0	0
216	248	227	231
217	255	232	233
218	253	221	226
219	248	208	220
220	252	212	225
221	255	215	229
222	255	213	229
223	252	209	228
224	253	213	232
225	0	0	0
226	0	0	0
227	0	0	0
228	0	0	0
229	0	0	0
230	0	0	0
231	0	0	0
232	0	0	0
233	0	0	0
234	0	0	0
235	0	0	0
236	0	0	0
237	0	0	0
238	0	0	0
239	0	0	0
240	0	0	0
241	0	0	0
242	0	0	0
243	0	0	0
244	0	0	0
245	0	0	0
246	0	0	0
247	0	0	0
248	0	0	0
249	0	0	0
250	0	0	0
251	0	0	0
252	0	0	0
253	0	0	0
254	0	0	0
255	0	0	0
256	0	0	0
257	0	0	0
258	0	0	0
259	0	0	0
260	0	0	0
261	0	0	0
262	255	225	231
263	250	212	223
264	249	207	223
265	254	211	228
266	253	209	228
267	253	206	227
268	251	203	226
269	0	0	0
270	0	0	0
271	0	0	0
272	0	0	0
273	0	0	0
274	0	0	0
275	0	0	0
276	0	0	0
277	0	0	0
278	0	0	0
279	0	0	0
280	0	0	0
281	0	0	0
282	0	0	0
283	0	0	0
284	0	0	0
285	0	0	0
286	0	0	0
287	0	0	0
288	0	0	0
289	0	0	0
290	0	0	0
291	0	0	0
292	0	0	0
293	0	0	0
294	0	0	0
295	0	0	0
296	0	0	0
297	0	0	0
298	0	0	0
299	0	0	0
300	0	0	0
301	0	0	0
302	252	238	236
303	255	238	238
304	255	230	234
305	251	219	228
306	253	219	229
307	255	220	232
308	252	211	228
309	251	206	228
310	252	205	230
311	251	202	229
312	0	0	0
313	0	0	0
314	0	0	0
315	0	0	0
316	0	0	0
317	0	0	0
318	0	0	0
319	0	0	0
320	0	0	0
321	0	0	0
322	0	0	0
323	0	0	0
324	0	0	0
325	0	0	0
326	0	0	0
327	0	0	0
328	0	0	0
329	0	0	0
330	0	0	0
331	0	0	0
332	0	0	0
333	0	0	0
334	0	0	0
335	0	0	0
336	0	0	0
337	0	0	0
338	0	0	0
339	0	0	0
340	0	0	0
341	0	0	0
342	0	0	0
343	0	0	0
344	0	0	0
345	0	0	0
346	249	235	235
347	255	240	242
348	255	222	232
349	253	213	228
350	247	203	222
351	247	202	222
352	252	210	230
353	245	200	225
354	248	203	230
355	251	203	233
356	247	196	229
357	0	0	0
358	0	0	0
359	0	0	0
360	0	0	0
361	0	0	0
362	0	0	0
363	0	0	0
364	0	0	0
365	0	0	0
366	0	0	0
367	0	0	0
368	0	0	0
369	0	0	0
370	0	0	0
371	0	0	0
372	0	0	0
373	0	0	0
374	0	0	0
375	0	0	0
376	0	0	0
377	0	0	0
378	0	0	0
379	0	0	0
380	0	0	0
381	0	0	0
382	0	0	0
383	0	0	0
384	0	0	0
385	0	0	0
386	0	0	0
387	0	0	0
388	0	0	0
389	0	0	0
390	251	237	233
391	255	236	237
392	255	222	233
393	249	204	226
394	247	197	224
395	240	186	217
396	246	194	223
397	249	201	229
398	245	198	228
399	247	200	231
400	248	197	231
401	244	191	228
402	0	0	0
403	0	0	0
404	0	0	0
405	0	0	0
406	0	0	0
407	0	0	0
408	0	0	0
409	0	0	0
410	0	0	0
411	0	0	0
412	0	0	0
413	0	0	0
414	0	0	0
415	0	0	0
416	0	0	0
417	0	0	0
418	0	0	0
419	0	0	0
420	0	0	0
421	0	0	0
422	0	0	0
423	0	0	0
424	0	0	0
425	0	0	0
426	0	0	0
427	0	0	0
428	0	0	0
429	0	0	0
430	0	0	0
431	0	0	0
432	249	242	235
433	0	0	0
434	250	231	229
435	255	231	233
436	248	213	226
437	240	194	219
438	248	201	228
439	246	193	227
440	244	190	224
441	250	198	230
442	250	200	232
443	246	197	230
444	250	201	234
445	250	197	234
446	246	191	231
447	254	202	239
448	0	0	0
449	0	0	0
450	0	0	0
451	0	0	0
452	0	0	0
453	0	0	0
454	0	0	0
455	0	0	0
456	0	0	0
457	0	0	0
458	0	0	0
459	0	0	0
460	0	0	0
461	0	0	0
462	0	0	0
463	0	0	0
464	0	0	0
465	0	0	0
466	0	0	0
467	0	0	0
468	0	0	0
469	0	0	0
470	0	0	0
471	0	0	0
472	0	0	0
473	0	0	0
474	0	0	0
475	0	0	0
476	248	241	234
477	252	241	238
478	249	230	233
479	247	221	226
480	244	205	220
481	237	187	216
482	243	193	225
483	248	197	231
484	245	194	229
485	243	190	227
486	246	193	229
487	246	194	229
488	247	196	231
489	251	200	237
490	249	195	235
491	244	187	231
492	246	192	234
493	0	0	0
494	0	0	0
495	0	0	0
496	0	0	0
497	0	0	0
498	0	0	0
499	0	0	0
500	0	0	0
501	0	0	0
502	0	0	0
503	0	0	0
504	0	0	0
505	0	0	0
506	0	0	0
507	0	0	0
508	0	0	0
509	0	0	0
510	0	0	0
511	0	0	0
512	0	0	0
513	0	0	0
514	0	0	0
515	0	0	0
516	0	0	0
517	0	0	0
518	0	0	0
519	0	0	0
520	248	239	232
521	251	239	236
522	246	227	231
523	241	216	226
524	242	210	224
525	239	195	220
526	242	191	224
527	250	197	234
528	245	191	230
529	237	184	225
530	242	192	231
531	246	196	234
532	245	193	231
533	248	195	234
534	251	198	238
535	247	192	235
536	245	191	234
537	242	193	235
538	241	196	236
539	0	0	0
540	0	0	0
541	0	0	0
542	0	0	0
543	0	0	0
544	0	0	0
545	0	0	0
546	0	0	0
547	0	0	0
548	0	0	0
549	0	0	0
550	0	0	0
551	0	0	0
552	0	0	0
553	0	0	0
554	0	0	0
555	0	0	0
556	0	0	0
557	0	0	0
558	0	0	0
559	0	0	0
560	0	0	0
561	0	0	0
562	0	0	0
563	0	0	0
564	253	243	234
565	254	239	234
566	250	228	231
567	244	216	226
568	238	206	223
569	238	201	225
570	243	198	228
571	243	191	228
572	246	190	231
573	241	184	228
574	240	189	232
575	245	197	237
576	245	194	236
577	243	191	235
578	241	190	234
579	241	190	234
580	239	188	231
581	236	187	231
582	235	192	232
583	0	0	0
584	0	0	0
585	0	0	0
586	0	0	0
587	0	0	0
588	0	0	0
589	0	0	0
590	0	0	0
591	0	0	0
592	0	0	0
593	0	0	0
594	0	0	0
595	0	0	0
596	0	0	0
597	0	0	0
598	0	0	0
599	0	0	0
600	0	0	0
601	0	0	0
602	0	0	0
603	0	0	0
604	0	0	0
605	0	0	0
606	0	0	0
607	0	0	0
608	254	238	233
609	255	235	233
610	252	223	228
611	248	212	224
612	246	207	224
613	236	196	221
614	240	198	228
615	240	193	230
616	237	184	227
617	238	182	229
618	239	182	230
619	244	190	236
620	250	198	241
621	247	194	238
622	240	188	234
623	0	0	0
624	237	199	236
625	0	0	0
626	0	0	0
627	0	0	0
628	0	0	0
629	0	0	0
630	0	0	0
631	0	0	0
632	0	0	0
633	0	0	0
634	0	0	0
635	0	0	0
636	0	0	0
637	0	0	0
638	0	0	0
639	0	0	0
640	0	0	0
641	0	0	0
642	0	0	0
643	0	0	0
644	0	0	0
645	0	0	0
646	0	0	0
647	0	0	0
648	0	0	0
649	0	0	0
650	251	244	235
651	251	240	233
652	253	235	232
653	254	229	230
654	251	217	225
655	247	206	221
656	249	203	224
657	246	198	224
658	242	195	225
659	241	195	230
660	234	184	226
661	230	175	225
662	234	178	230
663	235	178	231
664	241	187	237
665	246	194	240
666	242	189	234
667	234	183	229
668	0	0	0
669	0	0	0
670	0	0	0
671	0	0	0
672	0	0	0
673	0	0	0
674	0	0	0
675	0	0	0
676	0	0	0
677	0	0	0
678	0	0	0
679	0	0	0
680	0	0	0
681	0	0	0
682	0	0	0
683	0	0	0
684	0	0	0
685	0	0	0
686	0	0	0
687	0	0	0
688	0	0	0
689	0	0	0
690	0	0	0
691	0	0	0
692	0	0	0
693	0	0	0
694	252	242	234
695	253	238	233
696	251	229	229
697	252	224	228
698	252	217	227
699	247	204	221
700	251	205	226
701	252	201	228
702	246	191	225
703	243	189	227
704	239	187	229
705	226	173	222
706	233	183	232
707	239	187	238
708	238	185	238
709	241	191	241
710	240	192	238
711	236	186	232
712	0	0	0
713	0	0	0
714	0	0	0
715	0	0	0
716	0	0	0
717	0	0	0
718	0	0	0
719	0	0	0
720	0	0	0
721	0	0	0
722	0	0	0
723	0	0	0
724	0	0	0
725	0	0	0
726	0	0	0
727	0	0	0
728	0	0	0
729	0	0	0
730	0	0	0
731	0	0	0
732	0	0	0
733	0	0	0
734	0	0	0
735	0	0	0
736	0	0	0
737	0	0	0
738	0	0	0
739	255	237	233
740	251	226	228
741	248	217	223
742	247	210	222
743	247	203	224
744	250	202	227
745	252	202	229
746	246	190	225
747	239	179	222
748	238	180	228
749	234	178	230
750	233	184	233
751	237	191	237
752	236	189	236
753	234	186	237
754	233	188	238
755	232	188	235
756	237	194	237
757	0	0	0
758	0	0	0
759	0	0	0
760	0	0	0
761	0	0	0
762	0	0	0
763	0	0	0
764	0	0	0
765	0	0	0
766	0	0	0
767	0	0	0
768	0	0	0
769	0	0	0
770	0	0	0
771	0	0	0
772	0	0	0
773	0	0	0
774	0	0	0
775	0	0	0
776	0	0	0
777	0	0	0
778	0	0	0
779	0	0	0
780	0	0	0
781	0	0	0
782	0	0	0
783	255	232	234
784	255	226	230
785	247	213	222
786	245	207	222
787	243	199	221
788	246	198	226
789	249	198	230
790	244	189	225
791	234	176	219
792	239	183	229
793	238	184	234
794	231	176	232
795	233	183	237
796	234	189	237
797	227	183	230
798	230	191	238
799	229	192	239
800	227	188	236
801	235	196	240
802	236	198	237
803	0	0	0
804	0	0	0
805	0	0	0
806	0	0	0
807	0	0	0
808	0	0	0
809	0	0	0
810	0	0	0
811	0	0	0
812	0	0	0
813	0	0	0
814	0	0	0
815	0	0	0
816	0	0	0
817	0	0	0
818	0	0	0
819	0	0	0
820	0	0	0
821	0	0	0
822	0	0	0
823	0	0	0
824	255	248	235
825	255	245	235
826	255	235	232
827	254	224	229
828	255	221	230
829	254	213	226
830	246	203	222
831	244	198	224
832	244	195	226
833	246	193	228
834	242	185	226
835	236	176	222
836	237	181	227
837	239	186	234
838	231	178	232
839	225	171	232
840	232	182	240
841	232	188	239
842	230	191	237
843	232	197	239
844	228	193	237
845	226	190	238
846	231	196	242
847	0	0	0
848	0	0	0
849	0	0	0
850	0	0	0
851	0	0	0
852	0	0	0
853	0	0	0
854	0	0	0
855	0	0	0
856	0	0	0
857	0	0	0
858	0	0	0
859	0	0	0
860	0	0	0
861	0	0	0
862	0	0	0
863	0	0	0
864	0	0	0
865	0	0	0
866	0	0	0
867	0	0	0
868	255	242	234
869	255	239	232
870	255	228	228
871	253	218	225
872	251	208	223
873	252	204	224
874	251	202	224
875	242	191	219
876	248	198	229
877	251	196	232
878	250	192	231
879	243	182	226
880	242	183	229
881	242	187	234
882	236	184	234
883	227	175	230
884	233	186	241
885	241	197	250
886	233	190	240
887	231	193	238
888	234	199	240
889	233	197	239
890	231	194	241
891	0	0	0
892	0	0	0
893	0	0	0
894	0	0	0
895	0	0	0
896	0	0	0
897	0	0	0
898	0	0	0
899	0	0	0
900	0	0	0
901	0	0	0
902	0	0	0
903	0	0	0
904	0	0	0
905	0	0	0
906	0	0	0
907	0	0	0
908	0	0	0
909	0	0	0
910	0	0	0
911	0	0	0
912	253	235	234
913	255	233	232
914	253	221	225
915	251	210	221
916	248	201	218
917	245	191	217
918	249	192	222
919	249	190	223
920	250	193	227
921	255	199	234
922	255	197	235
923	254	192	232
924	252	190	232
925	249	190	234
926	240	185	232
927	234	182	232
928	235	189	238
929	238	197	244
930	234	193	240
931	228	187	233
932	228	192	235
933	232	199	239
934	233	198	239
935	228	194	237
936	0	0	0
937	0	0	0
938	0	0	0
939	0	0	0
940	0	0	0
941	0	0	0
942	0	0	0
943	0	0	0
944	0	0	0
945	0	0	0
946	0	0	0
947	0	0	0
948	0	0	0
949	0	0	0
950	0	0	0
951	0	0	0
952	0	0	0
953	0	0	0
954	0	0	0
955	0	0	0
956	0	0	0
957	255	232	235
958	255	225	232
959	252	211	224
960	252	204	223
961	250	195	221
962	250	190	223
963	254	192	227
964	255	191	229
965	255	195	235
966	252	184	230
967	250	179	229
968	248	177	227
969	246	176	227
970	249	185	233
971	237	178	228
972	237	186	235
973	237	193	239
974	232	191	236
975	224	185	230
976	230	196	235
977	233	202	238
978	234	205	240
979	231	202	237
980	228	201	235
981	0	0	0
982	0	0	0
983	0	0	0
984	0	0	0
985	0	0	0
986	0	0	0
987	0	0	0
988	0	0	0
989	0	0	0
990	0	0	0
991	0	0	0
992	0	0	0
993	0	0	0
994	252	250	239
995	255	252	238
996	255	247	236
997	254	243	235
998	0	0	0
999	0	0	0
1000	249	229	230
1001	254	230	233
1002	255	223	232
1003	255	215	230
1004	253	205	225
1005	252	197	225
1006	253	193	226
1007	252	188	226
1008	255	188	230
1009	255	187	230
1010	250	176	226
1011	243	166	223
1012	241	164	225
1013	239	162	226
1014	244	172	232
1015	245	179	234
1016	240	183	233
1017	239	189	236
1018	236	190	236
1019	231	189	234
1020	234	200	239
1021	238	210	242
1022	237	210	239
1023	237	212	239
1024	235	211	237
1025	230	209	234
1026	0	0	0
1027	0	0	0
1028	0	0	0
1029	0	0	0
1030	0	0	0
1031	0	0	0
1032	0	0	0
1033	0	0	0
1034	0	0	0
1035	0	0	0
1036	0	0	0
1037	0	0	0
1038	248	248	236
1039	255	253	241
1040	251	239	232
1041	254	237	232
1042	253	230	230
1043	250	225	228
1044	253	225	231
1045	255	225	233
1046	253	215	228
1047	251	205	225
1048	254	204	228
1049	251	194	224
1050	255	195	229
1051	254	190	229
1052	252	184	228
1053	255	184	232
1054	252	178	228
1055	244	166	223
1056	248	172	231
1057	244	169	232
1058	244	173	236
1059	249	182	241
1060	250	191	242
1061	246	194	239
1062	241	192	235
1063	240	194	236
1064	239	196	238
1065	242	206	243
1066	236	203	236
1067	233	202	232
1068	237	213	236
1069	234	211	233
1070	233	215	234
1071	0	0	0
1072	0	0	0
1073	0	0	0
1074	0	0	0
1075	0	0	0
1076	0	0	0
1077	0	0	0
1078	0	0	0
1079	0	0	0
1080	0	0	0
1081	0	0	0
1082	250	247	240
1083	255	254	243
1084	252	241	235
1085	248	229	230
1086	251	225	230
1087	250	218	227
1088	251	217	227
1089	254	217	229
1090	251	207	225
1091	247	196	220
1092	249	194	223
1093	252	193	228
1094	254	192	231
1095	255	192	232
1096	254	186	230
1097	252	179	228
1098	250	174	228
1099	246	167	226
1100	248	171	230
1101	249	175	234
1102	244	175	233
1103	243	177	236
1104	251	190	242
1105	253	199	242
1106	246	196	236
1107	243	194	233
1108	245	199	236
1109	242	200	237
1110	234	197	233
1111	227	194	229
1112	231	203	232
1113	235	212	235
1114	236	217	236
1115	0	0	0
1116	0	0	0
1117	0	0	0
1118	0	0	0
1119	0	0	0
1120	0	0	0
1121	0	0	0
1122	0	0	0
1123	0	0	0
1124	0	0	0
1125	0	0	0
1126	252	240	238
1127	255	248	244
1128	250	233	232
1129	239	217	221
1130	246	221	228
1131	248	217	229
1132	248	211	227
1133	252	211	229
1134	255	210	230
1135	251	200	226
1136	251	194	225
1137	252	191	228
1138	255	193	234
1139	255	192	235
1140	251	180	228
1141	249	173	226
1142	252	175	231
1143	249	169	230
1144	246	166	230
1145	247	169	232
1146	249	179	236
1147	240	176	232
1148	246	188	239
1149	255	201	246
1150	249	194	238
1151	246	193	234
1152	246	196	235
1153	246	199	237
1154	237	195	232
1155	0	0	0
1156	0	0	0
1157	0	0	0
1158	0	0	0
1159	0	0	0
1160	0	0	0
1161	0	0	0
1162	0	0	0
1163	0	0	0
1164	0	0	0
1165	0	0	0
1166	0	0	0
1167	0	0	0
1168	0	0	0
1169	0	0	0
1170	0	0	0
1171	253	236	235
1172	244	222	226
1173	236	209	219
1174	240	211	223
1175	247	215	228
1176	248	210	228
1177	249	205	229
1178	252	204	231
1179	254	202	231
1180	252	195	228
1181	251	189	229
1182	252	188	231
1183	254	188	233
1184	246	174	225
1185	240	163	219
1186	244	165	224
1187	247	167	231
1188	246	165	232
1189	242	161	229
1190	247	172	235
1191	248	182	238
1192	247	188	239
1193	250	198	242
1194	247	193	238
1195	242	188	234
1196	244	192	237
1197	244	196	238
1198	240	194	236
1199	230	190	232
1200	0	0	0
1201	0	0	0
1202	0	0	0
1203	0	0	0
1204	0	0	0
1205	0	0	0
1206	0	0	0
1207	0	0	0
1208	0	0	0
1209	0	0	0
1210	0	0	0
1211	0	0	0
1212	0	0	0
1213	0	0	0
1214	0	0	0
1215	0	0	0
1216	0	0	0
1217	232	206	218
1218	242	216	227
1219	254	223	236
1220	252	211	230
1221	252	206	230
1222	252	201	233
1223	253	198	234
1224	255	198	233
1225	252	190	230
1226	251	187	232
1227	251	184	233
1228	255	191	237
1229	249	178	229
1230	251	179	232
1231	253	179	236
1232	251	175	238
1233	249	172	238
1234	249	176	239
1235	254	187	243
1236	254	193	242
1237	255	201	244
1238	248	196	239
1239	241	190	234
1240	244	196	239
1241	244	200	241
1242	238	196	238
1243	234	195	236
1244	0	0	0
1245	0	0	0
1246	0	0	0
1247	0	0	0
1248	0	0	0
1249	0	0	0
1250	0	0	0
1251	0	0	0
1252	0	0	0
1253	0	0	0
1254	0	0	0
1255	0	0	0
1256	0	0	0
1257	0	0	0
1258	0	0	0
1259	0	0	0
1260	0	0	0
1261	0	0	0
1262	246	218	232
1263	254	227	238
1264	253	215	232
1265	249	202	228
1266	247	195	228
1267	247	190	230
1268	249	190	232
1269	250	189	230
1270	249	185	228
1271	248	181	230
1272	252	186	235
1273	255	193	240
1274	254	188	237
1275	254	187	238
1276	250	181	236
1277	247	175	237
1278	251	183	243
1279	251	186	240
1280	252	192	239
1281	251	197	237
1282	243	192	231
1283	237	188	232
1284	238	193	235
1285	238	198	236
1286	234	196	233
1287	0	0	0
1288	0	0	0
1289	0	0	0
1290	0	0	0
1291	0	0	0
1292	0	0	0
1293	0	0	0
1294	0	0	0
1295	0	0	0
1296	0	0	0
1297	0	0	0
1298	0	0	0
1299	0	0	0
1300	0	0	0
1301	0	0	0
1302	0	0	0
1303	0	0	0
1304	0	0	0
1305	0	0	0
1306	0	0	0
1307	0	0	0
1308	250	210	233
1309	241	193	223
1310	245	196	228
1311	242	189	227
1312	250	197	237
1313	253	197	239
1314	249	188	233
1315	247	183	230
1316	251	187	236
1317	255	192	240
1318	254	191	238
1319	247	183	232
1320	254	194	239
1321	249	188	237
1322	249	187	241
1323	252	194	246
1324	0	0	0
1325	0	0	0
1326	0	0	0
1327	0	0	0
1328	0	0	0
1329	0	0	0
1330	0	0	0
1331	0	0	0
1332	0	0	0
1333	0	0	0
1334	0	0	0
1335	0	0	0
1336	0	0	0
1337	0	0	0
1338	0	0	0
1339	0	0	0
1340	0	0	0
1341	0	0	0
1342	0	0	0
1343	0	0	0
1344	0	0	0
1345	0	0	0
1346	0	0	0
1347	0	0	0
1348	0	0	0
1349	0	0	0
1350	0	0	0
1351	0	0	0
1352	0	0	0
1353	0	0	0
1354	242	190	230
1355	244	192	233
1356	245	196	236
1357	251	202	240
1358	248	192	235
1359	245	184	234
1360	250	188	239
1361	253	191	241
1362	253	190	240
1363	249	188	236
1364	250	194	237
1365	255	204	242
1366	255	202	241
1367	254	201	245
1368	253	202	246
1369	248	199	240
1370	0	0	0
1371	0	0	0
1372	0	0	0
1373	0	0	0
1374	0	0	0
1375	0	0	0
1376	0	0	0
1377	0	0	0
1378	0	0	0
1379	0	0	0
1380	0	0	0
1381	0	0	0
1382	0	0	0
1383	0	0	0
1384	0	0	0
1385	0	0	0
1386	0	0	0
1387	0	0	0
1388	0	0	0
1389	0	0	0
1390	0	0	0
1391	0	0	0
1392	0	0	0
1393	0	0	0
1394	0	0	0
1395	0	0	0
1396	0	0	0
1397	0	0	0
1398	250	201	241
1399	252	202	242
1400	244	191	236
1401	244	193	236
1402	248	199	239
1403	245	189	234
1404	250	192	240
1405	255	197	246
1406	253	194	242
1407	250	191	239
1408	248	192	236
1409	249	198	238
1410	252	205	240
1411	253	203	240
1412	250	199	239
1413	250	200	240
1414	249	203	239
1415	0	0	0
1416	0	0	0
1417	0	0	0
1418	0	0	0
1419	0	0	0
1420	0	0	0
1421	0	0	0
1422	0	0	0
1423	0	0	0
1424	0	0	0
1425	0	0	0
1426	0	0	0
1427	0	0	0
1428	0	0	0
1429	0	0	0
1430	0	0	0
1431	0	0	0
1432	0	0	0
1433	0	0	0
1434	0	0	0
1435	0	0	0
1436	0	0	0
1437	0	0	0
1438	0	0	0
1439	0	0	0
1440	0	0	0
1441	0	0	0
1442	0	0	0
1443	251	205	241
1444	245	196	236
1445	238	185	231
1446	242	191	235
1447	247	197	239
1448	249	197	240
1449	251	198	242
1450	248	194	239
1451	245	190	235
1452	246	193	236
1453	244	194	234
1454	246	199	236
1455	251	207	242
1456	247	201	237
1457	242	194	233
1458	246	202	236
1459	0	0	0
1460	0	0	0
1461	0	0	0
1462	0	0	0
1463	0	0	0
1464	0	0	0
1465	0	0	0
1466	0	0	0
1467	0	0	0
1468	0	0	0
1469	0	0	0
1470	0	0	0
1471	0	0	0
1472	0	0	0
1473	0	0	0
1474	0	0	0
1475	0	0	0
1476	0	0	0
1477	0	0	0
1478	0	0	0
1479	0	0	0
1480	0	0	0
1481	0	0	0
1482	0	0	0
1483	0	0	0
1484	0	0	0
1485	0	0	0
1486	0	0	0
1487	0	0	0
1488	0	0	0
1489	242	195	235
1490	241	192	236
1491	249	200	243
1492	249	200	243
1493	247	197	240
1494	247	199	240
1495	240	193	233
1496	246	203	239
1497	249	207	241
1498	244	201	235
1499	0	0	0
1500	0	0	0
1501	0	0	0
1502	0	0	0
1503	0	0	0
1504	0	0	0
1505	0	0	0
1506	0	0	0
1507	0	0	0
1508	0	0	0
1509	0	0	0
1510	0	0	0
1511	0	0	0
1512	0	0	0
1513	0	0	0
1514	0	0	0
1515	0	0	0
1516	0	0	0
1517	0	0	0
1518	0	0	0
1519	0	0	0
1520	0	0	0
1521	0	0	0
1522	0	0	0
1523	0	0	0
1524	0	0	0
1525	0	0	0
1526	0	0	0
1527	0	0	0
1528	0	0	0
1529	0	0	0
1530	0	0	0
1531	0	0	0
1532	0	0	0
1533	247	206	243
1534	241	198	237
1535	240	195	238
1536	242	196	240
1537	242	196	240
1538	242	198	240
1539	242	200	238
1540	246	208	241
1541	251	218	244
1542	245	210	238
1543	0	0	0
1544	0	0	0
1545	0	0	0
1546	0	0	0
1547	0	0	0
1548	0	0	0
1549	0	0	0
1550	0	0	0
1551	0	0	0
1552	0	0	0
1553	0	0	0
1554	0	0	0
1555	0	0	0
1556	0	0	0
1557	0	0	0
1558	0	0	0
1559	0	0	0
1560	0	0	0
1561	0	0	0
1562	0	0	0
1563	0	0	0
1564	0	0	0
1565	0	0	0
1566	0	0	0
1567	0	0	0
1568	0	0	0
1569	0	0	0
1570	0	0	0
1571	0	0	0
1572	0	0	0
1573	0	0	0
1574	0	0	0
1575	0	0	0
1576	0	0	0
1577	0	0	0
1578	242	200	241
1579	232	190	232
1580	241	205	242
1581	239	204	241
1582	238	204	241
1583	240	207	242
1584	239	205	239
1585	248	217	245
1586	244	213	238
1587	0	0	0
1588	0	0	0
1589	0	0	0
1590	0	0	0
1591	0	0	0
1592	0	0	0
1593	0	0	0
1594	0	0	0
1595	0	0	0
1596	0	0	0
1597	0	0	0
1598	0	0	0
1599	0	0	0
1600	0	0	0
1601	0	0	0
1602	0	0	0
1603	0	0	0
1604	0	0	0
1605	0	0	0
1606	0	0	0
1607	0	0	0
1608	0	0	0
1609	0	0	0
1610	0	0	0
1611	0	0	0
1612	0	0	0
1613	0	0	0
1614	0	0	0
1615	0	0	0
1616	0	0	0
1617	0	0	0
1618	0	0	0
1619	0	0	0
1620	0	0	0
1621	0	0	0
1622	237	197	239
1623	229	189	233
1624	235	201	240
1625	241	214	245
1626	236	210	239
1627	234	210	239
1628	233	208	238
1629	234	208	238
1630	237	209	239
1631	0	0	0
1632	0	0	0
1633	0	0	0
1634	0	0	0
1635	0	0	0
1636	0	0	0
1637	0	0	0
1638	0	0	0
1639	0	0	0
1640	0	0	0
1641	0	0	0
1642	0	0	0
1643	0	0	0
1644	0	0	0
1645	0	0	0
1646	0	0	0
1647	0	0	0
1648	0	0	0
1649	0	0	0
1650	0	0	0
1651	0	0	0
1652	0	0	0
1653	0	0	0
1654	0	0	0
1655	0	0	0
1656	0	0	0
1657	0	0	0
1658	0	0	0
1659	0	0	0
1660	0	0	0
1661	0	0	0
1662	0	0	0
1663	0	0	0
1664	0	0	0
1665	0	0	0
1666	0	0	0
1667	0	0	0
1668	234	208	243
1669	242	222	250
1670	236	216	241
1671	0	0	0
1672	0	0	0
1673	0	0	0
1674	0	0	0
1675	0	0	0
1676	0	0	0
1677	0	0	0
1678	0	0	0
1679	0	0	0
1680	0	0	0
1681	0	0	0
1682	0	0	0
1683	0	0	0
1684	0	0	0
1685	0	0	0
1686	0	0	0
1687	0	0	0
1688	0	0	0
1689	0	0	0
1690	0	0	0
1691	0	0	0
1692	0	0	0
1693	0	0	0
1694	0	0	0
1695	0	0	0
1696	0	0	0
1697	0	0	0
1698	0	0	0
1699	0	0	0
1700	0	0	0
1701	0	0	0
1702	0	0	0
1703	0	0	0
1704	0	0	0
1705	0	0	0
1706	0	0	0
1707	0	0	0
1708	0	0	0
1709	0	0	0
1710	0	0	0
1711	0	0	0
1712	0	0	0
1713	0	0	0
1714	237	221	240
1715	0	0	0
1716	0	0	0
1717	0	0	0
1718	0	0	0
1719	0	0	0
1720	0	0	0
1721	0	0	0
1722	0	0	0
1723	0	0	0
1724	0	0	0
1725	0	0	0
1726	0	0	0
1727	0	0	0
1728	0	0	0
1729	0	0	0
1730	0	0	0
1731	0	0	0
1732	0	0	0
1733	0	0	0
1734	0	0	0
1735	0	0	0
1736	0	0	0
1737	0	0	0
1738	0	0	0
1739	0	0	0
1740	0	0	0
1741	0	0	0
1742	0	0	0
1743	0	0	0
1744	0	0	0
1745	0	0	0
1746	0	0	0
1747	0	0	0
1748	0	0	0
1749	0	0	0
1750	0	0	0
1751	0	0	0
1752	0	0	0
1753	0	0	0
1754	0	0	0
1755	0	0	0
