 	R	G	B
1	0	0	0
2	0	0	0
3	0	0	0
4	0	0	0
5	253	218	228
6	0	0	0
7	0	0	0
8	0	0	0
9	0	0	0
10	0	0	0
11	0	0	0
12	0	0	0
13	0	0	0
14	0	0	0
15	0	0	0
16	0	0	0
17	0	0	0
18	0	0	0
19	0	0	0
20	0	0	0
21	0	0	0
22	0	0	0
23	0	0	0
24	0	0	0
25	0	0	0
26	0	0	0
27	0	0	0
28	0	0	0
29	0	0	0
30	0	0	0
31	0	0	0
32	0	0	0
33	0	0	0
34	0	0	0
35	0	0	0
36	0	0	0
37	0	0	0
38	0	0	0
39	0	0	0
40	0	0	0
41	255	225	240
42	255	219	229
43	255	223	231
44	0	0	0
45	0	0	0
46	0	0	0
47	0	0	0
48	0	0	0
49	0	0	0
50	0	0	0
51	0	0	0
52	0	0	0
53	0	0	0
54	0	0	0
55	0	0	0
56	0	0	0
57	0	0	0
58	0	0	0
59	0	0	0
60	0	0	0
61	0	0	0
62	0	0	0
63	0	0	0
64	0	0	0
65	0	0	0
66	0	0	0
67	0	0	0
68	0	0	0
69	0	0	0
70	0	0	0
71	0	0	0
72	0	0	0
73	0	0	0
74	0	0	0
75	0	0	0
76	250	219	238
77	253	222	238
78	255	221	236
79	255	217	232
80	249	204	225
81	239	189	219
82	248	200	228
83	249	204	227
84	253	212	230
85	254	218	233
86	255	226	235
87	255	234	237
88	255	235	236
89	255	235	235
90	0	0	0
91	255	246	241
92	255	243	238
93	0	0	0
94	0	0	0
95	0	0	0
96	0	0	0
97	0	0	0
98	0	0	0
99	0	0	0
100	0	0	0
101	0	0	0
102	0	0	0
103	0	0	0
104	0	0	0
105	0	0	0
106	0	0	0
107	0	0	0
108	0	0	0
109	0	0	0
110	0	0	0
111	0	0	0
112	248	220	239
113	255	228	245
114	253	217	236
115	255	216	236
116	255	213	235
117	249	201	228
118	247	196	229
119	255	208	239
120	250	199	229
121	254	207	232
122	255	211	233
123	255	220	236
124	252	213	227
125	250	213	224
126	254	222	229
127	252	226	230
128	255	237	236
129	251	232	231
130	249	231	231
131	0	0	0
132	0	0	0
133	0	0	0
134	0	0	0
135	0	0	0
136	0	0	0
137	0	0	0
138	0	0	0
139	0	0	0
140	0	0	0
141	0	0	0
142	0	0	0
143	0	0	0
144	0	0	0
145	0	0	0
146	0	0	0
147	0	0	0
148	0	0	0
149	246	222	240
150	247	216	238
151	244	206	232
152	249	206	234
153	250	204	233
154	249	200	232
155	248	195	230
156	250	195	232
157	244	187	226
158	248	195	230
159	249	198	228
160	247	195	223
161	242	190	216
162	249	202	222
163	252	212	226
164	254	220	229
165	255	230	231
166	254	227	228
167	0	0	0
168	0	0	0
169	0	0	0
170	0	0	0
171	0	0	0
172	0	0	0
173	0	0	0
174	0	0	0
175	0	0	0
176	0	0	0
177	0	0	0
178	0	0	0
179	0	0	0
180	0	0	0
181	0	0	0
182	0	0	0
183	0	0	0
184	0	0	0
185	0	0	0
186	248	230	245
187	249	224	243
188	242	208	235
189	247	209	237
190	250	209	238
191	252	206	238
192	248	197	234
193	251	197	237
194	247	190	232
195	251	197	236
196	252	199	233
197	251	197	229
198	251	197	226
199	255	209	232
200	252	205	226
201	255	213	227
202	255	220	228
203	254	218	225
204	252	218	227
205	0	0	0
206	0	0	0
207	0	0	0
208	0	0	0
209	0	0	0
210	0	0	0
211	0	0	0
212	0	0	0
213	0	0	0
214	0	0	0
215	0	0	0
216	0	0	0
217	0	0	0
218	0	0	0
219	0	0	0
220	0	0	0
221	0	0	0
222	0	0	0
223	0	0	0
224	241	219	237
225	235	204	230
226	242	208	235
227	245	208	235
228	242	199	231
229	241	191	231
230	246	192	236
231	244	186	231
232	250	194	237
233	253	197	235
234	255	199	234
235	255	199	232
236	255	200	230
237	249	196	223
238	252	203	225
239	255	211	227
240	253	209	225
241	251	208	223
242	0	0	0
243	0	0	0
244	254	223	233
245	254	225	232
246	254	227	231
247	255	231	233
248	254	229	232
249	0	0	0
250	0	0	0
251	0	0	0
252	0	0	0
253	0	0	0
254	0	0	0
255	0	0	0
256	0	0	0
257	0	0	0
258	0	0	0
259	0	0	0
260	0	0	0
261	0	0	0
262	242	220	239
263	250	225	246
264	241	208	234
265	235	198	229
266	241	200	236
267	251	204	244
268	249	193	238
269	255	203	245
270	250	189	233
271	252	192	233
272	253	193	232
273	255	195	232
274	251	191	225
275	254	199	228
276	252	200	226
277	249	198	223
278	253	205	226
279	255	212	230
280	255	216	232
281	255	216	231
282	255	218	230
283	255	220	229
284	255	225	232
285	254	222	231
286	246	216	227
287	0	0	0
288	0	0	0
289	244	223	230
290	0	0	0
291	0	0	0
292	0	0	0
293	0	0	0
294	0	0	0
295	0	0	0
296	0	0	0
297	0	0	0
298	0	0	0
299	0	0	0
300	243	221	241
301	236	206	233
302	240	208	237
303	245	209	241
304	250	205	242
305	246	194	238
306	241	184	231
307	233	172	221
308	242	180	227
309	246	183	229
310	248	184	229
311	245	181	223
312	243	183	222
313	243	184	222
314	251	195	228
315	255	203	231
316	255	205	229
317	253	206	226
318	251	206	224
319	252	209	227
320	252	212	228
321	253	216	229
322	246	209	224
323	239	203	221
324	245	216	229
325	251	229	235
326	246	226	231
327	245	226	231
328	247	231	234
329	250	235	237
330	248	234	237
331	0	0	0
332	0	0	0
333	0	0	0
334	0	0	0
335	0	0	0
336	0	0	0
337	0	0	0
338	244	220	242
339	255	226	250
340	245	206	239
341	244	198	238
342	236	188	233
343	224	176	224
344	238	192	234
345	255	205	245
346	244	180	229
347	245	181	229
348	248	188	230
349	247	190	229
350	248	190	229
351	255	204	239
352	253	193	230
353	249	193	226
354	248	198	224
355	245	197	221
356	251	209	229
357	250	211	229
358	252	215	230
359	246	209	225
360	248	213	229
361	255	227	240
362	249	220	231
363	241	216	226
364	246	226	232
365	251	232	236
366	249	228	233
367	248	227	233
368	250	230	236
369	0	0	0
370	0	0	0
371	0	0	0
372	0	0	0
373	0	0	0
374	0	0	0
375	0	0	0
376	243	214	240
377	235	195	231
378	237	193	235
379	228	183	231
380	232	195	238
381	246	211	246
382	245	195	237
383	234	171	222
384	245	184	231
385	249	192	232
386	249	192	230
387	252	193	232
388	254	190	232
389	246	180	224
390	246	186	226
391	246	191	227
392	251	201	231
393	255	211	235
394	252	212	232
395	253	216	232
396	251	216	230
397	253	219	233
398	250	215	231
399	242	209	225
400	244	217	229
401	250	227	234
402	248	224	231
403	245	220	229
404	245	221	229
405	0	0	0
406	0	0	0
407	0	0	0
408	0	0	0
409	0	0	0
410	0	0	0
411	0	0	0
412	0	0	0
413	0	0	0
414	238	208	238
415	243	208	244
416	233	193	237
417	239	207	246
418	241	206	243
419	235	187	231
420	233	175	226
421	247	191	238
422	246	186	231
423	251	189	231
424	250	183	228
425	249	178	226
426	246	176	225
427	248	184	229
428	250	192	233
429	255	201	236
430	251	201	230
431	247	201	226
432	249	207	228
433	247	207	226
434	253	218	232
435	248	213	228
436	248	215	230
437	255	227	238
438	253	226	234
439	247	220	229
440	246	220	230
441	0	0	0
442	0	0	0
443	0	0	0
444	0	0	0
445	0	0	0
446	0	0	0
447	0	0	0
448	0	0	0
449	0	0	0
450	0	0	0
451	241	220	241
452	241	213	242
453	233	198	236
454	233	199	239
455	236	199	239
456	236	190	236
457	235	180	233
458	243	184	237
459	244	180	232
460	245	176	228
461	244	171	224
462	248	174	226
463	246	172	224
464	250	182	229
465	253	190	233
466	253	192	231
467	249	191	227
468	249	197	227
469	251	204	231
470	254	212	234
471	255	222	237
472	255	221	233
473	255	223	234
474	253	222	232
475	251	221	231
476	249	220	231
477	247	220	232
478	0	0	0
479	0	0	0
480	0	0	0
481	0	0	0
482	0	0	0
483	0	0	0
484	0	0	0
485	0	0	0
486	0	0	0
487	0	0	0
488	239	223	239
489	236	214	238
490	233	204	236
491	240	208	244
492	239	202	242
493	237	193	239
494	238	184	238
495	250	190	245
496	244	176	235
497	242	171	230
498	248	174	231
499	254	179	234
500	249	171	227
501	255	182	232
502	255	185	232
503	255	187	230
504	251	185	226
505	251	190	227
506	255	200	232
507	255	208	234
508	255	215	233
509	254	213	228
510	248	210	226
511	242	206	222
512	249	219	231
513	249	220	232
514	0	0	0
515	0	0	0
516	0	0	0
517	0	0	0
518	0	0	0
519	0	0	0
520	0	0	0
521	0	0	0
522	0	0	0
523	0	0	0
524	0	0	0
525	0	0	0
526	234	216	238
527	232	207	235
528	237	206	240
529	238	200	240
530	236	192	239
531	237	184	237
532	245	180	239
533	241	168	233
534	247	174	237
535	253	177	238
536	255	177	237
537	252	170	229
538	255	176	231
539	255	178	230
540	253	178	228
541	250	177	225
542	255	188	229
543	255	197	229
544	255	203	229
545	255	210	231
546	253	206	227
547	248	204	227
548	249	212	232
549	255	224	240
550	254	222	237
551	250	219	233
552	0	0	0
553	0	0	0
554	0	0	0
555	0	0	0
556	0	0	0
557	0	0	0
558	0	0	0
559	0	0	0
560	0	0	0
561	0	0	0
562	0	0	0
563	0	0	0
564	238	219	241
565	244	217	245
566	237	200	239
567	236	193	239
568	242	190	241
569	252	188	246
570	247	171	239
571	255	179	246
572	254	172	241
573	255	171	238
574	248	159	227
575	252	166	229
576	250	166	226
577	247	166	223
578	254	178	229
579	255	190	234
580	253	184	225
581	254	190	226
582	255	198	228
583	250	194	224
584	251	199	229
585	253	208	234
586	255	221	240
587	255	218	236
588	251	213	231
589	0	0	0
590	0	0	0
591	0	0	0
592	0	0	0
593	0	0	0
594	0	0	0
595	0	0	0
596	0	0	0
597	0	0	0
598	0	0	0
599	0	0	0
600	0	0	0
601	243	229	245
602	238	213	239
603	232	197	234
604	235	194	238
605	243	192	241
606	249	183	242
607	246	167	237
608	249	167	240
609	247	161	237
610	245	155	232
611	239	144	222
612	245	151	226
613	243	151	222
614	250	165	228
615	255	178	233
616	254	176	229
617	248	172	225
618	252	181	229
619	254	188	229
620	251	190	227
621	251	194	228
622	252	202	230
623	255	214	233
624	254	209	229
625	249	206	228
626	0	0	0
627	0	0	0
628	251	225	236
629	0	0	0
630	0	0	0
631	0	0	0
632	0	0	0
633	0	0	0
634	0	0	0
635	0	0	0
636	0	0	0
637	0	0	0
638	244	233	245
639	236	216	239
640	236	207	239
641	243	207	245
642	246	197	244
643	251	188	244
644	248	172	240
645	252	172	244
646	253	169	244
647	253	165	241
648	250	159	236
649	255	167	240
650	248	155	230
651	255	171	237
652	255	176	236
653	255	174	232
654	249	167	228
655	252	176	233
656	253	183	232
657	251	185	228
658	254	195	231
659	253	202	230
660	255	211	231
661	252	206	227
662	250	207	229
663	252	215	235
664	252	218	235
665	253	223	236
666	253	226	235
667	0	0	0
668	0	0	0
669	0	0	0
670	0	0	0
671	0	0	0
672	0	0	0
673	0	0	0
674	0	0	0
675	0	0	0
676	238	223	241
677	237	215	240
678	239	206	240
679	242	196	240
680	245	186	240
681	242	171	236
682	249	174	242
683	251	172	243
684	254	171	243
685	253	166	238
686	254	163	238
687	248	153	232
688	255	166	239
689	255	172	237
690	253	165	229
691	246	159	226
692	249	169	231
693	251	176	231
694	254	186	233
695	255	195	233
696	253	200	230
697	255	210	232
698	254	207	228
699	251	207	229
700	250	210	231
701	250	214	232
702	251	217	232
703	250	219	232
704	0	0	0
705	0	0	0
706	0	0	0
707	0	0	0
708	0	0	0
709	0	0	0
710	0	0	0
711	0	0	0
712	0	0	0
713	0	0	0
714	240	226	243
715	243	217	244
716	242	203	242
717	243	192	241
718	245	184	242
719	254	188	249
720	243	166	237
721	245	166	239
722	251	168	240
723	255	168	242
724	245	149	232
725	255	163	241
726	252	158	232
727	246	152	225
728	250	161	230
729	254	171	235
730	253	177	235
731	255	186	236
732	252	188	231
733	251	194	229
734	255	205	232
735	252	202	227
736	253	208	231
737	252	211	232
738	254	217	236
739	254	220	236
740	251	218	232
741	0	0	0
742	0	0	0
743	0	0	0
744	0	0	0
745	0	0	0
746	0	0	0
747	0	0	0
748	0	0	0
749	0	0	0
750	0	0	0
751	247	239	248
752	240	220	242
753	238	206	242
754	240	200	245
755	241	191	242
756	238	176	237
757	229	156	229
758	239	163	238
759	245	166	240
760	240	152	232
761	230	134	222
762	238	140	227
763	237	138	223
764	246	151	230
765	250	160	232
766	253	169	235
767	253	174	235
768	251	178	233
769	249	181	231
770	250	190	232
771	255	201	234
772	254	204	232
773	255	210	234
774	255	214	235
775	255	220	238
776	254	219	236
777	250	217	232
778	0	0	0
779	0	0	0
780	0	0	0
781	0	0	0
782	0	0	0
783	0	0	0
784	0	0	0
785	0	0	0
786	0	0	0
787	0	0	0
788	0	0	0
789	238	224	240
790	239	218	245
791	238	210	246
792	239	203	244
793	238	189	241
794	239	180	242
795	250	189	253
796	242	172	243
797	234	156	234
798	237	154	236
799	250	163	244
800	251	160	241
801	255	174	249
802	248	156	232
803	252	165	235
804	254	173	237
805	253	177	236
806	251	181	235
807	252	190	235
808	255	205	238
809	255	208	235
810	253	204	231
811	252	209	233
812	254	216	237
813	251	214	234
814	249	216	233
815	0	0	0
816	0	0	0
817	0	0	0
818	0	0	0
819	0	0	0
820	0	0	0
821	0	0	0
822	0	0	0
823	0	0	0
824	0	0	0
825	0	0	0
826	247	241	249
827	244	233	248
828	239	222	246
829	240	215	247
830	245	209	249
831	245	199	247
832	242	187	244
833	235	172	239
834	240	173	244
835	245	172	247
836	255	176	252
837	255	173	248
838	251	162	239
839	238	145	224
840	245	158	232
841	249	166	235
842	250	173	237
843	249	178	235
844	255	193	239
845	255	207	238
846	252	200	228
847	248	198	227
848	249	204	231
849	251	211	236
850	251	215	237
851	0	0	0
852	0	0	0
853	0	0	0
854	0	0	0
855	0	0	0
856	0	0	0
857	0	0	0
858	0	0	0
859	0	0	0
860	0	0	0
861	0	0	0
862	0	0	0
863	0	0	0
864	246	240	248
865	239	229	245
866	237	217	244
867	242	211	246
868	243	204	244
869	238	191	240
870	236	181	242
871	245	185	251
872	244	174	247
873	252	178	251
874	251	170	245
875	245	160	237
876	244	158	235
877	253	173	243
878	253	176	242
879	255	183	244
880	251	182	240
881	255	199	245
882	255	198	234
883	245	190	222
884	253	206	233
885	253	212	237
886	252	215	239
887	253	218	240
888	0	0	0
889	0	0	0
890	0	0	0
891	0	0	0
892	0	0	0
893	0	0	0
894	0	0	0
895	0	0	0
896	0	0	0
897	0	0	0
898	0	0	0
899	0	0	0
900	0	0	0
901	0	0	0
902	240	234	245
903	237	222	245
904	243	218	248
905	243	211	246
906	238	199	243
907	238	190	245
908	243	186	249
909	241	175	245
910	244	173	245
911	243	166	241
912	246	168	242
913	246	168	241
914	255	178	246
915	253	180	242
916	250	181	239
917	247	181	237
918	248	185	237
919	245	186	230
920	250	199	234
921	255	213	239
922	250	212	234
923	249	214	234
924	0	0	0
925	0	0	0
926	0	0	0
927	0	0	0
928	0	0	0
929	0	0	0
930	0	0	0
931	0	0	0
932	0	0	0
933	0	0	0
934	0	0	0
935	0	0	0
936	0	0	0
937	0	0	0
938	0	0	0
939	0	0	0
940	244	234	250
941	246	229	252
942	242	216	245
943	237	205	243
944	241	201	248
945	248	197	253
946	244	184	247
947	244	180	247
948	243	176	244
949	247	179	247
950	248	177	245
951	255	189	252
952	249	177	238
953	243	176	234
954	247	187	240
955	248	191	240
956	248	194	238
957	255	209	242
958	255	215	239
959	0	0	0
960	0	0	0
961	0	0	0
962	0	0	0
963	0	0	0
964	0	0	0
965	0	0	0
966	0	0	0
967	0	0	0
968	0	0	0
969	0	0	0
970	0	0	0
971	0	0	0
972	0	0	0
973	0	0	0
974	0	0	0
975	0	0	0
976	0	0	0
977	252	250	255
978	246	234	248
979	241	222	245
980	238	214	245
981	242	209	250
982	246	202	251
983	242	189	245
984	245	189	248
985	245	185	246
986	247	186	248
987	249	184	246
988	253	183	246
989	243	172	235
990	243	181	238
991	246	191	242
992	250	197	243
993	250	201	241
994	253	210	241
995	253	216	238
996	254	223	239
997	0	0	0
998	0	0	0
999	0	0	0
1000	0	0	0
1001	0	0	0
1002	0	0	0
1003	0	0	0
1004	0	0	0
1005	0	0	0
1006	0	0	0
1007	0	0	0
1008	0	0	0
1009	0	0	0
1010	0	0	0
1011	0	0	0
1012	0	0	0
1013	0	0	0
1014	0	0	0
1015	239	231	241
1016	240	228	245
1017	239	220	246
1018	239	214	248
1019	240	205	248
1020	241	197	246
1021	249	200	252
1022	243	187	245
1023	246	188	247
1024	249	188	247
1025	252	186	246
1026	243	176	238
1027	242	186	240
1028	248	199	245
1029	255	207	247
1030	250	203	239
1031	248	209	238
1032	249	215	236
1033	254	224	239
1034	252	223	236
1035	0	0	0
1036	0	0	0
1037	0	0	0
1038	0	0	0
1039	0	0	0
1040	0	0	0
1041	0	0	0
1042	0	0	0
1043	0	0	0
1044	0	0	0
1045	0	0	0
1046	0	0	0
1047	0	0	0
1048	0	0	0
1049	0	0	0
1050	0	0	0
1051	0	0	0
1052	0	0	0
1053	245	237	248
1054	239	226	245
1055	238	220	248
1056	238	212	248
1057	237	204	247
1058	236	195	244
1059	232	183	238
1060	238	186	243
1061	242	186	244
1062	246	186	244
1063	238	177	235
1064	244	193	242
1065	251	206	246
1066	254	208	244
1067	249	204	237
1068	248	209	237
1069	248	215	237
1070	244	213	232
1071	0	0	0
1072	0	0	0
1073	0	0	0
1074	0	0	0
1075	0	0	0
1076	0	0	0
1077	0	0	0
1078	0	0	0
1079	0	0	0
1080	0	0	0
1081	0	0	0
1082	0	0	0
1083	0	0	0
1084	0	0	0
1085	0	0	0
1086	0	0	0
1087	0	0	0
1088	0	0	0
1089	0	0	0
1090	0	0	0
1091	0	0	0
1092	242	231	249
1093	238	222	248
1094	233	211	244
1095	228	200	240
1096	233	203	244
1097	243	208	251
1098	240	197	245
1099	245	198	247
1100	243	193	242
1101	255	212	253
1102	250	204	244
1103	248	203	239
1104	245	201	234
1105	249	209	237
1106	249	215	238
1107	0	0	0
1108	0	0	0
1109	0	0	0
1110	0	0	0
1111	0	0	0
1112	0	0	0
1113	0	0	0
1114	0	0	0
1115	0	0	0
1116	0	0	0
1117	0	0	0
1118	0	0	0
1119	0	0	0
1120	0	0	0
1121	0	0	0
1122	0	0	0
1123	0	0	0
1124	0	0	0
1125	0	0	0
1126	0	0	0
1127	0	0	0
1128	0	0	0
1129	249	245	252
1130	243	234	247
1131	236	223	244
1132	237	224	246
1133	242	226	249
1134	242	218	246
1135	239	208	243
1136	247	210	248
1137	246	206	245
1138	249	206	246
1139	245	200	240
1140	246	202	239
1141	244	200	234
1142	249	209	238
1143	250	214	240
1144	0	0	0
1145	0	0	0
1146	0	0	0
1147	0	0	0
1148	0	0	0
1149	0	0	0
1150	0	0	0
1151	0	0	0
1152	0	0	0
1153	0	0	0
1154	0	0	0
1155	0	0	0
1156	0	0	0
1157	0	0	0
1158	0	0	0
1159	0	0	0
1160	0	0	0
1161	0	0	0
1162	0	0	0
1163	0	0	0
1164	0	0	0
1165	0	0	0
1166	245	243	246
1167	240	232	241
1168	236	224	240
1169	239	226	243
1170	240	225	242
1171	236	215	238
1172	237	211	240
1173	243	214	246
1174	238	200	238
1175	242	202	241
1176	240	196	238
1177	246	200	241
1178	248	204	239
1179	251	211	241
1180	0	0	0
1181	0	0	0
1182	0	0	0
1183	0	0	0
1184	0	0	0
1185	0	0	0
1186	0	0	0
1187	0	0	0
1188	0	0	0
1189	0	0	0
1190	0	0	0
1191	0	0	0
1192	0	0	0
1193	0	0	0
1194	0	0	0
1195	0	0	0
1196	0	0	0
1197	0	0	0
1198	0	0	0
1199	0	0	0
1200	0	0	0
1201	0	0	0
1202	0	0	0
1203	0	0	0
1204	244	237	243
1205	240	230	244
1206	240	229	245
1207	239	227	242
1208	238	222	240
1209	239	218	244
1210	238	210	242
1211	233	197	236
1212	234	195	237
1213	233	190	236
1214	243	199	243
1215	0	0	0
1216	0	0	0
1217	0	0	0
1218	0	0	0
1219	0	0	0
1220	0	0	0
1221	0	0	0
1222	0	0	0
1223	0	0	0
1224	0	0	0
1225	0	0	0
1226	0	0	0
1227	0	0	0
1228	0	0	0
1229	0	0	0
1230	0	0	0
1231	0	0	0
1232	0	0	0
1233	0	0	0
1234	0	0	0
1235	0	0	0
1236	0	0	0
1237	0	0	0
1238	0	0	0
1239	0	0	0
1240	0	0	0
1241	0	0	0
1242	247	241	248
1243	244	238	248
1244	240	232	242
1245	239	227	242
1246	238	219	243
1247	240	212	243
1248	0	0	0
1249	0	0	0
1250	0	0	0
1251	0	0	0
1252	0	0	0
1253	0	0	0
1254	0	0	0
1255	0	0	0
1256	0	0	0
1257	0	0	0
1258	0	0	0
1259	0	0	0
1260	0	0	0
1261	0	0	0
1262	0	0	0
1263	0	0	0
1264	0	0	0
1265	0	0	0
1266	0	0	0
1267	0	0	0
1268	0	0	0
1269	0	0	0
1270	0	0	0
1271	0	0	0
1272	0	0	0
1273	0	0	0
1274	0	0	0
1275	0	0	0
1276	0	0	0
1277	0	0	0
1278	0	0	0
1279	0	0	0
1280	245	242	245
1281	242	237	242
1282	235	224	237
1283	234	216	240
1284	0	0	0
1285	0	0	0
1286	0	0	0
1287	0	0	0
1288	0	0	0
1289	0	0	0
1290	0	0	0
1291	0	0	0
1292	0	0	0
1293	0	0	0
1294	0	0	0
1295	0	0	0
