 	R	G	B
1	0	0	0
2	0	0	0
3	0	0	0
4	0	0	0
5	0	0	0
6	0	0	0
7	0	0	0
8	0	0	0
9	0	0	0
10	0	0	0
11	0	0	0
12	0	0	0
13	0	0	0
14	0	0	0
15	0	0	0
16	0	0	0
17	0	0	0
18	0	0	0
19	0	0	0
20	0	0	0
21	0	0	0
22	0	0	0
23	0	0	0
24	0	0	0
25	0	0	0
26	0	0	0
27	0	0	0
28	0	0	0
29	0	0	0
30	0	0	0
31	0	0	0
32	0	0	0
33	0	0	0
34	0	0	0
35	0	0	0
36	0	0	0
37	0	0	0
38	0	0	0
39	0	0	0
40	0	0	0
41	0	0	0
42	0	0	0
43	0	0	0
44	0	0	0
45	0	0	0
46	252	245	239
47	254	245	237
48	255	250	241
49	255	250	243
50	255	249	243
51	255	245	242
52	255	251	246
53	0	0	0
54	0	0	0
55	0	0	0
56	0	0	0
57	0	0	0
58	0	0	0
59	0	0	0
60	0	0	0
61	0	0	0
62	0	0	0
63	0	0	0
64	0	0	0
65	0	0	0
66	0	0	0
67	0	0	0
68	0	0	0
69	0	0	0
70	0	0	0
71	0	0	0
72	0	0	0
73	0	0	0
74	0	0	0
75	0	0	0
76	0	0	0
77	0	0	0
78	0	0	0
79	0	0	0
80	0	0	0
81	0	0	0
82	0	0	0
83	0	0	0
84	0	0	0
85	0	0	0
86	0	0	0
87	0	0	0
88	0	0	0
89	0	0	0
90	0	0	0
91	0	0	0
92	0	0	0
93	0	0	0
94	0	0	0
95	0	0	0
96	0	0	0
97	0	0	0
98	0	0	0
99	246	233	231
100	253	240	237
101	245	222	224
102	255	230	233
103	248	214	223
104	241	208	220
105	244	217	225
106	249	224	230
107	255	237	239
108	0	0	0
109	0	0	0
110	0	0	0
111	0	0	0
112	0	0	0
113	0	0	0
114	0	0	0
115	0	0	0
116	0	0	0
117	0	0	0
118	0	0	0
119	0	0	0
120	0	0	0
121	0	0	0
122	0	0	0
123	0	0	0
124	0	0	0
125	0	0	0
126	0	0	0
127	0	0	0
128	0	0	0
129	0	0	0
130	0	0	0
131	0	0	0
132	0	0	0
133	0	0	0
134	0	0	0
135	0	0	0
136	0	0	0
137	0	0	0
138	0	0	0
139	0	0	0
140	0	0	0
141	0	0	0
142	0	0	0
143	0	0	0
144	0	0	0
145	0	0	0
146	0	0	0
147	0	0	0
148	0	0	0
149	0	0	0
150	255	245	230
151	255	243	231
152	254	239	232
153	251	233	230
154	241	216	222
155	234	199	214
156	235	192	213
157	225	175	205
158	229	186	213
159	233	195	217
160	245	211	227
161	251	222	233
162	0	0	0
163	0	0	0
164	0	0	0
165	0	0	0
166	0	0	0
167	0	0	0
168	0	0	0
169	0	0	0
170	0	0	0
171	0	0	0
172	0	0	0
173	0	0	0
174	0	0	0
175	0	0	0
176	0	0	0
177	0	0	0
178	0	0	0
179	0	0	0
180	0	0	0
181	0	0	0
182	0	0	0
183	0	0	0
184	0	0	0
185	0	0	0
186	0	0	0
187	0	0	0
188	0	0	0
189	0	0	0
190	0	0	0
191	0	0	0
192	0	0	0
193	0	0	0
194	0	0	0
195	0	0	0
196	0	0	0
197	0	0	0
198	0	0	0
199	0	0	0
200	0	0	0
201	243	236	226
202	253	243	232
203	246	229	221
204	250	229	222
205	246	219	219
206	246	215	221
207	236	201	214
208	222	182	205
209	224	185	212
210	218	173	209
211	221	177	214
212	232	191	225
213	228	185	219
214	240	200	226
215	238	204	223
216	0	0	0
217	0	0	0
218	0	0	0
219	0	0	0
220	0	0	0
221	0	0	0
222	0	0	0
223	0	0	0
224	0	0	0
225	0	0	0
226	0	0	0
227	0	0	0
228	0	0	0
229	0	0	0
230	0	0	0
231	0	0	0
232	0	0	0
233	0	0	0
234	0	0	0
235	0	0	0
236	0	0	0
237	0	0	0
238	0	0	0
239	0	0	0
240	0	0	0
241	0	0	0
242	0	0	0
243	0	0	0
244	0	0	0
245	0	0	0
246	0	0	0
247	0	0	0
248	0	0	0
249	0	0	0
250	0	0	0
251	0	0	0
252	0	0	0
253	0	0	0
254	248	242	230
255	248	237	228
256	247	228	225
257	243	216	218
258	244	209	216
259	239	197	210
260	231	184	206
261	222	171	204
262	219	170	209
263	218	170	214
264	212	168	214
265	212	169	216
266	209	166	213
267	205	160	206
268	219	176	214
269	218	179	208
270	0	0	0
271	0	0	0
272	0	0	0
273	0	0	0
274	0	0	0
275	0	0	0
276	0	0	0
277	0	0	0
278	0	0	0
279	0	0	0
280	0	0	0
281	0	0	0
282	0	0	0
283	0	0	0
284	0	0	0
285	0	0	0
286	0	0	0
287	0	0	0
288	0	0	0
289	0	0	0
290	0	0	0
291	0	0	0
292	0	0	0
293	0	0	0
294	0	0	0
295	0	0	0
296	0	0	0
297	0	0	0
298	0	0	0
299	0	0	0
300	0	0	0
301	0	0	0
302	0	0	0
303	0	0	0
304	0	0	0
305	0	0	0
306	246	238	223
307	248	238	226
308	247	233	226
309	244	222	222
310	245	216	222
311	240	199	215
312	241	193	215
313	234	180	208
314	223	164	201
315	229	174	215
316	230	174	221
317	227	177	224
318	216	171	219
319	222	189	230
320	212	181	223
321	212	182	221
322	228	199	231
323	214	181	212
324	0	0	0
325	0	0	0
326	0	0	0
327	0	0	0
328	0	0	0
329	0	0	0
330	0	0	0
331	0	0	0
332	0	0	0
333	0	0	0
334	0	0	0
335	0	0	0
336	0	0	0
337	0	0	0
338	0	0	0
339	0	0	0
340	0	0	0
341	0	0	0
342	0	0	0
343	0	0	0
344	0	0	0
345	0	0	0
346	0	0	0
347	0	0	0
348	0	0	0
349	0	0	0
350	0	0	0
351	0	0	0
352	0	0	0
353	0	0	0
354	0	0	0
355	0	0	0
356	0	0	0
357	0	0	0
358	0	0	0
359	247	233	222
360	253	236	227
361	255	237	229
362	253	226	226
363	250	217	225
364	243	201	221
365	237	185	215
366	239	179	218
367	233	167	214
368	237	176	222
369	242	182	228
370	243	185	230
371	240	186	230
372	238	196	235
373	242	212	244
374	228	204	235
375	225	203	232
376	220	194	225
377	206	176	211
378	0	0	0
379	0	0	0
380	0	0	0
381	0	0	0
382	0	0	0
383	0	0	0
384	0	0	0
385	0	0	0
386	0	0	0
387	0	0	0
388	0	0	0
389	0	0	0
390	0	0	0
391	0	0	0
392	0	0	0
393	0	0	0
394	0	0	0
395	0	0	0
396	0	0	0
397	0	0	0
398	0	0	0
399	0	0	0
400	0	0	0
401	0	0	0
402	0	0	0
403	0	0	0
404	0	0	0
405	0	0	0
406	0	0	0
407	0	0	0
408	0	0	0
409	247	240	229
410	252	245	230
411	250	237	220
412	251	233	219
413	251	225	221
414	255	231	230
415	255	220	224
416	255	212	224
417	247	192	218
418	232	173	211
419	232	171	215
420	234	165	218
421	229	154	215
422	237	163	223
423	237	164	221
424	237	164	218
425	248	186	230
426	250	196	234
427	251	208	239
428	235	198	228
429	232	202	229
430	220	188	219
431	218	191	221
432	230	214	232
433	0	0	0
434	0	0	0
435	0	0	0
436	0	0	0
437	0	0	0
438	0	0	0
439	0	0	0
440	0	0	0
441	0	0	0
442	0	0	0
443	0	0	0
444	0	0	0
445	0	0	0
446	0	0	0
447	0	0	0
448	0	0	0
449	0	0	0
450	0	0	0
451	0	0	0
452	0	0	0
453	0	0	0
454	0	0	0
455	0	0	0
456	0	0	0
457	0	0	0
458	0	0	0
459	0	0	0
460	0	0	0
461	0	0	0
462	252	242	230
463	255	247	233
464	255	241	228
465	255	236	224
466	255	229	223
467	255	221	224
468	252	212	222
469	248	201	219
470	242	185	214
471	229	165	208
472	223	160	210
473	222	157	214
474	220	150	214
475	215	139	211
476	224	148	218
477	225	149	215
478	244	175	230
479	255	195	239
480	255	206	242
481	255	217	245
482	254	212	237
483	251	215	240
484	243	213	236
485	238	213	235
486	0	0	0
487	0	0	0
488	0	0	0
489	0	0	0
490	0	0	0
491	0	0	0
492	0	0	0
493	0	0	0
494	0	0	0
495	0	0	0
496	0	0	0
497	0	0	0
498	0	0	0
499	0	0	0
500	0	0	0
501	0	0	0
502	0	0	0
503	0	0	0
504	0	0	0
505	0	0	0
506	0	0	0
507	0	0	0
508	0	0	0
509	0	0	0
510	0	0	0
511	0	0	0
512	249	238	228
513	240	227	216
514	236	223	212
515	240	224	218
516	255	237	230
517	248	219	218
518	246	214	215
519	250	215	219
520	248	208	218
521	232	185	209
522	222	173	206
523	215	164	204
524	202	144	197
525	190	127	192
526	187	125	195
527	187	124	198
528	183	114	195
529	183	113	197
530	191	121	204
531	188	116	197
532	208	142	211
533	207	138	204
534	218	151	208
535	227	164	212
536	224	162	207
537	236	183	221
538	230	180	217
539	242	209	231
540	234	212	225
541	0	0	0
542	0	0	0
543	0	0	0
544	0	0	0
545	0	0	0
546	0	0	0
547	0	0	0
548	0	0	0
549	0	0	0
550	0	0	0
551	0	0	0
552	0	0	0
553	0	0	0
554	0	0	0
555	0	0	0
556	0	0	0
557	0	0	0
558	0	0	0
559	0	0	0
560	0	0	0
561	0	0	0
562	0	0	0
563	0	0	0
564	249	237	230
565	252	239	229
566	251	233	226
567	246	225	221
568	245	223	221
569	249	225	225
570	248	211	219
571	239	193	208
572	241	194	212
573	242	197	216
574	225	174	207
575	207	151	202
576	199	143	204
577	190	133	201
578	176	114	192
579	163	96	186
580	163	96	189
581	161	93	188
582	160	91	187
583	159	88	186
584	159	88	185
585	155	82	179
586	157	84	178
587	158	82	176
588	178	104	188
589	190	117	190
590	208	140	202
591	224	161	215
592	245	191	230
593	255	217	238
594	248	227	233
595	0	0	0
596	0	0	0
597	0	0	0
598	0	0	0
599	0	0	0
600	0	0	0
601	0	0	0
602	0	0	0
603	0	0	0
604	0	0	0
605	0	0	0
606	0	0	0
607	0	0	0
608	0	0	0
609	0	0	0
610	0	0	0
611	0	0	0
612	0	0	0
613	0	0	0
614	0	0	0
615	0	0	0
616	0	0	0
617	242	226	224
618	250	232	228
619	244	218	219
620	246	214	219
621	241	202	215
622	244	204	219
623	246	202	220
624	241	188	213
625	238	182	212
626	236	183	216
627	226	173	214
628	200	146	201
629	178	119	193
630	173	113	197
631	172	113	201
632	160	95	192
633	162	97	197
634	163	96	199
635	162	94	197
636	159	91	195
637	162	96	198
638	160	95	196
639	157	93	192
640	154	93	190
641	163	104	197
642	183	125	209
643	178	114	196
644	196	136	206
645	203	140	206
646	235	174	224
647	247	199	228
648	0	0	0
649	0	0	0
650	0	0	0
651	0	0	0
652	0	0	0
653	0	0	0
654	0	0	0
655	0	0	0
656	0	0	0
657	0	0	0
658	0	0	0
659	0	0	0
660	0	0	0
661	0	0	0
662	0	0	0
663	0	0	0
664	0	0	0
665	0	0	0
666	0	0	0
667	0	0	0
668	250	234	232
669	247	228	229
670	248	227	229
671	249	225	226
672	243	211	218
673	238	199	214
674	239	191	214
675	234	179	210
676	235	178	212
677	236	177	214
678	235	171	214
679	229	165	214
680	214	153	210
681	201	143	207
682	172	111	190
683	150	84	180
684	151	85	187
685	152	85	190
686	154	86	193
687	156	86	195
688	157	86	196
689	155	84	195
690	159	91	200
691	162	96	202
692	164	99	203
693	160	97	199
694	162	107	202
695	169	116	205
696	171	113	202
697	165	102	192
698	175	114	197
699	182	117	195
700	224	160	219
701	239	185	224
702	0	0	0
703	0	0	0
704	0	0	0
705	0	0	0
706	0	0	0
707	0	0	0
708	0	0	0
709	0	0	0
710	0	0	0
711	0	0	0
712	0	0	0
713	0	0	0
714	0	0	0
715	0	0	0
716	0	0	0
717	0	0	0
718	0	0	0
719	0	0	0
720	249	234	230
721	250	229	229
722	253	226	230
723	251	217	227
724	253	217	229
725	246	205	220
726	235	190	211
727	240	191	218
728	240	184	219
729	232	168	214
730	232	167	216
731	231	166	218
732	227	159	217
733	219	155	218
734	197	139	209
735	175	116	199
736	156	90	187
737	165	102	200
738	167	102	206
739	164	95	203
740	168	96	206
741	172	101	208
742	170	98	206
743	168	95	205
744	172	102	210
745	171	100	208
746	176	105	211
747	170	98	204
748	174	109	208
749	177	115	208
750	174	110	202
751	175	111	203
752	179	120	206
753	175	111	196
754	215	152	219
755	231	178	224
756	0	0	0
757	0	0	0
758	0	0	0
759	0	0	0
760	0	0	0
761	0	0	0
762	0	0	0
763	0	0	0
764	0	0	0
765	0	0	0
766	0	0	0
767	0	0	0
768	0	0	0
769	0	0	0
770	0	0	0
771	0	0	0
772	0	0	0
773	243	226	225
774	250	225	229
775	253	221	229
776	254	215	229
777	252	207	225
778	248	198	222
779	242	187	217
780	238	183	217
781	241	183	222
782	236	170	220
783	228	155	215
784	226	152	218
785	222	151	219
786	215	144	216
787	204	138	213
788	169	107	192
789	149	84	184
790	162	98	198
791	172	109	209
792	168	101	205
793	164	93	202
794	174	102	209
795	178	106	210
796	175	103	208
797	173	101	207
798	174	101	208
799	174	99	209
800	175	99	209
801	170	92	203
802	172	100	205
803	174	106	205
804	178	111	206
805	177	111	205
806	171	108	201
807	166	100	193
808	203	142	217
809	219	166	221
810	0	0	0
811	0	0	0
812	0	0	0
813	0	0	0
814	0	0	0
815	0	0	0
816	0	0	0
817	0	0	0
818	0	0	0
819	0	0	0
820	0	0	0
821	0	0	0
822	0	0	0
823	0	0	0
824	0	0	0
825	0	0	0
826	243	225	226
827	243	217	224
828	254	219	231
829	246	199	222
830	244	192	221
831	245	188	221
832	243	180	219
833	239	173	218
834	233	167	217
835	234	167	221
836	229	153	218
837	223	143	216
838	221	141	219
839	224	150	227
840	211	141	221
841	199	135	217
842	167	104	197
843	155	91	194
844	171	106	209
845	180	115	215
846	172	104	207
847	162	88	199
848	170	96	205
849	171	97	204
850	168	94	201
851	165	89	199
852	168	90	202
853	168	90	203
854	168	88	203
855	166	89	202
856	169	97	205
857	174	106	209
858	180	112	211
859	172	102	201
860	168	101	198
861	175	111	204
862	204	149	225
863	207	158	218
864	0	0	0
865	0	0	0
866	0	0	0
867	0	0	0
868	0	0	0
869	0	0	0
870	0	0	0
871	0	0	0
872	0	0	0
873	0	0	0
874	0	0	0
875	0	0	0
876	0	0	0
877	0	0	0
878	249	228	230
879	251	227	229
880	249	219	227
881	249	212	228
882	247	197	224
883	238	178	218
884	238	174	220
885	238	170	222
886	236	164	221
887	231	156	216
888	223	149	213
889	224	148	217
890	221	138	215
891	214	126	212
892	220	135	221
893	220	143	227
894	201	130	216
895	188	123	212
896	163	102	198
897	154	89	195
898	171	105	210
899	179	112	214
900	165	94	201
901	155	78	192
902	159	83	197
903	160	83	196
904	157	80	194
905	155	75	193
906	163	81	199
907	163	80	198
908	166	86	201
909	165	87	202
910	170	98	208
911	176	107	214
912	172	101	208
913	165	91	198
914	173	107	205
915	178	116	207
916	190	135	214
917	193	144	211
918	0	0	0
919	0	0	0
920	0	0	0
921	0	0	0
922	0	0	0
923	0	0	0
924	0	0	0
925	0	0	0
926	0	0	0
927	0	0	0
928	0	0	0
929	0	0	0
930	0	0	0
931	250	227	231
932	255	231	236
933	250	209	224
934	251	203	225
935	247	191	224
936	239	173	219
937	235	165	220
938	232	160	222
939	225	150	219
940	221	143	216
941	222	145	217
942	216	138	214
943	218	140	219
944	216	129	216
945	218	131	220
946	225	141	229
947	219	140	228
948	193	123	214
949	180	117	210
950	158	97	198
951	165	107	208
952	184	122	222
953	181	114	216
954	166	96	202
955	167	97	205
956	169	101	208
957	169	99	206
958	168	97	205
959	161	82	200
960	171	89	208
961	163	78	199
962	165	82	202
963	163	83	202
964	168	93	209
965	166	93	207
966	161	85	200
967	171	101	207
968	181	118	215
969	179	118	209
970	188	136	215
971	202	160	223
972	0	0	0
973	0	0	0
974	0	0	0
975	0	0	0
976	0	0	0
977	0	0	0
978	0	0	0
979	0	0	0
980	0	0	0
981	0	0	0
982	0	0	0
983	0	0	0
984	254	231	237
985	255	230	238
986	253	210	228
987	245	190	220
988	245	181	221
989	242	169	221
990	236	159	221
991	231	150	221
992	225	141	219
993	217	129	214
994	217	131	217
995	219	133	218
996	217	131	217
997	218	130	219
998	220	131	222
999	220	131	223
1000	219	132	224
1001	211	130	223
1002	187	116	211
1003	174	110	210
1004	169	113	211
1005	173	120	216
1006	177	117	214
1007	175	110	210
1008	177	112	213
1009	177	112	214
1010	174	110	211
1011	173	108	205
1012	165	93	198
1013	161	81	199
1014	165	80	205
1015	158	69	196
1016	161	74	200
1017	158	74	199
1018	153	73	196
1019	151	72	194
1020	167	93	206
1021	177	108	214
1022	179	117	215
1023	175	116	208
1024	193	146	222
1025	207	170	231
1026	0	0	0
1027	0	0	0
1028	0	0	0
1029	0	0	0
1030	0	0	0
1031	0	0	0
1032	0	0	0
1033	0	0	0
1034	0	0	0
1035	0	0	0
1036	0	0	0
1037	253	222	234
1038	255	221	236
1039	252	205	229
1040	241	183	219
1041	242	176	222
1042	242	167	224
1043	240	158	225
1044	235	149	224
1045	238	150	230
1046	236	142	229
1047	231	135	226
1048	229	135	226
1049	240	149	236
1050	241	148	236
1051	230	132	226
1052	225	129	224
1053	223	133	226
1054	216	130	224
1055	208	131	224
1056	188	117	215
1057	183	123	220
1058	179	125	220
1059	179	127	220
1060	175	120	214
1061	176	117	215
1062	184	123	221
1063	174	108	211
1064	169	104	206
1065	178	115	210
1066	176	103	206
1067	172	91	208
1068	172	88	212
1069	165	78	204
1070	170	85	210
1071	165	83	206
1072	155	79	200
1073	165	94	209
1074	188	118	225
1075	184	115	219
1076	178	118	216
1077	169	114	206
1078	191	146	222
1079	0	0	0
1080	0	0	0
1081	0	0	0
1082	0	0	0
1083	0	0	0
1084	0	0	0
1085	0	0	0
1086	0	0	0
1087	0	0	0
1088	0	0	0
1089	0	0	0
1090	254	222	234
1091	249	206	226
1092	247	193	224
1093	241	179	222
1094	238	169	223
1095	237	161	225
1096	238	153	226
1097	235	143	224
1098	236	143	228
1099	239	143	232
1100	240	140	231
1101	234	131	226
1102	239	142	231
1103	248	156	240
1104	238	139	230
1105	226	123	220
1106	225	127	223
1107	222	131	224
1108	214	128	223
1109	206	128	225
1110	192	125	221
1111	186	128	221
1112	178	126	218
1113	178	128	219
1114	176	124	218
1115	176	122	218
1116	172	112	213
1117	161	96	202
1118	166	105	208
1119	178	119	217
1120	178	107	213
1121	172	93	209
1122	167	87	208
1123	160	77	203
1124	164	83	207
1125	159	80	203
1126	163	94	209
1127	174	109	218
1128	185	116	222
1129	180	112	215
1130	170	113	211
1131	161	109	202
1132	194	155	227
1133	0	0	0
1134	0	0	0
1135	0	0	0
1136	0	0	0
1137	0	0	0
1138	0	0	0
1139	0	0	0
1140	0	0	0
1141	0	0	0
1142	0	0	0
1143	248	227	235
1144	251	216	234
1145	243	192	224
1146	242	181	225
1147	238	169	226
1148	235	159	227
1149	238	158	232
1150	239	150	231
1151	240	146	232
1152	242	145	234
1153	238	137	231
1154	235	131	228
1155	236	133	228
1156	243	144	235
1157	242	146	235
1158	224	125	220
1159	222	125	221
1160	226	132	228
1161	224	135	229
1162	217	132	227
1163	208	133	228
1164	194	128	223
1165	203	155	237
1166	193	151	232
1167	187	144	228
1168	186	142	229
1169	179	131	223
1170	167	117	214
1171	165	115	213
1172	173	126	221
1173	175	123	221
1174	174	111	217
1175	164	92	208
1176	157	84	204
1177	159	89	208
1178	163	94	212
1179	159	89	207
1180	170	107	218
1181	177	116	222
1182	184	121	224
1183	180	120	220
1184	170	121	215
1185	166	124	211
1186	0	0	0
1187	0	0	0
1188	0	0	0
1189	0	0	0
1190	0	0	0
1191	0	0	0
1192	0	0	0
1193	0	0	0
1194	0	0	0
1195	0	0	0
1196	246	228	235
1197	250	224	237
1198	245	202	230
1199	238	179	224
1200	237	169	227
1201	232	155	226
1202	231	151	228
1203	234	149	231
1204	239	146	233
1205	238	140	230
1206	234	133	226
1207	229	126	224
1208	234	131	229
1209	235	132	230
1210	236	134	230
1211	234	135	231
1212	225	129	226
1213	222	129	226
1214	222	132	229
1215	219	133	230
1216	211	132	227
1217	201	130	223
1218	201	147	231
1219	210	173	245
1220	186	153	228
1221	180	147	225
1222	180	142	225
1223	174	132	220
1224	174	133	223
1225	172	132	223
1226	170	127	221
1227	170	123	220
1228	165	107	213
1229	154	88	204
1230	156	93	209
1231	159	98	212
1232	162	99	213
1233	159	95	209
1234	168	108	217
1235	173	116	221
1236	177	122	223
1237	171	120	218
1238	168	129	217
1239	0	0	0
1240	0	0	0
1241	0	0	0
1242	0	0	0
1243	0	0	0
1244	0	0	0
1245	0	0	0
1246	0	0	0
1247	0	0	0
1248	0	0	0
1249	249	229	235
1250	254	225	239
1251	246	203	230
1252	236	179	222
1253	240	175	229
1254	237	164	231
1255	233	154	231
1256	233	150	233
1257	241	157	240
1258	243	152	239
1259	230	132	226
1260	225	124	221
1261	231	133	230
1262	234	137	234
1263	227	127	226
1264	229	129	228
1265	235	141	237
1266	227	135	232
1267	224	137	232
1268	221	137	233
1269	215	138	232
1270	202	133	226
1271	204	150	232
1272	207	168	240
1273	210	188	249
1274	182	166	229
1275	187	175	238
1276	192	173	242
1277	181	149	230
1278	189	156	238
1279	185	148	234
1280	180	141	230
1281	169	125	221
1282	159	107	212
1283	162	110	217
1284	168	117	224
1285	176	125	229
1286	185	129	232
1287	182	124	228
1288	185	134	233
1289	180	133	231
1290	174	134	227
1291	164	129	219
1292	0	0	0
1293	0	0	0
1294	0	0	0
1295	0	0	0
1296	0	0	0
1297	0	0	0
1298	0	0	0
1299	0	0	0
1300	0	0	0
1301	0	0	0
1302	248	230	236
1303	250	222	235
1304	245	202	229
1305	238	181	223
1306	238	175	227
1307	238	169	231
1308	236	160	231
1309	232	150	231
1310	237	154	237
1311	244	159	243
1312	233	140	231
1313	222	121	221
1314	227	130	229
1315	231	137	234
1316	224	129	227
1317	215	118	218
1318	225	130	227
1319	232	141	238
1320	226	140	236
1321	221	140	235
1322	216	141	233
1323	207	140	230
1324	207	155	236
1325	210	171	243
1326	214	187	248
1327	218	207	255
1328	196	195	244
1329	198	203	252
1330	182	177	238
1331	170	154	228
1332	178	155	235
1333	177	149	232
1334	170	136	225
1335	162	121	218
1336	168	128	225
1337	171	131	229
1338	179	140	236
1339	186	146	240
1340	189	145	239
1341	183	138	232
1342	177	138	229
1343	169	136	226
1344	161	135	221
1345	155	132	215
1346	0	0	0
1347	0	0	0
1348	0	0	0
1349	0	0	0
1350	0	0	0
1351	0	0	0
1352	0	0	0
1353	0	0	0
1354	0	0	0
1355	247	234	238
1356	249	225	237
1357	248	210	233
1358	243	190	228
1359	240	178	229
1360	237	169	231
1361	234	162	231
1362	232	152	230
1363	234	152	235
1364	238	155	240
1365	238	152	238
1366	228	133	227
1367	237	144	238
1368	241	152	245
1369	224	132	231
1370	215	122	223
1371	221	133	229
1372	231	145	238
1373	233	150	243
1374	226	148	240
1375	224	153	241
1376	214	151	236
1377	204	151	232
1378	205	165	236
1379	216	191	249
1380	226	208	255
1381	232	227	255
1382	214	217	251
1383	203	215	250
1384	165	178	227
1385	159	170	231
1386	170	174	242
1387	169	162	236
1388	173	155	236
1389	174	148	235
1390	183	157	244
1391	177	145	237
1392	183	152	242
1393	181	151	239
1394	174	143	231
1395	172	149	231
1396	162	146	225
1397	169	163	234
1398	168	166	232
1399	0	0	0
1400	0	0	0
1401	0	0	0
1402	0	0	0
1403	0	0	0
1404	0	0	0
1405	0	0	0
1406	0	0	0
1407	0	0	0
1408	243	230	235
1409	247	227	237
1410	245	210	231
1411	243	195	229
1412	242	183	229
1413	237	170	229
1414	231	160	229
1415	228	152	230
1416	233	154	235
1417	234	152	236
1418	232	148	235
1419	232	145	235
1420	241	154	242
1421	247	162	247
1422	229	141	233
1423	213	122	223
1424	221	136	234
1425	225	145	238
1426	225	148	238
1427	223	150	238
1428	218	153	237
1429	215	158	238
1430	207	159	235
1431	200	158	230
1432	211	185	242
1433	225	211	254
1434	239	229	255
1435	247	248	255
1436	230	237	251
1437	219	234	251
1438	187	210	238
1439	178	202	246
1440	171	188	246
1441	165	174	240
1442	170	170	242
1443	169	162	239
1444	167	156	237
1445	161	144	229
1446	165	147	231
1447	162	145	228
1448	165	153	231
1449	166	160	232
1450	176	180	241
1451	0	0	0
1452	0	0	0
1453	0	0	0
1454	0	0	0
1455	0	0	0
1456	0	0	0
1457	0	0	0
1458	0	0	0
1459	0	0	0
1460	0	0	0
1461	246	236	238
1462	252	233	241
1463	246	213	233
1464	240	194	227
1465	241	187	230
1466	236	173	229
1467	235	167	232
1468	228	157	232
1469	232	159	238
1470	237	161	242
1471	237	157	239
1472	235	152	238
1473	237	154	242
1474	242	160	247
1475	236	154	239
1476	216	132	224
1477	223	144	238
1478	234	159	250
1479	225	152	242
1480	214	149	235
1481	216	163	240
1482	210	164	237
1483	210	174	240
1484	0	0	0
1485	0	0	0
1486	0	0	0
1487	0	0	0
1488	0	0	0
1489	0	0	0
1490	0	0	0
1491	0	0	0
1492	0	0	0
1493	207	224	253
1494	182	200	244
1495	171	193	244
1496	161	181	239
1497	159	180	239
1498	153	172	234
1499	149	164	229
1500	155	169	233
1501	0	0	0
1502	0	0	0
1503	0	0	0
1504	0	0	0
1505	0	0	0
1506	0	0	0
1507	0	0	0
1508	0	0	0
1509	0	0	0
1510	0	0	0
1511	0	0	0
1512	0	0	0
1513	0	0	0
1514	0	0	0
1515	249	233	240
1516	246	215	234
1517	240	195	228
1518	238	186	229
1519	238	178	232
1520	236	171	235
1521	233	163	235
1522	234	164	239
1523	235	164	241
1524	236	162	241
1525	235	157	239
1526	237	158	242
1527	237	158	244
1528	231	151	239
1529	224	144	235
1530	224	151	239
1531	228	161	247
1532	225	159	245
1533	214	151	236
1534	212	162	238
1535	214	176	244
1536	0	0	0
1537	0	0	0
1538	0	0	0
1539	0	0	0
1540	0	0	0
1541	0	0	0
1542	0	0	0
1543	0	0	0
1544	0	0	0
1545	0	0	0
1546	0	0	0
1547	0	0	0
1548	0	0	0
1549	0	0	0
1550	0	0	0
1551	0	0	0
1552	0	0	0
1553	0	0	0
1554	0	0	0
1555	0	0	0
1556	0	0	0
1557	0	0	0
1558	0	0	0
1559	0	0	0
1560	0	0	0
1561	0	0	0
1562	0	0	0
1563	0	0	0
1564	0	0	0
1565	0	0	0
1566	0	0	0
1567	0	0	0
1568	0	0	0
1569	249	223	237
1570	246	205	232
1571	242	191	231
1572	238	180	231
1573	244	185	242
1574	242	177	243
1575	237	167	241
1576	240	169	245
1577	240	169	244
1578	234	163	240
1579	227	153	236
1580	228	153	238
1581	233	161	244
1582	226	153	239
1583	232	167	248
1584	231	172	252
1585	224	169	247
1586	214	162	239
1587	213	170	240
1588	0	0	0
1589	0	0	0
1590	0	0	0
1591	0	0	0
1592	0	0	0
1593	0	0	0
1594	0	0	0
1595	0	0	0
1596	0	0	0
1597	0	0	0
1598	0	0	0
1599	0	0	0
1600	0	0	0
1601	0	0	0
1602	0	0	0
1603	0	0	0
1604	0	0	0
1605	0	0	0
1606	0	0	0
1607	0	0	0
1608	0	0	0
1609	0	0	0
1610	0	0	0
1611	0	0	0
1612	0	0	0
1613	0	0	0
1614	0	0	0
1615	0	0	0
1616	0	0	0
1617	0	0	0
1618	0	0	0
1619	0	0	0
1620	0	0	0
1621	0	0	0
1622	0	0	0
1623	247	211	232
1624	248	200	233
1625	243	186	233
1626	244	187	240
1627	249	190	248
1628	246	181	246
1629	240	170	243
1630	242	172	246
1631	240	171	246
1632	227	158	238
1633	218	147	234
1634	225	157	242
1635	228	164	245
1636	230	173	248
1637	234	184	254
1638	225	178	247
1639	217	174	243
1640	0	0	0
1641	0	0	0
1642	0	0	0
1643	0	0	0
1644	0	0	0
1645	0	0	0
1646	0	0	0
1647	0	0	0
1648	0	0	0
1649	0	0	0
1650	0	0	0
1651	0	0	0
1652	0	0	0
1653	0	0	0
1654	0	0	0
1655	0	0	0
1656	0	0	0
1657	0	0	0
1658	0	0	0
1659	0	0	0
1660	0	0	0
1661	0	0	0
1662	0	0	0
1663	0	0	0
1664	0	0	0
1665	0	0	0
1666	0	0	0
1667	0	0	0
1668	0	0	0
1669	0	0	0
1670	0	0	0
1671	0	0	0
1672	0	0	0
1673	0	0	0
1674	0	0	0
1675	0	0	0
1676	0	0	0
1677	252	208	234
1678	249	195	234
1679	242	182	234
1680	241	181	239
1681	250	192	249
1682	249	183	248
1683	238	166	240
1684	236	165	241
1685	239	175	247
1686	224	160	237
1687	224	164	243
1688	231	173	251
1689	231	179	250
1690	228	184	249
1691	225	187	247
1692	0	0	0
1693	0	0	0
1694	0	0	0
1695	0	0	0
1696	0	0	0
1697	0	0	0
1698	0	0	0
1699	0	0	0
1700	0	0	0
1701	0	0	0
1702	0	0	0
1703	0	0	0
1704	0	0	0
1705	0	0	0
1706	0	0	0
1707	0	0	0
1708	0	0	0
1709	0	0	0
1710	0	0	0
1711	0	0	0
1712	0	0	0
1713	0	0	0
1714	0	0	0
1715	0	0	0
1716	0	0	0
1717	0	0	0
1718	0	0	0
1719	0	0	0
1720	0	0	0
1721	0	0	0
1722	0	0	0
1723	0	0	0
1724	0	0	0
1725	0	0	0
1726	0	0	0
1727	0	0	0
1728	0	0	0
1729	0	0	0
1730	252	212	235
1731	253	204	236
1732	251	194	237
1733	243	180	236
1734	247	187	245
1735	255	195	252
1736	246	178	243
1737	234	161	236
1738	238	171	244
1739	238	179	247
1740	229	176	243
1741	227	178	246
1742	231	186	250
1743	230	189	247
1744	226	192	245
1745	0	0	0
1746	0	0	0
1747	0	0	0
1748	0	0	0
1749	0	0	0
1750	0	0	0
1751	0	0	0
1752	0	0	0
1753	0	0	0
1754	0	0	0
1755	0	0	0
1756	0	0	0
1757	0	0	0
1758	0	0	0
1759	0	0	0
1760	0	0	0
1761	0	0	0
1762	0	0	0
1763	0	0	0
1764	0	0	0
1765	0	0	0
1766	0	0	0
1767	0	0	0
1768	0	0	0
1769	0	0	0
1770	0	0	0
1771	0	0	0
1772	0	0	0
1773	0	0	0
1774	0	0	0
1775	0	0	0
1776	0	0	0
1777	0	0	0
1778	0	0	0
1779	0	0	0
1780	0	0	0
1781	0	0	0
1782	0	0	0
1783	252	220	239
1784	253	210	238
1785	250	197	236
1786	246	186	236
1787	245	180	238
1788	252	188	248
1789	252	188	247
1790	238	167	234
1791	241	175	244
1792	243	184	251
1793	232	178	243
1794	223	174	238
1795	229	190	247
1796	0	0	0
1797	0	0	0
1798	0	0	0
1799	0	0	0
1800	0	0	0
1801	0	0	0
1802	0	0	0
1803	0	0	0
1804	0	0	0
1805	0	0	0
1806	0	0	0
1807	0	0	0
1808	0	0	0
1809	0	0	0
1810	0	0	0
1811	0	0	0
1812	0	0	0
1813	0	0	0
1814	0	0	0
1815	0	0	0
1816	0	0	0
1817	0	0	0
1818	0	0	0
1819	0	0	0
1820	0	0	0
1821	0	0	0
1822	0	0	0
1823	0	0	0
1824	0	0	0
1825	0	0	0
1826	0	0	0
1827	0	0	0
1828	0	0	0
1829	0	0	0
1830	0	0	0
1831	0	0	0
1832	0	0	0
1833	0	0	0
1834	0	0	0
1835	0	0	0
1836	0	0	0
1837	0	0	0
1838	245	200	234
1839	240	186	231
1840	240	180	234
1841	237	173	235
1842	241	175	239
1843	240	174	237
1844	241	179	241
1845	243	185	247
1846	234	181	244
1847	0	0	0
1848	0	0	0
1849	0	0	0
1850	0	0	0
1851	0	0	0
1852	0	0	0
1853	0	0	0
1854	0	0	0
1855	0	0	0
1856	0	0	0
1857	0	0	0
1858	0	0	0
1859	0	0	0
1860	0	0	0
1861	0	0	0
1862	0	0	0
1863	0	0	0
1864	0	0	0
1865	0	0	0
1866	0	0	0
1867	0	0	0
1868	0	0	0
1869	0	0	0
1870	0	0	0
1871	0	0	0
1872	0	0	0
1873	0	0	0
1874	0	0	0
1875	0	0	0
1876	0	0	0
1877	0	0	0
1878	0	0	0
1879	0	0	0
1880	0	0	0
1881	0	0	0
1882	0	0	0
1883	0	0	0
1884	0	0	0
1885	0	0	0
1886	0	0	0
1887	0	0	0
1888	0	0	0
1889	0	0	0
1890	0	0	0
1891	0	0	0
1892	0	0	0
1893	241	194	237
1894	240	188	238
1895	242	189	244
1896	245	190	247
1897	243	189	244
1898	0	0	0
1899	0	0	0
1900	0	0	0
1901	0	0	0
1902	0	0	0
1903	0	0	0
1904	0	0	0
1905	0	0	0
1906	0	0	0
1907	0	0	0
1908	0	0	0
1909	0	0	0
1910	0	0	0
1911	0	0	0
1912	0	0	0
1913	0	0	0
1914	0	0	0
1915	0	0	0
1916	0	0	0
1917	0	0	0
1918	0	0	0
1919	0	0	0
1920	0	0	0
1921	0	0	0
1922	0	0	0
1923	0	0	0
1924	0	0	0
1925	0	0	0
1926	0	0	0
1927	0	0	0
1928	0	0	0
1929	0	0	0
1930	0	0	0
1931	0	0	0
1932	0	0	0
1933	0	0	0
1934	0	0	0
1935	0	0	0
1936	0	0	0
1937	0	0	0
1938	0	0	0
1939	0	0	0
1940	0	0	0
1941	0	0	0
1942	0	0	0
1943	0	0	0
1944	0	0	0
