 	R	G	B
1	0	0	0
2	0	0	0
3	0	0	0
4	0	0	0
5	0	0	0
6	0	0	0
7	0	0	0
8	0	0	0
9	255	249	244
10	255	247	244
11	255	244	242
12	255	239	236
13	255	240	236
14	255	242	238
15	253	234	232
16	0	0	0
17	253	236	232
18	255	244	238
19	255	247	240
20	0	0	0
21	0	0	0
22	0	0	0
23	0	0	0
24	0	0	0
25	0	0	0
26	0	0	0
27	0	0	0
28	0	0	0
29	0	0	0
30	0	0	0
31	0	0	0
32	0	0	0
33	0	0	0
34	0	0	0
35	0	0	0
36	0	0	0
37	0	0	0
38	0	0	0
39	0	0	0
40	0	0	0
41	0	0	0
42	0	0	0
43	0	0	0
44	0	0	0
45	0	0	0
46	0	0	0
47	0	0	0
48	0	0	0
49	0	0	0
50	0	0	0
51	0	0	0
52	0	0	0
53	0	0	0
54	0	0	0
55	255	248	242
56	255	245	241
57	254	237	236
58	254	234	234
59	253	233	232
60	255	234	232
61	254	232	231
62	249	225	227
63	254	232	231
64	255	242	238
65	255	235	233
66	255	239	236
67	255	234	232
68	0	0	0
69	0	0	0
70	0	0	0
71	0	0	0
72	0	0	0
73	0	0	0
74	0	0	0
75	0	0	0
76	0	0	0
77	0	0	0
78	0	0	0
79	0	0	0
80	0	0	0
81	0	0	0
82	0	0	0
83	0	0	0
84	0	0	0
85	0	0	0
86	0	0	0
87	0	0	0
88	0	0	0
89	0	0	0
90	0	0	0
91	0	0	0
92	0	0	0
93	0	0	0
94	0	0	0
95	0	0	0
96	0	0	0
97	0	0	0
98	0	0	0
99	0	0	0
100	0	0	0
101	255	243	240
102	255	245	239
103	254	235	232
104	250	227	229
105	252	228	230
106	253	227	230
107	254	227	231
108	252	224	229
109	255	232	235
110	255	239	239
111	255	233	234
112	253	225	227
113	252	224	227
114	250	221	227
115	0	0	0
116	0	0	0
117	0	0	0
118	0	0	0
119	0	0	0
120	0	0	0
121	0	0	0
122	0	0	0
123	0	0	0
124	0	0	0
125	0	0	0
126	0	0	0
127	0	0	0
128	0	0	0
129	0	0	0
130	0	0	0
131	0	0	0
132	0	0	0
133	0	0	0
134	0	0	0
135	0	0	0
136	0	0	0
137	0	0	0
138	0	0	0
139	0	0	0
140	0	0	0
141	0	0	0
142	0	0	0
143	0	0	0
144	0	0	0
145	0	0	0
146	0	0	0
147	0	0	0
148	0	0	0
149	255	236	235
150	251	227	227
151	255	230	231
152	255	231	233
153	254	225	229
154	255	224	230
155	252	219	227
156	255	227	232
157	255	228	232
158	254	222	227
159	253	219	224
160	252	218	225
161	250	216	225
162	0	0	0
163	0	0	0
164	0	0	0
165	0	0	0
166	0	0	0
167	0	0	0
168	0	0	0
169	0	0	0
170	0	0	0
171	0	0	0
172	0	0	0
173	0	0	0
174	0	0	0
175	0	0	0
176	0	0	0
177	0	0	0
178	0	0	0
179	0	0	0
180	0	0	0
181	0	0	0
182	0	0	0
183	0	0	0
184	0	0	0
185	0	0	0
186	0	0	0
187	0	0	0
188	0	0	0
189	0	0	0
190	0	0	0
191	0	0	0
192	0	0	0
193	0	0	0
194	0	0	0
195	0	0	0
196	0	0	0
197	255	233	235
198	255	235	235
199	255	228	230
200	254	220	225
201	253	217	223
202	250	212	220
203	252	215	223
204	253	215	224
205	253	214	223
206	252	212	221
207	252	212	221
208	249	208	220
209	0	0	0
210	0	0	0
211	255	223	226
212	255	227	228
213	255	228	229
214	0	0	0
215	0	0	0
216	0	0	0
217	0	0	0
218	0	0	0
219	0	0	0
220	0	0	0
221	0	0	0
222	0	0	0
223	0	0	0
224	0	0	0
225	0	0	0
226	0	0	0
227	0	0	0
228	0	0	0
229	0	0	0
230	0	0	0
231	0	0	0
232	0	0	0
233	0	0	0
234	0	0	0
235	0	0	0
236	0	0	0
237	0	0	0
238	0	0	0
239	0	0	0
240	255	234	239
241	254	229	234
242	0	0	0
243	255	229	233
244	255	231	234
245	254	219	224
246	250	211	218
247	254	216	222
248	253	213	219
249	255	216	222
250	255	218	225
251	254	211	221
252	254	210	221
253	255	212	221
254	255	211	220
255	251	206	218
256	0	0	0
257	255	218	224
258	255	222	225
259	252	213	219
260	251	214	220
261	250	217	221
262	0	0	0
263	0	0	0
264	0	0	0
265	0	0	0
266	0	0	0
267	0	0	0
268	0	0	0
269	0	0	0
270	0	0	0
271	0	0	0
272	0	0	0
273	0	0	0
274	0	0	0
275	0	0	0
276	0	0	0
277	0	0	0
278	0	0	0
279	0	0	0
280	0	0	0
281	0	0	0
282	0	0	0
283	0	0	0
284	0	0	0
285	0	0	0
286	255	231	236
287	255	229	234
288	255	224	231
289	255	226	231
290	255	227	229
291	253	215	221
292	246	203	214
293	251	209	218
294	255	214	220
295	255	214	220
296	255	218	223
297	255	212	221
298	253	205	218
299	255	210	221
300	255	211	220
301	255	207	217
302	252	202	216
303	255	210	221
304	255	215	222
305	253	207	216
306	246	198	211
307	250	206	217
308	249	209	219
309	0	0	0
310	0	0	0
311	0	0	0
312	0	0	0
313	0	0	0
314	0	0	0
315	0	0	0
316	0	0	0
317	0	0	0
318	0	0	0
319	0	0	0
320	0	0	0
321	0	0	0
322	0	0	0
323	0	0	0
324	0	0	0
325	0	0	0
326	0	0	0
327	0	0	0
328	0	0	0
329	0	0	0
330	0	0	0
331	0	0	0
332	0	0	0
333	255	228	234
334	255	226	233
335	250	211	223
336	253	213	224
337	255	219	225
338	250	206	216
339	249	203	217
340	254	209	221
341	255	212	220
342	255	213	219
343	255	215	221
344	255	209	220
345	251	198	215
346	255	202	219
347	254	200	215
348	251	196	211
349	255	202	218
350	255	210	223
351	255	203	217
352	249	195	210
353	251	199	213
354	254	206	218
355	249	203	218
356	0	0	0
357	0	0	0
358	255	225	224
359	0	0	0
360	0	0	0
361	0	0	0
362	0	0	0
363	0	0	0
364	0	0	0
365	0	0	0
366	0	0	0
367	0	0	0
368	0	0	0
369	0	0	0
370	0	0	0
371	0	0	0
372	0	0	0
373	0	0	0
374	0	0	0
375	0	0	0
376	0	0	0
377	0	0	0
378	0	0	0
379	0	0	0
380	255	225	232
381	253	214	226
382	245	199	217
383	252	207	223
384	255	212	227
385	255	207	223
386	253	203	221
387	255	207	222
388	255	211	220
389	255	211	219
390	255	213	221
391	255	203	217
392	252	192	215
393	255	195	219
394	253	192	214
395	255	199	219
396	255	205	224
397	255	197	219
398	251	190	213
399	254	194	214
400	254	197	213
401	250	196	212
402	246	195	213
403	254	209	222
404	255	220	226
405	255	216	222
406	252	212	219
407	255	223	226
408	255	231	228
409	255	236	230
410	255	242	233
411	0	0	0
412	0	0	0
413	0	0	0
414	0	0	0
415	0	0	0
416	0	0	0
417	0	0	0
418	0	0	0
419	0	0	0
420	0	0	0
421	0	0	0
422	0	0	0
423	0	0	0
424	0	0	0
425	0	0	0
426	0	0	0
427	255	217	229
428	252	205	223
429	247	195	218
430	254	203	225
431	255	206	227
432	253	201	222
433	254	202	221
434	255	206	222
435	255	210	220
436	255	210	220
437	255	200	216
438	254	191	214
439	253	186	214
440	255	189	218
441	255	187	215
442	255	194	219
443	255	188	216
444	250	181	210
445	255	191	215
446	255	195	217
447	251	189	211
448	246	188	209
449	249	195	217
450	255	212	228
451	255	205	220
452	252	201	215
453	253	205	217
454	255	216	223
455	254	212	217
456	254	216	218
457	255	222	220
458	255	225	221
459	255	237	228
460	0	0	0
461	0	0	0
462	0	0	0
463	0	0	0
464	0	0	0
465	0	0	0
466	0	0	0
467	0	0	0
468	0	0	0
469	0	0	0
470	0	0	0
471	0	0	0
472	0	0	0
473	0	0	0
474	255	209	227
475	253	201	225
476	249	192	221
477	255	199	226
478	255	201	225
479	255	200	222
480	255	202	223
481	255	205	222
482	255	209	219
483	255	198	213
484	255	191	215
485	255	190	220
486	255	183	215
487	255	186	218
488	255	185	217
489	255	181	214
490	253	175	210
491	255	184	215
492	255	193	218
493	255	191	215
494	254	186	214
495	251	190	217
496	255	198	223
497	253	193	219
498	248	186	211
499	250	191	211
500	251	195	212
501	250	195	211
502	246	193	209
503	250	200	212
504	250	205	212
505	255	216	215
506	255	228	220
507	255	225	219
508	0	0	0
509	0	0	0
510	0	0	0
511	0	0	0
512	0	0	0
513	0	0	0
514	0	0	0
515	0	0	0
516	0	0	0
517	0	0	0
518	0	0	0
519	0	0	0
520	0	0	0
521	255	205	229
522	255	198	226
523	249	187	222
524	255	193	226
525	254	191	221
526	253	191	219
527	255	196	222
528	255	199	222
529	255	201	218
530	255	192	214
531	252	176	212
532	255	175	217
533	251	166	211
534	254	169	212
535	254	167	211
536	251	163	209
537	248	160	207
538	254	169	212
539	255	177	213
540	253	173	210
541	246	168	209
542	244	172	212
543	254	190	223
544	252	184	217
545	255	189	217
546	255	194	219
547	254	190	213
548	253	190	213
549	250	189	214
550	254	197	218
551	251	197	212
552	255	207	215
553	254	209	214
554	251	206	212
555	250	208	216
556	0	0	0
557	0	0	0
558	0	0	0
559	0	0	0
560	0	0	0
561	0	0	0
562	0	0	0
563	0	0	0
564	0	0	0
565	0	0	0
566	0	0	0
567	255	203	233
568	255	203	233
569	255	193	227
570	250	181	222
571	253	185	225
572	253	184	221
573	254	187	222
574	255	192	226
575	255	191	224
576	255	195	224
577	255	177	214
578	247	160	208
579	249	158	212
580	247	151	210
581	249	152	212
582	248	149	210
583	247	148	209
584	244	145	209
585	250	154	214
586	252	161	214
587	245	155	209
588	238	149	208
589	244	165	217
590	254	182	222
591	255	184	221
592	255	189	223
593	255	187	220
594	253	183	216
595	251	181	216
596	249	180	218
597	248	182	217
598	244	181	210
599	244	183	208
600	245	187	212
601	245	189	213
602	243	189	212
603	0	0	0
604	0	0	0
605	0	0	0
606	0	0	0
607	0	0	0
608	0	0	0
609	0	0	0
610	0	0	0
611	0	0	0
612	0	0	0
613	253	196	231
614	255	199	236
615	252	185	226
616	248	175	221
617	248	174	222
618	252	177	225
619	252	177	223
620	255	182	224
621	255	191	231
622	255	191	230
623	255	185	226
624	254	168	216
625	246	150	210
626	249	149	214
627	253	151	218
628	255	152	220
629	251	146	216
630	250	144	215
631	254	151	221
632	255	160	226
633	253	156	219
634	242	148	212
635	245	156	220
636	255	173	230
637	255	182	228
638	255	184	226
639	254	174	219
640	252	172	217
641	252	175	218
642	249	173	217
643	255	184	227
644	255	186	226
645	255	189	222
646	255	193	222
647	255	194	226
648	255	196	228
649	250	192	222
650	255	203	227
651	0	0	0
652	0	0	0
653	0	0	0
654	0	0	0
655	0	0	0
656	0	0	0
657	0	0	0
658	0	0	0
659	253	197	230
660	251	189	229
661	248	178	225
662	241	165	219
663	244	165	222
664	244	164	223
665	248	168	225
666	248	169	222
667	255	178	227
668	255	188	233
669	255	180	228
670	255	174	225
671	251	156	215
672	244	139	210
673	252	146	219
674	255	146	219
675	255	144	219
676	251	139	216
677	255	147	222
678	255	153	226
679	255	151	223
680	250	147	217
681	249	152	220
682	251	160	227
683	255	168	230
684	255	177	228
685	248	163	216
686	240	153	211
687	243	158	214
688	243	161	214
689	247	171	219
690	253	182	226
691	255	188	229
692	255	192	228
693	255	192	227
694	255	194	230
695	255	193	230
696	251	189	226
697	0	0	0
698	0	0	0
699	0	0	0
700	0	0	0
701	0	0	0
702	0	0	0
703	0	0	0
704	0	0	0
705	0	0	0
706	251	190	232
707	253	187	234
708	250	176	231
709	246	168	228
710	248	169	231
711	254	175	237
712	255	180	239
713	255	175	233
714	255	184	238
715	255	174	231
716	255	166	226
717	250	152	217
718	241	133	208
719	252	144	221
720	255	149	228
721	246	129	213
722	246	127	212
723	248	129	216
724	253	137	221
725	253	139	220
726	249	137	216
727	250	143	218
728	252	150	222
729	255	159	229
730	255	167	231
731	255	175	231
732	245	160	218
733	242	159	218
734	243	163	222
735	246	170	224
736	250	179	229
737	251	181	229
738	255	189	233
739	252	179	224
740	251	179	222
741	255	187	229
742	254	186	229
743	252	186	229
744	254	191	233
745	255	197	236
746	0	0	0
747	0	0	0
748	0	0	0
749	0	0	0
750	0	0	0
751	0	0	0
752	0	0	0
753	0	0	0
754	249	180	238
755	248	174	238
756	243	165	233
757	248	173	238
758	253	178	241
759	252	175	238
760	251	171	235
761	248	161	229
762	245	152	224
763	239	137	215
764	232	123	206
765	240	130	213
766	251	140	225
767	242	123	216
768	230	104	203
769	239	113	210
770	240	114	211
771	242	119	213
772	242	121	213
773	246	129	216
774	248	136	216
775	254	147	223
776	255	157	229
777	255	164	231
778	255	173	233
779	247	164	223
780	241	161	221
781	244	169	226
782	247	176	230
783	247	177	230
784	250	179	233
785	249	173	229
786	244	164	220
787	247	171	222
788	251	179	227
789	250	179	227
790	248	179	228
791	253	186	234
792	255	192	235
793	253	192	233
794	0	0	0
795	249	191	231
796	246	189	229
797	247	193	230
798	247	197	229
799	0	0	0
800	0	0	0
801	254	189	249
802	252	183	248
803	241	168	239
804	243	175	242
805	247	180	244
806	247	177	242
807	245	169	239
808	245	161	234
809	253	164	238
810	249	151	231
811	245	140	224
812	252	147	230
813	255	156	239
814	253	139	230
815	245	123	221
816	253	132	228
817	247	124	223
818	250	129	225
819	254	136	228
820	255	144	231
821	251	137	222
822	255	149	228
823	251	146	224
824	254	154	228
825	255	166	231
826	240	155	219
827	241	164	225
828	244	172	230
829	245	175	231
830	250	178	234
831	253	179	237
832	249	171	232
833	252	176	231
834	255	183	234
835	255	186	234
836	255	185	233
837	253	183	235
838	255	190	240
839	252	186	235
840	250	187	233
841	255	196	238
842	251	193	235
843	254	200	240
844	255	205	242
845	253	205	237
846	251	206	237
847	247	190	246
848	247	187	248
849	241	177	244
850	231	164	236
851	236	172	243
852	240	178	246
853	238	170	242
854	239	164	241
855	247	167	244
856	254	169	244
857	255	161	240
858	252	152	234
859	255	158	240
860	255	166	248
861	255	152	239
862	253	136	229
863	253	135	230
864	249	128	228
865	255	138	235
866	255	144	236
867	253	138	229
868	246	132	222
869	246	133	222
870	242	131	220
871	251	147	227
872	251	157	227
873	243	160	224
874	244	169	231
875	241	170	231
876	243	173	233
877	249	175	236
878	252	175	237
879	255	179	238
880	255	183	237
881	255	185	236
882	255	188	235
883	254	184	232
884	252	182	235
885	250	181	236
886	245	178	232
887	250	187	237
888	254	195	240
889	255	201	243
890	255	209	248
891	255	210	247
892	255	209	244
893	0	0	0
894	253	211	255
895	248	201	255
896	239	190	250
897	234	181	246
898	245	194	255
899	244	187	254
900	243	180	251
901	247	178	252
902	253	179	254
903	249	165	243
904	250	157	239
905	254	157	240
906	255	164	246
907	255	151	239
908	249	136	229
909	250	134	228
910	251	133	230
911	249	130	230
912	255	141	238
913	255	141	235
914	248	136	229
915	253	144	233
916	255	147	235
917	250	141	230
918	255	157	238
919	254	160	232
920	247	164	230
921	241	164	231
922	235	162	230
923	246	178	240
924	254	180	243
925	253	175	239
926	255	179	239
927	255	183	239
928	255	185	237
929	254	184	234
930	251	181	232
931	254	188	240
932	252	186	240
933	252	188	241
934	255	198	246
935	255	200	244
936	255	206	247
937	255	205	246
938	254	206	246
939	253	208	244
940	0	0	0
941	0	0	0
942	244	210	254
943	235	199	250
944	230	191	247
945	233	190	250
946	233	184	248
947	237	182	249
948	241	180	249
949	241	170	245
950	240	158	239
951	252	162	245
952	255	162	245
953	251	149	238
954	245	137	230
955	246	135	231
956	247	134	231
957	248	133	231
958	246	130	229
959	250	135	233
960	250	137	234
961	255	146	239
962	255	154	241
963	255	150	237
964	249	145	233
965	253	153	235
966	250	156	230
967	243	156	228
968	237	157	232
969	237	166	237
970	246	180	245
971	247	175	240
972	246	170	235
973	253	178	240
974	255	183	240
975	253	181	236
976	251	181	236
977	252	185	238
978	254	190	241
979	254	192	242
980	254	195	245
981	255	200	248
982	255	203	247
983	254	202	245
984	251	200	243
985	250	203	243
986	0	0	0
987	0	0	0
988	0	0	0
989	0	0	0
990	0	0	0
991	231	206	251
992	234	205	254
993	227	191	248
994	227	188	248
995	230	182	247
996	237	177	247
997	242	166	246
998	255	173	255
999	255	163	249
1000	250	149	240
1001	251	148	241
1002	252	146	241
1003	251	144	240
1004	250	142	240
1005	248	138	236
1006	254	144	239
1007	255	149	242
1008	255	159	249
1009	248	140	233
1010	241	134	227
1011	253	155	240
1012	255	163	243
1013	251	162	236
1014	250	165	238
1015	245	165	240
1016	241	173	244
1017	242	181	246
1018	236	172	237
1019	242	175	240
1020	255	188	248
1021	254	182	240
1022	249	179	236
1023	251	185	240
1024	251	189	242
1025	255	197	245
1026	255	200	245
1027	255	200	247
1028	255	205	250
1029	255	205	249
1030	255	205	248
1031	252	203	246
1032	0	0	0
1033	0	0	0
1034	0	0	0
1035	0	0	0
1036	0	0	0
1037	0	0	0
1038	0	0	0
1039	229	210	251
1040	221	196	245
1041	217	188	243
1042	221	183	244
1043	227	175	245
1044	232	166	244
1045	241	163	247
1046	242	153	243
1047	248	154	246
1048	251	154	246
1049	253	154	248
1050	253	151	247
1051	251	149	246
1052	249	145	243
1053	255	152	246
1054	255	155	245
1055	246	140	233
1056	230	121	222
1057	241	142	235
1058	252	163	245
1059	250	162	242
1060	248	162	239
1061	247	165	240
1062	241	164	238
1063	237	170	239
1064	238	179	244
1065	236	178	242
1066	242	183	246
1067	252	184	248
1068	249	178	239
1069	248	182	239
1070	250	188	243
1071	254	196	247
1072	255	205	251
1073	255	204	248
1074	255	204	248
1075	254	204	248
1076	252	204	247
1077	250	203	246
1078	0	0	0
1079	0	0	0
1080	0	0	0
1081	0	0	0
1082	0	0	0
1083	0	0	0
1084	0	0	0
1085	0	0	0
1086	0	0	0
1087	0	0	0
1088	0	0	0
1089	232	206	255
1090	230	194	253
1091	228	178	247
1092	235	175	250
1093	239	167	249
1094	249	170	254
1095	248	160	249
1096	254	162	252
1097	253	157	251
1098	251	155	250
1099	251	154	249
1100	255	162	252
1101	254	155	243
1102	238	137	229
1103	238	143	236
1104	248	165	250
1105	249	170	249
1106	251	171	247
1107	248	169	245
1108	243	170	242
1109	239	172	240
1110	241	181	244
1111	242	186	247
1112	242	187	247
1113	248	191	251
1114	254	191	251
1115	248	182	241
1116	248	186	242
1117	253	197	248
1118	255	206	253
1119	255	206	251
1120	254	204	248
1121	254	208	250
1122	252	207	249
1123	248	206	247
1124	0	0	0
1125	0	0	0
1126	0	0	0
1127	0	0	0
1128	0	0	0
1129	0	0	0
1130	0	0	0
1131	0	0	0
1132	0	0	0
1133	0	0	0
1134	0	0	0
1135	0	0	0
1136	0	0	0
1137	228	204	252
1138	222	187	245
1139	230	183	249
1140	234	176	248
1141	241	172	250
1142	242	162	246
1143	247	162	249
1144	247	158	246
1145	246	158	247
1146	246	157	247
1147	248	156	245
1148	242	149	235
1149	245	156	239
1150	246	163	247
1151	247	170	251
1152	248	175	251
1153	247	175	249
1154	243	172	244
1155	240	175	243
1156	238	179	243
1157	243	187	247
1158	246	193	250
1159	245	193	249
1160	248	196	250
1161	248	190	245
1162	243	182	239
1163	251	195	247
1164	255	205	252
1165	252	203	248
1166	250	204	247
1167	251	206	248
1168	251	210	251
1169	246	208	249
1170	0	0	0
1171	0	0	0
1172	0	0	0
1173	0	0	0
1174	0	0	0
1175	0	0	0
1176	0	0	0
1177	0	0	0
1178	0	0	0
1179	0	0	0
1180	0	0	0
1181	0	0	0
1182	0	0	0
1183	0	0	0
1184	0	0	0
1185	0	0	0
1186	0	0	0
1187	237	190	252
1188	247	187	255
1189	248	180	253
1190	251	178	254
1191	249	174	252
1192	250	174	253
1193	246	168	250
1194	245	164	247
1195	245	166	244
1196	253	176	250
1197	252	176	252
1198	255	184	255
1199	249	180	252
1200	241	176	246
1201	242	183	248
1202	243	188	249
1203	239	184	245
1204	247	194	251
1205	242	189	247
1206	239	187	244
1207	240	192	244
1208	235	184	238
1209	242	192	244
1210	255	208	255
1211	251	203	250
1212	0	0	0
1213	0	0	0
1214	250	215	251
1215	0	0	0
1216	0	0	0
1217	0	0	0
1218	0	0	0
1219	0	0	0
1220	0	0	0
1221	0	0	0
1222	0	0	0
1223	0	0	0
1224	0	0	0
1225	0	0	0
1226	0	0	0
1227	0	0	0
1228	0	0	0
1229	0	0	0
1230	0	0	0
1231	0	0	0
1232	0	0	0
1233	237	213	255
1234	239	202	253
1235	247	199	255
1236	248	191	253
1237	249	190	255
1238	248	185	253
1239	244	180	251
1240	240	173	247
1241	245	178	251
1242	248	181	252
1243	252	184	254
1244	251	184	252
1245	251	184	250
1246	245	180	246
1247	246	187	249
1248	248	196	253
1249	245	193	250
1250	242	189	247
1251	244	189	248
1252	238	184	244
1253	234	185	244
1254	234	189	244
1255	237	194	246
1256	244	202	251
1257	249	205	252
1258	245	201	248
1259	0	0	0
1260	0	0	0
1261	0	0	0
1262	0	0	0
1263	0	0	0
1264	0	0	0
1265	0	0	0
1266	0	0	0
1267	0	0	0
1268	0	0	0
1269	0	0	0
1270	0	0	0
1271	0	0	0
1272	0	0	0
1273	0	0	0
1274	0	0	0
1275	0	0	0
1276	0	0	0
1277	0	0	0
1278	0	0	0
1279	0	0	0
1280	0	0	0
1281	246	220	255
1282	248	214	255
1283	245	203	252
1284	249	202	255
1285	245	195	253
1286	239	188	249
1287	240	188	251
1288	248	196	255
1289	249	193	255
1290	252	196	255
1291	247	189	250
1292	246	189	247
1293	248	193	249
1294	255	205	255
1295	252	198	253
1296	250	195	251
1297	248	193	250
1298	246	191	249
1299	0	0	0
1300	0	0	0
1301	0	0	0
1302	240	205	252
1303	245	210	254
1304	247	211	254
1305	243	206	249
1306	0	0	0
1307	0	0	0
1308	0	0	0
1309	0	0	0
1310	0	0	0
1311	0	0	0
1312	0	0	0
1313	0	0	0
1314	0	0	0
1315	0	0	0
1316	0	0	0
1317	0	0	0
1318	0	0	0
1319	0	0	0
1320	0	0	0
1321	0	0	0
1322	0	0	0
1323	0	0	0
1324	0	0	0
1325	0	0	0
1326	0	0	0
1327	0	0	0
1328	0	0	0
1329	249	227	255
1330	245	215	252
1331	247	212	254
1332	243	204	252
1333	241	204	253
1334	243	205	255
1335	250	207	255
1336	250	204	255
1337	249	201	254
1338	246	196	249
1339	252	203	252
1340	255	207	254
1341	253	202	251
1342	249	196	247
1343	248	195	248
1344	247	193	248
1345	0	0	0
1346	0	0	0
1347	0	0	0
1348	0	0	0
1349	0	0	0
1350	246	217	255
1351	243	213	251
1352	0	0	0
1353	0	0	0
1354	0	0	0
1355	0	0	0
1356	0	0	0
1357	0	0	0
1358	0	0	0
1359	0	0	0
1360	0	0	0
1361	0	0	0
1362	0	0	0
1363	0	0	0
1364	0	0	0
1365	0	0	0
1366	0	0	0
1367	0	0	0
1368	0	0	0
1369	0	0	0
1370	0	0	0
1371	0	0	0
1372	0	0	0
1373	0	0	0
1374	0	0	0
1375	0	0	0
1376	0	0	0
1377	0	0	0
1378	0	0	0
1379	0	0	0
1380	0	0	0
1381	247	219	255
1382	255	221	255
1383	249	208	254
1384	246	204	250
1385	251	208	252
1386	255	217	255
1387	251	203	248
1388	0	0	0
1389	249	203	248
1390	249	202	249
1391	0	0	0
1392	0	0	0
1393	0	0	0
1394	0	0	0
1395	0	0	0
1396	0	0	0
1397	0	0	0
1398	0	0	0
1399	0	0	0
1400	0	0	0
1401	0	0	0
1402	0	0	0
1403	0	0	0
1404	0	0	0
1405	0	0	0
1406	0	0	0
1407	0	0	0
1408	0	0	0
1409	0	0	0
1410	0	0	0
1411	0	0	0
1412	0	0	0
1413	0	0	0
1414	0	0	0
1415	0	0	0
1416	0	0	0
1417	0	0	0
1418	0	0	0
1419	0	0	0
1420	0	0	0
1421	0	0	0
1422	0	0	0
1423	0	0	0
1424	0	0	0
1425	0	0	0
1426	0	0	0
1427	0	0	0
1428	0	0	0
1429	253	224	255
1430	0	0	0
1431	252	217	254
1432	255	221	255
1433	255	213	251
1434	247	199	243
1435	0	0	0
1436	0	0	0
1437	0	0	0
1438	0	0	0
1439	0	0	0
1440	0	0	0
1441	0	0	0
1442	0	0	0
1443	0	0	0
1444	0	0	0
1445	0	0	0
1446	0	0	0
1447	0	0	0
1448	0	0	0
1449	0	0	0
1450	0	0	0
1451	0	0	0
1452	0	0	0
1453	0	0	0
1454	0	0	0
1455	0	0	0
1456	0	0	0
1457	0	0	0
1458	0	0	0
1459	0	0	0
1460	0	0	0
1461	0	0	0
1462	0	0	0
1463	0	0	0
1464	0	0	0
1465	0	0	0
1466	0	0	0
1467	0	0	0
1468	0	0	0
1469	0	0	0
1470	0	0	0
1471	0	0	0
1472	0	0	0
1473	0	0	0
1474	0	0	0
1475	0	0	0
1476	0	0	0
1477	0	0	0
1478	0	0	0
1479	255	221	253
1480	253	211	247
1481	0	0	0
1482	0	0	0
1483	0	0	0
1484	0	0	0
1485	0	0	0
1486	0	0	0
1487	0	0	0
1488	0	0	0
1489	0	0	0
1490	0	0	0
1491	0	0	0
1492	0	0	0
1493	0	0	0
1494	0	0	0
1495	0	0	0
1496	0	0	0
1497	0	0	0
1498	0	0	0
1499	0	0	0
1500	0	0	0
1501	0	0	0
1502	0	0	0
1503	0	0	0
1504	0	0	0
