 	R	G	B
1	0	0	0
2	0	0	0
3	0	0	0
4	0	0	0
5	0	0	0
6	0	0	0
7	0	0	0
8	0	0	0
9	0	0	0
10	0	0	0
11	0	0	0
12	0	0	0
13	0	0	0
14	0	0	0
15	0	0	0
16	0	0	0
17	0	0	0
18	251	226	228
19	0	0	0
20	0	0	0
21	0	0	0
22	0	0	0
23	0	0	0
24	0	0	0
25	0	0	0
26	0	0	0
27	0	0	0
28	0	0	0
29	0	0	0
30	0	0	0
31	0	0	0
32	0	0	0
33	0	0	0
34	0	0	0
35	0	0	0
36	0	0	0
37	0	0	0
38	0	0	0
39	0	0	0
40	0	0	0
41	0	0	0
42	0	0	0
43	0	0	0
44	0	0	0
45	0	0	0
46	0	0	0
47	0	0	0
48	0	0	0
49	0	0	0
50	0	0	0
51	0	0	0
52	0	0	0
53	0	0	0
54	0	0	0
55	0	0	0
56	0	0	0
57	0	0	0
58	0	0	0
59	0	0	0
60	0	0	0
61	0	0	0
62	0	0	0
63	0	0	0
64	0	0	0
65	0	0	0
66	0	0	0
67	0	0	0
68	0	0	0
69	0	0	0
70	0	0	0
71	0	0	0
72	0	0	0
73	0	0	0
74	0	0	0
75	0	0	0
76	0	0	0
77	0	0	0
78	0	0	0
79	0	0	0
80	252	224	226
81	246	215	220
82	252	223	226
83	0	0	0
84	0	0	0
85	0	0	0
86	0	0	0
87	0	0	0
88	0	0	0
89	0	0	0
90	0	0	0
91	0	0	0
92	0	0	0
93	0	0	0
94	0	0	0
95	0	0	0
96	0	0	0
97	0	0	0
98	0	0	0
99	0	0	0
100	0	0	0
101	0	0	0
102	0	0	0
103	0	0	0
104	0	0	0
105	0	0	0
106	0	0	0
107	0	0	0
108	0	0	0
109	0	0	0
110	0	0	0
111	0	0	0
112	0	0	0
113	0	0	0
114	0	0	0
115	0	0	0
116	0	0	0
117	0	0	0
118	0	0	0
119	0	0	0
120	0	0	0
121	0	0	0
122	0	0	0
123	0	0	0
124	0	0	0
125	0	0	0
126	0	0	0
127	0	0	0
128	0	0	0
129	0	0	0
130	0	0	0
131	0	0	0
132	0	0	0
133	0	0	0
134	0	0	0
135	0	0	0
136	0	0	0
137	0	0	0
138	0	0	0
139	0	0	0
140	0	0	0
141	0	0	0
142	0	0	0
143	253	221	226
144	251	217	223
145	255	226	229
146	252	220	224
147	0	0	0
148	0	0	0
149	0	0	0
150	247	218	223
151	0	0	0
152	0	0	0
153	0	0	0
154	0	0	0
155	0	0	0
156	0	0	0
157	0	0	0
158	0	0	0
159	0	0	0
160	0	0	0
161	0	0	0
162	0	0	0
163	0	0	0
164	0	0	0
165	0	0	0
166	0	0	0
167	0	0	0
168	0	0	0
169	0	0	0
170	0	0	0
171	0	0	0
172	0	0	0
173	0	0	0
174	0	0	0
175	0	0	0
176	0	0	0
177	0	0	0
178	0	0	0
179	0	0	0
180	0	0	0
181	0	0	0
182	0	0	0
183	0	0	0
184	0	0	0
185	0	0	0
186	0	0	0
187	0	0	0
188	0	0	0
189	0	0	0
190	0	0	0
191	0	0	0
192	0	0	0
193	0	0	0
194	0	0	0
195	0	0	0
196	0	0	0
197	0	0	0
198	0	0	0
199	0	0	0
200	0	0	0
201	0	0	0
202	0	0	0
203	0	0	0
204	252	218	225
205	255	224	229
206	255	221	227
207	253	217	226
208	254	217	226
209	249	211	220
210	254	219	225
211	0	0	0
212	253	219	225
213	244	209	219
214	255	226	230
215	0	0	0
216	0	0	0
217	0	0	0
218	0	0	0
219	0	0	0
220	0	0	0
221	0	0	0
222	0	0	0
223	0	0	0
224	0	0	0
225	0	0	0
226	0	0	0
227	0	0	0
228	0	0	0
229	0	0	0
230	0	0	0
231	0	0	0
232	0	0	0
233	0	0	0
234	0	0	0
235	0	0	0
236	0	0	0
237	0	0	0
238	0	0	0
239	0	0	0
240	0	0	0
241	0	0	0
242	0	0	0
243	0	0	0
244	0	0	0
245	0	0	0
246	0	0	0
247	0	0	0
248	0	0	0
249	0	0	0
250	0	0	0
251	0	0	0
252	0	0	0
253	0	0	0
254	0	0	0
255	0	0	0
256	0	0	0
257	0	0	0
258	0	0	0
259	0	0	0
260	0	0	0
261	0	0	0
262	0	0	0
263	0	0	0
264	0	0	0
265	0	0	0
266	253	219	223
267	255	225	229
268	255	220	226
269	255	217	226
270	255	218	228
271	255	217	227
272	247	205	217
273	254	214	222
274	255	224	229
275	255	217	224
276	248	208	220
277	255	226	232
278	255	223	228
279	255	228	230
280	253	224	224
281	0	0	0
282	0	0	0
283	0	0	0
284	0	0	0
285	0	0	0
286	0	0	0
287	0	0	0
288	0	0	0
289	0	0	0
290	0	0	0
291	0	0	0
292	0	0	0
293	0	0	0
294	0	0	0
295	0	0	0
296	0	0	0
297	0	0	0
298	0	0	0
299	0	0	0
300	0	0	0
301	0	0	0
302	0	0	0
303	0	0	0
304	0	0	0
305	0	0	0
306	0	0	0
307	0	0	0
308	0	0	0
309	0	0	0
310	0	0	0
311	0	0	0
312	0	0	0
313	0	0	0
314	0	0	0
315	0	0	0
316	0	0	0
317	0	0	0
318	0	0	0
319	0	0	0
320	0	0	0
321	0	0	0
322	0	0	0
323	0	0	0
324	0	0	0
325	0	0	0
326	0	0	0
327	0	0	0
328	0	0	0
329	0	0	0
330	255	220	225
331	253	214	222
332	254	215	223
333	255	216	226
334	251	208	221
335	243	196	210
336	251	208	218
337	255	219	226
338	254	211	221
339	247	202	214
340	250	206	219
341	249	205	221
342	248	205	221
343	242	201	216
344	252	218	226
345	0	0	0
346	0	0	0
347	0	0	0
348	0	0	0
349	0	0	0
350	0	0	0
351	0	0	0
352	0	0	0
353	0	0	0
354	0	0	0
355	0	0	0
356	0	0	0
357	0	0	0
358	0	0	0
359	0	0	0
360	0	0	0
361	0	0	0
362	0	0	0
363	0	0	0
364	0	0	0
365	0	0	0
366	0	0	0
367	0	0	0
368	0	0	0
369	0	0	0
370	0	0	0
371	0	0	0
372	0	0	0
373	0	0	0
374	0	0	0
375	0	0	0
376	0	0	0
377	0	0	0
378	0	0	0
379	0	0	0
380	0	0	0
381	0	0	0
382	0	0	0
383	0	0	0
384	0	0	0
385	0	0	0
386	0	0	0
387	0	0	0
388	0	0	0
389	0	0	0
390	0	0	0
391	0	0	0
392	0	0	0
393	0	0	0
394	250	209	217
395	252	210	220
396	255	216	228
397	254	209	223
398	248	200	215
399	255	212	223
400	255	220	228
401	255	213	224
402	249	200	215
403	254	205	222
404	254	204	226
405	253	205	227
406	249	202	224
407	255	220	234
408	255	216	227
409	0	0	0
410	0	0	0
411	0	0	0
412	249	220	221
413	0	0	0
414	0	0	0
415	0	0	0
416	0	0	0
417	0	0	0
418	0	0	0
419	0	0	0
420	0	0	0
421	0	0	0
422	0	0	0
423	0	0	0
424	0	0	0
425	0	0	0
426	0	0	0
427	0	0	0
428	0	0	0
429	0	0	0
430	0	0	0
431	0	0	0
432	0	0	0
433	0	0	0
434	0	0	0
435	0	0	0
436	0	0	0
437	0	0	0
438	0	0	0
439	0	0	0
440	0	0	0
441	0	0	0
442	0	0	0
443	0	0	0
444	0	0	0
445	0	0	0
446	0	0	0
447	0	0	0
448	0	0	0
449	0	0	0
450	0	0	0
451	0	0	0
452	0	0	0
453	0	0	0
454	0	0	0
455	0	0	0
456	253	214	221
457	245	202	212
458	252	209	219
459	255	215	227
460	255	211	227
461	252	204	223
462	255	214	229
463	255	220	230
464	255	208	221
465	252	197	219
466	255	201	225
467	255	200	226
468	255	202	229
469	253	199	226
470	254	201	226
471	248	197	219
472	255	213	227
473	0	0	0
474	255	216	224
475	242	200	215
476	255	228	233
477	0	0	0
478	0	0	0
479	0	0	0
480	0	0	0
481	0	0	0
482	0	0	0
483	0	0	0
484	0	0	0
485	0	0	0
486	0	0	0
487	0	0	0
488	0	0	0
489	0	0	0
490	0	0	0
491	0	0	0
492	0	0	0
493	0	0	0
494	0	0	0
495	0	0	0
496	0	0	0
497	0	0	0
498	0	0	0
499	0	0	0
500	0	0	0
501	0	0	0
502	0	0	0
503	0	0	0
504	0	0	0
505	0	0	0
506	0	0	0
507	0	0	0
508	0	0	0
509	0	0	0
510	0	0	0
511	0	0	0
512	0	0	0
513	0	0	0
514	0	0	0
515	0	0	0
516	0	0	0
517	255	236	235
518	0	0	0
519	251	211	219
520	253	211	220
521	255	218	227
522	255	212	227
523	255	209	227
524	255	204	225
525	255	213	231
526	255	202	219
527	248	190	211
528	255	198	222
529	255	202	228
530	254	193	224
531	255	196	227
532	252	189	224
533	253	191	224
534	250	189	219
535	255	206	228
536	255	209	228
537	249	195	218
538	243	190	217
539	255	219	235
540	255	225	232
541	255	221	223
542	255	232	228
543	255	228	224
544	0	0	0
545	0	0	0
546	0	0	0
547	0	0	0
548	0	0	0
549	0	0	0
550	0	0	0
551	0	0	0
552	0	0	0
553	0	0	0
554	0	0	0
555	0	0	0
556	0	0	0
557	0	0	0
558	0	0	0
559	0	0	0
560	0	0	0
561	0	0	0
562	0	0	0
563	0	0	0
564	0	0	0
565	0	0	0
566	0	0	0
567	0	0	0
568	0	0	0
569	0	0	0
570	0	0	0
571	0	0	0
572	0	0	0
573	0	0	0
574	0	0	0
575	0	0	0
576	0	0	0
577	0	0	0
578	0	0	0
579	255	245	232
580	255	230	224
581	253	217	219
582	255	221	226
583	255	223	231
584	255	217	229
585	255	211	228
586	255	207	227
587	255	201	222
588	251	194	217
589	245	184	209
590	252	191	214
591	255	197	220
592	254	190	217
593	250	182	216
594	251	181	219
595	248	176	217
596	250	179	219
597	247	177	213
598	249	181	216
599	251	186	222
600	249	184	221
601	243	178	216
602	252	192	224
603	253	200	224
604	255	210	226
605	255	220	228
606	255	221	225
607	255	223	224
608	0	0	0
609	0	0	0
610	0	0	0
611	0	0	0
612	0	0	0
613	0	0	0
614	0	0	0
615	0	0	0
616	0	0	0
617	0	0	0
618	0	0	0
619	0	0	0
620	0	0	0
621	0	0	0
622	0	0	0
623	0	0	0
624	0	0	0
625	0	0	0
626	0	0	0
627	0	0	0
628	0	0	0
629	0	0	0
630	0	0	0
631	0	0	0
632	0	0	0
633	0	0	0
634	0	0	0
635	0	0	0
636	0	0	0
637	0	0	0
638	0	0	0
639	0	0	0
640	0	0	0
641	0	0	0
642	255	234	224
643	253	219	216
644	253	215	217
645	255	219	225
646	255	210	224
647	253	205	223
648	255	208	226
649	255	204	225
650	253	195	219
651	250	188	215
652	251	187	217
653	255	195	223
654	255	190	218
655	250	182	214
656	249	177	216
657	252	177	220
658	249	171	219
659	252	175	221
660	252	177	218
661	255	182	221
662	255	182	226
663	254	181	226
664	254	182	225
665	255	196	233
666	253	186	223
667	255	197	227
668	252	191	216
669	249	191	213
670	252	200	218
671	255	216	228
672	255	221	229
673	248	213	219
674	253	226	222
675	0	0	0
676	0	0	0
677	0	0	0
678	0	0	0
679	0	0	0
680	0	0	0
681	0	0	0
682	0	0	0
683	0	0	0
684	0	0	0
685	0	0	0
686	0	0	0
687	0	0	0
688	0	0	0
689	0	0	0
690	0	0	0
691	0	0	0
692	0	0	0
693	0	0	0
694	0	0	0
695	0	0	0
696	0	0	0
697	0	0	0
698	0	0	0
699	0	0	0
700	0	0	0
701	0	0	0
702	0	0	0
703	0	0	0
704	0	0	0
705	255	227	227
706	255	220	223
707	254	215	221
708	250	206	218
709	246	197	216
710	250	199	219
711	254	202	219
712	250	193	214
713	247	185	213
714	251	187	219
715	254	188	223
716	254	185	223
717	251	180	217
718	247	173	214
719	246	169	216
720	248	167	220
721	246	162	219
722	251	169	223
723	252	171	219
724	253	172	219
725	253	173	221
726	255	177	225
727	255	179	225
728	253	173	220
729	245	164	211
730	245	165	211
731	239	159	204
732	245	172	211
733	249	182	217
734	251	189	220
735	250	193	220
736	251	204	223
737	255	217	227
738	255	231	231
739	0	0	0
740	0	0	0
741	0	0	0
742	0	0	0
743	0	0	0
744	0	0	0
745	0	0	0
746	0	0	0
747	0	0	0
748	0	0	0
749	0	0	0
750	0	0	0
751	0	0	0
752	0	0	0
753	0	0	0
754	0	0	0
755	0	0	0
756	0	0	0
757	0	0	0
758	0	0	0
759	0	0	0
760	0	0	0
761	0	0	0
762	0	0	0
763	0	0	0
764	0	0	0
765	0	0	0
766	0	0	0
767	255	226	225
768	255	223	226
769	254	215	223
770	255	217	224
771	252	207	220
772	250	201	219
773	254	204	221
774	255	210	223
775	255	202	218
776	247	185	213
777	252	188	220
778	255	194	230
779	255	192	230
780	249	175	218
781	247	169	215
782	255	181	227
783	255	178	229
784	250	165	223
785	255	172	228
786	255	172	223
787	255	175	223
788	251	162	216
789	255	167	221
790	255	171	222
791	255	167	219
792	249	157	214
793	250	160	216
794	246	156	214
795	252	170	222
796	250	170	220
797	252	177	222
798	253	183	222
799	255	194	225
800	255	204	226
801	255	216	228
802	255	217	223
803	0	0	0
804	0	0	0
805	0	0	0
806	0	0	0
807	0	0	0
808	0	0	0
809	0	0	0
810	0	0	0
811	0	0	0
812	0	0	0
813	0	0	0
814	0	0	0
815	0	0	0
816	0	0	0
817	0	0	0
818	0	0	0
819	0	0	0
820	0	0	0
821	0	0	0
822	0	0	0
823	0	0	0
824	0	0	0
825	0	0	0
826	0	0	0
827	0	0	0
828	0	0	0
829	255	223	221
830	254	220	221
831	252	216	220
832	254	215	222
833	255	217	225
834	253	209	221
835	250	202	217
836	255	209	222
837	255	216	225
838	253	197	214
839	244	180	207
840	252	188	218
841	255	195	228
842	253	182	222
843	244	167	212
844	254	178	221
845	255	187	228
846	254	173	220
847	247	160	215
848	252	164	219
849	254	166	218
850	251	158	214
851	244	147	208
852	252	155	216
853	255	160	218
854	253	154	216
855	249	147	214
856	252	151	222
857	249	149	222
858	251	154	225
859	246	153	218
860	250	162	219
861	251	168	218
862	254	179	220
863	255	189	219
864	252	191	215
865	249	193	212
866	255	211	222
867	0	0	0
868	0	0	0
869	0	0	0
870	0	0	0
871	0	0	0
872	0	0	0
873	0	0	0
874	0	0	0
875	0	0	0
876	0	0	0
877	0	0	0
878	0	0	0
879	0	0	0
880	0	0	0
881	0	0	0
882	0	0	0
883	0	0	0
884	0	0	0
885	0	0	0
886	0	0	0
887	0	0	0
888	0	0	0
889	0	0	0
890	0	0	0
891	255	229	222
892	252	218	219
893	251	215	219
894	254	218	221
895	255	217	222
896	255	215	223
897	251	207	218
898	255	212	221
899	255	218	226
900	255	208	220
901	248	190	210
902	252	192	215
903	255	200	224
904	255	197	227
905	254	184	221
906	247	171	214
907	255	182	224
908	255	178	220
909	248	164	211
910	253	169	218
911	255	174	224
912	255	169	221
913	255	163	220
914	244	140	207
915	253	150	216
916	255	155	219
917	255	149	217
918	248	137	214
919	253	142	222
920	250	138	222
921	251	144	225
922	244	139	217
923	247	148	219
924	252	160	221
925	255	172	224
926	255	174	218
927	251	175	214
928	249	179	213
929	255	197	223
930	255	206	225
931	255	208	224
932	255	212	227
933	0	0	0
934	0	0	0
935	0	0	0
936	0	0	0
937	0	0	0
938	0	0	0
939	0	0	0
940	0	0	0
941	0	0	0
942	0	0	0
943	0	0	0
944	0	0	0
945	0	0	0
946	0	0	0
947	0	0	0
948	0	0	0
949	0	0	0
950	0	0	0
951	0	0	0
952	0	0	0
953	0	0	0
954	251	220	214
955	246	210	215
956	251	215	221
957	253	217	221
958	252	214	219
959	252	212	220
960	255	216	224
961	255	220	225
962	255	210	219
963	252	201	217
964	255	204	222
965	255	206	226
966	255	202	225
967	255	198	224
968	254	185	217
969	247	171	212
970	249	171	215
971	249	168	216
972	253	171	219
973	255	175	222
974	255	169	219
975	255	167	220
976	250	149	213
977	238	128	201
978	248	137	212
979	253	142	215
980	246	131	209
981	240	119	206
982	241	120	209
983	238	116	205
984	240	120	209
985	235	118	208
986	245	136	220
987	249	148	223
988	251	153	221
989	250	156	218
990	247	158	215
991	245	161	212
992	248	171	215
993	250	180	219
994	249	184	219
995	247	186	216
996	253	202	222
997	0	0	0
998	0	0	0
999	0	0	0
1000	0	0	0
1001	0	0	0
1002	0	0	0
1003	0	0	0
1004	0	0	0
1005	0	0	0
1006	0	0	0
1007	0	0	0
1008	0	0	0
1009	0	0	0
1010	0	0	0
1011	250	223	224
1012	255	231	231
1013	0	0	0
1014	0	0	0
1015	0	0	0
1016	0	0	0
1017	251	220	216
1018	251	219	220
1019	255	223	225
1020	255	227	226
1021	255	223	224
1022	253	214	220
1023	255	218	224
1024	255	222	225
1025	255	212	220
1026	251	199	216
1027	255	203	221
1028	255	205	224
1029	255	200	222
1030	251	185	214
1031	244	171	207
1032	251	178	215
1033	254	178	218
1034	255	177	220
1035	255	181	223
1036	255	180	224
1037	255	175	222
1038	255	168	222
1039	253	152	216
1040	243	132	207
1041	254	143	217
1042	255	145	219
1043	252	134	214
1044	247	125	212
1045	249	127	215
1046	255	136	220
1047	255	141	225
1048	242	120	213
1049	248	137	224
1050	243	133	218
1051	249	141	220
1052	255	153	225
1053	253	156	221
1054	255	165	222
1055	255	175	225
1056	255	176	224
1057	255	179	223
1058	247	175	214
1059	253	189	220
1060	255	203	226
1061	0	0	0
1062	255	215	226
1063	0	0	0
1064	0	0	0
1065	0	0	0
1066	0	0	0
1067	0	0	0
1068	0	0	0
1069	0	0	0
1070	0	0	0
1071	0	0	0
1072	0	0	0
1073	246	219	217
1074	253	228	225
1075	255	235	231
1076	255	241	235
1077	255	246	238
1078	255	241	234
1079	255	237	231
1080	255	232	227
1081	255	228	225
1082	255	232	228
1083	255	236	230
1084	255	226	224
1085	254	216	220
1086	255	221	225
1087	255	225	228
1088	255	211	219
1089	249	197	213
1090	254	200	217
1091	255	202	220
1092	250	187	212
1093	242	172	208
1094	249	180	216
1095	255	187	222
1096	255	187	221
1097	255	185	218
1098	255	183	217
1099	255	184	223
1100	255	173	220
1101	255	166	220
1102	250	148	213
1103	241	130	205
1104	251	138	214
1105	255	140	215
1106	255	136	214
1107	251	128	213
1108	255	139	223
1109	255	150	231
1110	255	133	220
1111	239	110	204
1112	238	115	208
1113	234	113	206
1114	248	132	218
1115	254	144	220
1116	254	151	219
1117	255	160	219
1118	252	159	215
1119	250	160	214
1120	247	160	212
1121	240	156	205
1122	249	173	213
1123	253	187	217
1124	250	188	214
1125	247	190	213
1126	254	206	221
1127	0	0	0
1128	0	0	0
1129	0	0	0
1130	0	0	0
1131	0	0	0
1132	0	0	0
1133	0	0	0
1134	0	0	0
1135	0	0	0
1136	0	0	0
1137	255	241	234
1138	254	229	226
1139	255	235	230
1140	255	232	226
1141	253	226	222
1142	255	227	227
1143	253	222	223
1144	255	228	223
1145	255	231	224
1146	255	228	223
1147	253	218	218
1148	252	213	218
1149	255	218	222
1150	255	219	223
1151	250	204	214
1152	250	200	214
1153	255	203	219
1154	255	205	221
1155	250	189	213
1156	250	184	215
1157	255	192	224
1158	255	188	223
1159	255	187	221
1160	252	175	210
1161	252	173	210
1162	255	181	220
1163	255	169	216
1164	255	163	216
1165	247	146	209
1166	255	151	217
1167	255	159	226
1168	252	134	211
1169	252	130	211
1170	247	121	208
1171	255	133	218
1172	255	141	224
1173	252	124	212
1174	248	117	208
1175	252	125	215
1176	242	113	208
1177	251	129	217
1178	255	140	219
1179	255	147	219
1180	254	150	217
1181	250	150	213
1182	255	161	219
1183	254	162	218
1184	244	153	210
1185	254	171	219
1186	255	180	219
1187	253	182	216
1188	251	184	216
1189	255	200	224
1190	255	200	220
1191	254	202	220
1192	251	203	221
1193	0	0	0
1194	0	0	0
1195	0	0	0
1196	0	0	0
1197	0	0	0
1198	0	0	0
1199	255	247	241
1200	255	236	233
1201	252	224	224
1202	251	222	220
1203	247	217	213
1204	248	217	213
1205	251	220	223
1206	255	226	228
1207	255	230	224
1208	254	224	218
1209	254	221	220
1210	253	216	219
1211	252	212	218
1212	254	213	218
1213	255	213	217
1214	253	208	215
1215	254	205	218
1216	255	208	222
1217	255	208	223
1218	255	199	219
1219	255	193	218
1220	255	190	220
1221	255	187	222
1222	252	178	219
1223	247	168	211
1224	252	172	214
1225	255	178	220
1226	254	167	214
1227	253	161	212
1228	255	163	216
1229	255	167	222
1230	255	147	214
1231	245	124	204
1232	247	123	208
1233	243	114	206
1234	249	121	210
1235	254	128	212
1236	251	122	208
1237	249	117	206
1238	246	113	205
1239	235	100	194
1240	244	116	205
1241	249	129	210
1242	248	133	212
1243	248	137	215
1244	251	146	218
1245	255	156	221
1246	247	148	213
1247	239	141	209
1248	250	158	219
1249	252	167	218
1250	251	169	215
1251	249	171	214
1252	247	173	213
1253	244	174	213
1254	244	176	214
1255	241	177	215
1256	247	191	221
1257	0	0	0
1258	0	0	0
1259	0	0	0
1260	0	0	0
1261	0	0	0
1262	255	234	232
1263	251	223	224
1264	253	225	225
1265	252	223	222
1266	253	223	217
1267	253	223	218
1268	255	223	225
1269	255	229	230
1270	255	227	222
1271	251	219	215
1272	255	224	222
1273	255	219	221
1274	255	219	222
1275	255	219	222
1276	255	212	216
1277	254	208	214
1278	254	203	215
1279	255	204	219
1280	254	198	215
1281	248	189	209
1282	254	195	217
1283	255	193	220
1284	255	190	224
1285	255	183	222
1286	250	173	217
1287	255	178	220
1288	255	180	222
1289	254	169	214
1290	255	166	213
1291	255	168	217
1292	255	162	216
1293	253	142	208
1294	242	121	202
1295	246	121	208
1296	251	125	212
1297	255	132	217
1298	255	135	216
1299	255	129	212
1300	246	114	203
1301	241	108	200
1302	242	112	202
1303	254	131	214
1304	255	137	217
1305	255	141	219
1306	250	137	217
1307	253	147	221
1308	255	162	227
1309	253	155	219
1310	255	159	223
1311	255	176	234
1312	248	155	214
1313	248	159	212
1314	255	175	221
1315	255	177	221
1316	251	174	220
1317	250	176	222
1318	248	179	222
1319	254	192	227
1320	255	200	225
1321	255	208	223
1322	249	205	215
1323	0	0	0
1324	254	230	226
1325	248	219	221
1326	251	222	224
1327	253	224	224
1328	255	226	224
1329	255	228	224
1330	255	227	224
1331	255	225	223
1332	254	223	222
1333	254	222	220
1334	254	222	219
1335	255	225	221
1336	255	223	220
1337	255	223	221
1338	255	217	219
1339	254	210	215
1340	252	204	212
1341	250	199	209
1342	248	194	207
1343	245	188	204
1344	250	193	210
1345	255	200	219
1346	255	196	220
1347	255	193	221
1348	254	184	219
1349	250	175	215
1350	254	177	218
1351	255	179	220
1352	255	174	215
1353	255	171	214
1354	255	162	210
1355	255	156	212
1356	247	136	204
1357	236	114	196
1358	246	123	206
1359	251	128	211
1360	255	134	216
1361	255	138	218
1362	254	125	210
1363	243	109	200
1364	246	117	206
1365	248	122	209
1366	254	131	215
1367	255	137	217
1368	250	134	213
1369	243	129	207
1370	252	146	216
1371	255	163	225
1372	255	164	222
1373	255	168	223
1374	251	153	213
1375	235	134	199
1376	248	154	212
1377	255	171	219
1378	249	164	212
1379	245	161	212
1380	245	165	214
1381	242	166	209
1382	245	177	213
1383	248	186	216
1384	244	186	212
1385	238	184	205
1386	243	198	211
1387	251	226	222
1388	252	226	226
1389	255	228	229
1390	255	228	226
1391	255	230	226
1392	255	225	224
1393	255	224	223
1394	252	220	218
1395	251	219	216
1396	255	230	225
1397	255	231	224
1398	255	226	220
1399	255	224	218
1400	255	221	220
1401	255	215	218
1402	250	205	213
1403	249	199	210
1404	255	206	214
1405	251	200	209
1406	250	197	210
1407	255	203	218
1408	255	202	219
1409	255	196	218
1410	253	187	214
1411	249	178	210
1412	254	183	217
1413	255	186	220
1414	255	183	219
1415	255	177	216
1416	255	174	214
1417	255	164	211
1418	251	152	208
1419	241	131	199
1420	249	136	208
1421	255	145	217
1422	255	142	216
1423	255	149	222
1424	248	121	205
1425	241	108	197
1426	248	119	205
1427	253	127	211
1428	253	130	212
1429	255	138	217
1430	255	141	218
1431	252	139	214
1432	250	140	212
1433	255	157	221
1434	255	160	220
1435	255	161	218
1436	255	159	214
1437	246	145	206
1438	243	142	207
1439	255	162	221
1440	254	164	216
1441	246	157	209
1442	250	167	217
1443	250	171	217
1444	251	178	217
1445	255	189	220
1446	251	188	218
1447	248	189	216
1448	249	197	218
1449	0	0	0
1450	0	0	0
1451	255	232	231
1452	255	233	234
1453	255	232	229
1454	254	225	223
1455	251	220	220
1456	250	219	218
1457	248	215	213
1458	255	227	220
1459	255	238	227
1460	255	233	223
1461	255	229	221
1462	255	223	219
1463	255	220	221
1464	251	209	217
1465	247	200	215
1466	254	208	220
1467	255	213	219
1468	255	208	215
1469	255	207	219
1470	255	204	220
1471	255	201	218
1472	251	190	211
1473	247	181	206
1474	252	186	211
1475	255	191	216
1476	255	186	215
1477	255	183	214
1478	253	176	212
1479	255	173	214
1480	248	157	206
1481	243	143	201
1482	252	150	209
1483	255	155	214
1484	255	154	216
1485	255	151	215
1486	246	125	200
1487	228	97	185
1488	241	113	199
1489	249	124	206
1490	252	129	208
1491	251	131	205
1492	252	137	208
1493	253	141	212
1494	253	143	213
1495	252	145	212
1496	252	149	212
1497	252	152	210
1498	249	149	206
1499	248	147	205
1500	246	145	207
1501	243	142	210
1502	246	149	214
1503	243	149	208
1504	244	156	209
1505	247	164	215
1506	250	173	218
1507	251	181	218
1508	247	180	214
1509	243	179	211
1510	247	189	216
1511	0	0	0
1512	0	0	0
1513	0	0	0
1514	254	227	229
1515	255	228	232
1516	254	226	228
1517	250	219	221
1518	255	229	226
1519	255	227	223
1520	254	225	220
1521	255	236	227
1522	253	222	216
1523	250	217	212
1524	255	227	220
1525	255	221	218
1526	255	218	219
1527	249	208	216
1528	255	216	225
1529	255	222	229
1530	255	211	216
1531	253	206	213
1532	255	208	219
1533	255	205	219
1534	255	202	216
1535	250	192	209
1536	254	194	211
1537	255	199	216
1538	255	191	213
1539	252	186	211
1540	254	186	212
1541	253	179	210
1542	255	185	218
1543	253	169	210
1544	251	160	209
1545	255	167	218
1546	255	156	211
1547	255	155	212
1548	252	143	207
1549	237	118	193
1550	247	129	204
1551	255	145	217
1552	251	134	208
1553	254	139	210
1554	254	141	208
1555	255	147	211
1556	251	142	208
1557	251	145	209
1558	255	160	217
1559	255	164	217
1560	255	158	211
1561	252	155	209
1562	251	154	209
1563	249	151	210
1564	248	153	215
1565	250	159	218
1566	252	166	218
1567	253	173	219
1568	253	177	221
1569	254	185	223
1570	255	191	222
1571	251	190	217
1572	251	195	218
1573	0	0	0
1574	0	0	0
1575	0	0	0
1576	0	0	0
1577	0	0	0
1578	253	223	231
1579	252	222	230
1580	255	230	232
1581	0	0	0
1582	0	0	0
1583	255	232	227
1584	252	221	218
1585	243	207	209
1586	252	218	216
1587	255	228	223
1588	255	221	218
1589	254	217	217
1590	255	222	221
1591	255	229	227
1592	255	217	218
1593	250	206	210
1594	251	205	210
1595	253	206	213
1596	253	204	213
1597	253	202	210
1598	255	203	211
1599	255	205	215
1600	255	198	213
1601	252	191	211
1602	252	189	212
1603	254	189	212
1604	255	190	213
1605	255	194	215
1606	255	182	211
1607	255	175	215
1608	255	167	214
1609	250	155	208
1610	247	145	205
1611	242	135	201
1612	254	148	212
1613	255	157	218
1614	255	149	212
1615	249	139	205
1616	253	145	210
1617	254	148	211
1618	252	146	209
1619	246	141	206
1620	255	156	213
1621	255	169	216
1622	255	162	208
1623	251	158	207
1624	250	156	208
1625	248	154	208
1626	246	154	208
1627	244	154	207
1628	248	164	212
1629	250	172	214
1630	250	176	214
1631	249	181	216
1632	249	186	217
1633	250	192	215
1634	250	197	214
1635	250	202	215
1636	252	208	218
1637	0	0	0
1638	0	0	0
1639	0	0	0
1640	0	0	0
1641	0	0	0
1642	251	220	229
1643	0	0	0
1644	0	0	0
1645	0	0	0
1646	255	233	227
1647	253	222	220
1648	251	217	217
1649	255	228	225
1650	255	222	220
1651	250	214	214
1652	254	219	218
1653	255	223	220
1654	255	221	217
1655	249	210	208
1656	255	218	216
1657	255	217	217
1658	255	213	216
1659	255	211	215
1660	253	206	211
1661	255	206	212
1662	255	204	212
1663	252	197	209
1664	255	199	213
1665	255	198	214
1666	255	195	214
1667	255	196	214
1668	255	189	208
1669	249	177	202
1670	255	185	215
1671	255	176	215
1672	254	167	213
1673	251	158	210
1674	250	153	210
1675	255	165	220
1676	253	154	209
1677	248	146	203
1678	255	155	211
1679	255	162	217
1680	254	155	211
1681	252	153	209
1682	250	153	209
1683	255	168	217
1684	255	171	212
1685	252	163	204
1686	251	163	206
1687	249	162	208
1688	250	165	211
1689	248	165	210
1690	255	180	217
1691	255	189	221
1692	248	179	211
1693	248	183	212
1694	255	203	223
1695	255	209	224
1696	255	210	220
1697	255	216	221
1698	255	216	219
1699	0	0	0
1700	0	0	0
1701	0	0	0
1702	0	0	0
1703	0	0	0
1704	0	0	0
1705	0	0	0
1706	0	0	0
1707	0	0	0
1708	0	0	0
1709	0	0	0
1710	255	229	222
1711	255	224	221
1712	253	220	219
1713	249	213	215
1714	252	218	218
1715	255	223	222
1716	255	221	219
1717	254	218	213
1718	255	224	216
1719	255	232	225
1720	255	226	222
1721	255	222	222
1722	255	216	219
1723	255	211	216
1724	252	206	213
1725	251	202	211
1726	253	204	211
1727	255	205	211
1728	254	201	210
1729	255	200	213
1730	253	194	212
1731	251	188	210
1732	255	191	212
1733	255	196	215
1734	255	185	210
1735	255	177	213
1736	255	173	215
1737	254	167	212
1738	251	160	208
1739	244	150	199
1740	253	161	208
1741	255	170	217
1742	255	165	213
1743	250	158	203
1744	249	158	203
1745	249	159	205
1746	252	166	210
1747	253	170	207
1748	248	166	202
1749	247	165	202
1750	247	168	204
1751	247	170	206
1752	255	186	216
1753	255	201	225
1754	253	192	217
1755	243	183	208
1756	254	203	219
1757	0	0	0
1758	0	0	0
1759	0	0	0
1760	0	0	0
1761	0	0	0
1762	0	0	0
1763	0	0	0
1764	0	0	0
1765	0	0	0
1766	0	0	0
1767	0	0	0
1768	0	0	0
1769	0	0	0
1770	0	0	0
1771	0	0	0
1772	0	0	0
1773	253	222	217
1774	254	223	220
1775	252	218	219
1776	251	217	218
1777	255	222	222
1778	255	228	227
1779	255	225	223
1780	250	215	212
1781	255	220	215
1782	255	226	220
1783	255	219	217
1784	252	214	215
1785	249	208	211
1786	255	222	221
1787	255	217	217
1788	255	216	217
1789	255	216	217
1790	253	208	209
1791	252	204	207
1792	255	213	217
1793	255	206	217
1794	253	196	213
1795	255	198	215
1796	255	199	212
1797	252	186	205
1798	254	183	211
1799	254	179	212
1800	255	178	211
1801	252	172	207
1802	252	169	206
1803	255	180	216
1804	255	172	213
1805	251	167	208
1806	251	169	205
1807	252	170	206
1808	255	176	211
1809	255	183	215
1810	251	176	207
1811	247	172	201
1812	255	186	209
1813	254	188	209
1814	250	187	208
1815	255	202	218
1816	255	209	222
1817	250	200	214
1818	254	210	218
1819	0	0	0
1820	0	0	0
1821	0	0	0
1822	0	0	0
1823	0	0	0
1824	0	0	0
1825	0	0	0
1826	0	0	0
1827	0	0	0
1828	0	0	0
1829	0	0	0
1830	0	0	0
1831	0	0	0
1832	0	0	0
1833	0	0	0
1834	0	0	0
1835	0	0	0
1836	0	0	0
1837	253	222	222
1838	253	221	222
1839	251	219	219
1840	255	224	223
1841	255	230	230
1842	254	221	223
1843	247	211	213
1844	250	215	215
1845	254	219	218
1846	249	213	213
1847	247	208	210
1848	255	221	218
1849	255	234	224
1850	255	231	220
1851	255	230	222
1852	255	222	217
1853	255	215	213
1854	255	220	217
1855	255	226	221
1856	255	213	213
1857	253	202	209
1858	255	202	212
1859	255	203	214
1860	255	197	212
1861	255	192	213
1862	255	193	216
1863	255	192	213
1864	255	190	211
1865	255	187	212
1866	255	181	210
1867	250	174	208
1868	253	178	212
1869	255	182	215
1870	255	188	217
1871	255	191	215
1872	253	185	208
1873	246	178	202
1874	253	191	208
1875	255	204	213
1876	255	203	209
1877	252	202	208
1878	255	211	214
1879	255	218	220
1880	0	0	0
1881	0	0	0
1882	0	0	0
1883	0	0	0
1884	0	0	0
1885	0	0	0
1886	0	0	0
1887	0	0	0
1888	0	0	0
1889	0	0	0
1890	0	0	0
1891	0	0	0
1892	0	0	0
1893	0	0	0
1894	0	0	0
1895	0	0	0
1896	0	0	0
1897	0	0	0
1898	0	0	0
1899	0	0	0
1900	0	0	0
1901	255	228	224
1902	255	229	222
1903	255	234	226
1904	255	226	224
1905	250	218	219
1906	255	225	223
1907	255	229	224
1908	255	223	219
1909	251	217	214
1910	255	225	220
1911	255	238	227
1912	0	0	0
1913	0	0	0
1914	0	0	0
1915	0	0	0
1916	0	0	0
1917	0	0	0
1918	255	217	213
1919	248	203	204
1920	254	209	210
1921	255	210	212
1922	255	213	216
1923	255	205	214
1924	254	196	211
1925	255	197	213
1926	255	194	209
1927	255	191	208
1928	252	185	205
1929	248	179	203
1930	254	188	210
1931	255	193	214
1932	255	194	217
1933	255	200	219
1934	255	195	211
1935	248	188	203
1936	252	197	207
1937	255	210	212
1938	255	219	214
1939	255	217	210
1940	253	214	208
1941	255	223	215
1942	0	0	0
1943	0	0	0
1944	0	0	0
1945	0	0	0
1946	0	0	0
1947	0	0	0
1948	0	0	0
1949	0	0	0
1950	0	0	0
1951	0	0	0
1952	0	0	0
1953	0	0	0
1954	0	0	0
1955	0	0	0
1956	0	0	0
1957	0	0	0
1958	0	0	0
1959	0	0	0
1960	0	0	0
1961	0	0	0
1962	0	0	0
1963	0	0	0
1964	0	0	0
1965	0	0	0
1966	255	228	216
1967	250	220	214
1968	255	229	221
1969	0	0	0
1970	0	0	0
1971	254	225	214
1972	255	233	220
1973	0	0	0
1974	0	0	0
1975	0	0	0
1976	0	0	0
1977	0	0	0
1978	0	0	0
1979	0	0	0
1980	0	0	0
1981	0	0	0
1982	0	0	0
1983	0	0	0
1984	0	0	0
1985	0	0	0
1986	255	212	211
1987	253	202	209
1988	254	201	211
1989	254	199	212
1990	251	192	208
1991	247	186	204
1992	254	196	209
1993	255	203	210
1994	255	204	210
1995	255	205	211
1996	255	205	212
1997	254	202	210
1998	255	212	215
1999	0	0	0
2000	0	0	0
2001	0	0	0
2002	0	0	0
2003	0	0	0
2004	0	0	0
2005	0	0	0
2006	0	0	0
2007	0	0	0
2008	0	0	0
2009	0	0	0
2010	0	0	0
2011	0	0	0
2012	0	0	0
2013	0	0	0
2014	0	0	0
2015	0	0	0
2016	0	0	0
2017	0	0	0
2018	0	0	0
2019	0	0	0
2020	0	0	0
2021	0	0	0
2022	0	0	0
2023	0	0	0
2024	0	0	0
2025	0	0	0
2026	0	0	0
2027	0	0	0
2028	0	0	0
2029	0	0	0
2030	0	0	0
2031	0	0	0
2032	0	0	0
2033	0	0	0
2034	0	0	0
2035	0	0	0
2036	0	0	0
2037	0	0	0
2038	0	0	0
2039	0	0	0
2040	0	0	0
2041	0	0	0
2042	0	0	0
2043	0	0	0
2044	0	0	0
2045	0	0	0
2046	0	0	0
2047	0	0	0
2048	255	218	208
2049	250	206	202
2050	252	207	207
2051	252	205	210
2052	255	210	216
2053	253	203	212
2054	255	205	213
2055	255	214	217
2056	253	203	206
2057	254	205	205
2058	255	209	208
2059	255	209	209
2060	249	202	206
2061	254	212	211
2062	0	0	0
2063	0	0	0
2064	0	0	0
2065	0	0	0
2066	0	0	0
2067	0	0	0
2068	0	0	0
2069	0	0	0
2070	0	0	0
2071	0	0	0
2072	0	0	0
2073	0	0	0
2074	0	0	0
2075	0	0	0
2076	0	0	0
2077	0	0	0
2078	0	0	0
2079	0	0	0
2080	0	0	0
2081	0	0	0
2082	0	0	0
2083	0	0	0
2084	0	0	0
2085	0	0	0
2086	0	0	0
2087	0	0	0
2088	0	0	0
2089	0	0	0
2090	0	0	0
2091	0	0	0
2092	0	0	0
2093	0	0	0
2094	0	0	0
2095	0	0	0
2096	0	0	0
2097	0	0	0
2098	0	0	0
2099	0	0	0
2100	0	0	0
2101	0	0	0
2102	0	0	0
2103	0	0	0
2104	0	0	0
2105	0	0	0
2106	0	0	0
2107	0	0	0
2108	0	0	0
2109	0	0	0
2110	0	0	0
2111	0	0	0
2112	253	214	208
2113	254	214	212
2114	255	217	216
2115	0	0	0
2116	0	0	0
2117	0	0	0
2118	255	217	215
2119	252	208	209
2120	255	215	214
2121	255	219	215
2122	255	213	211
2123	248	206	206
2124	255	220	214
2125	0	0	0
2126	0	0	0
2127	0	0	0
2128	0	0	0
2129	0	0	0
2130	0	0	0
2131	0	0	0
2132	0	0	0
2133	0	0	0
2134	0	0	0
2135	0	0	0
2136	0	0	0
2137	0	0	0
2138	0	0	0
2139	0	0	0
2140	0	0	0
2141	0	0	0
2142	0	0	0
2143	0	0	0
2144	0	0	0
2145	0	0	0
2146	0	0	0
2147	0	0	0
2148	0	0	0
2149	0	0	0
2150	0	0	0
2151	0	0	0
2152	0	0	0
2153	0	0	0
2154	0	0	0
2155	0	0	0
2156	0	0	0
2157	0	0	0
2158	0	0	0
2159	0	0	0
2160	0	0	0
2161	0	0	0
2162	0	0	0
2163	0	0	0
2164	0	0	0
2165	0	0	0
2166	0	0	0
2167	0	0	0
2168	0	0	0
2169	0	0	0
2170	0	0	0
2171	0	0	0
2172	0	0	0
2173	0	0	0
2174	0	0	0
2175	0	0	0
2176	254	220	216
2177	0	0	0
2178	0	0	0
2179	0	0	0
2180	0	0	0
2181	0	0	0
2182	255	218	213
2183	255	225	219
2184	254	216	211
2185	249	211	206
2186	253	219	211
2187	0	0	0
2188	0	0	0
2189	0	0	0
2190	0	0	0
2191	0	0	0
2192	0	0	0
2193	0	0	0
2194	0	0	0
2195	0	0	0
2196	0	0	0
2197	0	0	0
2198	0	0	0
2199	0	0	0
2200	0	0	0
2201	0	0	0
2202	0	0	0
2203	0	0	0
2204	0	0	0
2205	0	0	0
2206	0	0	0
2207	0	0	0
2208	0	0	0
2209	0	0	0
2210	0	0	0
2211	0	0	0
2212	0	0	0
2213	0	0	0
2214	0	0	0
2215	0	0	0
2216	0	0	0
2217	0	0	0
2218	0	0	0
2219	0	0	0
2220	0	0	0
2221	0	0	0
2222	0	0	0
2223	0	0	0
2224	0	0	0
2225	0	0	0
2226	0	0	0
2227	0	0	0
2228	0	0	0
2229	0	0	0
2230	0	0	0
2231	0	0	0
2232	0	0	0
2233	0	0	0
2234	0	0	0
2235	0	0	0
2236	0	0	0
2237	0	0	0
2238	0	0	0
2239	0	0	0
2240	0	0	0
2241	0	0	0
2242	0	0	0
2243	0	0	0
2244	0	0	0
2245	0	0	0
2246	0	0	0
2247	247	212	203
2248	255	225	212
2249	0	0	0
2250	0	0	0
2251	0	0	0
2252	0	0	0
2253	0	0	0
2254	0	0	0
2255	0	0	0
2256	0	0	0
2257	0	0	0
2258	0	0	0
2259	0	0	0
2260	0	0	0
2261	0	0	0
2262	0	0	0
2263	0	0	0
2264	0	0	0
2265	0	0	0
2266	0	0	0
2267	0	0	0
2268	0	0	0
