 	R	G	B
1	0	0	0
2	0	0	0
3	0	0	0
4	0	0	0
5	0	0	0
6	0	0	0
7	0	0	0
8	0	0	0
9	0	0	0
10	0	0	0
11	0	0	0
12	0	0	0
13	0	0	0
14	0	0	0
15	0	0	0
16	0	0	0
17	0	0	0
18	0	0	0
19	0	0	0
20	0	0	0
21	0	0	0
22	0	0	0
23	0	0	0
24	0	0	0
25	0	0	0
26	251	195	218
27	254	195	221
28	248	184	216
29	0	0	0
30	0	0	0
31	0	0	0
32	0	0	0
33	0	0	0
34	0	0	0
35	0	0	0
36	0	0	0
37	0	0	0
38	0	0	0
39	0	0	0
40	0	0	0
41	0	0	0
42	0	0	0
43	0	0	0
44	0	0	0
45	0	0	0
46	0	0	0
47	0	0	0
48	0	0	0
49	0	0	0
50	0	0	0
51	0	0	0
52	0	0	0
53	255	223	227
54	0	0	0
55	0	0	0
56	252	198	216
57	242	178	208
58	239	171	209
59	233	161	205
60	246	180	219
61	0	0	0
62	0	0	0
63	0	0	0
64	0	0	0
65	0	0	0
66	0	0	0
67	0	0	0
68	0	0	0
69	0	0	0
70	0	0	0
71	0	0	0
72	0	0	0
73	0	0	0
74	0	0	0
75	0	0	0
76	0	0	0
77	0	0	0
78	0	0	0
79	0	0	0
80	0	0	0
81	0	0	0
82	0	0	0
83	255	226	227
84	255	213	220
85	255	211	220
86	255	206	218
87	245	185	207
88	248	184	213
89	245	177	214
90	250	185	222
91	255	202	234
92	0	0	0
93	0	0	0
94	0	0	0
95	0	0	0
96	0	0	0
97	0	0	0
98	0	0	0
99	0	0	0
100	0	0	0
101	0	0	0
102	0	0	0
103	0	0	0
104	0	0	0
105	0	0	0
106	0	0	0
107	0	0	0
108	0	0	0
109	0	0	0
110	0	0	0
111	0	0	0
112	0	0	0
113	255	229	227
114	255	218	221
115	253	206	216
116	253	200	216
117	253	196	216
118	252	192	216
119	252	189	216
120	255	198	224
121	255	204	232
122	255	200	230
123	248	188	219
124	0	0	0
125	0	0	0
126	0	0	0
127	0	0	0
128	0	0	0
129	0	0	0
130	0	0	0
131	0	0	0
132	0	0	0
133	0	0	0
134	0	0	0
135	0	0	0
136	0	0	0
137	0	0	0
138	0	0	0
139	0	0	0
140	0	0	0
141	0	0	0
142	0	0	0
143	0	0	0
144	0	0	0
145	253	206	214
146	250	197	212
147	249	191	212
148	255	196	219
149	254	192	217
150	252	189	214
151	255	197	220
152	255	198	223
153	255	193	221
154	244	183	213
155	247	192	218
156	0	0	0
157	0	0	0
158	0	0	0
159	0	0	0
160	0	0	0
161	0	0	0
162	0	0	0
163	0	0	0
164	0	0	0
165	0	0	0
166	0	0	0
167	0	0	0
168	0	0	0
169	0	0	0
170	0	0	0
171	0	0	0
172	0	0	0
173	0	0	0
174	0	0	0
175	0	0	0
176	250	196	208
177	248	188	209
178	254	194	216
179	255	197	218
180	255	196	218
181	255	193	217
182	255	195	218
183	255	195	219
184	251	188	213
185	240	177	205
186	251	197	218
187	0	0	0
188	0	0	0
189	0	0	0
190	0	0	0
191	0	0	0
192	0	0	0
193	0	0	0
194	0	0	0
195	0	0	0
196	0	0	0
197	0	0	0
198	0	0	0
199	0	0	0
200	0	0	0
201	0	0	0
202	0	0	0
203	0	0	0
204	0	0	0
205	0	0	0
206	249	194	208
207	246	186	205
208	254	193	214
209	255	197	219
210	255	190	214
211	255	189	214
212	251	183	211
213	252	184	212
214	252	186	212
215	244	177	205
216	248	188	210
217	0	0	0
218	0	0	0
219	0	0	0
220	0	0	0
221	0	0	0
222	0	0	0
223	0	0	0
224	0	0	0
225	0	0	0
226	0	0	0
227	0	0	0
228	0	0	0
229	0	0	0
230	0	0	0
231	0	0	0
232	0	0	0
233	0	0	0
234	0	0	0
235	0	0	0
236	254	202	216
237	245	184	209
238	255	193	217
239	255	198	219
240	255	190	214
241	253	184	212
242	251	180	212
243	247	174	208
244	250	178	211
245	249	180	211
246	253	191	215
247	0	0	0
248	0	0	0
249	0	0	0
250	0	0	0
251	0	0	0
252	0	0	0
253	0	0	0
254	0	0	0
255	0	0	0
256	0	0	0
257	0	0	0
258	0	0	0
259	0	0	0
260	0	0	0
261	0	0	0
262	0	0	0
263	0	0	0
264	0	0	0
265	0	0	0
266	255	207	219
267	249	190	211
268	251	187	215
269	255	195	223
270	255	189	214
271	251	181	208
272	255	183	214
273	253	179	214
274	250	176	212
275	252	180	215
276	249	179	211
277	252	189	214
278	0	0	0
279	0	0	0
280	0	0	0
281	0	0	0
282	0	0	0
283	0	0	0
284	0	0	0
285	0	0	0
286	0	0	0
287	0	0	0
288	0	0	0
289	0	0	0
290	0	0	0
291	0	0	0
292	0	0	0
293	0	0	0
294	0	0	0
295	0	0	0
296	255	208	221
297	253	197	216
298	255	195	218
299	255	190	219
300	255	188	218
301	253	181	211
302	255	182	213
303	255	184	218
304	255	182	219
305	254	178	216
306	254	181	217
307	250	179	211
308	255	195	218
309	0	0	0
310	0	0	0
311	0	0	0
312	0	0	0
313	0	0	0
314	0	0	0
315	0	0	0
316	0	0	0
317	0	0	0
318	0	0	0
319	0	0	0
320	0	0	0
321	0	0	0
322	0	0	0
323	0	0	0
324	0	0	0
325	0	0	0
326	0	0	0
327	255	201	219
328	249	186	212
329	252	184	214
330	254	183	215
331	254	180	214
332	251	174	209
333	253	175	211
334	255	176	214
335	253	174	214
336	250	171	212
337	250	174	213
338	250	178	212
339	255	194	218
340	0	0	0
341	0	0	0
342	0	0	0
343	0	0	0
344	0	0	0
345	0	0	0
346	0	0	0
347	0	0	0
348	0	0	0
349	0	0	0
350	0	0	0
351	0	0	0
352	0	0	0
353	0	0	0
354	0	0	0
355	0	0	0
356	255	212	219
357	0	0	0
358	250	188	211
359	244	173	207
360	251	178	213
361	253	176	212
362	251	172	209
363	248	166	208
364	251	168	210
365	250	167	209
366	249	167	208
367	246	164	208
368	251	174	214
369	251	179	215
370	253	189	217
371	0	0	0
372	0	0	0
373	0	0	0
374	0	0	0
375	0	0	0
376	0	0	0
377	0	0	0
378	0	0	0
379	0	0	0
380	0	0	0
381	0	0	0
382	251	225	224
383	0	0	0
384	255	225	223
385	0	0	0
386	251	206	213
387	247	194	207
388	255	206	220
389	255	192	215
390	247	175	209
391	254	178	215
392	250	169	208
393	248	165	206
394	254	171	214
395	255	173	215
396	249	163	207
397	247	162	206
398	254	173	213
399	255	183	219
400	249	176	213
401	250	185	214
402	0	0	0
403	0	0	0
404	0	0	0
405	0	0	0
406	0	0	0
407	0	0	0
408	0	0	0
409	0	0	0
410	0	0	0
411	0	0	0
412	253	231	221
413	245	216	217
414	247	217	221
415	252	218	223
416	248	204	216
417	242	189	208
418	252	198	216
419	255	209	225
420	253	188	212
421	244	169	203
422	246	166	204
423	242	158	200
424	249	165	207
425	255	171	213
426	251	165	210
427	244	156	204
428	255	171	214
429	255	180	217
430	254	178	212
431	245	171	206
432	252	188	212
433	0	0	0
434	0	0	0
435	0	0	0
436	0	0	0
437	0	0	0
438	0	0	0
439	0	0	0
440	0	0	0
441	0	0	0
442	255	239	222
443	248	225	215
444	250	222	220
445	255	225	227
446	255	222	229
447	253	207	222
448	250	197	217
449	255	206	224
450	255	202	220
451	248	180	206
452	252	179	210
453	254	176	212
454	249	167	207
455	255	174	214
456	255	176	217
457	254	169	212
458	251	165	209
459	255	179	219
460	250	167	208
461	245	164	203
462	247	174	207
463	253	191	213
464	0	0	0
465	0	0	0
466	0	0	0
467	0	0	0
468	0	0	0
469	0	0	0
470	0	0	0
471	0	0	0
472	255	243	225
473	251	233	216
474	253	230	217
475	255	228	222
476	255	224	225
477	255	220	227
478	255	211	225
479	254	201	220
480	255	199	219
481	255	194	214
482	255	192	215
483	255	193	223
484	255	187	223
485	255	176	216
486	255	181	220
487	255	182	220
488	255	176	215
489	254	170	210
490	249	164	206
491	240	153	201
492	250	171	213
493	251	180	215
494	255	196	218
495	0	0	0
496	0	0	0
497	0	0	0
498	0	0	0
499	0	0	0
500	0	0	0
501	0	0	0
502	0	0	0
503	250	238	222
504	246	228	214
505	253	228	218
506	255	225	221
507	252	218	219
508	255	217	224
509	255	209	222
510	255	204	221
511	255	202	221
512	251	184	208
513	254	183	211
514	255	187	220
515	255	180	219
516	251	166	210
517	255	170	214
518	255	172	214
519	251	166	207
520	255	173	210
521	250	166	206
522	245	161	206
523	254	178	219
524	250	180	215
525	254	195	219
526	0	0	0
527	0	0	0
528	0	0	0
529	0	0	0
530	0	0	0
531	0	0	0
532	0	0	0
533	0	0	0
534	246	233	221
535	245	225	220
536	255	228	226
537	255	223	222
538	248	216	217
539	251	215	220
540	255	210	220
541	255	205	219
542	254	192	213
543	247	176	204
544	255	182	213
545	255	185	220
546	255	175	217
547	250	161	208
548	254	167	212
549	255	168	212
550	255	171	212
551	255	177	213
552	251	170	207
553	245	164	204
554	248	173	210
555	244	175	209
556	252	194	217
557	0	0	0
558	0	0	0
559	0	0	0
560	0	0	0
561	0	0	0
562	0	0	0
563	0	0	0
564	0	0	0
565	246	232	223
566	249	229	227
567	255	231	231
568	248	213	216
569	236	203	207
570	246	212	216
571	254	210	218
572	255	208	220
573	255	195	215
574	248	173	205
575	255	180	216
576	254	169	213
577	250	159	209
578	245	152	204
579	249	156	206
580	254	165	211
581	253	167	210
582	255	176	212
583	249	168	203
584	254	181	209
585	255	189	214
586	249	185	212
587	255	206	222
588	0	0	0
589	0	0	0
590	0	0	0
591	0	0	0
592	0	0	0
593	0	0	0
594	0	0	0
595	0	0	0
596	249	234	227
597	251	231	229
598	254	222	225
599	243	205	210
600	242	208	211
601	252	218	221
602	255	214	221
603	255	211	222
604	255	189	211
605	246	167	203
606	248	162	207
607	245	152	206
608	246	150	207
609	241	142	199
610	250	155	206
611	254	163	210
612	255	173	214
613	255	181	216
614	255	191	217
615	255	201	217
616	255	197	211
617	252	194	211
618	255	208	219
619	0	0	0
620	0	0	0
621	0	0	0
622	0	0	0
623	0	0	0
624	0	0	0
625	0	0	0
626	250	233	225
627	242	223	221
628	247	224	225
629	250	216	221
630	250	209	215
631	255	216	220
632	255	210	218
633	255	203	216
634	255	200	217
635	250	178	206
636	249	168	207
637	250	163	210
638	248	154	210
639	249	152	211
640	247	148	205
641	255	161	212
642	249	155	207
643	253	164	211
644	251	166	209
645	252	174	208
646	254	185	205
647	245	180	197
648	251	195	209
649	255	209	218
650	0	0	0
651	0	0	0
652	0	0	0
653	0	0	0
654	0	0	0
655	0	0	0
656	251	234	227
657	246	222	220
658	243	219	220
659	248	220	223
660	254	219	225
661	254	212	220
662	250	205	214
663	249	198	211
664	249	191	210
665	254	189	216
666	249	175	210
667	246	164	206
668	245	156	206
669	242	147	204
670	246	149	208
671	244	146	203
672	244	146	203
673	239	141	202
674	244	150	208
675	241	151	205
676	244	164	207
677	246	174	205
678	248	185	207
679	252	199	215
680	253	210	218
681	0	0	0
682	0	0	0
683	0	0	0
684	0	0	0
685	0	0	0
686	0	0	0
687	255	239	231
688	252	226	225
689	253	225	225
690	255	225	226
691	255	221	226
692	249	203	216
693	242	194	210
694	245	194	212
695	248	189	211
696	255	200	223
697	255	185	217
698	252	175	213
699	251	167	211
700	255	168	214
701	255	170	217
702	254	162	210
703	254	163	212
704	249	156	212
705	254	165	220
706	248	163	215
707	252	175	217
708	0	0	0
709	0	0	0
710	255	209	219
711	0	0	0
712	0	0	0
713	0	0	0
714	0	0	0
715	0	0	0
716	0	0	0
717	0	0	0
718	255	236	225
719	252	225	223
720	255	225	225
721	255	222	220
722	250	207	213
723	242	192	211
724	245	195	218
725	248	196	220
726	255	204	224
727	255	211	226
728	255	196	216
729	255	187	218
730	255	191	224
731	255	189	221
732	255	184	217
733	255	177	213
734	255	172	213
735	253	164	212
736	253	169	216
737	249	168	214
738	254	183	219
739	0	0	0
740	0	0	0
741	0	0	0
742	0	0	0
743	0	0	0
744	0	0	0
745	0	0	0
746	0	0	0
747	0	0	0
748	0	0	0
749	249	231	219
750	249	224	220
751	252	224	222
752	249	215	215
753	244	201	209
754	247	198	216
755	254	204	226
756	246	189	218
757	255	194	220
758	255	196	215
759	251	180	204
760	255	182	213
761	255	185	218
762	250	165	203
763	248	160	200
764	252	164	203
765	248	159	202
766	247	161	205
767	248	165	209
768	252	178	216
769	0	0	0
770	0	0	0
771	0	0	0
772	0	0	0
773	0	0	0
774	0	0	0
775	0	0	0
776	0	0	0
777	0	0	0
778	0	0	0
779	0	0	0
780	252	234	225
781	251	226	221
782	249	219	218
783	249	213	218
784	251	208	219
785	252	203	219
786	248	192	216
787	241	178	210
788	250	185	217
789	255	188	216
790	253	182	210
791	255	180	211
792	247	164	203
793	238	147	198
794	246	156	207
795	248	159	206
796	249	162	207
797	247	162	208
798	254	178	216
799	0	0	0
800	0	0	0
801	0	0	0
802	0	0	0
803	0	0	0
804	0	0	0
805	0	0	0
806	0	0	0
807	0	0	0
808	0	0	0
809	0	0	0
810	253	235	227
811	249	226	222
812	252	224	221
813	251	217	218
814	254	215	222
815	255	211	222
816	255	203	218
817	249	191	213
818	246	181	214
819	255	189	222
820	254	184	218
821	251	177	211
822	255	182	214
823	249	166	207
824	247	160	211
825	255	168	220
826	250	163	212
827	249	164	210
828	250	170	212
829	255	185	217
830	0	0	0
831	0	0	0
832	0	0	0
833	0	0	0
834	0	0	0
835	0	0	0
836	0	0	0
837	0	0	0
838	0	0	0
839	0	0	0
840	250	234	224
841	248	225	223
842	252	226	227
843	253	224	225
844	250	217	220
845	252	213	219
846	253	206	216
847	252	199	214
848	248	189	212
849	245	180	213
850	249	180	216
851	247	174	211
852	250	177	213
853	255	183	218
854	252	174	215
855	249	166	215
856	251	167	217
857	246	162	211
858	250	171	213
859	250	175	211
860	252	184	211
861	0	0	0
862	0	0	0
863	0	0	0
864	0	0	0
865	0	0	0
866	0	0	0
867	0	0	0
868	0	0	0
869	0	0	0
870	0	0	0
871	249	233	223
872	249	227	227
873	255	231	234
874	246	213	220
875	235	201	210
876	247	214	218
877	252	209	217
878	253	202	215
879	250	192	212
880	252	191	219
881	254	190	221
882	251	184	217
883	255	187	220
884	255	184	218
885	248	173	212
886	249	173	215
887	251	174	217
888	252	175	216
889	255	185	220
890	251	182	213
891	253	191	214
892	0	0	0
893	0	0	0
894	0	0	0
895	0	0	0
896	0	0	0
897	0	0	0
898	0	0	0
899	0	0	0
900	0	0	0
901	0	0	0
902	251	235	223
903	252	230	229
904	252	220	228
905	240	202	215
906	239	207	216
907	249	219	225
908	251	211	220
909	252	204	215
910	255	204	218
911	255	201	220
912	255	197	221
913	255	192	221
914	255	189	221
915	254	184	215
916	254	184	214
917	255	183	217
918	255	188	222
919	255	190	221
920	255	191	221
921	254	190	218
922	255	201	222
923	0	0	0
924	0	0	0
925	0	0	0
926	0	0	0
927	0	0	0
928	0	0	0
929	0	0	0
930	0	0	0
931	0	0	0
932	252	236	216
933	247	226	215
934	253	228	227
935	253	218	226
936	248	211	220
937	249	217	223
938	251	220	224
939	247	209	216
940	253	209	217
941	255	211	221
942	248	188	210
943	245	183	210
944	253	192	220
945	254	189	219
946	251	183	212
947	253	183	212
948	250	178	210
949	252	182	213
950	255	189	215
951	254	190	216
952	251	191	215
953	255	202	219
954	255	212	220
955	0	0	0
956	0	0	0
957	0	0	0
958	0	0	0
959	0	0	0
960	0	0	0
961	0	0	0
962	253	239	217
963	246	226	209
964	247	224	211
965	251	225	221
966	254	223	224
967	250	216	217
968	249	217	216
969	250	219	218
970	250	215	216
971	255	217	220
972	251	199	212
973	240	177	204
974	246	186	213
975	252	193	219
976	252	189	217
977	251	183	213
978	251	182	212
979	248	176	207
980	254	186	213
981	255	192	215
982	255	194	214
983	251	193	210
984	255	207	216
985	0	0	0
986	0	0	0
987	0	0	0
988	0	0	0
989	0	0	0
990	0	0	0
991	0	0	0
992	0	0	0
993	0	0	0
994	248	230	215
995	249	228	217
996	245	219	217
997	244	214	216
998	249	220	219
999	254	224	220
1000	247	212	211
1001	246	208	209
1002	255	217	219
1003	251	198	211
1004	247	189	211
1005	253	198	220
1006	255	199	221
1007	255	195	219
1008	249	181	212
1009	248	179	210
1010	254	187	213
1011	255	196	218
1012	250	186	209
1013	248	187	207
1014	253	199	211
1015	255	212	216
1016	0	0	0
1017	0	0	0
1018	0	0	0
1019	0	0	0
1020	0	0	0
1021	0	0	0
1022	0	0	0
1023	0	0	0
1024	0	0	0
1025	0	0	0
1026	248	226	222
1027	244	216	220
1028	250	224	227
1029	255	230	230
1030	249	218	220
1031	244	207	211
1032	253	214	216
1033	255	222	223
1034	255	211	218
1035	255	201	216
1036	255	203	220
1037	255	205	223
1038	254	192	216
1039	247	179	209
1040	254	189	215
1041	255	196	217
1042	253	190	211
1043	244	179	204
1044	252	195	213
1045	255	207	216
1046	0	0	0
1047	0	0	0
1048	0	0	0
1049	0	0	0
1050	0	0	0
1051	0	0	0
1052	0	0	0
1053	0	0	0
1054	0	0	0
1055	0	0	0
1056	0	0	0
1057	251	230	228
1058	245	215	221
1059	253	224	229
1060	253	224	227
1061	240	208	214
1062	246	211	215
1063	255	222	224
1064	251	202	211
1065	241	187	202
1066	253	201	215
1067	255	204	220
1068	253	194	214
1069	245	181	207
1070	250	186	211
1071	255	197	219
1072	255	193	214
1073	250	186	208
1074	246	183	207
1075	254	199	216
1076	0	0	0
1077	0	0	0
1078	0	0	0
1079	0	0	0
1080	0	0	0
1081	0	0	0
1082	0	0	0
1083	0	0	0
1084	0	0	0
1085	0	0	0
1086	0	0	0
1087	0	0	0
1088	250	227	225
1089	244	212	217
1090	250	216	221
1091	250	216	221
1092	246	213	217
1093	251	217	219
1094	249	202	212
1095	239	182	202
1096	245	192	211
1097	255	206	222
1098	252	195	215
1099	246	183	208
1100	250	189	212
1101	254	193	214
1102	254	192	214
1103	252	190	214
1104	253	192	216
1105	248	188	212
1106	255	203	219
1107	0	0	0
1108	0	0	0
1109	0	0	0
1110	0	0	0
1111	0	0	0
1112	0	0	0
1113	0	0	0
1114	0	0	0
1115	0	0	0
1116	0	0	0
1117	0	0	0
1118	252	232	224
1119	247	219	220
1120	249	218	220
1121	255	222	224
1122	252	215	220
1123	252	214	219
1124	255	215	221
1125	248	197	211
1126	247	192	211
1127	255	205	222
1128	255	211	226
1129	255	199	217
1130	250	190	212
1131	254	195	216
1132	255	199	216
1133	255	197	216
1134	254	194	217
1135	255	196	219
1136	248	191	212
1137	254	205	218
1138	0	0	0
1139	0	0	0
1140	0	0	0
1141	0	0	0
1142	0	0	0
1143	0	0	0
1144	0	0	0
1145	0	0	0
1146	0	0	0
1147	0	0	0
1148	253	235	221
1149	248	224	221
1150	251	224	225
1151	253	223	223
1152	252	217	219
1153	249	209	215
1154	251	209	218
1155	255	212	222
1156	255	208	221
1157	253	201	217
1158	255	208	221
1159	255	213	223
1160	255	205	218
1161	255	198	217
1162	255	203	222
1163	255	206	221
1164	255	202	218
1165	255	198	216
1166	254	198	217
1167	247	192	209
1168	252	205	215
1169	0	0	0
1170	0	0	0
1171	0	0	0
1172	0	0	0
1173	0	0	0
1174	0	0	0
1175	0	0	0
1176	0	0	0
1177	0	0	0
1178	0	0	0
1179	0	0	0
1180	246	225	222
1181	253	227	227
1182	255	226	224
1183	252	219	219
1184	252	215	218
1185	255	216	221
1186	255	213	222
1187	255	209	221
1188	251	200	214
1189	255	206	217
1190	254	204	215
1191	251	196	211
1192	253	196	215
1193	255	201	220
1194	255	199	216
1195	253	195	213
1196	250	191	212
1197	248	192	211
1198	247	195	209
1199	251	207	214
1200	0	0	0
1201	0	0	0
1202	0	0	0
1203	0	0	0
1204	0	0	0
1205	0	0	0
1206	0	0	0
1207	0	0	0
1208	0	0	0
1209	0	0	0
1210	0	0	0
1211	0	0	0
1212	0	0	0
1213	0	0	0
1214	255	226	221
1215	255	222	220
1216	254	217	218
1217	254	213	217
1218	252	206	213
1219	248	198	210
1220	249	198	212
1221	249	196	212
1222	252	197	214
1223	252	196	214
1224	249	193	212
1225	248	191	210
1226	245	187	209
1227	243	184	210
1228	248	194	215
1229	246	196	209
1230	252	212	214
1231	0	0	0
1232	0	0	0
1233	0	0	0
1234	0	0	0
1235	0	0	0
1236	0	0	0
1237	0	0	0
1238	0	0	0
1239	0	0	0
1240	0	0	0
1241	0	0	0
1242	0	0	0
1243	0	0	0
1244	253	220	219
1245	250	215	214
1246	250	213	214
1247	247	207	211
1248	252	211	214
1249	250	204	211
1250	255	208	216
1251	255	209	220
1252	252	198	215
1253	253	198	216
1254	251	197	214
1255	246	193	209
1256	254	206	217
1257	253	203	217
1258	251	199	218
1259	255	209	223
1260	250	206	214
1261	255	221	218
1262	0	0	0
1263	0	0	0
1264	0	0	0
1265	0	0	0
1266	0	0	0
1267	0	0	0
1268	0	0	0
1269	0	0	0
1270	0	0	0
1271	0	0	0
1272	0	0	0
1273	0	0	0
1274	251	219	222
1275	246	209	214
1276	246	207	213
1277	246	206	215
1278	249	209	218
1279	253	213	219
1280	255	216	220
1281	255	218	222
1282	255	208	216
1283	250	197	213
1284	253	200	217
1285	251	199	214
1286	255	209	218
1287	255	221	224
1288	255	217	221
1289	255	212	220
1290	255	215	222
1291	252	214	217
1292	255	227	221
1293	0	0	0
1294	0	0	0
1295	0	0	0
1296	0	0	0
1297	0	0	0
1298	0	0	0
1299	0	0	0
1300	0	0	0
1301	0	0	0
1302	0	0	0
1303	0	0	0
1304	0	0	0
1305	0	0	0
1306	250	217	220
1307	252	216	221
1308	255	221	225
1309	255	223	227
1310	255	215	220
1311	255	217	221
1312	255	209	215
1313	247	198	208
1314	248	198	212
1315	253	202	216
1316	252	203	214
1317	255	212	218
1318	254	212	214
1319	252	208	211
1320	251	209	214
1321	252	212	215
1322	255	225	222
1323	0	0	0
1324	0	0	0
1325	0	0	0
1326	0	0	0
1327	0	0	0
1328	0	0	0
1329	0	0	0
1330	0	0	0
1331	0	0	0
1332	0	0	0
1333	0	0	0
1334	0	0	0
1335	0	0	0
1336	0	0	0
1337	0	0	0
1338	0	0	0
1339	0	0	0
1340	254	219	215
1341	250	211	212
1342	249	206	211
1343	246	200	210
1344	250	202	214
1345	250	202	214
1346	255	208	218
1347	255	208	217
1348	252	208	214
1349	251	208	211
1350	253	211	213
1351	253	212	216
1352	255	226	224
1353	0	0	0
1354	0	0	0
1355	0	0	0
1356	0	0	0
1357	0	0	0
1358	0	0	0
1359	0	0	0
1360	0	0	0
1361	0	0	0
1362	0	0	0
1363	0	0	0
1364	0	0	0
1365	0	0	0
1366	0	0	0
1367	0	0	0
1368	0	0	0
1369	0	0	0
1370	254	222	215
1371	244	209	205
1372	252	219	215
1373	252	214	216
1374	252	210	217
1375	255	214	223
1376	247	197	211
1377	251	202	215
1378	254	207	216
1379	253	208	215
1380	251	207	212
1381	251	208	212
1382	250	210	213
1383	255	223	220
1384	0	0	0
1385	0	0	0
1386	0	0	0
1387	0	0	0
1388	0	0	0
1389	0	0	0
1390	0	0	0
1391	0	0	0
1392	0	0	0
1393	0	0	0
1394	0	0	0
1395	0	0	0
1396	0	0	0
1397	0	0	0
1398	0	0	0
1399	0	0	0
1400	0	0	0
1401	0	0	0
1402	253	222	217
1403	255	232	227
1404	255	225	224
1405	255	219	223
1406	253	208	218
1407	243	192	209
1408	249	200	215
1409	252	205	218
1410	251	205	217
1411	249	204	213
1412	249	207	212
1413	246	206	207
1414	254	222	214
1415	0	0	0
1416	0	0	0
1417	0	0	0
1418	0	0	0
1419	0	0	0
1420	0	0	0
1421	0	0	0
1422	0	0	0
1423	0	0	0
1424	0	0	0
1425	0	0	0
1426	0	0	0
1427	0	0	0
1428	0	0	0
1429	0	0	0
1430	0	0	0
1431	0	0	0
1432	255	224	221
1433	255	231	225
1434	255	227	224
1435	255	218	220
1436	253	212	218
1437	247	200	213
1438	247	199	214
1439	254	208	221
1440	253	208	221
1441	252	208	219
1442	255	215	221
1443	255	218	219
1444	251	215	213
1445	0	0	0
1446	0	0	0
1447	0	0	0
1448	0	0	0
1449	0	0	0
1450	0	0	0
1451	0	0	0
1452	0	0	0
1453	0	0	0
1454	0	0	0
1455	0	0	0
1456	0	0	0
1457	0	0	0
1458	0	0	0
1459	0	0	0
1460	0	0	0
1461	0	0	0
1462	0	0	0
1463	0	0	0
1464	255	224	222
1465	254	219	218
1466	250	212	214
1467	249	207	215
1468	251	208	219
1469	252	206	219
1470	255	211	222
1471	254	211	220
1472	255	220	224
1473	0	0	0
1474	0	0	0
1475	0	0	0
1476	0	0	0
1477	0	0	0
1478	0	0	0
1479	0	0	0
1480	0	0	0
1481	0	0	0
1482	0	0	0
1483	0	0	0
1484	0	0	0
1485	0	0	0
1486	0	0	0
1487	0	0	0
1488	0	0	0
1489	0	0	0
1490	0	0	0
1491	0	0	0
1492	0	0	0
1493	0	0	0
1494	0	0	0
1495	255	227	224
1496	253	217	216
1497	248	210	213
1498	252	213	219
1499	255	214	222
1500	255	212	221
1501	255	216	223
1502	250	206	215
1503	255	215	219
1504	0	0	0
1505	0	0	0
1506	0	0	0
1507	0	0	0
1508	0	0	0
1509	0	0	0
1510	0	0	0
1511	0	0	0
1512	0	0	0
1513	0	0	0
1514	0	0	0
1515	0	0	0
1516	0	0	0
1517	0	0	0
1518	0	0	0
1519	0	0	0
1520	0	0	0
1521	0	0	0
1522	0	0	0
1523	0	0	0
1524	0	0	0
1525	0	0	0
1526	255	226	223
1527	252	217	216
1528	255	219	219
1529	255	221	223
1530	255	221	223
1531	255	218	220
1532	253	211	215
1533	246	202	210
1534	251	210	215
1535	0	0	0
1536	0	0	0
1537	0	0	0
1538	0	0	0
1539	0	0	0
1540	0	0	0
1541	0	0	0
1542	0	0	0
1543	0	0	0
1544	0	0	0
1545	0	0	0
1546	0	0	0
1547	0	0	0
1548	0	0	0
1549	0	0	0
1550	0	0	0
1551	0	0	0
1552	0	0	0
1553	0	0	0
1554	0	0	0
1555	0	0	0
1556	0	0	0
1557	255	225	221
1558	252	216	216
1559	255	219	219
1560	254	215	216
1561	254	213	216
1562	254	213	216
1563	249	206	212
1564	252	211	215
1565	0	0	0
1566	0	0	0
1567	0	0	0
1568	0	0	0
1569	0	0	0
1570	0	0	0
1571	0	0	0
1572	0	0	0
1573	0	0	0
1574	0	0	0
1575	0	0	0
1576	0	0	0
1577	0	0	0
1578	0	0	0
1579	0	0	0
1580	0	0	0
1581	0	0	0
1582	0	0	0
1583	0	0	0
1584	0	0	0
1585	0	0	0
1586	0	0	0
1587	0	0	0
1588	254	223	218
1589	250	214	213
1590	251	213	214
1591	249	208	210
1592	251	210	213
1593	252	210	218
1594	255	218	223
1595	0	0	0
1596	0	0	0
1597	0	0	0
1598	0	0	0
1599	0	0	0
1600	0	0	0
1601	0	0	0
1602	0	0	0
1603	0	0	0
1604	0	0	0
1605	0	0	0
1606	0	0	0
1607	0	0	0
1608	0	0	0
1609	0	0	0
1610	0	0	0
1611	0	0	0
1612	0	0	0
1613	0	0	0
1614	0	0	0
1615	0	0	0
1616	0	0	0
1617	0	0	0
1618	0	0	0
1619	249	217	213
1620	255	224	219
1621	255	222	219
1622	251	212	212
1623	253	214	215
1624	255	216	223
1625	255	223	228
1626	250	211	214
1627	0	0	0
1628	0	0	0
1629	0	0	0
1630	0	0	0
1631	0	0	0
1632	0	0	0
1633	0	0	0
1634	0	0	0
1635	0	0	0
1636	0	0	0
1637	0	0	0
1638	0	0	0
1639	0	0	0
1640	0	0	0
1641	0	0	0
1642	0	0	0
1643	0	0	0
1644	0	0	0
1645	0	0	0
1646	0	0	0
1647	0	0	0
1648	0	0	0
1649	0	0	0
1650	0	0	0
1651	255	235	225
1652	255	225	218
1653	252	215	214
1654	255	218	218
1655	255	219	222
1656	251	213	218
1657	242	202	210
1658	251	217	217
1659	0	0	0
1660	0	0	0
1661	0	0	0
1662	0	0	0
1663	0	0	0
1664	0	0	0
1665	0	0	0
1666	0	0	0
1667	0	0	0
1668	0	0	0
1669	0	0	0
1670	0	0	0
1671	0	0	0
1672	0	0	0
1673	0	0	0
1674	0	0	0
1675	0	0	0
1676	0	0	0
1677	0	0	0
1678	0	0	0
1679	0	0	0
1680	0	0	0
1681	0	0	0
1682	0	0	0
1683	244	209	207
1684	253	220	217
1685	255	223	222
1686	254	217	219
1687	248	211	216
1688	248	213	218
1689	0	0	0
1690	0	0	0
1691	0	0	0
1692	0	0	0
1693	0	0	0
1694	0	0	0
1695	0	0	0
1696	0	0	0
1697	0	0	0
1698	0	0	0
1699	0	0	0
1700	0	0	0
1701	0	0	0
1702	0	0	0
1703	0	0	0
1704	0	0	0
1705	0	0	0
1706	0	0	0
1707	0	0	0
1708	0	0	0
1709	0	0	0
1710	0	0	0
1711	0	0	0
1712	250	216	213
1713	245	209	209
1714	250	218	216
1715	255	229	226
1716	255	224	223
1717	253	218	219
1718	255	223	224
1719	255	225	228
1720	255	233	231
1721	0	0	0
1722	0	0	0
1723	0	0	0
1724	0	0	0
1725	0	0	0
1726	0	0	0
1727	0	0	0
1728	0	0	0
1729	0	0	0
1730	0	0	0
1731	0	0	0
1732	0	0	0
1733	0	0	0
1734	0	0	0
1735	0	0	0
1736	0	0	0
1737	0	0	0
1738	0	0	0
1739	0	0	0
1740	0	0	0
1741	0	0	0
1742	254	226	219
1743	253	222	217
1744	250	217	215
1745	255	227	223
1746	255	229	226
1747	255	223	223
1748	252	216	218
1749	255	222	222
1750	250	218	221
1751	252	225	224
1752	0	0	0
1753	0	0	0
1754	0	0	0
1755	0	0	0
1756	0	0	0
1757	0	0	0
1758	0	0	0
1759	0	0	0
1760	0	0	0
1761	0	0	0
1762	0	0	0
1763	0	0	0
1764	0	0	0
1765	0	0	0
1766	0	0	0
1767	0	0	0
1768	0	0	0
1769	0	0	0
1770	0	0	0
1771	0	0	0
1772	255	236	228
1773	255	231	222
1774	255	228	220
1775	255	224	218
1776	255	227	222
1777	255	228	225
1778	255	223	223
1779	252	217	217
1780	249	215	215
1781	243	210	212
1782	250	224	219
1783	0	0	0
1784	0	0	0
1785	0	0	0
1786	0	0	0
1787	0	0	0
1788	0	0	0
1789	0	0	0
1790	0	0	0
1791	0	0	0
1792	0	0	0
1793	0	0	0
1794	0	0	0
1795	0	0	0
1796	0	0	0
1797	0	0	0
1798	0	0	0
1799	0	0	0
1800	0	0	0
1801	0	0	0
1802	0	0	0
1803	255	235	227
1804	254	227	219
1805	254	224	217
1806	254	222	216
1807	255	225	219
1808	255	223	220
1809	253	219	218
1810	249	214	214
1811	246	212	212
1812	252	224	219
1813	0	0	0
1814	0	0	0
1815	0	0	0
1816	0	0	0
1817	0	0	0
1818	0	0	0
1819	0	0	0
1820	0	0	0
1821	0	0	0
1822	0	0	0
1823	0	0	0
1824	0	0	0
1825	0	0	0
1826	0	0	0
1827	0	0	0
1828	0	0	0
1829	0	0	0
1830	0	0	0
1831	0	0	0
1832	0	0	0
1833	0	0	0
1834	252	230	220
1835	249	222	216
1836	251	222	216
1837	251	220	215
1838	252	219	214
1839	251	216	214
1840	251	216	215
1841	247	211	212
1842	255	226	221
1843	0	0	0
1844	0	0	0
1845	0	0	0
1846	0	0	0
1847	0	0	0
1848	0	0	0
1849	0	0	0
1850	0	0	0
1851	0	0	0
1852	0	0	0
1853	0	0	0
1854	0	0	0
1855	0	0	0
1856	0	0	0
1857	0	0	0
1858	0	0	0
1859	0	0	0
1860	0	0	0
1861	0	0	0
1862	0	0	0
1863	0	0	0
1864	0	0	0
1865	0	0	0
1866	249	226	218
1867	0	0	0
1868	0	0	0
1869	0	0	0
1870	251	218	215
1871	251	217	216
1872	246	213	214
1873	253	227	222
1874	0	0	0
1875	0	0	0
1876	0	0	0
1877	0	0	0
1878	0	0	0
1879	0	0	0
1880	0	0	0
1881	0	0	0
1882	0	0	0
1883	0	0	0
1884	0	0	0
1885	0	0	0
1886	0	0	0
1887	0	0	0
1888	0	0	0
1889	0	0	0
1890	0	0	0
1891	0	0	0
1892	0	0	0
1893	0	0	0
1894	0	0	0
1895	0	0	0
1896	0	0	0
1897	0	0	0
1898	0	0	0
1899	0	0	0
1900	253	224	217
1901	250	217	214
1902	250	217	216
1903	244	213	215
1904	248	224	221
1905	0	0	0
1906	0	0	0
1907	0	0	0
1908	0	0	0
1909	0	0	0
1910	0	0	0
1911	0	0	0
1912	0	0	0
1913	0	0	0
1914	0	0	0
1915	0	0	0
1916	0	0	0
1917	0	0	0
1918	0	0	0
1919	0	0	0
1920	0	0	0
1921	0	0	0
1922	0	0	0
1923	0	0	0
1924	0	0	0
1925	0	0	0
1926	0	0	0
1927	0	0	0
1928	0	0	0
1929	0	0	0
1930	0	0	0
1931	250	220	215
1932	254	225	220
1933	254	226	221
1934	249	223	220
1935	0	0	0
1936	0	0	0
1937	0	0	0
1938	0	0	0
1939	0	0	0
1940	0	0	0
1941	0	0	0
1942	0	0	0
1943	0	0	0
1944	0	0	0
1945	0	0	0
1946	0	0	0
1947	0	0	0
1948	0	0	0
1949	0	0	0
1950	0	0	0
1951	0	0	0
1952	0	0	0
1953	0	0	0
1954	0	0	0
1955	0	0	0
1956	0	0	0
1957	0	0	0
1958	0	0	0
1959	0	0	0
1960	0	0	0
1961	0	0	0
1962	0	0	0
1963	255	237	229
1964	255	237	228
1965	0	0	0
1966	0	0	0
1967	0	0	0
1968	0	0	0
1969	0	0	0
1970	0	0	0
1971	0	0	0
1972	0	0	0
1973	0	0	0
1974	0	0	0
1975	0	0	0
1976	0	0	0
1977	0	0	0
1978	0	0	0
1979	0	0	0
1980	0	0	0
1981	0	0	0
1982	0	0	0
1983	0	0	0
1984	0	0	0
