 	R	G	B
1	0	0	0
2	0	0	0
3	0	0	0
4	0	0	0
5	0	0	0
6	0	0	0
7	0	0	0
8	0	0	0
9	0	0	0
10	0	0	0
11	0	0	0
12	0	0	0
13	0	0	0
14	0	0	0
15	0	0	0
16	0	0	0
17	0	0	0
18	0	0	0
19	0	0	0
20	0	0	0
21	0	0	0
22	0	0	0
23	0	0	0
24	0	0	0
25	0	0	0
26	0	0	0
27	0	0	0
28	255	231	232
29	255	229	231
30	0	0	0
31	0	0	0
32	0	0	0
33	0	0	0
34	0	0	0
35	0	0	0
36	0	0	0
37	0	0	0
38	0	0	0
39	0	0	0
40	0	0	0
41	0	0	0
42	0	0	0
43	0	0	0
44	0	0	0
45	0	0	0
46	0	0	0
47	0	0	0
48	0	0	0
49	0	0	0
50	0	0	0
51	0	0	0
52	0	0	0
53	0	0	0
54	0	0	0
55	0	0	0
56	0	0	0
57	0	0	0
58	0	0	0
59	0	0	0
60	0	0	0
61	0	0	0
62	0	0	0
63	0	0	0
64	0	0	0
65	0	0	0
66	0	0	0
67	0	0	0
68	0	0	0
69	250	214	218
70	0	0	0
71	0	0	0
72	0	0	0
73	0	0	0
74	0	0	0
75	0	0	0
76	0	0	0
77	0	0	0
78	0	0	0
79	0	0	0
80	0	0	0
81	249	209	220
82	253	215	224
83	255	223	226
84	255	222	223
85	255	223	225
86	254	220	224
87	255	223	225
88	247	216	220
89	0	0	0
90	0	0	0
91	0	0	0
92	0	0	0
93	0	0	0
94	0	0	0
95	0	0	0
96	0	0	0
97	0	0	0
98	0	0	0
99	0	0	0
100	0	0	0
101	0	0	0
102	0	0	0
103	0	0	0
104	0	0	0
105	0	0	0
106	0	0	0
107	0	0	0
108	0	0	0
109	0	0	0
110	0	0	0
111	0	0	0
112	0	0	0
113	0	0	0
114	0	0	0
115	0	0	0
116	0	0	0
117	0	0	0
118	0	0	0
119	0	0	0
120	0	0	0
121	0	0	0
122	0	0	0
123	0	0	0
124	0	0	0
125	0	0	0
126	255	221	226
127	244	201	214
128	255	217	222
129	0	0	0
130	0	0	0
131	0	0	0
132	0	0	0
133	0	0	0
134	0	0	0
135	0	0	0
136	0	0	0
137	0	0	0
138	255	218	224
139	243	198	215
140	251	208	221
141	254	215	221
142	252	213	218
143	252	214	220
144	254	219	223
145	255	222	224
146	255	229	227
147	0	0	0
148	0	0	0
149	0	0	0
150	0	0	0
151	0	0	0
152	0	0	0
153	0	0	0
154	0	0	0
155	0	0	0
156	0	0	0
157	0	0	0
158	0	0	0
159	0	0	0
160	0	0	0
161	0	0	0
162	0	0	0
163	0	0	0
164	0	0	0
165	0	0	0
166	0	0	0
167	0	0	0
168	0	0	0
169	0	0	0
170	0	0	0
171	0	0	0
172	0	0	0
173	0	0	0
174	0	0	0
175	0	0	0
176	0	0	0
177	0	0	0
178	0	0	0
179	0	0	0
180	0	0	0
181	246	204	218
182	255	216	227
183	255	226	231
184	249	207	217
185	248	204	218
186	255	220	227
187	255	224	222
188	255	217	215
189	249	205	211
190	247	202	212
191	0	0	0
192	0	0	0
193	251	208	215
194	255	218	222
195	255	221	226
196	247	201	215
197	248	201	219
198	255	211	226
199	255	220	226
200	255	218	221
201	252	212	218
202	253	216	220
203	255	221	222
204	255	229	225
205	255	232	226
206	255	231	224
207	255	227	221
208	0	0	0
209	0	0	0
210	0	0	0
211	0	0	0
212	0	0	0
213	0	0	0
214	0	0	0
215	0	0	0
216	0	0	0
217	0	0	0
218	0	0	0
219	0	0	0
220	0	0	0
221	0	0	0
222	0	0	0
223	0	0	0
224	0	0	0
225	0	0	0
226	0	0	0
227	0	0	0
228	0	0	0
229	0	0	0
230	0	0	0
231	0	0	0
232	0	0	0
233	0	0	0
234	0	0	0
235	0	0	0
236	0	0	0
237	0	0	0
238	252	209	220
239	240	191	212
240	248	202	220
241	254	212	221
242	251	206	215
243	250	204	215
244	255	211	219
245	255	215	218
246	250	202	209
247	242	191	205
248	254	207	219
249	255	222	229
250	255	211	221
251	248	199	212
252	250	201	214
253	252	204	216
254	252	204	219
255	253	204	223
256	255	217	231
257	255	226	231
258	255	217	221
259	253	211	217
260	255	216	219
261	255	220	219
262	254	221	218
263	255	225	221
264	252	220	218
265	250	217	217
266	255	224	223
267	0	0	0
268	0	0	0
269	0	0	0
270	0	0	0
271	0	0	0
272	0	0	0
273	0	0	0
274	0	0	0
275	0	0	0
276	0	0	0
277	0	0	0
278	0	0	0
279	0	0	0
280	0	0	0
281	0	0	0
282	0	0	0
283	0	0	0
284	0	0	0
285	0	0	0
286	0	0	0
287	0	0	0
288	0	0	0
289	0	0	0
290	0	0	0
291	0	0	0
292	0	0	0
293	0	0	0
294	0	0	0
295	255	217	222
296	249	203	217
297	245	196	217
298	251	206	223
299	255	217	225
300	255	213	219
301	253	206	214
302	255	213	219
303	255	213	218
304	252	201	211
305	250	197	211
306	255	213	225
307	255	209	222
308	250	198	214
309	253	202	216
310	254	203	217
311	255	211	223
312	255	211	225
313	250	196	218
314	255	208	226
315	253	204	218
316	246	196	208
317	255	212	218
318	255	217	219
319	255	218	216
320	252	218	215
321	255	228	225
322	255	224	224
323	252	217	219
324	255	223	225
325	253	221	224
326	254	225	226
327	0	0	0
328	0	0	0
329	0	0	0
330	0	0	0
331	0	0	0
332	0	0	0
333	0	0	0
334	0	0	0
335	0	0	0
336	0	0	0
337	0	0	0
338	0	0	0
339	0	0	0
340	0	0	0
341	0	0	0
342	0	0	0
343	0	0	0
344	0	0	0
345	0	0	0
346	0	0	0
347	0	0	0
348	0	0	0
349	0	0	0
350	0	0	0
351	249	207	216
352	250	207	218
353	253	209	220
354	252	205	220
355	247	198	217
356	255	212	226
357	255	224	231
358	255	216	223
359	255	207	215
360	255	210	217
361	255	211	219
362	255	206	216
363	255	202	214
364	254	199	214
365	252	196	215
366	255	201	220
367	255	204	221
368	255	209	222
369	255	216	225
370	252	198	215
371	242	183	209
372	243	185	212
373	239	182	204
374	251	199	214
375	255	216	223
376	255	219	222
377	255	219	216
378	255	223	218
379	255	233	231
380	255	224	227
381	253	217	222
382	250	215	221
383	247	211	217
384	250	218	220
385	249	221	219
386	0	0	0
387	0	0	0
388	0	0	0
389	0	0	0
390	0	0	0
391	0	0	0
392	0	0	0
393	0	0	0
394	0	0	0
395	0	0	0
396	0	0	0
397	0	0	0
398	0	0	0
399	0	0	0
400	0	0	0
401	0	0	0
402	0	0	0
403	0	0	0
404	0	0	0
405	0	0	0
406	0	0	0
407	0	0	0
408	251	211	217
409	255	216	223
410	255	216	224
411	255	216	224
412	255	212	223
413	248	198	216
414	255	213	226
415	255	215	226
416	255	207	219
417	251	197	211
418	255	199	214
419	251	193	211
420	249	189	209
421	255	199	215
422	254	196	215
423	253	193	217
424	255	198	222
425	254	197	218
426	255	200	217
427	255	204	217
428	245	187	205
429	255	201	219
430	255	203	223
431	251	196	215
432	255	214	226
433	255	207	219
434	255	208	216
435	250	205	208
436	251	209	210
437	255	226	226
438	254	216	221
439	255	220	223
440	254	218	222
441	255	222	225
442	255	228	227
443	253	226	222
444	0	0	0
445	0	0	0
446	0	0	0
447	0	0	0
448	0	0	0
449	0	0	0
450	0	0	0
451	0	0	0
452	0	0	0
453	0	0	0
454	0	0	0
455	0	0	0
456	0	0	0
457	0	0	0
458	0	0	0
459	0	0	0
460	0	0	0
461	0	0	0
462	0	0	0
463	0	0	0
464	0	0	0
465	247	209	214
466	255	217	219
467	255	222	224
468	255	221	223
469	255	220	222
470	254	208	216
471	247	195	211
472	253	201	217
473	255	203	216
474	251	194	212
475	247	186	211
476	247	183	212
477	243	177	209
478	250	187	216
479	255	197	222
480	255	195	221
481	254	190	220
482	255	192	221
483	253	190	218
484	253	192	215
485	254	195	211
486	255	205	216
487	255	218	227
488	255	212	224
489	255	206	220
490	255	203	219
491	251	195	213
492	248	194	209
493	243	191	202
494	251	204	209
495	255	220	220
496	255	221	220
497	255	225	222
498	255	229	226
499	255	233	232
500	255	232	231
501	0	0	0
502	0	0	0
503	0	0	0
504	0	0	0
505	0	0	0
506	0	0	0
507	0	0	0
508	0	0	0
509	0	0	0
510	0	0	0
511	0	0	0
512	0	0	0
513	0	0	0
514	0	0	0
515	0	0	0
516	0	0	0
517	0	0	0
518	0	0	0
519	0	0	0
520	0	0	0
521	0	0	0
522	0	0	0
523	0	0	0
524	255	227	226
525	252	211	216
526	253	210	214
527	255	213	216
528	250	202	210
529	252	202	215
530	255	208	221
531	255	205	218
532	254	196	215
533	249	187	215
534	249	184	216
535	254	191	220
536	255	201	227
537	255	198	225
538	255	195	225
539	247	176	213
540	248	178	213
541	255	195	222
542	255	197	219
543	251	188	209
544	255	197	213
545	255	204	217
546	255	199	213
547	253	194	213
548	251	191	213
549	250	191	213
550	248	191	211
551	255	204	217
552	255	217	222
553	255	212	215
554	254	212	213
555	254	213	214
556	255	217	218
557	254	218	222
558	252	216	221
559	255	227	223
560	0	0	0
561	0	0	0
562	0	0	0
563	0	0	0
564	0	0	0
565	0	0	0
566	0	0	0
567	0	0	0
568	0	0	0
569	0	0	0
570	0	0	0
571	0	0	0
572	0	0	0
573	0	0	0
574	0	0	0
575	0	0	0
576	0	0	0
577	0	0	0
578	0	0	0
579	0	0	0
580	0	0	0
581	0	0	0
582	253	215	219
583	244	200	210
584	250	205	214
585	253	208	215
586	253	206	213
587	255	207	218
588	255	205	219
589	255	202	216
590	251	191	210
591	246	182	209
592	253	190	216
593	255	196	217
594	255	194	216
595	255	192	219
596	251	180	214
597	239	161	203
598	252	180	215
599	255	196	219
600	253	187	210
601	249	182	210
602	254	190	216
603	255	196	216
604	253	190	212
605	250	185	211
606	251	187	214
607	250	187	214
608	255	203	224
609	255	217	231
610	255	210	222
611	252	204	213
612	250	203	210
613	249	204	211
614	248	204	213
615	247	204	216
616	254	217	224
617	255	227	226
618	0	0	0
619	0	0	0
620	0	0	0
621	0	0	0
622	0	0	0
623	0	0	0
624	0	0	0
625	0	0	0
626	0	0	0
627	0	0	0
628	0	0	0
629	0	0	0
630	0	0	0
631	0	0	0
632	0	0	0
633	0	0	0
634	0	0	0
635	0	0	0
636	0	0	0
637	0	0	0
638	0	0	0
639	0	0	0
640	253	218	219
641	246	204	214
642	252	209	218
643	255	216	219
644	255	214	218
645	255	207	218
646	255	206	220
647	252	195	213
648	246	184	207
649	253	191	214
650	255	200	220
651	255	198	216
652	255	196	216
653	253	182	212
654	246	169	208
655	242	163	206
656	255	183	218
657	255	190	215
658	250	181	206
659	255	189	217
660	255	197	223
661	255	191	215
662	251	184	209
663	251	185	213
664	252	187	216
665	253	191	218
666	255	206	228
667	255	200	222
668	250	194	214
669	255	205	216
670	253	204	213
671	255	211	218
672	255	212	220
673	251	208	220
674	255	220	228
675	255	223	225
676	0	0	0
677	0	0	0
678	0	0	0
679	0	0	0
680	0	0	0
681	0	0	0
682	0	0	0
683	0	0	0
684	0	0	0
685	0	0	0
686	0	0	0
687	0	0	0
688	0	0	0
689	0	0	0
690	0	0	0
691	0	0	0
692	0	0	0
693	0	0	0
694	0	0	0
695	0	0	0
696	0	0	0
697	0	0	0
698	249	215	212
699	243	202	210
700	253	212	219
701	255	218	217
702	253	209	212
703	253	203	217
704	251	197	217
705	247	187	213
706	255	196	219
707	255	201	220
708	255	200	218
709	255	200	220
710	253	184	212
711	245	169	206
712	247	168	209
713	243	163	208
714	251	175	215
715	254	182	213
716	255	186	212
717	255	191	216
718	254	186	211
719	250	180	204
720	249	180	205
721	250	182	209
722	253	187	215
723	253	190	217
724	250	187	215
725	244	181	209
726	251	194	215
727	255	205	218
728	255	209	217
729	255	215	219
730	255	211	217
731	251	208	218
732	255	215	223
733	253	218	220
734	255	224	223
735	0	0	0
736	0	0	0
737	0	0	0
738	0	0	0
739	0	0	0
740	0	0	0
741	0	0	0
742	0	0	0
743	0	0	0
744	0	0	0
745	0	0	0
746	0	0	0
747	0	0	0
748	0	0	0
749	0	0	0
750	0	0	0
751	0	0	0
752	0	0	0
753	0	0	0
754	0	0	0
755	0	0	0
756	0	0	0
757	251	216	218
758	255	227	227
759	255	218	217
760	253	210	213
761	255	210	221
762	255	203	221
763	252	196	218
764	255	205	224
765	255	197	215
766	255	196	214
767	255	198	221
768	253	182	213
769	245	168	205
770	246	168	208
771	254	178	218
772	255	190	225
773	255	183	216
774	255	187	216
775	255	184	211
776	250	178	205
777	253	184	207
778	253	184	207
779	255	189	213
780	255	194	218
781	255	195	218
782	254	191	215
783	253	193	214
784	255	205	220
785	255	204	216
786	255	207	216
787	255	212	217
788	254	208	215
789	252	208	218
790	255	215	223
791	255	220	223
792	255	227	225
793	255	225	224
794	0	0	0
795	0	0	0
796	0	0	0
797	0	0	0
798	0	0	0
799	0	0	0
800	0	0	0
801	0	0	0
802	0	0	0
803	0	0	0
804	0	0	0
805	0	0	0
806	0	0	0
807	0	0	0
808	0	0	0
809	0	0	0
810	0	0	0
811	0	0	0
812	0	0	0
813	0	0	0
814	0	0	0
815	0	0	0
816	0	0	0
817	255	219	221
818	255	216	220
819	255	215	222
820	255	209	220
821	255	202	215
822	254	198	212
823	251	190	207
824	254	192	211
825	255	194	219
826	252	181	212
827	242	166	202
828	253	179	212
829	255	189	220
830	255	186	218
831	254	180	214
832	254	180	214
833	251	177	209
834	255	184	211
835	255	190	214
836	255	194	217
837	255	198	219
838	255	200	220
839	255	200	219
840	255	203	217
841	255	203	213
842	255	202	211
843	255	202	214
844	255	208	219
845	255	213	221
846	255	211	220
847	255	210	222
848	255	217	226
849	255	222	225
850	254	219	220
851	251	217	217
852	255	227	223
853	0	0	0
854	0	0	0
855	0	0	0
856	0	0	0
857	0	0	0
858	0	0	0
859	0	0	0
860	0	0	0
861	0	0	0
862	0	0	0
863	0	0	0
864	0	0	0
865	0	0	0
866	0	0	0
867	0	0	0
868	0	0	0
869	0	0	0
870	0	0	0
871	0	0	0
872	0	0	0
873	0	0	0
874	0	0	0
875	0	0	0
876	255	220	222
877	255	211	217
878	254	206	215
879	255	203	213
880	255	199	211
881	252	192	208
882	255	193	213
883	255	190	216
884	247	176	208
885	251	180	210
886	255	193	219
887	255	185	214
888	254	182	213
889	255	181	214
890	255	182	215
891	250	173	208
892	254	180	212
893	255	183	213
894	255	188	215
895	255	186	212
896	255	187	212
897	253	184	208
898	253	186	206
899	253	190	203
900	251	189	201
901	255	200	213
902	255	206	219
903	255	202	216
904	252	200	215
905	252	203	219
906	254	210	222
907	255	221	226
908	255	217	220
909	253	217	217
910	255	227	223
911	255	227	219
912	0	0	0
913	0	0	0
914	0	0	0
915	0	0	0
916	0	0	0
917	0	0	0
918	0	0	0
919	0	0	0
920	0	0	0
921	0	0	0
922	0	0	0
923	0	0	0
924	0	0	0
925	0	0	0
926	0	0	0
927	0	0	0
928	0	0	0
929	0	0	0
930	0	0	0
931	0	0	0
932	0	0	0
933	0	0	0
934	254	217	214
935	252	209	212
936	255	208	216
937	255	206	216
938	254	199	213
939	251	192	209
940	251	188	210
941	251	184	211
942	255	190	217
943	255	195	219
944	255	188	215
945	253	181	212
946	252	180	211
947	252	178	209
948	248	172	205
949	244	165	205
950	250	173	212
951	252	176	211
952	252	176	210
953	250	175	208
954	249	174	207
955	246	170	203
956	250	178	206
957	251	183	205
958	255	191	210
959	255	199	216
960	254	195	213
961	250	192	211
962	250	195	214
963	250	198	217
964	255	210	224
965	255	221	228
966	255	218	223
967	254	217	219
968	252	217	218
969	251	217	218
970	253	222	221
971	0	0	0
972	0	0	0
973	0	0	0
974	0	0	0
975	0	0	0
976	0	0	0
977	0	0	0
978	0	0	0
979	0	0	0
980	0	0	0
981	0	0	0
982	0	0	0
983	0	0	0
984	0	0	0
985	0	0	0
986	0	0	0
987	0	0	0
988	0	0	0
989	0	0	0
990	0	0	0
991	0	0	0
992	255	222	216
993	248	204	208
994	252	205	212
995	255	208	216
996	254	200	213
997	253	195	211
998	254	192	212
999	252	186	211
1000	255	193	218
1001	255	189	215
1002	252	183	211
1003	255	185	213
1004	255	184	212
1005	255	188	212
1006	254	182	209
1007	255	181	215
1008	255	190	223
1009	254	177	213
1010	254	178	213
1011	254	177	213
1012	253	176	212
1013	251	174	209
1014	255	182	212
1015	255	186	214
1016	255	194	218
1017	254	188	212
1018	248	183	207
1019	253	194	214
1020	253	196	215
1021	255	205	220
1022	255	216	226
1023	255	214	223
1024	253	212	218
1025	255	218	220
1026	254	218	219
1027	254	221	222
1028	255	225	225
1029	0	0	0
1030	0	0	0
1031	0	0	0
1032	0	0	0
1033	0	0	0
1034	0	0	0
1035	0	0	0
1036	0	0	0
1037	0	0	0
1038	0	0	0
1039	0	0	0
1040	0	0	0
1041	0	0	0
1042	0	0	0
1043	0	0	0
1044	0	0	0
1045	0	0	0
1046	0	0	0
1047	0	0	0
1048	0	0	0
1049	0	0	0
1050	252	217	212
1051	242	198	202
1052	249	203	208
1053	254	205	211
1054	252	200	209
1055	252	195	209
1056	252	192	210
1057	250	187	209
1058	253	187	212
1059	252	185	212
1060	255	190	216
1061	255	191	215
1062	255	194	216
1063	255	199	217
1064	255	195	216
1065	255	195	220
1066	255	186	217
1067	252	174	210
1068	253	175	211
1069	253	175	212
1070	254	175	212
1071	251	173	207
1072	255	180	212
1073	255	185	216
1074	254	181	213
1075	248	176	209
1076	253	186	214
1077	255	196	217
1078	255	201	216
1079	255	208	218
1080	254	205	213
1081	250	204	210
1082	253	211	214
1083	255	218	218
1084	255	221	220
1085	255	223	222
1086	255	228	224
1087	0	0	0
1088	0	0	0
1089	0	0	0
1090	0	0	0
1091	0	0	0
1092	0	0	0
1093	0	0	0
1094	0	0	0
1095	0	0	0
1096	0	0	0
1097	0	0	0
1098	0	0	0
1099	0	0	0
1100	0	0	0
1101	0	0	0
1102	0	0	0
1103	0	0	0
1104	0	0	0
1105	0	0	0
1106	0	0	0
1107	0	0	0
1108	251	217	210
1109	248	209	208
1110	255	214	214
1111	255	211	214
1112	254	206	211
1113	254	202	210
1114	255	199	211
1115	255	195	212
1116	255	196	216
1117	252	184	210
1118	255	189	216
1119	249	177	207
1120	252	181	207
1121	255	190	211
1122	255	187	209
1123	255	182	209
1124	252	174	207
1125	251	172	208
1126	252	173	210
1127	255	180	216
1128	255	181	216
1129	252	171	209
1130	255	179	215
1131	254	176	213
1132	249	172	211
1133	251	177	214
1134	255	187	218
1135	255	193	215
1136	255	198	212
1137	255	209	216
1138	255	207	211
1139	254	208	212
1140	255	216	217
1141	255	217	217
1142	255	218	218
1143	254	218	219
1144	254	223	221
1145	0	0	0
1146	0	0	0
1147	0	0	0
1148	0	0	0
1149	0	0	0
1150	0	0	0
1151	0	0	0
1152	0	0	0
1153	0	0	0
1154	0	0	0
1155	0	0	0
1156	0	0	0
1157	0	0	0
1158	0	0	0
1159	0	0	0
1160	0	0	0
1161	0	0	0
1162	0	0	0
1163	0	0	0
1164	0	0	0
1165	0	0	0
1166	253	225	212
1167	252	218	213
1168	254	217	216
1169	255	214	215
1170	255	211	212
1171	254	206	208
1172	253	202	207
1173	254	198	209
1174	248	187	205
1175	243	175	199
1176	243	171	202
1177	237	161	199
1178	248	174	208
1179	254	183	209
1180	249	175	202
1181	248	171	203
1182	251	172	207
1183	251	171	210
1184	255	179	216
1185	255	186	218
1186	255	177	213
1187	252	169	212
1188	253	170	215
1189	249	166	213
1190	253	173	218
1191	254	178	219
1192	255	186	219
1193	255	191	214
1194	255	201	215
1195	255	214	220
1196	255	213	217
1197	255	215	218
1198	255	217	219
1199	255	217	219
1200	255	217	220
1201	255	217	222
1202	255	224	226
1203	255	234	231
1204	252	220	220
1205	244	209	214
1206	248	215	220
1207	250	220	225
1208	0	0	0
1209	0	0	0
1210	0	0	0
1211	0	0	0
1212	0	0	0
1213	0	0	0
1214	0	0	0
1215	0	0	0
1216	0	0	0
1217	0	0	0
1218	0	0	0
1219	0	0	0
1220	0	0	0
1221	0	0	0
1222	0	0	0
1223	0	0	0
1224	0	0	0
1225	255	227	218
1226	255	226	221
1227	255	221	217
1228	255	217	214
1229	252	208	208
1230	252	204	206
1231	255	205	211
1232	251	195	206
1233	255	200	213
1234	255	196	216
1235	243	170	206
1236	255	185	217
1237	255	193	216
1238	255	185	209
1239	251	175	207
1240	255	177	212
1241	251	170	210
1242	255	178	216
1243	255	178	213
1244	253	170	209
1245	252	167	213
1246	254	169	218
1247	248	162	215
1248	252	170	219
1249	255	178	220
1250	255	186	220
1251	254	188	213
1252	255	198	214
1253	255	203	215
1254	255	203	212
1255	255	206	215
1256	255	208	216
1257	252	205	214
1258	250	204	214
1259	255	218	224
1260	255	225	228
1261	255	228	228
1262	249	214	217
1263	252	219	220
1264	255	225	226
1265	255	230	231
1266	255	241	238
1267	0	0	0
1268	0	0	0
1269	0	0	0
1270	0	0	0
1271	0	0	0
1272	0	0	0
1273	0	0	0
1274	0	0	0
1275	0	0	0
1276	0	0	0
1277	0	0	0
1278	0	0	0
1279	0	0	0
1280	0	0	0
1281	0	0	0
1282	0	0	0
1283	0	0	0
1284	0	0	0
1285	0	0	0
1286	254	219	213
1287	252	212	210
1288	255	214	215
1289	255	214	216
1290	255	216	218
1291	255	221	222
1292	253	195	208
1293	238	169	199
1294	253	185	214
1295	255	195	215
1296	253	183	207
1297	249	173	206
1298	250	171	209
1299	246	164	205
1300	250	168	209
1301	252	169	209
1302	249	165	207
1303	248	161	209
1304	249	161	213
1305	244	155	213
1306	252	169	221
1307	254	175	218
1308	253	180	215
1309	252	183	212
1310	252	187	211
1311	253	193	212
1312	251	194	211
1313	252	197	213
1314	248	195	211
1315	244	192	210
1316	252	205	218
1317	255	216	221
1318	252	215	217
1319	252	218	218
1320	251	220	219
1321	255	227	223
1322	255	232	227
1323	255	235	229
1324	0	0	0
1325	0	0	0
1326	0	0	0
1327	0	0	0
1328	0	0	0
1329	0	0	0
1330	0	0	0
1331	0	0	0
1332	0	0	0
1333	0	0	0
1334	0	0	0
1335	0	0	0
1336	0	0	0
1337	0	0	0
1338	0	0	0
1339	0	0	0
1340	0	0	0
1341	0	0	0
1342	0	0	0
1343	0	0	0
1344	0	0	0
1345	255	224	218
1346	255	225	222
1347	250	206	209
1348	253	207	209
1349	255	219	215
1350	247	192	200
1351	249	190	208
1352	255	207	224
1353	255	196	213
1354	252	185	206
1355	255	183	211
1356	255	182	215
1357	250	170	208
1358	254	175	213
1359	255	174	212
1360	253	170	210
1361	253	168	212
1362	253	167	216
1363	247	160	215
1364	255	173	224
1365	253	175	216
1366	254	179	214
1367	254	185	214
1368	254	189	215
1369	255	199	219
1370	255	200	219
1371	253	197	217
1372	249	194	215
1373	251	201	219
1374	255	213	225
1375	254	213	219
1376	247	210	212
1377	250	221	218
1378	247	223	219
1379	250	226	222
1380	255	234	228
1381	0	0	0
1382	0	0	0
1383	0	0	0
1384	0	0	0
1385	0	0	0
1386	0	0	0
1387	0	0	0
1388	0	0	0
1389	0	0	0
1390	0	0	0
1391	0	0	0
1392	0	0	0
1393	0	0	0
1394	0	0	0
1395	0	0	0
1396	0	0	0
1397	0	0	0
1398	0	0	0
1399	0	0	0
1400	0	0	0
1401	0	0	0
1402	0	0	0
1403	0	0	0
1404	254	218	214
1405	242	199	204
1406	252	210	212
1407	255	221	216
1408	255	214	213
1409	255	211	219
1410	255	206	218
1411	255	195	207
1412	255	192	206
1413	255	190	212
1414	253	181	210
1415	247	171	206
1416	249	172	207
1417	250	170	206
1418	250	169	206
1419	250	168	207
1420	248	164	207
1421	242	156	206
1422	249	167	214
1423	248	169	210
1424	251	177	211
1425	252	182	212
1426	255	190	215
1427	255	200	221
1428	255	197	219
1429	251	194	218
1430	251	199	220
1431	252	204	220
1432	250	206	217
1433	247	207	213
1434	251	218	219
1435	255	229	226
1436	252	229	225
1437	254	232	228
1438	254	227	226
1439	251	221	221
1440	0	0	0
1441	0	0	0
1442	0	0	0
1443	0	0	0
1444	0	0	0
1445	0	0	0
1446	0	0	0
1447	0	0	0
1448	0	0	0
1449	0	0	0
1450	0	0	0
1451	0	0	0
1452	0	0	0
1453	0	0	0
1454	0	0	0
1455	0	0	0
1456	0	0	0
1457	0	0	0
1458	0	0	0
1459	0	0	0
1460	0	0	0
1461	0	0	0
1462	0	0	0
1463	252	216	215
1464	255	228	224
1465	255	220	214
1466	255	213	209
1467	255	209	212
1468	255	203	210
1469	253	196	205
1470	254	193	205
1471	254	190	208
1472	249	180	206
1473	254	185	212
1474	255	186	214
1475	254	180	209
1476	254	179	209
1477	255	179	210
1478	253	174	210
1479	251	171	212
1480	255	182	220
1481	249	172	210
1482	253	181	213
1483	255	187	214
1484	255	195	218
1485	255	203	223
1486	255	199	221
1487	247	189	215
1488	246	194	216
1489	253	211	222
1490	250	213	219
1491	249	213	218
1492	255	227	228
1493	255	223	224
1494	253	223	224
1495	252	224	226
1496	248	216	221
1497	0	0	0
1498	0	0	0
1499	0	0	0
1500	0	0	0
1501	0	0	0
1502	0	0	0
1503	0	0	0
1504	0	0	0
1505	0	0	0
1506	0	0	0
1507	0	0	0
1508	0	0	0
1509	0	0	0
1510	0	0	0
1511	0	0	0
1512	0	0	0
1513	0	0	0
1514	0	0	0
1515	0	0	0
1516	0	0	0
1517	0	0	0
1518	0	0	0
1519	0	0	0
1520	0	0	0
1521	0	0	0
1522	255	226	219
1523	254	218	211
1524	251	211	206
1525	251	206	205
1526	251	202	205
1527	251	198	205
1528	253	195	207
1529	252	191	207
1530	255	195	213
1531	255	200	219
1532	255	194	216
1533	255	188	212
1534	255	190	214
1535	255	190	216
1536	255	187	216
1537	255	184	215
1538	253	179	212
1539	246	170	206
1540	253	182	213
1541	253	187	213
1542	253	192	214
1543	255	199	219
1544	248	190	213
1545	239	181	206
1546	253	205	220
1547	255	222	226
1548	255	220	222
1549	255	222	226
1550	253	218	224
1551	248	213	218
1552	247	213	217
1553	247	214	221
1554	253	224	226
1555	0	0	0
1556	0	0	0
1557	0	0	0
1558	0	0	0
1559	0	0	0
1560	0	0	0
1561	0	0	0
1562	0	0	0
1563	0	0	0
1564	0	0	0
1565	0	0	0
1566	0	0	0
1567	0	0	0
1568	0	0	0
1569	0	0	0
1570	0	0	0
1571	0	0	0
1572	0	0	0
1573	0	0	0
1574	0	0	0
1575	0	0	0
1576	0	0	0
1577	0	0	0
1578	0	0	0
1579	0	0	0
1580	0	0	0
1581	255	228	216
1582	255	222	212
1583	255	216	210
1584	255	212	210
1585	255	206	210
1586	255	203	211
1587	249	192	205
1588	254	196	210
1589	255	203	216
1590	255	198	213
1591	255	191	211
1592	255	193	216
1593	251	181	210
1594	250	178	209
1595	255	188	215
1596	253	183	212
1597	253	184	214
1598	255	196	221
1599	250	186	211
1600	246	189	210
1601	251	202	219
1602	243	193	213
1603	248	199	217
1604	255	226	234
1605	251	203	215
1606	246	202	213
1607	253	216	225
1608	245	208	219
1609	248	215	220
1610	248	216	220
1611	250	219	224
1612	255	229	230
1613	0	0	0
1614	0	0	0
1615	0	0	0
1616	0	0	0
1617	0	0	0
1618	0	0	0
1619	0	0	0
1620	0	0	0
1621	0	0	0
1622	0	0	0
1623	0	0	0
1624	0	0	0
1625	0	0	0
1626	0	0	0
1627	0	0	0
1628	0	0	0
1629	0	0	0
1630	0	0	0
1631	0	0	0
1632	0	0	0
1633	0	0	0
1634	0	0	0
1635	0	0	0
1636	0	0	0
1637	0	0	0
1638	0	0	0
1639	0	0	0
1640	255	233	219
1641	0	0	0
1642	255	219	215
1643	255	212	214
1644	254	204	210
1645	248	193	204
1646	255	202	210
1647	255	208	214
1648	255	200	210
1649	255	195	213
1650	253	188	213
1651	246	176	210
1652	255	189	220
1653	255	197	222
1654	255	197	220
1655	255	196	220
1656	255	192	216
1657	245	184	207
1658	248	195	214
1659	254	208	225
1660	255	213	227
1661	255	219	228
1662	255	205	219
1663	240	184	207
1664	246	198	217
1665	251	210	225
1666	249	213	223
1667	251	220	224
1668	251	221	223
1669	253	224	225
1670	255	228	227
1671	255	233	227
1672	0	0	0
1673	0	0	0
1674	0	0	0
1675	0	0	0
1676	0	0	0
1677	0	0	0
1678	0	0	0
1679	0	0	0
1680	0	0	0
1681	0	0	0
1682	0	0	0
1683	0	0	0
1684	0	0	0
1685	0	0	0
1686	0	0	0
1687	0	0	0
1688	0	0	0
1689	0	0	0
1690	0	0	0
1691	0	0	0
1692	0	0	0
1693	0	0	0
1694	0	0	0
1695	0	0	0
1696	0	0	0
1697	0	0	0
1698	0	0	0
1699	0	0	0
1700	0	0	0
1701	254	213	212
1702	251	204	208
1703	252	204	208
1704	255	212	214
1705	255	204	207
1706	252	197	204
1707	255	201	216
1708	255	194	217
1709	245	177	211
1710	255	190	221
1711	255	196	221
1712	255	194	217
1713	251	189	212
1714	246	184	207
1715	253	197	216
1716	255	211	225
1717	255	209	225
1718	255	215	229
1719	255	205	219
1720	246	189	209
1721	246	190	214
1722	253	205	225
1723	253	212	226
1724	252	216	225
1725	251	218	223
1726	249	218	220
1727	255	228	226
1728	255	233	230
1729	255	225	222
1730	0	0	0
1731	0	0	0
1732	0	0	0
1733	0	0	0
1734	0	0	0
1735	0	0	0
1736	0	0	0
1737	0	0	0
1738	0	0	0
1739	0	0	0
1740	0	0	0
1741	0	0	0
1742	0	0	0
1743	0	0	0
1744	0	0	0
1745	0	0	0
1746	0	0	0
1747	0	0	0
1748	0	0	0
1749	0	0	0
1750	0	0	0
1751	0	0	0
1752	0	0	0
1753	0	0	0
1754	0	0	0
1755	0	0	0
1756	0	0	0
1757	0	0	0
1758	253	219	212
1759	252	214	212
1760	255	215	213
1761	255	213	209
1762	253	207	204
1763	249	199	199
1764	252	201	204
1765	255	206	217
1766	250	190	212
1767	239	173	203
1768	250	186	214
1769	254	192	218
1770	251	189	213
1771	245	183	206
1772	250	195	213
1773	255	209	224
1774	255	207	221
1775	255	204	218
1776	249	195	212
1777	244	187	207
1778	246	191	212
1779	246	192	214
1780	252	204	221
1781	253	211	221
1782	252	213	219
1783	252	216	220
1784	254	223	223
1785	255	233	230
1786	255	224	223
1787	248	215	215
1788	249	217	216
1789	0	0	0
1790	0	0	0
1791	0	0	0
1792	0	0	0
1793	0	0	0
1794	0	0	0
1795	0	0	0
1796	0	0	0
1797	0	0	0
1798	0	0	0
1799	0	0	0
1800	0	0	0
1801	0	0	0
1802	0	0	0
1803	0	0	0
1804	0	0	0
1805	0	0	0
1806	0	0	0
1807	0	0	0
1808	0	0	0
1809	0	0	0
1810	0	0	0
1811	0	0	0
1812	0	0	0
1813	0	0	0
1814	0	0	0
1815	0	0	0
1816	255	224	213
1817	254	221	213
1818	255	221	214
1819	255	218	210
1820	253	212	205
1821	252	208	203
1822	255	209	208
1823	255	212	217
1824	251	196	211
1825	252	195	214
1826	255	208	225
1827	250	191	214
1828	248	187	210
1829	253	198	213
1830	255	210	219
1831	255	211	221
1832	255	209	219
1833	255	208	217
1834	249	200	213
1835	247	196	213
1836	251	201	218
1837	251	202	219
1838	255	214	226
1839	251	205	216
1840	250	208	215
1841	253	216	219
1842	255	224	223
1843	255	227	225
1844	251	217	217
1845	252	221	218
1846	252	223	219
1847	255	231	225
1848	0	0	0
1849	0	0	0
1850	0	0	0
1851	0	0	0
1852	0	0	0
1853	0	0	0
1854	0	0	0
1855	0	0	0
1856	0	0	0
1857	0	0	0
1858	0	0	0
1859	0	0	0
1860	0	0	0
1861	0	0	0
1862	0	0	0
1863	0	0	0
1864	0	0	0
1865	0	0	0
1866	0	0	0
1867	0	0	0
1868	0	0	0
1869	0	0	0
1870	0	0	0
1871	0	0	0
1872	0	0	0
1873	255	238	219
1874	255	232	215
1875	255	228	213
1876	255	225	212
1877	255	224	213
1878	255	221	212
1879	255	217	209
1880	255	218	211
1881	255	219	216
1882	255	215	217
1883	255	214	220
1884	253	201	214
1885	242	184	205
1886	253	200	215
1887	255	210	216
1888	255	209	212
1889	254	210	213
1890	255	211	215
1891	255	213	218
1892	255	210	219
1893	253	206	220
1894	255	210	223
1895	255	210	222
1896	251	205	217
1897	244	197	209
1898	249	206	214
1899	252	214	217
1900	255	218	219
1901	255	222	220
1902	255	225	221
1903	255	229	223
1904	255	235	226
1905	255	242	232
1906	255	227	224
1907	0	0	0
1908	0	0	0
1909	0	0	0
1910	0	0	0
1911	0	0	0
1912	0	0	0
1913	0	0	0
1914	0	0	0
1915	0	0	0
1916	0	0	0
1917	0	0	0
1918	0	0	0
1919	0	0	0
1920	0	0	0
1921	0	0	0
1922	0	0	0
1923	0	0	0
1924	0	0	0
1925	0	0	0
1926	0	0	0
1927	0	0	0
1928	0	0	0
1929	0	0	0
1930	0	0	0
1931	255	233	214
1932	252	227	210
1933	255	229	210
1934	254	226	209
1935	255	233	217
1936	255	230	217
1937	248	209	202
1938	250	209	204
1939	255	215	209
1940	254	211	209
1941	255	214	215
1942	249	200	209
1943	248	199	211
1944	255	215	221
1945	254	211	214
1946	254	212	212
1947	251	209	210
1948	253	210	213
1949	255	211	216
1950	255	209	218
1951	249	199	215
1952	250	202	217
1953	255	210	220
1954	249	204	214
1955	254	213	219
1956	255	223	226
1957	255	217	219
1958	255	220	220
1959	255	219	218
1960	255	223	220
1961	255	222	218
1962	255	227	221
1963	255	229	223
1964	246	213	213
1965	253	222	223
1966	255	229	228
1967	255	225	225
1968	0	0	0
1969	255	229	222
1970	0	0	0
1971	0	0	0
1972	0	0	0
1973	0	0	0
1974	0	0	0
1975	0	0	0
1976	0	0	0
1977	0	0	0
1978	0	0	0
1979	0	0	0
1980	0	0	0
1981	0	0	0
1982	0	0	0
1983	0	0	0
1984	0	0	0
1985	0	0	0
1986	0	0	0
1987	0	0	0
1988	0	0	0
1989	0	0	0
1990	254	232	213
1991	255	233	211
1992	255	235	212
1993	0	0	0
1994	250	219	204
1995	238	199	195
1996	245	206	202
1997	249	211	205
1998	251	212	208
1999	255	216	214
2000	255	215	216
2001	254	213	214
2002	254	213	215
2003	252	212	213
2004	251	210	214
2005	251	209	214
2006	253	210	216
2007	255	210	217
2008	251	202	214
2009	245	192	211
2010	251	203	218
2011	254	211	219
2012	255	218	221
2013	255	227	228
2014	255	222	224
2015	254	216	219
2016	254	216	218
2017	252	214	215
2018	251	214	215
2019	250	214	215
2020	249	215	216
2021	249	216	216
2022	253	223	220
2023	255	232	228
2024	255	231	228
2025	255	227	225
2026	255	225	223
2027	251	220	216
2028	250	220	216
2029	0	0	0
2030	0	0	0
2031	0	0	0
2032	0	0	0
2033	0	0	0
2034	0	0	0
2035	0	0	0
2036	0	0	0
2037	0	0	0
2038	0	0	0
2039	0	0	0
2040	0	0	0
2041	0	0	0
2042	0	0	0
2043	0	0	0
2044	0	0	0
2045	0	0	0
2046	0	0	0
2047	0	0	0
2048	0	0	0
2049	255	234	214
2050	0	0	0
2051	0	0	0
2052	0	0	0
2053	254	226	212
2054	255	233	219
2055	255	223	211
2056	255	224	213
2057	255	222	215
2058	255	221	216
2059	255	221	216
2060	255	223	218
2061	255	218	216
2062	255	218	218
2063	255	216	220
2064	255	217	223
2065	251	205	214
2066	246	196	210
2067	248	199	214
2068	254	210	220
2069	255	218	221
2070	255	226	224
2071	255	220	221
2072	253	215	217
2073	254	216	219
2074	254	217	219
2075	254	217	218
2076	253	217	218
2077	254	220	221
2078	254	221	221
2079	255	223	222
2080	255	230	226
2081	255	227	225
2082	255	225	224
2083	253	220	221
2084	252	219	219
2085	250	218	217
2086	249	218	217
2087	255	229	230
2088	0	0	0
2089	0	0	0
2090	0	0	0
2091	0	0	0
2092	0	0	0
2093	0	0	0
2094	0	0	0
2095	0	0	0
2096	0	0	0
2097	0	0	0
2098	0	0	0
2099	0	0	0
2100	0	0	0
2101	0	0	0
2102	0	0	0
2103	0	0	0
2104	0	0	0
2105	0	0	0
2106	0	0	0
2107	0	0	0
2108	0	0	0
2109	0	0	0
2110	0	0	0
2111	0	0	0
2112	0	0	0
2113	0	0	0
2114	0	0	0
2115	0	0	0
2116	0	0	0
2117	0	0	0
2118	0	0	0
2119	253	220	213
2120	253	217	212
2121	254	216	216
2122	246	204	210
2123	239	192	203
2124	244	199	208
2125	246	201	210
2126	255	215	218
2127	255	224	223
2128	255	219	218
2129	252	214	213
2130	253	215	216
2131	255	218	221
2132	255	220	223
2133	255	220	221
2134	255	222	221
2135	255	224	223
2136	255	226	225
2137	255	228	226
2138	255	224	225
2139	254	221	223
2140	252	217	221
2141	247	211	217
2142	247	213	217
2143	246	213	217
2144	253	224	224
2145	0	0	0
2146	0	0	0
2147	0	0	0
2148	0	0	0
2149	0	0	0
2150	0	0	0
2151	0	0	0
2152	0	0	0
2153	0	0	0
2154	0	0	0
2155	0	0	0
2156	0	0	0
2157	0	0	0
2158	0	0	0
2159	0	0	0
2160	0	0	0
2161	0	0	0
2162	0	0	0
2163	0	0	0
2164	0	0	0
2165	0	0	0
2166	0	0	0
2167	0	0	0
2168	0	0	0
2169	0	0	0
2170	0	0	0
2171	0	0	0
2172	0	0	0
2173	0	0	0
2174	0	0	0
2175	0	0	0
2176	0	0	0
2177	0	0	0
2178	253	222	214
2179	255	225	218
2180	247	213	211
2181	250	215	215
2182	255	223	221
2183	250	213	214
2184	255	227	224
2185	255	219	217
2186	253	215	214
2187	253	214	214
2188	254	216	217
2189	255	217	221
2190	255	219	222
2191	253	217	218
2192	254	218	218
2193	255	225	223
2194	255	226	224
2195	255	227	225
2196	255	224	224
2197	255	221	224
2198	252	217	222
2199	252	219	222
2200	247	219	221
2201	247	219	224
2202	255	233	233
2203	0	0	0
2204	0	0	0
2205	0	0	0
2206	0	0	0
2207	0	0	0
2208	0	0	0
2209	0	0	0
2210	0	0	0
2211	0	0	0
2212	0	0	0
2213	0	0	0
2214	0	0	0
2215	0	0	0
2216	0	0	0
2217	0	0	0
2218	0	0	0
2219	0	0	0
2220	0	0	0
2221	0	0	0
2222	0	0	0
2223	0	0	0
2224	0	0	0
2225	0	0	0
2226	0	0	0
2227	0	0	0
2228	0	0	0
2229	0	0	0
2230	0	0	0
2231	0	0	0
2232	0	0	0
2233	0	0	0
2234	0	0	0
2235	0	0	0
2236	0	0	0
2237	0	0	0
2238	0	0	0
2239	0	0	0
2240	0	0	0
2241	255	224	220
2242	255	220	218
2243	249	211	209
2244	252	213	212
2245	254	215	217
2246	254	216	219
2247	253	215	219
2248	253	215	219
2249	251	213	217
2250	255	221	220
2251	255	226	222
2252	255	223	218
2253	255	224	220
2254	251	219	218
2255	250	217	220
2256	255	224	226
2257	255	227	226
2258	252	226	226
2259	253	228	233
2260	255	227	233
2261	0	0	0
2262	0	0	0
2263	0	0	0
2264	0	0	0
2265	0	0	0
2266	0	0	0
2267	0	0	0
2268	0	0	0
2269	0	0	0
2270	0	0	0
2271	0	0	0
2272	0	0	0
2273	0	0	0
2274	0	0	0
2275	0	0	0
2276	0	0	0
2277	0	0	0
2278	0	0	0
2279	0	0	0
2280	0	0	0
2281	0	0	0
2282	0	0	0
2283	0	0	0
2284	0	0	0
2285	0	0	0
2286	0	0	0
2287	0	0	0
2288	0	0	0
2289	0	0	0
2290	0	0	0
2291	0	0	0
2292	0	0	0
2293	0	0	0
2294	0	0	0
2295	0	0	0
2296	0	0	0
2297	253	229	217
2298	252	224	217
2299	255	228	223
2300	255	223	221
2301	251	215	213
2302	255	218	217
2303	251	213	217
2304	252	214	219
2305	255	223	224
2306	255	223	224
2307	250	211	215
2308	255	219	220
2309	253	219	217
2310	249	216	213
2311	254	225	220
2312	248	219	216
2313	254	226	224
2314	255	234	231
2315	254	222	222
2316	255	224	225
2317	253	221	228
2318	249	217	226
2319	255	227	228
2320	0	0	0
2321	0	0	0
2322	0	0	0
2323	0	0	0
2324	0	0	0
2325	0	0	0
2326	0	0	0
2327	0	0	0
2328	0	0	0
2329	0	0	0
2330	0	0	0
2331	0	0	0
2332	0	0	0
2333	0	0	0
2334	0	0	0
2335	0	0	0
2336	0	0	0
2337	0	0	0
2338	0	0	0
2339	0	0	0
2340	0	0	0
2341	0	0	0
2342	0	0	0
2343	0	0	0
2344	0	0	0
2345	0	0	0
2346	0	0	0
2347	0	0	0
2348	0	0	0
2349	0	0	0
2350	0	0	0
2351	0	0	0
2352	0	0	0
2353	0	0	0
2354	253	232	214
2355	249	224	215
2356	254	228	222
2357	255	232	226
2358	254	224	221
2359	251	217	218
2360	250	214	217
2361	245	207	212
2362	253	218	220
2363	255	228	227
2364	252	216	219
2365	244	205	210
2366	249	211	215
2367	249	212	216
2368	253	222	221
2369	255	230	225
2370	255	232	226
2371	255	238	232
2372	255	228	226
2373	250	216	218
2374	248	214	217
2375	245	210	217
2376	252	221	224
2377	255	230	228
2378	249	217	217
2379	0	0	0
2380	0	0	0
2381	0	0	0
2382	0	0	0
2383	0	0	0
2384	0	0	0
2385	0	0	0
2386	0	0	0
2387	0	0	0
2388	0	0	0
2389	0	0	0
2390	0	0	0
2391	0	0	0
2392	0	0	0
2393	0	0	0
2394	0	0	0
2395	0	0	0
2396	0	0	0
2397	0	0	0
2398	0	0	0
2399	0	0	0
2400	0	0	0
2401	0	0	0
2402	0	0	0
2403	0	0	0
2404	0	0	0
2405	0	0	0
2406	0	0	0
2407	0	0	0
2408	0	0	0
2409	0	0	0
2410	0	0	0
2411	0	0	0
2412	0	0	0
2413	255	234	222
2414	255	238	228
2415	254	229	221
2416	249	221	217
2417	255	228	225
2418	255	225	225
2419	249	214	216
2420	255	225	223
2421	0	0	0
2422	0	0	0
2423	252	217	218
2424	0	0	0
2425	0	0	0
2426	255	230	228
2427	255	224	221
2428	255	226	222
2429	255	231	226
2430	251	220	219
2431	252	220	220
2432	250	218	220
2433	251	220	222
2434	255	233	231
2435	254	223	222
2436	242	209	211
2437	0	0	0
2438	0	0	0
2439	0	0	0
2440	0	0	0
2441	0	0	0
2442	0	0	0
2443	0	0	0
2444	0	0	0
2445	0	0	0
2446	0	0	0
2447	0	0	0
2448	0	0	0
2449	0	0	0
2450	0	0	0
2451	0	0	0
2452	0	0	0
2453	0	0	0
2454	0	0	0
2455	0	0	0
2456	0	0	0
2457	0	0	0
2458	0	0	0
2459	0	0	0
2460	0	0	0
2461	0	0	0
2462	0	0	0
2463	0	0	0
2464	0	0	0
2465	0	0	0
2466	0	0	0
2467	0	0	0
2468	0	0	0
2469	0	0	0
2470	0	0	0
2471	0	0	0
2472	254	234	220
2473	248	225	213
2474	251	229	217
2475	255	236	227
2476	255	230	225
2477	0	0	0
2478	0	0	0
2479	0	0	0
2480	0	0	0
2481	0	0	0
2482	0	0	0
2483	0	0	0
2484	0	0	0
2485	248	214	214
2486	250	218	215
2487	254	223	217
2488	254	223	218
2489	255	225	223
2490	255	229	228
2491	255	231	231
2492	255	225	226
2493	249	216	218
2494	0	0	0
2495	0	0	0
2496	0	0	0
2497	0	0	0
2498	0	0	0
2499	0	0	0
2500	0	0	0
2501	0	0	0
2502	0	0	0
2503	0	0	0
2504	0	0	0
2505	0	0	0
2506	0	0	0
2507	0	0	0
2508	0	0	0
2509	0	0	0
2510	0	0	0
2511	0	0	0
2512	0	0	0
2513	0	0	0
2514	0	0	0
2515	0	0	0
2516	0	0	0
2517	0	0	0
2518	0	0	0
2519	0	0	0
2520	0	0	0
2521	0	0	0
2522	0	0	0
2523	0	0	0
2524	0	0	0
2525	0	0	0
2526	0	0	0
2527	0	0	0
2528	0	0	0
2529	0	0	0
2530	0	0	0
2531	252	234	217
2532	255	238	221
2533	0	0	0
2534	0	0	0
2535	0	0	0
2536	0	0	0
2537	0	0	0
2538	0	0	0
2539	0	0	0
2540	0	0	0
2541	0	0	0
2542	247	215	215
2543	253	224	221
2544	255	228	223
2545	255	228	220
2546	255	228	220
2547	255	224	221
2548	255	228	227
2549	253	220	223
2550	248	214	218
2551	254	222	223
2552	255	231	229
2553	0	0	0
2554	0	0	0
2555	0	0	0
2556	0	0	0
2557	0	0	0
2558	0	0	0
2559	0	0	0
2560	0	0	0
2561	0	0	0
2562	0	0	0
2563	0	0	0
2564	0	0	0
2565	0	0	0
2566	0	0	0
2567	0	0	0
2568	0	0	0
2569	0	0	0
2570	0	0	0
2571	0	0	0
2572	0	0	0
2573	0	0	0
2574	0	0	0
2575	0	0	0
2576	0	0	0
2577	0	0	0
2578	0	0	0
2579	0	0	0
2580	0	0	0
2581	0	0	0
2582	0	0	0
2583	0	0	0
2584	0	0	0
2585	0	0	0
2586	0	0	0
2587	0	0	0
2588	0	0	0
2589	0	0	0
2590	0	0	0
2591	0	0	0
2592	0	0	0
2593	0	0	0
2594	0	0	0
2595	0	0	0
2596	0	0	0
2597	0	0	0
2598	0	0	0
2599	245	213	215
2600	252	223	223
2601	255	232	228
2602	255	231	226
2603	255	231	224
2604	254	224	219
2605	251	219	216
2606	248	214	215
2607	244	208	213
2608	253	219	222
2609	255	229	228
2610	0	0	0
2611	0	0	0
2612	0	0	0
2613	0	0	0
2614	0	0	0
2615	0	0	0
2616	0	0	0
2617	0	0	0
2618	0	0	0
2619	0	0	0
2620	0	0	0
2621	0	0	0
2622	0	0	0
2623	0	0	0
2624	0	0	0
2625	0	0	0
2626	0	0	0
2627	0	0	0
2628	0	0	0
2629	0	0	0
2630	0	0	0
2631	0	0	0
2632	0	0	0
2633	0	0	0
2634	0	0	0
2635	0	0	0
2636	0	0	0
2637	0	0	0
2638	0	0	0
2639	0	0	0
2640	0	0	0
2641	0	0	0
2642	0	0	0
2643	0	0	0
2644	0	0	0
2645	0	0	0
2646	0	0	0
2647	0	0	0
2648	0	0	0
2649	0	0	0
2650	0	0	0
2651	0	0	0
2652	0	0	0
2653	0	0	0
2654	0	0	0
2655	0	0	0
2656	0	0	0
2657	251	223	220
2658	255	233	229
2659	254	229	225
2660	253	228	223
2661	255	233	226
2662	255	227	221
2663	254	226	220
2664	251	221	217
2665	253	221	220
2666	255	234	230
2667	0	0	0
2668	0	0	0
2669	0	0	0
2670	0	0	0
2671	0	0	0
2672	0	0	0
2673	0	0	0
2674	0	0	0
2675	0	0	0
2676	0	0	0
2677	0	0	0
2678	0	0	0
2679	0	0	0
2680	0	0	0
2681	0	0	0
2682	0	0	0
2683	0	0	0
2684	0	0	0
2685	0	0	0
2686	0	0	0
2687	0	0	0
2688	0	0	0
2689	0	0	0
2690	0	0	0
2691	0	0	0
2692	0	0	0
2693	0	0	0
2694	0	0	0
2695	0	0	0
2696	0	0	0
2697	0	0	0
2698	0	0	0
2699	0	0	0
2700	0	0	0
2701	0	0	0
2702	0	0	0
2703	0	0	0
2704	0	0	0
2705	0	0	0
2706	0	0	0
2707	0	0	0
2708	0	0	0
2709	0	0	0
2710	0	0	0
2711	0	0	0
2712	0	0	0
2713	0	0	0
2714	0	0	0
2715	254	230	221
2716	254	230	222
2717	251	226	222
2718	255	232	225
2719	255	236	225
2720	255	233	222
2721	255	233	225
2722	255	235	227
2723	255	234	225
2724	0	0	0
2725	0	0	0
2726	0	0	0
2727	0	0	0
2728	0	0	0
2729	0	0	0
2730	0	0	0
2731	0	0	0
2732	0	0	0
2733	0	0	0
2734	0	0	0
2735	0	0	0
2736	0	0	0
2737	0	0	0
2738	0	0	0
2739	0	0	0
2740	0	0	0
2741	0	0	0
2742	0	0	0
2743	0	0	0
2744	0	0	0
2745	0	0	0
2746	0	0	0
2747	0	0	0
2748	0	0	0
2749	0	0	0
2750	0	0	0
2751	0	0	0
2752	0	0	0
2753	0	0	0
2754	0	0	0
2755	0	0	0
2756	0	0	0
2757	0	0	0
2758	0	0	0
2759	0	0	0
2760	0	0	0
2761	0	0	0
2762	0	0	0
2763	0	0	0
2764	0	0	0
2765	0	0	0
2766	0	0	0
2767	0	0	0
2768	0	0	0
2769	0	0	0
2770	0	0	0
2771	0	0	0
2772	255	242	225
2773	251	228	216
2774	252	228	218
2775	255	231	224
2776	255	236	228
2777	254	231	221
2778	0	0	0
2779	255	236	228
2780	255	239	232
2781	246	213	210
2782	0	0	0
2783	0	0	0
2784	0	0	0
2785	0	0	0
2786	0	0	0
2787	0	0	0
2788	0	0	0
2789	0	0	0
2790	0	0	0
2791	0	0	0
2792	0	0	0
2793	0	0	0
2794	0	0	0
2795	0	0	0
2796	0	0	0
2797	0	0	0
2798	0	0	0
2799	0	0	0
2800	0	0	0
2801	0	0	0
2802	0	0	0
2803	0	0	0
2804	0	0	0
2805	0	0	0
2806	0	0	0
2807	0	0	0
2808	0	0	0
2809	0	0	0
2810	0	0	0
2811	0	0	0
2812	0	0	0
2813	0	0	0
2814	0	0	0
2815	0	0	0
2816	0	0	0
2817	0	0	0
2818	0	0	0
2819	0	0	0
2820	0	0	0
2821	0	0	0
2822	0	0	0
2823	0	0	0
2824	0	0	0
2825	0	0	0
2826	0	0	0
2827	0	0	0
2828	0	0	0
2829	0	0	0
2830	255	237	216
2831	247	224	210
2832	251	229	216
2833	253	232	221
2834	253	230	221
2835	0	0	0
2836	0	0	0
2837	0	0	0
2838	246	216	218
2839	0	0	0
2840	0	0	0
2841	0	0	0
2842	0	0	0
2843	0	0	0
2844	0	0	0
2845	0	0	0
2846	0	0	0
2847	0	0	0
2848	0	0	0
2849	0	0	0
2850	0	0	0
2851	0	0	0
2852	0	0	0
2853	0	0	0
2854	0	0	0
2855	0	0	0
2856	0	0	0
2857	0	0	0
2858	0	0	0
2859	0	0	0
2860	0	0	0
2861	0	0	0
2862	0	0	0
2863	0	0	0
2864	0	0	0
2865	0	0	0
2866	0	0	0
2867	0	0	0
2868	0	0	0
2869	0	0	0
2870	0	0	0
2871	0	0	0
2872	0	0	0
2873	0	0	0
2874	0	0	0
2875	0	0	0
2876	0	0	0
2877	0	0	0
2878	0	0	0
2879	0	0	0
2880	0	0	0
2881	0	0	0
2882	0	0	0
2883	0	0	0
2884	0	0	0
2885	0	0	0
2886	0	0	0
2887	0	0	0
2888	0	0	0
2889	249	231	216
2890	252	235	220
2891	254	237	224
2892	0	0	0
2893	0	0	0
2894	0	0	0
2895	0	0	0
2896	0	0	0
2897	0	0	0
2898	0	0	0
2899	0	0	0
2900	0	0	0
