 	R	G	B
1	0	0	0
2	0	0	0
3	0	0	0
4	0	0	0
5	0	0	0
6	0	0	0
7	0	0	0
8	0	0	0
9	0	0	0
10	0	0	0
11	0	0	0
12	0	0	0
13	0	0	0
14	0	0	0
15	0	0	0
16	0	0	0
17	0	0	0
18	0	0	0
19	0	0	0
20	0	0	0
21	0	0	0
22	0	0	0
23	0	0	0
24	0	0	0
25	0	0	0
26	0	0	0
27	0	0	0
28	0	0	0
29	0	0	0
30	0	0	0
31	0	0	0
32	0	0	0
33	0	0	0
34	0	0	0
35	0	0	0
36	0	0	0
37	0	0	0
38	0	0	0
39	0	0	0
40	0	0	0
41	0	0	0
42	0	0	0
43	0	0	0
44	0	0	0
45	0	0	0
46	0	0	0
47	0	0	0
48	0	0	0
49	0	0	0
50	0	0	0
51	0	0	0
52	0	0	0
53	0	0	0
54	0	0	0
55	0	0	0
56	0	0	0
57	0	0	0
58	0	0	0
59	0	0	0
60	0	0	0
61	0	0	0
62	0	0	0
63	0	0	0
64	0	0	0
65	0	0	0
66	0	0	0
67	0	0	0
68	0	0	0
69	0	0	0
70	0	0	0
71	0	0	0
72	0	0	0
73	0	0	0
74	0	0	0
75	0	0	0
76	0	0	0
77	0	0	0
78	0	0	0
79	0	0	0
80	0	0	0
81	0	0	0
82	0	0	0
83	0	0	0
84	0	0	0
85	0	0	0
86	0	0	0
87	0	0	0
88	0	0	0
89	0	0	0
90	0	0	0
91	0	0	0
92	0	0	0
93	0	0	0
94	0	0	0
95	0	0	0
96	0	0	0
97	0	0	0
98	0	0	0
99	0	0	0
100	0	0	0
101	0	0	0
102	0	0	0
103	0	0	0
104	255	216	228
105	0	0	0
106	0	0	0
107	0	0	0
108	0	0	0
109	0	0	0
110	0	0	0
111	0	0	0
112	0	0	0
113	0	0	0
114	0	0	0
115	0	0	0
116	0	0	0
117	0	0	0
118	0	0	0
119	0	0	0
120	0	0	0
121	0	0	0
122	0	0	0
123	0	0	0
124	0	0	0
125	0	0	0
126	0	0	0
127	0	0	0
128	0	0	0
129	0	0	0
130	0	0	0
131	0	0	0
132	0	0	0
133	0	0	0
134	0	0	0
135	0	0	0
136	0	0	0
137	0	0	0
138	0	0	0
139	0	0	0
140	0	0	0
141	0	0	0
142	0	0	0
143	0	0	0
144	0	0	0
145	0	0	0
146	0	0	0
147	0	0	0
148	0	0	0
149	0	0	0
150	0	0	0
151	0	0	0
152	0	0	0
153	0	0	0
154	0	0	0
155	0	0	0
156	0	0	0
157	0	0	0
158	0	0	0
159	0	0	0
160	0	0	0
161	0	0	0
162	0	0	0
163	0	0	0
164	0	0	0
165	0	0	0
166	0	0	0
167	0	0	0
168	0	0	0
169	0	0	0
170	0	0	0
171	0	0	0
172	0	0	0
173	0	0	0
174	0	0	0
175	0	0	0
176	0	0	0
177	0	0	0
178	0	0	0
179	0	0	0
180	0	0	0
181	0	0	0
182	0	0	0
183	0	0	0
184	0	0	0
185	0	0	0
186	0	0	0
187	0	0	0
188	0	0	0
189	0	0	0
190	0	0	0
191	0	0	0
192	0	0	0
193	0	0	0
194	0	0	0
195	0	0	0
196	0	0	0
197	0	0	0
198	0	0	0
199	0	0	0
200	0	0	0
201	0	0	0
202	0	0	0
203	0	0	0
204	0	0	0
205	0	0	0
206	0	0	0
207	0	0	0
208	0	0	0
209	0	0	0
210	0	0	0
211	0	0	0
212	0	0	0
213	0	0	0
214	0	0	0
215	0	0	0
216	0	0	0
217	0	0	0
218	0	0	0
219	0	0	0
220	0	0	0
221	0	0	0
222	0	0	0
223	0	0	0
224	0	0	0
225	0	0	0
226	0	0	0
227	0	0	0
228	0	0	0
229	0	0	0
230	0	0	0
231	0	0	0
232	0	0	0
233	0	0	0
234	255	219	231
235	252	212	223
236	0	0	0
237	0	0	0
238	252	208	225
239	251	206	226
240	255	219	234
241	255	221	233
242	255	214	228
243	248	199	219
244	0	0	0
245	0	0	0
246	0	0	0
247	0	0	0
248	0	0	0
249	0	0	0
250	0	0	0
251	0	0	0
252	0	0	0
253	0	0	0
254	0	0	0
255	0	0	0
256	0	0	0
257	0	0	0
258	0	0	0
259	0	0	0
260	0	0	0
261	0	0	0
262	0	0	0
263	0	0	0
264	0	0	0
265	0	0	0
266	0	0	0
267	0	0	0
268	0	0	0
269	0	0	0
270	0	0	0
271	0	0	0
272	0	0	0
273	0	0	0
274	0	0	0
275	0	0	0
276	0	0	0
277	0	0	0
278	0	0	0
279	0	0	0
280	0	0	0
281	0	0	0
282	0	0	0
283	0	0	0
284	0	0	0
285	0	0	0
286	0	0	0
287	0	0	0
288	0	0	0
289	0	0	0
290	0	0	0
291	0	0	0
292	0	0	0
293	0	0	0
294	0	0	0
295	0	0	0
296	0	0	0
297	0	0	0
298	0	0	0
299	0	0	0
300	0	0	0
301	0	0	0
302	0	0	0
303	0	0	0
304	0	0	0
305	0	0	0
306	0	0	0
307	0	0	0
308	0	0	0
309	0	0	0
310	0	0	0
311	0	0	0
312	0	0	0
313	0	0	0
314	0	0	0
315	0	0	0
316	0	0	0
317	0	0	0
318	0	0	0
319	0	0	0
320	0	0	0
321	0	0	0
322	0	0	0
323	0	0	0
324	0	0	0
325	0	0	0
326	0	0	0
327	0	0	0
328	0	0	0
329	0	0	0
330	0	0	0
331	0	0	0
332	0	0	0
333	0	0	0
334	0	0	0
335	0	0	0
336	0	0	0
337	0	0	0
338	0	0	0
339	0	0	0
340	0	0	0
341	0	0	0
342	0	0	0
343	0	0	0
344	0	0	0
345	0	0	0
346	0	0	0
347	0	0	0
348	0	0	0
349	0	0	0
350	0	0	0
351	0	0	0
352	0	0	0
353	0	0	0
354	0	0	0
355	0	0	0
356	0	0	0
357	0	0	0
358	0	0	0
359	0	0	0
360	0	0	0
361	0	0	0
362	0	0	0
363	0	0	0
364	255	244	245
365	255	250	247
366	0	0	0
367	254	222	234
368	255	218	234
369	251	210	226
370	255	214	228
371	255	218	233
372	255	213	229
373	251	206	223
374	254	210	225
375	255	216	229
376	255	215	229
377	255	212	228
378	255	213	228
379	255	216	229
380	252	204	222
381	243	189	213
382	255	204	223
383	0	0	0
384	0	0	0
385	0	0	0
386	255	212	225
387	0	0	0
388	0	0	0
389	0	0	0
390	0	0	0
391	0	0	0
392	0	0	0
393	0	0	0
394	0	0	0
395	0	0	0
396	0	0	0
397	0	0	0
398	0	0	0
399	0	0	0
400	0	0	0
401	0	0	0
402	0	0	0
403	0	0	0
404	0	0	0
405	0	0	0
406	0	0	0
407	0	0	0
408	0	0	0
409	0	0	0
410	0	0	0
411	0	0	0
412	0	0	0
413	0	0	0
414	0	0	0
415	0	0	0
416	0	0	0
417	0	0	0
418	0	0	0
419	0	0	0
420	0	0	0
421	0	0	0
422	0	0	0
423	0	0	0
424	0	0	0
425	0	0	0
426	0	0	0
427	0	0	0
428	0	0	0
429	0	0	0
430	0	0	0
431	0	0	0
432	0	0	0
433	0	0	0
434	0	0	0
435	0	0	0
436	0	0	0
437	0	0	0
438	0	0	0
439	0	0	0
440	0	0	0
441	0	0	0
442	0	0	0
443	0	0	0
444	0	0	0
445	0	0	0
446	0	0	0
447	0	0	0
448	0	0	0
449	0	0	0
450	0	0	0
451	0	0	0
452	0	0	0
453	0	0	0
454	0	0	0
455	0	0	0
456	0	0	0
457	0	0	0
458	0	0	0
459	0	0	0
460	0	0	0
461	0	0	0
462	0	0	0
463	0	0	0
464	0	0	0
465	0	0	0
466	0	0	0
467	0	0	0
468	0	0	0
469	0	0	0
470	0	0	0
471	0	0	0
472	0	0	0
473	0	0	0
474	0	0	0
475	0	0	0
476	0	0	0
477	0	0	0
478	0	0	0
479	0	0	0
480	0	0	0
481	0	0	0
482	0	0	0
483	0	0	0
484	0	0	0
485	0	0	0
486	0	0	0
487	0	0	0
488	0	0	0
489	0	0	0
490	0	0	0
491	0	0	0
492	0	0	0
493	0	0	0
494	0	0	0
495	255	241	244
496	255	242	244
497	0	0	0
498	0	0	0
499	0	0	0
500	0	0	0
501	254	232	237
502	255	242	245
503	255	229	235
504	248	212	224
505	255	217	232
506	254	213	231
507	251	207	225
508	255	211	228
509	255	210	229
510	253	205	226
511	249	199	222
512	253	204	224
513	255	211	226
514	255	209	225
515	248	197	217
516	243	197	216
517	252	208	225
518	248	198	220
519	242	185	213
520	255	201	224
521	254	199	219
522	0	0	0
523	255	203	222
524	255	210	227
525	248	195	213
526	0	0	0
527	0	0	0
528	0	0	0
529	0	0	0
530	0	0	0
531	0	0	0
532	0	0	0
533	0	0	0
534	0	0	0
535	0	0	0
536	0	0	0
537	0	0	0
538	0	0	0
539	0	0	0
540	0	0	0
541	0	0	0
542	0	0	0
543	0	0	0
544	0	0	0
545	0	0	0
546	0	0	0
547	0	0	0
548	0	0	0
549	0	0	0
550	0	0	0
551	0	0	0
552	0	0	0
553	0	0	0
554	0	0	0
555	0	0	0
556	0	0	0
557	0	0	0
558	0	0	0
559	0	0	0
560	0	0	0
561	0	0	0
562	0	0	0
563	0	0	0
564	0	0	0
565	0	0	0
566	0	0	0
567	0	0	0
568	0	0	0
569	0	0	0
570	0	0	0
571	0	0	0
572	0	0	0
573	0	0	0
574	0	0	0
575	0	0	0
576	0	0	0
577	0	0	0
578	0	0	0
579	0	0	0
580	0	0	0
581	0	0	0
582	0	0	0
583	0	0	0
584	0	0	0
585	0	0	0
586	0	0	0
587	0	0	0
588	0	0	0
589	0	0	0
590	0	0	0
591	0	0	0
592	0	0	0
593	0	0	0
594	0	0	0
595	0	0	0
596	0	0	0
597	0	0	0
598	0	0	0
599	0	0	0
600	0	0	0
601	0	0	0
602	0	0	0
603	0	0	0
604	0	0	0
605	0	0	0
606	0	0	0
607	0	0	0
608	0	0	0
609	0	0	0
610	0	0	0
611	0	0	0
612	0	0	0
613	0	0	0
614	0	0	0
615	255	249	246
616	255	248	245
617	0	0	0
618	0	0	0
619	0	0	0
620	255	248	244
621	0	0	0
622	255	246	243
623	255	238	238
624	255	236	238
625	0	0	0
626	0	0	0
627	0	0	0
628	0	0	0
629	255	246	244
630	255	238	240
631	254	229	235
632	255	234	238
633	255	239	241
634	255	234	237
635	255	229	233
636	255	236	237
637	255	244	242
638	255	237	238
639	255	233	239
640	255	221	233
641	249	208	223
642	251	210	225
643	255	214	230
644	253	208	226
645	249	201	221
646	249	200	220
647	249	199	222
648	247	195	220
649	245	190	219
650	252	198	223
651	255	203	222
652	249	194	214
653	241	184	210
654	243	192	217
655	252	204	226
656	247	192	220
657	242	180	214
658	246	183	216
659	245	182	212
660	251	189	216
661	255	196	221
662	249	187	214
663	238	173	202
664	250	192	214
665	0	0	0
666	0	0	0
667	0	0	0
668	0	0	0
669	0	0	0
670	0	0	0
671	0	0	0
672	0	0	0
673	0	0	0
674	0	0	0
675	0	0	0
676	0	0	0
677	0	0	0
678	0	0	0
679	0	0	0
680	0	0	0
681	0	0	0
682	0	0	0
683	0	0	0
684	0	0	0
685	0	0	0
686	0	0	0
687	0	0	0
688	0	0	0
689	0	0	0
690	0	0	0
691	0	0	0
692	0	0	0
693	0	0	0
694	0	0	0
695	0	0	0
696	0	0	0
697	0	0	0
698	0	0	0
699	0	0	0
700	0	0	0
701	0	0	0
702	0	0	0
703	0	0	0
704	0	0	0
705	0	0	0
706	0	0	0
707	0	0	0
708	0	0	0
709	0	0	0
710	0	0	0
711	0	0	0
712	0	0	0
713	0	0	0
714	0	0	0
715	0	0	0
716	0	0	0
717	0	0	0
718	0	0	0
719	0	0	0
720	0	0	0
721	0	0	0
722	0	0	0
723	0	0	0
724	0	0	0
725	0	0	0
726	0	0	0
727	0	0	0
728	0	0	0
729	0	0	0
730	0	0	0
731	0	0	0
732	0	0	0
733	0	0	0
734	0	0	0
735	0	0	0
736	0	0	0
737	0	0	0
738	0	0	0
739	0	0	0
740	0	0	0
741	0	0	0
742	0	0	0
743	0	0	0
744	0	0	0
745	0	0	0
746	0	0	0
747	251	239	239
748	0	0	0
749	0	0	0
750	0	0	0
751	0	0	0
752	255	241	241
753	255	236	237
754	253	234	236
755	252	233	235
756	0	0	0
757	255	238	239
758	255	238	239
759	253	229	234
760	255	228	236
761	244	204	221
762	244	202	221
763	245	204	222
764	0	0	0
765	0	0	0
766	255	232	238
767	255	232	237
768	255	223	232
769	251	217	229
770	255	222	232
771	255	225	232
772	253	220	228
773	255	222	231
774	255	229	235
775	255	226	231
776	254	218	226
777	255	216	229
778	249	205	224
779	248	202	223
780	251	203	224
781	255	211	228
782	252	203	223
783	252	202	223
784	251	201	223
785	255	208	229
786	255	203	228
787	252	197	226
788	255	206	231
789	254	199	222
790	248	190	214
791	254	197	223
792	255	208	233
793	255	198	226
794	248	185	219
795	252	188	223
796	255	191	224
797	255	193	223
798	255	201	227
799	254	188	218
800	248	179	212
801	250	183	214
802	255	202	226
803	254	193	217
804	0	0	0
805	0	0	0
806	0	0	0
807	0	0	0
808	0	0	0
809	0	0	0
810	0	0	0
811	0	0	0
812	0	0	0
813	0	0	0
814	0	0	0
815	0	0	0
816	0	0	0
817	0	0	0
818	0	0	0
819	0	0	0
820	0	0	0
821	0	0	0
822	0	0	0
823	0	0	0
824	0	0	0
825	0	0	0
826	0	0	0
827	0	0	0
828	0	0	0
829	0	0	0
830	0	0	0
831	0	0	0
832	0	0	0
833	0	0	0
834	0	0	0
835	0	0	0
836	0	0	0
837	0	0	0
838	0	0	0
839	0	0	0
840	0	0	0
841	0	0	0
842	0	0	0
843	0	0	0
844	0	0	0
845	0	0	0
846	0	0	0
847	0	0	0
848	0	0	0
849	0	0	0
850	0	0	0
851	0	0	0
852	0	0	0
853	0	0	0
854	0	0	0
855	0	0	0
856	0	0	0
857	0	0	0
858	0	0	0
859	0	0	0
860	0	0	0
861	0	0	0
862	0	0	0
863	0	0	0
864	0	0	0
865	0	0	0
866	0	0	0
867	0	0	0
868	0	0	0
869	0	0	0
870	0	0	0
871	0	0	0
872	255	221	224
873	255	222	226
874	255	226	229
875	255	228	231
876	255	233	234
877	255	240	241
878	255	239	241
879	255	240	242
880	255	240	242
881	255	239	238
882	255	241	238
883	255	245	243
884	255	241	242
885	255	239	240
886	255	235	238
887	255	229	233
888	255	232	235
889	255	236	238
890	255	230	234
891	252	225	229
892	252	225	229
893	251	224	229
894	252	226	231
895	252	228	234
896	243	216	228
897	240	208	225
898	231	189	216
899	218	165	202
900	227	174	211
901	231	178	213
902	249	202	227
903	255	226	239
904	255	218	231
905	255	218	232
906	251	211	228
907	247	205	224
908	249	208	225
909	251	211	223
910	252	212	224
911	254	215	229
912	252	211	227
913	250	207	222
914	246	200	217
915	246	197	219
916	246	196	220
917	246	193	220
918	252	201	225
919	255	207	227
920	254	204	225
921	255	204	228
922	255	210	233
923	255	216	237
924	255	210	234
925	255	203	230
926	255	199	228
927	252	194	223
928	255	200	227
929	255	207	234
930	255	198	229
931	252	188	221
932	255	191	224
933	255	194	227
934	255	198	228
935	255	200	227
936	255	188	217
937	249	176	211
938	255	184	219
939	255	188	222
940	255	185	220
941	248	177	211
942	253	188	215
943	255	198	218
944	254	194	214
945	250	190	214
946	252	197	218
947	251	200	215
948	251	205	215
949	253	211	220
950	0	0	0
951	0	0	0
952	0	0	0
953	0	0	0
954	0	0	0
955	0	0	0
956	0	0	0
957	0	0	0
958	0	0	0
959	0	0	0
960	0	0	0
961	0	0	0
962	0	0	0
963	0	0	0
964	0	0	0
965	0	0	0
966	0	0	0
967	0	0	0
968	0	0	0
969	0	0	0
970	0	0	0
971	0	0	0
972	0	0	0
973	0	0	0
974	0	0	0
975	0	0	0
976	0	0	0
977	0	0	0
978	0	0	0
979	0	0	0
980	0	0	0
981	0	0	0
982	0	0	0
983	0	0	0
984	0	0	0
985	0	0	0
986	0	0	0
987	0	0	0
988	0	0	0
989	0	0	0
990	0	0	0
991	0	0	0
992	0	0	0
993	0	0	0
994	0	0	0
995	0	0	0
996	0	0	0
997	0	0	0
998	0	0	0
999	0	0	0
1000	0	0	0
1001	0	0	0
1002	0	0	0
1003	0	0	0
1004	0	0	0
1005	0	0	0
1006	0	0	0
1007	0	0	0
1008	0	0	0
1009	254	211	222
1010	255	216	224
1011	251	207	218
1012	252	210	221
1013	251	213	222
1014	253	217	225
1015	255	227	233
1016	255	227	235
1017	253	220	232
1018	254	221	232
1019	255	227	233
1020	255	228	233
1021	253	224	232
1022	252	220	230
1023	255	225	233
1024	253	219	229
1025	253	219	229
1026	255	223	232
1027	255	224	232
1028	250	217	227
1029	253	220	230
1030	255	221	231
1031	252	216	228
1032	250	217	229
1033	246	215	229
1034	231	200	222
1035	223	192	221
1036	210	170	211
1037	209	164	210
1038	227	177	222
1039	239	189	228
1040	255	214	242
1041	255	217	237
1042	254	210	228
1043	254	210	231
1044	250	203	228
1045	252	207	230
1046	254	210	230
1047	254	209	226
1048	255	211	227
1049	254	209	229
1050	252	205	227
1051	254	208	227
1052	250	201	222
1053	253	204	226
1054	252	201	227
1055	250	196	226
1056	255	203	230
1057	255	204	227
1058	252	200	223
1059	255	206	231
1060	255	211	236
1061	255	203	229
1062	253	197	226
1063	251	193	225
1064	248	189	222
1065	255	202	231
1066	255	208	236
1067	255	194	227
1068	250	184	221
1069	255	189	225
1070	255	193	228
1071	253	183	220
1072	255	187	221
1073	255	190	221
1074	253	179	213
1075	250	173	213
1076	255	181	222
1077	254	177	219
1078	252	174	216
1079	246	168	211
1080	254	181	216
1081	255	188	217
1082	253	185	214
1083	249	182	215
1084	252	189	218
1085	255	197	218
1086	255	202	217
1087	253	201	217
1088	255	208	222
1089	0	0	0
1090	0	0	0
1091	0	0	0
1092	0	0	0
1093	0	0	0
1094	0	0	0
1095	0	0	0
1096	0	0	0
1097	0	0	0
1098	0	0	0
1099	0	0	0
1100	0	0	0
1101	0	0	0
1102	0	0	0
1103	0	0	0
1104	0	0	0
1105	0	0	0
1106	0	0	0
1107	0	0	0
1108	0	0	0
1109	0	0	0
1110	0	0	0
1111	0	0	0
1112	0	0	0
1113	0	0	0
1114	0	0	0
1115	0	0	0
1116	0	0	0
1117	0	0	0
1118	0	0	0
1119	0	0	0
1120	0	0	0
1121	0	0	0
1122	0	0	0
1123	0	0	0
1124	0	0	0
1125	0	0	0
1126	0	0	0
1127	0	0	0
1128	255	246	242
1129	255	244	240
1130	255	244	241
1131	255	243	240
1132	255	239	239
1133	255	237	240
1134	255	235	240
1135	255	228	233
1136	255	231	233
1137	255	233	233
1138	255	232	232
1139	255	232	232
1140	255	226	229
1141	255	222	229
1142	255	217	227
1143	255	212	226
1144	255	212	228
1145	255	210	228
1146	255	207	225
1147	254	205	221
1148	251	199	217
1149	244	190	212
1150	247	196	217
1151	247	198	217
1152	251	207	222
1153	255	216	230
1154	252	209	226
1155	247	202	222
1156	252	209	227
1157	255	215	231
1158	250	209	226
1159	247	204	223
1160	250	208	226
1161	253	212	229
1162	252	211	228
1163	252	210	228
1164	252	211	228
1165	252	212	229
1166	252	212	229
1167	255	215	233
1168	253	211	231
1169	250	206	227
1170	246	202	225
1171	240	199	224
1172	223	184	217
1173	215	175	218
1174	207	167	218
1175	206	161	218
1176	230	182	234
1177	242	192	234
1178	251	198	233
1179	254	202	230
1180	248	197	223
1181	248	197	227
1182	251	201	230
1183	253	204	232
1184	253	204	231
1185	252	203	227
1186	250	200	224
1187	249	198	225
1188	252	201	227
1189	254	204	227
1190	254	203	226
1191	255	206	232
1192	252	199	229
1193	249	194	227
1194	252	198	229
1195	252	198	225
1196	253	200	225
1197	255	205	231
1198	251	196	226
1199	246	188	220
1200	246	187	221
1201	245	184	221
1202	254	196	230
1203	255	209	237
1204	253	192	225
1205	245	178	217
1206	251	185	223
1207	255	191	229
1208	253	183	223
1209	247	172	215
1210	252	178	218
1211	255	181	217
1212	252	174	214
1213	250	168	216
1214	249	166	217
1215	246	162	213
1216	243	158	209
1217	239	153	204
1218	246	165	211
1219	250	174	213
1220	248	171	211
1221	244	168	209
1222	250	180	216
1223	254	189	217
1224	250	187	213
1225	248	187	212
1226	245	185	212
1227	243	185	213
1228	0	0	0
1229	0	0	0
1230	0	0	0
1231	0	0	0
1232	252	206	218
1233	255	212	220
1234	0	0	0
1235	0	0	0
1236	0	0	0
1237	0	0	0
1238	0	0	0
1239	0	0	0
1240	0	0	0
1241	0	0	0
1242	0	0	0
1243	0	0	0
1244	0	0	0
1245	0	0	0
1246	0	0	0
1247	0	0	0
1248	0	0	0
1249	0	0	0
1250	0	0	0
1251	0	0	0
1252	0	0	0
1253	0	0	0
1254	0	0	0
1255	0	0	0
1256	0	0	0
1257	0	0	0
1258	0	0	0
1259	0	0	0
1260	255	246	245
1261	0	0	0
1262	0	0	0
1263	0	0	0
1264	0	0	0
1265	255	238	234
1266	255	240	238
1267	255	228	232
1268	255	229	233
1269	255	224	230
1270	255	221	229
1271	255	216	227
1272	255	213	225
1273	254	210	221
1274	255	214	224
1275	254	209	222
1276	254	208	222
1277	254	206	219
1278	249	198	214
1279	255	208	223
1280	255	202	221
1281	251	196	218
1282	251	195	220
1283	254	198	224
1284	253	197	223
1285	255	203	224
1286	254	196	220
1287	249	190	218
1288	252	196	223
1289	251	196	222
1290	255	205	229
1291	253	201	226
1292	246	193	220
1293	250	199	225
1294	254	206	231
1295	254	206	231
1296	250	200	227
1297	251	201	228
1298	252	204	230
1299	253	204	230
1300	251	203	229
1301	251	203	229
1302	251	203	229
1303	253	207	231
1304	253	207	232
1305	255	211	236
1306	253	206	233
1307	254	206	234
1308	253	204	233
1309	251	204	234
1310	238	189	228
1311	235	189	234
1312	225	181	233
1313	229	183	238
1314	248	202	251
1315	243	191	237
1316	251	198	235
1317	255	205	235
1318	251	200	230
1319	254	203	235
1320	255	206	238
1321	253	201	234
1322	253	202	233
1323	253	203	231
1324	252	200	229
1325	253	202	231
1326	255	204	232
1327	250	196	225
1328	249	195	224
1329	255	207	233
1330	252	200	230
1331	255	202	233
1332	255	207	236
1333	250	196	225
1334	252	198	227
1335	255	206	234
1336	252	197	228
1337	253	197	228
1338	252	195	228
1339	247	188	224
1340	255	201	234
1341	255	205	236
1342	251	189	224
1343	252	187	224
1344	255	194	230
1345	255	190	229
1346	254	182	224
1347	250	174	219
1348	255	180	223
1349	253	174	217
1350	250	167	215
1351	252	168	221
1352	251	166	221
1353	253	170	221
1354	251	167	217
1355	252	169	218
1356	255	180	226
1357	253	173	218
1358	251	171	216
1359	250	173	216
1360	255	185	223
1361	255	185	219
1362	252	184	216
1363	253	188	218
1364	250	186	217
1365	255	198	225
1366	255	200	226
1367	249	190	216
1368	254	198	220
1369	251	195	217
1370	254	201	220
1371	252	199	218
1372	252	200	219
1373	0	0	0
1374	0	0	0
1375	0	0	0
1376	0	0	0
1377	0	0	0
1378	0	0	0
1379	0	0	0
1380	0	0	0
1381	0	0	0
1382	0	0	0
1383	0	0	0
1384	0	0	0
1385	0	0	0
1386	0	0	0
1387	0	0	0
1388	0	0	0
1389	0	0	0
1390	0	0	0
1391	0	0	0
1392	0	0	0
1393	0	0	0
1394	0	0	0
1395	0	0	0
1396	255	247	243
1397	255	246	244
1398	255	239	240
1399	252	228	232
1400	255	233	234
1401	255	235	232
1402	255	234	231
1403	255	236	235
1404	255	227	232
1405	255	217	228
1406	255	214	229
1407	255	210	226
1408	254	204	222
1409	251	198	217
1410	251	196	216
1411	251	195	214
1412	249	190	212
1413	246	185	212
1414	248	185	214
1415	247	184	214
1416	250	189	217
1417	255	196	222
1418	249	187	215
1419	245	180	212
1420	247	183	217
1421	250	186	222
1422	254	193	225
1423	255	198	224
1424	254	192	220
1425	249	186	219
1426	251	189	224
1427	251	190	225
1428	248	186	223
1429	243	181	219
1430	245	186	221
1431	247	191	225
1432	244	188	223
1433	244	188	226
1434	245	189	227
1435	244	189	225
1436	241	188	224
1437	241	188	226
1438	240	187	226
1439	240	187	226
1440	243	191	227
1441	245	194	228
1442	245	195	228
1443	247	198	230
1444	243	194	227
1445	244	194	230
1446	245	194	230
1447	245	194	231
1448	242	192	232
1449	240	192	236
1450	238	194	240
1451	239	194	241
1452	240	191	239
1453	235	182	230
1454	244	191	233
1455	249	198	233
1456	246	196	229
1457	248	199	232
1458	245	194	229
1459	242	189	226
1460	244	192	228
1461	245	193	227
1462	246	194	227
1463	247	196	229
1464	244	190	225
1465	238	183	219
1466	246	193	225
1467	253	203	230
1468	253	203	229
1469	255	206	232
1470	251	198	228
1471	244	189	223
1472	250	196	229
1473	255	204	236
1474	255	202	234
1475	255	201	231
1476	250	194	226
1477	245	187	222
1478	251	192	227
1479	255	197	231
1480	255	194	229
1481	255	193	229
1482	255	188	226
1483	253	184	223
1484	250	176	218
1485	247	169	214
1486	248	167	215
1487	246	162	214
1488	249	164	219
1489	250	164	223
1490	253	169	226
1491	255	173	224
1492	255	174	223
1493	255	176	226
1494	255	173	224
1495	249	165	216
1496	252	170	219
1497	252	172	219
1498	252	175	219
1499	249	175	215
1500	249	178	215
1501	251	183	219
1502	254	190	222
1503	255	200	225
1504	252	189	216
1505	245	180	209
1506	246	181	212
1507	244	179	212
1508	245	180	214
1509	243	179	212
1510	242	179	211
1511	239	177	210
1512	0	0	0
1513	0	0	0
1514	0	0	0
1515	0	0	0
1516	0	0	0
1517	0	0	0
1518	0	0	0
1519	0	0	0
1520	0	0	0
1521	0	0	0
1522	0	0	0
1523	0	0	0
1524	0	0	0
1525	0	0	0
1526	0	0	0
1527	0	0	0
1528	0	0	0
1529	0	0	0
1530	0	0	0
1531	0	0	0
1532	0	0	0
1533	255	244	242
1534	255	245	243
1535	255	232	235
1536	254	226	232
1537	253	221	230
1538	255	227	234
1539	255	220	226
1540	255	220	226
1541	255	220	228
1542	255	211	225
1543	251	198	221
1544	253	197	223
1545	253	194	221
1546	250	188	217
1547	252	188	216
1548	252	186	215
1549	254	188	216
1550	251	182	214
1551	250	179	216
1552	251	180	220
1553	249	178	219
1554	251	182	221
1555	255	189	224
1556	247	178	216
1557	251	185	221
1558	253	187	225
1559	253	187	228
1560	255	193	232
1561	253	187	224
1562	247	180	219
1563	248	180	223
1564	252	184	228
1565	253	187	232
1566	249	183	228
1567	249	185	228
1568	250	190	231
1569	249	191	230
1570	242	186	227
1571	249	197	237
1572	250	198	238
1573	247	196	233
1574	242	193	230
1575	245	199	236
1576	246	199	238
1577	251	204	242
1578	255	209	244
1579	251	204	239
1580	249	204	237
1581	245	202	235
1582	237	196	231
1583	244	206	239
1584	246	205	239
1585	247	205	240
1586	247	204	242
1587	243	198	241
1588	245	202	245
1589	237	191	237
1590	235	186	233
1591	241	194	239
1592	247	203	242
1593	247	204	238
1594	243	202	233
1595	251	212	239
1596	249	208	236
1597	249	206	238
1598	252	210	241
1599	252	209	239
1600	252	209	239
1601	250	206	237
1602	247	201	234
1603	247	200	233
1604	255	210	238
1605	255	210	235
1606	255	210	233
1607	255	208	232
1608	251	201	228
1609	251	201	231
1610	255	208	237
1611	255	211	240
1612	255	209	237
1613	254	201	230
1614	249	195	225
1615	253	200	230
1616	255	205	235
1617	255	202	233
1618	255	199	233
1619	255	192	228
1620	253	187	225
1621	255	187	224
1622	252	180	220
1623	255	181	223
1624	255	179	225
1625	248	164	219
1626	251	166	223
1627	253	169	227
1628	255	173	228
1629	255	175	225
1630	255	177	224
1631	255	178	228
1632	255	175	226
1633	249	165	219
1634	253	171	222
1635	254	174	222
1636	254	176	222
1637	251	176	219
1638	251	179	220
1639	255	189	227
1640	255	196	228
1641	255	198	224
1642	252	188	215
1643	252	188	217
1644	255	190	222
1645	252	186	222
1646	253	188	225
1647	252	187	223
1648	251	187	222
1649	254	192	225
1650	255	202	232
1651	0	0	0
1652	247	187	221
1653	250	193	225
1654	252	198	228
1655	253	203	232
1656	0	0	0
1657	0	0	0
1658	0	0	0
1659	0	0	0
1660	0	0	0
1661	0	0	0
1662	0	0	0
1663	0	0	0
1664	0	0	0
1665	0	0	0
1666	0	0	0
1667	0	0	0
1668	0	0	0
1669	0	0	0
1670	255	244	243
1671	255	241	242
1672	255	231	236
1673	251	219	228
1674	252	217	228
1675	253	213	229
1676	253	210	227
1677	250	204	221
1678	253	204	220
1679	255	203	221
1680	249	190	216
1681	244	178	213
1682	248	179	217
1683	246	174	212
1684	248	175	213
1685	250	175	216
1686	250	175	216
1687	251	175	216
1688	248	171	215
1689	247	167	216
1690	248	168	219
1691	245	166	218
1692	247	172	221
1693	250	178	223
1694	247	178	221
1695	251	184	226
1696	250	181	226
1697	249	180	229
1698	248	177	229
1699	243	172	223
1700	238	168	220
1701	0	0	0
1702	0	0	0
1703	0	0	0
1704	0	0	0
1705	236	173	224
1706	0	0	0
1707	233	176	225
1708	234	183	229
1709	240	193	237
1710	238	191	233
1711	234	189	227
1712	233	192	227
1713	237	198	233
1714	241	203	237
1715	246	208	242
1716	243	203	238
1717	239	199	234
1718	236	197	232
1719	233	195	232
1720	233	201	235
1721	239	210	240
1722	239	208	238
1723	240	207	241
1724	237	200	238
1725	233	194	236
1726	228	186	232
1727	221	176	227
1728	229	187	234
1729	0	0	0
1730	236	198	237
1731	236	200	235
1732	241	208	237
1733	247	218	240
1734	247	216	238
1735	248	216	242
1736	248	215	242
1737	248	214	240
1738	246	210	238
1739	244	207	237
1740	245	208	238
1741	245	207	236
1742	248	209	237
1743	249	209	235
1744	251	209	233
1745	250	207	229
1746	251	207	229
1747	252	207	231
1748	255	210	234
1749	255	213	235
1750	255	207	231
1751	251	201	227
1752	255	208	233
1753	255	213	238
1754	255	209	237
1755	255	205	236
1756	255	197	230
1757	252	189	226
1758	253	189	226
1759	255	190	227
1760	255	188	226
1761	255	189	229
1762	252	175	222
1763	243	159	214
1764	250	167	222
1765	252	169	224
1766	255	174	226
1767	255	176	224
1768	255	177	224
1769	255	178	227
1770	253	171	224
1771	247	162	218
1772	251	168	221
1773	251	170	221
1774	251	173	221
1775	250	173	221
1776	254	183	226
1777	255	193	230
1778	255	191	226
1779	255	193	224
1780	254	191	221
1781	254	191	222
1782	253	188	222
1783	250	184	223
1784	253	187	226
1785	252	186	225
1786	255	191	228
1787	255	196	229
1788	249	184	221
1789	239	171	213
1790	245	180	222
1791	248	186	227
1792	248	191	228
1793	248	194	227
1794	244	193	223
1795	0	0	0
1796	0	0	0
1797	0	0	0
1798	0	0	0
1799	0	0	0
1800	0	0	0
1801	0	0	0
1802	0	0	0
1803	0	0	0
1804	0	0	0
1805	0	0	0
1806	0	0	0
1807	255	246	245
1808	255	245	246
1809	255	228	236
1810	252	218	230
1811	252	214	226
1812	254	212	227
1813	255	210	229
1814	255	207	230
1815	254	200	224
1816	255	199	224
1817	253	190	218
1818	247	177	213
1819	252	180	220
1820	255	179	223
1821	246	166	212
1822	247	166	212
1823	254	175	222
1824	254	174	222
1825	254	173	221
1826	251	168	218
1827	252	169	223
1828	253	169	226
1829	248	165	224
1830	249	171	226
1831	252	179	229
1832	247	178	225
1833	254	189	233
1834	254	188	235
1835	252	184	236
1836	249	180	236
1837	244	177	232
1838	0	0	0
1839	0	0	0
1840	0	0	0
1841	0	0	0
1842	0	0	0
1843	0	0	0
1844	0	0	0
1845	0	0	0
1846	0	0	0
1847	0	0	0
1848	0	0	0
1849	0	0	0
1850	0	0	0
1851	0	0	0
1852	0	0	0
1853	0	0	0
1854	0	0	0
1855	0	0	0
1856	0	0	0
1857	0	0	0
1858	0	0	0
1859	0	0	0
1860	0	0	0
1861	0	0	0
1862	0	0	0
1863	0	0	0
1864	0	0	0
1865	0	0	0
1866	0	0	0
1867	0	0	0
1868	0	0	0
1869	0	0	0
1870	0	0	0
1871	0	0	0
1872	0	0	0
1873	0	0	0
1874	0	0	0
1875	0	0	0
1876	0	0	0
1877	0	0	0
1878	0	0	0
1879	0	0	0
1880	0	0	0
1881	0	0	0
1882	255	223	243
1883	250	213	233
1884	0	0	0
1885	0	0	0
1886	0	0	0
1887	255	219	237
1888	255	214	233
1889	252	204	228
1890	255	212	236
1891	255	203	232
1892	254	199	231
1893	255	199	233
1894	251	190	228
1895	254	193	228
1896	255	192	227
1897	255	193	228
1898	255	191	228
1899	255	187	227
1900	249	173	220
1901	251	174	223
1902	255	181	230
1903	251	171	223
1904	255	176	226
1905	255	180	227
1906	255	181	227
1907	250	167	220
1908	246	161	217
1909	254	173	226
1910	255	178	229
1911	252	172	223
1912	252	175	224
1913	251	176	225
1914	255	186	229
1915	255	195	232
1916	254	193	227
1917	255	198	228
1918	255	197	228
1919	253	189	223
1920	249	185	222
1921	251	188	227
1922	255	191	231
1923	251	186	227
1924	255	192	230
1925	255	194	229
1926	248	182	221
1927	248	182	224
1928	253	191	232
1929	253	194	234
1930	253	198	235
1931	255	204	234
1932	249	202	230
1933	0	0	0
1934	0	0	0
1935	0	0	0
1936	0	0	0
1937	0	0	0
1938	0	0	0
1939	0	0	0
1940	0	0	0
1941	0	0	0
1942	0	0	0
1943	0	0	0
1944	255	246	242
1945	255	247	246
1946	255	231	238
1947	250	215	229
1948	252	212	227
1949	251	207	223
1950	252	204	222
1951	254	202	225
1952	253	196	225
1953	251	189	222
1954	249	181	218
1955	245	172	212
1956	249	172	215
1957	253	174	220
1958	248	164	215
1959	240	151	207
1960	247	160	214
1961	253	168	220
1962	251	166	218
1963	250	165	216
1964	250	163	216
1965	249	163	220
1966	245	160	220
1967	241	156	220
1968	245	166	226
1969	246	174	227
1970	243	178	227
1971	248	188	235
1972	244	180	231
1973	240	175	230
1974	234	171	228
1975	0	0	0
1976	0	0	0
1977	0	0	0
1978	0	0	0
1979	0	0	0
1980	0	0	0
1981	0	0	0
1982	0	0	0
1983	0	0	0
1984	0	0	0
1985	0	0	0
1986	0	0	0
1987	0	0	0
1988	0	0	0
1989	0	0	0
1990	0	0	0
1991	0	0	0
1992	0	0	0
1993	0	0	0
1994	0	0	0
1995	0	0	0
1996	0	0	0
1997	0	0	0
1998	0	0	0
1999	0	0	0
2000	0	0	0
2001	0	0	0
2002	0	0	0
2003	0	0	0
2004	0	0	0
2005	0	0	0
2006	0	0	0
2007	0	0	0
2008	0	0	0
2009	0	0	0
2010	0	0	0
2011	0	0	0
2012	0	0	0
2013	0	0	0
2014	0	0	0
2015	0	0	0
2016	0	0	0
2017	0	0	0
2018	0	0	0
2019	0	0	0
2020	0	0	0
2021	0	0	0
2022	0	0	0
2023	0	0	0
2024	0	0	0
2025	255	223	236
2026	254	214	232
2027	251	206	229
2028	252	202	230
2029	247	193	225
2030	249	193	228
2031	251	194	233
2032	253	195	233
2033	254	196	229
2034	254	194	225
2035	255	195	228
2036	254	190	227
2037	253	185	226
2038	255	185	228
2039	255	186	231
2040	253	179	226
2041	246	169	219
2042	251	175	223
2043	255	180	226
2044	248	167	218
2045	239	154	211
2046	249	168	222
2047	255	180	229
2048	253	175	226
2049	249	170	224
2050	250	175	226
2051	249	176	224
2052	253	186	228
2053	255	195	232
2054	255	196	229
2055	255	201	231
2056	255	194	227
2057	250	187	224
2058	251	189	227
2059	253	192	231
2060	253	189	231
2061	250	184	228
2062	253	188	230
2063	255	190	230
2064	254	190	229
2065	253	190	231
2066	255	195	235
2067	253	196	235
2068	255	204	238
2069	255	210	239
2070	253	212	237
2071	0	0	0
2072	0	0	0
2073	0	0	0
2074	0	0	0
2075	0	0	0
2076	0	0	0
2077	0	0	0
2078	0	0	0
2079	0	0	0
2080	0	0	0
2081	255	242	238
2082	255	242	240
2083	255	232	237
2084	252	217	230
2085	251	210	229
2086	253	208	228
2087	254	205	225
2088	254	202	224
2089	255	200	225
2090	255	194	225
2091	254	187	226
2092	253	180	224
2093	250	172	219
2094	253	172	222
2095	252	168	222
2096	246	157	216
2097	248	159	218
2098	255	167	224
2099	254	167	223
2100	252	165	222
2101	252	165	221
2102	251	163	221
2103	249	164	223
2104	242	159	222
2105	248	172	233
2106	251	181	239
2107	244	178	233
2108	241	182	232
2109	244	192	239
2110	235	182	232
2111	234	185	234
2112	0	0	0
2113	0	0	0
2114	0	0	0
2115	0	0	0
2116	0	0	0
2117	0	0	0
2118	0	0	0
2119	0	0	0
2120	0	0	0
2121	0	0	0
2122	0	0	0
2123	0	0	0
2124	0	0	0
2125	0	0	0
2126	0	0	0
2127	0	0	0
2128	0	0	0
2129	0	0	0
2130	0	0	0
2131	0	0	0
2132	0	0	0
2133	0	0	0
2134	0	0	0
2135	0	0	0
2136	0	0	0
2137	0	0	0
2138	0	0	0
2139	0	0	0
2140	0	0	0
2141	0	0	0
2142	0	0	0
2143	0	0	0
2144	0	0	0
2145	0	0	0
2146	0	0	0
2147	0	0	0
2148	0	0	0
2149	0	0	0
2150	0	0	0
2151	0	0	0
2152	0	0	0
2153	0	0	0
2154	0	0	0
2155	0	0	0
2156	0	0	0
2157	0	0	0
2158	0	0	0
2159	0	0	0
2160	0	0	0
2161	0	0	0
2162	0	0	0
2163	255	226	238
2164	253	219	235
2165	253	212	234
2166	255	209	235
2167	248	195	227
2168	249	196	230
2169	254	201	238
2170	255	202	238
2171	255	204	234
2172	255	202	231
2173	255	197	230
2174	253	191	229
2175	252	187	227
2176	253	187	228
2177	255	191	233
2178	253	183	227
2179	252	181	226
2180	255	187	230
2181	255	187	231
2182	251	175	224
2183	245	166	220
2184	255	180	231
2185	255	182	230
2186	252	177	226
2187	250	176	227
2188	253	181	230
2189	255	187	232
2190	255	197	236
2191	255	197	233
2192	255	198	231
2193	255	201	232
2194	253	193	228
2195	251	189	227
2196	254	192	232
2197	255	192	233
2198	254	189	232
2199	253	187	231
2200	254	190	233
2201	254	190	232
2202	253	190	231
2203	252	190	232
2204	253	194	235
2205	250	194	233
2206	252	201	236
2207	253	210	238
2208	0	0	0
2209	0	0	0
2210	0	0	0
2211	0	0	0
2212	0	0	0
2213	0	0	0
2214	0	0	0
2215	0	0	0
2216	0	0	0
2217	0	0	0
2218	0	0	0
2219	255	240	240
2220	255	229	234
2221	252	217	227
2222	252	211	226
2223	253	206	229
2224	255	205	232
2225	255	203	230
2226	255	199	227
2227	255	196	224
2228	254	187	222
2229	254	181	227
2230	253	175	228
2231	249	167	224
2232	247	162	222
2233	245	157	221
2234	247	159	223
2235	248	159	222
2236	247	159	221
2237	245	157	219
2238	245	158	220
2239	246	158	222
2240	246	160	225
2241	242	159	225
2242	242	167	230
2243	245	179	239
2244	235	174	233
2245	228	170	227
2246	228	177	229
2247	231	186	236
2248	229	188	236
2249	0	0	0
2250	0	0	0
2251	0	0	0
2252	0	0	0
2253	0	0	0
2254	0	0	0
2255	0	0	0
2256	0	0	0
2257	0	0	0
2258	0	0	0
2259	0	0	0
2260	0	0	0
2261	0	0	0
2262	0	0	0
2263	0	0	0
2264	0	0	0
2265	0	0	0
2266	0	0	0
2267	0	0	0
2268	0	0	0
2269	0	0	0
2270	0	0	0
2271	0	0	0
2272	0	0	0
2273	0	0	0
2274	0	0	0
2275	0	0	0
2276	0	0	0
2277	0	0	0
2278	0	0	0
2279	0	0	0
2280	0	0	0
2281	0	0	0
2282	0	0	0
2283	0	0	0
2284	0	0	0
2285	0	0	0
2286	0	0	0
2287	0	0	0
2288	0	0	0
2289	0	0	0
2290	0	0	0
2291	0	0	0
2292	0	0	0
2293	0	0	0
2294	0	0	0
2295	0	0	0
2296	0	0	0
2297	0	0	0
2298	0	0	0
2299	0	0	0
2300	0	0	0
2301	0	0	0
2302	252	222	237
2303	252	215	236
2304	249	206	232
2305	242	192	223
2306	248	199	230
2307	252	203	234
2308	255	208	237
2309	255	212	239
2310	255	204	234
2311	255	198	234
2312	254	195	234
2313	252	190	230
2314	255	193	232
2315	255	197	234
2316	255	193	232
2317	255	191	230
2318	255	190	231
2319	255	190	232
2320	252	182	228
2321	247	173	226
2322	251	179	231
2323	251	180	229
2324	249	179	226
2325	247	177	225
2326	253	187	231
2327	255	194	236
2328	253	194	233
2329	251	194	229
2330	250	194	228
2331	253	197	231
2332	250	192	229
2333	249	188	229
2334	252	189	231
2335	252	189	230
2336	252	188	230
2337	251	186	230
2338	252	188	232
2339	250	187	231
2340	248	187	231
2341	246	186	230
2342	246	189	231
2343	243	189	231
2344	247	200	236
2345	0	0	0
2346	0	0	0
2347	0	0	0
2348	0	0	0
2349	0	0	0
2350	0	0	0
2351	0	0	0
2352	0	0	0
2353	0	0	0
2354	0	0	0
2355	0	0	0
2356	0	0	0
2357	255	235	239
2358	255	223	232
2359	251	209	224
2360	251	203	224
2361	255	204	231
2362	255	202	233
2363	255	197	231
2364	255	193	228
2365	254	189	224
2366	251	180	221
2367	251	175	226
2368	250	168	228
2369	250	167	229
2370	247	162	227
2371	252	168	232
2372	253	169	233
2373	250	166	230
2374	246	164	228
2375	247	167	230
2376	247	168	231
2377	246	167	232
2378	245	167	233
2379	241	169	234
2380	238	176	236
2381	240	190	244
2382	0	0	0
2383	0	0	0
2384	0	0	0
2385	0	0	0
2386	0	0	0
2387	0	0	0
2388	0	0	0
2389	0	0	0
2390	0	0	0
2391	0	0	0
2392	0	0	0
2393	0	0	0
2394	0	0	0
2395	0	0	0
2396	0	0	0
2397	0	0	0
2398	0	0	0
2399	0	0	0
2400	0	0	0
2401	0	0	0
2402	0	0	0
2403	0	0	0
2404	0	0	0
2405	0	0	0
2406	0	0	0
2407	0	0	0
2408	0	0	0
2409	0	0	0
2410	0	0	0
2411	0	0	0
2412	0	0	0
2413	0	0	0
2414	0	0	0
2415	0	0	0
2416	0	0	0
2417	0	0	0
2418	0	0	0
2419	0	0	0
2420	0	0	0
2421	0	0	0
2422	0	0	0
2423	0	0	0
2424	0	0	0
2425	0	0	0
2426	0	0	0
2427	0	0	0
2428	0	0	0
2429	0	0	0
2430	0	0	0
2431	0	0	0
2432	0	0	0
2433	0	0	0
2434	0	0	0
2435	0	0	0
2436	0	0	0
2437	0	0	0
2438	0	0	0
2439	0	0	0
2440	0	0	0
2441	255	224	241
2442	252	214	236
2443	247	205	231
2444	252	211	236
2445	250	207	232
2446	255	213	237
2447	255	208	234
2448	252	200	231
2449	255	206	239
2450	255	202	239
2451	251	193	232
2452	254	196	234
2453	255	197	234
2454	253	193	230
2455	255	197	233
2456	255	196	233
2457	255	193	231
2458	251	186	228
2459	253	187	234
2460	255	193	238
2461	255	191	234
2462	253	190	231
2463	253	192	232
2464	255	202	239
2465	255	200	237
2466	251	199	234
2467	253	204	234
2468	255	206	236
2469	255	203	235
2470	252	198	233
2471	253	196	235
2472	255	197	236
2473	255	198	235
2474	255	197	235
2475	251	189	230
2476	252	190	233
2477	251	192	235
2478	246	190	233
2479	246	195	235
2480	247	197	236
2481	0	0	0
2482	0	0	0
2483	0	0	0
2484	0	0	0
2485	0	0	0
2486	0	0	0
2487	0	0	0
2488	0	0	0
2489	0	0	0
2490	0	0	0
2491	0	0	0
2492	255	243	245
2493	255	239	242
2494	255	235	239
2495	255	230	235
2496	255	216	228
2497	252	204	226
2498	255	204	231
2499	255	203	233
2500	254	195	229
2501	252	189	227
2502	250	183	225
2503	251	180	225
2504	247	171	222
2505	244	164	222
2506	245	164	226
2507	245	162	227
2508	249	168	231
2509	252	173	234
2510	250	170	233
2511	245	166	233
2512	239	166	232
2513	237	167	233
2514	232	163	229
2515	229	160	228
2516	232	167	232
2517	229	169	233
2518	232	184	239
2519	0	0	0
2520	0	0	0
2521	0	0	0
2522	0	0	0
2523	0	0	0
2524	0	0	0
2525	0	0	0
2526	0	0	0
2527	0	0	0
2528	0	0	0
2529	0	0	0
2530	0	0	0
2531	0	0	0
2532	0	0	0
2533	0	0	0
2534	0	0	0
2535	0	0	0
2536	0	0	0
2537	0	0	0
2538	0	0	0
2539	0	0	0
2540	0	0	0
2541	0	0	0
2542	0	0	0
2543	0	0	0
2544	0	0	0
2545	0	0	0
2546	0	0	0
2547	0	0	0
2548	0	0	0
2549	0	0	0
2550	0	0	0
2551	0	0	0
2552	0	0	0
2553	0	0	0
2554	0	0	0
2555	0	0	0
2556	0	0	0
2557	0	0	0
2558	0	0	0
2559	0	0	0
2560	0	0	0
2561	0	0	0
2562	0	0	0
2563	0	0	0
2564	0	0	0
2565	0	0	0
2566	0	0	0
2567	0	0	0
2568	0	0	0
2569	0	0	0
2570	0	0	0
2571	0	0	0
2572	0	0	0
2573	0	0	0
2574	0	0	0
2575	0	0	0
2576	0	0	0
2577	0	0	0
2578	0	0	0
2579	0	0	0
2580	255	225	241
2581	250	216	237
2582	251	215	237
2583	250	210	232
2584	252	208	231
2585	251	203	230
2586	254	207	234
2587	255	212	241
2588	255	204	237
2589	250	195	232
2590	252	198	234
2591	253	198	234
2592	254	200	235
2593	255	204	238
2594	255	200	235
2595	0	0	0
2596	0	0	0
2597	255	200	239
2598	255	203	241
2599	255	201	237
2600	255	205	239
2601	255	208	240
2602	255	205	237
2603	251	202	233
2604	250	205	234
2605	254	211	237
2606	253	208	235
2607	253	206	234
2608	255	205	236
2609	255	204	237
2610	255	206	240
2611	255	206	238
2612	251	195	229
2613	244	186	225
2614	248	191	230
2615	247	192	233
2616	246	197	236
2617	0	0	0
2618	0	0	0
2619	0	0	0
2620	0	0	0
2621	0	0	0
2622	0	0	0
2623	0	0	0
2624	0	0	0
2625	0	0	0
2626	0	0	0
2627	0	0	0
2628	0	0	0
2629	255	238	242
2630	255	234	241
2631	255	221	231
2632	255	216	229
2633	255	211	226
2634	248	196	220
2635	250	194	225
2636	253	194	229
2637	252	189	227
2638	247	181	223
2639	255	191	232
2640	253	185	230
2641	253	183	232
2642	249	174	229
2643	252	177	234
2644	251	175	235
2645	248	172	235
2646	250	176	239
2647	250	177	238
2648	248	174	237
2649	244	176	239
2650	230	171	235
2651	232	182	241
2652	225	176	235
2653	0	0	0
2654	0	0	0
2655	0	0	0
2656	0	0	0
2657	0	0	0
2658	0	0	0
2659	0	0	0
2660	0	0	0
2661	0	0	0
2662	0	0	0
2663	0	0	0
2664	0	0	0
2665	0	0	0
2666	0	0	0
2667	0	0	0
2668	0	0	0
2669	0	0	0
2670	0	0	0
2671	0	0	0
2672	0	0	0
2673	0	0	0
2674	0	0	0
2675	0	0	0
2676	0	0	0
2677	0	0	0
2678	0	0	0
2679	0	0	0
2680	0	0	0
2681	0	0	0
2682	0	0	0
2683	0	0	0
2684	0	0	0
2685	0	0	0
2686	0	0	0
2687	0	0	0
2688	0	0	0
2689	0	0	0
2690	0	0	0
2691	0	0	0
2692	0	0	0
2693	0	0	0
2694	0	0	0
2695	0	0	0
2696	0	0	0
2697	0	0	0
2698	0	0	0
2699	0	0	0
2700	0	0	0
2701	0	0	0
2702	0	0	0
2703	0	0	0
2704	0	0	0
2705	0	0	0
2706	0	0	0
2707	0	0	0
2708	0	0	0
2709	0	0	0
2710	0	0	0
2711	0	0	0
2712	0	0	0
2713	0	0	0
2714	0	0	0
2715	0	0	0
2716	0	0	0
2717	0	0	0
2718	0	0	0
2719	250	222	239
2720	255	224	241
2721	251	213	233
2722	250	209	231
2723	251	208	232
2724	255	212	237
2725	0	0	0
2726	0	0	0
2727	0	0	0
2728	0	0	0
2729	0	0	0
2730	0	0	0
2731	0	0	0
2732	0	0	0
2733	0	0	0
2734	0	0	0
2735	255	209	241
2736	255	211	243
2737	251	198	232
2738	254	202	234
2739	255	207	237
2740	248	203	232
2741	253	213	237
2742	255	218	239
2743	253	216	239
2744	251	212	237
2745	253	211	237
2746	255	212	240
2747	253	201	234
2748	255	203	236
2749	250	198	232
2750	0	0	0
2751	0	0	0
2752	0	0	0
2753	0	0	0
2754	0	0	0
2755	0	0	0
2756	0	0	0
2757	0	0	0
2758	0	0	0
2759	0	0	0
2760	0	0	0
2761	0	0	0
2762	0	0	0
2763	0	0	0
2764	0	0	0
2765	0	0	0
2766	255	236	240
2767	255	229	236
2768	253	215	227
2769	248	203	221
2770	247	197	221
2771	248	193	224
2772	248	188	224
2773	247	183	222
2774	245	178	220
2775	242	174	221
2776	247	180	227
2777	254	189	233
2778	251	183	231
2779	250	180	232
2780	249	180	234
2781	250	182	237
2782	244	176	234
2783	239	171	234
2784	236	171	234
2785	235	171	234
2786	236	175	236
2787	231	175	235
2788	228	184	239
2789	230	196	245
2790	0	0	0
2791	0	0	0
2792	0	0	0
2793	0	0	0
2794	0	0	0
2795	0	0	0
2796	0	0	0
2797	0	0	0
2798	0	0	0
2799	0	0	0
2800	0	0	0
2801	0	0	0
2802	0	0	0
2803	0	0	0
2804	0	0	0
2805	0	0	0
2806	0	0	0
2807	0	0	0
2808	0	0	0
2809	0	0	0
2810	0	0	0
2811	0	0	0
2812	0	0	0
2813	0	0	0
2814	0	0	0
2815	0	0	0
2816	0	0	0
2817	0	0	0
2818	0	0	0
2819	0	0	0
2820	0	0	0
2821	0	0	0
2822	0	0	0
2823	0	0	0
2824	0	0	0
2825	0	0	0
2826	0	0	0
2827	0	0	0
2828	0	0	0
2829	0	0	0
2830	0	0	0
2831	0	0	0
2832	0	0	0
2833	0	0	0
2834	0	0	0
2835	0	0	0
2836	0	0	0
2837	0	0	0
2838	0	0	0
2839	0	0	0
2840	0	0	0
2841	0	0	0
2842	0	0	0
2843	0	0	0
2844	0	0	0
2845	0	0	0
2846	0	0	0
2847	0	0	0
2848	0	0	0
2849	0	0	0
2850	0	0	0
2851	0	0	0
2852	0	0	0
2853	0	0	0
2854	0	0	0
2855	0	0	0
2856	0	0	0
2857	0	0	0
2858	255	224	241
2859	251	214	235
2860	252	214	235
2861	252	213	234
2862	0	0	0
2863	0	0	0
2864	0	0	0
2865	0	0	0
2866	0	0	0
2867	0	0	0
2868	0	0	0
2869	0	0	0
2870	0	0	0
2871	0	0	0
2872	0	0	0
2873	0	0	0
2874	251	206	234
2875	243	194	228
2876	250	204	235
2877	251	208	236
2878	254	217	240
2879	255	228	245
2880	255	222	241
2881	254	221	242
2882	252	217	241
2883	252	216	240
2884	249	206	234
2885	243	194	227
2886	243	193	228
2887	0	0	0
2888	0	0	0
2889	0	0	0
2890	0	0	0
2891	0	0	0
2892	0	0	0
2893	0	0	0
2894	0	0	0
2895	0	0	0
2896	0	0	0
2897	0	0	0
2898	0	0	0
2899	0	0	0
2900	0	0	0
2901	0	0	0
2902	0	0	0
2903	255	228	236
2904	255	220	232
2905	252	211	228
2906	247	198	221
2907	252	201	225
2908	251	195	226
2909	250	189	228
2910	248	184	227
2911	251	186	228
2912	247	180	225
2913	249	183	231
2914	251	187	235
2915	255	197	241
2916	253	190	238
2917	246	182	234
2918	241	179	233
2919	248	195	243
2920	238	186	237
2921	0	0	0
2922	0	0	0
2923	0	0	0
2924	0	0	0
2925	0	0	0
2926	0	0	0
2927	0	0	0
2928	0	0	0
2929	0	0	0
2930	0	0	0
2931	0	0	0
2932	0	0	0
2933	0	0	0
2934	0	0	0
2935	0	0	0
2936	0	0	0
2937	0	0	0
2938	0	0	0
2939	0	0	0
2940	0	0	0
2941	0	0	0
2942	0	0	0
2943	0	0	0
2944	0	0	0
2945	0	0	0
2946	0	0	0
2947	0	0	0
2948	0	0	0
2949	0	0	0
2950	0	0	0
2951	0	0	0
2952	0	0	0
2953	0	0	0
2954	0	0	0
2955	0	0	0
2956	0	0	0
2957	0	0	0
2958	0	0	0
2959	0	0	0
2960	0	0	0
2961	0	0	0
2962	0	0	0
2963	0	0	0
2964	0	0	0
2965	0	0	0
2966	0	0	0
2967	0	0	0
2968	0	0	0
2969	0	0	0
2970	0	0	0
2971	0	0	0
2972	0	0	0
2973	0	0	0
2974	0	0	0
2975	0	0	0
2976	0	0	0
2977	0	0	0
2978	0	0	0
2979	0	0	0
2980	0	0	0
2981	0	0	0
2982	0	0	0
2983	0	0	0
2984	0	0	0
2985	0	0	0
2986	0	0	0
2987	0	0	0
2988	0	0	0
2989	0	0	0
2990	0	0	0
2991	0	0	0
2992	0	0	0
2993	0	0	0
2994	0	0	0
2995	0	0	0
2996	0	0	0
2997	0	0	0
2998	0	0	0
2999	0	0	0
3000	0	0	0
3001	0	0	0
3002	0	0	0
3003	0	0	0
3004	0	0	0
3005	0	0	0
3006	0	0	0
3007	0	0	0
3008	0	0	0
3009	0	0	0
3010	0	0	0
3011	0	0	0
3012	0	0	0
3013	248	212	237
3014	255	223	246
3015	247	209	234
3016	254	220	240
3017	255	229	244
3018	254	223	240
3019	255	227	245
3020	0	0	0
3021	0	0	0
3022	0	0	0
3023	0	0	0
3024	0	0	0
3025	0	0	0
3026	0	0	0
3027	0	0	0
3028	0	0	0
3029	0	0	0
3030	0	0	0
3031	0	0	0
3032	0	0	0
3033	0	0	0
3034	0	0	0
3035	0	0	0
3036	0	0	0
3037	0	0	0
3038	0	0	0
3039	0	0	0
3040	0	0	0
3041	252	211	229
3042	248	202	226
3043	245	193	224
3044	249	195	228
3045	253	196	230
3046	248	187	226
3047	245	179	226
3048	248	182	229
3049	248	182	229
3050	249	184	231
3051	249	186	234
3052	247	189	237
3053	250	196	243
3054	240	184	234
3055	232	175	229
3056	238	189	237
3057	243	203	244
3058	0	0	0
3059	0	0	0
3060	0	0	0
3061	0	0	0
3062	0	0	0
3063	0	0	0
3064	0	0	0
3065	0	0	0
3066	0	0	0
3067	0	0	0
3068	0	0	0
3069	0	0	0
3070	0	0	0
3071	0	0	0
3072	0	0	0
3073	0	0	0
3074	0	0	0
3075	0	0	0
3076	0	0	0
3077	0	0	0
3078	0	0	0
3079	0	0	0
3080	0	0	0
3081	0	0	0
3082	0	0	0
3083	0	0	0
3084	0	0	0
3085	0	0	0
3086	0	0	0
3087	0	0	0
3088	0	0	0
3089	0	0	0
3090	0	0	0
3091	0	0	0
3092	0	0	0
3093	0	0	0
3094	0	0	0
3095	0	0	0
3096	0	0	0
3097	0	0	0
3098	0	0	0
3099	0	0	0
3100	0	0	0
3101	0	0	0
3102	0	0	0
3103	0	0	0
3104	0	0	0
3105	0	0	0
3106	0	0	0
3107	0	0	0
3108	0	0	0
3109	0	0	0
3110	0	0	0
3111	0	0	0
3112	0	0	0
3113	0	0	0
3114	0	0	0
3115	0	0	0
3116	0	0	0
3117	0	0	0
3118	0	0	0
3119	0	0	0
3120	0	0	0
3121	0	0	0
3122	0	0	0
3123	0	0	0
3124	0	0	0
3125	0	0	0
3126	0	0	0
3127	0	0	0
3128	0	0	0
3129	0	0	0
3130	0	0	0
3131	0	0	0
3132	0	0	0
3133	0	0	0
3134	0	0	0
3135	0	0	0
3136	0	0	0
3137	0	0	0
3138	0	0	0
3139	0	0	0
3140	0	0	0
3141	0	0	0
3142	0	0	0
3143	0	0	0
3144	0	0	0
3145	0	0	0
3146	0	0	0
3147	0	0	0
3148	0	0	0
3149	0	0	0
3150	0	0	0
3151	0	0	0
3152	246	218	237
3153	237	204	228
3154	246	216	237
3155	252	226	241
3156	250	225	239
3157	0	0	0
3158	0	0	0
3159	0	0	0
3160	0	0	0
3161	0	0	0
3162	0	0	0
3163	0	0	0
3164	0	0	0
3165	0	0	0
3166	0	0	0
3167	0	0	0
3168	0	0	0
3169	0	0	0
3170	0	0	0
3171	0	0	0
3172	0	0	0
3173	0	0	0
3174	0	0	0
3175	0	0	0
3176	0	0	0
3177	0	0	0
3178	253	211	231
3179	252	206	231
3180	248	196	228
3181	251	196	231
3182	254	197	235
3183	253	194	234
3184	247	183	228
3185	252	189	234
3186	253	190	237
3187	249	186	233
3188	247	186	234
3189	248	192	239
3190	0	0	0
3191	0	0	0
3192	0	0	0
3193	0	0	0
3194	0	0	0
3195	0	0	0
3196	0	0	0
3197	0	0	0
3198	0	0	0
3199	0	0	0
3200	0	0	0
3201	0	0	0
3202	0	0	0
3203	0	0	0
3204	0	0	0
3205	0	0	0
3206	0	0	0
3207	0	0	0
3208	0	0	0
3209	0	0	0
3210	0	0	0
3211	0	0	0
3212	0	0	0
3213	0	0	0
3214	0	0	0
3215	0	0	0
3216	0	0	0
3217	0	0	0
3218	0	0	0
3219	0	0	0
3220	0	0	0
3221	0	0	0
3222	0	0	0
3223	0	0	0
3224	0	0	0
3225	0	0	0
3226	0	0	0
3227	0	0	0
3228	0	0	0
3229	0	0	0
3230	0	0	0
3231	0	0	0
3232	0	0	0
3233	0	0	0
3234	0	0	0
3235	0	0	0
3236	0	0	0
3237	0	0	0
3238	0	0	0
3239	0	0	0
3240	0	0	0
3241	0	0	0
3242	0	0	0
3243	0	0	0
3244	0	0	0
3245	0	0	0
3246	0	0	0
3247	0	0	0
3248	0	0	0
3249	0	0	0
3250	0	0	0
3251	0	0	0
3252	0	0	0
3253	0	0	0
3254	0	0	0
3255	0	0	0
3256	0	0	0
3257	0	0	0
3258	0	0	0
3259	0	0	0
3260	0	0	0
3261	0	0	0
3262	0	0	0
3263	0	0	0
3264	0	0	0
3265	0	0	0
3266	0	0	0
3267	0	0	0
3268	0	0	0
3269	0	0	0
3270	0	0	0
3271	0	0	0
3272	0	0	0
3273	0	0	0
3274	0	0	0
3275	0	0	0
3276	0	0	0
3277	0	0	0
3278	0	0	0
3279	0	0	0
3280	0	0	0
3281	0	0	0
3282	0	0	0
3283	0	0	0
3284	0	0	0
3285	0	0	0
3286	0	0	0
3287	0	0	0
3288	0	0	0
3289	0	0	0
3290	0	0	0
3291	0	0	0
3292	0	0	0
3293	0	0	0
3294	0	0	0
3295	0	0	0
3296	0	0	0
3297	0	0	0
3298	0	0	0
3299	0	0	0
3300	0	0	0
3301	0	0	0
3302	0	0	0
3303	0	0	0
3304	0	0	0
3305	0	0	0
3306	0	0	0
3307	0	0	0
3308	0	0	0
3309	0	0	0
3310	0	0	0
3311	0	0	0
3312	0	0	0
3313	0	0	0
3314	0	0	0
3315	251	208	232
3316	249	201	231
3317	247	194	229
3318	249	194	230
3319	249	191	229
3320	248	188	228
3321	247	185	231
3322	248	188	233
3323	249	191	233
3324	240	183	227
3325	236	178	227
3326	239	186	234
3327	0	0	0
3328	0	0	0
3329	0	0	0
3330	0	0	0
3331	0	0	0
3332	0	0	0
3333	0	0	0
3334	0	0	0
3335	0	0	0
3336	0	0	0
3337	0	0	0
3338	0	0	0
3339	0	0	0
3340	0	0	0
3341	0	0	0
3342	0	0	0
3343	0	0	0
3344	0	0	0
3345	0	0	0
3346	0	0	0
3347	0	0	0
3348	0	0	0
3349	0	0	0
3350	0	0	0
3351	0	0	0
3352	0	0	0
3353	0	0	0
3354	0	0	0
3355	0	0	0
3356	0	0	0
3357	0	0	0
3358	0	0	0
3359	0	0	0
3360	0	0	0
3361	0	0	0
3362	0	0	0
3363	0	0	0
3364	0	0	0
3365	0	0	0
3366	0	0	0
3367	0	0	0
3368	0	0	0
3369	0	0	0
3370	0	0	0
3371	0	0	0
3372	0	0	0
3373	0	0	0
3374	0	0	0
3375	0	0	0
3376	0	0	0
3377	0	0	0
3378	0	0	0
3379	0	0	0
3380	0	0	0
3381	0	0	0
3382	0	0	0
3383	0	0	0
3384	0	0	0
3385	0	0	0
3386	0	0	0
3387	0	0	0
3388	0	0	0
3389	0	0	0
3390	0	0	0
3391	0	0	0
3392	0	0	0
3393	0	0	0
3394	0	0	0
3395	0	0	0
3396	0	0	0
3397	0	0	0
3398	0	0	0
3399	0	0	0
3400	0	0	0
3401	0	0	0
3402	0	0	0
3403	0	0	0
3404	0	0	0
3405	0	0	0
3406	0	0	0
3407	0	0	0
3408	0	0	0
3409	0	0	0
3410	0	0	0
3411	0	0	0
3412	0	0	0
3413	0	0	0
3414	0	0	0
3415	0	0	0
3416	0	0	0
3417	0	0	0
3418	0	0	0
3419	0	0	0
3420	0	0	0
3421	0	0	0
3422	0	0	0
3423	0	0	0
3424	0	0	0
3425	0	0	0
3426	0	0	0
3427	0	0	0
3428	0	0	0
3429	0	0	0
3430	0	0	0
3431	0	0	0
3432	0	0	0
3433	0	0	0
3434	0	0	0
3435	0	0	0
3436	0	0	0
3437	0	0	0
3438	0	0	0
3439	0	0	0
3440	0	0	0
3441	0	0	0
3442	0	0	0
3443	0	0	0
3444	0	0	0
3445	0	0	0
3446	0	0	0
3447	0	0	0
3448	0	0	0
3449	0	0	0
3450	0	0	0
3451	0	0	0
3452	0	0	0
3453	255	217	242
3454	255	209	241
3455	248	195	234
3456	249	193	234
3457	252	196	234
3458	249	191	232
3459	248	190	235
3460	245	190	235
3461	246	198	235
3462	0	0	0
3463	0	0	0
3464	0	0	0
3465	0	0	0
3466	0	0	0
3467	0	0	0
3468	0	0	0
3469	0	0	0
3470	0	0	0
3471	0	0	0
3472	0	0	0
3473	0	0	0
3474	0	0	0
3475	0	0	0
3476	0	0	0
3477	0	0	0
3478	0	0	0
3479	0	0	0
3480	0	0	0
3481	0	0	0
3482	0	0	0
3483	0	0	0
3484	0	0	0
3485	0	0	0
3486	0	0	0
3487	0	0	0
3488	0	0	0
3489	0	0	0
3490	0	0	0
3491	0	0	0
3492	0	0	0
3493	0	0	0
3494	0	0	0
3495	0	0	0
3496	0	0	0
3497	0	0	0
3498	0	0	0
3499	0	0	0
3500	0	0	0
3501	0	0	0
3502	0	0	0
3503	0	0	0
3504	0	0	0
3505	0	0	0
3506	0	0	0
3507	0	0	0
3508	0	0	0
3509	0	0	0
3510	0	0	0
3511	0	0	0
3512	0	0	0
3513	0	0	0
3514	0	0	0
3515	0	0	0
3516	0	0	0
3517	0	0	0
3518	0	0	0
3519	0	0	0
3520	0	0	0
3521	0	0	0
3522	0	0	0
3523	0	0	0
3524	0	0	0
3525	0	0	0
3526	0	0	0
3527	0	0	0
3528	0	0	0
3529	0	0	0
3530	0	0	0
3531	0	0	0
3532	0	0	0
3533	0	0	0
3534	0	0	0
3535	0	0	0
3536	0	0	0
3537	0	0	0
3538	0	0	0
3539	0	0	0
3540	0	0	0
3541	0	0	0
3542	0	0	0
3543	0	0	0
3544	0	0	0
3545	0	0	0
3546	0	0	0
3547	0	0	0
3548	0	0	0
3549	0	0	0
3550	0	0	0
3551	0	0	0
3552	0	0	0
3553	0	0	0
3554	0	0	0
3555	0	0	0
3556	0	0	0
3557	0	0	0
3558	0	0	0
3559	0	0	0
3560	0	0	0
3561	0	0	0
3562	0	0	0
3563	0	0	0
3564	0	0	0
3565	0	0	0
3566	0	0	0
3567	0	0	0
3568	0	0	0
3569	0	0	0
3570	0	0	0
3571	0	0	0
3572	0	0	0
3573	0	0	0
3574	0	0	0
3575	0	0	0
3576	0	0	0
3577	0	0	0
3578	0	0	0
3579	0	0	0
3580	0	0	0
3581	0	0	0
3582	0	0	0
3583	0	0	0
3584	0	0	0
3585	0	0	0
3586	0	0	0
3587	0	0	0
3588	0	0	0
3589	0	0	0
3590	253	210	238
3591	255	220	245
3592	252	204	237
3593	244	189	232
3594	247	193	237
3595	248	194	237
3596	244	190	234
3597	239	187	233
3598	242	197	237
3599	0	0	0
3600	0	0	0
3601	0	0	0
3602	0	0	0
3603	0	0	0
3604	0	0	0
3605	0	0	0
3606	0	0	0
3607	0	0	0
3608	0	0	0
3609	0	0	0
3610	0	0	0
3611	0	0	0
3612	0	0	0
3613	0	0	0
3614	0	0	0
3615	0	0	0
3616	0	0	0
3617	0	0	0
3618	0	0	0
3619	0	0	0
3620	0	0	0
3621	0	0	0
3622	0	0	0
3623	0	0	0
3624	0	0	0
3625	0	0	0
3626	0	0	0
3627	0	0	0
3628	0	0	0
3629	0	0	0
3630	0	0	0
3631	0	0	0
3632	0	0	0
3633	0	0	0
3634	0	0	0
3635	0	0	0
3636	0	0	0
3637	0	0	0
3638	0	0	0
3639	0	0	0
3640	0	0	0
3641	0	0	0
3642	0	0	0
3643	0	0	0
3644	0	0	0
3645	0	0	0
3646	0	0	0
3647	0	0	0
3648	0	0	0
3649	0	0	0
3650	0	0	0
3651	0	0	0
3652	0	0	0
3653	0	0	0
3654	0	0	0
3655	0	0	0
3656	0	0	0
3657	0	0	0
3658	0	0	0
3659	0	0	0
3660	0	0	0
3661	0	0	0
3662	0	0	0
3663	0	0	0
3664	0	0	0
3665	0	0	0
3666	0	0	0
3667	0	0	0
3668	0	0	0
3669	0	0	0
3670	0	0	0
3671	0	0	0
3672	0	0	0
3673	0	0	0
3674	0	0	0
3675	0	0	0
3676	0	0	0
3677	0	0	0
3678	0	0	0
3679	0	0	0
3680	0	0	0
3681	0	0	0
3682	0	0	0
3683	0	0	0
3684	0	0	0
3685	0	0	0
3686	0	0	0
3687	0	0	0
3688	0	0	0
3689	0	0	0
3690	0	0	0
3691	0	0	0
3692	0	0	0
3693	0	0	0
3694	0	0	0
3695	0	0	0
3696	0	0	0
3697	0	0	0
3698	0	0	0
3699	0	0	0
3700	0	0	0
3701	0	0	0
3702	0	0	0
3703	0	0	0
3704	0	0	0
3705	0	0	0
3706	0	0	0
3707	0	0	0
3708	0	0	0
3709	0	0	0
3710	0	0	0
3711	0	0	0
3712	0	0	0
3713	0	0	0
3714	0	0	0
3715	0	0	0
3716	0	0	0
3717	0	0	0
3718	0	0	0
3719	0	0	0
3720	0	0	0
3721	0	0	0
3722	0	0	0
3723	0	0	0
3724	0	0	0
3725	0	0	0
3726	0	0	0
3727	251	212	238
3728	255	223	248
3729	255	211	239
3730	244	194	230
3731	249	200	239
3732	251	202	243
3733	250	205	243
3734	0	0	0
3735	0	0	0
3736	0	0	0
3737	0	0	0
3738	0	0	0
3739	0	0	0
3740	0	0	0
3741	0	0	0
3742	0	0	0
3743	0	0	0
3744	0	0	0
3745	0	0	0
3746	0	0	0
3747	0	0	0
3748	0	0	0
3749	0	0	0
3750	0	0	0
3751	0	0	0
3752	0	0	0
3753	0	0	0
3754	0	0	0
3755	0	0	0
3756	0	0	0
3757	0	0	0
3758	0	0	0
3759	0	0	0
3760	0	0	0
3761	0	0	0
3762	0	0	0
3763	0	0	0
3764	0	0	0
3765	0	0	0
3766	0	0	0
3767	0	0	0
3768	0	0	0
3769	0	0	0
3770	0	0	0
3771	0	0	0
3772	0	0	0
3773	0	0	0
3774	0	0	0
3775	0	0	0
3776	0	0	0
3777	0	0	0
3778	0	0	0
3779	0	0	0
3780	0	0	0
3781	0	0	0
3782	0	0	0
3783	0	0	0
3784	0	0	0
3785	0	0	0
3786	0	0	0
3787	0	0	0
3788	0	0	0
3789	0	0	0
3790	0	0	0
3791	0	0	0
3792	0	0	0
3793	0	0	0
3794	0	0	0
3795	0	0	0
3796	0	0	0
3797	0	0	0
3798	0	0	0
3799	0	0	0
3800	0	0	0
3801	0	0	0
3802	0	0	0
3803	0	0	0
3804	0	0	0
3805	0	0	0
3806	0	0	0
3807	0	0	0
3808	0	0	0
3809	0	0	0
3810	0	0	0
3811	0	0	0
3812	0	0	0
3813	0	0	0
3814	0	0	0
3815	0	0	0
3816	0	0	0
3817	0	0	0
3818	0	0	0
3819	0	0	0
3820	0	0	0
3821	0	0	0
3822	0	0	0
3823	0	0	0
3824	0	0	0
3825	0	0	0
3826	0	0	0
3827	0	0	0
3828	0	0	0
3829	0	0	0
3830	0	0	0
3831	0	0	0
3832	0	0	0
3833	0	0	0
3834	0	0	0
3835	0	0	0
3836	0	0	0
3837	0	0	0
3838	0	0	0
3839	0	0	0
3840	0	0	0
3841	0	0	0
3842	0	0	0
3843	0	0	0
3844	0	0	0
3845	0	0	0
3846	0	0	0
3847	0	0	0
3848	0	0	0
3849	0	0	0
3850	0	0	0
3851	0	0	0
3852	0	0	0
3853	0	0	0
3854	0	0	0
3855	0	0	0
3856	0	0	0
3857	0	0	0
3858	0	0	0
3859	0	0	0
3860	0	0	0
3861	0	0	0
3862	0	0	0
3863	0	0	0
3864	0	0	0
3865	0	0	0
3866	249	209	236
3867	241	197	229
3868	244	201	233
3869	247	205	240
3870	250	210	243
3871	0	0	0
3872	0	0	0
3873	0	0	0
3874	0	0	0
3875	0	0	0
3876	0	0	0
3877	0	0	0
3878	0	0	0
3879	0	0	0
3880	0	0	0
3881	0	0	0
3882	0	0	0
3883	0	0	0
3884	0	0	0
3885	0	0	0
3886	0	0	0
3887	0	0	0
3888	0	0	0
3889	0	0	0
3890	0	0	0
3891	0	0	0
3892	0	0	0
3893	0	0	0
3894	0	0	0
3895	0	0	0
3896	0	0	0
3897	0	0	0
3898	0	0	0
3899	0	0	0
3900	0	0	0
3901	0	0	0
3902	0	0	0
3903	0	0	0
3904	0	0	0
3905	0	0	0
3906	0	0	0
3907	0	0	0
3908	0	0	0
3909	0	0	0
3910	0	0	0
3911	0	0	0
3912	0	0	0
3913	0	0	0
3914	0	0	0
3915	0	0	0
3916	0	0	0
3917	0	0	0
3918	0	0	0
3919	0	0	0
3920	0	0	0
3921	0	0	0
3922	0	0	0
3923	0	0	0
3924	0	0	0
3925	0	0	0
3926	0	0	0
3927	0	0	0
3928	0	0	0
3929	0	0	0
3930	0	0	0
3931	0	0	0
3932	0	0	0
3933	0	0	0
3934	0	0	0
3935	0	0	0
3936	0	0	0
3937	0	0	0
3938	0	0	0
3939	0	0	0
3940	0	0	0
3941	0	0	0
3942	0	0	0
3943	0	0	0
3944	0	0	0
3945	0	0	0
3946	0	0	0
3947	0	0	0
3948	0	0	0
3949	0	0	0
3950	0	0	0
3951	0	0	0
3952	0	0	0
3953	0	0	0
3954	0	0	0
3955	0	0	0
3956	0	0	0
3957	0	0	0
3958	0	0	0
3959	0	0	0
3960	0	0	0
3961	0	0	0
3962	0	0	0
3963	0	0	0
3964	0	0	0
3965	0	0	0
3966	0	0	0
3967	0	0	0
3968	0	0	0
3969	0	0	0
3970	0	0	0
3971	0	0	0
3972	0	0	0
3973	0	0	0
3974	0	0	0
3975	0	0	0
3976	0	0	0
3977	0	0	0
3978	0	0	0
3979	0	0	0
3980	0	0	0
3981	0	0	0
3982	0	0	0
3983	0	0	0
3984	0	0	0
3985	0	0	0
3986	0	0	0
3987	0	0	0
3988	0	0	0
3989	0	0	0
3990	0	0	0
3991	0	0	0
3992	0	0	0
3993	0	0	0
3994	0	0	0
3995	0	0	0
3996	0	0	0
3997	0	0	0
3998	0	0	0
3999	0	0	0
4000	0	0	0
4001	0	0	0
4002	0	0	0
