 	R	G	B
1	0	0	0
2	0	0	0
3	0	0	0
4	0	0	0
5	0	0	0
6	0	0	0
7	0	0	0
8	0	0	0
9	0	0	0
10	0	0	0
11	0	0	0
12	0	0	0
13	0	0	0
14	0	0	0
15	0	0	0
16	0	0	0
17	0	0	0
18	0	0	0
19	0	0	0
20	0	0	0
21	255	221	220
22	0	0	0
23	0	0	0
24	0	0	0
25	0	0	0
26	255	224	221
27	255	229	223
28	255	235	226
29	255	232	225
30	255	232	228
31	255	225	225
32	253	217	220
33	0	0	0
34	0	0	0
35	0	0	0
36	0	0	0
37	0	0	0
38	0	0	0
39	0	0	0
40	0	0	0
41	0	0	0
42	0	0	0
43	0	0	0
44	0	0	0
45	0	0	0
46	0	0	0
47	0	0	0
48	0	0	0
49	0	0	0
50	0	0	0
51	0	0	0
52	0	0	0
53	255	220	219
54	255	217	217
55	252	207	210
56	0	0	0
57	0	0	0
58	255	217	218
59	253	208	212
60	255	213	215
61	255	214	214
62	254	211	213
63	255	212	217
64	251	206	216
65	249	207	218
66	243	203	218
67	0	0	0
68	0	0	0
69	0	0	0
70	0	0	0
71	0	0	0
72	0	0	0
73	0	0	0
74	0	0	0
75	0	0	0
76	0	0	0
77	0	0	0
78	0	0	0
79	0	0	0
80	0	0	0
81	0	0	0
82	0	0	0
83	0	0	0
84	255	216	217
85	255	215	215
86	255	214	214
87	254	205	209
88	248	196	204
89	254	203	210
90	255	207	211
91	253	200	208
92	247	191	206
93	249	194	210
94	249	195	208
95	248	194	208
96	248	194	211
97	247	195	214
98	242	194	215
99	236	197	217
100	0	0	0
101	0	0	0
102	0	0	0
103	0	0	0
104	0	0	0
105	0	0	0
106	0	0	0
107	0	0	0
108	0	0	0
109	0	0	0
110	0	0	0
111	0	0	0
112	0	0	0
113	0	0	0
114	255	209	213
115	253	204	212
116	255	209	216
117	255	207	211
118	255	205	208
119	255	206	209
120	253	197	205
121	251	194	206
122	255	201	212
123	255	197	209
124	252	191	206
125	248	185	208
126	251	189	213
127	255	198	217
128	254	196	216
129	248	190	214
130	245	190	217
131	238	190	218
132	0	0	0
133	0	0	0
134	0	0	0
135	0	0	0
136	0	0	0
137	0	0	0
138	0	0	0
139	255	228	230
140	253	219	223
141	255	219	223
142	255	220	223
143	255	217	221
144	255	214	219
145	255	213	218
146	255	211	216
147	255	207	213
148	255	201	210
149	255	201	210
150	255	199	207
151	254	197	204
152	255	198	206
153	254	193	205
154	253	190	206
155	252	188	208
156	251	186	208
157	248	180	206
158	244	174	205
159	254	187	215
160	255	195	220
161	251	188	215
162	242	181	212
163	237	184	216
164	0	0	0
165	0	0	0
166	0	0	0
167	0	0	0
168	0	0	0
169	0	0	0
170	0	0	0
171	255	229	230
172	255	221	226
173	252	212	220
174	255	212	221
175	255	210	219
176	255	208	218
177	254	201	213
178	255	200	212
179	255	198	210
180	254	193	207
181	251	187	205
182	252	187	205
183	253	190	205
184	252	188	204
185	255	191	205
186	253	187	205
187	253	185	207
188	250	182	208
189	253	185	212
190	250	180	211
191	252	181	213
192	255	193	224
193	253	184	217
194	241	175	211
195	236	178	214
196	0	0	0
197	0	0	0
198	0	0	0
199	0	0	0
200	0	0	0
201	0	0	0
202	0	0	0
203	255	221	224
204	255	221	223
205	253	211	218
206	250	203	216
207	253	202	217
208	253	200	216
209	252	195	214
210	250	188	211
211	251	187	210
212	251	185	207
213	249	179	203
214	245	172	201
215	247	176	204
216	249	179	206
217	250	180	205
218	252	182	206
219	252	181	207
220	251	178	207
221	250	179	210
222	252	182	213
223	254	183	215
224	255	183	216
225	253	180	216
226	244	171	212
227	240	175	217
228	234	177	221
229	0	0	0
230	0	0	0
231	0	0	0
232	0	0	0
233	0	0	0
234	0	0	0
235	255	220	227
236	255	219	226
237	254	211	218
238	250	202	213
239	253	201	218
240	255	200	220
241	255	197	218
242	255	192	216
243	249	180	210
244	250	179	210
245	255	186	213
246	253	180	210
247	245	169	204
248	245	171	206
249	255	188	216
250	255	189	217
251	255	183	212
252	255	181	212
253	251	175	211
254	251	177	213
255	255	184	217
256	255	185	219
257	247	171	212
258	244	166	212
259	243	171	217
260	239	175	222
261	233	180	226
262	0	0	0
263	0	0	0
264	0	0	0
265	0	0	0
266	0	0	0
267	254	216	224
268	255	216	228
269	253	208	223
270	250	200	216
271	250	197	215
272	252	196	218
273	252	192	217
274	252	188	214
275	248	178	209
276	242	167	203
277	250	175	210
278	255	183	215
279	251	174	210
280	243	163	204
281	252	178	214
282	255	194	222
283	255	184	214
284	251	177	211
285	248	173	210
286	244	168	210
287	249	175	216
288	252	180	217
289	242	167	210
290	232	154	207
291	238	164	217
292	237	168	220
293	237	178	226
294	230	181	227
295	0	0	0
296	0	0	0
297	0	0	0
298	0	0	0
299	0	0	0
300	252	211	222
301	255	212	227
302	253	205	224
303	252	200	220
304	253	197	220
305	255	199	224
306	255	195	223
307	255	188	217
308	251	178	212
309	246	169	208
310	254	178	215
311	255	181	218
312	252	172	213
313	245	163	208
314	255	180	219
315	255	190	221
316	252	178	211
317	249	176	212
318	243	170	210
319	245	175	217
320	250	183	223
321	246	178	218
322	234	164	210
323	229	160	215
324	233	169	225
325	232	173	226
326	236	183	232
327	229	184	230
328	0	0	0
329	0	0	0
330	0	0	0
331	0	0	0
332	0	0	0
333	0	0	0
334	251	206	223
335	249	200	221
336	249	196	221
337	253	196	224
338	255	198	227
339	255	191	223
340	253	184	217
341	251	177	213
342	246	168	210
343	250	172	214
344	252	174	216
345	249	168	213
346	243	160	208
347	254	175	218
348	255	185	221
349	255	181	217
350	251	178	215
351	246	179	216
352	246	182	220
353	245	180	221
354	241	176	219
355	235	171	220
356	229	166	224
357	230	173	231
358	228	176	231
359	230	184	235
360	0	0	0
361	0	0	0
362	0	0	0
363	0	0	0
364	0	0	0
365	0	0	0
366	253	210	229
367	249	203	224
368	244	196	220
369	252	201	228
370	255	203	232
371	255	196	230
372	255	189	225
373	251	180	217
374	248	173	213
375	250	174	216
376	252	176	219
377	255	181	223
378	253	176	221
379	251	171	219
380	255	186	229
381	255	176	218
382	252	173	215
383	248	173	214
384	239	172	213
385	240	178	219
386	240	175	220
387	236	171	220
388	231	167	220
389	230	171	227
390	228	176	232
391	230	186	236
392	230	192	237
393	229	198	237
394	0	0	0
395	0	0	0
396	0	0	0
397	0	0	0
398	252	211	231
399	249	205	228
400	246	199	226
401	249	201	230
402	255	206	237
403	253	198	232
404	252	191	227
405	249	182	221
406	245	173	214
407	251	177	219
408	253	179	220
409	255	183	225
410	255	188	228
411	255	182	226
412	255	178	225
413	253	172	221
414	246	163	211
415	248	166	213
416	244	167	214
417	236	168	215
418	236	174	222
419	234	171	222
420	229	165	219
421	232	172	225
422	230	175	228
423	231	186	233
424	232	196	235
425	231	202	235
426	0	0	0
427	0	0	0
428	0	0	0
429	0	0	0
430	255	222	240
431	252	211	232
432	249	205	229
433	251	205	234
434	255	209	239
435	255	208	241
436	253	198	234
437	255	200	234
438	255	192	229
439	248	178	220
440	254	183	224
441	254	181	224
442	255	186	229
443	253	179	224
444	249	173	221
445	255	182	229
446	255	177	225
447	252	170	219
448	255	175	222
449	250	175	222
450	241	176	222
451	235	175	224
452	227	169	222
453	224	166	221
454	230	175	228
455	227	175	227
456	227	185	229
457	228	195	230
458	0	0	0
459	0	0	0
460	0	0	0
461	0	0	0
462	0	0	0
463	0	0	0
464	244	205	226
465	246	205	230
466	249	206	235
467	251	206	237
468	253	205	237
469	255	204	236
470	255	206	238
471	253	193	229
472	246	179	220
473	249	180	222
474	250	179	225
475	250	176	225
476	246	169	221
477	252	177	228
478	255	186	233
479	254	179	227
480	250	173	223
481	254	177	225
482	249	177	223
483	238	174	220
484	231	173	221
485	225	170	222
486	222	168	224
487	229	177	231
488	227	177	230
489	232	192	236
490	233	202	235
491	0	0	0
492	0	0	0
493	0	0	0
494	0	0	0
495	0	0	0
496	0	0	0
497	0	0	0
498	250	217	237
499	249	212	238
500	249	211	239
501	251	209	238
502	255	210	240
503	254	203	236
504	246	189	227
505	249	190	228
506	253	192	231
507	254	189	233
508	255	186	234
509	252	178	230
510	255	188	237
511	254	182	231
512	245	173	223
513	245	175	224
514	251	180	228
515	247	179	225
516	239	177	223
517	230	172	221
518	222	168	221
519	225	175	228
520	232	183	236
521	233	185	236
522	243	202	245
523	234	198	235
524	0	0	0
525	0	0	0
526	0	0	0
527	0	0	0
528	0	0	0
529	0	0	0
530	0	0	0
531	252	223	239
532	250	218	241
533	247	214	241
534	247	211	238
535	246	204	234
536	245	198	234
537	248	199	237
538	252	200	238
539	251	196	236
540	252	193	235
541	253	189	234
542	251	182	230
543	253	182	232
544	248	177	226
545	244	177	225
546	245	179	229
547	249	182	232
548	246	181	229
549	235	175	224
550	226	170	222
551	227	177	228
552	230	183	233
553	239	191	239
554	240	194	240
555	240	196	240
556	231	192	234
557	0	0	0
558	0	0	0
559	0	0	0
560	0	0	0
561	0	0	0
562	0	0	0
563	252	231	243
564	254	227	242
565	250	218	241
566	243	212	238
567	248	220	243
568	242	210	237
569	245	209	240
570	252	212	245
571	253	209	244
572	251	204	240
573	251	200	239
574	254	197	238
575	251	188	234
576	253	189	235
577	247	181	229
578	246	182	231
579	249	185	234
580	253	189	238
581	245	182	232
582	231	174	225
583	228	176	228
584	234	186	236
585	232	182	233
586	242	191	240
587	240	191	237
588	235	191	235
589	234	200	238
590	0	0	0
591	0	0	0
592	0	0	0
593	0	0	0
594	0	0	0
595	0	0	0
596	0	0	0
597	250	225	241
598	243	215	237
599	242	219	241
600	247	227	246
601	242	220	241
602	242	217	242
603	246	215	243
604	247	212	242
605	244	206	239
606	245	203	238
607	246	197	237
608	244	189	232
609	247	187	233
610	243	181	231
611	246	185	234
612	246	187	234
613	244	184	232
614	236	177	228
615	229	178	228
616	228	181	231
617	229	181	233
618	228	178	232
619	238	187	238
620	235	186	233
621	236	197	236
622	236	206	239
623	0	0	0
624	0	0	0
625	0	0	0
626	0	0	0
627	0	0	0
628	0	0	0
629	0	0	0
630	0	0	0
631	0	0	0
632	0	0	0
633	0	0	0
634	0	0	0
635	0	0	0
636	0	0	0
637	0	0	0
638	0	0	0
639	244	216	243
640	244	209	240
641	243	201	237
642	250	202	241
643	246	192	239
644	251	197	244
645	242	189	235
646	232	181	227
647	230	184	229
648	233	190	235
649	227	185	232
650	226	183	233
651	226	182	233
652	236	191	239
653	235	193	235
654	237	204	238
655	236	211	239
656	0	0	0
657	0	0	0
658	0	0	0
659	0	0	0
660	0	0	0
661	0	0	0
662	0	0	0
663	0	0	0
664	0	0	0
665	0	0	0
666	0	0	0
667	0	0	0
668	0	0	0
669	0	0	0
670	0	0	0
671	0	0	0
672	0	0	0
673	242	219	241
674	241	211	238
675	244	206	240
676	242	197	240
677	244	196	242
678	238	190	234
679	236	193	234
680	236	196	235
681	235	194	235
682	231	189	233
683	230	190	234
684	229	188	234
685	238	198	240
686	238	201	237
687	239	210	239
688	239	216	240
689	0	0	0
690	0	0	0
691	0	0	0
692	0	0	0
693	0	0	0
694	0	0	0
695	0	0	0
696	0	0	0
697	0	0	0
698	0	0	0
699	0	0	0
700	0	0	0
701	0	0	0
702	0	0	0
703	0	0	0
704	0	0	0
705	0	0	0
706	0	0	0
707	0	0	0
708	0	0	0
709	0	0	0
710	0	0	0
711	244	204	242
712	252	212	248
713	242	198	238
714	239	194	236
715	237	192	235
716	236	193	236
717	235	194	236
718	242	203	241
719	239	204	236
720	242	214	240
721	0	0	0
722	0	0	0
723	0	0	0
724	0	0	0
725	0	0	0
726	0	0	0
727	0	0	0
728	0	0	0
729	0	0	0
730	0	0	0
731	0	0	0
732	0	0	0
733	0	0	0
734	0	0	0
735	0	0	0
736	0	0	0
737	0	0	0
738	0	0	0
739	0	0	0
740	0	0	0
741	0	0	0
742	0	0	0
743	0	0	0
744	0	0	0
745	241	202	238
746	235	190	233
747	239	194	237
748	236	192	234
749	238	197	237
750	237	197	235
751	240	204	238
752	238	205	235
753	239	212	237
754	0	0	0
755	0	0	0
756	0	0	0
757	0	0	0
758	0	0	0
759	0	0	0
760	0	0	0
761	0	0	0
762	0	0	0
763	0	0	0
764	0	0	0
765	0	0	0
766	0	0	0
767	0	0	0
768	0	0	0
769	0	0	0
770	0	0	0
771	0	0	0
772	0	0	0
773	0	0	0
774	0	0	0
775	0	0	0
776	0	0	0
777	0	0	0
778	0	0	0
779	239	207	240
780	247	213	247
781	236	196	234
782	237	201	236
783	232	197	233
784	236	204	236
785	235	207	235
786	0	0	0
787	0	0	0
788	0	0	0
789	0	0	0
790	0	0	0
791	0	0	0
792	0	0	0
793	0	0	0
794	0	0	0
795	0	0	0
796	0	0	0
797	0	0	0
798	0	0	0
799	0	0	0
800	0	0	0
801	0	0	0
802	0	0	0
803	0	0	0
804	0	0	0
805	0	0	0
806	0	0	0
807	0	0	0
808	0	0	0
809	0	0	0
810	0	0	0
811	0	0	0
812	0	0	0
813	244	213	240
814	234	197	229
815	236	201	234
816	232	199	235
817	235	207	239
818	0	0	0
819	0	0	0
820	0	0	0
821	0	0	0
822	0	0	0
823	0	0	0
824	0	0	0
825	0	0	0
826	0	0	0
827	0	0	0
828	0	0	0
829	0	0	0
830	0	0	0
831	0	0	0
832	0	0	0
833	0	0	0
834	0	0	0
835	0	0	0
836	0	0	0
837	0	0	0
838	0	0	0
839	0	0	0
840	0	0	0
841	0	0	0
842	0	0	0
843	0	0	0
844	0	0	0
845	0	0	0
846	0	0	0
847	0	0	0
848	244	212	239
849	236	205	237
850	0	0	0
851	0	0	0
852	0	0	0
853	0	0	0
854	0	0	0
855	0	0	0
856	0	0	0
857	0	0	0
858	0	0	0
