 	R	G	B
1	0	0	0
2	0	0	0
3	0	0	0
4	0	0	0
5	0	0	0
6	0	0	0
7	0	0	0
8	255	243	255
9	255	250	255
10	0	0	0
11	0	0	0
12	0	0	0
13	0	0	0
14	0	0	0
15	0	0	0
16	0	0	0
17	0	0	0
18	0	0	0
19	0	0	0
20	0	0	0
21	0	0	0
22	0	0	0
23	0	0	0
24	0	0	0
25	0	0	0
26	0	0	0
27	0	0	0
28	0	0	0
29	0	0	0
30	0	0	0
31	0	0	0
32	0	0	0
33	0	0	0
34	0	0	0
35	0	0	0
36	0	0	0
37	255	221	255
38	255	235	255
39	255	227	255
40	255	229	255
41	0	0	0
42	0	0	0
43	0	0	0
44	0	0	0
45	0	0	0
46	0	0	0
47	0	0	0
48	0	0	0
49	0	0	0
50	0	0	0
51	0	0	0
52	0	0	0
53	0	0	0
54	0	0	0
55	0	0	0
56	0	0	0
57	0	0	0
58	0	0	0
59	0	0	0
60	0	0	0
61	0	0	0
62	240	192	240
63	236	184	236
64	236	182	236
65	230	174	230
66	244	193	243
67	253	208	252
68	249	203	248
69	243	196	242
70	246	201	245
71	244	201	244
72	254	217	253
73	255	231	255
74	255	237	255
75	255	245	255
76	255	249	255
77	255	252	255
78	255	254	255
79	0	0	0
80	0	0	0
81	0	0	0
82	0	0	0
83	0	0	0
84	0	0	0
85	0	0	0
86	0	0	0
87	0	0	0
88	0	0	0
89	0	0	0
90	0	0	0
91	255	217	255
92	255	215	255
93	246	196	246
94	247	195	247
95	248	195	248
96	255	215	255
97	254	202	253
98	252	199	251
99	249	194	249
100	254	201	254
101	249	194	248
102	255	210	255
103	252	204	251
104	254	210	253
105	253	214	253
106	255	225	255
107	255	234	255
108	255	232	254
109	255	243	255
110	0	0	0
111	0	0	0
112	0	0	0
113	0	0	0
114	0	0	0
115	0	0	0
116	0	0	0
117	0	0	0
118	0	0	0
119	0	0	0
120	0	0	0
121	255	225	255
122	250	211	250
123	241	193	241
124	249	200	249
125	251	201	251
126	246	191	246
127	238	180	238
128	242	181	242
129	242	178	241
130	244	180	244
131	240	175	240
132	241	175	241
133	235	170	235
134	241	179	241
135	240	183	240
136	245	194	245
137	248	204	247
138	251	212	250
139	255	223	254
140	255	233	255
141	255	246	255
142	0	0	0
143	0	0	0
144	0	0	0
145	0	0	0
146	0	0	0
147	0	0	0
148	0	0	0
149	0	0	0
150	0	0	0
151	255	240	255
152	255	225	255
153	244	203	244
154	253	211	253
155	255	211	255
156	253	204	253
157	253	199	253
158	255	202	255
159	246	181	246
160	250	184	250
161	251	183	251
162	253	185	253
163	246	174	246
164	253	185	253
165	247	180	247
166	252	192	252
167	251	195	251
168	254	204	253
169	254	209	253
170	255	218	255
171	255	223	255
172	255	231	255
173	0	0	0
174	0	0	0
175	0	0	0
176	0	0	0
177	0	0	0
178	0	0	0
179	0	0	0
180	0	0	0
181	0	0	0
182	252	228	253
183	0	0	0
184	247	211	248
185	251	212	251
186	252	208	252
187	254	205	254
188	247	190	247
189	237	170	236
190	245	176	245
191	247	176	247
192	246	172	246
193	240	163	240
194	242	165	242
195	237	161	237
196	243	171	243
197	243	175	243
198	246	184	246
199	247	190	247
200	250	199	250
201	249	203	249
202	254	216	254
203	255	228	255
204	255	235	255
205	0	0	0
206	0	0	0
207	0	0	0
208	0	0	0
209	0	0	0
210	0	0	0
211	0	0	0
212	0	0	0
213	0	0	0
214	0	0	0
215	255	227	255
216	255	223	255
217	255	214	255
218	251	200	251
219	246	186	246
220	255	194	255
221	252	184	251
222	252	181	252
223	247	172	247
224	251	176	251
225	248	172	248
226	255	183	255
227	250	179	250
228	255	190	255
229	252	187	252
230	255	197	255
231	246	187	246
232	252	200	251
233	255	212	255
234	255	219	255
235	255	225	254
236	0	0	0
237	0	0	0
238	0	0	0
239	0	0	0
240	0	0	0
241	0	0	0
242	0	0	0
243	0	0	0
244	0	0	0
245	0	0	0
246	253	225	253
247	0	0	0
248	249	205	249
249	244	191	244
250	246	188	246
251	243	178	243
252	244	175	244
253	241	168	241
254	246	172	246
255	245	169	245
256	247	172	247
257	244	169	244
258	246	172	246
259	244	172	244
260	242	170	242
261	233	162	233
262	244	180	243
263	248	192	248
264	248	199	247
265	247	205	247
266	253	219	252
267	255	235	255
268	255	246	255
269	255	251	255
270	0	0	0
271	0	0	0
272	0	0	0
273	0	0	0
274	0	0	0
275	0	0	0
276	0	0	0
277	0	0	0
278	255	228	255
279	249	207	249
280	252	204	252
281	251	197	251
282	254	195	254
283	250	186	250
284	255	191	255
285	249	178	249
286	253	182	253
287	252	181	252
288	255	185	255
289	251	178	251
290	250	178	250
291	244	170	244
292	255	190	255
293	249	186	249
294	251	194	250
295	254	205	253
296	255	219	255
297	255	218	254
298	255	228	255
299	255	228	254
300	255	233	253
301	0	0	0
302	0	0	0
303	0	0	0
304	0	0	0
305	0	0	0
306	0	0	0
307	0	0	0
308	0	0	0
309	251	220	250
310	252	214	252
311	252	208	252
312	253	203	253
313	250	194	250
314	249	188	248
315	242	176	242
316	248	180	248
317	249	180	249
318	248	177	248
319	244	170	244
320	243	169	243
321	237	163	237
322	241	169	241
323	236	167	236
324	246	183	246
325	251	195	250
326	248	196	248
327	244	195	243
328	244	199	243
329	241	199	240
330	247	212	246
331	0	0	0
332	0	0	0
333	0	0	0
334	0	0	0
335	0	0	0
336	0	0	0
337	0	0	0
338	0	0	0
339	0	0	0
340	0	0	0
341	255	229	255
342	255	223	255
343	251	205	250
344	250	199	250
345	252	197	252
346	255	202	255
347	249	187	249
348	249	185	249
349	250	184	250
350	251	184	251
351	252	185	252
352	255	192	255
353	247	180	247
354	255	198	255
355	253	195	253
356	252	197	252
357	252	200	252
358	254	205	253
359	246	198	245
360	0	0	0
361	0	0	0
362	0	0	0
363	0	0	0
364	0	0	0
365	0	0	0
366	0	0	0
367	0	0	0
368	0	0	0
369	0	0	0
370	0	0	0
371	0	0	0
372	255	231	255
373	248	213	248
374	250	211	250
375	252	209	252
376	247	197	247
377	238	182	238
378	246	188	245
379	248	189	248
380	254	196	255
381	255	198	255
382	252	191	252
383	243	180	243
384	245	182	245
385	242	180	242
386	246	187	245
387	248	192	247
388	245	190	245
389	0	0	0
390	0	0	0
391	0	0	0
392	0	0	0
393	0	0	0
394	0	0	0
395	0	0	0
396	0	0	0
397	0	0	0
398	0	0	0
399	0	0	0
400	0	0	0
401	0	0	0
402	0	0	0
403	0	0	0
404	0	0	0
405	0	0	0
406	0	0	0
407	253	212	252
408	255	218	255
409	252	203	252
410	255	211	255
411	250	196	250
412	0	0	0
413	0	0	0
414	0	0	0
415	0	0	0
416	0	0	0
417	0	0	0
418	0	0	0
419	0	0	0
420	0	0	0
421	0	0	0
422	0	0	0
423	0	0	0
424	0	0	0
425	0	0	0
426	0	0	0
427	0	0	0
428	0	0	0
429	0	0	0
430	0	0	0
431	0	0	0
432	0	0	0
433	0	0	0
434	0	0	0
435	0	0	0
436	0	0	0
437	0	0	0
438	255	225	255
439	248	210	248
440	243	200	244
441	0	0	0
442	0	0	0
443	0	0	0
444	0	0	0
445	0	0	0
446	0	0	0
447	0	0	0
448	0	0	0
449	0	0	0
450	0	0	0
