 	R	G	B
1	0	0	0
2	0	0	0
3	0	0	0
4	0	0	0
5	0	0	0
6	0	0	0
7	0	0	0
8	0	0	0
9	0	0	0
10	0	0	0
11	0	0	0
12	0	0	0
13	0	0	0
14	0	0	0
15	0	0	0
16	0	0	0
17	0	0	0
18	255	246	254
19	0	0	0
20	0	0	0
21	0	0	0
22	0	0	0
23	0	0	0
24	0	0	0
25	0	0	0
26	0	0	0
27	0	0	0
28	0	0	0
29	0	0	0
30	0	0	0
31	0	0	0
32	0	0	0
33	0	0	0
34	0	0	0
35	0	0	0
36	0	0	0
37	0	0	0
38	0	0	0
39	0	0	0
40	0	0	0
41	0	0	0
42	0	0	0
43	255	255	253
44	255	254	255
45	255	252	255
46	255	245	255
47	255	244	255
48	255	241	255
49	255	237	254
50	255	233	252
51	255	226	250
52	253	220	251
53	0	0	0
54	0	0	0
55	252	212	251
56	253	212	252
57	254	213	253
58	254	213	253
59	0	0	0
60	0	0	0
61	0	0	0
62	0	0	0
63	0	0	0
64	0	0	0
65	0	0	0
66	0	0	0
67	0	0	0
68	0	0	0
69	0	0	0
70	0	0	0
71	255	254	254
72	255	252	255
73	255	250	255
74	255	239	250
75	253	233	248
76	255	236	253
77	255	235	255
78	255	228	251
79	255	224	251
80	254	219	249
81	252	212	248
82	254	213	251
83	252	208	251
84	253	208	252
85	253	208	253
86	254	208	254
87	254	208	253
88	250	205	250
89	251	207	250
90	0	0	0
91	0	0	0
92	0	0	0
93	0	0	0
94	0	0	0
95	0	0	0
96	0	0	0
97	0	0	0
98	255	250	254
99	255	252	255
100	255	252	255
101	255	247	253
102	255	242	252
103	253	232	248
104	248	221	241
105	253	225	246
106	255	229	252
107	255	222	250
108	253	215	246
109	253	211	247
110	252	206	247
111	252	205	250
112	254	205	252
113	254	204	252
114	253	202	252
115	253	203	252
116	253	203	253
117	250	199	249
118	245	195	245
119	248	202	248
120	250	208	250
121	0	0	0
122	0	0	0
123	0	0	0
124	0	0	0
125	0	0	0
126	0	0	0
127	253	242	250
128	255	243	252
129	255	246	255
130	255	240	251
131	255	235	250
132	255	234	253
133	254	225	249
134	250	216	243
135	255	220	249
136	255	218	250
137	255	211	248
138	252	204	246
139	251	199	246
140	249	193	245
141	249	192	246
142	255	202	254
143	255	200	253
144	250	193	248
145	250	193	248
146	254	201	254
147	250	197	250
148	251	201	251
149	253	208	253
150	252	211	252
151	0	0	0
152	0	0	0
153	0	0	0
154	0	0	0
155	0	0	0
156	249	233	247
157	252	235	249
158	255	237	252
159	253	232	250
160	252	228	246
161	253	226	248
162	255	225	251
163	253	217	249
164	249	208	245
165	251	206	246
166	252	204	247
167	250	197	245
168	247	189	244
169	246	185	244
170	242	178	239
171	249	187	246
172	255	196	250
173	250	189	246
174	246	183	244
175	251	191	250
176	255	198	254
177	255	202	255
178	255	206	255
179	255	212	255
180	255	215	254
181	0	0	0
182	0	0	0
183	0	0	0
184	0	0	0
185	250	232	248
186	255	237	253
187	255	239	255
188	255	235	254
189	255	231	253
190	254	225	250
191	255	223	251
192	254	217	250
193	251	208	248
194	254	209	250
195	255	207	252
196	254	200	250
197	252	193	248
198	250	187	248
199	248	182	247
200	249	183	247
201	255	191	252
202	255	193	251
203	251	186	246
204	250	186	249
205	255	194	255
206	254	196	254
207	254	200	254
208	254	204	253
209	254	209	253
210	248	207	248
211	0	0	0
212	0	0	0
213	0	0	0
214	0	0	0
215	255	235	254
216	255	240	255
217	255	234	254
218	255	230	252
219	254	224	251
220	253	218	250
221	252	212	249
222	250	206	247
223	251	205	247
224	254	205	249
225	251	197	246
226	248	189	245
227	247	184	245
228	245	177	244
229	249	181	248
230	250	182	248
231	254	187	252
232	255	189	251
233	255	189	251
234	254	189	253
235	255	193	255
236	253	194	253
237	252	197	252
238	252	201	251
239	248	202	248
240	242	200	242
241	0	0	0
242	0	0	0
243	0	0	0
244	0	0	0
245	255	231	254
246	255	237	255
247	255	230	253
248	255	230	254
249	255	224	254
250	251	212	249
251	250	206	248
252	252	206	250
253	254	205	251
254	255	207	253
255	253	198	249
256	250	190	248
257	249	184	247
258	254	188	253
259	255	192	255
260	252	182	250
261	255	186	253
262	252	182	249
263	252	183	250
264	248	179	247
265	248	182	248
266	255	196	255
267	253	199	253
268	253	203	253
269	249	204	249
270	250	212	250
271	0	0	0
272	0	0	0
273	0	0	0
274	0	0	0
275	253	227	252
276	255	232	254
277	255	227	251
278	255	228	254
279	250	213	247
280	244	200	242
281	249	203	247
282	251	203	249
283	253	204	251
284	255	205	254
285	253	196	250
286	249	187	247
287	255	192	252
288	255	195	255
289	254	187	252
290	247	176	245
291	246	174	245
292	244	170	242
293	243	170	242
294	239	166	238
295	248	182	248
296	254	195	254
297	252	199	252
298	251	204	251
299	253	214	253
300	254	223	254
301	0	0	0
302	0	0	0
303	0	0	0
304	252	224	251
305	255	231	255
306	255	226	252
307	253	222	249
308	255	227	254
309	251	212	246
310	251	209	248
311	255	211	253
312	255	208	253
313	255	208	255
314	255	205	255
315	252	195	250
316	250	190	249
317	255	194	254
318	255	192	254
319	250	183	249
320	251	182	249
321	250	181	249
322	252	183	252
323	252	183	252
324	245	177	245
325	254	193	254
326	254	198	254
327	251	202	251
328	254	212	254
329	255	222	255
330	255	226	255
331	0	0	0
332	0	0	0
333	255	232	255
334	254	226	252
335	253	223	251
336	250	219	248
337	253	221	250
338	255	225	253
339	255	220	251
340	255	216	252
341	255	213	252
342	255	210	253
343	253	204	251
344	252	200	250
345	250	194	248
346	248	189	247
347	250	189	249
348	249	186	248
349	250	186	248
350	251	185	250
351	253	188	253
352	255	190	254
353	252	188	252
354	245	181	245
355	250	192	250
356	250	197	249
357	254	209	254
358	255	220	255
359	255	226	255
360	255	230	255
361	0	0	0
362	0	0	0
363	251	223	250
364	255	230	255
365	255	227	254
366	254	222	252
367	255	225	254
368	255	225	254
369	255	218	251
370	253	213	249
371	252	209	249
372	255	216	255
373	255	210	253
374	255	208	253
375	253	202	251
376	255	202	254
377	255	200	255
378	252	193	250
379	252	192	251
380	254	194	253
381	255	196	255
382	254	195	254
383	251	192	251
384	251	195	251
385	255	205	255
386	253	206	252
387	255	218	255
388	255	220	255
389	255	227	255
390	252	230	252
391	0	0	0
392	245	218	245
393	255	228	255
394	255	236	255
395	255	232	255
396	255	227	255
397	255	226	255
398	255	226	255
399	255	219	255
400	254	213	252
401	255	219	255
402	255	224	255
403	255	219	255
404	255	216	255
405	255	214	255
406	255	212	255
407	255	206	255
408	253	198	252
409	254	200	254
410	255	201	255
411	255	201	255
412	254	200	253
413	255	206	255
414	255	208	255
415	255	210	255
416	252	211	252
417	251	215	251
418	249	217	249
419	249	223	249
420	0	0	0
421	0	0	0
422	255	229	253
423	255	240	255
424	253	221	252
425	251	217	251
426	255	221	254
427	255	220	254
428	255	222	255
429	255	215	253
430	253	211	252
431	255	216	255
432	255	215	253
433	252	209	249
434	255	215	255
435	255	211	255
436	255	210	255
437	252	202	251
438	253	203	252
439	254	205	254
440	255	211	255
441	255	210	255
442	250	201	250
443	253	206	253
444	253	210	253
445	0	0	0
446	0	0	0
447	255	229	255
448	0	0	0
449	0	0	0
450	0	0	0
451	0	0	0
452	255	240	255
453	254	224	250
454	243	206	242
455	249	213	249
456	253	217	252
457	254	217	253
458	255	219	254
459	254	214	252
460	252	210	251
461	252	209	251
462	252	208	250
463	255	212	253
464	255	217	255
465	255	214	255
466	255	211	255
467	255	211	255
468	255	212	255
469	255	217	255
470	255	221	255
471	255	212	252
472	247	202	246
473	250	209	250
474	0	0	0
475	0	0	0
476	0	0	0
477	0	0	0
478	0	0	0
479	0	0	0
480	0	0	0
481	0	0	0
482	255	231	252
483	249	216	245
484	249	213	247
485	255	220	255
486	255	219	255
487	255	219	255
488	255	216	253
489	253	211	251
490	252	209	251
491	252	209	251
492	255	218	255
493	255	221	255
494	253	209	252
495	250	205	249
496	255	213	255
497	255	212	255
498	254	212	254
499	255	216	255
500	255	215	252
501	247	205	244
502	252	215	251
503	254	221	254
504	254	225	253
505	0	0	0
506	0	0	0
507	0	0	0
508	0	0	0
509	0	0	0
510	0	0	0
511	251	225	248
512	254	225	251
513	255	222	252
514	254	219	253
515	255	221	255
516	255	220	255
517	255	217	255
518	255	215	255
519	255	214	255
520	255	211	253
521	255	219	255
522	255	227	255
523	255	213	253
524	247	201	246
525	253	209	252
526	255	217	255
527	255	215	254
528	254	214	254
529	253	214	253
530	251	213	250
531	255	222	254
532	255	231	255
533	255	235	255
534	0	0	0
535	0	0	0
536	0	0	0
537	0	0	0
538	0	0	0
539	0	0	0
540	0	0	0
541	255	233	255
542	253	223	251
543	254	220	252
544	255	219	253
545	255	221	255
546	253	211	251
547	252	209	252
548	255	212	255
549	255	210	254
550	251	205	250
551	255	212	254
552	255	217	255
553	248	202	246
554	251	207	250
555	255	215	255
556	255	215	254
557	253	213	251
558	253	214	252
559	251	213	251
560	253	220	253
561	255	228	255
562	254	229	254
563	0	0	0
564	0	0	0
565	0	0	0
566	0	0	0
567	0	0	0
568	0	0	0
569	0	0	0
570	0	0	0
571	0	0	0
572	252	220	251
573	254	220	253
574	255	218	253
575	251	210	249
576	246	201	245
577	250	204	249
578	252	206	252
579	249	202	249
580	245	196	245
581	248	201	247
582	251	206	250
583	252	208	251
584	254	212	253
585	254	213	254
586	253	214	252
587	252	214	251
588	251	214	250
589	253	221	253
590	255	226	255
591	251	227	252
592	0	0	0
593	0	0	0
594	0	0	0
595	0	0	0
596	0	0	0
597	0	0	0
598	0	0	0
599	0	0	0
600	0	0	0
601	0	0	0
602	254	222	253
603	255	222	255
604	254	216	253
605	251	209	249
606	252	208	251
607	255	211	255
608	254	209	254
609	251	204	250
610	251	205	251
611	254	210	253
612	253	210	253
613	254	212	254
614	255	215	255
615	254	216	254
616	252	215	252
617	251	215	251
618	253	221	252
619	255	227	255
620	0	0	0
621	0	0	0
622	0	0	0
623	0	0	0
624	0	0	0
625	0	0	0
626	0	0	0
627	0	0	0
628	0	0	0
629	0	0	0
630	0	0	0
631	0	0	0
632	0	0	0
633	255	219	254
634	253	214	252
635	254	213	253
636	254	212	254
637	254	211	254
638	252	208	252
639	253	209	252
640	253	210	252
641	252	210	252
642	250	210	250
643	251	212	251
644	252	215	252
645	250	214	250
646	248	214	248
647	252	221	252
648	253	226	253
649	0	0	0
650	0	0	0
651	0	0	0
652	0	0	0
653	0	0	0
654	0	0	0
655	0	0	0
656	0	0	0
657	0	0	0
658	0	0	0
659	0	0	0
660	0	0	0
661	0	0	0
662	0	0	0
663	0	0	0
664	254	217	254
665	255	215	255
666	252	211	252
667	251	208	251
668	252	211	252
669	253	212	252
670	253	214	253
671	0	0	0
672	0	0	0
673	0	0	0
674	253	222	253
675	0	0	0
676	0	0	0
677	255	234	255
678	0	0	0
679	0	0	0
680	0	0	0
681	0	0	0
682	0	0	0
683	0	0	0
684	0	0	0
685	0	0	0
686	0	0	0
687	0	0	0
688	0	0	0
689	0	0	0
690	0	0	0
691	0	0	0
692	0	0	0
693	0	0	0
694	0	0	0
695	250	212	250
696	246	206	246
697	248	209	248
698	249	212	249
699	249	213	249
700	0	0	0
701	0	0	0
702	0	0	0
703	0	0	0
704	0	0	0
705	0	0	0
706	0	0	0
707	0	0	0
708	0	0	0
709	0	0	0
710	0	0	0
711	0	0	0
712	0	0	0
713	0	0	0
714	0	0	0
715	0	0	0
716	0	0	0
717	0	0	0
718	0	0	0
719	0	0	0
720	0	0	0
